time_range,Acceleration_Y
0,979.0
1,861.0
2,935.5
3,843.0
4,905.0
5,890.0
6,884.0
7,1014.0
8,966.0
9,930.0
10,954.0
11,867.0
12,1111.0
13,1017.0
14,1081.0
15,1049.0
16,902.0
17,1059.5
18,900.0
19,1048.0
20,1022.0
21,996.0
22,1034.0
23,934.0
24,906.0
25,1022.0
26,935.0
27,1003.0
28,997.1666666666667
29,991.3333333333334
30,1036.0
31,997.0
32,1025.0
33,933.0
34,1039.5
35,945.0
36,1270.0
37,1063.0
38,997.0
39,986.0
40,780.0
41,963.0
42,947.0
43,882.0
44,943.0
45,949.0
46,1079.0
47,980.0
48,930.0
49,968.5
50,956.0
51,1040.0
52,1204.0
53,935.0
54,1088.0
55,971.0
56,949.0
57,1055.0
58,922.0
59,990.0
60,750.0
61,1031.0
62,955.0
63,875.5
64,967.0
65,1016.0
66,1057.0
67,1034.0
68,943.0
69,1050.0
70,988.0
71,1013.0
72,1217.0
73,989.0
74,1017.5
75,1075.0
76,1055.0
77,899.0
78,967.5
79,945.25
80,923.0
81,937.75
82,952.5
83,954.0
84,943.0
85,964.0
86,996.0
87,924.0
88,1101.0
89,974.0
90,1049.0
91,1059.0
92,898.0
93,961.0
94,980.0
95,952.0
96,943.5
97,861.0
98,928.0
99,970.0
100,893.0
101,956.0
102,937.0
103,914.0
104,1069.5
105,975.0
106,1138.0
107,1013.0
108,1090.0
109,1078.0
110,1019.0
111,1170.0
112,901.0
113,1033.5
114,1056.5
115,1079.0
116,936.0
117,906.0
118,1005.0
119,927.0
120,1087.0
121,1037.0
122,1048.0
123,1059.0
124,954.0
125,1132.0
126,996.0
127,1040.0
128,1116.0
129,1050.75
130,985.5
131,884.0
132,950.0
133,1071.0
134,881.0
135,918.0
136,885.0
137,861.0
138,911.0
139,956.0
140,1077.0
141,991.0
142,954.0
143,1246.0
144,953.0
145,990.0
146,1060.5
147,956.0
148,1057.0
149,950.0
150,936.0
151,925.0
152,911.0
153,875.0
154,915.0
155,913.0
156,954.0
157,1129.0
158,1007.0
159,1085.0
160,1179.0
161,1001.0
162,1097.0
163,996.0
164,1025.0
165,1205.0
166,1022.0
167,1081.0
168,936.0
169,828.0
170,897.0
171,910.0
172,972.5
173,1035.0
174,871.0
175,1028.0
176,976.0
177,1006.0
178,985.0
179,1014.0
180,1020.0
181,968.5
182,952.0833333333333
183,935.6666666666666
184,998.0
185,1054.0
186,826.0
187,963.0
188,891.0
189,770.0
190,878.5
191,930.0
192,1041.0
193,917.0
194,1063.5
195,1036.0
196,1053.0
197,1021.5
198,990.0
199,1070.0
