time_range,Acceleration_Y
0,919.0
1,919.0
2,1018.5
3,961.0
4,1075.0
5,1144.0
6,1001.5
7,985.0
8,1032.0
9,995.0
10,1001.0
11,985.0
12,1061.0
13,988.0
14,1061.0
15,998.0
16,963.0
17,858.0
18,969.0
19,1208.0
20,898.0
21,891.0
22,1026.0
23,1018.0
24,1051.0
25,1069.0
26,982.0
27,926.0
28,943.0
29,939.0
30,1099.0
31,801.0
32,801.0
33,1187.0
34,1097.0
35,880.0
36,920.0
37,969.0
38,931.5
39,982.0
40,1025.5
41,986.0
42,959.0
43,1193.0
44,1080.0
45,790.0
46,983.0
47,1057.0
48,1048.0
49,1038.0
50,1100.0
51,995.0
52,977.0
53,961.0
54,1025.0
55,1074.0
56,921.0
57,1058.0
58,1052.0
59,917.0
60,897.0
61,968.0
62,895.0
63,908.0
64,1019.0
65,1072.5
66,975.0
67,1025.0
68,1005.0
69,1065.0
70,847.0
71,983.0
72,1147.0
73,909.0
74,910.0
75,1167.0
76,1063.0
77,857.0
78,973.5
79,994.6666666666666
80,1015.8333333333334
81,1037.0
82,1001.5
83,996.0
84,977.0
85,1063.0
86,979.0
87,824.0
88,1058.0
89,1127.0
90,1042.5
91,824.0
92,880.5
93,1144.0
94,1052.0
95,1006.0
96,960.0
97,1041.0
98,916.0
99,956.0
100,1044.0
101,972.0
102,900.0
103,1012.5
104,1029.0
105,843.0
106,833.0
107,1056.0
108,1101.0
109,1049.0
110,1025.0
111,1058.5
112,944.0
113,867.0
114,1144.0
115,980.0
116,891.0
117,1072.5
118,1047.0
119,959.0
120,986.0
121,974.0
122,968.0
123,964.5
124,1111.0
125,1032.0
126,941.0
127,1017.0
128,1061.0
129,970.0
130,917.0
131,1016.0
132,950.0
133,956.0
134,1020.0
135,1040.0
136,1012.5
137,868.0
138,997.0
139,1099.0
140,1012.0
141,922.0
142,978.0
143,1011.0
144,1023.0
145,1077.0
146,988.0
147,908.0
148,971.0
149,1016.0
150,1089.0
151,815.0
152,890.0
153,1175.0
154,1005.0
155,830.0
156,1119.0
157,953.5
158,924.0
159,1028.0
160,1077.0
161,911.0
162,946.0
163,1240.0
164,908.0
165,791.0
166,1017.0
167,886.0
168,917.0
169,1063.0
170,1084.0
171,979.0
172,974.0
173,955.0
174,1092.0
175,943.0
176,836.0
177,1198.0
178,1128.0
179,1029.0
180,1038.0
181,1022.75
182,1007.5
183,879.0
184,1023.0
185,997.0
186,989.5
187,975.0
188,1037.0
189,1029.0
190,853.0
191,922.0
192,945.0
193,916.0
194,997.0
195,1166.0
196,1059.0
197,822.0
198,979.0
199,1012.5
