time_range,Acceleration_Y
0,1103.0
1,1019.0
2,1008.0
3,897.0
4,1009.0
5,1043.0
6,993.0
7,973.5
8,894.0
9,1006.0
10,1135.0
11,1025.0
12,982.0
13,892.0
14,840.0
15,891.0
16,941.0
17,859.0
18,949.0
19,954.0
20,994.0
21,990.0
22,812.0
23,921.75
24,1031.5
25,850.0
26,1006.0
27,1079.0
28,939.0
29,986.0
30,1155.0
31,1048.0
32,996.0
33,926.0
34,976.0
35,1043.0
36,911.5
37,1048.0
38,916.0
39,1058.0
40,1054.25
41,1050.5
42,807.0
43,1045.0
44,1111.0
45,1066.0
46,1039.0
47,1003.5
48,1040.0
49,1053.5
50,758.0
51,1089.0
52,1001.5
53,1021.5
54,1051.0
55,929.0
56,927.0
57,952.3333333333334
58,977.6666666666666
59,1003.0
60,1089.0
61,1069.5
62,1076.0
63,1089.0
64,1027.5
65,945.0
66,802.0
67,988.0
68,1076.0
69,1014.0
70,781.0
71,862.0
72,1138.0
73,1037.0
74,1014.0
75,957.0
76,965.0
77,1054.0
78,1026.3333333333333
79,975.9166666666666
80,925.5
81,1036.0
82,1099.0
83,1099.0
84,1099.0
85,860.25
86,1056.0
87,754.0
88,896.0
89,982.0
90,956.0
91,1074.0
92,1034.0
93,945.0
94,1062.0
95,1050.0
96,1009.0
97,981.0
98,939.5
99,1043.0
100,1190.0
101,871.0
102,860.0
103,1049.0
104,941.0
105,921.0
106,1009.0
107,1004.0
108,914.0
109,1049.0
110,1057.0
111,1049.0
112,976.0
113,868.0
114,1183.0
115,1105.0
116,1033.6666666666667
117,966.0
118,928.0
119,1011.0
120,1012.0
121,836.0
122,1051.0
123,991.0
124,885.0
125,971.8333333333334
126,1058.6666666666667
127,1094.0
128,1020.0
129,1113.0
130,936.0
131,937.5
132,877.0
133,976.0
134,1014.0
135,979.0
136,915.5
137,1137.0
138,936.0
139,852.0
140,1018.0
141,1073.0
142,928.0
143,1062.0
144,1080.5
145,1006.0
146,1034.0
147,942.0
148,1039.5
149,1070.0
150,774.0
151,982.0
152,1023.0
153,970.0
154,983.5
155,977.5
156,882.0
157,1192.0
158,947.0
159,982.0
160,1017.0
161,1056.0
162,1052.5
163,1037.0
164,1040.0
165,1026.0
166,934.0
167,1022.0
168,1045.0
169,764.0
170,914.0
171,1212.0
172,999.0
173,779.0
174,1023.0
175,1137.0
176,1078.5
177,1020.0
178,945.0
179,1142.0
180,962.0
181,988.0
182,1031.0
183,938.0
184,750.0
185,902.1666666666666
186,1054.3333333333333
187,813.0
188,936.0
189,1063.0
190,1035.0
191,990.0
192,1037.5
193,931.0
194,1072.0
195,1023.0
196,977.0
197,1057.0
198,923.0
199,1031.0
