time_range,Acceleration_Y
0,885.0
1,1067.0
2,1058.0
3,949.0
4,836.5
5,1085.0
6,1078.0
7,953.0
8,1020.5
9,1095.0
10,1059.5
11,1024.0
12,996.0
13,834.0
14,889.0
15,921.0
16,1009.0
17,1049.0
18,818.0
19,999.0
20,1052.0
21,1100.0
22,1054.0
23,1033.1666666666667
24,1012.3333333333334
25,1078.0
26,1137.0
27,964.0
28,874.0
29,922.5
30,971.0
31,972.0
32,824.0
33,879.5
34,1078.0
35,914.0
36,1005.0
37,1089.5
38,883.0
39,965.5
40,1187.0
41,1044.0
42,858.0
43,970.0
44,1225.0
45,1057.0
46,1072.0
47,881.0
48,970.0
49,954.0
50,1010.0
51,1040.0
52,1016.5
53,1109.0
54,971.0
55,993.0
56,1028.0
57,872.0
58,722.0
59,787.0
60,1145.0
61,1047.0
62,880.0
63,822.0
64,956.0
65,1074.0
66,866.0
67,924.0
68,989.0
69,1076.0
70,881.0
71,1295.0
72,1044.0
73,719.0
74,1004.6666666666666
75,992.0
76,927.3333333333333
77,862.6666666666666
78,1024.0
79,988.0
80,922.0
81,905.0
82,1132.0
83,885.0
84,1077.0
85,1072.0
86,927.0
87,1048.0
88,1062.0
89,980.0
90,1043.0
91,928.0
92,973.0
93,978.0
94,971.0
95,1052.0
96,1090.0
97,837.0
98,943.0
99,1213.0
100,1117.5
101,879.0
102,1105.0
103,1192.0
104,1125.5
105,881.0
106,1031.0
107,955.0
108,906.0
109,857.0
110,838.0
111,910.3333333333334
112,982.6666666666666
113,1055.0
114,1036.6
115,886.0
116,890.5
117,1074.0
118,877.0
119,934.0
120,1004.0
121,1057.0
122,794.0
123,997.0
124,1025.0
125,980.75
126,936.5
127,915.0
128,974.0
129,949.5
130,959.25
131,969.0
132,1079.0
133,1027.5
134,1059.0
135,1181.0
136,908.0
137,1012.0
138,1043.0
139,944.0
140,990.0
141,950.0
142,986.0
143,949.0
144,1082.0
145,1142.0
146,1038.0
147,862.0
148,1066.0
149,1263.0
150,906.0
151,996.5
152,1087.0
153,1033.0
154,996.0
155,980.0
156,951.0
157,993.0
158,1004.5
159,1040.0
160,955.0
161,763.0
162,1155.0
163,1228.0
164,888.0
165,970.0
166,987.0
167,892.0
168,933.0
169,956.0
170,883.0
171,969.0
172,954.5
173,987.0
174,962.75
175,938.5
176,1018.0
177,1128.0
178,875.0
179,1210.0
180,947.0
181,845.0
182,981.0
183,1070.0
184,930.0
185,996.0
186,941.5
187,953.0
188,1021.0
189,947.5
190,837.0
191,1132.0
192,938.0
193,1142.0
194,1025.0
195,824.0
196,1040.0
197,1100.0
198,1040.0
199,991.0
