time_range,Acceleration_Y
0,1171.0
1,944.0
2,1082.0
3,1005.0
4,984.75
5,964.5
6,879.5
7,951.0
8,864.0
9,934.0
10,958.0
11,876.0
12,892.0
13,951.0
14,882.0
15,871.0
16,909.5
17,1036.0
18,907.0
19,901.0
20,980.0
21,848.0
22,985.5
23,1123.0
24,1035.0
25,1075.0
26,1004.0
27,1049.5
28,1039.0
29,1048.0
30,1133.0
31,1013.0
32,949.0
33,1016.0
34,937.0
35,793.0
36,917.3333333333334
37,915.0
38,935.5
39,956.0
40,1011.5
41,1025.0
42,1035.0
43,994.8333333333333
44,954.6666666666666
45,942.0
46,1045.0
47,1077.0
48,965.0
49,1201.0
50,904.0
51,1029.0
52,933.0
53,891.5
54,850.0
55,953.0
56,923.0
57,859.0
58,931.0
59,990.0
60,942.5
61,889.0
62,932.0
63,927.0
64,915.0
65,923.0
66,949.0
67,919.0
68,989.0
69,991.0
70,1070.0
71,1116.0
72,1176.0
73,1030.0
74,1064.5
75,1109.0
76,968.0
77,1010.0
78,989.0
79,1010.0
80,992.0
81,1041.3333333333333
82,951.0
83,973.0
84,1072.0
85,853.0
86,1014.0
87,1016.0
88,1013.0
89,1008.0
90,847.0
91,1115.0
92,872.0
93,1056.0
94,1185.0
95,909.0
96,1013.5
97,1013.0
98,1052.0
99,935.0
100,977.0
101,966.0
102,918.0
103,885.0
104,924.0
105,855.0
106,865.5
107,960.0
108,882.0
109,859.0
110,938.0
111,1022.0
112,874.0
113,874.0
114,1221.0
115,1055.0
116,1146.0
117,1009.0
118,1021.5
119,1034.0
120,1052.5
121,1021.0
122,1007.0
123,1081.5
124,1156.0
125,980.0
126,996.0
127,990.0
128,915.0
129,996.0
130,1071.0
131,1028.0
132,837.0
133,1099.0
134,841.0
135,911.5
136,1102.0
137,905.0
138,1054.0
139,996.0
140,1022.0
141,1081.0
142,897.0
143,1208.0
144,939.0
145,1005.0
146,941.0
147,854.0
148,864.0
149,927.0
150,858.0
151,1003.0
152,975.0
153,951.0
154,891.0
155,885.0
156,901.5
157,887.0
158,916.0
159,923.0
160,1005.5
161,1032.5833333333335
162,1059.6666666666667
163,1085.0
164,1126.0
165,1163.0
166,1002.0
167,990.0
168,1030.0
169,1027.0
170,949.0
171,1071.0
172,966.0
173,979.0
174,1068.0
175,1098.0
176,887.0
177,926.0
178,1080.0
179,790.0
180,940.0
181,1037.5
182,1041.0
183,1060.0
184,947.0
185,1135.0
186,969.0
187,1067.0
188,1105.0
189,834.0
190,1076.0
191,1023.0
192,951.0
193,767.0
194,861.5
195,952.0
196,811.0
197,950.0
198,965.0
199,874.0
