time_range,Acceleration_Y
0,982.5
1,982.5
2,1053.0
3,1050.0
4,934.0
5,1007.0
6,1252.0
7,1041.0
8,890.0
9,1001.0
10,1273.0
11,1095.75
12,918.5
13,893.0
14,944.75
15,996.5
16,1012.5
17,956.0
18,966.0
19,1001.0
20,1066.0
21,1081.0
22,1001.0
23,1009.0
24,803.0
25,871.0
26,953.0
27,982.0
28,917.0
29,868.0
30,985.0
31,1046.0
32,967.0
33,766.0
34,944.0
35,1211.0
36,1001.0
37,1191.0
38,1065.0
39,957.3333333333334
40,952.0
41,966.5
42,981.0
43,865.0
44,889.5
45,986.5
46,894.0
47,1115.0
48,1057.0
49,1006.5
50,1090.0
51,1033.5
52,1156.0
53,1070.5
54,921.0
55,978.75
56,1036.5
57,999.0
58,848.0
59,874.0
60,931.0
61,1078.0
62,1003.0
63,967.0
64,1099.0
65,1057.0
66,1089.5
67,989.0
68,996.0
69,986.0
70,1046.0
71,1129.0
72,1039.0
73,958.0
74,862.0
75,969.0
76,992.0
77,1060.0
78,968.0
79,929.5
80,1121.0
81,1059.0
82,978.0
83,991.0
84,728.0
85,952.0
86,1024.0
87,960.0
88,872.0
89,847.0
90,973.0
91,966.0
92,934.0
93,847.0
94,1037.0
95,986.0
96,935.0
97,1082.0
98,1003.0
99,994.0
100,967.0
101,958.0
102,1050.0
103,983.0
104,924.0
105,979.0
106,937.0
107,1183.0
108,1078.0
109,860.0
110,1062.0
111,1214.0
112,1099.5
113,970.0
114,1070.0
115,1074.0
116,1086.0
117,1079.0
118,992.0
119,881.0
120,953.0
121,1097.0
122,1027.0
123,989.0
124,1008.0
125,1070.0
126,1133.0
127,1030.5
128,890.5
129,892.9166666666667
130,895.3333333333334
131,948.0
132,998.0
133,1027.0
134,934.0
135,970.0
136,873.0
137,912.0
138,942.0
139,923.0
140,1082.0
141,1107.0
142,1136.0
143,1143.0
144,1049.0
145,947.0
146,821.0
147,959.0
148,991.0
149,983.0
150,846.0
151,959.0
152,830.0
153,829.0
154,975.0
155,838.0
156,1068.0
157,1159.0
158,1044.5
159,1013.0
160,1012.0
161,1008.6666666666666
162,949.0
163,943.0
164,1062.0
165,1007.5
166,1042.0
167,1096.0
168,1116.0
169,892.0
170,882.0
171,1122.0
172,1214.0
173,1003.0
174,902.0
175,1154.0
176,1174.0
177,918.0
178,867.0
179,925.0
180,988.0
181,964.0
182,1047.0
183,1102.0
184,949.0
185,889.0
186,1025.0
187,1086.0
188,949.0
189,951.0
190,954.0
191,991.0
192,856.0
193,931.0
194,916.0
195,863.0
196,875.0
197,964.5
198,1054.0
199,900.3333333333334
