time_range,Acceleration_Y
0,873.5
1,997.5
2,937.0
3,762.0
4,1003.0
5,963.0
6,846.0
7,955.0
8,1053.0
9,1115.0
10,996.0
11,1065.0
12,1052.0
13,1044.5
14,1077.5
15,1015.0
16,913.0
17,883.0
18,1031.0
19,892.0
20,946.0
21,1017.0
22,1214.0
23,1120.0
24,857.0
25,1061.0
26,1102.0
27,1149.0
28,999.0
29,1157.0
30,1160.0
31,852.0
32,838.0
33,948.0
34,1009.0
35,1027.3333333333333
36,1045.6666666666667
37,1064.0
38,868.0
39,985.0
40,1111.0
41,1088.0
42,1025.0
43,1031.5
44,992.0
45,702.0
46,979.0
47,953.0
48,827.0
49,778.0
50,991.0
51,969.5
52,1003.0
53,1031.0
54,1090.0
55,1129.0
56,1059.0
57,869.0
58,916.0
59,955.0
60,946.0
61,928.0
62,969.0
63,947.0
64,929.0
65,797.0
66,855.0
67,943.0
68,1184.0
69,1158.0
70,1057.5
71,1164.0
72,1131.5
73,885.0
74,917.0
75,1008.0
76,1055.0
77,887.0
78,1249.0
79,1146.5555555555557
80,1044.111111111111
81,941.6666666666666
82,1055.0
83,1118.0
84,1102.0
85,881.0
86,1146.0
87,1157.0
88,929.0
89,962.0
90,939.0
91,876.5
92,964.0
93,987.5
94,870.0
95,967.0
96,919.0
97,1001.0
98,1162.0
99,1044.0
100,1048.0
101,1043.0
102,966.0
103,937.0
104,974.0
105,915.0
106,976.0
107,858.0
108,869.0
109,1004.0
110,790.0
111,892.0
112,844.0
113,1042.0
114,1118.0
115,976.5
116,1060.0
117,1045.0
118,992.0
119,978.0
120,947.0
121,1033.0
122,1057.0
123,1016.0
124,1204.0
125,1133.0
126,996.0
127,950.0
128,1190.0
129,1122.0
130,953.0
131,950.0
132,1143.0
133,1200.0
134,876.0
135,952.0
136,887.0
137,907.1666666666666
138,927.3333333333334
139,947.5
140,1020.0
141,1061.0
142,941.0
143,917.0
144,1249.0
145,1077.0
146,1028.0
147,937.0
148,952.0
149,889.0
150,888.0
151,936.0
152,876.5
153,912.0
154,1024.0
155,996.0
156,968.0
157,1050.0
158,1078.0
159,1072.0
160,956.0
161,1048.0
162,1028.5
163,1025.0
164,938.0
165,897.0
166,774.0
167,885.0
168,967.5
169,942.0
170,1061.5
171,1120.0
172,1064.0
173,993.0
174,1147.0
175,1237.0
176,993.0
177,949.0
178,1123.0
179,1108.0
180,867.0
181,937.1666666666667
182,1007.3333333333334
183,994.0
184,908.0
185,915.5
186,1229.0
187,1133.0
188,885.0
189,1002.5
190,1129.0
191,1084.0
192,898.0
193,965.0
194,926.5
195,929.0
196,1020.0
197,1046.0
198,943.0
199,900.0
