time_range,Acceleration_Y
0,1053.5
1,1053.5
2,921.0
3,1283.0
4,1088.0
5,912.0
6,951.0
7,802.0
8,1120.0
9,963.0
10,916.0
11,1082.0
12,995.0
13,983.5
14,972.0
15,960.5
16,1046.0
17,1050.0
18,904.0
19,1075.0
20,1018.0
21,819.0
22,922.0
23,936.0
24,847.0
25,878.0
26,830.0
27,975.0
28,1018.0
29,844.0
30,894.0
31,1112.0
32,894.0
33,925.0
34,1184.0
35,1260.0
36,982.0
37,1134.0
38,934.0
39,890.0
40,846.0
41,900.0
42,973.0
43,921.0
44,896.0
45,1007.0
46,947.0
47,986.0
48,1114.0
49,1036.5
50,1098.0
51,1128.0
52,953.0
53,1219.0
54,1023.0
55,1036.0
56,1056.5
57,770.0
58,1016.0
59,760.0
60,980.0
61,1143.0
62,1064.1666666666667
63,985.3333333333334
64,939.0
65,981.5
66,1094.0
67,972.0
68,931.0
69,1102.0
70,1119.0
71,1070.0
72,1041.0
73,715.0
74,755.0
75,1008.0
76,851.0
77,884.0
78,872.5
79,1036.0
80,893.3333333333334
81,1153.0
82,1089.0
83,883.0
84,1190.0
85,1083.0
86,936.0
87,1183.0
88,1118.0
89,976.0
90,950.3333333333333
91,924.6666666666666
92,1056.0
93,1059.0
94,809.0
95,819.0
96,894.0
97,951.0
98,1057.0
99,1025.0
100,954.5
101,1047.0
102,999.0
103,1303.0
104,1013.0
105,936.0
106,993.0
107,1119.0
108,1224.0
109,1033.0
110,892.0
111,951.0
112,1014.0
113,1008.5
114,986.0
115,951.5
116,917.0
117,1003.5
118,1058.0833333333335
119,1112.6666666666667
120,991.0
121,1107.0
122,931.0
123,858.0
124,854.0
125,826.0
126,1075.0
127,1074.0
128,783.0
129,923.0
130,1074.0
131,1140.0
132,867.0
133,926.5
134,1111.0
135,965.0
136,1057.25
137,1149.5
138,1001.0
139,874.0
140,894.0
141,933.0
142,1007.0
143,800.0
144,1020.0
145,1034.0
146,684.0
147,1014.0
148,963.0
149,917.0
150,1180.0
151,1130.0
152,989.0
153,1265.0
154,1136.5
155,917.0
156,1115.0
157,1011.0
158,1008.75
159,1006.5
160,1199.0
161,1199.0
162,938.0
163,984.75
164,1031.5
165,1118.0
166,915.0
167,924.0
168,1159.0
169,1082.0
170,1008.0
171,1008.0
172,1099.0
173,941.0
174,1004.0
175,933.5
176,883.0
177,805.0
178,1061.0
179,1105.0
180,753.0
181,1087.0
182,1057.0
183,964.0
184,1124.0
185,1026.0
186,998.0
187,1154.0
188,1063.0
189,858.0
190,965.0
191,768.0
192,984.0
193,999.5
194,845.0
195,737.0
196,906.0
197,950.0
198,971.0
199,1124.0
