time_range,Acceleration_Y
0,1070.0
1,972.0
2,1064.0
3,1026.5
4,851.0
5,1023.0
6,986.0
7,931.5
8,889.0
9,1048.0
10,919.0
11,1040.0
12,939.0
13,874.0
14,1023.0
15,1115.0
16,1029.0
17,1102.0
18,1151.0
19,1043.0
20,982.0
21,1000.0
22,1016.0
23,1030.0
24,995.5
25,926.0
26,977.0
27,971.25
28,965.5
29,907.0
30,1046.0
31,990.375
32,934.75
33,1034.5
34,961.0
35,1019.5
36,1078.0
37,949.0
38,1215.0
39,1047.0
40,973.0
41,1077.0
42,924.0
43,903.0
44,882.0
45,1091.0
46,872.0
47,1090.0
48,945.0
49,916.5
50,885.0
51,1059.0
52,878.0
53,909.0
54,953.5
55,998.0
56,976.0
57,1156.0
58,1038.5
59,1177.0
60,1118.0
61,1013.0
62,986.5
63,1090.0
64,972.0
65,845.0
66,1041.0
67,992.0
68,915.0
69,928.0
70,863.0
71,975.0
72,986.0
73,881.0
74,967.0
75,1013.5
76,903.0
77,1027.0
78,1183.0
79,1063.0
80,954.0
81,992.0
82,976.5
83,1146.0
84,911.0
85,985.0
86,918.0
87,1052.0
88,972.0
89,912.5
90,853.0
91,1027.6666666666667
92,865.0
93,919.0
94,820.0
95,1050.0
96,1019.0
97,907.0
98,1055.0
99,1063.0
100,1063.0
101,998.0
102,1146.0
103,993.0
104,900.0
105,935.0
106,929.0
107,934.0
108,995.0
109,956.0
110,902.0
111,983.0
112,924.5
113,978.5
114,1032.5
115,978.5
116,973.0
117,927.0
118,924.5
119,1134.0
120,1029.0
121,1035.0
122,1048.0
123,1176.0
124,943.0
125,847.0
126,1123.0
127,930.0
128,919.0
129,908.0
130,897.0
131,909.0
132,1087.0
133,838.0
134,836.0
135,1031.0
136,1045.0
137,831.0
138,1093.0
139,1096.0
140,993.0
141,1053.5
142,997.0
143,1087.0
144,1120.0
145,974.0
146,967.0
147,988.0
148,1032.0
149,948.0
150,890.0
151,1055.0
152,874.0
153,993.5
154,901.5
155,941.25
156,981.0
157,987.0
158,965.0
159,1148.0
160,990.0
161,1015.5
162,1121.0
163,1009.0
164,1051.0
165,1201.0
166,875.0
167,924.0
168,1045.0
169,936.0
170,941.0
171,966.0
172,1052.0
173,812.0
174,858.0
175,900.0
176,756.0
177,1119.0
178,1060.0
179,859.0
180,1085.0
181,1104.0
182,1053.0
183,1031.0
184,1189.0
185,989.0
186,942.0
187,992.5
188,955.0
189,955.0
190,1072.0
191,854.0
192,906.6666666666667
193,959.3333333333334
194,1017.0
195,881.0
196,1015.0
197,838.0
198,1031.0
199,1031.0
