time_range,Acceleration_Y
0,1069.5
1,1044.0
2,1056.0
3,1024.0
4,1040.0
5,1036.6666666666665
6,1033.3333333333333
7,1032.0
8,1035.0
9,950.5
10,1019.0
11,996.0
12,961.0
13,866.0
14,896.0
15,903.0
16,1000.0
17,990.0
18,914.0
19,933.0
20,1131.0
21,995.0
22,1017.0
23,1083.0
24,1144.0
25,901.0
26,1115.0
27,931.0
28,943.0
29,988.0
30,965.0
31,903.0
32,994.5
33,961.0
34,833.0
35,893.6666666666666
36,1032.0
37,1090.0
38,1007.25
39,924.5
40,987.5
41,1098.0
42,998.0
43,1084.0
44,1053.0
45,1067.0
46,980.0
47,944.0
48,1029.0
49,1079.0
50,1016.0
51,898.0
52,932.5
53,1020.0
54,996.0
55,840.0
56,976.0
57,949.0
58,960.0
59,936.0
60,1127.0
61,1044.0
62,1126.0
63,953.0
64,995.0
65,1038.0
66,1167.0
67,941.0
68,936.5
69,1029.0
70,943.0
71,931.0
72,961.0
73,879.0
74,1025.0
75,991.0
76,863.0
77,925.0
78,1074.0
79,897.5
80,1095.0
81,1095.5
82,939.0
83,1083.0
84,1016.5
85,950.0
86,1083.5
87,1103.0
88,1019.5
89,936.0
90,1040.0
91,781.0
92,1076.0
93,1055.0
94,1030.8333333333333
95,1006.6666666666666
96,944.0
97,851.0
98,960.0
99,1020.0
100,939.0
101,915.0
102,1138.0
103,1029.0
104,998.0
105,1148.0
106,1123.5
107,1057.25
108,991.0
109,918.0
110,997.0
111,982.0
112,911.0
113,930.0
114,1002.0
115,953.0
116,916.5
117,940.0
118,973.0
119,1001.5
120,853.0
121,979.0
122,1069.0
123,1066.0
124,927.0
125,1137.0
126,1160.5
127,920.0
128,1074.0
129,973.0
130,968.5
131,1079.0
132,973.0
133,796.0
134,1125.0
135,952.0
136,912.5
137,894.0
138,1069.0
139,886.0
140,924.0
141,962.0
142,1065.0
143,985.0
144,1138.0
145,921.0
146,1031.0
147,1137.0
148,1050.0
149,1003.5
150,1073.0
151,1016.0
152,796.0
153,1073.0
154,1069.0
155,932.0
156,1135.0
157,868.0
158,974.0
159,896.0
160,943.0
161,922.0
162,1068.0
163,1032.0
164,996.0
165,1107.0
166,926.0
167,1145.0
168,1146.0
169,1027.0
170,1138.0
171,967.0
172,901.0
173,952.0
174,1015.0
175,967.0
176,829.0
177,1096.0
178,834.0
179,1030.0
180,1052.0
181,835.0
182,959.0
183,1041.0
184,1014.0
185,1000.0
186,1000.0
187,1000.0
188,1059.6666666666667
189,1056.0
190,1041.0
191,975.0
192,1123.0
193,950.0
194,856.0
195,1055.0
196,992.0
197,859.0
198,989.5
199,997.5
