time_range,Acceleration_Y
0,984.0
1,1076.0
2,988.0
3,1070.0
4,719.0
5,871.5
6,874.0
7,817.0
8,884.0
9,884.0
10,906.0
11,1053.0
12,1082.3333333333335
13,1111.6666666666667
14,1082.5
15,1115.0
16,1059.0
17,1107.0
18,900.0
19,1079.0
20,1155.0
21,1005.0
22,996.0
23,894.0
24,970.0
25,863.0
26,925.0
27,850.0
28,872.0
29,775.0
30,943.0
31,1077.0
32,935.0
33,996.0
34,1173.0
35,1105.0
36,1037.0
37,1080.5
38,923.0
39,970.0
40,1017.0
41,1087.0
42,986.0
43,981.0
44,976.0
45,1004.0
46,692.0
47,861.0
48,852.0
49,843.0
50,834.0
51,748.0
52,1046.0
53,1066.0
54,1081.0
55,1143.0
56,1179.5
57,1022.0
58,996.0
59,1151.0
60,704.0
61,1015.0
62,1086.0
63,967.0
64,917.5
65,898.0
66,1058.0
67,757.0
68,924.0
69,868.0
70,844.0
71,947.0
72,833.0
73,949.5
74,1051.0
75,884.0
76,1261.0
77,1239.0
78,891.0
79,1025.0
80,952.5
81,1009.0
82,1002.25
83,995.5
84,1000.0
85,1032.5
86,594.0
87,1177.0
88,911.0
89,645.0
90,860.6666666666666
91,617.0
92,912.0
93,1022.5
94,1087.0
95,974.0
96,1255.0
97,1160.0
98,1036.5
99,1233.0
100,960.0
101,909.0
102,1315.0
103,988.0
104,1109.0
105,1144.0
106,904.0
107,1014.0
108,1037.0
109,703.0
110,860.0
111,837.0
112,841.0
113,1092.0
114,1116.0
115,995.0
116,1336.0
117,1275.0
118,1240.0
119,1092.5
120,945.0
121,1191.0
122,899.0
123,982.0
124,1148.0
125,931.0
126,959.0
127,1087.0
128,618.0
129,918.0
130,1046.0
131,779.0
132,731.0
133,1242.0
134,896.0
135,1022.0
136,1063.75
137,1105.5
138,1313.0
139,1169.5
140,932.0
141,1212.0
142,872.0
143,894.0
144,1041.0
145,997.0
146,953.0
147,890.0
148,1138.0
149,924.0
150,976.0
151,767.0
152,854.0
153,843.5
154,848.0
155,1003.0
156,1058.0
157,1143.0
158,1228.0
159,1093.0
160,958.0
161,1059.0
162,1062.0
163,990.0
164,928.0
165,1034.0
166,1085.0
167,890.0
168,938.0
169,1126.0
170,636.0
171,865.0
172,932.5
173,861.0
174,845.0
175,1015.0
176,1015.0
177,914.5
178,1170.0
179,1034.0
180,1292.0
181,976.0
182,1065.0
183,1132.0
184,903.0
185,1003.0
186,1006.0
187,1205.0
188,871.0
189,822.0
190,895.1666666666667
191,968.3333333333334
192,845.0
193,830.5
194,950.0
195,742.0
196,838.0
197,968.0
198,1069.0
199,1044.0
