time_range,Acceleration_Y
0,1183.0
1,1005.0
2,1278.0
3,968.0
4,1064.0
5,988.0
6,835.0
7,850.0
8,961.0
9,807.0
10,941.0
11,812.0
12,1021.0
13,943.0
14,883.0
15,960.0
16,837.0
17,1001.0
18,955.0
19,1040.0
20,1115.0
21,1064.0
22,1051.0
23,973.0
24,1124.0
25,1052.0
26,949.0
27,893.0
28,917.0
29,889.6666666666666
30,908.7777777777777
31,927.8888888888889
32,947.0
33,970.3333333333334
34,1157.0
35,1020.5
36,1034.0
37,1250.0
38,1008.0
39,1145.0
40,993.0
41,1083.0
42,1178.0
43,1082.0
44,1176.0
45,1052.0
46,974.5
47,913.0
48,838.0
49,1017.0
50,979.0
51,892.0
52,1021.0
53,886.0
54,1098.0
55,992.5
56,1043.0
57,1077.0
58,664.0
59,1246.0
60,938.0
61,959.75
62,981.5
63,990.0
64,971.5
65,792.0
66,923.0
67,934.0
68,935.0
69,877.0
70,888.0
71,840.0
72,792.0
73,828.0
74,933.0
75,924.0
76,1253.0
77,878.0
78,1109.0
79,1151.0
80,1157.0
81,1163.0
82,1128.5
83,1094.0
84,1177.0
85,1159.0
86,1148.0
87,1072.0
88,1002.0
89,1008.0
90,857.0
91,996.0
92,918.0
93,905.0
94,920.3333333333333
95,935.6666666666666
96,1084.0
97,949.0
98,1060.0
99,1066.0
100,725.0
101,1129.0
102,987.0
103,1101.0
104,955.0
105,994.5
106,898.0
107,894.5
108,914.0
109,936.0
110,936.0
111,844.0
112,863.5
113,808.0
114,860.0
115,998.0
116,853.0
117,896.0
118,1276.0
119,1026.0
120,1064.5
121,1204.0
122,1083.0
123,1134.0
124,1059.0
125,995.0
126,1063.0
127,1050.0
128,1034.0
129,1058.0
130,981.0
131,1018.0
132,1015.5
133,1013.0
134,1023.5
135,1057.0
136,1030.0
137,908.5
138,1210.0
139,894.0
140,1170.0
141,1213.0
142,827.0
143,1022.0
144,967.0
145,1211.0
146,1040.0
147,855.0
148,886.0
149,794.0
150,914.5
151,772.0
152,837.0
153,897.0
154,968.0
155,956.5
156,898.5
157,1097.0
158,1116.0
159,1016.0
160,1246.0
161,1094.0
162,1070.0
163,1062.0
164,1047.7777777777778
165,1033.5555555555557
166,1019.3333333333334
167,1011.8888888888889
168,1004.4444444444445
169,997.0
170,947.0
171,998.0
172,977.0
173,1042.0
174,939.5
175,1167.0
176,935.0
177,1083.0
178,1215.0
179,965.0
180,1253.0
181,882.0
182,1170.0
183,1180.5
184,1159.0
185,1218.0
186,908.0
187,776.0
188,818.0
189,828.0
190,1036.0
191,898.0
192,902.0
193,1090.0
194,936.0
195,911.5
196,887.0
197,995.0
198,1026.0
199,954.0
