time_range,Acceleration_Y
0,984.0
1,853.0
2,962.0
3,942.0
4,935.0
5,941.0
6,923.0
7,1078.0
8,1014.5
9,990.0
10,1219.0
11,959.0
12,1028.0
13,1044.5
14,1024.0
15,1048.0
16,938.0
17,1008.0
18,958.0
19,955.0
20,975.0
21,944.0
22,948.0
23,1097.0
24,1068.3333333333335
25,1039.6666666666667
26,943.0
27,1046.0
28,1061.0
29,917.0
30,1186.0
31,890.0
32,1079.0
33,1110.0
34,981.0
35,1127.0
36,965.0
37,932.0
38,931.0
39,1136.0
40,1055.8333333333333
41,975.6666666666666
42,1079.0
43,807.0
44,1140.0
45,1091.5
46,1014.0
47,1065.0
48,934.0
49,966.0
50,938.0
51,988.0
52,1096.0
53,858.0
54,915.0
55,912.0
56,863.0
57,955.0
58,1001.0
59,1068.0
60,1110.0
61,904.0
62,1062.5
63,923.0
64,958.0
65,1143.0
66,1057.0
67,1060.5
68,923.0
69,1018.0
70,950.0
71,910.0
72,1138.0
73,965.0
74,948.0
75,1102.0
76,885.0
77,1099.0
78,898.0
79,1024.0
80,1056.0
81,812.0
82,1076.5
83,984.0
84,1199.0
85,1199.0
86,906.5
87,977.0
88,941.3333333333333
89,905.6666666666666
90,964.0
91,1127.0
92,957.0
93,1009.0
94,1091.0
95,818.0
96,1111.0
97,1092.5
98,953.0
99,1118.0
100,992.0
101,892.0
102,870.0
103,975.0
104,986.0
105,838.0
106,957.0
107,907.0
108,853.0
109,1113.0
110,1028.0
111,1019.0
112,1082.0
113,1014.5
114,1243.0
115,1114.0
116,1006.0
117,1031.3333333333333
118,1053.0
119,935.0
120,1041.0
121,987.0
122,869.0
123,1185.0
124,1122.3333333333333
125,1059.6666666666667
126,997.0
127,897.0
128,1078.0
129,982.0
130,997.0
131,1141.0
132,884.0
133,1019.0
134,844.0
135,910.1666666666667
136,976.3333333333334
137,878.0
138,979.0
139,1015.0
140,1024.0
141,983.0
142,859.0
143,1150.0
144,903.0
145,1033.0
146,1115.0
147,981.0
148,1031.0
149,973.0
150,896.0
151,953.0
152,886.0
153,875.0
154,808.0
155,963.0
156,955.0
157,924.0
158,1025.0
159,1086.0
160,1026.0
161,1062.5
162,1073.0
163,1125.0
164,991.0
165,1109.5
166,1105.0
167,953.0
168,1041.0
169,1019.0
170,1050.0
171,974.0
172,1044.0
173,895.0
174,901.625
175,908.25
176,996.0
177,940.0
178,1170.0
179,1014.5
180,1102.0
181,983.0
182,892.0
183,830.0
184,990.0
185,1044.0
186,861.0
187,975.0
188,1034.0
189,907.0
190,957.0
191,960.0
192,1019.0
193,982.0
194,902.0
195,1028.0
196,1029.0
197,968.0
198,1054.0
199,984.5
