time_range,Acceleration_Y
0,975.0
1,1037.0
2,1009.0
3,947.5
4,778.0
5,1170.0
6,945.0
7,845.0
8,1091.0
9,1090.0
10,923.0
11,929.0
12,1246.0
13,783.0
14,891.0
15,1029.0
16,976.0
17,1046.0
18,834.0
19,976.0
20,1068.0
21,1097.0
22,1054.0
23,1029.0
24,828.0
25,1078.0
26,1000.0
27,972.0
28,1083.5
29,961.0
30,1213.0
31,955.5
32,961.0
33,1070.0
34,951.0
35,1004.0
36,864.0
37,1105.0
38,904.5
39,895.0
40,1087.0
41,835.0
42,857.5
43,1156.0
44,974.0
45,875.0
46,884.5
47,1298.0
48,1192.5
49,895.0
50,1097.0
51,1137.0
52,708.0
53,973.0
54,1238.0
55,1135.0
56,933.0
57,628.0
58,1282.0
59,1101.0
60,920.0
61,971.5
62,1173.0
63,889.0
64,752.0
65,948.5
66,943.0
67,945.0
68,989.0
69,1093.0
70,994.0
71,816.0
72,946.0
73,961.0
74,813.0
75,1025.0
76,1002.0
77,970.0
78,914.0
79,995.0
80,1066.0
81,1055.5
82,1072.0
83,1088.5
84,812.3333333333334
85,997.0
86,1054.0
87,1045.0
88,1004.0
89,1211.0
90,739.0
91,818.8333333333333
92,898.6666666666666
93,1082.0
94,934.0
95,818.0
96,1134.0
97,1062.0
98,770.0
99,911.0
100,939.0
101,967.0
102,873.0
103,1129.0
104,1045.0
105,868.0
106,854.0
107,1228.0
108,1116.0
109,898.0
110,860.0
111,1001.5
112,964.5
113,866.5
114,1221.0
115,1057.5
116,682.0
117,1220.0
118,1107.5
119,995.0
120,1006.0
121,934.0
122,1027.0
123,953.5
124,1144.0
125,938.0
126,1031.0
127,970.0
128,1024.0
129,841.0
130,918.5
131,1039.0
132,816.0
133,970.5
134,1228.0
135,1344.0
136,973.0
137,999.0
138,862.0
139,950.0
140,965.5
141,1200.0
142,1379.0
143,795.0
144,868.0
145,881.0
146,1208.0
147,1063.5
148,781.0
149,1251.0
150,919.0
151,836.0
152,956.0
153,1259.0
154,866.0
155,881.0
156,1104.5
157,966.5
158,975.75
159,985.0
160,1085.0
161,823.0
162,968.5
163,1114.0
164,1022.0
165,937.5
166,1030.0
167,1179.0
168,1102.0
169,845.0
170,1063.0
171,918.0
172,1080.0
173,1125.0
174,1176.0
175,1125.5
176,963.0
177,1070.0
178,940.0
179,1108.0
180,1014.0
181,973.0
182,955.0
183,938.0
184,941.0
185,944.0
186,928.0
187,1013.0
188,946.0
189,847.0
190,1065.0
191,1090.0
192,941.0
193,984.5
194,1028.0
195,1180.0
196,896.0
197,730.0
198,899.0
199,899.0
