time_range,Acceleration_Y
0,1210.0
1,740.0
2,1124.0
3,949.0
4,1051.0
5,891.0
6,1077.0
7,1201.0
8,953.5
9,1018.0
10,1029.0
11,1040.0
12,885.5
13,1015.0
14,964.0
15,908.0
16,930.0
17,1176.0
18,1422.0
19,879.0
20,1096.0
21,1080.5
22,762.0
23,996.0
24,1376.0
25,930.0
26,903.0
27,679.0
28,1216.0
29,857.0
30,738.0
31,874.5
32,1106.0
33,1067.0
34,749.0
35,971.5
36,966.0
37,796.0
38,1088.0
39,1050.0
40,1012.0
41,940.0
42,813.0
43,1068.0
44,1187.0
45,1073.0
46,1113.0
47,1042.0
48,830.0
49,850.0
50,1051.0
51,1101.0
52,998.0
53,965.0
54,897.0
55,990.0
56,916.0
57,841.0
58,995.5
59,1150.0
60,922.5
61,997.5
62,1072.5
63,1030.0
64,869.0
65,939.0
66,1066.5
67,894.0
68,866.0
69,1050.0
70,1110.0
71,826.0
72,909.0
73,1051.5
74,1134.0
75,785.0
76,881.0
77,1464.0
78,940.0
79,894.0
80,816.0
81,1161.0
82,890.5
83,1019.0
84,1212.0
85,1143.0
86,1006.0
87,564.0
88,1292.0
89,925.0
90,1024.0
91,990.0
92,1084.0
93,1084.0
94,932.5
95,1070.0
96,1023.0
97,1101.0
98,1015.0
99,924.0
100,1068.0
101,832.0
102,951.0
103,1037.0
104,1061.0
105,1393.0
106,707.0
107,854.0
108,939.0
109,945.0
110,862.0
111,1335.0
112,1236.0
113,756.0
114,970.0
115,894.0
116,1250.0
117,785.0
118,837.0
119,1207.0
120,899.0
121,705.0
122,909.0
123,1141.0
124,867.0
125,793.0
126,1058.0
127,1226.0
128,824.0
129,1008.0
130,1209.0
131,824.0
132,1036.0
133,1171.0
134,837.0
135,994.0
136,1087.0
137,1077.5
138,1105.0
139,951.0
140,1015.0
141,1079.0
142,950.3333333333334
143,891.0
144,1118.0
145,1114.0
146,925.0
147,1195.0
148,720.0
149,993.0
150,1060.0
151,877.0
152,893.5
153,910.0
154,974.5
155,832.0
156,996.0
157,1016.5
158,971.0
159,914.0
160,873.0
161,1089.0
162,988.75
163,888.5
164,1113.0
165,1398.0
166,841.0
167,908.0
168,637.0
169,923.0
170,992.0
171,1032.0
172,1304.0
173,928.5
174,964.75
175,1001.0
176,873.0
177,946.0
178,932.0
179,1026.0
180,794.0
181,773.0
182,1096.0
183,1040.5
184,985.0
185,875.0
186,974.5
187,873.0
188,1043.0
189,1004.0
190,921.0
191,1248.0
192,923.0
193,1060.0
194,1035.0
195,926.0
196,866.0
197,1026.0
198,1114.5
199,1043.0
