time_range,Acceleration_Y
0,821.6666666666666
1,690.0
2,968.0
3,1105.5
4,1128.0
5,1068.0
6,642.0
7,955.5
8,1079.0
9,916.0
10,1169.0
11,1033.5
12,980.0
13,1043.0
14,912.0
15,991.0
16,997.0
17,1028.0
18,1045.0
19,1016.0
20,951.0
21,1169.0
22,945.0
23,1048.0
24,1137.0
25,1192.0
26,676.0
27,1008.0
28,1062.0
29,997.0
30,1152.0
31,1043.0
32,1282.0
33,668.0
34,921.0
35,995.0
36,1027.0
37,854.0
38,1019.5
39,1036.0
40,1036.0
41,948.0
42,1137.0
43,1042.0
44,947.0
45,852.0
46,1111.5
47,923.5
48,1092.0
49,1447.0
50,957.0
51,803.0
52,682.0
53,959.0
54,1236.0
55,804.0
56,1513.0
57,1160.0
58,796.0
59,841.0
60,1138.0
61,1037.0
62,813.0
63,871.5
64,1192.0
65,795.0
66,909.0
67,1123.0
68,1008.0
69,691.0
70,888.0
71,1183.0
72,799.0
73,899.0
74,988.5
75,1195.0
76,1121.0
77,782.0
78,1012.6666666666666
79,969.0
80,1148.0
81,925.0
82,1151.0
83,759.0
84,1120.0
85,950.0
86,1027.0
87,1114.0
88,933.0
89,897.0
90,916.5
91,908.0
92,891.5
93,1081.0
94,1126.0
95,899.0
96,925.5
97,952.0
98,949.6666666666666
99,989.0
100,936.0
101,1308.0
102,1375.0
103,1008.0
104,997.0
105,903.0
106,1163.0
107,839.0
108,1195.0
109,1290.0
110,737.0
111,840.0
112,877.0
113,1267.0
114,799.0
115,1002.0
116,1246.0
117,994.5
118,908.0
119,1101.5
120,1094.0
121,851.0
122,1076.0
123,1183.0
124,747.0
125,990.0
126,1321.0
127,980.0
128,978.0
129,598.0
130,1134.0
131,968.0
132,876.0
133,1008.0
134,1049.0
135,865.0
136,755.5
137,1068.0
138,954.0
139,923.0
140,959.5
141,1129.0
142,829.0
143,932.0
144,1136.0
145,902.0
146,1102.0
147,1071.0
148,1040.0
149,888.0
150,1038.0
151,948.0
152,982.0
153,1180.0
154,954.0
155,969.5
156,985.0
157,982.5
158,1039.0
159,1090.0
160,1049.0
161,1213.0
162,922.5
163,962.25
164,1002.0
165,1067.5
166,870.0
167,767.0
168,1140.0
169,1016.0
170,730.0
171,1107.0
172,1129.0
173,907.0
174,789.0
175,1126.0
176,1037.0
177,729.0
178,1133.0
179,1493.0
180,930.0
181,965.0
182,595.0
183,1268.0
184,874.0
185,777.0
186,1117.0
187,1085.0
188,803.0
189,811.0
190,1302.0
191,801.0
192,928.0
193,1081.0
194,1019.0
195,934.0
196,802.0
197,1161.0
198,1073.75
199,986.5
