time_range,Acceleration_Y
0,986.0
1,1038.0
2,1058.0
3,969.0
4,969.0
5,997.8333333333334
6,1026.6666666666667
7,1019.0
8,986.5
9,1053.0
10,1045.0
11,968.0
12,1096.0
13,963.0
14,1021.0
15,1022.0
16,911.0
17,1045.0
18,908.0
19,917.0
20,1007.0
21,867.0
22,1014.0
23,966.0
24,953.0
25,979.5
26,934.0
27,989.0
28,967.5
29,944.0
30,1101.0
31,962.0
32,1021.0
33,942.0
34,952.0
35,1053.0
36,922.0
37,1035.0
38,962.0
39,889.0
40,1029.0
41,1003.0
42,988.25
43,973.5
44,1100.0
45,921.0
46,1019.0
47,1011.0
48,1024.5
49,1038.0
50,979.0
51,1014.0
52,1023.5
53,1033.0
54,1063.0
55,1011.0
56,992.0
57,1039.0
58,993.0
59,1036.0
60,957.5
61,1023.0
62,1007.0
63,920.0
64,989.0
65,913.0
66,963.0
67,1000.0
68,892.0
69,934.5
70,977.0
71,958.0
72,1047.0
73,935.0
74,1073.0
75,946.0
76,910.0
77,1060.0
78,936.0
79,1043.0
80,950.0
81,946.0
82,988.0
83,1027.0
84,938.0
85,957.0
86,1060.0
87,1005.5
88,1009.0
89,996.0
90,1006.0
91,1079.0
92,953.0
93,1077.0
94,976.0
95,1001.0
96,1065.0
97,916.0
98,1010.0
99,1028.0
100,1001.0
101,1074.0
102,853.0
103,1002.0
104,982.0
105,930.0
106,980.5
107,894.0
108,965.0
109,965.0
110,843.0
111,1031.0
112,909.0
113,953.0
114,1033.0
115,909.0
116,1016.0
117,967.3333333333334
118,988.0
119,974.5
120,1028.0
121,1033.0
122,1001.0
123,1064.0
124,971.0
125,1109.0
126,965.0
127,1031.0
128,1062.0
129,977.0
130,1096.0
131,971.0
132,971.0
133,1076.0
134,924.0
135,1016.0
136,971.0
137,964.5
138,1070.0
139,956.0
140,979.3333333333333
141,1002.6666666666666
142,974.0
143,1046.0
144,936.0
145,950.0
146,975.0
147,933.0
148,990.0
149,881.0
150,943.0
151,924.0
152,906.0
153,1001.0
154,850.0
155,989.0
156,950.0
157,966.0
158,1027.0
159,1005.0
160,1090.0
161,1052.6666666666667
162,1015.3333333333334
163,942.0
164,959.0
165,1060.0
166,945.0
167,1080.0
168,952.0
169,1010.0
170,1056.0
171,1102.0
172,1024.0
173,1005.0
174,1010.0
175,1052.0
176,1013.0
177,1099.0
178,978.0
179,1035.0
180,1102.5
181,922.0
182,958.0
183,958.0
184,951.0
185,1007.0
186,884.0
187,1037.0
188,930.0
189,910.0
190,1014.0
191,887.0
192,941.5
193,994.0
194,908.0
195,1057.0
196,953.5
197,955.0
198,905.0
199,919.0
