time_range,Acceleration_Y
0,941.0
1,1093.0
2,973.0
3,1003.5
4,1043.0
5,976.0
6,1012.0
7,1009.0
8,1039.0
9,1052.0
10,1010.0
11,996.0
12,892.0
13,940.0
14,1027.0
15,933.0
16,1037.0
17,892.0
18,909.5
19,965.0
20,931.0
21,996.0
22,992.0
23,955.0
24,1046.0
25,897.0
26,996.0
27,976.0
28,1002.0
29,1083.0
30,937.0
31,1031.0
32,927.0
33,952.0
34,1032.0
35,969.0
36,1057.6666666666667
37,1030.0
38,1057.0
39,894.0
40,999.0
41,971.0
42,971.0
43,1107.0
44,898.0
45,1032.0
46,999.0
47,927.0
48,1040.0
49,1029.8333333333333
50,1019.6666666666666
51,1009.5
52,999.3333333333334
53,989.1666666666666
54,979.0
55,975.3333333333334
56,1045.0
57,990.0
58,1066.0
59,863.0
60,912.5
61,1045.0
62,1005.0
63,1012.0
64,987.0
65,940.0
66,977.5
67,957.0
68,1022.0
69,984.0
70,1058.0
71,1083.0
72,891.0
73,1030.0
74,947.5
75,980.25
76,1013.0
77,998.0
78,930.0
79,993.0
80,979.25
81,965.5
82,976.0
83,991.0
84,915.0
85,972.5
86,833.0
87,958.0
88,896.0
89,960.0
90,1043.0
91,884.0
92,1024.0
93,915.0
94,996.0
95,1032.0
96,942.0
97,1043.0
98,1099.0
99,1040.0
100,1041.0
101,914.0
102,994.0
103,997.0
104,981.0
105,1018.0
106,981.0
107,946.0
108,1076.0
109,969.0
110,1085.0
111,940.0
112,963.5
113,1023.5
114,1111.0
115,993.0
116,1057.0
117,1076.0
118,914.0
119,971.0
120,908.0
121,945.0
122,1085.0
123,1006.5
124,1069.0
125,920.0
126,935.0
127,983.0
128,909.0
129,1092.0
130,940.0
131,992.0
132,1000.0
133,926.5
134,976.0
135,925.0
136,901.0
137,1071.0
138,938.0
139,984.0
140,953.0
141,944.5
142,1019.0
143,1026.5
144,1005.0
145,1086.0
146,1037.0
147,1042.0
148,999.0
149,1011.0
150,961.0
151,980.0
152,1070.0
153,961.0
154,1017.0
155,1011.85
156,1006.7
157,1001.55
158,996.4
159,991.25
160,1001.3333333333334
161,1031.0
162,1014.0
163,1005.0
164,1098.0
165,1063.5
166,1031.0
167,952.0
168,948.0
169,1016.0
170,974.5
171,1021.0
172,895.0
173,935.0
174,996.0
175,931.0
176,1043.0
177,930.0
178,1001.0
179,1050.5
180,909.0
181,971.0
182,1006.0
183,927.0
184,1086.0
185,924.0
186,1051.0
187,959.0
188,1021.0
189,1047.0
190,975.0
191,1008.5
192,1065.0
193,1013.0
194,1035.5
195,946.5
196,947.0
197,971.0
198,1043.0
199,1043.0
