time_range,Acceleration_Y
0,984.0
1,965.0
2,981.5
3,856.0
4,984.0
5,990.0
6,932.0
7,994.0
8,888.0
9,937.5
10,993.0
11,981.0
12,1038.0
13,936.0
14,995.0
15,1030.0
16,983.0
17,1079.0
18,973.0
19,978.0
20,1101.0
21,1008.0
22,1094.0
23,991.0
24,1015.0
25,1059.0
26,1027.0
27,1103.0
28,1038.5
29,967.0
30,1085.0
31,859.0
32,969.0
33,996.25
34,1023.5
35,1040.0
36,993.6666666666666
37,894.0
38,919.6666666666666
39,945.3333333333334
40,971.0
41,933.0
42,1013.0
43,1004.0
44,995.0
45,941.5
46,964.0
47,943.0
48,929.5
49,1020.0
50,781.0
51,869.5
52,919.5
53,907.0
54,1107.0
55,1013.0
56,1082.0
57,1143.0
58,1010.0
59,1138.0
60,1003.0
61,1042.5
62,1082.0
63,1032.0
64,1128.0
65,1038.5
66,987.0
67,1103.0
68,1026.5
69,1009.5
70,894.0
71,994.0
72,997.0
73,996.0
74,996.0
75,983.5
76,1097.5
77,892.0
78,890.0
79,871.0
80,920.0
81,988.0
82,886.0
83,972.0
84,925.5
85,904.0
86,1022.0
87,910.0
88,955.0
89,1062.0
90,1059.0
91,1027.0
92,953.0
93,991.0
94,975.0
95,954.0
96,1029.0
97,891.0
98,1031.0
99,948.0
100,954.0
101,1089.0
102,939.0
103,1131.0
104,1167.0
105,1066.0
106,1126.0
107,1064.5
108,1069.0
109,1101.0
110,1104.0
111,1055.3333333333333
112,1006.0
113,948.0
114,859.0
115,913.0
116,967.0
117,943.6666666666666
118,917.0
119,932.0
120,988.0
121,961.0
122,995.0
123,1016.5
124,999.0
125,993.0
126,896.0
127,913.0
128,1032.0
129,924.0
130,969.0
131,889.0
132,968.0
133,961.0
134,899.0
135,987.0
136,937.5
137,924.5
138,1027.0
139,901.0
140,969.5
141,985.75
142,1002.0
143,1167.0
144,921.0
145,973.5
146,1026.0
147,1000.0
148,1142.0
149,1014.0
150,1069.0
151,1051.0
152,986.0
153,1040.0
154,987.0
155,1022.0
156,1057.0
157,1049.5
158,843.0
159,996.0
160,973.0
161,1037.0
162,982.0
163,927.0
164,911.0
165,1015.0
166,977.0
167,1004.0
168,934.0
169,976.5
170,983.0
171,959.0
172,1080.0
173,962.0
174,984.0
175,1014.0
176,964.0
177,1036.0
178,955.0
179,960.0
180,1042.0
181,952.0
182,1042.0
183,959.0
184,1017.0
185,1064.0
186,982.5
187,1014.0
188,926.0
189,1013.0
190,1087.0
191,999.0
192,1076.0
193,969.0
194,1060.5
195,1032.0
196,1026.8333333333333
197,1021.6666666666666
198,990.0
199,1040.0
