time_range,Acceleration_Y
0,1067.0
1,812.0
2,904.5
3,1049.0
4,831.0
5,1396.0
6,1086.0
7,1100.3333333333335
8,1114.6666666666667
9,896.0
10,1095.0
11,1015.0
12,964.0
13,1026.0
14,854.0
15,1150.0
16,742.0
17,823.0
18,948.0
19,686.0
20,1240.0
21,826.0
22,1080.0
23,1057.0
24,898.0
25,963.0
26,860.0
27,1091.0
28,1093.0
29,1097.0
30,1209.0
31,1099.0
32,967.0
33,825.0
34,1234.0
35,813.0
36,798.0
37,919.0
38,974.0
39,974.0
40,864.0
41,1024.0
42,976.0
43,1107.0
44,1085.0
45,930.0
46,1031.5
47,1082.0
48,1039.0
49,1105.0
50,994.0
51,948.0
52,1209.0
53,1073.0
54,1022.0
55,971.0
56,845.0
57,878.0
58,1016.0
59,906.0
60,859.0
61,678.0
62,1249.0
63,745.0
64,902.0
65,938.0
66,683.0
67,848.75
68,1014.5
69,1063.0
70,971.0
71,934.0
72,1125.0
73,946.0
74,1061.0
75,1133.0
76,1232.0
77,1062.0
78,869.0
79,837.6666666666667
80,806.3333333333334
81,1386.0
82,821.0
83,1037.0
84,978.0
85,912.6666666666667
86,847.3333333333334
87,800.0
88,1013.0
89,1027.0
90,1075.0
91,1065.0
92,885.0
93,1029.0
94,1175.0
95,1068.5
96,1243.0
97,833.0
98,912.0
99,1155.0
100,963.0
101,1009.0
102,712.0
103,896.0
104,848.0
105,1000.0
106,867.0
107,782.0
108,966.0
109,969.0
110,965.0
111,998.5
112,1062.75
113,1127.0
114,1092.0
115,1179.0
116,1082.5
117,940.0
118,1057.0
119,1025.0
120,917.0
121,716.0
122,867.0
123,1326.0
124,815.0
125,922.0
126,992.0
127,823.0
128,1387.0
129,1132.0
130,1151.0
131,970.0
132,844.0
133,1449.0
134,1040.0
135,974.0
136,988.5
137,1049.0
138,1171.0
139,906.0
140,1003.0
141,1064.0
142,722.0
143,1224.0
144,723.0
145,880.0
146,878.0
147,643.0
148,807.5
149,824.0
150,866.0
151,952.0
152,976.0
153,929.0
154,877.0
155,1009.0
156,1131.0
157,1136.0
158,825.0
159,891.0
160,1218.0
161,1137.0
162,1191.0
163,941.0
164,922.0
165,1015.0
166,1010.0
167,1015.0
168,987.3333333333333
169,959.6666666666666
170,1003.0
171,725.0
172,869.0
173,904.0
174,748.0
175,1270.0
176,836.0
177,1023.0
178,1049.0
179,836.0
180,1103.0
181,1075.0
182,1148.0
183,966.0
184,854.0
185,1130.0
186,1034.75
187,939.5
188,992.0
189,787.0
190,1191.0
191,745.0
192,899.0
193,963.0
194,646.0
195,1080.0
196,1013.0
197,946.0
198,967.5
199,973.0
