time_range,Acceleration_Y
0,967.0
1,732.0
2,914.0
3,974.0
4,899.0
5,824.0
6,671.0
7,1351.0
8,750.0
9,1018.0
10,1044.0
11,765.0
12,1535.0
13,1058.0
14,1155.0
15,1111.2222222222222
16,1067.4444444444443
17,1023.6666666666666
18,973.5
19,1047.0
20,1056.0
21,830.0
22,1080.5
23,704.0
24,894.0
25,984.0
26,719.0
27,1497.0
28,820.0
29,1107.0
30,833.0
31,1015.0
32,981.0
33,847.0
34,1013.0
35,1088.0
36,1147.3333333333333
37,824.0
38,893.0
39,962.0
40,791.5
41,1074.0
42,976.5
43,855.5
44,828.0
45,981.0
46,827.0
47,790.5
48,945.0
49,913.0
50,1149.0
51,1150.5
52,907.0
53,779.0
54,1513.0
55,1105.0
56,1209.0
57,1035.0
58,978.0
59,1128.0
60,1040.0
61,915.0
62,768.0
63,871.0
64,874.5
65,682.0
66,844.0
67,962.0
68,607.0
69,1419.0
70,1158.0
71,1065.0
72,1031.0
73,912.0
74,1377.0
75,1104.0
76,1107.0
77,1142.0
78,1175.5
79,733.0
80,791.5
81,988.0
82,596.0
83,1294.0
84,672.0
85,885.0
86,1114.0
87,768.0
88,795.0
89,795.0
90,995.0
91,1012.0
92,1253.0
93,1121.0
94,870.0
95,1116.0
96,1091.0
97,916.5
98,1323.0
99,691.0
100,888.0
101,978.75
102,1069.5
103,952.0
104,909.0
105,932.0
106,886.0
107,1099.0
108,1005.0
109,887.0
110,1183.0
111,1112.0
112,972.0
113,1104.0
114,1062.0
115,1084.3333333333333
116,1073.0
117,1104.5
118,1136.0
119,833.5
120,868.75
121,904.0
122,932.0
123,1031.0
124,650.0
125,1293.0
126,724.0
127,951.0
128,956.0
129,783.0
130,1476.0
131,1003.0
132,1173.0
133,861.0
134,837.0
135,1193.0
136,881.0
137,1053.0
138,1069.0
139,816.0
140,1023.5
141,697.0
142,821.0
143,900.0
144,640.0
145,1404.0
146,819.0
147,953.0
148,835.0
149,1094.0
150,1025.0
151,810.0
152,1068.0
153,1177.0
154,1175.0
155,1125.0
156,750.0
157,1308.0
158,837.0
159,1064.0
160,960.0
161,939.0
162,1000.5
163,934.0
164,934.0
165,934.0
166,934.0
167,934.0
168,934.0
169,934.0
170,934.0
171,934.0
172,934.0
173,934.0
174,934.0
175,934.0
176,934.0
177,934.0
178,934.0
179,934.0
180,934.0
181,934.0
182,934.0
183,934.0
184,934.0
185,934.0
186,934.0
187,934.0
188,934.0
189,934.0
190,934.0
191,934.0
192,934.0
193,934.0
194,934.0
195,934.0
196,934.0
197,934.0
198,934.0
199,934.0
