time_range,Acceleration_Y
0,236.0
1,-18.0
2,83.25
3,184.5
4,108.0
5,71.0
6,34.0
7,-47.0
8,58.0
9,43.0
10,-121.0
11,-44.0
12,64.0
13,281.0
14,110.0
15,49.0
16,84.0
17,-27.0
18,95.5
19,27.0
20,-130.0
21,-124.0
22,29.0
23,261.0
24,126.0
25,46.0
26,-127.0
27,172.0
28,179.0
29,28.0
30,-110.0
31,-48.0
32,12.0
33,266.0
34,84.0
35,20.0
36,-23.0
37,140.0
38,111.0
39,54.0
40,-169.0
41,7.0
42,56.0
43,78.0
44,44.0
45,10.0
46,169.0
47,111.0
48,-158.0
49,-133.0
50,-80.33333333333334
51,-27.666666666666668
52,-22.0
53,-153.0
54,26.0
55,82.5
56,183.0
57,81.0
58,-243.0
59,-70.0
60,60.0
61,64.0
62,4.0
63,-82.0
64,28.0
65,202.0
66,142.0
67,32.0
68,-253.0
69,139.0
70,126.0
71,126.0
72,-44.5
73,-122.0
74,-2.0
75,232.0
76,96.0
77,-13.0
78,-246.0
79,146.0
80,107.5
81,-27.0
82,-92.0
83,-47.0
84,-2.0
85,25.666666666666668
86,51.0
87,-162.0
88,176.0
89,114.0
90,20.0
91,37.0
92,-28.0
93,20.0
94,114.0
95,-71.0
96,6.0
97,284.0
98,205.0
99,153.0
100,-87.0
101,1.0
102,232.0
103,51.0
104,60.0
105,-82.0
106,12.0
107,289.0
108,196.5
109,104.0
110,-205.0
111,42.0
112,210.0
113,76.0
114,1.0
115,-169.0
116,14.0
117,280.0
118,38.5
119,-91.25
120,-221.0
121,141.66666666666666
122,100.0
123,-98.0
124,-136.0
125,4.0
126,232.0
127,0.0
128,35.0
129,213.0
130,123.0
131,175.0
132,73.0
133,-59.0
134,46.0
135,18.0
136,234.0
137,-17.0
138,46.0
139,237.0
140,119.0
141,195.0
142,89.0
143,-53.0
144,152.0
145,55.0
146,197.0
147,-113.0
148,18.0
149,301.0
150,113.0
151,103.0
152,48.5
153,-6.0
154,226.0
155,82.0
156,-204.0
157,-129.0
158,27.0
159,176.0
160,84.0
161,74.66666666666667
162,65.33333333333333
163,56.0
164,102.66666666666666
165,149.33333333333331
166,196.0
167,51.0
168,118.66666666666667
169,162.33333333333334
170,206.0
171,75.66666666666667
172,114.0
173,152.33333333333334
174,96.0
175,-128.0
176,68.0
177,85.0
178,276.0
179,31.0
180,18.0
181,206.0
182,142.0
183,189.0
184,110.0
185,79.16666666666667
186,48.333333333333336
187,40.0
188,-36.0
189,0.0
190,16.0
191,213.0
192,138.0
193,45.0
194,91.0
195,-72.0
196,129.0
197,63.0
198,-155.0
199,-109.0
