time_range,Acceleration_Y
0,4.0
1,52.0
2,-165.0
3,-79.0
4,62.0
5,223.0
6,67.0
7,-263.0
8,-187.0
9,18.0
10,87.0
11,-61.0
12,-271.0
13,-58.0
14,240.0
15,196.66666666666669
16,153.33333333333334
17,-313.0
18,90.0
19,175.0
20,44.0
21,-87.0
22,-269.0
23,30.0
24,285.0
25,152.0
26,-23.0
27,-337.0
28,160.0
29,129.5
30,-190.0
31,-313.0
32,-75.75
33,161.5
34,-87.0
35,-3.0
36,-132.0
37,154.0
38,202.0
39,23.0
40,-161.0
41,-212.0
42,44.0
43,211.0
44,111.55555555555556
45,12.111111111111114
46,-87.33333333333333
47,-5.0
48,189.0
49,-51.0
50,18.0
51,-100.0
52,57.0
53,170.0
54,-209.0
55,15.0
56,403.0
57,214.0
58,170.0
59,-138.0
60,17.0
61,355.0
62,64.0
63,42.0
64,-242.0
65,-110.0
66,377.0
67,88.0
68,-57.0
69,-247.0
70,185.0
71,95.0
72,-44.0
73,-251.0
74,0.0
75,349.0
76,118.0
77,-30.0
78,-300.0
79,-101.0
80,348.0
81,348.0
82,-1.5
83,99.0
84,5.0
85,373.0
86,-16.0
87,-34.0
88,79.0
89,192.0
90,246.0
91,163.0
92,-96.0
93,42.0
94,70.0
95,275.0
96,-9.0
97,-42.0
98,302.0
99,181.0
100,228.0
101,41.0
102,-85.0
103,201.0
104,65.0
105,-158.0
106,-37.0
107,259.0
108,259.0
109,205.0
110,-160.33333333333334
111,-65.0
112,248.0
113,74.0
114,-129.0
115,-99.0
116,27.5
117,154.0
118,243.0
119,-21.0
120,-62.666666666666664
121,-104.33333333333333
122,294.0
123,73.0
124,-219.0
125,-111.0
126,86.0
127,390.0
128,114.0
129,-66.0
130,-8.5
131,120.5
132,333.0
133,93.0
134,-167.0
135,58.0
136,124.0
137,42.0
138,90.0
139,9.5
140,119.0
141,198.0
142,51.0
143,-127.0
144,-150.0
145,69.0
146,96.0
147,123.0
148,-279.0
149,-20.0
150,187.5
151,-12.0
152,-298.0
153,141.0
154,143.0
155,123.0
156,0.0
157,-249.0
158,-92.5
159,264.0
160,163.0
161,-14.0
162,-267.0
163,160.0
164,290.0
165,78.0
166,-129.0
167,-262.0
168,31.0
169,304.0
170,-61.0
171,-9.0
172,-217.0
173,126.0
174,248.0
175,-20.0
176,-168.0
177,-213.0
178,-91.0
179,141.0
180,-143.0
181,-26.0
182,-161.0
183,183.0
184,238.0
185,-69.0
186,-60.0
187,333.0
188,30.0
189,219.0
190,40.0
191,-139.0
192,316.0
193,103.0
194,-198.0
195,-13.0
196,366.0
197,104.0
198,121.0
199,-287.0
