time_range,Acceleration_Y
0,-44.5
1,21.0
2,-137.0
3,39.0
4,58.0
5,134.0
6,-32.0
7,240.0
8,31.0
9,-107.0
10,-221.0
11,-40.0
12,-87.0
13,30.0
14,149.0
15,81.0
16,0.0
17,159.0
18,-81.0
19,66.0
20,-115.0
21,123.0
22,-68.0
23,7.166666666666657
24,82.33333333333333
25,127.0
26,-62.0
27,55.0
28,-124.0
29,49.0
30,-41.0
31,132.0
32,40.0
33,88.0
34,-86.0
35,46.0
36,-119.0
37,91.0
38,159.5
39,228.0
40,143.0
41,49.0
42,-32.0
43,-119.0
44,-18.0
45,-45.0
46,-5.0
47,167.0
48,34.0
49,-1.0
50,-21.5
51,8.0
52,-60.0
53,33.0
54,-43.0
55,-8.0
56,68.0
57,140.0
58,90.0
59,138.0
60,-20.0
61,-4.0
62,-100.0
63,142.0
64,-95.0
65,85.0
66,-36.0
67,93.0
68,-98.0
69,141.0
70,-111.0
71,-47.0
72,23.0
73,116.5
74,-14.0
75,128.0
76,-24.0
77,31.0
78,-100.0
79,7.666666666666667
80,147.0
81,111.0
82,142.0
83,-31.0
84,86.0
85,20.0
86,-6.0
87,24.0
88,181.0
89,96.0
90,128.0
91,-57.0
92,0.0
93,113.0
94,106.0
95,-117.0
96,66.0
97,38.0
98,10.0
99,-101.0
100,-3.0
101,-120.0
102,-121.0
103,-1.0
104,-153.0
105,-5.5
106,86.0
107,61.0
108,47.0
109,96.0
110,-76.0
111,-82.0
112,-9.0
113,172.0
114,125.5
115,38.0
116,87.0
117,87.0
118,62.0
119,-35.0
120,48.0
121,16.0
122,181.0
123,-102.0
124,54.5
125,211.0
126,8.5
127,-97.0
128,125.0
129,0.0
130,196.0
131,54.0
132,143.0
133,-113.0
134,98.0
135,-132.0
136,-56.0
137,-37.0
138,138.0
139,127.83333333333334
140,117.66666666666667
141,-49.0
142,-20.0
143,-31.0
144,41.0
145,-136.0
146,-3.5
147,129.0
148,100.0
149,-86.0
150,87.0
151,-63.0
152,-39.0
153,-58.0
154,-70.0
155,29.0
156,47.5
157,-4.0
158,113.0
159,-48.0
160,-87.0
161,-12.75
162,61.5
163,-48.0
164,221.0
165,17.0
166,-6.0
167,-81.0
168,62.0
169,-183.0
170,101.0
171,62.0
172,166.0
173,-11.0
174,232.0
175,59.0
176,137.0
177,-110.0
178,68.0
179,-51.0
180,67.5
181,74.0
182,116.0
183,-70.0
184,163.0
185,40.0
186,86.0
187,-67.0
188,108.5
189,-14.0
190,81.5
191,-69.0
192,113.0
193,-58.0
194,120.0
195,-101.0
196,175.0
197,77.0
198,77.0
199,79.0
