time_range,Acceleration_Y
0,63.0
1,56.0
2,-83.0
3,99.0
4,29.5
5,63.0
6,38.5
7,160.0
8,84.5
9,112.0
10,-68.0
11,-9.0
12,-42.0
13,107.0
14,-22.0
15,165.0
16,115.0
17,111.0
18,-102.0
19,51.0
20,-23.0
21,-34.5
22,-16.0
23,166.0
24,75.0
25,74.0
26,16.0
27,68.0
28,-15.0
29,38.0
30,25.0
31,62.5
32,100.0
33,31.5
34,-10.0
35,60.0
36,11.5
37,11.0
38,105.0
39,119.0
40,19.0
41,192.0
42,26.0
43,29.0
44,-76.0
45,119.0
46,-69.0
47,113.0
48,52.0
49,108.0
50,9.0
51,97.0
52,4.0
53,35.0
54,24.5
55,119.0
56,50.0
57,78.5
58,12.0
59,63.0
60,-81.0
61,61.0
62,-30.0
63,3.0
64,11.0
65,147.0
66,113.25
67,79.5
68,4.0
69,82.0
70,-25.0
71,57.0
72,21.0
73,43.5
74,62.0
75,-38.0
76,-6.0
77,48.0
78,125.0
79,103.0
80,81.0
81,118.0
82,25.0
83,103.0
84,53.0
85,47.916666666666664
86,42.833333333333336
87,37.75
88,-30.0
89,71.0
90,54.0
91,50.0
92,6.0
93,84.0
94,17.0
95,12.0
96,48.0
97,122.0
98,-7.0
99,149.0
100,-17.0
101,67.0
102,-94.0
103,83.0
104,-33.0
105,144.0
106,13.0
107,165.0
108,67.0
109,92.0
110,27.0
111,-72.0
112,81.0
113,30.5
114,67.5
115,4.0
116,111.0
117,-98.0
118,25.0
119,-39.0
120,106.0
121,-33.0
122,216.0
123,94.0
124,50.0
125,-46.5
126,74.0
127,-19.0
128,-18.0
129,46.0
130,85.83333333333334
131,125.66666666666667
132,72.0
133,27.0
134,13.0
135,-6.0
136,38.0
137,28.0
138,58.0
139,134.0
140,89.0
141,41.0
142,-30.0
143,71.0
144,-91.0
145,80.0
146,85.0
147,148.0
148,20.0
149,185.0
150,38.0
151,48.0
152,20.0
153,-88.0
154,7.5
155,47.0
156,133.0
157,-1.0
158,115.0
159,-179.0
160,40.0
161,26.0
162,80.5
163,-33.0
164,197.0
165,83.0
166,75.0
167,34.833333333333336
168,-5.333333333333329
169,-45.5
170,5.0
171,25.0
172,134.0
173,71.0
174,88.0
175,20.0
176,89.0
177,-23.0
178,58.0
179,30.5
180,63.0
181,64.5
182,66.0
183,29.5
184,-23.0
185,19.5
186,-15.0
187,-44.0
188,169.0
189,121.0
190,17.0
191,202.0
192,-25.0
193,-32.333333333333336
194,77.0
195,22.0
196,79.0
197,68.0
198,43.0
199,25.5
