time_range,Acceleration_Y
0,80.0
1,38.0
2,107.0
3,-3.0
4,3.0
5,55.0
6,117.0
7,84.5
8,192.0
9,-8.0
10,8.0
11,-30.0
12,-0.6666666666666679
13,28.666666666666664
14,58.0
15,89.0
16,152.0
17,81.0
18,91.0
19,31.0
20,70.0
21,-101.0
22,66.0
23,1.0
24,70.5
25,70.41666666666666
26,70.33333333333333
27,-95.0
28,-26.5
29,-56.0
30,-66.0
31,8.0
32,114.5
33,124.0
34,128.0
35,-4.0
36,-4.0
37,-8.0
38,-4.0
39,37.5
40,112.0
41,67.0
42,-22.0
43,-10.0
44,12.5
45,-53.0
46,18.0
47,130.0
48,152.0
49,103.0
50,179.0
51,115.0
52,-28.0
53,-43.0
54,40.0
55,-74.0
56,107.0
57,110.0
58,173.5
59,22.0
60,43.0
61,-101.0
62,31.0
63,85.0
64,109.0
65,85.0
66,138.0
67,130.0
68,85.0
69,-99.0
70,43.0
71,-41.0
72,15.0
73,23.0
74,104.0
75,83.0
76,106.0
77,-63.0
78,-19.0
79,8.0
80,84.0
81,108.5
82,121.0
83,82.0
84,-125.0
85,21.0
86,-11.0
87,-9.0
88,-20.0
89,161.0
90,128.0
91,108.0
92,-14.0
93,9.0
94,28.0
95,38.0
96,54.0
97,53.0
98,52.0
99,74.25
100,-55.0
101,-29.0
102,31.0
103,-39.0
104,85.0
105,-81.0
106,120.0
107,88.5
108,177.0
109,16.0
110,145.0
111,-41.0
112,1.0
113,19.0
114,126.0
115,115.75
116,105.5
117,18.0
118,-32.0
119,-37.0
120,-60.0
121,25.75
122,111.5
123,100.5
124,127.0
125,68.0
126,39.5
127,35.083333333333336
128,30.666666666666668
129,82.0
130,1.0
131,175.0
132,96.5
133,115.0
134,-151.0
135,59.0
136,0.0
137,-38.0
138,17.0
139,241.0
140,126.0
141,108.0
142,65.33333333333334
143,22.66666666666667
144,-20.0
145,29.0
146,43.83333333333333
147,58.666666666666664
148,135.0
149,119.0
150,5.0
151,-25.0
152,6.0
153,-86.0
154,20.0
155,79.0
156,153.0
157,100.5
158,163.0
159,-7.0
160,-130.0
161,-16.5
162,-79.0
163,67.0
164,85.0
165,108.5
166,52.0
167,110.0
168,-164.0
169,-6.0
170,22.0
171,99.0
172,13.0
173,234.0
174,122.0
175,13.0
176,-110.0
177,7.0
178,-12.5
179,16.0
180,60.0
181,159.0
182,133.5
183,64.0
184,-12.0
185,-67.0
186,-110.0
187,103.0
188,-8.0
189,158.0
190,155.5
191,148.0
192,-183.0
193,20.0
194,-40.0
195,-29.0
196,26.0
197,199.0
198,93.0
199,110.0
