time_range,Acceleration_Y
0,147.0
1,202.0
2,-48.0
3,-118.0
4,-480.0
5,-71.0
6,159.0
7,219.0
8,145.0
9,452.0
10,169.0
11,-148.0
12,-413.0
13,-29.0
14,-61.5
15,-94.0
16,187.0
17,390.0
18,29.0
19,17.0
20,-99.0
21,-132.0
22,-74.0
23,175.0
24,138.0
25,392.0
26,318.5
27,125.0
28,-428.0
29,-58.0
30,-109.5
31,-161.0
32,298.0
33,135.0
34,108.0
35,151.0
36,96.33333333333334
37,41.66666666666667
38,-13.0
39,181.0
40,191.0
41,317.0
42,111.0
43,-51.0
44,-40.0
45,-50.0
46,-385.0
47,-165.5
48,-218.0
49,292.0
50,135.0
51,333.0
52,7.0
53,-2.0
54,-374.0
55,-134.0
56,47.0
57,260.0
58,69.0
59,199.0
60,-85.0
61,-95.0
62,-259.5
63,-48.0
64,-276.0
65,364.0
66,158.0
67,388.0
68,120.0
69,46.0
70,-212.5
71,64.0
72,-64.0
73,-27.0
74,189.0
75,150.5
76,112.0
77,-26.0
78,-171.0
79,-83.25
80,4.5
81,132.0
82,298.0
83,247.0
84,173.5
85,-334.0
86,-93.0
87,-219.0
88,-276.0
89,-63.5
90,496.0
91,145.0
92,65.0
93,201.0
94,-27.0
95,-114.0
96,-25.0
97,124.0
98,188.0
99,294.0
100,139.0
101,53.5
102,-113.0
103,-108.0
104,-451.0
105,79.0
106,-173.0
107,217.0
108,151.0
109,243.0
110,133.0
111,23.0
112,-227.33333333333334
113,-48.0
114,225.0
115,133.0
116,320.0
117,-80.0
118,-99.0
119,-118.0
120,-346.0
121,-90.0
122,335.0
123,84.0
124,313.0
125,124.0
126,88.0
127,218.0
128,-25.0
129,-229.0
130,-42.0
131,5.0
132,52.0
133,99.0
134,58.0
135,-17.0
136,-153.0
137,-122.0
138,18.5
139,104.0
140,189.5
141,274.0
142,122.0
143,391.0
144,-54.0
145,-181.0
146,-276.0
147,101.0
148,44.5
149,189.0
150,93.0
151,148.0
152,-18.5
153,-454.0
154,-164.0
155,221.0
156,253.5
157,286.0
158,423.0
159,170.25
160,-82.5
161,-212.5
162,-6.0
163,-159.0
164,255.0
165,208.0
166,355.0
167,106.0
168,-12.0
169,-57.0
170,125.0
171,17.0
172,179.0
173,126.0
174,219.5
175,-41.0
176,-55.0
177,-192.0
178,-112.0
179,-133.0
180,-220.0
181,-94.0
182,226.5
183,236.5
184,104.0
185,154.0
186,65.5
187,-111.0
188,-98.0
189,72.0
190,184.0
191,113.0
192,0.5
193,-72.0
194,-94.0
195,80.0
196,198.0
197,216.5
198,306.0
199,77.0
