time_range,Acceleration_Y
0,-217.0
1,-136.0
2,418.0
3,198.0
4,144.16666666666666
5,90.33333333333333
6,-14.0
7,52.0
8,-56.0
9,-62.0
10,176.0
11,266.0
12,152.0
13,274.5
14,-56.0
15,-182.0
16,-298.0
17,-202.0
18,-177.0
19,108.0
20,212.0
21,160.0
22,36.0
23,121.0
24,-4.5
25,-130.0
26,103.0
27,284.0
28,175.0
29,427.0
30,204.0
31,211.5
32,-287.0
33,-55.0
34,-86.0
35,11.0
36,-29.0
37,192.75
38,157.0
39,-345.0
40,-52.0
41,-131.5
42,-211.0
43,201.0
44,437.0
45,339.5
46,242.0
47,-103.0
48,-108.0
49,-274.0
50,-110.5
51,-52.0
52,343.0
53,321.0
54,165.0
55,-372.0
56,-43.0
57,-231.0
58,-201.0
59,-169.5
60,-88.0
61,251.0
62,220.0
63,-22.0
64,-21.0
65,15.0
66,-337.0
67,-95.0
68,227.0
69,279.0
70,191.0
71,404.0
72,285.5
73,-221.0
74,-199.0
75,-177.0
76,-162.0
77,107.0
78,46.0
79,311.0
80,192.0
81,73.0
82,2.0
83,-69.0
84,-140.0
85,-95.22222222222223
86,-50.44444444444444
87,-5.666666666666667
88,248.66666666666666
89,-209.0
90,-80.0
91,-204.0
92,153.0
93,44.0
94,251.0
95,255.75
96,260.5
97,-348.0
98,-78.0
99,-335.0
100,-38.0
101,-114.0
102,132.0
103,184.0
104,219.0
105,-160.0
106,-117.0
107,-209.0
108,-334.0
109,-138.5
110,492.0
111,292.0
112,198.0
113,230.0
114,-111.0
115,-102.0
116,-160.0
117,-47.5
118,245.0
119,145.0
120,-112.0
121,-111.5
122,-99.0
123,-381.0
124,-23.0
125,-138.5
126,322.0
127,234.5
128,147.0
129,256.3333333333333
130,170.0
131,-423.0
132,-166.0
133,-57.0
134,221.0
135,106.0
136,275.5
137,251.0
138,-12.0
139,-325.0
140,-12.0
141,-259.0
142,32.0
143,-77.0
144,373.0
145,55.0
146,214.0
147,-70.0
148,-89.0
149,-200.0
150,173.0
151,119.5
152,465.0
153,263.0
154,209.0
155,25.0
156,-62.0
157,-149.0
158,-90.0
159,188.0
160,269.0
161,132.0
162,-343.0
163,-213.5
164,-175.0
165,-217.5
166,-46.0
167,-117.5
168,281.0
169,181.0
170,126.0
171,4.0
172,83.0
173,-452.0
174,-290.5
175,-129.0
176,251.0
177,146.0
178,385.0
179,282.0
180,29.0
181,-366.0
182,0.0
183,-238.0
184,86.0
185,-20.0
186,324.0
187,-31.0
188,67.0
189,-503.0
190,-382.5
191,-262.0
192,251.0
193,177.0
194,466.0
195,227.0
196,243.0
197,-65.0
198,-48.333333333333336
199,-103.0
