time_range,Acceleration_Y
0,33.5
1,24.0
2,51.0
3,3.0
4,29.0
5,5.0
6,24.0
7,27.0
8,58.0
9,15.0
10,10.5
11,5.5
12,-16.0
13,-27.5
14,49.0
15,41.16666666666667
16,33.333333333333336
17,57.0
18,118.0
19,15.0
20,26.0
21,-102.0
22,79.0
23,-4.0
24,49.0
25,17.0
26,-22.0
27,42.0
28,48.5
29,35.5
30,75.0
31,-11.0
32,2.0
33,-10.0
34,37.0
35,30.0
36,-5.5
37,20.0
38,54.0
39,60.0
40,66.5
41,58.0
42,31.0
43,36.0
44,-24.0
45,-58.0
46,85.0
47,-14.0
48,20.0
49,-18.0
50,65.0
51,36.0
52,67.0
53,-30.0
54,-63.0
55,-83.0
56,33.0
57,68.0
58,31.0
59,47.0
60,101.0
61,50.5
62,36.0
63,-37.0
64,40.0
65,15.5
66,29.0
67,-7.0
68,5.0
69,2.0
70,124.0
71,-29.0
72,23.0
73,-44.0
74,-8.0
75,58.0
76,49.0
77,40.0
78,-64.0
79,-5.0
80,12.0
81,29.0
82,11.0
83,45.0
84,42.75
85,40.5
86,-41.0
87,-17.0
88,36.5
89,-13.0
90,60.0
91,31.0
92,48.0
93,-18.0
94,40.0
95,-31.0
96,-63.0
97,-46.5
98,91.0
99,31.0
100,40.0
101,20.0
102,42.0
103,61.0
104,79.0
105,-101.0
106,58.0
107,45.0
108,62.0
109,26.0
110,32.0
111,11.0
112,58.0
113,17.0
114,38.0
115,-45.0
116,42.0
117,42.0
118,42.0
119,42.0
120,36.5
121,32.5
122,35.25
123,38.0
124,65.0
125,-0.5
126,142.0
127,71.0
128,-23.0
129,-15.0
130,61.0
131,51.5
132,31.0
133,-20.0
134,-15.0
135,9.0
136,70.0
137,34.5
138,19.5
139,18.0
140,39.0
141,25.0
142,50.0
143,-68.0
144,175.0
145,57.0
146,46.0
147,-58.0
148,54.0
149,21.0
150,137.0
151,-20.0
152,70.0
153,-42.0
154,93.0
155,48.0
156,61.0
157,-79.0
158,82.5
159,0.0
160,12.0
161,61.0
162,-46.0
163,47.0
164,74.0
165,35.0
166,-68.0
167,47.0
168,47.0
169,6.0
170,-15.0
171,49.0
172,52.5
173,48.0
174,70.0
175,21.0
176,-33.5
177,21.0
178,129.0
179,78.25
180,27.5
181,6.0
182,26.0
183,22.0
184,40.0
185,-44.0
186,142.0
187,-56.0
188,65.0
189,26.0
190,62.0
191,-79.0
192,37.0
193,4.0
194,43.0
195,-45.0
196,139.0
197,58.0
198,81.0
199,51.5
