time_range,Acceleration_Y
0,542.0
1,437.25
2,332.5
3,319.0
4,2.0
5,253.0
6,-227.0
7,-205.5
8,-54.0
9,316.0
10,65.0
11,605.0
12,437.0
13,-120.0
14,-451.0
15,-43.0
16,-393.0
17,73.0
18,-83.0
19,497.0
20,249.0
21,261.0
22,-523.0
23,-29.0
24,-63.0
25,346.0
26,62.0
27,626.0
28,451.0
29,288.0
30,-444.0
31,-362.0
32,-280.0
33,15.0
34,-136.0
35,246.0
36,115.0
37,323.0
38,-299.5
39,-291.25
40,-283.0
41,-11.0
42,597.0
43,346.0
44,238.0
45,287.0
46,-23.0
47,-400.0
48,-101.0
49,-138.0
50,65.0
51,335.0
52,111.0
53,-71.5
54,-218.5
55,-152.0
56,-486.0
57,-233.0
58,-444.0
59,432.0
60,247.0
61,475.0
62,222.5
63,240.0
64,-601.0
65,-48.0
66,-49.5
67,345.0
68,74.0
69,614.0
70,299.0
71,105.0
72,-89.0
73,-21.0
74,-245.0
75,63.0
76,-107.0
77,232.5
78,21.0
79,-121.0
80,-307.0
81,-339.0
82,-14.5
83,13.0
84,668.0
85,329.0
86,272.0
87,52.0
88,40.5
89,-443.0
90,-38.0
91,-143.0
92,201.0
93,379.0
94,351.0
95,57.25
96,-236.5
97,-175.5
98,-443.0
99,-200.5
100,549.0
101,384.0
102,163.0
103,404.0
104,-36.0
105,73.0
106,-148.0
107,-204.0
108,-79.0
109,319.0
110,54.0
111,643.0
112,-133.0
113,-51.0
114,-278.5
115,31.0
116,-414.0
117,95.5
118,151.0
119,402.3333333333333
120,314.0
121,-502.0
122,-111.0
123,-227.0
124,267.0
125,-17.0
126,676.0
127,521.5
128,248.5
129,-618.0
130,16.0
131,-458.0
132,-91.0
133,-149.0
134,107.0
135,363.0
136,353.0
137,-308.0
138,-202.0
139,-231.0
140,200.0
141,-33.0
142,606.0
143,498.0
144,179.0
145,247.5
146,-13.0
147,-238.5
148,-154.0
149,-178.0
150,8.0
151,336.0
152,349.0
153,-135.0
154,-166.0
155,-74.0
156,-536.0
157,20.0
158,491.0
159,300.5
160,603.0
161,283.5
162,333.0
163,333.0
164,-195.5
165,-136.5
166,329.0
167,27.0
168,374.5
169,-139.0
170,31.0
171,-598.0
172,-285.0
173,28.0
174,-308.6666666666667
175,106.0
176,533.0
177,42.0
178,382.0
179,-392.0
180,-182.0
181,-326.0
182,-43.5
183,-25.0
184,696.0
185,382.0
186,173.0
187,-236.5
188,21.0
189,-194.0
190,-93.0
191,-188.0
192,69.0
193,192.0
194,379.0
195,109.5
196,-204.0
197,-230.0
198,-529.0
199,-15.0
