time_range,Acceleration_Y
0,110.0
1,83.0
2,-9.0
3,5.0
4,20.0
5,34.0
6,41.0
7,34.0
8,30.0
9,67.0
10,66.0
11,78.0
12,36.0
13,30.5
14,18.0
15,36.0
16,64.0
17,20.0
18,14.0
19,44.0
20,95.0
21,113.0
22,1.0
23,13.0
24,-6.0
25,20.0
26,21.0
27,51.0
28,24.0
29,27.0
30,62.0
31,71.0
32,80.0
33,42.0
34,21.5
35,24.0
36,50.0
37,4.0
38,-6.0
39,21.0
40,89.0
41,89.0
42,111.0
43,23.0
44,10.0
45,45.0
46,27.0
47,68.0
48,3.0
49,10.5
50,49.0
51,67.0
52,72.0
53,51.0
54,21.0
55,22.0
56,23.0
57,49.0
58,43.75
59,38.5
60,25.0
61,81.0
62,68.0
63,104.0
64,15.0
65,10.833333333333334
66,6.666666666666667
67,28.0
68,27.0
69,15.0
70,4.0
71,53.0
72,76.0
73,58.0
74,41.0
75,24.0
76,23.0
77,34.0
78,38.5
79,24.0
80,9.5
81,33.75
82,58.0
83,133.0
84,0.0
85,-2.0
86,-15.0
87,-1.5
88,30.0
89,6.0
90,6.0
91,30.0
92,78.0
93,70.0
94,54.0
95,34.0
96,31.0
97,28.0
98,29.0
99,49.0
100,2.0
101,3.0
102,31.0
103,93.0
104,106.0
105,48.5
106,-3.0
107,-9.0
108,17.0
109,20.0
110,24.0
111,5.0
112,20.0
113,72.0
114,64.75
115,57.5
116,29.0
117,25.0
118,25.0
119,36.5
120,1.0
121,7.0
122,30.0
123,90.0
124,66.0
125,38.5
126,3.0
127,-19.0
128,5.0
129,18.0
130,20.0
131,9.0
132,-1.0
133,52.0
134,66.0
135,68.0
136,45.0
137,38.0
138,26.0
139,20.0
140,45.0
141,31.0
142,24.0
143,20.0
144,61.5
145,95.0
146,19.0
147,1.0
148,-5.5
149,-12.0
150,16.0
151,30.0
152,5.0
153,41.0
154,73.0
155,73.0
156,64.0
157,44.5
158,38.44444444444444
159,32.388888888888886
160,26.333333333333332
161,-10.0
162,-0.5
163,-2.0
164,46.0
165,96.0
166,41.0
167,22.666666666666668
168,4.333333333333333
169,-17.0
170,29.0
171,39.5
172,15.0
173,5.0
174,23.0
175,71.0
176,73.0
177,49.0
178,43.5
179,30.0
180,20.0
181,24.0
182,-8.0
183,3.0
184,-3.0
185,84.0
186,96.0
187,99.0
188,-6.0
189,19.0
190,-18.0
191,37.0
192,42.0
193,13.0
194,6.5
195,66.0
196,63.0
197,63.0
198,54.0
199,40.0
