time_range,Acceleration_Y
0,88.0
1,188.0
2,165.16666666666669
3,142.33333333333334
4,-44.5
5,32.0
6,36.0
7,11.0
8,-18.0
9,20.0
10,106.0
11,107.25
12,108.5
13,142.0
14,53.0
15,-87.0
16,27.0
17,-159.0
18,-84.0
19,0.0
20,20.0
21,158.0
22,183.0
23,147.0
24,40.0
25,-119.0
26,9.0
27,-3.0
28,-30.0
29,-18.0
30,80.0
31,75.0
32,127.0
33,191.0
34,121.5
35,-10.5
36,-61.0
37,-142.0
38,-76.0
39,-42.666666666666664
40,-9.333333333333334
41,14.0
42,88.0
43,145.0
44,62.25
45,-20.5
46,-142.0
47,11.0
48,-18.5
49,-53.0
50,48.0
51,75.5
52,75.0
53,115.0
54,125.0
55,52.25
56,-20.5
57,-147.0
58,-2.0
59,-58.5
60,-36.0
61,37.0
62,94.0
63,73.0
64,163.0
65,36.0
66,-146.0
67,-164.0
68,-139.0
69,-79.0
70,-51.0
71,61.0
72,56.0
73,131.0
74,153.0
75,142.0
76,50.0
77,-61.0
78,-53.0
79,1.0
80,-22.0
81,25.0
82,49.0
83,73.0
84,151.0
85,0.0
86,-74.5
87,-153.0
88,-82.0
89,68.0
90,-11.0
91,48.0
92,58.0
93,142.0
94,-88.0
95,77.0
96,19.0
97,-110.0
98,-107.0
99,101.0
100,-40.0
101,-45.0
102,77.0
103,103.5
104,110.41666666666666
105,117.33333333333333
106,-64.0
107,-146.0
108,-134.0
109,-91.0
110,89.0
111,35.0
112,66.0
113,40.0
114,112.5
115,-7.0
116,63.0
117,-31.666666666666668
118,-68.0
119,-6.5
120,55.0
121,0.5
122,19.0
123,123.0
124,140.0
125,140.0
126,129.5
127,-145.0
128,-147.0
129,-93.0
130,13.0
131,2.0
132,25.0
133,87.0
134,93.0
135,42.0
136,104.0
137,-26.0
138,-108.0
139,-112.0
140,56.0
141,63.5
142,33.0
143,44.0
144,62.0
145,141.0
146,112.0
147,155.0
148,104.0
149,-49.5
150,-120.5
151,95.0
152,73.0
153,-4.0
154,112.0
155,124.0
156,22.0
157,63.0
158,12.0
159,-79.0
160,-19.0
161,65.33333333333333
162,55.0
163,-28.0
164,78.0
165,67.0
166,69.0
167,183.0
168,152.0
169,-175.0
170,-82.0
171,90.0
172,61.0
173,-15.0
174,-84.0
175,51.0
176,43.0
177,42.75
178,42.5
179,130.0
180,40.0
181,137.0
182,79.0
183,3.0
184,-40.0
185,147.0
186,129.0
187,127.0
188,173.0
189,205.0
190,165.0
191,98.0
192,90.0
193,51.0
194,-23.0
195,-22.0
196,0.0
197,10.0
198,-8.0
199,86.0
