time_range,Acceleration_Y
0,2.0
1,-33.0
2,9.0
3,31.833333333333332
4,54.666666666666664
5,77.5
6,69.0
7,-2.0
8,-37.0
9,-68.0
10,-29.666666666666664
11,8.666666666666666
12,0.0
13,14.5
14,52.0
15,77.0
16,100.0
17,89.25
18,78.5
19,7.0
20,-3.5
21,21.0
22,-43.0
23,-19.0
24,-1.0
25,49.0
26,85.5
27,97.0
28,9.0
29,-15.0
30,-4.5
31,71.0
32,2.0
33,1.0
34,25.0
35,59.0
36,87.0
37,75.0
38,62.0
39,16.0
40,-4.0
41,26.0
42,-2.0
43,-45.0
44,-26.0
45,17.0
46,109.0
47,104.0
48,36.0
49,-18.0
50,-69.0
51,75.0
52,69.0
53,24.0
54,4.0
55,12.0
56,37.0
57,80.0
58,79.0
59,60.0
60,31.0
61,8.0
62,37.0
63,14.0
64,-75.0
65,-49.0
66,-11.0
67,130.0
68,101.0
69,82.0
70,-4.0
71,-24.0
72,51.5
73,45.0
74,7.0
75,3.0
76,38.0
77,74.0
78,62.0
79,78.5
80,95.0
81,42.5
82,37.0
83,31.5
84,-8.5
85,-39.0
86,0.0
87,162.0
88,133.5
89,110.0
90,35.0
91,-24.0
92,22.0
93,61.0
94,56.5
95,5.0
96,-29.0
97,91.0
98,85.0
99,75.0
100,103.0
101,87.0
102,42.0
103,40.0
104,45.0
105,21.5
106,71.25
107,121.0
108,190.0
109,107.0
110,94.0
111,81.0
112,-13.0
113,29.75
114,61.0
115,36.0
116,-11.0
117,40.5
118,99.0
119,76.0
120,74.0
121,64.0
122,54.0
123,47.0
124,36.0
125,44.0
126,-45.0
127,134.0
128,150.5
129,156.0
130,100.0
131,101.0
132,34.0
133,12.0
134,63.0
135,80.0
136,66.0
137,17.0
138,107.0
139,96.0
140,74.0
141,61.0
142,88.0
143,35.0
144,40.0
145,40.0
146,32.0
147,-8.0
148,152.0
149,120.0
150,141.0
151,103.5
152,-64.0
153,-6.0
154,41.0
155,51.0
156,75.0
157,35.0
158,129.0
159,92.0
160,85.0
161,62.0
162,90.0
163,30.0
164,24.0
165,36.0
166,36.0
167,23.0
168,148.0
169,133.0
170,156.0
171,140.0
172,109.5
173,-79.0
174,-13.0
175,10.0
176,60.0
177,64.0
178,69.0
179,119.0
180,55.5
181,68.5
182,81.5
183,66.0
184,-14.0
185,1.0
186,45.0
187,26.0
188,54.0
189,117.0
190,135.0
191,159.0
192,162.0
193,88.5
194,-19.0
195,20.0
196,39.0
197,56.0
198,60.0
199,105.0
