time_range,Acceleration_Y
0,265.0
1,272.0
2,225.5
3,76.0
4,-2.0
5,2.0
6,-2.0
7,-10.0
8,-46.0
9,-17.0
10,127.0
11,176.0
12,205.0
13,171.0
14,104.0
15,-15.0
16,-58.0
17,-89.0
18,-120.0
19,-88.0
20,59.5
21,233.0
22,290.0
23,175.0
24,101.0
25,-119.0
26,0.0
27,10.0
28,-41.0
29,-35.0
30,-6.0
31,115.0
32,185.0
33,188.0
34,187.0
35,36.0
36,-55.0
37,-107.0
38,-105.5
39,-70.0
40,-34.5
41,231.0
42,270.0
43,175.0
44,147.0
45,-115.0
46,3.0
47,-2.0
48,-4.0
49,-36.0
50,9.0
51,96.0
52,130.5
53,174.0
54,179.0
55,123.0
56,54.0
57,7.5
58,-102.0
59,-125.0
60,-101.0
61,-8.0
62,112.0
63,265.0
64,153.0
65,140.0
66,-62.0
67,0.0
68,11.0
69,-28.0
70,-5.0
71,-6.0
72,90.0
73,160.0
74,171.0
75,159.0
76,138.0
77,30.0
78,-115.0
79,-132.0
80,-88.0
81,-44.0
82,232.0
83,278.0
84,201.0
85,156.0
86,-34.0
87,-142.0
88,-11.0
89,-29.0
90,-39.0
91,-6.0
92,20.0
93,171.0
94,176.5
95,203.0
96,165.33333333333334
97,127.66666666666667
98,-4.0
99,-114.0
100,-158.0
101,-118.0
102,-36.0
103,62.0
104,282.0
105,200.0
106,139.0
107,-19.0
108,-141.0
109,-12.0
110,-19.0
111,-21.0
112,32.5
113,86.0
114,224.0
115,190.0
116,138.0
117,25.0
118,-38.0
119,-65.88888888888889
120,-93.77777777777777
121,-121.66666666666667
122,-26.0
123,82.0
124,179.0
125,210.0
126,173.0
127,-19.0
128,-167.0
129,19.0
130,6.0
131,-7.0
132,-22.0
133,12.0
134,170.0
135,192.0
136,180.0
137,165.0
138,79.0
139,45.0
140,-39.5
141,-158.0
142,-108.0
143,-24.0
144,24.5
145,284.0
146,220.0
147,167.0
148,30.0
149,-58.5
150,-142.0
151,-6.0
152,-2.0
153,-6.0
154,20.5
155,201.0
156,192.0
157,154.0
158,64.0
159,18.0
160,-59.0
161,-142.0
162,-121.0
163,-22.0
164,26.5
165,183.0
166,212.0
167,186.0
168,52.0
169,-128.0
170,-124.0
171,10.0
172,3.0
173,-17.0
174,24.0
175,30.0
176,175.0
177,191.0
178,172.0
179,63.0
180,15.0
181,-104.0
182,-108.0
183,-112.0
184,-49.0
185,75.0
186,105.0
187,150.0
188,146.0
189,98.0
190,-108.0
191,-141.0
192,-22.0
193,-42.0
194,-28.0
195,5.5
196,191.0
197,195.66666666666669
198,200.33333333333334
199,90.0
