time_range,Acceleration_Y
0,40.0
1,-66.0
2,146.0
3,68.5
4,-22.0
5,48.0
6,70.5
7,83.0
8,51.0
9,143.0
10,152.0
11,92.0
12,220.0
13,329.0
14,-267.0
15,-152.0
16,83.0
17,75.0
18,32.0
19,14.5
20,-3.0
21,-61.0
22,24.0
23,143.0
24,211.0
25,133.0
26,95.0
27,54.0
28,-156.0
29,-268.0
30,-131.0
31,72.0
32,319.0
33,279.0
34,250.5
35,-136.0
36,-287.0
37,-32.0
38,-18.666666666666664
39,-5.333333333333333
40,60.0
41,97.0
42,-11.0
43,48.333333333333336
44,107.66666666666667
45,-22.0
46,-14.0
47,81.0
48,88.0
49,-42.0
50,49.25
51,140.5
52,132.5
53,131.0
54,320.0
55,-279.0
56,-224.0
57,52.0
58,87.0
59,56.5
60,-50.0
61,39.0
62,-34.0
63,24.0
64,67.0
65,149.0
66,182.0
67,107.0
68,85.0
69,-81.0
70,-261.0
71,-213.0
72,-17.0
73,252.0
74,275.0
75,254.0
76,44.0
77,-296.0
78,-139.5
79,9.0
80,-9.5
81,72.0
82,95.0
83,57.0
84,230.0
85,172.5
86,1.0
87,-35.0
88,49.0
89,98.0
90,-114.0
91,70.0
92,117.5
93,170.0
94,149.0
95,71.5
96,-6.0
97,-280.0
98,-49.0
99,20.0
100,64.0
101,-49.0
102,95.0
103,-29.0
104,-19.0
105,88.0
106,179.0
107,199.0
108,77.0
109,78.0
110,-39.0
111,-226.0
112,-231.0
113,-70.0
114,172.0
115,264.0
116,190.0
117,-195.0
118,-290.0
119,10.0
120,-11.333333333333332
121,-32.666666666666664
122,64.0
123,91.0
124,64.0
125,212.0
126,162.0
127,84.0
128,-37.0
129,-3.0
130,74.0
131,-163.0
132,11.0
133,119.0
134,197.0
135,113.0
136,202.0
137,273.0
138,-330.0
139,-190.0
140,115.0
141,111.0
142,2.0
143,-90.0
144,-30.5
145,-41.0
146,11.0
147,163.0
148,200.5
149,83.0
150,95.0
151,-19.0
152,-110.5
153,-216.0
154,-81.0
155,86.0
156,260.5
157,232.5
158,224.0
159,-213.0
160,-305.0
161,38.0
162,-36.0
163,54.0
164,79.0
165,81.0
166,22.83333333333333
167,-35.333333333333336
168,2.0
169,2.166666666666667
170,2.3333333333333335
171,102.0
172,32.0
173,-47.5
174,163.0
175,227.0
176,130.0
177,176.0
178,268.0
179,261.0
180,-137.0
181,-12.5
182,104.0
183,-19.0
184,-107.0
185,7.0
186,-64.0
187,48.0
188,102.5
189,254.0
190,169.0
191,-49.0
192,-28.0
193,-211.0
194,-220.0
195,-119.0
196,3.75
197,126.5
198,257.5
199,82.0
