time_range,Acceleration_Y
0,63.0
1,120.0
2,82.0
3,-172.0
4,-322.0
5,-191.0
6,-36.5
7,331.0
8,408.0
9,265.0
10,288.0
11,83.66666666666667
12,-133.0
13,13.0
14,-12.0
15,43.0
16,41.5
17,67.0
18,99.5
19,235.0
20,184.0
21,-29.0
22,-25.0
23,-21.0
24,-316.0
25,-226.5
26,36.0
27,138.0
28,135.0
29,127.0
30,-131.0
31,-357.0
32,-338.0
33,-216.5
34,78.0
35,91.0
36,62.0
37,40.0
38,-23.5
39,29.0
40,137.0
41,-40.0
42,79.0
43,140.0
44,39.0
45,-101.0
46,-285.0
47,133.0
48,168.0
49,273.5
50,369.0
51,234.0
52,-108.0
53,-16.0
54,58.0
55,-22.0
56,-19.0
57,41.0
58,51.0
59,84.0
60,179.0
61,289.0
62,142.0
63,-33.0
64,-53.0
65,-259.0
66,-276.5
67,-96.0
68,97.0
69,174.0
70,240.5
71,203.0
72,-171.0
73,-337.0
74,-289.0
75,-62.0
76,-22.0
77,34.0
78,59.0
79,38.5
80,-3.0
81,-1.0
82,14.0
83,-41.0
84,31.5
85,104.0
86,55.666666666666664
87,130.0
88,177.0
89,118.0
90,203.0
91,366.0
92,181.75
93,-2.5
94,-28.0
95,42.0
96,99.0
97,-29.0
98,-45.0
99,-25.0
100,-21.0
101,77.0
102,194.0
103,280.0
104,72.0
105,89.0
106,-55.0
107,-284.0
108,-280.0
109,-166.5
110,29.0
111,355.0
112,339.0
113,205.0
114,-296.0
115,-342.0
116,-178.5
117,-41.0
118,34.0
119,34.0
120,84.5
121,18.5
122,173.0
123,107.5
124,42.0
125,-41.0
126,55.0
127,87.0
128,33.5
129,164.0
130,178.5
131,159.0
132,252.0
133,352.0
134,-357.0
135,-244.0
136,84.0
137,119.0
138,-2.0
139,-68.0
140,27.0
141,-50.0
142,29.0
143,164.0
144,268.0
145,211.5
146,120.0
147,10.0
148,-201.0
149,-302.0
150,-184.0
151,-2.0
152,290.0
153,351.0
154,291.0
155,0.0
156,-341.0
157,-373.0
158,-19.0
159,-29.5
160,65.0
161,80.0
162,16.0
163,295.0
164,134.0
165,44.5
166,-32.0
167,18.0
168,95.0
169,-171.0
170,-17.0
171,137.0
172,202.0
173,154.0
174,228.5
175,-378.0
176,-368.0
177,-105.0
178,131.0
179,81.0
180,-43.0
181,113.0
182,-11.0
183,-42.0
184,72.0
185,209.0
186,222.66666666666669
187,236.33333333333334
188,130.0
189,-25.0
190,-271.0
191,-282.0
192,-126.0
193,12.0
194,158.5
195,305.0
196,294.0
197,51.5
198,-355.0
199,9.0
