time_range,Acceleration_Y
0,41.0
1,-78.0
2,238.0
3,9.0
4,-10.5
5,-77.0
6,-70.0
7,3.333333333333343
8,76.66666666666667
9,138.0
10,-20.0
11,-8.0
12,-109.0
13,16.0
14,18.5
15,21.0
16,215.0
17,64.0
18,0.0
19,-166.0
20,177.0
21,115.5
22,98.25
23,81.0
24,-126.0
25,-14.5
26,-53.0
27,168.0
28,34.0
29,87.0
30,19.0
31,25.0
32,-14.0
33,-22.0
34,298.0
35,157.66666666666666
36,-137.0
37,-11.0
38,-40.0
39,-40.0
40,0.0
41,-66.66666666666667
42,204.0
43,-164.0
44,192.0
45,-59.0
46,111.0
47,-40.0
48,54.0
49,56.0
50,-40.5
51,173.0
52,-160.0
53,125.0
54,-24.0
55,-15.0
56,79.0
57,75.0
58,-72.0
59,-108.0
60,140.0
61,-95.0
62,78.0
63,30.5
64,20.0
65,-63.0
66,-35.0
67,36.0
68,89.0
69,191.0
70,-82.0
71,-31.0
72,-70.0
73,-20.0
74,6.0
75,79.0
76,-30.5
77,40.0
78,-3.0
79,218.0
80,218.0
81,54.0
82,-3.0
83,-123.0
84,85.0
85,23.0
86,241.0
87,45.0
88,0.0
89,-138.0
90,39.0
91,-3.0
92,-5.5
93,203.0
94,-20.0
95,127.0
96,75.25
97,23.5
98,71.0
99,42.0
100,-27.0
101,1.0
102,140.0
103,-53.0
104,139.0
105,19.0
106,101.0
107,-70.0
108,16.0
109,18.25
110,20.5
111,16.0
112,-134.0
113,35.0
114,23.0
115,33.5
116,44.0
117,-48.0
118,-181.0
119,173.0
120,116.83333333333333
121,60.666666666666664
122,-37.0
123,-33.0
124,-29.0
125,-79.5
126,0.0
127,89.0
128,170.0
129,-52.0
130,25.0
131,-69.0
132,198.0
133,-4.0
134,55.0
135,143.0
136,29.5
137,43.0
138,6.5
139,212.0
140,70.0
141,-47.0
142,-55.0
143,49.0
144,64.0
145,112.0
146,151.0
147,1.0
148,32.0
149,-77.0
150,178.0
151,134.0
152,86.5
153,101.0
154,67.0
155,50.5
156,-45.0
157,163.0
158,84.66666666666667
159,-113.0
160,-55.0
161,93.0
162,-65.0
163,210.0
164,-69.0
165,59.0
166,-87.0
167,39.0
168,68.0
169,27.0
170,-69.0
171,-60.0
172,121.0
173,10.5
174,98.0
175,-10.0
176,11.0
177,-84.0
178,-121.0
179,13.0
180,-116.0
181,145.0
182,-100.0
183,-40.0
184,-58.0
185,-35.0
186,-46.0
187,25.0
188,104.0
189,-2.0
190,111.0
191,-101.0
192,45.0
193,-33.0
194,24.0
195,80.0
196,-83.0
197,-7.0
198,85.5
199,178.0
