time_range,Acceleration_Y
0,20.0
1,69.0
2,44.0
3,45.5
4,23.0
5,30.0
6,56.0
7,14.0
8,90.0
9,20.0
10,40.0
11,2.0
12,14.65
13,27.3
14,39.95
15,52.6
16,20.0
17,49.0
18,13.0
19,75.0
20,40.0
21,47.0
22,54.0
23,30.0
24,37.5
25,45.0
26,62.0
27,28.0
28,46.0
29,44.0
30,49.5
31,35.0
32,57.0
33,33.0
34,54.0
35,14.0
36,74.0
37,46.0
38,48.0
39,20.0
40,19.0
41,62.0
42,20.0
43,85.0
44,22.0
45,48.0
46,16.0
47,30.5
48,54.0
49,53.0
50,58.0
51,15.0
52,47.0
53,32.0
54,65.0
55,32.0
56,46.0
57,54.0
58,25.0
59,55.0
60,32.0
61,72.0
62,47.0
63,34.0
64,46.0
65,62.0
66,70.0
67,52.5
68,74.0
69,47.0
70,38.0
71,34.0
72,62.5
73,40.0
74,23.0
75,28.0
76,53.0
77,11.0
78,67.0
79,20.0
80,60.0
81,23.0
82,49.0
83,52.0
84,17.0
85,70.0
86,50.5
87,41.0
88,30.0
89,76.0
90,40.0
91,59.0
92,50.0
93,26.0
94,61.0
95,46.0
96,86.0
97,52.0
98,35.0
99,62.0
100,52.0
101,63.0
102,40.0
103,67.0
104,30.0
105,45.0
106,10.0
107,47.333333333333336
108,70.0
109,29.0
110,20.0
111,35.5
112,25.0
113,79.0
114,64.0
115,59.583333333333336
116,55.16666666666667
117,50.75
118,46.333333333333336
119,18.0
120,71.0
121,23.0
122,41.0
123,13.0
124,19.5
125,38.0
126,44.75
127,51.5
128,38.0
129,63.0
130,32.0
131,65.0
132,52.0
133,39.0
134,60.0
135,61.0
136,48.0
137,27.0
138,38.5
139,29.0
140,52.0
141,24.5
142,41.0
143,73.0
144,32.0
145,66.0
146,9.0
147,61.0
148,44.333333333333336
149,69.5
150,49.0
151,17.0
152,17.0
153,55.0
154,39.0
155,64.0
156,24.0
157,53.0
158,12.0
159,22.0
160,57.0
161,45.0
162,33.0
163,21.0
164,69.0
165,46.5
166,77.0
167,45.0
168,40.0
169,63.0
170,14.0
171,65.0
172,30.0
173,77.0
174,40.0
175,49.0
176,3.0
177,38.0
178,50.5
179,38.0
180,71.0
181,1.0
182,31.5
183,18.0
184,49.0
185,42.0
186,58.0
187,45.0
188,12.0
189,52.0
190,19.0
191,39.0
192,59.0
193,33.0
194,13.0
195,60.0
196,47.0
197,43.0
198,20.0
199,64.0
