time_range,Acceleration_Y
0,-53.0
1,116.0
2,-85.0
3,2.0
4,69.5
5,37.0
6,145.0
7,68.66666666666667
8,-7.666666666666667
9,-83.0
10,197.0
11,100.0
12,3.0
13,66.33333333333333
14,1.0
15,132.0
16,-36.0
17,78.5
18,-55.0
19,95.0
20,19.0
21,72.0
22,32.0
23,10.0
24,66.5
25,-59.0
26,112.0
27,-60.0
28,129.0
29,-10.0
30,3.0
31,172.0
32,19.0
33,131.0
34,-49.0
35,139.0
36,7.0
37,4.5
38,-38.0
39,24.0
40,139.0
41,30.333333333333332
42,-97.0
43,136.0
44,-118.0
45,87.0
46,122.0
47,104.0
48,-14.0
49,-74.0
50,166.0
51,-107.0
52,189.0
53,-71.0
54,29.5
55,-38.0
56,-3.0
57,162.0
58,85.0
59,165.0
60,-65.0
61,131.0
62,-40.0
63,160.0
64,7.0
65,17.0
66,27.0
67,56.0
68,117.0
69,-25.0
70,200.0
71,10.0
72,43.0
73,135.0
74,81.0
75,99.5
76,-36.0
77,192.0
78,-36.0
79,162.0
80,-95.0
81,138.0
82,28.0
83,73.0
84,22.0
85,128.0
86,28.5
87,37.5
88,15.0
89,117.0
90,-64.0
91,21.0
92,137.0
93,-52.0
94,-4.5
95,43.0
96,125.0
97,-90.0
98,15.0
99,132.0
100,51.0
101,105.0
102,-58.0
103,134.0
104,12.5
105,43.0
106,-17.0
107,91.0
108,61.0
109,-92.0
110,83.0
111,-42.0
112,178.0
113,-73.0
114,-9.0
115,55.0
116,96.5
117,28.0
118,79.0
119,-82.0
120,-25.5
121,31.0
122,143.0
123,2.0
124,-14.0
125,-30.0
126,0.0
127,148.0
128,-43.0
129,53.0
130,2.0
131,122.0
132,-125.0
133,-49.5
134,170.0
135,-31.0
136,98.0
137,-102.0
138,136.0
139,-142.0
140,71.0
141,141.0
142,94.0
143,37.0
144,-123.0
145,149.0
146,25.5
147,158.0
148,-75.0
149,128.0
150,-19.0
151,-31.0
152,-8.0
153,-9.0
154,161.0
155,-32.0
156,142.0
157,36.5
158,81.0
159,3.5
160,184.0
161,-52.0
162,150.0
163,64.0
164,192.0
165,192.0
166,23.5
167,60.25
168,97.0
169,146.0
170,-37.0
171,192.0
172,-38.0
173,152.0
174,121.125
175,90.25
176,96.0
177,-43.0
178,-36.0
179,-40.5
180,153.0
181,-90.0
182,208.0
183,39.0
184,142.0
185,-60.0
186,-2.0
187,147.0
188,51.0
189,189.0
190,-50.0
191,151.0
192,16.0
193,-7.0
194,73.5
195,94.5
196,198.0
197,-91.0
198,131.0
199,-157.0
