time_range,Acceleration_Y
0,212.0
1,-99.0
2,144.0
3,0.0
4,158.0
5,-85.0
6,-4.0
7,171.0
8,-81.0
9,171.0
10,-107.0
11,17.5
12,-99.0
13,-22.0
14,63.5
15,149.0
16,71.5
17,42.8
18,14.100000000000001
19,-14.6
20,79.0
21,-77.0
22,-7.0
23,38.0
24,-142.0
25,190.0
26,-13.0
27,209.0
28,-100.0
29,95.0
30,-34.0
31,157.0
32,24.0
33,-9.0
34,46.5
35,-57.0
36,141.0
37,39.0
38,67.5
39,19.0
40,214.0
41,-12.0
42,75.5
43,-32.0
44,199.0
45,7.0
46,154.0
47,-131.0
48,64.0
49,124.0
50,-52.0
51,257.0
52,-122.0
53,170.0
54,-122.0
55,6.5
56,114.0
57,109.5
58,-32.0
59,-81.0
60,203.0
61,-118.0
62,170.0
63,45.5
64,134.0
65,-52.0
66,-15.0
67,208.0
68,0.0
69,213.0
70,-61.0
71,135.0
72,20.5
73,193.0
74,-4.0
75,14.0
76,34.5
77,-99.0
78,150.0
79,109.5
80,120.5
81,42.0
82,120.0
83,106.0
84,107.0
85,-35.0
86,215.0
87,-56.0
88,85.0
89,-82.0
90,137.0
91,19.0
92,-20.0
93,177.0
94,-16.0
95,172.0
96,-66.0
97,42.5
98,0.0
99,65.0
100,-78.0
101,-53.0
102,154.0
103,-28.0
104,151.0
105,-76.0
106,129.0
107,-135.0
108,4.0
109,155.0
110,82.0
111,96.0
112,-148.0
113,165.0
114,-150.0
115,119.0
116,-98.0
117,-88.66666666666666
118,-79.33333333333333
119,-40.22222222222222
120,-1.1111111111111143
121,38.0
122,83.0
123,145.0
124,-39.0
125,159.0
126,-11.0
127,38.75
128,88.5
129,-88.0
130,49.0
131,-53.0
132,179.0
133,-3.0
134,4.0
135,209.0
136,30.0
137,168.0
138,-38.0
139,224.0
140,-32.0
141,187.0
142,-154.0
143,91.0
144,156.0
145,-55.0
146,253.0
147,57.0
148,191.0
149,-145.0
150,179.0
151,143.0
152,134.0
153,-11.0
154,-82.0
155,46.5
156,45.0
157,-60.0
158,42.5
159,6.25
160,-30.0
161,149.0
162,-18.0
163,98.5
164,-44.0
165,130.0
166,-106.0
167,204.0
168,-21.0
169,46.0
170,132.5
171,-116.0
172,20.5
173,-58.0
174,268.0
175,-49.0
176,59.0
177,131.0
178,144.0
179,132.0
180,-53.0
181,245.0
182,-92.0
183,184.0
184,-91.0
185,204.0
186,42.0
187,-55.0
188,173.0
189,-15.0
190,161.0
191,-61.0
192,173.0
193,85.0
194,149.0
195,-115.0
196,-17.0
197,73.5
198,214.0
199,-106.0
