time_range,Acceleration_Y
0,-143.0
1,202.0
2,108.5
3,26.0
4,103.0
5,75.0
6,45.0
7,-82.0
8,276.0
9,-49.0
10,74.0
11,-112.0
12,113.0
13,46.0
14,-3.0
15,205.0
16,-5.0
17,13.75
18,32.5
19,26.0
20,99.5
21,19.0
22,-67.0
23,-16.5
24,71.0
25,-109.0
26,250.0
27,113.5
28,67.5
29,-90.0
30,10.5
31,52.0
32,-29.0
33,226.0
34,-31.0
35,180.0
36,79.33333333333333
37,28.0
38,11.0
39,-73.0
40,-6.0
41,55.5
42,60.25
43,65.0
44,127.0
45,50.83333333333333
46,-25.333333333333332
47,128.0
48,64.0
49,-48.0
50,222.0
51,-48.0
52,56.0
53,33.0
54,173.0
55,0.0
56,13.0
57,-83.0
58,-15.0
59,190.0
60,-125.0
61,210.0
62,-32.0
63,156.0
64,19.0
65,1.5
66,88.0
67,-66.0
68,209.0
69,-68.0
70,185.0
71,-119.0
72,168.0
73,43.0
74,8.0
75,-42.0
76,2.0
77,214.0
78,-117.0
79,164.0
80,60.0
81,27.5
82,68.0
83,107.0
84,-89.0
85,65.0
86,-75.0
87,195.0
88,-127.0
89,152.0
90,41.0
91,-12.0
92,-62.0
93,-33.0
94,84.5
95,55.0
96,166.0
97,5.0
98,149.0
99,-110.0
100,25.0
101,160.0
102,29.5
103,212.0
104,-94.0
105,158.0
106,-128.0
107,126.0
108,69.0
109,-41.0
110,-80.0
111,-69.5
112,184.0
113,-86.0
114,159.0
115,-9.0
116,-9.0
117,-64.5
118,12.0
119,88.5
120,55.0
121,-114.0
122,149.0
123,-152.0
124,121.0
125,94.0
126,41.5
127,-106.0
128,-64.0
129,192.0
130,-80.0
131,45.0
132,43.66666666666667
133,42.333333333333336
134,-126.0
135,-79.0
136,190.0
137,-67.0
138,210.0
139,38.0
140,17.0
141,-143.0
142,95.0
143,95.0
144,23.25
145,-48.5
146,-122.0
147,154.0
148,22.0
149,195.0
150,120.5
151,115.0
152,-96.0
153,-51.0
154,203.0
155,66.0
156,21.5
157,4.5
158,-141.0
159,47.0
160,39.0
161,31.0
162,16.0
163,-127.0
164,148.0
165,-117.0
166,185.0
167,72.0
168,144.0
169,-59.0
170,-62.0
171,186.0
172,-83.0
173,57.5
174,-120.0
175,11.5
176,-122.0
177,-61.0
178,192.0
179,-92.0
180,104.0
181,-122.0
182,134.0
183,-137.0
184,126.0
185,112.0
186,125.0
187,-31.0
188,-73.0
189,146.0
190,-93.0
191,218.0
192,-97.0
193,8.5
194,-1.5
195,-89.5
196,80.0
197,-81.0
198,23.5
199,15.5
