time_range,Acceleration_Y
0,16.0
1,-258.0
2,753.0
3,-297.0
4,114.0
5,-40.0
6,-206.0
7,8.0
8,-171.0
9,549.0
10,-440.0
11,-137.5
12,-259.0
13,497.0
14,-71.0
15,-108.0
16,220.5
17,-554.0
18,345.0
19,-321.0
20,734.0
21,327.5
22,-46.0
23,79.0
24,-158.5
25,155.0
26,-242.0
27,194.0
28,117.0
29,296.0
30,-208.0
31,430.0
32,-31.0
33,-142.0
34,506.0
35,-499.0
36,86.33333333333333
37,149.91666666666666
38,213.5
39,193.0
40,172.5
41,-461.0
42,145.0
43,-220.0
44,636.0
45,-368.0
46,269.0
47,-163.0
48,146.5
49,196.0
50,-180.0
51,521.0
52,-435.0
53,61.5
54,-357.0
55,628.0
56,-279.0
57,25.0
58,230.5
59,158.0
60,249.0
61,-52.0
62,644.0
63,425.1666666666667
64,206.33333333333334
65,-501.0
66,399.0
67,110.0
68,-282.0
69,113.5
70,-329.0
71,589.0
72,-377.0
73,-42.66666666666663
74,291.6666666666667
75,-135.0
76,469.0
77,261.5
78,88.0
79,190.16666666666666
80,292.3333333333333
81,156.0
82,-553.0
83,361.0
84,97.0
85,112.5
86,128.0
87,-348.0
88,66.0
89,-309.0
90,481.0
91,-117.0
92,-203.0
93,160.5
94,-100.0
95,622.0
96,-367.0
97,587.0
98,-341.0
99,398.0
100,-613.0
101,-155.5
102,278.0
103,-47.5
104,613.0
105,-444.0
106,539.0
107,35.0
108,488.0
109,253.0
110,-282.0
111,-348.0
112,-271.0
113,641.0
114,-318.0
115,-39.666666666666664
116,-313.0
117,-106.0
118,-269.5
119,-53.583333333333314
120,162.33333333333334
121,28.666666666666668
122,81.5
123,327.0
124,-511.0
125,498.0
126,153.0
127,-393.0
128,-279.0
129,-384.0
130,453.0
131,-272.0
132,623.0
133,-397.0
134,395.0
135,-519.0
136,-124.0
137,620.0
138,-337.0
139,514.0
140,-510.0
141,401.0
142,-717.0
143,320.0
144,424.0
145,487.0
146,-131.0
147,-306.5
148,413.0
149,-399.0
150,565.0
151,-314.0
152,466.0
153,-322.0
154,-294.0
155,590.0
156,-191.0
157,627.0
158,-389.0
159,-224.5
160,166.0
161,455.0
162,355.0
163,255.0
164,71.83333333333334
165,-111.33333333333331
166,-294.5
167,68.0
168,37.5
169,23.0
170,16.0
171,-6.0
172,41.0
173,54.0
174,43.0
175,32.0
176,21.0
177,35.0
178,26.0
179,26.0
180,26.0
181,26.0
182,26.0
183,26.0
184,26.0
185,26.0
186,26.0
187,26.0
188,26.0
189,26.0
190,26.0
191,26.0
192,26.0
193,26.0
194,26.0
195,26.0
196,26.0
197,26.0
198,26.0
199,26.0
