time_range,Acceleration_Y
0,-354.0
1,124.0
2,-264.0
3,-68.0
4,-43.0
5,-17.0
6,344.0
7,-475.0
8,-137.5
9,-350.0
10,577.0
11,-163.0
12,96.0
13,71.0
14,-393.0
15,3.0
16,-224.0
17,540.0
18,155.5
19,-48.0
20,-248.0
21,24.5
22,0.0
23,-40.0
24,197.0
25,-114.5
26,111.0
27,-217.0
28,391.0
29,-66.0
30,-30.0
31,-157.33333333333334
32,-148.33333333333334
33,-139.33333333333334
34,35.83333333333334
35,211.0
36,82.0
37,-407.0
38,-109.5
39,95.0
40,-150.0
41,533.0
42,-159.0
43,133.5
44,-255.0
45,337.0
46,155.0
47,-113.0
48,-161.75
49,-210.5
50,500.0
51,-247.0
52,394.0
53,-53.0
54,407.0
55,-413.0
56,-7.0
57,285.0
58,-309.0
59,564.0
60,-457.0
61,351.0
62,-407.0
63,214.0
64,198.5
65,179.0
66,-120.0
67,-23.75
68,72.5
69,359.0
70,-15.0
71,-389.0
72,-116.0
73,26.5
74,169.0
75,-258.0
76,406.0
77,-77.5
78,185.0
79,-454.0
80,13.0
81,444.0
82,23.0
83,39.5
84,-467.0
85,258.0
86,-379.0
87,513.0
88,-251.0
89,212.0
90,-46.5
91,-449.0
92,377.0
93,-120.0
94,478.0
95,57.5
96,-363.0
97,-213.0
98,488.0
99,-5.0
100,-99.0
101,437.0
102,-436.0
103,235.0
104,-248.0
105,181.5
106,121.0
107,218.0
108,247.5
109,277.0
110,58.0
111,463.0
112,110.0
113,58.0
114,71.5
115,85.0
116,109.0
117,-164.0
118,88.5
119,-384.0
120,477.0
121,-112.0
122,421.0
123,-37.0
124,-110.0
125,113.0
126,-39.0
127,442.0
128,-183.0
129,473.0
130,-125.0
131,38.0
132,-439.0
133,295.0
134,294.5
135,294.0
136,475.0
137,-476.0
138,-103.5
139,-221.0
140,144.5
141,121.0
142,146.5
143,-238.0
144,-207.0
145,119.0
146,-55.0
147,40.0
148,148.0
149,-95.16666666666666
150,-338.3333333333333
151,576.0
152,51.0
153,144.0
154,237.0
155,-191.0
156,-504.0
157,232.0
158,-134.0
159,212.0
160,-131.0
161,-456.0
162,-78.5
163,-266.0
164,309.0
165,-342.0
166,205.0
167,-382.0
168,-336.5
169,94.5
170,-193.0
171,103.5
172,-274.0
173,147.0
174,-460.0
175,45.5
176,-208.0
177,-32.0
178,474.0
179,-546.0
180,284.0
181,51.0
182,373.0
183,-223.0
184,204.0
185,42.0
186,571.0
187,-73.0
188,-8.5
189,-4.25
190,0.0
191,126.5
192,-48.0
193,226.0
194,-223.0
195,482.0
196,175.0
197,163.75
198,152.5
199,508.0
