time_range,Acceleration_Y
0,-12.25
1,44.5
2,-35.0
3,21.0
4,17.0
5,157.0
6,91.0
7,67.0
8,-85.0
9,116.0
10,48.0
11,13.0
12,-44.0
13,5.0
14,37.0
15,95.0
16,93.0
17,73.0
18,-34.0
19,115.0
20,65.0
21,30.0
22,14.166666666666666
23,-1.6666666666666679
24,-17.5
25,38.333333333333336
26,-8.0
27,87.0
28,-23.0
29,94.0
30,68.0
31,8.0
32,38.0
33,4.0
34,33.0
35,53.0
36,-25.0
37,12.0
38,6.0
39,98.0
40,25.5
41,-47.0
42,72.0
43,16.0
44,16.0
45,5.0
46,3.0
47,157.0
48,120.0
49,92.0
50,-75.0
51,73.0
52,49.0
53,49.0
54,-26.0
55,30.0
56,20.0
57,108.0
58,34.0
59,62.0
60,-89.0
61,90.0
62,65.0
63,61.5
64,11.0
65,11.0
66,-2.0
67,111.0
68,63.5
69,64.0
70,140.0
71,108.5
72,64.0
73,57.0
74,2.0
75,42.0
76,8.0
77,111.0
78,7.0
79,63.0
80,166.0
81,95.0
82,75.0
83,54.0
84,29.0
85,34.16666666666667
86,39.333333333333336
87,21.0
88,57.5
89,94.0
90,54.0
91,67.0
92,38.0
93,27.5
94,60.0
95,32.0
96,-57.0
97,7.0
98,37.0
99,156.0
100,56.0
101,80.0
102,37.0
103,51.0
104,63.0
105,53.0
106,-79.0
107,28.0
108,7.0
109,170.0
110,35.0
111,88.0
112,112.0
113,80.0
114,58.0
115,0.0
116,8.5
117,17.0
118,36.0
119,79.0
120,90.0
121,163.0
122,120.75
123,78.5
124,49.0
125,34.75
126,20.5
127,6.25
128,-8.0
129,20.0
130,46.0
131,137.0
132,71.0
133,68.0
134,65.0
135,-8.0
136,54.0
137,61.0
138,-53.0
139,9.0
140,62.0
141,138.0
142,68.0
143,100.0
144,-54.0
145,9.0
146,47.0
147,29.0
148,-79.0
149,18.0
150,35.0
151,141.0
152,51.0
153,107.0
154,0.0
155,113.0
156,46.0
157,65.0
158,4.0
159,16.0
160,43.0
161,26.0
162,30.0
163,106.0
164,71.0
165,46.0
166,54.0
167,-63.0
168,22.0
169,51.0
170,-12.0
171,-13.0
172,78.0
173,121.0
174,85.0
175,53.0
176,-61.0
177,-35.0
178,20.0
179,34.0
180,-34.0
181,3.0
182,7.0
183,122.0
184,100.0
185,68.0
186,-46.0
187,98.0
188,18.0
189,29.0
190,-41.0
191,26.0
192,33.0
193,125.0
194,105.0
195,75.0
196,-32.0
197,89.0
198,42.0
199,38.0
