time_range,Acceleration_Y
0,41.0
1,-34.0
2,2.133333333333333
3,38.266666666666666
4,74.4
5,39.0
6,-12.0
7,38.0
8,49.0
9,98.0
10,30.0
11,-10.0
12,53.0
13,72.0
14,61.83333333333333
15,51.666666666666664
16,14.0
17,53.0
18,58.0
19,73.5
20,30.0
21,34.0
22,53.0
23,77.0
24,76.0
25,42.0
26,26.0
27,50.0
28,73.0
29,77.0
30,-6.0
31,17.0
32,49.0
33,81.5
34,96.0
35,17.5
36,41.25
37,65.0
38,65.5
39,47.0
40,44.0
41,65.0
42,45.0
43,13.0
44,-3.0
45,70.0
46,91.0
47,42.0
48,-36.0
49,3.0
50,79.0
51,105.0
52,40.0
53,-19.0
54,5.0
55,81.0
56,105.0
57,30.0
58,-2.0
59,-4.0
60,84.0
61,112.0
62,67.5
63,-6.0
64,61.0
65,85.0
66,100.0
67,15.0
68,6.0
69,69.0
70,75.0
71,94.0
72,8.0
73,4.0
74,64.0
75,71.0
76,49.5
77,-3.0
78,77.0
79,79.0
80,104.0
81,11.0
82,13.0
83,45.0
84,65.0
85,79.5
86,9.0
87,18.5
88,84.0
89,51.0
90,78.0
91,2.0
92,37.0
93,84.0
94,49.0
95,65.0
96,9.0
97,73.0
98,88.0
99,39.0
100,57.0
101,21.0
102,62.0
103,87.0
104,64.5
105,34.41666666666667
106,4.333333333333333
107,79.0
108,91.0
109,47.0
110,-7.0
111,10.0
112,66.0
113,60.5
114,15.0
115,6.0
116,37.25
117,68.5
118,34.0
119,23.5
120,40.75
121,58.0
122,98.0
123,15.0
124,18.0
125,70.0
126,49.0
127,104.0
128,0.0
129,3.0
130,71.0
131,81.0
132,102.0
133,55.5
134,15.0
135,81.0
136,94.0
137,88.0
138,57.166666666666664
139,26.333333333333332
140,89.0
141,106.0
142,75.0
143,0.0
144,57.0
145,107.0
146,43.0
147,60.0
148,3.0
149,86.0
150,90.0
151,44.0
152,37.0
153,-2.0
154,85.0
155,73.0
156,8.0
157,0.0
158,88.0
159,104.0
160,34.0
161,-1.0
162,-2.0
163,74.0
164,98.0
165,30.0
166,21.75
167,13.5
168,79.0
169,101.0
170,0.0
171,1.0
172,1.0
173,74.0
174,101.0
175,0.0
176,-10.0
177,4.0
178,90.0
179,96.5
180,15.0
181,9.5
182,4.0
183,55.5
184,101.0
185,4.0
186,23.0
187,88.0
188,113.0
189,96.0
190,11.0
191,71.0
192,75.0
193,87.0
194,58.0
195,25.0
196,83.0
197,84.0
198,15.0
199,15.333333333333334
