time_range,Acceleration_Y
0,-165.0
1,41.0
2,73.0
3,74.0
4,75.0
5,-14.0
6,111.0
7,57.0
8,54.0
9,79.5
10,-1.0
11,61.0
12,23.0
13,32.5
14,154.0
15,102.0
16,113.0
17,69.5
18,-4.0
19,154.0
20,123.0
21,67.0
22,27.0
23,28.0
24,95.0
25,107.0
26,89.0
27,12.0
28,5.0
29,85.0
30,73.0
31,-19.0
32,-11.0
33,21.0
34,81.0
35,28.0
36,-25.0
37,40.0
38,78.0
39,91.0
40,11.0
41,16.5
42,27.0
43,91.0
44,79.0
45,10.0
46,37.0
47,31.0
48,51.0
49,53.0
50,26.5
51,86.0
52,6.0
53,31.333333333333332
54,56.666666666666664
55,-16.0
56,69.0
57,46.0
58,103.0
59,105.0
60,57.0
61,99.0
62,59.0
63,80.0
64,80.0
65,76.0
66,58.0
67,36.5
68,-40.0
69,24.0
70,32.5
71,108.0
72,69.0
73,4.666666666666671
74,-59.666666666666664
75,36.0
76,81.5
77,60.0
78,-70.0
79,-15.5
80,67.75
81,151.0
82,16.5
83,-95.0
84,67.0
85,96.0
86,62.0
87,34.0
88,-76.0
89,-4.0
90,121.0
91,42.0
92,9.0
93,-80.0
94,55.0
95,135.0
96,103.0
97,-8.0
98,-22.833333333333332
99,-37.666666666666664
100,2.0
101,42.0
102,20.0
103,-2.0
104,-24.0
105,-6.0
106,-10.0
107,19.0
108,-87.0
109,0.0
110,77.0
111,13.0
112,-20.0
113,-85.0
114,12.0
115,-34.0
116,-2.0
117,-43.0
118,-4.0
119,31.5
120,-68.0
121,33.0
122,33.0
123,6.5
124,49.0
125,-10.0
126,-8.0
127,81.0
128,33.0
129,91.0
130,-101.0
131,-36.0
132,116.0
133,61.0
134,91.0
135,4.5
136,-30.0
137,92.0
138,109.0
139,107.0
140,-82.0
141,-47.0
142,86.0
143,77.0
144,-87.0
145,-48.0
146,-38.0
147,76.0
148,126.0
149,17.0
150,-74.0
151,-34.0
152,161.0
153,129.0
154,-55.0
155,-35.0
156,-15.0
157,112.0
158,-26.0
159,-35.0
160,-46.0
161,128.0
162,115.5
163,-3.0
164,-21.0
165,12.0
166,72.0
167,100.0
168,7.0
169,38.0
170,166.0
171,148.0
172,71.0
173,45.0
174,49.0
175,80.0
176,30.0
177,84.0
178,42.0
179,64.0
180,122.0
181,42.0
182,70.0
183,-83.0
184,-10.0
185,139.0
186,44.0
187,-107.0
188,-75.5
189,60.0
190,126.0
191,64.5
192,-63.5
193,-26.0
194,95.0
195,123.0
196,19.0
197,-70.0
198,138.0
199,138.0
