time_range,Acceleration_Y
0,158.0
1,14.5
2,16.0
3,176.0
4,38.0
5,-96.0
6,125.0
7,54.0
8,142.0
9,37.0
10,-68.0
11,118.0
12,77.0
13,133.0
14,-16.0
15,-34.0
16,56.5
17,147.0
18,141.0
19,-75.0
20,-49.0
21,115.0
22,156.0
23,184.0
24,-108.0
25,-32.0
26,106.0
27,189.0
28,188.0
29,24.5
30,-34.0
31,146.0
32,197.0
33,-91.0
34,-132.0
35,-23.0
36,158.0
37,174.0
38,-99.0
39,-162.0
40,-47.0
41,179.0
42,164.0
43,-136.0
44,-117.0
45,214.0
46,122.0
47,8.5
48,-142.0
49,-113.5
50,219.0
51,83.0
52,-102.0
53,86.0
54,-6.0
55,214.0
56,49.0
57,-28.5
58,108.0
59,64.0
60,185.0
61,106.0
62,-100.0
63,146.0
64,104.5
65,162.0
66,-23.0
67,-89.0
68,128.0
69,87.0
70,122.5
71,-48.0
72,-69.0
73,107.0
74,214.0
75,187.0
76,-114.0
77,-67.0
78,110.0
79,210.0
80,170.0
81,-114.0
82,40.0
83,155.0
84,192.0
85,-102.5
86,-48.0
87,184.0
88,193.0
89,50.5
90,-130.0
91,-50.0
92,193.0
93,157.0
94,-113.0
95,-133.0
96,-153.0
97,123.33333333333333
98,131.0
99,18.5
100,-42.5
101,-103.5
102,203.0
103,152.0
104,-115.0
105,80.0
106,-19.0
107,220.0
108,54.0
109,-114.0
110,83.0
111,97.0
112,111.0
113,35.0
114,-121.0
115,118.0
116,79.0
117,183.0
118,-13.0
119,-99.0
120,137.0
121,173.33333333333334
122,-52.0
123,-71.5
124,135.0
125,211.0
126,180.0
127,-87.0
128,-94.0
129,124.0
130,213.0
131,-51.0
132,-73.0
133,-65.0
134,135.0
135,233.0
136,-68.0
137,-96.0
138,-55.0
139,142.0
140,212.0
141,-82.0
142,-121.0
143,-50.0
144,166.0
145,215.0
146,-88.0
147,-107.0
148,-64.0
149,207.0
150,182.0
151,-88.0
152,-34.0
153,-58.0
154,217.0
155,164.0
156,-71.0
157,-10.0
158,-64.0
159,217.0
160,126.0
161,-30.5
162,39.0
163,83.0
164,78.0
165,-104.0
166,26.75
167,157.5
168,208.0
169,128.0
170,-112.0
171,108.0
172,215.0
173,182.0
174,16.0
175,-112.0
176,132.0
177,194.0
178,50.0
179,-33.0
180,-102.0
181,114.0
182,158.5
183,2.0
184,-62.0
185,-82.0
186,17.0
187,209.0
188,-13.0
189,-66.0
190,-71.0
191,117.0
192,188.0
193,-44.0
194,-69.0
195,-57.5
196,136.0
197,122.5
198,109.0
199,-72.0
