time_range,Acceleration_Y
0,387.0
1,48.0
2,-434.0
3,150.0
4,24.0
5,216.0
6,65.0
7,-474.0
8,105.0
9,427.0
10,417.5
11,255.5
12,-462.0
13,67.0
14,466.0
15,69.0
16,142.0
17,-366.0
18,35.0
19,448.0
20,134.0
21,159.0
22,-373.0
23,60.0
24,411.0
25,162.0
26,-504.0
27,-372.0
28,-18.0
29,408.0
30,207.0
31,-485.0
32,-46.0
33,-35.0
34,388.0
35,151.0
36,-462.0
37,51.666666666666664
38,397.0
39,383.6666666666667
40,370.3333333333333
41,357.0
42,343.6666666666667
43,330.3333333333333
44,317.0
45,284.25
46,251.5
47,-38.666666666666664
48,230.0
49,-257.0
50,-454.0
51,-104.0
52,373.0
53,188.0
54,-70.0
55,28.0
56,-114.0
57,376.0
58,207.0
59,-332.0
60,-22.0
61,379.0
62,407.0
63,222.0
64,-43.5
65,59.25
66,162.0
67,280.5
68,224.0
69,-318.0
70,-97.0
71,383.0
72,278.0
73,238.0
74,-372.0
75,-79.0
76,193.66666666666666
77,-468.0
78,-327.0
79,-327.0
80,-119.0
81,358.6666666666667
82,-448.0
83,-190.0
84,-168.0
85,402.0
86,255.0
87,-438.0
88,-165.0
89,415.0
90,386.0
91,232.0
92,-102.5
93,-160.0
94,343.0
95,266.0
96,244.0
97,-414.0
98,-162.0
99,392.0
100,352.5
101,21.0
102,-327.5
103,-197.0
104,402.0
105,327.0
106,-258.0
107,-209.0
108,-255.0
109,79.5
110,336.0
111,34.5
112,-146.0
113,402.0
114,343.0
115,277.0
116,-227.5
117,424.0
118,217.0
119,331.0
120,-183.0
121,-181.0
122,355.0
123,222.0
124,-416.0
125,-271.0
126,-196.0
127,-114.46666666666667
128,-32.93333333333334
129,48.6
130,-230.0
131,-254.0
132,355.0
133,307.0
134,-360.0
135,-231.0
136,429.0
137,418.0
138,275.0
139,-339.0
140,-244.0
141,428.0
142,317.0
143,287.0
144,-386.0
145,-149.75
146,86.5
147,344.0
148,-265.0
149,-325.0
150,-258.0
151,387.0
152,369.0
153,-264.0
154,-218.0
155,101.5
156,72.25
157,43.0
158,-312.0
159,423.0
160,413.0
161,360.0
162,33.0
163,-259.5
164,379.0
165,303.0
166,367.0
167,82.25
168,-202.5
169,15.0
170,181.0
171,258.5
172,-214.0
173,-203.0
174,277.0
175,236.0
176,-313.0
177,-178.0
178,-243.0
179,306.0
180,270.0
181,-308.0
182,-237.0
183,-277.0
184,279.0
185,248.0
186,-334.0
187,-220.0
188,104.5
189,302.0
190,263.0
191,-285.0
192,-233.0
193,357.0
194,324.0
195,249.0
196,-243.0
197,71.0
198,325.0
199,-268.0
