time_range,Acceleration_Y
0,-444.0
1,-156.0
2,351.0
3,309.0
4,-391.0
5,-524.0
6,-85.0
7,336.5
8,83.75
9,-169.0
10,-14.0
11,141.0
12,350.0
13,-336.0
14,-111.0
15,308.0
16,412.0
17,361.0
18,-334.0
19,-118.0
20,121.0
21,285.0
22,334.0
23,-286.0
24,-89.0
25,263.0
26,107.0
27,-49.0
28,-213.0
29,-145.0
30,404.0
31,260.0
32,-451.0
33,-186.0
34,-149.0
35,312.0
36,286.5
37,-490.0
38,-230.0
39,396.0
40,353.0
41,336.0
42,-503.0
43,-274.0
44,446.0
45,429.0
46,-299.0
47,-366.5
48,-327.0
49,372.0
50,421.0
51,-322.5
52,-195.41666666666666
53,-68.33333333333333
54,404.0
55,-275.0
56,-275.0
57,21.0
58,292.0
59,353.0
60,-275.0
61,-203.0
62,282.0
63,395.0
64,483.0
65,-276.0
66,-258.0
67,258.0
68,345.0
69,-336.0
70,-284.0
71,-282.0
72,269.0
73,366.0
74,-336.0
75,-190.0
76,-230.0
77,195.0
78,283.5
79,-305.0
80,-282.0
81,295.0
82,121.0
83,354.0
84,-308.0
85,-277.0
86,296.0
87,472.0
88,395.0
89,-213.0
90,-254.0
91,328.0
92,-185.0
93,-208.0
94,-265.5
95,82.25
96,430.0
97,-153.0
98,-238.5
99,-326.0
100,229.0
101,444.0
102,182.0
103,-373.0
104,-103.75
105,165.5
106,461.0
107,-90.0
108,-382.0
109,82.0
110,248.0
111,462.0
112,198.0
113,-513.0
114,81.0
115,427.0
116,198.0
117,50.0
118,-516.0
119,9.0
120,225.5
121,-6.0
122,-425.0
123,-543.0
124,-2.0
125,460.0
126,137.0
127,-360.0
128,80.0
129,-81.0
130,446.0
131,-71.33333333333333
132,44.0
133,479.0
134,169.0
135,166.0
136,-363.0
137,-39.0
138,191.0
139,171.0
140,-483.0
141,-398.0
142,-37.0
143,442.0
144,106.0
145,-518.0
146,-89.0
147,-74.0
148,217.0
149,177.0
150,-468.0
151,-139.0
152,472.0
153,484.5
154,171.0
155,-142.5
156,-136.0
157,461.0
158,160.0
159,176.0
160,-544.0
161,-203.0
162,476.0
163,197.0
164,215.0
165,-114.0
166,-227.0
167,460.0
168,204.0
169,-373.0
170,-320.0
171,89.0
172,498.0
173,-69.0
174,-143.0
175,-212.0
176,434.0
177,267.0
178,-241.0
179,-177.0
180,486.0
181,431.0
182,215.0
183,-280.0
184,-215.0
185,78.83333333333337
186,372.6666666666667
187,257.0
188,-249.0
189,-257.0
190,471.0
191,124.0
192,-127.0
193,-213.0
194,-224.5
195,461.0
196,183.0
197,-413.0
198,-229.0
199,-131.0
