time_range,Acceleration_Y
0,-276.0
1,-305.0
2,125.0
3,289.0
4,-141.0
5,-157.0
6,289.0
7,152.0
8,263.0
9,-194.0
10,-179.5
11,234.0
12,342.5
13,-243.0
14,-243.0
15,20.5
16,286.0
17,296.0
18,-7.0
19,-193.0
20,222.0
21,290.5
22,-223.0
23,-313.0
24,-159.0
25,232.0
26,273.0
27,-210.0
28,-294.0
29,-154.0
30,24.5
31,331.0
32,34.5
33,-131.0
34,-138.0
35,209.0
36,289.0
37,46.0
38,-100.0
39,-134.0
40,225.0
41,268.0
42,-201.0
43,-81.0
44,195.0
45,202.0
46,307.0
47,-199.0
48,-69.0
49,209.0
50,170.0
51,330.0
52,-173.0
53,-133.0
54,218.0
55,-335.0
56,-193.0
57,-54.0
58,179.0
59,190.0
60,-293.0
61,-178.0
62,-80.0
63,256.0
64,201.0
65,-291.0
66,-102.0
67,-42.0
68,230.0
69,208.5
70,-306.0
71,-101.0
72,-64.0
73,-34.7
74,-5.399999999999999
75,23.900000000000006
76,53.2
77,82.5
78,179.0
79,34.75
80,-109.5
81,-72.0
82,90.0
83,282.0
84,120.0
85,-27.166666666666686
86,-174.33333333333334
87,316.0
88,198.0
89,81.0
90,-166.5
91,-67.0
92,291.0
93,170.0
94,-325.5
95,-92.0
96,70.0
97,232.0
98,-282.0
99,-414.0
100,-220.5
101,286.0
102,142.0
103,-265.0
104,-75.0
105,42.5
106,266.0
107,106.0
108,-239.0
109,90.0
110,-49.0
111,279.0
112,109.0
113,-210.0
114,194.0
115,341.0
116,314.0
117,103.0
118,-228.0
119,-17.0
120,287.0
121,10.0
122,50.0
123,-299.0
124,189.0
125,322.0
126,-2.0
127,34.0
128,-256.0
129,268.0
130,160.5
131,-48.25
132,-257.0
133,-42.333333333333336
134,307.0
135,-40.0
136,-151.0
137,97.0
138,290.0
139,324.0
140,-42.0
141,-261.0
142,97.0
143,270.0
144,302.0
145,-76.0
146,-178.0
147,99.0
148,240.0
149,338.0
150,-26.0
151,-39.0
152,-52.0
153,259.0
154,289.5
155,-89.0
156,-150.5
157,-56.5
158,219.0
159,-211.0
160,-96.0
161,-213.0
162,135.0
163,237.0
164,-248.0
165,-194.0
166,-239.0
167,87.0
168,244.0
169,-255.0
170,-165.0
171,-153.0
172,126.0
173,168.0
174,-201.5
175,255.0
176,86.0
177,247.0
178,-15.0
179,-128.0
180,54.0
181,175.0
182,296.0
183,81.33333333333331
184,-133.33333333333334
185,96.0
186,189.5
187,283.0
188,-147.66666666666666
189,-146.0
190,267.0
191,281.0
192,9.5
193,-273.0
194,-106.0
195,323.0
196,254.0
197,-184.0
198,-276.0
199,-74.0
