time_range,Acceleration_Y
0,-147.0
1,-147.0
2,79.5
3,287.0
4,-77.5
5,-442.0
6,73.0
7,165.25
8,257.5
9,-438.0
10,-292.5
11,352.0
12,356.0
13,238.0
14,-432.0
15,-157.0
16,341.0
17,369.0
18,200.0
19,-445.0
20,-102.0
21,358.0
22,318.0
23,-6.5
24,-431.0
25,-284.0
26,87.5
27,318.0
28,26.0
29,-449.0
30,-177.0
31,374.0
32,301.0
33,58.5
34,-115.0
35,-162.0
36,354.0
37,51.0
38,-230.0
39,160.0
40,343.0
41,357.5
42,-277.0
43,-10.0
44,264.0
45,80.0
46,314.0
47,-266.0
48,-162.5
49,319.0
50,138.0
51,295.0
52,-192.0
53,-127.0
54,309.0
55,100.0
56,-485.0
57,-233.0
58,-59.0
59,312.0
60,163.0
61,-499.0
62,-131.0
63,-54.0
64,294.0
65,101.0
66,-497.0
67,-156.0
68,346.0
69,335.0
70,324.0
71,-173.5
72,-143.0
73,386.0
74,267.0
75,157.0
76,-456.0
77,-134.0
78,371.0
79,218.0
80,-278.0
81,-314.0
82,3.5
83,321.0
84,22.5
85,-487.0
86,-245.375
87,-3.75
88,308.5
89,-284.0
90,-39.0
91,-156.0
92,420.0
93,271.0
94,-191.0
95,-109.0
96,399.0
97,368.0
98,278.0
99,-197.0
100,-64.0
101,353.0
102,236.0
103,195.0
104,-270.0
105,-186.5
106,29.0
107,244.5
108,314.0
109,-191.0
110,-121.0
111,395.0
112,123.0
113,-163.5
114,-156.0
115,-139.0
116,372.0
117,126.0
118,-169.0
119,-30.0
120,371.0
121,88.25
122,-194.5
123,-197.0
124,363.0
125,345.0
126,123.0
127,-438.0
128,-146.0
129,400.0
130,254.0
131,126.0
132,-438.0
133,-187.0
134,424.0
135,222.0
136,180.0
137,-133.5
138,-290.5
139,483.0
140,258.0
141,-2.0
142,-436.0
143,-115.0
144,363.0
145,198.0
146,-285.0
147,-77.0
148,27.5
149,132.0
150,247.0
151,-220.0
152,29.333333333333343
153,278.6666666666667
154,433.0
155,224.0
156,-280.0
157,-77.0
158,400.0
159,54.0
160,220.0
161,-128.5
162,164.0
163,76.0
164,76.0
165,-492.0
166,-140.0
167,453.0
168,130.5
169,-192.0
170,-128.0
171,-24.333333333333343
172,79.33333333333333
173,60.0
174,40.666666666666664
175,-126.0
176,-106.0
177,421.0
178,234.5
179,-43.5
180,-321.5
181,453.0
182,524.0
183,307.0
184,-496.0
185,-109.0
186,416.0
187,499.0
188,55.0
189,-204.5
190,-107.0
191,432.0
192,114.0
193,-30.0
194,-174.0
195,-122.0
196,395.0
197,135.0
198,-308.0
199,-289.0
