time_range,Acceleration_Y
0,1.0
1,40.0
2,48.0
3,-15.0
4,81.0
5,8.0
6,116.0
7,85.5
8,-46.0
9,58.0
10,0.0
11,15.25
12,30.5
13,4.0
14,-7.0
15,80.0
16,95.0
17,61.0
18,-51.0
19,59.0
20,30.0
21,25.0
22,-6.0
23,70.0
24,9.0
25,116.0
26,99.0
27,55.0
28,-87.0
29,95.0
30,65.0
31,5.0
32,45.0
33,14.0
34,106.0
35,52.5
36,61.0
37,-93.0
38,117.0
39,63.0
40,51.0
41,-56.0
42,2.0
43,2.0
44,125.0
45,-15.0
46,25.5
47,-64.0
48,114.0
49,92.11111111111111
50,70.22222222222223
51,48.333333333333336
52,27.0
53,11.0
54,88.0
55,11.0
56,58.0
57,175.0
58,118.0
59,68.0
60,12.0
61,48.0
62,61.0
63,28.0
64,54.0
65,-11.0
66,8.0
67,165.0
68,57.0
69,64.0
70,17.5
71,65.0
72,45.0
73,37.333333333333336
74,29.666666666666668
75,24.0
76,138.0
77,38.0
78,77.0
79,-84.0
80,66.0
81,73.0
82,69.0
83,-40.0
84,30.0
85,4.0
86,115.0
87,30.0
88,52.5
89,75.0
90,30.666666666666668
91,67.0
92,70.0
93,-3.0
94,66.0
95,8.0
96,129.0
97,20.0
98,66.0
99,113.5
100,77.0
101,73.0
102,72.0
103,3.0
104,78.0
105,43.0
106,95.0
107,31.5
108,77.25
109,123.0
110,77.0
111,36.0
112,24.0
113,41.66666666666667
114,59.333333333333336
115,-62.0
116,26.0
117,37.0
118,182.0
119,114.5
120,81.0
121,-12.0
122,44.0
123,58.5
124,42.0
125,-2.0
126,1.0
127,37.0
128,170.0
129,53.0
130,75.0
131,74.0
132,110.0
133,85.0
134,57.0
135,-47.0
136,15.0
137,40.0
138,151.0
139,35.0
140,62.0
141,128.0
142,79.0
143,80.0
144,74.0
145,-39.0
146,23.0
147,28.0
148,-35.0
149,55.5
150,101.25
151,147.0
152,87.0
153,62.5
154,-11.0
155,65.0
156,25.25
157,-14.5
158,8.0
159,63.0
160,118.0
161,61.0
162,68.0
163,-68.0
164,123.0
165,65.0
166,43.0
167,-47.0
168,0.0
169,19.0
170,150.0
171,50.0
172,94.0
173,-13.0
174,70.0
175,39.5
176,14.0
177,-70.0
178,15.0
179,31.0
180,45.0
181,53.0
182,84.0
183,56.0
184,122.0
185,53.0
186,53.0
187,-91.0
188,26.0
189,22.0
190,7.0
191,-8.0
192,102.5
193,126.0
194,96.0
195,-91.0
196,-54.0
197,19.0
198,25.0
199,-12.333333333333334
