Nr.,spindle_speed,ap,fz,Ra_up,vbs,clamp_t1,clamp_t2,clamp_t3,clamp_t4,clamp_t5,clamp_t6,clamp_t7,clamp_t8,clamp_t9,clamp_t10,clamp_t11,clamp_t12,clamp_t13,clamp_t14,clamp_t15,clamp_t16,robot_t1,robot_t2,robot_t3,robot_t4,robot_t5,robot_t6,robot_t7,robot_t8,robot_t9,robot_t10,robot_t11,robot_t12,robot_t13,robot_t14,robot_t15,robot_t16,clamp_f1,clamp_f2,clamp_f3,clamp_f4,clamp_f5,clamp_f6,clamp_f7,clamp_f8,clamp_f9,clamp_f10,clamp_f11,clamp_f12,clamp_f13,robot_f1,robot_f2,robot_f3,robot_f4,robot_f5,robot_f6,robot_f7,robot_f8,robot_f9,robot_f10,robot_f11,robot_f12,robot_f13
1,8000,0.2,0.05,12.905,800,26.229323308270676,1295.769853879983,155.0,207.0,155.0,25.0,1.0,53.05000000000001,0.12308309287840545,2.878334120171159,44.48455844278578,3.4843551431302764,4.367122126893337,1.253351609552062,5.278920131260877,1.3723878028084215,989.0305343511451,6343.1025123570535,1210.0,384.0,1210.0,987.0,933.0,1037.0,0.29520307464386,2.858727782382885,992.2198799038124,1.2194877612382646,1.223420266588455,1.0032247189969314,1.2253859052392877,0.08052693424602611,4.264892443249881,6.625420575136423,17.582900094414942,1.8535641235810796,3.8048571525695057e-45,2.7570912629801043e-59,25.811822706221374,29.277809035207387,0.006177875264003175,12.43898859147813,1.1342790227731812,17.582900094414942,21.71717171717172,7.544773823636643,49.86702428327784,51.97876195541286,4.5860613000419885,-3.494174189996311e-45,2.4610819122975986e-59,22.615490661603367,41.489772562782015,0.055201850807679635,8.948000436453661,1.834573177455904,51.97876195541286,5.050505050505051
2,8000,0.2,0.065,6.78175,1040,29.329545454545453,994.6856636709298,128.0,168.0,128.0,29.0,9.0,47.55000000000001,0.37875417967649777,3.4588012333785803,43.02487828588422,2.975022942528457,3.694326008527386,1.2417806786349004,4.356915428368277,1.0753196867879542,976.8759689922481,8580.186891080748,1221.0,454.0,1221.0,978.0,902.9,1040.05,0.12902590555261814,2.502420772859766,981.2408415609732,1.244342824191474,1.249902790893292,1.004468195254335,1.2527084725334532,0.09482196427479701,3.5650718907687224,6.295041881072563,15.763966922186334,1.8688959164224266,1.4971885317840687e-45,7.950027954799591e-60,25.053386854886085,27.31135435642765,0.03522486529271516,13.917950906401055,1.0901262378064944,15.763966922186334,21.71717171717172,9.631042123548488,61.48837765487222,45.48547588598397,5.337214652926438,2.0088375776297656e-46,5.460843934593977e-61,23.339517052784565,48.062763092467776,0.026073216821938385,7.805880397450231,2.0592869588419163,45.48547588598397,4.545454545454546
3,8000,0.2,0.075,8.4345,1200,22.78731343283582,1504.5426099837887,151.0,240.0,151.0,20.0,-3.0,51.55000000000001,0.12287028210504974,2.8221721895403435,44.92427293243,3.3612118826523267,4.198360825811807,1.2490616397853762,5.013635417280439,1.702194253224053,997.3438735177865,9789.123345253778,1246.0,474.0,1246.0,999.0,922.0,1067.3,0.2022927403509132,2.5182525434029257,1002.2201520631986,1.2432398185517917,1.2493183475476364,1.0048892650517947,1.2523780568943994,0.0992034957447986,4.2369447534350915,7.8602170964000795,20.080108645294356,1.9992846869898753,-9.14072503796963e-44,1.911206117428562e-57,25.350825608700855,27.493034227147593,0.0023070636784097735,12.595672668453517,1.0845025188336073,20.080108645294356,21.71717171717172,9.964128593303107,78.0250588465292,63.9850778996454,5.802187770615497,-2.2854060885304477e-44,3.0103558783054015e-58,22.505748396565476,48.17478735970953,0.03799159801719072,7.6130956848227385,2.1405547823089197,63.9850778996454,5.050505050505051
4,8000,0.2,0.1,6.77025,1600,28.397163120567377,2118.802554201055,169.0,263.0,169.0,28.5,3.0,59.0,-0.14652956113952612,2.9666340441577566,54.01562684318689,3.1287242206894126,3.8558252427184465,1.232395369723196,4.536134589659242,1.6209524969205313,992.5196850393701,14939.776290809497,1278.0,614.0,1278.0,988.5,896.95,1082.0500000000002,0.17942956488837974,2.4140273468621447,999.9881416619734,1.2780151551357128,1.287631892106307,1.0075247440783073,1.2925104156349758,0.12314957521017252,4.90785883295445,10.351655787680132,20.09232862310573,2.371619796085889,-1.614926298365356e-44,1.8946846756123145e-58,23.633376229231093,30.467168108373425,0.0894405020665041,11.843860175238687,1.289158510949016,20.09232862310573,21.71717171717172,12.19675779972805,131.47107291550202,84.46692401382528,6.560314179693162,-8.031544644800837e-48,7.465612376289484e-63,23.325478789125224,54.03853109157873,0.03334475683775655,7.139349321256873,2.316716907726349,84.46692401382528,5.050505050505051
5,8000,0.4,0.05,12.5425,800,43.666666666666664,824.1021505376344,126.0,141.0,126.0,44.0,25.700000000000003,56.0,0.4550835701800595,3.419763000201773,52.226145570245734,2.412584704925739,2.824196597353497,1.1706103381934636,3.1929651847463885,0.6574163227093218,988.560975609756,2563.928919860627,1128.0,311.0,1128.0,983.5,954.0,1019.0,0.1699117449969252,3.4049433408170726,989.8516600698761,1.1395646898449123,1.1410525276948509,1.0013056194731174,1.141797124058756,0.051221173984148397,2.95650586107518,4.522685966706281,13.043699451875728,1.5113587078865858,2.2768669940884093e-44,2.995368203631631e-58,25.955743132176373,24.583717412444823,-0.0011109461627277874,15.525263352478564,0.9471398020567287,13.043699451875728,9.595959595959597,5.225572238240871,19.933524401945743,32.61829536372056,2.990388606037463,-2.160272908311069e-46,6.016512532236515e-61,23.928035273788144,33.375292134843214,0.01063688082963737,10.570877730131231,1.3948195810043804,32.61829536372056,6.0606060606060606
6,8000,0.4,0.065,6.67625,1040,24.036630036630036,1295.704535660418,153.0,222.0,153.0,25.0,-2.0,45.30000000000001,0.42775007093547907,3.6425409401066777,43.22867044818692,3.539317735514974,4.463453729429365,1.2611056884328948,5.197056561491818,1.497543376082448,996.2380952380952,9443.22595332954,1245.0,438.0,1245.0,982.0,932.9000000000001,1062.65,0.38286141931838996,2.729780435425345,1000.9475986474494,1.2438213565648506,1.249701257110081,1.0047272870128787,1.2526347925532293,0.09754321056177516,3.991613254588551,8.015543357983946,18.156395652628657,2.006170587098523,-8.478934275476333e-47,1.728973585860463e-61,26.121892466014675,27.839333153341112,-0.046101798765521854,12.784423528627892,1.0657471769918996,18.156395652628657,21.71717171717172,10.149367206143769,52.37149382076947,44.986456521949485,5.331536919282026,6.239244215151048e-47,1.1486189579486094e-61,24.905729861619445,46.92156065588236,-0.02252662550423856,7.56679746435937,1.8839664975323627,44.986456521949485,40.909090909090914
7,8000,0.4,0.075,8.19225,1200,45.83884297520661,1557.5299372449506,176.0,231.0,176.0,46.0,20.950000000000003,68.0,0.25742154002860534,3.518202598776509,60.43420710516315,2.9122579484452866,3.4988909882526906,1.2014358103548413,4.010698209362635,0.86096313180799,988.3795918367347,2966.892204750753,1190.0,353.0,1190.0,982.0,955.0,1016.0,0.5550834444512349,4.055154875312172,989.8732242060091,1.2021741480627637,1.2039908652793896,1.001511193049321,1.204891164457668,0.05510958166046887,3.691061131444985,10.462190321596474,21.211565731541036,2.122840986033213,1.0487498176880771e-44,1.0655222699562967e-58,26.484872198086467,28.066025606198227,-0.020999273714084974,13.977354075977933,1.059700246853598,21.211565731541036,21.71717171717172,6.046811411282172,23.20155019058522,33.73258755622706,3.0870169987013525,2.438898499395263e-44,3.2829048986198825e-58,23.91841212848888,35.856207748604646,0.01149008152131743,9.841962496271515,1.4991048551210817,33.73258755622706,6.0606060606060606
8,8000,0.4,0.1,7.33225,1600,43.24081632653061,2093.749146871863,176.0,234.0,176.0,43.0,14.700000000000003,71.30000000000001,0.3622518180751038,3.224051659957827,62.88856357535469,2.798601049125765,3.4298440979955456,1.2255566398315223,3.9388590275796793,1.0582016624408235,993.5555555555555,4958.168216024789,1184.0,343.0,1184.0,988.5,952.0,1028.1,0.5185598161059882,3.6339228268406334,996.037717619486,1.1887100047071921,1.1916797137105792,1.0024982619744323,1.1931521473314413,0.07087098558268948,4.356796594415145,14.886023439285452,24.965928954757942,2.537918826115285,6.179278579218613e-45,5.263205975914696e-59,25.53824704674832,28.5226176684381,0.07058236919505764,12.3657899261538,1.1168588672600286,24.965928954757942,21.71717171717172,7.298308125163877,32.478841592761206,33.448882319989956,3.725643549550198,1.1276775520429227e-45,5.448118941702288e-60,23.272729833754934,40.140428836995774,0.04138032777468768,8.988157125942164,1.7247838617872755,33.448882319989956,40.909090909090914
9,8000,0.6,0.05,12.01,800,44.97551020408163,2475.573168283707,220.0,301.0,220.0,46.0,16.0,70.30000000000001,0.183324507680443,3.324950516395328,66.99451698551493,3.283850826890308,4.041388618130014,1.230685811010809,4.669062447370394,1.106271654375552,988.3991935483871,5689.827853598015,1193.0,442.0,1193.0,995.0,942.0,1037.0,-0.05672516072380674,3.1472992693047313,991.261746869338,1.2035166329859937,1.2070021988960644,1.0028961510082524,1.2087685885722628,0.07631627795484056,5.098025919918927,15.47791444062997,23.600383824349557,2.7091109015059702,-1.3319866901588988e-46,3.157425995431535e-61,24.210770856554625,32.15282448108106,0.06835243550824903,11.682518638970562,1.3280380319809715,23.600383824349557,21.71717171717172,8.276050146073622,28.764390748268575,38.26349320349105,3.7840027450171227,1.4882223268952072e-45,7.886611014035061e-60,22.943627382582758,39.843984536749744,0.04009036691511621,8.695934993074736,1.7366035401619444,38.26349320349105,6.0606060606060606
10,8000,0.6,0.065,7.119999999999999,1040,26.95910780669145,1949.7483215890807,209.0,279.0,209.0,27.0,-4.599999999999994,53.0,0.48123803139183013,3.5695444926947344,51.66520763819108,4.045275525913237,5.18739619856062,1.2823344578956817,6.1756970361538235,1.6378863447356775,988.060975609756,10563.551368840217,1314.0,521.0,1314.0,974.0,902.9499999999999,1064.05,0.47793148665433843,2.643044799394111,993.370576182935,1.3227691976232032,1.3298774391824342,1.0053737580010205,1.3334076505330805,0.1040210486189033,4.434256831391017,13.485076100376972,24.330894002037468,2.214502755602613,1.0314497531032222e-46,2.2452468804818643e-61,26.247033937298948,30.363492090070327,-0.020849163158558174,12.133914990359077,1.1568351746946002,24.330894002037468,21.212121212121215,10.368050450082112,70.37906236318392,59.07468780665022,5.3145626578957,1.9743470902401317e-45,1.1496474279430214e-59,25.782722444930197,47.06555552416003,-0.05321908234416087,7.839250764489082,1.8254688047272059,59.07468780665022,40.909090909090914
11,8000,0.6,0.075,9.0085,1200,42.98,3576.9192771084345,213.0,369.0,213.0,40.0,6.0,78.0,0.08022671039617216,3.0470529398035615,73.55196802261649,2.8959116353556253,3.645013347936204,1.2586756113118025,4.3508746134792835,1.3915158530346017,999.0671936758894,7501.316895664722,1257.0,605.0,1257.0,1001.0,952.0,1047.0,-0.2227741134424103,4.406208267728166,1002.7995437280503,1.2534907976991327,1.2581736323210584,1.0037358348625465,1.260581412196307,0.08669100906688983,6.31652116046578,20.436022459538997,34.66297663178725,3.0171381492866636,-1.9470277501462105e-45,1.128486033552163e-59,25.010874198066123,35.56968798911142,0.02315311091565323,10.41854706834537,1.4221689217029336,34.66297663178725,21.71717171717172,8.915110619207818,56.054164051693824,52.02649996353517,4.734014329906137,1.3356074013570647e-49,3.168874862404493e-65,24.36350395843753,41.91125428978035,0.021205191220074866,8.205920116054124,1.7202473979636954,52.02649996353517,6.0606060606060606
12,8000,0.6,0.1,7.279,1600,43.573170731707314,5501.527277252364,232.0,374.0,232.0,32.0,0.0,90.15000000000003,0.1475274893144477,3.1718162307318796,85.89403095003475,2.701002589283023,3.569453999624742,1.3215292772348832,4.533392870228294,1.7022465845798262,985.5672268907563,10012.769723079104,1200.0,480.0,1200.0,981.0,923.0,1048.05,-0.12613369565696472,2.776826729188906,990.612667990468,1.2113715468976283,1.217572954191802,1.0051193271874805,1.220753698504829,0.10152917580351171,7.668914820995147,39.08213717759693,42.61389647192073,4.1567621933850845,-1.835325789491692e-48,1.04299979479695e-63,26.861970138395307,40.0066178807926,-0.01531019521123576,9.882567578761135,1.4893404197337303,42.61389647192073,21.71717171717172,10.66574159845278,62.06430492652138,52.760613792533334,5.2398524995669975,5.1287656192542813e-45,4.105352660776418e-59,24.85491080018996,47.29422194054214,-0.02803659767164764,7.699507471816904,1.9028119763029157,52.760613792533334,6.0606060606060606
13,8000,0.8,0.05,13.322499999999998,800,42.756972111553786,2841.7847011952194,184.0,282.0,184.0,44.0,12.200000000000003,67.0,0.27061492354020494,3.6481043544636353,68.25409521738767,2.6958089388477626,3.381956649091974,1.2545238649358748,3.9648241447979022,1.24677660217784,990.9514170040486,7729.290313024589,1232.0,491.0,1232.0,996.0,923.4,1047.0,0.23707644273215311,2.6425782645416818,994.8279793522216,1.2384050565226483,1.2432496476211876,1.0039119600433017,1.245679582327029,0.08871916523644718,5.211023602242465,18.39115282112489,25.503022577134434,2.8531416329392134,-3.808827934825041e-45,2.7609283629073306e-59,24.478056617485986,30.841649622863898,0.06641999009939813,12.36614563205178,1.2599713328889048,25.503022577134434,21.71717171717172,9.340296854150242,58.13791780813615,63.38716555577272,4.396259073203427,-4.719531795800844e-44,7.916475798270674e-58,23.95822397025617,46.530957369630194,0.01642801730420411,8.074801725110994,1.9421705643706222,63.38716555577272,5.555555555555556
14,8000,0.8,0.065,6.29325,1040,27.12015503875969,2581.732588302718,179.0,264.0,179.0,25.0,-8.099999999999994,58.10000000000002,0.2349838148901422,2.88152593009394,57.508509650055636,3.1125828349444427,3.900836219275277,1.253247359550161,4.598232128594635,1.8735421169703872,983.8870967741935,16883.37991380436,1380.0,644.0,1380.0,969.0,890.0,1055.1,0.6124642238785736,2.9753508555099413,992.3956473945973,1.390574418200046,1.402599957377748,1.0086478932880614,1.4085516786969272,0.1320639952426181,5.710268386794536,11.783532315597558,17.181271427071643,2.67204768308059,2.5787842758914675e-44,3.536334608192271e-58,24.5230714734293,33.92948059903553,0.014809408788828736,11.146070433494694,1.3835738576139638,17.181271427071643,21.71717171717172,13.604376917889383,107.52969969949821,70.30158391738439,6.753945140829883,1.5806100030962452e-44,1.8411943554253163e-58,25.74195412499497,54.147273208750164,-0.025891995900229243,6.72088064010394,2.1034639773588184,70.30158391738439,40.909090909090914
15,8000,0.8,0.075,7.8740000000000006,1200,41.18072289156626,5906.1647881849985,229.0,387.0,229.0,48.0,-9.0,84.60000000000002,0.09845776261882243,2.949564952469501,87.05341572135478,2.6305688076961324,3.259833066544706,1.2392122407167472,3.812739703634816,1.866202702583606,993.4578313253012,13057.144383987563,1300.0,654.0,1300.0,981.0,908.7,1061.0,0.38533581872962924,2.88470809902233,999.981584167778,1.3000239410227825,1.3085608256424561,1.0065667133891067,1.3128361647887676,0.11502034492606758,7.951363053160999,38.18673644460559,47.17378854003944,3.928929920530093,-2.036538560265061e-46,5.5614774849774896e-61,24.911910415677486,38.6480101968243,0.0355191344692872,9.378303681920693,1.5513868487782638,47.17378854003944,21.71717171717172,11.886372870349598,96.1577553600621,64.02353637555795,6.085693311926282,-2.458006235514189e-44,3.317243158241485e-58,25.01379181508679,50.590848464185555,-0.02350483326754622,7.095136957734343,2.022518170702622,64.02353637555795,6.0606060606060606
16,8000,0.8,0.1,6.249499999999999,1600,40.473684210526315,7441.876337184424,247.0,437.0,247.0,40.0,-12.799999999999997,85.0,0.08150555173160216,2.9355780586984173,95.13078574657698,2.5964255215760965,3.2689814070621015,1.259031456861411,3.8647977982943362,2.1314172959563726,992.2633744855967,16404.153487739346,1325.0,634.0,1325.0,975.0,898.2,1065.0,0.3561907187713179,2.602635311117418,1000.4615190145029,1.3243887694003278,1.3353309555408095,1.0082620650320346,1.340832085015962,0.12907732327977167,8.424157514101275,54.061432278170486,59.246283765492976,4.656187964987081,2.089170429575754e-43,5.753937764575482e-57,25.420404522020867,40.762329398306576,0.023470023334570024,9.453531662313113,1.6035279597142327,59.246283765492976,21.71717171717172,12.936324727193552,128.62179003162052,80.1143901797998,7.490669393426563,9.880536226178446e-44,2.120186279674766e-57,25.226304746302905,52.492078755194086,-0.04489770016872637,6.859669629274534,2.080846928755476,80.1143901797998,40.909090909090914
17,8000,1.0,0.05,11.26225,800,44.77049180327869,3290.9594549011667,213.0,335.0,213.0,42.0,5.0,76.10000000000002,0.5141676597204142,3.6389531156110566,72.67646697837627,2.9307973936511633,3.804128238910848,1.2979840391394972,4.635234871547604,1.2813548018644383,986.0975609756098,8571.190443006471,1270.0,520.0,1270.0,977.0,926.9,1037.0500000000002,0.4124334592573302,3.4518449276319076,990.4164517855505,1.2822888772802676,1.287905021023992,1.0043797804404544,1.2907072147321825,0.09388596787143767,6.101720473939361,23.7999599055761,34.90641834014987,3.192038302881426,-5.873673575550255e-45,4.919033079117212e-59,25.056709802442757,34.804788193614826,0.019086424615668836,11.072560469439981,1.3890406389358325,34.90641834014987,21.71717171717172,8.934778056574338,57.238953601887665,58.027014134541886,4.5758553906472175,-3.9460003143291546e-46,1.3434128167654254e-60,24.032968347147058,44.83293215872199,0.01732541372131328,8.25122346129225,1.865476270393544,58.027014134541886,5.555555555555556
18,8000,1.0,0.065,6.5755,1040,29.875912408759124,4048.739124622336,313.0,445.0,313.0,23.0,-8.049999999999997,61.05000000000001,0.7482593136027638,4.350119601418855,70.1892644691147,4.45937142050732,5.9864581879100935,1.3424443993115613,7.395465086213449,2.129799495075171,989.7438016528926,21928.440314118172,1418.0,720.0,1418.0,972.0,881.9499999999999,1073.25,0.5265177773548723,2.9222097214514173,1000.7150542660537,1.4169867775597642,1.4326939937708232,1.0110849419767407,1.440545000641333,0.1496170477268539,7.0667382593291,28.13195824653016,38.20613472516068,3.4990710177442077,9.61860005600881e-44,2.0455769565081166e-57,24.56564325377347,37.58080352806659,0.034651255981434405,9.78406243020755,1.5298114989231513,38.20613472516068,21.71717171717172,14.607974302121168,153.42904745758796,83.1285964696044,7.321550801131285,-9.901105041017427e-45,9.868357872369643e-59,25.01447266531579,58.70292681067444,-0.012599640846143527,6.360539901332611,2.346758518402425,83.1285964696044,40.909090909090914
19,8000,1.0,0.075,7.69475,1200,41.31645569620253,5930.1409568762065,269.0,405.0,269.0,40.0,-8.0,78.0,0.5429975382776836,3.4999796706285444,87.24774367495877,3.0831742881759645,4.019735182849937,1.30376514823236,4.800347770655554,1.8638435257060288,990.9133858267717,16066.893654103516,1342.0,575.0,1342.0,976.5,902.0,1063.0,0.6598328623586553,3.0273746805044435,998.9559431616354,1.3434025886593663,1.3543060566088712,1.0081163070858645,1.3596835587409375,0.12791758876732956,7.892916426901815,38.943027637653344,52.63660128603701,3.875225501273594,2.797445696988232e-44,3.941687770242871e-58,26.27630650287234,38.731094025612954,-0.00074104901650188,9.453774099882564,1.4739930827560999,52.63660128603701,21.71717171717172,11.864869212881572,130.00940190667063,81.28549314318678,6.794089616143359,-2.702544084381544e-45,1.7472848686155649e-59,26.147095027570785,51.09751067011573,-0.06638643208070374,7.3575093936499165,1.9542327978016678,81.28549314318678,40.909090909090914
20,8000,1.0,0.1,7.37725,1600,43.19230769230769,10810.980026411356,319.0,502.0,319.0,39.5,-29.049999999999997,114.15000000000003,0.19935776787544696,2.800408469533254,112.38485085123662,2.8384608564570595,3.583409341846287,1.2624480389414512,4.232491767025593,2.407277320102695,992.6693877551021,22771.050083640017,1390.0,672.0,1390.0,967.0,879.1,1076.0,0.6192447069926766,2.687644136323728,1004.0272010300135,1.38442464364912,1.400264798276344,1.0114416878519814,1.4081153088749327,0.15201515969473697,10.291260075037362,78.36178008406043,63.403682942634326,5.578651456237404,-4.911597892255294e-43,1.7987207267966077e-56,25.387158773569002,43.84760794612352,0.017160158375005678,8.357051554327134,1.7271569590439557,63.403682942634326,21.71717171717172,15.273883103729927,147.5528703523952,76.39025718277522,8.043869606117815,2.5018376907943844e-49,7.317209810448744e-65,25.15591703104242,58.192754776417736,-0.009826834529016604,6.1790771861224,2.3132829824731824,76.39025718277522,40.909090909090914
21,10000,0.2,0.05,7.472,1000,43.71774193548387,208.98883374689825,92.0,99.0,92.0,43.0,36.0,50.0,0.1706739442872701,5.054598064476585,46.03680154804625,1.9984012117780232,2.1016949152542375,1.0516881709575783,2.1745032565957607,0.33067687068645135,993.1550387596899,8555.664585407054,1240.0,450.0,1240.0,986.0,923.9000000000001,1057.0500000000002,0.10760234908736109,2.7096071427305044,997.4364311115406,1.2431869955042119,1.2485462506927263,1.0043109002972965,1.2512538306301761,0.0931343364659175,1.534045550328425,1.4027515894864984,9.004740597763247,0.7282633927319142,3.5019067618817474e-44,5.317891085958873e-58,24.891177267409667,18.275365422276476,0.08136769330999355,20.825608569012868,0.7342105689072667,9.004740597763247,12.121212121212121,8.728187266104747,73.6214672410508,64.29547774068628,5.353114431390901,-2.1831583642227374e-43,6.101645710034617e-57,25.258036907167646,35.976563704452566,-0.023239759813350275,8.853761039804583,1.424361039485347,64.29547774068628,28.78787878787879
22,10000,0.2,0.065,7.696,1300,28.10727969348659,2276.0422929560864,200.0,316.0,200.0,26.0,0.0,58.0,0.06937170625665587,3.8028789102004175,55.29322739873829,3.6170795124280213,4.629301170627882,1.2798450116238642,5.587124083278156,1.6973497805175617,990.0037878787879,13133.038008411108,1278.0,594.0,1278.0,993.0,905.0,1061.55,0.05929281700522874,2.617162782809707,996.5895803522465,1.282373431546704,1.2909041517288349,1.0066522901771613,1.2952566032778061,0.11575659522959306,5.124629488308821,13.498228545791374,24.60449569484289,2.6457445641043713,-5.496092901195505e-44,9.699263397877393e-58,25.16277558838969,34.5393596889741,0.04967835952642892,11.395600625642157,1.372637114997395,24.60449569484289,12.121212121212121,12.234179662275121,75.10804721576191,52.29575147927689,6.345367036388827,5.3207044679516184e-43,2.0012077817584422e-56,23.79209464186005,48.24392423151992,0.008202273317346081,7.401188922187867,2.027729166251679,52.29575147927689,5.050505050505051
23,10000,0.2,0.075,6.307,1500,42.512,235.73680321285138,91.0,93.0,91.0,42.0,34.0,51.0,-0.04550142926287769,3.756538190504501,45.1892022500951,2.013755398831111,2.138962015795412,1.062175682824725,2.2376865063011815,0.3611620902392906,992.2392156862745,7969.710267098965,1228.0,436.0,1228.0,998.0,930.2,1053.0,-0.025100268536910136,2.592916453044172,996.2314578686314,1.2326452756543358,1.2376047837926496,1.0040234674453938,1.2401228136740565,0.08997148304060062,1.5928947215969549,1.3341466712319894,7.209894149632041,0.8244462564274401,2.594642177230373e-43,7.681333677900707e-57,26.123191431168028,18.92552461552863,0.00942423544662227,20.972984638752223,0.7244721482593532,7.209894149632041,26.262626262626263,9.210275154054806,54.66320876920019,48.023297799132145,5.045466982539771,-1.4863763412814396e-44,1.6963093087993527e-58,25.212807783217244,39.15344967941227,0.016710117785724062,8.709464817694627,1.5529190566976254,48.023297799132145,28.78787878787879
24,10000,0.2,0.1,4.6485,2000,42.91902834008097,305.51374214146995,97.0,92.0,97.0,42.0,31.0,53.0,0.29006842681292894,2.9978591263226155,46.328391274214134,2.0937485056596197,2.2600698047354024,1.079437095059984,2.3688651231193045,0.4072541266382212,991.9209486166008,7617.454043541,1269.0,472.0,1269.0,998.0,927.7,1054.0,-0.042936923847820704,2.4751966254612756,995.7381753422895,1.2744314031786272,1.2793358198249893,1.003848317480352,1.281825416255859,0.0879888940628543,1.8784914575177734,1.5536489375751685,8.088248527848473,0.85007650526724,1.2419994249143907e-43,2.8762625479641374e-57,25.639686148549984,19.649535909037027,0.04263575996841145,19.157193860156877,0.7663719358806691,8.088248527848473,26.262626262626263,8.896877979107847,47.13555687696893,43.55660092897412,4.866805818064019,1.1085305027611832e-47,1.1472644342188232e-62,23.54735971462296,40.202678459774674,0.04735899675980059,9.137764610744986,1.7073115180216458,43.55660092897412,20.202020202020204
25,10000,0.4,0.05,8.79425,1000,43.036,1411.8822329317268,159.0,239.0,159.0,40.0,24.0,68.05000000000001,0.12020218072824003,3.9816913119987465,57.08180095266792,2.785476234918418,3.3105688348463396,1.188510888495626,3.7228089036487524,0.8731067338110188,983.6417322834645,8187.898804892473,1227.0,481.0,1227.0,993.0,917.95,1042.0,-0.11995904027742742,2.838682994435481,987.7786799037732,1.242181092752003,1.2474053913426324,1.0042057463449674,1.2500734313774968,0.09199183612240393,3.6088494641391495,9.780904443787113,21.879647403628596,1.9364865265535816,-6.823657307255143e-45,6.007442331955394e-59,25.05203891607061,27.886570998666382,0.08586366521768361,13.608473289110673,1.1131457639871958,21.879647403628596,12.121212121212121,9.21340993576248,50.18794691502122,47.632839469739636,5.092234899558926,5.411797969854847e-45,4.410171048018704e-59,24.136871131446867,38.71413770371941,0.02454552649721338,8.89685997719017,1.6039418486715316,47.632839469739636,20.70707070707071
26,10000,0.4,0.065,8.156749999999999,1300,31.606177606177607,3018.169884169884,202.0,329.0,202.0,33.0,3.0,65.0,-0.24194681499144133,3.619178893157246,63.28876030913531,3.191719967547581,4.002907421576128,1.25415370467223,4.770232888020504,1.7382004756673834,991.50622406639,21646.626002766254,1369.0,720.0,1369.0,982.0,884.2,1101.3000000000002,0.1229934196310682,2.7333586033668937,1002.3180125789663,1.3658339796543815,1.3807275907814507,1.0109044081117662,1.3884033048734075,0.14838830091873728,5.773135776419562,23.501435018318798,33.4529017866348,3.197495609407279,2.1093721037981715e-44,2.705230431956538e-58,24.360424450515648,35.328062553424715,0.08900854409745235,11.191102343157722,1.4502236044855494,33.4529017866348,12.121212121212121,14.446104076703747,181.7194006995386,78.1820073730447,8.787380657973827,2.820490448062603e-43,8.585511567543855e-57,21.94555485369545,51.19664077534737,0.04252406750461041,6.725712213989093,2.332893431797933,78.1820073730447,6.565656565656566
27,10000,0.4,0.075,7.196999999999999,1500,45.40384615384615,1910.3343480843482,158.0,242.0,158.0,42.0,17.0,72.0,0.1312544431521855,3.333661045477906,62.96424504308897,2.509360667977107,3.090813332330148,1.2317134686030498,3.6059579551718812,0.9626358884627937,991.5889328063241,9181.497019888326,1212.0,487.0,1212.0,999.0,935.4,1058.0,-0.5011776568621261,3.124947738903297,996.1896497062285,1.216635808610753,1.2222806849708217,1.00463974208232,1.2252259683759879,0.0966329144055651,4.27524991170923,11.649184692129284,21.085633200761258,2.129070985517616,4.757963633679507e-45,3.7144526315173285e-59,26.210538597471576,30.4459077983594,0.007576484243253064,12.988663222950265,1.161590315480827,21.085633200761258,12.121212121212121,10.358854414636232,47.722790552451514,34.05086589096751,5.217075348948946,-1.0881327088664317e-44,1.1192037422821696e-58,24.820022739655236,42.93774388643392,0.0014325738009128503,8.368394731614668,1.729963922145478,34.05086589096751,6.0606060606060606
28,10000,0.4,0.1,5.2955000000000005,2000,40.66538461538462,2703.783353133353,178.0,269.0,178.0,38.0,2.450000000000003,72.55000000000001,0.2624283604489206,2.8990038642783214,65.93222044120532,2.6997422323844,3.4503839558637144,1.2780419976674406,4.240749686333594,1.2786776101375426,989.1354581673306,11065.317577689244,1295.0,576.0,1295.0,990.0,921.1999999999999,1059.0,0.07939360720202811,3.0368017888842838,994.6910008897215,1.3019118488471908,1.309224120222497,1.005616564118209,1.31294322509936,0.10634722716191349,5.127493851044271,23.075448245981523,31.678740069706603,3.1750023619882404,6.990353580706614e-45,6.203910510214007e-59,26.9900019768198,32.57617565197037,0.031975506607820246,11.588865615165837,1.206971962430689,31.678740069706603,12.121212121212121,11.766951829158423,58.951084472490095,47.40422962028927,5.282389627525426,3.0131433392927107e-43,9.376189787800138e-57,25.06549102555576,45.90555099291247,-0.011099342384012636,7.981899154975542,1.831424365319994,47.40422962028927,28.78787878787879
29,10000,0.6,0.05,9.123,1000,40.44758064516129,5640.151087240433,259.0,409.0,259.0,45.5,-4.549999999999997,89.0,-0.008166402809222286,3.4440742581538553,85.16698493301641,3.0410845259310606,3.7776862906545903,1.2422168007638692,4.426506457763162,1.8567473783447148,991.2142857142857,9670.2327831531,1289.0,615.0,1289.0,985.0,919.25,1050.5500000000002,0.1219708382690954,3.0477028739540146,996.0610518676148,1.2940973824677962,1.300425163940333,1.0048897258879157,1.3036296466940804,0.09920896336020762,7.351633519464269,38.68431304538774,46.5958931462453,3.973313915505709,-4.585425019133706e-45,3.5359501065494207e-59,25.29926755825876,39.238835478308395,0.06238350719600394,9.372505975866556,1.5509870152544858,46.5958931462453,12.121212121212121,9.604827730507264,57.08706284629719,47.47935309525884,4.862492681802843,5.482364153153551e-47,9.66697299848913e-62,23.600832754438862,41.664884170231716,0.03982132319108459,8.638278040864137,1.7653988994263499,47.47935309525884,7.070707070707071
30,10000,0.6,0.065,7.003,1300,45.775590551181104,6219.360508543151,263.0,433.0,263.0,45.5,1.9500000000000028,85.20000000000005,-0.05693759354306859,3.540153635036233,91.05097213956067,2.8884919492883627,3.654576289731386,1.2652194826548724,4.373879075430254,1.7228160536597719,992.3793103448276,12151.6824933687,1242.0,545.0,1242.0,998.0,914.7,1069.0,-0.11868720947565042,2.58713886789255,998.4597237362015,1.243915974249296,1.2515375794850412,1.006127106165949,1.25545855984316,0.11108118534600547,7.333612295897125,49.95696147079017,57.96347172793616,4.062754120113607,-9.408805101084612e-44,1.986305125342442e-57,25.613155599781383,40.25795870384761,0.06310001409198154,9.698983753838263,1.5717687946342398,57.96347172793616,12.121212121212121,10.22002805566314,104.84966599831624,68.0250252956467,6.213682605831995,4.1766688891242615e-49,1.4491279395030657e-64,22.43733007451214,40.53646414779053,0.05118870122891191,8.444335310309024,1.8066527529422158,68.0250252956467,6.565656565656566
31,10000,0.6,0.075,6.86325,1500,40.27413127413127,6175.25401813774,248.0,411.0,248.0,41.0,-3.0,82.0,-0.08477384255348261,3.4026903536313955,88.1669835506296,2.8128443325679484,3.547749240541287,1.2612675360183963,4.184233236848862,1.951197505781273,992.1171875,9683.923468137255,1273.0,572.0,1273.0,985.5,934.0,1059.0,0.2102855316275599,3.0800333059810003,996.9667042459342,1.2768731338554042,1.283114551424904,1.0048880483142868,1.2862608227704497,0.09918881477685305,7.4403141672080775,51.51983196848316,47.31400254330051,4.428343468637897,1.5157548988729195e-46,3.7512151528657455e-61,27.468749863550677,41.6698764756842,0.002677171060314756,9.11633269168442,1.5169920976628621,47.31400254330051,12.121212121212121,10.186312990008773,66.87165200911411,45.133874136633594,5.868323748322289,-1.7934476313251648e-43,4.6944523268149274e-57,22.242285212926294,42.04584956489371,0.05613205880739376,8.429514128747243,1.8903565511541234,45.133874136633594,20.202020202020204
32,10000,0.6,0.1,4.58075,2000,41.44,7156.35983935743,297.0,488.0,297.0,41.5,-9.049999999999997,88.20000000000005,0.04595692769953371,3.589871030638311,94.04790268793877,3.1579651593664826,4.073850543180073,1.2900239038727475,4.9770552415164016,2.0413916695464414,995.2415094339623,11292.388421955402,1249.0,547.0,1249.0,985.0,918.4,1060.3,0.1908369856124057,2.6297233063033945,1000.8773340104416,1.2479051703522441,1.254971771334539,1.0056627708179944,1.2585400364786914,0.10677373204144451,8.525063029645036,42.031387514333844,40.80495830605788,4.375660178123339,0.0,0.0,26.70713006266163,42.69386411754238,0.015792780365543675,9.111700340413465,1.5985942337260448,40.80495830605788,12.121212121212121,11.70347163747585,72.34142608610387,42.91937601948347,5.978931848319774,-2.216546729595429e-43,6.226383340978756e-57,22.00680249664644,46.10318871142373,0.0827338261189005,7.934195482187199,2.0949517186083386,42.91937601948347,6.565656565656566
33,10000,0.8,0.05,9.78075,1000,34.70238095238095,21766.14612976665,299.0,560.0,299.0,23.0,-87.0,175.85000000000008,0.027773731921000046,1.7170052874100648,151.2746765912186,1.976537030106973,2.289308176100629,1.1582419864791142,2.570683540097847,4.2513953895894225,993.6821705426356,15895.797424064185,1303.0,619.0,1303.0,996.0,905.9,1082.0500000000002,0.1277227920532812,2.622582493830781,1001.617912110434,1.3008952657950639,1.311284471662051,1.0079861969984474,1.3165844105767237,0.12688014384065305,11.267786263974052,255.93305362761825,147.1904382859298,7.7870354491658285,-4.899774756684989e-45,3.8627934639165054e-59,22.200370305472788,46.11305524741127,0.14816368576008748,8.806173127813075,2.0771300033695193,147.1904382859298,12.121212121212121,13.089389064519747,90.32802476247788,62.94686400061318,6.868028894715116,-1.7628713973246242e-45,9.884639657749286e-60,23.720905547099296,49.75637774366467,0.0055015745281196396,7.092184791159781,2.097574970098438,62.94686400061318,6.0606060606060606
34,10000,0.8,0.065,7.58625,1300,43.19140625,37455.9357689951,495.0,922.0,495.0,47.5,-99.55,219.0,-0.1929106629824063,2.212686412040617,197.92706003411965,2.500921298556496,2.928520256060641,1.1709765748130303,3.2993667146552057,4.480876575146329,997.578125,26747.852696078433,1454.0,839.0,1454.0,1014.5,876.8,1104.55,0.05120025632637162,2.8261541191778607,1010.8439465985836,1.4384020450363326,1.4575299553606391,1.0132980277595638,1.4675308812199193,0.1639447614256624,16.553431632371158,416.433890065289,158.9666528230342,11.882015077496245,4.221351465459717e-46,1.4698353342700265e-60,21.977540291714867,56.381392651639416,0.1377059153708293,7.016161395627834,2.5654095910311754,158.9666528230342,12.121212121212121,17.69760308532151,167.87908450212504,77.58287149658965,9.692195330187472,-7.5353575019926e-44,1.4773106045274004e-57,21.79167499142304,59.5161853503806,0.06645952694915946,6.323841027984478,2.7311432174812404,77.58287149658965,6.0606060606060606
35,10000,0.8,0.075,6.745,1500,46.9451476793249,36386.43341915183,398.0,753.0,398.0,43.0,-117.69999999999997,221.0,-0.1084265180425328,1.799787336321473,196.05292921773017,2.0300640321369228,2.337926932037872,1.151651817394588,2.6295340736788266,4.06330136972773,992.390625,23390.55269607843,1364.0,759.0,1364.0,991.0,889.0,1078.0,0.16223035593333313,2.8604651690579956,1004.060922423286,1.3584833046863396,1.3744587722198605,1.011759782014553,1.3826991281880454,0.1541124018695035,15.735766311914709,393.5905843017724,171.9585605200217,9.963596039195838,-2.821371908234861e-46,8.589089281324837e-61,23.04605219843499,57.1209215078897,0.11136648269661219,6.9001259322822905,2.4785555901747314,171.9585605200217,12.121212121212121,16.085990348023394,133.3421087216255,72.17428788115275,8.409324573460486,1.1958781507569458e-44,1.2693534710508988e-58,23.417382252935813,57.2093777359219,0.026314068604812255,6.454612454357999,2.4430304428561658,72.17428788115275,6.0606060606060606
36,10000,0.8,0.1,5.81925,2000,47.979674796747965,49264.87713622034,543.0,940.0,543.0,63.0,-147.0,222.35000000000008,-0.09041178558899059,2.0493405407172407,226.64214656948963,2.3958474106382215,2.7716153127917833,1.1568413332522969,3.0789580938971426,4.626061498927179,984.4274193548387,32866.626289669584,1540.0,1032.0,1540.0,974.0,858.35,1086.65,0.26124079991282856,3.1472548233079696,1000.9153028845084,1.5385917225582617,1.5643611400109774,1.0167487040745729,1.5777758033042808,0.18415938743158025,17.62581267230388,591.0531108605685,208.79637433786542,11.24513914837033,4.589222522123352e-46,1.6430552030514295e-60,22.673963568707517,58.1612674603448,0.10254113653976536,6.619232945521945,2.565112503780042,208.79637433786542,12.121212121212121,20.011803538471593,178.21833885253017,68.2090296728569,9.550094998656546,-4.285774296044361e-43,1.4998197255158593e-56,22.524122309476358,64.1522346907585,0.04699040081308807,6.016529480304702,2.8481569141439245,68.2090296728569,6.565656565656566
37,10000,1.0,0.05,10.49175,1000,19.973880597014926,21022.167854547486,391.0,684.0,391.0,2.0,-62.749999999999986,122.55000000000001,0.11055556830489784,2.7744649587785246,146.0913509959467,2.676407585626669,3.408294031549845,1.2734585157558533,4.096553540148074,7.2589917091005836,1001.7510204081633,24382.07300100368,1357.0,757.0,1357.0,1010.0,885.0,1126.3,-0.1359918811523527,2.343582608549461,1013.7986295238763,1.3385301187843446,1.3546280186937973,1.0120265503805568,1.3631086441493139,0.15587466033744538,13.194478956520138,208.94365456015998,134.40590659430617,7.187067397836646,4.07399931487463e-46,1.4018275864325417e-60,24.369839725821567,54.47576262003432,0.0682876362858702,7.2087751138990255,2.23537631896337,134.40590659430617,12.121212121212121,15.403010449999094,202.8461061806924,127.93238051311083,7.81329787909196,-1.4608608091316112e-43,3.5711803593956767e-57,22.522647693626183,54.67406710289032,0.0473562147117447,6.5632044109989005,2.4275150882177523,127.93238051311083,6.565656565656566
38,10000,1.0,0.065,8.64725,1300,34.525925925925925,39124.644306760296,546.0,904.0,546.0,8.0,-95.05,165.0,0.28452203004009563,2.7844513946151075,200.4289843754585,2.7241568962760003,3.4408551955933153,1.2630899491497944,4.089323546776953,5.7290137779138455,994.208,31095.064995983932,1474.0,901.0,1474.0,976.0,862.0,1129.3500000000001,0.11108274021674128,2.309822806555613,1009.6634251075949,1.4598924387529666,1.4825871447423478,1.0155454644376176,1.4944287695202831,0.17736522780962546,16.84766355397737,437.6053814405549,189.68940599375526,10.661215943825773,-3.629146620897265e-45,2.5886461291199297e-59,22.480410519821376,60.40217609530839,0.09247808272829354,6.364913050875479,2.6868804749829067,189.68940599375526,12.121212121212121,17.36050492945373,267.2422465810565,126.24757746835606,10.462312566361414,2.553529262096414e-43,7.519479598113504e-57,19.736663434315826,60.265734136199896,0.11578889676715526,6.8442073387716835,3.0534915051252693,126.24757746835606,6.565656565656566
39,10000,1.0,0.075,8.168,1500,34.89219330855018,48175.13385673861,579.0,1048.0,579.0,-4.0,-95.0,190.0,0.30925228188489806,2.9119807377882854,221.84118033782704,2.6099752945701056,3.3298627442596316,1.2758215570803324,3.965900383918599,6.290471443420018,982.3293172690763,29456.028209612643,1393.0,833.0,1393.0,980.0,860.1,1112.6,0.02387631224468543,2.5482921311723175,997.1502486956996,1.3969810485652316,1.4180580539656582,1.0150875385332345,1.4291582498829822,0.17471491768481662,18.77164747521495,511.4903921404383,205.73473203630812,11.63895848159479,7.62984466653783e-46,3.2360925118444364e-60,23.39822385815289,62.507691705029565,0.08873899004335695,6.220878049840918,2.671471650325687,205.73473203630812,12.121212121212121,17.49849557471175,198.4484710629785,100.71665306287485,9.405028760017885,1.2695043306634524e-43,2.961503491288293e-57,21.093541093875572,58.17920328760174,0.06592910165196919,6.278255870282765,2.7581525088025094,100.71665306287485,6.565656565656566
40,10000,1.0,0.1,6.411,2000,22.23404255319149,88251.8453850231,776.0,1311.0,776.0,-26.0,-131.0,237.0,0.24753512802190086,2.75083000281615,297.3772826342832,2.6094797596033272,3.275928143712575,1.255395115312393,3.8437410000215646,13.361138479894539,1002.8346774193549,40236.68105981455,1523.0,931.0,1523.0,1006.5,850.0,1139.3000000000002,0.1455082171236424,2.452324287551162,1022.6200793124019,1.489311652303999,1.5186949896060762,1.0197294751952155,1.5341853242034538,0.20002382692394916,25.26067654268851,901.3148002680692,283.5115397700793,13.94636121558845,1.6571654513612513e-44,1.9610462095367638e-58,23.413893894792803,73.36359999461655,0.06563312421119297,5.322241918353425,3.133336143243241,283.5115397700793,12.121212121212121,20.403046984699195,254.29725875829564,124.76872155048113,10.390440276383119,-1.0076405765819264e-47,1.0102003864656206e-62,22.989154098880554,64.94790143979816,0.03152521677605465,5.814178455455621,2.8251540339607697,124.76872155048113,6.565656565656566
41,12000,0.2,0.05,8.224,1200,43.5019305019305,296.50677920445366,80.0,77.0,80.0,45.0,29.0,57.0,-0.20704396405507605,2.234131587277863,46.773709739338855,1.7103625187274016,1.8389988461879825,1.075209978032197,1.931271806249165,0.39583007026026434,992.468992248062,7098.810318824842,1239.0,427.0,1239.0,989.0,932.0,1052.05,0.14027947053162348,2.5338866234407775,996.0250981396157,1.2439445575359647,1.2484017230538513,1.0035830901714105,1.2506445770816579,0.08489377364443541,1.424502794609873,3.4920280057057203,15.651744528546029,0.8929521280849094,-2.51837592743529e-44,3.426315985847987e-58,20.074063240928318,16.46480241387274,0.5145149067209904,24.32706201780902,0.8202027768998565,15.651744528546029,9.595959595959597,8.686836263000226,43.305590779564355,45.01805172695686,4.3945065293938335,1.8511981729065583e-43,4.8970802082104026e-57,24.99108057099293,42.081628910911796,-0.03822295286692222,8.755409407249116,1.6838659213381837,45.01805172695686,5.050505050505051
42,12000,0.2,0.065,6.53675,1560,27.366666666666667,9583.452416356877,266.0,492.0,266.0,45.0,-53.0,103.10000000000002,-0.18868314896855415,2.2081657207081395,101.47360539860891,2.62137133055535,3.0482577140189298,1.1628484978406861,3.4095828651067994,3.57716598988705,990.6015625,18212.70337009804,1266.0,702.0,1266.0,1008.5,900.35,1094.0,-0.40883246602534656,2.711420916053698,999.716467617194,1.2663590538000118,1.2780113094158378,1.009201383747256,1.2842149015099427,0.13623484390736504,8.823257187512123,93.49248958743169,64.06353608302388,5.802992179236195,-2.3143180349061605e-44,3.0612400481884205e-58,22.086646838153264,41.86560762844015,0.15735902374453328,9.3820338872326,1.8955166864043846,64.06353608302388,10.101010101010102,13.034113709587489,132.9661885451618,82.07087469612131,7.099429343124187,-3.1494911377091088e-46,9.946123652526062e-61,24.223592349019537,52.330237441614024,0.011580942606563917,7.253408633488915,2.160300449562846,82.07087469612131,5.050505050505051
43,12000,0.2,0.075,6.07275,1800,46.278884462151396,677.2819123505975,101.0,125.0,101.0,48.0,25.200000000000003,67.0,-0.3232562799773766,2.2402263013709383,53.068999661757346,1.903182661134326,2.1556972789115645,1.1326801798555353,2.398292711933828,0.5623437294786975,985.5719844357976,8157.269212062258,1215.0,459.0,1215.0,983.0,922.7,1048.0,0.1338039256301318,2.4555405714584317,989.6856396703197,1.2276625539446406,1.232786665192742,1.0041738759821557,1.23536955278367,0.09163978209739329,2.090808763308573,8.85022765462699,25.926663098462132,1.4115675462620738,-1.6849389596843192e-45,9.30633959915635e-60,19.28543664087953,20.512943081066645,0.5481209917201094,22.889304324290226,1.0636493984059017,25.926663098462132,9.595959595959597,9.672269755169259,54.220239089059184,51.762238881410404,4.891626488403618,-1.0234721353964935e-43,2.2221226748625047e-57,25.481822131865293,45.38592162375177,-0.01408069105444653,8.406994320924905,1.7811097412455519,51.762238881410404,5.050505050505051
44,12000,0.2,0.1,4.695749999999999,2400,43.243027888446214,292.84070119521914,91.0,93.0,91.0,44.0,32.2,53.0,0.05743958425055425,3.4241828494965763,46.49337013097091,1.957268310377475,2.1028355735591973,1.0743726664402227,2.210564747068498,0.395730590659944,996.0239043824702,7690.063426294821,1184.0,403.0,1184.0,995.0,931.0,1067.8,-0.04734102810605404,2.2094725688080117,999.8615123229323,1.184163992120536,1.1887264901880785,1.0038529275488035,1.1910417952271035,0.08804307439484788,1.6438366088433787,2.4289459616539504,11.269638303009852,0.883967001688661,1.7148637566568039e-43,4.4222113572038887e-57,23.084196467442872,17.469427582086514,0.23610392967367994,20.349105974012744,0.7567700095918336,11.269638303009852,9.595959595959597,8.815625369712441,51.84431121694065,45.96292393988313,4.814865625423088,1.7130269271782764e-44,2.049677748017665e-58,25.718927850223192,41.605734591243966,-0.029470891193744957,8.659667246442652,1.61770874872931,45.96292393988313,5.050505050505051
45,12000,0.4,0.05,8.671999999999999,1200,16.442307692307693,9044.680056430057,281.0,520.0,281.0,16.0,-47.55,68.0,0.22008284446453716,3.003232661540391,96.33401428204012,2.9169343984494147,3.747243165615223,1.2846511624009043,4.54411202685058,5.784073903671865,982.2936507936508,24111.64250932777,1336.0,742.0,1336.0,988.0,872.9,1080.1,-0.12769647941422588,2.7650557040415626,994.4429484780802,1.3434657081581673,1.3600820884066285,1.0123682950354136,1.368874188145419,0.15807822875282698,8.616286927066982,85.25200821706977,68.5739181119047,4.970267140489644,-1.5381102324006652e-44,1.7754833956644795e-58,21.988682040731714,40.32409923612226,0.1486403395515688,9.242928820174859,1.8338570343336684,68.5739181119047,9.595959595959597,15.267497738977854,168.53000015294666,98.40829664321873,7.823522091786781,6.917331195278236e-49,2.8395624623830025e-64,24.216756268300188,58.31582606184828,-0.011809553760283663,6.2549516349231675,2.408077506985685,98.40829664321873,5.050505050505051
46,12000,0.4,0.065,5.7162500000000005,1560,42.24390243902439,1509.279044300647,115.0,146.0,115.0,45.0,6.0,79.0,-0.05682559978684968,1.655988115566855,57.3383907771274,2.005637033780762,2.4698795180722892,1.231468843301322,2.973836740595419,0.9196461140549309,989.94,6500.81967871486,1261.0,455.0,1261.0,998.0,920.0,1043.0,0.10961822835381586,2.8123297555471445,993.2049234674585,1.2696272140875222,1.273814574620684,1.0032981023773748,1.2759238687658085,0.0814470177529215,3.4264019300197943,17.59748169254879,34.27967133308565,2.061440647162981,-3.4330448198077165e-44,5.178921137477895e-58,19.532859335864273,25.636142590787507,0.3565573461006129,16.155631760730202,1.31246235638,34.27967133308565,9.595959595959597,8.593838402867437,39.44311226169845,42.096100530646666,4.322583196959032,-4.419406121753982e-43,1.5624946916753088e-56,24.84811777903205,41.861294465840885,-0.013790293639323289,8.717337593382618,1.684686737164668,42.096100530646666,5.050505050505051
47,12000,0.4,0.075,7.3340000000000005,1800,37.33203125,2357.5638327205884,134.0,187.0,134.0,39.0,-10.0,80.55000000000001,0.06947258161652761,1.9279937585804103,61.17217632428979,2.1905383795670565,2.6706111327364734,1.219157426159454,3.1271587594448307,1.3006190461958453,992.155303030303,7868.747652379307,1266.0,454.0,1266.0,994.0,924.7,1047.0,0.38494430779266603,3.017005429691785,996.0979304873654,1.2709593718165626,1.2760099110827743,1.003973800719525,1.2785281319747432,0.08940733521508414,3.8478777021987303,30.805184678765023,42.34814642299784,2.7494944521591815,-8.06596285615007e-46,3.4850441984169105e-60,19.318321261969473,26.335986614539667,0.3932909546675648,16.291157342558392,1.3632647608146649,42.34814642299784,9.595959595959597,8.512898169810661,58.12328127849707,46.32469604156426,5.057418603757085,-3.014675143087438e-44,4.354991985313198e-58,25.637848901904068,42.87263746537352,-0.05468523283149354,8.538552462437858,1.6722400396934027,46.32469604156426,34.343434343434346
48,12000,0.4,0.1,5.63575,2400,50.36575875486381,3158.4516354571983,155.0,218.0,155.0,54.0,16.500000000000014,97.0,-0.38685733374716685,2.0813389047355098,75.3848233753369,2.0561167760288237,2.335541744840525,1.1358993672292201,2.5396777091101472,1.115839508975528,991.710843373494,8444.287019043917,1224.0,449.0,1224.0,982.0,932.2,1056.0,0.2323376758994305,2.6223173155091666,995.9421524789165,1.2289870420219124,1.234230731849548,1.0042666762531596,1.2368633945370773,0.09266088234728354,4.651841353005249,38.10144630900478,49.38425381302471,2.970361395001555,-1.1352786687467308e-44,1.1843224732742994e-58,20.41492543903933,28.91286524935095,0.2813898696218171,13.484940213000177,1.4162611240333538,49.38425381302471,9.595959595959597,9.233601267364381,59.173416522776854,51.27305987679086,5.060603925439118,-1.8728120320589382e-46,4.973463341136561e-61,24.464998838970683,44.05630963784075,-0.00736469923475452,8.163168819287089,1.8007893614800732,51.27305987679086,5.050505050505051
49,12000,0.6,0.05,5.71475,1200,42.41434262948207,3672.7956334661358,163.0,252.0,163.0,38.0,-8.599999999999994,89.40000000000003,-0.007051218879220395,2.0883909260965323,73.87245387985345,2.2065058278029324,2.6615274525110593,1.206218183960657,3.0348237585738063,1.4288467172143717,992.3004115226338,6806.896983301023,1204.0,395.0,1204.0,987.0,932.4000000000001,1053.0,0.19456802074213028,2.517126161462568,995.7102951007122,1.2091870556367204,1.2133422358986268,1.0034363419973253,1.21542746713453,0.0831440963439078,6.022561332231975,33.39060562660358,36.180386102411205,3.502265069423,2.1540611459811027e-45,1.291251095276333e-59,19.969593228250808,33.4787012859851,0.23626352758260966,12.181886782523216,1.6764838874445915,36.180386102411205,10.101010101010102,8.81806350603771,45.6489218516319,47.22719458391895,4.682399752959188,6.238711937853074e-45,5.330810498607341e-59,24.479420830092355,42.00334933889643,0.008150765695732462,8.561089330794335,1.7158636893591064,47.22719458391895,5.050505050505051
50,12000,0.6,0.065,7.392250000000001,1560,31.857707509881422,4398.281259803,185.0,295.0,185.0,38.0,-27.299999999999997,66.60000000000002,0.17300454013140712,2.381621890949289,73.45617929541287,2.518508337549115,3.057152188112345,1.2138741581802388,3.462153128441569,2.0817423547949363,990.9221789883269,7085.665795233463,1223.0,428.0,1223.0,983.0,931.0,1053.6000000000001,0.19391109671098095,2.593122081322485,994.4771791862189,1.229791920414686,1.2342038819320917,1.003587567493465,1.2364192732255306,0.08494753542294502,5.681599970368668,52.315474430736344,51.80231779608282,3.6926596333108423,-4.0680422531201646e-44,6.494024760179218e-58,20.887742040279143,31.90989662131744,0.2522745968494481,12.46985365320494,1.5276853074776386,51.80231779608282,9.595959595959597,8.530159638500253,48.95426092175213,50.130465972228414,4.686016906702649,-1.3091664797408243e-48,6.647522806219658e-64,22.961123319591774,41.235746322361805,0.06351654696498889,8.587120683788008,1.7958941184370127,50.130465972228414,5.050505050505051
51,12000,0.6,0.075,4.164,1800,47.11832061068702,5890.978283758885,201.0,323.0,201.0,46.5,-4.299999999999983,107.05000000000001,-0.0958692187219981,2.184411159184451,89.93680987778234,2.234902486236109,2.68259385665529,1.2003180779368843,3.069560410997149,1.628935574239846,991.0478087649402,9794.805705179282,1207.0,446.0,1207.0,998.0,913.1999999999999,1069.6,-0.1880912077551712,2.1152008388521013,995.957600419149,1.2118989799284967,1.2179028996635217,1.0049541420815282,1.2209824424642832,0.09986270073239471,7.134816635386126,55.580551492490464,55.04329241010997,4.2265327135706485,-3.3851971852266595e-45,2.359275338894795e-59,20.324793900340705,36.47539130020401,0.23336704101863065,11.209936029566824,1.7946253959107832,55.04329241010997,9.595959595959597,10.360085310079075,72.85290834859187,49.23184707835685,5.818879071177164,-3.8647769088150306e-48,2.815135085915814e-63,25.106858541163774,46.62628756525142,-0.010293161209647603,7.829840684978399,1.8571135647578376,49.23184707835685,5.050505050505051
52,12000,0.6,0.1,3.5137500000000004,2400,48.20754716981132,11840.180245854774,283.0,423.0,283.0,43.0,-42.0,147.3,0.03349463091419375,1.8223113665161772,118.82536734438611,2.381646329607331,2.859675881792183,1.2007139121549024,3.318560134854227,2.2571692338880776,995.9437751004016,12825.746826013732,1331.0,724.0,1331.0,1006.0,921.0,1084.0,-0.4814134319230737,3.695682271889007,1002.3363911201944,1.3278975120443313,1.3364208234202992,1.0064186515138853,1.3409290446380087,0.11371205546924006,8.569534564101497,138.76984008889195,90.95273598157848,5.978436746385072,7.446587738598926e-44,1.4541518088665316e-57,20.133698880339573,39.4961337575845,0.21843274175727118,10.00359679093514,1.9616928807926208,90.95273598157848,9.595959595959597,11.722987369615776,64.13415324763872,48.34201611183467,5.549674769359469,-1.4476618107865043e-44,1.637656539824951e-58,24.302625224106578,48.25487117618286,0.009331087901977475,7.238294846041157,1.9855826574783886,48.34201611183467,5.050505050505051
53,12000,0.8,0.05,8.815,1200,48.656488549618324,9821.467754672283,240.0,435.0,240.0,38.0,-32.249999999999986,124.0,0.009792783356394993,2.18867050096892,110.23354804461215,2.177195638326643,2.6646325959827104,1.2238829387104155,3.0823655199484703,2.0367955341558215,991.2379032258065,18374.603091942015,1328.0,713.0,1328.0,997.0,900.1500000000001,1092.8500000000001,-0.09510000598477056,2.6536783643348034,1000.4264554388471,1.3274339085899718,1.3397389220874842,1.0092697748775932,1.3461435155187103,0.1367511801665308,7.7077941579604135,126.29870209887505,74.68016509833062,6.2867348807669465,2.878855285940082e-47,4.095369696891758e-62,17.060883436059303,34.43708342643221,0.3907154754036111,14.209930296696914,2.0184818421329322,74.68016509833062,9.595959595959597,13.110794087329884,188.7969218556926,107.18802736220064,7.805229055534344,1.741571882048842e-43,4.5142804807693e-57,22.084397868806324,55.08900208590048,0.0514307095349341,6.759910995285269,2.4944760737041585,107.18802736220064,5.050505050505051
54,12000,0.8,0.065,6.11125,1560,44.902834008097166,21874.966130147135,347.0,615.0,347.0,33.0,-65.99999999999999,178.60000000000002,-0.020843644483357987,2.1189377719256557,154.28113305324905,2.2491408582035457,2.730890552811853,1.2141927629170788,3.1626139573113345,3.293820609402392,990.1705426356589,22868.73344795343,1391.0,802.0,1391.0,998.0,895.8,1098.0500000000002,-0.10334913935306378,2.8833360931895413,1001.6076070246334,1.3887674077597036,1.4048085053079886,1.0115506005243613,1.4132542941961097,0.15272532367905983,10.598918833006426,309.220961568976,137.33834145559334,8.480943667858572,-7.51475413744935e-48,6.832081445355018e-63,17.607177756398062,42.350090143810476,0.31239262165587456,11.652649627065623,2.405274185888274,137.33834145559334,9.595959595959597,13.799395932543085,198.3329202522134,122.6296275843656,7.843842098307865,-1.952954232733773e-43,5.259237148192344e-57,21.4487045678363,55.386535190388805,0.08325694739520777,7.024657488170061,2.582278804541158,122.6296275843656,5.050505050505051
55,12000,0.8,0.075,5.058,1800,44.902834008097166,21874.966130147135,347.0,615.0,347.0,33.0,-65.99999999999999,178.60000000000002,-0.020843644483357987,2.1189377719256557,154.28113305324905,2.2491408582035457,2.730890552811853,1.2141927629170788,3.1626139573113345,3.293820609402392,990.1705426356589,22868.73344795343,1391.0,802.0,1391.0,998.0,895.8,1098.0500000000002,-0.10334913935306378,2.8833360931895413,1001.6076070246334,1.3887674077597036,1.4048085053079886,1.0115506005243613,1.4132542941961097,0.15272532367905983,10.598918833006426,309.220961568976,137.33834145559334,8.480943667858572,-7.51475413744935e-48,6.832081445355018e-63,17.607177756398062,42.350090143810476,0.31239262165587456,11.652649627065623,2.405274185888274,137.33834145559334,9.595959595959597,13.799395932543085,198.3329202522134,122.6296275843656,7.843842098307865,-1.952954232733773e-43,5.259237148192344e-57,21.4487045678363,55.386535190388805,0.08325694739520777,7.024657488170061,2.582278804541158,122.6296275843656,5.050505050505051
56,12000,0.8,0.1,5.095,2400,40.25099601593625,41659.18074900399,454.0,885.0,454.0,58.0,-119.0,205.0,-0.2073593761451902,2.179272103748758,207.63754621361127,2.1865024331049376,2.575639084148905,1.1779722012435059,2.921703065995467,5.070826263502059,984.1102040816327,30457.30337905654,1457.0,1035.0,1457.0,996.0,885.8,1092.0,-0.11923956534935325,3.2293428973811404,999.4027624699929,1.4578706950930072,1.4805252439788144,1.0155394775147477,1.4927459670256402,0.17733807490373182,15.395435899531362,534.4990274251727,189.66455874569124,10.73071530714642,-2.2285224965653325e-47,2.9108692397189327e-62,17.942301349955613,49.948703329794625,0.2225128589630282,8.769277187356742,2.783851544769545,189.66455874569124,9.595959595959597,17.551270520149245,277.7056752701302,122.86020149357618,10.57406356559259,7.975745039575894e-45,7.396535566763488e-59,22.391421414459593,61.441911580474894,0.04068031845017901,5.842763419614972,2.7439933554552223,122.86020149357618,5.050505050505051
57,12000,1.0,0.05,9.24475,1200,21.38951310861423,12286.96049111543,316.0,569.0,316.0,9.0,-56.0,79.80000000000001,0.48058846439247477,3.005126116270468,112.68741359850532,2.804217346986757,3.6384492647375914,1.2974918897236156,4.368098736806568,5.182285462349478,1007.6625514403293,23472.80301329797,1409.0,795.0,1409.0,1009.0,880.0,1120.6,0.018885309086782966,2.5925324333011885,1019.1957734858196,1.382462561810853,1.3982855649304506,1.0114455201585144,1.4065183959224627,0.1520433248993516,10.744806369465309,129.57744245165873,70.30765382553429,6.967435332733396,5.410708026491987e-44,9.49887411403915e-58,21.410864396226657,45.653361450630946,0.16503482537714184,8.918680724783915,2.1322521410521222,70.30765382553429,9.595959595959597,15.910682274921864,148.94467952927994,95.78863691122035,7.4995943178699385,4.104225377062237e-44,6.571153341435968e-58,23.850507115490533,58.332494107630446,0.032509145145835264,6.4335407424048,2.44575487746105,95.78863691122035,5.050505050505051
58,12000,1.0,0.065,6.72425,1560,23.789667896678967,17618.78152248189,434.0,716.0,434.0,9.0,-78.0,105.40000000000009,0.4869559867549969,3.0126578460876705,134.6094939711114,3.2241410854210697,4.129850064960146,1.2809148097254535,4.934365106263361,5.5795549077274025,985.0769230769231,28120.567229518456,1423.0,872.0,1423.0,991.0,879.0,1098.8000000000002,-0.17712920040673683,2.899020594440349,999.19130458481,1.4241517049543315,1.444557238794315,1.0143282023740847,1.4555093453645491,0.1702322710999497,12.617034762919605,178.92565998838424,79.714827166499,8.09949725863341,4.68482455110359e-44,7.83894783960837e-58,20.43740543871094,48.38483693845086,0.17528699339625844,8.567277520399543,2.36746474906272,79.714827166499,9.595959595959597,16.33837619425848,251.37445235847244,126.50165366804158,9.777606082640023,1.3236926527603597e-44,1.4533923760447223e-58,22.90646949381671,60.726028077924056,0.036972392181121735,6.130390787037471,2.651042671342968,126.50165366804158,5.050505050505051
59,12000,1.0,0.075,6.48625,1800,24.42105263157895,20516.425819265143,414.0,660.0,414.0,15.0,-90.1,117.10000000000002,0.3756697233751713,2.573180408544305,145.03683742596678,2.854447238008233,3.473943217665615,1.2170283519024343,4.003418003454759,5.865249248545212,984.7217741935484,33172.22592072613,1468.0,983.0,1468.0,1001.5,873.6,1100.2,-0.07109542093710808,3.2031390210241764,1001.3567993058863,1.4660109174048435,1.490776418752636,1.0168931220455253,1.504136389187444,0.18495827489357458,12.091115427481693,202.1268793952107,97.61537543408863,8.423076016386174,-5.94646048836918e-47,1.0773199858388362e-61,20.008618094102474,45.629971801081744,0.20485404862380904,9.099713156134833,2.2805159050205046,97.61537543408863,14.646464646464647,17.645016050747454,284.71567671097444,129.55392548156127,10.317368673993865,1.7744635704621453e-44,2.1482729019537748e-58,22.741334786420463,62.30166941663331,0.04363121817579089,6.024031310345093,2.739578393341956,129.55392548156127,5.050505050505051
60,12000,1.0,0.1,5.7540000000000004,2400,23.28,31262.224233576646,459.0,804.0,459.0,-5.0,-97.39999999999999,143.0,0.3108397297962782,2.764071432941032,178.01826259735773,2.578387145807437,3.2418584343538113,1.2573202746628667,3.8526582499053257,7.594985707468551,975.1354581673306,43330.50157768925,1565.0,1190.0,1565.0,997.0,836.8000000000001,1124.6,-0.19681048625648132,3.223329737105066,997.0190729732857,1.5696790988490277,1.6049052333111347,1.0224416152880782,1.6247099491341412,0.2134675715409389,14.465960776287442,353.6086648475973,122.75591555302985,10.55496986795034,2.209765616066689e-45,1.335964595119854e-59,19.837553875119116,48.68028539204893,0.15212463382714003,8.03006660481756,2.4539459702793938,122.75591555302985,14.646464646464647,19.87215482121334,393.81405140774945,165.26911496711247,11.849653971446141,-2.8189707964783132e-46,8.579344406308029e-61,22.38853283088694,66.60873182837234,0.044615812929892716,5.529617011946911,2.975127147969239,165.26911496711247,5.050505050505051
61,14000,0.2,0.05,8.89925,1400,43.47876447876448,648.3435395528419,100.0,122.0,100.0,44.0,24.200000000000003,64.80000000000001,-0.13916190793064642,2.4161446220527347,50.36112829597092,1.9856584509446022,2.2578676662889023,1.1370876321729988,2.51036207100295,0.5856328092107433,991.1206225680934,3440.1142996108947,1170.0,401.0,1170.0,986.0,952.4000000000001,1029.0,0.1079463054646997,3.4519325394780713,992.8478318053692,1.178428317532307,1.1804819447388877,1.0017426831789662,1.1815127872813118,0.05917795094454578,2.369782099013453,5.257167849187268,14.775302373135329,1.3578417572028991,1.2770354181394499e-45,6.430882727279246e-60,26.293772746809616,22.7835024910562,-0.0657712282749301,16.559534375302523,0.8664980377842758,14.775302373135329,45.959595959595966,5.790616733508363,28.275062863133137,41.063704993452454,3.362797404816192,5.092217625721876e-44,8.760776635546153e-58,27.547207075082465,31.12518387419572,-0.14798856724190126,11.228713701455364,1.1298852834467445,41.063704993452454,28.78787878787879
62,14000,0.2,0.065,5.636,1820,30.654135338345863,8544.408228117463,208.0,366.0,208.0,28.5,-44.19999999999999,113.05000000000001,-0.026379521395194627,1.8695909336618293,97.22120347956529,2.1394509896569947,2.5354229676473286,1.1850811165596356,2.899861090052553,3.0154485598593865,987.0583657587549,12506.086423881323,1255.0,514.0,1255.0,975.0,895.7,1067.3,0.19013019257436503,2.260772278200937,993.3487011232995,1.2634032727689881,1.2714547017037614,1.0063728099398754,1.2755214114805469,0.11329686141866858,8.965284677982535,63.200410238168836,53.15370582586197,4.856871766059318,3.0637326252217524e-44,4.449738422615815e-58,26.856703464687918,43.466425934901125,-0.038258368860963725,8.501440403000037,1.6184572314339405,53.15370582586197,45.959595959595966,10.21878380363085,109.94664855323973,92.28938719789728,5.818906128103397,-6.077537638278324e-48,5.147980298249296e-63,26.993445730686883,41.6404344580214,-0.07634186761713387,8.65936209253032,1.5426127836167067,92.28938719789728,28.78787878787879
63,14000,0.2,0.075,4.8335,2100,43.47876447876448,648.3435395528419,100.0,122.0,100.0,44.0,24.200000000000003,64.80000000000001,-0.13916190793064642,2.4161446220527347,50.36112829597092,1.9856584509446022,2.2578676662889023,1.1370876321729988,2.51036207100295,0.5856328092107433,991.1206225680934,3440.1142996108947,1170.0,401.0,1170.0,986.0,952.4000000000001,1029.0,0.1079463054646997,3.4519325394780713,992.8478318053692,1.178428317532307,1.1804819447388877,1.0017426831789662,1.1815127872813118,0.05917795094454578,2.369782099013453,5.257167849187268,14.775302373135329,1.3578417572028991,1.2770354181394499e-45,6.430882727279246e-60,26.293772746809616,22.7835024910562,-0.0657712282749301,16.559534375302523,0.8664980377842758,14.775302373135329,45.959595959595966,5.790616733508363,28.275062863133137,41.063704993452454,3.362797404816192,5.092217625721876e-44,8.760776635546153e-58,27.547207075082465,31.12518387419572,-0.14798856724190126,11.228713701455364,1.1298852834467445,41.063704993452454,28.78787878787879
64,14000,0.2,0.1,4.5215,2800,41.364372469635626,1447.9154734867186,116.0,150.0,116.0,38.0,7.200000000000003,77.0,0.0917157126971125,1.893343211403543,56.15215737020204,2.0658155524681066,2.559814169570267,1.2391300697257128,3.092511914638743,0.9199096284822862,988.34375,2835.1205882352942,1142.0,282.0,1142.0,993.0,949.9000000000001,1024.0,0.007027584672768943,2.6780840902981287,989.7713948495884,1.1538017828587026,1.1554684288740633,1.0014444820939965,1.1563058835428095,0.05387381711279976,3.4280900040744733,14.441283866799331,27.58665805071293,2.0278170047217183,1.0999008212637392e-45,5.269928243002127e-60,29.35882812384315,28.188024200580752,-0.2067541871600499,14.811517270197067,0.9601208904414154,27.58665805071293,45.959595959595966,5.372066993275107,20.32012855917533,32.519995731560115,2.9929509061624646,-1.2044596429955884e-44,1.2815129640654907e-58,26.027625049293714,30.667849787331438,-0.061111933629349566,11.389211512008718,1.1782807585882156,32.519995731560115,28.78787878787879
65,14000,0.4,0.05,8.77525,1400,41.85660377358491,7030.676329331047,195.0,336.0,195.0,46.0,-32.89999999999999,125.0,-0.04617748867557609,1.8579572510580917,93.5741457600174,2.0839089517322646,2.4925236349604476,1.1960808714260376,2.869188471171199,2.0032472971066935,988.7777777777778,4567.50420540062,1153.0,348.0,1153.0,996.5,936.0,1038.0,-0.17076172065432638,2.560257811677365,991.0756141767756,1.163382474058475,1.1660860770873132,1.0023239158996493,1.167457003770371,0.0683503559526024,7.764897801260015,48.29549868534076,52.88927514777587,3.8247157654455783,1.0438281370021203e-43,2.2812453634899364e-57,27.685106908450024,42.10903629740511,-0.06335998073116185,9.2628467679019,1.5209995914645584,52.88927514777587,45.959595959595966,7.053151395527013,22.724960770311817,38.03108526940337,3.357265107679301,-9.836474222885227e-44,2.107589102086279e-57,26.170088261091486,35.554431750258296,-0.10255349242494452,10.345794618572858,1.358590440947004,38.03108526940337,28.78787878787879
66,14000,0.4,0.065,5.40375,1820,46.66030534351145,12042.140870404492,263.0,444.0,263.0,48.0,-55.099999999999994,142.05,-0.023547660296821284,1.8286762785920132,119.05193234643379,2.209119959806164,2.594059405940594,1.1742501326945622,2.91812300022594,2.3518210607386223,996.3307086614174,6192.957393171703,1214.0,470.0,1214.0,998.0,945.9499999999999,1052.05,-0.09908781993995108,2.9180017541018772,999.4215610506476,1.2147026313138327,1.2184709248107228,1.0031022353946943,1.2203847051554573,0.07898516501711352,9.738301155648175,91.76652021376121,71.85575727638084,5.348181294337296,-9.962865516744356e-46,4.6186213352390035e-60,29.131786625292825,45.48839715825047,-0.09612072105470479,8.59757506046977,1.5614695296016103,71.85575727638084,45.959595959595966,8.312910711724683,38.224832201112484,31.120927736549444,4.673769773012125,1.6346464141369774e-44,1.9255956735149837e-58,28.3642771956438,38.29952500922598,-0.08045043415516658,9.168309614742931,1.3502732590382398,31.120927736549444,28.78787878787879
67,14000,0.4,0.075,4.354,2100,47.1566265060241,14542.03585308978,265.0,459.0,265.0,47.0,-64.89999999999999,155.90000000000003,0.025614546172159993,1.7330093719166035,129.257036659922,2.0501785190791635,2.4108512970405553,1.1759226206912887,2.7355994639218193,2.557230505727465,986.98046875,6852.630989583334,1213.0,493.0,1213.0,991.5,941.0,1041.55,-0.36825953895974367,3.763137900425839,990.4323846652784,1.2247176271502265,1.229001017149054,1.0034974510890273,1.231209973703689,0.08387260160731526,10.771405260893085,99.19175352090643,68.5336778273738,5.9728198523222265,-7.092303281650871e-48,6.324842737147296e-63,30.49154092954231,46.26347543858312,-0.12584784251411665,8.427895555488563,1.5172560660507608,68.5336778273738,45.959595959595966,8.866649519968723,35.39986131288956,31.604893130504117,4.372025696515464,-8.184640626022868e-44,1.649425938975e-57,27.707468865374413,39.494513820797984,-0.09228070380749682,9.333753864535737,1.4254103834852145,31.604893130504117,28.78787878787879
68,14000,0.4,0.1,3.94125,2800,35.21186440677966,22261.04428416877,341.0,583.0,341.0,31.5,-110.1,163.75000000000006,0.15157140726550036,1.833931729378698,152.9921345048136,2.2288727528621486,2.6306223849372388,1.1802478995533476,3.0146958247019464,4.237246659533007,992.032,6257.990939759036,1164.0,398.0,1164.0,992.0,937.85,1042.0,-0.15696202050048183,2.9081928164377393,995.1685525578066,1.1696511078532965,1.1733492467984903,1.0031617453447133,1.1752323927853903,0.07974285557410106,13.434136882265236,134.1533734561782,80.61840405002846,7.468404791555046,2.1398437442084113e-45,1.279900126257277e-59,29.99575262823773,53.29145302609682,-0.12549105621793805,7.821040857037804,1.7766333016071323,80.61840405002846,45.959595959595966,8.249184317322682,31.843707933574493,37.96105572958755,4.022859464890624,8.177020967842919e-44,1.647378834414731e-57,27.206368147752446,39.00952854262832,-0.06556963237987644,9.15286294724121,1.4338381488765874,37.96105572958755,28.78787878787879
69,14000,0.6,0.05,8.93725,1400,42.12167300380228,15791.519490320145,275.0,500.0,275.0,30.0,-64.0,159.20000000000005,-0.06948348412467259,1.9863922549131807,132.30914944408028,2.07846548145355,2.493449631110805,1.1996589086324594,2.8952785685189792,2.9833647088139115,988.5776892430279,10807.852940239043,1281.0,570.0,1281.0,978.0,921.0,1063.0,0.05362065274782038,2.7967807001023615,994.0073648792865,1.2887228457865263,1.2958010421830228,1.0054924116691488,1.2994018269083694,0.10516201730633548,11.265221089050929,123.80502592825138,74.91329864703529,6.638681515148112,3.2551665285940256e-46,1.0393558902122731e-60,26.96876776502186,49.12532357148596,-0.04497199428034265,7.665224826769919,1.821563521163205,74.91329864703529,45.959595959595966,10.977901522296364,75.48063742293708,65.76170487976269,5.606674604528467,-2.8847692227558926e-43,8.847381774225942e-57,26.648284163658598,44.31467264200834,-0.029787477659370478,7.932639422625981,1.662946566084812,65.76170487976269,28.78787878787879
70,14000,0.6,0.065,5.61725,1820,51.6188679245283,24468.471612349913,397.0,688.0,397.0,47.0,-94.6,170.3,0.11003810238506698,1.9683313447457809,164.44040039789147,2.4142485608122524,2.854410288411971,1.182318314172104,3.209425219641544,3.0303650303096594,1001.1153846153846,9811.067716067717,1264.0,525.0,1264.0,993.5,922.0,1066.0,0.2299841536231986,2.762191928206668,1005.9847643746133,1.2564802616924184,1.2625917246148526,1.0048639545791211,1.2656662792738729,0.09894047731362503,15.059424091017156,177.1659796629663,100.31608728792204,7.708745476051596,-8.507367395411164e-45,8.061086559590468e-59,28.558660350942322,55.529381118670535,-0.08097696005431305,6.672468815333241,1.9443972664088316,100.31608728792204,45.959595959595966,10.225148926801818,57.78339778451324,56.94366464308635,5.122475271677486,-1.3248893152437203e-44,1.4551445271209493e-58,26.47036586462075,43.007652518361795,-0.050456135292082364,8.499891460863159,1.6247471885473306,56.94366464308635,28.78787878787879
71,14000,0.6,0.075,4.70275,2100,44.760456273764255,31809.97675093606,402.0,684.0,402.0,28.0,-112.6,209.40000000000003,0.04665071542382816,1.6847459265400846,183.5552361411379,2.1900764502893137,2.491774687720952,1.1377569433212176,2.730824180542086,3.9846223893983086,985.921875,13567.484068627451,1274.0,522.0,1274.0,982.0,907.0,1065.0,0.16355935419728027,2.483727193919553,992.7519477127707,1.2833014359077357,1.292191635366646,1.0069276003362546,1.2966990009790402,0.11814277227891457,15.065378568051973,270.59697813905984,115.95539384030229,8.905870865043438,-1.4729357237895293e-43,3.610591820204332e-57,28.70734714577455,55.191177915909506,-0.06118449563289236,6.814712466103606,1.9225453900582077,115.95539384030229,45.959595959595966,12.125494735698593,96.38130408362267,76.57599999262442,6.0595738807557655,-4.127637427905068e-43,1.4264899701879382e-56,26.165414426064764,45.88056497242748,-0.03801890765945706,7.689853306863095,1.753481302658956,76.57599999262442,28.78787878787879
72,14000,0.6,0.1,5.515000000000001,2800,53.5726872246696,40101.44933920705,412.0,715.0,412.0,25.0,-130.6,242.20000000000016,0.17137052146928147,1.5803617159089107,206.86909819628997,1.9915976025045043,2.285588601871991,1.1476156624198495,2.5144243984835617,3.7379768145623706,985.5938864628821,16328.058032636176,1314.0,621.0,1314.0,978.0,911.0,1073.3000000000002,0.07780531563805403,2.5716076786630633,993.8068552300207,1.3221885048235749,1.3332063216379193,1.0083330151291963,1.338849964719705,0.12964902846189427,18.48396724851766,275.80129124792796,118.3150259227741,10.244461334687392,-5.709573880675624e-46,2.1985596983085574e-60,29.17525779494851,66.2786318546145,-0.08425334947512562,6.158194654768131,2.271741086931893,118.3150259227741,45.959595959595966,12.749242768364454,79.98977504718123,70.53577841948008,5.971184014714252,2.356477689557036e-44,3.1358198852586952e-58,24.256328137004143,49.86175439639268,0.0035778727673347055,7.303752250848826,2.055618398413991,70.53577841948008,28.78787878787879
73,14000,0.8,0.05,7.72,1400,39.877394636015325,47611.56952549366,445.0,850.0,445.0,-7.0,-152.3,252.3,0.1008821596136563,1.7345848335375793,221.40315336923067,2.0099081391938456,2.3572211397954215,1.1728004349198167,2.7045835378198553,5.471790649564899,989.34375,19739.00294117647,1379.0,751.0,1379.0,982.0,884.6,1084.55,0.11139606892825007,2.6441970707774565,999.231181021189,1.3800610171018652,1.3938532486812596,1.0099939288252329,1.4009424048342571,0.142008843739248,19.68166112821352,437.25848556201146,166.09178874965457,11.152261034240828,-1.6070270608227053e-45,8.737038576453149e-60,29.499521533860776,64.66694104716335,-0.08873236431566942,6.240900254957779,2.1921352511746997,166.09178874965457,45.959595959595966,13.875315969863731,143.54406033282842,84.80948480176647,7.77963178672342,-8.943281573204536e-44,1.8563614421131137e-57,25.794613222506612,50.04402161513161,-0.021158882808617368,7.202231049636835,1.9400958325464104,84.80948480176647,28.78787878787879
74,14000,0.8,0.065,4.8835,1820,69.74904942965779,69003.0512872609,517.0,1011.0,517.0,28.0,-147.39999999999998,315.8,0.14079601442482031,1.8333824777309444,271.303542489405,1.9056146309633608,2.3089763619073493,1.211670147987935,2.7309883512348088,3.766134747944107,985.5396825396825,25345.396825396823,1464.0,900.0,1464.0,992.5,875.0,1079.0,0.24547341964821412,3.2996915987205435,998.2651379840356,1.4665442519173824,1.485480519898855,1.0129121695146361,1.49524619809885,0.16153827163629322,22.62560078732236,605.7527364027873,202.38914940550106,11.740614072262005,8.647077551949063e-45,8.238076211001166e-59,28.658193040497572,68.63497530850987,-0.06350298554272017,5.717474630584625,2.3949512522132905,202.38914940550106,45.959595959595966,16.032175662526026,178.9107199756648,81.58410485569445,8.730255346700043,1.3894083781811553e-45,7.196255114817482e-60,26.192811526736516,54.16940511169854,-0.024739435985609088,6.627732720902659,2.0681019697486347,81.58410485569445,26.767676767676768
75,14000,0.8,0.075,4.16325,2100,39.1003861003861,92979.1836820209,550.0,1030.0,550.0,18.0,-230.59999999999997,318.8,0.09301807920695049,1.647090349845085,306.83714065939097,1.792481831951809,2.033402326743273,1.1344061013601063,2.240131663023309,7.7985133253875345,994.1897233201581,28509.733703494574,1476.0,822.0,1476.0,983.0,885.2,1110.3,0.32608343260678024,3.078486734582588,1008.37009721849,1.4637482845548777,1.4846260883393632,1.014263247311565,1.4953315585879674,0.16983504504361066,28.557846754744638,675.3362007592112,188.9788802665646,14.872858451108302,-2.3325955205579793e-43,6.664781506522169e-57,28.564792993548316,79.25394633642082,-0.05631747214563683,5.007426684723162,2.7745324937002427,188.9788802665646,45.959595959595966,16.94087495106346,213.58480736422112,90.16019303107831,9.44235086556661,-3.4953602362854645e-43,1.1428500591570007e-56,24.728851774631405,56.451300178545466,0.007275349800120517,6.254518948380194,2.2828112155396223,90.16019303107831,28.78787878787879
76,14000,0.8,0.1,3.26325,2800,50.943548387096776,132531.30854120414,675.0,1244.0,675.0,34.0,-268.15,391.0,0.05358731337313967,1.7185576229199584,366.8680324391953,1.8398986565063404,2.1369485294117645,1.1614490406061126,2.420428808180721,7.1461158289641045,987.102766798419,33522.259238346196,1582.0,1119.0,1582.0,983.0,871.7,1091.3,0.25814859605613183,3.6764705994268305,1003.8733149212939,1.5758960582830441,1.6026700088493093,1.0169896678309074,1.6167003737472898,0.18548306806874798,31.596151369597514,670.0486582355633,172.9692545750678,17.10538071328229,-2.5853605141183804e-47,3.548363872095248e-62,27.257291701383355,82.04464397117303,-0.02814204219990036,4.516204733997679,3.010007188902378,172.9692545750678,45.959595959595966,19.468441030117127,190.79708138598946,83.96289928829466,8.883096731520462,8.230609631243591e-44,1.661789480360042e-57,25.219955141659096,60.032190610678086,0.003381834658562958,5.977258747003929,2.380344860785064,83.96289928829466,28.78787878787879
77,14000,1.0,0.05,8.17325,1400,26.40590405904059,64086.18277982781,485.0,949.0,485.0,-3.0,-186.79999999999998,252.0,0.0748437338227067,1.8564410048833961,254.06096545857196,1.9089906201237583,2.2469825965056245,1.1770527171893357,2.585165913606752,9.586965423245147,998.3816793893129,21775.769471498345,1397.0,727.0,1397.0,996.0,894.9499999999999,1087.05,0.5082535466678809,3.040444944758431,1009.1871152505794,1.384282437705447,1.3992644585130134,1.010822950865721,1.4067660942282525,0.14780534930856853,22.94762813514715,385.5129950324387,148.77763430195438,11.219209650178419,-7.207847664897068e-46,2.999674509313958e-60,27.611075578348835,70.81887626778378,-0.04200872485619901,5.5130808813431065,2.5648720589253773,148.77763430195438,45.959595959595966,15.321724380180934,146.44848149943027,85.4890415980559,8.04191012579204,-2.7247390201992243e-43,8.199106890106097e-57,25.203126104550137,52.483526107772654,-0.01982264148171898,6.765940880212476,2.08242127941015,85.4890415980559,28.78787878787879
78,14000,1.0,0.065,4.6587499999999995,1820,2.8160919540229883,107716.57374005305,638.0,1238.0,638.0,-61.0,-266.3,286.90000000000026,0.2118751094638575,1.9306277977955355,327.5847935037063,1.9475873503657661,2.2946793997271486,1.1782164221266875,2.62365718628173,116.54521132600473,990.4426229508197,30954.36294947042,1534.0,990.0,1534.0,991.0,885.45,1091.0,0.23698325184445562,3.4883960622090058,1005.8847300580392,1.5250256358017173,1.5488024893655759,1.0155911172938146,1.5611995149873634,0.17763625705481587,27.916812557290115,1097.3897593667411,258.0805370020286,17.69187195637917,-6.386715623525905e-44,1.1849593135471227e-57,28.393079492240297,76.31648398052529,-0.04901964190231312,5.041280800156714,2.687855116292766,258.0805370020286,45.959595959595966,18.537368056773353,180.5612514239024,90.83362318630056,9.21329487367318,2.887778085275729e-48,1.90876188871996e-63,25.96831597898458,57.438887416060524,-0.011389442180418062,6.176647090495984,2.211883414486491,90.83362318630056,28.78787878787879
79,14000,1.0,0.075,4.309749999999999,2100,30.282945736434108,121296.56165354568,675.0,1249.0,675.0,-15.5,-277.34999999999997,355.4000000000001,0.05534679756495054,1.711396330475711,348.91757872624595,1.9345542934928828,2.2154515501164016,1.1451999861509974,2.477552529861871,11.500749041439589,993.0581395348837,32459.08220975477,1513.0,918.0,1513.0,981.0,887.45,1121.1000000000001,0.2622541399313165,3.0495784432374284,1009.2064904220928,1.4991976511835545,1.523576455159655,1.016261234105359,1.536223457683214,0.18142345883581795,32.663832991087794,1041.9988122093628,238.91666360982663,18.142616125955662,-8.532175157281748e-49,3.7561796029103226e-64,29.092442790540744,81.28292980016967,-0.06745003122091114,4.9468113278740145,2.793953412072993,238.91666360982663,45.959595959595966,17.096642855400958,213.17472233993337,92.66913010360656,9.416809132015063,-5.377427387100575e-44,9.421052116143338e-58,26.859092431390028,55.89587640965917,-0.032197556631173734,6.469774234631845,2.0810783742020282,92.66913010360656,28.78787878787879
80,14000,1.0,0.1,3.47825,2800,23.533632286995516,193567.4121520624,740.0,1460.0,740.0,-40.0,-330.0,456.6,0.009849569727946598,1.6832874635116164,439.60576508907565,1.6833264228235418,1.9127431207548042,1.136287706781462,2.1175929580052224,18.695072712564684,982.4928229665072,38323.0492270887,1624.0,1014.0,1624.0,944.0,840.7,1091.0,0.8405982202922628,3.67725378798695,1001.7144466043629,1.6212205040119732,1.6529382831485187,1.0195641364379828,1.6686045944536883,0.19925106066821202,40.89746029319,883.011629644254,188.40163955232933,20.58194002550013,9.966633870172936e-47,2.144855337711412e-61,27.04203512018973,98.53089392859188,-0.037948434910026106,4.289994052630375,3.643619775311518,188.40163955232933,45.959595959595966,19.71503535525637,179.98498197602953,98.09513453469965,9.327327676026153,-1.7492843511121047e-44,2.1077246824453135e-58,26.485479095104612,58.55570926020268,-0.015607868687691848,5.907061060994637,2.2108608664370246,98.09513453469965,28.78787878787879
81,16000,0.2,0.05,5.04775,1600,39.529411764705884,1511.691060676239,113.0,144.0,113.0,42.0,2.0,74.0,0.0479081918560115,1.6355200490657296,55.3925740050231,2.0399846374669814,2.5631560220601317,1.2564584923751014,3.1526028652913385,0.9835833552972334,989.2125984251968,3537.3617378855306,1127.0,284.0,1127.0,989.0,949.8000000000001,1031.0,0.039388446985629266,2.459088395074861,990.991927313235,1.1372443800379972,1.1392899785083181,1.001798732538254,1.1403178967598382,0.06012430900308874,3.512979953084033,15.236219930478939,31.101783266738103,1.9363946412456603,-8.732338022577445e-44,1.7982112820664888e-57,23.208747137272567,23.600964106176036,0.16551080217426192,16.476822760491324,1.0168995321713674,31.101783266738103,21.212121212121215,5.699210551214751,29.589641949921702,34.64133125773664,3.280502128041681,7.217912728209194e-46,3.0052608164907823e-60,25.888680795685378,36.24729761133031,-0.08351786600066553,10.47743324843137,1.4001214622481384,34.64133125773664,40.909090909090914
82,16000,0.2,0.065,4.05775,2080,34.10408921933085,11588.459274260667,203.0,367.0,203.0,54.0,-64.3,124.0,-0.13978823627622172,1.6052810653894747,112.73184289049385,1.8007334466907579,2.0039266055045872,1.1128391096346,2.1573113169034643,3.1565043606306977,994.9793388429752,11208.153098316245,1243.0,482.0,1243.0,981.0,917.0,1085.1000000000001,0.2037749083245837,2.2253020172741618,1000.5726975789894,1.2422885443582399,1.2492721722698674,1.0056215827984112,1.2527899561577678,0.10640277749579628,9.644365393127197,108.45788160022303,71.15308277256918,5.843121692295012,4.670648536962936e-44,7.807336850134937e-58,24.429432722338703,39.04054906603265,0.0471280194578646,9.311417461680607,1.598094786308046,71.15308277256918,21.212121212121215,10.515880846438035,76.36304590151434,68.6069989151226,5.474165578452089,-2.2679294331905536e-45,1.3830547835727776e-59,27.45132088501078,48.59930224389136,-0.09745908962793572,7.9108988268891505,1.7703811939493226,68.6069989151226,40.909090909090914
83,16000,0.2,0.075,3.90525,2400,45.66793893129771,2936.7130677663713,135.0,185.0,135.0,53.0,-8.049999999999997,99.05000000000001,-0.09535874882510072,1.6980783222481046,70.78887543601878,1.9070793139243645,2.2862129144851657,1.1988032683237622,2.626612242054502,1.1866409905538389,982.5019011406844,3767.2280498069836,1147.0,285.0,1147.0,974.0,937.1999999999999,1021.8,0.31069344851935204,2.4659036541509467,984.4099195629026,1.1651650163270304,1.1674277664687807,1.001941999725398,1.168555538036569,0.062470870280707996,4.624721563144231,29.946979385016732,40.219578765548334,3.125388677757608,-1.467645603347514e-45,7.741556074206646e-60,23.495549282190364,26.797272086205755,0.07830846126326764,14.279705256411516,1.1405254571561814,40.219578765548334,21.212121212121215,6.116015704449239,24.059152090501957,32.461247395237564,3.3332333650389057,9.877982275238903e-45,9.83764145368548e-59,23.922100980331848,38.60383024927823,-0.02325998258838631,9.984418338375933,1.6137307622360315,32.461247395237564,40.909090909090914
84,16000,0.2,0.1,4.3125,3200,43.92964824120603,3935.8435104817013,158.0,229.0,158.0,47.0,-11.399999999999991,101.0,-0.22911738176968957,1.7772591904805104,76.45835073414104,2.0664845433220687,2.393210534327904,1.1581071545207844,2.692568977924605,1.4281084390354912,991.3464566929134,5744.780679094955,1184.0,363.0,1184.0,990.0,932.0,1043.05,0.23139168246366926,2.44822341258834,994.2283241941568,1.1908733348143719,1.194335231650265,1.0029070235554753,1.1960678356047028,0.07645594628661875,5.287323429901993,32.48697429837091,40.388566648769824,3.0517412621678446,-3.9567160065397325e-44,6.258157753663067e-58,22.967422641134323,31.870667865758982,0.07888878359192059,12.388706026970203,1.3876466839025758,40.388566648769824,21.212121212121215,7.45483331467005,43.18278962450842,46.64712525671504,3.9804925711583694,-1.0304151531978585e-43,2.2422445771333336e-57,23.733300568295718,42.556864443798936,0.015805586917186525,8.941251142497812,1.7931287863369834,46.64712525671504,2.5252525252525255
85,16000,0.4,0.05,6.429500000000001,1600,45.32921810699588,8357.51926674149,219.0,353.0,219.0,56.0,-36.0,129.60000000000002,-0.1182852651348401,1.794654533156834,101.87180275979641,2.1497607195229502,2.494819745909709,1.1605104341395398,2.7819450065366165,2.0167890064937013,992.2766798418972,3563.9866365518537,1111.0,278.0,1111.0,996.0,940.0,1037.6000000000001,-0.1525483509366809,2.190320936430441,994.0638355210942,1.117634461993688,1.1196473952980728,1.0018010658876733,1.120664497656912,0.060163798581575986,8.071065311384835,78.65771842047874,61.85613024817677,5.06175388348857,-1.8600010956103164e-45,1.0617385839212307e-59,23.06784645353926,35.62889056098847,0.057314669451707656,10.18273971859244,1.544526084511109,61.85613024817677,21.212121212121215,6.090286817262812,21.303926516136148,30.434348037380964,3.27277888176566,-3.0665639237875644e-44,4.455222137901632e-58,25.64694374759878,37.28516020226634,-0.03235332787628278,9.986639095234214,1.4537857051976106,30.434348037380964,40.909090909090914
86,16000,0.4,0.065,4.13975,2080,47.219607843137254,11906.935834491278,238.0,389.0,238.0,59.0,-48.8,150.8,-0.16865001261238274,1.7588749909805572,118.70102498855405,2.0050374461631613,2.309272858719227,1.1517355265051286,2.5777256521603737,2.310881259820492,993.5019157088122,5167.558650162099,1167.0,386.0,1167.0,992.0,951.4,1038.0,0.05420559668136691,2.939973358311855,996.0892611066309,1.171581750317729,1.1746328633572949,1.002604268151786,1.176170413714912,0.07235590807631423,9.496693992193523,127.15839194908305,87.99762855899843,5.936832062450608,-4.0585104678133846e-45,3.0048460566272004e-59,24.36324892722523,39.68794336633331,0.03722787691543159,9.622354070714128,1.62900865499852,87.99762855899843,21.212121212121215,7.011081510447865,38.67061688941689,41.54293182943681,4.011541576725888,2.5100974546637766e-46,7.349437670848292e-61,22.528916270988983,39.857069089377646,0.057486657308257,9.229797540382847,1.769151636499379,41.54293182943681,2.5252525252525255
87,16000,0.4,0.075,3.74375,2400,41.0609756097561,13976.841164758585,245.0,422.0,245.0,48.5,-68.0,161.05,-0.1013997771419905,1.6927813295482168,124.9240907722948,1.961190979941358,2.2536738585798153,1.149135337470909,2.519544679103054,2.8792226550994333,992.2569169960474,5215.34246188594,1144.0,300.0,1144.0,994.0,934.0,1047.3,0.0254435401872602,2.153322720890672,994.8711061170494,1.1498977032964561,1.1529272110930087,1.0026345889620163,1.154453501919133,0.07278087635582839,10.871160936070972,123.96047801863679,81.76369960296344,6.725128338088645,8.915380187559008e-46,3.982781586698926e-60,24.840642950803403,43.28134981382412,0.03829040822857846,8.54987417330091,1.7423602883203273,81.76369960296344,21.212121212121215,7.763164680273016,29.375958551925265,36.165559725440794,3.7760534531377004,-1.3836916443632096e-44,1.541886565812399e-58,23.068213872473475,41.74850807921649,0.037296549423971266,8.943675531074307,1.8097850275713625,36.165559725440794,40.909090909090914
88,16000,0.4,0.1,3.416,3200,52.92462311557789,20605.655905791587,301.0,524.0,301.0,70.0,-81.0,186.60000000000002,-0.20739196578960964,1.7533499003865254,152.65361321678796,1.9717843138933169,2.223752598752599,1.1277869405309178,2.422381213457189,2.7122857834963923,1000.5261044176707,4964.2341948438925,1173.0,325.0,1173.0,1002.0,948.0,1053.3000000000002,0.036622992565972595,2.3621623037208077,1002.9939098182651,1.1694986265794363,1.1723832040171636,1.0024665077599657,1.173835602005434,0.07042027338034984,11.52999642168935,149.7735934503342,93.33343370415949,6.478127608042962,-5.972660124063922e-44,1.0836534111157775e-57,24.179130699431763,42.55554226421465,0.03718220462092169,8.252054572328769,1.7600112590158072,93.33343370415949,21.212121212121215,7.360391350854959,31.555458387336607,40.450517486836794,3.864691217573617,-9.51049902880249e-44,2.0149815507385109e-57,24.237424872903315,42.29274350569809,-0.009020085656793053,9.031633198698362,1.7449355171794698,40.450517486836794,40.909090909090914
89,16000,0.6,0.05,5.1475,1600,32.47142857142857,17677.15330261137,258.0,463.0,258.0,35.0,-90.0,153.0,-0.10491742983614456,1.6411127372508412,136.6324056939432,1.8882782506071099,2.148209825145712,1.1376553346706346,2.405512369278528,4.094536702995224,989.3212851405623,9751.138295115948,1233.0,467.0,1233.0,978.0,914.7,1052.8,0.33012435051779565,2.456570573086334,994.2175729332675,1.240171199511437,1.2463089782050085,1.0049491382286488,1.2493781995691466,0.0998137345137379,11.727202657543701,169.19840627358022,103.1555764545779,7.263766416142208,4.237252102956445e-45,3.1825781138617525e-59,24.18525612806549,43.48593742258017,0.04945835135736386,8.300818115771607,1.7980350173805866,103.1555764545779,21.212121212121215,9.69047278396665,66.65559239717338,57.03490806437903,5.270475150613375,2.534177636589391e-46,7.443595056065918e-61,26.090780057646903,48.032964558432724,-0.053792119666868775,8.036186103102784,1.8409938090124225,57.03490806437903,40.909090909090914
90,16000,0.6,0.065,4.4079999999999995,2080,20.800766283524904,28173.175537872085,312.0,570.0,312.0,3.0,-138.0,181.60000000000002,-0.0009640317181171342,1.575407846826565,168.81322286645496,1.848196454651052,2.0891249134149157,1.130358684628768,2.328020468948622,8.069350247661532,995.255060728745,10476.735492577598,1248.0,475.0,1248.0,974.0,926.4,1052.8,0.5255899064591832,2.7393368104336053,1000.483360913907,1.2473970570185147,1.2539499162015717,1.0052532264255292,1.257197032185089,0.10284391366194788,14.435755005345063,293.8240016557543,123.83739454759029,9.080189039313485,-1.656865833586929e-45,9.10017595991231e-60,24.636704154878,47.80653012148463,0.05501907186613584,7.605980885749358,1.940459641880266,123.83739454759029,21.212121212121215,10.035613970406597,71.19388462489547,55.55778017672758,5.630041252450574,2.295767519632166e-46,6.524850162986945e-61,26.00281069031801,46.39250131708701,-0.033677416363938076,7.682698253317263,1.7841341026399495,55.55778017672758,40.909090909090914
91,16000,0.6,0.075,4.3905,2400,34.41825095057034,33209.75569616579,317.0,598.0,317.0,35.0,-139.99999999999997,208.4000000000001,-0.11519284998672062,1.6612566618514553,185.116446755321,1.7124356347385872,1.9630562750176597,1.1463533199116889,2.213256701923378,5.29473274361136,995.065306122449,10577.774406155904,1270.0,473.0,1270.0,990.0,921.4,1059.6,0.3017790610677038,2.47220696824288,1000.34472221595,1.2695623536521623,1.2762981406204494,1.0053055975934622,1.279673499747965,0.10335834956047808,15.14219277193978,318.4915517538645,129.24505888173115,9.733373566880307,-3.601686638164979e-44,5.520874813629072e-58,22.806417898002444,48.08774141980798,0.050912999552364106,7.785025211236251,2.1085179459076677,129.24505888173115,21.212121212121215,9.67451321612892,56.52472033148396,50.72680213096974,4.864412304103903,6.753096644111681e-44,1.27645042809497e-57,25.685875964365557,45.27315250407217,-0.044081283599025405,8.090252041764506,1.7625699262458625,50.72680213096974,40.909090909090914
92,16000,0.6,0.1,5.3355,3200,35.9656652360515,53604.81778155987,445.0,859.0,445.0,33.0,-166.99999999999997,243.3,-0.1332365370598381,1.7369420144153773,233.81249594878923,1.9032344622738473,2.179721661621258,1.1452722745557495,2.4475884849445353,6.437449192886216,983.8834951456311,16263.654653090218,1387.0,641.0,1387.0,971.5,903.9,1068.1,0.4809759025102299,2.9953267840753828,992.0743101669369,1.3980807544211167,1.409719755279258,1.0083249846772697,1.4155305234705475,0.12961802406338482,18.741089687275775,425.29954831665214,153.86218865392246,11.348601715933565,9.221118127995438e-45,8.97521334670111e-59,23.730603868239456,54.04162809805059,0.046281930115448934,6.496182615023122,2.27729679354594,153.86218865392246,21.212121212121215,12.3598863293025,87.20808802222112,48.32043048105493,6.730933752065744,4.947974091771766e-43,1.8165048256211834e-56,25.963981225759273,54.334739007024524,-0.04794961106299335,7.24053546040869,2.0926967453326526,48.32043048105493,40.909090909090914
93,16000,0.8,0.05,5.11275,1600,39.67307692307692,58272.77687852687,454.0,816.0,454.0,46.0,-192.29999999999998,262.0,-0.07915799172364636,1.4419028267090637,244.17740240684404,1.8593039139778926,2.020022246941046,1.0864400552028657,2.162106850802064,6.084669205618629,988.0717131474104,19355.810836653385,1379.0,735.0,1379.0,983.0,906.4000000000001,1058.0,0.3197086021270381,2.97608951356956,997.7797384064792,1.3820685537294584,1.395647685943082,1.0098252233414766,1.4025311069985813,0.14080472159501595,20.189727115040117,626.1678126396663,187.11588607475994,13.03247761859662,-5.069914391632018e-44,8.709652640891227e-58,23.782677654336474,56.43546980987198,0.04609480619481217,6.466792217079681,2.372965341839113,187.11588607475994,21.212121212121215,14.034650481866208,107.98172815422826,61.43093508717259,7.22784370337988,2.4542115236091703e-46,7.132076419900744e-61,25.721840903903495,55.04340121926504,-0.027022639355268416,6.5723177901321925,2.1399479697004025,61.43093508717259,4.545454545454546
94,16000,0.8,0.065,3.9440000000000004,2080,29.513409961685824,92588.55847332744,463.0,945.0,482.0,116.0,-271.6,324.90000000000003,-0.10205193623834913,1.3929078871775848,305.130880780904,1.579650013680834,1.6878245119742403,1.0684800413740654,1.7669358889736668,10.310014373586307,980.4691358024692,26313.258340985616,1545.0,943.0,1545.0,971.0,869.0,1072.0,0.4325448375707049,3.4661526808922,993.7427733515738,1.554728287270169,1.5757762723815758,1.013538047312668,1.5864790703717653,0.1654449013690486,25.309264782079016,955.7734906807556,257.2492737972544,15.335329151790754,4.097433533520722e-46,1.4125892271491812e-60,24.100356788839765,63.603152539652854,0.029402141163681263,5.635112648109289,2.6390958896137913,257.2492737972544,21.212121212121215,16.816914265705787,154.87205330040527,71.43328697808288,8.51147886038245,5.0254480874178405e-47,8.607949718299072e-62,25.35675106714103,59.54517574540556,-0.017570796886011705,6.090529942387994,2.34829673516684,71.43328697808288,40.909090909090914
95,16000,0.8,0.075,3.9135,2400,46.79182156133829,114631.53858957998,620.0,1114.0,620.0,49.0,-279.9,381.0,-0.09590659062328051,1.5816826867073293,341.1669292383832,1.81729220175027,2.0505821745171087,1.128372296178981,2.281166657826052,7.235725930105336,985.116935483871,24349.172505550476,1453.0,802.0,1453.0,981.0,888.45,1064.75,0.31556796273833576,3.3717386658145956,997.3496713467568,1.4568611608784734,1.4749518028398463,1.0124175470162609,1.4842127031626269,0.1583996866126936,28.749902302590908,1130.8384129080596,273.72717734291496,16.840042057909322,-4.401262637315089e-45,3.3478786932897384e-59,23.982783195353456,68.69758433024614,0.04153775210654627,5.352214539031391,2.8644542116177725,273.72717734291496,21.212121212121215,17.02757840345764,157.3858647627724,78.24708467589187,8.549972822862754,-1.6825962187687007e-44,2.0012739614577517e-58,26.532195864713785,59.30264289454872,-0.0451486923178924,6.073876337242627,2.2351200479948834,78.24708467589187,40.909090909090914
96,16000,0.8,0.1,3.11025,3200,39.92444444444445,160186.48980158727,713.0,1438.0,725.0,23.0,-318.9999999999999,427.3,-0.05366439360176843,1.6780909682873284,401.3334163898032,1.806478031462571,2.070193027653337,1.14598295224064,2.3250259742330526,10.0247617702438,983.1365853658536,38206.36360593018,1535.0,939.0,1535.0,962.0,834.4000000000001,1099.9,0.5790987578997442,3.1459791813871485,1002.2861550402489,1.5314987563989237,1.5613293441101899,1.0194780358695217,1.5764332641243777,0.19881721889786538,31.605587608891234,1353.7318238504834,298.4693573307626,17.564404289252384,-1.5823469362518376e-46,3.972546114570738e-61,23.613885997557475,73.13881436804832,0.02987316961482096,5.014917972251093,3.0972798960583403,298.4693573307626,21.212121212121215,18.654130058204096,215.14956769391583,80.58842058222065,10.672475237665932,1.9979284842645555e-44,2.516362772281573e-58,27.043955594011695,64.685613199033,-0.05921501085665269,5.89127638541434,2.39186952419624,80.58842058222065,5.050505050505051
97,16000,1.0,0.05,5.8557500000000005,1600,25.689285714285713,61144.222107014844,449.0,857.0,449.0,49.0,-183.0,248.9500000000001,-0.06889162642192886,1.734550791358823,248.16484296877002,1.8092812609097244,2.0788755684167013,1.1490063006408533,2.3281561115226954,9.625552855162713,993.8658536585366,25371.806421105026,1489.0,778.0,1489.0,972.0,884.6,1074.0,0.6979018820224475,3.294398625857334,1006.4978907404827,1.4793871042338096,1.4981901174276353,1.012710002094796,1.507498047767021,0.16026840869576736,19.87991306058203,597.8302185208529,201.61331051310236,12.646194146259287,9.352287213932144e-47,1.970412320510466e-61,24.61188590155477,58.482988730143234,0.034142260629054046,6.199663794517456,2.376209160243538,201.61331051310236,21.212121212121215,16.2422725308447,152.76015931441185,73.91074295667299,9.139717351449809,-9.819527272381009e-43,4.53023545027553e-56,28.124308162818622,58.18010403606076,-0.091055160257324,6.51140444696834,2.0686768079499647,73.91074295667299,40.909090909090914
98,16000,1.0,0.065,4.0272499999999996,2080,5.7924528301886795,95282.49085191538,505.0,957.0,505.0,-42.0,-276.3,313.0,0.08345167560165692,1.466957199831691,308.1501043200421,1.6388117119555192,1.7923391147123822,1.093682148862401,1.9290567173433777,53.28979444600861,990.2595419847328,32624.231230440768,1568.0,974.0,1568.0,968.0,890.85,1087.0,0.62225788037053,3.585679540511514,1006.5354796308599,1.5578189062695071,1.5834232678609972,1.0164360321269976,1.596310404943908,0.18239843487170126,26.320024320511553,900.1431281323371,233.72188310303707,15.841429259518696,9.849339100995729e-46,4.548582958606021e-60,23.26012269750305,66.83822621003506,0.02784729901111118,5.623265766841818,2.873511334366696,233.72188310303707,21.212121212121215,18.769150996365344,173.1049499515423,85.22020699261587,9.273074995675909,-2.840872381930115e-43,8.668333923598e-57,25.573784630130387,63.15756502310589,-0.017668076273365602,5.7008679881177144,2.4696213695604223,85.22020699261587,4.545454545454546
99,16000,1.0,0.075,3.4764999999999997,2400,14.818518518518518,118458.49854054798,594.0,1132.0,594.0,45.0,-361.8999999999999,343.0,-0.07444119240521714,1.7495232804766179,343.8594943459492,1.7274497571452545,2.0279446165518116,1.173952879476592,2.348019014426922,23.226208727930324,988.5668016194332,41488.092064119024,1671.0,1069.0,1671.0,951.0,862.0,1076.6,1.037621117754162,4.416112121594608,1009.2494465414037,1.6556858224954683,1.6903258305484568,1.0209218485671265,1.7072351955057283,0.20604197770444752,29.726777984837053,1143.4433789628215,287.3271565727535,16.93530990238615,4.3286863392850884e-45,3.2744735754666775e-59,23.458907938428787,71.6280962007738,0.04017092872594867,5.373554356333854,3.0533431645143856,287.3271565727535,21.212121212121215,21.623432202950234,240.78396275130302,94.81615070943337,10.606027823919177,-1.286234388947004e-44,1.3988145971399427e-58,25.56798753211562,69.3224786867503,-0.012696595707748155,5.442177012787397,2.7112997688877636,94.81615070943337,4.545454545454546
100,16000,1.0,0.1,3.315,3200,9.86574074074074,173658.56328596035,710.0,1361.0,710.0,54.0,-504.19999999999993,242.25000000000017,-0.12978938995070344,1.9521249237226663,415.87488659006124,1.707244228718878,2.150037151789595,1.2593612065703041,2.690270909426667,42.2394644595917,1015.5538461538462,54183.78445678033,1795.0,1246.0,1795.0,977.0,862.6,1109.4,0.9528347758785892,4.112865508381693,1041.755985503963,1.7230522550169416,1.7675084455621033,1.0258008370992349,1.7895200379064389,0.22920902417116762,33.1288803247916,1450.7811896467554,278.42873148801345,21.54072198413879,1.3332873919008444e-44,1.467455801999103e-58,22.27299589114284,77.4578261175991,0.02592108695818252,4.949283855882689,3.4776563734922274,278.42873148801345,21.212121212121215,22.301069678058397,286.08244887208673,84.99615670993705,12.5317795529232,-2.2624753404388985e-44,2.9701506131843194e-58,26.750938903449313,71.46809403784526,-0.05118366341348112,5.510479283087318,2.671610678630425,84.99615670993705,40.909090909090914
