time_range,Acceleration_Y
0,43.0
1,52.0
2,-10.0
3,16.0
4,130.0
5,54.0
6,12.0
7,23.0
8,14.0
9,145.0
10,84.0
11,37.0
12,34.75
13,32.5
14,85.0
15,25.0
16,2.0
17,36.0
18,-1.0
19,48.75
20,98.5
21,44.0
22,-23.0
23,-47.0
24,77.0
25,11.0
26,-50.0
27,40.0
28,36.0
29,52.0
30,81.0
31,53.5
32,-11.0
33,-24.0
34,147.0
35,95.0
36,43.0
37,-8.0
38,24.0
39,71.5
40,119.0
41,127.5
42,12.0
43,55.0
44,32.0
45,12.0
46,70.0
47,78.5
48,18.0
49,-23.0
50,3.0
51,42.0
52,2.0
53,108.0
54,-70.0
55,-41.0
56,-29.0
57,0.0
58,25.0
59,41.0
60,53.0
61,66.0
62,26.0
63,65.0
64,45.0
65,33.0
66,68.0
67,34.0
68,49.0
69,37.0
70,45.0
71,45.0
72,45.0
73,-13.333333333333334
74,54.0
75,20.0
76,42.666666666666664
77,7.0
78,73.0
79,72.5
80,72.0
81,21.5
82,-8.0
83,54.0
84,25.0
85,48.0
86,-79.0
87,47.0
88,67.0
89,6.0
90,96.0
91,46.0
92,22.0
93,128.0
94,-62.0
95,74.0
96,-22.0
97,-3.5
98,107.0
99,-55.0
100,80.0
101,27.5
102,43.0
103,86.0
104,46.0
105,36.0
106,-36.0
107,61.0
108,122.0
109,-2.0
110,-85.0
111,-24.0
112,20.0
113,179.0
114,71.0
115,-37.0
116,71.0
117,62.0
118,-19.0
119,-18.0
120,3.5
121,25.0
122,57.666666666666664
123,67.0
124,7.0
125,38.0
126,14.0
127,22.0
128,24.0
129,-44.0
130,-34.0
131,7.0
132,-3.5
133,-10.0
134,-23.5
135,-11.0
136,39.0
137,50.0
138,12.0
139,-11.0
140,-31.0
141,45.0
142,0.0
143,24.0
144,12.0
145,-19.0
146,74.0
147,69.0
148,38.0
149,-45.0
150,-8.0
151,1.5
152,9.0
153,-5.5
154,76.0
155,52.0
156,48.0
157,-36.0
158,13.833333333333329
159,63.666666666666664
160,25.0
161,8.0
162,-62.0
163,70.0
164,53.0
165,3.0
166,-20.0
167,-56.0
168,8.0
169,13.0
170,-4.0
171,63.0
172,-35.0
173,-15.5
174,4.0
175,23.5
176,-13.0
177,81.0
178,46.0
179,38.0
180,-64.0
181,23.0
182,73.0
183,3.0
184,83.0
185,-6.0
186,-4.0
187,86.0
188,-59.0
189,-31.0
190,-71.0
191,-6.5
192,19.0
193,-5.0
194,-39.0
195,36.0
196,-44.0
197,163.0
198,11.0
199,34.0
