time_range,Acceleration_Y
0,97.0
1,13.75
2,-69.5
3,95.33333333333333
4,10.0
5,-53.0
6,55.0
7,86.0
8,206.0
9,103.0
10,-162.0
11,25.0
12,90.0
13,5.666666666666657
14,-78.66666666666667
15,-23.0
16,107.0
17,79.0
18,66.0
19,-27.0
20,-89.0
21,44.0
22,101.0
23,-45.0
24,73.0
25,-30.0
26,207.0
27,3.0
28,76.0
29,3.0
30,56.0
31,46.0
32,81.0
33,-37.0
34,69.0
35,85.0
36,219.0
37,46.5
38,43.75
39,41.0
40,106.0
41,75.22222222222223
42,44.44444444444445
43,13.666666666666666
44,-17.0
45,89.0
46,71.0
47,53.0
48,66.33333333333333
49,18.0
50,113.0
51,-63.0
52,-83.0
53,45.0
54,35.0
55,67.0
56,-75.0
57,-10.0
58,34.0
59,38.0
60,119.0
61,-20.0
62,45.0
63,-11.0
64,-12.0
65,79.0
66,31.5
67,-23.0
68,209.0
69,151.5
70,104.0
71,-77.0
72,74.0
73,160.0
74,117.0
75,67.0
76,-61.0
77,-6.0
78,137.0
79,46.5
80,-19.75
81,-86.0
82,117.33333333333333
83,84.0
84,21.0
85,-12.0
86,2.0
87,223.0
88,-16.0
89,-24.0
90,-38.0
91,176.0
92,173.0
93,63.0
94,-63.5
95,54.0
96,2.0
97,189.0
98,-81.0
99,-76.5
100,165.0
101,247.0
102,113.0
103,45.5
104,-22.0
105,-10.5
106,84.0
107,206.0
108,-70.0
109,-33.0
110,198.0
111,10.0
112,33.0
113,-116.0
114,-44.0
115,59.0
116,25.5
117,85.0
118,-33.0
119,69.0
120,171.0
121,20.0
122,24.0
123,31.0
124,81.0
125,94.0
126,-73.0
127,-8.5
128,58.5
129,234.0
130,78.0
131,1.0
132,29.0
133,50.0
134,115.0
135,90.0
136,-88.0
137,34.0
138,40.0
139,69.0
140,91.0
141,-10.0
142,18.0
143,22.25
144,26.5
145,129.33333333333334
146,-112.0
147,24.0
148,36.0
149,58.0
150,-33.0
151,-6.0
152,84.0
153,70.0
154,80.0
155,-121.0
156,-130.0
157,38.0
158,9.0
159,-4.5
160,-13.0
161,84.0
162,70.0
163,70.0
164,-27.5
165,243.0
166,46.0
167,41.0
168,-23.0
169,36.0
170,10.5
171,190.0
172,33.0
173,46.0
174,-30.0
175,185.0
176,145.0
177,85.0
178,33.5
179,78.0
180,19.0
181,132.0
182,46.5
183,29.0
184,-4.0
185,142.0
186,193.0
187,-59.0
188,-83.0
189,90.0
190,39.0
191,62.0
192,-75.0
193,-2.0
194,23.0
195,43.0
196,163.0
197,-101.0
198,44.0
199,3.0
