time_range,Acceleration_Y
0,48.0
1,-9.0
2,-11.0
3,29.0
4,106.0
5,57.0
6,59.0
7,22.0
8,6.0
9,54.0
10,-70.0
11,5.0
12,1.0
13,61.0
14,90.0
15,-12.0
16,-56.0
17,-79.0
18,-25.0
19,81.0
20,-56.0
21,9.0
22,59.0
23,30.0
24,55.0
25,37.5
26,1.0
27,184.0
28,77.5
29,-81.0
30,-8.0
31,62.0
32,28.0
33,-6.0
34,48.666666666666664
35,10.0
36,178.0
37,20.0
38,49.0
39,-55.0
40,54.0
41,65.0
42,36.5
43,-4.0
44,-13.0
45,45.0
46,145.0
47,87.875
48,30.75
49,67.0
50,2.0
51,66.0
52,13.0
53,-23.0
54,-43.0
55,72.0
56,135.5
57,29.0
58,1.0
59,72.0
60,35.0
61,101.5
62,50.0
63,-57.0
64,1.0
65,3.0
66,24.0
67,21.5
68,-24.0
69,26.0
70,59.0
71,41.0
72,23.0
73,-30.5
74,-14.0
75,2.5
76,-8.5
77,-22.0
78,-24.0
79,56.0
80,49.0
81,-7.0
82,-69.0
83,-22.0
84,9.0
85,-7.5
86,20.0
87,10.0
88,109.0
89,105.0
90,56.0
91,-41.0
92,39.0
93,150.0
94,48.0
95,4.0
96,-64.0
97,-4.0
98,43.5
99,78.0
100,49.0
101,7.0
102,4.0
103,66.0
104,3.0
105,-70.0
106,0.0
107,18.0
108,118.0
109,-2.5
110,52.0
111,-53.0
112,103.0
113,-47.0
114,-44.0
115,44.0
116,34.0
117,76.0
118,45.0
119,-14.0
120,152.0
121,28.0
122,121.0
123,-35.0
124,23.0
125,11.0
126,-3.0
127,13.0
128,-1.666666666666666
129,-16.333333333333332
130,149.0
131,87.5
132,25.0
133,-23.0
134,-37.0
135,-0.75
136,35.5
137,-4.0
138,47.0
139,85.0
140,141.0
141,31.0
142,31.0
143,20.0
144,41.0
145,120.0
146,0.0
147,-65.0
148,8.0
149,125.5
150,10.0
151,21.0
152,21.0
153,18.5
154,102.0
155,-75.0
156,-61.5
157,94.0
158,-3.0
159,97.0
160,17.0
161,-6.0
162,15.0
163,19.0
164,55.0
165,-16.0
166,43.0
167,247.0
168,14.0
169,70.5
170,35.0
171,-20.0
172,173.0
173,91.0
174,90.0
175,-132.0
176,-17.0
177,98.0
178,-34.0
179,53.0
180,54.0
181,40.0
182,313.0
183,96.0
184,-55.0
185,-21.5
186,-19.0
187,187.0
188,-58.0
189,-81.0
190,14.0
191,77.0
192,176.0
193,78.0
194,6.0
195,41.0
196,104.0
197,9.0
198,-30.0
199,-67.0
