time_range,Acceleration_Y
0,25.5
1,28.0
2,44.5
3,-11.0
4,13.0
5,68.0
6,8.0
7,77.0
8,11.0
9,51.0
10,43.0
11,34.0
12,30.5
13,-41.0
14,-3.6666666666666665
15,77.0
16,45.0
17,123.0
18,42.0
19,26.0
20,23.0
21,23.0
22,21.5
23,-13.0
24,-6.0
25,45.5
26,33.0
27,36.0
28,53.0
29,64.0
30,19.0
31,-6.0
32,0.0
33,1.6666666666666667
34,42.0
35,21.0
36,25.0
37,42.0
38,85.0
39,12.0
40,0.0
41,2.0
42,-6.0
43,8.0
44,40.0
45,9.0
46,27.0
47,44.0
48,67.0
49,56.0
50,-4.0
51,-13.0
52,73.0
53,59.5
54,46.0
55,22.5
56,65.0
57,34.0
58,73.0
59,42.0
60,1.0
61,6.0
62,42.0
63,77.0
64,62.0
65,-49.0
66,68.0
67,33.0
68,27.0
69,44.0
70,31.0
71,49.0
72,-8.0
73,2.0
74,-12.5
75,-27.0
76,46.0
77,7.0
78,-19.0
79,1.5
80,74.0
81,0.0
82,-12.0
83,4.0
84,58.0
85,85.0
86,1.0
87,34.0
88,2.0
89,34.666666666666664
90,77.0
91,4.0
92,-44.0
93,84.0
94,67.5
95,43.0
96,28.0
97,18.0
98,25.0
99,30.5
100,-19.0
101,73.0
102,-2.0
103,94.0
104,56.0
105,20.0
106,25.0
107,-49.0
108,83.0
109,42.0
110,-31.0
111,63.0
112,31.666666666666668
113,17.0
114,20.5
115,24.0
116,-22.0
117,26.0
118,67.0
119,4.0
120,-30.0
121,8.0
122,-20.0
123,63.0
124,33.75
125,4.5
126,75.0
127,11.0
128,68.0
129,-7.0
130,-6.0
131,-5.0
132,63.0
133,4.0
134,-28.0
135,-1.5
136,100.0
137,1.0
138,66.0
139,-21.0
140,6.0
141,10.0
142,-29.0
143,17.0
144,-3.0
145,-2.0
146,96.0
147,58.0
148,70.0
149,-6.0
150,0.0
151,57.0
152,33.0
153,50.0
154,20.0
155,27.875
156,35.75
157,4.0
158,-8.0
159,73.0
160,85.0
161,44.0
162,19.0
163,28.0
164,41.0
165,0.0
166,-9.0
167,16.0
168,-51.0
169,61.0
170,9.0
171,7.5
172,0.0
173,54.0
174,50.0
175,34.0
176,54.0
177,-18.0
178,54.0
179,49.0
180,49.0
181,-46.0
182,20.0
183,20.5
184,106.0
185,22.0
186,0.5
187,-52.0
188,155.0
189,23.0
190,55.5
191,47.0
192,44.0
193,8.0
194,28.5
195,-3.0
196,-45.0
197,83.0
198,57.0
199,42.0
