time_range,Acceleration_Y
0,24.0
1,45.0
2,43.0
3,41.0
4,39.0
5,44.0
6,41.0
7,36.0
8,17.0
9,47.0
10,48.83333333333333
11,50.666666666666664
12,36.0
13,34.0
14,39.0
15,41.0
16,27.0
17,36.0
18,50.0
19,55.5
20,28.0
21,68.0
22,35.0
23,38.0
24,42.0
25,57.0
26,38.0
27,41.0
28,31.0
29,66.0
30,36.0
31,53.0
32,-1.0
33,57.0
34,48.5
35,46.0
36,36.0
37,61.666666666666664
38,47.0
39,22.0
40,48.0
41,54.0
42,54.0
43,40.666666666666664
44,82.0
45,44.0
46,32.0
47,38.0
48,64.0
49,28.0
50,33.0
51,24.0
52,36.5
53,29.0
54,63.0
55,31.0
56,46.0
57,48.0
58,45.0
59,46.0
60,52.0
61,43.0
62,37.0
63,81.0
64,52.0
65,45.0
66,28.0
67,37.0
68,52.0
69,44.0
70,34.0
71,47.0
72,44.0
73,30.0
74,34.0
75,34.0
76,38.5
77,38.0
78,35.5
79,51.0
80,45.0
81,36.666666666666664
82,55.0
83,44.0
84,69.0
85,35.0
86,72.0
87,38.0
88,61.0
89,33.0
90,45.0
91,40.0
92,41.0
93,36.0
94,50.5
95,35.0
96,42.0
97,27.5
98,59.0
99,13.0
100,51.0
101,46.0
102,69.0
103,44.0
104,46.0
105,48.0
106,52.0
107,42.0
108,34.0
109,38.0
110,61.0
111,43.0
112,37.25
113,31.5
114,42.0
115,35.0
116,34.0
117,34.0
118,53.0
119,31.0
120,0.0
121,25.5
122,18.0
123,32.0
124,61.0
125,65.0
126,48.0
127,47.0
128,46.0
129,33.0
130,51.0
131,31.0
132,51.0
133,40.0
134,46.5
135,23.0
136,21.0
137,28.0
138,26.0
139,24.0
140,49.0
141,61.0
142,54.0
143,23.0
144,43.666666666666664
145,64.33333333333333
146,60.0
147,51.0
148,43.0
149,72.0
150,53.0
151,40.0
152,67.0
153,30.0
154,60.0
155,15.0
156,52.0
157,44.0
158,42.5
159,51.0
160,37.0
161,37.0
162,24.0
163,49.0
164,51.0
165,44.0
166,41.5
167,84.0
168,55.0
169,16.0
170,35.0
171,41.0
172,64.0
173,24.0
174,38.0
175,68.0
176,46.0
177,40.0
178,25.0
179,40.0
180,48.0
181,29.0
182,59.0
183,52.0
184,53.0
185,23.0
186,75.0
187,28.0
188,40.0
189,37.0
190,54.0
191,47.0
192,40.0
193,30.0
194,64.0
195,47.0
196,50.0
197,4.0
198,46.0
199,48.0
