time_range,Acceleration_Y
0,40.0
1,91.0
2,-7.0
3,135.0
4,-10.0
5,38.0
6,-128.0
7,62.0
8,-47.0
9,9.0
10,42.0
11,223.0
12,0.0
13,65.0
14,45.0
15,45.0
16,-24.0
17,52.0
18,68.0
19,101.5
20,36.0
21,56.0
22,-51.0
23,-15.0
24,40.0
25,-24.0
26,14.0
27,134.0
28,100.0
29,-13.0
30,107.0
31,30.0
32,18.0
33,6.0
34,101.0
35,38.0
36,115.0
37,78.0
38,-36.0
39,69.0
40,-143.0
41,21.0
42,49.5
43,61.75
44,74.0
45,173.66666666666666
46,116.5
47,-29.0
48,-35.0
49,56.0
50,8.0
51,52.0
52,52.0
53,91.0
54,13.0
55,18.0
56,-49.0
57,128.0
58,25.0
59,61.5
60,66.5
61,71.5
62,76.5
63,81.5
64,25.375
65,-30.75
66,-12.125
67,6.5
68,29.0
69,200.0
70,103.5
71,84.0
72,115.0
73,38.0
74,-84.0
75,-6.833333333333343
76,70.33333333333333
77,58.5
78,61.0
79,-51.0
80,-51.0
81,-7.0
82,-28.0
83,94.0
84,134.0
85,91.0
86,48.0
87,132.0
88,51.5
89,4.0
90,4.0
91,102.0
92,85.5
93,110.0
94,89.75
95,69.5
96,33.5
97,2.5
98,-142.0
99,49.0
100,50.0
101,123.0
102,27.0
103,259.0
104,1.0
105,11.5
106,-51.0
107,85.0
108,1.0
109,69.0
110,57.5
111,131.0
112,30.0
113,-33.0
114,-81.0
115,19.5
116,98.0
117,54.0
118,153.0
119,98.0
120,71.0
121,-37.0
122,45.0
123,-18.0
124,53.0
125,-9.0
126,223.0
127,4.0
128,86.0
129,71.0
130,-12.0
131,-52.0
132,81.0
133,40.0
134,107.0
135,74.0
136,47.0
137,-56.0
138,-26.5
139,0.0
140,-22.0
141,85.0
142,17.0
143,112.0
144,-81.0
145,-17.5
146,46.0
147,29.0
148,28.0
149,108.0
150,20.0
151,115.0
152,13.0
153,107.0
154,-62.0
155,67.0
156,-45.0
157,65.0
158,103.0
159,56.0
160,224.0
161,120.5
162,-36.0
163,-53.0
164,34.0
165,-3.0
166,89.0
167,67.5
168,127.0
169,19.0
170,33.0
171,-86.0
172,-49.0
173,61.0
174,90.0
175,82.0
176,128.0
177,105.5
178,83.0
179,-141.0
180,-55.5
181,-4.0
182,29.0
183,102.0
184,180.0
185,34.0
186,65.0
187,89.0
188,-61.0
189,-108.0
190,88.0
191,61.0
192,107.0
193,98.0
194,32.0
195,-71.0
196,0.0
197,-28.0
198,56.0
199,136.0
