time_range,Acceleration_Y
0,28.0
1,33.5
2,8.0
3,17.0
4,28.0
5,71.0
6,73.0
7,23.0
8,36.0
9,20.0
10,34.0
11,2.0
12,8.0
13,19.0
14,-22.0
15,63.0
16,67.0
17,10.0
18,40.0
19,27.0
20,53.0
21,-9.0
22,5.0
23,19.0
24,101.0
25,60.0
26,13.0
27,40.0
28,53.0
29,44.0
30,54.0
31,-23.0
32,44.0
33,28.5
34,93.0
35,73.5
36,31.0
37,21.0
38,29.0
39,50.0
40,16.666666666666668
41,22.0
42,22.0
43,59.5
44,-14.0
45,40.0
46,16.0
47,43.5
48,76.0
49,22.5
50,33.0
51,6.0
52,25.0
53,24.0
54,9.75
55,-4.5
56,30.0
57,73.0
58,79.0
59,-6.0
60,29.0
61,35.0
62,37.5
63,29.0
64,40.0
65,-2.0
66,42.0
67,35.0
68,40.0
69,13.0
70,40.0
71,50.0
72,30.0
73,-14.0
74,31.0
75,45.0
76,87.0
77,53.0
78,49.0
79,26.0
80,107.0
81,0.0
82,-14.5
83,28.0
84,20.0
85,81.0
86,37.0
87,-4.0
88,9.5
89,35.5
90,34.0
91,28.5
92,-13.0
93,21.0
94,28.0
95,59.0
96,49.0
97,0.0
98,34.0
99,43.83333333333333
100,53.666666666666664
101,12.0
102,9.0
103,11.0
104,10.5
105,37.0
106,26.0
107,-13.0
108,22.0
109,45.0
110,61.0
111,17.0
112,35.0
113,17.5
114,50.0
115,45.0
116,-2.0
117,45.0
118,57.0
119,-33.0
120,-14.0
121,9.0
122,2.0
123,5.0
124,8.0
125,11.0
126,29.0
127,66.0
128,67.0
129,42.5
130,0.0
131,20.0
132,23.5
133,29.0
134,-20.0
135,-29.0
136,14.0
137,86.0
138,61.0
139,46.0
140,43.0
141,40.0
142,50.0
143,31.0
144,-27.0
145,1.0
146,55.5
147,98.0
148,45.0
149,-2.0
150,-2.0
151,44.0
152,-4.0
153,25.0
154,-24.0
155,-4.0
156,125.0
157,-25.0
158,76.0
159,13.0
160,25.0
161,13.5
162,32.0
163,-18.0
164,36.0
165,53.5
166,-20.0
167,-39.0
168,22.0
169,3.0
170,21.5
171,4.0
172,-38.0
173,12.0
174,21.0
175,34.0
176,-19.0
177,13.0
178,22.5
179,116.0
180,73.5
181,16.0
182,-15.0
183,57.0
184,32.0
185,58.0
186,-1.0
187,14.5
188,38.0
189,66.0
190,39.0
191,24.0
192,28.0
193,128.0
194,-12.0
195,65.0
196,-7.0
197,6.0
198,63.0
199,-40.0
