time_range,Acceleration_Y
0,72.0
1,37.0
2,45.0
3,32.0
4,19.0
5,18.5
6,86.5
7,104.0
8,12.0
9,162.0
10,57.0
11,33.0
12,-142.0
13,-36.5
14,7.0
15,99.0
16,30.0
17,234.0
18,2.0
19,69.0
20,-17.0
21,-11.5
22,-6.0
23,61.0
24,36.0
25,174.0
26,68.0
27,69.5
28,-85.0
29,-16.0
30,-55.0
31,-10.5
32,73.0
33,175.0
34,51.0
35,57.0
36,147.0
37,-49.0
38,-1.0
39,60.0
40,59.66666666666667
41,59.333333333333336
42,110.0
43,78.5
44,35.0
45,-25.0
46,-56.0
47,29.0
48,114.0
49,61.0
50,53.5
51,46.0
52,65.33333333333333
53,54.0
54,-25.0
55,76.0
56,-29.0
57,67.0
58,46.0
59,128.0
60,56.5
61,24.0
62,-116.0
63,31.0
64,46.5
65,105.0
66,45.0
67,170.0
68,116.5
69,45.0
70,-153.0
71,70.0
72,-41.0
73,109.0
74,63.0
75,209.0
76,13.0
77,60.0
78,-42.0
79,44.0
80,41.0
81,56.0
82,67.0
83,150.0
84,85.0
85,-42.5
86,-45.5
87,12.0
88,-3.5
89,104.0
90,154.0
91,103.0
92,45.0
93,142.0
94,-61.0
95,58.0
96,83.0
97,112.0
98,35.0
99,135.0
100,10.0
101,24.5
102,6.0
103,19.0
104,-54.5
105,58.0
106,10.5
107,77.0
108,48.0
109,205.0
110,115.0
111,22.0
112,-2.0
113,99.0
114,47.5
115,72.0
116,32.0
117,159.0
118,-41.0
119,0.0
120,-110.0
121,30.0
122,-1.0
123,55.625
124,112.25
125,23.0
126,43.5
127,64.0
128,95.0
129,-73.0
130,19.0
131,45.0
132,140.0
133,25.0
134,36.0
135,-22.0
136,-5.0
137,-17.0
138,1.0
139,23.5
140,166.0
141,123.0
142,121.11111111111111
143,119.22222222222221
144,117.33333333333333
145,-70.0
146,27.0
147,191.0
148,24.0
149,134.0
150,80.0
151,104.0
152,59.75
153,15.5
154,-150.0
155,72.0
156,97.0
157,80.0
158,48.5
159,263.0
160,-10.0
161,-56.0
162,1.0
163,34.0
164,14.0
165,58.666666666666664
166,121.0
167,66.83333333333334
168,12.666666666666666
169,-92.0
170,-22.0
171,20.0
172,99.0
173,41.0
174,209.0
175,65.0
176,89.0
177,-170.0
178,93.0
179,-46.0
180,83.0
181,79.0
182,254.0
183,118.0
184,48.0
185,-34.0
186,31.0
187,-37.0
188,61.0
189,48.0
190,148.0
191,73.0
192,51.0
193,-36.5
194,1.0
195,15.0
196,36.0
197,102.0
198,203.0
199,85.0
