time_range,Acceleration_Y
0,130.0
1,72.0
2,52.0
3,128.0
4,-2.0
5,32.0
6,47.0
7,144.0
8,31.0
9,125.0
10,-13.0
11,125.0
12,-26.0
13,35.0
14,-143.0
15,-30.5
16,13.5
17,7.5
18,13.0
19,248.0
20,-24.0
21,68.0
22,-26.0
23,79.0
24,-11.0
25,82.0
26,61.0
27,157.0
28,-18.0
29,56.0
30,-21.0
31,12.0
32,-36.0
33,99.0
34,78.0
35,96.0
36,38.0
37,-20.0
38,82.0
39,-25.0
40,98.0
41,77.83333333333333
42,57.666666666666664
43,-11.0
44,75.0
45,-37.0
46,48.0
47,22.0
48,63.0
49,52.0
50,87.5
51,89.0
52,34.0
53,153.0
54,13.0
55,4.0
56,-5.0
57,91.0
58,28.0
59,79.0
60,79.0
61,121.0
62,-48.0
63,9.5
64,-132.0
65,133.0
66,8.0
67,61.0
68,-3.0
69,191.0
70,11.0
71,55.0
72,-154.0
73,102.0
74,-68.0
75,78.0
76,134.0
77,83.0
78,32.0
79,6.0
80,105.0
81,-2.0
82,35.5
83,43.0
84,159.0
85,-11.0
86,36.0
87,-113.0
88,17.0
89,-18.0
90,24.0
91,-29.0
92,185.0
93,75.0
94,44.0
95,37.5
96,31.0
97,24.5
98,97.0
99,86.83333333333334
100,76.66666666666667
101,89.0
102,59.0
103,-86.0
104,25.0
105,-8.0
106,-45.0
107,43.0
108,188.0
109,132.5
110,41.0
111,90.5
112,-1.0
113,-20.0
114,-6.0
115,117.0
116,19.0
117,74.33333333333333
118,140.0
119,-61.0
120,63.0
121,-163.0
122,101.0
123,28.0
124,101.0
125,54.0
126,231.0
127,14.0
128,17.0
129,-43.5
130,-8.0
131,12.0
132,63.0
133,25.0
134,214.0
135,20.0
136,71.0
137,-91.0
138,-24.0
139,23.0
140,97.0
141,11.0
142,91.0
143,63.0
144,49.0
145,-157.0
146,21.0
147,-7.0
148,42.0
149,141.0
150,210.0
151,31.0
152,70.0
153,117.0
154,-67.0
155,-3.5
156,16.333333333333332
157,36.166666666666664
158,56.0
159,37.0
160,-30.0
161,36.0
162,-12.0
163,-5.5
164,90.0
165,179.0
166,98.0
167,12.0
168,138.0
169,-31.0
170,31.0
171,26.5
172,119.0
173,17.0
174,115.0
175,70.0
176,118.0
177,-23.0
178,49.0
179,-162.0
180,82.0
181,42.0
182,95.0
183,4.0
184,242.0
185,-22.0
186,82.0
187,-61.0
188,8.5
189,-76.0
190,95.0
191,32.0
192,178.0
193,13.0
194,72.0
195,-100.0
196,26.0
197,-29.0
198,-29.0
199,49.0
