time_range,Acceleration_Y
0,-58.0
1,63.0
2,132.0
3,6.0
4,-25.0
5,70.0
6,-19.0
7,5.5
8,2.0
9,-107.0
10,21.0
11,171.0
12,74.0
13,20.0
14,202.0
15,24.0
16,-47.0
17,-15.0
18,114.0
19,37.0
20,95.0
21,52.0
22,125.5
23,-9.0
24,25.5
25,-164.0
26,138.0
27,-10.0
28,43.5
29,-32.0
30,244.0
31,-22.0
32,39.0
33,-154.0
34,134.0
35,87.11111111111111
36,40.22222222222223
37,-6.666666666666667
38,129.5
39,97.25
40,65.0
41,-11.5
42,13.0
43,72.0
44,34.5
45,174.0
46,82.0
47,74.0
48,-104.0
49,47.0
50,-35.0
51,0.0
52,0.0
53,87.0
54,64.75
55,42.5
56,147.0
57,54.0
58,-77.0
59,88.0
60,69.0
61,42.0
62,83.0
63,56.0
64,-69.0
65,59.0
66,-40.0
67,-45.0
68,106.0
69,128.0
70,56.0
71,49.0
72,129.0
73,7.0
74,-39.0
75,-19.0
76,122.0
77,28.0
78,66.5
79,103.0
80,90.16666666666666
81,77.33333333333333
82,-50.0
83,81.0
84,26.0
85,107.0
86,39.5
87,290.0
88,-8.0
89,-32.25
90,-56.5
91,107.0
92,-79.0
93,101.0
94,35.0
95,203.0
96,5.0
97,77.0
98,-101.0
99,-38.0
100,20.0
101,81.0
102,13.0
103,154.0
104,113.0
105,53.0
106,-127.0
107,-46.0
108,-35.0
109,19.0
110,120.0
111,254.0
112,0.0
113,49.0
114,81.0
115,-18.0
116,55.0
117,60.5
118,115.0
119,83.5
120,-8.0
121,-131.0
122,35.0
123,-27.0
124,-34.0
125,115.0
126,-12.0
127,105.0
128,66.0
129,163.0
130,-20.0
131,59.0
132,31.0
133,132.0
134,11.0
135,102.0
136,-17.0
137,50.0
138,117.0
139,28.5
140,-60.0
141,88.0
142,-52.0
143,17.0
144,28.5
145,297.0
146,-13.0
147,86.0
148,-40.0
149,136.0
150,-55.0
151,70.0
152,15.0
153,130.0
154,11.0
155,50.0
156,-103.0
157,12.0
158,1.0
159,53.0
160,84.0
161,137.0
162,54.0
163,-171.0
164,55.0
165,9.5
166,28.0
167,130.0
168,0.0
169,3.0
170,54.0
171,92.0
172,-16.0
173,81.0
174,87.5
175,23.0
176,84.0
177,60.0
178,24.0
179,246.0
180,27.0
181,27.0
182,21.5
183,101.0
184,3.0
185,87.0
186,41.0
187,112.0
188,-35.0
189,47.0
190,-104.0
191,10.0
192,17.0
193,67.5
194,0.0
195,93.0
196,-7.0
197,57.0
198,-65.5
199,17.0
