time_range,Acceleration_Y
0,-38.666666666666664
1,-229.0
2,0.0
3,221.0
4,218.0
5,221.0
6,197.0
7,71.0
8,-142.0
9,-203.0
10,-222.0
11,20.0
12,295.0
13,203.0
14,116.0
15,202.5
16,-83.0
17,-35.0
18,-192.0
19,118.0
20,120.25
21,122.5
22,255.0
23,222.0
24,38.0
25,-113.0
26,-115.0
27,-100.0
28,-263.0
29,238.0
30,188.0
31,245.0
32,131.5
33,18.0
34,-86.0
35,-116.0
36,-177.0
37,73.0
38,276.5
39,205.0
40,133.5
41,-27.0
42,-99.0
43,-231.0
44,229.0
45,210.0
46,334.0
47,236.0
48,125.0
49,-124.0
50,-67.0
51,-240.0
52,-181.0
53,130.0
54,134.0
55,31.0
56,35.0
57,169.0
58,-144.0
59,-127.0
60,54.0
61,225.0
62,195.0
63,228.0
64,168.0
65,84.5
66,-90.0
67,-195.0
68,-224.0
69,24.0
70,-147.0
71,167.0
72,161.0
73,355.0
74,-76.0
75,3.0
76,-280.0
77,56.0
78,-13.0
79,223.5
80,247.0
81,106.0
82,-132.0
83,-163.0
84,-86.0
85,-244.0
86,238.0
87,247.5
88,364.0
89,38.0
90,40.5
91,-271.0
92,-219.16666666666669
93,-167.33333333333334
94,79.0
95,250.0
96,233.0
97,4.0
98,24.0
99,-29.0
100,-144.0
101,-213.0
102,196.0
103,215.0
104,340.0
105,251.5
106,101.0
107,273.0
108,87.5
109,-198.0
110,-170.0
111,155.0
112,107.0
113,18.0
114,51.0
115,213.0
116,-170.0
117,-49.5
118,79.25
119,208.0
120,223.0
121,192.0
122,354.0
123,119.5
124,-115.0
125,-260.0
126,35.0
127,-50.0
128,134.0
129,120.0
130,309.0
131,-80.0
132,-52.0
133,-82.0
134,-0.25
135,81.5
136,257.0
137,225.0
138,325.0
139,-164.0
140,-158.5
141,-153.0
142,-134.0
143,-314.0
144,255.0
145,285.0
146,325.0
147,157.5
148,15.0
149,156.0
150,-1.0
151,-236.0
152,116.0
153,164.0
154,263.0
155,-82.0
156,-33.5
157,-38.0
158,-101.0
159,-270.0
160,-23.0
161,348.0
162,215.0
163,85.0
164,280.0
165,-90.0
166,-247.0
167,-205.0
168,64.0
169,127.0
170,54.0
171,31.0
172,148.0
173,-182.0
174,-156.0
175,-244.0
176,261.0
177,253.0
178,255.0
179,326.5
180,363.0
181,-157.0
182,-242.0
183,-355.0
184,29.0
185,-124.0
186,180.0
187,146.0
188,323.0
189,-93.0
190,-32.0
191,-66.0
192,115.0
193,-33.0
194,245.0
195,247.0
196,283.5
197,-176.0
198,-93.0
199,-135.0
