time_range,Acceleration_Y
0,-165.0
1,-29.0
2,12.0
3,110.0
4,160.0
5,199.0
6,99.0
7,25.0
8,8.0
9,17.0
10,-132.0
11,-159.0
12,-107.0
13,20.0
14,75.0
15,245.0
16,195.0
17,125.0
18,29.0
19,-52.0
20,-84.0
21,-100.0
22,19.5
23,-5.0
24,47.0
25,91.5
26,136.0
27,135.5
28,20.0
29,-47.0
30,-91.0
31,-117.66666666666667
32,-101.5
33,0.0
34,9.0
35,81.33333333333333
36,153.66666666666666
37,91.0
38,14.0
39,0.0
40,-5.0
41,-136.0
42,-67.0
43,-29.0
44,14.5
45,58.0
46,152.0
47,151.0
48,81.0
49,43.6
50,6.200000000000003
51,-31.2
52,-122.0
53,-103.75
54,-85.5
55,56.333333333333336
56,16.5
57,240.0
58,144.0
59,-57.0
60,-6.0
61,0.0
62,-153.0
63,-119.5
64,52.5
65,19.0
66,241.0
67,113.0
68,67.0
69,20.0
70,15.0
71,125.0
72,-163.0
73,-28.0
74,0.5
75,40.0
76,-18.0
77,97.5
78,58.0
79,52.0
80,-29.0
81,42.0
82,-123.0
83,-63.5
84,37.0
85,69.0
86,-18.0
87,-66.0
88,162.0
89,82.5
90,3.0
91,5.0
92,110.0
93,-127.0
94,17.0
95,42.0
96,41.0
97,-67.0
98,-74.0
99,22.0
100,19.0
101,0.0
102,54.0
103,22.333333333333332
104,37.0
105,70.0
106,27.0
107,-103.0
108,89.0
109,44.0
110,-34.0
111,-29.0
112,84.0
113,98.0
114,46.0
115,41.83333333333333
116,37.666666666666664
117,-56.0
118,-81.0
119,39.0
120,1.0
121,-24.5
122,3.0
123,20.0
124,5.0
125,95.0
126,101.5
127,-60.0
128,-111.0
129,55.0
130,34.0
131,-7.5
132,14.0
133,112.0
134,84.0
135,-64.0
136,57.0
137,19.75
138,-17.5
139,-15.0
140,160.0
141,20.0
142,50.0
143,55.0
144,28.0
145,4.0
146,-23.0
147,27.5
148,-89.0
149,18.0
150,129.0
151,-48.0
152,9.0
153,80.0
154,-12.0
155,-4.0
156,-153.0
157,-67.5
158,-60.0
159,-1.0
160,153.0
161,196.0
162,5.0
163,49.0
164,63.0
165,-22.0
166,-90.0
167,68.0
168,-36.0
169,-97.0
170,101.0
171,209.0
172,22.0
173,43.0
174,97.0
175,113.0
176,-87.0
177,-239.0
178,-11.0
179,-45.0
180,2.0
181,212.0
182,258.0
183,101.0
184,77.5
185,54.0
186,22.666666666666668
187,-26.0
188,-39.0
189,-110.0
190,-17.5
191,75.0
192,217.0
193,61.0
194,75.5
195,28.0
196,-112.0
197,-166.0
198,-63.0
199,-94.5
