time_range,Acceleration_Y
0,-43.0
1,-51.0
2,-60.0
3,-51.0
4,73.0
5,143.0
6,159.0
7,143.5
8,116.0
9,97.0
10,107.0
11,28.0
12,-5.5
13,0.0
14,-24.0
15,30.0
16,63.25
17,96.5
18,113.0
19,69.0
20,51.0
21,16.0
22,-17.0
23,-64.0
24,-18.0
25,76.0
26,131.0
27,131.0
28,128.5
29,147.0
30,-25.0
31,75.0
32,21.0
33,-28.0
34,-23.0
35,-48.0
36,32.0
37,122.5
38,96.0
39,73.0
40,53.5
41,-27.0
42,-74.0
43,-76.0
44,-58.0
45,44.0
46,152.0
47,149.0
48,118.0
49,112.5
50,-23.0
51,94.0
52,21.0
53,-4.5
54,-27.0
55,-12.0
56,32.0
57,76.5
58,134.0
59,122.0
60,94.5
61,32.0
62,-24.0
63,-3.0
64,-74.0
65,-28.0
66,6.5
67,26.0
68,126.0
69,132.0
70,86.0
71,-33.0
72,-34.0
73,-16.0
74,-60.0
75,-22.0
76,-19.0
77,26.0
78,3.0
79,122.0
80,92.5
81,51.0
82,45.5
83,-30.0
84,-38.0
85,-46.0
86,-54.0
87,-8.399999999999999
88,37.2
89,82.8
90,43.0
91,-33.0
92,-24.0
93,20.0
94,-19.0
95,-47.0
96,16.0
97,38.0
98,12.0
99,38.5
100,65.0
101,68.0
102,44.0
103,54.0
104,14.0
105,-89.0
106,-1.0
107,67.0
108,52.0
109,124.0
110,152.0
111,40.0
112,-30.0
113,-82.0
114,48.0
115,86.0
116,-14.5
117,-6.0
118,36.0
119,60.666666666666664
120,85.33333333333333
121,33.0
122,29.5
123,14.0
124,59.0
125,19.0
126,37.0
127,47.0
128,62.0
129,87.0
130,74.0
131,-29.0
132,-34.5
133,-61.0
134,82.0
135,103.0
136,80.0
137,52.0
138,28.0
139,36.0
140,58.0
141,38.0
142,54.0
143,15.0
144,34.0
145,55.5
146,32.0
147,62.0
148,60.0
149,95.0
150,84.0
151,111.0
152,163.0
153,-37.0
154,-27.0
155,91.0
156,121.0
157,93.0
158,5.0
159,9.0
160,33.5
161,69.0
162,11.0
163,32.0
164,31.0
165,32.0
166,41.0
167,-53.0
168,42.0
169,84.0
170,123.0
171,110.0
172,131.5
173,-7.0
174,-12.5
175,53.0
176,125.0
177,73.0
178,-12.0
179,20.0
180,0.0
181,54.0
182,45.0
183,131.0
184,33.0
185,42.0
186,52.0
187,33.5
188,15.0
189,44.0
190,73.0
191,111.0
192,95.0
193,140.0
194,90.0
195,-17.0
196,86.0
197,101.0
198,81.0
199,-9.0
