time_range,Acceleration_Y
0,-33.0
1,147.0
2,252.0
3,225.0
4,162.0
5,52.0
6,-93.0
7,-217.0
8,-153.5
9,26.0
10,180.0
11,336.0
12,318.0
13,200.25
14,82.5
15,5.0
16,79.0
17,-4.0
18,-158.0
19,-99.0
20,-95.0
21,-21.0
22,104.0
23,281.0
24,152.0
25,149.0
26,-18.0
27,-195.0
28,-431.0
29,-431.0
30,148.5
31,224.0
32,371.0
33,383.0
34,63.0
35,3.0
36,90.0
37,-52.0
38,-142.0
39,-122.25
40,-102.5
41,67.0
42,152.0
43,265.0
44,264.5
45,149.0
46,76.5
47,-130.0
48,-234.0
49,-377.0
50,83.0
51,275.0
52,348.0
53,404.0
54,325.0
55,188.0
56,25.0
57,39.0
58,-15.0
59,-203.0
60,-240.0
61,-14.0
62,53.0
63,123.5
64,260.0
65,269.0
66,65.0
67,-56.0
68,-212.5
69,-369.0
70,-306.0
71,237.0
72,308.0
73,454.0
74,384.5
75,242.0
76,58.0
77,28.0
78,-87.0
79,-119.0
80,-91.33333333333333
81,-63.666666666666664
82,-36.0
83,186.0
84,295.0
85,255.0
86,271.0
87,-82.0
88,-163.0
89,-317.0
90,-318.0
91,-275.0
92,250.0
93,354.0
94,382.0
95,292.0
96,226.0
97,81.0
98,79.0
99,-104.0
100,-150.0
101,-195.0
102,-190.0
103,115.0
104,288.0
105,283.0
106,237.5
107,205.0
108,9.5
109,-345.0
110,-328.0
111,-233.0
112,-175.0
113,-79.5
114,90.75
115,261.0
116,221.0
117,40.0
118,-55.0
119,-90.0
120,-149.0
121,-135.0
122,-149.0
123,-150.0
124,64.5
125,267.0
126,263.0
127,193.0
128,195.0
129,123.0
130,-384.0
131,-311.0
132,-175.0
133,-134.0
134,-19.0
135,305.0
136,200.0
137,123.0
138,74.0
139,56.0
140,65.0
141,-173.0
142,-153.0
143,-96.0
144,-147.0
145,-132.0
146,189.0
147,236.0
148,182.0
149,120.25
150,58.5
151,-244.0
152,-166.0
153,-57.0
154,95.0
155,280.0
156,184.0
157,63.0
158,51.75
159,40.5
160,49.5
161,57.0
162,-74.0
163,-185.0
164,-53.0
165,-49.5
166,154.0
167,252.0
168,204.0
169,153.0
170,154.0
171,-8.0
172,-198.0
173,-113.0
174,-12.0
175,152.0
176,276.0
177,323.0
178,343.0
179,200.5
180,90.0
181,89.0
182,-11.0
183,-61.5
184,-112.0
185,-86.0
186,42.0
187,196.0
188,235.5
189,195.0
190,91.0
191,-51.0
192,-153.5
193,-343.0
194,-138.0
195,63.5
196,265.0
197,392.0
198,317.0
199,87.0
