time_range,Acceleration_Y
0,47.4
1,22.5
2,51.0
3,32.0
4,47.0
5,40.0
6,53.0
7,66.0
8,44.5
9,45.0
10,20.0
11,0.0
12,15.75
13,31.5
14,40.0
15,34.0
16,40.0
17,44.0
18,50.5
19,50.0
20,9.0
21,49.0
22,46.0
23,42.0
24,23.0
25,36.0
26,24.0
27,114.0
28,64.0
29,29.5
30,50.75
31,72.0
32,53.5
33,45.25
34,37.0
35,46.5
36,56.0
37,25.0
38,65.0
39,30.0
40,67.0
41,46.0
42,-2.0
43,24.0
44,71.0
45,26.0
46,85.0
47,21.0
48,36.0
49,40.0
50,64.0
51,45.0
52,-2.0
53,16.0
54,37.0
55,20.0
56,71.0
57,70.125
58,69.25
59,68.375
60,67.5
61,97.5
62,46.0
63,18.666666666666668
64,45.0
65,58.0
66,44.0
67,4.0
68,32.0
69,115.0
70,28.0
71,35.0
72,36.0
73,36.0
74,35.5
75,10.0
76,28.0
77,23.0
78,105.0
79,49.0
80,48.0
81,29.0
82,48.5
83,68.0
84,56.0
85,-8.0
86,42.0
87,25.0
88,98.0
89,52.0
90,42.0
91,82.0
92,90.0
93,57.0
94,56.0
95,25.5
96,35.0
97,56.0
98,101.0
99,53.0
100,5.0
101,95.0
102,54.0
103,55.0
104,18.0
105,14.0
106,37.0
107,40.0
108,2.0
109,33.5
110,118.0
111,29.0
112,47.5
113,66.0
114,78.0
115,30.333333333333332
116,45.0
117,-15.0
118,68.0
119,36.0
120,57.25
121,78.5
122,65.0
123,45.0
124,45.5
125,49.0
126,55.0
127,-15.0
128,59.0
129,12.0
130,118.0
131,44.0
132,69.0
133,52.0
134,81.0
135,52.0
136,60.0
137,-11.0
138,52.0
139,35.0
140,30.0
141,35.0
142,67.0
143,90.0
144,63.0
145,60.0
146,-5.0
147,1.5
148,55.0
149,30.0
150,46.0
151,40.0
152,32.0
153,48.333333333333336
154,51.0
155,-1.0
156,82.0
157,48.0
158,23.0
159,32.0
160,49.0
161,56.16666666666667
162,63.333333333333336
163,42.0
164,53.0
165,-8.0
166,80.0
167,46.0
168,36.0
169,18.0
170,51.0
171,22.0
172,104.0
173,14.0
174,63.0
175,-12.0
176,34.0
177,59.0
178,24.0
179,0.0
180,32.5
181,21.0
182,79.0
183,11.0
184,34.0
185,25.0
186,68.0
187,42.0
188,10.0
189,6.0
190,17.0
191,17.0
192,91.0
193,21.0
194,104.0
195,64.0
196,43.0
197,22.0
198,40.0
199,37.0
