time_range,Acceleration_Y
0,79.0
1,20.0
2,71.0
3,61.0
4,20.0
5,70.0
6,36.0
7,69.0
8,40.0
9,75.0
10,57.5
11,62.0
12,36.0
13,53.0
14,72.0
15,17.0
16,46.0
17,23.0
18,31.0
19,31.0
20,54.0
21,70.0
22,12.0
23,33.0
24,3.0
25,69.0
26,39.0
27,93.0
28,4.0
29,17.0
30,42.0
31,36.0
32,47.0
33,33.0
34,74.0
35,39.0
36,28.0
37,85.0
38,48.0
39,32.0
40,68.0
41,32.0
42,46.5
43,29.0
44,73.0
45,66.5
46,10.0
47,42.0
48,58.0
49,72.0
50,47.0
51,95.0
52,-4.0
53,57.0
54,42.0
55,48.0
56,55.0
57,24.0
58,48.0
59,3.0
60,74.0
61,36.0
62,73.0
63,0.0
64,14.5
65,14.0
66,19.0
67,69.0
68,47.0
69,85.0
70,-5.0
71,21.0
72,26.4
73,31.8
74,37.2
75,42.6
76,48.0
77,35.333333333333336
78,35.16666666666667
79,35.0
80,73.66666666666667
81,19.0
82,35.0
83,39.0
84,64.0
85,39.0
86,83.0
87,58.0
88,55.0
89,49.5
90,57.0
91,65.0
92,29.0
93,34.5
94,12.0
95,65.0
96,38.0
97,45.0
98,-6.0
99,18.0
100,44.0
101,32.5
102,61.0
103,24.0
104,84.0
105,6.0
106,48.0
107,32.0
108,34.0
109,45.0
110,18.0
111,44.0
112,-1.0
113,46.0
114,57.0
115,97.0
116,39.5
117,47.0
118,51.5
119,60.0
120,50.5
121,74.0
122,59.5
123,52.0
124,36.0
125,75.0
126,69.0
127,20.0
128,87.0
129,6.0
130,54.0
131,40.0
132,64.0
133,66.0
134,21.0
135,28.0
136,53.0
137,73.0
138,30.0
139,54.0
140,-7.0
141,38.0
142,16.0
143,23.0
144,52.0
145,32.0
146,51.0
147,-8.0
148,64.0
149,24.0
150,77.0
151,46.0
152,34.5
153,47.0
154,-22.0
155,66.0
156,55.0
157,40.75
158,26.5
159,33.5
160,45.0
161,72.0
162,28.0
163,64.0
164,-6.0
165,67.0
166,44.0
167,54.0
168,59.0
169,13.0
170,35.0
171,27.0
172,40.33333333333333
173,53.666666666666664
174,74.0
175,35.0
176,-4.0
177,11.166666666666666
178,26.333333333333332
179,41.5
180,21.0
181,67.0
182,12.0
183,35.0
184,34.0
185,58.5
186,48.0
187,15.0
188,72.0
189,29.5
190,56.0
191,14.0
192,90.0
193,48.0
194,18.0
195,40.0
196,37.0
197,73.0
198,24.0
199,42.0
