time_range,Acceleration_Y
0,47.0
1,5.0
2,16.5
3,28.0
4,39.5
5,44.0
6,34.0
7,24.0
8,29.5
9,114.0
10,-22.0
11,69.0
12,40.0
13,20.0
14,35.0
15,5.0
16,106.0
17,-20.0
18,69.0
19,1.0
20,116.0
21,47.0
22,-4.0
23,80.0
24,32.0
25,53.0
26,0.0
27,101.0
28,32.0
29,86.0
30,22.0
31,38.0
32,86.0
33,-8.0
34,105.0
35,0.0
36,98.0
37,12.0
38,54.0
39,26.0
40,57.0
41,31.0
42,44.5
43,58.0
44,111.0
45,-27.0
46,58.0
47,19.0
48,29.0
49,64.0
50,29.0
51,91.0
52,-20.0
53,82.0
54,25.0
55,109.0
56,38.0
57,0.0
58,32.5
59,15.0
60,78.0
61,6.0
62,48.5
63,13.0
64,15.5
65,5.0
66,58.0
67,51.0
68,2.0
69,106.0
70,48.5
71,99.0
72,-4.0
73,71.0
74,52.0
75,-3.0
76,45.0
77,8.0
78,84.0
79,38.0
80,62.5
81,74.0
82,47.0
83,20.0
84,94.0
85,-8.0
86,77.0
87,-34.0
88,82.0
89,29.0
90,36.0
91,24.0
92,3.0
93,14.5
94,26.0
95,12.0
96,-20.0
97,89.0
98,18.0
99,24.0
100,39.5
101,26.5
102,43.0
103,-9.0
104,99.0
105,55.75
106,12.5
107,0.0
108,36.5
109,73.0
110,-4.0
111,101.0
112,22.0
113,78.0
114,-1.0
115,85.0
116,64.5
117,85.0
118,38.0
119,101.0
120,-16.0
121,90.0
122,-14.0
123,84.0
124,61.0
125,39.0
126,70.0
127,15.0
128,54.0
129,-16.0
130,95.0
131,29.0
132,92.0
133,16.0
134,31.0
135,54.0
136,-9.0
137,53.0
138,1.0
139,92.0
140,-4.0
141,32.0
142,28.0
143,62.0
144,39.0
145,18.0
146,77.0
147,-5.0
148,71.0
149,-3.0
150,67.0
151,38.0
152,14.0
153,39.0
154,35.0
155,37.0
156,-8.0
157,65.0
158,40.5
159,72.0
160,42.0
161,58.0
162,-11.0
163,72.0
164,-22.0
165,82.0
166,23.0
167,40.0
168,29.0
169,23.0
170,45.0
171,7.0
172,83.0
173,1.0
174,91.0
175,-9.0
176,53.0
177,56.5
178,60.0
179,34.0
180,6.0
181,109.0
182,-10.0
183,27.0
184,-17.0
185,90.0
186,40.0
187,20.0
188,116.0
189,11.0
190,89.0
191,-20.0
192,102.0
193,42.0
194,83.0
195,60.83333333333333
196,38.666666666666664
197,87.0
198,39.5
199,60.0
