time_range,Acceleration_Y
0,-20.0
1,263.0
2,-28.0
3,135.0
4,13.5
5,215.0
6,54.0
7,184.0
8,-1.0
9,30.0
10,143.0
11,-43.0
12,100.0
13,-118.0
14,186.0
15,0.0
16,67.0
17,101.5
18,77.5
19,60.0
20,-43.0
21,164.0
22,-25.0
23,189.0
24,-134.0
25,67.0
26,48.0
27,-63.0
28,90.0
29,-57.0
30,247.0
31,-142.0
32,135.0
33,32.0
34,103.0
35,91.66666666666667
36,80.33333333333333
37,69.0
38,41.333333333333336
39,-85.0
40,-20.5
41,44.0
42,108.5
43,32.666666666666664
44,40.0
45,140.0
46,26.5
47,65.5
48,-18.0
49,193.0
50,81.5
51,86.0
52,117.0
53,-77.0
54,-18.0
55,-35.0
56,191.0
57,-96.0
58,131.0
59,63.0
60,108.0
61,16.0
62,-37.0
63,183.0
64,-65.0
65,165.0
66,-168.0
67,142.0
68,-7.0
69,-14.0
70,136.0
71,-67.0
72,113.0
73,-10.5
74,205.0
75,27.0
76,62.0
77,52.0
78,42.0
79,-80.0
80,78.0
81,-97.0
82,193.0
83,-102.0
84,-70.66666666666667
85,-39.333333333333336
86,123.0
87,60.0
88,-53.0
89,225.0
90,42.0
91,148.0
92,-67.0
93,182.0
94,85.0
95,7.0
96,54.0
97,19.0
98,114.0
99,-63.0
100,62.5
101,32.0
102,153.0
103,11.0
104,72.0
105,97.0
106,-73.0
107,65.0
108,-65.0
109,159.0
110,5.0
111,91.0
112,-125.0
113,63.5
114,-47.0
115,-47.0
116,105.0
117,241.0
118,-157.0
119,106.0
120,37.0
121,-33.0
122,47.0
123,-81.0
124,206.0
125,36.0
126,147.0
127,-78.0
128,203.0
129,120.5
130,-77.0
131,34.0
132,-164.0
133,158.0
134,-28.0
135,211.0
136,23.0
137,17.166666666666668
138,11.333333333333334
139,5.5
140,108.0
141,-66.0
142,22.333333333333343
143,110.66666666666667
144,203.0
145,-57.0
146,19.0
147,87.0
148,5.5
149,50.0
150,-38.0
151,198.0
152,-51.0
153,143.0
154,-25.5
155,130.0
156,38.0
157,54.333333333333336
158,70.66666666666667
159,161.0
160,-121.0
161,164.0
162,91.5
163,-13.0
164,7.0
165,12.833333333333334
166,18.666666666666668
167,-137.0
168,162.0
169,57.5
170,203.0
171,-62.0
172,-25.0
173,54.0
174,78.5
175,84.0
176,-53.0
177,213.0
178,-106.0
179,64.0
180,-90.0
181,132.0
182,42.0
183,-97.0
184,223.0
185,-64.0
186,-3.5
187,57.0
188,178.0
189,65.0
190,-105.0
191,36.0
192,17.0
193,147.0
194,-82.0
195,210.0
196,-95.0
197,97.5
198,87.25
199,77.0
