time_range,Acceleration_Y
0,-40.0
1,196.0
2,-55.0
3,203.0
4,225.0
5,-242.0
6,339.0
7,-242.0
8,320.0
9,-129.0
10,230.0
11,143.5
12,-168.0
13,-121.0
14,-93.5
15,125.5
16,-203.0
17,66.5
18,-34.0
19,105.5
20,-82.0
21,151.0
22,207.0
23,-205.0
24,366.0
25,-303.0
26,356.0
27,-138.0
28,203.0
29,-208.0
30,-125.0
31,-40.0
32,272.0
33,-136.0
34,364.0
35,192.0
36,253.0
37,-90.0
38,113.0
39,161.5
40,-200.0
41,303.0
42,248.66666666666669
43,194.33333333333334
44,140.0
45,85.66666666666667
46,141.0
47,-164.0
48,-129.0
49,-41.66666666666667
50,45.666666666666664
51,71.0
52,375.0
53,-28.0
54,231.0
55,-73.0
56,144.0
57,179.0
58,-137.0
59,352.0
60,-244.0
61,312.0
62,-150.0
63,231.0
64,116.0
65,-43.5
66,-34.0
67,-158.0
68,264.0
69,-141.0
70,192.5
71,231.0
72,-71.0
73,108.0
74,203.0
75,-168.0
76,353.0
77,-199.0
78,334.0
79,-138.0
80,215.0
81,122.0
82,-220.0
83,343.0
84,-139.0
85,246.0
86,-95.0
87,369.0
88,54.0
89,-154.0
90,-132.0
91,141.0
92,209.0
93,-139.0
94,342.0
95,-110.0
96,342.0
97,-177.0
98,44.5
99,212.0
100,-114.0
101,322.0
102,-139.0
103,248.0
104,-105.0
105,365.0
106,30.0
107,-199.0
108,-31.0
109,-12.166666666666668
110,6.666666666666667
111,354.0
112,-136.0
113,320.0
114,67.5
115,59.08333333333333
116,50.666666666666664
117,-191.0
118,346.0
119,-208.0
120,295.0
121,-115.0
122,346.0
123,266.6666666666667
124,187.33333333333334
125,108.0
126,62.333333333333336
127,16.66666666666667
128,-29.0
129,60.0
130,-80.0
131,305.0
132,-135.0
133,145.0
134,196.0
135,-189.0
136,347.0
137,-252.0
138,283.0
139,-158.0
140,326.0
141,113.0
142,-207.0
143,-85.0
144,-63.0
145,211.0
146,150.33333333333334
147,89.66666666666667
148,29.0
149,288.0
150,69.5
151,97.0
152,0.5
153,354.0
154,-295.0
155,306.0
156,-160.0
157,298.0
158,137.0
159,-220.0
160,-133.0
161,-131.0
162,26.5
163,-98.0
164,-98.0
165,-130.0
166,-10.0
167,-102.0
168,57.0
169,55.2
170,53.4
171,51.6
172,49.8
173,48.0
174,46.2
175,44.4
176,42.6
177,40.8
178,39.0
179,37.2
180,35.4
181,33.599999999999994
182,31.8
183,30.0
184,27.0
185,24.0
186,31.0
187,25.0
188,30.0
189,25.0
190,25.0
191,25.0
192,25.0
193,25.0
194,25.0
195,25.0
196,25.0
197,25.0
198,25.0
199,25.0
