time_range,Acceleration_Y
0,39.333333333333336
1,-9.0
2,77.0
3,-317.0
4,324.0
5,-197.0
6,279.0
7,-118.0
8,-79.0
9,163.0
10,127.0
11,159.0
12,-192.0
13,359.0
14,-246.0
15,88.5
16,-187.0
17,293.0
18,66.0
19,-251.0
20,365.0
21,-116.0
22,328.0
23,-197.0
24,347.0
25,-98.0
26,-115.0
27,-88.0
28,38.0
29,268.0
30,-251.0
31,363.0
32,-143.0
33,347.0
34,156.5
35,122.0
36,-175.0
37,-0.6666666666666856
38,173.66666666666666
39,335.0
40,-145.0
41,355.0
42,2.0
43,-75.0
44,-64.0
45,1.0
46,293.0
47,-239.0
48,445.0
49,-49.0
50,312.0
51,-59.0
52,203.0
53,160.0
54,-175.0
55,338.0
56,63.5
57,386.0
58,-234.0
59,326.0
60,32.0
61,-166.0
62,-65.0
63,-114.0
64,285.0
65,-238.0
66,416.0
67,-57.0
68,290.0
69,-24.0
70,44.5
71,186.0
72,-196.0
73,385.0
74,27.5
75,-202.0
76,-6.5
77,189.0
78,-211.0
79,-131.0
80,-121.0
81,375.0
82,-209.0
83,58.0
84,325.0
85,63.0
86,-61.0
87,-18.0
88,253.0
89,-169.0
90,73.5
91,-237.0
92,-98.16666666666666
93,40.666666666666664
94,182.0
95,147.0
96,-262.0
97,14.0
98,-58.0
99,115.5
100,68.0
101,42.0
102,-7.0
103,222.0
104,-52.0
105,54.0
106,254.0
107,-227.0
108,352.0
109,-234.0
110,131.0
111,-42.0
112,159.5
113,-251.0
114,-48.0
115,-222.0
116,381.0
117,-262.0
118,293.0
119,110.5
120,240.0
121,-77.0
122,-7.0
123,236.0
124,-14.5
125,385.0
126,-366.0
127,273.0
128,-1.0
129,182.0
130,128.0
131,-153.0
132,-19.0
133,-201.0
134,350.0
135,-194.0
136,307.0
137,35.0
138,188.0
139,-42.0
140,-20.0
141,250.0
142,-217.0
143,345.0
144,-322.0
145,313.0
146,-38.0
147,84.0
148,189.0
149,27.5
150,81.0
151,-220.0
152,365.0
153,55.5
154,-174.75
155,-405.0
156,116.0
157,-117.0
158,98.0
159,-165.0
160,128.0
161,-356.0
162,288.0
163,125.66666666666666
164,-36.666666666666664
165,218.0
166,6.0
167,15.5
168,-256.0
169,360.0
170,-74.0
171,245.0
172,-340.0
173,171.0
174,45.0
175,-77.0
176,331.0
177,-238.0
178,159.0
179,-358.0
180,252.0
181,-45.0
182,-129.0
183,258.0
184,-44.0
185,-48.16666666666667
186,-52.333333333333336
187,285.0
188,-37.0
189,164.0
190,-286.0
191,75.0
192,71.0
193,-165.0
194,67.5
195,21.0
196,-6.75
197,-34.5
198,-10.0
199,-23.0
