time_range,Acceleration_Y
0,552.0
1,-218.0
2,-218.0
3,262.6666666666667
4,516.0
5,-74.0
6,-104.77777777777779
7,-135.55555555555557
8,-166.33333333333334
9,455.0
10,-377.0
11,598.0
12,-213.0
13,132.0
14,-161.0
15,330.0
16,339.5
17,-62.5
18,596.0
19,104.0
20,552.0
21,-325.0
22,416.0
23,13.0
24,-410.0
25,-171.0
26,-162.0
27,563.0
28,121.5
29,531.0
30,-547.0
31,391.0
32,129.5
33,33.5
34,338.0
35,-415.0
36,155.0
37,-521.0
38,152.0
39,73.0
40,184.0
41,268.0
42,-110.0
43,-343.0
44,97.0
45,126.5
46,153.41666666666669
47,180.33333333333334
48,-69.0
49,-187.0
50,61.0
51,458.0
52,194.0
53,61.625
54,-70.75
55,520.0
56,-114.0
57,46.0
58,-437.0
59,140.0
60,76.5
61,-376.0
62,543.0
63,-260.0
64,579.0
65,38.0
66,330.0
67,-88.0
68,-233.0
69,489.0
70,-215.0
71,246.0
72,-549.0
73,421.0
74,143.5
75,81.0
76,-323.0
77,12.0
78,-197.5
79,171.75
80,541.0
81,181.0
82,-474.0
83,264.0
84,-31.0
85,-362.0
86,-186.5
87,-393.0
88,-209.75
89,-26.5
90,-14.5
91,-130.0
92,646.0
93,-274.0
94,-100.0
95,142.0
96,-500.0
97,453.0
98,270.25
99,87.5
100,-480.0
101,74.0
102,75.5
103,-396.0
104,95.0
105,-398.0
106,534.0
107,-513.0
108,291.0
109,-42.0
110,602.0
111,-92.0
112,-168.0
113,-5.0
114,-533.0
115,88.0
116,-309.0
117,561.0
118,55.0
119,136.0
120,-485.0
121,-251.0
122,-17.0
123,79.0
124,2.5
125,316.0
126,36.0
127,163.0
128,290.0
129,-386.0
130,322.0
131,-83.0
132,-91.0
133,33.0
134,210.0
135,-309.0
136,-129.0
137,-21.5
138,354.0
139,296.0
140,-392.0
141,565.0
142,-466.0
143,86.0
144,-345.0
145,565.0
146,139.0
147,-428.0
148,10.0
149,-518.0
150,467.0
151,-338.0
152,675.0
153,315.5
154,-189.0
155,-142.0
156,96.0
157,410.0
158,153.0
159,608.0
160,98.5
161,152.0
162,409.0
163,207.0
164,-196.0
165,142.0
166,256.0
167,-112.0
168,134.0
169,115.0
170,-109.0
171,-44.5
172,15.0
173,63.0
174,28.0
175,28.0
176,35.0
177,35.0
178,38.0
179,27.0
180,30.0
181,30.0
182,30.0
183,30.0
184,30.0
185,30.0
186,30.0
187,30.0
188,30.0
189,30.0
190,30.0
191,30.0
192,30.0
193,30.0
194,30.0
195,30.0
196,30.0
197,30.0
198,30.0
199,30.0
