time_range,Acceleration_Y
0,-160.0
1,399.0
2,79.0
3,230.0
4,147.13333333333333
5,64.26666666666668
6,-18.6
7,-251.0
8,417.0
9,-137.0
10,107.5
11,34.16666666666667
12,-39.16666666666666
13,-112.5
14,-92.66666666666667
15,-79.0
16,-187.0
17,252.0
18,-394.0
19,-83.5
20,-70.0
21,433.0
22,-204.0
23,-85.0
24,54.0
25,-320.0
26,198.0
27,-334.0
28,369.0
29,-215.0
30,29.0
31,23.0
32,345.0
33,-108.0
34,360.0
35,-429.0
36,-195.16666666666666
37,38.666666666666664
38,354.0
39,-55.0
40,-203.0
41,41.5
42,74.0
43,363.0
44,-204.0
45,340.0
46,-150.0
47,-115.0
48,-10.0
49,218.0
50,226.5
51,-25.0
52,1.25
53,27.5
54,485.0
55,197.5
56,267.0
57,84.0
58,-277.0
59,-42.0
60,-72.0
61,389.0
62,-163.0
63,342.0
64,0.0
65,211.0
66,-55.0
67,-24.5
68,323.0
69,-229.0
70,75.0
71,15.666666666666666
72,166.5
73,158.75
74,151.0
75,221.0
76,-7.5
77,-153.25
78,-299.0
79,419.0
80,92.5
81,-387.0
82,166.0
83,56.5
84,-75.0
85,386.0
86,100.5
87,260.0
88,-458.0
89,252.0
90,-43.0
91,30.0
92,-152.0
93,-90.0
94,26.0
95,-269.0
96,331.0
97,-93.0
98,403.0
99,-330.0
100,44.0
101,-11.0
102,-324.0
103,41.0
104,-225.0
105,74.0
106,-412.0
107,-119.0
108,-42.0
109,398.0
110,-14.0
111,-128.5
112,24.333333333333332
113,20.38888888888889
114,16.444444444444443
115,12.5
116,98.0
117,-114.5
118,-132.0
119,-149.5
120,-60.0
121,-40.0
122,69.0
123,-308.0
124,49.0
125,-63.0
126,60.0
127,23.0
128,-86.0
129,336.0
130,-449.0
131,336.0
132,-206.0
133,397.0
134,-3.0
135,-183.0
136,195.0
137,138.0
138,191.0
139,-187.0
140,114.5
141,-186.0
142,-82.0
143,-144.0
144,212.0
145,160.0
146,-282.0
147,390.0
148,100.5
149,110.0
150,-211.0
151,319.0
152,-49.666666666666664
153,-11.0
154,27.666666666666664
155,66.33333333333333
156,-178.0
157,461.0
158,-364.0
159,326.0
160,158.83333333333334
161,-8.333333333333334
162,295.0
163,49.0
164,-84.5
165,-320.0
166,43.0
167,135.5
168,243.0
169,193.0
170,132.0
171,1.0
172,-85.0
173,438.0
174,127.5
175,422.0
176,-414.0
177,231.0
178,-2.0
179,-68.0
180,15.0
181,98.0
182,62.0
183,-386.0
184,339.0
185,-18.0
186,151.0
187,-282.0
188,-84.0
189,0.0
190,-243.0
191,59.0
192,176.5
193,9.5
194,48.25
195,87.0
196,-84.5
197,71.33333333333333
198,-232.0
199,256.0
