time_range,Acceleration_Y
0,255.5
1,279.0
2,-173.0
3,-39.0
4,548.0
5,132.0
6,236.0
7,-546.0
8,381.0
9,-83.0
10,200.0
11,316.0
12,-14.0
13,13.0
14,-505.0
15,567.0
16,-130.0
17,229.0
18,-536.0
19,229.0
20,59.0
21,-253.0
22,553.0
23,-298.0
24,407.0
25,-572.0
26,301.0
27,-162.0
28,-99.0
29,-184.5
30,-149.0
31,159.0
32,-571.0
33,131.0
34,489.0
35,-380.0
36,-193.5
37,-6.0
38,-465.0
39,550.0
40,-345.0
41,521.0
42,-560.0
43,260.0
44,95.5
45,-69.0
46,496.0
47,-164.0
48,49.0
49,-558.0
50,463.0
51,77.0
52,523.0
53,-206.0
54,-94.66666666666667
55,16.666666666666668
56,292.0
57,322.0
58,-369.0
59,506.0
60,90.5
61,-182.5
62,-162.0
63,408.0
64,196.0
65,-453.0
66,514.0
67,-223.0
68,541.0
69,-220.0
70,243.5
71,-395.0
72,-395.0
73,-86.5
74,-4.0
75,78.5
76,535.0
77,-149.0
78,375.0
79,155.5
80,200.0
81,259.5
82,-322.0
83,59.0
84,-36.66666666666667
85,-132.33333333333334
86,-167.0
87,391.0
88,218.0
89,175.0
90,-30.0
91,-339.0
92,542.0
93,-189.0
94,110.0
95,-564.0
96,316.0
97,79.75
98,-156.5
99,475.0
100,-277.0
101,198.0
102,-508.0
103,-68.0
104,-74.0
105,474.0
106,-304.0
107,-114.0
108,38.0
109,-204.5
110,62.0
111,541.0
112,-526.0
113,-225.75
114,74.5
115,-305.0
116,19.0
117,-419.0
118,2.0
119,-556.0
120,368.0
121,-265.0
122,555.0
123,-157.0
124,-292.0
125,212.0
126,-523.0
127,368.0
128,31.0
129,506.0
130,-321.0
131,-127.0
132,-201.0
133,329.0
134,241.0
135,-420.0
136,547.0
137,-539.0
138,554.0
139,-210.0
140,516.0
141,48.0
142,-403.0
143,354.0
144,132.0
145,397.0
146,-267.0
147,185.0
148,637.0
149,-233.33333333333334
150,75.5
151,207.0
152,129.33333333333334
153,102.29166666666667
154,75.25
155,118.875
156,162.5
157,337.0
158,298.5
159,-323.0
160,-162.0
161,-249.0
162,554.0
163,-333.0
164,485.0
165,305.0
166,236.5
167,153.5
168,-179.0
169,424.0
170,-267.0
171,36.0
172,-428.0
173,427.0
174,-45.0
175,39.0
176,375.0
177,-176.0
178,69.0
179,-391.0
180,465.0
181,-170.0
182,524.0
183,-574.0
184,107.0
185,-28.5
186,-164.0
187,552.0
188,185.33333333333334
189,-185.33333333333334
190,-556.0
191,327.0
192,-52.0
193,307.0
194,-324.0
195,-118.0
196,-228.5
197,477.0
198,154.5
199,-168.0
