time_range,Acceleration_Y
0,188.0
1,-68.0
2,-92.0
3,163.0
4,176.0
5,-53.0
6,-81.0
7,-80.0
8,191.0
9,141.0
10,-69.0
11,-74.0
12,-92.0
13,186.0
14,115.0
15,-97.0
16,-100.0
17,-72.0
18,180.0
19,89.0
20,-142.0
21,12.0
22,-22.0
23,175.0
24,134.0
25,-162.0
26,18.0
27,1.0
28,99.0
29,79.0
30,-169.0
31,41.0
32,29.0
33,217.0
34,-40.5
35,2.5833333333333286
36,45.666666666666664
37,242.0
38,78.0
39,-103.0
40,-27.5
41,214.0
42,242.0
43,49.0
44,-80.0
45,72.0
46,77.6
47,83.2
48,88.8
49,94.4
50,100.0
51,147.5
52,-15.0
53,2.0
54,-67.0
55,138.0
56,184.0
57,65.5
58,-35.0
59,-77.0
60,171.0
61,169.0
62,-56.0
63,-55.0
64,-85.0
65,194.0
66,143.0
67,-56.0
68,-59.0
69,-65.0
70,205.0
71,118.0
72,-98.0
73,-34.0
74,-75.0
75,148.5
76,-130.0
77,-65.0
78,-40.0
79,204.0
80,90.0
81,-153.0
82,5.0
83,-30.0
84,159.0
85,96.0
86,-25.0
87,41.0
88,164.0
89,194.0
90,85.0
91,-161.0
92,30.0
93,162.0
94,214.0
95,86.0
96,-26.0
97,70.0
98,179.0
99,31.0
100,64.0
101,-122.0
102,49.0
103,119.0
104,34.0
105,52.0
106,-93.0
107,-9.5
108,193.0
109,-45.0
110,29.0
111,-87.0
112,150.0
113,-4.0
114,12.0
115,-30.5
116,-73.0
117,148.5
118,-28.0
119,-68.0
120,-93.0
121,173.0
122,174.0
123,-67.0
124,-89.0
125,-95.0
126,201.0
127,161.0
128,49.0
129,-61.0
130,215.0
131,211.0
132,130.0
133,111.57142857142857
134,93.14285714285714
135,74.71428571428572
136,56.28571428571429
137,37.85714285714286
138,19.428571428571445
139,1.0
140,99.0
141,201.0
142,97.0
143,-153.0
144,7.0
145,82.0
146,122.0
147,96.0
148,-146.0
149,46.0
150,165.0
151,133.33333333333334
152,101.66666666666666
153,70.0
154,-58.5
155,84.0
156,92.5
157,-24.0
158,47.75
159,119.5
160,31.0
161,-160.0
162,-141.0
163,74.0
164,180.0
165,30.0
166,-65.0
167,-116.0
168,73.0
169,191.0
170,80.0
171,-127.0
172,93.0
173,117.0
174,201.0
175,-42.0
176,-141.0
177,105.0
178,122.5
179,195.0
180,-55.0
181,-132.0
182,151.0
183,176.0
184,183.0
185,-43.0
186,-123.0
187,163.0
188,140.0
189,167.0
190,-65.0
191,-97.0
192,189.0
193,134.0
194,149.0
195,-48.0
196,-84.0
197,187.0
198,216.0
199,41.5
