time_range,Acceleration_Y
0,64.5
1,64.5
2,64.5
3,-159.0
4,-167.5
5,60.0
6,301.0
7,53.0
8,-135.0
9,-158.5
10,52.0
11,171.5
12,291.0
13,-61.5
14,-187.0
15,71.0
16,172.5
17,-55.0
18,-91.5
19,201.0
20,157.5
21,196.0
22,-71.0
23,-128.0
24,197.0
25,167.0
26,153.5
27,-113.0
28,-132.0
29,29.5
30,194.0
31,127.0
32,-112.0
33,-123.0
34,194.0
35,212.0
36,25.0
37,-81.0
38,59.5
39,111.0
40,171.0
41,-113.0
42,-12.0
43,182.0
44,117.0
45,149.0
46,-146.0
47,24.0
48,225.0
49,93.0
50,148.0
51,-2.0
52,48.0
53,245.0
54,84.0
55,98.0
56,-159.0
57,70.0
58,285.0
59,51.0
60,-59.0
61,-173.5
62,62.0
63,289.0
64,32.0
65,-137.0
66,-168.0
67,50.0
68,265.0
69,6.0
70,-60.5
71,-181.0
72,-47.0
73,233.0
74,-20.0
75,-107.0
76,163.0
77,160.5
78,-23.0
79,-103.0
80,194.0
81,159.0
82,162.0
83,165.0
84,-70.66666666666667
85,236.0
86,154.0
87,161.0
88,63.0
89,-99.0
90,43.0
91,118.0
92,147.0
93,-60.0
94,-74.0
95,219.0
96,89.0
97,131.0
98,-125.0
99,-45.0
100,203.0
101,162.0
102,130.0
103,33.25
104,-63.5
105,221.0
106,166.0
107,-223.0
108,-172.0
109,13.0
110,252.0
111,108.0
112,-223.0
113,48.0
114,28.0
115,231.0
116,-44.0
117,-56.5
118,67.0
119,245.0
120,83.0
121,6.25
122,-70.5
123,38.0
124,253.0
125,67.0
126,-35.0
127,68.0
128,31.0
129,227.0
130,145.0
131,-134.0
132,116.0
133,242.0
134,246.0
135,-22.0
136,-142.0
137,131.0
138,183.0
139,238.0
140,-23.0
141,-112.0
142,189.0
143,205.5
144,-71.0
145,-59.0
146,-124.0
147,195.0
148,187.0
149,54.5
150,-67.0
151,-133.0
152,-124.0
153,84.0
154,96.0
155,70.0
156,70.0
157,70.0
158,70.0
159,70.0
160,70.0
161,70.0
162,70.0
163,70.0
164,70.0
165,70.0
166,70.0
167,70.0
168,70.0
169,70.0
170,70.0
171,70.0
172,70.0
173,70.0
174,70.0
175,70.0
176,70.0
177,70.0
178,70.0
179,70.0
180,70.0
181,70.0
182,70.0
183,70.0
184,70.0
185,70.0
186,70.0
187,70.0
188,70.0
189,70.0
190,70.0
191,70.0
192,70.0
193,70.0
194,70.0
195,70.0
196,70.0
197,70.0
198,70.0
199,70.0
