time_range,Acceleration_Y
0,-43.0
1,-43.0
2,162.0
3,-117.0
4,-128.0
5,-75.0
6,176.0
7,89.25
8,2.5
9,-58.0
10,-74.0
11,204.0
12,125.0
13,3.5
14,-55.0
15,153.0
16,179.0
17,167.0
18,40.5
19,-92.0
20,137.0
21,131.0
22,153.0
23,-92.0
24,-78.0
25,161.0
26,131.0
27,-90.0
28,-86.0
29,-81.0
30,27.16666666666667
31,135.33333333333334
32,-106.0
33,-91.0
34,-108.0
35,119.0
36,33.0
37,-77.0
38,177.0
39,130.0
40,151.0
41,-54.0
42,-108.0
43,153.0
44,162.0
45,144.0
46,-56.0
47,-90.0
48,156.0
49,170.0
50,-91.0
51,-36.0
52,-97.0
53,28.5
54,192.0
55,-90.0
56,-167.0
57,-134.5
58,159.0
59,159.0
60,97.33333333333333
61,-142.0
62,90.0
63,148.0
64,197.0
65,-91.0
66,-154.0
67,101.0
68,134.0
69,157.5
70,-57.0
71,-205.0
72,-40.5
73,164.0
74,223.5
75,-45.0
76,-153.0
77,141.5
78,-6.0
79,-122.0
80,-134.0
81,56.0
82,221.0
83,-6.0
84,-124.0
85,109.0
86,61.0
87,258.0
88,68.0
89,-33.5
90,85.0
91,223.0
92,236.0
93,37.0
94,-135.0
95,80.0
96,218.0
97,-74.0
98,37.0
99,-135.0
100,59.0
101,75.75
102,92.5
103,-155.0
104,-141.0
105,63.0
106,229.0
107,108.0
108,-97.5
109,21.0
110,29.5
111,193.0
112,11.0
113,-125.5
114,102.5
115,207.0
116,107.5
117,-174.0
118,-2.0
119,13.0
120,28.0
121,0.0
122,-84.0
123,19.0
124,218.0
125,71.0
126,-28.5
127,-164.0
128,4.0
129,219.0
130,118.0
131,48.75
132,-20.5
133,-5.0
134,201.0
135,145.0
136,-148.0
137,6.0
138,164.0
139,213.0
140,123.0
141,-136.0
142,33.0
143,184.0
144,90.0
145,114.0
146,-10.0
147,-53.5
148,105.5
149,103.0
150,-195.0
151,-162.0
152,-88.5
153,173.0
154,59.0
155,-158.0
156,-8.0
157,101.0
158,183.0
159,-15.333333333333334
160,19.83333333333333
161,55.0
162,155.0
163,144.5
164,-178.0
165,12.0
166,241.0
167,215.5
168,59.0
169,-185.0
170,-14.0
171,249.0
172,181.5
173,138.0
174,-163.0
175,-88.0
176,107.0
177,122.0
178,-171.0
179,-143.0
180,-41.0
181,207.0
182,120.0
183,-176.0
184,-99.0
185,-35.0
186,86.5
187,129.0
188,-162.0
189,-115.5
190,167.0
191,194.0
192,140.0
193,-10.0
194,-43.0
195,176.0
196,102.0
197,-9.0
198,-151.0
199,53.0
