time_range,Acceleration_Y
0,-279.0
1,62.0
2,-15.0
3,400.0
4,37.0
5,-288.0
6,40.0
7,424.0
8,444.0
9,51.0
10,-319.0
11,-4.0
12,329.0
13,-7.0
14,67.0
15,-318.0
16,1.0
17,173.5
18,29.0
19,-128.5
20,-309.0
21,-25.0
22,313.0
23,59.0
24,-362.0
25,-22.0
26,-95.0
27,313.0
28,41.0
29,-327.0
30,-37.0
31,385.0
32,275.0
33,-110.5
34,-315.0
35,-30.0
36,284.5
37,89.0
38,-50.0
39,-189.0
40,454.0
41,233.0
42,-276.0
43,-354.0
44,-67.0
45,430.0
46,308.5
47,-306.0
48,-192.0
49,-78.0
50,420.0
51,245.0
52,-297.0
53,-41.0
54,113.5
55,321.5
56,205.0
57,-41.5
58,-200.5
59,314.0
60,173.0
61,208.0
62,-61.0
63,-227.0
64,293.0
65,156.0
66,-343.0
67,-283.0
68,-143.0
69,328.0
70,175.0
71,-93.0
72,-109.0
73,-102.0
74,297.0
75,177.0
76,-276.0
77,-94.0
78,346.5
79,202.0
80,-263.0
81,-138.0
82,90.83333333333334
83,319.6666666666667
84,188.0
85,-279.0
86,-196.5
87,352.0
88,235.16666666666666
89,118.33333333333333
90,-223.0
91,-123.0
92,84.25
93,291.5
94,-309.0
95,-160.0
96,-148.5
97,309.0
98,246.0
99,-303.0
100,-238.0
101,275.0
102,300.0
103,220.0
104,-222.0
105,-161.0
106,265.0
107,246.0
108,256.0
109,4.0
110,-212.0
111,200.0
112,178.0
113,-257.0
114,-244.16666666666669
115,-231.33333333333334
116,234.0
117,-16.5
118,-147.0
119,-158.5
120,298.0
121,240.0
122,-251.0
123,-175.0
124,-183.0
125,299.0
126,253.0
127,-235.0
128,-217.0
129,236.0
130,156.0
131,209.0
132,-217.0
133,-81.0
134,55.0
135,291.0
136,277.0
137,-11.0
138,-161.0
139,301.0
140,269.0
141,-249.0
142,-181.0
143,-184.0
144,303.0
145,250.0
146,-262.0
147,-153.0
148,-155.0
149,319.0
150,240.0
151,-14.5
152,-160.0
153,262.0
154,314.0
155,284.0
156,-187.5
157,12.75
158,213.0
159,216.0
160,-268.0
161,-217.0
162,251.0
163,211.0
164,-189.0
165,-203.0
166,-213.0
167,-69.33333333333334
168,74.33333333333333
169,20.0
170,-138.0
171,-215.0
172,268.0
173,228.0
174,-187.0
175,-170.0
176,-244.0
177,240.0
178,293.0
179,-231.0
180,-207.0
181,296.0
182,264.0
183,262.0
184,63.0
185,-187.0
186,297.0
187,278.0
188,260.0
189,63.0
190,-197.0
191,290.0
192,251.0
193,41.5
194,-76.58333333333333
195,-194.66666666666666
196,266.0
197,39.0
198,-280.0
199,-200.0
