time_range,Acceleration_Y
0,581.0
1,68.0
2,28.0
3,-463.0
4,0.0
5,526.0
6,293.5
7,-188.5
8,-480.0
9,-272.5
10,238.5
11,166.58333333333334
12,94.66666666666667
13,-33.0
14,-26.0
15,255.5
16,196.0
17,-425.0
18,-13.0
19,425.0
20,453.5
21,238.0
22,-434.0
23,-72.0
24,403.0
25,130.0
26,224.0
27,-411.0
28,-258.5
29,426.0
30,194.0
31,-453.0
32,-324.3333333333333
33,-159.0
34,273.0
35,-400.0
36,-247.5
37,-157.0
38,369.0
39,128.25
40,-112.5
41,-178.0
42,473.0
43,361.0
44,274.0
45,-314.0
46,-189.0
47,438.0
48,379.5
49,302.0
50,-302.0
51,-240.0
52,379.0
53,310.0
54,-50.0
55,-303.0
56,-252.0
57,97.0
58,336.0
59,-317.0
60,-240.0
61,-259.5
62,52.0
63,357.0
64,-297.0
65,-351.0
66,-28.5
67,394.0
68,404.0
69,-242.0
70,-292.5
71,-7.5
72,386.0
73,97.0
74,-325.0
75,261.0
76,321.0
77,381.0
78,-289.0
79,-463.0
80,207.0
81,417.0
82,159.0
83,-314.0
84,259.0
85,207.0
86,469.0
87,-92.0
88,-375.0
89,216.0
90,351.5
91,489.0
92,109.0
93,-271.0
94,167.0
95,447.0
96,165.0
97,2.0
98,-399.0
99,-138.0
100,447.0
101,-33.0
102,-423.0
103,-346.0
104,131.0
105,528.0
106,-92.0
107,-457.0
108,113.0
109,75.0
110,468.0
111,-251.5
112,-140.25
113,-29.0
114,487.6666666666667
115,-32.0
116,-473.0
117,-25.0
118,495.0
119,272.0
120,-27.0
121,-119.25
122,-211.5
123,620.0
124,159.0
125,-429.0
126,-458.0
127,-36.0
128,244.0
129,303.0
130,-425.0
131,-17.0
132,-44.5
133,503.0
134,336.5
135,-459.0
136,-34.0
137,413.0
138,488.0
139,143.0
140,-158.5
141,-20.0
142,433.0
143,143.0
144,212.0
145,-406.0
146,-14.0
147,218.5
148,293.0
149,-488.0
150,-423.0
151,-182.0
152,366.0
153,103.0
154,-277.0
155,-90.0
156,168.0
157,426.0
158,-169.5
159,-106.0
160,543.0
161,386.0
162,186.0
163,-424.0
164,-101.0
165,166.25
166,433.5
167,250.0
168,-412.0
169,-105.0
170,479.0
171,244.0
172,-493.0
173,-423.0
174,-186.0
175,475.0
176,261.0
177,-456.0
178,-74.0
179,-118.0
180,526.0
181,353.0
182,-394.0
183,-160.0
184,446.0
185,476.5
186,301.0
187,-436.0
188,-198.0
189,415.0
190,231.0
191,281.0
192,-430.0
193,-228.0
194,420.0
195,-43.5
196,-338.0
197,-338.0
198,-282.0
199,315.0
