time_stamp,Acceleration_X,Acceleration_Y,Acceleration_Z,magnitude,STD_Status_right,STD_Status_left,STD_Status_both,KMeans,KMeans_convert
2021-09-24 11:47:06.123,962.0,89.0,14.0,966.2096045889836,1,1,1,0.0,2.0
2021-09-24 11:47:06.133,1068.0,230.0,-9.0,1092.5223109849976,1,1,1,0.0,2.0
2021-09-24 11:47:06.143,1081.0,90.0,-21.0,1084.943316491696,1,1,1,0.0,2.0
2021-09-24 11:47:06.156,997.0,-9.0,40.0,997.8426729700428,1,1,1,0.0,2.0
2021-09-24 11:47:06.162,922.0,-20.0,20.0,922.433737457602,1,1,1,0.0,2.0
2021-09-24 11:47:06.172,956.0,142.0,7.0,966.51383849379,1,1,1,0.0,2.0
2021-09-24 11:47:06.182,991.0,139.0,30.0,1001.1503383608278,1,1,1,0.0,2.0
2021-09-24 11:47:06.192,1100.0,134.0,22.0,1108.3501251860805,1,1,1,0.0,2.0
2021-09-24 11:47:06.201,986.0,-13.0,-17.0,986.232224174408,1,1,1,0.0,2.0
2021-09-24 11:47:06.211,981.0,-13.0,-17.0,981.2334075030262,1,1,1,0.0,2.0
2021-09-24 11:47:06.212,981.0,-8.0,26.0,981.3770936801,1,1,1,0.0,2.0
2021-09-24 11:47:06.221,943.0,172.0,-48.0,959.7588238719142,1,1,1,0.0,2.0
2021-09-24 11:47:06.230,1111.0,172.0,-48.0,1125.2595256206455,1,1,1,0.0,2.0
2021-09-24 11:47:06.231,1111.0,53.0,18.0,1112.4090974097614,1,1,1,0.0,2.0
2021-09-24 11:47:06.241,1064.0,105.0,-32.0,1069.6471380787218,1,1,1,0.0,2.0
2021-09-24 11:47:06.258,1006.0,21.0,-9.0,1006.2594098938902,1,1,1,0.0,2.0
2021-09-24 11:47:06.261,937.0,21.0,-9.0,937.2785071684935,1,1,1,0.0,2.0
2021-09-24 11:47:06.262,937.0,99.0,22.0,942.4722807594928,1,1,1,0.0,2.0
2021-09-24 11:47:06.269,1011.0,99.0,22.0,1016.0738162161252,1,1,1,0.0,2.0
2021-09-24 11:47:06.270,1011.0,131.0,-21.0,1019.6680832506232,1,1,1,0.0,2.0
2021-09-24 11:47:06.279,1045.0,31.0,-21.0,1045.6705982287156,1,1,1,0.0,2.0
2021-09-24 11:47:06.280,1045.0,31.0,-2.0,1045.4616205294196,1,1,1,0.0,2.0
2021-09-24 11:47:06.290,1020.0,-130.0,36.0,1028.8809454936952,1,1,1,0.0,2.0
2021-09-24 11:47:06.300,1020.0,28.0,7.0,1020.4082516326492,1,1,1,0.0,2.0
2021-09-24 11:47:06.309,986.0,-19.0,7.0,986.2078888348034,1,1,1,0.0,2.0
2021-09-24 11:47:06.310,986.0,-19.0,21.0,986.4066098724196,1,1,1,0.0,2.0
2021-09-24 11:47:06.318,957.0,182.0,21.0,974.3787764519504,1,1,1,0.0,2.0
2021-09-24 11:47:06.319,957.0,182.0,-24.0,974.4480488974258,1,1,1,0.0,2.0
2021-09-24 11:47:06.328,1116.0,-31.0,-1.0,1116.430920388718,1,1,1,0.0,2.0
2021-09-24 11:47:06.338,951.0,-3.0,47.0,952.1654268035572,1,1,1,0.0,2.0
2021-09-24 11:47:06.349,1001.0,-3.0,47.0,1002.1072796861622,1,1,1,0.0,2.0
2021-09-24 11:47:06.350,1001.0,-153.0,27.0,1012.9851923893063,1,1,1,0.0,2.0
2021-09-24 11:47:06.357,977.0,75.0,27.0,980.246397596033,1,1,1,0.0,2.0
2021-09-24 11:47:06.358,977.0,75.0,27.0,980.246397596033,1,1,1,0.0,2.0
2021-09-24 11:47:06.367,995.0,159.0,-6.0,1007.6418014354108,1,1,1,0.0,2.0
2021-09-24 11:47:06.377,1031.0,68.0,3.0,1033.2444047755594,1,1,1,0.0,2.0
2021-09-24 11:47:06.387,987.0,-80.0,13.0,990.3221698013228,1,1,1,0.0,2.0
2021-09-24 11:47:06.397,982.0,-80.0,13.0,985.3390279492636,1,1,1,0.0,2.0
2021-09-24 11:47:06.398,982.0,-164.0,28.0,995.9939758853966,1,1,1,0.0,2.0
2021-09-24 11:47:06.406,1035.0,65.0,28.0,1037.4169846305776,1,1,1,0.0,2.0
2021-09-24 11:47:06.407,1035.0,65.0,39.0,1037.772132984886,1,1,1,0.0,2.0
2021-09-24 11:47:06.416,962.0,136.0,-21.0,971.7926733619676,1,1,1,0.0,2.0
2021-09-24 11:47:06.426,1099.0,20.0,15.0,1099.2843126325415,1,1,1,0.0,2.0
2021-09-24 11:47:06.435,985.0,20.0,15.0,985.3172078067042,1,1,1,0.0,2.0
2021-09-24 11:47:06.436,985.0,5.0,44.0,985.994928993045,1,1,1,0.0,2.0
2021-09-24 11:47:06.446,1030.0,-129.0,18.0,1038.2027740282724,1,1,1,0.0,2.0
2021-09-24 11:47:06.456,1048.0,109.0,18.0,1053.8069083091077,1,1,1,0.0,2.0
2021-09-24 11:47:06.457,1048.0,109.0,26.0,1053.9739085954643,1,1,1,0.0,2.0
2021-09-24 11:47:06.465,986.0,175.0,-6.0,1001.427481148785,1,1,1,0.0,2.0
2021-09-24 11:47:06.474,1103.0,175.0,-6.0,1116.812428297608,1,1,1,0.0,2.0
2021-09-24 11:47:06.475,1103.0,110.0,24.0,1108.7312568877996,1,1,1,0.0,2.0
2021-09-24 11:47:06.484,948.0,-69.0,24.0,950.8107067129608,1,1,1,0.0,2.0
2021-09-24 11:47:06.485,948.0,-69.0,13.0,950.5966547384858,1,1,1,0.0,2.0
2021-09-24 11:47:06.494,968.0,-133.0,13.0,977.1806383673388,1,1,1,0.0,2.0
2021-09-24 11:47:06.495,968.0,-133.0,22.0,977.3418030556148,1,1,1,0.0,2.0
2021-09-24 11:47:06.505,1085.0,-133.0,22.0,1093.3425812617013,1,1,1,0.0,2.0
2021-09-24 11:47:06.506,1085.0,89.0,46.0,1089.6155285237082,1,1,1,0.0,2.0
2021-09-24 11:47:06.514,1099.0,107.0,29.0,1104.5772947150415,1,1,1,0.0,2.0
2021-09-24 11:47:06.523,1106.0,107.0,29.0,1111.5421719395083,1,1,1,0.0,2.0
2021-09-24 11:47:06.524,1106.0,28.0,21.0,1106.5536588887137,1,1,1,0.0,2.0
2021-09-24 11:47:06.533,1010.0,-22.0,70.0,1012.6618389176124,1,1,1,0.0,2.0
2021-09-24 11:47:06.543,1025.0,-152.0,-1.0,1036.2094382893836,1,1,1,0.0,2.0
2021-09-24 11:47:06.554,1033.0,92.0,-7.0,1037.1123372132838,1,1,1,0.0,2.0
2021-09-24 11:47:06.562,1062.0,92.0,-7.0,1066.0004690430487,1,1,1,0.0,2.0
2021-09-24 11:47:06.563,1062.0,5.0,-45.0,1062.9647218981447,1,1,1,0.0,2.0
2021-09-24 11:47:06.572,992.0,-86.0,-19.0,995.9021036226402,1,1,1,0.0,2.0
2021-09-24 11:47:06.593,968.0,-32.0,3.0,968.5334274045476,1,1,1,0.0,2.0
2021-09-24 11:47:06.596,976.0,-69.0,10.0,978.4870975132987,1,1,1,0.0,2.0
2021-09-24 11:47:06.601,1047.0,-69.0,10.0,1049.3188266680438,1,1,1,0.0,2.0
2021-09-24 11:47:06.602,1047.0,-7.0,10.0,1047.0711532651446,1,1,1,0.0,2.0
2021-09-24 11:47:06.611,1107.0,-1.0,10.0,1107.0456178495988,1,1,1,0.0,2.0
2021-09-24 11:47:06.612,1107.0,-1.0,-3.0,1107.0045167026194,1,1,1,0.0,2.0
2021-09-24 11:47:06.621,994.0,27.0,30.0,994.8190790289458,1,1,1,0.0,2.0
2021-09-24 11:47:06.636,1020.0,-39.0,34.0,1021.3114118622194,1,1,1,0.0,2.0
2021-09-24 11:47:06.641,1057.0,-145.0,2.0,1066.9011200668972,1,1,1,0.0,2.0
2021-09-24 11:47:06.650,1052.0,86.0,2.0,1055.511250532177,1,1,1,0.0,2.0
2021-09-24 11:47:06.651,1052.0,86.0,12.0,1055.5775670219598,1,1,1,0.0,2.0
2021-09-24 11:47:06.660,1089.0,18.0,-20.0,1089.3323643406543,1,1,1,0.0,2.0
2021-09-24 11:47:06.670,981.0,-55.0,-3.0,982.5451643563262,1,1,1,0.0,2.0
2021-09-24 11:47:06.682,955.0,47.0,-9.0,956.1982012114432,1,1,1,0.0,2.0
2021-09-24 11:47:06.689,996.0,47.0,-9.0,997.1489357162249,1,1,1,0.0,2.0
2021-09-24 11:47:06.690,996.0,93.0,-18.0,1000.4943777952976,1,1,1,0.0,2.0
2021-09-24 11:47:06.699,1042.0,23.0,11.0,1042.3118535256135,1,1,1,0.0,2.0
2021-09-24 11:47:06.709,1064.0,0.0,26.0,1064.3176217652322,1,1,1,0.0,2.0
2021-09-24 11:47:06.719,1005.0,-50.0,53.0,1007.6378317629802,1,1,1,0.0,2.0
2021-09-24 11:47:06.730,1019.0,11.0,30.0,1019.5008582634936,1,1,1,0.0,2.0
2021-09-24 11:47:06.738,945.0,222.0,-28.0,971.1297544612668,1,1,1,0.0,2.0
2021-09-24 11:47:06.749,1089.0,141.0,25.0,1098.3747083759713,1,1,1,0.0,2.0
2021-09-24 11:47:06.758,1050.0,-26.0,-24.0,1050.596021313616,1,1,1,0.0,2.0
2021-09-24 11:47:06.768,905.0,-131.0,-33.0,915.0273219964528,1,1,1,0.0,2.0
2021-09-24 11:47:06.778,915.0,46.0,5.0,916.1691983471176,1,1,1,0.0,2.0
2021-09-24 11:47:06.788,1039.0,46.0,5.0,1040.0298072651572,1,1,1,0.0,2.0
2021-09-24 11:47:06.789,1039.0,183.0,-34.0,1055.5406197773727,1,1,1,0.0,2.0
2021-09-24 11:47:06.797,1102.0,49.0,38.0,1103.7431766493507,1,1,1,0.0,2.0
2021-09-24 11:47:06.807,1069.0,-23.0,23.0,1069.494740520027,1,1,1,0.0,2.0
2021-09-24 11:47:06.825,968.0,3.0,38.0,968.7502258064252,1,1,1,0.0,2.0
2021-09-24 11:47:06.827,1009.0,3.0,38.0,1009.7197631026144,1,1,1,0.0,2.0
2021-09-24 11:47:06.828,1009.0,1.0,25.0,1009.3101604561404,1,1,1,0.0,2.0
2021-09-24 11:47:06.836,932.0,108.0,-35.0,938.889237343788,1,1,1,0.0,2.0
2021-09-24 11:47:06.846,1101.0,-59.0,13.0,1102.6563381217195,1,1,1,0.0,2.0
2021-09-24 11:47:06.855,950.0,-59.0,13.0,951.9191142108662,1,1,1,0.0,2.0
2021-09-24 11:47:06.856,950.0,-14.0,-7.0,950.128938618333,1,1,1,0.0,2.0
2021-09-24 11:47:06.867,933.0,-109.0,-11.0,939.409921173925,1,1,1,0.0,2.0
2021-09-24 11:47:06.875,979.0,82.0,21.0,982.652532688946,1,1,1,0.0,2.0
2021-09-24 11:47:06.885,999.0,219.0,-20.0,1022.918374065106,1,1,1,0.0,2.0
2021-09-24 11:47:06.894,1086.0,219.0,-20.0,1108.0419667142576,1,1,1,0.0,2.0
2021-09-24 11:47:06.895,1086.0,85.0,0.0,1089.3213483632826,1,1,1,0.0,2.0
2021-09-24 11:47:06.904,955.0,-54.0,0.0,956.5254831942534,1,1,1,0.0,2.0
2021-09-24 11:47:06.905,955.0,-54.0,-12.0,956.6007526653948,1,1,1,0.0,2.0
2021-09-24 11:47:06.915,987.0,-54.0,-12.0,988.5489365731976,1,1,1,0.0,2.0
2021-09-24 11:47:06.916,987.0,30.0,27.0,987.82488326626,1,1,1,0.0,2.0
2021-09-24 11:47:06.924,1010.0,14.0,55.0,1011.593297723942,1,1,1,0.0,2.0
2021-09-24 11:47:06.934,1016.0,175.0,-19.0,1031.136266455603,1,1,1,0.0,2.0
2021-09-24 11:47:06.944,1069.0,22.0,-1.0,1069.226823457025,1,1,1,0.0,2.0
2021-09-24 11:47:06.954,916.0,-20.0,-18.0,916.3951112920672,1,1,1,0.0,2.0
2021-09-24 11:47:06.963,1013.0,37.0,42.0,1014.5452183121264,1,1,1,0.0,2.0
2021-09-24 11:47:06.973,980.0,67.0,13.0,982.3736559985716,1,1,1,0.0,2.0
2021-09-24 11:47:06.983,1052.0,107.0,4.0,1057.435104391754,1,1,1,0.0,2.0
2021-09-24 11:47:06.992,1068.0,61.0,17.0,1069.875693713994,1,1,1,0.0,2.0
2021-09-24 11:47:07.003,954.0,-22.0,-18.0,954.4233861342668,1,1,1,0.0,2.0
2021-09-24 11:47:07.012,998.0,97.0,-18.0,1002.8643976131568,1,1,1,0.0,2.0
2021-09-24 11:47:07.013,998.0,97.0,39.0,1003.4610107024588,1,1,1,0.0,2.0
2021-09-24 11:47:07.022,1052.0,40.0,-1.0,1052.760656559695,1,1,1,0.0,2.0
2021-09-24 11:47:07.031,998.0,221.0,-1.0,1022.1770883755906,1,1,1,0.0,2.0
2021-09-24 11:47:07.032,998.0,221.0,-25.0,1022.4822736849768,1,1,1,0.0,2.0
2021-09-24 11:47:07.041,1079.0,-1.0,18.0,1079.150591900871,1,1,1,0.0,2.0
2021-09-24 11:47:07.051,885.0,-19.0,-40.0,886.1072169890052,1,1,1,0.0,2.0
2021-09-24 11:47:07.062,1004.0,63.0,75.0,1008.766573593713,1,1,1,0.0,2.0
2021-09-24 11:47:07.070,1082.0,76.0,75.0,1087.2557196906348,1,1,1,0.0,2.0
2021-09-24 11:47:07.071,1082.0,76.0,35.0,1085.23039028586,1,1,1,0.0,2.0
2021-09-24 11:47:07.080,1077.0,-52.0,3.0,1078.2587815547806,1,1,1,0.0,2.0
2021-09-24 11:47:07.090,1086.0,30.0,26.0,1086.725356288331,1,1,1,0.0,2.0
2021-09-24 11:47:07.100,929.0,-69.0,-25.0,931.8943073117252,1,1,1,0.0,2.0
2021-09-24 11:47:07.111,960.0,64.0,-5.0,962.1439601223924,1,1,1,0.0,2.0
2021-09-24 11:47:07.119,1054.0,81.0,28.0,1057.478604984517,1,1,1,0.0,2.0
2021-09-24 11:47:07.129,1055.0,81.0,28.0,1058.4753185596724,1,1,1,0.0,2.0
2021-09-24 11:47:07.130,1055.0,-47.0,13.0,1056.1264128881542,1,1,1,0.0,2.0
2021-09-24 11:47:07.139,957.0,-135.0,38.0,967.2217946262376,1,1,1,0.0,2.0
2021-09-24 11:47:07.148,887.0,-135.0,38.0,898.0189307581438,1,1,1,0.0,2.0
2021-09-24 11:47:07.149,887.0,6.0,0.0,887.0202928907546,1,1,1,0.0,2.0
2021-09-24 11:47:07.158,954.0,6.0,0.0,954.01886773795,1,1,1,0.0,2.0
2021-09-24 11:47:07.159,954.0,139.0,31.0,964.5714074136762,1,1,1,0.0,2.0
2021-09-24 11:47:07.169,1077.0,38.0,-11.0,1077.7263103404314,1,1,1,0.0,2.0
2021-09-24 11:47:07.178,1056.0,-3.0,10.0,1056.0516085873835,1,1,1,0.0,2.0
2021-09-24 11:47:07.187,1010.0,-3.0,10.0,1010.0539589546688,1,1,1,0.0,2.0
2021-09-24 11:47:07.188,1010.0,-165.0,5.0,1023.4011921040544,1,1,1,0.0,2.0
2021-09-24 11:47:07.197,1010.0,63.0,5.0,1011.9752961411656,1,1,1,0.0,2.0
2021-09-24 11:47:07.198,1010.0,63.0,-2.0,1011.9649203406212,1,1,1,0.0,2.0
2021-09-24 11:47:07.207,985.0,97.0,44.0,990.7421460703082,1,1,1,0.0,2.0
2021-09-24 11:47:07.218,1047.0,97.0,44.0,1052.403914853988,1,1,1,0.0,2.0
2021-09-24 11:47:07.219,1047.0,13.0,6.0,1047.0978941818191,1,1,1,0.0,2.0
2021-09-24 11:47:07.227,1046.0,-64.0,1.0,1047.9565830701194,1,1,1,0.0,2.0
2021-09-24 11:47:07.236,960.0,-64.0,1.0,962.1314878954956,1,1,1,0.0,2.0
2021-09-24 11:47:07.237,960.0,-169.0,5.0,974.774845797736,1,1,1,0.0,2.0
2021-09-24 11:47:07.249,1039.0,69.0,-32.0,1041.780207145442,1,1,1,0.0,2.0
2021-09-24 11:47:07.256,1023.0,155.0,2.0,1034.6777276041078,1,1,1,0.0,2.0
2021-09-24 11:47:07.275,1088.0,23.0,3.0,1088.2472145611032,1,1,1,0.0,2.0
2021-09-24 11:47:07.278,1061.0,2.0,30.0,1061.425927702918,1,1,1,0.0,2.0
2021-09-24 11:47:07.286,1000.0,-148.0,-20.0,1011.090500400434,1,1,1,0.0,2.0
2021-09-24 11:47:07.296,1016.0,52.0,-3.0,1017.3342616859024,1,1,1,0.0,2.0
2021-09-24 11:47:07.305,1045.0,114.0,-24.0,1051.4737276793935,1,1,1,0.0,2.0
2021-09-24 11:47:07.314,994.0,114.0,-24.0,1000.8036770515984,1,1,1,0.0,2.0
2021-09-24 11:47:07.315,994.0,-26.0,6.0,994.3580843941482,1,1,1,0.0,2.0
2021-09-24 11:47:07.324,1032.0,-143.0,-21.0,1042.0719744816097,1,1,1,0.0,2.0
2021-09-24 11:47:07.335,984.0,-191.0,14.0,1002.4634656684502,1,1,1,0.0,2.0
2021-09-24 11:47:07.347,1048.0,73.0,55.0,1051.9781366549405,1,1,1,0.0,2.0
2021-09-24 11:47:07.354,1037.0,192.0,36.0,1055.2388355249252,1,1,1,0.0,2.0
2021-09-24 11:47:07.363,1028.0,28.0,36.0,1029.0111758382411,1,1,1,0.0,2.0
2021-09-24 11:47:07.364,1028.0,28.0,10.0,1028.4298712114503,1,1,1,0.0,2.0
2021-09-24 11:47:07.373,1064.0,-2.0,41.0,1064.7915288919237,1,1,1,0.0,2.0
2021-09-24 11:47:07.383,996.0,-2.0,41.0,996.8455246426098,1,1,1,0.0,2.0
2021-09-24 11:47:07.384,996.0,-124.0,-12.0,1003.760927711375,1,1,1,0.0,2.0
2021-09-24 11:47:07.392,1011.0,-124.0,-12.0,1018.6466511995216,1,1,1,0.0,2.0
2021-09-24 11:47:07.393,1011.0,48.0,-3.0,1012.1432704908924,1,1,1,0.0,2.0
2021-09-24 11:47:07.402,1006.0,70.0,-3.0,1008.436909280893,1,1,1,0.0,2.0
2021-09-24 11:47:07.403,1006.0,70.0,-29.0,1008.8493445505133,1,1,1,0.0,2.0
2021-09-24 11:47:07.413,999.0,0.0,9.0,999.0405397179836,1,1,1,0.0,2.0
2021-09-24 11:47:07.422,905.0,44.0,-1.0,906.06953375555,1,1,1,0.0,2.0
2021-09-24 11:47:07.432,947.0,-204.0,11.0,968.7858380467792,1,1,1,0.0,2.0
2021-09-24 11:47:07.443,1047.0,31.0,41.0,1048.2609407967084,1,1,1,0.0,2.0
2021-09-24 11:47:07.451,1071.0,135.0,6.0,1079.49154697941,1,1,1,0.0,2.0
2021-09-24 11:47:07.461,976.0,87.0,7.0,979.8948923226408,1,1,1,0.0,2.0
2021-09-24 11:47:07.471,944.0,17.0,-16.0,944.2886211323316,1,1,1,0.0,2.0
2021-09-24 11:47:07.480,960.0,17.0,-16.0,960.2838122138684,1,1,1,0.0,2.0
2021-09-24 11:47:07.481,960.0,-206.0,-32.0,982.3746739406508,1,1,1,0.0,2.0
2021-09-24 11:47:07.491,1037.0,98.0,18.0,1041.7758876073108,1,1,1,0.0,2.0
2021-09-24 11:47:07.500,1041.0,112.0,-17.0,1047.1456441202436,1,1,1,0.0,2.0
2021-09-24 11:47:07.510,998.0,9.0,0.0,998.0405803372928,1,1,1,0.0,2.0
2021-09-24 11:47:07.520,976.0,77.0,0.0,979.0326858690674,1,1,1,0.0,2.0
2021-09-24 11:47:07.529,995.0,200.0,5.0,1014.9137894422364,1,1,1,0.0,2.0
2021-09-24 11:47:07.540,1050.0,93.0,29.0,1054.509364586204,1,1,1,0.0,2.0
2021-09-24 11:47:07.553,1071.0,126.0,-1.0,1078.3867580789372,1,1,1,0.0,2.0
2021-09-24 11:47:07.558,1009.0,126.0,-1.0,1016.8372534481612,1,1,1,0.0,2.0
2021-09-24 11:47:07.559,1009.0,-6.0,11.0,1009.0777968026052,1,1,1,0.0,2.0
2021-09-24 11:47:07.569,924.0,9.0,-5.0,924.057357527118,1,1,1,0.0,2.0
2021-09-24 11:47:07.578,972.0,155.0,9.0,984.3221017532828,1,1,1,0.0,2.0
2021-09-24 11:47:07.588,1075.0,49.0,9.0,1076.1537994171651,1,1,1,0.0,2.0
2021-09-24 11:47:07.589,1075.0,49.0,1.0,1076.1166293669105,1,1,1,0.0,2.0
2021-09-24 11:47:07.608,1037.0,75.0,-40.0,1040.477774870756,1,1,1,0.0,2.0
2021-09-24 11:47:07.611,1010.0,54.0,8.0,1011.4741716919914,1,1,1,0.0,2.0
2021-09-24 11:47:07.618,985.0,54.0,8.0,986.5115305965764,1,1,1,0.0,2.0
2021-09-24 11:47:07.619,985.0,56.0,11.0,986.6519143041278,1,1,1,0.0,2.0
2021-09-24 11:47:07.627,952.0,174.0,6.0,967.789233252778,1,1,1,0.0,2.0
2021-09-24 11:47:07.637,1059.0,38.0,-7.0,1059.7046758413403,1,1,1,0.0,2.0
2021-09-24 11:47:07.646,1008.0,38.0,-7.0,1008.7403035469536,1,1,1,0.0,2.0
2021-09-24 11:47:07.647,1008.0,-153.0,13.0,1019.6283636698226,1,1,1,0.0,2.0
2021-09-24 11:47:07.660,965.0,-20.0,-22.0,965.4579224388808,1,1,1,0.0,2.0
2021-09-24 11:47:07.668,957.0,-25.0,-9.0,957.3687899654972,1,1,1,0.0,2.0
2021-09-24 11:47:07.676,951.0,243.0,12.0,981.6282392026015,1,1,1,0.0,2.0
2021-09-24 11:47:07.686,1115.0,56.0,11.0,1116.4595827883784,1,1,1,0.0,2.0
2021-09-24 11:47:07.695,955.0,-39.0,11.0,955.8592992695106,1,1,1,0.0,2.0
2021-09-24 11:47:07.696,955.0,-39.0,9.0,955.8383754589476,1,1,1,0.0,2.0
2021-09-24 11:47:07.705,1006.0,-171.0,15.0,1020.5400531091368,1,1,1,0.0,2.0
2021-09-24 11:47:07.717,994.0,42.0,25.0,995.2009847262008,1,1,1,0.0,2.0
2021-09-24 11:47:07.725,988.0,162.0,13.0,1001.277683762102,1,1,1,0.0,2.0
2021-09-24 11:47:07.734,1054.0,61.0,13.0,1055.843738438601,1,1,1,0.0,2.0
2021-09-24 11:47:07.735,1054.0,61.0,13.0,1055.843738438601,1,1,1,0.0,2.0
2021-09-24 11:47:07.744,1001.0,-63.0,23.0,1003.2442374616462,1,1,1,0.0,2.0
2021-09-24 11:47:07.754,932.0,-94.0,18.0,936.9012754821076,1,1,1,0.0,2.0
2021-09-24 11:47:07.766,985.0,24.0,-4.0,985.3004617881796,1,1,1,0.0,2.0
2021-09-24 11:47:07.773,926.0,24.0,-4.0,926.319599274462,1,1,1,0.0,2.0
2021-09-24 11:47:07.774,926.0,206.0,-20.0,948.847722239981,1,1,1,0.0,2.0
2021-09-24 11:47:07.783,1095.0,-37.0,-20.0,1095.8074648404254,1,1,1,0.0,2.0
2021-09-24 11:47:07.784,1095.0,-37.0,0.0,1095.6249358242994,1,1,1,0.0,2.0
2021-09-24 11:47:07.793,985.0,6.0,50.0,986.2864695411774,1,1,1,0.0,2.0
2021-09-24 11:47:07.803,1009.0,-159.0,15.0,1021.5610603385388,1,1,1,0.0,2.0
2021-09-24 11:47:07.815,1058.0,90.0,-2.0,1061.8229607613505,1,1,1,0.0,2.0
2021-09-24 11:47:07.822,1013.0,164.0,-8.0,1026.2207364889875,1,1,1,0.0,2.0
2021-09-24 11:47:07.842,1070.0,115.0,-8.0,1076.191897386335,1,1,1,0.0,2.0
2021-09-24 11:47:07.843,1070.0,115.0,8.0,1076.191897386335,1,1,1,0.0,2.0
2021-09-24 11:47:07.844,1012.0,-90.0,35.0,1016.596773553802,1,1,1,0.0,2.0
2021-09-24 11:47:07.851,945.0,-90.0,35.0,949.9210493509448,1,1,1,0.0,2.0
2021-09-24 11:47:07.852,945.0,-110.0,0.0,951.3805757949864,1,1,1,0.0,2.0
2021-09-24 11:47:07.861,1066.0,56.0,0.0,1067.4699058989906,1,1,1,0.0,2.0
2021-09-24 11:47:07.862,1066.0,56.0,23.0,1067.7176593088643,1,1,1,0.0,2.0
2021-09-24 11:47:07.872,1122.0,43.0,13.0,1122.8989268852297,1,1,1,0.0,2.0
2021-09-24 11:47:07.881,1114.0,24.0,17.0,1114.3881729451368,1,1,1,0.0,2.0
2021-09-24 11:47:07.891,1005.0,29.0,62.0,1007.328149115272,1,1,1,0.0,2.0
2021-09-24 11:47:07.900,971.0,-74.0,62.0,975.7873743803,1,1,1,0.0,2.0
2021-09-24 11:47:07.901,971.0,-74.0,3.0,973.820311967254,1,1,1,0.0,2.0
2021-09-24 11:47:07.911,1016.0,77.0,-14.0,1019.0098134954344,1,1,1,0.0,2.0
2021-09-24 11:47:07.921,1034.0,0.0,-40.0,1034.7734051472332,1,1,1,0.0,2.0
2021-09-24 11:47:07.930,962.0,-87.0,-4.0,965.9342627736112,1,1,1,0.0,2.0
2021-09-24 11:47:07.940,936.0,-42.0,-2.0,936.9439684420836,1,1,1,0.0,2.0
2021-09-24 11:47:07.949,985.0,-96.0,21.0,989.8898928668784,1,1,1,0.0,2.0
2021-09-24 11:47:07.959,1089.0,74.0,35.0,1092.07234192612,1,1,1,0.0,2.0
2021-09-24 11:47:07.970,1058.0,15.0,9.0,1058.1446025945604,1,1,1,0.0,2.0
2021-09-24 11:47:07.978,988.0,15.0,9.0,988.1548461653164,1,1,1,0.0,2.0
2021-09-24 11:47:07.979,988.0,-53.0,9.0,989.4614696894467,1,1,1,0.0,2.0
2021-09-24 11:47:07.988,962.0,16.0,9.0,962.1751399823216,1,1,1,0.0,2.0
2021-09-24 11:47:07.989,962.0,16.0,6.0,962.1517551821022,1,1,1,0.0,2.0
2021-09-24 11:47:07.998,1028.0,-92.0,25.0,1032.41125526604,1,1,1,0.0,2.0
2021-09-24 11:47:08.008,1028.0,92.0,-12.0,1032.1782791746782,1,1,1,0.0,2.0
2021-09-24 11:47:08.017,1060.0,92.0,-12.0,1064.052630277281,1,1,1,0.0,2.0
2021-09-24 11:47:08.018,1060.0,-41.0,-42.0,1061.6237563280129,1,1,1,0.0,2.0
2021-09-24 11:47:08.029,971.0,-49.0,0.0,972.2355681623668,1,1,1,0.0,2.0
2021-09-24 11:47:08.037,982.0,82.0,20.0,985.6206166674884,1,1,1,0.0,2.0
2021-09-24 11:47:08.047,1006.0,203.0,-21.0,1026.4920847235014,1,1,1,0.0,2.0
2021-09-24 11:47:08.057,1070.0,121.0,32.0,1077.295224160954,1,1,1,0.0,2.0
2021-09-24 11:47:08.067,1073.0,-30.0,27.0,1073.7588183572695,1,1,1,0.0,2.0
2021-09-24 11:47:08.077,935.0,-58.0,20.0,937.0106722978132,1,1,1,0.0,2.0
2021-09-24 11:47:08.086,982.0,11.0,27.0,982.432694895686,1,1,1,0.0,2.0
2021-09-24 11:47:08.096,1000.0,141.0,-40.0,1010.6834321388671,1,1,1,0.0,2.0
2021-09-24 11:47:08.105,1110.0,141.0,-40.0,1119.6343153012058,1,1,1,0.0,2.0
2021-09-24 11:47:08.106,1110.0,81.0,36.0,1113.533564828649,1,1,1,0.0,2.0
2021-09-24 11:47:08.115,1038.0,-48.0,-33.0,1039.6331083608293,1,1,1,0.0,2.0
2021-09-24 11:47:08.125,964.0,-48.0,-33.0,965.758251323798,1,1,1,0.0,2.0
2021-09-24 11:47:08.126,964.0,-57.0,4.0,965.691979877642,1,1,1,0.0,2.0
2021-09-24 11:47:08.137,953.0,106.0,6.0,958.8957190435256,1,1,1,0.0,2.0
2021-09-24 11:47:08.145,1031.0,186.0,0.0,1047.6435462503457,1,1,1,0.0,2.0
2021-09-24 11:47:08.154,1044.0,77.0,0.0,1046.8357082178654,1,1,1,0.0,2.0
2021-09-24 11:47:08.155,1044.0,77.0,18.0,1046.9904488580592,1,1,1,0.0,2.0
2021-09-24 11:47:08.164,984.0,-82.0,-9.0,987.4517709741576,1,1,1,0.0,2.0
2021-09-24 11:47:08.174,960.0,-52.0,-9.0,961.4494266470806,1,1,1,0.0,2.0
2021-09-24 11:47:08.175,960.0,-52.0,50.0,962.7066012030872,1,1,1,0.0,2.0
2021-09-24 11:47:08.185,988.0,35.0,58.0,990.3196453670904,1,1,1,0.0,2.0
2021-09-24 11:47:08.193,996.0,122.0,58.0,1005.1188984393837,1,1,1,0.0,2.0
2021-09-24 11:47:08.194,996.0,122.0,-22.0,1003.6852096150466,1,1,1,0.0,2.0
2021-09-24 11:47:08.203,1059.0,66.0,2.0,1061.0565489171631,1,1,1,0.0,2.0
2021-09-24 11:47:08.213,955.0,-38.0,13.0,955.8441295525124,1,1,1,0.0,2.0
2021-09-24 11:47:08.223,1018.0,3.0,27.0,1018.3624109323752,1,1,1,0.0,2.0
2021-09-24 11:47:08.233,989.0,64.0,27.0,991.4363317934238,1,1,1,0.0,2.0
2021-09-24 11:47:08.234,989.0,64.0,6.0,991.0867772299256,1,1,1,0.0,2.0
2021-09-24 11:47:08.242,996.0,206.0,15.0,1017.190739242154,1,1,1,0.0,2.0
2021-09-24 11:47:08.252,1072.0,81.0,17.0,1075.1902157292914,1,1,1,0.0,2.0
2021-09-24 11:47:08.262,965.0,-79.0,-28.0,968.6330574577764,1,1,1,0.0,2.0
2021-09-24 11:47:08.271,952.0,-79.0,-28.0,955.6824786507284,1,1,1,0.0,2.0
2021-09-24 11:47:08.272,952.0,49.0,-5.0,953.2733081336116,1,1,1,0.0,2.0
2021-09-24 11:47:08.281,1077.0,49.0,-5.0,1078.1256884055774,1,1,1,0.0,2.0
2021-09-24 11:47:08.282,1077.0,107.0,25.0,1082.590873783813,1,1,1,0.0,2.0
2021-09-24 11:47:08.298,1029.0,107.0,25.0,1034.850230709739,1,1,1,0.0,2.0
2021-09-24 11:47:08.299,1029.0,199.0,-32.0,1048.554242755233,1,1,1,0.0,2.0
2021-09-24 11:47:08.301,1071.0,4.0,0.0,1071.0074696284803,1,1,1,0.0,2.0
2021-09-24 11:47:08.311,959.0,-36.0,10.0,959.7275655101296,1,1,1,0.0,2.0
2021-09-24 11:47:08.321,1024.0,-12.0,25.0,1024.3754194630014,1,1,1,0.0,2.0
2021-09-24 11:47:08.330,1093.0,-12.0,25.0,1093.3517274875455,1,1,1,0.0,2.0
2021-09-24 11:47:08.331,1093.0,101.0,18.0,1097.804171972397,1,1,1,0.0,2.0
2021-09-24 11:47:08.340,1027.0,195.0,-3.0,1045.3530504092864,1,1,1,0.0,2.0
2021-09-24 11:47:08.349,1082.0,195.0,-3.0,1099.4353096021612,1,1,1,0.0,2.0
2021-09-24 11:47:08.350,1082.0,67.0,28.0,1084.4339537288567,1,1,1,0.0,2.0
2021-09-24 11:47:08.359,965.0,-49.0,28.0,966.6488504105304,1,1,1,0.0,2.0
2021-09-24 11:47:08.360,965.0,-49.0,-21.0,966.4714170631224,1,1,1,0.0,2.0
2021-09-24 11:47:08.369,942.0,-14.0,-6.0,942.1231342027432,1,1,1,0.0,2.0
2021-09-24 11:47:08.380,1060.0,28.0,25.0,1060.6644144120232,1,1,1,0.0,2.0
2021-09-24 11:47:08.389,1021.0,40.0,32.0,1022.2842070579004,1,1,1,0.0,2.0
2021-09-24 11:47:08.398,1075.0,40.0,32.0,1076.2197730946964,1,1,1,0.0,2.0
2021-09-24 11:47:08.399,1075.0,-10.0,2.0,1075.0483710047656,1,1,1,0.0,2.0
2021-09-24 11:47:08.408,957.0,-10.0,7.0,957.0778442739128,1,1,1,0.0,2.0
2021-09-24 11:47:08.418,1036.0,-10.0,7.0,1036.0719087013215,1,1,1,0.0,2.0
2021-09-24 11:47:08.419,1036.0,-37.0,37.0,1037.3205868968378,1,1,1,0.0,2.0
2021-09-24 11:47:08.428,1053.0,-37.0,37.0,1054.2992933697717,1,1,1,0.0,2.0
2021-09-24 11:47:08.429,1053.0,54.0,-6.0,1054.400777693188,1,1,1,0.0,2.0
2021-09-24 11:47:08.437,1041.0,54.0,-6.0,1042.416903163029,1,1,1,0.0,2.0
2021-09-24 11:47:08.438,1041.0,-51.0,-7.0,1042.2720374259304,1,1,1,0.0,2.0
2021-09-24 11:47:08.447,970.0,-116.0,-7.0,976.9365383687928,1,1,1,0.0,2.0
2021-09-24 11:47:08.448,970.0,-116.0,-7.0,976.9365383687928,1,1,1,0.0,2.0
2021-09-24 11:47:08.457,953.0,-2.0,-23.0,953.2796022154256,1,1,1,0.0,2.0
2021-09-24 11:47:08.467,976.0,32.0,1.0,976.5249612785124,1,1,1,0.0,2.0
2021-09-24 11:47:08.477,1052.0,70.0,20.0,1054.5160027235245,1,1,1,0.0,2.0
2021-09-24 11:47:08.487,1073.0,-23.0,44.0,1074.148034490591,1,1,1,0.0,2.0
2021-09-24 11:47:08.496,977.0,-108.0,35.0,983.5740948195006,1,1,1,0.0,2.0
2021-09-24 11:47:08.506,1008.0,51.0,46.0,1010.337072466412,1,1,1,0.0,2.0
2021-09-24 11:47:08.516,1036.0,-44.0,30.0,1037.367822905646,1,1,1,0.0,2.0
2021-09-24 11:47:08.525,1020.0,35.0,30.0,1021.041135312383,1,1,1,0.0,2.0
2021-09-24 11:47:08.526,1020.0,35.0,4.0,1020.608152034854,1,1,1,0.0,2.0
2021-09-24 11:47:08.536,1072.0,-93.0,-20.0,1076.212339643065,1,1,1,0.0,2.0
2021-09-24 11:47:08.561,932.0,-55.0,-41.0,934.5212678157732,1,1,1,0.0,2.0
2021-09-24 11:47:08.580,987.0,81.0,2.0,990.3201502544518,1,1,1,0.0,2.0
2021-09-24 11:47:08.610,949.0,90.0,2.0,953.2601953296906,1,1,1,0.0,2.0
2021-09-24 11:47:08.611,949.0,90.0,15.0,953.3761062665668,1,1,1,0.0,2.0
2021-09-24 11:47:08.628,1036.0,-21.0,47.0,1037.278169055919,1,1,1,0.0,2.0
2021-09-24 11:47:08.630,1019.0,174.0,-4.0,1033.7567412113935,1,1,1,0.0,2.0
2021-09-24 11:47:08.632,1048.0,100.0,20.0,1052.9501412697564,1,1,1,0.0,2.0
2021-09-24 11:47:08.635,1065.0,19.0,-1.0,1065.1699394932248,1,1,1,0.0,2.0
2021-09-24 11:47:08.643,976.0,-61.0,-31.0,978.3956255012592,1,1,1,0.0,2.0
2021-09-24 11:47:08.652,993.0,53.0,-31.0,994.89647702663,1,1,1,0.0,2.0
2021-09-24 11:47:08.653,993.0,53.0,-5.0,994.4259650672844,1,1,1,0.0,2.0
2021-09-24 11:47:08.670,1014.0,53.0,-5.0,1015.396474289723,1,1,1,0.0,2.0
2021-09-24 11:47:08.671,1014.0,97.0,0.0,1018.6289805419832,1,1,1,0.0,2.0
2021-09-24 11:47:08.674,1022.0,55.0,3.0,1023.4832680605972,1,1,1,0.0,2.0
2021-09-24 11:47:08.682,1053.0,-52.0,7.0,1054.3064070752866,1,1,1,0.0,2.0
2021-09-24 11:47:08.692,990.0,-135.0,36.0,999.8104820414716,1,1,1,0.0,2.0
2021-09-24 11:47:08.701,1040.0,-135.0,36.0,1049.3431278661903,1,1,1,0.0,2.0
2021-09-24 11:47:08.702,1040.0,17.0,34.0,1040.6944796624991,1,1,1,0.0,2.0
2021-09-24 11:47:08.711,1066.0,169.0,-2.0,1079.3150605824048,1,1,1,0.0,2.0
2021-09-24 11:47:08.721,1066.0,31.0,21.0,1066.6573957930448,1,1,1,0.0,2.0
2021-09-24 11:47:08.730,908.0,31.0,21.0,908.7716985029848,1,1,1,0.0,2.0
2021-09-24 11:47:08.731,908.0,15.0,0.0,908.1238902264382,1,1,1,0.0,2.0
2021-09-24 11:47:08.740,947.0,-109.0,0.0,953.2523275607566,1,1,1,0.0,2.0
2021-09-24 11:47:08.741,947.0,-109.0,-2.0,953.2544256388218,1,1,1,0.0,2.0
2021-09-24 11:47:08.750,1016.0,56.0,13.0,1017.625176575344,1,1,1,0.0,2.0
2021-09-24 11:47:08.760,1035.0,132.0,-24.0,1043.6594272079374,1,1,1,0.0,2.0
2021-09-24 11:47:08.770,1054.0,100.0,30.0,1059.158156273179,1,1,1,0.0,2.0
2021-09-24 11:47:08.780,974.0,-76.0,-19.0,977.1453320770662,1,1,1,0.0,2.0
2021-09-24 11:47:08.789,940.0,128.0,9.0,948.717555439974,1,1,1,0.0,2.0
2021-09-24 11:47:08.799,1037.0,128.0,9.0,1044.9086084438195,1,1,1,0.0,2.0
2021-09-24 11:47:08.800,1037.0,-7.0,36.0,1037.6483026536496,1,1,1,0.0,2.0
2021-09-24 11:47:08.809,998.0,-7.0,36.0,998.6736203585232,1,1,1,0.0,2.0
2021-09-24 11:47:08.810,998.0,155.0,-37.0,1010.642369980598,1,1,1,0.0,2.0
2021-09-24 11:47:08.818,1068.0,19.0,-37.0,1068.8096182201955,1,1,1,0.0,2.0
2021-09-24 11:47:08.819,1068.0,19.0,24.0,1068.438580359208,1,1,1,0.0,2.0
2021-09-24 11:47:08.828,939.0,-4.0,11.0,939.0729471132688,1,1,1,0.0,2.0
2021-09-24 11:47:08.838,1008.0,37.0,46.0,1009.7271908788036,1,1,1,0.0,2.0
2021-09-24 11:47:08.855,1049.0,37.0,46.0,1050.65979270171,1,1,1,0.0,2.0
2021-09-24 11:47:08.856,1049.0,78.0,25.0,1052.1929480850931,1,1,1,0.0,2.0
2021-09-24 11:47:08.858,994.0,169.0,-10.0,1008.3139392074276,1,1,1,0.0,2.0
2021-09-24 11:47:08.867,1065.0,36.0,-10.0,1065.6551975193477,1,1,1,0.0,2.0
2021-09-24 11:47:08.868,1065.0,36.0,8.0,1065.6383063685353,1,1,1,0.0,2.0
2021-09-24 11:47:08.877,963.0,36.0,8.0,963.7058679908512,1,1,1,0.0,2.0
2021-09-24 11:47:08.878,963.0,-32.0,-2.0,963.5336008671416,1,1,1,0.0,2.0
2021-09-24 11:47:08.887,906.0,127.0,13.0,914.9502718727396,1,1,1,0.0,2.0
2021-09-24 11:47:08.897,1038.0,2.0,10.0,1038.050095130288,1,1,1,0.0,2.0
2021-09-24 11:47:08.906,1039.0,121.0,40.0,1046.7865111855426,1,1,1,0.0,2.0
2021-09-24 11:47:08.916,1050.0,17.0,-5.0,1050.1495131646732,1,1,1,0.0,2.0
2021-09-24 11:47:08.927,912.0,47.0,18.0,913.3876504529716,1,1,1,0.0,2.0
2021-09-24 11:47:08.937,1032.0,61.0,53.0,1035.1589249965436,1,1,1,0.0,2.0
2021-09-24 11:47:08.945,1057.0,103.0,53.0,1063.3282654006712,1,1,1,0.0,2.0
2021-09-24 11:47:08.946,1057.0,103.0,-7.0,1062.0296606027537,1,1,1,0.0,2.0
2021-09-24 11:47:08.955,1070.0,-37.0,-8.0,1070.6694167669125,1,1,1,0.0,2.0
2021-09-24 11:47:08.965,960.0,-121.0,-31.0,968.0919377827709,1,1,1,0.0,2.0
2021-09-24 11:47:08.975,966.0,2.0,-13.0,966.0895403636248,1,1,1,0.0,2.0
2021-09-24 11:47:08.986,948.0,94.0,1.0,952.6494633389556,1,1,1,0.0,2.0
2021-09-24 11:47:08.994,1056.0,63.0,11.0,1057.9347805985017,1,1,1,0.0,2.0
2021-09-24 11:47:09.004,1054.0,-12.0,22.0,1054.297870622909,1,1,1,0.0,2.0
2021-09-24 11:47:09.014,972.0,-129.0,12.0,980.5962471884134,1,1,1,0.0,2.0
2021-09-24 11:47:09.023,929.0,-129.0,12.0,937.9904050681968,1,1,1,0.0,2.0
2021-09-24 11:47:09.024,929.0,4.0,7.0,929.034983194928,1,1,1,0.0,2.0
2021-09-24 11:47:09.034,987.0,62.0,6.0,988.9635989256632,1,1,1,0.0,2.0
2021-09-24 11:47:09.044,1083.0,62.0,6.0,1084.7898413978626,1,1,1,0.0,2.0
2021-09-24 11:47:09.045,1083.0,28.0,-18.0,1083.5114212596006,1,1,1,0.0,2.0
2021-09-24 11:47:09.053,1077.0,-30.0,0.0,1077.4177462804296,1,1,1,0.0,2.0
2021-09-24 11:47:09.062,968.0,-30.0,0.0,968.4647644597092,1,1,1,0.0,2.0
2021-09-24 11:47:09.063,968.0,-85.0,-8.0,971.7576858456022,1,1,1,0.0,2.0
2021-09-24 11:47:09.072,1041.0,70.0,0.0,1043.3508518231056,1,1,1,0.0,2.0
2021-09-24 11:47:09.082,952.0,152.0,19.0,964.2453007404288,1,1,1,0.0,2.0
2021-09-24 11:47:09.093,1078.0,152.0,19.0,1088.8291877057668,1,1,1,0.0,2.0
2021-09-24 11:47:09.094,1078.0,50.0,0.0,1079.158931761212,1,1,1,0.0,2.0
2021-09-24 11:47:09.102,1069.0,-40.0,2.0,1069.7499707875668,1,1,1,0.0,2.0
2021-09-24 11:47:09.111,955.0,-99.0,2.0,960.1197841936182,1,1,1,0.0,2.0
2021-09-24 11:47:09.112,955.0,-99.0,11.0,960.1807121578728,1,1,1,0.0,2.0
2021-09-24 11:47:09.121,1045.0,59.0,33.0,1047.1843199742823,1,1,1,0.0,2.0
2021-09-24 11:47:09.131,1029.0,91.0,1.0,1033.0164567905006,1,1,1,0.0,2.0
2021-09-24 11:47:09.142,1057.0,107.0,-9.0,1062.4401159594831,1,1,1,0.0,2.0
2021-09-24 11:47:09.150,1048.0,107.0,-9.0,1053.4865922260235,1,1,1,0.0,2.0
2021-09-24 11:47:09.151,1048.0,-55.0,-10.0,1049.489876082661,1,1,1,0.0,2.0
2021-09-24 11:47:09.160,965.0,-81.0,9.0,968.4353359930648,1,1,1,0.0,2.0
2021-09-24 11:47:09.170,971.0,2.0,-12.0,971.0762071022028,1,1,1,0.0,2.0
2021-09-24 11:47:09.180,1027.0,57.0,-22.0,1028.8158241395784,1,1,1,0.0,2.0
2021-09-24 11:47:09.190,986.0,57.0,-2.0,987.6482167249632,1,1,1,0.0,2.0
2021-09-24 11:47:09.201,1010.0,23.0,13.0,1010.3454854652442,1,1,1,0.0,2.0
2021-09-24 11:47:09.209,984.0,-102.0,29.0,989.6974285103504,1,1,1,0.0,2.0
2021-09-24 11:47:09.219,1019.0,64.0,54.0,1022.4348389995324,1,1,1,0.0,2.0
2021-09-24 11:47:09.229,1012.0,136.0,-6.0,1021.115076766571,1,1,1,0.0,2.0
2021-09-24 11:47:09.238,1044.0,-29.0,-6.0,1044.4199347005974,1,1,1,0.0,2.0
2021-09-24 11:47:09.239,1044.0,-29.0,-18.0,1044.5578011771297,1,1,1,0.0,2.0
2021-09-24 11:47:09.252,976.0,44.0,-18.0,977.157100982232,1,1,1,0.0,2.0
2021-09-24 11:47:09.253,976.0,44.0,9.0,977.0327527775104,1,1,1,0.0,2.0
2021-09-24 11:47:09.258,955.0,-80.0,11.0,958.4080550579696,1,1,1,0.0,2.0
2021-09-24 11:47:09.268,970.0,81.0,7.0,973.4012533380056,1,1,1,0.0,2.0
2021-09-24 11:47:09.277,1072.0,81.0,7.0,1075.078601777563,1,1,1,0.0,2.0
2021-09-24 11:47:09.278,1072.0,118.0,13.0,1078.5531975753445,1,1,1,0.0,2.0
2021-09-24 11:47:09.288,1015.0,62.0,20.0,1017.0884917252775,1,1,1,0.0,2.0
2021-09-24 11:47:09.297,958.0,-68.0,-16.0,960.5435960954608,1,1,1,0.0,2.0
2021-09-24 11:47:09.313,975.0,-68.0,-16.0,977.4993606136017,1,1,1,0.0,2.0
2021-09-24 11:47:09.314,975.0,125.0,-5.0,982.9928789162208,1,1,1,0.0,2.0
2021-09-24 11:47:09.317,1039.0,-84.0,26.0,1042.7142465699794,1,1,1,0.0,2.0
2021-09-24 11:47:09.326,999.0,147.0,26.0,1010.0920750109864,1,1,1,0.0,2.0
2021-09-24 11:47:09.327,999.0,147.0,5.0,1009.7697757409854,1,1,1,0.0,2.0
2021-09-24 11:47:09.336,1019.0,58.0,-20.0,1020.8452380258234,1,1,1,0.0,2.0
2021-09-24 11:47:09.348,986.0,51.0,17.0,987.4644297391172,1,1,1,0.0,2.0
2021-09-24 11:47:09.355,991.0,51.0,17.0,992.4570519674894,1,1,1,0.0,2.0
2021-09-24 11:47:09.356,991.0,156.0,11.0,1003.263674215308,1,1,1,0.0,2.0
2021-09-24 11:47:09.365,1005.0,84.0,11.0,1008.5643261587236,1,1,1,0.0,2.0
2021-09-24 11:47:09.366,1005.0,84.0,-4.0,1008.5122706244084,1,1,1,0.0,2.0
2021-09-24 11:47:09.375,1048.0,55.0,-15.0,1049.5494271352827,1,1,1,0.0,2.0
2021-09-24 11:47:09.385,1025.0,-18.0,-30.0,1025.596899371288,1,1,1,0.0,2.0
2021-09-24 11:47:09.396,1009.0,-32.0,-12.0,1009.5786249718244,1,1,1,0.0,2.0
2021-09-24 11:47:09.404,968.0,241.0,-12.0,997.6216717774328,1,1,1,0.0,2.0
2021-09-24 11:47:09.405,968.0,241.0,-9.0,997.5900961817936,1,1,1,0.0,2.0
2021-09-24 11:47:09.414,1067.0,59.0,10.0,1068.6767518758888,1,1,1,0.0,2.0
2021-09-24 11:47:09.424,1068.0,117.0,-7.0,1074.412397545747,1,1,1,0.0,2.0
2021-09-24 11:47:09.434,1005.0,-53.0,11.0,1006.4566557979534,1,1,1,0.0,2.0
2021-09-24 11:47:09.444,889.0,12.0,-27.0,889.4908656079612,1,1,1,0.0,2.0
2021-09-24 11:47:09.454,1012.0,147.0,3.0,1022.6250534775686,1,1,1,0.0,2.0
2021-09-24 11:47:09.463,1109.0,88.0,35.0,1113.0363875453488,1,1,1,0.0,2.0
2021-09-24 11:47:09.473,1026.0,-13.0,26.0,1026.4117107671757,1,1,1,0.0,2.0
2021-09-24 11:47:09.482,981.0,-13.0,26.0,981.4305884778609,1,1,1,0.0,2.0
2021-09-24 11:47:09.483,981.0,99.0,26.0,986.3255040806762,1,1,1,0.0,2.0
2021-09-24 11:47:09.492,990.0,34.0,11.0,990.6447395509654,1,1,1,0.0,2.0
2021-09-24 11:47:09.503,975.0,34.0,11.0,975.6546520157632,1,1,1,0.0,2.0
2021-09-24 11:47:09.504,975.0,215.0,-5.0,998.4362773857928,1,1,1,0.0,2.0
2021-09-24 11:47:09.512,1023.0,47.0,-2.0,1024.0810514798134,1,1,1,0.0,2.0
2021-09-24 11:47:09.521,950.0,47.0,-2.0,951.1640237098962,1,1,1,0.0,2.0
2021-09-24 11:47:09.522,950.0,-7.0,26.0,950.3815023452424,1,1,1,0.0,2.0
2021-09-24 11:47:09.531,994.0,-114.0,26.0,1000.853635653086,1,1,1,0.0,2.0
2021-09-24 11:47:09.532,994.0,-114.0,-6.0,1000.533857498086,1,1,1,0.0,2.0
2021-09-24 11:47:09.541,903.0,9.0,7.0,903.071979412494,1,1,1,0.0,2.0
2021-09-24 11:47:09.552,1059.0,9.0,7.0,1059.0613768804903,1,1,1,0.0,2.0
2021-09-24 11:47:09.553,1059.0,167.0,10.0,1072.13338722381,1,1,1,0.0,2.0
2021-09-24 11:47:09.560,1074.0,167.0,10.0,1086.9521608608172,1,1,1,0.0,2.0
2021-09-24 11:47:09.561,1074.0,115.0,0.0,1080.1393428627623,1,1,1,0.0,2.0
2021-09-24 11:47:09.570,1012.0,115.0,0.0,1018.5131319722884,1,1,1,0.0,2.0
2021-09-24 11:47:09.571,1012.0,-80.0,41.0,1015.9847439799478,1,1,1,0.0,2.0
2021-09-24 11:47:09.580,964.0,-153.0,19.0,976.2509923170372,1,1,1,0.0,2.0
2021-09-24 11:47:09.590,947.0,26.0,1.0,947.3573771286104,1,1,1,0.0,2.0
2021-09-24 11:47:09.600,1017.0,209.0,1.0,1038.2538225308876,1,1,1,0.0,2.0
2021-09-24 11:47:09.601,1017.0,209.0,20.0,1038.445954299019,1,1,1,0.0,2.0
2021-09-24 11:47:09.610,1056.0,19.0,-9.0,1056.2092595693337,1,1,1,0.0,2.0
2021-09-24 11:47:09.632,965.0,-53.0,-5.0,966.4672782872684,1,1,1,0.0,2.0
2021-09-24 11:47:09.633,935.0,-22.0,17.0,935.4132776479069,1,1,1,0.0,2.0
2021-09-24 11:47:09.639,1056.0,60.0,2.0,1057.7050628601528,1,1,1,0.0,2.0
2021-09-24 11:47:09.648,953.0,60.0,2.0,954.8889987846756,1,1,1,0.0,2.0
2021-09-24 11:47:09.649,953.0,101.0,-2.0,958.339188387911,1,1,1,0.0,2.0
2021-09-24 11:47:09.659,1102.0,20.0,-9.0,1102.2182179586762,1,1,1,0.0,2.0
2021-09-24 11:47:09.675,1031.0,-37.0,18.0,1031.820720861914,1,1,1,0.0,2.0
2021-09-24 11:47:09.679,1013.0,-37.0,18.0,1013.8352923428934,1,1,1,0.0,2.0
2021-09-24 11:47:09.680,1013.0,-24.0,0.0,1013.2842641628262,1,1,1,0.0,2.0
2021-09-24 11:47:09.687,1050.0,-24.0,0.0,1050.274249898568,1,1,1,0.0,2.0
2021-09-24 11:47:09.688,1050.0,110.0,15.0,1055.8527359437962,1,1,1,0.0,2.0
2021-09-24 11:47:09.697,1062.0,54.0,15.0,1063.4777853815283,1,1,1,0.0,2.0
2021-09-24 11:47:09.698,1062.0,54.0,-16.0,1063.4923601041994,1,1,1,0.0,2.0
2021-09-24 11:47:09.707,1086.0,117.0,-22.0,1092.505835224691,1,1,1,0.0,2.0
2021-09-24 11:47:09.717,987.0,-63.0,-36.0,989.663579202549,1,1,1,0.0,2.0
2021-09-24 11:47:09.727,914.0,-8.0,44.0,915.0934378521137,1,1,1,0.0,2.0
2021-09-24 11:47:09.738,1062.0,105.0,30.0,1067.599644061387,1,1,1,0.0,2.0
2021-09-24 11:47:09.746,1067.0,7.0,30.0,1067.4446121462229,1,1,1,0.0,2.0
2021-09-24 11:47:09.756,1086.0,3.0,6.0,1086.0207180344214,1,1,1,0.0,2.0
2021-09-24 11:47:09.766,1031.0,-81.0,15.0,1034.2857438831882,1,1,1,0.0,2.0
2021-09-24 11:47:09.775,965.0,-81.0,15.0,968.5096798690244,1,1,1,0.0,2.0
2021-09-24 11:47:09.776,965.0,12.0,17.0,965.2243262578912,1,1,1,0.0,2.0
2021-09-24 11:47:09.786,1106.0,55.0,-7.0,1107.3888206045788,1,1,1,0.0,2.0
2021-09-24 11:47:09.795,1020.0,-2.0,-37.0,1020.6728173121884,1,1,1,0.0,2.0
2021-09-24 11:47:09.808,937.0,-129.0,-9.0,945.881070748326,1,1,1,0.0,2.0
2021-09-24 11:47:09.815,976.0,-115.0,-12.0,982.8250098567904,1,1,1,0.0,2.0
2021-09-24 11:47:09.824,943.0,-7.0,-12.0,943.1023274279414,1,1,1,0.0,2.0
2021-09-24 11:47:09.825,943.0,-7.0,29.0,943.47178018211,1,1,1,0.0,2.0
2021-09-24 11:47:09.835,1074.0,23.0,42.0,1075.0669746578585,1,1,1,0.0,2.0
2021-09-24 11:47:09.845,1034.0,43.0,-2.0,1034.895646913253,1,1,1,0.0,2.0
2021-09-24 11:47:09.859,995.0,-129.0,-2.0,1003.3294573568544,1,1,1,0.0,2.0
2021-09-24 11:47:09.860,995.0,-129.0,11.0,1003.387761535888,1,1,1,0.0,2.0
2021-09-24 11:47:09.870,985.0,40.0,48.0,986.9797363674696,1,1,1,0.0,2.0
2021-09-24 11:47:09.873,974.0,-8.0,-6.0,974.0513333495314,1,1,1,0.0,2.0
2021-09-24 11:47:09.883,1098.0,110.0,30.0,1103.90398133171,1,1,1,0.0,2.0
2021-09-24 11:47:09.892,1084.0,110.0,30.0,1089.9798163268897,1,1,1,0.0,2.0
2021-09-24 11:47:09.893,1084.0,37.0,-18.0,1084.7806229832831,1,1,1,0.0,2.0
2021-09-24 11:47:09.902,938.0,-150.0,-18.0,950.088416938129,1,1,1,0.0,2.0
2021-09-24 11:47:09.903,938.0,-150.0,-20.0,950.1284123738222,1,1,1,0.0,2.0
2021-09-24 11:47:09.914,930.0,-12.0,-20.0,930.2924271432076,1,1,1,0.0,2.0
2021-09-24 11:47:09.922,1023.0,229.0,3.0,1048.321992519474,1,1,1,0.0,2.0
2021-09-24 11:47:09.932,1029.0,-35.0,25.0,1029.8985386920403,1,1,1,0.0,2.0
2021-09-24 11:47:09.941,1070.0,138.0,25.0,1079.1519818820702,1,1,1,0.0,2.0
2021-09-24 11:47:09.942,1070.0,138.0,56.0,1080.3147689446812,1,1,1,0.0,2.0
2021-09-24 11:47:09.951,1058.0,-30.0,47.0,1059.46826285642,1,1,1,0.0,2.0
2021-09-24 11:47:09.962,1037.0,81.0,47.0,1041.2199575497964,1,1,1,0.0,2.0
2021-09-24 11:47:09.963,1037.0,81.0,33.0,1040.6819879290697,1,1,1,0.0,2.0
2021-09-24 11:47:09.971,981.0,187.0,-36.0,999.3127638532392,1,1,1,0.0,2.0
2021-09-24 11:47:09.980,1082.0,187.0,-36.0,1098.6305111364784,1,1,1,0.0,2.0
2021-09-24 11:47:09.981,1082.0,-97.0,0.0,1086.3392656072044,1,1,1,0.0,2.0
2021-09-24 11:47:09.990,1017.0,-58.0,-28.0,1019.0372907798812,1,1,1,0.0,2.0
2021-09-24 11:47:10.002,926.0,-106.0,-36.0,932.7421937491624,1,1,1,0.0,2.0
2021-09-24 11:47:10.010,987.0,84.0,-2.0,990.5700379074668,1,1,1,0.0,2.0
2021-09-24 11:47:10.019,1061.0,84.0,-2.0,1064.3218498179956,1,1,1,0.0,2.0
2021-09-24 11:47:10.020,1061.0,185.0,4.0,1077.0153202252975,1,1,1,0.0,2.0
2021-09-24 11:47:10.029,1057.0,120.0,4.0,1063.797443125335,1,1,1,0.0,2.0
2021-09-24 11:47:10.030,1057.0,120.0,-4.0,1063.797443125335,1,1,1,0.0,2.0
2021-09-24 11:47:10.039,879.0,36.0,-20.0,879.9642038174053,1,1,1,0.0,2.0
2021-09-24 11:47:10.049,980.0,-117.0,31.0,987.4462010661643,1,1,1,0.0,2.0
2021-09-24 11:47:10.059,1005.0,19.0,9.0,1005.2198764449496,1,1,1,0.0,2.0
2021-09-24 11:47:10.070,1075.0,151.0,22.0,1085.7762200379966,1,1,1,0.0,2.0
2021-09-24 11:47:10.078,1055.0,26.0,22.0,1055.5496198663518,1,1,1,0.0,2.0
2021-09-24 11:47:10.079,1055.0,26.0,-1.0,1055.3208043054965,1,1,1,0.0,2.0
2021-09-24 11:47:10.088,917.0,12.0,-5.0,917.0921436802302,1,1,1,0.0,2.0
2021-09-24 11:47:10.098,1016.0,-109.0,-5.0,1021.8424536101444,1,1,1,0.0,2.0
2021-09-24 11:47:10.099,1016.0,-109.0,-27.0,1022.1868713694184,1,1,1,0.0,2.0
2021-09-24 11:47:10.107,974.0,-109.0,-27.0,980.4519366088274,1,1,1,0.0,2.0
2021-09-24 11:47:10.108,974.0,74.0,-11.0,976.8689779085012,1,1,1,0.0,2.0
2021-09-24 11:47:10.118,1013.0,119.0,-18.0,1020.1245022054906,1,1,1,0.0,2.0
2021-09-24 11:47:10.127,1025.0,54.0,-10.0,1026.4701651777318,1,1,1,0.0,2.0
2021-09-24 11:47:10.137,980.0,1.0,11.0,980.062242921336,1,1,1,0.0,2.0
2021-09-24 11:47:10.146,968.0,1.0,11.0,968.06301447788,1,1,1,0.0,2.0
2021-09-24 11:47:10.147,968.0,98.0,22.0,973.1967940761006,1,1,1,0.0,2.0
2021-09-24 11:47:10.156,1086.0,53.0,22.0,1087.5150573670232,1,1,1,0.0,2.0
2021-09-24 11:47:10.157,1086.0,53.0,61.0,1089.0022956816942,1,1,1,0.0,2.0
2021-09-24 11:47:10.166,1008.0,234.0,-6.0,1034.8217237766123,1,1,1,0.0,2.0
2021-09-24 11:47:10.176,1079.0,-7.0,-9.0,1079.0602392823118,1,1,1,0.0,2.0
2021-09-24 11:47:10.186,883.0,38.0,13.0,883.9128916358218,1,1,1,0.0,2.0
2021-09-24 11:47:10.196,1008.0,-11.0,55.0,1009.559309798092,1,1,1,0.0,2.0
2021-09-24 11:47:10.209,1043.0,76.0,55.0,1047.2105805424237,1,1,1,0.0,2.0
2021-09-24 11:47:10.210,1043.0,76.0,2.0,1045.7671825028742,1,1,1,0.0,2.0
2021-09-24 11:47:10.215,1060.0,163.0,-3.0,1072.4635191930772,1,1,1,0.0,2.0
2021-09-24 11:47:10.226,1048.0,47.0,3.0,1049.0576723898453,1,1,1,0.0,2.0
2021-09-24 11:47:10.234,893.0,-24.0,3.0,893.3274875430623,1,1,1,0.0,2.0
2021-09-24 11:47:10.235,893.0,-24.0,-28.0,893.7611537765557,1,1,1,0.0,2.0
2021-09-24 11:47:10.245,940.0,72.0,19.0,942.9448552274944,1,1,1,0.0,2.0
2021-09-24 11:47:10.254,1057.0,53.0,9.0,1058.3661937155778,1,1,1,0.0,2.0
2021-09-24 11:47:10.264,1056.0,-41.0,40.0,1057.5523627698062,1,1,1,0.0,2.0
2021-09-24 11:47:10.274,1056.0,5.0,21.0,1056.220620893192,1,1,1,0.0,2.0
2021-09-24 11:47:10.283,903.0,-18.0,11.0,903.2463672774998,1,1,1,0.0,2.0
2021-09-24 11:47:10.293,961.0,77.0,40.0,964.9093221645234,1,1,1,0.0,2.0
2021-09-24 11:47:10.303,1088.0,92.0,10.0,1091.928569092319,1,1,1,0.0,2.0
2021-09-24 11:47:10.312,1072.0,92.0,10.0,1075.9869887689165,1,1,1,0.0,2.0
2021-09-24 11:47:10.313,1072.0,0.0,15.0,1072.104938893577,1,1,1,0.0,2.0
2021-09-24 11:47:10.330,1056.0,75.0,19.0,1058.8304869052458,1,1,1,0.0,2.0
2021-09-24 11:47:10.333,940.0,7.0,19.0,940.218059813786,1,1,1,0.0,2.0
2021-09-24 11:47:10.334,940.0,7.0,21.0,940.260602173674,1,1,1,0.0,2.0
2021-09-24 11:47:10.342,925.0,69.0,-13.0,927.6610372328892,1,1,1,0.0,2.0
2021-09-24 11:47:10.351,1053.0,69.0,-13.0,1055.3383343743371,1,1,1,0.0,2.0
2021-09-24 11:47:10.352,1053.0,-22.0,-4.0,1053.2373901452606,1,1,1,0.0,2.0
2021-09-24 11:47:10.363,1020.0,110.0,38.0,1026.6177477522974,1,1,1,0.0,2.0
2021-09-24 11:47:10.371,995.0,-95.0,46.0,1000.5828301545056,1,1,1,0.0,2.0
2021-09-24 11:47:10.381,891.0,22.0,17.0,891.4336767253075,1,1,1,0.0,2.0
2021-09-24 11:47:10.391,1001.0,70.0,25.0,1003.7559464331956,1,1,1,0.0,2.0
2021-09-24 11:47:10.401,1091.0,47.0,21.0,1092.2138069077866,1,1,1,0.0,2.0
2021-09-24 11:47:10.413,1055.0,-49.0,16.0,1056.2584910901307,1,1,1,0.0,2.0
2021-09-24 11:47:10.420,947.0,-139.0,-17.0,957.297759320474,1,1,1,0.0,2.0
2021-09-24 11:47:10.430,1014.0,46.0,6.0,1015.060589324598,1,1,1,0.0,2.0
2021-09-24 11:47:10.439,998.0,46.0,6.0,999.077574565659,1,1,1,0.0,2.0
2021-09-24 11:47:10.440,998.0,105.0,-20.0,1003.7076267519342,1,1,1,0.0,2.0
2021-09-24 11:47:10.449,1059.0,65.0,15.0,1061.098958627328,1,1,1,0.0,2.0
2021-09-24 11:47:10.460,1023.0,65.0,15.0,1025.172668383234,1,1,1,0.0,2.0
2021-09-24 11:47:10.461,1023.0,49.0,4.0,1024.1806481280537,1,1,1,0.0,2.0
2021-09-24 11:47:10.469,1000.0,-146.0,22.0,1010.8412338245804,1,1,1,0.0,2.0
2021-09-24 11:47:10.478,1049.0,-146.0,22.0,1059.3398887986802,1,1,1,0.0,2.0
2021-09-24 11:47:10.479,1049.0,-3.0,61.0,1050.776379635553,1,1,1,0.0,2.0
2021-09-24 11:47:10.488,1008.0,166.0,21.0,1021.7930318807228,1,1,1,0.0,2.0
2021-09-24 11:47:10.498,1064.0,68.0,21.0,1066.37751289119,1,1,1,0.0,2.0
2021-09-24 11:47:10.509,1065.0,12.0,24.0,1065.337974541413,1,1,1,0.0,2.0
2021-09-24 11:47:10.517,967.0,12.0,24.0,967.3722137832988,1,1,1,0.0,2.0
2021-09-24 11:47:10.518,967.0,-157.0,-36.0,980.323416021468,1,1,1,0.0,2.0
2021-09-24 11:47:10.527,953.0,79.0,-36.0,956.9461844847912,1,1,1,0.0,2.0
2021-09-24 11:47:10.528,953.0,79.0,1.0,956.269313530451,1,1,1,0.0,2.0
2021-09-24 11:47:10.537,1046.0,82.0,-6.0,1049.2263816736595,1,1,1,0.0,2.0
2021-09-24 11:47:10.547,1000.0,42.0,23.0,1001.1458435213124,1,1,1,0.0,2.0
2021-09-24 11:47:10.557,1044.0,-20.0,22.0,1044.4232858376913,1,1,1,0.0,2.0
2021-09-24 11:47:10.568,964.0,-119.0,17.0,971.4659026440404,1,1,1,0.0,2.0
2021-09-24 11:47:10.576,1042.0,-1.0,23.0,1042.2542875901254,1,1,1,0.0,2.0
2021-09-24 11:47:10.586,1040.0,20.0,-27.0,1040.542646891515,1,1,1,0.0,2.0
2021-09-24 11:47:10.596,1005.0,4.0,15.0,1005.1198933460624,1,1,1,0.0,2.0
2021-09-24 11:47:10.605,1041.0,4.0,15.0,1041.1157476476858,1,1,1,0.0,2.0
2021-09-24 11:47:10.606,1041.0,-39.0,11.0,1041.788366224158,1,1,1,0.0,2.0
2021-09-24 11:47:10.619,958.0,-104.0,-8.0,963.6617663890167,1,1,1,0.0,2.0
2021-09-24 11:47:10.625,1010.0,-20.0,9.0,1010.2380907489086,1,1,1,0.0,2.0
2021-09-24 11:47:10.646,1031.0,-20.0,9.0,1031.2332422880868,1,1,1,0.0,2.0
2021-09-24 11:47:10.647,1031.0,36.0,-2.0,1031.6302632241843,1,1,1,0.0,2.0
2021-09-24 11:47:10.648,1021.0,0.0,6.0,1021.0176296225252,1,1,1,0.0,2.0
2021-09-24 11:47:10.656,983.0,8.0,-4.0,983.040690917726,1,1,1,0.0,2.0
2021-09-24 11:47:10.664,937.0,-133.0,31.0,946.8996778962384,1,1,1,0.0,2.0
2021-09-24 11:47:10.686,1051.0,52.0,21.0,1052.495130630066,1,1,1,0.0,2.0
2021-09-24 11:47:10.687,1085.0,216.0,21.0,1106.4908494876945,1,1,1,0.0,2.0
2021-09-24 11:47:10.688,1085.0,216.0,13.0,1106.3679315670713,1,1,1,0.0,2.0
2021-09-24 11:47:10.695,1044.0,23.0,19.0,1044.4261582323568,1,1,1,0.0,2.0
2021-09-24 11:47:10.703,948.0,17.0,24.0,948.4561139030104,1,1,1,0.0,2.0
2021-09-24 11:47:10.713,1021.0,113.0,17.0,1027.3748098916967,1,1,1,0.0,2.0
2021-09-24 11:47:10.723,1021.0,9.0,0.0,1021.0396662226204,1,1,1,0.0,2.0
2021-09-24 11:47:10.733,1086.0,63.0,19.0,1087.99172790973,1,1,1,0.0,2.0
2021-09-24 11:47:10.743,1025.0,39.0,-15.0,1025.851353754529,1,1,1,0.0,2.0
2021-09-24 11:47:10.752,991.0,5.0,-2.0,991.0146315771528,1,1,1,0.0,2.0
2021-09-24 11:47:10.762,970.0,172.0,11.0,985.1928745174724,1,1,1,0.0,2.0
2021-09-24 11:47:10.771,1019.0,172.0,11.0,1033.4727862890247,1,1,1,0.0,2.0
2021-09-24 11:47:10.772,1019.0,47.0,-14.0,1020.1793959887644,1,1,1,0.0,2.0
2021-09-24 11:47:10.782,1051.0,217.0,31.0,1073.615853087127,1,1,1,0.0,2.0
2021-09-24 11:47:10.792,1051.0,-39.0,20.0,1051.913494542208,1,1,1,0.0,2.0
2021-09-24 11:47:10.806,942.0,27.0,1.0,942.3873938036312,1,1,1,0.0,2.0
2021-09-24 11:47:10.812,1020.0,150.0,-18.0,1031.127538183323,1,1,1,0.0,2.0
2021-09-24 11:47:10.820,1063.0,96.0,7.0,1067.3490525596585,1,1,1,0.0,2.0
2021-09-24 11:47:10.830,1013.0,96.0,7.0,1017.5627744763464,1,1,1,0.0,2.0
2021-09-24 11:47:10.831,1013.0,-87.0,11.0,1016.7885719263372,1,1,1,0.0,2.0
2021-09-24 11:47:10.842,1003.0,46.0,-5.0,1004.0667308500964,1,1,1,0.0,2.0
2021-09-24 11:47:10.850,945.0,-24.0,-19.0,945.495637218914,1,1,1,0.0,2.0
2021-09-24 11:47:10.859,970.0,-24.0,-19.0,970.48286950363,1,1,1,0.0,2.0
2021-09-24 11:47:10.860,970.0,149.0,14.0,981.4769482774416,1,1,1,0.0,2.0
2021-09-24 11:47:10.869,1036.0,132.0,-6.0,1044.392646469708,1,1,1,0.0,2.0
2021-09-24 11:47:10.885,993.0,-94.0,-1.0,997.4397224895348,1,1,1,0.0,2.0
2021-09-24 11:47:10.889,1015.0,-61.0,6.0,1016.8490546782252,1,1,1,0.0,2.0
2021-09-24 11:47:10.898,889.0,-40.0,6.0,889.9196592951523,1,1,1,0.0,2.0
2021-09-24 11:47:10.899,889.0,-40.0,35.0,890.5874465766964,1,1,1,0.0,2.0
2021-09-24 11:47:10.908,1034.0,125.0,0.0,1041.528204130834,1,1,1,0.0,2.0
2021-09-24 11:47:10.918,1068.0,15.0,-2.0,1068.1072043573154,1,1,1,0.0,2.0
2021-09-24 11:47:10.929,972.0,-57.0,-2.0,973.6719159963484,1,1,1,0.0,2.0
2021-09-24 11:47:10.930,972.0,-57.0,16.0,973.801314437396,1,1,1,0.0,2.0
2021-09-24 11:47:10.937,979.0,-57.0,16.0,980.7884583333962,1,1,1,0.0,2.0
2021-09-24 11:47:10.938,979.0,-96.0,24.0,983.988312938726,1,1,1,0.0,2.0
2021-09-24 11:47:10.947,901.0,40.0,24.0,902.2067390570744,1,1,1,0.0,2.0
2021-09-24 11:47:10.948,901.0,40.0,-29.0,902.3535892320704,1,1,1,0.0,2.0
2021-09-24 11:47:10.957,992.0,197.0,-4.0,1011.3797506377116,1,1,1,0.0,2.0
2021-09-24 11:47:10.967,1113.0,54.0,17.0,1114.4388722581425,1,1,1,0.0,2.0
2021-09-24 11:47:10.977,987.0,54.0,17.0,988.6222736718004,1,1,1,0.0,2.0
2021-09-24 11:47:10.978,987.0,-14.0,15.0,987.2132495059008,1,1,1,0.0,2.0
2021-09-24 11:47:10.986,998.0,16.0,15.0,998.2409528766088,1,1,1,0.0,2.0
2021-09-24 11:47:10.987,998.0,16.0,19.0,998.3090703785076,1,1,1,0.0,2.0
2021-09-24 11:47:10.997,989.0,60.0,19.0,991.0005045407394,1,1,1,0.0,2.0
2021-09-24 11:47:10.998,989.0,60.0,62.0,992.7562641454348,1,1,1,0.0,2.0
2021-09-24 11:47:11.006,1019.0,190.0,0.0,1036.5621061952825,1,1,1,0.0,2.0
2021-09-24 11:47:11.016,1031.0,-59.0,-28.0,1033.0663095852076,1,1,1,0.0,2.0
2021-09-24 11:47:11.026,971.0,-140.0,9.0,981.0820556915716,1,1,1,0.0,2.0
2021-09-24 11:47:11.036,973.0,-140.0,9.0,983.0615443602704,1,1,1,0.0,2.0
2021-09-24 11:47:11.037,973.0,-7.0,18.0,973.1916563555196,1,1,1,0.0,2.0
2021-09-24 11:47:11.045,1105.0,132.0,28.0,1113.2084261269315,1,1,1,0.0,2.0
2021-09-24 11:47:11.055,1026.0,217.0,2.0,1048.6987174589278,1,1,1,0.0,2.0
2021-09-24 11:47:11.064,1102.0,217.0,2.0,1123.1638348878582,1,1,1,0.0,2.0
2021-09-24 11:47:11.065,1102.0,0.0,11.0,1102.0548988140292,1,1,1,0.0,2.0
2021-09-24 11:47:11.074,1000.0,-113.0,11.0,1006.4243637750428,1,1,1,0.0,2.0
2021-09-24 11:47:11.075,1000.0,-113.0,-9.0,1006.4044912459404,1,1,1,0.0,2.0
2021-09-24 11:47:11.085,872.0,-2.0,20.0,872.2316206146163,1,1,1,0.0,2.0
2021-09-24 11:47:11.094,1029.0,180.0,16.0,1044.747337876484,1,1,1,0.0,2.0
2021-09-24 11:47:11.103,1083.0,180.0,16.0,1097.973132640321,1,1,1,0.0,2.0
2021-09-24 11:47:11.104,1083.0,-29.0,32.0,1083.8606921555925,1,1,1,0.0,2.0
2021-09-24 11:47:11.113,1098.0,-29.0,32.0,1098.8489432128513,1,1,1,0.0,2.0
2021-09-24 11:47:11.114,1098.0,32.0,-23.0,1098.7069673029291,1,1,1,0.0,2.0
2021-09-24 11:47:11.123,985.0,-106.0,9.0,990.7280151484564,1,1,1,0.0,2.0
2021-09-24 11:47:11.134,939.0,48.0,21.0,940.4605254873806,1,1,1,0.0,2.0
2021-09-24 11:47:11.142,1101.0,48.0,21.0,1102.245889082831,1,1,1,0.0,2.0
2021-09-24 11:47:11.143,1101.0,46.0,6.0,1101.9768600111347,1,1,1,0.0,2.0
2021-09-24 11:47:11.152,1024.0,26.0,6.0,1024.347597253979,1,1,1,0.0,2.0
2021-09-24 11:47:11.153,1024.0,26.0,-21.0,1024.5452649834465,1,1,1,0.0,2.0
2021-09-24 11:47:11.162,969.0,-244.0,-21.0,999.4688589445896,1,1,1,0.0,2.0
2021-09-24 11:47:11.163,969.0,-244.0,-24.0,999.5363925340588,1,1,1,0.0,2.0
2021-09-24 11:47:11.172,974.0,-6.0,-14.0,974.1190892288272,1,1,1,0.0,2.0
2021-09-24 11:47:11.182,939.0,23.0,36.0,939.9712761568834,1,1,1,0.0,2.0
2021-09-24 11:47:11.193,1070.0,12.0,35.0,1070.63952850621,1,1,1,0.0,2.0
2021-09-24 11:47:11.204,1033.0,-43.0,21.0,1034.1078280334214,1,1,1,0.0,2.0
2021-09-24 11:47:11.211,969.0,-153.0,47.0,982.1298284850124,1,1,1,0.0,2.0
2021-09-24 11:47:11.221,935.0,-54.0,42.0,937.4993333330964,1,1,1,0.0,2.0
2021-09-24 11:47:11.230,939.0,-54.0,42.0,941.4887147491468,1,1,1,0.0,2.0
2021-09-24 11:47:11.231,939.0,-109.0,48.0,946.523111181127,1,1,1,0.0,2.0
2021-09-24 11:47:11.241,1104.0,41.0,16.0,1104.876916221893,1,1,1,0.0,2.0
2021-09-24 11:47:11.250,1048.0,16.0,-4.0,1048.1297629587664,1,1,1,0.0,2.0
2021-09-24 11:47:11.260,1004.0,-202.0,-12.0,1024.1894356026137,1,1,1,0.0,2.0
2021-09-24 11:47:11.270,991.0,62.0,-20.0,993.138963086234,1,1,1,0.0,2.0
2021-09-24 11:47:11.279,915.0,71.0,-20.0,917.9684090424898,1,1,1,0.0,2.0
2021-09-24 11:47:11.280,915.0,71.0,54.0,919.3378051619546,1,1,1,0.0,2.0
2021-09-24 11:47:11.290,993.0,98.0,11.0,997.8847628859758,1,1,1,0.0,2.0
2021-09-24 11:47:11.300,1076.0,-60.0,-17.0,1077.805641106039,1,1,1,0.0,2.0
2021-09-24 11:47:11.308,955.0,-60.0,-17.0,957.0339596900416,1,1,1,0.0,2.0
2021-09-24 11:47:11.309,955.0,3.0,58.0,956.7643388003128,1,1,1,0.0,2.0
2021-09-24 11:47:11.318,1027.0,-50.0,58.0,1029.8509600908278,1,1,1,0.0,2.0
2021-09-24 11:47:11.319,1027.0,-50.0,38.0,1028.9183641086402,1,1,1,0.0,2.0
2021-09-24 11:47:11.328,1037.0,189.0,11.0,1054.139933784884,1,1,1,0.0,2.0
2021-09-24 11:47:11.343,1089.0,-10.0,14.0,1089.1358960203268,1,1,1,0.0,2.0
2021-09-24 11:47:11.347,1086.0,-10.0,14.0,1086.136271376663,1,1,1,0.0,2.0
2021-09-24 11:47:11.348,1086.0,-6.0,-3.0,1086.0207180344214,1,1,1,0.0,2.0
2021-09-24 11:47:11.357,1009.0,-6.0,-3.0,1009.0222990598376,1,1,1,0.0,2.0
2021-09-24 11:47:11.358,1009.0,-110.0,-40.0,1015.7662132597244,1,1,1,0.0,2.0
2021-09-24 11:47:11.367,956.0,111.0,-13.0,962.5102596855786,1,1,1,0.0,2.0
2021-09-24 11:47:11.378,1036.0,117.0,-17.0,1042.724316394319,1,1,1,0.0,2.0
2021-09-24 11:47:11.389,1018.0,159.0,8.0,1030.373233347994,1,1,1,0.0,2.0
2021-09-24 11:47:11.396,1071.0,159.0,8.0,1082.7677497967882,1,1,1,0.0,2.0
2021-09-24 11:47:11.397,1071.0,-64.0,20.0,1073.0969201334983,1,1,1,0.0,2.0
2021-09-24 11:47:11.406,975.0,-28.0,32.0,975.9267390537058,1,1,1,0.0,2.0
2021-09-24 11:47:11.416,1057.0,23.0,18.0,1057.4034234860412,1,1,1,0.0,2.0
2021-09-24 11:47:11.427,1000.0,201.0,-12.0,1020.0710759550042,1,1,1,0.0,2.0
2021-09-24 11:47:11.436,1070.0,4.0,31.0,1070.45644470011,1,1,1,0.0,2.0
2021-09-24 11:47:11.445,958.0,-31.0,31.0,959.0026068786258,1,1,1,0.0,2.0
2021-09-24 11:47:11.446,958.0,-31.0,34.0,959.1042696182724,1,1,1,0.0,2.0
2021-09-24 11:47:11.455,955.0,-101.0,-30.0,960.7944629315888,1,1,1,0.0,2.0
2021-09-24 11:47:11.465,1037.0,44.0,-30.0,1038.366505623135,1,1,1,0.0,2.0
2021-09-24 11:47:11.466,1037.0,44.0,20.0,1038.1257149305184,1,1,1,0.0,2.0
2021-09-24 11:47:11.476,1004.0,181.0,-39.0,1020.9299682152542,1,1,1,0.0,2.0
2021-09-24 11:47:11.484,1042.0,30.0,-39.0,1043.1610613898508,1,1,1,0.0,2.0
2021-09-24 11:47:11.485,1042.0,30.0,-16.0,1042.5545549274627,1,1,1,0.0,2.0
2021-09-24 11:47:11.494,915.0,30.0,-16.0,915.6314760863128,1,1,1,0.0,2.0
2021-09-24 11:47:11.495,915.0,41.0,2.0,915.9203022097502,1,1,1,0.0,2.0
2021-09-24 11:47:11.504,955.0,63.0,17.0,957.2267234046489,1,1,1,0.0,2.0
2021-09-24 11:47:11.514,1037.0,32.0,57.0,1039.0582274348249,1,1,1,0.0,2.0
2021-09-24 11:47:11.523,1033.0,32.0,57.0,1035.066181458944,1,1,1,0.0,2.0
2021-09-24 11:47:11.524,1033.0,180.0,-28.0,1048.9389877395158,1,1,1,0.0,2.0
2021-09-24 11:47:11.534,1063.0,-1.0,23.0,1063.2492652242936,1,1,1,0.0,2.0
2021-09-24 11:47:11.543,927.0,-1.0,23.0,927.2858243281842,1,1,1,0.0,2.0
2021-09-24 11:47:11.544,927.0,46.0,21.0,928.3781557102689,1,1,1,0.0,2.0
2021-09-24 11:47:11.553,1031.0,7.0,31.0,1031.489699415365,1,1,1,0.0,2.0
2021-09-24 11:47:11.562,1052.0,7.0,31.0,1052.4799285497088,1,1,1,0.0,2.0
2021-09-24 11:47:11.563,1052.0,74.0,5.0,1054.6113028030754,1,1,1,0.0,2.0
2021-09-24 11:47:11.572,1050.0,134.0,3.0,1058.520193477668,1,1,1,0.0,2.0
2021-09-24 11:47:11.583,1033.0,47.0,11.0,1034.1271681954788,1,1,1,0.0,2.0
2021-09-24 11:47:11.592,968.0,10.0,11.0,968.1141461625276,1,1,1,0.0,2.0
2021-09-24 11:47:11.602,981.0,142.0,-18.0,991.387411661052,1,1,1,0.0,2.0
2021-09-24 11:47:11.611,1031.0,103.0,-17.0,1036.2716825234588,1,1,1,0.0,2.0
2021-09-24 11:47:11.621,1016.0,115.0,-17.0,1022.6289649721448,1,1,1,0.0,2.0
2021-09-24 11:47:11.622,1016.0,115.0,-19.0,1022.6641677500976,1,1,1,0.0,2.0
2021-09-24 11:47:11.632,1028.0,-31.0,-1.0,1028.4677923979923,1,1,1,0.0,2.0
2021-09-24 11:47:11.641,919.0,20.0,-1.0,919.2181460349876,1,1,1,0.0,2.0
2021-09-24 11:47:11.642,919.0,20.0,28.0,919.6439528426204,1,1,1,0.0,2.0
2021-09-24 11:47:11.660,1039.0,20.0,28.0,1039.5696224880755,1,1,1,0.0,2.0
2021-09-24 11:47:11.661,1039.0,29.0,32.0,1039.8971102950522,1,1,1,0.0,2.0
2021-09-24 11:47:11.663,1091.0,29.0,32.0,1091.8543858958485,1,1,1,0.0,2.0
2021-09-24 11:47:11.664,1091.0,114.0,7.0,1096.9621689010064,1,1,1,0.0,2.0
2021-09-24 11:47:11.671,1015.0,-125.0,7.0,1022.6920357566104,1,1,1,0.0,2.0
2021-09-24 11:47:11.672,1015.0,-125.0,-24.0,1022.9496566302762,1,1,1,0.0,2.0
2021-09-24 11:47:11.680,1016.0,99.0,11.0,1020.8711965767278,1,1,1,0.0,2.0
2021-09-24 11:47:11.689,982.0,99.0,11.0,987.039006321432,1,1,1,0.0,2.0
2021-09-24 11:47:11.690,982.0,-75.0,12.0,984.9329926446774,1,1,1,0.0,2.0
2021-09-24 11:47:11.704,944.0,69.0,12.0,946.5944221259704,1,1,1,0.0,2.0
2021-09-24 11:47:11.705,944.0,69.0,-14.0,946.6218886123436,1,1,1,0.0,2.0
2021-09-24 11:47:11.709,1063.0,75.0,7.0,1065.6655197574894,1,1,1,0.0,2.0
2021-09-24 11:47:11.719,1017.0,47.0,-6.0,1018.1031381937688,1,1,1,0.0,2.0
2021-09-24 11:47:11.728,964.0,47.0,-6.0,965.1637166823048,1,1,1,0.0,2.0
2021-09-24 11:47:11.729,964.0,-93.0,5.0,968.4885130965674,1,1,1,0.0,2.0
2021-09-24 11:47:11.738,940.0,14.0,5.0,940.117545842008,1,1,1,0.0,2.0
2021-09-24 11:47:11.739,940.0,14.0,5.0,940.117545842008,1,1,1,0.0,2.0
2021-09-24 11:47:11.750,1040.0,14.0,-3.0,1040.0985530227413,1,1,1,0.0,2.0
2021-09-24 11:47:11.758,1058.0,94.0,16.0,1062.2880965161946,1,1,1,0.0,2.0
2021-09-24 11:47:11.768,1019.0,-62.0,21.0,1021.1003868376508,1,1,1,0.0,2.0
2021-09-24 11:47:11.777,932.0,-93.0,21.0,936.8639175461932,1,1,1,0.0,2.0
2021-09-24 11:47:11.778,932.0,-93.0,6.0,936.6477459536216,1,1,1,0.0,2.0
2021-09-24 11:47:11.787,1019.0,49.0,3.0,1020.1818465352144,1,1,1,0.0,2.0
2021-09-24 11:47:11.799,980.0,144.0,-15.0,990.636663969187,1,1,1,0.0,2.0
2021-09-24 11:47:11.807,1067.0,54.0,14.0,1068.4572990999686,1,1,1,0.0,2.0
2021-09-24 11:47:11.819,1061.0,-40.0,0.0,1061.7537379260789,1,1,1,0.0,2.0
2021-09-24 11:47:11.826,1000.0,-63.0,21.0,1002.2025743331536,1,1,1,0.0,2.0
2021-09-24 11:47:11.836,1057.0,39.0,25.0,1058.014650182123,1,1,1,0.0,2.0
2021-09-24 11:47:11.847,1031.0,142.0,4.0,1040.740601687087,1,1,1,0.0,2.0
2021-09-24 11:47:11.855,1060.0,142.0,4.0,1069.4765074558677,1,1,1,0.0,2.0
2021-09-24 11:47:11.856,1060.0,81.0,9.0,1063.1284024049023,1,1,1,0.0,2.0
2021-09-24 11:47:11.865,1024.0,81.0,9.0,1027.238044466812,1,1,1,0.0,2.0
2021-09-24 11:47:11.866,1024.0,-17.0,44.0,1025.0858500633008,1,1,1,0.0,2.0
2021-09-24 11:47:11.875,964.0,-66.0,35.0,966.8903764129624,1,1,1,0.0,2.0
2021-09-24 11:47:11.898,1027.0,83.0,11.0,1030.4072010617938,1,1,1,0.0,2.0
2021-09-24 11:47:11.899,1017.0,83.0,11.0,1020.440591117386,1,1,1,0.0,2.0
2021-09-24 11:47:11.900,1017.0,93.0,-52.0,1022.5663792634688,1,1,1,0.0,2.0
2021-09-24 11:47:11.904,1011.0,61.0,-6.0,1012.8563570418067,1,1,1,0.0,2.0
2021-09-24 11:47:11.914,1044.0,107.0,45.0,1050.4332439522277,1,1,1,0.0,2.0
2021-09-24 11:47:11.924,1065.0,58.0,25.0,1066.8711262378413,1,1,1,0.0,2.0
2021-09-24 11:47:11.934,1022.0,16.0,28.0,1022.508679669762,1,1,1,0.0,2.0
2021-09-24 11:47:11.944,1016.0,-80.0,30.0,1019.5861905694878,1,1,1,0.0,2.0
2021-09-24 11:47:11.954,951.0,41.0,30.0,952.3560258642772,1,1,1,0.0,2.0
2021-09-24 11:47:11.955,951.0,41.0,-16.0,952.0178569753824,1,1,1,0.0,2.0
2021-09-24 11:47:11.963,1015.0,-4.0,9.0,1015.0477821265362,1,1,1,0.0,2.0
2021-09-24 11:47:11.973,973.0,-3.0,-8.0,973.037512123762,1,1,1,0.0,2.0
2021-09-24 11:47:11.982,1024.0,-3.0,-8.0,1024.0356439108944,1,1,1,0.0,2.0
2021-09-24 11:47:11.983,1024.0,-51.0,0.0,1025.2692329334768,1,1,1,0.0,2.0
2021-09-24 11:47:11.992,978.0,3.0,-15.0,978.1196245858685,1,1,1,0.0,2.0
2021-09-24 11:47:12.003,1030.0,3.0,-15.0,1030.1135859700132,1,1,1,0.0,2.0
2021-09-24 11:47:12.004,1030.0,45.0,11.0,1031.0412212904002,1,1,1,0.0,2.0
2021-09-24 11:47:12.012,984.0,82.0,-21.0,987.6340415356289,1,1,1,0.0,2.0
2021-09-24 11:47:12.021,993.0,82.0,-21.0,996.6012241613996,1,1,1,0.0,2.0
2021-09-24 11:47:12.022,993.0,28.0,-33.0,993.9426542814228,1,1,1,0.0,2.0
2021-09-24 11:47:12.031,999.0,6.0,-33.0,999.5629044737505,1,1,1,0.0,2.0
2021-09-24 11:47:12.032,999.0,6.0,-1.0,999.0185183468824,1,1,1,0.0,2.0
2021-09-24 11:47:12.041,1028.0,-19.0,20.0,1028.370069576123,1,1,1,0.0,2.0
2021-09-24 11:47:12.052,1004.0,20.0,15.0,1004.3112067481871,1,1,1,0.0,2.0
2021-09-24 11:47:12.060,1022.0,20.0,15.0,1022.3057272655768,1,1,1,0.0,2.0
2021-09-24 11:47:12.061,1022.0,14.0,1.0,1022.0963751036396,1,1,1,0.0,2.0
2021-09-24 11:47:12.070,1027.0,24.0,1.0,1027.2808768783734,1,1,1,0.0,2.0
2021-09-24 11:47:12.071,1027.0,24.0,-6.0,1027.2979120002142,1,1,1,0.0,2.0
2021-09-24 11:47:12.080,986.0,-4.0,-8.0,986.0405671167896,1,1,1,0.0,2.0
2021-09-24 11:47:12.090,1018.0,17.0,17.0,1018.2838504071444,1,1,1,0.0,2.0
2021-09-24 11:47:12.101,1014.0,51.0,-8.0,1015.3132521542304,1,1,1,0.0,2.0
2021-09-24 11:47:12.110,1013.0,34.0,-8.0,1013.601992894647,1,1,1,0.0,2.0
2021-09-24 11:47:12.111,1013.0,34.0,5.0,1013.5827543915692,1,1,1,0.0,2.0
2021-09-24 11:47:12.119,991.0,34.0,5.0,991.5956837340508,1,1,1,0.0,2.0
2021-09-24 11:47:12.120,991.0,30.0,0.0,991.4539827949656,1,1,1,0.0,2.0
2021-09-24 11:47:12.129,1009.0,9.0,4.0,1009.0480662485808,1,1,1,0.0,2.0
2021-09-24 11:47:12.139,1027.0,11.0,4.0,1027.0666969578947,1,1,1,0.0,2.0
2021-09-24 11:47:12.149,1015.0,40.0,14.0,1015.8843438108494,1,1,1,0.0,2.0
2021-09-24 11:47:12.159,1019.0,30.0,10.0,1019.4905590538835,1,1,1,0.0,2.0
2021-09-24 11:47:12.168,1018.0,30.0,14.0,1018.5381681606242,1,1,1,0.0,2.0
2021-09-24 11:47:12.178,1023.0,10.0,5.0,1023.0610929949394,1,1,1,0.0,2.0
2021-09-24 11:47:12.187,994.0,10.0,5.0,994.062875275,1,1,1,0.0,2.0
2021-09-24 11:47:12.188,994.0,18.0,4.0,994.17101144622,1,1,1,0.0,2.0
2021-09-24 11:47:12.198,1013.0,4.0,4.0,1013.015794546166,1,1,1,0.0,2.0
2021-09-24 11:47:12.208,1025.0,52.0,6.0,1026.3357150562383,1,1,1,0.0,2.0
2021-09-24 11:47:12.217,1003.0,49.0,-12.0,1004.2678925466054,1,1,1,0.0,2.0
2021-09-24 11:47:12.226,1014.0,49.0,-12.0,1015.2541553719444,1,1,1,0.0,2.0
2021-09-24 11:47:12.227,1014.0,25.0,-13.0,1014.3914431815756,1,1,1,0.0,2.0
2021-09-24 11:47:12.236,985.0,27.0,-13.0,985.4557321361524,1,1,1,0.0,2.0
2021-09-24 11:47:12.237,985.0,27.0,-17.0,985.5166157909262,1,1,1,0.0,2.0
2021-09-24 11:47:12.250,1006.0,8.0,6.0,1006.0497005615578,1,1,1,0.0,2.0
2021-09-24 11:47:12.256,1012.0,-22.0,6.0,1012.2568843924944,1,1,1,0.0,2.0
2021-09-24 11:47:12.257,1012.0,-22.0,12.0,1012.3102291293908,1,1,1,0.0,2.0
2021-09-24 11:47:12.266,1022.0,-22.0,12.0,1022.3071945359673,1,1,1,0.0,2.0
2021-09-24 11:47:12.267,1022.0,-6.0,-1.0,1022.0181016009452,1,1,1,0.0,2.0
2021-09-24 11:47:12.275,993.0,-6.0,-1.0,993.018630238124,1,1,1,0.0,2.0
2021-09-24 11:47:12.276,993.0,48.0,4.0,994.1674909189096,1,1,1,0.0,2.0
2021-09-24 11:47:12.285,1036.0,32.0,14.0,1036.588635862848,1,1,1,0.0,2.0
2021-09-24 11:47:12.295,1022.0,20.0,8.0,1022.2269806652532,1,1,1,0.0,2.0
2021-09-24 11:47:12.305,1012.0,27.0,-6.0,1012.377893871651,1,1,1,0.0,2.0
2021-09-24 11:47:12.315,990.0,27.0,-6.0,990.3862882734192,1,1,1,0.0,2.0
2021-09-24 11:47:12.316,990.0,-1.0,3.0,990.005050492168,1,1,1,0.0,2.0
2021-09-24 11:47:12.324,981.0,36.0,3.0,981.664912279134,1,1,1,0.0,2.0
2021-09-24 11:47:12.334,1050.0,23.0,-2.0,1050.2537788553775,1,1,1,0.0,2.0
