time_stamp,Acceleration_X,Acceleration_Y,Acceleration_Z,magnitude,STD_Status_right,STD_Status_left,STD_Status_both,KMeans,KMeans_convert
2021-08-12 09:15:46.984,1032.0,-82.0,40.0,1036.0250962211292,1,1,1,0.0,2.0
2021-08-12 09:15:46.996,1002.0,-84.0,32.0,1006.023856575976,1,1,1,0.0,2.0
2021-08-12 09:15:47.005,1008.0,121.0,29.0,1015.6505304483428,1,1,1,0.0,2.0
2021-08-12 09:15:47.014,1091.0,47.0,-11.0,1092.0673056181106,1,1,1,0.0,2.0
2021-08-12 09:15:47.024,1113.0,-121.0,15.0,1119.6584300580244,1,1,1,0.0,2.0
2021-08-12 09:15:47.034,984.0,-112.0,19.0,990.5357136418656,1,1,1,0.0,2.0
2021-08-12 09:15:47.044,953.0,57.0,-22.0,954.956543513892,1,1,1,0.0,2.0
2021-08-12 09:15:47.054,913.0,196.0,-4.0,933.8099378353178,1,1,1,0.0,2.0
2021-08-12 09:15:47.063,1087.0,134.0,0.0,1095.2282867055617,1,1,1,0.0,2.0
2021-08-12 09:15:47.072,997.0,134.0,0.0,1005.9647111106832,1,1,1,0.0,2.0
2021-08-12 09:15:47.073,997.0,-16.0,-30.0,997.57957076115,1,1,1,0.0,2.0
2021-08-12 09:15:47.083,1032.0,-146.0,28.0,1042.65238694399,1,1,1,0.0,2.0
2021-08-12 09:15:47.093,992.0,118.0,-7.0,999.018017855534,1,1,1,0.0,2.0
2021-08-12 09:15:47.102,962.0,163.0,33.0,976.2694300243146,1,1,1,0.0,2.0
2021-08-12 09:15:47.112,1080.0,46.0,30.0,1081.3953948487112,1,1,1,0.0,2.0
2021-08-12 09:15:47.121,1060.0,46.0,30.0,1061.4216881145778,1,1,1,0.0,2.0
2021-08-12 09:15:47.122,1060.0,-110.0,32.0,1066.1725939077594,1,1,1,0.0,2.0
2021-08-12 09:15:47.132,988.0,-76.0,26.0,991.2598044912344,1,1,1,0.0,2.0
2021-08-12 09:15:47.142,1047.0,51.0,30.0,1048.670586981441,1,1,1,0.0,2.0
2021-08-12 09:15:47.150,1077.0,51.0,30.0,1078.6241235944983,1,1,1,0.0,2.0
2021-08-12 09:15:47.151,1077.0,116.0,26.0,1083.5409544636511,1,1,1,0.0,2.0
2021-08-12 09:15:47.161,1059.0,99.0,-25.0,1063.9111805033351,1,1,1,0.0,2.0
2021-08-12 09:15:47.170,1016.0,29.0,-35.0,1017.0162240593804,1,1,1,0.0,2.0
2021-08-12 09:15:47.180,945.0,-108.0,-39.0,951.950628971902,1,1,1,0.0,2.0
2021-08-12 09:15:47.190,941.0,123.0,-39.0,949.8057696181888,1,1,1,0.0,2.0
2021-08-12 09:15:47.191,941.0,123.0,-7.0,949.0305579906266,1,1,1,0.0,2.0
2021-08-12 09:15:47.199,1111.0,90.0,-7.0,1114.661383560048,1,1,1,0.0,2.0
2021-08-12 09:15:47.200,1111.0,90.0,28.0,1114.9910313540645,1,1,1,0.0,2.0
2021-08-12 09:15:47.210,1100.0,39.0,53.0,1101.9664241709002,1,1,1,0.0,2.0
2021-08-12 09:15:47.219,1005.0,-89.0,38.0,1009.6484536708804,1,1,1,0.0,2.0
2021-08-12 09:15:47.229,1024.0,-104.0,51.0,1030.53044593549,1,1,1,0.0,2.0
2021-08-12 09:15:47.239,1057.0,29.0,51.0,1058.6269409003344,1,1,1,0.0,2.0
2021-08-12 09:15:47.240,1057.0,29.0,45.0,1058.3548554242095,1,1,1,0.0,2.0
2021-08-12 09:15:47.249,1090.0,128.0,18.0,1097.6374629175154,1,1,1,0.0,2.0
2021-08-12 09:15:47.259,1052.0,104.0,-24.0,1057.4005863436998,1,1,1,0.0,2.0
2021-08-12 09:15:47.268,1013.0,13.0,-20.0,1013.28081004231,1,1,1,0.0,2.0
2021-08-12 09:15:47.277,949.0,13.0,-20.0,949.2997419150604,1,1,1,0.0,2.0
2021-08-12 09:15:47.278,949.0,-33.0,-29.0,950.0163156493682,1,1,1,0.0,2.0
2021-08-12 09:15:47.287,951.0,-33.0,-29.0,952.0141805666552,1,1,1,0.0,2.0
2021-08-12 09:15:47.288,951.0,156.0,8.0,963.743223063073,1,1,1,0.0,2.0
2021-08-12 09:15:47.298,1058.0,107.0,8.0,1063.4270073681598,1,1,1,0.0,2.0
2021-08-12 09:15:47.299,1058.0,107.0,-5.0,1063.4086702674565,1,1,1,0.0,2.0
2021-08-12 09:15:47.307,1022.0,-55.0,-5.0,1023.491084475092,1,1,1,0.0,2.0
2021-08-12 09:15:47.308,1022.0,-55.0,14.0,1023.5746186771144,1,1,1,0.0,2.0
2021-08-12 09:15:47.317,1018.0,-122.0,20.0,1025.479400085638,1,1,1,0.0,2.0
2021-08-12 09:15:47.326,972.0,-13.0,20.0,972.2926514172572,1,1,1,0.0,2.0
2021-08-12 09:15:47.327,972.0,-13.0,56.0,973.6986186700688,1,1,1,0.0,2.0
2021-08-12 09:15:47.336,1077.0,32.0,44.0,1078.3733119843057,1,1,1,0.0,2.0
2021-08-12 09:15:47.347,1131.0,20.0,16.0,1131.2899716695097,1,1,1,0.0,2.0
2021-08-12 09:15:47.355,1006.0,20.0,16.0,1006.3259909194436,1,1,1,0.0,2.0
2021-08-12 09:15:47.356,1006.0,-122.0,-15.0,1013.4816229216984,1,1,1,0.0,2.0
2021-08-12 09:15:47.383,972.0,16.0,5.0,972.1445365787948,1,1,1,0.0,2.0
2021-08-12 09:15:47.387,979.0,16.0,5.0,979.14350327212,1,1,1,0.0,2.0
2021-08-12 09:15:47.388,979.0,122.0,-8.0,986.6047840954352,1,1,1,0.0,2.0
2021-08-12 09:15:47.395,1062.0,72.0,-9.0,1064.4759273933817,1,1,1,0.0,2.0
2021-08-12 09:15:47.405,1016.0,72.0,-9.0,1018.5877478155724,1,1,1,0.0,2.0
2021-08-12 09:15:47.406,1016.0,-113.0,-6.0,1022.2822506529202,1,1,1,0.0,2.0
2021-08-12 09:15:47.414,977.0,69.0,59.0,981.2089481858592,1,1,1,0.0,2.0
2021-08-12 09:15:47.424,971.0,27.0,55.0,972.9311383648896,1,1,1,0.0,2.0
2021-08-12 09:15:47.434,1100.0,54.0,51.0,1102.5048752726675,1,1,1,0.0,2.0
2021-08-12 09:15:47.443,1118.0,54.0,51.0,1120.4646357650026,1,1,1,0.0,2.0
2021-08-12 09:15:47.444,1118.0,9.0,39.0,1118.7162285405536,1,1,1,0.0,2.0
2021-08-12 09:15:47.454,994.0,-145.0,-6.0,1004.5382023596712,1,1,1,0.0,2.0
2021-08-12 09:15:47.464,949.0,-12.0,-13.0,949.1648961060454,1,1,1,0.0,2.0
2021-08-12 09:15:47.473,982.0,135.0,4.0,991.2441677003704,1,1,1,0.0,2.0
2021-08-12 09:15:47.483,983.0,118.0,-33.0,990.6068846924092,1,1,1,0.0,2.0
2021-08-12 09:15:47.492,1049.0,35.0,-33.0,1050.102375961506,1,1,1,0.0,2.0
2021-08-12 09:15:47.493,1049.0,35.0,-38.0,1050.27139349789,1,1,1,0.0,2.0
2021-08-12 09:15:47.503,1004.0,-191.0,-31.0,1022.4764055957476,1,1,1,0.0,2.0
2021-08-12 09:15:47.513,980.0,121.0,-31.0,987.9281350381716,1,1,1,0.0,2.0
2021-08-12 09:15:47.514,980.0,121.0,63.0,989.4493418058348,1,1,1,0.0,2.0
2021-08-12 09:15:47.522,1052.0,162.0,44.0,1065.3093447445208,1,1,1,0.0,2.0
2021-08-12 09:15:47.531,1113.0,44.0,60.0,1115.4841997984552,1,1,1,0.0,2.0
2021-08-12 09:15:47.542,1097.0,-38.0,44.0,1098.539484952635,1,1,1,0.0,2.0
2021-08-12 09:15:47.551,981.0,-92.0,-2.0,985.3065512823916,1,1,1,0.0,2.0
2021-08-12 09:15:47.562,1010.0,23.0,31.0,1010.737354608011,1,1,1,0.0,2.0
2021-08-12 09:15:47.574,983.0,190.0,31.0,1001.6735995323028,1,1,1,0.0,2.0
2021-08-12 09:15:47.575,983.0,190.0,-15.0,1001.3061469900202,1,1,1,0.0,2.0
2021-08-12 09:15:47.580,1077.0,29.0,-2.0,1077.392221987889,1,1,1,0.0,2.0
2021-08-12 09:15:47.591,1060.0,16.0,-21.0,1060.3287226138882,1,1,1,0.0,2.0
2021-08-12 09:15:47.600,964.0,-197.0,-23.0,984.1920544284028,1,1,1,0.0,2.0
2021-08-12 09:15:47.611,978.0,136.0,46.0,988.4816639675214,1,1,1,0.0,2.0
2021-08-12 09:15:47.619,1061.0,138.0,46.0,1070.9253008496903,1,1,1,0.0,2.0
2021-08-12 09:15:47.620,1061.0,138.0,18.0,1070.0883141124382,1,1,1,0.0,2.0
2021-08-12 09:15:47.629,1051.0,78.0,27.0,1054.2362164145188,1,1,1,0.0,2.0
2021-08-12 09:15:47.640,1093.0,-79.0,29.0,1096.2349200787212,1,1,1,0.0,2.0
2021-08-12 09:15:47.649,965.0,-74.0,19.0,968.0196279001784,1,1,1,0.0,2.0
2021-08-12 09:15:47.680,1010.0,18.0,21.0,1010.3786418961952,1,1,1,0.0,2.0
2021-08-12 09:15:47.682,1054.0,191.0,13.0,1071.2450700003244,1,1,1,0.0,2.0
2021-08-12 09:15:47.684,1036.0,-67.0,-30.0,1038.5976121674842,1,1,1,0.0,2.0
2021-08-12 09:15:47.689,934.0,9.0,-89.0,938.2739472030544,1,1,1,0.0,2.0
2021-08-12 09:15:47.698,1029.0,-160.0,14.0,1041.4590726476006,1,1,1,0.0,2.0
2021-08-12 09:15:47.707,909.0,139.0,42.0,920.5248502892248,1,1,1,0.0,2.0
2021-08-12 09:15:47.717,1106.0,90.0,29.0,1110.0346841427977,1,1,1,0.0,2.0
2021-08-12 09:15:47.727,1050.0,65.0,29.0,1052.409616071613,1,1,1,0.0,2.0
2021-08-12 09:15:47.737,981.0,65.0,29.0,983.5786699598564,1,1,1,0.0,2.0
2021-08-12 09:15:47.738,981.0,0.0,44.0,981.9862524495952,1,1,1,0.0,2.0
2021-08-12 09:15:47.751,1001.0,-78.0,44.0,1004.9980099482784,1,1,1,0.0,2.0
2021-08-12 09:15:47.756,1045.0,27.0,7.0,1045.3721825263958,1,1,1,0.0,2.0
2021-08-12 09:15:47.766,1060.0,125.0,-11.0,1067.4015177054978,1,1,1,0.0,2.0
2021-08-12 09:15:47.776,1024.0,-31.0,-12.0,1024.53940871008,1,1,1,0.0,2.0
2021-08-12 09:15:47.785,966.0,38.0,-12.0,966.8215967798816,1,1,1,0.0,2.0
2021-08-12 09:15:47.796,895.0,256.0,-14.0,930.9978517698094,1,1,1,0.0,2.0
2021-08-12 09:15:47.805,940.0,176.0,7.0,956.3602877577048,1,1,1,0.0,2.0
2021-08-12 09:15:47.815,1085.0,80.0,6.0,1087.9618559490034,1,1,1,0.0,2.0
2021-08-12 09:15:47.825,1044.0,3.0,29.0,1044.407008785368,1,1,1,0.0,2.0
2021-08-12 09:15:47.835,992.0,12.0,45.0,993.0926442180509,1,1,1,0.0,2.0
2021-08-12 09:15:47.844,984.0,140.0,44.0,994.8829076831104,1,1,1,0.0,2.0
2021-08-12 09:15:47.854,1079.0,140.0,44.0,1088.9338822903803,1,1,1,0.0,2.0
2021-08-12 09:15:47.855,1079.0,24.0,39.0,1079.97129591485,1,1,1,0.0,2.0
2021-08-12 09:15:47.863,1108.0,24.0,39.0,1108.9458958849166,1,1,1,0.0,2.0
2021-08-12 09:15:47.864,1108.0,116.0,28.0,1114.4074658759246,1,1,1,0.0,2.0
2021-08-12 09:15:47.874,992.0,-120.0,-43.0,1000.1564877557912,1,1,1,0.0,2.0
2021-08-12 09:15:47.885,978.0,19.0,-32.0,978.7078215688276,1,1,1,0.0,2.0
2021-08-12 09:15:47.893,906.0,244.0,-17.0,938.4354000143004,1,1,1,0.0,2.0
2021-08-12 09:15:47.903,1082.0,99.0,-17.0,1086.6526583964169,1,1,1,0.0,2.0
2021-08-12 09:15:47.904,1082.0,99.0,-24.0,1086.784707290271,1,1,1,0.0,2.0
2021-08-12 09:15:47.913,1059.0,113.0,0.0,1065.0117370245268,1,1,1,0.0,2.0
2021-08-12 09:15:47.922,997.0,-75.0,10.0,999.8669911543236,1,1,1,0.0,2.0
2021-08-12 09:15:47.932,1003.0,71.0,75.0,1008.3030298476745,1,1,1,0.0,2.0
2021-08-12 09:15:47.942,1003.0,166.0,26.0,1016.9764009061372,1,1,1,0.0,2.0
2021-08-12 09:15:47.955,1074.0,40.0,25.0,1075.035348256047,1,1,1,0.0,2.0
2021-08-12 09:15:47.961,1124.0,52.0,55.0,1126.5456049357256,1,1,1,0.0,2.0
2021-08-12 09:15:47.971,1036.0,-176.0,-31.0,1051.3006230379583,1,1,1,0.0,2.0
2021-08-12 09:15:47.981,942.0,12.0,-7.0,942.1024360439792,1,1,1,0.0,2.0
2021-08-12 09:15:47.991,942.0,240.0,-13.0,972.17951017289,1,1,1,0.0,2.0
2021-08-12 09:15:48.000,1089.0,115.0,-20.0,1095.2378737059817,1,1,1,0.0,2.0
2021-08-12 09:15:48.011,1016.0,52.0,-5.0,1017.3421253442718,1,1,1,0.0,2.0
2021-08-12 09:15:48.020,1064.0,-136.0,0.0,1072.656515385983,1,1,1,0.0,2.0
2021-08-12 09:15:48.030,935.0,68.0,48.0,938.6975018609564,1,1,1,0.0,2.0
2021-08-12 09:15:48.040,1071.0,173.0,35.0,1085.4469125664325,1,1,1,0.0,2.0
2021-08-12 09:15:48.050,1066.0,77.0,39.0,1069.4886628665122,1,1,1,0.0,2.0
2021-08-12 09:15:48.059,1015.0,-105.0,39.0,1021.1615934806792,1,1,1,0.0,2.0
2021-08-12 09:15:48.060,1015.0,-105.0,35.0,1021.0166502070376,1,1,1,0.0,2.0
2021-08-12 09:15:48.069,1001.0,-114.0,4.0,1007.4785357515068,1,1,1,0.0,2.0
2021-08-12 09:15:48.078,976.0,20.0,8.0,976.2376759785498,1,1,1,0.0,2.0
2021-08-12 09:15:48.089,957.0,20.0,8.0,957.242393545125,1,1,1,0.0,2.0
2021-08-12 09:15:48.090,957.0,182.0,-27.0,974.526551716268,1,1,1,0.0,2.0
2021-08-12 09:15:48.099,1091.0,182.0,-27.0,1106.405892970568,1,1,1,0.0,2.0
2021-08-12 09:15:48.100,1091.0,47.0,-5.0,1092.0233513986775,1,1,1,0.0,2.0
2021-08-12 09:15:48.108,979.0,32.0,-30.0,979.9821426944472,1,1,1,0.0,2.0
2021-08-12 09:15:48.117,917.0,191.0,-30.0,937.1606052326356,1,1,1,0.0,2.0
2021-08-12 09:15:48.118,917.0,191.0,6.0,936.699524927818,1,1,1,0.0,2.0
2021-08-12 09:15:48.127,956.0,100.0,6.0,961.2346227638704,1,1,1,0.0,2.0
2021-08-12 09:15:48.128,956.0,100.0,52.0,962.6214209127075,1,1,1,0.0,2.0
2021-08-12 09:15:48.137,1015.0,157.0,19.0,1027.2463190491364,1,1,1,0.0,2.0
2021-08-12 09:15:48.148,1079.0,47.0,8.0,1080.0527764882604,1,1,1,0.0,2.0
2021-08-12 09:15:48.156,975.0,-16.0,52.0,976.5167689292388,1,1,1,0.0,2.0
2021-08-12 09:15:48.166,959.0,54.0,40.0,961.3516526224938,1,1,1,0.0,2.0
2021-08-12 09:15:48.176,1098.0,40.0,37.0,1099.3511722829971,1,1,1,0.0,2.0
2021-08-12 09:15:48.187,993.0,167.0,-20.0,1007.1434853088214,1,1,1,0.0,2.0
2021-08-12 09:15:48.196,1070.0,34.0,-25.0,1070.8319195840213,1,1,1,0.0,2.0
2021-08-12 09:15:48.205,991.0,58.0,-25.0,993.0105739618284,1,1,1,0.0,2.0
2021-08-12 09:15:48.206,991.0,58.0,13.0,992.780942605165,1,1,1,0.0,2.0
2021-08-12 09:15:48.216,928.0,219.0,15.0,953.6089345219036,1,1,1,0.0,2.0
2021-08-12 09:15:48.225,1035.0,93.0,-21.0,1039.3820279377549,1,1,1,0.0,2.0
2021-08-12 09:15:48.235,1047.0,153.0,38.0,1058.8021533789963,1,1,1,0.0,2.0
2021-08-12 09:15:48.245,1063.0,79.0,19.0,1066.1008395081583,1,1,1,0.0,2.0
2021-08-12 09:15:48.254,967.0,-43.0,32.0,968.4843829406854,1,1,1,0.0,2.0
2021-08-12 09:15:48.264,965.0,-43.0,32.0,966.4874546521544,1,1,1,0.0,2.0
2021-08-12 09:15:48.265,965.0,108.0,38.0,971.7679764223556,1,1,1,0.0,2.0
2021-08-12 09:15:48.274,1082.0,-3.0,23.0,1082.2485851226602,1,1,1,0.0,2.0
2021-08-12 09:15:48.284,1018.0,131.0,-32.0,1026.8928863323574,1,1,1,0.0,2.0
2021-08-12 09:15:48.293,1050.0,-11.0,-23.0,1050.3094782015442,1,1,1,0.0,2.0
2021-08-12 09:15:48.303,970.0,36.0,-12.0,970.7419842574028,1,1,1,0.0,2.0
2021-08-12 09:15:48.313,946.0,182.0,-13.0,963.4360383543892,1,1,1,0.0,2.0
2021-08-12 09:15:48.323,1033.0,157.0,-33.0,1045.3836616285907,1,1,1,0.0,2.0
2021-08-12 09:15:48.333,1010.0,28.0,-29.0,1010.8041353298868,1,1,1,0.0,2.0
2021-08-12 09:15:48.343,1092.0,28.0,-29.0,1092.7437943086202,1,1,1,0.0,2.0
2021-08-12 09:15:48.344,1092.0,38.0,28.0,1093.0196704542875,1,1,1,0.0,2.0
2021-08-12 09:15:48.352,962.0,-48.0,19.0,963.3841393753584,1,1,1,0.0,2.0
2021-08-12 09:15:48.362,949.0,165.0,43.0,964.1965567248204,1,1,1,0.0,2.0
2021-08-12 09:15:48.372,1105.0,36.0,28.0,1105.940775991192,1,1,1,0.0,2.0
2021-08-12 09:15:48.382,1077.0,-53.0,55.0,1079.70505231753,1,1,1,0.0,2.0
2021-08-12 09:15:48.406,1030.0,-44.0,-30.0,1031.3757802081643,1,1,1,0.0,2.0
2021-08-12 09:15:48.410,963.0,23.0,-30.0,963.741666630638,1,1,1,0.0,2.0
2021-08-12 09:15:48.411,963.0,23.0,-6.0,963.29330943384,1,1,1,0.0,2.0
2021-08-12 09:15:48.412,939.0,23.0,-6.0,939.3008037897124,1,1,1,0.0,2.0
2021-08-12 09:15:48.413,939.0,215.0,-9.0,963.3415801261772,1,1,1,0.0,2.0
2021-08-12 09:15:48.421,1046.0,114.0,-22.0,1052.4238689805547,1,1,1,0.0,2.0
2021-08-12 09:15:48.430,997.0,12.0,-22.0,997.3148951058536,1,1,1,0.0,2.0
2021-08-12 09:15:48.431,997.0,12.0,-40.0,997.87424057343,1,1,1,0.0,2.0
2021-08-12 09:15:48.440,938.0,-74.0,-20.0,941.1269839931272,1,1,1,0.0,2.0
2021-08-12 09:15:48.449,976.0,-74.0,-20.0,979.0056179614088,1,1,1,0.0,2.0
2021-08-12 09:15:48.450,976.0,5.0,43.0,976.9595692760269,1,1,1,0.0,2.0
2021-08-12 09:15:48.460,948.0,132.0,40.0,957.9812106716917,1,1,1,0.0,2.0
2021-08-12 09:15:48.471,1078.0,40.0,23.0,1078.9870249451567,1,1,1,0.0,2.0
2021-08-12 09:15:48.481,1034.0,-118.0,18.0,1040.8669463480912,1,1,1,0.0,2.0
2021-08-12 09:15:48.488,982.0,-118.0,18.0,989.2279818120796,1,1,1,0.0,2.0
2021-08-12 09:15:48.489,982.0,-30.0,57.0,984.1102580503874,1,1,1,0.0,2.0
2021-08-12 09:15:48.498,1021.0,64.0,22.0,1023.2404409521744,1,1,1,0.0,2.0
2021-08-12 09:15:48.509,917.0,256.0,-23.0,952.3413253660684,1,1,1,0.0,2.0
2021-08-12 09:15:48.518,1064.0,83.0,-11.0,1067.2890892349644,1,1,1,0.0,2.0
2021-08-12 09:15:48.527,995.0,83.0,-11.0,998.516399464726,1,1,1,0.0,2.0
2021-08-12 09:15:48.528,995.0,47.0,-30.0,996.5610869384776,1,1,1,0.0,2.0
2021-08-12 09:15:48.538,935.0,19.0,-20.0,935.4068633487784,1,1,1,0.0,2.0
2021-08-12 09:15:48.547,982.0,138.0,10.0,991.699551275486,1,1,1,0.0,2.0
2021-08-12 09:15:48.557,989.0,184.0,28.0,1006.3602734607522,1,1,1,0.0,2.0
2021-08-12 09:15:48.568,1056.0,67.0,22.0,1058.3520208323882,1,1,1,0.0,2.0
2021-08-12 09:15:48.576,1032.0,-119.0,22.0,1039.0712198882231,1,1,1,0.0,2.0
2021-08-12 09:15:48.577,1032.0,-119.0,10.0,1038.8864230511438,1,1,1,0.0,2.0
2021-08-12 09:15:48.587,954.0,33.0,55.0,956.1537533263152,1,1,1,0.0,2.0
2021-08-12 09:15:48.596,1082.0,33.0,51.0,1083.703834080142,1,1,1,0.0,2.0
2021-08-12 09:15:48.606,976.0,232.0,0.0,1003.1948963187562,1,1,1,0.0,2.0
2021-08-12 09:15:48.616,1078.0,25.0,-38.0,1078.959220730793,1,1,1,0.0,2.0
2021-08-12 09:15:48.626,986.0,48.0,-27.0,987.536834756051,1,1,1,0.0,2.0
2021-08-12 09:15:48.636,935.0,106.0,4.0,940.9978745990876,1,1,1,0.0,2.0
2021-08-12 09:15:48.645,952.0,191.0,-12.0,971.045313051868,1,1,1,0.0,2.0
2021-08-12 09:15:48.654,1061.0,191.0,-12.0,1078.1215144871194,1,1,1,0.0,2.0
2021-08-12 09:15:48.655,1061.0,53.0,5.0,1062.3346930228722,1,1,1,0.0,2.0
2021-08-12 09:15:48.665,1075.0,91.0,40.0,1079.5860317732904,1,1,1,0.0,2.0
2021-08-12 09:15:48.675,989.0,-89.0,23.0,993.2628051024562,1,1,1,0.0,2.0
2021-08-12 09:15:48.710,976.0,-89.0,23.0,980.3193357268844,1,1,1,0.0,2.0
2021-08-12 09:15:48.711,976.0,18.0,46.0,977.2492005624767,1,1,1,0.0,2.0
2021-08-12 09:15:48.712,1117.0,-71.0,16.0,1119.3685720083442,1,1,1,0.0,2.0
2021-08-12 09:15:48.714,1056.0,10.0,-34.0,1056.594529609159,1,1,1,0.0,2.0
2021-08-12 09:15:48.723,968.0,10.0,-34.0,968.6485430743186,1,1,1,0.0,2.0
2021-08-12 09:15:48.724,968.0,81.0,-23.0,971.655288669804,1,1,1,0.0,2.0
2021-08-12 09:15:48.733,938.0,179.0,28.0,955.3371132746806,1,1,1,0.0,2.0
2021-08-12 09:15:48.747,1011.0,129.0,-20.0,1019.3929566168288,1,1,1,0.0,2.0
2021-08-12 09:15:48.752,1019.0,38.0,-38.0,1020.4160916018524,1,1,1,0.0,2.0
2021-08-12 09:15:48.762,989.0,-174.0,-11.0,1004.24996888225,1,1,1,0.0,2.0
2021-08-12 09:15:48.772,997.0,-89.0,32.0,1001.4759108435908,1,1,1,0.0,2.0
2021-08-12 09:15:48.781,943.0,-89.0,32.0,947.7309744859034,1,1,1,0.0,2.0
2021-08-12 09:15:48.782,943.0,65.0,39.0,946.0417538354212,1,1,1,0.0,2.0
2021-08-12 09:15:48.791,1093.0,91.0,80.0,1099.6954123756268,1,1,1,0.0,2.0
2021-08-12 09:15:48.801,1103.0,91.0,80.0,1109.6350751485822,1,1,1,0.0,2.0
2021-08-12 09:15:48.802,1103.0,-62.0,45.0,1105.657270586143,1,1,1,0.0,2.0
2021-08-12 09:15:48.811,988.0,-97.0,3.0,992.7547531993991,1,1,1,0.0,2.0
2021-08-12 09:15:48.821,986.0,49.0,-15.0,987.3307449887296,1,1,1,0.0,2.0
2021-08-12 09:15:48.831,945.0,152.0,5.0,957.1593388772844,1,1,1,0.0,2.0
2021-08-12 09:15:48.841,1044.0,89.0,-10.0,1047.834433486512,1,1,1,0.0,2.0
2021-08-12 09:15:48.850,1021.0,89.0,-10.0,1024.920484720644,1,1,1,0.0,2.0
2021-08-12 09:15:48.851,1021.0,2.0,-44.0,1021.9496073681912,1,1,1,0.0,2.0
2021-08-12 09:15:48.860,935.0,-103.0,-8.0,940.6901721608448,1,1,1,0.0,2.0
2021-08-12 09:15:48.869,971.0,108.0,44.0,977.9780161128368,1,1,1,0.0,2.0
2021-08-12 09:15:48.880,947.0,89.0,69.0,953.6723756091502,1,1,1,0.0,2.0
2021-08-12 09:15:48.890,1119.0,32.0,47.0,1120.443662126749,1,1,1,0.0,2.0
2021-08-12 09:15:48.898,1065.0,-91.0,24.0,1069.1501297759824,1,1,1,0.0,2.0
2021-08-12 09:15:48.909,984.0,-77.0,15.0,987.122079582865,1,1,1,0.0,2.0
2021-08-12 09:15:48.918,1000.0,36.0,12.0,1000.7197409864564,1,1,1,0.0,2.0
2021-08-12 09:15:48.928,895.0,36.0,12.0,895.8041080504153,1,1,1,0.0,2.0
2021-08-12 09:15:48.929,895.0,156.0,-27.0,908.8949334219,1,1,1,0.0,2.0
2021-08-12 09:15:48.939,1098.0,101.0,-17.0,1102.7665210732505,1,1,1,0.0,2.0
2021-08-12 09:15:48.948,987.0,85.0,-30.0,991.107461378432,1,1,1,0.0,2.0
2021-08-12 09:15:48.958,994.0,-119.0,-24.0,1001.3855401392613,1,1,1,0.0,2.0
2021-08-12 09:15:48.967,959.0,123.0,-8.0,966.8888250466028,1,1,1,0.0,2.0
2021-08-12 09:15:48.977,1076.0,123.0,-8.0,1083.0369338115852,1,1,1,0.0,2.0
2021-08-12 09:15:48.978,1076.0,136.0,23.0,1084.804590698251,1,1,1,0.0,2.0
2021-08-12 09:15:48.986,1092.0,28.0,23.0,1092.6010250773152,1,1,1,0.0,2.0
2021-08-12 09:15:48.987,1092.0,28.0,25.0,1092.6449560584626,1,1,1,0.0,2.0
2021-08-12 09:15:48.997,1050.0,-75.0,33.0,1053.192290135092,1,1,1,0.0,2.0
2021-08-12 09:15:49.008,983.0,-90.0,24.0,987.403159808596,1,1,1,0.0,2.0
2021-08-12 09:15:49.017,1051.0,49.0,22.0,1052.3716073707044,1,1,1,0.0,2.0
2021-08-12 09:15:49.025,1109.0,49.0,22.0,1110.299959470413,1,1,1,0.0,2.0
2021-08-12 09:15:49.026,1109.0,82.0,30.0,1112.4320203949542,1,1,1,0.0,2.0
2021-08-12 09:15:49.035,1064.0,94.0,30.0,1068.5653934130564,1,1,1,0.0,2.0
2021-08-12 09:15:49.036,1064.0,94.0,-13.0,1068.2232912645184,1,1,1,0.0,2.0
2021-08-12 09:15:49.046,1002.0,91.0,-15.0,1006.235558902586,1,1,1,0.0,2.0
2021-08-12 09:15:49.055,958.0,-16.0,-32.0,958.6678256831196,1,1,1,0.0,2.0
2021-08-12 09:15:49.065,946.0,167.0,-3.0,960.6320835783072,1,1,1,0.0,2.0
2021-08-12 09:15:49.074,1040.0,167.0,-3.0,1053.327109686255,1,1,1,0.0,2.0
2021-08-12 09:15:49.075,1040.0,82.0,-12.0,1043.2966979723458,1,1,1,0.0,2.0
2021-08-12 09:15:49.085,1046.0,-83.0,11.0,1049.3455103063052,1,1,1,0.0,2.0
2021-08-12 09:15:49.094,1054.0,-83.0,11.0,1057.3201974804035,1,1,1,0.0,2.0
2021-08-12 09:15:49.095,1054.0,-110.0,-3.0,1059.728738876133,1,1,1,0.0,2.0
2021-08-12 09:15:49.104,948.0,-2.0,49.0,949.2676124254951,1,1,1,0.0,2.0
2021-08-12 09:15:49.114,1089.0,72.0,45.0,1092.3049024883117,1,1,1,0.0,2.0
2021-08-12 09:15:49.123,1127.0,45.0,39.0,1128.572106690574,1,1,1,0.0,2.0
2021-08-12 09:15:49.134,1038.0,-137.0,-8.0,1047.0324732308927,1,1,1,0.0,2.0
2021-08-12 09:15:49.143,988.0,53.0,-8.0,989.4528791205774,1,1,1,0.0,2.0
2021-08-12 09:15:49.144,988.0,53.0,-22.0,989.665094867956,1,1,1,0.0,2.0
2021-08-12 09:15:49.155,915.0,85.0,-22.0,919.2029155741402,1,1,1,0.0,2.0
2021-08-12 09:15:49.156,915.0,85.0,-3.0,918.9445032209508,1,1,1,0.0,2.0
2021-08-12 09:15:49.163,970.0,137.0,-2.0,979.6290114119732,1,1,1,0.0,2.0
2021-08-12 09:15:49.172,1054.0,57.0,-17.0,1055.677033945515,1,1,1,0.0,2.0
2021-08-12 09:15:49.182,1008.0,-132.0,-8.0,1016.637595212768,1,1,1,0.0,2.0
2021-08-12 09:15:49.191,1008.0,-103.0,-8.0,1013.2803165955607,1,1,1,0.0,2.0
2021-08-12 09:15:49.192,1008.0,-103.0,18.0,1013.4086046605288,1,1,1,0.0,2.0
2021-08-12 09:15:49.201,966.0,44.0,18.0,967.1690648485404,1,1,1,0.0,2.0
2021-08-12 09:15:49.202,966.0,44.0,61.0,968.9236296014252,1,1,1,0.0,2.0
2021-08-12 09:15:49.211,1102.0,69.0,53.0,1105.4293283607053,1,1,1,0.0,2.0
2021-08-12 09:15:49.221,1114.0,0.0,53.0,1115.2600593583545,1,1,1,0.0,2.0
2021-08-12 09:15:49.222,1114.0,0.0,9.0,1114.0363548825503,1,1,1,0.0,2.0
2021-08-12 09:15:49.231,1002.0,-99.0,-7.0,1006.9031731005716,1,1,1,0.0,2.0
2021-08-12 09:15:49.241,955.0,37.0,4.0,955.7248558031752,1,1,1,0.0,2.0
2021-08-12 09:15:49.251,911.0,138.0,16.0,921.5318768225004,1,1,1,0.0,2.0
2021-08-12 09:15:49.260,996.0,150.0,-2.0,1007.2338358097388,1,1,1,0.0,2.0
2021-08-12 09:15:49.270,1049.0,2.0,-2.0,1049.0038131484555,1,1,1,0.0,2.0
2021-08-12 09:15:49.271,1049.0,2.0,-33.0,1049.5208430517232,1,1,1,0.0,2.0
2021-08-12 09:15:49.280,976.0,-121.0,-25.0,983.7896116548498,1,1,1,0.0,2.0
2021-08-12 09:15:49.290,990.0,106.0,55.0,997.1765139633004,1,1,1,0.0,2.0
2021-08-12 09:15:49.300,1025.0,193.0,40.0,1043.778712179933,1,1,1,0.0,2.0
2021-08-12 09:15:49.309,1091.0,51.0,49.0,1093.2899889782216,1,1,1,0.0,2.0
2021-08-12 09:15:49.318,1136.0,-21.0,26.0,1136.491530984723,1,1,1,0.0,2.0
2021-08-12 09:15:49.328,981.0,-124.0,26.0,989.1476128465356,1,1,1,0.0,2.0
2021-08-12 09:15:49.329,981.0,-124.0,4.0,988.8139359859366,1,1,1,0.0,2.0
2021-08-12 09:15:49.338,971.0,-124.0,4.0,978.89376338804,1,1,1,0.0,2.0
2021-08-12 09:15:49.339,971.0,19.0,2.0,971.1879323797224,1,1,1,0.0,2.0
2021-08-12 09:15:49.348,1007.0,19.0,2.0,1007.1812150750231,1,1,1,0.0,2.0
2021-08-12 09:15:49.349,1007.0,173.0,-29.0,1022.1638811853998,1,1,1,0.0,2.0
2021-08-12 09:15:49.358,1023.0,118.0,-32.0,1030.280059013082,1,1,1,0.0,2.0
2021-08-12 09:15:49.367,1040.0,118.0,-32.0,1047.1618786033036,1,1,1,0.0,2.0
2021-08-12 09:15:49.368,1040.0,38.0,-23.0,1040.9481255086637,1,1,1,0.0,2.0
2021-08-12 09:15:49.378,978.0,-146.0,-11.0,988.8988825961934,1,1,1,0.0,2.0
2021-08-12 09:15:49.388,956.0,126.0,23.0,964.5418601595268,1,1,1,0.0,2.0
2021-08-12 09:15:49.397,1047.0,159.0,26.0,1059.323368948311,1,1,1,0.0,2.0
2021-08-12 09:15:49.407,1043.0,92.0,24.0,1047.324687000168,1,1,1,0.0,2.0
2021-08-12 09:15:49.416,1091.0,-37.0,24.0,1091.8910202030238,1,1,1,0.0,2.0
2021-08-12 09:15:49.417,1091.0,-37.0,42.0,1092.434895085286,1,1,1,0.0,2.0
2021-08-12 09:15:49.441,984.0,-78.0,-7.0,987.1114425433432,1,1,1,0.0,2.0
2021-08-12 09:15:49.442,979.0,45.0,9.0,980.0749971303215,1,1,1,0.0,2.0
2021-08-12 09:15:49.446,1033.0,197.0,5.0,1051.6287367697785,1,1,1,0.0,2.0
2021-08-12 09:15:49.455,1071.0,14.0,-23.0,1071.338415254489,1,1,1,0.0,2.0
2021-08-12 09:15:49.465,973.0,23.0,3.0,973.2764252770124,1,1,1,0.0,2.0
2021-08-12 09:15:49.475,961.0,-95.0,19.0,965.8711094136733,1,1,1,0.0,2.0
2021-08-12 09:15:49.487,968.0,99.0,29.0,973.481381434694,1,1,1,0.0,2.0
2021-08-12 09:15:49.495,1062.0,114.0,25.0,1068.3936540433026,1,1,1,0.0,2.0
2021-08-12 09:15:49.504,1038.0,59.0,10.0,1039.7235209419855,1,1,1,0.0,2.0
2021-08-12 09:15:49.514,1014.0,-1.0,43.0,1014.9118188295968,1,1,1,0.0,2.0
2021-08-12 09:15:49.524,1035.0,-135.0,29.0,1044.1700053152265,1,1,1,0.0,2.0
2021-08-12 09:15:49.534,987.0,8.0,29.0,987.458353552189,1,1,1,0.0,2.0
2021-08-12 09:15:49.535,987.0,8.0,18.0,987.1965356503232,1,1,1,0.0,2.0
2021-08-12 09:15:49.543,1021.0,162.0,-5.0,1033.7843101924116,1,1,1,0.0,2.0
2021-08-12 09:15:49.556,1049.0,162.0,-5.0,1061.447125390615,1,1,1,0.0,2.0
2021-08-12 09:15:49.557,1049.0,-11.0,-13.0,1049.1382177768571,1,1,1,0.0,2.0
2021-08-12 09:15:49.563,958.0,14.0,-5.0,958.1153375246636,1,1,1,0.0,2.0
2021-08-12 09:15:49.573,937.0,-116.0,-17.0,944.3060944418394,1,1,1,0.0,2.0
2021-08-12 09:15:49.583,963.0,150.0,44.0,975.6049405368958,1,1,1,0.0,2.0
2021-08-12 09:15:49.593,1087.0,142.0,10.0,1096.2814419664323,1,1,1,0.0,2.0
2021-08-12 09:15:49.602,1062.0,-26.0,9.0,1062.3563432295211,1,1,1,0.0,2.0
2021-08-12 09:15:49.611,991.0,-26.0,9.0,991.3818638647774,1,1,1,0.0,2.0
2021-08-12 09:15:49.612,991.0,-38.0,53.0,993.1434941638596,1,1,1,0.0,2.0
2021-08-12 09:15:49.622,980.0,120.0,46.0,988.3906110440346,1,1,1,0.0,2.0
2021-08-12 09:15:49.633,1058.0,21.0,40.0,1058.9641164836512,1,1,1,0.0,2.0
2021-08-12 09:15:49.643,1064.0,123.0,-2.0,1071.0877648446929,1,1,1,0.0,2.0
2021-08-12 09:15:49.651,1037.0,-43.0,-23.0,1038.1459434973483,1,1,1,0.0,2.0
2021-08-12 09:15:49.660,934.0,-43.0,-23.0,935.2721529052386,1,1,1,0.0,2.0
2021-08-12 09:15:49.661,934.0,36.0,-2.0,934.6956723982412,1,1,1,0.0,2.0
2021-08-12 09:15:49.670,935.0,232.0,-15.0,963.4697711916032,1,1,1,0.0,2.0
2021-08-12 09:15:49.681,1053.0,115.0,-23.0,1059.5107361419232,1,1,1,0.0,2.0
2021-08-12 09:15:49.690,1063.0,139.0,-23.0,1072.2961344703244,1,1,1,0.0,2.0
2021-08-12 09:15:49.691,1063.0,139.0,8.0,1072.079288112591,1,1,1,0.0,2.0
2021-08-12 09:15:49.700,1065.0,-43.0,32.0,1066.3479732245005,1,1,1,0.0,2.0
2021-08-12 09:15:49.709,984.0,25.0,44.0,985.3004617881796,1,1,1,0.0,2.0
2021-08-12 09:15:49.745,964.0,169.0,37.0,979.4008372469364,1,1,1,0.0,2.0
2021-08-12 09:15:49.746,1080.0,169.0,37.0,1093.7687141256145,1,1,1,0.0,2.0
2021-08-12 09:15:49.747,1080.0,50.0,23.0,1081.4014055844389,1,1,1,0.0,2.0
2021-08-12 09:15:49.750,998.0,-40.0,-17.0,998.945944483484,1,1,1,0.0,2.0
2021-08-12 09:15:49.758,954.0,29.0,0.0,954.4406739027836,1,1,1,0.0,2.0
2021-08-12 09:15:49.768,943.0,269.0,-5.0,980.6298996053506,1,1,1,0.0,2.0
2021-08-12 09:15:49.779,1108.0,91.0,-17.0,1111.860602773567,1,1,1,0.0,2.0
2021-08-12 09:15:49.788,1012.0,61.0,-7.0,1013.8609372098324,1,1,1,0.0,2.0
2021-08-12 09:15:49.797,1070.0,-145.0,11.0,1079.8360986742389,1,1,1,0.0,2.0
2021-08-12 09:15:49.807,976.0,39.0,71.0,979.355910790352,1,1,1,0.0,2.0
2021-08-12 09:15:49.817,1001.0,181.0,24.0,1017.5156018459865,1,1,1,0.0,2.0
2021-08-12 09:15:49.827,1060.0,51.0,14.0,1061.3185195783592,1,1,1,0.0,2.0
2021-08-12 09:15:49.837,1003.0,-109.0,14.0,1009.0024776976516,1,1,1,0.0,2.0
2021-08-12 09:15:49.845,1009.0,-109.0,14.0,1014.9669945372608,1,1,1,0.0,2.0
2021-08-12 09:15:49.846,1009.0,-155.0,-15.0,1020.9461298227249,1,1,1,0.0,2.0
2021-08-12 09:15:49.856,955.0,34.0,19.0,955.7939108406164,1,1,1,0.0,2.0
2021-08-12 09:15:49.866,933.0,246.0,-5.0,964.8989584407273,1,1,1,0.0,2.0
2021-08-12 09:15:49.877,1120.0,54.0,-20.0,1121.47938010469,1,1,1,0.0,2.0
2021-08-12 09:15:49.886,969.0,45.0,-20.0,970.250483122786,1,1,1,0.0,2.0
2021-08-12 09:15:49.887,969.0,45.0,-30.0,970.508114340112,1,1,1,0.0,2.0
2021-08-12 09:15:49.895,910.0,158.0,9.0,923.6584866713454,1,1,1,0.0,2.0
2021-08-12 09:15:49.904,986.0,158.0,9.0,998.619547174999,1,1,1,0.0,2.0
2021-08-12 09:15:49.905,986.0,79.0,67.0,991.4262453657356,1,1,1,0.0,2.0
2021-08-12 09:15:49.914,976.0,203.0,20.0,997.0882608876708,1,1,1,0.0,2.0
2021-08-12 09:15:49.925,1074.0,58.0,9.0,1075.6026217892927,1,1,1,0.0,2.0
2021-08-12 09:15:49.940,960.0,58.0,9.0,961.7925971850688,1,1,1,0.0,2.0
2021-08-12 09:15:49.941,960.0,-92.0,26.0,964.7486719348204,1,1,1,0.0,2.0
2021-08-12 09:15:49.943,956.0,77.0,26.0,959.4482789603616,1,1,1,0.0,2.0
2021-08-12 09:15:49.944,956.0,77.0,50.0,960.398354850736,1,1,1,0.0,2.0
2021-08-12 09:15:49.953,974.0,17.0,50.0,975.4306741127224,1,1,1,0.0,2.0
2021-08-12 09:15:49.954,974.0,17.0,6.0,974.1668234958528,1,1,1,0.0,2.0
2021-08-12 09:15:49.964,955.0,213.0,6.0,978.4835205561716,1,1,1,0.0,2.0
2021-08-12 09:15:49.965,955.0,213.0,-26.0,978.810502599967,1,1,1,0.0,2.0
2021-08-12 09:15:49.973,1066.0,66.0,-8.0,1068.07115867811,1,1,1,0.0,2.0
2021-08-12 09:15:49.983,967.0,53.0,0.0,968.4513410595288,1,1,1,0.0,2.0
2021-08-12 09:15:49.993,929.0,53.0,0.0,930.5106125133664,1,1,1,0.0,2.0
2021-08-12 09:15:49.994,929.0,140.0,6.0,939.5089142738348,1,1,1,0.0,2.0
2021-08-12 09:15:50.002,1003.0,137.0,6.0,1012.3309735457076,1,1,1,0.0,2.0
2021-08-12 09:15:50.003,1003.0,137.0,-13.0,1012.3966613931518,1,1,1,0.0,2.0
2021-08-12 09:15:50.014,1034.0,175.0,28.0,1049.078166773096,1,1,1,0.0,2.0
2021-08-12 09:15:50.023,1084.0,33.0,27.0,1084.838236789246,1,1,1,0.0,2.0
2021-08-12 09:15:50.031,987.0,33.0,27.0,987.9205433636856,1,1,1,0.0,2.0
2021-08-12 09:15:50.032,987.0,-78.0,40.0,990.884958004712,1,1,1,0.0,2.0
2021-08-12 09:15:50.041,953.0,21.0,28.0,953.6424906640852,1,1,1,0.0,2.0
2021-08-12 09:15:50.051,1098.0,72.0,62.0,1102.103443420807,1,1,1,0.0,2.0
2021-08-12 09:15:50.061,1014.0,177.0,-11.0,1029.391082145168,1,1,1,0.0,2.0
2021-08-12 09:15:50.071,1056.0,-1.0,-25.0,1056.2963599293523,1,1,1,0.0,2.0
2021-08-12 09:15:50.080,976.0,51.0,-9.0,977.3730096539396,1,1,1,0.0,2.0
2021-08-12 09:15:50.090,962.0,171.0,22.0,977.3274783817346,1,1,1,0.0,2.0
2021-08-12 09:15:50.100,1011.0,75.0,-32.0,1014.2829979842904,1,1,1,0.0,2.0
2021-08-12 09:15:50.110,1037.0,19.0,-40.0,1037.945085252587,1,1,1,0.0,2.0
2021-08-12 09:15:50.120,1062.0,85.0,20.0,1065.5838775056611,1,1,1,0.0,2.0
2021-08-12 09:15:50.130,973.0,-68.0,25.0,975.6935994460556,1,1,1,0.0,2.0
2021-08-12 09:15:50.139,933.0,47.0,42.0,935.1267293794996,1,1,1,0.0,2.0
2021-08-12 09:15:50.149,1091.0,75.0,54.0,1094.9073020123667,1,1,1,0.0,2.0
2021-08-12 09:15:50.159,1103.0,-99.0,28.0,1107.7878858337458,1,1,1,0.0,2.0
2021-08-12 09:15:50.168,1006.0,-114.0,27.0,1012.798597945317,1,1,1,0.0,2.0
2021-08-12 09:15:50.179,962.0,77.0,-13.0,965.1642347289916,1,1,1,0.0,2.0
2021-08-12 09:15:50.188,929.0,139.0,-13.0,939.4312108930596,1,1,1,0.0,2.0
2021-08-12 09:15:50.197,1072.0,139.0,-13.0,1081.0522651565002,1,1,1,0.0,2.0
2021-08-12 09:15:50.198,1072.0,99.0,-11.0,1076.6178523505914,1,1,1,0.0,2.0
2021-08-12 09:15:50.208,999.0,73.0,-12.0,1001.7354940302356,1,1,1,0.0,2.0
2021-08-12 09:15:50.217,950.0,-101.0,-12.0,955.4292229150204,1,1,1,0.0,2.0
2021-08-12 09:15:50.218,950.0,-101.0,-1.0,955.3543845087016,1,1,1,0.0,2.0
2021-08-12 09:15:50.227,1002.0,-12.0,-1.0,1002.0723526771908,1,1,1,0.0,2.0
2021-08-12 09:15:50.228,1002.0,-12.0,40.0,1002.8698818889716,1,1,1,0.0,2.0
2021-08-12 09:15:50.237,956.0,82.0,42.0,960.4290707803466,1,1,1,0.0,2.0
2021-08-12 09:15:50.246,1096.0,82.0,42.0,1099.8654463160483,1,1,1,0.0,2.0
2021-08-12 09:15:50.247,1096.0,26.0,44.0,1097.1909587669777,1,1,1,0.0,2.0
2021-08-12 09:15:50.256,1080.0,-108.0,34.0,1085.91896566917,1,1,1,0.0,2.0
2021-08-12 09:15:50.267,988.0,-48.0,12.0,989.23809065361,1,1,1,0.0,2.0
2021-08-12 09:15:50.275,1032.0,53.0,20.0,1033.5535786789187,1,1,1,0.0,2.0
2021-08-12 09:15:50.286,931.0,184.0,-16.0,949.143297927136,1,1,1,0.0,2.0
2021-08-12 09:15:50.295,1080.0,129.0,-10.0,1087.722850729909,1,1,1,0.0,2.0
2021-08-12 09:15:50.305,1010.0,64.0,-29.0,1012.4411093984676,1,1,1,0.0,2.0
2021-08-12 09:15:50.315,950.0,-63.0,-42.0,953.0125917321344,1,1,1,0.0,2.0
2021-08-12 09:15:50.325,953.0,140.0,5.0,963.2414027646444,1,1,1,0.0,2.0
2021-08-12 09:15:50.336,983.0,119.0,38.0,990.9056463659898,1,1,1,0.0,2.0
2021-08-12 09:15:50.344,1056.0,41.0,18.0,1056.9489107804595,1,1,1,0.0,2.0
2021-08-12 09:15:50.354,1048.0,-144.0,22.0,1058.0756116648754,1,1,1,0.0,2.0
2021-08-12 09:15:50.364,941.0,-32.0,35.0,942.1942474882768,1,1,1,0.0,2.0
2021-08-12 09:15:50.373,1079.0,-32.0,35.0,1080.0416658629426,1,1,1,0.0,2.0
2021-08-12 09:15:50.374,1079.0,49.0,39.0,1080.8158955159754,1,1,1,0.0,2.0
2021-08-12 09:15:50.383,1091.0,69.0,41.0,1093.9483534427025,1,1,1,0.0,2.0
2021-08-12 09:15:50.394,1081.0,122.0,0.0,1087.8625832337466,1,1,1,0.0,2.0
2021-08-12 09:15:50.403,1006.0,47.0,-29.0,1007.5147641598112,1,1,1,0.0,2.0
2021-08-12 09:15:50.413,929.0,38.0,-35.0,930.4353819583604,1,1,1,0.0,2.0
2021-08-12 09:15:50.422,948.0,142.0,-13.0,958.664174776548,1,1,1,0.0,2.0
2021-08-12 09:15:50.432,1047.0,28.0,-5.0,1047.3862706757236,1,1,1,0.0,2.0
2021-08-12 09:15:50.443,1049.0,63.0,20.0,1051.0803965444318,1,1,1,0.0,2.0
2021-08-12 09:15:50.457,1021.0,-113.0,-4.0,1027.2419383962083,1,1,1,0.0,2.0
2021-08-12 09:15:50.468,939.0,39.0,50.0,941.1386720351044,1,1,1,0.0,2.0
2021-08-12 09:15:50.471,1075.0,39.0,50.0,1076.8686085126635,1,1,1,0.0,2.0
2021-08-12 09:15:50.472,1075.0,71.0,36.0,1077.9434122438895,1,1,1,0.0,2.0
2021-08-12 09:15:50.481,1127.0,42.0,43.0,1128.6017898266864,1,1,1,0.0,2.0
2021-08-12 09:15:50.492,969.0,-80.0,-8.0,972.3296766015116,1,1,1,0.0,2.0
2021-08-12 09:15:50.501,994.0,37.0,-14.0,994.7869118560014,1,1,1,0.0,2.0
2021-08-12 09:15:50.510,898.0,132.0,2.0,907.6519156593016,1,1,1,0.0,2.0
2021-08-12 09:15:50.520,964.0,99.0,-34.0,969.6664374928112,1,1,1,0.0,2.0
2021-08-12 09:15:50.530,1077.0,37.0,-19.0,1077.8028576692493,1,1,1,0.0,2.0
2021-08-12 09:15:50.541,1004.0,-152.0,-19.0,1015.6185307486272,1,1,1,0.0,2.0
2021-08-12 09:15:50.550,1003.0,71.0,69.0,1007.8744961551512,1,1,1,0.0,2.0
2021-08-12 09:15:50.559,943.0,72.0,56.0,947.4011821820784,1,1,1,0.0,2.0
2021-08-12 09:15:50.569,1076.0,23.0,42.0,1077.064993396406,1,1,1,0.0,2.0
2021-08-12 09:15:50.579,1144.0,-6.0,44.0,1144.8615636835748,1,1,1,0.0,2.0
2021-08-12 09:15:50.590,983.0,-95.0,-17.0,987.7261766299404,1,1,1,0.0,2.0
2021-08-12 09:15:50.600,971.0,27.0,-19.0,971.5611149073434,1,1,1,0.0,2.0
2021-08-12 09:15:50.608,896.0,183.0,40.0,915.371509279156,1,1,1,0.0,2.0
2021-08-12 09:15:50.617,1001.0,155.0,-26.0,1013.2630458079482,1,1,1,0.0,2.0
2021-08-12 09:15:50.627,1077.0,25.0,-21.0,1077.4947795697203,1,1,1,0.0,2.0
2021-08-12 09:15:50.637,1019.0,-151.0,-21.0,1030.34120562074,1,1,1,0.0,2.0
2021-08-12 09:15:50.638,1019.0,-151.0,-20.0,1030.3213091070184,1,1,1,0.0,2.0
2021-08-12 09:15:50.647,995.0,104.0,49.0,1001.6196883048976,1,1,1,0.0,2.0
2021-08-12 09:15:50.657,1011.0,184.0,40.0,1028.3856280598247,1,1,1,0.0,2.0
2021-08-12 09:15:50.666,1094.0,44.0,47.0,1095.892786726877,1,1,1,0.0,2.0
2021-08-12 09:15:50.676,971.0,44.0,47.0,973.13205681449,1,1,1,0.0,2.0
2021-08-12 09:15:50.677,971.0,-83.0,31.0,975.0338455663988,1,1,1,0.0,2.0
2021-08-12 09:15:50.687,992.0,-125.0,15.0,999.9569990754602,1,1,1,0.0,2.0
2021-08-12 09:15:50.696,993.0,25.0,12.0,993.3871350083008,1,1,1,0.0,2.0
2021-08-12 09:15:50.706,982.0,217.0,-22.0,1005.9309121405904,1,1,1,0.0,2.0
2021-08-12 09:15:50.715,1006.0,171.0,-1.0,1020.4303013925056,1,1,1,0.0,2.0
2021-08-12 09:15:50.725,1064.0,4.0,-26.0,1064.325138291866,1,1,1,0.0,2.0
2021-08-12 09:15:50.735,969.0,-116.0,-8.0,975.951330753742,1,1,1,0.0,2.0
2021-08-12 09:15:50.745,990.0,110.0,38.0,996.8169340455648,1,1,1,0.0,2.0
2021-08-12 09:15:50.777,1067.0,110.0,38.0,1073.328002057153,1,1,1,0.0,2.0
2021-08-12 09:15:50.778,1067.0,191.0,37.0,1084.591628217736,1,1,1,0.0,2.0
2021-08-12 09:15:50.779,1091.0,-47.0,42.0,1092.8192897272631,1,1,1,0.0,2.0
2021-08-12 09:15:50.784,955.0,-95.0,10.0,959.7655963827834,1,1,1,0.0,2.0
2021-08-12 09:15:50.793,989.0,26.0,2.0,989.3437218681888,1,1,1,0.0,2.0
2021-08-12 09:15:50.803,1038.0,184.0,2.0,1054.1840446525457,1,1,1,0.0,2.0
2021-08-12 09:15:50.804,1038.0,184.0,-9.0,1054.2205651570264,1,1,1,0.0,2.0
2021-08-12 09:15:50.813,1039.0,-47.0,-40.0,1040.8313984502963,1,1,1,0.0,2.0
2021-08-12 09:15:50.824,1004.0,47.0,-54.0,1006.5490549396984,1,1,1,0.0,2.0
2021-08-12 09:15:50.833,953.0,-99.0,9.0,958.1706528588736,1,1,1,0.0,2.0
2021-08-12 09:15:50.842,950.0,115.0,32.0,957.4701039719204,1,1,1,0.0,2.0
2021-08-12 09:15:50.852,1072.0,174.0,23.0,1086.2729859478234,1,1,1,0.0,2.0
2021-08-12 09:15:50.862,1058.0,25.0,9.0,1058.3335958004925,1,1,1,0.0,2.0
2021-08-12 09:15:50.873,984.0,-37.0,41.0,985.5485782040377,1,1,1,0.0,2.0
2021-08-12 09:15:50.882,978.0,-112.0,18.0,984.556753062006,1,1,1,0.0,2.0
2021-08-12 09:15:50.891,1035.0,34.0,12.0,1035.6278289038007,1,1,1,0.0,2.0
2021-08-12 09:15:50.900,1023.0,34.0,12.0,1023.6351889223037,1,1,1,0.0,2.0
2021-08-12 09:15:50.901,1023.0,200.0,14.0,1042.461030446702,1,1,1,0.0,2.0
2021-08-12 09:15:50.910,1036.0,-61.0,-17.0,1037.9335238829124,1,1,1,0.0,2.0
2021-08-12 09:15:50.921,944.0,13.0,1.0,944.090038078996,1,1,1,0.0,2.0
2021-08-12 09:15:50.933,923.0,13.0,1.0,923.092086413918,1,1,1,0.0,2.0
2021-08-12 09:15:50.934,923.0,181.0,-1.0,940.5801401262946,1,1,1,0.0,2.0
2021-08-12 09:15:50.940,957.0,149.0,-1.0,968.530329932935,1,1,1,0.0,2.0
2021-08-12 09:15:50.941,957.0,149.0,-1.0,968.530329932935,1,1,1,0.0,2.0
2021-08-12 09:15:50.949,1083.0,149.0,-1.0,1093.2021770926,1,1,1,0.0,2.0
2021-08-12 09:15:50.950,1083.0,147.0,8.0,1092.960200556269,1,1,1,0.0,2.0
2021-08-12 09:15:50.959,1050.0,147.0,8.0,1060.2702485687316,1,1,1,0.0,2.0
2021-08-12 09:15:50.960,1050.0,20.0,45.0,1051.154127614024,1,1,1,0.0,2.0
2021-08-12 09:15:50.970,983.0,-43.0,51.0,985.2608791584084,1,1,1,0.0,2.0
2021-08-12 09:15:50.979,968.0,86.0,46.0,972.900817144276,1,1,1,0.0,2.0
2021-08-12 09:15:50.988,1025.0,49.0,27.0,1026.5256937846225,1,1,1,0.0,2.0
2021-08-12 09:15:50.998,1057.0,161.0,23.0,1069.4386377908738,1,1,1,0.0,2.0
2021-08-12 09:15:51.008,1034.0,-70.0,-24.0,1036.6445871174942,1,1,1,0.0,2.0
2021-08-12 09:15:51.019,933.0,20.0,14.0,933.319345133272,1,1,1,0.0,2.0
2021-08-12 09:15:51.028,928.0,246.0,3.0,960.0567691548246,1,1,1,0.0,2.0
2021-08-12 09:15:51.038,1095.0,93.0,-18.0,1099.0896232791938,1,1,1,0.0,2.0
2021-08-12 09:15:51.047,1075.0,103.0,-14.0,1080.0138887995838,1,1,1,0.0,2.0
2021-08-12 09:15:51.057,1018.0,-69.0,22.0,1020.572878338436,1,1,1,0.0,2.0
2021-08-12 09:15:51.067,1033.0,-9.0,77.0,1035.9049184167434,1,1,1,0.0,2.0
2021-08-12 09:15:51.076,969.0,174.0,48.0,985.66779393465,1,1,1,0.0,2.0
2021-08-12 09:15:51.086,1079.0,41.0,21.0,1079.9828702345235,1,1,1,0.0,2.0
2021-08-12 09:15:51.096,1097.0,122.0,30.0,1104.1707295522735,1,1,1,0.0,2.0
2021-08-12 09:15:51.106,999.0,-99.0,-36.0,1004.538700100698,1,1,1,0.0,2.0
2021-08-12 09:15:51.115,945.0,19.0,-16.0,945.3263986581566,1,1,1,0.0,2.0
2021-08-12 09:15:51.126,938.0,305.0,9.0,986.382278835138,1,1,1,0.0,2.0
2021-08-12 09:15:51.136,1108.0,106.0,-12.0,1113.12353312649,1,1,1,0.0,2.0
2021-08-12 09:15:51.146,968.0,53.0,-32.0,969.9778347983008,1,1,1,0.0,2.0
2021-08-12 09:15:51.155,1035.0,-143.0,12.0,1044.9009522438,1,1,1,0.0,2.0
2021-08-12 09:15:51.164,954.0,75.0,74.0,959.800500104058,1,1,1,0.0,2.0
2021-08-12 09:15:51.175,1010.0,89.0,14.0,1014.0103549767132,1,1,1,0.0,2.0
2021-08-12 09:15:51.184,1063.0,107.0,33.0,1068.88119077847,1,1,1,0.0,2.0
2021-08-12 09:15:51.194,1003.0,-136.0,0.0,1012.1783439690852,1,1,1,0.0,2.0
2021-08-12 09:15:51.203,1003.0,-171.0,-29.0,1017.8855534882102,1,1,1,0.0,2.0
2021-08-12 09:15:51.213,965.0,-17.0,-16.0,965.2823421155076,1,1,1,0.0,2.0
2021-08-12 09:15:51.224,963.0,285.0,-17.0,1004.4316801057204,1,1,1,0.0,2.0
2021-08-12 09:15:51.233,1103.0,75.0,-51.0,1106.7226391467736,1,1,1,0.0,2.0
2021-08-12 09:15:51.242,968.0,35.0,-51.0,969.9742264617138,1,1,1,0.0,2.0
2021-08-12 09:15:51.243,968.0,35.0,-23.0,968.90556815409,1,1,1,0.0,2.0
2021-08-12 09:15:51.253,877.0,199.0,33.0,899.8994388263613,1,1,1,0.0,2.0
2021-08-12 09:15:51.262,977.0,91.0,78.0,984.3241336064052,1,1,1,0.0,2.0
2021-08-12 09:15:51.272,1010.0,243.0,47.0,1039.883647337528,1,1,1,0.0,2.0
2021-08-12 09:15:51.281,1085.0,55.0,47.0,1087.4093065630807,1,1,1,0.0,2.0
2021-08-12 09:15:51.282,1085.0,55.0,21.0,1086.5960611009043,1,1,1,0.0,2.0
2021-08-12 09:15:51.291,982.0,-111.0,2.0,988.2555337563256,1,1,1,0.0,2.0
2021-08-12 09:15:51.302,931.0,30.0,48.0,932.71914315082,1,1,1,0.0,2.0
2021-08-12 09:15:51.311,1079.0,36.0,51.0,1080.8043301171583,1,1,1,0.0,2.0
2021-08-12 09:15:51.320,952.0,36.0,51.0,954.0445482261298,1,1,1,0.0,2.0
2021-08-12 09:15:51.321,952.0,228.0,-20.0,979.1261410053354,1,1,1,0.0,2.0
2021-08-12 09:15:51.331,1083.0,60.0,-38.0,1085.3262182403962,1,1,1,0.0,2.0
2021-08-12 09:15:51.341,1039.0,13.0,12.0,1039.1506146848974,1,1,1,0.0,2.0
2021-08-12 09:15:51.350,846.0,150.0,9.0,859.2421079067296,1,1,1,0.0,2.0
2021-08-12 09:15:51.360,1004.0,123.0,-20.0,1011.70400809723,1,1,1,0.0,2.0
2021-08-12 09:15:51.369,1025.0,194.0,-20.0,1043.3891891331823,1,1,1,0.0,2.0
2021-08-12 09:15:51.370,1025.0,194.0,27.0,1043.5468365147776,1,1,1,0.0,2.0
2021-08-12 09:15:51.380,1069.0,15.0,3.0,1069.1094424800483,1,1,1,0.0,2.0
2021-08-12 09:15:51.390,975.0,-85.0,32.0,979.2211190533014,1,1,1,0.0,2.0
2021-08-12 09:15:51.399,969.0,19.0,40.0,970.0113401398976,1,1,1,0.0,2.0
2021-08-12 09:15:51.409,1129.0,20.0,50.0,1130.2835927323729,1,1,1,0.0,2.0
2021-08-12 09:15:51.418,1089.0,-70.0,32.0,1091.7165383010372,1,1,1,0.0,2.0
2021-08-12 09:15:51.429,1069.0,17.0,-19.0,1069.3039792313502,1,1,1,0.0,2.0
2021-08-12 09:15:51.439,958.0,34.0,-15.0,958.7205015018716,1,1,1,0.0,2.0
2021-08-12 09:15:51.447,929.0,134.0,-15.0,938.7342541955098,1,1,1,0.0,2.0
2021-08-12 09:15:51.448,929.0,134.0,9.0,938.657552039081,1,1,1,0.0,2.0
2021-08-12 09:15:51.458,995.0,152.0,-18.0,1006.704028004259,1,1,1,0.0,2.0
2021-08-12 09:15:51.467,1020.0,55.0,-24.0,1021.7636713056498,1,1,1,0.0,2.0
2021-08-12 09:15:51.477,1054.0,10.0,-15.0,1054.1541632987085,1,1,1,0.0,2.0
2021-08-12 09:15:51.487,1005.0,-63.0,48.0,1008.1160647465152,1,1,1,0.0,2.0
2021-08-12 09:15:51.496,935.0,33.0,37.0,936.313515869551,1,1,1,0.0,2.0
2021-08-12 09:15:51.522,1077.0,31.0,37.0,1078.0811657755644,1,1,1,0.0,2.0
2021-08-12 09:15:51.523,1077.0,31.0,57.0,1078.9527329776777,1,1,1,0.0,2.0
2021-08-12 09:15:51.529,1105.0,-66.0,46.0,1107.9246364261426,1,1,1,0.0,2.0
2021-08-12 09:15:51.531,979.0,-143.0,27.0,989.7570408943805,1,1,1,0.0,2.0
2021-08-12 09:15:51.535,939.0,74.0,4.0,941.9198479700914,1,1,1,0.0,2.0
2021-08-12 09:15:51.546,923.0,97.0,-25.0,928.4196249541476,1,1,1,0.0,2.0
2021-08-12 09:15:51.555,1046.0,145.0,-14.0,1056.095166166383,1,1,1,0.0,2.0
2021-08-12 09:15:51.564,1009.0,145.0,-14.0,1019.4616226224508,1,1,1,0.0,2.0
2021-08-12 09:15:51.565,1009.0,42.0,-31.0,1010.3494444992782,1,1,1,0.0,2.0
2021-08-12 09:15:51.575,944.0,-73.0,19.0,947.0089756702416,1,1,1,0.0,2.0
2021-08-12 09:15:51.585,983.0,-40.0,40.0,984.6263250594104,1,1,1,0.0,2.0
2021-08-12 09:15:51.596,949.0,53.0,42.0,951.4063274963016,1,1,1,0.0,2.0
2021-08-12 09:15:51.604,1104.0,36.0,37.0,1105.2063155809417,1,1,1,0.0,2.0
2021-08-12 09:15:51.613,1114.0,36.0,37.0,1115.195498556195,1,1,1,0.0,2.0
2021-08-12 09:15:51.614,1114.0,-122.0,15.0,1120.760902244542,1,1,1,0.0,2.0
2021-08-12 09:15:51.624,971.0,-24.0,28.0,971.7000566018302,1,1,1,0.0,2.0
2021-08-12 09:15:51.634,1035.0,40.0,5.0,1035.7847266686258,1,1,1,0.0,2.0
2021-08-12 09:15:51.643,910.0,194.0,-17.0,930.604642154766,1,1,1,0.0,2.0
2021-08-12 09:15:51.653,1078.0,115.0,-14.0,1084.2070835407785,1,1,1,0.0,2.0
2021-08-12 09:15:51.662,1003.0,86.0,-47.0,1007.7767609942194,1,1,1,0.0,2.0
2021-08-12 09:15:51.674,939.0,-63.0,-50.0,942.4383268946568,1,1,1,0.0,2.0
2021-08-12 09:15:51.682,974.0,140.0,4.0,984.0182925128984,1,1,1,0.0,2.0
2021-08-12 09:15:51.692,1059.0,106.0,14.0,1064.3838593289547,1,1,1,0.0,2.0
2021-08-12 09:15:51.702,1074.0,106.0,14.0,1079.3090382276987,1,1,1,0.0,2.0
2021-08-12 09:15:51.703,1074.0,55.0,19.0,1075.5751949538442,1,1,1,0.0,2.0
2021-08-12 09:15:51.711,1067.0,-146.0,22.0,1077.167117953384,1,1,1,0.0,2.0
2021-08-12 09:15:51.720,999.0,-146.0,22.0,1009.8519693499636,1,1,1,0.0,2.0
2021-08-12 09:15:51.721,999.0,-50.0,38.0,1000.9720275811908,1,1,1,0.0,2.0
2021-08-12 09:15:51.733,1045.0,16.0,18.0,1045.2774751232323,1,1,1,0.0,2.0
2021-08-12 09:15:51.741,1071.0,90.0,56.0,1076.2327815115093,1,1,1,0.0,2.0
2021-08-12 09:15:51.751,1108.0,86.0,-17.0,1111.4625499763813,1,1,1,0.0,2.0
2021-08-12 09:15:51.760,1000.0,62.0,-38.0,1002.6405138433216,1,1,1,0.0,2.0
2021-08-12 09:15:51.770,935.0,7.0,-40.0,935.8814027428904,1,1,1,0.0,2.0
2021-08-12 09:15:51.806,935.0,175.0,-31.0,951.7410362068036,1,1,1,0.0,2.0
2021-08-12 09:15:51.809,1088.0,64.0,22.0,1090.1027474508996,1,1,1,0.0,2.0
2021-08-12 09:15:51.811,1039.0,64.0,22.0,1041.201709564482,1,1,1,0.0,2.0
2021-08-12 09:15:51.812,1039.0,-143.0,-15.0,1048.9018066530346,1,1,1,0.0,2.0
2021-08-12 09:15:51.819,967.0,31.0,48.0,968.686739870016,1,1,1,0.0,2.0
2021-08-12 09:15:51.829,1070.0,38.0,38.0,1071.3486827359245,1,1,1,0.0,2.0
2021-08-12 09:15:51.839,1136.0,20.0,46.0,1137.1068551371943,1,1,1,0.0,2.0
2021-08-12 09:15:51.848,1012.0,-106.0,-5.0,1017.5485246414542,1,1,1,0.0,2.0
2021-08-12 09:15:51.857,995.0,73.0,-24.0,997.9629251630544,1,1,1,0.0,2.0
2021-08-12 09:15:51.868,913.0,124.0,12.0,921.4602541618384,1,1,1,0.0,2.0
2021-08-12 09:15:51.877,951.0,124.0,12.0,959.1251221816682,1,1,1,0.0,2.0
2021-08-12 09:15:51.878,951.0,141.0,-2.0,961.3979405012266,1,1,1,0.0,2.0
2021-08-12 09:15:51.888,1045.0,27.0,-21.0,1045.5596587474097,1,1,1,0.0,2.0
2021-08-12 09:15:51.897,1037.0,-200.0,-17.0,1056.247130173616,1,1,1,0.0,2.0
2021-08-12 09:15:51.906,1010.0,-163.0,-17.0,1023.2096559356738,1,1,1,0.0,2.0
2021-08-12 09:15:51.907,1010.0,-163.0,0.0,1023.0684239091734,1,1,1,0.0,2.0
2021-08-12 09:15:51.917,931.0,58.0,63.0,934.9299438995416,1,1,1,0.0,2.0
2021-08-12 09:15:51.927,1057.0,31.0,37.0,1058.1016019267715,1,1,1,0.0,2.0
2021-08-12 09:15:51.937,1123.0,-15.0,36.0,1123.6769998536056,1,1,1,0.0,2.0
2021-08-12 09:15:51.945,976.0,-183.0,36.0,993.6604047661352,1,1,1,0.0,2.0
2021-08-12 09:15:51.946,976.0,-183.0,-14.0,993.1067414935818,1,1,1,0.0,2.0
2021-08-12 09:15:51.955,994.0,-14.0,0.0,994.098586660297,1,1,1,0.0,2.0
2021-08-12 09:15:51.966,894.0,140.0,20.0,905.1165670785172,1,1,1,0.0,2.0
2021-08-12 09:15:51.976,977.0,130.0,-17.0,985.7575766891168,1,1,1,0.0,2.0
2021-08-12 09:15:51.985,1016.0,48.0,-15.0,1017.2438252454522,1,1,1,0.0,2.0
2021-08-12 09:15:51.996,983.0,291.0,30.0,1025.6071372606568,1,1,1,0.0,2.0
2021-08-12 09:15:52.004,1026.0,96.0,28.0,1030.8617754092932,1,1,1,0.0,2.0
2021-08-12 09:15:52.014,1001.0,15.0,3.0,1001.1168762936724,1,1,1,0.0,2.0
2021-08-12 09:15:52.025,1088.0,-34.0,21.0,1088.7336680749795,1,1,1,0.0,2.0
2021-08-12 09:15:52.034,958.0,69.0,29.0,960.9193514546369,1,1,1,0.0,2.0
2021-08-12 09:15:52.044,1023.0,61.0,21.0,1025.032194616345,1,1,1,0.0,2.0
2021-08-12 09:15:52.053,1008.0,-8.0,-14.0,1008.1289600046216,1,1,1,0.0,2.0
2021-08-12 09:15:52.063,1031.0,26.0,21.0,1031.5415648436085,1,1,1,0.0,2.0
2021-08-12 09:15:52.072,948.0,26.0,21.0,948.5889520756606,1,1,1,0.0,2.0
2021-08-12 09:15:52.073,948.0,17.0,-21.0,948.384942942474,1,1,1,0.0,2.0
2021-08-12 09:15:52.083,1012.0,77.0,2.0,1014.9270909774752,1,1,1,0.0,2.0
2021-08-12 09:15:52.093,961.0,40.0,-18.0,962.0005197503792,1,1,1,0.0,2.0
2021-08-12 09:15:52.102,1054.0,54.0,31.0,1055.837582206657,1,1,1,0.0,2.0
2021-08-12 09:15:52.112,1016.0,11.0,5.0,1016.0718478532904,1,1,1,0.0,2.0
2021-08-12 09:15:52.121,1043.0,69.0,40.0,1046.044932113339,1,1,1,0.0,2.0
2021-08-12 09:15:52.132,1014.0,69.0,40.0,1017.1317515445086,1,1,1,0.0,2.0
2021-08-12 09:15:52.133,1014.0,46.0,17.0,1015.1852047779262,1,1,1,0.0,2.0
2021-08-12 09:15:52.142,1029.0,46.0,17.0,1030.1679474726438,1,1,1,0.0,2.0
2021-08-12 09:15:52.143,1029.0,10.0,15.0,1029.1579081948505,1,1,1,0.0,2.0
2021-08-12 09:15:52.150,1029.0,10.0,15.0,1029.1579081948505,1,1,1,0.0,2.0
2021-08-12 09:15:52.151,1029.0,40.0,28.0,1030.157754909412,1,1,1,0.0,2.0
2021-08-12 09:15:52.160,1007.0,31.0,3.0,1007.481513478039,1,1,1,0.0,2.0
2021-08-12 09:15:52.170,1009.0,59.0,7.0,1010.7477430100944,1,1,1,0.0,2.0
2021-08-12 09:15:52.181,1002.0,55.0,7.0,1003.5327598040832,1,1,1,0.0,2.0
2021-08-12 09:15:52.189,1020.0,48.0,12.0,1021.1992949468776,1,1,1,0.0,2.0
2021-08-12 09:15:52.200,1003.0,55.0,7.0,1004.5312339594026,1,1,1,0.0,2.0
2021-08-12 09:15:52.209,1015.0,30.0,7.0,1015.4673800767802,1,1,1,0.0,2.0
2021-08-12 09:15:52.210,1015.0,30.0,10.0,1015.4924913557952,1,1,1,0.0,2.0
2021-08-12 09:15:52.219,1017.0,53.0,5.0,1018.3923605369396,1,1,1,0.0,2.0
2021-08-12 09:15:52.230,1015.0,43.0,13.0,1015.993602342062,1,1,1,0.0,2.0
2021-08-12 09:15:52.239,1018.0,38.0,16.0,1018.8346283867662,1,1,1,0.0,2.0
2021-08-12 09:15:52.249,1023.0,41.0,7.0,1023.845203143522,1,1,1,0.0,2.0
2021-08-12 09:15:52.258,1018.0,39.0,0.0,1018.7467791360128,1,1,1,0.0,2.0
2021-08-12 09:15:52.268,1014.0,61.0,0.0,1015.8331555919998,1,1,1,0.0,2.0
2021-08-12 09:15:52.278,1012.0,58.0,1.0,1013.6611859985564,1,1,1,0.0,2.0
2021-08-12 09:15:52.287,1008.0,46.0,17.0,1009.1922512584013,1,1,1,0.0,2.0
2021-08-12 09:15:52.298,1010.0,46.0,17.0,1011.189893145694,1,1,1,0.0,2.0
2021-08-12 09:15:52.299,1010.0,32.0,15.0,1010.6181276822616,1,1,1,0.0,2.0
2021-08-12 09:15:52.307,1025.0,34.0,18.0,1025.7216971479154,1,1,1,0.0,2.0
