time_stamp,Acceleration_X,Acceleration_Y,Acceleration_Z,magnitude,STD_Status_right,STD_Status_left,STD_Status_both,KMeans,KMeans_convert
2021-09-24 07:25:34.350,1003.0,30.0,10.0,1003.4983806663566,1,1,1,3.0,2.0
2021-09-24 07:25:34.359,1005.0,24.0,10.0,1005.3362621531166,1,1,1,3.0,2.0
2021-09-24 07:25:34.469,1021.0,25.0,13.0,1021.3887604629296,1,1,1,3.0,2.0
2021-09-24 07:25:34.477,1019.0,36.0,19.0,1019.8127279064524,1,1,1,3.0,2.0
2021-09-24 07:25:34.486,1011.0,35.0,19.0,1011.7840678721918,1,1,1,3.0,2.0
2021-09-24 07:25:34.487,1011.0,35.0,5.0,1011.6180109112332,1,1,1,3.0,2.0
2021-09-24 07:25:34.496,1026.0,33.0,12.0,1026.6007013440037,1,1,1,3.0,2.0
2021-09-24 07:25:34.506,1011.0,34.0,8.0,1011.6031830713068,1,1,1,3.0,2.0
2021-09-24 07:25:34.523,1016.0,34.0,6.0,1016.586444922418,1,1,1,3.0,2.0
2021-09-24 07:25:34.526,1007.0,39.0,13.0,1007.8387767892244,1,1,1,3.0,2.0
2021-09-24 07:25:34.535,1013.0,32.0,3.0,1013.5097434164112,1,1,1,3.0,2.0
2021-09-24 07:25:34.545,1010.0,29.0,5.0,1010.4286219223998,1,1,1,3.0,2.0
2021-09-24 07:25:34.643,1056.0,399.0,9.0,1128.9012357155077,1,1,1,3.0,2.0
2021-09-24 07:25:34.653,995.0,149.0,-52.0,1007.437342964812,1,1,1,3.0,2.0
2021-09-24 07:25:34.662,983.0,149.0,-52.0,995.5872638799676,1,1,1,3.0,2.0
2021-09-24 07:25:34.663,983.0,-317.0,8.0,1032.8804383857794,1,1,1,3.0,2.0
2021-09-24 07:25:34.672,986.0,-130.0,67.0,996.7873394059536,1,1,1,3.0,2.0
2021-09-24 07:25:34.682,946.0,-12.0,63.0,948.1713980077652,1,1,1,3.0,2.0
2021-09-24 07:25:34.691,969.0,180.0,63.0,987.5879707651364,1,1,1,3.0,2.0
2021-09-24 07:25:34.692,969.0,180.0,-16.0,985.706345723715,1,1,1,3.0,2.0
2021-09-24 07:25:34.702,1160.0,-51.0,-13.0,1161.1933516861006,1,1,1,3.0,2.0
2021-09-24 07:25:34.712,924.0,-180.0,-22.0,941.626252820088,1,1,1,3.0,2.0
2021-09-24 07:25:34.721,1065.0,-185.0,36.0,1081.5479647246348,1,1,1,3.0,2.0
2021-09-24 07:25:34.730,1002.0,-185.0,36.0,1019.5709882102374,1,1,1,3.0,2.0
2021-09-24 07:25:34.731,1002.0,-43.0,2.0,1002.9242244556664,1,1,1,3.0,2.0
2021-09-24 07:25:34.740,925.0,304.0,-43.0,974.6230040379716,1,1,1,3.0,2.0
2021-09-24 07:25:34.750,1076.0,304.0,-43.0,1118.946379412347,1,1,1,3.0,2.0
2021-09-24 07:25:34.751,1076.0,118.0,20.0,1082.635672791175,1,1,1,3.0,2.0
2021-09-24 07:25:34.761,1014.0,-131.0,-42.0,1023.2893041559656,1,1,1,3.0,2.0
2021-09-24 07:25:34.769,877.0,-131.0,-42.0,887.7240562246807,1,1,1,3.0,2.0
2021-09-24 07:25:34.770,877.0,60.0,1.0,879.0506242532338,1,1,1,3.0,2.0
2021-09-24 07:25:34.779,1156.0,24.0,10.0,1156.292350575753,1,1,1,3.0,2.0
2021-09-24 07:25:34.789,1009.0,146.0,13.0,1019.5910945079896,1,1,1,3.0,2.0
2021-09-24 07:25:34.799,1079.0,-10.0,2.0,1079.0481916948845,1,1,1,3.0,2.0
2021-09-24 07:25:34.809,958.0,-10.0,2.0,958.0542782118348,1,1,1,3.0,2.0
2021-09-24 07:25:34.810,958.0,-104.0,9.0,963.6705868708456,1,1,1,3.0,2.0
2021-09-24 07:25:34.819,1036.0,-164.0,6.0,1048.9175372735456,1,1,1,3.0,2.0
2021-09-24 07:25:34.840,1110.0,-164.0,6.0,1122.0659517158515,1,1,1,3.0,2.0
2021-09-24 07:25:34.841,1110.0,228.0,51.0,1134.3213830304005,1,1,1,3.0,2.0
2021-09-24 07:25:34.842,1147.0,-39.0,-21.0,1147.8549559940054,1,1,1,3.0,2.0
2021-09-24 07:25:34.848,1070.0,180.0,24.0,1085.2999585368093,1,1,1,3.0,2.0
2021-09-24 07:25:34.857,991.0,-71.0,24.0,993.8299653361232,1,1,1,3.0,2.0
2021-09-24 07:25:34.858,991.0,-71.0,-3.0,993.5446643206334,1,1,1,3.0,2.0
2021-09-24 07:25:34.867,899.0,12.0,8.0,899.1156766512305,1,1,1,3.0,2.0
2021-09-24 07:25:34.877,1086.0,-11.0,0.0,1086.055707595149,1,1,1,3.0,2.0
2021-09-24 07:25:34.888,1082.0,101.0,0.0,1086.7037314742229,1,1,1,3.0,2.0
2021-09-24 07:25:34.889,1082.0,101.0,32.0,1087.1747789569072,1,1,1,3.0,2.0
2021-09-24 07:25:34.898,1055.0,21.0,6.0,1055.2260421350488,1,1,1,3.0,2.0
2021-09-24 07:25:34.906,927.0,-23.0,24.0,927.5958171531393,1,1,1,3.0,2.0
2021-09-24 07:25:34.916,1041.0,-185.0,31.0,1057.7650967960703,1,1,1,3.0,2.0
2021-09-24 07:25:34.926,1063.0,203.0,19.0,1082.3765518524503,1,1,1,3.0,2.0
2021-09-24 07:25:34.936,1163.0,-93.0,-23.0,1166.9391586539548,1,1,1,3.0,2.0
2021-09-24 07:25:34.946,918.0,-93.0,-23.0,922.9853736652602,1,1,1,3.0,2.0
2021-09-24 07:25:34.947,918.0,-81.0,-22.0,921.829159877252,1,1,1,3.0,2.0
2021-09-24 07:25:34.955,977.0,-135.0,-14.0,986.382278835138,1,1,1,3.0,2.0
2021-09-24 07:25:34.965,922.0,11.0,9.0,922.1095379617326,1,1,1,3.0,2.0
2021-09-24 07:25:34.974,1076.0,11.0,9.0,1076.093862077096,1,1,1,3.0,2.0
2021-09-24 07:25:34.975,1076.0,12.0,0.0,1076.0669124176247,1,1,1,3.0,2.0
2021-09-24 07:25:34.984,1056.0,12.0,0.0,1056.0681796172064,1,1,1,3.0,2.0
2021-09-24 07:25:34.985,1056.0,45.0,17.0,1057.0950761402685,1,1,1,3.0,2.0
2021-09-24 07:25:34.995,963.0,-102.0,30.0,968.851381791862,1,1,1,3.0,2.0
2021-09-24 07:25:35.005,1019.0,38.0,76.0,1022.5365519139156,1,1,1,3.0,2.0
2021-09-24 07:25:35.014,1071.0,-104.0,49.0,1077.1527282609463,1,1,1,3.0,2.0
2021-09-24 07:25:35.023,1068.0,162.0,49.0,1081.327424973583,1,1,1,3.0,2.0
2021-09-24 07:25:35.024,1068.0,162.0,43.0,1081.0721530036744,1,1,1,3.0,2.0
2021-09-24 07:25:35.033,1129.0,-71.0,7.0,1131.2519613242666,1,1,1,3.0,2.0
2021-09-24 07:25:35.043,906.0,-74.0,-35.0,909.6906067449526,1,1,1,3.0,2.0
2021-09-24 07:25:35.054,1006.0,82.0,0.0,1009.3364156712072,1,1,1,3.0,2.0
2021-09-24 07:25:35.062,911.0,82.0,0.0,914.6830051990688,1,1,1,3.0,2.0
2021-09-24 07:25:35.063,911.0,202.0,31.0,933.641258728426,1,1,1,3.0,2.0
2021-09-24 07:25:35.072,1085.0,31.0,-9.0,1085.4800781221184,1,1,1,3.0,2.0
2021-09-24 07:25:35.082,1063.0,61.0,29.0,1065.143652283578,1,1,1,3.0,2.0
2021-09-24 07:25:35.092,984.0,-266.0,41.0,1020.1436173402252,1,1,1,3.0,2.0
2021-09-24 07:25:35.102,1006.0,-266.0,41.0,1041.3803339798578,1,1,1,3.0,2.0
2021-09-24 07:25:35.103,1006.0,14.0,81.0,1009.3527629129472,1,1,1,3.0,2.0
2021-09-24 07:25:35.111,1012.0,186.0,-17.0,1029.09134677151,1,1,1,3.0,2.0
2021-09-24 07:25:35.121,1109.0,124.0,28.0,1116.2620660042155,1,1,1,3.0,2.0
2021-09-24 07:25:35.131,1124.0,-72.0,9.0,1126.3396468206204,1,1,1,3.0,2.0
2021-09-24 07:25:35.140,950.0,-72.0,9.0,952.7670229389764,1,1,1,3.0,2.0
2021-09-24 07:25:35.141,950.0,-191.0,3.0,969.0149637647502,1,1,1,3.0,2.0
2021-09-24 07:25:35.151,934.0,8.0,-39.0,934.8481160060172,1,1,1,3.0,2.0
2021-09-24 07:25:35.161,1029.0,166.0,-39.0,1043.033077136099,1,1,1,3.0,2.0
2021-09-24 07:25:35.162,1029.0,166.0,-22.0,1042.535850702507,1,1,1,3.0,2.0
2021-09-24 07:25:35.170,1110.0,17.0,-21.0,1110.3287801367665,1,1,1,3.0,2.0
2021-09-24 07:25:35.180,1045.0,65.0,-12.0,1047.0883439328318,1,1,1,3.0,2.0
2021-09-24 07:25:35.189,940.0,65.0,-12.0,942.3210705486744,1,1,1,3.0,2.0
2021-09-24 07:25:35.190,940.0,-252.0,45.0,974.2325184472134,1,1,1,3.0,2.0
2021-09-24 07:25:35.199,1049.0,-27.0,81.0,1052.4690019188213,1,1,1,3.0,2.0
2021-09-24 07:25:35.210,1017.0,171.0,81.0,1034.4520288539245,1,1,1,3.0,2.0
2021-09-24 07:25:35.211,1017.0,171.0,2.0,1031.27784810884,1,1,1,3.0,2.0
2021-09-24 07:25:35.219,1043.0,45.0,29.0,1044.373017652218,1,1,1,3.0,2.0
2021-09-24 07:25:35.229,1125.0,-52.0,15.0,1126.3010254811988,1,1,1,3.0,2.0
2021-09-24 07:25:35.238,957.0,-167.0,15.0,971.5775831090382,1,1,1,3.0,2.0
2021-09-24 07:25:35.239,957.0,-167.0,-7.0,971.4870045450942,1,1,1,3.0,2.0
2021-09-24 07:25:35.248,933.0,106.0,-25.0,939.334871065692,1,1,1,3.0,2.0
2021-09-24 07:25:35.259,1057.0,178.0,-40.0,1072.629013219389,1,1,1,3.0,2.0
2021-09-24 07:25:35.267,1054.0,178.0,-40.0,1069.6728471827262,1,1,1,3.0,2.0
2021-09-24 07:25:35.268,1054.0,104.0,0.0,1059.1185013963263,1,1,1,3.0,2.0
2021-09-24 07:25:35.277,940.0,-75.0,0.0,942.9872745694928,1,1,1,3.0,2.0
2021-09-24 07:25:35.278,940.0,-75.0,-7.0,943.013255474174,1,1,1,3.0,2.0
2021-09-24 07:25:35.287,913.0,-252.0,31.0,947.6465585860584,1,1,1,3.0,2.0
2021-09-24 07:25:35.297,1066.0,45.0,61.0,1068.6917235573596,1,1,1,3.0,2.0
2021-09-24 07:25:35.308,993.0,283.0,29.0,1032.946755646195,1,1,1,3.0,2.0
2021-09-24 07:25:35.317,1070.0,15.0,35.0,1070.6773556959165,1,1,1,3.0,2.0
2021-09-24 07:25:35.326,889.0,38.0,9.0,889.8572919294419,1,1,1,3.0,2.0
2021-09-24 07:25:35.336,962.0,169.0,15.0,976.8469685677486,1,1,1,3.0,2.0
2021-09-24 07:25:35.350,1006.0,20.0,-6.0,1006.2166764668532,1,1,1,3.0,2.0
2021-09-24 07:25:35.355,1107.0,20.0,-6.0,1107.1969111228589,1,1,1,3.0,2.0
2021-09-24 07:25:35.356,1107.0,135.0,-19.0,1115.3631695551005,1,1,1,3.0,2.0
2021-09-24 07:25:35.365,933.0,79.0,-19.0,936.5313662659676,1,1,1,3.0,2.0
2021-09-24 07:25:35.375,976.0,-15.0,48.0,977.2947354815742,1,1,1,3.0,2.0
2021-09-24 07:25:35.385,912.0,367.0,18.0,983.23801797937,1,1,1,3.0,2.0
2021-09-24 07:25:35.395,1130.0,110.0,-34.0,1135.8503422546476,1,1,1,3.0,2.0
2021-09-24 07:25:35.408,1045.0,110.0,-34.0,1051.323451655103,1,1,1,3.0,2.0
2021-09-24 07:25:35.409,1045.0,292.0,43.0,1085.881208972694,1,1,1,3.0,2.0
2021-09-24 07:25:35.414,1061.0,112.0,25.0,1067.187893484554,1,1,1,3.0,2.0
2021-09-24 07:25:35.424,861.0,-26.0,0.0,861.3924773295852,1,1,1,3.0,2.0
2021-09-24 07:25:35.444,975.0,-26.0,0.0,975.34660505894,1,1,1,3.0,2.0
2021-09-24 07:25:35.445,975.0,195.0,5.0,994.321376618244,1,1,1,3.0,2.0
2021-09-24 07:25:35.448,1137.0,81.0,6.0,1139.8973638007942,1,1,1,3.0,2.0
2021-09-24 07:25:35.453,1056.0,137.0,-29.0,1065.2445728563937,1,1,1,3.0,2.0
2021-09-24 07:25:35.463,941.0,167.0,-22.0,955.9571120086924,1,1,1,3.0,2.0
2021-09-24 07:25:35.473,981.0,24.0,12.0,981.366903864197,1,1,1,3.0,2.0
2021-09-24 07:25:35.482,894.0,24.0,12.0,894.4025939139487,1,1,1,3.0,2.0
2021-09-24 07:25:35.483,894.0,397.0,-3.0,978.1891432642258,1,1,1,3.0,2.0
2021-09-24 07:25:35.493,1155.0,107.0,-9.0,1159.9806032861068,1,1,1,3.0,2.0
2021-09-24 07:25:35.502,939.0,-33.0,8.0,939.613750431527,1,1,1,3.0,2.0
2021-09-24 07:25:35.512,1138.0,-38.0,19.0,1138.7927818527828,1,1,1,3.0,2.0
2021-09-24 07:25:35.521,901.0,-38.0,19.0,902.0011086467688,1,1,1,3.0,2.0
2021-09-24 07:25:35.522,901.0,18.0,-19.0,901.3800530297972,1,1,1,3.0,2.0
2021-09-24 07:25:35.536,963.0,103.0,26.0,968.8415763167887,1,1,1,3.0,2.0
2021-09-24 07:25:35.541,1168.0,-24.0,8.0,1168.2739404780027,1,1,1,3.0,2.0
2021-09-24 07:25:35.551,1036.0,-17.0,70.0,1038.5013240241922,1,1,1,3.0,2.0
2021-09-24 07:25:35.560,1031.0,-17.0,70.0,1033.5134251667948,1,1,1,3.0,2.0
2021-09-24 07:25:35.561,1031.0,-349.0,19.0,1088.6335471590062,1,1,1,3.0,2.0
2021-09-24 07:25:35.571,991.0,24.0,-8.0,991.3228535648716,1,1,1,3.0,2.0
2021-09-24 07:25:35.581,936.0,282.0,-10.0,977.609328924392,1,1,1,3.0,2.0
2021-09-24 07:25:35.590,1085.0,71.0,0.0,1087.3205599086225,1,1,1,3.0,2.0
2021-09-24 07:25:35.599,1048.0,71.0,0.0,1050.402303881708,1,1,1,3.0,2.0
2021-09-24 07:25:35.600,1048.0,-109.0,24.0,1053.9264680232675,1,1,1,3.0,2.0
2021-09-24 07:25:35.610,913.0,-273.0,15.0,953.0598092459884,1,1,1,3.0,2.0
2021-09-24 07:25:35.620,944.0,34.0,15.0,944.7311786958236,1,1,1,3.0,2.0
2021-09-24 07:25:35.629,976.0,114.0,-18.0,982.800081400078,1,1,1,3.0,2.0
2021-09-24 07:25:35.639,1103.0,22.0,8.0,1103.248385450892,1,1,1,3.0,2.0
2021-09-24 07:25:35.648,954.0,-18.0,8.0,954.203332628848,1,1,1,3.0,2.0
2021-09-24 07:25:35.649,954.0,-18.0,77.0,957.2716437876971,1,1,1,3.0,2.0
2021-09-24 07:25:35.658,1020.0,-255.0,36.0,1052.0080798168806,1,1,1,3.0,2.0
2021-09-24 07:25:35.669,1031.0,187.0,8.0,1047.852088798796,1,1,1,3.0,2.0
2021-09-24 07:25:35.678,936.0,307.0,4.0,985.0690331139234,1,1,1,3.0,2.0
2021-09-24 07:25:35.687,1084.0,307.0,4.0,1126.6414691462408,1,1,1,3.0,2.0
2021-09-24 07:25:35.688,1084.0,81.0,1.0,1087.0225388647652,1,1,1,3.0,2.0
2021-09-24 07:25:35.697,956.0,-93.0,7.0,960.5383906955516,1,1,1,3.0,2.0
2021-09-24 07:25:35.707,919.0,-147.0,-1.0,930.6830824722238,1,1,1,3.0,2.0
2021-09-24 07:25:35.718,1088.0,102.0,11.0,1092.8261526885235,1,1,1,3.0,2.0
2021-09-24 07:25:35.727,1076.0,102.0,11.0,1080.8797342905457,1,1,1,3.0,2.0
2021-09-24 07:25:35.728,1076.0,161.0,12.0,1088.044576292718,1,1,1,3.0,2.0
2021-09-24 07:25:35.737,1170.0,-1.0,18.0,1170.1388806462248,1,1,1,3.0,2.0
2021-09-24 07:25:35.746,996.0,-136.0,74.0,1007.9623008823296,1,1,1,3.0,2.0
2021-09-24 07:25:35.756,984.0,-167.0,43.0,998.996496490353,1,1,1,3.0,2.0
2021-09-24 07:25:35.766,1026.0,221.0,26.0,1049.8537993454136,1,1,1,3.0,2.0
2021-09-24 07:25:35.776,1133.0,19.0,-75.0,1135.6385868752436,1,1,1,3.0,2.0
2021-09-24 07:25:35.785,961.0,97.0,-39.0,966.6700574653174,1,1,1,3.0,2.0
2021-09-24 07:25:35.799,1020.0,-139.0,3.0,1029.4318821563668,1,1,1,3.0,2.0
2021-09-24 07:25:35.805,879.0,-98.0,-1.0,884.4467197067328,1,1,1,3.0,2.0
2021-09-24 07:25:35.814,1094.0,-98.0,-1.0,1098.3810814102726,1,1,1,3.0,2.0
2021-09-24 07:25:35.815,1094.0,168.0,19.0,1106.9873531346236,1,1,1,3.0,2.0
2021-09-24 07:25:35.825,1076.0,103.0,10.0,1080.964846791976,1,1,1,3.0,2.0
2021-09-24 07:25:35.835,999.0,-106.0,24.0,1004.8945218280376,1,1,1,3.0,2.0
2021-09-24 07:25:35.854,951.0,42.0,60.0,953.8160199954706,1,1,1,3.0,2.0
2021-09-24 07:25:35.856,999.0,42.0,60.0,1001.681086973294,1,1,1,3.0,2.0
2021-09-24 07:25:35.857,999.0,-182.0,46.0,1016.4846285114204,1,1,1,3.0,2.0
2021-09-24 07:25:35.864,1067.0,193.0,46.0,1085.2898230426747,1,1,1,3.0,2.0
2021-09-24 07:25:35.865,1067.0,193.0,1.0,1084.3149911349562,1,1,1,3.0,2.0
2021-09-24 07:25:35.873,1152.0,-10.0,-41.0,1152.7727442995863,1,1,1,3.0,2.0
2021-09-24 07:25:35.885,945.0,-22.0,-46.0,946.374661537385,1,1,1,3.0,2.0
2021-09-24 07:25:35.893,962.0,36.0,-46.0,963.771757212256,1,1,1,3.0,2.0
2021-09-24 07:25:35.894,962.0,36.0,5.0,962.686345597568,1,1,1,3.0,2.0
2021-09-24 07:25:35.902,1002.0,36.0,5.0,1002.6589649526902,1,1,1,3.0,2.0
2021-09-24 07:25:35.903,1002.0,221.0,-17.0,1026.2231726091552,1,1,1,3.0,2.0
2021-09-24 07:25:35.913,1111.0,104.0,37.0,1116.4703309985448,1,1,1,3.0,2.0
2021-09-24 07:25:35.923,1082.0,56.0,0.0,1083.4481990386066,1,1,1,3.0,2.0
2021-09-24 07:25:35.932,1019.0,-110.0,27.0,1025.275572712039,1,1,1,3.0,2.0
2021-09-24 07:25:35.941,986.0,-110.0,27.0,992.4842568020916,1,1,1,3.0,2.0
2021-09-24 07:25:35.942,986.0,63.0,79.0,991.163962218159,1,1,1,3.0,2.0
2021-09-24 07:25:35.951,935.0,228.0,-18.0,962.5658419038148,1,1,1,3.0,2.0
2021-09-24 07:25:35.961,1068.0,136.0,-18.0,1076.7748139699406,1,1,1,3.0,2.0
2021-09-24 07:25:35.962,1068.0,136.0,10.0,1076.6707946257295,1,1,1,3.0,2.0
2021-09-24 07:25:35.971,1152.0,2.0,10.0,1152.0451380045836,1,1,1,3.0,2.0
2021-09-24 07:25:35.972,1152.0,2.0,-43.0,1152.8039729286154,1,1,1,3.0,2.0
2021-09-24 07:25:35.980,933.0,2.0,-43.0,933.9925053232494,1,1,1,3.0,2.0
2021-09-24 07:25:35.981,933.0,12.0,-38.0,933.850630454357,1,1,1,3.0,2.0
2021-09-24 07:25:35.990,930.0,13.0,-38.0,930.8668003533052,1,1,1,3.0,2.0
2021-09-24 07:25:35.991,930.0,13.0,2.0,930.093006102078,1,1,1,3.0,2.0
2021-09-24 07:25:36.000,972.0,238.0,-20.0,1000.9135826833405,1,1,1,3.0,2.0
2021-09-24 07:25:36.010,1086.0,120.0,25.0,1092.8956949315889,1,1,1,3.0,2.0
2021-09-24 07:25:36.019,1085.0,120.0,25.0,1091.9020102554991,1,1,1,3.0,2.0
2021-09-24 07:25:36.020,1085.0,124.0,24.0,1092.326416415899,1,1,1,3.0,2.0
2021-09-24 07:25:36.029,986.0,-26.0,24.0,986.6346841663332,1,1,1,3.0,2.0
2021-09-24 07:25:36.030,986.0,-26.0,22.0,986.5880599318036,1,1,1,3.0,2.0
2021-09-24 07:25:36.039,987.0,73.0,83.0,993.1701767572364,1,1,1,3.0,2.0
2021-09-24 07:25:36.049,968.0,207.0,-11.0,989.9464631988944,1,1,1,3.0,2.0
2021-09-24 07:25:36.059,1137.0,-22.0,7.0,1137.2343645880562,1,1,1,3.0,2.0
2021-09-24 07:25:36.069,940.0,-22.0,7.0,940.2834678967828,1,1,1,3.0,2.0
2021-09-24 07:25:36.070,940.0,-52.0,25.0,941.7690799766152,1,1,1,3.0,2.0
2021-09-24 07:25:36.078,898.0,-35.0,-27.0,899.0873150033872,1,1,1,3.0,2.0
2021-09-24 07:25:36.088,942.0,46.0,-11.0,943.1866199220598,1,1,1,3.0,2.0
2021-09-24 07:25:36.098,942.0,309.0,-24.0,991.6758542991756,1,1,1,3.0,2.0
2021-09-24 07:25:36.107,1080.0,309.0,-24.0,1123.5911178004212,1,1,1,3.0,2.0
2021-09-24 07:25:36.108,1080.0,109.0,23.0,1085.7301690567506,1,1,1,3.0,2.0
2021-09-24 07:25:36.118,1010.0,109.0,23.0,1016.1249923114774,1,1,1,3.0,2.0
2021-09-24 07:25:36.119,1010.0,-120.0,40.0,1017.8899744078434,1,1,1,3.0,2.0
2021-09-24 07:25:36.127,877.0,20.0,-3.0,877.2331503084,1,1,1,3.0,2.0
2021-09-24 07:25:36.137,941.0,10.0,67.0,943.4352124019964,1,1,1,3.0,2.0
2021-09-24 07:25:36.147,965.0,260.0,-50.0,1000.6622806921424,1,1,1,3.0,2.0
2021-09-24 07:25:36.156,1115.0,-34.0,-50.0,1116.6382583451098,1,1,1,3.0,2.0
2021-09-24 07:25:36.157,1115.0,-34.0,12.0,1115.5828073253908,1,1,1,3.0,2.0
2021-09-24 07:25:36.167,911.0,-58.0,-1.0,912.8450032727352,1,1,1,3.0,2.0
2021-09-24 07:25:36.176,1033.0,-148.0,28.0,1043.923847797338,1,1,1,3.0,2.0
2021-09-24 07:25:36.186,1076.0,214.0,35.0,1097.6324521441593,1,1,1,3.0,2.0
2021-09-24 07:25:36.195,991.0,253.0,35.0,1023.3840921179104,1,1,1,3.0,2.0
2021-09-24 07:25:36.196,991.0,253.0,-36.0,1023.4187803631512,1,1,1,3.0,2.0
2021-09-24 07:25:36.205,1076.0,175.0,13.0,1090.2155750125753,1,1,1,3.0,2.0
2021-09-24 07:25:36.216,1012.0,-88.0,-4.0,1015.8267568832788,1,1,1,3.0,2.0
2021-09-24 07:25:36.226,874.0,73.0,-4.0,877.0524499709239,1,1,1,3.0,2.0
2021-09-24 07:25:36.234,1097.0,14.0,-4.0,1097.0966229097598,1,1,1,3.0,2.0
2021-09-24 07:25:36.235,1097.0,14.0,22.0,1097.3098924187277,1,1,1,3.0,2.0
2021-09-24 07:25:36.244,1070.0,52.0,17.0,1071.397685269107,1,1,1,3.0,2.0
2021-09-24 07:25:36.254,1107.0,-48.0,0.0,1108.0401617270018,1,1,1,3.0,2.0
2021-09-24 07:25:36.264,927.0,-24.0,-6.0,927.3300383358668,1,1,1,3.0,2.0
2021-09-24 07:25:36.274,1027.0,-133.0,30.0,1036.010617706209,1,1,1,3.0,2.0
2021-09-24 07:25:36.283,1103.0,121.0,27.0,1109.945494157258,1,1,1,3.0,2.0
2021-09-24 07:25:36.293,1137.0,-44.0,27.0,1138.171340352585,1,1,1,3.0,2.0
2021-09-24 07:25:36.294,1137.0,-44.0,5.0,1137.8620303006862,1,1,1,3.0,2.0
2021-09-24 07:25:36.303,898.0,-116.0,-11.0,905.5280227579927,1,1,1,3.0,2.0
2021-09-24 07:25:36.313,973.0,-95.0,-11.0,977.6886007313371,1,1,1,3.0,2.0
2021-09-24 07:25:36.324,908.0,71.0,8.0,910.8067852184678,1,1,1,3.0,2.0
2021-09-24 07:25:36.333,1089.0,-7.0,18.0,1089.171244570843,1,1,1,3.0,2.0
2021-09-24 07:25:36.342,1095.0,162.0,29.0,1107.2985144034103,1,1,1,3.0,2.0
2021-09-24 07:25:36.352,992.0,-167.0,29.0,1006.3766690459393,1,1,1,3.0,2.0
2021-09-24 07:25:36.365,995.0,39.0,74.0,998.5098897857748,1,1,1,3.0,2.0
2021-09-24 07:25:36.371,980.0,-89.0,41.0,984.8867955252522,1,1,1,3.0,2.0
2021-09-24 07:25:36.381,1043.0,195.0,19.0,1061.2421966733136,1,1,1,3.0,2.0
2021-09-24 07:25:36.391,1125.0,-86.0,21.0,1128.4777357130267,1,1,1,3.0,2.0
2021-09-24 07:25:36.402,898.0,-163.0,4.0,912.6823105549926,1,1,1,3.0,2.0
2021-09-24 07:25:36.410,944.0,-163.0,4.0,957.9775571483916,1,1,1,3.0,2.0
2021-09-24 07:25:36.411,944.0,84.0,-16.0,947.8649692862376,1,1,1,3.0,2.0
2021-09-24 07:25:36.421,1057.0,202.0,-33.0,1076.634571245044,1,1,1,3.0,2.0
2021-09-24 07:25:36.430,1129.0,20.0,11.0,1129.23071159086,1,1,1,3.0,2.0
2021-09-24 07:25:36.439,1088.0,26.0,11.0,1088.366206752121,1,1,1,3.0,2.0
2021-09-24 07:25:36.440,1088.0,26.0,12.0,1088.3767729972926,1,1,1,3.0,2.0
2021-09-24 07:25:36.462,928.0,-188.0,39.0,947.6544728961078,1,1,1,3.0,2.0
2021-09-24 07:25:36.464,1034.0,87.0,80.0,1040.7329148249323,1,1,1,3.0,2.0
2021-09-24 07:25:36.469,1009.0,238.0,-16.0,1036.8129050122784,1,1,1,3.0,2.0
2021-09-24 07:25:36.478,1068.0,238.0,-16.0,1094.3143972369185,1,1,1,3.0,2.0
2021-09-24 07:25:36.479,1068.0,135.0,27.0,1076.837035024335,1,1,1,3.0,2.0
2021-09-24 07:25:36.488,1095.0,-68.0,-1.0,1097.109839532943,1,1,1,3.0,2.0
2021-09-24 07:25:36.498,908.0,-143.0,6.0,919.2110747809776,1,1,1,3.0,2.0
2021-09-24 07:25:36.508,946.0,61.0,8.0,947.9984177201984,1,1,1,3.0,2.0
2021-09-24 07:25:36.519,1049.0,276.0,-23.0,1084.945159904407,1,1,1,3.0,2.0
2021-09-24 07:25:36.527,1092.0,163.0,0.0,1104.0982746114587,1,1,1,3.0,2.0
2021-09-24 07:25:36.537,1049.0,33.0,21.0,1049.729012650408,1,1,1,3.0,2.0
2021-09-24 07:25:36.553,964.0,-218.0,21.0,988.5651217800474,1,1,1,3.0,2.0
2021-09-24 07:25:36.554,964.0,-218.0,32.0,988.8599496389768,1,1,1,3.0,2.0
2021-09-24 07:25:36.559,1002.0,-218.0,32.0,1025.9395693704382,1,1,1,3.0,2.0
2021-09-24 07:25:36.560,1002.0,77.0,55.0,1006.4581461739976,1,1,1,3.0,2.0
2021-09-24 07:25:36.567,1047.0,265.0,-20.0,1080.2009072390192,1,1,1,3.0,2.0
2021-09-24 07:25:36.576,1155.0,0.0,-6.0,1155.0155843104455,1,1,1,3.0,2.0
2021-09-24 07:25:36.587,868.0,-46.0,-9.0,869.2646317434064,1,1,1,3.0,2.0
2021-09-24 07:25:36.596,909.0,-177.0,-2.0,926.0745110410932,1,1,1,3.0,2.0
2021-09-24 07:25:36.605,988.0,-177.0,-2.0,1003.731537812776,1,1,1,3.0,2.0
2021-09-24 07:25:36.606,988.0,51.0,0.0,989.3154198737632,1,1,1,3.0,2.0
2021-09-24 07:25:36.616,1083.0,236.0,-36.0,1109.0,1,1,1,3.0,2.0
2021-09-24 07:25:36.625,1067.0,102.0,-27.0,1072.204271582612,1,1,1,3.0,2.0
2021-09-24 07:25:36.635,946.0,-91.0,-22.0,950.6213757327362,1,1,1,3.0,2.0
2021-09-24 07:25:36.644,853.0,-91.0,-22.0,858.1223688961849,1,1,1,3.0,2.0
2021-09-24 07:25:36.645,853.0,231.0,33.0,884.3409975795536,1,1,1,3.0,2.0
2021-09-24 07:25:36.654,1036.0,27.0,33.0,1036.877041890696,1,1,1,3.0,2.0
2021-09-24 07:25:36.655,1036.0,27.0,74.0,1038.9903753163453,1,1,1,3.0,2.0
2021-09-24 07:25:36.664,1081.0,27.0,74.0,1083.866227908223,1,1,1,3.0,2.0
2021-09-24 07:25:36.665,1081.0,231.0,-4.0,1105.4130449745924,1,1,1,3.0,2.0
2021-09-24 07:25:36.674,1098.0,47.0,20.0,1099.187427147891,1,1,1,3.0,2.0
2021-09-24 07:25:36.683,847.0,47.0,20.0,848.5387439592844,1,1,1,3.0,2.0
2021-09-24 07:25:36.684,847.0,3.0,-6.0,847.0265639281923,1,1,1,3.0,2.0
2021-09-24 07:25:36.694,984.0,-31.0,33.0,985.0411158931388,1,1,1,3.0,2.0
2021-09-24 07:25:36.703,970.0,-63.0,-24.0,972.3399611247088,1,1,1,3.0,2.0
2021-09-24 07:25:36.713,1057.0,104.0,-40.0,1062.8569988479164,1,1,1,3.0,2.0
2021-09-24 07:25:36.724,1041.0,127.0,-20.0,1048.9089569643306,1,1,1,3.0,2.0
2021-09-24 07:25:36.732,944.0,-46.0,-20.0,945.331687821793,1,1,1,3.0,2.0
2021-09-24 07:25:36.733,944.0,-46.0,-22.0,945.3761156280603,1,1,1,3.0,2.0
2021-09-24 07:25:36.742,890.0,309.0,10.0,942.1682439989156,1,1,1,3.0,2.0
2021-09-24 07:25:36.752,1102.0,97.0,-26.0,1106.56631071075,1,1,1,3.0,2.0
2021-09-24 07:25:36.762,1051.0,328.0,17.0,1101.1239712221327,1,1,1,3.0,2.0
2021-09-24 07:25:36.772,1091.0,-24.0,17.0,1091.3963533015858,1,1,1,3.0,2.0
2021-09-24 07:25:36.773,1091.0,-24.0,38.0,1091.925363749739,1,1,1,3.0,2.0
2021-09-24 07:25:36.781,866.0,0.0,-5.0,866.0144340598487,1,1,1,3.0,2.0
2021-09-24 07:25:36.792,997.0,0.0,-5.0,997.0125375340072,1,1,1,3.0,2.0
2021-09-24 07:25:36.793,997.0,39.0,13.0,997.8471826888124,1,1,1,3.0,2.0
2021-09-24 07:25:36.801,1124.0,190.0,18.0,1140.0877159236477,1,1,1,3.0,2.0
2021-09-24 07:25:36.810,1128.0,190.0,18.0,1144.0314680986708,1,1,1,3.0,2.0
2021-09-24 07:25:36.811,1128.0,-49.0,59.0,1130.6042632150295,1,1,1,3.0,2.0
2021-09-24 07:25:36.820,1001.0,199.0,59.0,1022.293010833978,1,1,1,3.0,2.0
2021-09-24 07:25:36.821,1001.0,199.0,-19.0,1020.7658889285044,1,1,1,3.0,2.0
2021-09-24 07:25:36.830,943.0,199.0,-19.0,963.955911854894,1,1,1,3.0,2.0
2021-09-24 07:25:36.831,943.0,-36.0,-10.0,943.7399006082132,1,1,1,3.0,2.0
2021-09-24 07:25:36.840,894.0,298.0,2.0,942.3608650617872,1,1,1,3.0,2.0
2021-09-24 07:25:36.849,1115.0,298.0,2.0,1154.1373401809683,1,1,1,3.0,2.0
2021-09-24 07:25:36.850,1115.0,77.0,-8.0,1117.684213004729,1,1,1,3.0,2.0
2021-09-24 07:25:36.868,1031.0,-61.0,-17.0,1032.9428832224946,1,1,1,3.0,2.0
2021-09-24 07:25:36.871,963.0,-311.0,21.0,1012.191187473987,1,1,1,3.0,2.0
2021-09-24 07:25:36.879,848.0,-1.0,16.0,848.1515194822208,1,1,1,3.0,2.0
2021-09-24 07:25:36.889,980.0,-1.0,16.0,980.131113678165,1,1,1,3.0,2.0
2021-09-24 07:25:36.890,980.0,-14.0,9.0,980.1413163416794,1,1,1,3.0,2.0
2021-09-24 07:25:36.899,1130.0,94.0,-1.0,1133.9034350419793,1,1,1,3.0,2.0
2021-09-24 07:25:36.909,1088.0,-72.0,-1.0,1090.380208917972,1,1,1,3.0,2.0
2021-09-24 07:25:36.910,1088.0,-72.0,28.0,1090.7391988922009,1,1,1,3.0,2.0
2021-09-24 07:25:36.918,915.0,-189.0,-4.0,934.3243548147506,1,1,1,3.0,2.0
2021-09-24 07:25:36.928,984.0,-76.0,-8.0,986.9630185574332,1,1,1,3.0,2.0
2021-09-24 07:25:36.938,889.0,-76.0,-8.0,892.2785439536244,1,1,1,3.0,2.0
2021-09-24 07:25:36.939,889.0,319.0,-7.0,944.5268656846137,1,1,1,3.0,2.0
2021-09-24 07:25:36.947,1129.0,110.0,-38.0,1134.9823787178373,1,1,1,3.0,2.0
2021-09-24 07:25:36.957,1023.0,110.0,-38.0,1029.598465422322,1,1,1,3.0,2.0
2021-09-24 07:25:36.958,1023.0,-25.0,-6.0,1023.3230184062118,1,1,1,3.0,2.0
2021-09-24 07:25:36.967,969.0,-236.0,45.0,998.3396215717374,1,1,1,3.0,2.0
2021-09-24 07:25:36.976,1068.0,-236.0,45.0,1094.6894536808145,1,1,1,3.0,2.0
2021-09-24 07:25:36.977,1068.0,26.0,37.0,1068.9569682639242,1,1,1,3.0,2.0
2021-09-24 07:25:36.990,1007.0,234.0,24.0,1034.1087950501146,1,1,1,3.0,2.0
2021-09-24 07:25:36.996,1153.0,30.0,24.0,1153.639891820667,1,1,1,3.0,2.0
2021-09-24 07:25:37.006,1054.0,-171.0,36.0,1068.3880381209815,1,1,1,3.0,2.0
2021-09-24 07:25:37.016,934.0,-281.0,13.0,975.4414385292436,1,1,1,3.0,2.0
2021-09-24 07:25:37.025,997.0,-281.0,13.0,1035.9242250280663,1,1,1,3.0,2.0
2021-09-24 07:25:37.026,997.0,71.0,-14.0,999.622928908696,1,1,1,3.0,2.0
2021-09-24 07:25:37.035,1052.0,131.0,-49.0,1061.2568020983422,1,1,1,3.0,2.0
2021-09-24 07:25:37.045,1137.0,126.0,-14.0,1144.045890687957,1,1,1,3.0,2.0
2021-09-24 07:25:37.055,999.0,-66.0,5.0,1001.19029160295,1,1,1,3.0,2.0
2021-09-24 07:25:37.065,954.0,-66.0,5.0,956.2933650297904,1,1,1,3.0,2.0
2021-09-24 07:25:37.066,954.0,-260.0,44.0,989.7737115118788,1,1,1,3.0,2.0
2021-09-24 07:25:37.074,1104.0,18.0,62.0,1105.8860700813625,1,1,1,3.0,2.0
2021-09-24 07:25:37.085,1026.0,200.0,9.0,1045.3501805615188,1,1,1,3.0,2.0
2021-09-24 07:25:37.094,1050.0,38.0,0.0,1050.6873940425858,1,1,1,3.0,2.0
2021-09-24 07:25:37.103,1041.0,38.0,0.0,1041.693332992009,1,1,1,3.0,2.0
2021-09-24 07:25:37.104,1041.0,-135.0,28.0,1050.0904722927448,1,1,1,3.0,2.0
2021-09-24 07:25:37.114,1002.0,-331.0,9.0,1055.2942717555136,1,1,1,3.0,2.0
2021-09-24 07:25:37.123,968.0,69.0,10.0,970.5075991459316,1,1,1,3.0,2.0
2021-09-24 07:25:37.134,1165.0,-5.0,-35.0,1165.5363572192846,1,1,1,3.0,2.0
2021-09-24 07:25:37.143,1013.0,55.0,-39.0,1015.2413506157046,1,1,1,3.0,2.0
2021-09-24 07:25:37.152,964.0,34.0,-33.0,965.1637166823048,1,1,1,3.0,2.0
2021-09-24 07:25:37.162,919.0,-202.0,-33.0,941.5168612404136,1,1,1,3.0,2.0
2021-09-24 07:25:37.163,919.0,-202.0,34.0,941.552441449758,1,1,1,3.0,2.0
2021-09-24 07:25:37.173,1077.0,24.0,23.0,1077.5128769532178,1,1,1,3.0,2.0
2021-09-24 07:25:37.181,1058.0,24.0,23.0,1058.522082906162,1,1,1,3.0,2.0
2021-09-24 07:25:37.182,1058.0,238.0,26.0,1084.7506625948656,1,1,1,3.0,2.0
2021-09-24 07:25:37.191,1076.0,-47.0,26.0,1077.3397792711453,1,1,1,3.0,2.0
2021-09-24 07:25:37.192,1076.0,-47.0,26.0,1077.3397792711453,1,1,1,3.0,2.0
2021-09-24 07:25:37.201,928.0,47.0,12.0,929.266915369314,1,1,1,3.0,2.0
2021-09-24 07:25:37.211,908.0,241.0,-11.0,939.5030601333876,1,1,1,3.0,2.0
2021-09-24 07:25:37.221,994.0,241.0,-11.0,1022.8577613725186,1,1,1,3.0,2.0
2021-09-24 07:25:37.222,994.0,179.0,-10.0,1010.0381180925796,1,1,1,3.0,2.0
2021-09-24 07:25:37.230,1120.0,179.0,-10.0,1134.257907179844,1,1,1,3.0,2.0
2021-09-24 07:25:37.231,1120.0,9.0,-41.0,1120.786331108655,1,1,1,3.0,2.0
2021-09-24 07:25:37.241,964.0,65.0,-21.0,966.4170942196748,1,1,1,3.0,2.0
2021-09-24 07:25:37.250,972.0,12.0,8.0,972.1069899964716,1,1,1,3.0,2.0
2021-09-24 07:25:37.260,972.0,335.0,-40.0,1028.8872630176738,1,1,1,3.0,2.0
2021-09-24 07:25:37.270,1117.0,69.0,38.0,1119.7740843580905,1,1,1,3.0,2.0
2021-09-24 07:25:37.280,1101.0,86.0,-32.0,1104.8171794464458,1,1,1,3.0,2.0
2021-09-24 07:25:37.293,910.0,-138.0,20.0,920.6215291855824,1,1,1,3.0,2.0
2021-09-24 07:25:37.299,925.0,26.0,53.0,926.8818694957844,1,1,1,3.0,2.0
2021-09-24 07:25:37.308,986.0,26.0,53.0,987.7656604681092,1,1,1,3.0,2.0
2021-09-24 07:25:37.309,986.0,178.0,-14.0,1002.0359274996082,1,1,1,3.0,2.0
2021-09-24 07:25:37.319,1113.0,62.0,14.0,1114.8134373068883,1,1,1,3.0,2.0
2021-09-24 07:25:37.329,1161.0,-24.0,-46.0,1162.1587671226337,1,1,1,3.0,2.0
2021-09-24 07:25:37.338,930.0,54.0,-33.0,932.150738882934,1,1,1,3.0,2.0
2021-09-24 07:25:37.348,956.0,-42.0,16.0,957.0559022335112,1,1,1,3.0,2.0
2021-09-24 07:25:37.357,925.0,277.0,16.0,965.7173499528732,1,1,1,3.0,2.0
2021-09-24 07:25:37.358,925.0,277.0,-17.0,965.734435546336,1,1,1,3.0,2.0
2021-09-24 07:25:37.368,1029.0,101.0,-8.0,1033.9758217676078,1,1,1,3.0,2.0
2021-09-24 07:25:37.382,1026.0,163.0,0.0,1038.8671714901766,1,1,1,3.0,2.0
2021-09-24 07:25:37.387,1037.0,-56.0,13.0,1038.592316551591,1,1,1,3.0,2.0
2021-09-24 07:25:37.396,953.0,-56.0,13.0,954.7324232474772,1,1,1,3.0,2.0
2021-09-24 07:25:37.397,953.0,25.0,60.0,955.2141121235594,1,1,1,3.0,2.0
2021-09-24 07:25:37.407,984.0,264.0,60.0,1020.5645496488696,1,1,1,3.0,2.0
2021-09-24 07:25:37.408,984.0,264.0,6.0,1018.8169609895588,1,1,1,3.0,2.0
2021-09-24 07:25:37.416,1116.0,-16.0,0.0,1116.1146894472809,1,1,1,3.0,2.0
2021-09-24 07:25:37.426,988.0,-16.0,0.0,988.12954616285,1,1,1,3.0,2.0
2021-09-24 07:25:37.427,988.0,-51.0,36.0,989.9702015717444,1,1,1,3.0,2.0
2021-09-24 07:25:37.435,983.0,-51.0,36.0,984.9802028467374,1,1,1,3.0,2.0
2021-09-24 07:25:37.436,983.0,24.0,-13.0,983.3788690021764,1,1,1,3.0,2.0
2021-09-24 07:25:37.445,945.0,6.0,-13.0,945.1084593844243,1,1,1,3.0,2.0
2021-09-24 07:25:37.446,945.0,6.0,9.0,945.0619027344188,1,1,1,3.0,2.0
2021-09-24 07:25:37.455,907.0,330.0,-13.0,965.2554066152647,1,1,1,3.0,2.0
2021-09-24 07:25:37.476,1121.0,129.0,-13.0,1128.4728618801605,1,1,1,3.0,2.0
2021-09-24 07:25:37.477,1121.0,129.0,-3.0,1128.4019673857365,1,1,1,3.0,2.0
2021-09-24 07:25:37.479,999.0,-104.0,-3.0,1004.4033054505544,1,1,1,3.0,2.0
2021-09-24 07:25:37.480,999.0,-104.0,-9.0,1004.4391469870138,1,1,1,3.0,2.0
2021-09-24 07:25:37.485,825.0,40.0,-6.0,825.9909200469458,1,1,1,3.0,2.0
2021-09-24 07:25:37.494,935.0,49.0,43.0,937.2699717797428,1,1,1,3.0,2.0
2021-09-24 07:25:37.504,965.0,281.0,-18.0,1005.2412645728388,1,1,1,3.0,2.0
2021-09-24 07:25:37.514,1133.0,37.0,-9.0,1133.639713489255,1,1,1,3.0,2.0
2021-09-24 07:25:37.523,927.0,37.0,-9.0,927.7817631318262,1,1,1,3.0,2.0
2021-09-24 07:25:37.524,927.0,-8.0,19.0,927.2292057522778,1,1,1,3.0,2.0
2021-09-24 07:25:37.534,1022.0,-162.0,32.0,1035.2545580677247,1,1,1,3.0,2.0
2021-09-24 07:25:37.543,1089.0,69.0,27.0,1091.517750657313,1,1,1,3.0,2.0
2021-09-24 07:25:37.553,1002.0,234.0,-45.0,1029.944173244356,1,1,1,3.0,2.0
2021-09-24 07:25:37.568,1084.0,37.0,-45.0,1085.5643693489576,1,1,1,3.0,2.0
2021-09-24 07:25:37.572,975.0,-115.0,-16.0,981.8889957627594,1,1,1,3.0,2.0
2021-09-24 07:25:37.583,879.0,93.0,57.0,885.7420617764519,1,1,1,3.0,2.0
2021-09-24 07:25:37.592,1134.0,41.0,24.0,1134.994713644077,1,1,1,3.0,2.0
2021-09-24 07:25:37.602,1006.0,251.0,10.0,1036.8881328282237,1,1,1,3.0,2.0
2021-09-24 07:25:37.611,1147.0,-40.0,10.0,1147.7408244024432,1,1,1,3.0,2.0
2021-09-24 07:25:37.612,1147.0,-40.0,-6.0,1147.7129432048764,1,1,1,3.0,2.0
2021-09-24 07:25:37.621,925.0,-45.0,-6.0,926.1133839870796,1,1,1,3.0,2.0
2021-09-24 07:25:37.622,925.0,-45.0,-3.0,926.0988068235484,1,1,1,3.0,2.0
2021-09-24 07:25:37.631,1045.0,-131.0,52.0,1054.46194810434,1,1,1,3.0,2.0
2021-09-24 07:25:37.641,1099.0,118.0,23.0,1105.5559687324744,1,1,1,3.0,2.0
2021-09-24 07:25:37.651,1095.0,-37.0,-17.0,1095.7568160864892,1,1,1,3.0,2.0
2021-09-24 07:25:37.660,1025.0,-37.0,-17.0,1025.8084616535389,1,1,1,3.0,2.0
2021-09-24 07:25:37.661,1025.0,137.0,-32.0,1034.610071476206,1,1,1,3.0,2.0
2021-09-24 07:25:37.670,994.0,-108.0,-40.0,1000.649788887201,1,1,1,3.0,2.0
2021-09-24 07:25:37.680,919.0,115.0,22.0,926.4286265007142,1,1,1,3.0,2.0
2021-09-24 07:25:37.690,1100.0,81.0,22.0,1103.1976250880891,1,1,1,3.0,2.0
2021-09-24 07:25:37.691,1100.0,81.0,27.0,1103.3086603484992,1,1,1,3.0,2.0
2021-09-24 07:25:37.699,1068.0,70.0,12.0,1070.3588183408403,1,1,1,3.0,2.0
2021-09-24 07:25:37.709,977.0,70.0,12.0,979.5779703525392,1,1,1,3.0,2.0
2021-09-24 07:25:37.710,977.0,-321.0,-3.0,1028.3866004572403,1,1,1,3.0,2.0
2021-09-24 07:25:37.719,908.0,19.0,-8.0,908.2340006848456,1,1,1,3.0,2.0
2021-09-24 07:25:37.728,987.0,19.0,-8.0,987.2152754085604,1,1,1,3.0,2.0
2021-09-24 07:25:37.729,987.0,-116.0,24.0,994.0829945230932,1,1,1,3.0,2.0
2021-09-24 07:25:37.738,1085.0,-116.0,24.0,1091.4472044034012,1,1,1,3.0,2.0
2021-09-24 07:25:37.739,1085.0,85.0,10.0,1088.3703413820133,1,1,1,3.0,2.0
2021-09-24 07:25:37.748,1130.0,-87.0,16.0,1133.4571010849947,1,1,1,3.0,2.0
2021-09-24 07:25:37.759,920.0,-163.0,-27.0,934.718139333992,1,1,1,3.0,2.0
2021-09-24 07:25:37.768,996.0,59.0,3.0,997.7504698069552,1,1,1,3.0,2.0
2021-09-24 07:25:37.777,859.0,187.0,3.0,879.1239958049149,1,1,1,3.0,2.0
2021-09-24 07:25:37.778,859.0,187.0,22.0,879.394109600468,1,1,1,3.0,2.0
2021-09-24 07:25:37.788,1074.0,50.0,23.0,1075.409224435052,1,1,1,3.0,2.0
2021-09-24 07:25:37.797,1041.0,89.0,23.0,1045.0507164726505,1,1,1,3.0,2.0
2021-09-24 07:25:37.798,1041.0,89.0,30.0,1045.2282047476522,1,1,1,3.0,2.0
2021-09-24 07:25:37.807,1015.0,-246.0,40.0,1045.151185235897,1,1,1,3.0,2.0
2021-09-24 07:25:37.817,1003.0,83.0,61.0,1008.2752600356712,1,1,1,3.0,2.0
2021-09-24 07:25:37.826,980.0,267.0,-33.0,1016.2568572954378,1,1,1,3.0,2.0
2021-09-24 07:25:37.836,1074.0,118.0,20.0,1080.6479537758817,1,1,1,3.0,2.0
2021-09-24 07:25:37.847,1120.0,-157.0,-19.0,1131.1100742191277,1,1,1,3.0,2.0
2021-09-24 07:25:37.856,999.0,-223.0,10.0,1023.6356773774544,1,1,1,3.0,2.0
2021-09-24 07:25:37.866,909.0,73.0,-10.0,911.981359458624,1,1,1,3.0,2.0
2021-09-24 07:25:37.883,1093.0,152.0,-24.0,1103.7794163690496,1,1,1,3.0,2.0
2021-09-24 07:25:37.887,1098.0,-27.0,-24.0,1098.5941015679996,1,1,1,3.0,2.0
2021-09-24 07:25:37.888,1098.0,-27.0,7.0,1098.3542233724054,1,1,1,3.0,2.0
2021-09-24 07:25:37.894,1054.0,-27.0,7.0,1054.3690056142584,1,1,1,3.0,2.0
2021-09-24 07:25:37.895,1054.0,-8.0,-4.0,1054.0379499809294,1,1,1,3.0,2.0
2021-09-24 07:25:37.905,961.0,-181.0,36.0,978.5591448655518,1,1,1,3.0,2.0
2021-09-24 07:25:37.914,1061.0,-181.0,36.0,1076.929895582809,1,1,1,3.0,2.0
2021-09-24 07:25:37.915,1061.0,51.0,42.0,1063.055031501192,1,1,1,3.0,2.0
2021-09-24 07:25:37.924,1006.0,299.0,2.0,1049.495593130338,1,1,1,3.0,2.0
2021-09-24 07:25:37.933,1111.0,299.0,2.0,1150.5329199983803,1,1,1,3.0,2.0
2021-09-24 07:25:37.934,1111.0,-112.0,-16.0,1116.7457185948822,1,1,1,3.0,2.0
2021-09-24 07:25:37.944,1155.0,-117.0,26.0,1161.201963484389,1,1,1,3.0,2.0
2021-09-24 07:25:37.953,891.0,-197.0,-9.0,912.5628745461872,1,1,1,3.0,2.0
2021-09-24 07:25:37.963,983.0,100.0,-19.0,988.2560396982152,1,1,1,3.0,2.0
2021-09-24 07:25:37.973,1089.0,223.0,-36.0,1112.1807407071929,1,1,1,3.0,2.0
2021-09-24 07:25:37.985,1004.0,103.0,-6.0,1009.287372357348,1,1,1,3.0,2.0
2021-09-24 07:25:37.992,967.0,-128.0,24.0,975.7299831408276,1,1,1,3.0,2.0
2021-09-24 07:25:38.002,958.0,-218.0,20.0,982.6942556054756,1,1,1,3.0,2.0
2021-09-24 07:25:38.013,1065.0,50.0,50.0,1067.3448364984954,1,1,1,3.0,2.0
2021-09-24 07:25:38.021,1055.0,50.0,50.0,1057.3670129146265,1,1,1,3.0,2.0
2021-09-24 07:25:38.022,1055.0,215.0,15.0,1076.7892087126431,1,1,1,3.0,2.0
2021-09-24 07:25:38.032,1073.0,-66.0,-7.0,1075.050696479008,1,1,1,3.0,2.0
2021-09-24 07:25:38.041,820.0,1.0,18.0,820.1981467913714,1,1,1,3.0,2.0
2021-09-24 07:25:38.051,944.0,-200.0,-9.0,964.9958549133772,1,1,1,3.0,2.0
2021-09-24 07:25:38.061,1064.0,43.0,18.0,1065.0206570766595,1,1,1,3.0,2.0
2021-09-24 07:25:38.070,1039.0,238.0,18.0,1066.0623809139877,1,1,1,3.0,2.0
2021-09-24 07:25:38.071,1039.0,238.0,-59.0,1067.5420366430542,1,1,1,3.0,2.0
2021-09-24 07:25:38.081,1017.0,53.0,-20.0,1018.5764576113075,1,1,1,3.0,2.0
2021-09-24 07:25:38.090,986.0,-106.0,-7.0,991.7061056583244,1,1,1,3.0,2.0
2021-09-24 07:25:38.100,866.0,346.0,-38.0,933.3359523772776,1,1,1,3.0,2.0
2021-09-24 07:25:38.109,1061.0,32.0,-38.0,1062.1624169589131,1,1,1,3.0,2.0
2021-09-24 07:25:38.110,1061.0,32.0,32.0,1061.964688678489,1,1,1,3.0,2.0
2021-09-24 07:25:38.120,1061.0,32.0,32.0,1061.964688678489,1,1,1,3.0,2.0
2021-09-24 07:25:38.121,1061.0,167.0,3.0,1074.0665714935924,1,1,1,3.0,2.0
2021-09-24 07:25:38.129,1044.0,8.0,2.0,1044.032566541868,1,1,1,3.0,2.0
2021-09-24 07:25:38.139,901.0,58.0,58.0,904.7259253497712,1,1,1,3.0,2.0
2021-09-24 07:25:38.148,1050.0,58.0,58.0,1053.1989365737131,1,1,1,3.0,2.0
2021-09-24 07:25:38.149,1050.0,29.0,28.0,1050.773524599854,1,1,1,3.0,2.0
2021-09-24 07:25:38.158,1122.0,174.0,0.0,1135.4118195615192,1,1,1,3.0,2.0
2021-09-24 07:25:38.169,1128.0,147.0,23.0,1137.770627147669,1,1,1,3.0,2.0
2021-09-24 07:25:38.178,996.0,94.0,-6.0,1000.44390147574,1,1,1,3.0,2.0
2021-09-24 07:25:38.192,936.0,-12.0,-14.0,936.1816063136469,1,1,1,3.0,2.0
2021-09-24 07:25:38.197,896.0,249.0,20.0,930.1704144940325,1,1,1,3.0,2.0
2021-09-24 07:25:38.207,1132.0,168.0,-19.0,1144.5562458874615,1,1,1,3.0,2.0
2021-09-24 07:25:38.217,970.0,3.0,-18.0,970.1716342998284,1,1,1,3.0,2.0
2021-09-24 07:25:38.228,1172.0,-8.0,14.0,1172.110916253236,1,1,1,3.0,2.0
2021-09-24 07:25:38.236,845.0,63.0,14.0,847.4609135529497,1,1,1,3.0,2.0
2021-09-24 07:25:38.237,845.0,63.0,0.0,847.3452661105744,1,1,1,3.0,2.0
2021-09-24 07:25:38.246,968.0,101.0,11.0,973.3170089955275,1,1,1,3.0,2.0
2021-09-24 07:25:38.256,1107.0,75.0,4.0,1109.5449517707698,1,1,1,3.0,2.0
2021-09-24 07:25:38.266,1037.0,-55.0,4.0,1038.4652136687102,1,1,1,3.0,2.0
2021-09-24 07:25:38.267,1037.0,-55.0,43.0,1039.3473913951966,1,1,1,3.0,2.0
2021-09-24 07:25:38.276,965.0,-210.0,25.0,987.901816983854,1,1,1,3.0,2.0
2021-09-24 07:25:38.285,997.0,-70.0,34.0,1000.0324994718922,1,1,1,3.0,2.0
2021-09-24 07:25:38.295,897.0,259.0,-25.0,933.9780511339652,1,1,1,3.0,2.0
2021-09-24 07:25:38.305,1091.0,50.0,-52.0,1093.382366786661,1,1,1,3.0,2.0
2021-09-24 07:25:38.314,999.0,50.0,-52.0,1001.6012180503776,1,1,1,3.0,2.0
2021-09-24 07:25:38.315,999.0,24.0,-15.0,999.4008204919586,1,1,1,3.0,2.0
2021-09-24 07:25:38.324,926.0,24.0,-15.0,926.4324044419,1,1,1,3.0,2.0
2021-09-24 07:25:38.325,926.0,-129.0,63.0,937.0624312178992,1,1,1,3.0,2.0
2021-09-24 07:25:38.336,1074.0,93.0,63.0,1079.858324040705,1,1,1,3.0,2.0
2021-09-24 07:25:38.337,1074.0,93.0,87.0,1081.5239248393907,1,1,1,3.0,2.0
2021-09-24 07:25:38.344,1012.0,69.0,2.0,1014.3515169801838,1,1,1,3.0,2.0
2021-09-24 07:25:38.353,1162.0,69.0,2.0,1164.048538506879,1,1,1,3.0,2.0
2021-09-24 07:25:38.354,1162.0,121.0,9.0,1168.317593807437,1,1,1,3.0,2.0
2021-09-24 07:25:38.363,1046.0,-133.0,68.0,1056.612038545842,1,1,1,3.0,2.0
2021-09-24 07:25:38.374,894.0,-165.0,16.0,909.2397923540302,1,1,1,3.0,2.0
2021-09-24 07:25:38.384,1025.0,70.0,-20.0,1027.582113507237,1,1,1,3.0,2.0
2021-09-24 07:25:38.401,1128.0,51.0,-27.0,1129.4750993271166,1,1,1,3.0,2.0
2021-09-24 07:25:38.404,1103.0,203.0,-21.0,1121.7214449229364,1,1,1,3.0,2.0
2021-09-24 07:25:38.412,1010.0,-55.0,24.0,1011.78110280831,1,1,1,3.0,2.0
2021-09-24 07:25:38.422,832.0,-196.0,25.0,855.1403393595697,1,1,1,3.0,2.0
2021-09-24 07:25:38.432,1101.0,128.0,80.0,1111.298789705091,1,1,1,3.0,2.0
2021-09-24 07:25:38.441,1120.0,128.0,80.0,1130.1256567302594,1,1,1,3.0,2.0
2021-09-24 07:25:38.442,1120.0,272.0,28.0,1152.8954852891045,1,1,1,3.0,2.0
2021-09-24 07:25:38.451,1148.0,69.0,0.0,1150.0717368929645,1,1,1,3.0,2.0
2021-09-24 07:25:38.461,1028.0,-97.0,55.0,1034.0299802230109,1,1,1,3.0,2.0
2021-09-24 07:25:38.471,962.0,-204.0,27.0,983.7626746324544,1,1,1,3.0,2.0
2021-09-24 07:25:38.491,1117.0,42.0,21.0,1117.986583103751,1,1,1,3.0,2.0
2021-09-24 07:25:38.493,1141.0,3.0,-24.0,1141.2563252836762,1,1,1,3.0,2.0
2021-09-24 07:25:38.501,939.0,-29.0,-24.0,939.7542231881696,1,1,1,3.0,2.0
2021-09-24 07:25:38.502,939.0,-29.0,-45.0,940.524853472783,1,1,1,3.0,2.0
2021-09-24 07:25:38.510,969.0,-56.0,1.0,970.6173293322142,1,1,1,3.0,2.0
2021-09-24 07:25:38.520,932.0,-101.0,50.0,938.789113699131,1,1,1,3.0,2.0
2021-09-24 07:25:38.529,1121.0,-29.0,50.0,1122.4891981662895,1,1,1,3.0,2.0
2021-09-24 07:25:38.530,1121.0,-29.0,31.0,1121.803458721714,1,1,1,3.0,2.0
2021-09-24 07:25:38.539,1071.0,209.0,23.0,1091.4444557557658,1,1,1,3.0,2.0
2021-09-24 07:25:38.550,1098.0,-90.0,28.0,1102.0381118636506,1,1,1,3.0,2.0
2021-09-24 07:25:38.558,895.0,-90.0,28.0,899.9494430244401,1,1,1,3.0,2.0
2021-09-24 07:25:38.559,895.0,-17.0,31.0,895.6980518009403,1,1,1,3.0,2.0
2021-09-24 07:25:38.568,957.0,-17.0,31.0,957.652859861025,1,1,1,3.0,2.0
2021-09-24 07:25:38.569,957.0,-275.0,32.0,996.2419384868316,1,1,1,3.0,2.0
2021-09-24 07:25:38.589,1020.0,98.0,-7.0,1024.7209376215555,1,1,1,3.0,2.0
2021-09-24 07:25:38.591,1146.0,-1.0,-58.0,1147.467210860511,1,1,1,3.0,2.0
2021-09-24 07:25:38.598,955.0,-1.0,-58.0,956.7601580333496,1,1,1,3.0,2.0
2021-09-24 07:25:38.599,955.0,26.0,-19.0,955.542777692344,1,1,1,3.0,2.0
2021-09-24 07:25:38.607,894.0,-17.0,-19.0,894.3634607920876,1,1,1,3.0,2.0
2021-09-24 07:25:38.608,894.0,-17.0,-19.0,894.3634607920876,1,1,1,3.0,2.0
2021-09-24 07:25:38.617,941.0,318.0,-28.0,993.6744939868388,1,1,1,3.0,2.0
2021-09-24 07:25:38.627,1108.0,20.0,43.0,1109.0144273182382,1,1,1,3.0,2.0
2021-09-24 07:25:38.637,1082.0,92.0,12.0,1085.9705336702282,1,1,1,3.0,2.0
2021-09-24 07:25:38.647,1057.0,-169.0,12.0,1070.4924100618368,1,1,1,3.0,2.0
2021-09-24 07:25:38.648,1057.0,-169.0,18.0,1070.576480219886,1,1,1,3.0,2.0
2021-09-24 07:25:38.657,858.0,116.0,40.0,866.7294849028733,1,1,1,3.0,2.0
2021-09-24 07:25:38.666,996.0,268.0,38.0,1032.125961305111,1,1,1,3.0,2.0
2021-09-24 07:25:38.676,1154.0,65.0,42.0,1156.591976454964,1,1,1,3.0,2.0
2021-09-24 07:25:38.685,1158.0,65.0,42.0,1160.583043129616,1,1,1,3.0,2.0
2021-09-24 07:25:38.686,1158.0,31.0,-40.0,1159.1052583782027,1,1,1,3.0,2.0
2021-09-24 07:25:38.695,974.0,31.0,-40.0,975.3137956575822,1,1,1,3.0,2.0
2021-09-24 07:25:38.696,974.0,-35.0,-3.0,974.633264361524,1,1,1,3.0,2.0
2021-09-24 07:25:38.706,867.0,70.0,-33.0,870.4470115980639,1,1,1,3.0,2.0
2021-09-24 07:25:38.715,953.0,236.0,-29.0,982.2148441150744,1,1,1,3.0,2.0
2021-09-24 07:25:38.724,1044.0,236.0,-29.0,1070.7347944285737,1,1,1,3.0,2.0
2021-09-24 07:25:38.725,1044.0,136.0,-4.0,1052.8285710408888,1,1,1,3.0,2.0
2021-09-24 07:25:38.734,1005.0,-118.0,-4.0,1011.9115574001514,1,1,1,3.0,2.0
2021-09-24 07:25:38.735,1005.0,-118.0,15.0,1012.0148220258436,1,1,1,3.0,2.0
2021-09-24 07:25:38.744,1082.0,-187.0,7.0,1098.0628397318617,1,1,1,3.0,2.0
2021-09-24 07:25:38.755,875.0,60.0,62.0,879.2434247692729,1,1,1,3.0,2.0
2021-09-24 07:25:38.764,973.0,290.0,29.0,1015.7115732332678,1,1,1,3.0,2.0
2021-09-24 07:25:38.773,1121.0,290.0,29.0,1158.266808641256,1,1,1,3.0,2.0
2021-09-24 07:25:38.774,1121.0,14.0,0.0,1121.0874185361283,1,1,1,3.0,2.0
2021-09-24 07:25:38.785,994.0,-68.0,11.0,996.3839621350796,1,1,1,3.0,2.0
2021-09-24 07:25:38.793,936.0,-46.0,-6.0,937.1488675765446,1,1,1,3.0,2.0
2021-09-24 07:25:38.804,912.0,38.0,-41.0,913.7116613024044,1,1,1,3.0,2.0
2021-09-24 07:25:38.813,1015.0,38.0,-41.0,1016.5382432550188,1,1,1,3.0,2.0
2021-09-24 07:25:38.814,1015.0,296.0,-7.0,1057.3031731721985,1,1,1,3.0,2.0
2021-09-24 07:25:38.822,1026.0,126.0,9.0,1033.7470677104725,1,1,1,3.0,2.0
2021-09-24 07:25:38.832,989.0,-132.0,-9.0,997.8106032709816,1,1,1,3.0,2.0
2021-09-24 07:25:38.842,889.0,73.0,-9.0,892.0375552632299,1,1,1,3.0,2.0
2021-09-24 07:25:38.843,889.0,73.0,11.0,892.0599755621815,1,1,1,3.0,2.0
2021-09-24 07:25:38.851,885.0,73.0,11.0,888.0737581980452,1,1,1,3.0,2.0
2021-09-24 07:25:38.852,885.0,78.0,34.0,889.0809861874226,1,1,1,3.0,2.0
2021-09-24 07:25:38.862,975.0,281.0,6.0,1014.7029121866163,1,1,1,3.0,2.0
2021-09-24 07:25:38.871,1116.0,24.0,31.0,1116.6884077485536,1,1,1,3.0,2.0
2021-09-24 07:25:38.881,982.0,-82.0,3.0,985.4222445226208,1,1,1,3.0,2.0
2021-09-24 07:25:38.900,980.0,-132.0,15.0,988.9635989256632,1,1,1,3.0,2.0
2021-09-24 07:25:38.901,1057.0,-132.0,15.0,1065.315915585607,1,1,1,3.0,2.0
2021-09-24 07:25:38.902,1057.0,135.0,25.0,1065.8794490935643,1,1,1,3.0,2.0
2021-09-24 07:25:38.910,1032.0,288.0,-36.0,1072.0373127834685,1,1,1,3.0,2.0
2021-09-24 07:25:38.920,1097.0,94.0,-41.0,1101.7831002515877,1,1,1,3.0,2.0
2021-09-24 07:25:38.931,968.0,94.0,-41.0,973.4171767541396,1,1,1,3.0,2.0
2021-09-24 07:25:38.932,968.0,-121.0,-14.0,975.6336402564232,1,1,1,3.0,2.0
2021-09-24 07:25:38.939,847.0,-121.0,-14.0,855.7137371808402,1,1,1,3.0,2.0
2021-09-24 07:25:38.940,847.0,149.0,58.0,861.9593957954168,1,1,1,3.0,2.0
2021-09-24 07:25:38.949,1166.0,-23.0,35.0,1166.7519016483325,1,1,1,3.0,2.0
2021-09-24 07:25:38.959,1025.0,229.0,21.0,1050.4794143627946,1,1,1,3.0,2.0
2021-09-24 07:25:38.969,1114.0,20.0,-9.0,1114.2158677742837,1,1,1,3.0,2.0
2021-09-24 07:25:38.980,964.0,20.0,-9.0,964.2494490535112,1,1,1,3.0,2.0
2021-09-24 07:25:38.981,964.0,26.0,38.0,965.0989586565722,1,1,1,3.0,2.0
2021-09-24 07:25:38.988,950.0,-24.0,38.0,951.0625636623492,1,1,1,3.0,2.0
2021-09-24 07:25:38.989,950.0,-24.0,49.0,951.565552129752,1,1,1,3.0,2.0
2021-09-24 07:25:38.998,1093.0,110.0,2.0,1098.5230994385142,1,1,1,3.0,2.0
2021-09-24 07:25:39.008,1135.0,-124.0,13.0,1141.827482590956,1,1,1,3.0,2.0
2021-09-24 07:25:39.018,1062.0,25.0,-78.0,1065.1539794790235,1,1,1,3.0,2.0
2021-09-24 07:25:39.028,965.0,25.0,-78.0,968.4699272563914,1,1,1,3.0,2.0
2021-09-24 07:25:39.029,965.0,-115.0,-21.0,972.0550395939522,1,1,1,3.0,2.0
2021-09-24 07:25:39.037,857.0,205.0,71.0,884.0333704108685,1,1,1,3.0,2.0
2021-09-24 07:25:39.047,1092.0,79.0,69.0,1097.0259796376747,1,1,1,3.0,2.0
2021-09-24 07:25:39.057,1078.0,102.0,33.0,1083.317589629191,1,1,1,3.0,2.0
2021-09-24 07:25:39.066,940.0,102.0,33.0,946.0935471717372,1,1,1,3.0,2.0
2021-09-24 07:25:39.067,940.0,-251.0,2.0,972.9362774611708,1,1,1,3.0,2.0
2021-09-24 07:25:39.077,877.0,20.0,0.0,877.2280205283002,1,1,1,3.0,2.0
2021-09-24 07:25:39.086,991.0,20.0,0.0,991.2017958014402,1,1,1,3.0,2.0
2021-09-24 07:25:39.087,991.0,-140.0,37.0,1001.523838957416,1,1,1,3.0,2.0
2021-09-24 07:25:39.096,1072.0,98.0,42.0,1077.2891905147849,1,1,1,3.0,2.0
2021-09-24 07:25:39.105,1118.0,98.0,42.0,1123.0725711190707,1,1,1,3.0,2.0
2021-09-24 07:25:39.106,1118.0,-112.0,10.0,1123.640511907612,1,1,1,3.0,2.0
2021-09-24 07:25:39.115,949.0,-52.0,39.0,951.2234227561892,1,1,1,3.0,2.0
2021-09-24 07:25:39.125,994.0,70.0,0.0,996.4617403593576,1,1,1,3.0,2.0
2021-09-24 07:25:39.136,888.0,70.0,0.0,890.7547361647873,1,1,1,3.0,2.0
2021-09-24 07:25:39.137,888.0,189.0,56.0,909.6158529841044,1,1,1,3.0,2.0
2021-09-24 07:25:39.144,1118.0,189.0,56.0,1135.2449074979372,1,1,1,3.0,2.0
2021-09-24 07:25:39.145,1118.0,46.0,20.0,1119.124657935835,1,1,1,3.0,2.0
2021-09-24 07:25:39.154,1100.0,72.0,25.0,1102.6372930388306,1,1,1,3.0,2.0
2021-09-24 07:25:39.164,976.0,-234.0,26.0,1003.9960159283502,1,1,1,3.0,2.0
2021-09-24 07:25:39.174,1028.0,-15.0,34.0,1028.6714733091417,1,1,1,3.0,2.0
2021-09-24 07:25:39.185,974.0,-153.0,33.0,986.4958185415688,1,1,1,3.0,2.0
2021-09-24 07:25:39.193,1052.0,154.0,33.0,1063.724118369044,1,1,1,3.0,2.0
2021-09-24 07:25:39.194,1052.0,154.0,34.0,1063.75561103103,1,1,1,3.0,2.0
2021-09-24 07:25:39.203,1045.0,-58.0,13.0,1046.6890655777388,1,1,1,3.0,2.0
2021-09-24 07:25:39.213,964.0,-236.0,-5.0,992.480226503279,1,1,1,3.0,2.0
2021-09-24 07:25:39.223,1032.0,63.0,9.0,1033.960347402162,1,1,1,3.0,2.0
2021-09-24 07:25:39.233,1081.0,198.0,-39.0,1099.6754066541637,1,1,1,3.0,2.0
2021-09-24 07:25:39.243,1050.0,10.0,-26.0,1050.3694588096134,1,1,1,3.0,2.0
2021-09-24 07:25:39.252,1123.0,34.0,56.0,1124.909329679508,1,1,1,3.0,2.0
2021-09-24 07:25:39.262,956.0,-209.0,44.0,979.5677618215088,1,1,1,3.0,2.0
2021-09-24 07:25:39.271,1021.0,-209.0,44.0,1043.10018694275,1,1,1,3.0,2.0
2021-09-24 07:25:39.272,1021.0,14.0,39.0,1021.8404963593878,1,1,1,3.0,2.0
2021-09-24 07:25:39.282,1031.0,179.0,-35.0,1047.008595953252,1,1,1,3.0,2.0
2021-09-24 07:25:39.292,1057.0,179.0,-35.0,1072.620622587502,1,1,1,3.0,2.0
2021-09-24 07:25:39.293,1057.0,-25.0,17.0,1057.4322673344143,1,1,1,3.0,2.0
2021-09-24 07:25:39.301,1123.0,-180.0,-42.0,1138.1093972022195,1,1,1,3.0,2.0
2021-09-24 07:25:39.310,922.0,-180.0,-42.0,940.3446176801352,1,1,1,3.0,2.0
2021-09-24 07:25:39.311,922.0,-193.0,0.0,941.983545503848,1,1,1,3.0,2.0
2021-09-24 07:25:39.320,979.0,101.0,0.0,984.1961186674127,1,1,1,3.0,2.0
2021-09-24 07:25:39.321,979.0,101.0,-35.0,984.8182573449784,1,1,1,3.0,2.0
2021-09-24 07:25:39.330,1066.0,101.0,-35.0,1071.3458825234734,1,1,1,3.0,2.0
2021-09-24 07:25:39.331,1066.0,204.0,-13.0,1085.4220377346317,1,1,1,3.0,2.0
2021-09-24 07:25:39.341,966.0,72.0,-9.0,968.721322156171,1,1,1,3.0,2.0
2021-09-24 07:25:39.349,995.0,72.0,-9.0,997.642220437768,1,1,1,3.0,2.0
2021-09-24 07:25:39.350,995.0,-108.0,11.0,1000.90459085769,1,1,1,3.0,2.0
2021-09-24 07:25:39.359,975.0,-271.0,11.0,1012.0212448362928,1,1,1,3.0,2.0
2021-09-24 07:25:39.360,975.0,-271.0,10.0,1012.0108695068448,1,1,1,3.0,2.0
2021-09-24 07:25:39.369,1035.0,6.0,17.0,1035.1569929242617,1,1,1,3.0,2.0
2021-09-24 07:25:39.379,1063.0,326.0,47.0,1112.8584815689728,1,1,1,3.0,2.0
2021-09-24 07:25:39.391,1135.0,-1.0,55.0,1136.3322577485865,1,1,1,3.0,2.0
2021-09-24 07:25:39.399,864.0,38.0,36.0,865.5841957891791,1,1,1,3.0,2.0
2021-09-24 07:25:39.418,999.0,-142.0,-26.0,1009.3765402465028,1,1,1,3.0,2.0
2021-09-24 07:25:39.420,1020.0,87.0,-26.0,1024.0336908520148,1,1,1,3.0,2.0
2021-09-24 07:25:39.421,1020.0,87.0,13.0,1023.7861104742532,1,1,1,3.0,2.0
2021-09-24 07:25:39.429,1069.0,97.0,-31.0,1073.8393734632757,1,1,1,3.0,2.0
2021-09-24 07:25:39.437,922.0,97.0,-31.0,927.6065976479468,1,1,1,3.0,2.0
2021-09-24 07:25:39.438,922.0,67.0,-65.0,926.7135479747774,1,1,1,3.0,2.0
2021-09-24 07:25:39.447,922.0,-150.0,-65.0,936.3807986070624,1,1,1,3.0,2.0
2021-09-24 07:25:39.448,922.0,-150.0,-8.0,934.1563038378534,1,1,1,3.0,2.0
2021-09-24 07:25:39.457,937.0,230.0,-1.0,964.816044642708,1,1,1,3.0,2.0
2021-09-24 07:25:39.467,1064.0,20.0,43.0,1065.0563365381197,1,1,1,3.0,2.0
2021-09-24 07:25:39.476,980.0,20.0,43.0,981.1467780103036,1,1,1,3.0,2.0
2021-09-24 07:25:39.477,980.0,296.0,28.0,1024.1093691593687,1,1,1,3.0,2.0
2021-09-24 07:25:39.488,1101.0,-55.0,52.0,1103.5986589335816,1,1,1,3.0,2.0
2021-09-24 07:25:39.505,874.0,-55.0,52.0,877.2713377285274,1,1,1,3.0,2.0
2021-09-24 07:25:39.506,874.0,40.0,42.0,875.9223709895757,1,1,1,3.0,2.0
2021-09-24 07:25:39.508,1058.0,20.0,14.0,1058.281626033449,1,1,1,3.0,2.0
2021-09-24 07:25:39.516,1106.0,138.0,-17.0,1114.7057907806884,1,1,1,3.0,2.0
2021-09-24 07:25:39.527,1064.0,202.0,-56.0,1084.4519353111043,1,1,1,3.0,2.0
2021-09-24 07:25:39.536,973.0,-8.0,-46.0,974.1196025129564,1,1,1,3.0,2.0
2021-09-24 07:25:39.545,924.0,-85.0,-21.0,928.138998210936,1,1,1,3.0,2.0
2021-09-24 07:25:39.555,924.0,331.0,-8.0,981.5299282243004,1,1,1,3.0,2.0
2021-09-24 07:25:39.564,1138.0,331.0,-8.0,1185.1873269656571,1,1,1,3.0,2.0
2021-09-24 07:25:39.565,1138.0,125.0,-8.0,1144.872481982164,1,1,1,3.0,2.0
2021-09-24 07:25:39.578,1025.0,-36.0,12.0,1025.7021984962305,1,1,1,3.0,2.0
2021-09-24 07:25:39.584,1106.0,-44.0,52.0,1108.0956637402746,1,1,1,3.0,2.0
2021-09-24 07:25:39.594,891.0,18.0,29.0,891.6535201523067,1,1,1,3.0,2.0
2021-09-24 07:25:39.610,1060.0,106.0,18.0,1065.4388767076225,1,1,1,3.0,2.0
2021-09-24 07:25:39.614,1118.0,174.0,1.0,1131.4596767008536,1,1,1,3.0,2.0
2021-09-24 07:25:39.624,1015.0,-168.0,22.0,1029.044702624721,1,1,1,3.0,2.0
2021-09-24 07:25:39.633,888.0,-206.0,34.0,912.2148869646888,1,1,1,3.0,2.0
2021-09-24 07:25:39.642,906.0,-206.0,34.0,929.7462019282468,1,1,1,3.0,2.0
2021-09-24 07:25:39.643,906.0,-102.0,-51.0,913.1489473245864,1,1,1,3.0,2.0
2021-09-24 07:25:39.653,907.0,327.0,4.0,964.154551926194,1,1,1,3.0,2.0
2021-09-24 07:25:39.662,1082.0,244.0,18.0,1109.3169069296655,1,1,1,3.0,2.0
2021-09-24 07:25:39.672,1068.0,244.0,18.0,1095.6660075041116,1,1,1,3.0,2.0
2021-09-24 07:25:39.673,1068.0,-16.0,7.0,1068.142780718009,1,1,1,3.0,2.0
2021-09-24 07:25:39.682,906.0,-182.0,-15.0,924.2212938468796,1,1,1,3.0,2.0
2021-09-24 07:25:39.691,915.0,127.0,-15.0,923.8933921183764,1,1,1,3.0,2.0
2021-09-24 07:25:39.692,915.0,127.0,8.0,923.8062567443458,1,1,1,3.0,2.0
2021-09-24 07:25:39.701,1053.0,110.0,-1.0,1058.730371718881,1,1,1,3.0,2.0
2021-09-24 07:25:39.711,1135.0,50.0,-1.0,1136.101227884206,1,1,1,3.0,2.0
2021-09-24 07:25:39.712,1135.0,50.0,2.0,1136.1025481883223,1,1,1,3.0,2.0
2021-09-24 07:25:39.721,981.0,-151.0,27.0,992.920439914498,1,1,1,3.0,2.0
2021-09-24 07:25:39.730,898.0,-151.0,27.0,911.0071349885246,1,1,1,3.0,2.0
2021-09-24 07:25:39.731,898.0,-169.0,39.0,914.5960857121574,1,1,1,3.0,2.0
2021-09-24 07:25:39.740,1035.0,113.0,13.0,1041.2314824283792,1,1,1,3.0,2.0
2021-09-24 07:25:39.750,878.0,331.0,-32.0,938.865805107418,1,1,1,3.0,2.0
2021-09-24 07:25:39.761,1099.0,138.0,16.0,1107.745909493689,1,1,1,3.0,2.0
2021-09-24 07:25:39.773,976.0,-22.0,0.0,976.2479193319696,1,1,1,3.0,2.0
2021-09-24 07:25:39.780,858.0,-115.0,-15.0,865.8025178988566,1,1,1,3.0,2.0
2021-09-24 07:25:39.789,1153.0,-13.0,55.0,1154.3842514518292,1,1,1,3.0,2.0
2021-09-24 07:25:39.799,1057.0,207.0,-16.0,1077.197289265063,1,1,1,3.0,2.0
2021-09-24 07:25:39.809,1148.0,0.0,-16.0,1148.1114928437917,1,1,1,3.0,2.0
2021-09-24 07:25:39.810,1148.0,0.0,12.0,1148.0627160569234,1,1,1,3.0,2.0
2021-09-24 07:25:39.819,1022.0,-156.0,16.0,1033.9613145567876,1,1,1,3.0,2.0
2021-09-24 07:25:39.828,957.0,-218.0,18.0,981.6807016540562,1,1,1,3.0,2.0
2021-09-24 07:25:39.838,1093.0,101.0,32.0,1098.1229439366068,1,1,1,3.0,2.0
2021-09-24 07:25:39.848,1146.0,60.0,23.0,1147.8000696985516,1,1,1,3.0,2.0
2021-09-24 07:25:39.857,1086.0,74.0,23.0,1088.7612226746503,1,1,1,3.0,2.0
2021-09-24 07:25:39.858,1086.0,74.0,4.0,1088.525608334503,1,1,1,3.0,2.0
2021-09-24 07:25:39.868,1036.0,-84.0,16.0,1039.5229675192368,1,1,1,3.0,2.0
2021-09-24 07:25:39.877,835.0,-30.0,-13.0,835.6398745871334,1,1,1,3.0,2.0
2021-09-24 07:25:39.887,1122.0,59.0,12.0,1123.6142576525094,1,1,1,3.0,2.0
2021-09-24 07:25:39.897,1023.0,93.0,-18.0,1027.3762699225636,1,1,1,3.0,2.0
2021-09-24 07:25:39.914,1054.0,-209.0,54.0,1075.8777811628977,1,1,1,3.0,2.0
2021-09-24 07:25:39.916,989.0,-209.0,54.0,1012.283557112334,1,1,1,3.0,2.0
2021-09-24 07:25:39.917,989.0,-178.0,10.0,1004.9402967340897,1,1,1,3.0,2.0
2021-09-24 07:25:39.926,963.0,-290.0,30.0,1006.1654933459008,1,1,1,3.0,2.0
2021-09-24 07:25:39.936,1117.0,40.0,11.0,1117.7701015861894,1,1,1,3.0,2.0
2021-09-24 07:25:39.946,1149.0,-30.0,-5.0,1149.4024534513576,1,1,1,3.0,2.0
2021-09-24 07:25:39.955,962.0,12.0,-19.0,962.262438215272,1,1,1,3.0,2.0
2021-09-24 07:25:39.979,953.0,51.0,-23.0,954.6407701329332,1,1,1,3.0,2.0
2021-09-24 07:25:40.007,992.0,51.0,-23.0,993.5763684790414,1,1,1,3.0,2.0
2021-09-24 07:25:40.008,992.0,-219.0,5.0,1015.8986169889198,1,1,1,3.0,2.0
2021-09-24 07:25:40.029,891.0,-219.0,5.0,917.5331056697628,1,1,1,3.0,2.0
2021-09-24 07:25:40.030,891.0,34.0,75.0,894.7971837237754,1,1,1,3.0,2.0
2021-09-24 07:25:40.032,1003.0,244.0,28.0,1032.6320738772354,1,1,1,3.0,2.0
2021-09-24 07:25:40.037,1128.0,122.0,12.0,1134.6417936952614,1,1,1,3.0,2.0
2021-09-24 07:25:40.043,1106.0,122.0,12.0,1112.7731125436128,1,1,1,3.0,2.0
2021-09-24 07:25:40.044,1106.0,-17.0,-5.0,1106.1419438751973,1,1,1,3.0,2.0
2021-09-24 07:25:40.053,889.0,-55.0,-21.0,890.9472487190249,1,1,1,3.0,2.0
2021-09-24 07:25:40.062,867.0,-55.0,-21.0,868.9965477491841,1,1,1,3.0,2.0
2021-09-24 07:25:40.063,867.0,-50.0,-32.0,869.0299189325992,1,1,1,3.0,2.0
2021-09-24 07:25:40.073,1005.0,273.0,14.0,1041.5133220463383,1,1,1,3.0,2.0
2021-09-24 07:25:40.082,1113.0,273.0,14.0,1146.0776587997866,1,1,1,3.0,2.0
2021-09-24 07:25:40.083,1113.0,65.0,-18.0,1115.0417032559817,1,1,1,3.0,2.0
2021-09-24 07:25:40.092,1040.0,106.0,-10.0,1045.4357942982438,1,1,1,3.0,2.0
2021-09-24 07:25:40.101,1032.0,106.0,-10.0,1037.4777106039437,1,1,1,3.0,2.0
2021-09-24 07:25:40.102,1032.0,-272.0,5.0,1067.2548898927566,1,1,1,3.0,2.0
2021-09-24 07:25:40.111,914.0,91.0,5.0,918.5325252814948,1,1,1,3.0,2.0
2021-09-24 07:25:40.112,914.0,91.0,76.0,921.6577455867226,1,1,1,3.0,2.0
2021-09-24 07:25:40.121,1035.0,258.0,21.0,1066.8786247741589,1,1,1,3.0,2.0
2021-09-24 07:25:40.131,1165.0,258.0,21.0,1193.411077542018,1,1,1,3.0,2.0
2021-09-24 07:25:40.132,1165.0,17.0,13.0,1165.196549943399,1,1,1,3.0,2.0
2021-09-24 07:25:40.140,978.0,17.0,13.0,978.234123305868,1,1,1,3.0,2.0
2021-09-24 07:25:40.141,978.0,14.0,19.0,978.2847233806732,1,1,1,3.0,2.0
2021-09-24 07:25:40.150,915.0,-11.0,-19.0,915.2633500801832,1,1,1,3.0,2.0
2021-09-24 07:25:40.160,968.0,54.0,3.0,969.509669884731,1,1,1,3.0,2.0
2021-09-24 07:25:40.170,1016.0,292.0,-3.0,1057.1324420336366,1,1,1,3.0,2.0
2021-09-24 07:25:40.180,1116.0,292.0,-3.0,1153.572277752894,1,1,1,3.0,2.0
2021-09-24 07:25:40.181,1116.0,110.0,-57.0,1122.8557342775607,1,1,1,3.0,2.0
2021-09-24 07:25:40.189,994.0,-193.0,-57.0,1014.1666529717884,1,1,1,3.0,2.0
2021-09-24 07:25:40.190,994.0,-193.0,-43.0,1013.4761960697448,1,1,1,3.0,2.0
2021-09-24 07:25:40.200,997.0,-291.0,2.0,1038.6019449240407,1,1,1,3.0,2.0
2021-09-24 07:25:40.209,929.0,129.0,29.0,938.3618704955994,1,1,1,3.0,2.0
2021-09-24 07:25:40.219,1070.0,289.0,14.0,1108.4299707243574,1,1,1,3.0,2.0
2021-09-24 07:25:40.229,1200.0,-29.0,-2.0,1200.3520316973684,1,1,1,3.0,2.0
2021-09-24 07:25:40.239,935.0,-8.0,-5.0,935.0475923716396,1,1,1,3.0,2.0
2021-09-24 07:25:40.248,976.0,-74.0,20.0,979.0056179614088,1,1,1,3.0,2.0
2021-09-24 07:25:40.258,893.0,67.0,-37.0,896.2739536547963,1,1,1,3.0,2.0
2021-09-24 07:25:40.268,1106.0,184.0,-80.0,1124.0516002390636,1,1,1,3.0,2.0
2021-09-24 07:25:40.277,1039.0,184.0,-80.0,1058.1951615841003,1,1,1,3.0,2.0
2021-09-24 07:25:40.278,1039.0,175.0,-57.0,1055.17534087942,1,1,1,3.0,2.0
2021-09-24 07:25:40.288,1053.0,-89.0,23.0,1057.004730358384,1,1,1,3.0,2.0
2021-09-24 07:25:40.297,819.0,218.0,61.0,849.7093620762337,1,1,1,3.0,2.0
2021-09-24 07:25:40.307,1085.0,7.0,51.0,1086.2205116825958,1,1,1,3.0,2.0
2021-09-24 07:25:40.316,994.0,7.0,51.0,995.3321053799078,1,1,1,3.0,2.0
2021-09-24 07:25:40.317,994.0,309.0,32.0,1041.4129824426043,1,1,1,3.0,2.0
2021-09-24 07:25:40.326,1179.0,-87.0,-39.0,1182.8486800939502,1,1,1,3.0,2.0
2021-09-24 07:25:40.337,913.0,3.0,0.0,913.0049287928296,1,1,1,3.0,2.0
2021-09-24 07:25:40.346,993.0,-132.0,11.0,1001.7953882904432,1,1,1,3.0,2.0
2021-09-24 07:25:40.356,1112.0,81.0,-4.0,1114.9533622533277,1,1,1,3.0,2.0
2021-09-24 07:25:40.365,1074.0,5.0,-4.0,1074.019087353665,1,1,1,3.0,2.0
2021-09-24 07:25:40.366,1074.0,5.0,34.0,1074.5496731189303,1,1,1,3.0,2.0
2021-09-24 07:25:40.375,1089.0,128.0,-27.0,1096.829065989774,1,1,1,3.0,2.0
2021-09-24 07:25:40.385,1039.0,-158.0,-20.0,1051.135100736342,1,1,1,3.0,2.0
2021-09-24 07:25:40.395,844.0,223.0,-20.0,873.1924186569647,1,1,1,3.0,2.0
2021-09-24 07:25:40.396,844.0,223.0,57.0,874.8222676635523,1,1,1,3.0,2.0
2021-09-24 07:25:40.404,1117.0,16.0,57.0,1118.567834331025,1,1,1,3.0,2.0
2021-09-24 07:25:40.405,1117.0,16.0,64.0,1118.946379412347,1,1,1,3.0,2.0
2021-09-24 07:25:40.414,1119.0,108.0,24.0,1124.4558684092497,1,1,1,3.0,2.0
2021-09-24 07:25:40.428,1113.0,211.0,65.0,1134.6871815615086,1,1,1,3.0,2.0
2021-09-24 07:25:40.439,971.0,191.0,65.0,991.739381087592,1,1,1,3.0,2.0
2021-09-24 07:25:40.440,971.0,191.0,20.0,989.809072498328,1,1,1,3.0,2.0
2021-09-24 07:25:40.443,1033.0,65.0,20.0,1035.2362049310293,1,1,1,3.0,2.0
2021-09-24 07:25:40.444,1033.0,65.0,45.0,1036.0207526878987,1,1,1,3.0,2.0
2021-09-24 07:25:40.453,981.0,-86.0,-9.0,984.8035337060892,1,1,1,3.0,2.0
2021-09-24 07:25:40.463,921.0,-80.0,-36.0,925.1686332771988,1,1,1,3.0,2.0
2021-09-24 07:25:40.473,1050.0,5.0,-8.0,1050.0423800971082,1,1,1,3.0,2.0
2021-09-24 07:25:40.484,1063.0,38.0,32.0,1064.16023229587,1,1,1,3.0,2.0
2021-09-24 07:25:40.492,913.0,71.0,-54.0,917.3472624911462,1,1,1,3.0,2.0
2021-09-24 07:25:40.502,980.0,-48.0,3.0,981.179392364108,1,1,1,3.0,2.0
2021-09-24 07:25:40.521,1061.0,19.0,3.0,1061.174349482685,1,1,1,3.0,2.0
2021-09-24 07:25:40.522,1061.0,19.0,-1.0,1061.1705800671257,1,1,1,3.0,2.0
2021-09-24 07:25:40.525,994.0,52.0,-31.0,995.8418549147248,1,1,1,3.0,2.0
2021-09-24 07:25:40.531,1105.0,-20.0,36.0,1105.7671545131009,1,1,1,3.0,2.0
2021-09-24 07:25:40.542,1080.0,41.0,17.0,1080.911652263958,1,1,1,3.0,2.0
2021-09-24 07:25:40.551,944.0,-34.0,-25.0,944.9428554150776,1,1,1,3.0,2.0
2021-09-24 07:25:40.561,1043.0,10.0,-25.0,1043.3474972414513,1,1,1,3.0,2.0
2021-09-24 07:25:40.562,1043.0,10.0,29.0,1043.45100507882,1,1,1,3.0,2.0
2021-09-24 07:25:40.570,1006.0,27.0,-32.0,1006.8708953982134,1,1,1,3.0,2.0
2021-09-24 07:25:40.580,1013.0,30.0,12.0,1013.5151700887362,1,1,1,3.0,2.0
2021-09-24 07:25:40.591,985.0,-49.0,-17.0,986.364537075416,1,1,1,3.0,2.0
2021-09-24 07:25:40.600,993.0,22.0,-2.0,993.2456896458197,1,1,1,3.0,2.0
2021-09-24 07:25:40.610,1013.0,34.0,0.0,1013.5704218257358,1,1,1,3.0,2.0
2021-09-24 07:25:40.630,1037.0,16.0,3.0,1037.1277645497685,1,1,1,3.0,2.0
2021-09-24 07:25:40.632,991.0,1.0,9.0,991.0413714875884,1,1,1,3.0,2.0
2021-09-24 07:25:40.640,1002.0,29.0,23.0,1002.6833996830704,1,1,1,3.0,2.0
2021-09-24 07:25:40.648,1034.0,29.0,23.0,1034.6622637363364,1,1,1,3.0,2.0
2021-09-24 07:25:40.649,1034.0,44.0,7.0,1034.9594194943104,1,1,1,3.0,2.0
2021-09-24 07:25:40.658,1009.0,38.0,2.0,1009.7172871650756,1,1,1,3.0,2.0
2021-09-24 07:25:40.668,1032.0,50.0,4.0,1033.218273164001,1,1,1,3.0,2.0
2021-09-24 07:25:40.678,1002.0,41.0,-2.0,1002.8404658768012,1,1,1,3.0,2.0
2021-09-24 07:25:40.688,1023.0,41.0,-2.0,1023.8232269293368,1,1,1,3.0,2.0
2021-09-24 07:25:40.689,1023.0,41.0,-15.0,1023.9311500291412,1,1,1,3.0,2.0
2021-09-24 07:25:40.698,1010.0,41.0,-15.0,1010.9431240183594,1,1,1,3.0,2.0
2021-09-24 07:25:40.699,1010.0,-19.0,-14.0,1010.2757049439524,1,1,1,3.0,2.0
2021-09-24 07:25:40.707,1012.0,31.0,0.0,1012.4746910417068,1,1,1,3.0,2.0
2021-09-24 07:25:40.717,1001.0,4.0,4.0,1001.0159838883692,1,1,1,3.0,2.0
2021-09-24 07:25:40.727,1008.0,7.0,11.0,1008.0843218699516,1,1,1,3.0,2.0
2021-09-24 07:25:40.736,1012.0,21.0,11.0,1012.2776299019948,1,1,1,3.0,2.0
2021-09-24 07:25:40.737,1012.0,21.0,6.0,1012.2356445018128,1,1,1,3.0,2.0
2021-09-24 07:25:40.748,1009.0,36.0,14.0,1009.7390752070556,1,1,1,3.0,2.0
2021-09-24 07:25:40.756,1013.0,29.0,7.0,1013.4391940318868,1,1,1,3.0,2.0
2021-09-24 07:25:40.766,991.0,4.0,-20.0,991.2098667789784,1,1,1,3.0,2.0
2021-09-24 07:25:40.776,979.0,4.0,-20.0,979.2124386464868,1,1,1,3.0,2.0
2021-09-24 07:25:40.777,979.0,-4.0,-21.0,979.233373614278,1,1,1,3.0,2.0
2021-09-24 07:25:40.785,987.0,22.0,-18.0,987.4092363351682,1,1,1,3.0,2.0
2021-09-24 07:25:40.796,1011.0,78.0,4.0,1014.012327341241,1,1,1,3.0,2.0
2021-09-24 07:25:40.805,1019.0,53.0,5.0,1020.3896314643736,1,1,1,3.0,2.0
2021-09-24 07:25:40.814,1005.0,24.0,5.0,1005.2989605087632,1,1,1,3.0,2.0
2021-09-24 07:25:40.815,1005.0,24.0,7.0,1005.3108971855424,1,1,1,3.0,2.0
2021-09-24 07:25:40.824,1010.0,-7.0,12.0,1010.0955400356938,1,1,1,3.0,2.0
2021-09-24 07:25:40.835,981.0,38.0,4.0,981.7438566143412,1,1,1,3.0,2.0
2021-09-24 07:25:40.844,1022.0,42.0,16.0,1022.9877809631942,1,1,1,3.0,2.0
2021-09-24 07:25:40.854,1035.0,40.0,8.0,1035.8035528033297,1,1,1,3.0,2.0
2021-09-24 07:25:40.863,999.0,38.0,6.0,999.7404663211348,1,1,1,3.0,2.0
