time_stamp,Acceleration_X,Acceleration_Y,Acceleration_Z,magnitude,STD_Status_right,STD_Status_left,STD_Status_both,KMeans,KMeans_convert
2021-08-12 09:21:22.500,1112.0,107.0,54.0,1118.4404320302444,1,1,1,2.0,2.0
2021-08-12 09:21:22.504,1018.0,-149.0,0.0,1028.846441409018,1,1,1,2.0,2.0
2021-08-12 09:21:22.511,929.0,-149.0,0.0,940.872998868604,1,1,1,2.0,2.0
2021-08-12 09:21:22.512,929.0,-207.0,-31.0,952.2872465805684,1,1,1,2.0,2.0
2021-08-12 09:21:22.521,854.0,-86.0,-17.0,858.4876236731664,1,1,1,2.0,2.0
2021-08-12 09:21:22.531,949.0,214.0,35.0,973.4587818700904,1,1,1,2.0,2.0
2021-08-12 09:21:22.540,1113.0,137.0,22.0,1121.6157987475033,1,1,1,2.0,2.0
2021-08-12 09:21:22.550,988.0,-49.0,4.0,989.2224219052054,1,1,1,2.0,2.0
2021-08-12 09:21:22.560,976.0,36.0,72.0,979.314045646237,1,1,1,2.0,2.0
2021-08-12 09:21:22.570,1013.0,-78.0,54.0,1017.4325530471295,1,1,1,2.0,2.0
2021-08-12 09:21:22.579,986.0,68.0,6.0,988.3602582054784,1,1,1,2.0,2.0
2021-08-12 09:21:22.589,1125.0,79.0,36.0,1128.3448054562043,1,1,1,2.0,2.0
2021-08-12 09:21:22.599,1047.0,-121.0,-21.0,1054.1778787282533,1,1,1,2.0,2.0
2021-08-12 09:21:22.610,961.0,25.0,11.0,961.3880590063516,1,1,1,2.0,2.0
2021-08-12 09:21:22.620,943.0,243.0,-6.0,973.8244194925488,1,1,1,2.0,2.0
2021-08-12 09:21:22.628,997.0,150.0,18.0,1008.3813762659444,1,1,1,2.0,2.0
2021-08-12 09:21:22.645,1086.0,113.0,18.0,1092.0114468264514,1,1,1,2.0,2.0
2021-08-12 09:21:22.646,1086.0,113.0,-10.0,1091.9088789821246,1,1,1,2.0,2.0
2021-08-12 09:21:22.648,1041.0,-91.0,25.0,1045.268864933803,1,1,1,2.0,2.0
2021-08-12 09:21:22.657,949.0,72.0,25.0,952.0556706411658,1,1,1,2.0,2.0
2021-08-12 09:21:22.658,949.0,72.0,39.0,952.5261151275593,1,1,1,2.0,2.0
2021-08-12 09:21:22.669,977.0,185.0,12.0,994.4335070782762,1,1,1,2.0,2.0
2021-08-12 09:21:22.679,1077.0,54.0,50.0,1079.5114635797063,1,1,1,2.0,2.0
2021-08-12 09:21:22.686,1135.0,63.0,50.0,1137.8462110496305,1,1,1,2.0,2.0
2021-08-12 09:21:22.687,1135.0,63.0,29.0,1137.1169684777376,1,1,1,2.0,2.0
2021-08-12 09:21:22.704,989.0,-63.0,-16.0,991.133694311721,1,1,1,2.0,2.0
2021-08-12 09:21:22.708,968.0,3.0,-3.0,968.0092974760108,1,1,1,2.0,2.0
2021-08-12 09:21:22.717,897.0,278.0,-4.0,939.1001011606804,1,1,1,2.0,2.0
2021-08-12 09:21:22.726,1126.0,40.0,-24.0,1126.9658379915516,1,1,1,2.0,2.0
2021-08-12 09:21:22.735,1095.0,40.0,-24.0,1095.9931569129435,1,1,1,2.0,2.0
2021-08-12 09:21:22.736,1095.0,85.0,-13.0,1098.3710666254824,1,1,1,2.0,2.0
2021-08-12 09:21:22.745,982.0,-140.0,-12.0,992.0020161269834,1,1,1,2.0,2.0
2021-08-12 09:21:22.755,960.0,50.0,69.0,963.7743511839273,1,1,1,2.0,2.0
2021-08-12 09:21:22.766,986.0,167.0,27.0,1000.4069172091924,1,1,1,2.0,2.0
2021-08-12 09:21:22.775,1063.0,167.0,27.0,1076.376792763575,1,1,1,2.0,2.0
2021-08-12 09:21:22.776,1063.0,95.0,22.0,1067.463348316934,1,1,1,2.0,2.0
2021-08-12 09:21:22.784,1159.0,23.0,20.0,1159.4007072621614,1,1,1,2.0,2.0
2021-08-12 09:21:22.794,991.0,-123.0,-4.0,998.6120367790486,1,1,1,2.0,2.0
2021-08-12 09:21:22.803,968.0,-123.0,-4.0,975.7914736253848,1,1,1,2.0,2.0
2021-08-12 09:21:22.804,968.0,-11.0,5.0,968.0754102857896,1,1,1,2.0,2.0
2021-08-12 09:21:22.814,951.0,260.0,1.0,985.9016178098096,1,1,1,2.0,2.0
2021-08-12 09:21:22.825,1091.0,51.0,-26.0,1092.5008009150383,1,1,1,2.0,2.0
2021-08-12 09:21:22.833,987.0,16.0,-12.0,987.2026134487288,1,1,1,2.0,2.0
2021-08-12 09:21:22.843,1007.0,-241.0,-24.0,1035.715211822246,1,1,1,2.0,2.0
2021-08-12 09:21:22.853,973.0,80.0,68.0,978.648557961437,1,1,1,2.0,2.0
2021-08-12 09:21:22.862,1012.0,80.0,68.0,1017.4320616139438,1,1,1,2.0,2.0
2021-08-12 09:21:22.863,1012.0,168.0,30.0,1026.288458475491,1,1,1,2.0,2.0
2021-08-12 09:21:22.873,1055.0,116.0,36.0,1061.9684552753909,1,1,1,2.0,2.0
2021-08-12 09:21:22.882,1005.0,-115.0,25.0,1011.8670861333518,1,1,1,2.0,2.0
2021-08-12 09:21:22.891,975.0,19.0,45.0,976.2228229251764,1,1,1,2.0,2.0
2021-08-12 09:21:22.901,968.0,19.0,45.0,969.2316544562502,1,1,1,2.0,2.0
2021-08-12 09:21:22.902,968.0,-39.0,14.0,968.8864742579494,1,1,1,2.0,2.0
2021-08-12 09:21:22.911,964.0,238.0,-7.0,992.9697880600396,1,1,1,2.0,2.0
2021-08-12 09:21:22.921,1085.0,238.0,-7.0,1110.8186170568083,1,1,1,2.0,2.0
2021-08-12 09:21:22.922,1085.0,42.0,0.0,1085.8125989322466,1,1,1,2.0,2.0
2021-08-12 09:21:22.931,980.0,20.0,-24.0,980.4978327360036,1,1,1,2.0,2.0
2021-08-12 09:21:22.940,907.0,240.0,12.0,938.2925982869097,1,1,1,2.0,2.0
2021-08-12 09:21:22.951,972.0,116.0,55.0,980.4412272033444,1,1,1,2.0,2.0
2021-08-12 09:21:22.960,1036.0,162.0,24.0,1048.8641475424736,1,1,1,2.0,2.0
2021-08-12 09:21:22.970,1061.0,95.0,32.0,1065.7251052687086,1,1,1,2.0,2.0
2021-08-12 09:21:22.981,971.0,-89.0,9.0,975.1117884632512,1,1,1,2.0,2.0
2021-08-12 09:21:22.990,922.0,114.0,60.0,930.9564973724604,1,1,1,2.0,2.0
2021-08-12 09:21:22.999,1127.0,44.0,49.0,1128.9224951253298,1,1,1,2.0,2.0
2021-08-12 09:21:23.009,1010.0,236.0,2.0,1037.207790175141,1,1,1,2.0,2.0
2021-08-12 09:21:23.019,1108.0,-18.0,-23.0,1108.3848609576007,1,1,1,2.0,2.0
2021-08-12 09:21:23.030,988.0,76.0,-17.0,991.0645791269104,1,1,1,2.0,2.0
2021-08-12 09:21:23.038,855.0,293.0,0.0,903.8108209133148,1,1,1,2.0,2.0
2021-08-12 09:21:23.048,1074.0,108.0,-19.0,1079.583716068374,1,1,1,2.0,2.0
2021-08-12 09:21:23.068,997.0,34.0,-26.0,997.9183333319417,1,1,1,2.0,2.0
2021-08-12 09:21:23.079,982.0,-47.0,-26.0,983.467843907466,1,1,1,2.0,2.0
2021-08-12 09:21:23.080,982.0,-47.0,26.0,983.467843907466,1,1,1,2.0,2.0
2021-08-12 09:21:23.088,914.0,163.0,55.0,930.0483858380702,1,1,1,2.0,2.0
2021-08-12 09:21:23.097,1122.0,43.0,36.0,1123.4006409113358,1,1,1,2.0,2.0
2021-08-12 09:21:23.106,1117.0,-121.0,30.0,1123.9350515043118,1,1,1,2.0,2.0
2021-08-12 09:21:23.116,1076.0,-44.0,-30.0,1077.3170378305542,1,1,1,2.0,2.0
2021-08-12 09:21:23.126,971.0,64.0,-20.0,973.3123856193343,1,1,1,2.0,2.0
2021-08-12 09:21:23.136,854.0,281.0,-29.0,899.5098665384388,1,1,1,2.0,2.0
2021-08-12 09:21:23.146,1070.0,110.0,-32.0,1076.11523546505,1,1,1,2.0,2.0
2021-08-12 09:21:23.155,1012.0,49.0,-19.0,1013.36370568518,1,1,1,2.0,2.0
2021-08-12 09:21:23.165,1080.0,84.0,28.0,1083.6235508699503,1,1,1,2.0,2.0
2021-08-12 09:21:23.175,972.0,-27.0,43.0,973.3252282767564,1,1,1,2.0,2.0
2021-08-12 09:21:23.185,933.0,-27.0,43.0,934.3805434618168,1,1,1,2.0,2.0
2021-08-12 09:21:23.186,933.0,218.0,42.0,959.0500508315508,1,1,1,2.0,2.0
2021-08-12 09:21:23.196,1090.0,27.0,42.0,1091.1429787154386,1,1,1,2.0,2.0
2021-08-12 09:21:23.197,1090.0,27.0,36.0,1090.9285036151543,1,1,1,2.0,2.0
2021-08-12 09:21:23.204,1075.0,-130.0,41.0,1083.6078626514295,1,1,1,2.0,2.0
2021-08-12 09:21:23.214,984.0,-124.0,26.0,992.1229762484083,1,1,1,2.0,2.0
2021-08-12 09:21:23.223,943.0,29.0,26.0,943.8040050773252,1,1,1,2.0,2.0
2021-08-12 09:21:23.224,943.0,29.0,-20.0,943.6577769509452,1,1,1,2.0,2.0
2021-08-12 09:21:23.234,886.0,261.0,-20.0,923.859837854206,1,1,1,2.0,2.0
2021-08-12 09:21:23.235,886.0,261.0,0.0,923.64332942971,1,1,1,2.0,2.0
2021-08-12 09:21:23.244,1060.0,126.0,-34.0,1068.003745311785,1,1,1,2.0,2.0
2021-08-12 09:21:23.253,1006.0,46.0,-30.0,1007.4978908166509,1,1,1,2.0,2.0
2021-08-12 09:21:23.262,929.0,-127.0,-30.0,938.120461348115,1,1,1,2.0,2.0
2021-08-12 09:21:23.263,929.0,-127.0,-25.0,937.9738802333464,1,1,1,2.0,2.0
2021-08-12 09:21:23.272,962.0,172.0,23.0,977.5259587346004,1,1,1,2.0,2.0
2021-08-12 09:21:23.282,925.0,179.0,58.0,943.9438542625296,1,1,1,2.0,2.0
2021-08-12 09:21:23.294,1109.0,28.0,29.0,1109.732400175826,1,1,1,2.0,2.0
2021-08-12 09:21:23.302,1048.0,-110.0,37.0,1054.4064681136967,1,1,1,2.0,2.0
2021-08-12 09:21:23.311,987.0,-48.0,41.0,989.0166833779904,1,1,1,2.0,2.0
2021-08-12 09:21:23.321,1061.0,12.0,30.0,1061.4918746745072,1,1,1,2.0,2.0
2021-08-12 09:21:23.331,886.0,266.0,-17.0,925.2248375395033,1,1,1,2.0,2.0
2021-08-12 09:21:23.342,1095.0,84.0,-28.0,1098.5740757909773,1,1,1,2.0,2.0
2021-08-12 09:21:23.352,991.0,20.0,-31.0,991.6864423798482,1,1,1,2.0,2.0
2021-08-12 09:21:23.360,948.0,-23.0,-20.0,948.489852344241,1,1,1,2.0,2.0
2021-08-12 09:21:23.370,970.0,140.0,22.0,980.2979139016874,1,1,1,2.0,2.0
2021-08-12 09:21:23.380,1063.0,111.0,0.0,1068.779677950512,1,1,1,2.0,2.0
2021-08-12 09:21:23.391,1077.0,54.0,40.0,1079.0945278334054,1,1,1,2.0,2.0
2021-08-12 09:21:23.400,1016.0,-169.0,2.0,1029.961649771485,1,1,1,2.0,2.0
2021-08-12 09:21:23.410,967.0,-30.0,55.0,969.0273473953148,1,1,1,2.0,2.0
2021-08-12 09:21:23.419,1071.0,44.0,42.0,1072.725966871316,1,1,1,2.0,2.0
2021-08-12 09:21:23.428,1146.0,44.0,42.0,1147.6131752467816,1,1,1,2.0,2.0
2021-08-12 09:21:23.429,1146.0,68.0,36.0,1148.5799928607498,1,1,1,2.0,2.0
2021-08-12 09:21:23.439,1124.0,78.0,-26.0,1127.0031055857833,1,1,1,2.0,2.0
2021-08-12 09:21:23.450,985.0,-26.0,-23.0,985.6114853226904,1,1,1,2.0,2.0
2021-08-12 09:21:23.459,927.0,46.0,-1.0,928.1411530580896,1,1,1,2.0,2.0
2021-08-12 09:21:23.467,969.0,169.0,-1.0,983.627470132875,1,1,1,2.0,2.0
2021-08-12 09:21:23.468,969.0,169.0,-11.0,983.6884669446928,1,1,1,2.0,2.0
2021-08-12 09:21:23.477,1086.0,111.0,3.0,1091.6620356135868,1,1,1,2.0,2.0
2021-08-12 09:21:23.488,1008.0,-158.0,-12.0,1020.378361197453,1,1,1,2.0,2.0
2021-08-12 09:21:23.498,1038.0,-133.0,12.0,1046.5548241731055,1,1,1,2.0,2.0
2021-08-12 09:21:23.515,955.0,-133.0,12.0,964.291449718393,1,1,1,2.0,2.0
2021-08-12 09:21:23.516,955.0,-3.0,45.0,956.0643283796336,1,1,1,2.0,2.0
2021-08-12 09:21:23.519,1072.0,53.0,46.0,1074.294652318441,1,1,1,2.0,2.0
2021-08-12 09:21:23.527,1152.0,-22.0,27.0,1152.526355447024,1,1,1,2.0,2.0
2021-08-12 09:21:23.536,982.0,-153.0,-7.0,993.8722251879262,1,1,1,2.0,2.0
2021-08-12 09:21:23.546,953.0,26.0,-7.0,953.3803018732872,1,1,1,2.0,2.0
2021-08-12 09:21:23.547,953.0,26.0,-30.0,953.8265041400348,1,1,1,2.0,2.0
2021-08-12 09:21:23.555,934.0,26.0,-30.0,934.8433023774626,1,1,1,2.0,2.0
2021-08-12 09:21:23.556,934.0,139.0,14.0,944.3902794925413,1,1,1,2.0,2.0
2021-08-12 09:21:23.566,989.0,183.0,-19.0,1005.9676933182296,1,1,1,2.0,2.0
2021-08-12 09:21:23.576,1063.0,81.0,-35.0,1066.6559895298954,1,1,1,2.0,2.0
2021-08-12 09:21:23.585,1029.0,-243.0,-20.0,1057.4923167569589,1,1,1,2.0,2.0
2021-08-12 09:21:23.594,968.0,-243.0,-20.0,998.2349422856324,1,1,1,2.0,2.0
2021-08-12 09:21:23.595,968.0,103.0,52.0,974.85229650445,1,1,1,2.0,2.0
2021-08-12 09:21:23.604,939.0,60.0,55.0,942.5210872972552,1,1,1,2.0,2.0
2021-08-12 09:21:23.615,1112.0,64.0,40.0,1114.5582084395592,1,1,1,2.0,2.0
2021-08-12 09:21:23.625,1138.0,64.0,40.0,1140.4998903989426,1,1,1,2.0,2.0
2021-08-12 09:21:23.626,1138.0,-56.0,35.0,1139.914470475746,1,1,1,2.0,2.0
2021-08-12 09:21:23.634,978.0,-82.0,-5.0,981.444343811711,1,1,1,2.0,2.0
2021-08-12 09:21:23.643,980.0,28.0,14.0,980.4998725140152,1,1,1,2.0,2.0
2021-08-12 09:21:23.658,974.0,202.0,-28.0,995.1200932550804,1,1,1,2.0,2.0
2021-08-12 09:21:23.663,1007.0,142.0,-36.0,1017.5996265722586,1,1,1,2.0,2.0
2021-08-12 09:21:23.674,1078.0,32.0,-29.0,1078.8646810420666,1,1,1,2.0,2.0
2021-08-12 09:21:23.684,984.0,-253.0,-17.0,1016.1466429605522,1,1,1,2.0,2.0
2021-08-12 09:21:23.694,943.0,139.0,39.0,953.986897184652,1,1,1,2.0,2.0
2021-08-12 09:21:23.702,1071.0,126.0,17.0,1078.5202826094649,1,1,1,2.0,2.0
2021-08-12 09:21:23.719,1109.0,126.0,17.0,1116.2643056194174,1,1,1,2.0,2.0
2021-08-12 09:21:23.720,1109.0,9.0,23.0,1109.274988449663,1,1,1,2.0,2.0
2021-08-12 09:21:23.724,1107.0,-98.0,32.0,1111.7899981561266,1,1,1,2.0,2.0
2021-08-12 09:21:23.732,964.0,-122.0,13.0,971.776208805299,1,1,1,2.0,2.0
2021-08-12 09:21:23.743,1005.0,-2.0,20.0,1005.2009749298892,1,1,1,2.0,2.0
2021-08-12 09:21:23.751,1021.0,232.0,-8.0,1047.0573050220316,1,1,1,2.0,2.0
2021-08-12 09:21:23.760,1069.0,232.0,-8.0,1093.914530482158,1,1,1,2.0,2.0
2021-08-12 09:21:23.761,1069.0,-40.0,-40.0,1070.4956795802586,1,1,1,2.0,2.0
2021-08-12 09:21:23.770,1007.0,-40.0,-40.0,1008.5876263369483,1,1,1,2.0,2.0
2021-08-12 09:21:23.771,1007.0,14.0,-27.0,1007.4591803145178,1,1,1,2.0,2.0
2021-08-12 09:21:23.780,955.0,-246.0,-3.0,986.1794968462892,1,1,1,2.0,2.0
2021-08-12 09:21:23.791,943.0,146.0,-3.0,954.2400117370892,1,1,1,2.0,2.0
2021-08-12 09:21:23.792,943.0,146.0,52.0,955.6510869559036,1,1,1,2.0,2.0
2021-08-12 09:21:23.801,1082.0,155.0,18.0,1093.1939443666893,1,1,1,2.0,2.0
2021-08-12 09:21:23.809,1089.0,60.0,18.0,1090.8001650164892,1,1,1,2.0,2.0
2021-08-12 09:21:23.810,1089.0,60.0,36.0,1091.245618547905,1,1,1,2.0,2.0
2021-08-12 09:21:23.819,1119.0,-114.0,46.0,1125.73220616628,1,1,1,2.0,2.0
2021-08-12 09:21:23.829,960.0,-92.0,15.0,964.514903980234,1,1,1,2.0,2.0
2021-08-12 09:21:23.840,1041.0,-2.0,15.0,1041.1099845837614,1,1,1,2.0,2.0
2021-08-12 09:21:23.850,1067.0,-2.0,15.0,1067.107304819904,1,1,1,2.0,2.0
2021-08-12 09:21:23.851,1067.0,140.0,-6.0,1076.162162501544,1,1,1,2.0,2.0
2021-08-12 09:21:23.858,1024.0,-61.0,-29.0,1026.2251215011256,1,1,1,2.0,2.0
2021-08-12 09:21:23.868,998.0,51.0,-30.0,999.7524693642922,1,1,1,2.0,2.0
2021-08-12 09:21:23.878,940.0,-162.0,-26.0,954.21171654932,1,1,1,2.0,2.0
2021-08-12 09:21:23.888,964.0,176.0,22.0,980.1816158243328,1,1,1,2.0,2.0
2021-08-12 09:21:23.899,1116.0,114.0,21.0,1122.004010688019,1,1,1,2.0,2.0
2021-08-12 09:21:23.908,1052.0,20.0,21.0,1052.3996389205006,1,1,1,2.0,2.0
2021-08-12 09:21:23.917,964.0,37.0,47.0,965.8540262379196,1,1,1,2.0,2.0
2021-08-12 09:21:23.926,983.0,37.0,47.0,984.8182573449784,1,1,1,2.0,2.0
2021-08-12 09:21:23.927,983.0,-93.0,30.0,987.8451295623216,1,1,1,2.0,2.0
2021-08-12 09:21:23.936,1037.0,20.0,20.0,1037.385656349653,1,1,1,2.0,2.0
2021-08-12 09:21:23.947,1080.0,114.0,20.0,1086.1841464503152,1,1,1,2.0,2.0
2021-08-12 09:21:23.948,1080.0,114.0,16.0,1086.117857324885,1,1,1,2.0,2.0
2021-08-12 09:21:23.957,1013.0,-71.0,16.0,1015.6111460593568,1,1,1,2.0,2.0
2021-08-12 09:21:23.958,1013.0,-71.0,-33.0,1016.0211611969506,1,1,1,2.0,2.0
2021-08-12 09:21:23.965,955.0,6.0,-33.0,955.5888237102818,1,1,1,2.0,2.0
2021-08-12 09:21:23.966,955.0,6.0,-9.0,955.06125458004,1,1,1,2.0,2.0
2021-08-12 09:21:23.975,914.0,284.0,-9.0,957.1483688540663,1,1,1,2.0,2.0
2021-08-12 09:21:23.976,914.0,284.0,-13.0,957.1943376347356,1,1,1,2.0,2.0
2021-08-12 09:21:23.985,982.0,205.0,15.0,1003.2816154998555,1,1,1,2.0,2.0
2021-08-12 09:21:23.995,1075.0,153.0,15.0,1085.936922661717,1,1,1,2.0,2.0
2021-08-12 09:21:23.996,1075.0,153.0,3.0,1085.837464816903,1,1,1,2.0,2.0
2021-08-12 09:21:24.006,1046.0,-87.0,15.0,1049.719010021253,1,1,1,2.0,2.0
2021-08-12 09:21:24.014,976.0,1.0,55.0,977.5489757551792,1,1,1,2.0,2.0
2021-08-12 09:21:24.024,965.0,232.0,36.0,993.1490321195504,1,1,1,2.0,2.0
2021-08-12 09:21:24.034,1104.0,51.0,31.0,1105.6120476912324,1,1,1,2.0,2.0
2021-08-12 09:21:24.044,1129.0,60.0,26.0,1130.892125713147,1,1,1,2.0,2.0
2021-08-12 09:21:24.055,993.0,-82.0,-20.0,996.5806540365912,1,1,1,2.0,2.0
2021-08-12 09:21:24.064,982.0,12.0,6.0,982.0916454180842,1,1,1,2.0,2.0
2021-08-12 09:21:24.073,906.0,289.0,-8.0,951.0105151889752,1,1,1,2.0,2.0
2021-08-12 09:21:24.094,1101.0,95.0,-30.0,1105.4980777911828,1,1,1,2.0,2.0
2021-08-12 09:21:24.097,1083.0,113.0,0.0,1088.879240320064,1,1,1,2.0,2.0
2021-08-12 09:21:24.103,1037.0,-205.0,0.0,1057.0685881247252,1,1,1,2.0,2.0
2021-08-12 09:21:24.112,962.0,42.0,66.0,965.175631685757,1,1,1,2.0,2.0
2021-08-12 09:21:24.123,984.0,210.0,22.0,1006.3995230523512,1,1,1,2.0,2.0
2021-08-12 09:21:24.132,1076.0,76.0,23.0,1078.9258547277473,1,1,1,2.0,2.0
2021-08-12 09:21:24.141,1158.0,1.0,30.0,1158.3889674889,1,1,1,2.0,2.0
2021-08-12 09:21:24.152,1009.0,-169.0,-9.0,1023.0948147654742,1,1,1,2.0,2.0
2021-08-12 09:21:24.161,954.0,14.0,19.0,954.29188406902,1,1,1,2.0,2.0
2021-08-12 09:21:24.171,929.0,280.0,-13.0,970.3659103657752,1,1,1,2.0,2.0
2021-08-12 09:21:24.181,1115.0,52.0,-31.0,1116.6422882911072,1,1,1,2.0,2.0
2021-08-12 09:21:24.190,982.0,25.0,-13.0,982.4041938021234,1,1,1,2.0,2.0
2021-08-12 09:21:24.201,1005.0,-221.0,-7.0,1029.0359566118184,1,1,1,2.0,2.0
2021-08-12 09:21:24.211,979.0,105.0,62.0,986.5647469882553,1,1,1,2.0,2.0
2021-08-12 09:21:24.219,1003.0,105.0,62.0,1010.3850751075056,1,1,1,2.0,2.0
2021-08-12 09:21:24.220,1003.0,215.0,25.0,1026.0891774110084,1,1,1,2.0,2.0
2021-08-12 09:21:24.230,1094.0,100.0,15.0,1098.6632787164592,1,1,1,2.0,2.0
2021-08-12 09:21:24.239,984.0,-98.0,30.0,989.3230008445169,1,1,1,2.0,2.0
2021-08-12 09:21:24.249,978.0,-136.0,-14.0,987.5099999493676,1,1,1,2.0,2.0
2021-08-12 09:21:24.260,983.0,4.0,18.0,983.1729247695952,1,1,1,2.0,2.0
2021-08-12 09:21:24.268,975.0,232.0,18.0,1002.383659084684,1,1,1,2.0,2.0
2021-08-12 09:21:24.269,975.0,232.0,-6.0,1002.239991219668,1,1,1,2.0,2.0
2021-08-12 09:21:24.279,1110.0,0.0,-15.0,1110.1013467247033,1,1,1,2.0,2.0
2021-08-12 09:21:24.288,989.0,35.0,-24.0,989.9100969279988,1,1,1,2.0,2.0
2021-08-12 09:21:24.298,903.0,213.0,6.0,927.8006251345168,1,1,1,2.0,2.0
2021-08-12 09:21:24.309,990.0,123.0,48.0,998.7657382990268,1,1,1,2.0,2.0
2021-08-12 09:21:24.317,1028.0,175.0,18.0,1042.9443896967853,1,1,1,2.0,2.0
2021-08-12 09:21:24.327,1079.0,73.0,24.0,1081.732869057791,1,1,1,2.0,2.0
2021-08-12 09:21:24.337,947.0,-59.0,21.0,949.06849067915,1,1,1,2.0,2.0
2021-08-12 09:21:24.346,943.0,-59.0,21.0,945.0772455201744,1,1,1,2.0,2.0
2021-08-12 09:21:24.347,943.0,151.0,58.0,956.7727002794342,1,1,1,2.0,2.0
2021-08-12 09:21:24.358,991.0,18.0,15.0,991.2769542363022,1,1,1,2.0,2.0
2021-08-12 09:21:24.366,1033.0,234.0,4.0,1059.1793993464942,1,1,1,2.0,2.0
2021-08-12 09:21:24.376,1087.0,-17.0,-25.0,1087.4203419101557,1,1,1,2.0,2.0
2021-08-12 09:21:24.386,958.0,46.0,-11.0,959.1668259484372,1,1,1,2.0,2.0
2021-08-12 09:21:24.395,884.0,237.0,-11.0,915.2846551756452,1,1,1,2.0,2.0
2021-08-12 09:21:24.396,884.0,237.0,-11.0,915.2846551756452,1,1,1,2.0,2.0
2021-08-12 09:21:24.406,1070.0,119.0,-29.0,1076.9874651081136,1,1,1,2.0,2.0
2021-08-12 09:21:24.417,1083.0,195.0,22.0,1100.635271104829,1,1,1,2.0,2.0
2021-08-12 09:21:24.425,1091.0,89.0,33.0,1095.1214544515142,1,1,1,2.0,2.0
2021-08-12 09:21:24.435,947.0,-53.0,31.0,948.988408780634,1,1,1,2.0,2.0
2021-08-12 09:21:24.444,933.0,152.0,65.0,947.532585191665,1,1,1,2.0,2.0
2021-08-12 09:21:24.454,1113.0,55.0,34.0,1114.876674794123,1,1,1,2.0,2.0
2021-08-12 09:21:24.465,1066.0,197.0,5.0,1084.0618063560769,1,1,1,2.0,2.0
2021-08-12 09:21:24.474,1049.0,-113.0,-33.0,1055.5846721130429,1,1,1,2.0,2.0
2021-08-12 09:21:24.483,943.0,18.0,0.0,943.1717765073338,1,1,1,2.0,2.0
2021-08-12 09:21:24.493,897.0,301.0,0.0,946.1553783602352,1,1,1,2.0,2.0
2021-08-12 09:21:24.494,897.0,301.0,-11.0,946.219319185568,1,1,1,2.0,2.0
2021-08-12 09:21:24.503,1093.0,113.0,-33.0,1099.3211541674252,1,1,1,2.0,2.0
2021-08-12 09:21:24.513,1098.0,103.0,-33.0,1103.314098523172,1,1,1,2.0,2.0
2021-08-12 09:21:24.514,1098.0,103.0,3.0,1102.8245554030796,1,1,1,2.0,2.0
2021-08-12 09:21:24.532,1065.0,-44.0,14.0,1066.0004690430487,1,1,1,2.0,2.0
2021-08-12 09:21:24.534,976.0,13.0,14.0,976.1869697962578,1,1,1,2.0,2.0
2021-08-12 09:21:24.535,976.0,13.0,61.0,977.9907975027168,1,1,1,2.0,2.0
2021-08-12 09:21:24.543,965.0,226.0,47.0,992.2247729219424,1,1,1,2.0,2.0
2021-08-12 09:21:24.552,1085.0,82.0,15.0,1088.1975923516832,1,1,1,2.0,2.0
2021-08-12 09:21:24.562,1044.0,-204.0,21.0,1063.9515966433812,1,1,1,2.0,2.0
2021-08-12 09:21:24.571,1022.0,-129.0,-32.0,1030.606132331843,1,1,1,2.0,2.0
2021-08-12 09:21:24.581,914.0,27.0,0.0,914.3987095353974,1,1,1,2.0,2.0
2021-08-12 09:21:24.591,909.0,27.0,0.0,909.4009016929772,1,1,1,2.0,2.0
2021-08-12 09:21:24.592,909.0,325.0,6.0,965.3714311082548,1,1,1,2.0,2.0
2021-08-12 09:21:24.606,1111.0,84.0,-35.0,1114.7205927944456,1,1,1,2.0,2.0
2021-08-12 09:21:24.635,990.0,56.0,-21.0,991.8049203346392,1,1,1,2.0,2.0
2021-08-12 09:21:24.637,904.0,56.0,-24.0,906.0507712043516,1,1,1,2.0,2.0
2021-08-12 09:21:24.670,991.0,196.0,14.0,1010.2935217054496,1,1,1,2.0,2.0
2021-08-12 09:21:24.672,938.0,51.0,57.0,941.1131706654626,1,1,1,2.0,2.0
2021-08-12 09:21:24.682,953.0,7.0,57.0,954.728757291829,1,1,1,2.0,2.0
2021-08-12 09:21:24.683,953.0,7.0,-4.0,953.0341022230002,1,1,1,2.0,2.0
2021-08-12 09:21:24.688,911.0,342.0,-11.0,973.1423328578404,1,1,1,2.0,2.0
2021-08-12 09:21:24.705,1117.0,342.0,-11.0,1168.235421479763,1,1,1,2.0,2.0
2021-08-12 09:21:24.706,1117.0,70.0,-29.0,1119.5668805390771,1,1,1,2.0,2.0
2021-08-12 09:21:24.711,960.0,29.0,-29.0,960.8756423179848,1,1,1,2.0,2.0
2021-08-12 09:21:24.712,960.0,29.0,-33.0,961.00468261086,1,1,1,2.0,2.0
2021-08-12 09:21:24.720,915.0,169.0,25.0,930.8120110956884,1,1,1,2.0,2.0
2021-08-12 09:21:24.734,949.0,169.0,25.0,964.2546344197676,1,1,1,2.0,2.0
2021-08-12 09:21:24.735,949.0,106.0,69.0,957.391247087626,1,1,1,2.0,2.0
2021-08-12 09:21:24.739,985.0,182.0,29.0,1002.0928100729992,1,1,1,2.0,2.0
2021-08-12 09:21:24.748,1108.0,96.0,31.0,1112.5830306094012,1,1,1,2.0,2.0
2021-08-12 09:21:24.759,966.0,-128.0,16.0,974.574779070339,1,1,1,2.0,2.0
2021-08-12 09:21:24.767,947.0,68.0,44.0,950.4572583761986,1,1,1,2.0,2.0
2021-08-12 09:21:24.776,1105.0,85.0,43.0,1109.098282389798,1,1,1,2.0,2.0
2021-08-12 09:21:24.786,1003.0,276.0,-13.0,1040.362436845929,1,1,1,2.0,2.0
2021-08-12 09:21:24.796,1092.0,31.0,-30.0,1092.851774029763,1,1,1,2.0,2.0
2021-08-12 09:21:24.806,975.0,18.0,-16.0,975.2973905430076,1,1,1,2.0,2.0
2021-08-12 09:21:24.817,874.0,206.0,2.0,897.9510008903604,1,1,1,2.0,2.0
2021-08-12 09:21:24.825,1054.0,142.0,-19.0,1063.6921547139473,1,1,1,2.0,2.0
2021-08-12 09:21:24.835,1032.0,189.0,22.0,1049.3945873693078,1,1,1,2.0,2.0
2021-08-12 09:21:24.845,1077.0,110.0,10.0,1082.6490659488882,1,1,1,2.0,2.0
2021-08-12 09:21:24.861,972.0,-73.0,25.0,975.057946995972,1,1,1,2.0,2.0
2021-08-12 09:21:24.866,936.0,109.0,25.0,942.6568834947316,1,1,1,2.0,2.0
2021-08-12 09:21:24.867,936.0,109.0,57.0,944.0476682879948,1,1,1,2.0,2.0
2021-08-12 09:21:24.874,1116.0,40.0,44.0,1117.5831065294428,1,1,1,2.0,2.0
2021-08-12 09:21:24.883,1131.0,40.0,44.0,1132.5621395755732,1,1,1,2.0,2.0
2021-08-12 09:21:24.884,1131.0,-112.0,25.0,1136.8069317170791,1,1,1,2.0,2.0
2021-08-12 09:21:24.893,1082.0,0.0,-23.0,1082.2444271050788,1,1,1,2.0,2.0
2021-08-12 09:21:24.904,975.0,16.0,-8.0,975.1640887563487,1,1,1,2.0,2.0
2021-08-12 09:21:24.914,888.0,213.0,0.0,913.1883704909956,1,1,1,2.0,2.0
2021-08-12 09:21:24.923,1058.0,138.0,0.0,1066.9620424363743,1,1,1,2.0,2.0
2021-08-12 09:21:24.924,1058.0,138.0,-23.0,1067.2099137470566,1,1,1,2.0,2.0
2021-08-12 09:21:24.932,1007.0,45.0,-33.0,1008.544991559623,1,1,1,2.0,2.0
2021-08-12 09:21:24.942,1071.0,91.0,22.0,1075.0841827503557,1,1,1,2.0,2.0
2021-08-12 09:21:24.952,965.0,-72.0,41.0,968.5504633213492,1,1,1,2.0,2.0
2021-08-12 09:21:24.963,911.0,129.0,47.0,921.2876857963532,1,1,1,2.0,2.0
2021-08-12 09:21:24.972,1124.0,63.0,40.0,1126.4745891497064,1,1,1,2.0,2.0
2021-08-12 09:21:24.981,1119.0,-155.0,29.0,1130.056193293059,1,1,1,2.0,2.0
2021-08-12 09:21:24.992,974.0,-109.0,26.0,980.4249078843316,1,1,1,2.0,2.0
2021-08-12 09:21:25.001,927.0,9.0,-5.0,927.0571719155188,1,1,1,2.0,2.0
2021-08-12 09:21:25.011,880.0,280.0,-5.0,923.4852462275724,1,1,1,2.0,2.0
2021-08-12 09:21:25.012,880.0,280.0,-11.0,923.5372217728964,1,1,1,2.0,2.0
2021-08-12 09:21:25.022,1078.0,112.0,-24.0,1084.068263533252,1,1,1,2.0,2.0
2021-08-12 09:21:25.031,1026.0,30.0,-43.0,1027.3387951401426,1,1,1,2.0,2.0
2021-08-12 09:21:25.040,939.0,-119.0,-12.0,946.5864989529484,1,1,1,2.0,2.0
2021-08-12 09:21:25.050,970.0,1.0,59.0,971.7931878748687,1,1,1,2.0,2.0
2021-08-12 09:21:25.060,950.0,183.0,43.0,968.420363272066,1,1,1,2.0,2.0
2021-08-12 09:21:25.071,1100.0,59.0,32.0,1102.0458248185507,1,1,1,2.0,2.0
2021-08-12 09:21:25.079,1065.0,-145.0,23.0,1075.07162552083,1,1,1,2.0,2.0
2021-08-12 09:21:25.089,955.0,-60.0,50.0,958.18839483684,1,1,1,2.0,2.0
2021-08-12 09:21:25.114,947.0,3.0,17.0,947.1573258968122,1,1,1,2.0,2.0
2021-08-12 09:21:25.115,909.0,326.0,2.0,965.691979877642,1,1,1,2.0,2.0
2021-08-12 09:21:25.118,1113.0,105.0,-31.0,1118.3715840453028,1,1,1,2.0,2.0
2021-08-12 09:21:25.128,973.0,56.0,-40.0,975.4306741127224,1,1,1,2.0,2.0
2021-08-12 09:21:25.137,922.0,56.0,-40.0,924.564762469347,1,1,1,2.0,2.0
2021-08-12 09:21:25.138,922.0,6.0,-10.0,922.0737497619158,1,1,1,2.0,2.0
2021-08-12 09:21:25.149,950.0,207.0,2.0,972.2926514172572,1,1,1,2.0,2.0
2021-08-12 09:21:25.157,977.0,213.0,29.0,1000.3694317600872,1,1,1,2.0,2.0
2021-08-12 09:21:25.167,1102.0,68.0,33.0,1104.5890638604023,1,1,1,2.0,2.0
2021-08-12 09:21:25.176,1054.0,-153.0,33.0,1065.5580697456146,1,1,1,2.0,2.0
2021-08-12 09:21:25.177,1054.0,-153.0,0.0,1065.0469473220417,1,1,1,2.0,2.0
2021-08-12 09:21:25.186,945.0,-67.0,0.0,947.372154963402,1,1,1,2.0,2.0
2021-08-12 09:21:25.187,945.0,-67.0,40.0,948.216220067976,1,1,1,2.0,2.0
2021-08-12 09:21:25.197,1065.0,79.0,37.0,1068.5667971633782,1,1,1,2.0,2.0
2021-08-12 09:21:25.207,1135.0,-7.0,22.0,1135.2347774799714,1,1,1,2.0,2.0
2021-08-12 09:21:25.216,1109.0,65.0,-37.0,1111.519230602872,1,1,1,2.0,2.0
2021-08-12 09:21:25.225,980.0,22.0,-24.0,980.5406671831618,1,1,1,2.0,2.0
2021-08-12 09:21:25.235,898.0,104.0,14.0,904.1106127017866,1,1,1,2.0,2.0
2021-08-12 09:21:25.245,962.0,167.0,-20.0,976.5925455378,1,1,1,2.0,2.0
2021-08-12 09:21:25.257,1079.0,30.0,-18.0,1079.567042846344,1,1,1,2.0,2.0
2021-08-12 09:21:25.265,1083.0,74.0,25.0,1085.8130594167671,1,1,1,2.0,2.0
2021-08-12 09:21:25.274,1008.0,-124.0,10.0,1015.6475766721446,1,1,1,2.0,2.0
2021-08-12 09:21:25.284,945.0,60.0,59.0,948.7391633109704,1,1,1,2.0,2.0
2021-08-12 09:21:25.294,1098.0,67.0,41.0,1100.8060682972273,1,1,1,2.0,2.0
2021-08-12 09:21:25.305,1131.0,-63.0,4.0,1132.760345351125,1,1,1,2.0,2.0
2021-08-12 09:21:25.314,1106.0,16.0,-26.0,1106.4212579302696,1,1,1,2.0,2.0
2021-08-12 09:21:25.323,965.0,59.0,-23.0,967.0754882634552,1,1,1,2.0,2.0
2021-08-12 09:21:25.333,907.0,180.0,16.0,924.8270108512186,1,1,1,2.0,2.0
2021-08-12 09:21:25.342,1011.0,180.0,16.0,1027.023368770156,1,1,1,2.0,2.0
2021-08-12 09:21:25.343,1011.0,124.0,-28.0,1018.9607450731356,1,1,1,2.0,2.0
2021-08-12 09:21:25.354,1059.0,28.0,-25.0,1059.6650414163903,1,1,1,2.0,2.0
2021-08-12 09:21:25.364,996.0,-201.0,0.0,1016.0792291942593,1,1,1,2.0,2.0
2021-08-12 09:21:25.372,987.0,-96.0,22.0,991.9017088401451,1,1,1,2.0,2.0
2021-08-12 09:21:25.382,922.0,86.0,43.0,927.0,1,1,1,2.0,2.0
2021-08-12 09:21:25.391,1111.0,71.0,43.0,1114.0964949231284,1,1,1,2.0,2.0
2021-08-12 09:21:25.392,1111.0,71.0,39.0,1113.9492807125466,1,1,1,2.0,2.0
2021-08-12 09:21:25.401,1148.0,71.0,39.0,1150.8544651692498,1,1,1,2.0,2.0
2021-08-12 09:21:25.402,1148.0,-123.0,45.0,1155.4470996112284,1,1,1,2.0,2.0
2021-08-12 09:21:25.412,965.0,-135.0,19.0,974.5824747039112,1,1,1,2.0,2.0
2021-08-12 09:21:25.421,974.0,35.0,-6.0,974.6471156269844,1,1,1,2.0,2.0
2021-08-12 09:21:25.430,889.0,189.0,19.0,909.0671042337854,1,1,1,2.0,2.0
2021-08-12 09:21:25.440,1040.0,114.0,-17.0,1046.3675262545182,1,1,1,2.0,2.0
2021-08-12 09:21:25.451,1048.0,12.0,-20.0,1048.2595098543109,1,1,1,2.0,2.0
2021-08-12 09:21:25.462,942.0,-164.0,-12.0,956.2447385476167,1,1,1,2.0,2.0
2021-08-12 09:21:25.471,958.0,138.0,38.0,968.6340898399149,1,1,1,2.0,2.0
2021-08-12 09:21:25.479,942.0,94.0,38.0,947.4407633197972,1,1,1,2.0,2.0
2021-08-12 09:21:25.480,942.0,94.0,67.0,949.0463634617648,1,1,1,2.0,2.0
2021-08-12 09:21:25.489,1102.0,62.0,45.0,1104.659676099386,1,1,1,2.0,2.0
2021-08-12 09:21:25.499,1121.0,-105.0,18.0,1126.050620531777,1,1,1,2.0,2.0
2021-08-12 09:21:25.509,960.0,-120.0,18.0,967.6383621994324,1,1,1,2.0,2.0
2021-08-12 09:21:25.510,960.0,-120.0,9.0,967.5127906131268,1,1,1,2.0,2.0
2021-08-12 09:21:25.520,1040.0,19.0,21.0,1040.3855054738124,1,1,1,2.0,2.0
2021-08-12 09:21:25.528,889.0,209.0,0.0,913.2370995530132,1,1,1,2.0,2.0
2021-08-12 09:21:25.546,1069.0,137.0,0.0,1077.7430120395122,1,1,1,2.0,2.0
2021-08-12 09:21:25.547,1069.0,137.0,-6.0,1077.7597134797718,1,1,1,2.0,2.0
2021-08-12 09:21:25.550,1020.0,35.0,-41.0,1021.4235164710084,1,1,1,2.0,2.0
2021-08-12 09:21:25.559,930.0,-131.0,-20.0,939.3939535679374,1,1,1,2.0,2.0
2021-08-12 09:21:25.568,959.0,160.0,-20.0,972.4613102843732,1,1,1,2.0,2.0
2021-08-12 09:21:25.569,959.0,160.0,7.0,972.280823630704,1,1,1,2.0,2.0
2021-08-12 09:21:25.578,1074.0,154.0,12.0,1085.051150868013,1,1,1,2.0,2.0
2021-08-12 09:21:25.586,1092.0,154.0,12.0,1102.870799323293,1,1,1,2.0,2.0
2021-08-12 09:21:25.587,1092.0,60.0,43.0,1094.4921196609869,1,1,1,2.0,2.0
2021-08-12 09:21:25.596,1087.0,60.0,43.0,1089.5035566715696,1,1,1,2.0,2.0
2021-08-12 09:21:25.597,1087.0,-154.0,26.0,1098.162556272977,1,1,1,2.0,2.0
2021-08-12 09:21:25.607,961.0,-114.0,33.0,968.3005731693028,1,1,1,2.0,2.0
2021-08-12 09:21:25.617,1047.0,51.0,30.0,1048.670586981441,1,1,1,2.0,2.0
2021-08-12 09:21:25.626,1101.0,95.0,12.0,1105.1560975717412,1,1,1,2.0,2.0
2021-08-12 09:21:25.635,1095.0,95.0,12.0,1099.1787843658556,1,1,1,2.0,2.0
2021-08-12 09:21:25.636,1095.0,110.0,-29.0,1100.8932736646182,1,1,1,2.0,2.0
2021-08-12 09:21:25.645,1012.0,65.0,-35.0,1014.6891149509784,1,1,1,2.0,2.0
2021-08-12 09:21:25.656,915.0,-45.0,-30.0,916.5969670471312,1,1,1,2.0,2.0
2021-08-12 09:21:25.670,951.0,-45.0,-30.0,952.5366134695296,1,1,1,2.0,2.0
2021-08-12 09:21:25.671,951.0,191.0,20.0,970.1968872347508,1,1,1,2.0,2.0
2021-08-12 09:21:25.678,961.0,57.0,-30.0,963.156269771422,1,1,1,2.0,2.0
2021-08-12 09:21:25.685,1043.0,-137.0,-7.0,1051.982414301684,1,1,1,2.0,2.0
2021-08-12 09:21:25.694,1052.0,-142.0,9.0,1061.5785416067904,1,1,1,2.0,2.0
2021-08-12 09:21:25.704,960.0,-51.0,48.0,962.5512973343292,1,1,1,2.0,2.0
2021-08-12 09:21:25.721,1049.0,61.0,27.0,1051.1189276195153,1,1,1,2.0,2.0
2021-08-12 09:21:25.726,1144.0,14.0,27.0,1144.4042118063005,1,1,1,2.0,2.0
2021-08-12 09:21:25.733,1011.0,-145.0,-6.0,1021.3628150662232,1,1,1,2.0,2.0
2021-08-12 09:21:25.750,963.0,14.0,-31.0,963.6005396428544,1,1,1,2.0,2.0
2021-08-12 09:21:25.754,923.0,87.0,0.0,927.091149779783,1,1,1,2.0,2.0
2021-08-12 09:21:25.762,977.0,87.0,0.0,980.8659439495289,1,1,1,2.0,2.0
2021-08-12 09:21:25.763,977.0,151.0,10.0,988.650595508848,1,1,1,2.0,2.0
2021-08-12 09:21:25.772,1071.0,63.0,4.0,1072.8587977921418,1,1,1,2.0,2.0
2021-08-12 09:21:25.783,1025.0,-234.0,-20.0,1051.5612202815394,1,1,1,2.0,2.0
2021-08-12 09:21:25.792,962.0,81.0,65.0,967.5897891152016,1,1,1,2.0,2.0
2021-08-12 09:21:25.802,958.0,-35.0,47.0,959.7906021627842,1,1,1,2.0,2.0
2021-08-12 09:21:25.811,1091.0,60.0,47.0,1093.658996214085,1,1,1,2.0,2.0
2021-08-12 09:21:25.821,1149.0,-45.0,23.0,1150.1108642213585,1,1,1,2.0,2.0
2021-08-12 09:21:25.832,998.0,-160.0,-10.0,1010.7937475073736,1,1,1,2.0,2.0
2021-08-12 09:21:25.841,949.0,24.0,18.0,949.4740649433244,1,1,1,2.0,2.0
2021-08-12 09:21:25.852,858.0,195.0,40.0,880.7888509739437,1,1,1,2.0,2.0
2021-08-12 09:21:25.864,1009.0,151.0,-16.0,1020.36170057485,1,1,1,2.0,2.0
2021-08-12 09:21:25.870,1109.0,17.0,-41.0,1109.8878321704406,1,1,1,2.0,2.0
2021-08-12 09:21:25.881,1013.0,-199.0,-26.0,1032.688723672337,1,1,1,2.0,2.0
2021-08-12 09:21:25.890,973.0,106.0,65.0,980.912840164711,1,1,1,2.0,2.0
2021-08-12 09:21:25.900,997.0,236.0,28.0,1024.9336563895245,1,1,1,2.0,2.0
2021-08-12 09:21:25.909,1098.0,44.0,48.0,1099.929088623444,1,1,1,2.0,2.0
2021-08-12 09:21:25.919,1130.0,-101.0,20.0,1134.6810124435854,1,1,1,2.0,2.0
2021-08-12 09:21:25.929,980.0,-181.0,-6.0,996.5926951367844,1,1,1,2.0,2.0
2021-08-12 09:21:25.939,928.0,44.0,3.0,929.0473615483766,1,1,1,2.0,2.0
2021-08-12 09:21:25.949,1017.0,237.0,-13.0,1044.3308862616293,1,1,1,2.0,2.0
2021-08-12 09:21:25.958,1038.0,150.0,-3.0,1048.7864415599583,1,1,1,2.0,2.0
2021-08-12 09:21:25.967,1070.0,19.0,-3.0,1070.172883229621,1,1,1,2.0,2.0
2021-08-12 09:21:25.968,1070.0,19.0,-30.0,1070.58909017419,1,1,1,2.0,2.0
2021-08-12 09:21:25.977,971.0,-197.0,-12.0,990.855186190192,1,1,1,2.0,2.0
2021-08-12 09:21:25.987,951.0,149.0,40.0,963.4324055168582,1,1,1,2.0,2.0
2021-08-12 09:21:25.997,1035.0,238.0,16.0,1062.1322893124002,1,1,1,2.0,2.0
2021-08-12 09:21:26.007,1089.0,66.0,14.0,1091.0879891191178,1,1,1,2.0,2.0
2021-08-12 09:21:26.017,1135.0,-106.0,31.0,1140.3604693253797,1,1,1,2.0,2.0
2021-08-12 09:21:26.026,967.0,-139.0,-3.0,976.9437035981142,1,1,1,2.0,2.0
2021-08-12 09:21:26.036,990.0,34.0,18.0,990.747192779268,1,1,1,2.0,2.0
2021-08-12 09:21:26.046,1030.0,259.0,-2.0,1062.066382106128,1,1,1,2.0,2.0
2021-08-12 09:21:26.056,1101.0,-40.0,-38.0,1102.3815129073964,1,1,1,2.0,2.0
2021-08-12 09:21:26.072,1033.0,32.0,-39.0,1034.2311153702542,1,1,1,2.0,2.0
2021-08-12 09:21:26.075,951.0,-144.0,-5.0,961.8534191861044,1,1,1,2.0,2.0
2021-08-12 09:21:26.086,916.0,152.0,40.0,929.386894678422,1,1,1,2.0,2.0
2021-08-12 09:21:26.096,1095.0,174.0,24.0,1108.9981965720233,1,1,1,2.0,2.0
2021-08-12 09:21:26.104,1057.0,36.0,18.0,1057.7660421851326,1,1,1,2.0,2.0
2021-08-12 09:21:26.114,978.0,-81.0,71.0,983.9136140942456,1,1,1,2.0,2.0
2021-08-12 09:21:26.136,1018.0,41.0,15.0,1018.9357192679036,1,1,1,2.0,2.0
2021-08-12 09:21:26.144,1050.0,189.0,-17.0,1067.0098406294103,1,1,1,2.0,2.0
2021-08-12 09:21:26.155,1058.0,-93.0,-30.0,1062.50317646584,1,1,1,2.0,2.0
2021-08-12 09:21:26.163,948.0,24.0,0.0,948.3037488062567,1,1,1,2.0,2.0
2021-08-12 09:21:26.173,899.0,241.0,-15.0,930.8635775450664,1,1,1,2.0,2.0
2021-08-12 09:21:26.182,962.0,241.0,-15.0,991.8417212438686,1,1,1,2.0,2.0
2021-08-12 09:21:26.183,962.0,146.0,14.0,973.1166425460002,1,1,1,2.0,2.0
2021-08-12 09:21:26.192,1082.0,146.0,14.0,1091.8955994049982,1,1,1,2.0,2.0
2021-08-12 09:21:26.193,1082.0,136.0,22.0,1090.7355316482542,1,1,1,2.0,2.0
2021-08-12 09:21:26.203,1075.0,-20.0,23.0,1075.4320062188965,1,1,1,2.0,2.0
2021-08-12 09:21:26.212,972.0,-7.0,62.0,974.0005133468871,1,1,1,2.0,2.0
2021-08-12 09:21:26.221,952.0,181.0,46.0,970.1448345479145,1,1,1,2.0,2.0
2021-08-12 09:21:26.231,1020.0,57.0,16.0,1021.716692630594,1,1,1,2.0,2.0
2021-08-12 09:21:26.241,1070.0,153.0,23.0,1081.128114517424,1,1,1,2.0,2.0
2021-08-12 09:21:26.252,1027.0,-140.0,-42.0,1037.3490251598062,1,1,1,2.0,2.0
2021-08-12 09:21:26.261,944.0,6.0,0.0,944.0190676040396,1,1,1,2.0,2.0
2021-08-12 09:21:26.272,935.0,284.0,-5.0,977.1929185171166,1,1,1,2.0,2.0
2021-08-12 09:21:26.281,953.0,284.0,-5.0,994.4294846795324,1,1,1,2.0,2.0
2021-08-12 09:21:26.282,953.0,194.0,3.0,972.550255770878,1,1,1,2.0,2.0
2021-08-12 09:21:26.290,1088.0,128.0,8.0,1095.5327471143892,1,1,1,2.0,2.0
2021-08-12 09:21:26.299,1036.0,128.0,8.0,1043.9080419270656,1,1,1,2.0,2.0
2021-08-12 09:21:26.300,1036.0,-71.0,31.0,1038.8926797316458,1,1,1,2.0,2.0
2021-08-12 09:21:26.310,976.0,-71.0,31.0,979.069966856302,1,1,1,2.0,2.0
2021-08-12 09:21:26.311,976.0,-20.0,72.0,978.8564756898736,1,1,1,2.0,2.0
2021-08-12 09:21:26.319,973.0,171.0,49.0,989.1263822181674,1,1,1,2.0,2.0
2021-08-12 09:21:26.330,1103.0,52.0,23.0,1104.464576163491,1,1,1,2.0,2.0
2021-08-12 09:21:26.339,1108.0,78.0,48.0,1111.7787549688112,1,1,1,2.0,2.0
2021-08-12 09:21:26.348,1015.0,-132.0,48.0,1024.6721426876013,1,1,1,2.0,2.0
2021-08-12 09:21:26.349,1015.0,-132.0,-20.0,1023.7426434412116,1,1,1,2.0,2.0
2021-08-12 09:21:26.359,943.0,3.0,-1.0,943.0053022120288,1,1,1,2.0,2.0
2021-08-12 09:21:26.368,901.0,329.0,7.0,959.2137405187648,1,1,1,2.0,2.0
2021-08-12 09:21:26.378,1122.0,87.0,-26.0,1125.6682459765843,1,1,1,2.0,2.0
2021-08-12 09:21:26.388,991.0,40.0,-26.0,992.1476704604008,1,1,1,2.0,2.0
2021-08-12 09:21:26.389,991.0,40.0,-26.0,992.1476704604008,1,1,1,2.0,2.0
2021-08-12 09:21:26.397,1046.0,-148.0,4.0,1056.42605041716,1,1,1,2.0,2.0
2021-08-12 09:21:26.408,964.0,46.0,77.0,968.163725823272,1,1,1,2.0,2.0
2021-08-12 09:21:26.417,987.0,229.0,47.0,1014.3071526909392,1,1,1,2.0,2.0
2021-08-12 09:21:26.426,1108.0,59.0,47.0,1110.5647212116903,1,1,1,2.0,2.0
2021-08-12 09:21:26.427,1108.0,59.0,28.0,1109.9229703001915,1,1,1,2.0,2.0
2021-08-12 09:21:26.438,994.0,-141.0,2.0,1003.9526881282804,1,1,1,2.0,2.0
2021-08-12 09:21:26.446,986.0,-169.0,-9.0,1000.4189122562608,1,1,1,2.0,2.0
2021-08-12 09:21:26.456,955.0,31.0,-4.0,955.5113814078826,1,1,1,2.0,2.0
2021-08-12 09:21:26.466,935.0,282.0,-12.0,976.6744595821066,1,1,1,2.0,2.0
2021-08-12 09:21:26.476,1095.0,282.0,-12.0,1130.7930845207711,1,1,1,2.0,2.0
2021-08-12 09:21:26.477,1095.0,56.0,-24.0,1096.6936673474504,1,1,1,2.0,2.0
2021-08-12 09:21:26.486,961.0,57.0,-25.0,963.0134993861716,1,1,1,2.0,2.0
2021-08-12 09:21:26.495,901.0,201.0,39.0,923.9713199012186,1,1,1,2.0,2.0
2021-08-12 09:21:26.504,978.0,201.0,39.0,999.2026821421168,1,1,1,2.0,2.0
2021-08-12 09:21:26.505,978.0,90.0,70.0,984.623786021849,1,1,1,2.0,2.0
2021-08-12 09:21:26.515,1007.0,246.0,44.0,1037.54566164579,1,1,1,2.0,2.0
2021-08-12 09:21:26.524,1095.0,66.0,44.0,1097.8693000535172,1,1,1,2.0,2.0
2021-08-12 09:21:26.525,1095.0,66.0,17.0,1097.1189543527173,1,1,1,2.0,2.0
2021-08-12 09:21:26.535,961.0,-72.0,29.0,964.1296593301132,1,1,1,2.0,2.0
2021-08-12 09:21:26.543,971.0,-72.0,29.0,974.0975310511776,1,1,1,2.0,2.0
2021-08-12 09:21:26.544,971.0,53.0,38.0,973.1875461595264,1,1,1,2.0,2.0
2021-08-12 09:21:26.561,961.0,24.0,18.0,961.4681481983686,1,1,1,2.0,2.0
2021-08-12 09:21:26.565,959.0,286.0,-29.0,1001.1583291368054,1,1,1,2.0,2.0
2021-08-12 09:21:26.574,1103.0,-8.0,-28.0,1103.3843392037063,1,1,1,2.0,2.0
2021-08-12 09:21:26.584,960.0,40.0,-16.0,960.9661804663054,1,1,1,2.0,2.0
2021-08-12 09:21:26.593,894.0,159.0,26.0,908.401343019703,1,1,1,2.0,2.0
2021-08-12 09:21:26.602,944.0,136.0,47.0,954.9036600621027,1,1,1,2.0,2.0
2021-08-12 09:21:26.612,1046.0,237.0,22.0,1072.7390176552728,1,1,1,2.0,2.0
2021-08-12 09:21:26.622,1069.0,79.0,22.0,1072.140848955957,1,1,1,2.0,2.0
2021-08-12 09:21:26.623,1069.0,79.0,15.0,1072.02005578254,1,1,1,2.0,2.0
2021-08-12 09:21:26.632,957.0,-79.0,28.0,960.663312508602,1,1,1,2.0,2.0
2021-08-12 09:21:26.641,958.0,80.0,61.0,963.2678755154247,1,1,1,2.0,2.0
2021-08-12 09:21:26.651,1124.0,52.0,41.0,1125.948933122635,1,1,1,2.0,2.0
2021-08-12 09:21:26.661,1021.0,215.0,-16.0,1043.5142548139916,1,1,1,2.0,2.0
2021-08-12 09:21:26.671,1076.0,-48.0,-32.0,1077.545358674056,1,1,1,2.0,2.0
2021-08-12 09:21:26.684,957.0,31.0,2.0,957.5040469888364,1,1,1,2.0,2.0
2021-08-12 09:21:26.691,903.0,148.0,-13.0,915.1404263827492,1,1,1,2.0,2.0
2021-08-12 09:21:26.700,1054.0,129.0,-12.0,1061.9326720654187,1,1,1,2.0,2.0
2021-08-12 09:21:26.710,1076.0,186.0,15.0,1092.060895737962,1,1,1,2.0,2.0
2021-08-12 09:21:26.720,1064.0,43.0,17.0,1065.0042253437307,1,1,1,2.0,2.0
2021-08-12 09:21:26.736,968.0,-58.0,45.0,970.7795836336898,1,1,1,2.0,2.0
2021-08-12 09:21:26.740,939.0,110.0,50.0,946.7423091845004,1,1,1,2.0,2.0
2021-08-12 09:21:26.749,1123.0,52.0,47.0,1125.1853180698724,1,1,1,2.0,2.0
2021-08-12 09:21:26.765,1106.0,-138.0,20.0,1114.7555785911095,1,1,1,2.0,2.0
2021-08-12 09:21:26.768,1063.0,-138.0,20.0,1072.1068043809814,1,1,1,2.0,2.0
2021-08-12 09:21:26.769,1063.0,-30.0,-32.0,1063.9046009863855,1,1,1,2.0,2.0
2021-08-12 09:21:26.778,954.0,30.0,0.0,954.4715815570414,1,1,1,2.0,2.0
2021-08-12 09:21:26.788,919.0,203.0,-10.0,941.2066723095412,1,1,1,2.0,2.0
2021-08-12 09:21:26.799,1072.0,98.0,-9.0,1076.507779813969,1,1,1,2.0,2.0
2021-08-12 09:21:26.807,1026.0,62.0,-35.0,1028.4673062377822,1,1,1,2.0,2.0
2021-08-12 09:21:26.817,927.0,-74.0,-31.0,930.4654749102732,1,1,1,2.0,2.0
2021-08-12 09:21:26.827,995.0,-63.0,-31.0,997.4743104461388,1,1,1,2.0,2.0
2021-08-12 09:21:26.828,995.0,-63.0,71.0,999.5173835406766,1,1,1,2.0,2.0
2021-08-12 09:21:26.837,941.0,137.0,50.0,952.2342148862328,1,1,1,2.0,2.0
2021-08-12 09:21:26.847,1110.0,71.0,33.0,1112.7578352903204,1,1,1,2.0,2.0
2021-08-12 09:21:26.856,1062.0,-119.0,28.0,1069.0130962715098,1,1,1,2.0,2.0
2021-08-12 09:21:26.872,964.0,-48.0,29.0,965.629846266156,1,1,1,2.0,2.0
2021-08-12 09:21:26.876,944.0,-1.0,7.0,944.0264826793792,1,1,1,2.0,2.0
2021-08-12 09:21:26.886,880.0,302.0,-2.0,930.3805672949107,1,1,1,2.0,2.0
2021-08-12 09:21:26.896,1123.0,82.0,-34.0,1126.502996001342,1,1,1,2.0,2.0
2021-08-12 09:21:26.905,1025.0,44.0,-34.0,1026.507184582748,1,1,1,2.0,2.0
2021-08-12 09:21:26.915,927.0,22.0,-20.0,927.476684343062,1,1,1,2.0,2.0
2021-08-12 09:21:26.925,936.0,162.0,5.0,949.9289447111296,1,1,1,2.0,2.0
2021-08-12 09:21:26.935,995.0,167.0,33.0,1009.4567846123972,1,1,1,2.0,2.0
2021-08-12 09:21:26.945,1093.0,72.0,35.0,1095.9279173376322,1,1,1,2.0,2.0
2021-08-12 09:21:26.954,1043.0,-208.0,-19.0,1063.707666607701,1,1,1,2.0,2.0
2021-08-12 09:21:26.963,956.0,-208.0,-19.0,978.550458586577,1,1,1,2.0,2.0
2021-08-12 09:21:26.964,956.0,-30.0,47.0,957.624665513582,1,1,1,2.0,2.0
2021-08-12 09:21:26.973,1079.0,53.0,47.0,1081.3228010173466,1,1,1,2.0,2.0
2021-08-12 09:21:26.974,1079.0,53.0,55.0,1081.7000508458896,1,1,1,2.0,2.0
2021-08-12 09:21:26.983,920.0,53.0,55.0,923.1652073166536,1,1,1,2.0,2.0
2021-08-12 09:21:26.984,920.0,340.0,2.0,980.8180259354943,1,1,1,2.0,2.0
2021-08-12 09:21:26.996,1128.0,60.0,-28.0,1129.9415914108126,1,1,1,2.0,2.0
2021-08-12 09:21:27.004,977.0,40.0,-31.0,978.3097668939016,1,1,1,2.0,2.0
2021-08-12 09:21:27.012,891.0,142.0,-31.0,902.7768273499272,1,1,1,2.0,2.0
2021-08-12 09:21:27.013,891.0,142.0,27.0,902.6483257614784,1,1,1,2.0,2.0
2021-08-12 09:21:27.023,932.0,185.0,27.0,950.5671990974652,1,1,1,2.0,2.0
2021-08-12 09:21:27.024,932.0,185.0,-26.0,950.5393205964706,1,1,1,2.0,2.0
2021-08-12 09:21:27.032,1001.0,185.0,-26.0,1018.2838504071444,1,1,1,2.0,2.0
2021-08-12 09:21:27.033,1001.0,235.0,31.0,1028.6821666579042,1,1,1,2.0,2.0
2021-08-12 09:21:27.042,1108.0,69.0,10.0,1110.1914249353576,1,1,1,2.0,2.0
2021-08-12 09:21:27.053,1021.0,-123.0,11.0,1028.4410532451532,1,1,1,2.0,2.0
2021-08-12 09:21:27.061,921.0,58.0,46.0,923.9702376159094,1,1,1,2.0,2.0
2021-08-12 09:21:27.071,1084.0,58.0,40.0,1086.2872548271937,1,1,1,2.0,2.0
2021-08-12 09:21:27.082,1155.0,-59.0,32.0,1156.9485727550727,1,1,1,2.0,2.0
2021-08-12 09:21:27.091,1126.0,13.0,-19.0,1126.2353217689454,1,1,1,2.0,2.0
2021-08-12 09:21:27.101,957.0,17.0,-19.0,957.3395426910976,1,1,1,2.0,2.0
2021-08-12 09:21:27.102,957.0,17.0,-24.0,957.4518264643918,1,1,1,2.0,2.0
2021-08-12 09:21:27.110,894.0,223.0,64.0,923.6130142002114,1,1,1,2.0,2.0
2021-08-12 09:21:27.120,1014.0,136.0,-12.0,1023.150037873234,1,1,1,2.0,2.0
2021-08-12 09:21:27.142,1084.0,136.0,-12.0,1092.563956937991,1,1,1,2.0,2.0
2021-08-12 09:21:27.143,1084.0,-2.0,-42.0,1084.8151916340405,1,1,1,2.0,2.0
2021-08-12 09:21:27.144,1102.0,28.0,21.0,1102.555667528855,1,1,1,2.0,2.0
2021-08-12 09:21:27.149,974.0,-134.0,34.0,983.7621663796592,1,1,1,2.0,2.0
2021-08-12 09:21:27.160,924.0,66.0,69.0,928.9203410411466,1,1,1,2.0,2.0
2021-08-12 09:21:27.169,1136.0,57.0,44.0,1138.27984256948,1,1,1,2.0,2.0
2021-08-12 09:21:27.179,1127.0,-157.0,17.0,1138.0101054032868,1,1,1,2.0,2.0
2021-08-12 09:21:27.189,969.0,-157.0,17.0,981.7835810401394,1,1,1,2.0,2.0
2021-08-12 09:21:27.190,969.0,-166.0,15.0,983.2303900917628,1,1,1,2.0,2.0
2021-08-12 09:21:27.198,953.0,18.0,-20.0,953.3797774234567,1,1,1,2.0,2.0
2021-08-12 09:21:27.208,890.0,154.0,14.0,903.3338253381194,1,1,1,2.0,2.0
2021-08-12 09:21:27.218,1039.0,149.0,-13.0,1049.7099599413164,1,1,1,2.0,2.0
2021-08-12 09:21:27.227,1033.0,24.0,-13.0,1033.3605372763177,1,1,1,2.0,2.0
2021-08-12 09:21:27.228,1033.0,24.0,-40.0,1034.0527065870483,1,1,1,2.0,2.0
2021-08-12 09:21:27.238,974.0,24.0,-40.0,975.1164033078308,1,1,1,2.0,2.0
2021-08-12 09:21:27.239,974.0,-122.0,3.0,981.6155051750152,1,1,1,2.0,2.0
2021-08-12 09:21:27.247,981.0,-35.0,39.0,982.3985952758686,1,1,1,2.0,2.0
2021-08-12 09:21:27.256,938.0,-35.0,39.0,939.4626123481444,1,1,1,2.0,2.0
2021-08-12 09:21:27.257,938.0,63.0,53.0,941.6060747467596,1,1,1,2.0,2.0
2021-08-12 09:21:27.269,1130.0,19.0,53.0,1131.4017853972125,1,1,1,2.0,2.0
2021-08-12 09:21:27.270,1130.0,19.0,49.0,1131.2214637284778,1,1,1,2.0,2.0
2021-08-12 09:21:27.276,1123.0,-127.0,22.0,1130.3725049734712,1,1,1,2.0,2.0
2021-08-12 09:21:27.286,972.0,-130.0,20.0,980.8588073723964,1,1,1,2.0,2.0
2021-08-12 09:21:27.296,976.0,-130.0,20.0,984.8228267053928,1,1,1,2.0,2.0
2021-08-12 09:21:27.297,976.0,49.0,-2.0,977.2312929905592,1,1,1,2.0,2.0
2021-08-12 09:21:27.305,878.0,159.0,-2.0,892.2830268474236,1,1,1,2.0,2.0
2021-08-12 09:21:27.306,878.0,159.0,-7.0,892.3082427054005,1,1,1,2.0,2.0
2021-08-12 09:21:27.316,1041.0,169.0,0.0,1054.628844665269,1,1,1,2.0,2.0
2021-08-12 09:21:27.325,1020.0,43.0,-43.0,1021.8111371481524,1,1,1,2.0,2.0
2021-08-12 09:21:27.335,929.0,-101.0,2.0,934.4763239376372,1,1,1,2.0,2.0
2021-08-12 09:21:27.345,944.0,148.0,20.0,955.7405505679876,1,1,1,2.0,2.0
2021-08-12 09:21:27.355,951.0,62.0,50.0,954.3296076304036,1,1,1,2.0,2.0
2021-08-12 09:21:27.364,1100.0,56.0,42.0,1102.2250223978767,1,1,1,2.0,2.0
2021-08-12 09:21:27.374,1102.0,-119.0,39.0,1109.0924217575375,1,1,1,2.0,2.0
2021-08-12 09:21:27.384,970.0,-94.0,30.0,975.0056410093224,1,1,1,2.0,2.0
2021-08-12 09:21:27.394,1030.0,28.0,13.0,1030.4625175133738,1,1,1,2.0,2.0
2021-08-12 09:21:27.404,1059.0,230.0,14.0,1083.779036519899,1,1,1,2.0,2.0
2021-08-12 09:21:27.413,1088.0,137.0,1.0,1096.591993405022,1,1,1,2.0,2.0
2021-08-12 09:21:27.423,1009.0,56.0,-50.0,1011.7890096260188,1,1,1,2.0,2.0
2021-08-12 09:21:27.432,940.0,-68.0,-30.0,942.9337198340082,1,1,1,2.0,2.0
2021-08-12 09:21:27.442,943.0,-68.0,-30.0,945.9244155850932,1,1,1,2.0,2.0
2021-08-12 09:21:27.443,943.0,236.0,20.0,972.2885374208626,1,1,1,2.0,2.0
2021-08-12 09:21:27.453,1054.0,202.0,-9.0,1073.219921544508,1,1,1,2.0,2.0
2021-08-12 09:21:27.462,1043.0,-43.0,22.0,1044.117809444892,1,1,1,2.0,2.0
2021-08-12 09:21:27.472,1087.0,-151.0,18.0,1097.5855319746156,1,1,1,2.0,2.0
2021-08-12 09:21:27.481,973.0,-55.0,19.0,974.738426450912,1,1,1,2.0,2.0
2021-08-12 09:21:27.492,1060.0,-101.0,16.0,1064.9211238396954,1,1,1,2.0,2.0
2021-08-12 09:21:27.501,990.0,-103.0,-9.0,995.3843478777432,1,1,1,2.0,2.0
2021-08-12 09:21:27.511,1034.0,157.0,23.0,1046.104201310749,1,1,1,2.0,2.0
2021-08-12 09:21:27.520,972.0,93.0,-20.0,976.643742620614,1,1,1,2.0,2.0
2021-08-12 09:21:27.531,1063.0,40.0,-5.0,1063.7640715873044,1,1,1,2.0,2.0
2021-08-12 09:21:27.540,1030.0,14.0,-13.0,1030.177169228672,1,1,1,2.0,2.0
2021-08-12 09:21:27.550,958.0,22.0,-29.0,958.6912954648122,1,1,1,2.0,2.0
2021-08-12 09:21:27.560,1046.0,115.0,36.0,1052.9183254175036,1,1,1,2.0,2.0
2021-08-12 09:21:27.576,1004.0,43.0,11.0,1004.9805968276204,1,1,1,2.0,2.0
2021-08-12 09:21:27.580,984.0,35.0,4.0,984.6303875058904,1,1,1,2.0,2.0
2021-08-12 09:21:27.590,1078.0,40.0,49.0,1079.8541568193364,1,1,1,2.0,2.0
2021-08-12 09:21:27.599,1004.0,40.0,49.0,1005.990556615717,1,1,1,2.0,2.0
2021-08-12 09:21:27.600,1004.0,38.0,2.0,1004.720856755746,1,1,1,2.0,2.0
2021-08-12 09:21:27.608,985.0,85.0,11.0,988.7219022556344,1,1,1,2.0,2.0
2021-08-12 09:21:27.618,995.0,16.0,2.0,995.1306446894296,1,1,1,2.0,2.0
2021-08-12 09:21:27.628,1034.0,48.0,10.0,1035.161823098205,1,1,1,2.0,2.0
2021-08-12 09:21:27.638,976.0,56.0,-3.0,977.609840376006,1,1,1,2.0,2.0
2021-08-12 09:21:27.648,1017.0,20.0,8.0,1017.2280963481102,1,1,1,2.0,2.0
2021-08-12 09:21:27.657,986.0,36.0,8.0,986.689414152194,1,1,1,2.0,2.0
2021-08-12 09:21:27.658,986.0,36.0,-2.0,986.6590089792928,1,1,1,2.0,2.0
2021-08-12 09:21:27.667,1022.0,26.0,17.0,1022.4720045067248,1,1,1,2.0,2.0
2021-08-12 09:21:27.680,1023.0,49.0,13.0,1024.2553392587222,1,1,1,2.0,2.0
2021-08-12 09:21:27.687,995.0,40.0,5.0,995.8162481100616,1,1,1,2.0,2.0
2021-08-12 09:21:27.698,1010.0,28.0,10.0,1010.4375289942471,1,1,1,2.0,2.0
2021-08-12 09:21:27.707,1020.0,51.0,10.0,1021.323161394081,1,1,1,2.0,2.0
2021-08-12 09:21:27.708,1020.0,51.0,11.0,1021.33344212358,1,1,1,2.0,2.0
2021-08-12 09:21:27.716,1008.0,42.0,13.0,1008.9583737697012,1,1,1,2.0,2.0
2021-08-12 09:21:27.725,1000.0,52.0,13.0,1001.435469713351,1,1,1,2.0,2.0
2021-08-12 09:21:27.726,1000.0,52.0,5.0,1001.3635703379668,1,1,1,2.0,2.0
