time_stamp,Acceleration_X,Acceleration_Y,Acceleration_Z,magnitude,STD_Status_right,STD_Status_left,STD_Status_both,KMeans,KMeans_convert
2021-08-12 09:22:05.901,1138.0,470.0,89.0,1234.4492699175612,1,1,1,3.0,2.0
2021-08-12 09:22:05.909,1013.0,-41.0,-88.0,1017.6413906676556,1,1,1,3.0,2.0
2021-08-12 09:22:05.919,927.0,-274.0,-42.0,967.5582669793072,1,1,1,3.0,2.0
2021-08-12 09:22:05.929,945.0,399.0,95.0,1030.1703742585496,1,1,1,3.0,2.0
2021-08-12 09:22:05.938,964.0,200.0,63.0,986.541940314754,1,1,1,3.0,2.0
2021-08-12 09:22:05.949,1118.0,223.0,16.0,1140.1355182608777,1,1,1,3.0,2.0
2021-08-12 09:22:05.958,1039.0,62.0,21.0,1041.0600366933695,1,1,1,3.0,2.0
2021-08-12 09:22:05.967,974.0,-82.0,21.0,977.6712126272308,1,1,1,3.0,2.0
2021-08-12 09:22:05.968,974.0,-82.0,39.0,978.2233896201828,1,1,1,3.0,2.0
2021-08-12 09:22:05.977,828.0,263.0,39.0,869.640155466616,1,1,1,3.0,2.0
2021-08-12 09:22:05.978,828.0,263.0,50.0,870.202849914892,1,1,1,3.0,2.0
2021-08-12 09:22:05.986,1188.0,81.0,79.0,1193.375883785155,1,1,1,3.0,2.0
2021-08-12 09:22:05.997,1126.0,245.0,79.0,1155.050648240154,1,1,1,3.0,2.0
2021-08-12 09:22:05.998,1126.0,245.0,26.0,1152.6391456132314,1,1,1,3.0,2.0
2021-08-12 09:22:06.007,1104.0,-37.0,-35.0,1105.174194414618,1,1,1,3.0,2.0
2021-08-12 09:22:06.019,982.0,22.0,-10.0,982.297307336226,1,1,1,3.0,2.0
2021-08-12 09:22:06.026,852.0,333.0,-10.0,914.81856124589,1,1,1,3.0,2.0
2021-08-12 09:22:06.027,852.0,333.0,14.0,914.8710291620343,1,1,1,3.0,2.0
2021-08-12 09:22:06.036,1062.0,147.0,-35.0,1072.6966020268733,1,1,1,3.0,2.0
2021-08-12 09:22:06.046,1056.0,147.0,-35.0,1066.7567670279857,1,1,1,3.0,2.0
2021-08-12 09:22:06.047,1056.0,-12.0,-40.0,1056.8254349702224,1,1,1,3.0,2.0
2021-08-12 09:22:06.057,1080.0,100.0,17.0,1084.752967269507,1,1,1,3.0,2.0
2021-08-12 09:22:06.065,950.0,-74.0,25.0,953.2056441293242,1,1,1,3.0,2.0
2021-08-12 09:22:06.075,861.0,263.0,77.0,903.5590738850448,1,1,1,3.0,2.0
2021-08-12 09:22:06.085,1139.0,72.0,54.0,1142.55021771474,1,1,1,3.0,2.0
2021-08-12 09:22:06.094,1128.0,-147.0,54.0,1138.8191252345564,1,1,1,3.0,2.0
2021-08-12 09:22:06.095,1128.0,-147.0,31.0,1137.9604562549614,1,1,1,3.0,2.0
2021-08-12 09:22:06.105,1100.0,-48.0,-30.0,1101.4554008220214,1,1,1,3.0,2.0
2021-08-12 09:22:06.115,934.0,19.0,-8.0,934.2274883560214,1,1,1,3.0,2.0
2021-08-12 09:22:06.124,810.0,338.0,-1.0,877.6929987188003,1,1,1,3.0,2.0
2021-08-12 09:22:06.134,1080.0,132.0,-55.0,1089.4259956509206,1,1,1,3.0,2.0
2021-08-12 09:22:06.143,1072.0,-12.0,-49.0,1073.1863771032504,1,1,1,3.0,2.0
2021-08-12 09:22:06.154,1102.0,22.0,11.0,1102.2744667277746,1,1,1,3.0,2.0
2021-08-12 09:22:06.163,948.0,-20.0,63.0,950.30153109421,1,1,1,3.0,2.0
2021-08-12 09:22:06.173,873.0,324.0,70.0,933.812079596318,1,1,1,3.0,2.0
2021-08-12 09:22:06.183,1115.0,29.0,70.0,1117.5714742243558,1,1,1,3.0,2.0
2021-08-12 09:22:06.184,1115.0,29.0,39.0,1116.0586902130192,1,1,1,3.0,2.0
2021-08-12 09:22:06.192,1098.0,29.0,39.0,1099.075065680229,1,1,1,3.0,2.0
2021-08-12 09:22:06.193,1098.0,-145.0,61.0,1109.211431603551,1,1,1,3.0,2.0
2021-08-12 09:22:06.203,987.0,-241.0,42.0,1016.864789438596,1,1,1,3.0,2.0
2021-08-12 09:22:06.213,912.0,34.0,-18.0,912.811042877988,1,1,1,3.0,2.0
2021-08-12 09:22:06.225,879.0,323.0,-6.0,936.4859849458506,1,1,1,3.0,2.0
2021-08-12 09:22:06.231,1105.0,323.0,-6.0,1151.255836032982,1,1,1,3.0,2.0
2021-08-12 09:22:06.232,1105.0,156.0,-47.0,1116.946731048531,1,1,1,3.0,2.0
2021-08-12 09:22:06.241,1023.0,-11.0,-50.0,1024.28023509194,1,1,1,3.0,2.0
2021-08-12 09:22:06.251,906.0,-191.0,-19.0,926.1090648514352,1,1,1,3.0,2.0
2021-08-12 09:22:06.261,937.0,218.0,19.0,962.2130741161232,1,1,1,3.0,2.0
2021-08-12 09:22:06.280,887.0,297.0,65.0,937.658253309808,1,1,1,3.0,2.0
2021-08-12 09:22:06.282,1134.0,38.0,34.0,1135.1458056126537,1,1,1,3.0,2.0
2021-08-12 09:22:06.292,1036.0,-146.0,32.0,1046.7263252636765,1,1,1,3.0,2.0
2021-08-12 09:22:06.300,966.0,-141.0,76.0,979.1899713538736,1,1,1,3.0,2.0
2021-08-12 09:22:06.309,1067.0,106.0,67.0,1074.3435204812286,1,1,1,3.0,2.0
2021-08-12 09:22:06.319,865.0,370.0,-34.0,941.4249837347636,1,1,1,3.0,2.0
2021-08-12 09:22:06.329,1115.0,152.0,-34.0,1125.8263631661855,1,1,1,3.0,2.0
2021-08-12 09:22:06.340,1053.0,-63.0,-40.0,1055.6410374743868,1,1,1,3.0,2.0
2021-08-12 09:22:06.349,888.0,-51.0,-17.0,889.6257640154089,1,1,1,3.0,2.0
2021-08-12 09:22:06.358,942.0,271.0,15.0,980.321375876299,1,1,1,3.0,2.0
2021-08-12 09:22:06.368,1094.0,144.0,-20.0,1103.617687426221,1,1,1,3.0,2.0
2021-08-12 09:22:06.377,1098.0,144.0,-20.0,1107.5829540038976,1,1,1,3.0,2.0
2021-08-12 09:22:06.378,1098.0,61.0,19.0,1099.8572634664918,1,1,1,3.0,2.0
2021-08-12 09:22:06.399,1038.0,-187.0,19.0,1054.8810359467082,1,1,1,3.0,2.0
2021-08-12 09:22:06.400,1038.0,-187.0,18.0,1054.8634982783317,1,1,1,3.0,2.0
2021-08-12 09:22:06.404,936.0,-84.0,55.0,941.369746698926,1,1,1,3.0,2.0
2021-08-12 09:22:06.407,1102.0,92.0,57.0,1107.3016752448268,1,1,1,3.0,2.0
2021-08-12 09:22:06.417,1231.0,52.0,50.0,1233.11191706187,1,1,1,3.0,2.0
2021-08-12 09:22:06.428,991.0,-165.0,-27.0,1005.0049751120638,1,1,1,3.0,2.0
2021-08-12 09:22:06.436,989.0,-79.0,-27.0,992.5175061428388,1,1,1,3.0,2.0
2021-08-12 09:22:06.446,884.0,62.0,-11.0,886.2398095323861,1,1,1,3.0,2.0
2021-08-12 09:22:06.456,960.0,223.0,-15.0,985.6743884265228,1,1,1,3.0,2.0
2021-08-12 09:22:06.465,1119.0,67.0,-15.0,1121.1043662389332,1,1,1,3.0,2.0
2021-08-12 09:22:06.466,1119.0,67.0,-50.0,1122.1185320633467,1,1,1,3.0,2.0
2021-08-12 09:22:06.476,1012.0,-263.0,-28.0,1045.9909177425968,1,1,1,3.0,2.0
2021-08-12 09:22:06.486,992.0,-187.0,24.0,1009.7569014371728,1,1,1,3.0,2.0
2021-08-12 09:22:06.496,919.0,18.0,57.0,920.9419091343384,1,1,1,3.0,2.0
2021-08-12 09:22:06.504,1100.0,87.0,57.0,1104.9063308715358,1,1,1,3.0,2.0
2021-08-12 09:22:06.505,1100.0,87.0,45.0,1104.352298861192,1,1,1,3.0,2.0
2021-08-12 09:22:06.514,1232.0,-61.0,45.0,1234.3297776526335,1,1,1,3.0,2.0
2021-08-12 09:22:06.515,1232.0,-61.0,46.0,1234.366639212191,1,1,1,3.0,2.0
2021-08-12 09:22:06.524,991.0,-271.0,-19.0,1027.5616769809976,1,1,1,3.0,2.0
2021-08-12 09:22:06.535,969.0,-58.0,-19.0,970.9201820953152,1,1,1,3.0,2.0
2021-08-12 09:22:06.536,969.0,-58.0,-26.0,971.082385794326,1,1,1,3.0,2.0
2021-08-12 09:22:06.545,846.0,240.0,11.0,879.4526706992253,1,1,1,3.0,2.0
2021-08-12 09:22:06.561,1008.0,240.0,11.0,1036.2359769859372,1,1,1,3.0,2.0
2021-08-12 09:22:06.562,1008.0,187.0,-28.0,1025.5812985814434,1,1,1,3.0,2.0
2021-08-12 09:22:06.565,1092.0,33.0,-54.0,1093.8322540499526,1,1,1,3.0,2.0
2021-08-12 09:22:06.574,988.0,-313.0,-34.0,1036.9517828713156,1,1,1,3.0,2.0
2021-08-12 09:22:06.584,936.0,90.0,49.0,941.5927994626976,1,1,1,3.0,2.0
2021-08-12 09:22:06.592,875.0,175.0,49.0,893.672758900035,1,1,1,3.0,2.0
2021-08-12 09:22:06.593,875.0,175.0,76.0,895.5590432796712,1,1,1,3.0,2.0
2021-08-12 09:22:06.602,1148.0,44.0,53.0,1150.0647807841087,1,1,1,3.0,2.0
2021-08-12 09:22:06.614,1173.0,-87.0,53.0,1177.4153897414456,1,1,1,3.0,2.0
2021-08-12 09:22:06.615,1173.0,-87.0,46.0,1177.1210642920294,1,1,1,3.0,2.0
2021-08-12 09:22:06.622,962.0,-269.0,-14.0,999.0,1,1,1,3.0,2.0
2021-08-12 09:22:06.633,941.0,30.0,26.0,941.83703473584,1,1,1,3.0,2.0
2021-08-12 09:22:06.642,879.0,285.0,17.0,924.2050638251231,1,1,1,3.0,2.0
2021-08-12 09:22:06.651,1045.0,152.0,-33.0,1056.512186394459,1,1,1,3.0,2.0
2021-08-12 09:22:06.661,1070.0,-23.0,-58.0,1071.817615081969,1,1,1,3.0,2.0
2021-08-12 09:22:06.671,951.0,-337.0,-29.0,1009.3616794786692,1,1,1,3.0,2.0
2021-08-12 09:22:06.683,915.0,160.0,61.0,930.8845255991744,1,1,1,3.0,2.0
2021-08-12 09:22:06.691,1104.0,238.0,29.0,1129.7349246615331,1,1,1,3.0,2.0
2021-08-12 09:22:06.700,1153.0,21.0,56.0,1154.5501288380683,1,1,1,3.0,2.0
2021-08-12 09:22:06.710,1161.0,-190.0,44.0,1177.2667497215743,1,1,1,3.0,2.0
2021-08-12 09:22:06.720,991.0,-313.0,2.0,1039.2564649786884,1,1,1,3.0,2.0
2021-08-12 09:22:06.731,953.0,53.0,28.0,954.8832389355256,1,1,1,3.0,2.0
2021-08-12 09:22:06.740,1085.0,270.0,13.0,1118.16546181681,1,1,1,3.0,2.0
2021-08-12 09:22:06.749,1092.0,-87.0,-29.0,1095.8439669953018,1,1,1,3.0,2.0
2021-08-12 09:22:06.758,1057.0,-3.0,-29.0,1057.402004915822,1,1,1,3.0,2.0
2021-08-12 09:22:06.759,1057.0,-3.0,-44.0,1057.9196566847595,1,1,1,3.0,2.0
2021-08-12 09:22:06.768,930.0,-3.0,-44.0,931.0451116890094,1,1,1,3.0,2.0
2021-08-12 09:22:06.769,930.0,-261.0,-36.0,966.6007448786702,1,1,1,3.0,2.0
2021-08-12 09:22:06.779,884.0,154.0,31.0,897.8490964521823,1,1,1,3.0,2.0
2021-08-12 09:22:06.789,1152.0,202.0,36.0,1170.1299073179866,1,1,1,3.0,2.0
2021-08-12 09:22:06.797,1076.0,23.0,36.0,1076.8477143960515,1,1,1,3.0,2.0
2021-08-12 09:22:06.798,1076.0,23.0,8.0,1076.2755223454633,1,1,1,3.0,2.0
2021-08-12 09:22:06.807,1127.0,-161.0,40.0,1139.1444157787896,1,1,1,3.0,2.0
2021-08-12 09:22:06.817,978.0,-212.0,28.0,1001.1053890575156,1,1,1,3.0,2.0
2021-08-12 09:22:06.827,977.0,44.0,29.0,978.4201551480836,1,1,1,3.0,2.0
2021-08-12 09:22:06.837,1081.0,211.0,-12.0,1101.4653875633132,1,1,1,3.0,2.0
2021-08-12 09:22:06.861,1079.0,-113.0,-44.0,1085.792797913119,1,1,1,3.0,2.0
2021-08-12 09:22:06.862,908.0,52.0,-2.0,909.4899669595042,1,1,1,3.0,2.0
2021-08-12 09:22:06.866,913.0,-201.0,-29.0,935.3133164881168,1,1,1,3.0,2.0
2021-08-12 09:22:06.875,928.0,-201.0,-29.0,949.9610518331792,1,1,1,3.0,2.0
2021-08-12 09:22:06.876,928.0,191.0,22.0,947.707233274074,1,1,1,3.0,2.0
2021-08-12 09:22:06.885,1103.0,189.0,22.0,1119.2917403429724,1,1,1,3.0,2.0
2021-08-12 09:22:06.886,1103.0,189.0,20.0,1119.254215984912,1,1,1,3.0,2.0
2021-08-12 09:22:06.896,1077.0,-51.0,19.0,1078.374239306559,1,1,1,3.0,2.0
2021-08-12 09:22:06.907,953.0,18.0,61.0,955.1198877627876,1,1,1,3.0,2.0
2021-08-12 09:22:06.915,958.0,-100.0,62.0,965.1984251955656,1,1,1,3.0,2.0
2021-08-12 09:22:06.924,1055.0,57.0,62.0,1058.3562727172737,1,1,1,3.0,2.0
2021-08-12 09:22:06.925,1055.0,57.0,44.0,1057.4544907465286,1,1,1,3.0,2.0
2021-08-12 09:22:06.934,1148.0,170.0,29.0,1160.8811308656886,1,1,1,3.0,2.0
2021-08-12 09:22:06.945,1031.0,-209.0,-45.0,1052.9325714403558,1,1,1,3.0,2.0
2021-08-12 09:22:06.955,892.0,15.0,-14.0,892.2359553391692,1,1,1,3.0,2.0
2021-08-12 09:22:06.964,862.0,403.0,-31.0,952.0577713563396,1,1,1,3.0,2.0
2021-08-12 09:22:06.973,932.0,214.0,13.0,956.3414662138204,1,1,1,3.0,2.0
2021-08-12 09:22:06.983,1118.0,170.0,0.0,1130.8510069854472,1,1,1,3.0,2.0
2021-08-12 09:22:06.995,1045.0,-138.0,24.0,1054.345768711574,1,1,1,3.0,2.0
2021-08-12 09:22:07.004,964.0,17.0,63.0,966.2059821797834,1,1,1,3.0,2.0
2021-08-12 09:22:07.016,925.0,355.0,63.0,992.7834607808492,1,1,1,3.0,2.0
2021-08-12 09:22:07.017,925.0,355.0,39.0,991.5497970349244,1,1,1,3.0,2.0
2021-08-12 09:22:07.022,1108.0,64.0,61.0,1111.521929608229,1,1,1,3.0,2.0
2021-08-12 09:22:07.032,1159.0,42.0,19.0,1159.9163762961534,1,1,1,3.0,2.0
2021-08-12 09:22:07.042,1044.0,-242.0,19.0,1071.8493364274664,1,1,1,3.0,2.0
2021-08-12 09:22:07.043,1044.0,-242.0,-14.0,1071.7723638907655,1,1,1,3.0,2.0
2021-08-12 09:22:07.052,946.0,-242.0,-14.0,976.5633619996196,1,1,1,3.0,2.0
2021-08-12 09:22:07.053,946.0,22.0,21.0,946.4887743655496,1,1,1,3.0,2.0
2021-08-12 09:22:07.062,857.0,377.0,-13.0,936.3476918324732,1,1,1,3.0,2.0
2021-08-12 09:22:07.071,1166.0,88.0,-35.0,1169.8397326129764,1,1,1,3.0,2.0
2021-08-12 09:22:07.081,1168.0,133.0,-13.0,1175.6198365117866,1,1,1,3.0,2.0
2021-08-12 09:22:07.090,1036.0,-247.0,-13.0,1065.116894993221,1,1,1,3.0,2.0
2021-08-12 09:22:07.091,1036.0,-247.0,-12.0,1065.105159127492,1,1,1,3.0,2.0
2021-08-12 09:22:07.102,945.0,36.0,75.0,948.654837124652,1,1,1,3.0,2.0
2021-08-12 09:22:07.110,942.0,334.0,27.0,999.8244845971716,1,1,1,3.0,2.0
2021-08-12 09:22:07.120,1129.0,95.0,16.0,1133.1028196946647,1,1,1,3.0,2.0
2021-08-12 09:22:07.129,1003.0,95.0,16.0,1007.615998285061,1,1,1,3.0,2.0
2021-08-12 09:22:07.130,1003.0,-183.0,-2.0,1019.5597088939912,1,1,1,3.0,2.0
2021-08-12 09:22:07.139,1015.0,-251.0,-6.0,1045.591698513335,1,1,1,3.0,2.0
2021-08-12 09:22:07.150,934.0,0.0,23.0,934.2831476592094,1,1,1,3.0,2.0
2021-08-12 09:22:07.160,877.0,349.0,-28.0,944.3060944418394,1,1,1,3.0,2.0
2021-08-12 09:22:07.169,1175.0,118.0,-21.0,1181.0969477566184,1,1,1,3.0,2.0
2021-08-12 09:22:07.178,1009.0,-30.0,-30.0,1009.8915783389818,1,1,1,3.0,2.0
2021-08-12 09:22:07.189,1027.0,-300.0,-22.0,1070.1462516871234,1,1,1,3.0,2.0
2021-08-12 09:22:07.198,940.0,-300.0,-22.0,986.9569392835738,1,1,1,3.0,2.0
2021-08-12 09:22:07.199,940.0,98.0,86.0,948.9994731294638,1,1,1,3.0,2.0
2021-08-12 09:22:07.209,974.0,348.0,35.0,1034.8937143494495,1,1,1,3.0,2.0
2021-08-12 09:22:07.218,1101.0,348.0,35.0,1155.2185940331813,1,1,1,3.0,2.0
2021-08-12 09:22:07.221,1101.0,128.0,33.0,1108.9066687508016,1,1,1,3.0,2.0
2021-08-12 09:22:07.227,953.0,-131.0,28.0,962.3689521176376,1,1,1,3.0,2.0
2021-08-12 09:22:07.237,914.0,99.0,76.0,922.4819781437468,1,1,1,3.0,2.0
2021-08-12 09:22:07.248,927.0,5.0,13.0,927.104632714129,1,1,1,3.0,2.0
2021-08-12 09:22:07.256,938.0,373.0,13.0,1009.5256311753556,1,1,1,3.0,2.0
2021-08-12 09:22:07.257,938.0,373.0,-3.0,1009.4463829248187,1,1,1,3.0,2.0
2021-08-12 09:22:07.266,1135.0,-16.0,-40.0,1135.817326862027,1,1,1,3.0,2.0
2021-08-12 09:22:07.276,995.0,-34.0,-40.0,996.3839621350796,1,1,1,3.0,2.0
2021-08-12 09:22:07.277,995.0,-34.0,-34.0,996.1611315444908,1,1,1,3.0,2.0
2021-08-12 09:22:07.295,814.0,292.0,14.0,864.9023066219676,1,1,1,3.0,2.0
2021-08-12 09:22:07.298,955.0,92.0,58.0,961.1727212109174,1,1,1,3.0,2.0
2021-08-12 09:22:07.305,1026.0,246.0,33.0,1055.5950928267905,1,1,1,3.0,2.0
2021-08-12 09:22:07.315,1121.0,246.0,33.0,1148.1489450415395,1,1,1,3.0,2.0
2021-08-12 09:22:07.316,1121.0,80.0,0.0,1123.8509687676565,1,1,1,3.0,2.0
2021-08-12 09:22:07.325,939.0,-96.0,20.0,944.1064558618376,1,1,1,3.0,2.0
2021-08-12 09:22:07.334,903.0,-96.0,20.0,908.3088681720552,1,1,1,3.0,2.0
2021-08-12 09:22:07.335,903.0,180.0,67.0,923.199870017322,1,1,1,3.0,2.0
2021-08-12 09:22:07.345,1147.0,70.0,58.0,1150.5968016642494,1,1,1,3.0,2.0
2021-08-12 09:22:07.355,1008.0,275.0,0.0,1044.8392220815604,1,1,1,3.0,2.0
2021-08-12 09:22:07.364,1123.0,-9.0,-43.0,1123.8589769183675,1,1,1,3.0,2.0
2021-08-12 09:22:07.374,988.0,-42.0,-26.0,989.234047129394,1,1,1,3.0,2.0
2021-08-12 09:22:07.383,846.0,302.0,-26.0,898.6634520219458,1,1,1,3.0,2.0
2021-08-12 09:22:07.384,846.0,302.0,0.0,898.2872591771521,1,1,1,3.0,2.0
2021-08-12 09:22:07.399,1070.0,181.0,-29.0,1085.588319760304,1,1,1,3.0,2.0
2021-08-12 09:22:07.408,1111.0,181.0,-29.0,1126.0208701440663,1,1,1,3.0,2.0
2021-08-12 09:22:07.409,1111.0,275.0,31.0,1144.9484704562035,1,1,1,3.0,2.0
2021-08-12 09:22:07.414,1113.0,41.0,31.0,1114.1862501395358,1,1,1,3.0,2.0
2021-08-12 09:22:07.415,1113.0,41.0,8.0,1113.7836414672286,1,1,1,3.0,2.0
2021-08-12 09:22:07.423,926.0,-85.0,29.0,930.3450972623008,1,1,1,3.0,2.0
2021-08-12 09:22:07.432,870.0,201.0,79.0,896.4050423776073,1,1,1,3.0,2.0
2021-08-12 09:22:07.443,1139.0,65.0,79.0,1143.5851520547126,1,1,1,3.0,2.0
2021-08-12 09:22:07.444,1139.0,65.0,31.0,1141.2742878028928,1,1,1,3.0,2.0
2021-08-12 09:22:07.453,1166.0,-158.0,31.0,1177.064569171972,1,1,1,3.0,2.0
2021-08-12 09:22:07.454,1166.0,-158.0,40.0,1177.335975836974,1,1,1,3.0,2.0
2021-08-12 09:22:07.461,1077.0,-158.0,40.0,1089.2625946024218,1,1,1,3.0,2.0
2021-08-12 09:22:07.462,1077.0,-63.0,-39.0,1079.5457377990058,1,1,1,3.0,2.0
2021-08-12 09:22:07.471,916.0,-11.0,-28.0,916.493862499908,1,1,1,3.0,2.0
2021-08-12 09:22:07.481,860.0,259.0,-7.0,898.1814961353857,1,1,1,3.0,2.0
2021-08-12 09:22:07.491,1076.0,259.0,-7.0,1106.7547153728328,1,1,1,3.0,2.0
2021-08-12 09:22:07.492,1076.0,205.0,-32.0,1095.8216095697328,1,1,1,3.0,2.0
2021-08-12 09:22:07.502,1059.0,-39.0,-53.0,1061.0424119704169,1,1,1,3.0,2.0
2021-08-12 09:22:07.510,900.0,-221.0,-53.0,928.2510436299008,1,1,1,3.0,2.0
2021-08-12 09:22:07.511,900.0,-221.0,-36.0,927.4357120577146,1,1,1,3.0,2.0
2021-08-12 09:22:07.520,936.0,-65.0,63.0,940.366949653166,1,1,1,3.0,2.0
2021-08-12 09:22:07.530,877.0,248.0,78.0,914.7223622498796,1,1,1,3.0,2.0
2021-08-12 09:22:07.540,1137.0,74.0,49.0,1140.4586796548133,1,1,1,3.0,2.0
2021-08-12 09:22:07.551,1105.0,-129.0,40.0,1113.2232480504529,1,1,1,3.0,2.0
2021-08-12 09:22:07.559,981.0,-99.0,31.0,986.4699691323603,1,1,1,3.0,2.0
2021-08-12 09:22:07.576,944.0,-12.0,-16.0,944.2118406374703,1,1,1,3.0,2.0
2021-08-12 09:22:07.580,864.0,320.0,-11.0,921.4211849094852,1,1,1,3.0,2.0
2021-08-12 09:22:07.589,1112.0,320.0,-11.0,1157.1797613162787,1,1,1,3.0,2.0
2021-08-12 09:22:07.590,1112.0,166.0,-25.0,1124.5999288635935,1,1,1,3.0,2.0
2021-08-12 09:22:07.600,1026.0,-21.0,-58.0,1027.8526158939326,1,1,1,3.0,2.0
2021-08-12 09:22:07.612,903.0,-142.0,-58.0,915.935041364834,1,1,1,3.0,2.0
2021-08-12 09:22:07.613,903.0,-142.0,-33.0,914.6922979887828,1,1,1,3.0,2.0
2021-08-12 09:22:07.618,954.0,-29.0,74.0,957.3050715419824,1,1,1,3.0,2.0
2021-08-12 09:22:07.628,897.0,294.0,61.0,945.92071549364,1,1,1,3.0,2.0
2021-08-12 09:22:07.638,1132.0,73.0,61.0,1135.9903168601395,1,1,1,3.0,2.0
2021-08-12 09:22:07.639,1132.0,73.0,37.0,1134.9546246436462,1,1,1,3.0,2.0
2021-08-12 09:22:07.649,1072.0,-219.0,11.0,1094.1965088593547,1,1,1,3.0,2.0
2021-08-12 09:22:07.657,908.0,-111.0,42.0,915.7232114563876,1,1,1,3.0,2.0
2021-08-12 09:22:07.667,1077.0,86.0,82.0,1083.5354170492076,1,1,1,3.0,2.0
2021-08-12 09:22:07.677,866.0,390.0,-18.0,949.936840005692,1,1,1,3.0,2.0
2021-08-12 09:22:07.687,1126.0,114.0,-44.0,1132.6111424491637,1,1,1,3.0,2.0
2021-08-12 09:22:07.698,1007.0,-66.0,-40.0,1009.9529692020316,1,1,1,3.0,2.0
2021-08-12 09:22:07.705,894.0,-66.0,-40.0,897.324913283923,1,1,1,3.0,2.0
2021-08-12 09:22:07.706,894.0,49.0,-21.0,895.5880749541052,1,1,1,3.0,2.0
2021-08-12 09:22:07.715,934.0,49.0,-21.0,935.5201761586972,1,1,1,3.0,2.0
2021-08-12 09:22:07.716,934.0,192.0,-19.0,953.7195604578948,1,1,1,3.0,2.0
2021-08-12 09:22:07.725,940.0,333.0,28.0,997.6337003128954,1,1,1,3.0,2.0
2021-08-12 09:22:07.735,1136.0,93.0,17.0,1139.9271906573683,1,1,1,3.0,2.0
2021-08-12 09:22:07.746,1013.0,-167.0,5.0,1026.6854435512369,1,1,1,3.0,2.0
2021-08-12 09:22:07.755,853.0,58.0,5.0,854.9842103805192,1,1,1,3.0,2.0
2021-08-12 09:22:07.756,853.0,58.0,67.0,857.5908115179407,1,1,1,3.0,2.0
2021-08-12 09:22:07.764,1099.0,124.0,66.0,1107.9408828994442,1,1,1,3.0,2.0
2021-08-12 09:22:07.774,1250.0,124.0,66.0,1257.8680375937693,1,1,1,3.0,2.0
2021-08-12 09:22:07.775,1250.0,-40.0,19.0,1250.784154040976,1,1,1,3.0,2.0
2021-08-12 09:22:07.784,1172.0,90.0,-28.0,1175.7839937675628,1,1,1,3.0,2.0
2021-08-12 09:22:07.794,978.0,90.0,-28.0,982.5314244338448,1,1,1,3.0,2.0
2021-08-12 09:22:07.795,978.0,-71.0,-36.0,981.2344266280104,1,1,1,3.0,2.0
2021-08-12 09:22:07.804,871.0,119.0,4.0,879.1006768283141,1,1,1,3.0,2.0
2021-08-12 09:22:07.813,964.0,198.0,-24.0,984.4165784869735,1,1,1,3.0,2.0
2021-08-12 09:22:07.823,1108.0,51.0,-40.0,1109.8941390961572,1,1,1,3.0,2.0
2021-08-12 09:22:07.833,1060.0,51.0,-40.0,1061.979754985941,1,1,1,3.0,2.0
2021-08-12 09:22:07.834,1060.0,-305.0,-37.0,1103.6276546009528,1,1,1,3.0,2.0
2021-08-12 09:22:07.844,987.0,-150.0,1.0,998.3336115748082,1,1,1,3.0,2.0
2021-08-12 09:22:07.853,873.0,69.0,62.0,877.9145744319319,1,1,1,3.0,2.0
2021-08-12 09:22:07.878,1102.0,123.0,61.0,1110.5196981593797,1,1,1,3.0,2.0
2021-08-12 09:22:07.883,1023.0,-279.0,-6.0,1060.3801205228249,1,1,1,3.0,2.0
2021-08-12 09:22:07.892,978.0,-20.0,-40.0,979.0219609385686,1,1,1,3.0,2.0
2021-08-12 09:22:07.903,871.0,226.0,37.0,900.6031312403927,1,1,1,3.0,2.0
2021-08-12 09:22:07.911,1025.0,149.0,-27.0,1036.1249924598865,1,1,1,3.0,2.0
2021-08-12 09:22:07.921,1100.0,-12.0,-57.0,1101.5411930563469,1,1,1,3.0,2.0
2021-08-12 09:22:07.930,1002.0,-298.0,-57.0,1046.927409135896,1,1,1,3.0,2.0
2021-08-12 09:22:07.931,1002.0,-298.0,-27.0,1045.7231947317607,1,1,1,3.0,2.0
2021-08-12 09:22:07.941,926.0,141.0,55.0,938.2867365576474,1,1,1,3.0,2.0
2021-08-12 09:22:07.951,894.0,143.0,72.0,908.222990239732,1,1,1,3.0,2.0
2021-08-12 09:22:07.961,1092.0,123.0,70.0,1101.13259873641,1,1,1,3.0,2.0
2021-08-12 09:22:07.969,1198.0,123.0,70.0,1206.33038592253,1,1,1,3.0,2.0
2021-08-12 09:22:07.970,1198.0,-123.0,45.0,1205.1381663527216,1,1,1,3.0,2.0
2021-08-12 09:22:07.979,964.0,-249.0,-3.0,995.6435104996164,1,1,1,3.0,2.0
2021-08-12 09:22:07.990,961.0,-249.0,-3.0,992.7391399557088,1,1,1,3.0,2.0
2021-08-12 09:22:07.991,961.0,64.0,32.0,963.6602098250193,1,1,1,3.0,2.0
2021-08-12 09:22:08.000,854.0,264.0,-2.0,893.8769490259831,1,1,1,3.0,2.0
2021-08-12 09:22:08.009,1066.0,163.0,-34.0,1078.9258547277473,1,1,1,3.0,2.0
2021-08-12 09:22:08.018,1082.0,-14.0,-34.0,1082.6245886732852,1,1,1,3.0,2.0
2021-08-12 09:22:08.028,948.0,-267.0,-32.0,985.4019484454049,1,1,1,3.0,2.0
2021-08-12 09:22:08.039,923.0,160.0,40.0,937.6187924737856,1,1,1,3.0,2.0
2021-08-12 09:22:08.048,1072.0,290.0,11.0,1110.5876822655653,1,1,1,3.0,2.0
2021-08-12 09:22:08.058,1114.0,78.0,59.0,1118.2848474337834,1,1,1,3.0,2.0
2021-08-12 09:22:08.067,1179.0,-129.0,31.0,1186.441317554307,1,1,1,3.0,2.0
2021-08-12 09:22:08.077,956.0,-262.0,9.0,991.2925905099868,1,1,1,3.0,2.0
2021-08-12 09:22:08.087,925.0,31.0,9.0,925.5630718649054,1,1,1,3.0,2.0
2021-08-12 09:22:08.088,925.0,31.0,2.0,925.5214746293032,1,1,1,3.0,2.0
2021-08-12 09:22:08.098,1078.0,304.0,12.0,1120.108923274875,1,1,1,3.0,2.0
2021-08-12 09:22:08.106,1089.0,-61.0,-34.0,1091.236912865396,1,1,1,3.0,2.0
2021-08-12 09:22:08.116,1083.0,-9.0,-34.0,1083.57094830011,1,1,1,3.0,2.0
2021-08-12 09:22:08.117,1083.0,-9.0,-42.0,1083.8514658383776,1,1,1,3.0,2.0
2021-08-12 09:22:08.126,892.0,-217.0,-24.0,918.3294615768352,1,1,1,3.0,2.0
2021-08-12 09:22:08.136,891.0,126.0,24.0,900.1849809900185,1,1,1,3.0,2.0
2021-08-12 09:22:08.147,1125.0,248.0,31.0,1152.4278719295191,1,1,1,3.0,2.0
2021-08-12 09:22:08.155,1093.0,-20.0,5.0,1093.1944017419771,1,1,1,3.0,2.0
2021-08-12 09:22:08.166,1106.0,-168.0,19.0,1118.8480683274204,1,1,1,3.0,2.0
2021-08-12 09:22:08.174,964.0,-213.0,19.0,987.4340484305776,1,1,1,3.0,2.0
2021-08-12 09:22:08.175,964.0,-213.0,20.0,987.4537963874564,1,1,1,3.0,2.0
2021-08-12 09:22:08.184,997.0,-213.0,20.0,1019.695052454409,1,1,1,3.0,2.0
2021-08-12 09:22:08.185,997.0,31.0,25.0,997.7950691399512,1,1,1,3.0,2.0
2021-08-12 09:22:08.195,1047.0,31.0,25.0,1047.7571283460686,1,1,1,3.0,2.0
2021-08-12 09:22:08.196,1047.0,251.0,9.0,1076.7037661306847,1,1,1,3.0,2.0
2021-08-12 09:22:08.204,1026.0,-143.0,-37.0,1036.5780240773,1,1,1,3.0,2.0
2021-08-12 09:22:08.214,952.0,-26.0,19.0,952.5444871500752,1,1,1,3.0,2.0
2021-08-12 09:22:08.223,911.0,-161.0,-16.0,925.2556403502764,1,1,1,3.0,2.0
2021-08-12 09:22:08.233,910.0,183.0,26.0,928.5822526841658,1,1,1,3.0,2.0
2021-08-12 09:22:08.244,1094.0,238.0,26.0,1119.8910661309876,1,1,1,3.0,2.0
2021-08-12 09:22:08.245,1094.0,238.0,18.0,1119.7338969594516,1,1,1,3.0,2.0
2021-08-12 09:22:08.252,1105.0,-69.0,18.0,1107.2985144034103,1,1,1,3.0,2.0
2021-08-12 09:22:08.253,1105.0,-69.0,29.0,1107.53194084866,1,1,1,3.0,2.0
2021-08-12 09:22:08.263,960.0,-60.0,64.0,964.0,1,1,1,3.0,2.0
2021-08-12 09:22:08.272,898.0,333.0,74.0,960.6086612143364,1,1,1,3.0,2.0
2021-08-12 09:22:08.282,1057.0,30.0,38.0,1058.108217527867,1,1,1,3.0,2.0
2021-08-12 09:22:08.293,1127.0,219.0,27.0,1148.3984500163697,1,1,1,3.0,2.0
2021-08-12 09:22:08.312,1037.0,-265.0,-39.0,1071.03454659502,1,1,1,3.0,2.0
2021-08-12 09:22:08.314,931.0,-13.0,11.0,931.1557334839324,1,1,1,3.0,2.0
2021-08-12 09:22:08.323,832.0,391.0,-2.0,919.2981018146398,1,1,1,3.0,2.0
2021-08-12 09:22:08.331,908.0,241.0,14.0,939.5429740038504,1,1,1,3.0,2.0
2021-08-12 09:22:08.340,1120.0,103.0,14.0,1124.8133178443434,1,1,1,3.0,2.0
2021-08-12 09:22:08.341,1120.0,103.0,-10.0,1124.770643286888,1,1,1,3.0,2.0
2021-08-12 09:22:08.351,1086.0,-198.0,10.0,1103.9474625180312,1,1,1,3.0,2.0
2021-08-12 09:22:08.360,950.0,-13.0,74.0,952.9664212342426,1,1,1,3.0,2.0
2021-08-12 09:22:08.371,914.0,366.0,46.0,985.630762506934,1,1,1,3.0,2.0
2021-08-12 09:22:08.381,1135.0,104.0,20.0,1139.9302610247698,1,1,1,3.0,2.0
2021-08-12 09:22:08.390,1159.0,121.0,46.0,1166.2066712208432,1,1,1,3.0,2.0
2021-08-12 09:22:08.399,1038.0,-287.0,-40.0,1077.6887305711236,1,1,1,3.0,2.0
2021-08-12 09:22:08.409,932.0,-2.0,18.0,932.175949056829,1,1,1,3.0,2.0
2021-08-12 09:22:08.429,859.0,432.0,-8.0,961.5451107462404,1,1,1,3.0,2.0
2021-08-12 09:22:08.432,1198.0,59.0,-51.0,1200.5357137544888,1,1,1,3.0,2.0
2021-08-12 09:22:08.440,1154.0,92.0,-26.0,1157.9533669366829,1,1,1,3.0,2.0
2021-08-12 09:22:08.448,1045.0,-256.0,-4.0,1075.9075239071433,1,1,1,3.0,2.0
2021-08-12 09:22:08.458,962.0,37.0,-4.0,962.719585341443,1,1,1,3.0,2.0
2021-08-12 09:22:08.459,962.0,37.0,97.0,967.5856551231008,1,1,1,3.0,2.0
2021-08-12 09:22:08.467,939.0,420.0,97.0,1033.2134339041477,1,1,1,3.0,2.0
2021-08-12 09:22:08.468,939.0,420.0,54.0,1030.0665027074708,1,1,1,3.0,2.0
2021-08-12 09:22:08.478,1147.0,59.0,32.0,1148.9621403684284,1,1,1,3.0,2.0
2021-08-12 09:22:08.488,1047.0,-239.0,5.0,1073.9436670514892,1,1,1,3.0,2.0
2021-08-12 09:22:08.497,1072.0,-300.0,-21.0,1113.3844798630885,1,1,1,3.0,2.0
2021-08-12 09:22:08.506,896.0,-300.0,-21.0,945.1227433513596,1,1,1,3.0,2.0
2021-08-12 09:22:08.507,896.0,12.0,-9.0,896.1255492396141,1,1,1,3.0,2.0
2021-08-12 09:22:08.516,886.0,423.0,-8.0,981.8294149189054,1,1,1,3.0,2.0
2021-08-12 09:22:08.526,1170.0,90.0,-43.0,1174.2440121201384,1,1,1,3.0,2.0
2021-08-12 09:22:08.537,1010.0,-54.0,-35.0,1012.0479237664588,1,1,1,3.0,2.0
2021-08-12 09:22:08.547,1057.0,-291.0,-24.0,1096.5883457341683,1,1,1,3.0,2.0
2021-08-12 09:22:08.555,937.0,82.0,77.0,943.7277149686768,1,1,1,3.0,2.0
2021-08-12 09:22:08.565,968.0,339.0,43.0,1026.5446897237352,1,1,1,3.0,2.0
2021-08-12 09:22:08.575,1143.0,60.0,4.0,1144.5807092555772,1,1,1,3.0,2.0
2021-08-12 09:22:08.591,977.0,-162.0,26.0,990.6810788543404,1,1,1,3.0,2.0
2021-08-12 09:22:08.596,887.0,69.0,26.0,890.0595485696449,1,1,1,3.0,2.0
2021-08-12 09:22:08.597,887.0,69.0,69.0,892.3513881874113,1,1,1,3.0,2.0
2021-08-12 09:22:08.605,904.0,4.0,7.0,904.0359506125848,1,1,1,3.0,2.0
2021-08-12 09:22:08.615,918.0,368.0,-26.0,989.3553456670662,1,1,1,3.0,2.0
2021-08-12 09:22:08.624,1151.0,52.0,-39.0,1152.833899570966,1,1,1,3.0,2.0
2021-08-12 09:22:08.634,1007.0,-2.0,-23.0,1007.2646127011512,1,1,1,3.0,2.0
2021-08-12 09:22:08.643,842.0,-2.0,-23.0,842.3164488480561,1,1,1,3.0,2.0
2021-08-12 09:22:08.644,842.0,257.0,35.0,881.0436992567395,1,1,1,3.0,2.0
2021-08-12 09:22:08.654,992.0,198.0,-29.0,1011.9827073621368,1,1,1,3.0,2.0
2021-08-12 09:22:08.663,998.0,358.0,48.0,1061.3538523979644,1,1,1,3.0,2.0
2021-08-12 09:22:08.673,1129.0,60.0,2.0,1130.594976107713,1,1,1,3.0,2.0
2021-08-12 09:22:08.683,968.0,-146.0,29.0,979.3778637482062,1,1,1,3.0,2.0
2021-08-12 09:22:08.692,891.0,81.0,88.0,898.9916573583984,1,1,1,3.0,2.0
2021-08-12 09:22:08.703,1133.0,57.0,48.0,1135.4479292332169,1,1,1,3.0,2.0
2021-08-12 09:22:08.711,1000.0,57.0,48.0,1002.7726561888292,1,1,1,3.0,2.0
2021-08-12 09:22:08.712,1000.0,325.0,-20.0,1051.6772318539563,1,1,1,3.0,2.0
2021-08-12 09:22:08.722,1127.0,-21.0,-60.0,1128.791389052911,1,1,1,3.0,2.0
2021-08-12 09:22:08.732,966.0,-12.0,-25.0,966.3979511567684,1,1,1,3.0,2.0
2021-08-12 09:22:08.741,853.0,230.0,17.0,883.6277496774306,1,1,1,3.0,2.0
2021-08-12 09:22:08.751,1037.0,202.0,17.0,1056.6276543797253,1,1,1,3.0,2.0
2021-08-12 09:22:08.752,1037.0,202.0,-27.0,1056.8358434496815,1,1,1,3.0,2.0
2021-08-12 09:22:08.761,1074.0,-42.0,-52.0,1076.0780640827134,1,1,1,3.0,2.0
2021-08-12 09:22:08.771,1098.0,65.0,-5.0,1099.9336343616374,1,1,1,3.0,2.0
2021-08-12 09:22:08.780,937.0,-106.0,24.0,943.282036296674,1,1,1,3.0,2.0
2021-08-12 09:22:08.790,895.0,94.0,77.0,903.2109388177272,1,1,1,3.0,2.0
2021-08-12 09:22:08.800,1143.0,69.0,36.0,1145.6465423506502,1,1,1,3.0,2.0
2021-08-12 09:22:08.813,1171.0,-152.0,32.0,1181.2573809293217,1,1,1,3.0,2.0
2021-08-12 09:22:08.819,1131.0,-36.0,-39.0,1132.2446732045155,1,1,1,3.0,2.0
2021-08-12 09:22:08.829,930.0,-18.0,-14.0,930.2795278839582,1,1,1,3.0,2.0
2021-08-12 09:22:08.839,893.0,189.0,-14.0,912.888821270148,1,1,1,3.0,2.0
2021-08-12 09:22:08.849,1064.0,181.0,-36.0,1079.8856420936431,1,1,1,3.0,2.0
2021-08-12 09:22:08.859,1064.0,-15.0,-51.0,1065.3271797903217,1,1,1,3.0,2.0
2021-08-12 09:22:08.868,921.0,-191.0,-14.0,940.7008025934708,1,1,1,3.0,2.0
2021-08-12 09:22:08.878,954.0,-91.0,66.0,960.6003331250724,1,1,1,3.0,2.0
2021-08-12 09:22:08.897,869.0,-91.0,66.0,876.2408344741758,1,1,1,3.0,2.0
2021-08-12 09:22:08.898,869.0,153.0,62.0,884.5416892379918,1,1,1,3.0,2.0
2021-08-12 09:22:08.900,1143.0,153.0,62.0,1154.860164695276,1,1,1,3.0,2.0
2021-08-12 09:22:08.901,1143.0,24.0,58.0,1144.7222370514169,1,1,1,3.0,2.0
2021-08-12 09:22:08.908,1159.0,-167.0,33.0,1171.4345905768705,1,1,1,3.0,2.0
2021-08-12 09:22:08.917,955.0,-151.0,2.0,966.8660713873458,1,1,1,3.0,2.0
2021-08-12 09:22:08.927,922.0,-35.0,4.0,922.6727480531762,1,1,1,3.0,2.0
2021-08-12 09:22:08.937,845.0,261.0,-17.0,884.5535597124688,1,1,1,3.0,2.0
2021-08-12 09:22:08.946,1113.0,157.0,-22.0,1124.2339614155053,1,1,1,3.0,2.0
2021-08-12 09:22:08.957,1067.0,-55.0,-68.0,1070.5783483706366,1,1,1,3.0,2.0
2021-08-12 09:22:08.966,887.0,-122.0,-68.0,897.92928452078,1,1,1,3.0,2.0
2021-08-12 09:22:08.967,887.0,-122.0,-39.0,896.1997545190469,1,1,1,3.0,2.0
2021-08-12 09:22:08.975,895.0,240.0,2.0,926.6223610511458,1,1,1,3.0,2.0
2021-08-12 09:22:08.985,898.0,264.0,93.0,940.610971656189,1,1,1,3.0,2.0
2021-08-12 09:22:08.995,1118.0,69.0,33.0,1120.613224979966,1,1,1,3.0,2.0
2021-08-12 09:22:09.008,1081.0,-218.0,19.0,1102.9261081323623,1,1,1,3.0,2.0
2021-08-12 09:22:09.016,915.0,-65.0,42.0,918.2668457480104,1,1,1,3.0,2.0
2021-08-12 09:22:09.024,1055.0,43.0,60.0,1057.579311446664,1,1,1,3.0,2.0
2021-08-12 09:22:09.034,1141.0,128.0,48.0,1149.1601280935568,1,1,1,3.0,2.0
2021-08-12 09:22:09.043,1149.0,128.0,48.0,1157.103711859918,1,1,1,3.0,2.0
2021-08-12 09:22:09.044,1149.0,146.0,-28.0,1158.577144604536,1,1,1,3.0,2.0
2021-08-12 09:22:09.054,1043.0,-28.0,-68.0,1045.5893075199267,1,1,1,3.0,2.0
2021-08-12 09:22:09.065,860.0,11.0,-65.0,862.523043170442,1,1,1,3.0,2.0
2021-08-12 09:22:09.074,910.0,219.0,5.0,935.9946581044146,1,1,1,3.0,2.0
2021-08-12 09:22:09.083,1110.0,65.0,-9.0,1111.9379479089648,1,1,1,3.0,2.0
2021-08-12 09:22:09.092,1140.0,38.0,-9.0,1140.6686635478331,1,1,1,3.0,2.0
2021-08-12 09:22:09.093,1140.0,38.0,24.0,1140.885620910352,1,1,1,3.0,2.0
2021-08-12 09:22:09.102,1071.0,-245.0,-5.0,1098.6769315863512,1,1,1,3.0,2.0
2021-08-12 09:22:09.113,918.0,-65.0,50.0,921.6555755812471,1,1,1,3.0,2.0
2021-08-12 09:22:09.123,1092.0,93.0,45.0,1096.8764743579834,1,1,1,3.0,2.0
2021-08-12 09:22:09.131,1215.0,57.0,82.0,1219.0972069527515,1,1,1,3.0,2.0
2021-08-12 09:22:09.141,1030.0,-284.0,-21.0,1068.6425969424952,1,1,1,3.0,2.0
2021-08-12 09:22:09.151,1001.0,-51.0,-42.0,1003.1779503158948,1,1,1,3.0,2.0
2021-08-12 09:22:09.162,849.0,124.0,10.0,858.0658482890459,1,1,1,3.0,2.0
2021-08-12 09:22:09.172,930.0,242.0,-22.0,961.2221387379716,1,1,1,3.0,2.0
2021-08-12 09:22:09.180,1114.0,-17.0,-14.0,1114.2176627571473,1,1,1,3.0,2.0
2021-08-12 09:22:09.190,1070.0,-278.0,-20.0,1105.7052048353576,1,1,1,3.0,2.0
2021-08-12 09:22:09.200,1024.0,-173.0,-8.0,1038.5417661317238,1,1,1,3.0,2.0
2021-08-12 09:22:09.210,876.0,63.0,66.0,880.7388943381574,1,1,1,3.0,2.0
2021-08-12 09:22:09.221,1108.0,101.0,71.0,1114.8569414951858,1,1,1,3.0,2.0
2021-08-12 09:22:09.229,1235.0,-83.0,50.0,1238.795382619745,1,1,1,3.0,2.0
2021-08-12 09:22:09.239,1050.0,-305.0,-20.0,1093.583558764487,1,1,1,3.0,2.0
2021-08-12 09:22:09.249,892.0,-3.0,4.0,892.0140133428398,1,1,1,3.0,2.0
2021-08-12 09:22:09.259,850.0,196.0,46.0,873.5170290269102,1,1,1,3.0,2.0
2021-08-12 09:22:09.270,966.0,218.0,-2.0,990.2949055710628,1,1,1,3.0,2.0
2021-08-12 09:22:09.279,1064.0,-35.0,-50.0,1065.74903237113,1,1,1,3.0,2.0
2021-08-12 09:22:09.288,1063.0,-305.0,-36.0,1106.476389264588,1,1,1,3.0,2.0
2021-08-12 09:22:09.298,909.0,123.0,62.0,919.3769629482784,1,1,1,3.0,2.0
2021-08-12 09:22:09.307,858.0,103.0,70.0,866.9907727305983,1,1,1,3.0,2.0
2021-08-12 09:22:09.318,1120.0,103.0,70.0,1126.9023915140122,1,1,1,3.0,2.0
2021-08-12 09:22:09.319,1120.0,105.0,77.0,1127.5433472820455,1,1,1,3.0,2.0
2021-08-12 09:22:09.328,1187.0,-96.0,31.0,1191.2791444493605,1,1,1,3.0,2.0
2021-08-12 09:22:09.344,983.0,-168.0,14.0,997.3509913766568,1,1,1,3.0,2.0
2021-08-12 09:22:09.347,947.0,29.0,26.0,947.8006119432504,1,1,1,3.0,2.0
2021-08-12 09:22:09.356,988.0,251.0,-22.0,1019.6219887781942,1,1,1,3.0,2.0
2021-08-12 09:22:09.367,1021.0,240.0,-17.0,1048.966157700047,1,1,1,3.0,2.0
2021-08-12 09:22:09.376,1066.0,-17.0,-80.0,1069.1328261726885,1,1,1,3.0,2.0
2021-08-12 09:22:09.386,1002.0,-234.0,-8.0,1028.991739519808,1,1,1,3.0,2.0
2021-08-12 09:22:09.395,905.0,95.0,28.0,910.403207375721,1,1,1,3.0,2.0
2021-08-12 09:22:09.405,1105.0,275.0,19.0,1138.8639075850986,1,1,1,3.0,2.0
2021-08-12 09:22:09.418,1145.0,57.0,75.0,1148.8685738586464,1,1,1,3.0,2.0
2021-08-12 09:22:09.426,1175.0,-161.0,29.0,1186.3334269925972,1,1,1,3.0,2.0
2021-08-12 09:22:09.444,986.0,-238.0,19.0,1014.4954410937488,1,1,1,3.0,2.0
2021-08-12 09:22:09.447,934.0,51.0,14.0,935.496125058784,1,1,1,3.0,2.0
2021-08-12 09:22:09.455,1050.0,340.0,-16.0,1103.7916470059013,1,1,1,3.0,2.0
2021-08-12 09:22:09.464,1124.0,-52.0,-53.0,1126.449732566882,1,1,1,3.0,2.0
2021-08-12 09:22:09.473,1059.0,-9.0,-43.0,1059.9108453072834,1,1,1,3.0,2.0
2021-08-12 09:22:09.483,918.0,-216.0,0.0,943.0694566149408,1,1,1,3.0,2.0
2021-08-12 09:22:09.493,907.0,149.0,38.0,919.94238950056,1,1,1,3.0,2.0
2021-08-12 09:22:09.504,1097.0,293.0,0.0,1135.454974888921,1,1,1,3.0,2.0
2021-08-12 09:22:09.514,1097.0,36.0,28.0,1097.9476308094115,1,1,1,3.0,2.0
2021-08-12 09:22:09.522,958.0,-114.0,74.0,967.5928895976862,1,1,1,3.0,2.0
2021-08-12 09:22:09.532,942.0,-177.0,21.0,958.714764671954,1,1,1,3.0,2.0
2021-08-12 09:22:09.541,971.0,-177.0,21.0,987.2238854484832,1,1,1,3.0,2.0
2021-08-12 09:22:09.542,971.0,41.0,0.0,971.8652169925622,1,1,1,3.0,2.0
2021-08-12 09:22:09.552,1087.0,320.0,-7.0,1133.1451804601209,1,1,1,3.0,2.0
2021-08-12 09:22:09.563,1115.0,-96.0,-56.0,1120.5253232301357,1,1,1,3.0,2.0
2021-08-12 09:22:09.571,933.0,-7.0,-6.0,933.04555087091,1,1,1,3.0,2.0
2021-08-12 09:22:09.581,935.0,-201.0,7.0,956.3864281763936,1,1,1,3.0,2.0
2021-08-12 09:22:09.590,924.0,149.0,7.0,935.9626060906492,1,1,1,3.0,2.0
2021-08-12 09:22:09.591,924.0,149.0,21.0,936.1719927449228,1,1,1,3.0,2.0
2021-08-12 09:22:09.611,1061.0,298.0,29.0,1102.4363927229542,1,1,1,3.0,2.0
2021-08-12 09:22:09.614,1138.0,7.0,23.0,1138.253925976098,1,1,1,3.0,2.0
2021-08-12 09:22:09.620,955.0,-74.0,73.0,960.640411392317,1,1,1,3.0,2.0
2021-08-12 09:22:09.630,910.0,134.0,68.0,922.3231537807126,1,1,1,3.0,2.0
2021-08-12 09:22:09.640,987.0,27.0,16.0,987.4988607588364,1,1,1,3.0,2.0
2021-08-12 09:22:09.650,1074.0,96.0,8.0,1078.311643264599,1,1,1,3.0,2.0
2021-08-12 09:22:09.660,1152.0,72.0,23.0,1154.4769378380845,1,1,1,3.0,2.0
2021-08-12 09:22:09.669,1001.0,279.0,0.0,1039.1544639753995,1,1,1,3.0,2.0
2021-08-12 09:22:09.680,913.0,0.0,-57.0,914.7775685924968,1,1,1,3.0,2.0
2021-08-12 09:22:09.688,1029.0,47.0,-25.0,1030.3761449101974,1,1,1,3.0,2.0
2021-08-12 09:22:09.699,949.0,4.0,-37.0,949.7294351550868,1,1,1,3.0,2.0
2021-08-12 09:22:09.708,1048.0,142.0,53.0,1058.903678339064,1,1,1,3.0,2.0
2021-08-12 09:22:09.719,1008.0,50.0,4.0,1009.2472442370106,1,1,1,3.0,2.0
2021-08-12 09:22:09.727,1026.0,53.0,20.0,1027.5626501581305,1,1,1,3.0,2.0
2021-08-12 09:22:09.737,955.0,23.0,20.0,955.486263637526,1,1,1,3.0,2.0
2021-08-12 09:22:09.738,955.0,23.0,7.0,955.3025698698816,1,1,1,3.0,2.0
2021-08-12 09:22:09.747,1035.0,65.0,13.0,1037.1205330143648,1,1,1,3.0,2.0
2021-08-12 09:22:09.756,975.0,45.0,-17.0,976.1859454017967,1,1,1,3.0,2.0
2021-08-12 09:22:09.767,1030.0,-3.0,-17.0,1030.1446500370712,1,1,1,3.0,2.0
2021-08-12 09:22:09.768,1030.0,-3.0,11.0,1030.0631048629982,1,1,1,3.0,2.0
2021-08-12 09:22:09.777,998.0,28.0,4.0,998.4007211535856,1,1,1,3.0,2.0
2021-08-12 09:22:09.786,1005.0,46.0,16.0,1006.1794074617112,1,1,1,3.0,2.0
2021-08-12 09:22:09.796,1001.0,43.0,8.0,1001.9550888138648,1,1,1,3.0,2.0
2021-08-12 09:22:09.932,1011.0,42.0,7.0,1011.896239740024,1,1,1,3.0,2.0
2021-08-12 09:22:09.942,1013.0,42.0,15.0,1013.9812621542866,1,1,1,3.0,2.0
2021-08-12 09:22:09.953,1014.0,41.0,4.0,1014.8364400237114,1,1,1,3.0,2.0
2021-08-12 09:22:09.963,1006.0,41.0,6.0,1006.8530180716548,1,1,1,3.0,2.0
2021-08-12 09:22:09.971,1018.0,38.0,9.0,1018.748742330512,1,1,1,3.0,2.0
2021-08-12 09:22:09.981,1016.0,38.0,5.0,1016.7226760528164,1,1,1,3.0,2.0
