time_stamp,Acceleration_X,Acceleration_Y,Acceleration_Z,magnitude,STD_Status_right,STD_Status_left,STD_Status_both,KMeans,KMeans_convert
2021-08-31 07:25:20.211,1000.0,47.0,11.0,1001.1643221769342,1,1,1,2.0,2.0
2021-08-31 07:25:20.219,1003.0,45.0,4.0,1004.0169321281388,1,1,1,2.0,2.0
2021-08-31 07:25:20.230,1011.0,44.0,12.0,1012.0281616634984,1,1,1,2.0,2.0
2021-08-31 07:25:20.239,1015.0,35.0,12.0,1015.674160348682,1,1,1,2.0,2.0
2021-08-31 07:25:20.240,1015.0,35.0,5.0,1015.6155768793624,1,1,1,2.0,2.0
2021-08-31 07:25:20.248,1015.0,44.0,10.0,1016.0024606269416,1,1,1,2.0,2.0
2021-08-31 07:25:20.258,1006.0,42.0,5.0,1006.88877240736,1,1,1,2.0,2.0
2021-08-31 07:25:20.269,1015.0,42.0,5.0,1015.8808985309252,1,1,1,2.0,2.0
2021-08-31 07:25:20.278,1005.0,47.0,8.0,1006.1302102610777,1,1,1,2.0,2.0
2021-08-31 07:25:20.289,1013.0,49.0,3.0,1014.1888384319756,1,1,1,2.0,2.0
2021-08-31 07:25:20.297,1013.0,44.0,6.0,1013.97287932173,1,1,1,2.0,2.0
2021-08-31 07:25:20.319,1004.0,36.0,14.0,1004.7427531462966,1,1,1,2.0,2.0
2021-08-31 07:25:20.327,1003.0,62.0,19.0,1005.0940254523456,1,1,1,2.0,2.0
2021-08-31 07:25:20.337,1016.0,6.0,19.0,1016.1953552344156,1,1,1,2.0,2.0
2021-08-31 07:25:20.338,1016.0,6.0,5.0,1016.0300192415576,1,1,1,2.0,2.0
2021-08-31 07:25:20.347,975.0,67.0,7.0,977.3244087814444,1,1,1,2.0,2.0
2021-08-31 07:25:20.355,1034.0,6.0,7.0,1034.0411016976066,1,1,1,2.0,2.0
2021-08-31 07:25:20.356,1034.0,6.0,4.0,1034.0251447619637,1,1,1,2.0,2.0
2021-08-31 07:25:20.365,1014.0,66.0,5.0,1016.1579601617065,1,1,1,2.0,2.0
2021-08-31 07:25:20.375,998.0,53.0,5.0,999.4188311213672,1,1,1,2.0,2.0
2021-08-31 07:25:20.385,1001.0,66.0,-1.0,1003.1739629795024,1,1,1,2.0,2.0
2021-08-31 07:25:20.396,1005.0,80.0,17.0,1008.3223690863948,1,1,1,2.0,2.0
2021-08-31 07:25:20.404,1024.0,54.0,13.0,1025.5052413322908,1,1,1,2.0,2.0
2021-08-31 07:25:20.414,1009.0,30.0,7.0,1009.4701580532236,1,1,1,2.0,2.0
2021-08-31 07:25:20.424,1008.0,49.0,1.0,1009.190764920092,1,1,1,2.0,2.0
2021-08-31 07:25:20.433,1027.0,49.0,1.0,1028.1687604668798,1,1,1,2.0,2.0
2021-08-31 07:25:20.434,1027.0,29.0,9.0,1027.4487821784596,1,1,1,2.0,2.0
2021-08-31 07:25:20.445,1021.0,35.0,9.0,1021.6393688577198,1,1,1,2.0,2.0
2021-08-31 07:25:20.453,1008.0,35.0,9.0,1008.647609425611,1,1,1,2.0,2.0
2021-08-31 07:25:20.454,1008.0,42.0,2.0,1008.8766029599458,1,1,1,2.0,2.0
2021-08-31 07:25:20.463,996.0,62.0,-7.0,997.9524036746442,1,1,1,2.0,2.0
2021-08-31 07:25:20.472,1016.0,62.0,-7.0,1017.91404352234,1,1,1,2.0,2.0
2021-08-31 07:25:20.473,1016.0,60.0,2.0,1017.772076645847,1,1,1,2.0,2.0
2021-08-31 07:25:20.483,1016.0,52.0,6.0,1017.347531574142,1,1,1,2.0,2.0
2021-08-31 07:25:20.493,1001.0,52.0,6.0,1002.3676970054452,1,1,1,2.0,2.0
2021-08-31 07:25:20.494,1001.0,41.0,0.0,1001.839308472172,1,1,1,2.0,2.0
2021-08-31 07:25:20.502,1016.0,41.0,0.0,1016.8269272595018,1,1,1,2.0,2.0
2021-08-31 07:25:20.503,1016.0,40.0,0.0,1016.7870966923214,1,1,1,2.0,2.0
2021-08-31 07:25:20.512,1021.0,38.0,10.0,1021.755841676474,1,1,1,2.0,2.0
2021-08-31 07:25:20.523,1021.0,25.0,10.0,1021.3549823641142,1,1,1,2.0,2.0
2021-08-31 07:25:20.532,998.0,42.0,3.0,998.8878815963282,1,1,1,2.0,2.0
2021-08-31 07:25:20.542,1006.0,54.0,4.0,1007.4562025219756,1,1,1,2.0,2.0
2021-08-31 07:25:20.551,1026.0,54.0,4.0,1027.4278563480748,1,1,1,2.0,2.0
2021-08-31 07:25:20.552,1026.0,42.0,8.0,1026.89045180097,1,1,1,2.0,2.0
2021-08-31 07:25:20.565,1002.0,42.0,8.0,1002.9117608244508,1,1,1,2.0,2.0
2021-08-31 07:25:20.566,1002.0,43.0,7.0,1002.9466586015428,1,1,1,2.0,2.0
2021-08-31 07:25:20.570,1003.0,50.0,9.0,1004.285815891074,1,1,1,2.0,2.0
2021-08-31 07:25:20.580,1004.0,40.0,-6.0,1004.814410724687,1,1,1,2.0,2.0
2021-08-31 07:25:20.591,1025.0,43.0,-6.0,1025.9191001243714,1,1,1,2.0,2.0
2021-08-31 07:25:20.592,1025.0,43.0,15.0,1026.0112085157743,1,1,1,2.0,2.0
2021-08-31 07:25:20.599,1014.0,43.0,15.0,1015.0221672456224,1,1,1,2.0,2.0
2021-08-31 07:25:20.600,1014.0,17.0,14.0,1014.2391236784352,1,1,1,2.0,2.0
2021-08-31 07:25:20.610,1003.0,34.0,3.0,1003.5805896887404,1,1,1,2.0,2.0
2021-08-31 07:25:20.619,992.0,53.0,2.0,993.4168309425808,1,1,1,2.0,2.0
2021-08-31 07:25:20.629,1011.0,67.0,11.0,1013.2773559100192,1,1,1,2.0,2.0
2021-08-31 07:25:20.639,1018.0,47.0,9.0,1019.124133754078,1,1,1,2.0,2.0
2021-08-31 07:25:20.650,994.0,56.0,2.0,995.5782239482742,1,1,1,2.0,2.0
2021-08-31 07:25:20.659,1019.0,57.0,8.0,1020.6243187382906,1,1,1,2.0,2.0
2021-08-31 07:25:20.668,1025.0,42.0,11.0,1025.9191001243714,1,1,1,2.0,2.0
2021-08-31 07:25:20.678,1013.0,24.0,6.0,1013.3020280252084,1,1,1,2.0,2.0
2021-08-31 07:25:20.688,995.0,36.0,0.0,995.6510432877576,1,1,1,2.0,2.0
2021-08-31 07:25:20.698,1016.0,31.0,12.0,1016.5436537601324,1,1,1,2.0,2.0
2021-08-31 07:25:20.708,1026.0,48.0,14.0,1027.2176010953085,1,1,1,2.0,2.0
2021-08-31 07:25:20.717,1017.0,42.0,18.0,1018.0260311013662,1,1,1,2.0,2.0
2021-08-31 07:25:20.726,995.0,42.0,18.0,996.0486935888224,1,1,1,2.0,2.0
2021-08-31 07:25:20.727,995.0,60.0,4.0,996.8154292545836,1,1,1,2.0,2.0
2021-08-31 07:25:20.737,1019.0,43.0,10.0,1019.9558813987984,1,1,1,2.0,2.0
2021-08-31 07:25:20.746,1029.0,43.0,10.0,1029.946600557524,1,1,1,2.0,2.0
2021-08-31 07:25:20.747,1029.0,45.0,8.0,1030.0145630038442,1,1,1,2.0,2.0
2021-08-31 07:25:20.757,1004.0,24.0,3.0,1004.2912924047484,1,1,1,2.0,2.0
2021-08-31 07:25:20.766,1003.0,32.0,3.0,1003.5148230096056,1,1,1,2.0,2.0
2021-08-31 07:25:20.767,1003.0,32.0,2.0,1003.512331762794,1,1,1,2.0,2.0
2021-08-31 07:25:20.775,1017.0,55.0,7.0,1018.5101864979064,1,1,1,2.0,2.0
2021-08-31 07:25:20.785,1012.0,75.0,17.0,1014.917730656037,1,1,1,2.0,2.0
2021-08-31 07:25:20.795,1014.0,34.0,17.0,1014.7122744896704,1,1,1,2.0,2.0
2021-08-31 07:25:20.796,1014.0,34.0,5.0,1014.5821800130336,1,1,1,2.0,2.0
2021-08-31 07:25:20.805,986.0,34.0,5.0,986.5987026141884,1,1,1,2.0,2.0
2021-08-31 07:25:20.806,986.0,73.0,-2.0,988.7006624858708,1,1,1,2.0,2.0
2021-08-31 07:25:20.815,1013.0,45.0,6.0,1014.0167651474012,1,1,1,2.0,2.0
2021-08-31 07:25:20.824,1017.0,45.0,6.0,1018.0127700574292,1,1,1,2.0,2.0
2021-08-31 07:25:20.834,1020.0,19.0,-3.0,1020.1813564263954,1,1,1,2.0,2.0
2021-08-31 07:25:20.844,997.0,29.0,-3.0,997.4261877452386,1,1,1,2.0,2.0
2021-08-31 07:25:20.854,1015.0,29.0,-3.0,1015.418632880055,1,1,1,2.0,2.0
2021-08-31 07:25:20.855,1015.0,40.0,10.0,1015.8370932388716,1,1,1,2.0,2.0
2021-08-31 07:25:20.863,1023.0,21.0,6.0,1023.2331112703498,1,1,1,2.0,2.0
2021-08-31 07:25:20.873,1011.0,21.0,6.0,1011.2358775280868,1,1,1,2.0,2.0
2021-08-31 07:25:20.874,1011.0,36.0,9.0,1011.6807796928832,1,1,1,2.0,2.0
2021-08-31 07:25:20.883,1003.0,52.0,10.0,1004.3968339257148,1,1,1,2.0,2.0
2021-08-31 07:25:20.893,1013.0,55.0,17.0,1014.6344169206956,1,1,1,2.0,2.0
2021-08-31 07:25:20.902,1017.0,49.0,7.0,1018.2038106391076,1,1,1,2.0,2.0
2021-08-31 07:25:20.914,1011.0,25.0,3.0,1011.3135023324865,1,1,1,2.0,2.0
2021-08-31 07:25:20.922,1019.0,25.0,3.0,1019.3110418316874,1,1,1,2.0,2.0
2021-08-31 07:25:20.923,1019.0,27.0,9.0,1019.3973709991604,1,1,1,2.0,2.0
2021-08-31 07:25:20.932,1030.0,30.0,14.0,1030.5319014955337,1,1,1,2.0,2.0
2021-08-31 07:25:20.942,1017.0,43.0,15.0,1018.0191550260732,1,1,1,2.0,2.0
2021-08-31 07:25:20.952,1004.0,46.0,-3.0,1005.057709785861,1,1,1,2.0,2.0
2021-08-31 07:25:20.962,1010.0,48.0,4.0,1011.1478625799492,1,1,1,2.0,2.0
2021-08-31 07:25:20.971,1015.0,56.0,4.0,1016.551523534346,1,1,1,2.0,2.0
2021-08-31 07:25:20.972,1015.0,56.0,5.0,1016.5559502555676,1,1,1,2.0,2.0
2021-08-31 07:25:20.980,1024.0,50.0,5.0,1025.2321688281147,1,1,1,2.0,2.0
2021-08-31 07:25:20.981,1024.0,50.0,7.0,1025.243873427196,1,1,1,2.0,2.0
2021-08-31 07:25:20.990,1014.0,29.0,10.0,1014.4638978297849,1,1,1,2.0,2.0
2021-08-31 07:25:21.000,1008.0,33.0,5.0,1008.5524279877573,1,1,1,2.0,2.0
2021-08-31 07:25:21.010,1010.0,33.0,5.0,1010.551334668358,1,1,1,2.0,2.0
2021-08-31 07:25:21.011,1010.0,30.0,0.0,1010.4454463255304,1,1,1,2.0,2.0
2021-08-31 07:25:21.019,1029.0,30.0,0.0,1029.4372248952336,1,1,1,2.0,2.0
2021-08-31 07:25:21.020,1029.0,32.0,10.0,1029.546016455797,1,1,1,2.0,2.0
2021-08-31 07:25:21.030,979.0,59.0,4.0,980.7843799734984,1,1,1,2.0,2.0
2021-08-31 07:25:21.039,991.0,76.0,7.0,993.934605494748,1,1,1,2.0,2.0
2021-08-31 07:25:21.049,1016.0,53.0,6.0,1017.39913504976,1,1,1,2.0,2.0
2021-08-31 07:25:21.075,1016.0,51.0,17.0,1017.421250023804,1,1,1,2.0,2.0
2021-08-31 07:25:21.076,1002.0,47.0,9.0,1003.1420637177966,1,1,1,2.0,2.0
2021-08-31 07:25:21.080,1015.0,46.0,8.0,1016.073324125774,1,1,1,2.0,2.0
2021-08-31 07:25:21.088,1011.0,31.0,4.0,1011.4830695567772,1,1,1,2.0,2.0
2021-08-31 07:25:21.098,1024.0,41.0,12.0,1024.8907258825209,1,1,1,2.0,2.0
2021-08-31 07:25:21.110,1013.0,34.0,7.0,1013.5945935136,1,1,1,2.0,2.0
2021-08-31 07:25:21.117,1016.0,49.0,8.0,1017.212367207556,1,1,1,2.0,2.0
2021-08-31 07:25:21.127,1015.0,48.0,7.0,1016.1584522110712,1,1,1,2.0,2.0
2021-08-31 07:25:21.138,1018.0,52.0,7.0,1019.3512642852806,1,1,1,2.0,2.0
2021-08-31 07:25:21.139,1018.0,52.0,8.0,1019.358621879464,1,1,1,2.0,2.0
2021-08-31 07:25:21.146,1008.0,52.0,8.0,1009.372082039126,1,1,1,2.0,2.0
2021-08-31 07:25:21.147,1008.0,35.0,7.0,1008.6317464763836,1,1,1,2.0,2.0
2021-08-31 07:25:21.157,1009.0,36.0,7.0,1009.666281500972,1,1,1,2.0,2.0
2021-08-31 07:25:21.158,1009.0,36.0,0.0,1009.6420157659844,1,1,1,2.0,2.0
2021-08-31 07:25:21.166,1009.0,40.0,10.0,1009.842066859962,1,1,1,2.0,2.0
2021-08-31 07:25:21.184,1011.0,41.0,12.0,1011.9021691843536,1,1,1,2.0,2.0
2021-08-31 07:25:21.188,1006.0,36.0,1.0,1006.644425802875,1,1,1,2.0,2.0
2021-08-31 07:25:21.209,989.0,28.0,1.0,989.3967859256468,1,1,1,2.0,2.0
2021-08-31 07:25:21.210,989.0,28.0,0.0,989.396280567094,1,1,1,2.0,2.0
2021-08-31 07:25:21.216,1009.0,45.0,6.0,1010.0207918651972,1,1,1,2.0,2.0
2021-08-31 07:25:21.224,1021.0,47.0,6.0,1022.0988210540114,1,1,1,2.0,2.0
2021-08-31 07:25:21.232,989.0,50.0,5.0,990.2757191812792,1,1,1,2.0,2.0
2021-08-31 07:25:21.236,1011.0,64.0,6.0,1013.0414601584675,1,1,1,2.0,2.0
2021-08-31 07:25:21.246,1019.0,46.0,9.0,1020.0774480400986,1,1,1,2.0,2.0
2021-08-31 07:25:21.254,1018.0,18.0,11.0,1018.2185423571896,1,1,1,2.0,2.0
2021-08-31 07:25:21.264,993.0,57.0,7.0,994.6592381313312,1,1,1,2.0,2.0
2021-08-31 07:25:21.273,1022.0,18.0,8.0,1022.1898062493092,1,1,1,2.0,2.0
2021-08-31 07:25:21.284,1017.0,55.0,16.0,1018.6118004421508,1,1,1,2.0,2.0
2021-08-31 07:25:21.294,1010.0,29.0,0.0,1010.4162508590208,1,1,1,2.0,2.0
2021-08-31 07:25:21.303,991.0,62.0,6.0,992.9556888401416,1,1,1,2.0,2.0
2021-08-31 07:25:21.316,1017.0,53.0,12.0,1018.4507842797314,1,1,1,2.0,2.0
2021-08-31 07:25:21.322,1022.0,46.0,12.0,1023.1050776924136,1,1,1,2.0,2.0
2021-08-31 07:25:21.332,1028.0,-4.0,0.0,1028.0077820717115,1,1,1,2.0,2.0
2021-08-31 07:25:21.343,1016.0,41.0,7.0,1016.8510215365868,1,1,1,2.0,2.0
2021-08-31 07:25:21.352,1008.0,41.0,7.0,1008.857769955706,1,1,1,2.0,2.0
2021-08-31 07:25:21.353,1008.0,40.0,5.0,1008.805729563428,1,1,1,2.0,2.0
2021-08-31 07:25:21.361,1024.0,52.0,5.0,1025.3316536613895,1,1,1,2.0,2.0
2021-08-31 07:25:21.362,1024.0,52.0,6.0,1025.3370177653785,1,1,1,2.0,2.0
2021-08-31 07:25:21.372,1020.0,28.0,14.0,1020.4802790843142,1,1,1,2.0,2.0
2021-08-31 07:25:21.381,1000.0,62.0,2.0,1001.9221526645672,1,1,1,2.0,2.0
2021-08-31 07:25:21.390,1008.0,62.0,2.0,1009.9069264046068,1,1,1,2.0,2.0
2021-08-31 07:25:21.391,1008.0,56.0,7.0,1009.5786249718244,1,1,1,2.0,2.0
2021-08-31 07:25:21.401,1014.0,53.0,7.0,1015.4082922647422,1,1,1,2.0,2.0
2021-08-31 07:25:21.402,1014.0,53.0,10.0,1015.4334050049762,1,1,1,2.0,2.0
2021-08-31 07:25:21.410,1016.0,51.0,7.0,1017.3032979401964,1,1,1,2.0,2.0
2021-08-31 07:25:21.420,992.0,48.0,11.0,993.221526146106,1,1,1,2.0,2.0
2021-08-31 07:25:21.429,1013.0,48.0,11.0,1014.1962334775258,1,1,1,2.0,2.0
2021-08-31 07:25:21.430,1013.0,51.0,10.0,1014.33229269308,1,1,1,2.0,2.0
2021-08-31 07:25:21.440,1013.0,35.0,18.0,1013.7642724026132,1,1,1,2.0,2.0
2021-08-31 07:25:21.450,1002.0,22.0,2.0,1002.2434833911368,1,1,1,2.0,2.0
2021-08-31 07:25:21.459,990.0,22.0,2.0,990.246433974897,1,1,1,2.0,2.0
2021-08-31 07:25:21.460,990.0,47.0,-7.0,991.1397479669556,1,1,1,2.0,2.0
2021-08-31 07:25:21.469,1025.0,64.0,9.0,1027.035539794023,1,1,1,2.0,2.0
2021-08-31 07:25:21.478,1020.0,64.0,9.0,1022.0454980087726,1,1,1,2.0,2.0
2021-08-31 07:25:21.479,1020.0,42.0,5.0,1020.8765841177864,1,1,1,2.0,2.0
2021-08-31 07:25:21.488,1011.0,31.0,4.0,1011.4830695567772,1,1,1,2.0,2.0
2021-08-31 07:25:21.499,1017.0,17.0,-2.0,1017.1440409302904,1,1,1,2.0,2.0
2021-08-31 07:25:21.508,1021.0,17.0,-2.0,1021.1434766965904,1,1,1,2.0,2.0
2021-08-31 07:25:21.509,1021.0,28.0,13.0,1021.4665926989488,1,1,1,2.0,2.0
2021-08-31 07:25:21.521,1023.0,37.0,11.0,1023.7279912164169,1,1,1,2.0,2.0
2021-08-31 07:25:21.527,1007.0,28.0,0.0,1007.3891998626946,1,1,1,2.0,2.0
2021-08-31 07:25:21.537,996.0,50.0,10.0,997.3043667807736,1,1,1,2.0,2.0
2021-08-31 07:25:21.547,1019.0,50.0,10.0,1020.2749629389128,1,1,1,2.0,2.0
2021-08-31 07:25:21.548,1019.0,59.0,7.0,1020.7306206830478,1,1,1,2.0,2.0
2021-08-31 07:25:21.558,1025.0,44.0,5.0,1025.9561394133766,1,1,1,2.0,2.0
2021-08-31 07:25:21.569,1009.0,11.0,6.0,1009.0777968026052,1,1,1,2.0,2.0
2021-08-31 07:25:21.576,1014.0,23.0,4.0,1014.26870207061,1,1,1,2.0,2.0
2021-08-31 07:25:21.586,1015.0,40.0,17.0,1015.9301157067842,1,1,1,2.0,2.0
2021-08-31 07:25:21.597,1026.0,5.0,5.0,1026.0243661824022,1,1,1,2.0,2.0
2021-08-31 07:25:21.606,994.0,5.0,5.0,994.0251505872476,1,1,1,2.0,2.0
2021-08-31 07:25:21.607,994.0,54.0,1.0,995.466222430475,1,1,1,2.0,2.0
2021-08-31 07:25:21.616,995.0,54.0,1.0,996.4647510072796,1,1,1,2.0,2.0
2021-08-31 07:25:21.617,995.0,74.0,0.0,997.747964167304,1,1,1,2.0,2.0
2021-08-31 07:25:21.625,1016.0,74.0,0.0,1018.691317328267,1,1,1,2.0,2.0
2021-08-31 07:25:21.626,1016.0,56.0,9.0,1017.5819377327804,1,1,1,2.0,2.0
2021-08-31 07:25:21.635,1012.0,41.0,14.0,1012.9269470203664,1,1,1,2.0,2.0
2021-08-31 07:25:21.644,1013.0,41.0,14.0,1013.9260328051548,1,1,1,2.0,2.0
2021-08-31 07:25:21.645,1013.0,35.0,10.0,1013.653787049602,1,1,1,2.0,2.0
2021-08-31 07:25:21.655,1024.0,43.0,4.0,1024.9102399722622,1,1,1,2.0,2.0
2021-08-31 07:25:21.665,1019.0,38.0,4.0,1019.7161369714612,1,1,1,2.0,2.0
2021-08-31 07:25:21.666,1019.0,38.0,8.0,1019.7396726616064,1,1,1,2.0,2.0
2021-08-31 07:25:21.674,1024.0,20.0,8.0,1024.2265374417907,1,1,1,2.0,2.0
2021-08-31 07:25:21.675,1024.0,20.0,12.0,1024.265590557449,1,1,1,2.0,2.0
2021-08-31 07:25:21.683,996.0,20.0,12.0,996.2730549402607,1,1,1,2.0,2.0
2021-08-31 07:25:21.684,996.0,43.0,-1.0,996.9282822751092,1,1,1,2.0,2.0
2021-08-31 07:25:21.693,1013.0,45.0,10.0,1014.0483223199968,1,1,1,2.0,2.0
2021-08-31 07:25:21.704,1016.0,61.0,8.0,1017.8609924739231,1,1,1,2.0,2.0
2021-08-31 07:25:21.714,1014.0,47.0,12.0,1015.1595933645114,1,1,1,2.0,2.0
2021-08-31 07:25:21.723,1001.0,47.0,12.0,1002.174635480264,1,1,1,2.0,2.0
2021-08-31 07:25:21.725,1001.0,34.0,12.0,1001.6491401683526,1,1,1,2.0,2.0
2021-08-31 07:25:21.726,1001.0,34.0,10.0,1001.6271761488904,1,1,1,2.0,2.0
2021-08-31 07:25:21.732,1009.0,34.0,2.0,1009.5746629150318,1,1,1,2.0,2.0
2021-08-31 07:25:21.742,1016.0,34.0,11.0,1016.6282506403212,1,1,1,2.0,2.0
2021-08-31 07:25:21.752,1020.0,38.0,12.0,1020.7781345620604,1,1,1,2.0,2.0
2021-08-31 07:25:21.762,995.0,36.0,8.0,995.6831825435236,1,1,1,2.0,2.0
2021-08-31 07:25:21.772,1010.0,36.0,8.0,1010.6730430757516,1,1,1,2.0,2.0
2021-08-31 07:25:21.773,1010.0,53.0,3.0,1011.3940873863164,1,1,1,2.0,2.0
2021-08-31 07:25:21.782,1016.0,64.0,7.0,1018.0378185509612,1,1,1,2.0,2.0
2021-08-31 07:25:21.791,1019.0,55.0,11.0,1020.5425027895702,1,1,1,2.0,2.0
2021-08-31 07:25:21.801,990.0,63.0,-3.0,992.0070564265156,1,1,1,2.0,2.0
2021-08-31 07:25:21.811,1020.0,63.0,-3.0,1021.948139584392,1,1,1,2.0,2.0
2021-08-31 07:25:21.812,1020.0,65.0,15.0,1022.1790449818466,1,1,1,2.0,2.0
2021-08-31 07:25:21.821,1023.0,51.0,4.0,1024.2782824994388,1,1,1,2.0,2.0
2021-08-31 07:25:21.830,1019.0,17.0,4.0,1019.1496455378866,1,1,1,2.0,2.0
2021-08-31 07:25:21.831,1019.0,17.0,12.0,1019.2124410543662,1,1,1,2.0,2.0
2021-08-31 07:25:21.840,992.0,51.0,3.0,993.3146530682008,1,1,1,2.0,2.0
2021-08-31 07:25:21.850,1018.0,8.0,11.0,1018.0908603852604,1,1,1,2.0,2.0
2021-08-31 07:25:21.860,1025.0,42.0,16.0,1025.984892676301,1,1,1,2.0,2.0
2021-08-31 07:25:21.870,998.0,31.0,-1.0,998.4818476066552,1,1,1,2.0,2.0
2021-08-31 07:25:21.880,986.0,74.0,8.0,988.805339791407,1,1,1,2.0,2.0
2021-08-31 07:25:21.889,1023.0,42.0,7.0,1023.8857358123512,1,1,1,2.0,2.0
2021-08-31 07:25:21.898,1019.0,54.0,7.0,1020.4538206112024,1,1,1,2.0,2.0
2021-08-31 07:25:21.899,1019.0,54.0,16.0,1020.5552410330369,1,1,1,2.0,2.0
2021-08-31 07:25:21.909,1013.0,11.0,3.0,1013.0641638119472,1,1,1,2.0,2.0
2021-08-31 07:25:21.919,1008.0,22.0,1.0,1008.240546695083,1,1,1,2.0,2.0
2021-08-31 07:25:21.929,1015.0,42.0,8.0,1015.9000935131368,1,1,1,2.0,2.0
2021-08-31 07:25:21.938,1025.0,52.0,15.0,1026.4277860619325,1,1,1,2.0,2.0
2021-08-31 07:25:21.947,1009.0,42.0,2.0,1009.8757349297982,1,1,1,2.0,2.0
2021-08-31 07:25:21.957,996.0,42.0,2.0,996.887155098309,1,1,1,2.0,2.0
2021-08-31 07:25:21.958,996.0,79.0,3.0,999.1326238292892,1,1,1,2.0,2.0
2021-08-31 07:25:21.967,1010.0,79.0,3.0,1013.0893346590912,1,1,1,2.0,2.0
2021-08-31 07:25:21.968,1010.0,66.0,18.0,1012.3141804795584,1,1,1,2.0,2.0
2021-08-31 07:25:21.977,1019.0,53.0,11.0,1020.436671234428,1,1,1,2.0,2.0
2021-08-31 07:25:21.986,1012.0,1.0,11.0,1012.060274884851,1,1,1,2.0,2.0
2021-08-31 07:25:21.987,1012.0,1.0,10.0,1012.0498999555308,1,1,1,2.0,2.0
2021-08-31 07:25:21.996,998.0,25.0,14.0,998.4112379175226,1,1,1,2.0,2.0
2021-08-31 07:25:22.006,1006.0,25.0,4.0,1006.318538038528,1,1,1,2.0,2.0
2021-08-31 07:25:22.016,1026.0,44.0,17.0,1027.0837356321051,1,1,1,2.0,2.0
2021-08-31 07:25:22.025,996.0,34.0,-3.0,996.5846677528208,1,1,1,2.0,2.0
2021-08-31 07:25:22.036,995.0,70.0,-1.0,997.4597736249818,1,1,1,2.0,2.0
2021-08-31 07:25:22.045,1016.0,65.0,17.0,1018.2190334107884,1,1,1,2.0,2.0
2021-08-31 07:25:22.055,1030.0,40.0,11.0,1030.835098354727,1,1,1,2.0,2.0
2021-08-31 07:25:22.065,996.0,56.0,9.0,997.613652673218,1,1,1,2.0,2.0
2021-08-31 07:25:22.075,1016.0,26.0,0.0,1016.3326227175826,1,1,1,2.0,2.0
2021-08-31 07:25:22.095,1020.0,41.0,4.0,1020.83152380792,1,1,1,2.0,2.0
2021-08-31 07:25:22.097,1026.0,41.0,4.0,1026.8266650219014,1,1,1,2.0,2.0
2021-08-31 07:25:22.098,1026.0,49.0,12.0,1027.2395046920656,1,1,1,2.0,2.0
2021-08-31 07:25:22.105,996.0,47.0,4.0,997.1163422590164,1,1,1,2.0,2.0
2021-08-31 07:25:22.113,1008.0,61.0,5.0,1009.8564254387848,1,1,1,2.0,2.0
2021-08-31 07:25:22.124,1012.0,58.0,6.0,1013.678450002761,1,1,1,2.0,2.0
2021-08-31 07:25:22.133,1027.0,42.0,9.0,1027.8978548474552,1,1,1,2.0,2.0
2021-08-31 07:25:22.143,1011.0,24.0,4.0,1011.292737045016,1,1,1,2.0,2.0
2021-08-31 07:25:22.152,1016.0,18.0,2.0,1016.1614045022573,1,1,1,2.0,2.0
2021-08-31 07:25:22.163,1026.0,45.0,7.0,1027.0102239023718,1,1,1,2.0,2.0
2021-08-31 07:25:22.172,1026.0,13.0,7.0,1026.1062323171027,1,1,1,2.0,2.0
2021-08-31 07:25:22.182,992.0,48.0,15.0,993.2738796525356,1,1,1,2.0,2.0
2021-08-31 07:25:22.197,996.0,79.0,15.0,999.2407117406696,1,1,1,2.0,2.0
2021-08-31 07:25:22.198,996.0,79.0,9.0,999.1686544322736,1,1,1,2.0,2.0
2021-08-31 07:25:22.203,1008.0,53.0,4.0,1009.400317019962,1,1,1,2.0,2.0
2021-08-31 07:25:22.228,1027.0,53.0,4.0,1028.3744454234557,1,1,1,2.0,2.0
2021-08-31 07:25:22.229,1027.0,47.0,5.0,1028.0870585704306,1,1,1,2.0,2.0
2021-08-31 07:25:22.234,981.0,84.0,7.0,984.6146454324148,1,1,1,2.0,2.0
2021-08-31 07:25:22.238,1019.0,52.0,8.0,1020.3572903645075,1,1,1,2.0,2.0
2021-08-31 07:25:22.244,1012.0,33.0,7.0,1012.5620968612246,1,1,1,2.0,2.0
2021-08-31 07:25:22.250,1026.0,33.0,7.0,1026.5544310946204,1,1,1,2.0,2.0
2021-08-31 07:25:22.251,1026.0,18.0,-2.0,1026.159831605194,1,1,1,2.0,2.0
2021-08-31 07:25:22.260,993.0,18.0,-2.0,993.165142360524,1,1,1,2.0,2.0
2021-08-31 07:25:22.261,993.0,54.0,4.0,994.4752385052128,1,1,1,2.0,2.0
2021-08-31 07:25:22.270,1019.0,13.0,7.0,1019.106962001536,1,1,1,2.0,2.0
2021-08-31 07:25:22.280,1019.0,49.0,2.0,1020.1793959887644,1,1,1,2.0,2.0
2021-08-31 07:25:22.290,1020.0,53.0,9.0,1021.4156842343864,1,1,1,2.0,2.0
2021-08-31 07:25:22.299,1010.0,29.0,6.0,1010.4340651423032,1,1,1,2.0,2.0
2021-08-31 07:25:22.311,1020.0,44.0,4.0,1020.9564143488204,1,1,1,2.0,2.0
2021-08-31 07:25:22.319,1021.0,47.0,12.0,1022.1516521534364,1,1,1,2.0,2.0
2021-08-31 07:25:22.329,1020.0,12.0,11.0,1020.1298936900145,1,1,1,2.0,2.0
2021-08-31 07:25:22.339,998.0,41.0,-2.0,998.8438316373586,1,1,1,2.0,2.0
2021-08-31 07:25:22.348,1013.0,55.0,12.0,1014.5629600966122,1,1,1,2.0,2.0
2021-08-31 07:25:22.357,1015.0,69.0,12.0,1017.4133869769948,1,1,1,2.0,2.0
2021-08-31 07:25:22.358,1015.0,69.0,9.0,1017.3824256394446,1,1,1,2.0,2.0
2021-08-31 07:25:22.367,1012.0,43.0,11.0,1012.972852548379,1,1,1,2.0,2.0
2021-08-31 07:25:22.377,986.0,43.0,11.0,986.998480241991,1,1,1,2.0,2.0
2021-08-31 07:25:22.378,986.0,75.0,-7.0,988.8730960037288,1,1,1,2.0,2.0
2021-08-31 07:25:22.388,1010.0,65.0,12.0,1012.1605603855546,1,1,1,2.0,2.0
2021-08-31 07:25:22.396,1005.0,45.0,12.0,1006.0785257622788,1,1,1,2.0,2.0
2021-08-31 07:25:22.397,1005.0,45.0,14.0,1006.104368343563,1,1,1,2.0,2.0
2021-08-31 07:25:22.407,1018.0,34.0,11.0,1018.6270171166676,1,1,1,2.0,2.0
2021-08-31 07:25:22.416,1001.0,40.0,6.0,1001.8168495288946,1,1,1,2.0,2.0
2021-08-31 07:25:22.426,1013.0,20.0,11.0,1013.2571243272854,1,1,1,2.0,2.0
2021-08-31 07:25:22.436,1026.0,38.0,17.0,1026.8441946079258,1,1,1,2.0,2.0
2021-08-31 07:25:22.446,1018.0,48.0,13.0,1019.213912777882,1,1,1,2.0,2.0
2021-08-31 07:25:22.455,991.0,71.0,5.0,993.552716266228,1,1,1,2.0,2.0
2021-08-31 07:25:22.465,1025.0,56.0,15.0,1026.638203068637,1,1,1,2.0,2.0
2021-08-31 07:25:22.475,1016.0,53.0,8.0,1017.4128955345514,1,1,1,2.0,2.0
2021-08-31 07:25:22.485,1008.0,31.0,2.0,1008.4785570352996,1,1,1,2.0,2.0
2021-08-31 07:25:22.495,1016.0,24.0,-4.0,1016.2912968238978,1,1,1,2.0,2.0
2021-08-31 07:25:22.504,1019.0,-3.0,7.0,1019.0284588763948,1,1,1,2.0,2.0
2021-08-31 07:25:22.514,1025.0,57.0,17.0,1026.7244031384469,1,1,1,2.0,2.0
2021-08-31 07:25:22.523,1001.0,57.0,17.0,1002.7656755194604,1,1,1,2.0,2.0
2021-08-31 07:25:22.524,1001.0,36.0,5.0,1001.6596228260375,1,1,1,2.0,2.0
2021-08-31 07:25:22.534,994.0,65.0,7.0,996.1475794278678,1,1,1,2.0,2.0
2021-08-31 07:25:22.544,1015.0,70.0,11.0,1017.470392689635,1,1,1,2.0,2.0
2021-08-31 07:25:22.553,1015.0,50.0,20.0,1016.427567512806,1,1,1,2.0,2.0
2021-08-31 07:25:22.564,1012.0,9.0,20.0,1012.237620324398,1,1,1,2.0,2.0
2021-08-31 07:25:22.565,1012.0,9.0,5.0,1012.0523701864444,1,1,1,2.0,2.0
2021-08-31 07:25:22.572,1003.0,32.0,5.0,1003.5227949578424,1,1,1,2.0,2.0
2021-08-31 07:25:22.582,1010.0,25.0,3.0,1010.3138126344704,1,1,1,2.0,2.0
2021-08-31 07:25:22.593,1037.0,15.0,11.0,1037.166813969672,1,1,1,2.0,2.0
2021-08-31 07:25:22.602,1005.0,15.0,11.0,1005.1721245637484,1,1,1,2.0,2.0
2021-08-31 07:25:22.603,1005.0,35.0,3.0,1005.6137429450732,1,1,1,2.0,2.0
2021-08-31 07:25:22.612,981.0,96.0,0.0,985.6860554963736,1,1,1,2.0,2.0
2021-08-31 07:25:22.621,1007.0,68.0,7.0,1009.31759124668,1,1,1,2.0,2.0
2021-08-31 07:25:22.631,1019.0,54.0,19.0,1020.6066823218432,1,1,1,2.0,2.0
2021-08-31 07:25:22.641,1001.0,44.0,0.0,1001.9665663084772,1,1,1,2.0,2.0
2021-08-31 07:25:22.651,1028.0,40.0,0.0,1028.7779157816326,1,1,1,2.0,2.0
2021-08-31 07:25:22.652,1028.0,40.0,11.0,1028.8367217396549,1,1,1,2.0,2.0
2021-08-31 07:25:22.660,1028.0,26.0,11.0,1028.3875728537369,1,1,1,2.0,2.0
2021-08-31 07:25:22.661,1028.0,26.0,11.0,1028.3875728537369,1,1,1,2.0,2.0
2021-08-31 07:25:22.670,1033.0,26.0,11.0,1033.385697597949,1,1,1,2.0,2.0
2021-08-31 07:25:22.671,1033.0,18.0,12.0,1033.2264998537348,1,1,1,2.0,2.0
2021-08-31 07:25:22.679,990.0,18.0,12.0,990.2363354270536,1,1,1,2.0,2.0
2021-08-31 07:25:22.680,990.0,42.0,-3.0,990.8950499422228,1,1,1,2.0,2.0
2021-08-31 07:25:22.690,1011.0,41.0,13.0,1011.9145220817812,1,1,1,2.0,2.0
2021-08-31 07:25:22.700,1012.0,58.0,8.0,1013.6922609944302,1,1,1,2.0,2.0
2021-08-31 07:25:22.710,1020.0,50.0,10.0,1021.2737145349428,1,1,1,2.0,2.0
2021-08-31 07:25:22.722,1000.0,40.0,11.0,1000.8601300881156,1,1,1,2.0,2.0
2021-08-31 07:25:22.728,1013.0,40.0,11.0,1013.8491011980036,1,1,1,2.0,2.0
2021-08-31 07:25:22.729,1013.0,29.0,1.0,1013.4155120186388,1,1,1,2.0,2.0
2021-08-31 07:25:22.738,1013.0,32.0,1.0,1013.5057967273792,1,1,1,2.0,2.0
2021-08-31 07:25:22.739,1013.0,32.0,10.0,1013.5546359225042,1,1,1,2.0,2.0
2021-08-31 07:25:22.749,1027.0,12.0,6.0,1027.0876301465223,1,1,1,2.0,2.0
2021-08-31 07:25:22.759,989.0,23.0,9.0,989.3083442486472,1,1,1,2.0,2.0
2021-08-31 07:25:22.768,1003.0,50.0,-3.0,1004.24996888225,1,1,1,2.0,2.0
2021-08-31 07:25:22.777,1006.0,77.0,5.0,1008.9549048396564,1,1,1,2.0,2.0
2021-08-31 07:25:22.787,1012.0,50.0,6.0,1013.252189733632,1,1,1,2.0,2.0
2021-08-31 07:25:22.797,979.0,75.0,6.0,981.8869588705207,1,1,1,2.0,2.0
2021-08-31 07:25:22.798,979.0,75.0,4.0,981.8767743459462,1,1,1,2.0,2.0
2021-08-31 07:25:22.808,1027.0,60.0,10.0,1028.799786158609,1,1,1,2.0,2.0
2021-08-31 07:25:22.816,1026.0,45.0,10.0,1027.0350529558375,1,1,1,2.0,2.0
2021-08-31 07:25:22.817,1026.0,45.0,13.0,1027.0686442492536,1,1,1,2.0,2.0
2021-08-31 07:25:22.827,1025.0,3.0,7.0,1025.0282922924616,1,1,1,2.0,2.0
2021-08-31 07:25:22.836,985.0,41.0,-3.0,985.8574947729514,1,1,1,2.0,2.0
2021-08-31 07:25:22.846,1023.0,3.0,6.0,1023.0219938984694,1,1,1,2.0,2.0
2021-08-31 07:25:22.856,1035.0,50.0,14.0,1036.3015970266572,1,1,1,2.0,2.0
2021-08-31 07:25:22.866,1031.0,42.0,9.0,1031.894374439555,1,1,1,2.0,2.0
2021-08-31 07:25:22.875,987.0,64.0,11.0,989.1339646377533,1,1,1,2.0,2.0
2021-08-31 07:25:22.885,1018.0,41.0,9.0,1018.8650548527024,1,1,1,2.0,2.0
2021-08-31 07:25:22.894,1020.0,41.0,9.0,1020.8633601026144,1,1,1,2.0,2.0
2021-08-31 07:25:22.895,1020.0,55.0,14.0,1021.577701401122,1,1,1,2.0,2.0
2021-08-31 07:25:22.905,1017.0,2.0,-1.0,1017.002458207452,1,1,1,2.0,2.0
2021-08-31 07:25:22.915,1004.0,29.0,-3.0,1004.4232175731504,1,1,1,2.0,2.0
2021-08-31 07:25:22.924,1013.0,30.0,6.0,1013.4618887753008,1,1,1,2.0,2.0
2021-08-31 07:25:22.933,1020.0,30.0,6.0,1020.4587203802024,1,1,1,2.0,2.0
2021-08-31 07:25:22.934,1020.0,59.0,15.0,1021.8150517583894,1,1,1,2.0,2.0
2021-08-31 07:25:22.944,1009.0,40.0,4.0,1009.80047534154,1,1,1,2.0,2.0
2021-08-31 07:25:22.954,989.0,89.0,-9.0,993.0372601267286,1,1,1,2.0,2.0
2021-08-31 07:25:22.963,1015.0,71.0,-9.0,1017.520024372985,1,1,1,2.0,2.0
2021-08-31 07:25:22.964,1015.0,71.0,7.0,1017.5042997452148,1,1,1,2.0,2.0
2021-08-31 07:25:22.973,1021.0,49.0,16.0,1022.300347256128,1,1,1,2.0,2.0
2021-08-31 07:25:22.983,1017.0,8.0,1.0,1017.0319562334312,1,1,1,2.0,2.0
2021-08-31 07:25:22.992,995.0,36.0,0.0,995.6510432877576,1,1,1,2.0,2.0
2021-08-31 07:25:23.002,1025.0,9.0,-1.0,1025.0399992195426,1,1,1,2.0,2.0
2021-08-31 07:25:23.012,1026.0,19.0,15.0,1026.285535316561,1,1,1,2.0,2.0
2021-08-31 07:25:23.022,992.0,38.0,15.0,992.840873453546,1,1,1,2.0,2.0
2021-08-31 07:25:23.023,992.0,38.0,4.0,992.7356143505682,1,1,1,2.0,2.0
2021-08-31 07:25:23.031,998.0,38.0,4.0,998.7311950670212,1,1,1,2.0,2.0
2021-08-31 07:25:23.032,998.0,56.0,-11.0,999.6304317096394,1,1,1,2.0,2.0
2021-08-31 07:25:23.041,1018.0,76.0,10.0,1020.8819716304132,1,1,1,2.0,2.0
2021-08-31 07:25:23.051,1028.0,53.0,5.0,1029.377481782072,1,1,1,2.0,2.0
2021-08-31 07:25:23.061,1006.0,38.0,5.0,1006.7298545290092,1,1,1,2.0,2.0
2021-08-31 07:25:23.062,1006.0,38.0,5.0,1006.7298545290092,1,1,1,2.0,2.0
2021-08-31 07:25:23.071,1019.0,20.0,2.0,1019.19821428415,1,1,1,2.0,2.0
2021-08-31 07:25:23.080,1026.0,6.0,7.0,1026.0414221657916,1,1,1,2.0,2.0
2021-08-31 07:25:23.090,1017.0,42.0,18.0,1018.0260311013662,1,1,1,2.0,2.0
2021-08-31 07:25:23.115,993.0,43.0,7.0,993.9552303801212,1,1,1,2.0,2.0
2021-08-31 07:25:23.116,1011.0,48.0,3.0,1012.1432704908924,1,1,1,2.0,2.0
2021-08-31 07:25:23.120,1010.0,48.0,3.0,1011.1444011613772,1,1,1,2.0,2.0
2021-08-31 07:25:23.121,1010.0,67.0,13.0,1012.3033142294852,1,1,1,2.0,2.0
2021-08-31 07:25:23.129,1007.0,54.0,15.0,1008.558377090786,1,1,1,2.0,2.0
2021-08-31 07:25:23.140,1013.0,0.0,1.0,1013.0004935832952,1,1,1,2.0,2.0
2021-08-31 07:25:23.150,1012.0,19.0,1.0,1012.1788379530566,1,1,1,2.0,2.0
2021-08-31 07:25:23.151,1012.0,19.0,0.0,1012.1783439690852,1,1,1,2.0,2.0
2021-08-31 07:25:23.159,1025.0,32.0,2.0,1025.5013408084849,1,1,1,2.0,2.0
2021-08-31 07:25:23.168,1026.0,-4.0,0.0,1026.007797241327,1,1,1,2.0,2.0
2021-08-31 07:25:23.178,988.0,44.0,3.0,988.9838219101464,1,1,1,2.0,2.0
2021-08-31 07:25:23.189,992.0,89.0,0.0,995.984437629424,1,1,1,2.0,2.0
2021-08-31 07:25:23.198,1011.0,77.0,0.0,1013.928005333712,1,1,1,2.0,2.0
2021-08-31 07:25:23.199,1011.0,77.0,5.0,1013.940333550254,1,1,1,2.0,2.0
2021-08-31 07:25:23.207,1034.0,47.0,10.0,1035.1159355357254,1,1,1,2.0,2.0
2021-08-31 07:25:23.217,985.0,86.0,0.0,988.7471871009292,1,1,1,2.0,2.0
2021-08-31 07:25:23.227,1029.0,33.0,4.0,1029.5367890464138,1,1,1,2.0,2.0
2021-08-31 07:25:23.264,1015.0,33.0,4.0,1015.5441890927248,1,1,1,2.0,2.0
2021-08-31 07:25:23.265,1015.0,11.0,12.0,1015.1305334783306,1,1,1,2.0,2.0
2021-08-31 07:25:23.268,1027.0,15.0,16.0,1027.2341505226548,1,1,1,2.0,2.0
2021-08-31 07:25:23.270,991.0,38.0,16.0,991.8573486142049,1,1,1,2.0,2.0
2021-08-31 07:25:23.271,991.0,38.0,6.0,991.7464393684506,1,1,1,2.0,2.0
2021-08-31 07:25:23.273,1018.0,31.0,11.0,1018.5312955427536,1,1,1,2.0,2.0
2021-08-31 07:25:23.277,1013.0,76.0,11.0,1015.9064917599454,1,1,1,2.0,2.0
2021-08-31 07:25:23.278,1013.0,76.0,12.0,1015.9178116363548,1,1,1,2.0,2.0
2021-08-31 07:25:23.285,1024.0,57.0,9.0,1025.6246876903851,1,1,1,2.0,2.0
2021-08-31 07:25:23.295,1000.0,38.0,0.0,1000.721739546014,1,1,1,2.0,2.0
2021-08-31 07:25:23.306,1020.0,38.0,0.0,1020.7075976987728,1,1,1,2.0,2.0
2021-08-31 07:25:23.307,1020.0,30.0,5.0,1020.4533306330084,1,1,1,2.0,2.0
2021-08-31 07:25:23.316,1019.0,48.0,14.0,1020.2259553647908,1,1,1,2.0,2.0
2021-08-31 07:25:23.324,1026.0,1.0,14.0,1026.0959994074628,1,1,1,2.0,2.0
2021-08-31 07:25:23.325,1026.0,1.0,6.0,1026.018031030644,1,1,1,2.0,2.0
2021-08-31 07:25:23.334,997.0,1.0,6.0,997.0185554943298,1,1,1,2.0,2.0
2021-08-31 07:25:23.335,997.0,40.0,8.0,997.834154556758,1,1,1,2.0,2.0
2021-08-31 07:25:23.344,1022.0,50.0,3.0,1023.2267588369648,1,1,1,2.0,2.0
2021-08-31 07:25:23.354,1002.0,79.0,3.0,1005.1139238912174,1,1,1,2.0,2.0
2021-08-31 07:25:23.365,1020.0,53.0,3.0,1021.3804384263484,1,1,1,2.0,2.0
2021-08-31 07:25:23.373,984.0,70.0,-9.0,986.5277492295896,1,1,1,2.0,2.0
2021-08-31 07:25:23.383,1011.0,76.0,17.0,1013.9950690215412,1,1,1,2.0,2.0
2021-08-31 07:25:23.392,1012.0,76.0,17.0,1014.9921181959986,1,1,1,2.0,2.0
2021-08-31 07:25:23.393,1012.0,39.0,15.0,1012.8622808654688,1,1,1,2.0,2.0
2021-08-31 07:25:23.403,1022.0,13.0,1.0,1022.0831668704852,1,1,1,2.0,2.0
2021-08-31 07:25:23.413,991.0,25.0,2.0,991.317305407305,1,1,1,2.0,2.0
2021-08-31 07:25:23.422,1012.0,29.0,7.0,1012.4396278297288,1,1,1,2.0,2.0
2021-08-31 07:25:23.432,1019.0,30.0,17.0,1019.5832481950652,1,1,1,2.0,2.0
2021-08-31 07:25:23.441,1018.0,54.0,17.0,1019.5729498177166,1,1,1,2.0,2.0
2021-08-31 07:25:23.442,1018.0,54.0,10.0,1019.4802597402266,1,1,1,2.0,2.0
2021-08-31 07:25:23.451,990.0,80.0,3.0,993.2315943424272,1,1,1,2.0,2.0
2021-08-31 07:25:23.462,1027.0,60.0,13.0,1028.8333198336843,1,1,1,2.0,2.0
2021-08-31 07:25:23.471,1014.0,52.0,13.0,1015.4156784292824,1,1,1,2.0,2.0
2021-08-31 07:25:23.472,1014.0,52.0,18.0,1015.491998983744,1,1,1,2.0,2.0
2021-08-31 07:25:23.480,999.0,29.0,18.0,999.5829130192252,1,1,1,2.0,2.0
2021-08-31 07:25:23.481,999.0,29.0,2.0,999.4228334393806,1,1,1,2.0,2.0
2021-08-31 07:25:23.491,985.0,51.0,10.0,986.3701130914296,1,1,1,2.0,2.0
2021-08-31 07:25:23.501,1024.0,-1.0,8.0,1024.0317377894105,1,1,1,2.0,2.0
2021-08-31 07:25:23.511,1018.0,48.0,12.0,1019.2016483503154,1,1,1,2.0,2.0
2021-08-31 07:25:23.520,994.0,34.0,-5.0,994.5938869709586,1,1,1,2.0,2.0
2021-08-31 07:25:23.529,998.0,74.0,-5.0,1000.7522170847288,1,1,1,2.0,2.0
2021-08-31 07:25:23.530,998.0,74.0,11.0,1000.8001798560988,1,1,1,2.0,2.0
2021-08-31 07:25:23.539,1006.0,76.0,4.0,1008.8746205550024,1,1,1,2.0,2.0
2021-08-31 07:25:23.549,1016.0,58.0,7.0,1017.6782399167232,1,1,1,2.0,2.0
2021-08-31 07:25:23.559,1021.0,-6.0,6.0,1021.03525894065,1,1,1,2.0,2.0
2021-08-31 07:25:23.570,1004.0,-6.0,6.0,1004.0358559334422,1,1,1,2.0,2.0
2021-08-31 07:25:23.571,1004.0,26.0,6.0,1004.3545190817832,1,1,1,2.0,2.0
2021-08-31 07:25:23.606,1016.0,8.0,6.0,1016.0492114066128,1,1,1,2.0,2.0
2021-08-31 07:25:23.607,1016.0,8.0,12.0,1016.1023570487376,1,1,1,2.0,2.0
2021-08-31 07:25:23.640,995.0,94.0,6.0,999.4483478399472,1,1,1,2.0,2.0
2021-08-31 07:25:23.648,1029.0,40.0,3.0,1029.7815302286208,1,1,1,2.0,2.0
2021-08-31 07:25:23.656,1015.0,8.0,2.0,1015.0334969842128,1,1,1,2.0,2.0
2021-08-31 07:25:23.666,1020.0,26.0,12.0,1020.401881613318,1,1,1,2.0,2.0
2021-08-31 07:25:23.676,991.0,26.0,12.0,991.4136371868202,1,1,1,2.0,2.0
2021-08-31 07:25:23.677,991.0,37.0,3.0,991.6950136004516,1,1,1,2.0,2.0
2021-08-31 07:25:23.687,1025.0,45.0,9.0,1026.0268027688169,1,1,1,2.0,2.0
2021-08-31 07:25:23.696,999.0,69.0,-2.0,1001.3820449758424,1,1,1,2.0,2.0
2021-08-31 07:25:23.705,1018.0,48.0,12.0,1019.2016483503154,1,1,1,2.0,2.0
2021-08-31 07:25:23.715,1007.0,36.0,7.0,1007.6676039250244,1,1,1,2.0,2.0
2021-08-31 07:25:23.725,1025.0,28.0,0.0,1025.382367704848,1,1,1,2.0,2.0
2021-08-31 07:25:23.736,1001.0,36.0,12.0,1001.7190224808552,1,1,1,2.0,2.0
2021-08-31 07:25:23.744,1022.0,26.0,12.0,1022.401095461072,1,1,1,2.0,2.0
2021-08-31 07:25:23.745,1022.0,26.0,6.0,1022.3482772519352,1,1,1,2.0,2.0
2021-08-31 07:25:23.754,1000.0,38.0,-2.0,1000.72373810158,1,1,1,2.0,2.0
2021-08-31 07:25:23.763,1010.0,38.0,-2.0,1010.7165774835198,1,1,1,2.0,2.0
2021-08-31 07:25:23.764,1010.0,55.0,5.0,1011.50877405982,1,1,1,2.0,2.0
2021-08-31 07:25:23.773,1000.0,61.0,5.0,1001.871249213191,1,1,1,2.0,2.0
2021-08-31 07:25:23.774,1000.0,61.0,7.0,1001.8832267285444,1,1,1,2.0,2.0
2021-08-31 07:25:23.784,1020.0,43.0,4.0,1020.9138063519368,1,1,1,2.0,2.0
2021-08-31 07:25:23.794,987.0,71.0,10.0,989.6009296681162,1,1,1,2.0,2.0
2021-08-31 07:25:23.803,1010.0,30.0,3.0,1010.4498997971152,1,1,1,2.0,2.0
2021-08-31 07:25:23.812,1021.0,30.0,3.0,1021.445054812054,1,1,1,2.0,2.0
2021-08-31 07:25:23.813,1021.0,34.0,15.0,1021.6760739099255,1,1,1,2.0,2.0
2021-08-31 07:25:23.822,1032.0,19.0,7.0,1032.1986242967,1,1,1,2.0,2.0
2021-08-31 07:25:23.833,989.0,67.0,-3.0,991.2714058218364,1,1,1,2.0,2.0
2021-08-31 07:25:23.845,1020.0,3.0,2.0,1020.0063725291132,1,1,1,2.0,2.0
2021-08-31 07:25:23.852,1012.0,56.0,7.0,1013.5723950463528,1,1,1,2.0,2.0
2021-08-31 07:25:23.861,1018.0,48.0,8.0,1019.1624011903108,1,1,1,2.0,2.0
2021-08-31 07:25:23.871,991.0,78.0,11.0,994.1257465733396,1,1,1,2.0,2.0
2021-08-31 07:25:23.882,1034.0,32.0,2.0,1034.4969792126026,1,1,1,2.0,2.0
2021-08-31 07:25:23.891,1015.0,40.0,2.0,1015.789840468982,1,1,1,2.0,2.0
2021-08-31 07:25:23.892,1015.0,40.0,0.0,1015.7878715558676,1,1,1,2.0,2.0
2021-08-31 07:25:23.901,1016.0,11.0,-2.0,1016.0615138858474,1,1,1,2.0,2.0
2021-08-31 07:25:23.910,993.0,47.0,4.0,994.1197111012336,1,1,1,2.0,2.0
2021-08-31 07:25:23.920,1008.0,48.0,9.0,1009.1823422949888,1,1,1,2.0,2.0
2021-08-31 07:25:23.930,1011.0,69.0,11.0,1013.4115649626266,1,1,1,2.0,2.0
2021-08-31 07:25:23.941,1006.0,42.0,14.0,1006.973683866664,1,1,1,2.0,2.0
2021-08-31 07:25:23.949,992.0,115.0,14.0,998.7417083510632,1,1,1,2.0,2.0
2021-08-31 07:25:23.950,992.0,115.0,5.0,998.6560969623126,1,1,1,2.0,2.0
2021-08-31 07:25:23.959,1015.0,115.0,5.0,1021.5062408032562,1,1,1,2.0,2.0
2021-08-31 07:25:23.960,1015.0,74.0,0.0,1017.6939618569032,1,1,1,2.0,2.0
2021-08-31 07:25:23.969,1012.0,48.0,4.0,1013.145596644431,1,1,1,2.0,2.0
2021-08-31 07:25:23.979,1021.0,8.0,5.0,1021.0435837906236,1,1,1,2.0,2.0
2021-08-31 07:25:23.989,999.0,34.0,0.0,999.578411131413,1,1,1,2.0,2.0
2021-08-31 07:25:23.998,1015.0,34.0,0.0,1015.5692984725364,1,1,1,2.0,2.0
2021-08-31 07:25:23.999,1015.0,30.0,9.0,1015.483136245994,1,1,1,2.0,2.0
2021-08-31 07:25:24.008,1017.0,18.0,14.0,1017.2556217588576,1,1,1,2.0,2.0
2021-08-31 07:25:24.017,1016.0,18.0,14.0,1016.2558732917612,1,1,1,2.0,2.0
2021-08-31 07:25:24.018,1016.0,54.0,10.0,1017.4831693939708,1,1,1,2.0,2.0
2021-08-31 07:25:24.028,991.0,46.0,-9.0,992.1078570397476,1,1,1,2.0,2.0
2021-08-31 07:25:24.038,1019.0,69.0,14.0,1021.429390609062,1,1,1,2.0,2.0
2021-08-31 07:25:24.051,1015.0,54.0,0.0,1016.43543818582,1,1,1,2.0,2.0
2021-08-31 07:25:24.057,1009.0,33.0,7.0,1009.563767178676,1,1,1,2.0,2.0
2021-08-31 07:25:24.066,994.0,38.0,10.0,994.7763567757328,1,1,1,2.0,2.0
2021-08-31 07:25:24.077,1017.0,18.0,2.0,1017.1612458209366,1,1,1,2.0,2.0
2021-08-31 07:25:24.087,1022.0,37.0,12.0,1022.7399473962088,1,1,1,2.0,2.0
2021-08-31 07:25:24.096,995.0,41.0,0.0,995.8443653503292,1,1,1,2.0,2.0
2021-08-31 07:25:24.105,1006.0,47.0,0.0,1007.0973140665204,1,1,1,2.0,2.0
2021-08-31 07:25:24.106,1006.0,47.0,4.0,1007.1052576568152,1,1,1,2.0,2.0
2021-08-31 07:25:24.126,1033.0,55.0,8.0,1034.4940792484024,1,1,1,2.0,2.0
2021-08-31 07:25:24.140,1010.0,14.0,4.0,1010.1049450428404,1,1,1,2.0,2.0
2021-08-31 07:25:24.146,1009.0,20.0,0.0,1009.198196589748,1,1,1,2.0,2.0
2021-08-31 07:25:24.156,1027.0,37.0,17.0,1027.8068884766242,1,1,1,2.0,2.0
2021-08-31 07:25:24.164,1020.0,1.0,-4.0,1020.0083332992922,1,1,1,2.0,2.0
2021-08-31 07:25:24.174,1001.0,34.0,7.0,1001.601717250924,1,1,1,2.0,2.0
2021-08-31 07:25:24.183,1000.0,34.0,7.0,1000.6023186061484,1,1,1,2.0,2.0
2021-08-31 07:25:24.184,1000.0,85.0,0.0,1003.6059983878137,1,1,1,2.0,2.0
2021-08-31 07:25:24.193,1015.0,76.0,0.0,1017.8413432357715,1,1,1,2.0,2.0
2021-08-31 07:25:24.194,1015.0,76.0,10.0,1017.8904656199506,1,1,1,2.0,2.0
2021-08-31 07:25:24.204,1025.0,76.0,10.0,1027.862344869195,1,1,1,2.0,2.0
2021-08-31 07:25:24.205,1025.0,42.0,3.0,1025.8645134714427,1,1,1,2.0,2.0
2021-08-31 07:25:24.213,973.0,91.0,7.0,977.271200844474,1,1,1,2.0,2.0
2021-08-31 07:25:24.227,1000.0,37.0,0.0,1000.6842658900958,1,1,1,2.0,2.0
2021-08-31 07:25:24.233,1029.0,-2.0,10.0,1029.050533258693,1,1,1,2.0,2.0
2021-08-31 07:25:24.245,1024.0,7.0,13.0,1024.1064397805533,1,1,1,2.0,2.0
2021-08-31 07:25:24.254,986.0,47.0,13.0,987.2051458536872,1,1,1,2.0,2.0
2021-08-31 07:25:24.255,986.0,47.0,0.0,987.119546964804,1,1,1,2.0,2.0
2021-08-31 07:25:24.262,1013.0,33.0,6.0,1013.5551292357017,1,1,1,2.0,2.0
2021-08-31 07:25:24.300,1014.0,33.0,6.0,1014.5545820703784,1,1,1,2.0,2.0
2021-08-31 07:25:24.301,1014.0,79.0,9.0,1017.1125798061884,1,1,1,2.0,2.0
2021-08-31 07:25:24.304,1031.0,53.0,8.0,1032.3923672712813,1,1,1,2.0,2.0
2021-08-31 07:25:24.306,997.0,42.0,-2.0,997.8862660644248,1,1,1,2.0,2.0
2021-08-31 07:25:24.308,1024.0,29.0,10.0,1024.4593696189224,1,1,1,2.0,2.0
2021-08-31 07:25:24.313,1016.0,38.0,11.0,1016.7698854706506,1,1,1,2.0,2.0
2021-08-31 07:25:24.320,1025.0,-14.0,11.0,1025.1546224838476,1,1,1,2.0,2.0
2021-08-31 07:25:24.331,995.0,39.0,0.0,995.7640282717588,1,1,1,2.0,2.0
2021-08-31 07:25:24.340,1015.0,60.0,4.0,1016.7797204901364,1,1,1,2.0,2.0
2021-08-31 07:25:24.349,1004.0,60.0,4.0,1005.799184728244,1,1,1,2.0,2.0
2021-08-31 07:25:24.350,1004.0,69.0,7.0,1006.3925675401224,1,1,1,2.0,2.0
2021-08-31 07:25:24.360,1016.0,58.0,7.0,1017.6782399167232,1,1,1,2.0,2.0
2021-08-31 07:25:24.361,1016.0,58.0,13.0,1017.7371959400914,1,1,1,2.0,2.0
2021-08-31 07:25:24.370,976.0,70.0,-3.0,978.5116248670734,1,1,1,2.0,2.0
2021-08-31 07:25:24.379,1018.0,17.0,6.0,1018.1596142059456,1,1,1,2.0,2.0
2021-08-31 07:25:24.388,1018.0,17.0,6.0,1018.1596142059456,1,1,1,2.0,2.0
2021-08-31 07:25:24.389,1018.0,44.0,17.0,1019.092243126205,1,1,1,2.0,2.0
2021-08-31 07:25:24.399,1033.0,-4.0,7.0,1033.0314612827626,1,1,1,2.0,2.0
2021-08-31 07:25:24.410,980.0,48.0,7.0,981.1997757847278,1,1,1,2.0,2.0
2021-08-31 07:25:24.418,1032.0,48.0,7.0,1033.1393904018953,1,1,1,2.0,2.0
2021-08-31 07:25:24.419,1032.0,9.0,17.0,1032.179247999106,1,1,1,2.0,2.0
2021-08-31 07:25:24.428,1009.0,9.0,17.0,1009.1833331957084,1,1,1,2.0,2.0
2021-08-31 07:25:24.429,1009.0,84.0,5.0,1012.5028395021913,1,1,1,2.0,2.0
2021-08-31 07:25:24.437,1032.0,44.0,5.0,1032.9496599544432,1,1,1,2.0,2.0
2021-08-31 07:25:24.438,1032.0,44.0,6.0,1032.9549844983565,1,1,1,2.0,2.0
2021-08-31 07:25:24.447,977.0,87.0,6.0,980.8842949094454,1,1,1,2.0,2.0
2021-08-31 07:25:24.448,977.0,87.0,7.0,980.8909215605984,1,1,1,2.0,2.0
2021-08-31 07:25:24.458,1031.0,47.0,12.0,1032.1404943126686,1,1,1,2.0,2.0
2021-08-31 07:25:24.468,1008.0,47.0,12.0,1009.166487751154,1,1,1,2.0,2.0
2021-08-31 07:25:24.469,1008.0,68.0,9.0,1010.3311338368228,1,1,1,2.0,2.0
2021-08-31 07:25:24.476,1018.0,-2.0,9.0,1018.0417476704972,1,1,1,2.0,2.0
2021-08-31 07:25:24.477,1018.0,-2.0,2.0,1018.0039292655014,1,1,1,2.0,2.0
2021-08-31 07:25:24.486,983.0,53.0,4.0,984.4358790698356,1,1,1,2.0,2.0
2021-08-31 07:25:24.496,1022.0,0.0,9.0,1022.0396274117752,1,1,1,2.0,2.0
2021-08-31 07:25:24.506,1020.0,0.0,9.0,1020.0397051095608,1,1,1,2.0,2.0
2021-08-31 07:25:24.507,1020.0,54.0,16.0,1021.553718607103,1,1,1,2.0,2.0
2021-08-31 07:25:24.516,996.0,54.0,16.0,997.5910985970154,1,1,1,2.0,2.0
2021-08-31 07:25:24.517,996.0,40.0,1.0,996.803390844955,1,1,1,2.0,2.0
2021-08-31 07:25:24.526,1002.0,74.0,9.0,1004.7691277104408,1,1,1,2.0,2.0
2021-08-31 07:25:24.535,1029.0,27.0,7.0,1029.3779675124197,1,1,1,2.0,2.0
2021-08-31 07:25:24.545,1011.0,60.0,9.0,1012.8188386873538,1,1,1,2.0,2.0
2021-08-31 07:25:24.555,1030.0,-13.0,-2.0,1030.083977159144,1,1,1,2.0,2.0
2021-08-31 07:25:24.568,1010.0,22.0,5.0,1010.251948773176,1,1,1,2.0,2.0
2021-08-31 07:25:24.575,1023.0,20.0,11.0,1023.2546115214924,1,1,1,2.0,2.0
2021-08-31 07:25:24.584,1008.0,68.0,14.0,1010.3880442681416,1,1,1,2.0,2.0
2021-08-31 07:25:24.596,1009.0,34.0,14.0,1009.6697479869346,1,1,1,2.0,2.0
2021-08-31 07:25:24.597,1009.0,34.0,-4.0,1009.58060599439,1,1,1,2.0,2.0
2021-08-31 07:25:24.604,987.0,100.0,3.0,992.0574580133956,1,1,1,2.0,2.0
2021-08-31 07:25:24.614,1005.0,70.0,3.0,1007.4393281979814,1,1,1,2.0,2.0
2021-08-31 07:25:24.615,1005.0,70.0,4.0,1007.4428023466146,1,1,1,2.0,2.0
2021-08-31 07:25:24.624,1035.0,48.0,8.0,1036.1433298535487,1,1,1,2.0,2.0
2021-08-31 07:25:24.641,980.0,63.0,-7.0,982.0478603408288,1,1,1,2.0,2.0
2021-08-31 07:25:24.644,997.0,22.0,4.0,997.2507207317526,1,1,1,2.0,2.0
2021-08-31 07:25:24.653,1013.0,22.0,4.0,1013.2467616528562,1,1,1,2.0,2.0
2021-08-31 07:25:24.654,1013.0,13.0,2.0,1013.0853863322676,1,1,1,2.0,2.0
2021-08-31 07:25:24.664,1034.0,23.0,14.0,1034.350520858379,1,1,1,2.0,2.0
2021-08-31 07:25:24.672,996.0,37.0,-7.0,996.711593190327,1,1,1,2.0,2.0
2021-08-31 07:25:24.681,1021.0,37.0,-7.0,1021.6941812499472,1,1,1,2.0,2.0
2021-08-31 07:25:24.682,1021.0,43.0,23.0,1022.1638811853998,1,1,1,2.0,2.0
2021-08-31 07:25:24.691,1009.0,77.0,23.0,1012.1951392888626,1,1,1,2.0,2.0
2021-08-31 07:25:24.692,1009.0,77.0,17.0,1012.076578130331,1,1,1,2.0,2.0
2021-08-31 07:25:24.701,1033.0,53.0,4.0,1034.366472774519,1,1,1,2.0,2.0
2021-08-31 07:25:24.712,999.0,35.0,4.0,999.6209281522672,1,1,1,2.0,2.0
2021-08-31 07:25:24.713,999.0,35.0,6.0,999.6309318943668,1,1,1,2.0,2.0
2021-08-31 07:25:24.721,1020.0,17.0,12.0,1020.2122328221712,1,1,1,2.0,2.0
2021-08-31 07:25:24.730,1014.0,49.0,12.0,1015.2541553719444,1,1,1,2.0,2.0
2021-08-31 07:25:24.731,1014.0,49.0,19.0,1015.3610195393558,1,1,1,2.0,2.0
2021-08-31 07:25:24.740,1023.0,40.0,14.0,1023.8774340710904,1,1,1,2.0,2.0
2021-08-31 07:25:24.750,978.0,42.0,1.0,978.901935844444,1,1,1,2.0,2.0
2021-08-31 07:25:24.761,1020.0,38.0,1.0,1020.7080875549092,1,1,1,2.0,2.0
2021-08-31 07:25:24.762,1020.0,38.0,-3.0,1020.7120063955356,1,1,1,2.0,2.0
2021-08-31 07:25:24.769,998.0,38.0,-3.0,998.7276906144136,1,1,1,2.0,2.0
2021-08-31 07:25:24.770,998.0,87.0,4.0,1001.7928927677616,1,1,1,2.0,2.0
2021-08-31 07:25:24.779,1021.0,59.0,5.0,1022.7155029625784,1,1,1,2.0,2.0
2021-08-31 07:25:24.789,1014.0,16.0,6.0,1014.1439739997472,1,1,1,2.0,2.0
2021-08-31 07:25:24.799,1013.0,7.0,12.0,1013.0952571204743,1,1,1,2.0,2.0
2021-08-31 07:25:24.810,1019.0,38.0,13.0,1019.7911550900998,1,1,1,2.0,2.0
2021-08-31 07:25:24.819,1020.0,-10.0,2.0,1020.0509791182008,1,1,1,2.0,2.0
2021-08-31 07:25:24.828,993.0,46.0,16.0,994.193643109832,1,1,1,2.0,2.0
2021-08-31 07:25:24.838,1023.0,5.0,13.0,1023.0948147654742,1,1,1,2.0,2.0
2021-08-31 07:25:24.851,1007.0,70.0,13.0,1009.51374433437,1,1,1,2.0,2.0
2021-08-31 07:25:24.852,1007.0,70.0,5.0,1009.4424203489766,1,1,1,2.0,2.0
2021-08-31 07:25:24.859,1038.0,44.0,7.0,1038.9557257169336,1,1,1,2.0,2.0
2021-08-31 07:25:24.867,977.0,44.0,7.0,978.0153373030508,1,1,1,2.0,2.0
2021-08-31 07:25:24.868,977.0,87.0,2.0,980.8679829620294,1,1,1,2.0,2.0
2021-08-31 07:25:24.877,1022.0,26.0,14.0,1022.4265254775034,1,1,1,2.0,2.0
2021-08-31 07:25:24.887,1014.0,57.0,19.0,1015.7785191664568,1,1,1,2.0,2.0
2021-08-31 07:25:24.896,1031.0,8.0,19.0,1031.2060899742592,1,1,1,2.0,2.0
2021-08-31 07:25:24.897,1031.0,8.0,3.0,1031.0354019140177,1,1,1,2.0,2.0
2021-08-31 07:25:24.907,982.0,49.0,-4.0,983.2298815638184,1,1,1,2.0,2.0
2021-08-31 07:25:24.917,1020.0,21.0,12.0,1020.2867244064288,1,1,1,2.0,2.0
2021-08-31 07:25:24.926,1005.0,73.0,6.0,1007.665619141588,1,1,1,2.0,2.0
2021-08-31 07:25:24.935,1011.0,43.0,6.0,1011.931815884845,1,1,1,2.0,2.0
2021-08-31 07:25:24.936,1011.0,43.0,11.0,1011.9738138904584,1,1,1,2.0,2.0
2021-08-31 07:25:24.945,984.0,63.0,8.0,986.0471591156276,1,1,1,2.0,2.0
2021-08-31 07:25:24.956,1036.0,12.0,0.0,1036.0694957385822,1,1,1,2.0,2.0
2021-08-31 07:25:24.966,1009.0,45.0,20.0,1010.200970104464,1,1,1,2.0,2.0
2021-08-31 07:25:24.975,1023.0,3.0,12.0,1023.074777325685,1,1,1,2.0,2.0
2021-08-31 07:25:24.984,991.0,31.0,4.0,991.4928138922642,1,1,1,2.0,2.0
2021-08-31 07:25:24.994,1013.0,20.0,9.0,1013.2373858084788,1,1,1,2.0,2.0
2021-08-31 07:25:25.004,1000.0,59.0,3.0,1001.7434801385032,1,1,1,2.0,2.0
2021-08-31 07:25:25.015,1020.0,41.0,5.0,1020.8359319694816,1,1,1,2.0,2.0
2021-08-31 07:25:25.024,992.0,65.0,-3.0,994.131782008804,1,1,1,2.0,2.0
2021-08-31 07:25:25.033,1007.0,63.0,12.0,1009.0401379528964,1,1,1,2.0,2.0
2021-08-31 07:25:25.043,1033.0,47.0,0.0,1034.0686630973787,1,1,1,2.0,2.0
2021-08-31 07:25:25.055,1022.0,19.0,0.0,1022.1765992234416,1,1,1,2.0,2.0
2021-08-31 07:25:25.056,1022.0,19.0,11.0,1022.2357849341804,1,1,1,2.0,2.0
2021-08-31 07:25:25.063,1006.0,40.0,6.0,1006.812792926272,1,1,1,2.0,2.0
2021-08-31 07:25:25.074,1019.0,17.0,9.0,1019.1815343696136,1,1,1,2.0,2.0
2021-08-31 07:25:25.082,1019.0,45.0,9.0,1020.0328426085111,1,1,1,2.0,2.0
2021-08-31 07:25:25.083,1019.0,45.0,23.0,1020.2524197471918,1,1,1,2.0,2.0
2021-08-31 07:25:25.092,993.0,39.0,0.0,993.765565915825,1,1,1,2.0,2.0
2021-08-31 07:25:25.101,1019.0,39.0,0.0,1019.7460468175398,1,1,1,2.0,2.0
2021-08-31 07:25:25.102,1019.0,41.0,6.0,1019.842144647886,1,1,1,2.0,2.0
2021-08-31 07:25:25.112,1033.0,44.0,11.0,1033.995164398751,1,1,1,2.0,2.0
2021-08-31 07:25:25.122,995.0,65.0,9.0,997.16147137763,1,1,1,2.0,2.0
2021-08-31 07:25:25.131,1015.0,30.0,13.0,1015.5264644508286,1,1,1,2.0,2.0
2021-08-31 07:25:25.154,1031.0,55.0,12.0,1032.5357136680552,1,1,1,2.0,2.0
2021-08-31 07:25:25.161,1010.0,49.0,15.0,1011.2991644414624,1,1,1,2.0,2.0
2021-08-31 07:25:25.171,998.0,40.0,0.0,998.8012815370232,1,1,1,2.0,2.0
2021-08-31 07:25:25.180,1013.0,59.0,5.0,1014.7290278690168,1,1,1,2.0,2.0
2021-08-31 07:25:25.190,1017.0,69.0,0.0,1019.3380204819204,1,1,1,2.0,2.0
2021-08-31 07:25:25.199,1039.0,34.0,6.0,1039.573470227093,1,1,1,2.0,2.0
2021-08-31 07:25:25.209,1022.0,-23.0,4.0,1022.26659927829,1,1,1,2.0,2.0
2021-08-31 07:25:25.220,1016.0,24.0,9.0,1016.3232753410698,1,1,1,2.0,2.0
2021-08-31 07:25:25.231,1021.0,18.0,0.0,1021.1586556456348,1,1,1,2.0,2.0
2021-08-31 07:25:25.238,1028.0,1.0,8.0,1028.0316142998715,1,1,1,2.0,2.0
2021-08-31 07:25:25.250,984.0,46.0,8.0,985.1071007763572,1,1,1,2.0,2.0
2021-08-31 07:25:25.251,984.0,46.0,-4.0,985.0827376418694,1,1,1,2.0,2.0
2021-08-31 07:25:25.258,998.0,94.0,4.0,1002.4250595431062,1,1,1,2.0,2.0
2021-08-31 07:25:25.269,1019.0,70.0,2.0,1021.4034462444308,1,1,1,2.0,2.0
2021-08-31 07:25:25.277,1034.0,55.0,6.0,1035.4791161583123,1,1,1,2.0,2.0
2021-08-31 07:25:25.287,995.0,55.0,6.0,996.537003828759,1,1,1,2.0,2.0
2021-08-31 07:25:25.288,995.0,40.0,-1.0,995.804197621199,1,1,1,2.0,2.0
2021-08-31 07:25:25.308,1037.0,29.0,5.0,1037.417466596741,1,1,1,2.0,2.0
2021-08-31 07:25:25.310,1009.0,51.0,8.0,1010.3197513658732,1,1,1,2.0,2.0
2021-08-31 07:25:25.332,1013.0,38.0,12.0,1013.7835074610358,1,1,1,2.0,2.0
2021-08-31 07:25:25.337,995.0,34.0,3.0,995.5852550133516,1,1,1,2.0,2.0
2021-08-31 07:25:25.340,1019.0,44.0,18.0,1020.1083275809486,1,1,1,2.0,2.0
2021-08-31 07:25:25.347,1006.0,77.0,2.0,1008.9444979779612,1,1,1,2.0,2.0
2021-08-31 07:25:25.355,1008.0,57.0,2.0,1009.6123018267951,1,1,1,2.0,2.0
2021-08-31 07:25:25.356,1008.0,57.0,14.0,1009.7073833542072,1,1,1,2.0,2.0
2021-08-31 07:25:25.365,1009.0,48.0,14.0,1010.2380907489086,1,1,1,2.0,2.0
2021-08-31 07:25:25.376,1014.0,33.0,0.0,1014.5368401393812,1,1,1,2.0,2.0
2021-08-31 07:25:25.385,1018.0,52.0,20.0,1019.5234180733664,1,1,1,2.0,2.0
2021-08-31 07:25:25.396,1022.0,16.0,3.0,1022.1296395271982,1,1,1,2.0,2.0
2021-08-31 07:25:25.404,993.0,40.0,7.0,993.8299653361232,1,1,1,2.0,2.0
2021-08-31 07:25:25.414,1023.0,19.0,4.0,1023.1842453830102,1,1,1,2.0,2.0
2021-08-31 07:25:25.425,999.0,85.0,7.0,1002.6340309405024,1,1,1,2.0,2.0
2021-08-31 07:25:25.434,1028.0,50.0,7.0,1029.239039290679,1,1,1,2.0,2.0
2021-08-31 07:25:25.443,976.0,90.0,-1.0,980.1413163416794,1,1,1,2.0,2.0
2021-08-31 07:25:25.454,1028.0,51.0,-1.0,1029.2647861459168,1,1,1,2.0,2.0
2021-08-31 07:25:25.455,1028.0,51.0,7.0,1029.2881034967809,1,1,1,2.0,2.0
2021-08-31 07:25:25.463,1002.0,50.0,12.0,1003.3184937994516,1,1,1,2.0,2.0
2021-08-31 07:25:25.473,1020.0,9.0,4.0,1020.0475479113708,1,1,1,2.0,2.0
2021-08-31 07:25:25.482,1003.0,55.0,4.0,1004.5148082532183,1,1,1,2.0,2.0
2021-08-31 07:25:25.483,1003.0,55.0,7.0,1004.5312339594026,1,1,1,2.0,2.0
2021-08-31 07:25:25.492,1024.0,19.0,6.0,1024.19382931162,1,1,1,2.0,2.0
2021-08-31 07:25:25.503,1027.0,51.0,21.0,1028.479946328561,1,1,1,2.0,2.0
2021-08-31 07:25:25.512,996.0,29.0,4.0,996.4301280069768,1,1,1,2.0,2.0
2021-08-31 07:25:25.521,976.0,73.0,4.0,978.7343868486486,1,1,1,2.0,2.0
2021-08-31 07:25:25.522,976.0,73.0,-2.0,978.7282564634578,1,1,1,2.0,2.0
2021-08-31 07:25:25.531,1029.0,37.0,12.0,1029.734917345236,1,1,1,2.0,2.0
2021-08-31 07:25:25.541,1017.0,56.0,12.0,1018.6113095778978,1,1,1,2.0,2.0
2021-08-31 07:25:25.542,1017.0,56.0,12.0,1018.6113095778978,1,1,1,2.0,2.0
2021-08-31 07:25:25.552,1024.0,-31.0,6.0,1024.486700743353,1,1,1,2.0,2.0
2021-08-31 07:25:25.563,1031.0,-31.0,6.0,1031.4833978305226,1,1,1,2.0,2.0
2021-08-31 07:25:25.564,1031.0,32.0,13.0,1031.5784022554951,1,1,1,2.0,2.0
2021-08-31 07:25:25.571,1011.0,7.0,1.0,1011.024727689684,1,1,1,2.0,2.0
2021-08-31 07:25:25.580,1011.0,80.0,9.0,1014.2001774797716,1,1,1,2.0,2.0
2021-08-31 07:25:25.590,999.0,42.0,9.0,999.9229970352716,1,1,1,2.0,2.0
2021-08-31 07:25:25.600,979.0,91.0,-3.0,983.224796269907,1,1,1,2.0,2.0
2021-08-31 07:25:25.611,1012.0,77.0,12.0,1014.99605910565,1,1,1,2.0,2.0
2021-08-31 07:25:25.627,1028.0,55.0,12.0,1029.5401886279135,1,1,1,2.0,2.0
2021-08-31 07:25:25.628,1028.0,55.0,2.0,1029.472194864922,1,1,1,2.0,2.0
2021-08-31 07:25:25.629,1032.0,-11.0,7.0,1032.0823610545815,1,1,1,2.0,2.0
2021-08-31 07:25:25.639,993.0,27.0,7.0,993.3916649539595,1,1,1,2.0,2.0
2021-08-31 07:25:25.650,1021.0,23.0,13.0,1021.3417645430936,1,1,1,2.0,2.0
2021-08-31 07:25:25.658,1023.0,26.0,18.0,1023.4886418519748,1,1,1,2.0,2.0
2021-08-31 07:25:25.668,986.0,31.0,-5.0,986.4998732893988,1,1,1,2.0,2.0
2021-08-31 07:25:25.678,979.0,60.0,-7.0,980.8618659118112,1,1,1,2.0,2.0
2021-08-31 07:25:25.688,1023.0,60.0,-7.0,1024.781928021762,1,1,1,2.0,2.0
2021-08-31 07:25:25.689,1023.0,72.0,17.0,1025.6714873681533,1,1,1,2.0,2.0
2021-08-31 07:25:25.699,1014.0,53.0,11.0,1015.4437453645572,1,1,1,2.0,2.0
2021-08-31 07:25:25.707,1000.0,40.0,16.0,1000.9275698071264,1,1,1,2.0,2.0
2021-08-31 07:25:25.717,1017.0,20.0,-8.0,1017.2280963481102,1,1,1,2.0,2.0
2021-08-31 07:25:25.726,1026.0,30.0,-8.0,1026.4696780713982,1,1,1,2.0,2.0
2021-08-31 07:25:25.727,1026.0,30.0,9.0,1026.4779588476315,1,1,1,2.0,2.0
2021-08-31 07:25:25.737,1022.0,42.0,13.0,1022.9452575773544,1,1,1,2.0,2.0
2021-08-31 07:25:25.747,985.0,48.0,7.0,986.19369294272,1,1,1,2.0,2.0
2021-08-31 07:25:25.756,1015.0,48.0,7.0,1016.1584522110712,1,1,1,2.0,2.0
2021-08-31 07:25:25.757,1015.0,56.0,4.0,1016.551523534346,1,1,1,2.0,2.0
2021-08-31 07:25:25.765,1001.0,56.0,4.0,1002.5731893482888,1,1,1,2.0,2.0
2021-08-31 07:25:25.766,1001.0,85.0,3.0,1004.6068882901412,1,1,1,2.0,2.0
2021-08-31 07:25:25.775,1023.0,55.0,19.0,1024.6536000034353,1,1,1,2.0,2.0
2021-08-31 07:25:25.785,1020.0,7.0,2.0,1020.0259800612924,1,1,1,2.0,2.0
2021-08-31 07:25:25.795,1013.0,15.0,3.0,1013.115491935643,1,1,1,2.0,2.0
2021-08-31 07:25:25.806,1036.0,42.0,5.0,1036.8630574960223,1,1,1,2.0,2.0
2021-08-31 07:25:25.814,1028.0,2.0,5.0,1028.0141049616002,1,1,1,2.0,2.0
2021-08-31 07:25:25.815,1028.0,2.0,1.0,1028.0024319037382,1,1,1,2.0,2.0
2021-08-31 07:25:25.824,995.0,48.0,3.0,996.1616334711952,1,1,1,2.0,2.0
2021-08-31 07:25:25.834,1001.0,48.0,3.0,1002.1546786798932,1,1,1,2.0,2.0
2021-08-31 07:25:25.835,1001.0,92.0,17.0,1005.3626211472156,1,1,1,2.0,2.0
2021-08-31 07:25:25.844,1008.0,71.0,5.0,1010.5097723426528,1,1,1,2.0,2.0
2021-08-31 07:25:25.855,1035.0,46.0,7.0,1036.0453658020965,1,1,1,2.0,2.0
2021-08-31 07:25:25.863,970.0,98.0,0.0,974.9379467432786,1,1,1,2.0,2.0
2021-08-31 07:25:25.873,1031.0,24.0,9.0,1031.318573477662,1,1,1,2.0,2.0
2021-08-31 07:25:25.883,1023.0,14.0,8.0,1023.1270693320552,1,1,1,2.0,2.0
2021-08-31 07:25:25.893,1027.0,3.0,9.0,1027.0438160078663,1,1,1,2.0,2.0
2021-08-31 07:25:25.904,989.0,46.0,2.0,990.0712095602012,1,1,1,2.0,2.0
2021-08-31 07:25:25.912,1010.0,28.0,8.0,1010.4197147720348,1,1,1,2.0,2.0
2021-08-31 07:25:25.922,1019.0,65.0,11.0,1021.130256137776,1,1,1,2.0,2.0
2021-08-31 07:25:25.931,1019.0,65.0,11.0,1021.130256137776,1,1,1,2.0,2.0
2021-08-31 07:25:25.932,1019.0,55.0,8.0,1020.514576084046,1,1,1,2.0,2.0
2021-08-31 07:25:25.941,1000.0,55.0,8.0,1001.5433090985132,1,1,1,2.0,2.0
2021-08-31 07:25:25.942,1000.0,48.0,2.0,1001.1533349092934,1,1,1,2.0,2.0
2021-08-31 07:25:25.952,1022.0,33.0,4.0,1022.5404637470344,1,1,1,2.0,2.0
2021-08-31 07:25:25.961,1017.0,44.0,12.0,1018.0221019211716,1,1,1,2.0,2.0
2021-08-31 07:25:25.971,1027.0,-24.0,8.0,1027.311539894301,1,1,1,2.0,2.0
2021-08-31 07:25:25.980,1000.0,18.0,8.0,1000.1939811856498,1,1,1,2.0,2.0
2021-08-31 07:25:25.981,1000.0,18.0,9.0,1000.2024795010258,1,1,1,2.0,2.0
2021-08-31 07:25:25.991,1022.0,64.0,14.0,1024.0976515938312,1,1,1,2.0,2.0
2021-08-31 07:25:26.001,992.0,83.0,3.0,995.4707429151296,1,1,1,2.0,2.0
2021-08-31 07:25:26.011,1016.0,47.0,18.0,1017.2457913405196,1,1,1,2.0,2.0
2021-08-31 07:25:26.019,976.0,47.0,18.0,977.296781944973,1,1,1,2.0,2.0
2021-08-31 07:25:26.020,976.0,86.0,-6.0,979.7999795876708,1,1,1,2.0,2.0
2021-08-31 07:25:26.029,1014.0,71.0,16.0,1016.60857757546,1,1,1,2.0,2.0
2021-08-31 07:25:26.039,1015.0,49.0,23.0,1016.442324974713,1,1,1,2.0,2.0
2021-08-31 07:25:26.049,1032.0,-3.0,5.0,1032.0164727367485,1,1,1,2.0,2.0
2021-08-31 07:25:26.060,992.0,27.0,4.0,992.375432988947,1,1,1,2.0,2.0
2021-08-31 07:25:26.068,1011.0,26.0,12.0,1011.4054577665676,1,1,1,2.0,2.0
2021-08-31 07:25:26.078,1024.0,41.0,17.0,1024.9614626901832,1,1,1,2.0,2.0
2021-08-31 07:25:26.088,1031.0,40.0,1.0,1031.776138510675,1,1,1,2.0,2.0
2021-08-31 07:25:26.098,978.0,77.0,-2.0,981.028541888563,1,1,1,2.0,2.0
2021-08-31 07:25:26.108,1033.0,45.0,11.0,1034.0382004548962,1,1,1,2.0,2.0
2021-08-31 07:25:26.117,999.0,45.0,11.0,1000.0734972990736,1,1,1,2.0,2.0
2021-08-31 07:25:26.118,999.0,57.0,12.0,1000.6967572646572,1,1,1,2.0,2.0
2021-08-31 07:25:26.127,1013.0,33.0,5.0,1013.5497027773232,1,1,1,2.0,2.0
2021-08-31 07:25:26.137,1021.0,20.0,4.0,1021.2037015209062,1,1,1,2.0,2.0
2021-08-31 07:25:26.160,1028.0,20.0,4.0,1028.2023147221562,1,1,1,2.0,2.0
2021-08-31 07:25:26.161,1004.0,64.0,7.0,1006.0621253183124,1,1,1,2.0,2.0
2021-08-31 07:25:26.162,1004.0,64.0,4.0,1006.0457246069882,1,1,1,2.0,2.0
2021-08-31 07:25:26.166,998.0,42.0,4.0,998.8913854869307,1,1,1,2.0,2.0
2021-08-31 07:25:26.167,998.0,42.0,1.0,998.883877134875,1,1,1,2.0,2.0
2021-08-31 07:25:26.176,1000.0,42.0,1.0,1000.8821109401448,1,1,1,2.0,2.0
2021-08-31 07:25:26.177,1000.0,88.0,0.0,1003.8645326935304,1,1,1,2.0,2.0
2021-08-31 07:25:26.185,1004.0,88.0,0.0,1007.8491950683892,1,1,1,2.0,2.0
2021-08-31 07:25:26.186,1004.0,75.0,5.0,1006.8098132219412,1,1,1,2.0,2.0
2021-08-31 07:25:26.195,1015.0,55.0,12.0,1016.5598851026928,1,1,1,2.0,2.0
2021-08-31 07:25:26.206,1027.0,-10.0,0.0,1027.048684337797,1,1,1,2.0,2.0
2021-08-31 07:25:26.215,1014.0,33.0,5.0,1014.5491609577132,1,1,1,2.0,2.0
2021-08-31 07:25:26.228,1010.0,7.0,4.0,1010.0321777052452,1,1,1,2.0,2.0
2021-08-31 07:25:26.234,1022.0,8.0,11.0,1022.0905047988656,1,1,1,2.0,2.0
2021-08-31 07:25:26.244,1005.0,38.0,5.0,1005.7305802251416,1,1,1,2.0,2.0
2021-08-31 07:25:26.254,987.0,101.0,11.0,992.2151984322757,1,1,1,2.0,2.0
2021-08-31 07:25:26.264,1014.0,53.0,7.0,1015.4082922647422,1,1,1,2.0,2.0
2021-08-31 07:25:26.274,1024.0,59.0,7.0,1025.7221846094585,1,1,1,2.0,2.0
2021-08-31 07:25:26.283,986.0,65.0,7.0,988.1649659849312,1,1,1,2.0,2.0
2021-08-31 07:25:26.293,998.0,36.0,8.0,998.6811302913458,1,1,1,2.0,2.0
2021-08-31 07:25:26.303,1006.0,31.0,17.0,1006.6210806455426,1,1,1,2.0,2.0
2021-08-31 07:25:26.320,1027.0,21.0,18.0,1027.372376502308,1,1,1,2.0,2.0
2021-08-31 07:25:26.324,997.0,53.0,-4.0,998.4157450681556,1,1,1,2.0,2.0
2021-08-31 07:25:26.332,1016.0,65.0,19.0,1018.254388647552,1,1,1,2.0,2.0
2021-08-31 07:25:26.361,1008.0,30.0,-1.0,1008.4468255689044,1,1,1,2.0,2.0
2021-08-31 07:25:26.364,1003.0,41.0,7.0,1003.8620423145802,1,1,1,2.0,2.0
2021-08-31 07:25:26.367,1020.0,48.0,16.0,1021.2541309585974,1,1,1,2.0,2.0
2021-08-31 07:25:26.372,1017.0,31.0,16.0,1017.5981525140462,1,1,1,2.0,2.0
2021-08-31 07:25:26.373,1017.0,31.0,7.0,1017.4964373402004,1,1,1,2.0,2.0
2021-08-31 07:25:26.381,1000.0,52.0,9.0,1001.3915318195976,1,1,1,2.0,2.0
2021-08-31 07:25:26.391,1002.0,74.0,9.0,1004.7691277104408,1,1,1,2.0,2.0
2021-08-31 07:25:26.403,1027.0,31.0,8.0,1027.4989051089058,1,1,1,2.0,2.0
2021-08-31 07:25:26.411,1011.0,39.0,0.0,1011.7519458839702,1,1,1,2.0,2.0
2021-08-31 07:25:26.420,1016.0,24.0,9.0,1016.3232753410698,1,1,1,2.0,2.0
2021-08-31 07:25:26.430,1009.0,35.0,0.0,1009.6068541764164,1,1,1,2.0,2.0
2021-08-31 07:25:26.440,1012.0,51.0,12.0,1013.3553177439788,1,1,1,2.0,2.0
2021-08-31 07:25:26.450,1007.0,51.0,12.0,1008.3620381589144,1,1,1,2.0,2.0
2021-08-31 07:25:26.451,1007.0,40.0,4.0,1007.8020638994544,1,1,1,2.0,2.0
2021-08-31 07:25:26.459,1008.0,47.0,11.0,1009.1550921439182,1,1,1,2.0,2.0
2021-08-31 07:25:26.469,1011.0,52.0,7.0,1012.360607688782,1,1,1,2.0,2.0
2021-08-31 07:25:26.478,1018.0,46.0,7.0,1019.062804737765,1,1,1,2.0,2.0
2021-08-31 07:25:26.479,1018.0,46.0,7.0,1019.062804737765,1,1,1,2.0,2.0
2021-08-31 07:25:26.489,1009.0,35.0,6.0,1009.6246827410667,1,1,1,2.0,2.0
2021-08-31 07:25:26.499,1004.0,44.0,10.0,1005.0134327460504,1,1,1,2.0,2.0
2021-08-31 07:25:26.508,1004.0,46.0,9.0,1005.0935279863264,1,1,1,2.0,2.0
2021-08-31 07:25:26.517,1016.0,46.0,9.0,1017.0806261059148,1,1,1,2.0,2.0
2021-08-31 07:25:26.518,1016.0,40.0,9.0,1016.8269272595018,1,1,1,2.0,2.0
2021-08-31 07:25:26.527,1012.0,42.0,6.0,1012.8889376432148,1,1,1,2.0,2.0
2021-08-31 07:25:26.537,1003.0,42.0,6.0,1003.8969070576918,1,1,1,2.0,2.0
2021-08-31 07:25:26.538,1003.0,44.0,-3.0,1003.9691230311817,1,1,1,2.0,2.0
2021-08-31 07:25:26.548,1013.0,57.0,8.0,1014.633924132246,1,1,1,2.0,2.0
2021-08-31 07:25:26.557,1026.0,57.0,8.0,1027.613254099031,1,1,1,2.0,2.0
2021-08-31 07:25:26.558,1026.0,40.0,6.0,1026.796961429084,1,1,1,2.0,2.0
2021-08-31 07:25:26.566,1003.0,53.0,6.0,1004.4172439778202,1,1,1,2.0,2.0
2021-08-31 07:25:26.567,1003.0,53.0,10.0,1004.4491027423938,1,1,1,2.0,2.0
2021-08-31 07:25:26.576,1005.0,21.0,3.0,1005.2238556659904,1,1,1,2.0,2.0
2021-08-31 07:25:26.586,1008.0,43.0,7.0,1008.9410290002088,1,1,1,2.0,2.0
2021-08-31 07:25:26.599,1023.0,41.0,9.0,1023.8608303866304,1,1,1,2.0,2.0
2021-08-31 07:25:26.607,1007.0,53.0,7.0,1008.4180680650264,1,1,1,2.0,2.0
2021-08-31 07:25:26.615,1000.0,44.0,7.0,1000.9920079601036,1,1,1,2.0,2.0
2021-08-31 07:25:26.625,1010.0,62.0,9.0,1011.9412038255978,1,1,1,2.0,2.0
2021-08-31 07:25:26.635,1011.0,53.0,6.0,1012.4060450234382,1,1,1,2.0,2.0
2021-08-31 07:25:26.645,1012.0,48.0,2.0,1013.1396744773152,1,1,1,2.0,2.0
2021-08-31 07:25:26.656,1018.0,17.0,17.0,1018.2838504071444,1,1,1,2.0,2.0
2021-08-31 07:25:26.664,1020.0,17.0,17.0,1020.2832939924087,1,1,1,2.0,2.0
2021-08-31 07:25:26.665,1020.0,40.0,5.0,1020.7962578301314,1,1,1,2.0,2.0
2021-08-31 07:25:26.674,1027.0,10.0,5.0,1027.0608550616655,1,1,1,2.0,2.0
2021-08-31 07:25:26.683,1010.0,10.0,5.0,1010.0618792925512,1,1,1,2.0,2.0
2021-08-31 07:25:26.684,1010.0,31.0,0.0,1010.4756305819552,1,1,1,2.0,2.0
2021-08-31 07:25:26.693,1004.0,31.0,0.0,1004.4784716458586,1,1,1,2.0,2.0
2021-08-31 07:25:26.694,1004.0,34.0,1.0,1004.5760299748348,1,1,1,2.0,2.0
2021-08-31 07:25:26.704,1001.0,68.0,10.0,1003.356865726248,1,1,1,2.0,2.0
2021-08-31 07:25:26.713,1023.0,68.0,10.0,1025.3062956989977,1,1,1,2.0,2.0
2021-08-31 07:25:26.714,1023.0,57.0,14.0,1024.682389816474,1,1,1,2.0,2.0
2021-08-31 07:25:26.722,1003.0,57.0,14.0,1004.715880236796,1,1,1,2.0,2.0
2021-08-31 07:25:26.723,1003.0,60.0,7.0,1004.8173963462216,1,1,1,2.0,2.0
2021-08-31 07:25:26.732,1000.0,53.0,3.0,1001.408008755672,1,1,1,2.0,2.0
