time_stamp,Acceleration_X,Acceleration_Y,Acceleration_Z,magnitude,STD_Status_right,STD_Status_left,STD_Status_both,KMeans,KMeans_convert
2021-09-24 12:24:22.348,959.0,118.0,37.0,966.9405359172816,1,1,1,2.0,2.0
2021-09-24 12:24:22.357,1138.0,118.0,37.0,1144.699523892624,1,1,1,2.0,2.0
2021-09-24 12:24:22.358,1138.0,-114.0,21.0,1143.8885435216143,1,1,1,2.0,2.0
2021-09-24 12:24:22.368,932.0,129.0,-10.0,940.9383614243816,1,1,1,2.0,2.0
2021-09-24 12:24:22.378,1124.0,129.0,-10.0,1131.4225559003144,1,1,1,2.0,2.0
2021-09-24 12:24:22.379,1124.0,-194.0,26.0,1140.9154219310035,1,1,1,2.0,2.0
2021-09-24 12:24:22.387,970.0,44.0,18.0,971.1642497538714,1,1,1,2.0,2.0
2021-09-24 12:24:22.396,999.0,44.0,18.0,1000.130491485986,1,1,1,2.0,2.0
2021-09-24 12:24:22.397,999.0,15.0,-15.0,999.2251998423578,1,1,1,2.0,2.0
2021-09-24 12:24:22.406,950.0,198.0,-15.0,970.5302674311604,1,1,1,2.0,2.0
2021-09-24 12:24:22.407,950.0,198.0,13.0,970.501416794432,1,1,1,2.0,2.0
2021-09-24 12:24:22.417,1120.0,-7.0,6.0,1120.0379457857666,1,1,1,2.0,2.0
2021-09-24 12:24:22.427,892.0,287.0,-20.0,937.2475660144444,1,1,1,2.0,2.0
2021-09-24 12:24:22.436,1030.0,-26.0,-8.0,1030.3591606813616,1,1,1,2.0,2.0
2021-09-24 12:24:22.446,986.0,0.0,-8.0,986.0324538269518,1,1,1,2.0,2.0
2021-09-24 12:24:22.447,986.0,0.0,18.0,986.1642865161972,1,1,1,2.0,2.0
2021-09-24 12:24:22.455,1120.0,0.0,18.0,1120.1446335183684,1,1,1,2.0,2.0
2021-09-24 12:24:22.456,1120.0,-165.0,18.0,1132.231866712821,1,1,1,2.0,2.0
2021-09-24 12:24:22.459,1120.0,-165.0,18.0,1132.231866712821,1,1,1,2.0,2.0
2021-09-24 12:24:22.465,883.0,90.0,18.0,887.7572866499041,1,1,1,2.0,2.0
2021-09-24 12:24:22.466,883.0,90.0,-9.0,887.6204143664115,1,1,1,2.0,2.0
2021-09-24 12:24:22.476,1035.0,-127.0,14.0,1042.8566536202377,1,1,1,2.0,2.0
2021-09-24 12:24:22.486,1037.0,117.0,36.0,1044.2001723807557,1,1,1,2.0,2.0
2021-09-24 12:24:22.494,1092.0,80.0,39.0,1095.6208285716368,1,1,1,2.0,2.0
2021-09-24 12:24:22.504,945.0,202.0,4.0,966.3565594541178,1,1,1,2.0,2.0
2021-09-24 12:24:22.514,1077.0,-41.0,6.0,1077.796826864878,1,1,1,2.0,2.0
2021-09-24 12:24:22.523,1064.0,-41.0,6.0,1064.80655520146,1,1,1,2.0,2.0
2021-09-24 12:24:22.524,1064.0,117.0,20.0,1070.6002988977723,1,1,1,2.0,2.0
2021-09-24 12:24:22.534,1039.0,117.0,20.0,1045.758098223485,1,1,1,2.0,2.0
2021-09-24 12:24:22.535,1039.0,-87.0,14.0,1042.7300705359944,1,1,1,2.0,2.0
2021-09-24 12:24:22.543,937.0,37.0,-2.0,937.7323712019332,1,1,1,2.0,2.0
2021-09-24 12:24:22.553,1042.0,-59.0,-6.0,1043.686255538512,1,1,1,2.0,2.0
2021-09-24 12:24:22.562,980.0,-59.0,-6.0,981.7927479870688,1,1,1,2.0,2.0
2021-09-24 12:24:22.563,980.0,171.0,14.0,994.9055231528268,1,1,1,2.0,2.0
2021-09-24 12:24:22.573,1043.0,25.0,14.0,1043.393501992417,1,1,1,2.0,2.0
2021-09-24 12:24:22.574,1043.0,25.0,0.0,1043.2995734687138,1,1,1,2.0,2.0
2021-09-24 12:24:22.583,945.0,181.0,-16.0,962.3107606173796,1,1,1,2.0,2.0
2021-09-24 12:24:22.592,1032.0,89.0,9.0,1035.8696829234843,1,1,1,2.0,2.0
2021-09-24 12:24:22.602,1057.0,94.0,36.0,1061.7819926896482,1,1,1,2.0,2.0
2021-09-24 12:24:22.612,1086.0,-102.0,16.0,1090.896878719524,1,1,1,2.0,2.0
2021-09-24 12:24:22.622,892.0,70.0,-6.0,894.7625383307014,1,1,1,2.0,2.0
2021-09-24 12:24:22.632,1045.0,-133.0,20.0,1053.6194759019977,1,1,1,2.0,2.0
2021-09-24 12:24:22.642,1043.0,11.0,50.0,1044.2557158091115,1,1,1,2.0,2.0
2021-09-24 12:24:22.650,962.0,11.0,50.0,963.36130293883,1,1,1,2.0,2.0
2021-09-24 12:24:22.651,962.0,30.0,9.0,962.5097402104562,1,1,1,2.0,2.0
2021-09-24 12:24:22.660,995.0,72.0,-1.0,997.6021250979773,1,1,1,2.0,2.0
2021-09-24 12:24:22.671,1088.0,14.0,2.0,1088.091907882785,1,1,1,2.0,2.0
2021-09-24 12:24:22.680,1038.0,164.0,28.0,1051.248781212135,1,1,1,2.0,2.0
2021-09-24 12:24:22.690,1060.0,-88.0,28.0,1064.0150374877228,1,1,1,2.0,2.0
2021-09-24 12:24:22.691,1060.0,-88.0,2.0,1063.6484381599023,1,1,1,2.0,2.0
2021-09-24 12:24:22.699,978.0,-40.0,-9.0,978.8590296871148,1,1,1,2.0,2.0
2021-09-24 12:24:22.709,1007.0,-31.0,7.0,1007.5013647633436,1,1,1,2.0,2.0
2021-09-24 12:24:22.720,1085.0,-72.0,38.0,1088.050090758693,1,1,1,2.0,2.0
2021-09-24 12:24:22.728,992.0,-72.0,38.0,995.3351194447024,1,1,1,2.0,2.0
2021-09-24 12:24:22.729,992.0,20.0,18.0,992.3648522594902,1,1,1,2.0,2.0
2021-09-24 12:24:22.738,928.0,199.0,18.0,949.2676124254951,1,1,1,2.0,2.0
2021-09-24 12:24:22.739,928.0,199.0,-18.0,949.2676124254951,1,1,1,2.0,2.0
2021-09-24 12:24:22.749,979.0,159.0,-3.0,991.832143056475,1,1,1,2.0,2.0
2021-09-24 12:24:22.758,1044.0,97.0,42.0,1049.3374099878456,1,1,1,2.0,2.0
2021-09-24 12:24:22.768,988.0,82.0,7.0,991.4217064397976,1,1,1,2.0,2.0
2021-09-24 12:24:22.786,1083.0,-77.0,-24.0,1085.9990791892965,1,1,1,2.0,2.0
2021-09-24 12:24:22.791,1065.0,-132.0,15.0,1073.2539308104117,1,1,1,2.0,2.0
2021-09-24 12:24:22.798,1047.0,-132.0,15.0,1055.3947128918169,1,1,1,2.0,2.0
2021-09-24 12:24:22.799,1047.0,-100.0,40.0,1052.5250590841056,1,1,1,2.0,2.0
2021-09-24 12:24:22.809,987.0,-65.0,-4.0,989.1460963881927,1,1,1,2.0,2.0
2021-09-24 12:24:22.816,1018.0,-65.0,-4.0,1020.0808791463548,1,1,1,2.0,2.0
2021-09-24 12:24:22.817,1018.0,-25.0,-8.0,1018.3383524153452,1,1,1,2.0,2.0
2021-09-24 12:24:22.826,904.0,228.0,-8.0,932.343284418352,1,1,1,2.0,2.0
2021-09-24 12:24:22.827,904.0,228.0,8.0,932.343284418352,1,1,1,2.0,2.0
2021-09-24 12:24:22.837,1020.0,228.0,8.0,1045.2023727489332,1,1,1,2.0,2.0
2021-09-24 12:24:22.838,1020.0,144.0,23.0,1030.3712923019546,1,1,1,2.0,2.0
2021-09-24 12:24:22.846,1021.0,-41.0,23.0,1022.0816992784872,1,1,1,2.0,2.0
2021-09-24 12:24:22.847,1021.0,-41.0,3.0,1021.8272848187212,1,1,1,2.0,2.0
2021-09-24 12:24:22.855,1018.0,-41.0,3.0,1018.8297208071622,1,1,1,2.0,2.0
2021-09-24 12:24:22.856,1018.0,-48.0,-5.0,1019.1432676518056,1,1,1,2.0,2.0
2021-09-24 12:24:22.866,971.0,21.0,8.0,971.2600063834608,1,1,1,2.0,2.0
2021-09-24 12:24:22.875,1136.0,-137.0,18.0,1144.3727539573808,1,1,1,2.0,2.0
2021-09-24 12:24:22.885,948.0,39.0,17.0,948.9541611690208,1,1,1,2.0,2.0
2021-09-24 12:24:22.895,995.0,39.0,17.0,995.9091324011443,1,1,1,2.0,2.0
2021-09-24 12:24:22.896,995.0,77.0,-17.0,998.119732296682,1,1,1,2.0,2.0
2021-09-24 12:24:22.905,955.0,77.0,-17.0,958.249967388468,1,1,1,2.0,2.0
2021-09-24 12:24:22.906,955.0,191.0,17.0,974.06108638011,1,1,1,2.0,2.0
2021-09-24 12:24:22.915,1122.0,-32.0,33.0,1122.9412273133444,1,1,1,2.0,2.0
2021-09-24 12:24:22.924,884.0,240.0,-1.0,916.0005458513656,1,1,1,2.0,2.0
2021-09-24 12:24:22.934,1045.0,31.0,14.0,1045.5534419626763,1,1,1,2.0,2.0
2021-09-24 12:24:22.944,975.0,-107.0,-19.0,981.0377158906788,1,1,1,2.0,2.0
2021-09-24 12:24:22.954,1084.0,-221.0,17.0,1106.429392234317,1,1,1,2.0,2.0
2021-09-24 12:24:22.963,939.0,-40.0,-8.0,939.8856313403244,1,1,1,2.0,2.0
2021-09-24 12:24:22.973,1020.0,-87.0,4.0,1023.711385108127,1,1,1,2.0,2.0
2021-09-24 12:24:22.982,968.0,-87.0,4.0,971.90997525491,1,1,1,2.0,2.0
2021-09-24 12:24:22.983,968.0,147.0,23.0,979.368163664717,1,1,1,2.0,2.0
2021-09-24 12:24:22.993,1070.0,149.0,0.0,1080.3244882904396,1,1,1,2.0,2.0
2021-09-24 12:24:23.002,1050.0,81.0,0.0,1053.119651321729,1,1,1,2.0,2.0
2021-09-24 12:24:23.003,1050.0,81.0,13.0,1053.1998860615206,1,1,1,2.0,2.0
2021-09-24 12:24:23.013,1044.0,0.0,-26.0,1044.3237046050424,1,1,1,2.0,2.0
2021-09-24 12:24:23.022,1008.0,159.0,13.0,1020.5459323322984,1,1,1,2.0,2.0
2021-09-24 12:24:23.031,1111.0,-81.0,3.0,1113.9528715345186,1,1,1,2.0,2.0
2021-09-24 12:24:23.042,930.0,66.0,-13.0,932.4296220090822,1,1,1,2.0,2.0
2021-09-24 12:24:23.051,1008.0,-115.0,9.0,1014.578730311256,1,1,1,2.0,2.0
2021-09-24 12:24:23.061,942.0,123.0,9.0,950.0389465700866,1,1,1,2.0,2.0
2021-09-24 12:24:23.071,1086.0,-68.0,-5.0,1088.1383184136105,1,1,1,2.0,2.0
2021-09-24 12:24:23.091,922.0,-68.0,-5.0,924.517712107237,1,1,1,2.0,2.0
2021-09-24 12:24:23.092,922.0,221.0,-28.0,948.529915184545,1,1,1,2.0,2.0
2021-09-24 12:24:23.095,1003.0,94.0,11.0,1007.4552099225056,1,1,1,2.0,2.0
2021-09-24 12:24:23.101,1054.0,127.0,47.0,1062.663634458242,1,1,1,2.0,2.0
2021-09-24 12:24:23.109,1040.0,-62.0,47.0,1042.906036035845,1,1,1,2.0,2.0
2021-09-24 12:24:23.110,1040.0,-62.0,-8.0,1041.8771520673636,1,1,1,2.0,2.0
2021-09-24 12:24:23.119,905.0,55.0,-11.0,906.7364556473948,1,1,1,2.0,2.0
2021-09-24 12:24:23.129,1013.0,-124.0,19.0,1020.737968334675,1,1,1,2.0,2.0
2021-09-24 12:24:23.139,1053.0,49.0,19.0,1054.3106752755566,1,1,1,2.0,2.0
2021-09-24 12:24:23.140,1053.0,49.0,38.0,1054.8241559615517,1,1,1,2.0,2.0
2021-09-24 12:24:23.149,1058.0,-41.0,-9.0,1058.832375780038,1,1,1,2.0,2.0
2021-09-24 12:24:23.162,922.0,132.0,-29.0,931.8524561324072,1,1,1,2.0,2.0
2021-09-24 12:24:23.168,1047.0,40.0,2.0,1047.7657180877793,1,1,1,2.0,2.0
2021-09-24 12:24:23.178,1016.0,88.0,23.0,1020.0632333340908,1,1,1,2.0,2.0
2021-09-24 12:24:23.188,1098.0,-86.0,18.0,1101.5098728563444,1,1,1,2.0,2.0
2021-09-24 12:24:23.198,915.0,46.0,18.0,916.3323632831048,1,1,1,2.0,2.0
2021-09-24 12:24:23.199,915.0,46.0,-8.0,916.1904823779824,1,1,1,2.0,2.0
2021-09-24 12:24:23.208,954.0,-108.0,13.0,960.1817536279264,1,1,1,2.0,2.0
2021-09-24 12:24:23.217,1115.0,-130.0,32.0,1123.008904684197,1,1,1,2.0,2.0
2021-09-24 12:24:23.227,1037.0,91.0,8.0,1041.015850023428,1,1,1,2.0,2.0
2021-09-24 12:24:23.243,908.0,228.0,-3.0,936.192822019054,1,1,1,2.0,2.0
2021-09-24 12:24:23.248,974.0,143.0,0.0,984.4414660100416,1,1,1,2.0,2.0
2021-09-24 12:24:23.259,1080.0,96.0,0.0,1084.2582718153456,1,1,1,2.0,2.0
2021-09-24 12:24:23.260,1080.0,96.0,46.0,1085.233615402693,1,1,1,2.0,2.0
2021-09-24 12:24:23.266,1016.0,-45.0,-17.0,1017.138142043646,1,1,1,2.0,2.0
2021-09-24 12:24:23.277,1015.0,-32.0,-13.0,1015.58751469285,1,1,1,2.0,2.0
2021-09-24 12:24:23.286,1025.0,-119.0,-5.0,1031.8967971652978,1,1,1,2.0,2.0
2021-09-24 12:24:23.295,1059.0,-18.0,37.0,1059.7990375538186,1,1,1,2.0,2.0
2021-09-24 12:24:23.306,945.0,-45.0,12.0,946.1469230515944,1,1,1,2.0,2.0
2021-09-24 12:24:23.314,950.0,-45.0,12.0,951.1408938742989,1,1,1,2.0,2.0
2021-09-24 12:24:23.315,950.0,35.0,-8.0,950.678178985928,1,1,1,2.0,2.0
2021-09-24 12:24:23.326,1009.0,167.0,19.0,1022.9032212286752,1,1,1,2.0,2.0
2021-09-24 12:24:23.335,1117.0,34.0,19.0,1117.678844749242,1,1,1,2.0,2.0
2021-09-24 12:24:23.336,1117.0,34.0,8.0,1117.5459722087498,1,1,1,2.0,2.0
2021-09-24 12:24:23.344,1034.0,34.0,8.0,1034.5897737750938,1,1,1,2.0,2.0
2021-09-24 12:24:23.345,1034.0,-36.0,17.0,1034.7661571582248,1,1,1,2.0,2.0
2021-09-24 12:24:23.353,968.0,-36.0,17.0,968.8183524273268,1,1,1,2.0,2.0
2021-09-24 12:24:23.354,968.0,-7.0,-16.0,968.15752850453,1,1,1,2.0,2.0
2021-09-24 12:24:23.364,992.0,8.0,17.0,992.177907433944,1,1,1,2.0,2.0
2021-09-24 12:24:23.374,1118.0,8.0,17.0,1118.1578600537582,1,1,1,2.0,2.0
2021-09-24 12:24:23.375,1118.0,-128.0,20.0,1125.4812304076866,1,1,1,2.0,2.0
2021-09-24 12:24:23.383,909.0,33.0,2.0,909.6010114330348,1,1,1,2.0,2.0
2021-09-24 12:24:23.393,1044.0,33.0,2.0,1044.523336263963,1,1,1,2.0,2.0
2021-09-24 12:24:23.394,1044.0,-119.0,20.0,1050.9505221464997,1,1,1,2.0,2.0
2021-09-24 12:24:23.402,1014.0,-119.0,20.0,1021.1547385190944,1,1,1,2.0,2.0
2021-09-24 12:24:23.403,1014.0,103.0,26.0,1019.549410278874,1,1,1,2.0,2.0
2021-09-24 12:24:23.412,1084.0,103.0,26.0,1089.1928203949933,1,1,1,2.0,2.0
2021-09-24 12:24:23.413,1084.0,33.0,42.0,1085.315161600537,1,1,1,2.0,2.0
2021-09-24 12:24:23.423,948.0,140.0,3.0,958.2864916088508,1,1,1,2.0,2.0
2021-09-24 12:24:23.433,1013.0,90.0,1.0,1016.9906587574932,1,1,1,2.0,2.0
2021-09-24 12:24:23.442,1009.0,90.0,1.0,1013.0064165640808,1,1,1,2.0,2.0
2021-09-24 12:24:23.443,1009.0,186.0,45.0,1026.9868548331085,1,1,1,2.0,2.0
2021-09-24 12:24:23.451,1123.0,-20.0,42.0,1123.9630776853835,1,1,1,2.0,2.0
2021-09-24 12:24:23.465,968.0,-4.0,-6.0,968.0268591315016,1,1,1,2.0,2.0
2021-09-24 12:24:23.472,1048.0,-100.0,12.0,1052.8285710408888,1,1,1,2.0,2.0
2021-09-24 12:24:23.481,952.0,142.0,12.0,962.6068771829962,1,1,1,2.0,2.0
2021-09-24 12:24:23.482,952.0,142.0,20.0,962.7398402476132,1,1,1,2.0,2.0
2021-09-24 12:24:23.491,1129.0,-95.0,-14.0,1133.0763434120404,1,1,1,2.0,2.0
2021-09-24 12:24:23.500,871.0,-95.0,-14.0,876.2773533533775,1,1,1,2.0,2.0
2021-09-24 12:24:23.501,871.0,265.0,0.0,910.4207818366186,1,1,1,2.0,2.0
2021-09-24 12:24:23.510,1008.0,-36.0,0.0,1008.6426522807768,1,1,1,2.0,2.0
2021-09-24 12:24:23.511,1008.0,-36.0,-14.0,1008.739807879118,1,1,1,2.0,2.0
2021-09-24 12:24:23.520,989.0,93.0,23.0,993.6292064950588,1,1,1,2.0,2.0
2021-09-24 12:24:23.530,1142.0,-98.0,35.0,1146.7314419688682,1,1,1,2.0,2.0
2021-09-24 12:24:23.539,845.0,141.0,-40.0,857.6164643941953,1,1,1,2.0,2.0
2021-09-24 12:24:23.550,1042.0,-111.0,0.0,1047.8955100581354,1,1,1,2.0,2.0
2021-09-24 12:24:23.559,1118.0,-111.0,0.0,1123.4967734711124,1,1,1,2.0,2.0
2021-09-24 12:24:23.560,1118.0,17.0,49.0,1119.202394564987,1,1,1,2.0,2.0
2021-09-24 12:24:23.569,1107.0,23.0,20.0,1107.4195230354212,1,1,1,2.0,2.0
2021-09-24 12:24:23.578,898.0,23.0,20.0,898.5171116901447,1,1,1,2.0,2.0
2021-09-24 12:24:23.579,898.0,210.0,9.0,922.271651955106,1,1,1,2.0,2.0
2021-09-24 12:24:23.589,1059.0,-14.0,-3.0,1059.0967850012576,1,1,1,2.0,2.0
2021-09-24 12:24:23.598,1063.0,128.0,-3.0,1070.68295961036,1,1,1,2.0,2.0
2021-09-24 12:24:23.599,1063.0,128.0,19.0,1070.8473280538174,1,1,1,2.0,2.0
2021-09-24 12:24:23.607,1067.0,128.0,19.0,1074.8181241493835,1,1,1,2.0,2.0
2021-09-24 12:24:23.608,1067.0,-79.0,-4.0,1069.9280349630997,1,1,1,2.0,2.0
2021-09-24 12:24:23.617,947.0,31.0,-4.0,947.5156990783846,1,1,1,2.0,2.0
2021-09-24 12:24:23.618,947.0,31.0,-32.0,948.0474671660696,1,1,1,2.0,2.0
2021-09-24 12:24:23.628,1038.0,-100.0,-6.0,1042.8230914205917,1,1,1,2.0,2.0
2021-09-24 12:24:23.638,1024.0,-100.0,-6.0,1028.8887209023142,1,1,1,2.0,2.0
2021-09-24 12:24:23.639,1024.0,114.0,30.0,1030.7628243199306,1,1,1,2.0,2.0
2021-09-24 12:24:23.647,1040.0,9.0,2.0,1040.040864581772,1,1,1,2.0,2.0
2021-09-24 12:24:23.657,906.0,147.0,-16.0,917.9874726814088,1,1,1,2.0,2.0
2021-09-24 12:24:23.666,1004.0,147.0,-16.0,1014.830527723718,1,1,1,2.0,2.0
2021-09-24 12:24:23.667,1004.0,75.0,11.0,1006.8574874330528,1,1,1,2.0,2.0
2021-09-24 12:24:23.676,1006.0,142.0,11.0,1016.0319876854272,1,1,1,2.0,2.0
2021-09-24 12:24:23.677,1006.0,142.0,22.0,1016.2106080926336,1,1,1,2.0,2.0
2021-09-24 12:24:23.687,1058.0,-31.0,28.0,1058.8243480388992,1,1,1,2.0,2.0
2021-09-24 12:24:23.696,919.0,86.0,-14.0,923.1213354700452,1,1,1,2.0,2.0
2021-09-24 12:24:23.705,1067.0,86.0,-14.0,1070.5517269146785,1,1,1,2.0,2.0
2021-09-24 12:24:23.706,1067.0,-46.0,0.0,1067.9911048318709,1,1,1,2.0,2.0
2021-09-24 12:24:23.715,1108.0,-6.0,48.0,1109.055453978745,1,1,1,2.0,2.0
2021-09-24 12:24:23.725,967.0,24.0,4.0,967.3060529119002,1,1,1,2.0,2.0
2021-09-24 12:24:23.735,908.0,181.0,-35.0,926.5257686648548,1,1,1,2.0,2.0
2021-09-24 12:24:23.745,1007.0,96.0,-9.0,1011.6056543930544,1,1,1,2.0,2.0
2021-09-24 12:24:23.754,1058.0,128.0,-9.0,1065.752785593357,1,1,1,2.0,2.0
2021-09-24 12:24:23.755,1058.0,128.0,31.0,1066.1655593762162,1,1,1,2.0,2.0
2021-09-24 12:24:23.764,1030.0,-57.0,-7.0,1031.5997285769322,1,1,1,2.0,2.0
2021-09-24 12:24:23.774,1014.0,0.0,-9.0,1014.0399400418112,1,1,1,2.0,2.0
2021-09-24 12:24:23.784,1010.0,113.0,14.0,1016.3980519461852,1,1,1,2.0,2.0
2021-09-24 12:24:23.795,1048.0,106.0,32.0,1053.8330038483327,1,1,1,2.0,2.0
2021-09-24 12:24:23.804,1062.0,-117.0,-20.0,1068.6126519932282,1,1,1,2.0,2.0
2021-09-24 12:24:23.813,934.0,66.0,-16.0,936.4656961149192,1,1,1,2.0,2.0
2021-09-24 12:24:23.828,1006.0,59.0,35.0,1008.336253439298,1,1,1,2.0,2.0
2021-09-24 12:24:23.833,1083.0,-39.0,28.0,1084.0636512677656,1,1,1,2.0,2.0
2021-09-24 12:24:23.842,1088.0,-101.0,0.0,1092.6779031352287,1,1,1,2.0,2.0
2021-09-24 12:24:23.852,922.0,-3.0,-18.0,922.1805680017336,1,1,1,2.0,2.0
2021-09-24 12:24:23.862,992.0,-120.0,16.0,999.359795068823,1,1,1,2.0,2.0
2021-09-24 12:24:23.874,1115.0,-120.0,16.0,1121.5529412381743,1,1,1,2.0,2.0
2021-09-24 12:24:23.875,1115.0,-122.0,48.0,1122.681165781274,1,1,1,2.0,2.0
2021-09-24 12:24:23.883,912.0,-1.0,48.0,913.2628318288224,1,1,1,2.0,2.0
2021-09-24 12:24:23.884,912.0,-1.0,-14.0,912.107997991466,1,1,1,2.0,2.0
2021-09-24 12:24:23.891,1036.0,-153.0,0.0,1047.2368404520537,1,1,1,2.0,2.0
2021-09-24 12:24:23.900,1022.0,-153.0,0.0,1033.3890845175404,1,1,1,2.0,2.0
2021-09-24 12:24:23.901,1022.0,142.0,7.0,1031.8415576046548,1,1,1,2.0,2.0
2021-09-24 12:24:23.911,1053.0,86.0,33.0,1057.0212864460204,1,1,1,2.0,2.0
2021-09-24 12:24:23.920,1020.0,86.0,33.0,1024.1508677924362,1,1,1,2.0,2.0
2021-09-24 12:24:23.921,1020.0,36.0,4.0,1020.6429346250331,1,1,1,2.0,2.0
2021-09-24 12:24:23.931,1072.0,47.0,4.0,1073.0372780104146,1,1,1,2.0,2.0
2021-09-24 12:24:23.932,1072.0,47.0,-8.0,1073.0596441950463,1,1,1,2.0,2.0
2021-09-24 12:24:23.939,970.0,47.0,-8.0,971.170942728416,1,1,1,2.0,2.0
2021-09-24 12:24:23.940,970.0,145.0,1.0,980.778262401854,1,1,1,2.0,2.0
2021-09-24 12:24:23.949,1094.0,-76.0,18.0,1096.7843908444358,1,1,1,2.0,2.0
2021-09-24 12:24:23.959,988.0,-82.0,16.0,991.5260964795632,1,1,1,2.0,2.0
2021-09-24 12:24:23.969,1009.0,-9.0,-5.0,1009.0525258875278,1,1,1,2.0,2.0
2021-09-24 12:24:23.980,1002.0,172.0,8.0,1016.6867757574108,1,1,1,2.0,2.0
2021-09-24 12:24:23.989,1102.0,0.0,-5.0,1102.0113429543271,1,1,1,2.0,2.0
2021-09-24 12:24:23.998,910.0,251.0,-42.0,944.9153401231245,1,1,1,2.0,2.0
2021-09-24 12:24:24.008,1036.0,38.0,-3.0,1036.701017651666,1,1,1,2.0,2.0
2021-09-24 12:24:24.018,1030.0,87.0,-2.0,1033.6696764440755,1,1,1,2.0,2.0
2021-09-24 12:24:24.028,1088.0,87.0,-2.0,1091.4746904990511,1,1,1,2.0,2.0
2021-09-24 12:24:24.029,1088.0,-63.0,23.0,1090.0651356685066,1,1,1,2.0,2.0
2021-09-24 12:24:24.038,846.0,187.0,23.0,866.7260236083835,1,1,1,2.0,2.0
2021-09-24 12:24:24.039,846.0,187.0,-3.0,866.4259922232251,1,1,1,2.0,2.0
2021-09-24 12:24:24.047,1068.0,-146.0,-3.0,1077.937382225888,1,1,1,2.0,2.0
2021-09-24 12:24:24.048,1068.0,-146.0,28.0,1078.2968051515315,1,1,1,2.0,2.0
2021-09-24 12:24:24.057,1065.0,48.0,38.0,1066.7581731582843,1,1,1,2.0,2.0
2021-09-24 12:24:24.067,1138.0,16.0,32.0,1138.5622512625298,1,1,1,2.0,2.0
2021-09-24 12:24:24.078,927.0,181.0,-1.0,944.5056908245708,1,1,1,2.0,2.0
2021-09-24 12:24:24.086,1068.0,-102.0,-4.0,1072.867186561319,1,1,1,2.0,2.0
2021-09-24 12:24:24.107,1021.0,211.0,-4.0,1042.5823708465437,1,1,1,2.0,2.0
2021-09-24 12:24:24.108,1021.0,211.0,38.0,1043.2669840457909,1,1,1,2.0,2.0
2021-09-24 12:24:24.109,1107.0,-43.0,1.0,1107.835276564165,1,1,1,2.0,2.0
2021-09-24 12:24:24.117,938.0,60.0,-16.0,940.0531899844816,1,1,1,2.0,2.0
2021-09-24 12:24:24.125,959.0,-97.0,-26.0,964.2437451184218,1,1,1,2.0,2.0
2021-09-24 12:24:24.135,974.0,125.0,12.0,982.0616070288056,1,1,1,2.0,2.0
2021-09-24 12:24:24.145,1093.0,0.0,41.0,1093.7687141256145,1,1,1,2.0,2.0
2021-09-24 12:24:24.154,914.0,196.0,41.0,935.6778291698485,1,1,1,2.0,2.0
2021-09-24 12:24:24.155,914.0,196.0,-1.0,934.7796531803632,1,1,1,2.0,2.0
2021-09-24 12:24:24.168,972.0,54.0,-1.0,973.4993579864343,1,1,1,2.0,2.0
2021-09-24 12:24:24.174,1016.0,143.0,23.0,1026.27189379813,1,1,1,2.0,2.0
2021-09-24 12:24:24.184,1134.0,-113.0,30.0,1140.010964859549,1,1,1,2.0,2.0
2021-09-24 12:24:24.193,885.0,98.0,30.0,890.9146984981222,1,1,1,2.0,2.0
2021-09-24 12:24:24.194,885.0,98.0,-19.0,890.6121490300927,1,1,1,2.0,2.0
2021-09-24 12:24:24.203,1042.0,-132.0,7.0,1050.3508937493225,1,1,1,2.0,2.0
2021-09-24 12:24:24.213,1047.0,-56.0,31.0,1048.9547178024416,1,1,1,2.0,2.0
2021-09-24 12:24:24.224,971.0,-37.0,19.0,971.8904259225934,1,1,1,2.0,2.0
2021-09-24 12:24:24.232,872.0,-37.0,19.0,872.9914088924357,1,1,1,2.0,2.0
2021-09-24 12:24:24.233,872.0,313.0,-32.0,927.0258896061102,1,1,1,2.0,2.0
2021-09-24 12:24:24.250,1012.0,96.0,-17.0,1016.6853003756866,1,1,1,2.0,2.0
2021-09-24 12:24:24.253,1096.0,96.0,-17.0,1100.3276784667376,1,1,1,2.0,2.0
2021-09-24 12:24:24.254,1096.0,161.0,38.0,1108.413731419816,1,1,1,2.0,2.0
2021-09-24 12:24:24.265,1065.0,-49.0,38.0,1066.8036370391694,1,1,1,2.0,2.0
2021-09-24 12:24:24.266,1065.0,-49.0,-3.0,1066.1308550079582,1,1,1,2.0,2.0
2021-09-24 12:24:24.272,963.0,-20.0,-3.0,963.2123338080758,1,1,1,2.0,2.0
2021-09-24 12:24:24.273,963.0,-20.0,-24.0,963.5066164796172,1,1,1,2.0,2.0
2021-09-24 12:24:24.282,1004.0,-20.0,-24.0,1004.4859381793256,1,1,1,2.0,2.0
2021-09-24 12:24:24.283,1004.0,-42.0,-11.0,1004.9383065641392,1,1,1,2.0,2.0
2021-09-24 12:24:24.292,1045.0,41.0,24.0,1046.0793468948712,1,1,1,2.0,2.0
2021-09-24 12:24:24.302,1085.0,-136.0,-13.0,1093.567556212235,1,1,1,2.0,2.0
2021-09-24 12:24:24.310,949.0,-136.0,-13.0,958.783604365448,1,1,1,2.0,2.0
2021-09-24 12:24:24.311,949.0,129.0,-14.0,957.8298387500778,1,1,1,2.0,2.0
2021-09-24 12:24:24.320,961.0,129.0,-14.0,969.7205783110928,1,1,1,2.0,2.0
2021-09-24 12:24:24.321,961.0,129.0,-16.0,969.751514564427,1,1,1,2.0,2.0
2021-09-24 12:24:24.330,1064.0,129.0,-16.0,1071.910910477172,1,1,1,2.0,2.0
2021-09-24 12:24:24.331,1064.0,71.0,19.0,1066.535512770203,1,1,1,2.0,2.0
2021-09-24 12:24:24.340,1045.0,-86.0,12.0,1048.6014495507814,1,1,1,2.0,2.0
2021-09-24 12:24:24.350,885.0,87.0,-18.0,889.4481435137183,1,1,1,2.0,2.0
2021-09-24 12:24:24.359,1060.0,-63.0,-18.0,1062.023069429285,1,1,1,2.0,2.0
2021-09-24 12:24:24.360,1060.0,-63.0,12.0,1061.9383221261016,1,1,1,2.0,2.0
2021-09-24 12:24:24.369,1086.0,-39.0,31.0,1087.1421250232188,1,1,1,2.0,2.0
2021-09-24 12:24:24.380,956.0,-58.0,2.0,957.759886401597,1,1,1,2.0,2.0
2021-09-24 12:24:24.389,997.0,-58.0,2.0,998.6876388541114,1,1,1,2.0,2.0
2021-09-24 12:24:24.390,997.0,-82.0,0.0,1000.3664328634784,1,1,1,2.0,2.0
2021-09-24 12:24:24.399,1032.0,29.0,0.0,1032.4073808337482,1,1,1,2.0,2.0
2021-09-24 12:24:24.409,1052.0,115.0,21.0,1058.4753185596724,1,1,1,2.0,2.0
2021-09-24 12:24:24.418,1001.0,-20.0,6.0,1001.2177585320788,1,1,1,2.0,2.0
2021-09-24 12:24:24.428,1019.0,-4.0,-15.0,1019.1182463286584,1,1,1,2.0,2.0
2021-09-24 12:24:24.438,976.0,113.0,32.0,983.040690917726,1,1,1,2.0,2.0
2021-09-24 12:24:24.448,1120.0,-48.0,18.0,1121.1726004500824,1,1,1,2.0,2.0
2021-09-24 12:24:24.458,1007.0,-87.0,16.0,1010.8778363382986,1,1,1,2.0,2.0
2021-09-24 12:24:24.469,965.0,39.0,-36.0,966.458483329729,1,1,1,2.0,2.0
2021-09-24 12:24:24.477,1004.0,84.0,17.0,1007.651229344757,1,1,1,2.0,2.0
2021-09-24 12:24:24.487,1121.0,-48.0,44.0,1122.8895760492214,1,1,1,2.0,2.0
2021-09-24 12:24:24.496,869.0,221.0,-16.0,896.8043264837654,1,1,1,2.0,2.0
2021-09-24 12:24:24.506,1073.0,17.0,3.0,1073.1388540165713,1,1,1,2.0,2.0
2021-09-24 12:24:24.516,1036.0,-6.0,20.0,1036.2104033448034,1,1,1,2.0,2.0
2021-09-24 12:24:24.526,1093.0,-81.0,21.0,1096.1984309421357,1,1,1,2.0,2.0
2021-09-24 12:24:24.536,898.0,62.0,-9.0,900.1827592217038,1,1,1,2.0,2.0
2021-09-24 12:24:24.546,1038.0,-183.0,-4.0,1054.015654532702,1,1,1,2.0,2.0
2021-09-24 12:24:24.556,1050.0,101.0,54.0,1056.2277216585446,1,1,1,2.0,2.0
2021-09-24 12:24:24.565,1090.0,101.0,54.0,1096.0004562042843,1,1,1,2.0,2.0
2021-09-24 12:24:24.566,1090.0,23.0,48.0,1091.2987675242744,1,1,1,2.0,2.0
2021-09-24 12:24:24.574,907.0,166.0,2.0,922.0677849269,1,1,1,2.0,2.0
2021-09-24 12:24:24.584,1080.0,-11.0,17.0,1080.189798137346,1,1,1,2.0,2.0
2021-09-24 12:24:24.595,993.0,232.0,31.0,1020.2127229161572,1,1,1,2.0,2.0
2021-09-24 12:24:24.604,1101.0,232.0,31.0,1125.6047263582363,1,1,1,2.0,2.0
2021-09-24 12:24:24.605,1101.0,-114.0,20.0,1107.0668453169394,1,1,1,2.0,2.0
2021-09-24 12:24:24.613,849.0,137.0,-16.0,860.1313853127323,1,1,1,2.0,2.0
2021-09-24 12:24:24.623,1011.0,-110.0,-16.0,1017.0924245121482,1,1,1,2.0,2.0
2021-09-24 12:24:24.633,987.0,68.0,15.0,989.4533844502226,1,1,1,2.0,2.0
2021-09-24 12:24:24.643,1101.0,-51.0,-3.0,1102.1846487771456,1,1,1,2.0,2.0
2021-09-24 12:24:24.652,893.0,-51.0,-3.0,894.4601723945008,1,1,1,2.0,2.0
2021-09-24 12:24:24.653,893.0,186.0,-29.0,912.6258817281044,1,1,1,2.0,2.0
2021-09-24 12:24:24.663,1044.0,74.0,12.0,1046.6881101837355,1,1,1,2.0,2.0
2021-09-24 12:24:24.673,1093.0,116.0,41.0,1099.9027229714454,1,1,1,2.0,2.0
2021-09-24 12:24:24.682,1094.0,-70.0,34.0,1096.7643320239767,1,1,1,2.0,2.0
2021-09-24 12:24:24.693,877.0,163.0,-15.0,892.1451675596298,1,1,1,2.0,2.0
2021-09-24 12:24:24.701,1088.0,163.0,-15.0,1100.244518277642,1,1,1,2.0,2.0
2021-09-24 12:24:24.702,1088.0,-83.0,4.0,1091.1686395786858,1,1,1,2.0,2.0
2021-09-24 12:24:24.712,1079.0,86.0,58.0,1083.974630699446,1,1,1,2.0,2.0
2021-09-24 12:24:24.722,1001.0,-67.0,11.0,1003.3000548190956,1,1,1,2.0,2.0
2021-09-24 12:24:24.730,825.0,-67.0,11.0,827.7892243802163,1,1,1,2.0,2.0
2021-09-24 12:24:24.731,825.0,284.0,-4.0,872.5233521230249,1,1,1,2.0,2.0
2021-09-24 12:24:24.742,1070.0,-14.0,8.0,1070.121488430169,1,1,1,2.0,2.0
2021-09-24 12:24:24.750,1068.0,-14.0,8.0,1068.1217159106916,1,1,1,2.0,2.0
2021-09-24 12:24:24.751,1068.0,177.0,60.0,1084.2292193074304,1,1,1,2.0,2.0
2021-09-24 12:24:24.761,1094.0,-69.0,3.0,1096.1779052690306,1,1,1,2.0,2.0
2021-09-24 12:24:24.770,934.0,113.0,6.0,940.8299527544816,1,1,1,2.0,2.0
2021-09-24 12:24:24.780,1051.0,-58.0,2.0,1052.6010640313832,1,1,1,2.0,2.0
2021-09-24 12:24:24.790,1001.0,120.0,45.0,1009.1709468667832,1,1,1,2.0,2.0
2021-09-24 12:24:24.799,1075.0,-101.0,16.0,1079.8527677419731,1,1,1,2.0,2.0
2021-09-24 12:24:24.809,898.0,175.0,-20.0,915.11146862008,1,1,1,2.0,2.0
2021-09-24 12:24:24.819,977.0,77.0,-12.0,980.1030558058678,1,1,1,2.0,2.0
2021-09-24 12:24:24.838,1064.0,77.0,-12.0,1066.8500363218816,1,1,1,2.0,2.0
2021-09-24 12:24:24.839,1064.0,19.0,49.0,1065.2971416464047,1,1,1,2.0,2.0
2021-09-24 12:24:24.841,962.0,99.0,49.0,968.3212276925462,1,1,1,2.0,2.0
2021-09-24 12:24:24.842,962.0,99.0,-16.0,967.2130065295856,1,1,1,2.0,2.0
2021-09-24 12:24:24.848,877.0,99.0,-16.0,882.7151295859837,1,1,1,2.0,2.0
2021-09-24 12:24:24.849,877.0,129.0,-13.0,886.5320073184047,1,1,1,2.0,2.0
2021-09-24 12:24:24.858,1103.0,-144.0,12.0,1112.4248289210375,1,1,1,2.0,2.0
2021-09-24 12:24:24.867,1074.0,-59.0,41.0,1076.400483091679,1,1,1,2.0,2.0
2021-09-24 12:24:24.877,964.0,-108.0,0.0,970.03092734201,1,1,1,2.0,2.0
2021-09-24 12:24:24.887,974.0,-96.0,-9.0,978.7609514074414,1,1,1,2.0,2.0
2021-09-24 12:24:24.898,971.0,121.0,13.0,978.5964438929868,1,1,1,2.0,2.0
2021-09-24 12:24:24.907,1011.0,184.0,45.0,1028.5922418529124,1,1,1,2.0,2.0
2021-09-24 12:24:24.916,1050.0,184.0,45.0,1066.949389615084,1,1,1,2.0,2.0
2021-09-24 12:24:24.917,1050.0,-41.0,0.0,1050.8001712980447,1,1,1,2.0,2.0
2021-09-24 12:24:24.926,970.0,51.0,-16.0,971.4715641746805,1,1,1,2.0,2.0
2021-09-24 12:24:24.936,1000.0,167.0,24.0,1014.1326343235386,1,1,1,2.0,2.0
2021-09-24 12:24:24.946,1148.0,167.0,24.0,1160.3314181732735,1,1,1,2.0,2.0
2021-09-24 12:24:24.947,1148.0,-135.0,0.0,1155.9104636605723,1,1,1,2.0,2.0
2021-09-24 12:24:24.956,1091.0,-135.0,0.0,1099.3206993411886,1,1,1,2.0,2.0
2021-09-24 12:24:24.957,1091.0,-94.0,-7.0,1095.06438166895,1,1,1,2.0,2.0
2021-09-24 12:24:24.965,932.0,117.0,-17.0,939.4689989563252,1,1,1,2.0,2.0
2021-09-24 12:24:24.975,973.0,86.0,-9.0,976.8346840689064,1,1,1,2.0,2.0
2021-09-24 12:24:24.985,1110.0,-35.0,29.0,1110.9302408342298,1,1,1,2.0,2.0
2021-09-24 12:24:24.995,840.0,246.0,17.0,875.4456008228038,1,1,1,2.0,2.0
2021-09-24 12:24:25.006,1090.0,-138.0,-17.0,1098.8325623132944,1,1,1,2.0,2.0
2021-09-24 12:24:25.014,986.0,-53.0,18.0,987.5874644809948,1,1,1,2.0,2.0
2021-09-24 12:24:25.023,1106.0,-53.0,18.0,1107.4154595272726,1,1,1,2.0,2.0
2021-09-24 12:24:25.024,1106.0,-156.0,36.0,1117.5276282938155,1,1,1,2.0,2.0
2021-09-24 12:24:25.033,937.0,32.0,-9.0,937.5894623981224,1,1,1,2.0,2.0
2021-09-24 12:24:25.043,1045.0,-141.0,-9.0,1054.5079421227704,1,1,1,2.0,2.0
2021-09-24 12:24:25.044,1045.0,-141.0,-2.0,1054.4714315712872,1,1,1,2.0,2.0
2021-09-24 12:24:25.054,925.0,156.0,21.0,938.2973942199776,1,1,1,2.0,2.0
2021-09-24 12:24:25.064,1099.0,23.0,27.0,1099.5721895355484,1,1,1,2.0,2.0
2021-09-24 12:24:25.072,1035.0,66.0,27.0,1037.4536134208604,1,1,1,2.0,2.0
2021-09-24 12:24:25.073,1035.0,66.0,19.0,1037.276240931026,1,1,1,2.0,2.0
2021-09-24 12:24:25.082,1075.0,66.0,19.0,1077.191719240359,1,1,1,2.0,2.0
2021-09-24 12:24:25.083,1075.0,-10.0,6.0,1075.063253952994,1,1,1,2.0,2.0
2021-09-24 12:24:25.092,969.0,87.0,2.0,972.8997892897296,1,1,1,2.0,2.0
2021-09-24 12:24:25.102,1134.0,-164.0,17.0,1145.9236449257864,1,1,1,2.0,2.0
2021-09-24 12:24:25.122,884.0,106.0,17.0,890.494806273456,1,1,1,2.0,2.0
2021-09-24 12:24:25.123,884.0,106.0,-4.0,890.3415075127072,1,1,1,2.0,2.0
2021-09-24 12:24:25.125,1027.0,-167.0,10.0,1040.537361174504,1,1,1,2.0,2.0
2021-09-24 12:24:25.133,931.0,247.0,-3.0,963.2128529042787,1,1,1,2.0,2.0
2021-09-24 12:24:25.141,1138.0,247.0,-3.0,1164.5007513952062,1,1,1,2.0,2.0
2021-09-24 12:24:25.142,1138.0,80.0,5.0,1140.819442330819,1,1,1,2.0,2.0
2021-09-24 12:24:25.150,907.0,80.0,5.0,910.5350075642342,1,1,1,2.0,2.0
2021-09-24 12:24:25.151,907.0,365.0,-19.0,977.8726911004316,1,1,1,2.0,2.0
2021-09-24 12:24:25.161,1079.0,87.0,-3.0,1082.5058891294773,1,1,1,2.0,2.0
2021-09-24 12:24:25.170,984.0,261.0,30.0,1018.4679670956764,1,1,1,2.0,2.0
2021-09-24 12:24:25.182,1121.0,261.0,30.0,1151.3739618386371,1,1,1,2.0,2.0
2021-09-24 12:24:25.183,1121.0,-183.0,29.0,1136.2090476668454,1,1,1,2.0,2.0
2021-09-24 12:24:25.190,896.0,-183.0,29.0,914.9568295826858,1,1,1,2.0,2.0
2021-09-24 12:24:25.191,896.0,47.0,13.0,897.3260277067639,1,1,1,2.0,2.0
2021-09-24 12:24:25.199,1042.0,-206.0,0.0,1062.1675950620977,1,1,1,2.0,2.0
2021-09-24 12:24:25.209,1044.0,68.0,39.0,1046.938871185897,1,1,1,2.0,2.0
2021-09-24 12:24:25.219,1083.0,-15.0,-18.0,1083.2534329509415,1,1,1,2.0,2.0
2021-09-24 12:24:25.229,985.0,148.0,12.0,996.1290077093428,1,1,1,2.0,2.0
2021-09-24 12:24:25.240,1055.0,-98.0,-9.0,1059.5801055135,1,1,1,2.0,2.0
2021-09-24 12:24:25.257,1004.0,121.0,-9.0,1011.3050973865404,1,1,1,2.0,2.0
2021-09-24 12:24:25.258,1004.0,121.0,19.0,1011.4435228919112,1,1,1,2.0,2.0
2021-09-24 12:24:25.260,1103.0,121.0,19.0,1109.7797078699898,1,1,1,2.0,2.0
2021-09-24 12:24:25.261,1103.0,-148.0,34.0,1113.4042392590393,1,1,1,2.0,2.0
2021-09-24 12:24:25.272,907.0,62.0,-32.0,909.6796139300914,1,1,1,2.0,2.0
2021-09-24 12:24:25.279,1034.0,-77.0,17.0,1037.0024107975837,1,1,1,2.0,2.0
2021-09-24 12:24:25.288,1071.0,-173.0,8.0,1084.911977996372,1,1,1,2.0,2.0
2021-09-24 12:24:25.297,1063.0,1.0,8.0,1063.0305734079336,1,1,1,2.0,2.0
2021-09-24 12:24:25.298,1063.0,1.0,23.0,1063.2492652242936,1,1,1,2.0,2.0
2021-09-24 12:24:25.307,908.0,235.0,-17.0,938.0714258519976,1,1,1,2.0,2.0
2021-09-24 12:24:25.317,994.0,84.0,-17.0,997.687826927842,1,1,1,2.0,2.0
2021-09-24 12:24:25.318,994.0,84.0,0.0,997.5429815301192,1,1,1,2.0,2.0
2021-09-24 12:24:25.327,1129.0,84.0,0.0,1132.120576617173,1,1,1,2.0,2.0
2021-09-24 12:24:25.328,1129.0,109.0,39.0,1134.919820956529,1,1,1,2.0,2.0
2021-09-24 12:24:25.337,996.0,68.0,0.0,998.3185864241937,1,1,1,2.0,2.0
2021-09-24 12:24:25.346,911.0,116.0,-26.0,918.723571048441,1,1,1,2.0,2.0
2021-09-24 12:24:25.356,976.0,-160.0,15.0,989.1415469992148,1,1,1,2.0,2.0
2021-09-24 12:24:25.365,1103.0,-10.0,15.0,1103.1473156383058,1,1,1,2.0,2.0
2021-09-24 12:24:25.366,1103.0,-10.0,75.0,1105.592149031459,1,1,1,2.0,2.0
2021-09-24 12:24:25.376,1010.0,-10.0,75.0,1012.8301930728566,1,1,1,2.0,2.0
2021-09-24 12:24:25.377,1010.0,-40.0,-4.0,1010.7996834190244,1,1,1,2.0,2.0
2021-09-24 12:24:25.385,935.0,55.0,-4.0,936.6247914720174,1,1,1,2.0,2.0
2021-09-24 12:24:25.386,935.0,55.0,-16.0,936.7529023173614,1,1,1,2.0,2.0
2021-09-24 12:24:25.395,933.0,55.0,-16.0,934.7566528246804,1,1,1,2.0,2.0
2021-09-24 12:24:25.396,933.0,192.0,8.0,952.5843794646224,1,1,1,2.0,2.0
2021-09-24 12:24:25.404,1005.0,197.0,8.0,1024.1572144939466,1,1,1,2.0,2.0
2021-09-24 12:24:25.405,1005.0,197.0,54.0,1025.548633659077,1,1,1,2.0,2.0
2021-09-24 12:24:25.414,1126.0,-109.0,1.0,1131.2638949422897,1,1,1,2.0,2.0
2021-09-24 12:24:25.424,968.0,-27.0,-14.0,968.4776713998108,1,1,1,2.0,2.0
2021-09-24 12:24:25.434,1028.0,-113.0,5.0,1034.2040417635196,1,1,1,2.0,2.0
2021-09-24 12:24:25.444,1075.0,-197.0,8.0,1092.930921879329,1,1,1,2.0,2.0
2021-09-24 12:24:25.453,886.0,72.0,12.0,889.0016872874877,1,1,1,2.0,2.0
2021-09-24 12:24:25.463,902.0,245.0,-7.0,934.707440860508,1,1,1,2.0,2.0
2021-09-24 12:24:25.477,1007.0,182.0,20.0,1023.5101367353428,1,1,1,2.0,2.0
2021-09-24 12:24:25.483,1102.0,155.0,20.0,1113.0269538515229,1,1,1,2.0,2.0
2021-09-24 12:24:25.484,1102.0,155.0,24.0,1113.1060147173764,1,1,1,2.0,2.0
2021-09-24 12:24:25.493,953.0,209.0,-17.0,975.796597657524,1,1,1,2.0,2.0
2021-09-24 12:24:25.502,1072.0,-53.0,4.0,1073.316821819168,1,1,1,2.0,2.0
2021-09-24 12:24:25.513,1030.0,-131.0,-11.0,1038.3554304764818,1,1,1,2.0,2.0
2021-09-24 12:24:25.521,1101.0,-131.0,-11.0,1108.8205445427136,1,1,1,2.0,2.0
2021-09-24 12:24:25.522,1101.0,-77.0,41.0,1104.4505421249066,1,1,1,2.0,2.0
2021-09-24 12:24:25.532,976.0,-77.0,41.0,979.890810243672,1,1,1,2.0,2.0
2021-09-24 12:24:25.533,976.0,0.0,12.0,976.0737677040604,1,1,1,2.0,2.0
2021-09-24 12:24:25.541,982.0,-80.0,-7.0,985.278133320739,1,1,1,2.0,2.0
2021-09-24 12:24:25.552,965.0,102.0,8.0,970.4086767955037,1,1,1,2.0,2.0
2021-09-24 12:24:25.561,1098.0,-14.0,36.0,1098.679207048172,1,1,1,2.0,2.0
2021-09-24 12:24:25.571,1001.0,-55.0,12.0,1002.5816674964688,1,1,1,2.0,2.0
2021-09-24 12:24:25.580,1023.0,-80.0,-27.0,1026.4784459500356,1,1,1,2.0,2.0
2021-09-24 12:24:25.590,955.0,82.0,-2.0,958.516040554356,1,1,1,2.0,2.0
2021-09-24 12:24:25.600,1120.0,-70.0,10.0,1122.229922965878,1,1,1,2.0,2.0
2021-09-24 12:24:25.610,904.0,137.0,-37.0,915.0704890881358,1,1,1,2.0,2.0
2021-09-24 12:24:25.620,1023.0,-165.0,7.0,1036.2446622299194,1,1,1,2.0,2.0
2021-09-24 12:24:25.629,987.0,-165.0,7.0,1000.7212399064988,1,1,1,2.0,2.0
2021-09-24 12:24:25.630,987.0,171.0,-8.0,1001.7354940302356,1,1,1,2.0,2.0
2021-09-24 12:24:25.639,1087.0,45.0,-3.0,1087.935200276193,1,1,1,2.0,2.0
2021-09-24 12:24:25.648,850.0,45.0,-3.0,851.1956296880289,1,1,1,2.0,2.0
2021-09-24 12:24:25.649,850.0,265.0,33.0,890.9624010024216,1,1,1,2.0,2.0
2021-09-24 12:24:25.658,1100.0,-84.0,12.0,1103.2678731840242,1,1,1,2.0,2.0
2021-09-24 12:24:25.669,1041.0,202.0,44.0,1061.3298262086107,1,1,1,2.0,2.0
2021-09-24 12:24:25.678,1081.0,-65.0,0.0,1082.952445862698,1,1,1,2.0,2.0
2021-09-24 12:24:25.688,948.0,-65.0,0.0,950.225762648014,1,1,1,2.0,2.0
2021-09-24 12:24:25.689,948.0,20.0,2.0,948.2130562273438,1,1,1,2.0,2.0
2021-09-24 12:24:25.698,1040.0,-159.0,-12.0,1052.1525554785294,1,1,1,2.0,2.0
2021-09-24 12:24:25.707,982.0,-159.0,-12.0,994.8612968650456,1,1,1,2.0,2.0
2021-09-24 12:24:25.708,982.0,93.0,13.0,986.479599383586,1,1,1,2.0,2.0
2021-09-24 12:24:25.717,1060.0,-153.0,0.0,1070.985060586748,1,1,1,2.0,2.0
2021-09-24 12:24:25.727,874.0,172.0,-26.0,891.1430861539577,1,1,1,2.0,2.0
2021-09-24 12:24:25.736,987.0,111.0,-26.0,993.5622778668684,1,1,1,2.0,2.0
2021-09-24 12:24:25.737,987.0,111.0,0.0,993.222029558346,1,1,1,2.0,2.0
2021-09-24 12:24:25.748,994.0,96.0,12.0,998.6971512926228,1,1,1,2.0,2.0
2021-09-24 12:24:25.756,1085.0,-155.0,31.0,1096.4538293972985,1,1,1,2.0,2.0
2021-09-24 12:24:25.766,910.0,85.0,-11.0,914.0273518883338,1,1,1,2.0,2.0
2021-09-24 12:24:25.776,1053.0,-129.0,4.0,1060.8798235427046,1,1,1,2.0,2.0
2021-09-24 12:24:25.785,1095.0,-129.0,4.0,1102.5797023344844,1,1,1,2.0,2.0
2021-09-24 12:24:25.786,1095.0,-44.0,55.0,1097.2629584561762,1,1,1,2.0,2.0
2021-09-24 12:24:25.795,1121.0,-44.0,55.0,1123.2105768732772,1,1,1,2.0,2.0
2021-09-24 12:24:25.796,1121.0,30.0,19.0,1121.5623032181493,1,1,1,2.0,2.0
2021-09-24 12:24:25.806,881.0,312.0,-21.0,934.8507902333934,1,1,1,2.0,2.0
2021-09-24 12:24:25.815,976.0,184.0,4.0,993.2008860245746,1,1,1,2.0,2.0
2021-09-24 12:24:25.825,1041.0,206.0,44.0,1062.0983946885524,1,1,1,2.0,2.0
2021-09-24 12:24:25.835,1020.0,12.0,18.0,1020.229385971606,1,1,1,2.0,2.0
2021-09-24 12:24:25.852,964.0,12.0,18.0,964.2427080356896,1,1,1,2.0,2.0
2021-09-24 12:24:25.853,964.0,54.0,-4.0,965.5195492583256,1,1,1,2.0,2.0
2021-09-24 12:24:25.858,1070.0,-109.0,5.0,1075.5491620562957,1,1,1,2.0,2.0
2021-09-24 12:24:25.863,1038.0,-109.0,5.0,1043.7193109260745,1,1,1,2.0,2.0
2021-09-24 12:24:25.864,1038.0,80.0,39.0,1041.8085236740965,1,1,1,2.0,2.0
2021-09-24 12:24:25.873,1117.0,-169.0,-31.0,1130.137602241426,1,1,1,2.0,2.0
2021-09-24 12:24:25.885,994.0,101.0,-26.0,999.4563522235476,1,1,1,2.0,2.0
2021-09-24 12:24:25.893,962.0,225.0,-26.0,988.3041029966436,1,1,1,2.0,2.0
2021-09-24 12:24:25.894,962.0,225.0,1.0,987.9625498975151,1,1,1,2.0,2.0
2021-09-24 12:24:25.903,1125.0,6.0,7.0,1125.0377771435055,1,1,1,2.0,2.0
2021-09-24 12:24:25.914,1120.0,-155.0,-43.0,1131.4919354551316,1,1,1,2.0,2.0
2021-09-24 12:24:25.922,899.0,49.0,-43.0,901.3606381465744,1,1,1,2.0,2.0
2021-09-24 12:24:25.923,899.0,49.0,-1.0,900.3349376759741,1,1,1,2.0,2.0
2021-09-24 12:24:25.932,1034.0,-48.0,13.0,1035.1951506841597,1,1,1,2.0,2.0
2021-09-24 12:24:25.942,1098.0,-141.0,33.0,1107.5080135150265,1,1,1,2.0,2.0
2021-09-24 12:24:25.952,923.0,-141.0,33.0,934.2906400044902,1,1,1,2.0,2.0
2021-09-24 12:24:25.953,923.0,29.0,3.0,923.4603402420702,1,1,1,2.0,2.0
2021-09-24 12:24:25.963,915.0,158.0,-20.0,928.7566958035889,1,1,1,2.0,2.0
2021-09-24 12:24:25.971,1041.0,13.0,22.0,1041.3135934962147,1,1,1,2.0,2.0
2021-09-24 12:24:25.980,1053.0,13.0,22.0,1053.310020839069,1,1,1,2.0,2.0
2021-09-24 12:24:25.981,1053.0,56.0,39.0,1055.2089840406022,1,1,1,2.0,2.0
2021-09-24 12:24:25.991,956.0,45.0,-5.0,957.0715751708436,1,1,1,2.0,2.0
2021-09-24 12:24:26.001,1041.0,-50.0,-3.0,1042.2043945407254,1,1,1,2.0,2.0
2021-09-24 12:24:26.011,997.0,142.0,19.0,1007.2407855125804,1,1,1,2.0,2.0
2021-09-24 12:24:26.021,1058.0,23.0,66.0,1060.306087882174,1,1,1,2.0,2.0
2021-09-24 12:24:26.030,960.0,17.0,4.0,960.158841025796,1,1,1,2.0,2.0
2021-09-24 12:24:26.039,1008.0,17.0,4.0,1008.151278330787,1,1,1,2.0,2.0
2021-09-24 12:24:26.040,1008.0,-5.0,-16.0,1008.1393752849852,1,1,1,2.0,2.0
2021-09-24 12:24:26.050,945.0,203.0,0.0,966.5578099627564,1,1,1,2.0,2.0
2021-09-24 12:24:26.059,1167.0,20.0,5.0,1167.1820766272929,1,1,1,2.0,2.0
2021-09-24 12:24:26.069,863.0,336.0,-43.0,927.0997788803533,1,1,1,2.0,2.0
2021-09-24 12:24:26.078,973.0,28.0,6.0,973.4212859805358,1,1,1,2.0,2.0
2021-09-24 12:24:26.091,993.0,-57.0,-33.0,995.1818929220929,1,1,1,2.0,2.0
2021-09-24 12:24:26.098,1161.0,-252.0,0.0,1188.0340904199677,1,1,1,2.0,2.0
2021-09-24 12:24:26.107,888.0,-252.0,0.0,923.0644614543452,1,1,1,2.0,2.0
2021-09-24 12:24:26.108,888.0,19.0,36.0,888.9325058743211,1,1,1,2.0,2.0
2021-09-24 12:24:26.118,1007.0,-247.0,-11.0,1036.9083855384715,1,1,1,2.0,2.0
2021-09-24 12:24:26.137,1015.0,73.0,-11.0,1017.681187799008,1,1,1,2.0,2.0
2021-09-24 12:24:26.138,1015.0,73.0,19.0,1017.7990960892035,1,1,1,2.0,2.0
2021-09-24 12:24:26.140,1111.0,65.0,7.0,1112.9218301390265,1,1,1,2.0,2.0
2021-09-24 12:24:26.148,908.0,65.0,7.0,910.3504819573614,1,1,1,2.0,2.0
2021-09-24 12:24:26.149,908.0,271.0,17.0,947.7309744859034,1,1,1,2.0,2.0
2021-09-24 12:24:26.157,1106.0,-115.0,-6.0,1111.9788667056582,1,1,1,2.0,2.0
2021-09-24 12:24:26.166,991.0,211.0,-2.0,1013.2156729936625,1,1,1,2.0,2.0
2021-09-24 12:24:26.177,1144.0,-268.0,-6.0,1174.9876595096648,1,1,1,2.0,2.0
2021-09-24 12:24:26.186,977.0,113.0,10.0,983.5639277647388,1,1,1,2.0,2.0
2021-09-24 12:24:26.203,1029.0,-93.0,-8.0,1033.225048089718,1,1,1,2.0,2.0
2021-09-24 12:24:26.206,843.0,153.0,-18.0,856.9609092601598,1,1,1,2.0,2.0
2021-09-24 12:24:26.215,1092.0,153.0,-18.0,1102.813220813026,1,1,1,2.0,2.0
2021-09-24 12:24:26.216,1092.0,12.0,63.0,1093.8816206518875,1,1,1,2.0,2.0
2021-09-24 12:24:26.225,905.0,250.0,63.0,941.006907519812,1,1,1,2.0,2.0
2021-09-24 12:24:26.226,905.0,250.0,-6.0,938.914799116512,1,1,1,2.0,2.0
2021-09-24 12:24:26.234,1015.0,250.0,-6.0,1045.3520937942392,1,1,1,2.0,2.0
2021-09-24 12:24:26.235,1015.0,157.0,9.0,1027.110023317853,1,1,1,2.0,2.0
2021-09-24 12:24:26.244,1004.0,157.0,9.0,1016.2411131222748,1,1,1,2.0,2.0
2021-09-24 12:24:26.245,1004.0,13.0,3.0,1004.0886415053204,1,1,1,2.0,2.0
2021-09-24 12:24:26.262,1128.0,-183.0,10.0,1142.7917570581264,1,1,1,2.0,2.0
2021-09-24 12:24:26.266,937.0,84.0,-4.0,940.7661771131018,1,1,1,2.0,2.0
2021-09-24 12:24:26.275,1013.0,-160.0,-5.0,1025.570085367158,1,1,1,2.0,2.0
2021-09-24 12:24:26.283,991.0,48.0,-5.0,992.1743798345128,1,1,1,2.0,2.0
2021-09-24 12:24:26.284,991.0,48.0,46.0,993.227567076146,1,1,1,2.0,2.0
2021-09-24 12:24:26.294,1037.0,-58.0,25.0,1038.9215562303057,1,1,1,2.0,2.0
2021-09-24 12:24:26.303,863.0,371.0,28.0,939.7840177402466,1,1,1,2.0,2.0
2021-09-24 12:24:26.313,1101.0,-76.0,-4.0,1103.6272015495088,1,1,1,2.0,2.0
2021-09-24 12:24:26.322,1021.0,207.0,-4.0,1041.780207145442,1,1,1,2.0,2.0
2021-09-24 12:24:26.323,1021.0,207.0,48.0,1042.8777493071757,1,1,1,2.0,2.0
2021-09-24 12:24:26.333,1162.0,-68.0,0.0,1163.987972446451,1,1,1,2.0,2.0
2021-09-24 12:24:26.343,926.0,67.0,-23.0,928.7055507533051,1,1,1,2.0,2.0
2021-09-24 12:24:26.352,1044.0,-6.0,-5.0,1044.0292141506386,1,1,1,2.0,2.0
2021-09-24 12:24:26.361,999.0,87.0,-5.0,1002.7935979053716,1,1,1,2.0,2.0
2021-09-24 12:24:26.362,999.0,87.0,29.0,1003.2003787878072,1,1,1,2.0,2.0
2021-09-24 12:24:26.371,1119.0,-198.0,2.0,1136.3841779961565,1,1,1,2.0,2.0
2021-09-24 12:24:26.382,898.0,-198.0,2.0,919.5716394060878,1,1,1,2.0,2.0
2021-09-24 12:24:26.383,898.0,182.0,-12.0,916.3361828499408,1,1,1,2.0,2.0
2021-09-24 12:24:26.391,951.0,173.0,-5.0,966.6204011916984,1,1,1,2.0,2.0
2021-09-24 12:24:26.401,1162.0,20.0,43.0,1162.967325422344,1,1,1,2.0,2.0
2021-09-24 12:24:26.411,1141.0,-218.0,28.0,1161.976333666052,1,1,1,2.0,2.0
2021-09-24 12:24:26.420,861.0,28.0,15.0,861.5857473287264,1,1,1,2.0,2.0
2021-09-24 12:24:26.431,1010.0,-229.0,-13.0,1035.717142853202,1,1,1,2.0,2.0
2021-09-24 12:24:26.440,1103.0,-76.0,56.0,1107.0325198475427,1,1,1,2.0,2.0
2021-09-24 12:24:26.450,929.0,34.0,-7.0,929.6483206030116,1,1,1,2.0,2.0
2021-09-24 12:24:26.459,1003.0,-185.0,-9.0,1019.9583324822636,1,1,1,2.0,2.0
2021-09-24 12:24:26.470,1007.0,72.0,14.0,1009.6677671392704,1,1,1,2.0,2.0
2021-09-24 12:24:26.479,1090.0,131.0,27.0,1098.175760067577,1,1,1,2.0,2.0
2021-09-24 12:24:26.489,1027.0,131.0,27.0,1035.6732110081828,1,1,1,2.0,2.0
2021-09-24 12:24:26.490,1027.0,63.0,19.0,1029.105922633817,1,1,1,2.0,2.0
2021-09-24 12:24:26.499,955.0,39.0,-13.0,955.8844072376116,1,1,1,2.0,2.0
2021-09-24 12:24:26.508,1040.0,118.0,22.0,1046.9040070608194,1,1,1,2.0,2.0
2021-09-24 12:24:26.519,1167.0,-223.0,0.0,1188.1153142687792,1,1,1,2.0,2.0
2021-09-24 12:24:26.528,1092.0,-79.0,36.0,1095.4455714457015,1,1,1,2.0,2.0
2021-09-24 12:24:26.537,1002.0,-79.0,36.0,1005.753946052413,1,1,1,2.0,2.0
2021-09-24 12:24:26.538,1002.0,39.0,-15.0,1002.8708790268068,1,1,1,2.0,2.0
2021-09-24 12:24:26.547,936.0,208.0,13.0,958.9207475073214,1,1,1,2.0,2.0
2021-09-24 12:24:26.558,1138.0,123.0,-15.0,1144.726168129304,1,1,1,2.0,2.0
2021-09-24 12:24:26.567,825.0,311.0,41.0,882.6250619600602,1,1,1,2.0,2.0
2021-09-24 12:24:26.576,935.0,311.0,41.0,986.2185356197682,1,1,1,2.0,2.0
2021-09-24 12:24:26.577,935.0,51.0,-21.0,936.6253253035602,1,1,1,2.0,2.0
2021-09-24 12:24:26.587,1021.0,-115.0,12.0,1027.526155384864,1,1,1,2.0,2.0
2021-09-24 12:24:26.596,1103.0,-171.0,-6.0,1116.1926357040709,1,1,1,2.0,2.0
2021-09-24 12:24:26.606,888.0,112.0,9.0,895.0804433122198,1,1,1,2.0,2.0
2021-09-24 12:24:26.615,1037.0,-183.0,9.0,1053.0617265858634,1,1,1,2.0,2.0
2021-09-24 12:24:26.616,1037.0,-183.0,6.0,1053.0403601002197,1,1,1,2.0,2.0
2021-09-24 12:24:26.626,1008.0,36.0,-1.0,1008.6431479963566,1,1,1,2.0,2.0
2021-09-24 12:24:26.635,1056.0,88.0,-5.0,1059.672119100998,1,1,1,2.0,2.0
2021-09-24 12:24:26.646,960.0,219.0,2.0,984.6649176242648,1,1,1,2.0,2.0
2021-09-24 12:24:26.655,1099.0,-37.0,2.0,1099.6244813571586,1,1,1,2.0,2.0
2021-09-24 12:24:26.656,1099.0,-37.0,13.0,1099.699504410182,1,1,1,2.0,2.0
2021-09-24 12:24:26.665,948.0,153.0,14.0,960.3691998393118,1,1,1,2.0,2.0
2021-09-24 12:24:26.675,1134.0,-180.0,-6.0,1148.2125238822298,1,1,1,2.0,2.0
2021-09-24 12:24:26.686,1022.0,-42.0,-29.0,1023.2736681846162,1,1,1,2.0,2.0
2021-09-24 12:24:26.694,1000.0,-34.0,-29.0,1000.998001996008,1,1,1,2.0,2.0
2021-09-24 12:24:26.695,1000.0,-34.0,-2.0,1000.5798318974852,1,1,1,2.0,2.0
2021-09-24 12:24:26.704,940.0,114.0,-2.0,946.8896451012652,1,1,1,2.0,2.0
2021-09-24 12:24:26.705,940.0,114.0,20.0,947.0987276942144,1,1,1,2.0,2.0
2021-09-24 12:24:26.713,1078.0,-47.0,27.0,1079.3618485012337,1,1,1,2.0,2.0
2021-09-24 12:24:26.723,856.0,289.0,1.0,903.4699773650478,1,1,1,2.0,2.0
2021-09-24 12:24:26.733,1035.0,40.0,-14.0,1035.8672694896777,1,1,1,2.0,2.0
2021-09-24 12:24:26.743,1053.0,91.0,-14.0,1057.0175022202802,1,1,1,2.0,2.0
2021-09-24 12:24:26.744,1053.0,91.0,27.0,1057.2695966497854,1,1,1,2.0,2.0
2021-09-24 12:24:26.752,1153.0,-169.0,17.0,1165.443692333525,1,1,1,2.0,2.0
2021-09-24 12:24:26.763,838.0,219.0,32.0,866.7346768186906,1,1,1,2.0,2.0
2021-09-24 12:24:26.771,1000.0,219.0,32.0,1024.1996875609757,1,1,1,2.0,2.0
2021-09-24 12:24:26.772,1000.0,-174.0,-10.0,1015.07438151103,1,1,1,2.0,2.0
2021-09-24 12:24:26.782,1017.0,107.0,-10.0,1022.6622120720018,1,1,1,2.0,2.0
2021-09-24 12:24:26.783,1017.0,107.0,36.0,1023.2467933006192,1,1,1,2.0,2.0
2021-09-24 12:24:26.791,1046.0,107.0,36.0,1052.0746171256103,1,1,1,2.0,2.0
2021-09-24 12:24:26.792,1046.0,-56.0,11.0,1047.5557264413192,1,1,1,2.0,2.0
2021-09-24 12:24:26.801,770.0,322.0,28.0,835.0856243523774,1,1,1,2.0,2.0
2021-09-24 12:24:26.811,1105.0,-147.0,9.0,1114.771276989141,1,1,1,2.0,2.0
2021-09-24 12:24:26.821,1033.0,232.0,37.0,1059.3781194644337,1,1,1,2.0,2.0
2021-09-24 12:24:26.831,1155.0,-214.0,-17.0,1174.7808306233126,1,1,1,2.0,2.0
2021-09-24 12:24:26.840,941.0,-19.0,-29.0,941.6384656544144,1,1,1,2.0,2.0
2021-09-24 12:24:26.851,1006.0,-56.0,-4.0,1007.5653824938609,1,1,1,2.0,2.0
2021-09-24 12:24:26.859,901.0,148.0,-4.0,913.0832382647268,1,1,1,2.0,2.0
2021-09-24 12:24:26.860,901.0,148.0,5.0,913.0881666082416,1,1,1,2.0,2.0
2021-09-24 12:24:26.874,1060.0,41.0,29.0,1061.1889558415128,1,1,1,2.0,2.0
2021-09-24 12:24:26.879,926.0,325.0,-2.0,981.3791316305844,1,1,1,2.0,2.0
2021-09-24 12:24:26.889,975.0,184.0,-15.0,992.3235359498432,1,1,1,2.0,2.0
2021-09-24 12:24:26.901,1133.0,102.0,25.0,1137.8567572414377,1,1,1,2.0,2.0
2021-09-24 12:24:26.910,1114.0,-281.0,6.0,1148.9094829445878,1,1,1,2.0,2.0
2021-09-24 12:24:26.918,939.0,26.0,27.0,939.7478385183974,1,1,1,2.0,2.0
2021-09-24 12:24:26.928,1017.0,-83.0,22.0,1020.6184399666704,1,1,1,2.0,2.0
2021-09-24 12:24:26.938,1075.0,-108.0,27.0,1080.7488144800343,1,1,1,2.0,2.0
2021-09-24 12:24:26.947,970.0,-40.0,27.0,971.1997734760856,1,1,1,2.0,2.0
2021-09-24 12:24:26.948,970.0,-40.0,-2.0,970.8264520500046,1,1,1,2.0,2.0
2021-09-24 12:24:26.958,1034.0,-68.0,-2.0,1036.2354944702483,1,1,1,2.0,2.0
2021-09-24 12:24:26.959,1034.0,-68.0,9.0,1036.2726475209115,1,1,1,2.0,2.0
2021-09-24 12:24:26.967,1040.0,17.0,9.0,1040.1778694050358,1,1,1,2.0,2.0
2021-09-24 12:24:26.977,984.0,109.0,29.0,990.4433350777822,1,1,1,2.0,2.0
2021-09-24 12:24:26.987,975.0,81.0,11.0,978.4206661758532,1,1,1,2.0,2.0
2021-09-24 12:24:26.996,1026.0,81.0,11.0,1029.251184113965,1,1,1,2.0,2.0
2021-09-24 12:24:26.997,1026.0,24.0,-4.0,1026.288458475491,1,1,1,2.0,2.0
2021-09-24 12:24:27.007,977.0,150.0,-4.0,988.4558664907604,1,1,1,2.0,2.0
2021-09-24 12:24:27.008,977.0,150.0,29.0,988.8730960037288,1,1,1,2.0,2.0
2021-09-24 12:24:27.016,1102.0,-47.0,20.0,1103.183121698297,1,1,1,2.0,2.0
2021-09-24 12:24:27.026,973.0,7.0,-21.0,973.2517659886366,1,1,1,2.0,2.0
2021-09-24 12:24:27.035,1024.0,38.0,0.0,1024.7048355502184,1,1,1,2.0,2.0
2021-09-24 12:24:27.045,987.0,90.0,-3.0,991.0993895669596,1,1,1,2.0,2.0
2021-09-24 12:24:27.056,993.0,112.0,14.0,999.3943165737936,1,1,1,2.0,2.0
2021-09-24 12:24:27.065,1070.0,13.0,14.0,1070.1705471559194,1,1,1,2.0,2.0
2021-09-24 12:24:27.066,1070.0,13.0,-21.0,1070.2850087710283,1,1,1,2.0,2.0
2021-09-24 12:24:27.075,1049.0,-47.0,-4.0,1050.0599982858123,1,1,1,2.0,2.0
2021-09-24 12:24:27.084,1028.0,-47.0,-4.0,1029.0816294152762,1,1,1,2.0,2.0
2021-09-24 12:24:27.085,1028.0,-3.0,19.0,1028.179945340309,1,1,1,2.0,2.0
2021-09-24 12:24:27.094,1002.0,-24.0,-1.0,1002.2878827961556,1,1,1,2.0,2.0
2021-09-24 12:24:27.104,1037.0,-36.0,-3.0,1037.6290281213223,1,1,1,2.0,2.0
2021-09-24 12:24:27.114,1008.0,35.0,3.0,1008.6119174390118,1,1,1,2.0,2.0
2021-09-24 12:24:27.123,991.0,34.0,-7.0,991.6077853667748,1,1,1,2.0,2.0
2021-09-24 12:24:27.134,997.0,77.0,-1.0,999.9694995348608,1,1,1,2.0,2.0
2021-09-24 12:24:27.151,1040.0,52.0,12.0,1041.3683306112205,1,1,1,2.0,2.0
2021-09-24 12:24:27.154,1005.0,52.0,12.0,1006.4159179981208,1,1,1,2.0,2.0
2021-09-24 12:24:27.155,1005.0,33.0,-5.0,1005.5540761192308,1,1,1,2.0,2.0
2021-09-24 12:24:27.162,980.0,15.0,2.0,980.1168297708188,1,1,1,2.0,2.0
2021-09-24 12:24:27.174,1030.0,-1.0,0.0,1030.0004854367787,1,1,1,2.0,2.0
2021-09-24 12:24:27.182,1026.0,-27.0,5.0,1026.3673806196298,1,1,1,2.0,2.0
2021-09-24 12:24:27.192,1010.0,47.0,10.0,1011.1424232025872,1,1,1,2.0,2.0
2021-09-24 12:24:27.201,983.0,41.0,1.0,983.8551722687644,1,1,1,2.0,2.0
2021-09-24 12:24:27.217,1027.0,41.0,1.0,1027.8185637552965,1,1,1,2.0,2.0
2021-09-24 12:24:27.218,1027.0,50.0,-4.0,1028.2241973421944,1,1,1,2.0,2.0
2021-09-24 12:24:27.221,1022.0,82.0,14.0,1025.3799295870774,1,1,1,2.0,2.0
2021-09-24 12:24:27.231,988.0,32.0,14.0,988.6172161155196,1,1,1,2.0,2.0
2021-09-24 12:24:27.232,988.0,32.0,-1.0,988.518588596087,1,1,1,2.0,2.0
2021-09-24 12:24:27.246,986.0,32.0,-1.0,986.5196399464128,1,1,1,2.0,2.0
2021-09-24 12:24:27.247,986.0,70.0,6.0,988.4998735457684,1,1,1,2.0,2.0
2021-09-24 12:24:27.250,1007.0,2.0,12.0,1007.0734829196924,1,1,1,2.0,2.0
2021-09-24 12:24:27.260,1040.0,-16.0,5.0,1040.1350873804806,1,1,1,2.0,2.0
2021-09-24 12:24:27.282,1000.0,30.0,5.0,1000.4623930963122,1,1,1,2.0,2.0
2021-09-24 12:24:27.283,1000.0,30.0,18.0,1000.6118128425228,1,1,1,2.0,2.0
2021-09-24 12:24:27.290,1022.0,121.0,0.0,1029.1379888042225,1,1,1,2.0,2.0
2021-09-24 12:24:27.299,1094.0,19.0,-2.0,1094.1668062960052,1,1,1,2.0,2.0
2021-09-24 12:24:27.309,1000.0,82.0,5.0,1003.3688255073504,1,1,1,2.0,2.0
2021-09-24 12:24:27.319,1012.0,25.0,-2.0,1012.3107230490052,1,1,1,2.0,2.0
2021-09-24 12:24:27.329,1034.0,3.0,12.0,1034.0739818794398,1,1,1,2.0,2.0
