time_stamp,Acceleration_X,Acceleration_Y,Acceleration_Z,magnitude,STD_Status_right,STD_Status_left,STD_Status_both,KMeans,KMeans_convert
2021-09-02 13:24:06.888,1071.0,8.0,-2.0,1071.03174556126,1,1,1,3.0,2.0
2021-09-02 13:24:06.897,896.0,8.0,-2.0,896.0379456250723,1,1,1,3.0,2.0
2021-09-02 13:24:06.898,896.0,117.0,-5.0,903.620495562158,1,1,1,3.0,2.0
2021-09-02 13:24:06.909,862.0,36.0,4.0,862.7606852424374,1,1,1,3.0,2.0
2021-09-02 13:24:06.917,1063.0,-103.0,4.0,1067.985954963828,1,1,1,3.0,2.0
2021-09-02 13:24:06.918,1063.0,-103.0,0.0,1067.978464202345,1,1,1,3.0,2.0
2021-09-02 13:24:06.943,960.0,127.0,9.0,968.4059066321312,1,1,1,3.0,2.0
2021-09-02 13:24:06.944,896.0,127.0,9.0,905.0005524860192,1,1,1,3.0,2.0
2021-09-02 13:24:06.945,896.0,211.0,-18.0,920.6850710204874,1,1,1,3.0,2.0
2021-09-02 13:24:06.947,1052.0,224.0,-22.0,1075.8085331507648,1,1,1,3.0,2.0
2021-09-02 13:24:06.956,1012.0,249.0,58.0,1043.795478051136,1,1,1,3.0,2.0
2021-09-02 13:24:06.966,1054.0,30.0,41.0,1055.2236729717545,1,1,1,3.0,2.0
2021-09-02 13:24:06.977,1040.0,30.0,41.0,1041.2401260036036,1,1,1,3.0,2.0
2021-09-02 13:24:06.978,1040.0,-205.0,-46.0,1061.009425028826,1,1,1,3.0,2.0
2021-09-02 13:24:06.986,996.0,-135.0,-5.0,1005.1198933460624,1,1,1,3.0,2.0
2021-09-02 13:24:06.995,1136.0,-112.0,-5.0,1141.5187252077822,1,1,1,3.0,2.0
2021-09-02 13:24:06.996,1136.0,-112.0,44.0,1142.3554613166605,1,1,1,3.0,2.0
2021-09-02 13:24:07.005,976.0,-295.0,-38.0,1020.3161274820662,1,1,1,3.0,2.0
2021-09-02 13:24:07.015,911.0,102.0,-31.0,917.2164411958609,1,1,1,3.0,2.0
2021-09-02 13:24:07.027,964.0,315.0,-31.0,1014.633924132246,1,1,1,3.0,2.0
2021-09-02 13:24:07.028,964.0,315.0,19.0,1014.3382078971492,1,1,1,3.0,2.0
2021-09-02 13:24:07.034,1113.0,150.0,18.0,1123.2065704936024,1,1,1,3.0,2.0
2021-09-02 13:24:07.044,1055.0,86.0,3.0,1058.503660834482,1,1,1,3.0,2.0
2021-09-02 13:24:07.054,852.0,265.0,-47.0,893.4976217092019,1,1,1,3.0,2.0
2021-09-02 13:24:07.063,1159.0,-38.0,-47.0,1160.5748575598216,1,1,1,3.0,2.0
2021-09-02 13:24:07.064,1159.0,-38.0,31.0,1160.037068373248,1,1,1,3.0,2.0
2021-09-02 13:24:07.075,1109.0,-142.0,40.0,1118.769413239386,1,1,1,3.0,2.0
2021-09-02 13:24:07.083,1000.0,-100.0,40.0,1005.7832768544126,1,1,1,3.0,2.0
2021-09-02 13:24:07.084,1000.0,-100.0,17.0,1005.1313347020877,1,1,1,3.0,2.0
2021-09-02 13:24:07.093,819.0,146.0,-38.0,832.7790823501753,1,1,1,3.0,2.0
2021-09-02 13:24:07.103,1062.0,125.0,51.0,1070.546589364517,1,1,1,3.0,2.0
2021-09-02 13:24:07.112,1046.0,203.0,59.0,1067.148536990048,1,1,1,3.0,2.0
2021-09-02 13:24:07.123,1029.0,86.0,16.0,1032.7114795527357,1,1,1,3.0,2.0
2021-09-02 13:24:07.132,894.0,53.0,-41.0,896.5076686788574,1,1,1,3.0,2.0
2021-09-02 13:24:07.142,1126.0,-40.0,45.0,1127.6085313618375,1,1,1,3.0,2.0
2021-09-02 13:24:07.151,1118.0,-83.0,40.0,1121.7900873158044,1,1,1,3.0,2.0
2021-09-02 13:24:07.161,1005.0,-346.0,-16.0,1063.0131701912258,1,1,1,3.0,2.0
2021-09-02 13:24:07.171,936.0,0.0,-27.0,936.3893421008164,1,1,1,3.0,2.0
2021-09-02 13:24:07.182,1064.0,184.0,36.0,1080.392521262527,1,1,1,3.0,2.0
2021-09-02 13:24:07.190,1054.0,212.0,58.0,1076.6726522021445,1,1,1,3.0,2.0
2021-09-02 13:24:07.200,988.0,101.0,-13.0,993.2341113755608,1,1,1,3.0,2.0
2021-09-02 13:24:07.210,854.0,313.0,-29.0,910.0142856021548,1,1,1,3.0,2.0
2021-09-02 13:24:07.220,1153.0,62.0,14.0,1154.7506224289295,1,1,1,3.0,2.0
2021-09-02 13:24:07.230,1157.0,-125.0,20.0,1163.9046352687149,1,1,1,3.0,2.0
2021-09-02 13:24:07.239,1056.0,-125.0,20.0,1063.56052954216,1,1,1,3.0,2.0
2021-09-02 13:24:07.240,1056.0,-368.0,-9.0,1118.320615923716,1,1,1,3.0,2.0
2021-09-02 13:24:07.249,818.0,34.0,-35.0,819.454086572274,1,1,1,3.0,2.0
2021-09-02 13:24:07.259,1100.0,-47.0,47.0,1102.0063520688072,1,1,1,3.0,2.0
2021-09-02 13:24:07.269,997.0,89.0,47.0,1002.0673630051026,1,1,1,3.0,2.0
2021-09-02 13:24:07.270,997.0,89.0,37.0,1001.64814181428,1,1,1,3.0,2.0
2021-09-02 13:24:07.278,986.0,138.0,3.0,995.6148853849064,1,1,1,3.0,2.0
2021-09-02 13:24:07.293,1005.0,308.0,22.0,1051.367205119125,1,1,1,3.0,2.0
2021-09-02 13:24:07.298,1170.0,17.0,47.0,1171.067034802022,1,1,1,3.0,2.0
2021-09-02 13:24:07.307,1043.0,17.0,47.0,1044.1968205276244,1,1,1,3.0,2.0
2021-09-02 13:24:07.308,1043.0,-105.0,20.0,1048.4626841237605,1,1,1,3.0,2.0
2021-09-02 13:24:07.317,1075.0,-187.0,-26.0,1091.453159782865,1,1,1,3.0,2.0
2021-09-02 13:24:07.328,833.0,135.0,-13.0,843.9686013116839,1,1,1,3.0,2.0
2021-09-02 13:24:07.338,1026.0,-7.0,42.0,1026.8831481721763,1,1,1,3.0,2.0
2021-09-02 13:24:07.346,1011.0,-7.0,42.0,1011.896239740024,1,1,1,3.0,2.0
2021-09-02 13:24:07.347,1011.0,195.0,36.0,1030.2630732002383,1,1,1,3.0,2.0
2021-09-02 13:24:07.356,912.0,126.0,-27.0,921.058630055655,1,1,1,3.0,2.0
2021-09-02 13:24:07.366,937.0,369.0,-2.0,1007.0422036836392,1,1,1,3.0,2.0
2021-09-02 13:24:07.383,1119.0,201.0,45.0,1137.7991914217553,1,1,1,3.0,2.0
2021-09-02 13:24:07.391,1089.0,201.0,45.0,1108.3081701404171,1,1,1,3.0,2.0
2021-09-02 13:24:07.392,1089.0,-80.0,66.0,1093.9273284821072,1,1,1,3.0,2.0
2021-09-02 13:24:07.403,1048.0,-418.0,-38.0,1128.925152523408,1,1,1,3.0,2.0
2021-09-02 13:24:07.406,930.0,11.0,-38.0,930.8410175749668,1,1,1,3.0,2.0
2021-09-02 13:24:07.407,930.0,11.0,-4.0,930.0736529974388,1,1,1,3.0,2.0
2021-09-02 13:24:07.415,1101.0,-176.0,-4.0,1114.985650131875,1,1,1,3.0,2.0
2021-09-02 13:24:07.416,1101.0,-176.0,17.0,1115.1080665119412,1,1,1,3.0,2.0
2021-09-02 13:24:07.427,972.0,-128.0,25.0,980.7104567608118,1,1,1,3.0,2.0
2021-09-02 13:24:07.435,984.0,151.0,-20.0,995.7193379662764,1,1,1,3.0,2.0
2021-09-02 13:24:07.445,877.0,395.0,-41.0,962.7227015085912,1,1,1,3.0,2.0
2021-09-02 13:24:07.454,1173.0,141.0,47.0,1182.378534987844,1,1,1,3.0,2.0
2021-09-02 13:24:07.464,989.0,43.0,0.0,989.934341257035,1,1,1,3.0,2.0
2021-09-02 13:24:07.474,924.0,81.0,-31.0,928.061420381216,1,1,1,3.0,2.0
2021-09-02 13:24:07.485,869.0,-67.0,-44.0,872.6889480221461,1,1,1,3.0,2.0
2021-09-02 13:24:07.493,1068.0,-161.0,-44.0,1080.9629965914653,1,1,1,3.0,2.0
2021-09-02 13:24:07.494,1068.0,-161.0,60.0,1081.732406836367,1,1,1,3.0,2.0
2021-09-02 13:24:07.503,977.0,85.0,26.0,981.035167565363,1,1,1,3.0,2.0
2021-09-02 13:24:07.513,875.0,228.0,-22.0,904.4849363035296,1,1,1,3.0,2.0
2021-09-02 13:24:07.529,1021.0,207.0,29.0,1042.176088768112,1,1,1,3.0,2.0
2021-09-02 13:24:07.533,1035.0,317.0,57.0,1083.9571024722334,1,1,1,3.0,2.0
2021-09-02 13:24:07.542,1086.0,-37.0,12.0,1086.6963697371957,1,1,1,3.0,2.0
2021-09-02 13:24:07.552,1053.0,-134.0,-2.0,1061.493758813494,1,1,1,3.0,2.0
2021-09-02 13:24:07.562,1042.0,-135.0,-6.0,1050.7259395294284,1,1,1,3.0,2.0
2021-09-02 13:24:07.572,1140.0,-145.0,74.0,1151.564587854281,1,1,1,3.0,2.0
2021-09-02 13:24:07.582,1053.0,-303.0,-21.0,1095.9283735719227,1,1,1,3.0,2.0
2021-09-02 13:24:07.591,926.0,73.0,-24.0,929.18297444583,1,1,1,3.0,2.0
2021-09-02 13:24:07.600,972.0,73.0,-24.0,975.032819960436,1,1,1,3.0,2.0
2021-09-02 13:24:07.601,972.0,394.0,20.0,1049.00905620495,1,1,1,3.0,2.0
2021-09-02 13:24:07.611,1055.0,314.0,50.0,1101.8715896146882,1,1,1,3.0,2.0
2021-09-02 13:24:07.621,1058.0,148.0,-5.0,1068.3131563357254,1,1,1,3.0,2.0
2021-09-02 13:24:07.630,849.0,277.0,-41.0,893.9860177877504,1,1,1,3.0,2.0
2021-09-02 13:24:07.640,1136.0,-32.0,-41.0,1137.189957746726,1,1,1,3.0,2.0
2021-09-02 13:24:07.641,1136.0,-32.0,7.0,1136.4721729985297,1,1,1,3.0,2.0
2021-09-02 13:24:07.649,1077.0,-203.0,7.0,1095.986769993142,1,1,1,3.0,2.0
2021-09-02 13:24:07.650,1077.0,-203.0,9.0,1096.001368612284,1,1,1,3.0,2.0
2021-09-02 13:24:07.659,1069.0,-148.0,9.0,1079.233987604171,1,1,1,3.0,2.0
2021-09-02 13:24:07.660,1069.0,-148.0,15.0,1079.300699527245,1,1,1,3.0,2.0
2021-09-02 13:24:07.670,814.0,111.0,-43.0,822.6578875814661,1,1,1,3.0,2.0
2021-09-02 13:24:07.679,1049.0,81.0,36.0,1052.7383340602737,1,1,1,3.0,2.0
2021-09-02 13:24:07.689,989.0,81.0,36.0,992.9642491046694,1,1,1,3.0,2.0
2021-09-02 13:24:07.690,989.0,281.0,55.0,1029.614976581052,1,1,1,3.0,2.0
2021-09-02 13:24:07.699,1030.0,110.0,16.0,1035.980694800825,1,1,1,3.0,2.0
2021-09-02 13:24:07.708,903.0,121.0,-44.0,912.1326657893576,1,1,1,3.0,2.0
2021-09-02 13:24:07.718,1146.0,-78.0,28.0,1148.9926022390223,1,1,1,3.0,2.0
2021-09-02 13:24:07.728,1116.0,-169.0,28.0,1129.0708569438857,1,1,1,3.0,2.0
2021-09-02 13:24:07.729,1116.0,-169.0,70.0,1130.892125713147,1,1,1,3.0,2.0
2021-09-02 13:24:07.737,1074.0,-512.0,-42.0,1190.5393735614125,1,1,1,3.0,2.0
2021-09-02 13:24:07.747,795.0,209.0,-42.0,823.0856577537966,1,1,1,3.0,2.0
2021-09-02 13:24:07.748,795.0,209.0,-26.0,822.4244646166601,1,1,1,3.0,2.0
2021-09-02 13:24:07.757,1029.0,165.0,40.0,1042.9122686017267,1,1,1,3.0,2.0
2021-09-02 13:24:07.767,1077.0,155.0,39.0,1088.7952057205248,1,1,1,3.0,2.0
2021-09-02 13:24:07.777,1019.0,102.0,-15.0,1024.2021284883174,1,1,1,3.0,2.0
2021-09-02 13:24:07.786,856.0,423.0,-15.0,954.9293167559576,1,1,1,3.0,2.0
2021-09-02 13:24:07.787,856.0,423.0,-23.0,955.088477576816,1,1,1,3.0,2.0
2021-09-02 13:24:07.797,1123.0,200.0,-23.0,1140.9022745178484,1,1,1,3.0,2.0
2021-09-02 13:24:07.798,1123.0,200.0,39.0,1141.3369353525716,1,1,1,3.0,2.0
2021-09-02 13:24:07.806,1161.0,-209.0,58.0,1181.0867876663424,1,1,1,3.0,2.0
2021-09-02 13:24:07.816,1062.0,-397.0,-18.0,1133.9210730910684,1,1,1,3.0,2.0
2021-09-02 13:24:07.826,848.0,16.0,-18.0,848.3419122028571,1,1,1,3.0,2.0
2021-09-02 13:24:07.827,848.0,16.0,-33.0,848.7926719759072,1,1,1,3.0,2.0
2021-09-02 13:24:07.835,1099.0,-105.0,16.0,1104.120464442173,1,1,1,3.0,2.0
2021-09-02 13:24:07.845,1025.0,42.0,27.0,1026.215377004262,1,1,1,3.0,2.0
2021-09-02 13:24:07.854,1019.0,141.0,27.0,1029.0631661856332,1,1,1,3.0,2.0
2021-09-02 13:24:07.855,1019.0,141.0,-16.0,1028.8333198336843,1,1,1,3.0,2.0
2021-09-02 13:24:07.864,822.0,141.0,-16.0,834.1588577723071,1,1,1,3.0,2.0
2021-09-02 13:24:07.865,822.0,380.0,-31.0,906.1153348222288,1,1,1,3.0,2.0
2021-09-02 13:24:07.875,1138.0,46.0,29.0,1139.298468356734,1,1,1,3.0,2.0
2021-09-02 13:24:07.884,1134.0,-44.0,20.0,1135.0295150347413,1,1,1,3.0,2.0
2021-09-02 13:24:07.894,982.0,-93.0,-7.0,986.4187751660044,1,1,1,3.0,2.0
2021-09-02 13:24:07.904,1047.0,-126.0,-2.0,1054.556304803115,1,1,1,3.0,2.0
2021-09-02 13:24:07.913,1064.0,-6.0,17.0,1064.1527146044407,1,1,1,3.0,2.0
2021-09-02 13:24:07.923,1012.0,-6.0,17.0,1012.1605603855546,1,1,1,3.0,2.0
2021-09-02 13:24:07.924,1012.0,180.0,55.0,1029.3536807142625,1,1,1,3.0,2.0
2021-09-02 13:24:07.933,883.0,180.0,55.0,902.8366408160448,1,1,1,3.0,2.0
2021-09-02 13:24:07.934,883.0,162.0,-52.0,899.2424589619865,1,1,1,3.0,2.0
2021-09-02 13:24:07.943,1079.0,309.0,-16.0,1122.487416410536,1,1,1,3.0,2.0
2021-09-02 13:24:07.963,1124.0,309.0,-16.0,1165.8100188281107,1,1,1,3.0,2.0
2021-09-02 13:24:07.964,1124.0,228.0,42.0,1147.6602284648536,1,1,1,3.0,2.0
2021-09-02 13:24:07.966,1131.0,8.0,87.0,1134.3694283609727,1,1,1,3.0,2.0
2021-09-02 13:24:07.974,985.0,-264.0,-55.0,1021.2472766181558,1,1,1,3.0,2.0
2021-09-02 13:24:07.981,1011.0,-55.0,-55.0,1013.987672508892,1,1,1,3.0,2.0
2021-09-02 13:24:07.982,1011.0,-55.0,0.0,1012.4949382589524,1,1,1,3.0,2.0
2021-09-02 13:24:07.991,1140.0,-196.0,44.0,1157.562957251138,1,1,1,3.0,2.0
2021-09-02 13:24:08.002,996.0,-170.0,8.0,1010.4355496517333,1,1,1,3.0,2.0
2021-09-02 13:24:08.011,953.0,156.0,-27.0,966.0610746738532,1,1,1,3.0,2.0
2021-09-02 13:24:08.021,907.0,156.0,-27.0,920.7138534854356,1,1,1,3.0,2.0
2021-09-02 13:24:08.022,907.0,406.0,-9.0,993.763553366695,1,1,1,3.0,2.0
2021-09-02 13:24:08.030,1142.0,406.0,-9.0,1212.0565168340954,1,1,1,3.0,2.0
2021-09-02 13:24:08.031,1142.0,136.0,38.0,1150.6971799739497,1,1,1,3.0,2.0
2021-09-02 13:24:08.040,1052.0,38.0,-2.0,1052.6879879622452,1,1,1,3.0,2.0
2021-09-02 13:24:08.050,891.0,107.0,-41.0,898.3379096976817,1,1,1,3.0,2.0
2021-09-02 13:24:08.060,1130.0,-51.0,36.0,1131.723022651744,1,1,1,3.0,2.0
2021-09-02 13:24:08.070,1099.0,-137.0,40.0,1108.228315826662,1,1,1,3.0,2.0
2021-09-02 13:24:08.081,1009.0,35.0,27.0,1009.967821269569,1,1,1,3.0,2.0
2021-09-02 13:24:08.089,826.0,147.0,-34.0,839.6671959770728,1,1,1,3.0,2.0
2021-09-02 13:24:08.099,1011.0,192.0,20.0,1029.2643003621567,1,1,1,3.0,2.0
2021-09-02 13:24:08.109,1071.0,260.0,86.0,1105.457823709254,1,1,1,3.0,2.0
2021-09-02 13:24:08.119,1084.0,11.0,20.0,1084.2402870212857,1,1,1,3.0,2.0
2021-09-02 13:24:08.133,963.0,-86.0,-23.0,967.1059921228904,1,1,1,3.0,2.0
2021-09-02 13:24:08.138,1064.0,-102.0,10.0,1068.9246933250256,1,1,1,3.0,2.0
2021-09-02 13:24:08.147,1137.0,-102.0,10.0,1141.6098282688354,1,1,1,3.0,2.0
2021-09-02 13:24:08.148,1137.0,-77.0,42.0,1140.3780075045293,1,1,1,3.0,2.0
2021-09-02 13:24:08.157,1080.0,-77.0,42.0,1083.5557207638194,1,1,1,3.0,2.0
2021-09-02 13:24:08.158,1080.0,-413.0,-50.0,1157.354310485773,1,1,1,3.0,2.0
2021-09-02 13:24:08.168,819.0,77.0,-42.0,823.6831915245084,1,1,1,3.0,2.0
2021-09-02 13:24:08.177,979.0,296.0,6.0,1022.7868790710996,1,1,1,3.0,2.0
2021-09-02 13:24:08.186,1105.0,223.0,6.0,1127.2932182888355,1,1,1,3.0,2.0
2021-09-02 13:24:08.187,1105.0,223.0,31.0,1127.7034184571758,1,1,1,3.0,2.0
2021-09-02 13:24:08.196,1034.0,91.0,-5.0,1038.0086704840187,1,1,1,3.0,2.0
2021-09-02 13:24:08.206,821.0,273.0,-49.0,866.5858295633503,1,1,1,3.0,2.0
2021-09-02 13:24:08.217,1131.0,1.0,34.0,1131.5113786436264,1,1,1,3.0,2.0
2021-09-02 13:24:08.225,1155.0,1.0,34.0,1155.5007572476966,1,1,1,3.0,2.0
2021-09-02 13:24:08.226,1155.0,-169.0,60.0,1168.8395954963196,1,1,1,3.0,2.0
2021-09-02 13:24:08.236,989.0,-241.0,-4.0,1017.947935800255,1,1,1,3.0,2.0
2021-09-02 13:24:08.245,842.0,153.0,-18.0,855.9772193230378,1,1,1,3.0,2.0
2021-09-02 13:24:08.255,1037.0,48.0,38.0,1038.805564097536,1,1,1,3.0,2.0
2021-09-02 13:24:08.265,1006.0,225.0,38.0,1031.5546519695406,1,1,1,3.0,2.0
2021-09-02 13:24:08.266,1006.0,225.0,58.0,1032.4848667171834,1,1,1,3.0,2.0
2021-09-02 13:24:08.274,1043.0,107.0,-6.0,1048.4912970549635,1,1,1,3.0,2.0
2021-09-02 13:24:08.285,847.0,143.0,-51.0,860.4992736777876,1,1,1,3.0,2.0
2021-09-02 13:24:08.294,1149.0,143.0,-51.0,1158.987057736194,1,1,1,3.0,2.0
2021-09-02 13:24:08.295,1149.0,-58.0,37.0,1151.0577743970978,1,1,1,3.0,2.0
2021-09-02 13:24:08.304,1058.0,-89.0,54.0,1063.1091195169008,1,1,1,3.0,2.0
2021-09-02 13:24:08.314,1044.0,-89.0,54.0,1049.1772967425477,1,1,1,3.0,2.0
2021-09-02 13:24:08.315,1044.0,-348.0,-41.0,1101.236123635617,1,1,1,3.0,2.0
2021-09-02 13:24:08.323,956.0,-348.0,-41.0,1018.1949715059488,1,1,1,3.0,2.0
2021-09-02 13:24:08.324,956.0,11.0,-8.0,956.0967524262384,1,1,1,3.0,2.0
2021-09-02 13:24:08.334,1057.0,79.0,12.0,1060.016037614526,1,1,1,3.0,2.0
2021-09-02 13:24:08.343,1057.0,235.0,43.0,1083.6618476259096,1,1,1,3.0,2.0
2021-09-02 13:24:08.353,1007.0,101.0,-10.0,1012.10177353861,1,1,1,3.0,2.0
2021-09-02 13:24:08.365,894.0,432.0,-26.0,993.2451862455716,1,1,1,3.0,2.0
2021-09-02 13:24:08.373,1167.0,94.0,50.0,1171.8468329948244,1,1,1,3.0,2.0
2021-09-02 13:24:08.382,1156.0,-108.0,47.0,1161.9849396614395,1,1,1,3.0,2.0
2021-09-02 13:24:08.402,1012.0,-108.0,47.0,1018.8311930835256,1,1,1,3.0,2.0
2021-09-02 13:24:08.403,1012.0,-361.0,-15.0,1074.5650282788845,1,1,1,3.0,2.0
2021-09-02 13:24:08.405,867.0,-118.0,-32.0,875.5780947465508,1,1,1,3.0,2.0
2021-09-02 13:24:08.419,1128.0,-150.0,33.0,1138.408099057627,1,1,1,3.0,2.0
2021-09-02 13:24:08.422,983.0,-28.0,20.0,983.602053678214,1,1,1,3.0,2.0
2021-09-02 13:24:08.431,814.0,212.0,-21.0,841.416068303904,1,1,1,3.0,2.0
2021-09-02 13:24:08.442,816.0,352.0,-59.0,890.6407805619502,1,1,1,3.0,2.0
2021-09-02 13:24:08.450,1171.0,64.0,32.0,1173.1841287709274,1,1,1,3.0,2.0
2021-09-02 13:24:08.460,1056.0,24.0,19.0,1056.443562146128,1,1,1,3.0,2.0
2021-09-02 13:24:08.470,985.0,-26.0,8.0,985.3755629200472,1,1,1,3.0,2.0
2021-09-02 13:24:08.480,1066.0,-151.0,-19.0,1076.809175295233,1,1,1,3.0,2.0
2021-09-02 13:24:08.490,1048.0,-12.0,-8.0,1048.0992319432355,1,1,1,3.0,2.0
2021-09-02 13:24:08.499,1044.0,-12.0,-8.0,1044.099612106048,1,1,1,3.0,2.0
2021-09-02 13:24:08.500,1044.0,179.0,49.0,1060.3669176280443,1,1,1,3.0,2.0
2021-09-02 13:24:08.509,871.0,106.0,-40.0,878.3376343980714,1,1,1,3.0,2.0
2021-09-02 13:24:08.519,993.0,265.0,50.0,1028.9674436054815,1,1,1,3.0,2.0
2021-09-02 13:24:08.528,1082.0,248.0,50.0,1111.183153220026,1,1,1,3.0,2.0
2021-09-02 13:24:08.529,1082.0,248.0,53.0,1111.3221855069753,1,1,1,3.0,2.0
2021-09-02 13:24:08.545,1120.0,-7.0,39.0,1120.7006736858866,1,1,1,3.0,2.0
2021-09-02 13:24:08.549,1022.0,-7.0,39.0,1022.7678133379052,1,1,1,3.0,2.0
2021-09-02 13:24:08.550,1022.0,-333.0,-33.0,1075.389231859795,1,1,1,3.0,2.0
2021-09-02 13:24:08.559,962.0,-66.0,16.0,964.3941103096804,1,1,1,3.0,2.0
2021-09-02 13:24:08.570,1159.0,-169.0,55.0,1172.547227193856,1,1,1,3.0,2.0
2021-09-02 13:24:08.578,1021.0,-244.0,-19.0,1049.9228543088298,1,1,1,3.0,2.0
2021-09-02 13:24:08.588,829.0,140.0,-15.0,840.8721662654793,1,1,1,3.0,2.0
2021-09-02 13:24:08.597,918.0,445.0,-12.0,1020.241638044635,1,1,1,3.0,2.0
2021-09-02 13:24:08.607,1114.0,191.0,40.0,1130.9628641118152,1,1,1,3.0,2.0
2021-09-02 13:24:08.616,1107.0,191.0,40.0,1124.0685032505803,1,1,1,3.0,2.0
2021-09-02 13:24:08.617,1107.0,57.0,7.0,1108.4886106767178,1,1,1,3.0,2.0
2021-09-02 13:24:08.627,883.0,127.0,-52.0,893.6005819156566,1,1,1,3.0,2.0
2021-09-02 13:24:08.636,1091.0,27.0,45.0,1092.2614155961016,1,1,1,3.0,2.0
2021-09-02 13:24:08.645,1077.0,27.0,45.0,1078.2777935207605,1,1,1,3.0,2.0
2021-09-02 13:24:08.646,1077.0,-145.0,31.0,1087.159141984282,1,1,1,3.0,2.0
2021-09-02 13:24:08.656,1024.0,-25.0,11.0,1024.364193048547,1,1,1,3.0,2.0
2021-09-02 13:24:08.665,806.0,149.0,-22.0,819.9518278533197,1,1,1,3.0,2.0
2021-09-02 13:24:08.675,983.0,257.0,21.0,1016.257349296919,1,1,1,3.0,2.0
2021-09-02 13:24:08.686,1082.0,275.0,75.0,1118.9164401330422,1,1,1,3.0,2.0
2021-09-02 13:24:08.695,977.0,183.0,-19.0,994.1725202398223,1,1,1,3.0,2.0
2021-09-02 13:24:08.705,958.0,-59.0,41.0,960.6903767603796,1,1,1,3.0,2.0
2021-09-02 13:24:08.714,1051.0,-189.0,-32.0,1068.3379615084357,1,1,1,3.0,2.0
2021-09-02 13:24:08.724,1134.0,-153.0,92.0,1147.9673340300235,1,1,1,3.0,2.0
2021-09-02 13:24:08.735,1027.0,-394.0,-33.0,1100.478986623552,1,1,1,3.0,2.0
2021-09-02 13:24:08.743,837.0,37.0,-31.0,838.3907203684927,1,1,1,3.0,2.0
2021-09-02 13:24:08.753,996.0,238.0,25.0,1024.3461329062554,1,1,1,3.0,2.0
2021-09-02 13:24:08.763,1070.0,231.0,43.0,1095.4953217608918,1,1,1,3.0,2.0
2021-09-02 13:24:08.773,1018.0,82.0,4.0,1021.3050474760222,1,1,1,3.0,2.0
2021-09-02 13:24:08.783,830.0,369.0,4.0,908.3374923452186,1,1,1,3.0,2.0
2021-09-02 13:24:08.784,830.0,369.0,-54.0,909.93241507268,1,1,1,3.0,2.0
2021-09-02 13:24:08.792,1160.0,44.0,46.0,1161.7452388540269,1,1,1,3.0,2.0
2021-09-02 13:24:08.802,1191.0,-203.0,76.0,1210.5643312108614,1,1,1,3.0,2.0
2021-09-02 13:24:08.812,960.0,-257.0,-18.0,993.9683093539752,1,1,1,3.0,2.0
2021-09-02 13:24:08.821,834.0,163.0,-19.0,849.9917646659878,1,1,1,3.0,2.0
2021-09-02 13:24:08.831,1033.0,163.0,-19.0,1045.9536318594626,1,1,1,3.0,2.0
2021-09-02 13:24:08.832,1033.0,60.0,27.0,1035.0932325157962,1,1,1,3.0,2.0
2021-09-02 13:24:08.842,1024.0,191.0,54.0,1043.05944221794,1,1,1,3.0,2.0
2021-09-02 13:24:08.851,904.0,124.0,-47.0,913.6744496810668,1,1,1,3.0,2.0
2021-09-02 13:24:08.860,894.0,108.0,-37.0,901.2596740118798,1,1,1,3.0,2.0
2021-09-02 13:24:08.870,1138.0,9.0,48.0,1139.047409022118,1,1,1,3.0,2.0
2021-09-02 13:24:08.880,1050.0,-21.0,46.0,1051.2169138669717,1,1,1,3.0,2.0
2021-09-02 13:24:08.890,1029.0,-21.0,46.0,1030.2417192096232,1,1,1,3.0,2.0
2021-09-02 13:24:08.891,1029.0,-336.0,-30.0,1082.883650259805,1,1,1,3.0,2.0
2021-09-02 13:24:08.900,939.0,7.0,-3.0,939.03088341119,1,1,1,3.0,2.0
2021-09-02 13:24:08.909,1030.0,173.0,32.0,1044.9177001084822,1,1,1,3.0,2.0
2021-09-02 13:24:08.919,1051.0,287.0,32.0,1089.9513750622089,1,1,1,3.0,2.0
2021-09-02 13:24:08.920,1051.0,287.0,55.0,1090.8689197149215,1,1,1,3.0,2.0
2021-09-02 13:24:08.929,949.0,128.0,5.0,957.6063909561173,1,1,1,3.0,2.0
2021-09-02 13:24:08.939,899.0,377.0,-6.0,974.8671704391322,1,1,1,3.0,2.0
2021-09-02 13:24:08.948,1143.0,101.0,48.0,1148.4572260210653,1,1,1,3.0,2.0
2021-09-02 13:24:08.973,1034.0,101.0,7.0,1038.9446568513647,1,1,1,3.0,2.0
2021-09-02 13:24:08.974,1043.0,-402.0,-27.0,1118.1153786617908,1,1,1,3.0,2.0
2021-09-02 13:24:08.978,868.0,-17.0,-48.0,869.492380645167,1,1,1,3.0,2.0
2021-09-02 13:24:08.988,1126.0,-112.0,47.0,1132.5321187498394,1,1,1,3.0,2.0
2021-09-02 13:24:08.997,1025.0,9.0,47.0,1026.1164651246952,1,1,1,3.0,2.0
2021-09-02 13:24:08.998,1025.0,9.0,10.0,1025.0882888805238,1,1,1,3.0,2.0
2021-09-02 13:24:09.009,835.0,154.0,-23.0,849.3939015556916,1,1,1,3.0,2.0
2021-09-02 13:24:09.018,836.0,320.0,-58.0,897.0284276431823,1,1,1,3.0,2.0
2021-09-02 13:24:09.026,1169.0,71.0,46.0,1172.0571658413253,1,1,1,3.0,2.0
2021-09-02 13:24:09.036,1051.0,-18.0,3.0,1051.1584086140394,1,1,1,3.0,2.0
2021-09-02 13:24:09.046,956.0,-58.0,8.0,957.7912089803287,1,1,1,3.0,2.0
2021-09-02 13:24:09.056,1058.0,-132.0,9.0,1066.2405919866303,1,1,1,3.0,2.0
2021-09-02 13:24:09.067,1130.0,-93.0,67.0,1135.798397604082,1,1,1,3.0,2.0
2021-09-02 13:24:09.075,1031.0,-93.0,67.0,1037.351917142876,1,1,1,3.0,2.0
2021-09-02 13:24:09.076,1031.0,158.0,62.0,1044.8775047822592,1,1,1,3.0,2.0
2021-09-02 13:24:09.085,864.0,122.0,-37.0,873.3550251759018,1,1,1,3.0,2.0
2021-09-02 13:24:09.095,1002.0,358.0,32.0,1064.514913000283,1,1,1,3.0,2.0
2021-09-02 13:24:09.104,1062.0,358.0,32.0,1121.1743842953244,1,1,1,3.0,2.0
2021-09-02 13:24:09.105,1062.0,-183.0,-31.0,1078.0973981973984,1,1,1,3.0,2.0
2021-09-02 13:24:09.114,1188.0,-26.0,37.0,1188.8603786820386,1,1,1,3.0,2.0
2021-09-02 13:24:09.124,1212.0,-26.0,37.0,1212.8433534467672,1,1,1,3.0,2.0
2021-09-02 13:24:09.125,1212.0,-336.0,7.0,1257.7316883978076,1,1,1,3.0,2.0
2021-09-02 13:24:09.134,854.0,166.0,14.0,870.0965463671258,1,1,1,3.0,2.0
2021-09-02 13:24:09.143,1174.0,166.0,14.0,1185.760515449895,1,1,1,3.0,2.0
2021-09-02 13:24:09.144,1174.0,-86.0,35.0,1177.6659118782372,1,1,1,3.0,2.0
2021-09-02 13:24:09.153,825.0,348.0,5.0,895.4071699511904,1,1,1,3.0,2.0
2021-09-02 13:24:09.164,957.0,55.0,-61.0,960.5180893663586,1,1,1,3.0,2.0
2021-09-02 13:24:09.174,958.0,148.0,-61.0,971.2821423252876,1,1,1,3.0,2.0
2021-09-02 13:24:09.175,958.0,148.0,50.0,970.6533881875652,1,1,1,3.0,2.0
2021-09-02 13:24:09.183,1128.0,-104.0,20.0,1132.9607230614838,1,1,1,3.0,2.0
2021-09-02 13:24:09.193,973.0,-10.0,-1.0,973.0518999518988,1,1,1,3.0,2.0
2021-09-02 13:24:09.203,1045.0,-221.0,-49.0,1069.2366435920535,1,1,1,3.0,2.0
2021-09-02 13:24:09.213,944.0,79.0,64.0,949.4593198236564,1,1,1,3.0,2.0
2021-09-02 13:24:09.223,1032.0,15.0,32.0,1032.6049583456395,1,1,1,3.0,2.0
2021-09-02 13:24:09.232,981.0,249.0,28.0,1012.4949382589524,1,1,1,3.0,2.0
2021-09-02 13:24:09.241,1018.0,249.0,28.0,1048.3839945363532,1,1,1,3.0,2.0
2021-09-02 13:24:09.242,1018.0,-74.0,-20.0,1020.8819716304132,1,1,1,3.0,2.0
2021-09-02 13:24:09.251,999.0,136.0,58.0,1009.88167623737,1,1,1,3.0,2.0
2021-09-02 13:24:09.262,1016.0,21.0,9.0,1016.2568572954378,1,1,1,3.0,2.0
2021-09-02 13:24:09.272,1050.0,77.0,22.0,1053.049381558149,1,1,1,3.0,2.0
2021-09-02 13:24:09.280,1096.0,-15.0,50.0,1097.2424526967593,1,1,1,3.0,2.0
2021-09-02 13:24:09.290,964.0,47.0,-9.0,965.1870285079468,1,1,1,3.0,2.0
2021-09-02 13:24:09.300,1062.0,14.0,31.0,1062.5445872997518,1,1,1,3.0,2.0
2021-09-02 13:24:09.309,938.0,14.0,31.0,938.6165351196408,1,1,1,3.0,2.0
2021-09-02 13:24:09.310,938.0,168.0,7.0,952.9517301521626,1,1,1,3.0,2.0
2021-09-02 13:24:09.321,1017.0,57.0,-13.0,1018.6790466088914,1,1,1,3.0,2.0
2021-09-02 13:24:09.329,1010.0,57.0,-13.0,1011.6906641854516,1,1,1,3.0,2.0
2021-09-02 13:24:09.330,1010.0,183.0,-5.0,1026.4570132255906,1,1,1,3.0,2.0
2021-09-02 13:24:09.339,1033.0,-39.0,27.0,1034.0884875096522,1,1,1,3.0,2.0
2021-09-02 13:24:09.349,984.0,21.0,9.0,984.265208162922,1,1,1,3.0,2.0
2021-09-02 13:24:09.359,920.0,-76.0,-31.0,923.654156056259,1,1,1,3.0,2.0
2021-09-02 13:24:09.369,1086.0,16.0,19.0,1086.284032838557,1,1,1,3.0,2.0
2021-09-02 13:24:09.379,985.0,-35.0,16.0,985.7514899811208,1,1,1,3.0,2.0
2021-09-02 13:24:09.388,878.0,287.0,23.0,924.0032467475426,1,1,1,3.0,2.0
2021-09-02 13:24:09.398,1017.0,208.0,-6.0,1038.0698435076515,1,1,1,3.0,2.0
2021-09-02 13:24:09.417,960.0,247.0,-6.0,991.28452020598,1,1,1,3.0,2.0
2021-09-02 13:24:09.418,960.0,247.0,-5.0,991.2789718338628,1,1,1,3.0,2.0
2021-09-02 13:24:09.419,989.0,247.0,-5.0,1019.3895231951328,1,1,1,3.0,2.0
2021-09-02 13:24:09.420,989.0,410.0,27.0,1070.95751549723,1,1,1,3.0,2.0
2021-09-02 13:24:09.428,1051.0,-32.0,-13.0,1051.5674015487548,1,1,1,3.0,2.0
2021-09-02 13:24:09.443,930.0,-32.0,-13.0,930.6411768238067,1,1,1,3.0,2.0
2021-09-02 13:24:09.444,930.0,350.0,3.0,993.6845575936056,1,1,1,3.0,2.0
2021-09-02 13:24:09.447,1088.0,-121.0,-12.0,1094.77349255451,1,1,1,3.0,2.0
2021-09-02 13:24:09.457,1021.0,-121.0,-12.0,1028.2149580705388,1,1,1,3.0,2.0
2021-09-02 13:24:09.458,1021.0,32.0,99.0,1026.2874840901063,1,1,1,3.0,2.0
2021-09-02 13:24:09.466,1095.0,-488.0,-24.0,1199.0600485380205,1,1,1,3.0,2.0
2021-09-02 13:24:09.477,864.0,51.0,-24.0,865.8365896634307,1,1,1,3.0,2.0
2021-09-02 13:24:09.478,864.0,51.0,31.0,866.0588894526745,1,1,1,3.0,2.0
2021-09-02 13:24:09.485,1171.0,-142.0,49.0,1180.5956123923213,1,1,1,3.0,2.0
2021-09-02 13:24:09.495,1028.0,296.0,101.0,1074.5236153756696,1,1,1,3.0,2.0
2021-09-02 13:24:09.505,1008.0,113.0,-9.0,1014.3539816060268,1,1,1,3.0,2.0
2021-09-02 13:24:09.514,925.0,113.0,-9.0,931.9200609494358,1,1,1,3.0,2.0
2021-09-02 13:24:09.515,925.0,485.0,-34.0,1044.990909051366,1,1,1,3.0,2.0
2021-09-02 13:24:09.525,1189.0,485.0,-34.0,1284.5629606990854,1,1,1,3.0,2.0
2021-09-02 13:24:09.526,1189.0,209.0,78.0,1209.7462543856043,1,1,1,3.0,2.0
2021-09-02 13:24:09.534,1012.0,209.0,78.0,1036.2958071902058,1,1,1,3.0,2.0
2021-09-02 13:24:09.535,1012.0,55.0,10.0,1013.5427963337316,1,1,1,3.0,2.0
2021-09-02 13:24:09.545,1041.0,-412.0,-50.0,1120.6805967803673,1,1,1,3.0,2.0
2021-09-02 13:24:09.555,916.0,44.0,-19.0,917.2529640181056,1,1,1,3.0,2.0
2021-09-02 13:24:09.570,1112.0,-165.0,6.0,1124.1908201012852,1,1,1,3.0,2.0
2021-09-02 13:24:09.574,993.0,30.0,75.0,996.280081101695,1,1,1,3.0,2.0
2021-09-02 13:24:09.584,770.0,112.0,-36.0,778.9351706015077,1,1,1,3.0,2.0
2021-09-02 13:24:09.594,814.0,410.0,-82.0,915.1065511731408,1,1,1,3.0,2.0
2021-09-02 13:24:09.604,1235.0,32.0,48.0,1236.346634241385,1,1,1,3.0,2.0
2021-09-02 13:24:09.612,1014.0,43.0,14.0,1015.007881742797,1,1,1,3.0,2.0
2021-09-02 13:24:09.622,953.0,-9.0,-5.0,953.0556122283735,1,1,1,3.0,2.0
2021-09-02 13:24:09.633,1033.0,-84.0,9.0,1036.4487445117584,1,1,1,3.0,2.0
2021-09-02 13:24:09.642,1155.0,-65.0,85.0,1159.9461194383125,1,1,1,3.0,2.0
2021-09-02 13:24:09.652,1022.0,-65.0,85.0,1027.586492709981,1,1,1,3.0,2.0
2021-09-02 13:24:09.653,1022.0,120.0,47.0,1030.093685059762,1,1,1,3.0,2.0
2021-09-02 13:24:09.662,842.0,103.0,-35.0,848.9982332137093,1,1,1,3.0,2.0
2021-09-02 13:24:09.671,1009.0,249.0,45.0,1040.2437214422398,1,1,1,3.0,2.0
2021-09-02 13:24:09.681,1072.0,269.0,53.0,1106.5053095218295,1,1,1,3.0,2.0
2021-09-02 13:24:09.691,1023.0,84.0,-4.0,1026.450680744087,1,1,1,3.0,2.0
2021-09-02 13:24:09.701,1035.0,-145.0,0.0,1045.107649957649,1,1,1,3.0,2.0
2021-09-02 13:24:09.710,1000.0,-129.0,-16.0,1008.4131097918156,1,1,1,3.0,2.0
2021-09-02 13:24:09.720,1174.0,-142.0,65.0,1184.34158923851,1,1,1,3.0,2.0
2021-09-02 13:24:09.730,989.0,-255.0,-25.0,1021.6511146179012,1,1,1,3.0,2.0
2021-09-02 13:24:09.740,861.0,144.0,-13.0,873.0555537879592,1,1,1,3.0,2.0
2021-09-02 13:24:09.750,1041.0,64.0,30.0,1043.3968564261634,1,1,1,3.0,2.0
2021-09-02 13:24:09.759,1122.0,75.0,48.0,1125.527876154118,1,1,1,3.0,2.0
2021-09-02 13:24:09.768,1019.0,75.0,48.0,1022.8831800357262,1,1,1,3.0,2.0
2021-09-02 13:24:09.769,1019.0,23.0,0.0,1019.259535152848,1,1,1,3.0,2.0
2021-09-02 13:24:09.778,861.0,184.0,-45.0,881.5906079354521,1,1,1,3.0,2.0
2021-09-02 13:24:09.790,1152.0,28.0,9.0,1152.3753728711838,1,1,1,3.0,2.0
2021-09-02 13:24:09.798,1073.0,-41.0,55.0,1075.1906807631844,1,1,1,3.0,2.0
2021-09-02 13:24:09.808,984.0,-41.0,55.0,986.3883616507244,1,1,1,3.0,2.0
2021-09-02 13:24:09.809,984.0,-125.0,9.0,991.9485873773904,1,1,1,3.0,2.0
2021-09-02 13:24:09.818,825.0,142.0,-66.0,839.729122991456,1,1,1,3.0,2.0
2021-09-02 13:24:09.827,1027.0,142.0,-66.0,1038.8690966623274,1,1,1,3.0,2.0
2021-09-02 13:24:09.828,1027.0,179.0,27.0,1042.8322012672988,1,1,1,3.0,2.0
2021-09-02 13:24:09.838,1030.0,323.0,40.0,1080.1985928522588,1,1,1,3.0,2.0
2021-09-02 13:24:09.848,964.0,79.0,-9.0,967.273487696215,1,1,1,3.0,2.0
2021-09-02 13:24:09.857,911.0,79.0,-9.0,914.463230534722,1,1,1,3.0,2.0
2021-09-02 13:24:09.858,911.0,-43.0,-32.0,912.5754763305882,1,1,1,3.0,2.0
2021-09-02 13:24:09.866,1120.0,-43.0,-32.0,1121.2818557347657,1,1,1,3.0,2.0
2021-09-02 13:24:09.867,1120.0,-5.0,-5.0,1120.0223212061446,1,1,1,3.0,2.0
2021-09-02 13:24:09.876,1166.0,-98.0,62.0,1171.7525336008453,1,1,1,3.0,2.0
2021-09-02 13:24:09.886,1002.0,-316.0,-53.0,1051.9833648874871,1,1,1,3.0,2.0
2021-09-02 13:24:09.897,911.0,42.0,-29.0,912.4286273457228,1,1,1,3.0,2.0
2021-09-02 13:24:09.909,1110.0,-155.0,19.0,1120.9308631668591,1,1,1,3.0,2.0
2021-09-02 13:24:09.915,1029.0,282.0,40.0,1067.691434825624,1,1,1,3.0,2.0
2021-09-02 13:24:09.925,1023.0,69.0,10.0,1025.3731028264783,1,1,1,3.0,2.0
2021-09-02 13:24:09.934,813.0,69.0,10.0,815.9840684719279,1,1,1,3.0,2.0
2021-09-02 13:24:09.935,813.0,385.0,-51.0,900.9966703601074,1,1,1,3.0,2.0
2021-09-02 13:24:09.945,1187.0,58.0,33.0,1188.8742574385233,1,1,1,3.0,2.0
2021-09-02 13:24:09.954,1053.0,-25.0,20.0,1053.4865922260235,1,1,1,3.0,2.0
2021-09-02 13:24:09.964,1031.0,-382.0,-62.0,1101.2397559114909,1,1,1,3.0,2.0
2021-09-02 13:24:09.984,833.0,188.0,-6.0,853.9724819922478,1,1,1,3.0,2.0
2021-09-02 13:24:09.993,1046.0,188.0,-6.0,1062.7774931753115,1,1,1,3.0,2.0
2021-09-02 13:24:09.994,1046.0,125.0,48.0,1054.535442742443,1,1,1,3.0,2.0
2021-09-02 13:24:10.003,833.0,198.0,-39.0,857.0962606382086,1,1,1,3.0,2.0
2021-09-02 13:24:10.015,962.0,266.0,46.0,999.1576452192116,1,1,1,3.0,2.0
2021-09-02 13:24:10.023,1197.0,-75.0,21.0,1199.5311584114854,1,1,1,3.0,2.0
2021-09-02 13:24:10.033,1076.0,-2.0,26.0,1076.3159387466117,1,1,1,3.0,2.0
2021-09-02 13:24:10.043,1069.0,-256.0,-14.0,1099.3147865829878,1,1,1,3.0,2.0
2021-09-02 13:24:10.052,961.0,-256.0,-14.0,994.6119846452684,1,1,1,3.0,2.0
2021-09-02 13:24:10.053,961.0,-71.0,-13.0,963.706905651298,1,1,1,3.0,2.0
2021-09-02 13:24:10.063,1198.0,-186.0,55.0,1213.6000164798943,1,1,1,3.0,2.0
2021-09-02 13:24:10.072,1038.0,311.0,62.0,1085.3612301902072,1,1,1,3.0,2.0
2021-09-02 13:24:10.081,942.0,32.0,-31.0,943.0530207787896,1,1,1,3.0,2.0
2021-09-02 13:24:10.091,901.0,380.0,12.0,977.9289340233266,1,1,1,3.0,2.0
2021-09-02 13:24:10.101,1133.0,120.0,46.0,1140.265320002323,1,1,1,3.0,2.0
2021-09-02 13:24:10.112,1013.0,76.0,0.0,1015.8469372892748,1,1,1,3.0,2.0
2021-09-02 13:24:10.121,1087.0,-440.0,-40.0,1173.3580016346248,1,1,1,3.0,2.0
2021-09-02 13:24:10.130,888.0,-9.0,-30.0,888.5521931771932,1,1,1,3.0,2.0
2021-09-02 13:24:10.140,1159.0,-97.0,42.0,1163.8101219700743,1,1,1,3.0,2.0
2021-09-02 13:24:10.150,973.0,-97.0,42.0,978.7246803876972,1,1,1,3.0,2.0
2021-09-02 13:24:10.151,973.0,-58.0,38.0,975.4675801891112,1,1,1,3.0,2.0
2021-09-02 13:24:10.160,842.0,60.0,38.0,844.9899407685277,1,1,1,3.0,2.0
2021-09-02 13:24:10.161,842.0,60.0,-65.0,846.633923251366,1,1,1,3.0,2.0
2021-09-02 13:24:10.170,1025.0,189.0,80.0,1045.344919153482,1,1,1,3.0,2.0
2021-09-02 13:24:10.179,1204.0,167.0,50.0,1216.5545610452496,1,1,1,3.0,2.0
2021-09-02 13:24:10.189,1020.0,-4.0,0.0,1020.0078431071008,1,1,1,3.0,2.0
2021-09-02 13:24:10.199,980.0,-129.0,-24.0,988.7451643371006,1,1,1,3.0,2.0
2021-09-02 13:24:10.209,1053.0,-97.0,20.0,1057.6473892559843,1,1,1,3.0,2.0
2021-09-02 13:24:10.218,1150.0,-97.0,20.0,1154.2569038130116,1,1,1,3.0,2.0
2021-09-02 13:24:10.219,1150.0,-30.0,67.0,1152.340661436539,1,1,1,3.0,2.0
2021-09-02 13:24:10.228,1009.0,131.0,47.0,1018.5533859351704,1,1,1,3.0,2.0
2021-09-02 13:24:10.237,848.0,148.0,-40.0,861.7470626581793,1,1,1,3.0,2.0
2021-09-02 13:24:10.247,977.0,254.0,31.0,1009.9534642744684,1,1,1,3.0,2.0
2021-09-02 13:24:10.257,1051.0,203.0,52.0,1071.6874544380933,1,1,1,3.0,2.0
2021-09-02 13:24:10.267,1040.0,113.0,52.0,1047.4125261805875,1,1,1,3.0,2.0
2021-09-02 13:24:10.268,1040.0,113.0,5.0,1046.1328787491575,1,1,1,3.0,2.0
2021-09-02 13:24:10.277,829.0,295.0,-48.0,881.2320920166264,1,1,1,3.0,2.0
2021-09-02 13:24:10.286,972.0,19.0,-48.0,973.3699194037176,1,1,1,3.0,2.0
2021-09-02 13:24:10.287,972.0,19.0,-9.0,972.2273396690714,1,1,1,3.0,2.0
2021-09-02 13:24:10.296,1153.0,-3.0,115.0,1158.724730037294,1,1,1,3.0,2.0
2021-09-02 13:24:10.307,1003.0,-414.0,-48.0,1086.144097254135,1,1,1,3.0,2.0
2021-09-02 13:24:10.317,881.0,77.0,-29.0,884.8338827147161,1,1,1,3.0,2.0
2021-09-02 13:24:10.325,1100.0,-30.0,-18.0,1100.5562230072574,1,1,1,3.0,2.0
2021-09-02 13:24:10.335,1008.0,226.0,71.0,1035.4617327550063,1,1,1,3.0,2.0
2021-09-02 13:24:10.345,1030.0,38.0,20.0,1030.8947569951067,1,1,1,3.0,2.0
2021-09-02 13:24:10.355,819.0,38.0,20.0,820.1249904740131,1,1,1,3.0,2.0
2021-09-02 13:24:10.357,819.0,249.0,-60.0,858.1153768579142,1,1,1,3.0,2.0
2021-09-02 13:24:10.366,1163.0,43.0,-12.0,1163.8565203666644,1,1,1,3.0,2.0
2021-09-02 13:24:10.374,1050.0,59.0,44.0,1052.576363025505,1,1,1,3.0,2.0
2021-09-02 13:24:10.384,1085.0,-327.0,-58.0,1134.6885035109856,1,1,1,3.0,2.0
2021-09-02 13:24:10.394,803.0,37.0,-55.0,805.7313448042096,1,1,1,3.0,2.0
2021-09-02 13:24:10.404,1026.0,150.0,78.0,1039.8365256135216,1,1,1,3.0,2.0
2021-09-02 13:24:10.414,976.0,210.0,12.0,998.408733936157,1,1,1,3.0,2.0
2021-09-02 13:24:10.432,1020.0,81.0,0.0,1023.2111219098432,1,1,1,3.0,2.0
2021-09-02 13:24:10.436,871.0,491.0,-38.0,1000.5828301545056,1,1,1,3.0,2.0
2021-09-02 13:24:10.443,1062.0,-119.0,-12.0,1068.7137128342652,1,1,1,3.0,2.0
2021-09-02 13:24:10.454,1173.0,-33.0,71.0,1175.6100543972905,1,1,1,3.0,2.0
2021-09-02 13:24:10.462,1054.0,-347.0,-46.0,1110.6038897824913,1,1,1,3.0,2.0
2021-09-02 13:24:10.479,897.0,-347.0,-46.0,962.8779777313426,1,1,1,3.0,2.0
2021-09-02 13:24:10.480,897.0,-6.0,-39.0,897.867473517111,1,1,1,3.0,2.0
2021-09-02 13:24:10.482,1086.0,-6.0,-39.0,1086.7166143940194,1,1,1,3.0,2.0
2021-09-02 13:24:10.483,1086.0,-99.0,21.0,1090.7052764152193,1,1,1,3.0,2.0
2021-09-02 13:24:10.492,1035.0,-33.0,25.0,1035.8276883729263,1,1,1,3.0,2.0
2021-09-02 13:24:10.502,1044.0,108.0,3.0,1049.5756285280256,1,1,1,3.0,2.0
2021-09-02 13:24:10.511,831.0,384.0,-20.0,915.6511344393124,1,1,1,3.0,2.0
2021-09-02 13:24:10.520,1152.0,22.0,-20.0,1152.383616683264,1,1,1,3.0,2.0
2021-09-02 13:24:10.521,1152.0,22.0,36.0,1152.7723105626712,1,1,1,3.0,2.0
2021-09-02 13:24:10.530,1094.0,-120.0,-19.0,1100.7256697288385,1,1,1,3.0,2.0
2021-09-02 13:24:10.541,970.0,-16.0,54.0,971.6336758264404,1,1,1,3.0,2.0
2021-09-02 13:24:10.550,841.0,200.0,2.0,864.4564766371989,1,1,1,3.0,2.0
2021-09-02 13:24:10.561,1047.0,15.0,-16.0,1047.2296787238222,1,1,1,3.0,2.0
2021-09-02 13:24:10.570,1050.0,158.0,38.0,1062.5008235290927,1,1,1,3.0,2.0
2021-09-02 13:24:10.586,925.0,122.0,-32.0,933.5593178796944,1,1,1,3.0,2.0
2021-09-02 13:24:10.589,1000.0,162.0,20.0,1013.2344249974929,1,1,1,3.0,2.0
2021-09-02 13:24:10.599,1068.0,285.0,39.0,1106.0605770029051,1,1,1,3.0,2.0
2021-09-02 13:24:10.609,1078.0,27.0,41.0,1079.1172318149684,1,1,1,3.0,2.0
2021-09-02 13:24:10.618,1058.0,27.0,41.0,1059.138329020341,1,1,1,3.0,2.0
2021-09-02 13:24:10.619,1058.0,-204.0,-50.0,1078.647301021052,1,1,1,3.0,2.0
2021-09-02 13:24:10.629,963.0,-67.0,13.0,965.4154546100864,1,1,1,3.0,2.0
2021-09-02 13:24:10.638,1156.0,-198.0,62.0,1174.4717961705169,1,1,1,3.0,2.0
2021-09-02 13:24:10.648,979.0,-317.0,2.0,1029.045188512147,1,1,1,3.0,2.0
2021-09-02 13:24:10.658,960.0,105.0,-13.0,965.8126112243514,1,1,1,3.0,2.0
2021-09-02 13:24:10.667,928.0,421.0,0.0,1019.0314028527284,1,1,1,3.0,2.0
2021-09-02 13:24:10.678,1135.0,93.0,93.0,1142.5948538305256,1,1,1,3.0,2.0
2021-09-02 13:24:10.686,960.0,93.0,93.0,968.9674917147634,1,1,1,3.0,2.0
2021-09-02 13:24:10.687,960.0,98.0,5.0,965.0020725366344,1,1,1,3.0,2.0
2021-09-02 13:24:10.696,882.0,99.0,-60.0,889.5645001909643,1,1,1,3.0,2.0
2021-09-02 13:24:10.706,1152.0,-28.0,32.0,1152.7844551346102,1,1,1,3.0,2.0
2021-09-02 13:24:10.716,1148.0,-188.0,51.0,1164.4092923023245,1,1,1,3.0,2.0
2021-09-02 13:24:10.725,978.0,-188.0,51.0,997.2106096507396,1,1,1,3.0,2.0
2021-09-02 13:24:10.726,978.0,0.0,19.0,978.1845429161104,1,1,1,3.0,2.0
2021-09-02 13:24:10.737,834.0,94.0,-26.0,839.6832736216675,1,1,1,3.0,2.0
2021-09-02 13:24:10.745,994.0,210.0,-26.0,1016.2735852121712,1,1,1,3.0,2.0
2021-09-02 13:24:10.746,994.0,210.0,29.0,1016.3547608979848,1,1,1,3.0,2.0
2021-09-02 13:24:10.755,1031.0,293.0,56.0,1073.2874731403513,1,1,1,3.0,2.0
2021-09-02 13:24:10.766,1042.0,-44.0,19.0,1043.1016249627835,1,1,1,3.0,2.0
2021-09-02 13:24:10.775,947.0,-116.0,2.0,954.08018530939,1,1,1,3.0,2.0
2021-09-02 13:24:10.785,1105.0,-134.0,21.0,1113.2933126539474,1,1,1,3.0,2.0
2021-09-02 13:24:10.794,1164.0,-75.0,79.0,1169.0859677542965,1,1,1,3.0,2.0
2021-09-02 13:24:10.804,995.0,-221.0,-1.0,1019.248252389966,1,1,1,3.0,2.0
2021-09-02 13:24:10.814,855.0,20.0,-45.0,856.4169545262401,1,1,1,3.0,2.0
2021-09-02 13:24:10.823,972.0,20.0,-45.0,973.24662855825,1,1,1,3.0,2.0
2021-09-02 13:24:10.824,972.0,303.0,20.0,1018.3285324491304,1,1,1,3.0,2.0
2021-09-02 13:24:10.834,1065.0,304.0,61.0,1109.2168408386162,1,1,1,3.0,2.0
2021-09-02 13:24:10.843,1056.0,-93.0,12.0,1060.1551773207543,1,1,1,3.0,2.0
2021-09-02 13:24:10.853,763.0,456.0,-54.0,890.5172654137594,1,1,1,3.0,2.0
2021-09-02 13:24:10.862,1195.0,59.0,61.0,1198.009599293762,1,1,1,3.0,2.0
2021-09-02 13:24:10.872,1156.0,-193.0,70.0,1174.089008550885,1,1,1,3.0,2.0
2021-09-02 13:24:10.882,1041.0,-405.0,-58.0,1118.5124049379158,1,1,1,3.0,2.0
2021-09-02 13:24:10.893,819.0,192.0,-20.0,841.4422142963829,1,1,1,3.0,2.0
2021-09-02 13:24:10.902,1053.0,121.0,16.0,1060.0499988208103,1,1,1,3.0,2.0
2021-09-02 13:24:10.911,1037.0,188.0,42.0,1054.7402523844437,1,1,1,3.0,2.0
2021-09-02 13:24:10.922,935.0,64.0,-39.0,937.9989339013132,1,1,1,3.0,2.0
2021-09-02 13:24:10.931,828.0,179.0,-44.0,848.2694147498188,1,1,1,3.0,2.0
2021-09-02 13:24:10.941,1194.0,-46.0,32.0,1195.3141846393355,1,1,1,3.0,2.0
2021-09-02 13:24:10.951,1036.0,-30.0,38.0,1037.1306571498117,1,1,1,3.0,2.0
2021-09-02 13:24:10.960,1081.0,-355.0,-59.0,1139.327433181524,1,1,1,3.0,2.0
2021-09-02 13:24:10.970,925.0,-355.0,-59.0,992.5376567163586,1,1,1,3.0,2.0
2021-09-02 13:24:10.971,925.0,-38.0,11.0,925.8455594752292,1,1,1,3.0,2.0
2021-09-02 13:24:10.980,996.0,195.0,11.0,1014.968965042774,1,1,1,3.0,2.0
2021-09-02 13:24:10.981,996.0,195.0,30.0,1015.3526480981866,1,1,1,3.0,2.0
2021-09-02 13:24:10.990,1040.0,267.0,49.0,1074.8441747527872,1,1,1,3.0,2.0
2021-09-02 13:24:11.015,944.0,406.0,-33.0,1028.134718799049,1,1,1,3.0,2.0
2021-09-02 13:24:11.018,1159.0,406.0,-33.0,1228.4974562448226,1,1,1,3.0,2.0
2021-09-02 13:24:11.019,1159.0,15.0,75.0,1161.520985604651,1,1,1,3.0,2.0
2021-09-02 13:24:11.029,1137.0,-47.0,70.0,1140.1219233046963,1,1,1,3.0,2.0
2021-09-02 13:24:11.038,1056.0,-348.0,-36.0,1112.4459537433718,1,1,1,3.0,2.0
2021-09-02 13:24:11.048,881.0,59.0,-32.0,883.5530544341975,1,1,1,3.0,2.0
2021-09-02 13:24:11.059,1109.0,-136.0,25.0,1117.5875804606992,1,1,1,3.0,2.0
2021-09-02 13:24:11.068,1031.0,37.0,74.0,1034.314265588559,1,1,1,3.0,2.0
2021-09-02 13:24:11.077,747.0,81.0,-46.0,752.7854940153935,1,1,1,3.0,2.0
2021-09-02 13:24:11.087,810.0,371.0,-55.0,892.6174992683036,1,1,1,3.0,2.0
2021-09-02 13:24:11.097,1178.0,143.0,31.0,1187.052652581173,1,1,1,3.0,2.0
2021-09-02 13:24:11.108,1069.0,-76.0,7.0,1071.7210457950334,1,1,1,3.0,2.0
2021-09-02 13:24:11.118,958.0,-57.0,19.0,959.8822844495048,1,1,1,3.0,2.0
2021-09-02 13:24:11.126,1006.0,-88.0,2.0,1009.8435522396526,1,1,1,3.0,2.0
2021-09-02 13:24:11.136,1144.0,-68.0,-20.0,1146.193700907486,1,1,1,3.0,2.0
2021-09-02 13:24:11.145,1040.0,-68.0,-20.0,1042.412586263232,1,1,1,3.0,2.0
2021-09-02 13:24:11.146,1040.0,258.0,61.0,1073.259055400885,1,1,1,3.0,2.0
2021-09-02 13:24:11.156,911.0,112.0,-43.0,918.8656049716956,1,1,1,3.0,2.0
2021-09-02 13:24:11.167,973.0,241.0,37.0,1003.0847421828328,1,1,1,3.0,2.0
2021-09-02 13:24:11.175,1099.0,257.0,64.0,1130.4627371125507,1,1,1,3.0,2.0
2021-09-02 13:24:11.184,995.0,257.0,64.0,1029.6455700871052,1,1,1,3.0,2.0
2021-09-02 13:24:11.185,995.0,86.0,-1.0,998.7101681669212,1,1,1,3.0,2.0
2021-09-02 13:24:11.194,1027.0,-207.0,-27.0,1048.0014312967326,1,1,1,3.0,2.0
2021-09-02 13:24:11.204,976.0,4.0,-27.0,976.3815852421634,1,1,1,3.0,2.0
2021-09-02 13:24:11.205,976.0,4.0,49.0,977.2374327664696,1,1,1,3.0,2.0
2021-09-02 13:24:11.216,1138.0,-164.0,74.0,1152.1354087085424,1,1,1,3.0,2.0
2021-09-02 13:24:11.224,1032.0,-361.0,74.0,1095.8197844536298,1,1,1,3.0,2.0
2021-09-02 13:24:11.225,1032.0,-361.0,-38.0,1093.9785189847194,1,1,1,3.0,2.0
2021-09-02 13:24:11.234,891.0,236.0,-14.0,921.8313294741072,1,1,1,3.0,2.0
2021-09-02 13:24:11.243,967.0,406.0,23.0,1049.0252618502568,1,1,1,3.0,2.0
2021-09-02 13:24:11.253,1123.0,44.0,60.0,1125.4621273059347,1,1,1,3.0,2.0
2021-09-02 13:24:11.264,1010.0,91.0,4.0,1014.099107582686,1,1,1,3.0,2.0
2021-09-02 13:24:11.273,882.0,106.0,-29.0,888.8200042753314,1,1,1,3.0,2.0
2021-09-02 13:24:11.282,1147.0,-2.0,-21.0,1147.193967906038,1,1,1,3.0,2.0
2021-09-02 13:24:11.292,1166.0,-299.0,-1.0,1203.726713170394,1,1,1,3.0,2.0
2021-09-02 13:24:11.302,965.0,-22.0,44.0,966.2530724401346,1,1,1,3.0,2.0
2021-09-02 13:24:11.312,803.0,54.0,-54.0,806.6232081957473,1,1,1,3.0,2.0
2021-09-02 13:24:11.322,1012.0,240.0,64.0,1042.03646769199,1,1,1,3.0,2.0
2021-09-02 13:24:11.331,1012.0,286.0,64.0,1053.582459990674,1,1,1,3.0,2.0
2021-09-02 13:24:11.332,1012.0,286.0,55.0,1053.0740714688593,1,1,1,3.0,2.0
2021-09-02 13:24:11.341,987.0,305.0,0.0,1033.0508215959171,1,1,1,3.0,2.0
2021-09-02 13:24:11.351,926.0,-116.0,8.0,933.2716646293296,1,1,1,3.0,2.0
2021-09-02 13:24:11.361,1045.0,-127.0,40.0,1053.448622382696,1,1,1,3.0,2.0
2021-09-02 13:24:11.372,1132.0,-136.0,91.0,1143.7661474269992,1,1,1,3.0,2.0
2021-09-02 13:24:11.380,1085.0,-136.0,91.0,1097.2702493005086,1,1,1,3.0,2.0
2021-09-02 13:24:11.381,1085.0,-412.0,-16.0,1160.700219694991,1,1,1,3.0,2.0
2021-09-02 13:24:11.390,874.0,-2.0,-36.0,874.7433909438813,1,1,1,3.0,2.0
2021-09-02 13:24:11.400,975.0,171.0,13.0,989.9671711728628,1,1,1,3.0,2.0
2021-09-02 13:24:11.409,990.0,328.0,33.0,1043.4428590009134,1,1,1,3.0,2.0
2021-09-02 13:24:11.421,1071.0,82.0,23.0,1074.3807518752371,1,1,1,3.0,2.0
2021-09-02 13:24:11.430,808.0,347.0,-79.0,882.9009004412669,1,1,1,3.0,2.0
2021-09-02 13:24:11.451,1191.0,134.0,46.0,1199.3969317953083,1,1,1,3.0,2.0
2021-09-02 13:24:11.453,1088.0,-53.0,-8.0,1089.3195123562232,1,1,1,3.0,2.0
2021-09-02 13:24:11.459,1062.0,-440.0,-49.0,1150.584634001341,1,1,1,3.0,2.0
2021-09-02 13:24:11.468,851.0,170.0,0.0,867.8139201464793,1,1,1,3.0,2.0
2021-09-02 13:24:11.477,1070.0,170.0,0.0,1083.4205093129815,1,1,1,3.0,2.0
2021-09-02 13:24:11.478,1070.0,51.0,2.0,1071.2165980790253,1,1,1,3.0,2.0
2021-09-02 13:24:11.496,1067.0,175.0,23.0,1081.5003467405825,1,1,1,3.0,2.0
2021-09-02 13:24:11.499,920.0,175.0,23.0,936.7785223840264,1,1,1,3.0,2.0
2021-09-02 13:24:11.500,920.0,81.0,-33.0,924.148256504334,1,1,1,3.0,2.0
2021-09-02 13:24:11.509,932.0,76.0,2.0,935.0957170258026,1,1,1,3.0,2.0
2021-09-02 13:24:11.517,1003.0,183.0,29.0,1019.9700976009052,1,1,1,3.0,2.0
2021-09-02 13:24:11.527,1046.0,77.0,17.0,1048.9680643375184,1,1,1,3.0,2.0
2021-09-02 13:24:11.536,994.0,126.0,12.0,1002.025947767821,1,1,1,3.0,2.0
2021-09-02 13:24:11.546,990.0,12.0,-20.0,990.2747093609934,1,1,1,3.0,2.0
2021-09-02 13:24:11.557,970.0,61.0,-20.0,972.1219059356702,1,1,1,3.0,2.0
2021-09-02 13:24:11.558,970.0,61.0,35.0,972.546142864183,1,1,1,3.0,2.0
2021-09-02 13:24:11.566,1117.0,52.0,35.0,1118.757346344595,1,1,1,3.0,2.0
2021-09-02 13:24:11.567,1117.0,52.0,46.0,1119.155485176211,1,1,1,3.0,2.0
2021-09-02 13:24:11.575,958.0,78.0,-32.0,961.7026567499956,1,1,1,3.0,2.0
2021-09-02 13:24:11.585,1109.0,94.0,-32.0,1113.436572059675,1,1,1,3.0,2.0
2021-09-02 13:24:11.586,1109.0,94.0,69.0,1115.1134471433836,1,1,1,3.0,2.0
2021-09-02 13:24:11.601,963.0,40.0,69.0,966.2970557752932,1,1,1,3.0,2.0
2021-09-02 13:24:11.602,963.0,40.0,-74.0,966.6669540229458,1,1,1,3.0,2.0
2021-09-02 13:24:11.605,1052.0,29.0,-74.0,1054.9981042636996,1,1,1,3.0,2.0
2021-09-02 13:24:11.606,1052.0,29.0,15.0,1052.5065320462386,1,1,1,3.0,2.0
2021-09-02 13:24:11.615,1030.0,61.0,15.0,1031.913756086234,1,1,1,3.0,2.0
2021-09-02 13:24:11.616,1030.0,61.0,33.0,1032.3323108379395,1,1,1,3.0,2.0
2021-09-02 13:24:11.624,990.0,30.0,33.0,991.0040363187226,1,1,1,3.0,2.0
2021-09-02 13:24:11.625,990.0,30.0,-5.0,990.4670615421796,1,1,1,3.0,2.0
2021-09-02 13:24:11.634,1007.0,65.0,26.0,1009.430532528118,1,1,1,3.0,2.0
2021-09-02 13:24:11.647,1014.0,30.0,-14.0,1014.5402899835964,1,1,1,3.0,2.0
2021-09-02 13:24:11.654,1027.0,30.0,-14.0,1027.533454443212,1,1,1,3.0,2.0
2021-09-02 13:24:11.655,1027.0,53.0,9.0,1028.4060482124753,1,1,1,3.0,2.0
2021-09-02 13:24:11.664,1020.0,53.0,17.0,1021.5174986264308,1,1,1,3.0,2.0
2021-09-02 13:24:11.673,1008.0,75.0,5.0,1010.7986941028366,1,1,1,3.0,2.0
2021-09-02 13:24:11.683,1020.0,56.0,14.0,1021.6320276890306,1,1,1,3.0,2.0
2021-09-02 13:24:11.693,1032.0,23.0,11.0,1032.314874444808,1,1,1,3.0,2.0
2021-09-02 13:24:11.703,1012.0,30.0,-5.0,1012.4569126634476,1,1,1,3.0,2.0
2021-09-02 13:24:11.713,1026.0,30.0,-5.0,1026.450680744087,1,1,1,3.0,2.0
2021-09-02 13:24:11.714,1026.0,12.0,-1.0,1026.0706603348524,1,1,1,3.0,2.0
2021-09-02 13:24:11.722,1008.0,46.0,4.0,1009.0569855067652,1,1,1,3.0,2.0
2021-09-02 13:24:11.731,1016.0,59.0,4.0,1017.7195094916872,1,1,1,3.0,2.0
2021-09-02 13:24:11.732,1016.0,59.0,14.0,1017.8079386603348,1,1,1,3.0,2.0
2021-09-02 13:24:11.741,1002.0,47.0,6.0,1003.1196339420338,1,1,1,3.0,2.0
2021-09-02 13:24:11.752,1018.0,57.0,1.0,1019.5950176418086,1,1,1,3.0,2.0
2021-09-02 13:24:11.762,1011.0,88.0,19.0,1015.000492610718,1,1,1,3.0,2.0
2021-09-02 13:24:11.771,1032.0,19.0,6.0,1032.1923270398788,1,1,1,3.0,2.0
2021-09-02 13:24:11.780,1017.0,20.0,14.0,1017.2929764821932,1,1,1,3.0,2.0
2021-09-02 13:24:11.790,1002.0,6.0,4.0,1002.025947767821,1,1,1,3.0,2.0
2021-09-02 13:24:11.800,1014.0,36.0,12.0,1014.7098107340836,1,1,1,3.0,2.0
2021-09-02 13:24:11.810,994.0,40.0,2.0,994.8065138508092,1,1,1,3.0,2.0
