time_stamp,Acceleration_X,Acceleration_Y,Acceleration_Z,magnitude,STD_Status_right,STD_Status_left,STD_Status_both,KMeans,KMeans_convert
2021-09-23 13:31:23.713,996.0,63.0,-7.0,998.0150299469442,1,1,1,0.0,2.0
2021-09-23 13:31:23.722,1044.0,-93.0,-7.0,1048.1574309234277,1,1,1,0.0,2.0
2021-09-23 13:31:23.723,1044.0,-93.0,13.0,1048.2146726696778,1,1,1,0.0,2.0
2021-09-23 13:31:23.732,967.0,224.0,13.0,992.6902840261912,1,1,1,0.0,2.0
2021-09-23 13:31:23.733,967.0,224.0,26.0,992.9456178462142,1,1,1,0.0,2.0
2021-09-23 13:31:23.742,1008.0,-38.0,26.0,1009.051039343402,1,1,1,0.0,2.0
2021-09-23 13:31:23.743,1008.0,-38.0,-28.0,1009.1045535523066,1,1,1,0.0,2.0
2021-09-23 13:31:23.751,933.0,273.0,15.0,972.2360824408852,1,1,1,0.0,2.0
2021-09-23 13:31:23.761,1002.0,94.0,-16.0,1006.526701086464,1,1,1,0.0,2.0
2021-09-23 13:31:23.777,1046.0,37.0,12.0,1046.722981499881,1,1,1,0.0,2.0
2021-09-23 13:31:23.780,1080.0,37.0,12.0,1080.7002359581495,1,1,1,0.0,2.0
2021-09-23 13:31:23.781,1080.0,-225.0,17.0,1103.3195366710406,1,1,1,0.0,2.0
2021-09-23 13:31:23.790,906.0,4.0,17.0,906.1683066627304,1,1,1,0.0,2.0
2021-09-23 13:31:23.791,906.0,4.0,8.0,906.0441490346924,1,1,1,0.0,2.0
2021-09-23 13:31:23.801,1101.0,-169.0,35.0,1114.4447047745348,1,1,1,0.0,2.0
2021-09-23 13:31:23.811,1037.0,-79.0,35.0,1040.5935806067612,1,1,1,0.0,2.0
2021-09-23 13:31:23.812,1037.0,-79.0,38.0,1040.6988036891366,1,1,1,0.0,2.0
2021-09-23 13:31:23.823,936.0,-125.0,38.0,945.0740711711436,1,1,1,0.0,2.0
2021-09-23 13:31:23.824,936.0,-125.0,-43.0,945.288315806347,1,1,1,0.0,2.0
2021-09-23 13:31:23.830,889.0,262.0,-15.0,926.925023936672,1,1,1,0.0,2.0
2021-09-23 13:31:23.839,1098.0,95.0,-12.0,1102.167410151471,1,1,1,0.0,2.0
2021-09-23 13:31:23.849,1012.0,134.0,29.0,1021.2448286282776,1,1,1,0.0,2.0
2021-09-23 13:31:23.859,964.0,134.0,29.0,973.700672691562,1,1,1,0.0,2.0
2021-09-23 13:31:23.860,964.0,-56.0,-27.0,966.0025879882515,1,1,1,0.0,2.0
2021-09-23 13:31:23.868,986.0,-56.0,-27.0,987.9579950584944,1,1,1,0.0,2.0
2021-09-23 13:31:23.869,986.0,5.0,-8.0,986.0451308129868,1,1,1,0.0,2.0
2021-09-23 13:31:23.878,1104.0,-10.0,40.0,1104.7696592502891,1,1,1,0.0,2.0
2021-09-23 13:31:23.888,1048.0,70.0,28.0,1050.708332507171,1,1,1,0.0,2.0
2021-09-23 13:31:23.898,972.0,-14.0,-34.0,972.6952246207442,1,1,1,0.0,2.0
2021-09-23 13:31:23.908,900.0,235.0,-23.0,930.4590265025108,1,1,1,0.0,2.0
2021-09-23 13:31:23.917,1060.0,168.0,-23.0,1073.4770607702803,1,1,1,0.0,2.0
2021-09-23 13:31:23.918,1060.0,168.0,40.0,1073.9757911610484,1,1,1,0.0,2.0
2021-09-23 13:31:23.927,1024.0,129.0,19.0,1032.268375956563,1,1,1,0.0,2.0
2021-09-23 13:31:23.937,921.0,191.0,19.0,940.7884990793629,1,1,1,0.0,2.0
2021-09-23 13:31:23.938,921.0,191.0,9.0,940.6396759652444,1,1,1,0.0,2.0
2021-09-23 13:31:23.947,918.0,-6.0,18.0,918.1960574953478,1,1,1,0.0,2.0
2021-09-23 13:31:23.957,1115.0,-173.0,19.0,1128.5012184308885,1,1,1,0.0,2.0
2021-09-23 13:31:23.967,1060.0,-81.0,44.0,1064.0004699247083,1,1,1,0.0,2.0
2021-09-23 13:31:23.976,907.0,-89.0,44.0,912.4176675185548,1,1,1,0.0,2.0
2021-09-23 13:31:23.977,907.0,-89.0,-38.0,912.148014304696,1,1,1,0.0,2.0
2021-09-23 13:31:23.986,1010.0,23.0,-3.0,1010.2663015264836,1,1,1,0.0,2.0
2021-09-23 13:31:23.995,1054.0,23.0,-3.0,1054.2551873242076,1,1,1,0.0,2.0
2021-09-23 13:31:23.996,1054.0,152.0,23.0,1065.1521018145718,1,1,1,0.0,2.0
2021-09-23 13:31:24.005,1030.0,173.0,23.0,1044.680812497291,1,1,1,0.0,2.0
2021-09-23 13:31:24.006,1030.0,173.0,39.0,1045.1554908242122,1,1,1,0.0,2.0
2021-09-23 13:31:24.016,981.0,-103.0,-22.0,986.6377248007498,1,1,1,0.0,2.0
2021-09-23 13:31:24.028,1003.0,-52.0,-22.0,1004.5879752415912,1,1,1,0.0,2.0
2021-09-23 13:31:24.029,1003.0,-52.0,-12.0,1004.4187373799832,1,1,1,0.0,2.0
2021-09-23 13:31:24.034,1099.0,-52.0,-12.0,1100.2949604537866,1,1,1,0.0,2.0
2021-09-23 13:31:24.035,1099.0,-59.0,23.0,1100.8228740356008,1,1,1,0.0,2.0
2021-09-23 13:31:24.044,1058.0,-178.0,23.0,1073.1155576171657,1,1,1,0.0,2.0
2021-09-23 13:31:24.045,1058.0,-178.0,8.0,1072.8988768751694,1,1,1,0.0,2.0
2021-09-23 13:31:24.054,864.0,-24.0,1.0,864.333847538091,1,1,1,0.0,2.0
2021-09-23 13:31:24.065,904.0,261.0,-29.0,941.3702778397032,1,1,1,0.0,2.0
2021-09-23 13:31:24.073,1047.0,261.0,-29.0,1079.4308685599092,1,1,1,0.0,2.0
2021-09-23 13:31:24.074,1047.0,220.0,31.0,1070.3130383210323,1,1,1,0.0,2.0
2021-09-23 13:31:24.083,1040.0,129.0,31.0,1048.4283475755508,1,1,1,0.0,2.0
2021-09-23 13:31:24.084,1040.0,129.0,17.0,1048.1078188812446,1,1,1,0.0,2.0
2021-09-23 13:31:24.094,906.0,203.0,-6.0,928.483171629944,1,1,1,0.0,2.0
2021-09-23 13:31:24.103,1097.0,47.0,5.0,1098.0177594192182,1,1,1,0.0,2.0
2021-09-23 13:31:24.113,1089.0,123.0,43.0,1096.767523224498,1,1,1,0.0,2.0
2021-09-23 13:31:24.122,1061.0,123.0,43.0,1068.9710005421102,1,1,1,0.0,2.0
2021-09-23 13:31:24.123,1061.0,-98.0,51.0,1066.7361435706582,1,1,1,0.0,2.0
2021-09-23 13:31:24.132,899.0,-97.0,-34.0,904.8568947629232,1,1,1,0.0,2.0
2021-09-23 13:31:24.142,1011.0,5.0,18.0,1011.1725866537324,1,1,1,0.0,2.0
2021-09-23 13:31:24.152,1027.0,162.0,25.0,1039.999038461094,1,1,1,0.0,2.0
2021-09-23 13:31:24.162,1003.0,81.0,-8.0,1006.2971728073172,1,1,1,0.0,2.0
2021-09-23 13:31:24.172,871.0,267.0,-31.0,911.5322265284974,1,1,1,0.0,2.0
2021-09-23 13:31:24.181,1026.0,-66.0,-27.0,1028.475084773569,1,1,1,0.0,2.0
2021-09-23 13:31:24.191,1076.0,-57.0,43.0,1078.3663570419842,1,1,1,0.0,2.0
2021-09-23 13:31:24.204,1043.0,-57.0,43.0,1045.4410552489317,1,1,1,0.0,2.0
2021-09-23 13:31:24.205,1043.0,-190.0,-4.0,1060.1721558313066,1,1,1,0.0,2.0
2021-09-23 13:31:24.210,892.0,-43.0,-11.0,893.103577419775,1,1,1,0.0,2.0
2021-09-23 13:31:24.220,1099.0,-151.0,34.0,1109.8459352540783,1,1,1,0.0,2.0
2021-09-23 13:31:24.231,1071.0,39.0,61.0,1073.4444559454391,1,1,1,0.0,2.0
2021-09-23 13:31:24.247,1029.0,133.0,26.0,1037.8853501230278,1,1,1,0.0,2.0
2021-09-23 13:31:24.249,911.0,215.0,26.0,936.3877402016752,1,1,1,0.0,2.0
2021-09-23 13:31:24.250,911.0,215.0,5.0,936.0400632451584,1,1,1,0.0,2.0
2021-09-23 13:31:24.259,1088.0,73.0,0.0,1090.446238931567,1,1,1,0.0,2.0
2021-09-23 13:31:24.269,1090.0,131.0,40.0,1098.5722552476918,1,1,1,0.0,2.0
2021-09-23 13:31:24.280,1013.0,-227.0,-25.0,1038.4233240831988,1,1,1,0.0,2.0
2021-09-23 13:31:24.288,935.0,-12.0,-25.0,935.4111395530844,1,1,1,0.0,2.0
2021-09-23 13:31:24.289,935.0,-12.0,-3.0,935.0818146023372,1,1,1,0.0,2.0
2021-09-23 13:31:24.298,1038.0,-29.0,5.0,1038.4170645747306,1,1,1,0.0,2.0
2021-09-23 13:31:24.308,1048.0,157.0,38.0,1060.3758767531444,1,1,1,0.0,2.0
2021-09-23 13:31:24.318,985.0,81.0,-12.0,988.3976932389108,1,1,1,0.0,2.0
2021-09-23 13:31:24.328,877.0,81.0,-12.0,880.8143958859891,1,1,1,0.0,2.0
2021-09-23 13:31:24.329,877.0,269.0,-26.0,917.6960281051672,1,1,1,0.0,2.0
2021-09-23 13:31:24.338,1088.0,159.0,32.0,1100.0222725017888,1,1,1,0.0,2.0
2021-09-23 13:31:24.347,1048.0,160.0,19.0,1060.313632846433,1,1,1,0.0,2.0
2021-09-23 13:31:24.357,955.0,-45.0,-11.0,956.1229000499884,1,1,1,0.0,2.0
2021-09-23 13:31:24.366,886.0,-45.0,-11.0,887.2102343864165,1,1,1,0.0,2.0
2021-09-23 13:31:24.367,886.0,-9.0,-14.0,886.1563067540625,1,1,1,0.0,2.0
2021-09-23 13:31:24.377,1091.0,-157.0,29.0,1102.6200614899042,1,1,1,0.0,2.0
2021-09-23 13:31:24.387,1069.0,-12.0,54.0,1070.4302873144052,1,1,1,0.0,2.0
2021-09-23 13:31:24.396,950.0,-43.0,-13.0,951.0615122062296,1,1,1,0.0,2.0
2021-09-23 13:31:24.406,944.0,169.0,-19.0,959.1965387760738,1,1,1,0.0,2.0
2021-09-23 13:31:24.415,1043.0,203.0,-19.0,1062.7412667248789,1,1,1,0.0,2.0
2021-09-23 13:31:24.416,1043.0,203.0,33.0,1063.0837220087608,1,1,1,0.0,2.0
2021-09-23 13:31:24.425,1077.0,144.0,43.0,1087.4345957343826,1,1,1,0.0,2.0
2021-09-23 13:31:24.436,1035.0,144.0,43.0,1045.8537182608284,1,1,1,0.0,2.0
2021-09-23 13:31:24.437,1035.0,-190.0,-34.0,1052.8442429913364,1,1,1,0.0,2.0
2021-09-23 13:31:24.445,957.0,-36.0,-28.0,958.08611303995,1,1,1,0.0,2.0
2021-09-23 13:31:24.454,1086.0,-155.0,-28.0,1097.362747681914,1,1,1,0.0,2.0
2021-09-23 13:31:24.455,1086.0,-155.0,20.0,1097.1877687980302,1,1,1,0.0,2.0
2021-09-23 13:31:24.464,1060.0,-146.0,22.0,1070.2336193560732,1,1,1,0.0,2.0
2021-09-23 13:31:24.474,898.0,-79.0,-29.0,901.9345874286006,1,1,1,0.0,2.0
2021-09-23 13:31:24.485,849.0,-79.0,-29.0,853.1605944955498,1,1,1,0.0,2.0
2021-09-23 13:31:24.486,849.0,330.0,-32.0,911.4411665050028,1,1,1,0.0,2.0
2021-09-23 13:31:24.494,1089.0,184.0,28.0,1104.7900252989252,1,1,1,0.0,2.0
2021-09-23 13:31:24.503,1062.0,144.0,22.0,1071.9440283895424,1,1,1,0.0,2.0
2021-09-23 13:31:24.513,948.0,-16.0,-10.0,948.187745122241,1,1,1,0.0,2.0
2021-09-23 13:31:24.523,1037.0,-18.0,-10.0,1037.2044157252706,1,1,1,0.0,2.0
2021-09-23 13:31:24.533,1080.0,-18.0,-10.0,1080.1962784605398,1,1,1,0.0,2.0
2021-09-23 13:31:24.534,1080.0,28.0,55.0,1081.7619886093244,1,1,1,0.0,2.0
2021-09-23 13:31:24.542,1057.0,-1.0,55.0,1058.4304417390877,1,1,1,0.0,2.0
2021-09-23 13:31:24.543,1057.0,-1.0,69.0,1059.250206514023,1,1,1,0.0,2.0
2021-09-23 13:31:24.552,911.0,-48.0,-22.0,912.528903651824,1,1,1,0.0,2.0
2021-09-23 13:31:24.569,967.0,-48.0,-22.0,968.4404989466312,1,1,1,0.0,2.0
2021-09-23 13:31:24.570,967.0,160.0,-8.0,980.1800854944972,1,1,1,0.0,2.0
2021-09-23 13:31:24.572,1046.0,211.0,40.0,1067.818804854082,1,1,1,0.0,2.0
2021-09-23 13:31:24.581,1027.0,106.0,40.0,1033.2303712144742,1,1,1,0.0,2.0
2021-09-23 13:31:24.582,1027.0,106.0,5.0,1032.4679171770908,1,1,1,0.0,2.0
2021-09-23 13:31:24.591,846.0,257.0,-4.0,884.1838044207776,1,1,1,0.0,2.0
2021-09-23 13:31:24.602,965.0,-49.0,-39.0,967.0299891937168,1,1,1,0.0,2.0
2021-09-23 13:31:24.611,1086.0,-142.0,26.0,1095.5528284843228,1,1,1,0.0,2.0
2021-09-23 13:31:24.621,1065.0,-165.0,20.0,1077.891460212947,1,1,1,0.0,2.0
2021-09-23 13:31:24.630,896.0,-62.0,20.0,898.3651818720492,1,1,1,0.0,2.0
2021-09-23 13:31:24.631,896.0,-62.0,-36.0,898.8637271577934,1,1,1,0.0,2.0
2021-09-23 13:31:24.641,1080.0,-93.0,2.0,1083.998616235279,1,1,1,0.0,2.0
2021-09-23 13:31:24.650,1043.0,128.0,41.0,1051.624457684396,1,1,1,0.0,2.0
2021-09-23 13:31:24.659,1062.0,128.0,41.0,1070.4713914906831,1,1,1,0.0,2.0
2021-09-23 13:31:24.660,1062.0,169.0,34.0,1075.9000882981654,1,1,1,0.0,2.0
2021-09-23 13:31:24.669,938.0,20.0,34.0,938.829057922687,1,1,1,0.0,2.0
2021-09-23 13:31:24.670,938.0,20.0,-9.0,938.2563615558385,1,1,1,0.0,2.0
2021-09-23 13:31:24.679,1051.0,22.0,-12.0,1051.2987206308203,1,1,1,0.0,2.0
2021-09-23 13:31:24.690,1074.0,24.0,56.0,1075.726731098563,1,1,1,0.0,2.0
2021-09-23 13:31:24.698,1054.0,24.0,56.0,1055.7594422973443,1,1,1,0.0,2.0
2021-09-23 13:31:24.699,1054.0,-244.0,-11.0,1081.9302195613172,1,1,1,0.0,2.0
2021-09-23 13:31:24.708,929.0,-55.0,-2.0,930.6288196697972,1,1,1,0.0,2.0
2021-09-23 13:31:24.718,972.0,135.0,-12.0,981.4035867063052,1,1,1,0.0,2.0
2021-09-23 13:31:24.728,1031.0,219.0,-12.0,1054.0711550934311,1,1,1,0.0,2.0
2021-09-23 13:31:24.729,1031.0,219.0,21.0,1054.2120280095462,1,1,1,0.0,2.0
2021-09-23 13:31:24.738,1014.0,125.0,4.0,1021.6834147621267,1,1,1,0.0,2.0
2021-09-23 13:31:24.749,876.0,241.0,-19.0,908.74528884611,1,1,1,0.0,2.0
2021-09-23 13:31:24.757,1108.0,120.0,43.0,1115.3084775074562,1,1,1,0.0,2.0
2021-09-23 13:31:24.767,1041.0,159.0,40.0,1053.832054930955,1,1,1,0.0,2.0
2021-09-23 13:31:24.777,1050.0,-183.0,23.0,1066.075982282689,1,1,1,0.0,2.0
2021-09-23 13:31:24.786,903.0,-183.0,23.0,921.6436404598036,1,1,1,0.0,2.0
2021-09-23 13:31:24.787,903.0,-57.0,-25.0,905.1425302127836,1,1,1,0.0,2.0
2021-09-23 13:31:24.804,1098.0,-116.0,-25.0,1104.3934987132077,1,1,1,0.0,2.0
2021-09-23 13:31:24.805,1098.0,-116.0,18.0,1104.257216412915,1,1,1,0.0,2.0
2021-09-23 13:31:24.807,1035.0,-116.0,18.0,1041.6357328740216,1,1,1,0.0,2.0
2021-09-23 13:31:24.808,1035.0,90.0,18.0,1039.0615958642684,1,1,1,0.0,2.0
2021-09-23 13:31:24.811,1035.0,90.0,33.0,1039.4296512992114,1,1,1,0.0,2.0
2021-09-23 13:31:24.831,964.0,26.0,-11.0,964.4132931477044,1,1,1,0.0,2.0
2021-09-23 13:31:24.840,1079.0,29.0,-11.0,1079.445691084086,1,1,1,0.0,2.0
2021-09-23 13:31:24.841,1079.0,29.0,0.0,1079.3896423442277,1,1,1,0.0,2.0
2021-09-23 13:31:24.849,1074.0,29.0,0.0,1074.3914556622274,1,1,1,0.0,2.0
2021-09-23 13:31:24.850,1074.0,65.0,48.0,1077.0352826161268,1,1,1,0.0,2.0
2021-09-23 13:31:24.860,1042.0,65.0,48.0,1045.128221798646,1,1,1,0.0,2.0
2021-09-23 13:31:24.861,1042.0,-253.0,-10.0,1072.3213137861244,1,1,1,0.0,2.0
2021-09-23 13:31:24.881,924.0,-65.0,4.0,926.2920705695368,1,1,1,0.0,2.0
2021-09-23 13:31:24.887,1061.0,-65.0,4.0,1062.9967074266976,1,1,1,0.0,2.0
2021-09-23 13:31:24.888,1061.0,-101.0,56.0,1067.2666021196392,1,1,1,0.0,2.0
2021-09-23 13:31:24.894,1016.0,128.0,-4.0,1024.0390617549704,1,1,1,0.0,2.0
2021-09-23 13:31:24.904,873.0,280.0,-44.0,917.8589216214004,1,1,1,0.0,2.0
2021-09-23 13:31:24.914,1099.0,160.0,35.0,1111.1372552479734,1,1,1,0.0,2.0
2021-09-23 13:31:24.924,1036.0,191.0,40.0,1054.2186680191164,1,1,1,0.0,2.0
2021-09-23 13:31:24.933,980.0,-72.0,-28.0,983.0401822916498,1,1,1,0.0,2.0
2021-09-23 13:31:24.943,1031.0,-51.0,-26.0,1032.5880107768055,1,1,1,0.0,2.0
2021-09-23 13:31:24.952,1094.0,-51.0,-26.0,1095.4966910036744,1,1,1,0.0,2.0
2021-09-23 13:31:24.953,1094.0,-153.0,32.0,1105.110401724642,1,1,1,0.0,2.0
2021-09-23 13:31:24.962,1078.0,23.0,32.0,1078.720074903587,1,1,1,0.0,2.0
2021-09-23 13:31:24.963,1078.0,23.0,62.0,1080.0263885665015,1,1,1,0.0,2.0
2021-09-23 13:31:24.973,952.0,-13.0,-27.0,952.471521883988,1,1,1,0.0,2.0
2021-09-23 13:31:24.982,899.0,244.0,-19.0,931.7177684256108,1,1,1,0.0,2.0
2021-09-23 13:31:24.992,1016.0,217.0,29.0,1039.3199699803713,1,1,1,0.0,2.0
2021-09-23 13:31:25.001,1037.0,163.0,29.0,1050.1328487386727,1,1,1,0.0,2.0
2021-09-23 13:31:25.002,1037.0,163.0,26.0,1050.054284311054,1,1,1,0.0,2.0
2021-09-23 13:31:25.011,1039.0,-282.0,-26.0,1076.903431139487,1,1,1,0.0,2.0
2021-09-23 13:31:25.022,933.0,-82.0,0.0,936.5964979648386,1,1,1,0.0,2.0
2021-09-23 13:31:25.032,1092.0,-178.0,25.0,1106.694628160813,1,1,1,0.0,2.0
2021-09-23 13:31:25.040,1066.0,-178.0,25.0,1081.0481025375327,1,1,1,0.0,2.0
2021-09-23 13:31:25.041,1066.0,-153.0,40.0,1077.6664604598216,1,1,1,0.0,2.0
2021-09-23 13:31:25.050,918.0,-121.0,40.0,926.803646950097,1,1,1,0.0,2.0
2021-09-23 13:31:25.051,918.0,-121.0,-30.0,926.4259279618636,1,1,1,0.0,2.0
2021-09-23 13:31:25.060,1027.0,3.0,12.0,1027.0744861011783,1,1,1,0.0,2.0
2021-09-23 13:31:25.070,1105.0,184.0,43.0,1121.0396959965333,1,1,1,0.0,2.0
2021-09-23 13:31:25.080,1039.0,201.0,29.0,1058.6609466680063,1,1,1,0.0,2.0
2021-09-23 13:31:25.089,982.0,-49.0,5.0,983.2344583058508,1,1,1,0.0,2.0
2021-09-23 13:31:25.099,1024.0,-39.0,-34.0,1025.3062956989977,1,1,1,0.0,2.0
2021-09-23 13:31:25.109,1109.0,-34.0,49.0,1110.6025391651146,1,1,1,0.0,2.0
2021-09-23 13:31:25.119,1057.0,-234.0,-3.0,1082.5959541768111,1,1,1,0.0,2.0
2021-09-23 13:31:25.129,956.0,-234.0,-3.0,984.2260919118128,1,1,1,0.0,2.0
2021-09-23 13:31:25.130,956.0,-28.0,-13.0,956.4983010962436,1,1,1,0.0,2.0
2021-09-23 13:31:25.138,941.0,195.0,-15.0,961.1092549757284,1,1,1,0.0,2.0
2021-09-23 13:31:25.148,1031.0,238.0,37.0,1058.7605961689355,1,1,1,0.0,2.0
2021-09-23 13:31:25.158,1027.0,124.0,8.0,1034.4897292868595,1,1,1,0.0,2.0
2021-09-23 13:31:25.167,874.0,124.0,8.0,882.7887629552157,1,1,1,0.0,2.0
2021-09-23 13:31:25.168,874.0,269.0,17.0,914.6179530273828,1,1,1,0.0,2.0
2021-09-23 13:31:25.181,1094.0,95.0,17.0,1098.2486057355138,1,1,1,0.0,2.0
2021-09-23 13:31:25.182,1094.0,95.0,21.0,1098.3178046449034,1,1,1,0.0,2.0
2021-09-23 13:31:25.187,1079.0,-160.0,21.0,1091.0004582950455,1,1,1,0.0,2.0
2021-09-23 13:31:25.188,1079.0,-160.0,20.0,1090.981668040302,1,1,1,0.0,2.0
2021-09-23 13:31:25.197,1074.0,-176.0,19.0,1088.491157520354,1,1,1,0.0,2.0
2021-09-23 13:31:25.206,916.0,-176.0,19.0,932.9485516361552,1,1,1,0.0,2.0
2021-09-23 13:31:25.207,916.0,-111.0,-28.0,923.1256685847276,1,1,1,0.0,2.0
2021-09-23 13:31:25.220,1060.0,-111.0,-28.0,1066.1636834932992,1,1,1,0.0,2.0
2021-09-23 13:31:25.221,1060.0,-76.0,-10.0,1062.768083826382,1,1,1,0.0,2.0
2021-09-23 13:31:25.226,995.0,138.0,26.0,1004.8606868616166,1,1,1,0.0,2.0
2021-09-23 13:31:25.236,971.0,109.0,-1.0,977.0992784768598,1,1,1,0.0,2.0
2021-09-23 13:31:25.246,977.0,15.0,0.0,977.115141628662,1,1,1,0.0,2.0
2021-09-23 13:31:25.263,1037.0,-1.0,-10.0,1037.0486970243971,1,1,1,0.0,2.0
2021-09-23 13:31:25.266,1108.0,-1.0,-10.0,1108.045576679949,1,1,1,0.0,2.0
2021-09-23 13:31:25.267,1108.0,-18.0,42.0,1108.941837969873,1,1,1,0.0,2.0
2021-09-23 13:31:25.275,1068.0,-233.0,0.0,1093.1207618557064,1,1,1,0.0,2.0
2021-09-23 13:31:25.285,919.0,-43.0,-6.0,920.0249996603352,1,1,1,0.0,2.0
2021-09-23 13:31:25.295,1098.0,-196.0,21.0,1115.5541223983712,1,1,1,0.0,2.0
2021-09-23 13:31:25.304,1029.0,-196.0,21.0,1047.7108379700956,1,1,1,0.0,2.0
2021-09-23 13:31:25.305,1029.0,227.0,23.0,1053.9919354530186,1,1,1,0.0,2.0
2021-09-23 13:31:25.314,1028.0,130.0,23.0,1036.4424730779804,1,1,1,0.0,2.0
2021-09-23 13:31:25.317,1028.0,130.0,10.0,1036.2354944702483,1,1,1,0.0,2.0
2021-09-23 13:31:25.324,856.0,277.0,0.0,899.7027286832024,1,1,1,0.0,2.0
2021-09-23 13:31:25.333,1101.0,103.0,0.0,1105.8073973346352,1,1,1,0.0,2.0
2021-09-23 13:31:25.334,1101.0,103.0,23.0,1106.0465632151297,1,1,1,0.0,2.0
2021-09-23 13:31:25.344,1058.0,143.0,33.0,1068.1301418834692,1,1,1,0.0,2.0
2021-09-23 13:31:25.354,1055.0,-197.0,-38.0,1073.9078172729724,1,1,1,0.0,2.0
2021-09-23 13:31:25.363,910.0,-112.0,-27.0,917.263866071263,1,1,1,0.0,2.0
2021-09-23 13:31:25.372,1065.0,-112.0,-27.0,1071.2133307609647,1,1,1,0.0,2.0
2021-09-23 13:31:25.373,1065.0,-118.0,9.0,1071.5549449281636,1,1,1,0.0,2.0
2021-09-23 13:31:25.382,1034.0,123.0,38.0,1041.983205238933,1,1,1,0.0,2.0
2021-09-23 13:31:25.393,952.0,60.0,-9.0,953.931339248271,1,1,1,0.0,2.0
2021-09-23 13:31:25.404,865.0,329.0,-32.0,926.007559364393,1,1,1,0.0,2.0
2021-09-23 13:31:25.411,1073.0,329.0,-32.0,1122.761773485364,1,1,1,0.0,2.0
2021-09-23 13:31:25.412,1073.0,225.0,35.0,1096.8951636323318,1,1,1,0.0,2.0
2021-09-23 13:31:25.421,1092.0,225.0,35.0,1115.4882339137423,1,1,1,0.0,2.0
2021-09-23 13:31:25.422,1092.0,43.0,61.0,1094.5473950450937,1,1,1,0.0,2.0
2021-09-23 13:31:25.431,1063.0,-239.0,-12.0,1089.6026798792302,1,1,1,0.0,2.0
2021-09-23 13:31:25.441,907.0,-17.0,7.0,907.1863094205072,1,1,1,0.0,2.0
2021-09-23 13:31:25.452,1095.0,-183.0,21.0,1110.3850683434102,1,1,1,0.0,2.0
2021-09-23 13:31:25.460,1057.0,-78.0,21.0,1060.082072294405,1,1,1,0.0,2.0
2021-09-23 13:31:25.461,1057.0,-78.0,63.0,1061.7447904275302,1,1,1,0.0,2.0
2021-09-23 13:31:25.470,910.0,-79.0,-43.0,914.434251327016,1,1,1,0.0,2.0
2021-09-23 13:31:25.480,848.0,263.0,-40.0,888.7479957783308,1,1,1,0.0,2.0
2021-09-23 13:31:25.490,1112.0,173.0,34.0,1125.890314373474,1,1,1,0.0,2.0
2021-09-23 13:31:25.500,1048.0,168.0,29.0,1061.7763417970848,1,1,1,0.0,2.0
2021-09-23 13:31:25.510,1005.0,168.0,29.0,1019.3576408699744,1,1,1,0.0,2.0
2021-09-23 13:31:25.511,1005.0,-63.0,-12.0,1007.044189695765,1,1,1,0.0,2.0
2021-09-23 13:31:25.519,997.0,-46.0,-28.0,998.4533038655338,1,1,1,0.0,2.0
2021-09-23 13:31:25.529,1116.0,-69.0,38.0,1118.7765639304391,1,1,1,0.0,2.0
2021-09-23 13:31:25.541,1073.0,67.0,61.0,1076.818926282409,1,1,1,0.0,2.0
2021-09-23 13:31:25.548,968.0,-20.0,-27.0,968.5829856031957,1,1,1,0.0,2.0
2021-09-23 13:31:25.560,905.0,246.0,-21.0,938.0735578833892,1,1,1,0.0,2.0
2021-09-23 13:31:25.568,1037.0,224.0,37.0,1061.562056593961,1,1,1,0.0,2.0
2021-09-23 13:31:25.586,1028.0,123.0,13.0,1035.4139268910767,1,1,1,0.0,2.0
2021-09-23 13:31:25.589,899.0,123.0,13.0,907.4684567520792,1,1,1,0.0,2.0
2021-09-23 13:31:25.590,899.0,224.0,-2.0,926.488532039118,1,1,1,0.0,2.0
2021-09-23 13:31:25.597,928.0,-33.0,-10.0,928.6404040316144,1,1,1,0.0,2.0
2021-09-23 13:31:25.607,1078.0,-148.0,21.0,1088.3147522660895,1,1,1,0.0,2.0
2021-09-23 13:31:25.618,1069.0,-101.0,45.0,1074.7032148458477,1,1,1,0.0,2.0
2021-09-23 13:31:25.626,917.0,-124.0,45.0,926.439420577514,1,1,1,0.0,2.0
2021-09-23 13:31:25.627,917.0,-124.0,-38.0,926.1258013898544,1,1,1,0.0,2.0
2021-09-23 13:31:25.636,1030.0,-7.0,4.0,1030.0315529147638,1,1,1,0.0,2.0
2021-09-23 13:31:25.646,1024.0,155.0,21.0,1035.8774058738804,1,1,1,0.0,2.0
2021-09-23 13:31:25.656,1031.0,175.0,25.0,1046.0454101041694,1,1,1,0.0,2.0
2021-09-23 13:31:25.666,981.0,-41.0,25.0,982.1746280575568,1,1,1,0.0,2.0
2021-09-23 13:31:25.667,981.0,-41.0,6.0,981.8747374283544,1,1,1,0.0,2.0
2021-09-23 13:31:25.675,992.0,-31.0,-28.0,992.879146724313,1,1,1,0.0,2.0
2021-09-23 13:31:25.685,1115.0,-25.0,57.0,1116.7358685024851,1,1,1,0.0,2.0
2021-09-23 13:31:25.695,1056.0,-212.0,-13.0,1077.148550572297,1,1,1,0.0,2.0
2021-09-23 13:31:25.705,916.0,-20.0,-1.0,916.218860316682,1,1,1,0.0,2.0
2021-09-23 13:31:25.715,943.0,199.0,-9.0,963.8106660542828,1,1,1,0.0,2.0
2021-09-23 13:31:25.724,1033.0,210.0,-9.0,1054.1679183128274,1,1,1,0.0,2.0
2021-09-23 13:31:25.725,1033.0,210.0,25.0,1054.42591015206,1,1,1,0.0,2.0
2021-09-23 13:31:25.734,1029.0,128.0,15.0,1037.0390542308423,1,1,1,0.0,2.0
2021-09-23 13:31:25.744,851.0,255.0,0.0,888.3839260139729,1,1,1,0.0,2.0
2021-09-23 13:31:25.754,1117.0,87.0,0.0,1120.382970238302,1,1,1,0.0,2.0
2021-09-23 13:31:25.755,1117.0,87.0,18.0,1120.5275543243013,1,1,1,0.0,2.0
2021-09-23 13:31:25.763,1060.0,161.0,48.0,1073.2311027919384,1,1,1,0.0,2.0
2021-09-23 13:31:25.774,1061.0,-142.0,26.0,1070.7758869156514,1,1,1,0.0,2.0
2021-09-23 13:31:25.783,903.0,-70.0,-36.0,906.4242935844118,1,1,1,0.0,2.0
2021-09-23 13:31:25.792,1072.0,-79.0,-36.0,1075.5096466327022,1,1,1,0.0,2.0
2021-09-23 13:31:25.793,1072.0,-79.0,24.0,1075.1748694979808,1,1,1,0.0,2.0
2021-09-23 13:31:25.802,1029.0,119.0,32.0,1036.3522567158332,1,1,1,0.0,2.0
2021-09-23 13:31:25.818,951.0,46.0,-4.0,952.1202655127134,1,1,1,0.0,2.0
2021-09-23 13:31:25.822,861.0,319.0,-37.0,918.9401503906552,1,1,1,0.0,2.0
2021-09-23 13:31:25.831,1046.0,-2.0,-37.0,1046.6561039806722,1,1,1,0.0,2.0
2021-09-23 13:31:25.832,1046.0,-2.0,-11.0,1046.0597497275191,1,1,1,0.0,2.0
2021-09-23 13:31:25.841,1081.0,24.0,61.0,1082.9856878094004,1,1,1,0.0,2.0
2021-09-23 13:31:25.851,1070.0,24.0,61.0,1072.006063415688,1,1,1,0.0,2.0
2021-09-23 13:31:25.852,1070.0,-218.0,-24.0,1092.245393673052,1,1,1,0.0,2.0
2021-09-23 13:31:25.861,904.0,-2.0,-4.0,904.0110618792228,1,1,1,0.0,2.0
2021-09-23 13:31:25.870,1097.0,-2.0,-4.0,1097.0091157324082,1,1,1,0.0,2.0
2021-09-23 13:31:25.871,1097.0,-168.0,28.0,1110.1427836093878,1,1,1,0.0,2.0
2021-09-23 13:31:25.880,1049.0,-16.0,28.0,1049.495593130338,1,1,1,0.0,2.0
2021-09-23 13:31:25.881,1049.0,-16.0,68.0,1051.323451655103,1,1,1,0.0,2.0
2021-09-23 13:31:25.890,1043.0,146.0,7.0,1053.192290135092,1,1,1,0.0,2.0
2021-09-23 13:31:25.900,836.0,291.0,7.0,885.2265246816771,1,1,1,0.0,2.0
2021-09-23 13:31:25.901,836.0,291.0,-19.0,885.4027332237008,1,1,1,0.0,2.0
2021-09-23 13:31:25.911,1109.0,128.0,31.0,1116.7927292026932,1,1,1,0.0,2.0
2021-09-23 13:31:25.919,1041.0,147.0,31.0,1051.7846737807126,1,1,1,0.0,2.0
2021-09-23 13:31:25.920,1041.0,147.0,40.0,1052.088399327737,1,1,1,0.0,2.0
2021-09-23 13:31:25.929,1024.0,-125.0,40.0,1032.3763848519588,1,1,1,0.0,2.0
2021-09-23 13:31:25.930,1024.0,-125.0,-19.0,1031.776138510675,1,1,1,0.0,2.0
2021-09-23 13:31:25.939,987.0,-77.0,-33.0,990.5488377662152,1,1,1,0.0,2.0
2021-09-23 13:31:25.949,1082.0,-112.0,22.0,1088.003676464377,1,1,1,0.0,2.0
2021-09-23 13:31:25.960,1053.0,95.0,38.0,1057.9593564972145,1,1,1,0.0,2.0
2021-09-23 13:31:25.968,962.0,95.0,38.0,967.425966159685,1,1,1,0.0,2.0
2021-09-23 13:31:25.969,962.0,14.0,-8.0,962.1351256450416,1,1,1,0.0,2.0
2021-09-23 13:31:25.978,887.0,302.0,-41.0,937.8987152139616,1,1,1,0.0,2.0
2021-09-23 13:31:25.988,1072.0,213.0,27.0,1093.2895316429222,1,1,1,0.0,2.0
2021-09-23 13:31:25.997,1036.0,213.0,27.0,1058.0141775987693,1,1,1,0.0,2.0
2021-09-23 13:31:25.998,1036.0,169.0,24.0,1049.9680947533595,1,1,1,0.0,2.0
2021-09-23 13:31:26.008,1029.0,-300.0,-18.0,1071.9911380230717,1,1,1,0.0,2.0
2021-09-23 13:31:26.018,944.0,-53.0,15.0,945.605626040793,1,1,1,0.0,2.0
2021-09-23 13:31:26.027,1101.0,-207.0,19.0,1120.4512483816509,1,1,1,0.0,2.0
2021-09-23 13:31:26.036,1069.0,-207.0,19.0,1089.022956599171,1,1,1,0.0,2.0
2021-09-23 13:31:26.037,1069.0,-60.0,50.0,1071.8493364274664,1,1,1,0.0,2.0
2021-09-23 13:31:26.046,908.0,-87.0,-47.0,913.3684908075164,1,1,1,0.0,2.0
2021-09-23 13:31:26.056,1022.0,74.0,14.0,1024.771193974538,1,1,1,0.0,2.0
2021-09-23 13:31:26.067,1121.0,74.0,14.0,1123.5270357227726,1,1,1,0.0,2.0
2021-09-23 13:31:26.068,1121.0,198.0,32.0,1138.8015630477507,1,1,1,0.0,2.0
2021-09-23 13:31:26.076,1016.0,194.0,30.0,1034.7908001137234,1,1,1,0.0,2.0
2021-09-23 13:31:26.085,1002.0,-80.0,30.0,1005.6361170920622,1,1,1,0.0,2.0
2021-09-23 13:31:26.086,1002.0,-80.0,-1.0,1005.1890369477773,1,1,1,0.0,2.0
2021-09-23 13:31:26.095,1001.0,-55.0,-29.0,1002.929209864784,1,1,1,0.0,2.0
2021-09-23 13:31:26.105,1105.0,-62.0,-29.0,1107.1178799025874,1,1,1,0.0,2.0
2021-09-23 13:31:26.106,1105.0,-62.0,40.0,1107.4606087802852,1,1,1,0.0,2.0
2021-09-23 13:31:26.115,1060.0,-169.0,40.0,1074.1326733695423,1,1,1,0.0,2.0
2021-09-23 13:31:26.116,1060.0,-169.0,-14.0,1073.478923873217,1,1,1,0.0,2.0
2021-09-23 13:31:26.124,956.0,-169.0,-14.0,970.9237869163574,1,1,1,0.0,2.0
2021-09-23 13:31:26.125,956.0,-18.0,-14.0,956.2719278531604,1,1,1,0.0,2.0
2021-09-23 13:31:26.134,937.0,238.0,-14.0,966.8552114975644,1,1,1,0.0,2.0
2021-09-23 13:31:26.144,1030.0,246.0,27.0,1059.31345691443,1,1,1,0.0,2.0
2021-09-23 13:31:26.154,1035.0,160.0,17.0,1047.4320980378632,1,1,1,0.0,2.0
2021-09-23 13:31:26.164,869.0,295.0,-3.0,917.7118284080248,1,1,1,0.0,2.0
2021-09-23 13:31:26.176,1101.0,124.0,24.0,1108.220645900445,1,1,1,0.0,2.0
2021-09-23 13:31:26.183,1096.0,124.0,24.0,1103.2533707177151,1,1,1,0.0,2.0
2021-09-23 13:31:26.184,1096.0,-171.0,26.0,1109.5643289147322,1,1,1,0.0,2.0
2021-09-23 13:31:26.193,1037.0,-133.0,22.0,1045.725585419043,1,1,1,0.0,2.0
2021-09-23 13:31:26.203,920.0,-96.0,-22.0,925.2567211320328,1,1,1,0.0,2.0
2021-09-23 13:31:26.213,1053.0,-96.0,-22.0,1057.5958585395465,1,1,1,0.0,2.0
2021-09-23 13:31:26.214,1053.0,-69.0,7.0,1055.281479037702,1,1,1,0.0,2.0
2021-09-23 13:31:26.223,1038.0,142.0,28.0,1048.0419838918667,1,1,1,0.0,2.0
2021-09-23 13:31:26.232,1067.0,200.0,3.0,1085.5864774397294,1,1,1,0.0,2.0
2021-09-23 13:31:26.246,967.0,29.0,0.0,967.4347523218296,1,1,1,0.0,2.0
2021-09-23 13:31:26.251,1046.0,29.0,0.0,1046.4019304263538,1,1,1,0.0,2.0
2021-09-23 13:31:26.252,1046.0,-13.0,-20.0,1046.271953174699,1,1,1,0.0,2.0
2021-09-23 13:31:26.262,1112.0,-3.0,54.0,1113.3144209970517,1,1,1,0.0,2.0
2021-09-23 13:31:26.278,1050.0,-3.0,54.0,1051.3919345325037,1,1,1,0.0,2.0
2021-09-23 13:31:26.279,1050.0,-238.0,-8.0,1076.6652218772556,1,1,1,0.0,2.0
2021-09-23 13:31:26.281,930.0,-45.0,3.0,931.0929062129084,1,1,1,0.0,2.0
2021-09-23 13:31:26.290,982.0,177.0,3.0,997.8286426035284,1,1,1,0.0,2.0
2021-09-23 13:31:26.291,982.0,177.0,0.0,997.824132800966,1,1,1,0.0,2.0
2021-09-23 13:31:26.300,1014.0,177.0,0.0,1029.3323078578658,1,1,1,0.0,2.0
2021-09-23 13:31:26.301,1014.0,230.0,27.0,1040.108167451828,1,1,1,0.0,2.0
2021-09-23 13:31:26.310,1045.0,164.0,27.0,1058.1351520481685,1,1,1,0.0,2.0
2021-09-23 13:31:26.311,1045.0,164.0,10.0,1057.837889281718,1,1,1,0.0,2.0
2021-09-23 13:31:26.320,843.0,264.0,-9.0,883.4172287203821,1,1,1,0.0,2.0
2021-09-23 13:31:26.329,1113.0,264.0,-9.0,1143.9169550277677,1,1,1,0.0,2.0
2021-09-23 13:31:26.330,1113.0,136.0,26.0,1121.579689545063,1,1,1,0.0,2.0
2021-09-23 13:31:26.339,1021.0,181.0,26.0,1037.2453904452889,1,1,1,0.0,2.0
2021-09-23 13:31:26.340,1021.0,181.0,40.0,1037.690705364561,1,1,1,0.0,2.0
2021-09-23 13:31:26.350,1029.0,-168.0,20.0,1042.815899380135,1,1,1,0.0,2.0
2021-09-23 13:31:26.359,899.0,-59.0,-27.0,901.3384491965268,1,1,1,0.0,2.0
2021-09-23 13:31:26.370,1089.0,-97.0,25.0,1093.5972750514698,1,1,1,0.0,2.0
2021-09-23 13:31:26.378,1051.0,101.0,25.0,1056.1377751032296,1,1,1,0.0,2.0
2021-09-23 13:31:26.379,1051.0,101.0,43.0,1056.717086073657,1,1,1,0.0,2.0
2021-09-23 13:31:26.391,952.0,35.0,-7.0,952.6688826659556,1,1,1,0.0,2.0
2021-09-23 13:31:26.398,882.0,320.0,-38.0,939.025026290567,1,1,1,0.0,2.0
2021-09-23 13:31:26.407,1059.0,320.0,-38.0,1106.9439913563829,1,1,1,0.0,2.0
2021-09-23 13:31:26.408,1059.0,12.0,-20.0,1059.256814941495,1,1,1,0.0,2.0
2021-09-23 13:31:26.418,1098.0,52.0,76.0,1101.854799871562,1,1,1,0.0,2.0
2021-09-23 13:31:26.427,1026.0,-276.0,-21.0,1062.6819844149047,1,1,1,0.0,2.0
2021-09-23 13:31:26.437,927.0,-41.0,8.0,927.940730865932,1,1,1,0.0,2.0
2021-09-23 13:31:26.446,1076.0,-41.0,8.0,1076.810568298807,1,1,1,0.0,2.0
2021-09-23 13:31:26.447,1076.0,-203.0,11.0,1095.0369856767395,1,1,1,0.0,2.0
2021-09-23 13:31:26.457,1063.0,-71.0,11.0,1065.4252672055418,1,1,1,0.0,2.0
2021-09-23 13:31:26.458,1063.0,-71.0,55.0,1066.7872327694963,1,1,1,0.0,2.0
2021-09-23 13:31:26.469,1037.0,126.0,4.0,1044.6343858020375,1,1,1,0.0,2.0
2021-09-23 13:31:26.476,838.0,265.0,-40.0,879.8119117174989,1,1,1,0.0,2.0
2021-09-23 13:31:26.486,1114.0,149.0,25.0,1124.1983810698182,1,1,1,0.0,2.0
2021-09-23 13:31:26.495,1018.0,149.0,25.0,1029.1501348199884,1,1,1,0.0,2.0
2021-09-23 13:31:26.496,1018.0,170.0,28.0,1032.4766341181771,1,1,1,0.0,2.0
2021-09-23 13:31:26.505,1010.0,-60.0,28.0,1012.1679702499976,1,1,1,0.0,2.0
2021-09-23 13:31:26.506,1010.0,-60.0,0.0,1011.7806086301516,1,1,1,0.0,2.0
2021-09-23 13:31:26.515,989.0,-42.0,-31.0,990.3766960101595,1,1,1,0.0,2.0
2021-09-23 13:31:26.526,1081.0,-146.0,35.0,1091.3761954523288,1,1,1,0.0,2.0
2021-09-23 13:31:26.534,1067.0,67.0,35.0,1069.674249479719,1,1,1,0.0,2.0
2021-09-23 13:31:26.535,1067.0,67.0,56.0,1070.5671394172343,1,1,1,0.0,2.0
2021-09-23 13:31:26.544,975.0,6.0,-19.0,975.2035684922404,1,1,1,0.0,2.0
2021-09-23 13:31:26.554,920.0,245.0,-33.0,952.635292228878,1,1,1,0.0,2.0
2021-09-23 13:31:26.564,1027.0,271.0,40.0,1062.9063928681585,1,1,1,0.0,2.0
2021-09-23 13:31:26.575,1040.0,158.0,10.0,1051.9809884213687,1,1,1,0.0,2.0
2021-09-23 13:31:26.583,1048.0,-268.0,-33.0,1082.2277948749977,1,1,1,0.0,2.0
2021-09-23 13:31:26.603,925.0,-20.0,-33.0,925.8045150030324,1,1,1,0.0,2.0
2021-09-23 13:31:26.604,925.0,-20.0,-4.0,925.2248375395033,1,1,1,0.0,2.0
2021-09-23 13:31:26.606,1081.0,-138.0,15.0,1089.8761397516691,1,1,1,0.0,2.0
2021-09-23 13:31:26.613,1070.0,-82.0,15.0,1073.24228392288,1,1,1,0.0,2.0
2021-09-23 13:31:26.614,1070.0,-82.0,39.0,1073.8458921092915,1,1,1,0.0,2.0
2021-09-23 13:31:26.622,918.0,-82.0,39.0,922.4798100771636,1,1,1,0.0,2.0
2021-09-23 13:31:26.623,918.0,-100.0,-42.0,924.3852010931372,1,1,1,0.0,2.0
2021-09-23 13:31:26.632,1047.0,-25.0,8.0,1047.3289836531785,1,1,1,0.0,2.0
2021-09-23 13:31:26.642,1121.0,196.0,45.0,1138.895078573966,1,1,1,0.0,2.0
2021-09-23 13:31:26.652,1019.0,170.0,7.0,1033.1069644523743,1,1,1,0.0,2.0
2021-09-23 13:31:26.661,970.0,170.0,7.0,984.8091185605464,1,1,1,0.0,2.0
2021-09-23 13:31:26.662,970.0,-23.0,4.0,970.2808871661856,1,1,1,0.0,2.0
2021-09-23 13:31:26.673,1015.0,-18.0,-21.0,1015.3767773590256,1,1,1,0.0,2.0
2021-09-23 13:31:26.681,1110.0,-19.0,64.0,1112.005845308378,1,1,1,0.0,2.0
2021-09-23 13:31:26.691,1050.0,-237.0,-21.0,1076.6197100183515,1,1,1,0.0,2.0
2021-09-23 13:31:26.700,933.0,-237.0,-21.0,962.859802878903,1,1,1,0.0,2.0
2021-09-23 13:31:26.701,933.0,-41.0,-29.0,934.3505766038784,1,1,1,0.0,2.0
2021-09-23 13:31:26.710,968.0,164.0,-15.0,981.908855240648,1,1,1,0.0,2.0
2021-09-23 13:31:26.722,1019.0,215.0,29.0,1041.8382791969202,1,1,1,0.0,2.0
2021-09-23 13:31:26.730,1051.0,113.0,9.0,1057.0955491345142,1,1,1,0.0,2.0
2021-09-23 13:31:26.739,840.0,113.0,9.0,847.6142990771215,1,1,1,0.0,2.0
2021-09-23 13:31:26.740,840.0,249.0,-5.0,876.1426824439043,1,1,1,0.0,2.0
2021-09-23 13:31:26.749,1119.0,93.0,23.0,1123.093495662761,1,1,1,0.0,2.0
2021-09-23 13:31:26.759,1098.0,-122.0,10.0,1104.8022447479009,1,1,1,0.0,2.0
2021-09-23 13:31:26.770,1050.0,-146.0,31.0,1060.5550433617295,1,1,1,0.0,2.0
2021-09-23 13:31:26.779,882.0,-46.0,-25.0,883.5524885370421,1,1,1,0.0,2.0
2021-09-23 13:31:26.788,1073.0,-104.0,-25.0,1078.3181348748617,1,1,1,0.0,2.0
2021-09-23 13:31:26.789,1073.0,-104.0,34.0,1078.5643235338357,1,1,1,0.0,2.0
2021-09-23 13:31:26.798,1048.0,91.0,48.0,1053.0379860194978,1,1,1,0.0,2.0
2021-09-23 13:31:26.808,943.0,39.0,1.0,943.806653928653,1,1,1,0.0,2.0
2021-09-23 13:31:26.818,951.0,94.0,1.0,955.6348675095524,1,1,1,0.0,2.0
2021-09-23 13:31:26.819,951.0,94.0,-2.0,955.636437145424,1,1,1,0.0,2.0
2021-09-23 13:31:26.827,1055.0,94.0,-2.0,1059.1812875990588,1,1,1,0.0,2.0
2021-09-23 13:31:26.828,1055.0,7.0,-15.0,1055.1298498289204,1,1,1,0.0,2.0
2021-09-23 13:31:26.843,1079.0,52.0,-15.0,1080.3564226680007,1,1,1,0.0,2.0
2021-09-23 13:31:26.844,1079.0,52.0,67.0,1082.328046388894,1,1,1,0.0,2.0
2021-09-23 13:31:26.848,1024.0,-259.0,-22.0,1056.4757451072885,1,1,1,0.0,2.0
2021-09-23 13:31:26.857,907.0,-30.0,12.0,907.5753412251788,1,1,1,0.0,2.0
2021-09-23 13:31:26.867,1088.0,-168.0,22.0,1101.113981384307,1,1,1,0.0,2.0
2021-09-23 13:31:26.878,1018.0,217.0,16.0,1040.9942362952831,1,1,1,0.0,2.0
2021-09-23 13:31:26.886,1045.0,138.0,5.0,1054.0844368455498,1,1,1,0.0,2.0
2021-09-23 13:31:26.896,841.0,240.0,-28.0,875.0228568443226,1,1,1,0.0,2.0
2021-09-23 13:31:26.906,1123.0,130.0,28.0,1130.846143381141,1,1,1,0.0,2.0
2021-09-23 13:31:26.915,1015.0,156.0,28.0,1027.299858853295,1,1,1,0.0,2.0
2021-09-23 13:31:26.916,1015.0,156.0,40.0,1027.6969397638586,1,1,1,0.0,2.0
2021-09-23 13:31:26.927,1025.0,-106.0,-6.0,1030.4838669285414,1,1,1,0.0,2.0
2021-09-23 13:31:26.935,880.0,-30.0,-6.0,880.5316575796693,1,1,1,0.0,2.0
2021-09-23 13:31:26.945,1085.0,-161.0,32.0,1097.3468002413822,1,1,1,0.0,2.0
2021-09-23 13:31:26.954,1056.0,94.0,32.0,1060.658286160062,1,1,1,0.0,2.0
2021-09-23 13:31:26.955,1056.0,94.0,45.0,1061.1300580042014,1,1,1,0.0,2.0
2021-09-23 13:31:26.964,974.0,7.0,-17.0,974.1734958414748,1,1,1,0.0,2.0
2021-09-23 13:31:26.975,899.0,286.0,-22.0,943.6530082609814,1,1,1,0.0,2.0
2021-09-23 13:31:26.984,1033.0,234.0,24.0,1059.443721959784,1,1,1,0.0,2.0
2021-09-23 13:31:26.993,1089.0,85.0,24.0,1092.575855490135,1,1,1,0.0,2.0
2021-09-23 13:31:26.994,1089.0,85.0,55.0,1093.6960272397446,1,1,1,0.0,2.0
2021-09-23 13:31:27.003,1043.0,-304.0,-48.0,1087.459884317578,1,1,1,0.0,2.0
2021-09-23 13:31:27.014,909.0,-30.0,16.0,909.6356413421804,1,1,1,0.0,2.0
2021-09-23 13:31:27.023,1102.0,-157.0,12.0,1113.1922565307395,1,1,1,0.0,2.0
2021-09-23 13:31:27.033,1066.0,-58.0,53.0,1068.8914818633368,1,1,1,0.0,2.0
2021-09-23 13:31:27.042,896.0,-114.0,-50.0,904.605991578654,1,1,1,0.0,2.0
2021-09-23 13:31:27.052,843.0,275.0,-55.0,888.425010904128,1,1,1,0.0,2.0
2021-09-23 13:31:27.062,1127.0,166.0,36.0,1139.7284764363835,1,1,1,0.0,2.0
2021-09-23 13:31:27.073,1011.0,171.0,37.0,1026.0268027688169,1,1,1,0.0,2.0
2021-09-23 13:31:27.081,983.0,-42.0,37.0,984.5923014121124,1,1,1,0.0,2.0
2021-09-23 13:31:27.082,983.0,-42.0,14.0,983.9964430830022,1,1,1,0.0,2.0
2021-09-23 13:31:27.091,992.0,-54.0,-30.0,993.921526077386,1,1,1,0.0,2.0
2021-09-23 13:31:27.101,1130.0,-73.0,51.0,1133.5034186097544,1,1,1,0.0,2.0
2021-09-23 13:31:27.111,1087.0,30.0,63.0,1089.237347872354,1,1,1,0.0,2.0
2021-09-23 13:31:27.121,943.0,30.0,63.0,945.5781300347423,1,1,1,0.0,2.0
2021-09-23 13:31:27.122,943.0,-26.0,-26.0,943.7165888125523,1,1,1,0.0,2.0
2021-09-23 13:31:27.130,936.0,263.0,-13.0,972.334304650412,1,1,1,0.0,2.0
2021-09-23 13:31:27.140,1008.0,237.0,-13.0,1035.5684429336382,1,1,1,0.0,2.0
2021-09-23 13:31:27.141,1008.0,237.0,23.0,1035.7422459280108,1,1,1,0.0,2.0
2021-09-23 13:31:27.150,1046.0,118.0,8.0,1052.6651889371092,1,1,1,0.0,2.0
2021-09-23 13:31:27.159,859.0,118.0,8.0,867.1038000147387,1,1,1,0.0,2.0
2021-09-23 13:31:27.160,859.0,296.0,10.0,908.6236844810948,1,1,1,0.0,2.0
2021-09-23 13:31:27.170,925.0,-23.0,10.0,925.339937536471,1,1,1,0.0,2.0
2021-09-23 13:31:27.171,925.0,-23.0,-2.0,925.2880632538172,1,1,1,0.0,2.0
2021-09-23 13:31:27.181,1071.0,-23.0,-2.0,1071.2488039666605,1,1,1,0.0,2.0
2021-09-23 13:31:27.182,1071.0,-164.0,9.0,1083.521111930912,1,1,1,0.0,2.0
2021-09-23 13:31:27.189,1081.0,-147.0,32.0,1091.4183432579828,1,1,1,0.0,2.0
2021-09-23 13:31:27.198,898.0,-147.0,32.0,910.5146896124191,1,1,1,0.0,2.0
2021-09-23 13:31:27.199,898.0,-107.0,-43.0,905.373955887842,1,1,1,0.0,2.0
2021-09-23 13:31:27.208,1064.0,-71.0,-43.0,1067.2328705582488,1,1,1,0.0,2.0
2021-09-23 13:31:27.209,1064.0,-71.0,20.0,1066.55379611157,1,1,1,0.0,2.0
2021-09-23 13:31:27.219,1000.0,152.0,33.0,1012.0242091965982,1,1,1,0.0,2.0
2021-09-23 13:31:27.228,1043.0,176.0,10.0,1057.792512735839,1,1,1,0.0,2.0
2021-09-23 13:31:27.237,992.0,176.0,10.0,1007.5415624181466,1,1,1,0.0,2.0
2021-09-23 13:31:27.238,992.0,-11.0,10.0,992.1113848757104,1,1,1,0.0,2.0
2021-09-23 13:31:27.247,1006.0,-24.0,10.0,1006.335928008138,1,1,1,0.0,2.0
2021-09-23 13:31:27.248,1006.0,-24.0,-23.0,1006.5490549396984,1,1,1,0.0,2.0
2021-09-23 13:31:27.257,1117.0,-11.0,70.0,1119.2452814285168,1,1,1,0.0,2.0
2021-09-23 13:31:27.272,1066.0,-256.0,-20.0,1096.4907660349904,1,1,1,0.0,2.0
2021-09-23 13:31:27.277,917.0,-37.0,7.0,917.7728477134198,1,1,1,0.0,2.0
2021-09-23 13:31:27.294,999.0,184.0,-8.0,1015.8351244173436,1,1,1,0.0,2.0
2021-09-23 13:31:27.298,1010.0,228.0,20.0,1035.6080339587947,1,1,1,0.0,2.0
2021-09-23 13:31:27.306,1048.0,118.0,10.0,1054.6696165150488,1,1,1,0.0,2.0
2021-09-23 13:31:27.316,834.0,229.0,-25.0,865.2294493369952,1,1,1,0.0,2.0
2021-09-23 13:31:27.327,1137.0,145.0,41.0,1146.9415852605573,1,1,1,0.0,2.0
2021-09-23 13:31:27.335,1011.0,179.0,41.0,1027.5422132447893,1,1,1,0.0,2.0
2021-09-23 13:31:27.336,1011.0,179.0,42.0,1027.5826000862412,1,1,1,0.0,2.0
2021-09-23 13:31:27.345,1013.0,-189.0,4.0,1030.488233799882,1,1,1,0.0,2.0
2021-09-23 13:31:27.355,910.0,-24.0,-21.0,910.5586197494372,1,1,1,0.0,2.0
2021-09-23 13:31:27.364,1069.0,-24.0,-21.0,1069.475572418557,1,1,1,0.0,2.0
2021-09-23 13:31:27.365,1069.0,-132.0,20.0,1077.3045066275365,1,1,1,0.0,2.0
2021-09-23 13:31:27.375,1047.0,69.0,40.0,1050.0333328042495,1,1,1,0.0,2.0
2021-09-23 13:31:27.384,957.0,31.0,-2.0,957.5040469888364,1,1,1,0.0,2.0
2021-09-23 13:31:27.394,958.0,150.0,-2.0,969.6741720804984,1,1,1,0.0,2.0
2021-09-23 13:31:27.395,958.0,150.0,1.0,969.6726251678964,1,1,1,0.0,2.0
2021-09-23 13:31:27.403,1072.0,150.0,1.0,1082.4439939322497,1,1,1,0.0,2.0
2021-09-23 13:31:27.404,1072.0,34.0,-4.0,1072.5465024883536,1,1,1,0.0,2.0
2021-09-23 13:31:27.413,1086.0,34.0,-4.0,1086.5394608572667,1,1,1,0.0,2.0
2021-09-23 13:31:27.414,1086.0,92.0,67.0,1091.9473430527682,1,1,1,0.0,2.0
2021-09-23 13:31:27.423,1040.0,-321.0,-29.0,1088.7984202780606,1,1,1,0.0,2.0
2021-09-23 13:31:27.435,925.0,-27.0,27.0,925.787772656347,1,1,1,0.0,2.0
2021-09-23 13:31:27.443,1093.0,-186.0,1.0,1108.7136690778193,1,1,1,0.0,2.0
2021-09-23 13:31:27.453,996.0,193.0,7.0,1014.5511322747612,1,1,1,0.0,2.0
2021-09-23 13:31:27.463,891.0,-92.0,-48.0,897.0222962669322,1,1,1,0.0,2.0
2021-09-23 13:31:27.472,819.0,264.0,-73.0,863.5890226259247,1,1,1,0.0,2.0
2021-09-23 13:31:27.483,1145.0,161.0,40.0,1156.9554874756418,1,1,1,0.0,2.0
2021-09-23 13:31:27.491,1009.0,161.0,40.0,1022.5468204439344,1,1,1,0.0,2.0
2021-09-23 13:31:27.492,1009.0,187.0,24.0,1026.4628585584576,1,1,1,0.0,2.0
2021-09-23 13:31:27.501,997.0,-15.0,2.0,997.1148379198858,1,1,1,0.0,2.0
2021-09-23 13:31:27.511,883.0,-53.0,8.0,884.625344425537,1,1,1,0.0,2.0
2021-09-23 13:31:27.521,1075.0,-174.0,38.0,1089.653614686796,1,1,1,0.0,2.0
2021-09-23 13:31:27.531,1079.0,18.0,50.0,1080.307826501317,1,1,1,0.0,2.0
2021-09-23 13:31:27.540,947.0,-4.0,50.0,948.3274750844246,1,1,1,0.0,2.0
2021-09-23 13:31:27.541,947.0,-4.0,-14.0,947.1119258039148,1,1,1,0.0,2.0
2021-09-23 13:31:27.550,925.0,259.0,-23.0,960.8511851478356,1,1,1,0.0,2.0
2021-09-23 13:31:27.560,1007.0,271.0,-23.0,1043.0814925019042,1,1,1,0.0,2.0
2021-09-23 13:31:27.561,1007.0,271.0,26.0,1043.1519544150794,1,1,1,0.0,2.0
2021-09-23 13:31:27.570,1058.0,125.0,65.0,1067.339683512236,1,1,1,0.0,2.0
2021-09-23 13:31:27.579,1075.0,-363.0,65.0,1136.494170684566,1,1,1,0.0,2.0
2021-09-23 13:31:27.580,1075.0,-363.0,-53.0,1135.8710314115772,1,1,1,0.0,2.0
2021-09-23 13:31:27.590,943.0,-63.0,0.0,945.1021108853794,1,1,1,0.0,2.0
2021-09-23 13:31:27.599,1081.0,-228.0,-3.0,1104.7868572715734,1,1,1,0.0,2.0
2021-09-23 13:31:27.619,1050.0,-147.0,33.0,1060.753505768423,1,1,1,0.0,2.0
2021-09-23 13:31:27.621,907.0,-77.0,33.0,910.8605820870722,1,1,1,0.0,2.0
2021-09-23 13:31:27.622,907.0,-77.0,-29.0,910.7244369182152,1,1,1,0.0,2.0
2021-09-23 13:31:27.629,833.0,329.0,-41.0,896.5550736011703,1,1,1,0.0,2.0
2021-09-23 13:31:27.639,1106.0,229.0,52.0,1130.655119830977,1,1,1,0.0,2.0
2021-09-23 13:31:27.648,1057.0,176.0,10.0,1071.5992721162145,1,1,1,0.0,2.0
2021-09-23 13:31:27.657,976.0,176.0,10.0,991.7923169696364,1,1,1,0.0,2.0
2021-09-23 13:31:27.658,976.0,34.0,-2.0,976.594081489336,1,1,1,0.0,2.0
2021-09-23 13:31:27.667,1009.0,-7.0,-2.0,1009.02626328555,1,1,1,0.0,2.0
2021-09-23 13:31:27.668,1009.0,-7.0,-16.0,1009.1511284242812,1,1,1,0.0,2.0
2021-09-23 13:31:27.677,1135.0,-22.0,72.0,1137.4941758092657,1,1,1,0.0,2.0
2021-09-23 13:31:27.688,1097.0,-22.0,72.0,1099.580374506566,1,1,1,0.0,2.0
2021-09-23 13:31:27.689,1097.0,-9.0,78.0,1099.8063465901623,1,1,1,0.0,2.0
2021-09-23 13:31:27.696,897.0,-9.0,78.0,900.4298973268269,1,1,1,0.0,2.0
2021-09-23 13:31:27.697,897.0,-49.0,-35.0,899.018909701014,1,1,1,0.0,2.0
2021-09-23 13:31:27.706,995.0,215.0,-35.0,1018.5651672818976,1,1,1,0.0,2.0
2021-09-23 13:31:27.707,995.0,215.0,-14.0,1018.059919651098,1,1,1,0.0,2.0
2021-09-23 13:31:27.716,1020.0,283.0,19.0,1058.7020355132977,1,1,1,0.0,2.0
2021-09-23 13:31:27.726,1056.0,170.0,14.0,1069.687804922539,1,1,1,0.0,2.0
2021-09-23 13:31:27.736,835.0,170.0,14.0,852.2446831749671,1,1,1,0.0,2.0
2021-09-23 13:31:27.737,835.0,270.0,9.0,877.613810283316,1,1,1,0.0,2.0
2021-09-23 13:31:27.745,964.0,270.0,9.0,1001.1378526456784,1,1,1,0.0,2.0
2021-09-23 13:31:27.746,964.0,-128.0,-47.0,973.5959120703004,1,1,1,0.0,2.0
2021-09-23 13:31:27.755,1112.0,-198.0,5.0,1129.501217352155,1,1,1,0.0,2.0
2021-09-23 13:31:27.765,1019.0,-169.0,12.0,1032.9888673165844,1,1,1,0.0,2.0
2021-09-23 13:31:27.775,911.0,-53.0,-14.0,912.6477962500102,1,1,1,0.0,2.0
2021-09-23 13:31:27.785,1074.0,-115.0,21.0,1080.3434639039567,1,1,1,0.0,2.0
2021-09-23 13:31:27.795,1040.0,-115.0,21.0,1046.5495688212766,1,1,1,0.0,2.0
2021-09-23 13:31:27.796,1040.0,111.0,41.0,1046.7100840251803,1,1,1,0.0,2.0
2021-09-23 13:31:27.804,1057.0,157.0,-9.0,1068.634175010326,1,1,1,0.0,2.0
2021-09-23 13:31:27.814,958.0,74.0,0.0,960.8537870040374,1,1,1,0.0,2.0
2021-09-23 13:31:27.823,1035.0,74.0,0.0,1037.6420384699147,1,1,1,0.0,2.0
2021-09-23 13:31:27.824,1035.0,7.0,-12.0,1035.0932325157962,1,1,1,0.0,2.0
2021-09-23 13:31:27.833,1114.0,8.0,-12.0,1114.0933533595828,1,1,1,0.0,2.0
2021-09-23 13:31:27.834,1114.0,8.0,71.0,1116.2889410900746,1,1,1,0.0,2.0
2021-09-23 13:31:27.844,1047.0,-328.0,-9.0,1097.211921189339,1,1,1,0.0,2.0
2021-09-23 13:31:27.860,931.0,-35.0,-9.0,931.7011323380476,1,1,1,0.0,2.0
2021-09-23 13:31:27.861,931.0,-35.0,15.0,931.77840713337,1,1,1,0.0,2.0
2021-09-23 13:31:27.863,1007.0,136.0,26.0,1016.4747906367378,1,1,1,0.0,2.0
2021-09-23 13:31:27.872,986.0,207.0,26.0,1007.8298467499362,1,1,1,0.0,2.0
2021-09-23 13:31:27.873,986.0,207.0,10.0,1007.5440437023088,1,1,1,0.0,2.0
2021-09-23 13:31:27.883,1076.0,129.0,10.0,1083.751355247134,1,1,1,0.0,2.0
2021-09-23 13:31:27.884,1076.0,129.0,6.0,1083.7218277768516,1,1,1,0.0,2.0
2021-09-23 13:31:27.892,814.0,129.0,6.0,824.1801987429691,1,1,1,0.0,2.0
2021-09-23 13:31:27.893,814.0,254.0,-48.0,854.058546002556,1,1,1,0.0,2.0
2021-09-23 13:31:27.902,1118.0,154.0,45.0,1129.4534076268928,1,1,1,0.0,2.0
2021-09-23 13:31:27.911,1139.0,-113.0,45.0,1145.4758836396338,1,1,1,0.0,2.0
2021-09-23 13:31:27.912,1139.0,-113.0,20.0,1144.7663517067576,1,1,1,0.0,2.0
2021-09-23 13:31:27.921,1025.0,-224.0,20.0,1049.3812462589565,1,1,1,0.0,2.0
2021-09-23 13:31:27.922,1025.0,-224.0,-7.0,1049.213991519366,1,1,1,0.0,2.0
2021-09-23 13:31:27.932,885.0,-20.0,0.0,885.2259598543188,1,1,1,0.0,2.0
2021-09-23 13:31:27.943,1071.0,-151.0,38.0,1082.2596730914445,1,1,1,0.0,2.0
2021-09-23 13:31:27.950,1093.0,-151.0,38.0,1104.035325521788,1,1,1,0.0,2.0
2021-09-23 13:31:27.951,1093.0,44.0,42.0,1094.6912806814532,1,1,1,0.0,2.0
2021-09-23 13:31:27.960,959.0,-28.0,-10.0,959.4607860668408,1,1,1,0.0,2.0
2021-09-23 13:31:27.970,906.0,259.0,9.0,942.3364579596822,1,1,1,0.0,2.0
2021-09-23 13:31:27.980,1099.0,259.0,9.0,1129.1425950693738,1,1,1,0.0,2.0
2021-09-23 13:31:27.981,1099.0,37.0,1.0,1099.623117254271,1,1,1,0.0,2.0
2021-09-23 13:31:27.991,1082.0,37.0,1.0,1082.6329017723413,1,1,1,0.0,2.0
2021-09-23 13:31:27.992,1082.0,125.0,63.0,1091.0169567884818,1,1,1,0.0,2.0
2021-09-23 13:31:27.999,1056.0,-316.0,-48.0,1103.3113794391863,1,1,1,0.0,2.0
2021-09-23 13:31:28.009,928.0,-45.0,-2.0,929.0925680469088,1,1,1,0.0,2.0
2021-09-23 13:31:28.019,1058.0,-174.0,7.0,1072.2355151737886,1,1,1,0.0,2.0
2021-09-23 13:31:28.029,988.0,187.0,11.0,1005.601312648308,1,1,1,0.0,2.0
2021-09-23 13:31:28.039,1024.0,159.0,23.0,1036.5259282815844,1,1,1,0.0,2.0
2021-09-23 13:31:28.048,805.0,320.0,-53.0,867.8905460943794,1,1,1,0.0,2.0
2021-09-23 13:31:28.058,1136.0,190.0,51.0,1152.9080622495446,1,1,1,0.0,2.0
2021-09-23 13:31:28.068,1033.0,194.0,0.0,1051.0589897812586,1,1,1,0.0,2.0
2021-09-23 13:31:28.077,981.0,-2.0,0.0,981.0020387338652,1,1,1,0.0,2.0
2021-09-23 13:31:28.078,981.0,-2.0,3.0,981.0066258695708,1,1,1,0.0,2.0
2021-09-23 13:31:28.087,909.0,-24.0,3.0,909.3217252436016,1,1,1,0.0,2.0
2021-09-23 13:31:28.088,909.0,-24.0,0.0,909.3167764866104,1,1,1,0.0,2.0
2021-09-23 13:31:28.097,1044.0,-24.0,0.0,1044.2758256322895,1,1,1,0.0,2.0
2021-09-23 13:31:28.098,1044.0,-162.0,26.0,1056.814080148443,1,1,1,0.0,2.0
2021-09-23 13:31:28.107,1108.0,15.0,67.0,1110.1252181623477,1,1,1,0.0,2.0
2021-09-23 13:31:28.116,913.0,15.0,67.0,915.5779595424956,1,1,1,0.0,2.0
2021-09-23 13:31:28.117,913.0,-58.0,-27.0,915.2387666614652,1,1,1,0.0,2.0
2021-09-23 13:31:28.126,969.0,224.0,-27.0,994.92009729425,1,1,1,0.0,2.0
2021-09-23 13:31:28.127,969.0,224.0,-24.0,994.8432037260948,1,1,1,0.0,2.0
2021-09-23 13:31:28.136,994.0,224.0,-24.0,1019.2094976009594,1,1,1,0.0,2.0
2021-09-23 13:31:28.137,994.0,299.0,28.0,1038.374210003311,1,1,1,0.0,2.0
2021-09-23 13:31:28.147,1064.0,299.0,28.0,1105.5681797157515,1,1,1,0.0,2.0
2021-09-23 13:31:28.148,1064.0,144.0,52.0,1074.9586038541206,1,1,1,0.0,2.0
2021-09-23 13:31:28.156,1065.0,-259.0,-49.0,1097.1358165696715,1,1,1,0.0,2.0
2021-09-23 13:31:28.165,964.0,-259.0,-49.0,999.3888132253632,1,1,1,0.0,2.0
2021-09-23 13:31:28.166,964.0,-67.0,-28.0,966.7310898072948,1,1,1,0.0,2.0
2021-09-23 13:31:28.176,1104.0,-157.0,5.0,1115.1188277488636,1,1,1,0.0,2.0
2021-09-23 13:31:28.186,1043.0,-160.0,28.0,1055.572356591437,1,1,1,0.0,2.0
2021-09-23 13:31:28.197,915.0,-64.0,28.0,917.6627920974022,1,1,1,0.0,2.0
2021-09-23 13:31:28.198,915.0,-64.0,-23.0,917.5238416520848,1,1,1,0.0,2.0
2021-09-23 13:31:28.204,818.0,373.0,-23.0,899.3230787653567,1,1,1,0.0,2.0
2021-09-23 13:31:28.205,818.0,373.0,-48.0,900.309391265025,1,1,1,0.0,2.0
2021-09-23 13:31:28.214,1136.0,210.0,43.0,1156.0471443673912,1,1,1,0.0,2.0
2021-09-23 13:31:28.224,1048.0,150.0,-2.0,1058.6821997181212,1,1,1,0.0,2.0
2021-09-23 13:31:28.234,956.0,87.0,-4.0,959.9588532848686,1,1,1,0.0,2.0
2021-09-23 13:31:28.244,1044.0,19.0,-4.0,1044.180539945081,1,1,1,0.0,2.0
2021-09-23 13:31:28.245,1044.0,19.0,-5.0,1044.1848495357517,1,1,1,0.0,2.0
2021-09-23 13:31:28.253,1112.0,15.0,72.0,1114.4294504364104,1,1,1,0.0,2.0
2021-09-23 13:31:28.263,1071.0,-9.0,73.0,1073.5227058614084,1,1,1,0.0,2.0
2021-09-23 13:31:28.283,883.0,-84.0,-42.0,887.9802925741088,1,1,1,0.0,2.0
2021-09-23 13:31:28.285,1020.0,138.0,-5.0,1029.305105398783,1,1,1,0.0,2.0
2021-09-23 13:31:28.292,997.0,138.0,-5.0,1006.5177594061616,1,1,1,0.0,2.0
2021-09-23 13:31:28.293,997.0,251.0,12.0,1028.179945340309,1,1,1,0.0,2.0
2021-09-23 13:31:28.315,1056.0,116.0,-5.0,1062.363873632759,1,1,1,0.0,2.0
2021-09-23 13:31:28.316,814.0,244.0,-19.0,849.9958823429675,1,1,1,0.0,2.0
2021-09-23 13:31:28.323,965.0,-76.0,-24.0,968.2855983644496,1,1,1,0.0,2.0
2021-09-23 13:31:28.331,1128.0,-119.0,-24.0,1134.5135521447066,1,1,1,0.0,2.0
2021-09-23 13:31:28.332,1128.0,-119.0,16.0,1134.3725137713802,1,1,1,0.0,2.0
2021-09-23 13:31:28.341,1049.0,-214.0,2.0,1070.6077713149666,1,1,1,0.0,2.0
2021-09-23 13:31:28.351,875.0,-22.0,-18.0,875.4615925327621,1,1,1,0.0,2.0
2021-09-23 13:31:28.361,1094.0,-165.0,40.0,1107.0957501499136,1,1,1,0.0,2.0
2021-09-23 13:31:28.375,1078.0,75.0,46.0,1081.58448583548,1,1,1,0.0,2.0
2021-09-23 13:31:28.380,1072.0,140.0,4.0,1081.1105401391662,1,1,1,0.0,2.0
2021-09-23 13:31:28.390,926.0,205.0,-3.0,948.4250102143026,1,1,1,0.0,2.0
2021-09-23 13:31:28.400,1069.0,47.0,0.0,1070.0327097804068,1,1,1,0.0,2.0
2021-09-23 13:31:28.410,1087.0,84.0,66.0,1092.2366959592596,1,1,1,0.0,2.0
2021-09-23 13:31:28.419,1050.0,-351.0,-40.0,1107.8361792250694,1,1,1,0.0,2.0
2021-09-23 13:31:28.430,912.0,-40.0,6.0,912.8964892034584,1,1,1,0.0,2.0
2021-09-23 13:31:28.439,1039.0,21.0,15.0,1039.3204510640594,1,1,1,0.0,2.0
2021-09-23 13:31:28.449,993.0,21.0,15.0,993.3352908258116,1,1,1,0.0,2.0
2021-09-23 13:31:28.450,993.0,168.0,17.0,1007.254684774412,1,1,1,0.0,2.0
2021-09-23 13:31:28.458,1015.0,152.0,17.0,1026.458961673578,1,1,1,0.0,2.0
2021-09-23 13:31:28.459,1015.0,152.0,7.0,1026.3420482470744,1,1,1,0.0,2.0
2021-09-23 13:31:28.469,828.0,152.0,7.0,841.8651911084102,1,1,1,0.0,2.0
2021-09-23 13:31:28.470,828.0,310.0,-61.0,886.2307825843109,1,1,1,0.0,2.0
2021-09-23 13:31:28.478,1151.0,153.0,-61.0,1162.7256770193044,1,1,1,0.0,2.0
2021-09-23 13:31:28.479,1151.0,153.0,38.0,1161.7460996276252,1,1,1,0.0,2.0
2021-09-23 13:31:28.488,1012.0,197.0,19.0,1031.1711788059245,1,1,1,0.0,2.0
2021-09-23 13:31:28.497,1046.0,197.0,19.0,1064.5590636502984,1,1,1,0.0,2.0
2021-09-23 13:31:28.498,1046.0,-280.0,-25.0,1083.1163372417573,1,1,1,0.0,2.0
2021-09-23 13:31:28.507,896.0,-19.0,17.0,896.3626498242774,1,1,1,0.0,2.0
2021-09-23 13:31:28.518,1032.0,-181.0,24.0,1048.0271943036594,1,1,1,0.0,2.0
2021-09-23 13:31:28.527,1105.0,-6.0,64.0,1106.8681041569496,1,1,1,0.0,2.0
2021-09-23 13:31:28.536,902.0,-6.0,64.0,904.2875648818798,1,1,1,0.0,2.0
2021-09-23 13:31:28.537,902.0,-55.0,-32.0,904.24167123618,1,1,1,0.0,2.0
2021-09-23 13:31:28.546,845.0,265.0,6.0,885.5992321586554,1,1,1,0.0,2.0
2021-09-23 13:31:28.556,1104.0,51.0,21.0,1105.376858813319,1,1,1,0.0,2.0
2021-09-23 13:31:28.566,1037.0,177.0,50.0,1053.1846941538793,1,1,1,0.0,2.0
2021-09-23 13:31:28.580,1082.0,-212.0,-33.0,1103.0670877149769,1,1,1,0.0,2.0
2021-09-23 13:31:28.586,962.0,-96.0,-32.0,967.3076036091104,1,1,1,0.0,2.0
2021-09-23 13:31:28.595,1123.0,-147.0,2.0,1132.5820058609445,1,1,1,0.0,2.0
2021-09-23 13:31:28.605,1022.0,90.0,24.0,1026.235840340806,1,1,1,0.0,2.0
2021-09-23 13:31:28.616,962.0,81.0,23.0,965.6780001636156,1,1,1,0.0,2.0
2021-09-23 13:31:28.633,829.0,382.0,-39.0,913.6115148135996,1,1,1,0.0,2.0
2021-09-23 13:31:28.635,1111.0,213.0,-39.0,1131.9059148180118,1,1,1,0.0,2.0
2021-09-23 13:31:28.636,1111.0,213.0,28.0,1131.5803108926914,1,1,1,0.0,2.0
2021-09-23 13:31:28.644,1047.0,127.0,2.0,1054.6762536437425,1,1,1,0.0,2.0
2021-09-23 13:31:28.655,955.0,148.0,-6.0,966.4186463432916,1,1,1,0.0,2.0
2021-09-23 13:31:28.663,913.0,148.0,-6.0,924.9372951719484,1,1,1,0.0,2.0
2021-09-23 13:31:28.664,913.0,-60.0,6.0,914.9890709729816,1,1,1,0.0,2.0
2021-09-23 13:31:28.673,1057.0,-149.0,20.0,1067.6375789564547,1,1,1,0.0,2.0
2021-09-23 13:31:28.683,1071.0,-38.0,72.0,1074.089847266047,1,1,1,0.0,2.0
2021-09-23 13:31:28.693,899.0,-91.0,-50.0,904.9762427820964,1,1,1,0.0,2.0
2021-09-23 13:31:28.704,1029.0,97.0,13.0,1033.6435555838386,1,1,1,0.0,2.0
2021-09-23 13:31:28.714,971.0,204.0,2.0,992.2000806289022,1,1,1,0.0,2.0
2021-09-23 13:31:28.722,964.0,216.0,45.0,988.927196511452,1,1,1,0.0,2.0
2021-09-23 13:31:28.732,1047.0,-72.0,0.0,1049.4727247527685,1,1,1,0.0,2.0
2021-09-23 13:31:28.742,971.0,-63.0,-30.0,973.5039804746564,1,1,1,0.0,2.0
2021-09-23 13:31:28.751,1146.0,-106.0,33.0,1151.3648422633028,1,1,1,0.0,2.0
2021-09-23 13:31:28.762,1021.0,-246.0,33.0,1050.7359325729751,1,1,1,0.0,2.0
2021-09-23 13:31:28.763,1021.0,-246.0,-12.0,1050.286151484442,1,1,1,0.0,2.0
2021-09-23 13:31:28.771,892.0,-22.0,9.0,892.3166478330436,1,1,1,0.0,2.0
2021-09-23 13:31:28.780,886.0,-22.0,9.0,886.3187914063427,1,1,1,0.0,2.0
2021-09-23 13:31:28.781,886.0,321.0,-11.0,942.421349503501,1,1,1,0.0,2.0
2021-09-23 13:31:28.790,1022.0,280.0,-11.0,1059.719302457023,1,1,1,0.0,2.0
2021-09-23 13:31:28.791,1022.0,280.0,32.0,1060.145273064027,1,1,1,0.0,2.0
2021-09-23 13:31:28.801,1047.0,113.0,9.0,1053.118701761582,1,1,1,0.0,2.0
2021-09-23 13:31:28.811,870.0,309.0,11.0,923.3103486910564,1,1,1,0.0,2.0
2021-09-23 13:31:28.820,1094.0,30.0,7.0,1094.4336434887225,1,1,1,0.0,2.0
2021-09-23 13:31:28.829,1042.0,30.0,7.0,1042.45527481998,1,1,1,0.0,2.0
2021-09-23 13:31:28.830,1042.0,170.0,49.0,1056.9129576270698,1,1,1,0.0,2.0
2021-09-23 13:31:28.839,1075.0,-123.0,49.0,1083.1228000554693,1,1,1,0.0,2.0
2021-09-23 13:31:28.849,908.0,-114.0,-55.0,916.779690001911,1,1,1,0.0,2.0
2021-09-23 13:31:28.860,1062.0,-114.0,-55.0,1069.516245785916,1,1,1,0.0,2.0
2021-09-23 13:31:28.861,1062.0,-53.0,21.0,1063.5290311035235,1,1,1,0.0,2.0
2021-09-23 13:31:28.876,970.0,154.0,28.0,982.5477087653302,1,1,1,0.0,2.0
2021-09-23 13:31:28.880,1000.0,129.0,17.0,1008.429472000893,1,1,1,0.0,2.0
2021-09-23 13:31:28.888,826.0,336.0,-46.0,892.9098498728749,1,1,1,0.0,2.0
2021-09-23 13:31:28.898,989.0,-50.0,-38.0,990.991927313235,1,1,1,0.0,2.0
2021-09-23 13:31:28.910,1151.0,-85.0,63.0,1155.8524992402793,1,1,1,0.0,2.0
2021-09-23 13:31:28.917,1034.0,-278.0,63.0,1072.571209757189,1,1,1,0.0,2.0
2021-09-23 13:31:28.918,1034.0,-278.0,-24.0,1070.9883286012036,1,1,1,0.0,2.0
2021-09-23 13:31:28.927,919.0,-33.0,8.0,919.6270983393216,1,1,1,0.0,2.0
2021-09-23 13:31:28.937,1021.0,-169.0,26.0,1035.2188174487555,1,1,1,0.0,2.0
2021-09-23 13:31:28.947,1113.0,15.0,59.0,1114.663626391388,1,1,1,0.0,2.0
2021-09-23 13:31:28.958,1054.0,161.0,5.0,1066.237309420375,1,1,1,0.0,2.0
2021-09-23 13:31:28.968,831.0,315.0,5.0,888.7131145650997,1,1,1,0.0,2.0
2021-09-23 13:31:28.969,831.0,315.0,11.0,888.7671236043782,1,1,1,0.0,2.0
2021-09-23 13:31:28.976,1137.0,82.0,25.0,1140.2271703480849,1,1,1,0.0,2.0
2021-09-23 13:31:28.986,1043.0,199.0,61.0,1063.5652307216517,1,1,1,0.0,2.0
2021-09-23 13:31:28.995,1099.0,199.0,61.0,1118.5360968694752,1,1,1,0.0,2.0
2021-09-23 13:31:28.996,1099.0,-258.0,-54.0,1130.1685714971904,1,1,1,0.0,2.0
2021-09-23 13:31:29.006,965.0,-74.0,-27.0,968.2096880325048,1,1,1,0.0,2.0
2021-09-23 13:31:29.015,1086.0,-74.0,-27.0,1088.8530663041731,1,1,1,0.0,2.0
2021-09-23 13:31:29.016,1086.0,-100.0,34.0,1091.1241909150397,1,1,1,0.0,2.0
2021-09-23 13:31:29.025,994.0,128.0,30.0,1002.656471579374,1,1,1,0.0,2.0
2021-09-23 13:31:29.034,952.0,128.0,30.0,961.034858889104,1,1,1,0.0,2.0
2021-09-23 13:31:29.035,952.0,115.0,36.0,959.596269271614,1,1,1,0.0,2.0
2021-09-23 13:31:29.044,832.0,405.0,-49.0,926.6336924588918,1,1,1,0.0,2.0
2021-09-23 13:31:29.054,1104.0,405.0,-49.0,1176.9630410509924,1,1,1,0.0,2.0
2021-09-23 13:31:29.055,1104.0,267.0,53.0,1137.0637625041086,1,1,1,0.0,2.0
2021-09-23 13:31:29.065,1138.0,-14.0,80.0,1140.8943859972317,1,1,1,0.0,2.0
2021-09-23 13:31:29.073,1022.0,-14.0,80.0,1025.221927194303,1,1,1,0.0,2.0
2021-09-23 13:31:29.074,1022.0,-357.0,-28.0,1082.9205880395848,1,1,1,0.0,2.0
2021-09-23 13:31:29.083,925.0,-74.0,-28.0,928.3776171364754,1,1,1,0.0,2.0
2021-09-23 13:31:29.084,925.0,-74.0,18.0,928.12984005472,1,1,1,0.0,2.0
2021-09-23 13:31:29.093,1052.0,-167.0,21.0,1065.3797445042776,1,1,1,0.0,2.0
2021-09-23 13:31:29.103,1081.0,-35.0,61.0,1083.2852809855767,1,1,1,0.0,2.0
2021-09-23 13:31:29.114,888.0,-90.0,-55.0,894.2421372312982,1,1,1,0.0,2.0
2021-09-23 13:31:29.122,797.0,-90.0,-55.0,803.9490033578,1,1,1,0.0,2.0
2021-09-23 13:31:29.123,797.0,244.0,-35.0,834.2481645170099,1,1,1,0.0,2.0
2021-09-23 13:31:29.132,1173.0,124.0,36.0,1180.0851664180852,1,1,1,0.0,2.0
2021-09-23 13:31:29.142,970.0,223.0,48.0,996.4602350319856,1,1,1,0.0,2.0
2021-09-23 13:31:29.152,1036.0,-45.0,5.0,1036.9889102589284,1,1,1,0.0,2.0
2021-09-23 13:31:29.162,968.0,-45.0,5.0,969.0583057793788,1,1,1,0.0,2.0
2021-09-23 13:31:29.163,968.0,-86.0,-38.0,972.555396879787,1,1,1,0.0,2.0
2021-09-23 13:31:29.172,1147.0,-86.0,-38.0,1150.8470793289612,1,1,1,0.0,2.0
2021-09-23 13:31:29.173,1147.0,-142.0,26.0,1156.0488743993485,1,1,1,0.0,2.0
2021-09-23 13:31:29.181,1079.0,42.0,45.0,1080.754366172073,1,1,1,0.0,2.0
2021-09-23 13:31:29.191,959.0,7.0,-5.0,959.0385810800316,1,1,1,0.0,2.0
2021-09-23 13:31:29.200,885.0,7.0,-5.0,885.0418069221363,1,1,1,0.0,2.0
2021-09-23 13:31:29.201,885.0,361.0,-26.0,956.1495698895648,1,1,1,0.0,2.0
2021-09-23 13:31:29.211,1030.0,252.0,22.0,1060.607373159361,1,1,1,0.0,2.0
2021-09-23 13:31:29.221,1054.0,110.0,9.0,1059.762709289207,1,1,1,0.0,2.0
2021-09-23 13:31:29.230,893.0,266.0,12.0,931.8524561324072,1,1,1,0.0,2.0
2021-09-23 13:31:29.239,920.0,266.0,12.0,957.7577981932592,1,1,1,0.0,2.0
2021-09-23 13:31:29.240,920.0,-31.0,15.0,920.6443395796229,1,1,1,0.0,2.0
2021-09-23 13:31:29.249,1082.0,-177.0,15.0,1096.4843820137155,1,1,1,0.0,2.0
2021-09-23 13:31:29.250,1082.0,-177.0,-11.0,1096.4369566919934,1,1,1,0.0,2.0
2021-09-23 13:31:29.259,1067.0,-52.0,56.0,1069.7331442934728,1,1,1,0.0,2.0
2021-09-23 13:31:29.269,917.0,-52.0,56.0,920.1787869756616,1,1,1,0.0,2.0
2021-09-23 13:31:29.270,917.0,-121.0,-55.0,926.5824302241004,1,1,1,0.0,2.0
2021-09-23 13:31:29.279,1059.0,34.0,33.0,1060.059432296133,1,1,1,0.0,2.0
2021-09-23 13:31:29.288,942.0,209.0,33.0,965.470869576084,1,1,1,0.0,2.0
2021-09-23 13:31:29.289,942.0,209.0,11.0,964.96942956759,1,1,1,0.0,2.0
2021-09-23 13:31:29.302,998.0,206.0,21.0,1019.2551201735512,1,1,1,0.0,2.0
2021-09-23 13:31:29.309,994.0,20.0,35.0,994.817068611109,1,1,1,0.0,2.0
2021-09-23 13:31:29.331,1166.0,-89.0,-41.0,1170.1102512156708,1,1,1,0.0,2.0
2021-09-23 13:31:29.332,1166.0,-89.0,49.0,1170.4178740945474,1,1,1,0.0,2.0
2021-09-23 13:31:29.338,1022.0,-245.0,-19.0,1051.1279655684173,1,1,1,0.0,2.0
2021-09-23 13:31:29.347,912.0,-20.0,0.0,912.2192718858772,1,1,1,0.0,2.0
2021-09-23 13:31:29.359,943.0,272.0,-22.0,981.6908882127816,1,1,1,0.0,2.0
2021-09-23 13:31:29.366,1007.0,272.0,-22.0,1043.3201809607633,1,1,1,0.0,2.0
2021-09-23 13:31:29.367,1007.0,315.0,29.0,1055.5164612643423,1,1,1,0.0,2.0
2021-09-23 13:31:29.376,1073.0,121.0,29.0,1080.190261018863,1,1,1,0.0,2.0
2021-09-23 13:31:29.377,1073.0,121.0,6.0,1079.8175771860726,1,1,1,0.0,2.0
2021-09-23 13:31:29.387,838.0,121.0,6.0,846.7118754334322,1,1,1,0.0,2.0
2021-09-23 13:31:29.388,838.0,300.0,14.0,890.1909907429978,1,1,1,0.0,2.0
2021-09-23 13:31:29.396,1122.0,46.0,15.0,1123.0427418402203,1,1,1,0.0,2.0
2021-09-23 13:31:29.406,1051.0,186.0,57.0,1068.852655888547,1,1,1,0.0,2.0
2021-09-23 13:31:29.415,1059.0,186.0,57.0,1076.7200193179283,1,1,1,0.0,2.0
2021-09-23 13:31:29.416,1059.0,-105.0,34.0,1064.7356479427183,1,1,1,0.0,2.0
2021-09-23 13:31:29.425,920.0,-114.0,-42.0,927.9870688754236,1,1,1,0.0,2.0
2021-09-23 13:31:29.436,1072.0,-88.0,31.0,1076.052508012504,1,1,1,0.0,2.0
2021-09-23 13:31:29.445,983.0,145.0,19.0,993.8183938728444,1,1,1,0.0,2.0
2021-09-23 13:31:29.454,980.0,103.0,19.0,985.5810468956878,1,1,1,0.0,2.0
2021-09-23 13:31:29.455,980.0,103.0,25.0,985.7149689438626,1,1,1,0.0,2.0
2021-09-23 13:31:29.464,829.0,351.0,-39.0,901.089895626402,1,1,1,0.0,2.0
2021-09-23 13:31:29.474,991.0,-26.0,-34.0,991.923888209171,1,1,1,0.0,2.0
2021-09-23 13:31:29.484,1140.0,-59.0,66.0,1143.432114294504,1,1,1,0.0,2.0
2021-09-23 13:31:29.495,1031.0,-271.0,-22.0,1066.2485638911785,1,1,1,0.0,2.0
2021-09-23 13:31:29.503,914.0,-20.0,-1.0,914.2193391085096,1,1,1,0.0,2.0
2021-09-23 13:31:29.513,1051.0,-180.0,16.0,1066.4225241432216,1,1,1,0.0,2.0
2021-09-23 13:31:29.523,1084.0,11.0,80.0,1087.0036798465771,1,1,1,0.0,2.0
2021-09-23 13:31:29.532,1063.0,11.0,80.0,1066.06284992959,1,1,1,0.0,2.0
2021-09-23 13:31:29.533,1063.0,110.0,1.0,1068.6767518758888,1,1,1,0.0,2.0
2021-09-23 13:31:29.543,809.0,110.0,1.0,816.4447317485734,1,1,1,0.0,2.0
2021-09-23 13:31:29.544,809.0,275.0,13.0,854.5612909557746,1,1,1,0.0,2.0
2021-09-23 13:31:29.552,1146.0,42.0,9.0,1146.804691305368,1,1,1,0.0,2.0
2021-09-23 13:31:29.562,1030.0,42.0,9.0,1030.8952420105547,1,1,1,0.0,2.0
2021-09-23 13:31:29.563,1030.0,178.0,57.0,1046.8204239505455,1,1,1,0.0,2.0
2021-09-23 13:31:29.571,1071.0,178.0,57.0,1087.1862765874116,1,1,1,0.0,2.0
2021-09-23 13:31:29.572,1071.0,-267.0,-52.0,1105.004072390686,1,1,1,0.0,2.0
2021-09-23 13:31:29.581,964.0,-91.0,-52.0,969.6808753399232,1,1,1,0.0,2.0
2021-09-23 13:31:29.582,964.0,-91.0,-34.0,968.882345798498,1,1,1,0.0,2.0
2021-09-23 13:31:29.592,1087.0,-135.0,30.0,1095.76183543688,1,1,1,0.0,2.0
2021-09-23 13:31:29.601,1014.0,107.0,30.0,1020.0710759550042,1,1,1,0.0,2.0
2021-09-23 13:31:29.602,1014.0,107.0,31.0,1020.1009753941028,1,1,1,0.0,2.0
2021-09-23 13:31:29.611,948.0,88.0,26.0,952.4305748977192,1,1,1,0.0,2.0
2021-09-23 13:31:29.620,834.0,88.0,26.0,839.0327764753889,1,1,1,0.0,2.0
2021-09-23 13:31:29.621,834.0,374.0,-50.0,915.3862572706672,1,1,1,0.0,2.0
2021-09-23 13:31:29.630,1130.0,194.0,41.0,1147.2650086183228,1,1,1,0.0,2.0
2021-09-23 13:31:29.647,1051.0,194.0,41.0,1069.541023056152,1,1,1,0.0,2.0
2021-09-23 13:31:29.648,1051.0,144.0,-18.0,1060.9717244111646,1,1,1,0.0,2.0
2021-09-23 13:31:29.650,1033.0,-356.0,-40.0,1093.3549286485154,1,1,1,0.0,2.0
2021-09-23 13:31:29.659,921.0,-356.0,-40.0,988.2191052595572,1,1,1,0.0,2.0
2021-09-23 13:31:29.660,921.0,-20.0,15.0,921.3392426245612,1,1,1,0.0,2.0
2021-09-23 13:31:29.669,1034.0,-186.0,15.0,1050.7030979301433,1,1,1,0.0,2.0
2021-09-23 13:31:29.670,1034.0,-186.0,12.0,1050.664551605316,1,1,1,0.0,2.0
2021-09-23 13:31:29.680,1087.0,-42.0,12.0,1087.8772908742972,1,1,1,0.0,2.0
2021-09-23 13:31:29.681,1087.0,-42.0,88.0,1091.3647419630158,1,1,1,0.0,2.0
2021-09-23 13:31:29.689,879.0,-104.0,-54.0,886.7767475526182,1,1,1,0.0,2.0
2021-09-23 13:31:29.698,1043.0,-104.0,-54.0,1049.5622897189094,1,1,1,0.0,2.0
2021-09-23 13:31:29.699,1043.0,76.0,-4.0,1045.7729199018304,1,1,1,0.0,2.0
2021-09-23 13:31:29.708,1158.0,104.0,-4.0,1162.6676223237662,1,1,1,0.0,2.0
2021-09-23 13:31:29.709,1158.0,104.0,33.0,1163.1289696332044,1,1,1,0.0,2.0
2021-09-23 13:31:29.718,973.0,181.0,33.0,990.241889641112,1,1,1,0.0,2.0
2021-09-23 13:31:29.719,973.0,181.0,39.0,990.4599941441352,1,1,1,0.0,2.0
2021-09-23 13:31:29.728,1006.0,181.0,39.0,1022.8968667465944,1,1,1,0.0,2.0
2021-09-23 13:31:29.729,1006.0,240.0,12.0,1034.301696798376,1,1,1,0.0,2.0
2021-09-23 13:31:29.738,1034.0,29.0,3.0,1034.4109434842617,1,1,1,0.0,2.0
2021-09-23 13:31:29.747,1033.0,126.0,3.0,1040.6603672668618,1,1,1,0.0,2.0
2021-09-23 13:31:29.748,1033.0,126.0,9.0,1040.6949601107906,1,1,1,0.0,2.0
2021-09-23 13:31:29.760,1006.0,61.0,9.0,1007.887890591012,1,1,1,0.0,2.0
2021-09-23 13:31:29.761,1006.0,61.0,-1.0,1007.8482028559658,1,1,1,0.0,2.0
2021-09-23 13:31:29.767,946.0,37.0,-8.0,946.7570966198248,1,1,1,0.0,2.0
2021-09-23 13:31:29.777,1061.0,-81.0,-2.0,1064.089281968388,1,1,1,0.0,2.0
2021-09-23 13:31:29.788,995.0,-13.0,22.0,995.3280866126504,1,1,1,0.0,2.0
2021-09-23 13:31:29.796,1063.0,21.0,17.0,1063.3433123878665,1,1,1,0.0,2.0
2021-09-23 13:31:29.806,983.0,-18.0,-8.0,983.1973352282848,1,1,1,0.0,2.0
2021-09-23 13:31:29.816,1026.0,107.0,27.0,1031.9176323718866,1,1,1,0.0,2.0
2021-09-23 13:31:29.826,1025.0,106.0,35.0,1031.0606189744617,1,1,1,0.0,2.0
2021-09-23 13:31:29.837,1007.0,50.0,22.0,1008.4805402187986,1,1,1,0.0,2.0
2021-09-23 13:31:29.845,1045.0,32.0,31.0,1045.9493295566474,1,1,1,0.0,2.0
2021-09-23 13:31:29.855,989.0,1.0,-3.0,989.0050555988072,1,1,1,0.0,2.0
2021-09-23 13:31:29.864,1039.0,1.0,-3.0,1039.0048123083934,1,1,1,0.0,2.0
2021-09-23 13:31:29.865,1039.0,10.0,21.0,1039.2603138771344,1,1,1,0.0,2.0
2021-09-23 13:31:29.874,985.0,42.0,21.0,986.1186541182556,1,1,1,0.0,2.0
2021-09-23 13:31:29.875,985.0,42.0,-22.0,986.140456527365,1,1,1,0.0,2.0
2021-09-23 13:31:29.890,986.0,35.0,-9.0,986.6620495387466,1,1,1,0.0,2.0
2021-09-23 13:31:29.894,1014.0,64.0,20.0,1016.2145442769456,1,1,1,0.0,2.0
2021-09-23 13:31:29.904,1024.0,14.0,-11.0,1024.1547734595588,1,1,1,0.0,2.0
2021-09-23 13:31:29.913,1020.0,14.0,-11.0,1020.155380322037,1,1,1,0.0,2.0
2021-09-23 13:31:29.914,1020.0,53.0,5.0,1021.3882709332432,1,1,1,0.0,2.0
2021-09-23 13:31:29.924,1011.0,53.0,5.0,1012.4006124059784,1,1,1,0.0,2.0
2021-09-23 13:31:29.925,1011.0,12.0,1.0,1011.0717086339624,1,1,1,0.0,2.0
2021-09-23 13:31:29.933,1007.0,44.0,23.0,1008.2231895765937,1,1,1,0.0,2.0
2021-09-23 13:31:29.943,1025.0,8.0,6.0,1025.0487793271109,1,1,1,0.0,2.0
2021-09-23 13:31:29.952,1004.0,8.0,6.0,1004.0497995617548,1,1,1,0.0,2.0
2021-09-23 13:31:29.953,1004.0,41.0,8.0,1004.86864813268,1,1,1,0.0,2.0
2021-09-23 13:31:29.962,1011.0,34.0,6.0,1011.589343557948,1,1,1,0.0,2.0
2021-09-23 13:31:29.973,1018.0,39.0,6.0,1018.7644477503128,1,1,1,0.0,2.0
2021-09-23 13:31:29.982,999.0,21.0,3.0,999.2251998423578,1,1,1,0.0,2.0
2021-09-23 13:31:30.157,1010.0,28.0,6.0,1010.405859048729,1,1,1,0.0,2.0
2021-09-23 13:31:30.158,1010.0,23.0,8.0,1010.2935217054496,1,1,1,0.0,2.0
