time_stamp,Acceleration_X,Acceleration_Y,Acceleration_Z,magnitude,STD_Status_right,STD_Status_left,STD_Status_both,KMeans,KMeans_convert
2021-09-23 13:30:52.140,1048.0,-103.0,-9.0,1053.087840590708,1,1,1,3.0,2.0
2021-09-23 13:30:52.153,966.0,374.0,-9.0,1035.9116757716365,1,1,1,3.0,2.0
2021-09-23 13:30:52.154,966.0,374.0,-10.0,1035.9208463970594,1,1,1,3.0,2.0
2021-09-23 13:30:52.160,1009.0,187.0,14.0,1026.277740185375,1,1,1,3.0,2.0
2021-09-23 13:30:52.169,1061.0,193.0,14.0,1078.5017385243289,1,1,1,3.0,2.0
2021-09-23 13:30:52.170,1061.0,193.0,48.0,1079.478577832835,1,1,1,3.0,2.0
2021-09-23 13:30:52.202,885.0,193.0,48.0,907.071110773571,1,1,1,3.0,2.0
2021-09-23 13:30:52.203,885.0,193.0,-26.0,906.1732726140184,1,1,1,3.0,2.0
2021-09-23 13:30:52.204,1106.0,-173.0,26.0,1119.7504186201495,1,1,1,3.0,2.0
2021-09-23 13:30:52.235,1073.0,-139.0,34.0,1082.4998845265527,1,1,1,3.0,2.0
2021-09-23 13:30:52.237,1022.0,-139.0,34.0,1031.9694762927827,1,1,1,3.0,2.0
2021-09-23 13:30:52.238,1022.0,0.0,-9.0,1022.0396274117752,1,1,1,3.0,2.0
2021-09-23 13:30:52.243,1009.0,153.0,38.0,1021.2414014325898,1,1,1,3.0,2.0
2021-09-23 13:30:52.247,1004.0,153.0,38.0,1016.3016284548598,1,1,1,3.0,2.0
2021-09-23 13:30:52.248,1004.0,172.0,28.0,1019.0112855115982,1,1,1,3.0,2.0
2021-09-23 13:30:52.258,962.0,-31.0,-20.0,962.7071205719838,1,1,1,3.0,2.0
2021-09-23 13:30:52.268,1012.0,-26.0,-23.0,1012.5951807114232,1,1,1,3.0,2.0
2021-09-23 13:30:52.277,1114.0,28.0,47.0,1115.3425482783305,1,1,1,3.0,2.0
2021-09-23 13:30:52.286,1038.0,28.0,47.0,1039.4407150001389,1,1,1,3.0,2.0
2021-09-23 13:30:52.287,1038.0,-205.0,0.0,1058.0496207645465,1,1,1,3.0,2.0
2021-09-23 13:30:52.296,887.0,17.0,0.0,887.1628937235822,1,1,1,3.0,2.0
2021-09-23 13:30:52.297,887.0,17.0,6.0,887.1831828884044,1,1,1,3.0,2.0
2021-09-23 13:30:52.306,909.0,246.0,-22.0,941.9559437680724,1,1,1,3.0,2.0
2021-09-23 13:30:52.317,1053.0,226.0,26.0,1077.2933676580396,1,1,1,3.0,2.0
2021-09-23 13:30:52.326,1051.0,87.0,15.0,1054.7013795383032,1,1,1,3.0,2.0
2021-09-23 13:30:52.335,867.0,277.0,15.0,910.2983027557505,1,1,1,3.0,2.0
2021-09-23 13:30:52.336,867.0,277.0,8.0,910.2098659100548,1,1,1,3.0,2.0
2021-09-23 13:30:52.345,1121.0,47.0,9.0,1122.0209445460457,1,1,1,3.0,2.0
2021-09-23 13:30:52.355,1091.0,-162.0,33.0,1103.4554816575069,1,1,1,3.0,2.0
2021-09-23 13:30:52.365,1097.0,-162.0,33.0,1109.3881196407324,1,1,1,3.0,2.0
2021-09-23 13:30:52.366,1097.0,-172.0,28.0,1110.755148536346,1,1,1,3.0,2.0
2021-09-23 13:30:52.374,865.0,-172.0,28.0,882.3791701983904,1,1,1,3.0,2.0
2021-09-23 13:30:52.375,865.0,-104.0,-36.0,871.973050042259,1,1,1,3.0,2.0
2021-09-23 13:30:52.385,1054.0,-107.0,0.0,1059.4172926661147,1,1,1,3.0,2.0
2021-09-23 13:30:52.394,1042.0,161.0,53.0,1055.6959789636408,1,1,1,3.0,2.0
2021-09-23 13:30:52.404,969.0,70.0,-18.0,971.691823573709,1,1,1,3.0,2.0
2021-09-23 13:30:52.414,934.0,-28.0,-16.0,934.5565793465904,1,1,1,3.0,2.0
2021-09-23 13:30:52.424,1035.0,-20.0,-42.0,1036.0448831976344,1,1,1,3.0,2.0
2021-09-23 13:30:52.437,1109.0,9.0,62.0,1110.7682026417574,1,1,1,3.0,2.0
2021-09-23 13:30:52.443,1069.0,-263.0,-23.0,1101.1171599789006,1,1,1,3.0,2.0
2021-09-23 13:30:52.452,870.0,-263.0,-23.0,909.1743507160768,1,1,1,3.0,2.0
2021-09-23 13:30:52.453,870.0,3.0,0.0,870.0051723984174,1,1,1,3.0,2.0
2021-09-23 13:30:52.465,1100.0,3.0,0.0,1100.0040909014838,1,1,1,3.0,2.0
2021-09-23 13:30:52.466,1100.0,42.0,66.0,1102.7783095436723,1,1,1,3.0,2.0
2021-09-23 13:30:52.472,1046.0,42.0,66.0,1048.9213507217785,1,1,1,3.0,2.0
2021-09-23 13:30:52.473,1046.0,264.0,38.0,1079.470240442042,1,1,1,3.0,2.0
2021-09-23 13:30:52.482,1045.0,89.0,9.0,1048.8217198361217,1,1,1,3.0,2.0
2021-09-23 13:30:52.491,834.0,89.0,9.0,838.7836431404704,1,1,1,3.0,2.0
2021-09-23 13:30:52.492,834.0,291.0,-5.0,883.3244024705759,1,1,1,3.0,2.0
2021-09-23 13:30:52.501,1101.0,129.0,-5.0,1108.542737110302,1,1,1,3.0,2.0
2021-09-23 13:30:52.502,1101.0,129.0,26.0,1108.836326966248,1,1,1,3.0,2.0
2021-09-23 13:30:52.511,1086.0,190.0,52.0,1103.7209792334293,1,1,1,3.0,2.0
2021-09-23 13:30:52.521,1012.0,-182.0,52.0,1029.5494160068276,1,1,1,3.0,2.0
2021-09-23 13:30:52.522,1012.0,-182.0,-49.0,1029.4022537375756,1,1,1,3.0,2.0
2021-09-23 13:30:52.531,874.0,-110.0,-38.0,881.7142394222745,1,1,1,3.0,2.0
2021-09-23 13:30:52.541,1114.0,-129.0,3.0,1121.448170893332,1,1,1,3.0,2.0
2021-09-23 13:30:52.550,1029.0,142.0,33.0,1039.2757093283765,1,1,1,3.0,2.0
2021-09-23 13:30:52.560,961.0,45.0,-7.0,962.0784791273528,1,1,1,3.0,2.0
2021-09-23 13:30:52.570,822.0,348.0,-47.0,893.866321101763,1,1,1,3.0,2.0
2021-09-23 13:30:52.587,1105.0,214.0,-47.0,1126.5123168434511,1,1,1,3.0,2.0
2021-09-23 13:30:52.588,1105.0,214.0,39.0,1126.2069081656357,1,1,1,3.0,2.0
2021-09-23 13:30:52.591,1103.0,76.0,74.0,1108.08889535091,1,1,1,3.0,2.0
2021-09-23 13:30:52.599,1065.0,-226.0,13.0,1088.7929096021887,1,1,1,3.0,2.0
2021-09-23 13:30:52.609,887.0,25.0,-3.0,887.3573124733914,1,1,1,3.0,2.0
2021-09-23 13:30:52.620,1141.0,-173.0,37.0,1154.6337081516372,1,1,1,3.0,2.0
2021-09-23 13:30:52.628,1075.0,-84.0,37.0,1078.9114884919893,1,1,1,3.0,2.0
2021-09-23 13:30:52.629,1075.0,-84.0,57.0,1079.7823854832973,1,1,1,3.0,2.0
2021-09-23 13:30:52.638,893.0,-124.0,-36.0,902.2865398530556,1,1,1,3.0,2.0
2021-09-23 13:30:52.648,801.0,309.0,-40.0,859.4661133517715,1,1,1,3.0,2.0
2021-09-23 13:30:52.658,1131.0,149.0,39.0,1141.4390040646065,1,1,1,3.0,2.0
2021-09-23 13:30:52.668,1060.0,149.0,39.0,1071.1311777742258,1,1,1,3.0,2.0
2021-09-23 13:30:52.669,1060.0,181.0,45.0,1076.2834199224662,1,1,1,3.0,2.0
2021-09-23 13:30:52.677,1001.0,-108.0,-36.0,1007.4527284195522,1,1,1,3.0,2.0
2021-09-23 13:30:52.687,1004.0,-91.0,-42.0,1008.9900891485504,1,1,1,3.0,2.0
2021-09-23 13:30:52.697,1113.0,-118.0,23.0,1119.4739836190925,1,1,1,3.0,2.0
2021-09-23 13:30:52.707,1067.0,117.0,51.0,1074.60643958614,1,1,1,3.0,2.0
2021-09-23 13:30:52.717,944.0,13.0,-17.0,944.242553584618,1,1,1,3.0,2.0
2021-09-23 13:30:52.726,841.0,309.0,-17.0,896.1311287975661,1,1,1,3.0,2.0
2021-09-23 13:30:52.727,841.0,309.0,-24.0,896.291247307481,1,1,1,3.0,2.0
2021-09-23 13:30:52.736,1071.0,191.0,57.0,1089.390196394295,1,1,1,3.0,2.0
2021-09-23 13:30:52.745,1058.0,191.0,57.0,1076.6122793280783,1,1,1,3.0,2.0
2021-09-23 13:30:52.746,1058.0,104.0,21.0,1063.306634983531,1,1,1,3.0,2.0
2021-09-23 13:30:52.755,908.0,173.0,21.0,924.5723335683368,1,1,1,3.0,2.0
2021-09-23 13:30:52.756,908.0,173.0,-22.0,924.5955872704563,1,1,1,3.0,2.0
2021-09-23 13:30:52.777,893.0,-48.0,2.0,894.2913395532801,1,1,1,3.0,2.0
2021-09-23 13:30:52.779,1121.0,-157.0,45.0,1132.8349394329257,1,1,1,3.0,2.0
2021-09-23 13:30:52.784,1066.0,-157.0,45.0,1078.4386862497097,1,1,1,3.0,2.0
2021-09-23 13:30:52.785,1066.0,-155.0,37.0,1077.8450723550209,1,1,1,3.0,2.0
2021-09-23 13:30:52.794,911.0,-129.0,37.0,920.8316892896336,1,1,1,3.0,2.0
2021-09-23 13:30:52.795,911.0,-129.0,-40.0,920.95711083633,1,1,1,3.0,2.0
2021-09-23 13:30:52.805,1006.0,-129.0,-40.0,1015.0256154403198,1,1,1,3.0,2.0
2021-09-23 13:30:52.806,1006.0,-29.0,-13.0,1006.5018628894832,1,1,1,3.0,2.0
2021-09-23 13:30:52.814,1052.0,184.0,23.0,1068.217674446552,1,1,1,3.0,2.0
2021-09-23 13:30:52.824,1040.0,204.0,34.0,1060.364088414918,1,1,1,3.0,2.0
2021-09-23 13:30:52.834,946.0,-59.0,-23.0,948.1170813776112,1,1,1,3.0,2.0
2021-09-23 13:30:52.843,1027.0,-60.0,-34.0,1029.3128776033068,1,1,1,3.0,2.0
2021-09-23 13:30:52.854,1110.0,-28.0,32.0,1110.8141158627757,1,1,1,3.0,2.0
2021-09-23 13:30:52.863,1074.0,-211.0,-4.0,1094.5378019968064,1,1,1,3.0,2.0
2021-09-23 13:30:52.873,874.0,-18.0,2.0,874.1876228819532,1,1,1,3.0,2.0
2021-09-23 13:30:52.883,903.0,267.0,-23.0,941.9272795709868,1,1,1,3.0,2.0
2021-09-23 13:30:52.892,1046.0,282.0,40.0,1084.0848675265236,1,1,1,3.0,2.0
2021-09-23 13:30:52.902,1037.0,133.0,6.0,1045.5113581401208,1,1,1,3.0,2.0
2021-09-23 13:30:52.911,846.0,133.0,6.0,856.4117000601989,1,1,1,3.0,2.0
2021-09-23 13:30:52.912,846.0,277.0,-6.0,890.2140192111108,1,1,1,3.0,2.0
2021-09-23 13:30:52.921,1110.0,73.0,-6.0,1112.414041622992,1,1,1,3.0,2.0
2021-09-23 13:30:52.922,1110.0,73.0,21.0,1112.5960632682466,1,1,1,3.0,2.0
2021-09-23 13:30:52.931,1077.0,177.0,52.0,1092.6856821611602,1,1,1,3.0,2.0
2021-09-23 13:30:52.941,1083.0,-180.0,19.0,1098.020946976878,1,1,1,3.0,2.0
2021-09-23 13:30:52.950,875.0,-180.0,19.0,893.5244820372859,1,1,1,3.0,2.0
2021-09-23 13:30:52.951,875.0,-126.0,-42.0,885.0225985815277,1,1,1,3.0,2.0
2021-09-23 13:30:52.961,1093.0,-138.0,-7.0,1101.6995960787133,1,1,1,3.0,2.0
2021-09-23 13:30:52.970,1012.0,162.0,48.0,1026.007797241327,1,1,1,3.0,2.0
2021-09-23 13:30:52.980,953.0,55.0,-16.0,954.7198541980785,1,1,1,3.0,2.0
2021-09-23 13:30:52.990,919.0,55.0,-16.0,920.7833621433437,1,1,1,3.0,2.0
2021-09-23 13:30:52.991,919.0,21.0,-23.0,919.5275961057396,1,1,1,3.0,2.0
2021-09-23 13:30:53.000,1071.0,-12.0,-11.0,1071.1237090084412,1,1,1,3.0,2.0
2021-09-23 13:30:53.010,1105.0,19.0,66.0,1107.1323317472036,1,1,1,3.0,2.0
2021-09-23 13:30:53.019,1091.0,-262.0,-1.0,1122.018716421433,1,1,1,3.0,2.0
2021-09-23 13:30:53.029,884.0,-34.0,-9.0,884.6993839717534,1,1,1,3.0,2.0
2021-09-23 13:30:53.039,1106.0,-191.0,40.0,1123.0837012440347,1,1,1,3.0,2.0
2021-09-23 13:30:53.048,1079.0,-56.0,40.0,1081.192397309563,1,1,1,3.0,2.0
2021-09-23 13:30:53.049,1079.0,-56.0,70.0,1082.7174146562895,1,1,1,3.0,2.0
2021-09-23 13:30:53.059,1045.0,157.0,-2.0,1056.729861412083,1,1,1,3.0,2.0
2021-09-23 13:30:53.068,812.0,322.0,-6.0,873.5353455928387,1,1,1,3.0,2.0
2021-09-23 13:30:53.077,1114.0,322.0,-6.0,1159.6189029159536,1,1,1,3.0,2.0
2021-09-23 13:30:53.078,1114.0,152.0,55.0,1125.666469252771,1,1,1,3.0,2.0
2021-09-23 13:30:53.095,1095.0,218.0,59.0,1118.0474050772625,1,1,1,3.0,2.0
2021-09-23 13:30:53.097,1017.0,-200.0,-66.0,1038.5783552529872,1,1,1,3.0,2.0
2021-09-23 13:30:53.107,969.0,-61.0,-36.0,971.5853024824944,1,1,1,3.0,2.0
2021-09-23 13:30:53.117,1127.0,-155.0,22.0,1137.8216028886077,1,1,1,3.0,2.0
2021-09-23 13:30:53.128,1015.0,159.0,36.0,1028.0087548265335,1,1,1,3.0,2.0
2021-09-23 13:30:53.136,957.0,71.0,6.0,959.6488941274304,1,1,1,3.0,2.0
2021-09-23 13:30:53.146,825.0,386.0,-45.0,911.9462703471077,1,1,1,3.0,2.0
2021-09-23 13:30:53.156,1085.0,259.0,48.0,1116.5169053802992,1,1,1,3.0,2.0
2021-09-23 13:30:53.165,1067.0,259.0,48.0,1099.033211509097,1,1,1,3.0,2.0
2021-09-23 13:30:53.166,1067.0,188.0,28.0,1083.7974903089598,1,1,1,3.0,2.0
2021-09-23 13:30:53.183,1069.0,188.0,28.0,1085.7665494939508,1,1,1,3.0,2.0
2021-09-23 13:30:53.184,1069.0,-298.0,-17.0,1109.8891836575397,1,1,1,3.0,2.0
2021-09-23 13:30:53.186,888.0,-298.0,-17.0,936.822822096046,1,1,1,3.0,2.0
2021-09-23 13:30:53.187,888.0,-70.0,1.0,890.7552974863523,1,1,1,3.0,2.0
2021-09-23 13:30:53.195,1107.0,-200.0,42.0,1125.705556528882,1,1,1,3.0,2.0
2021-09-23 13:30:53.204,1048.0,-200.0,42.0,1067.7396686458735,1,1,1,3.0,2.0
2021-09-23 13:30:53.205,1048.0,-129.0,55.0,1057.3410045959629,1,1,1,3.0,2.0
2021-09-23 13:30:53.216,898.0,-144.0,-36.0,910.1845966615784,1,1,1,3.0,2.0
2021-09-23 13:30:53.224,963.0,56.0,3.0,964.6315358726356,1,1,1,3.0,2.0
2021-09-23 13:30:53.234,1123.0,56.0,3.0,1124.3993952328506,1,1,1,3.0,2.0
2021-09-23 13:30:53.235,1123.0,165.0,40.0,1135.7614186086794,1,1,1,3.0,2.0
2021-09-23 13:30:53.244,1021.0,196.0,28.0,1040.019711351665,1,1,1,3.0,2.0
2021-09-23 13:30:53.253,1043.0,-128.0,28.0,1051.1978881257326,1,1,1,3.0,2.0
2021-09-23 13:30:53.254,1043.0,-128.0,-23.0,1051.0765909295098,1,1,1,3.0,2.0
2021-09-23 13:30:53.264,988.0,-139.0,-23.0,997.9949899673844,1,1,1,3.0,2.0
2021-09-23 13:30:53.265,988.0,-139.0,-59.0,999.47286106227,1,1,1,3.0,2.0
2021-09-23 13:30:53.273,1145.0,-136.0,36.0,1153.6104195091166,1,1,1,3.0,2.0
2021-09-23 13:30:53.283,1072.0,61.0,60.0,1075.409224435052,1,1,1,3.0,2.0
2021-09-23 13:30:53.292,952.0,14.0,60.0,953.9916142189091,1,1,1,3.0,2.0
2021-09-23 13:30:53.293,952.0,14.0,-14.0,952.2058600953892,1,1,1,3.0,2.0
2021-09-23 13:30:53.302,848.0,340.0,-32.0,914.1816012149884,1,1,1,3.0,2.0
2021-09-23 13:30:53.312,1051.0,340.0,-32.0,1105.09049403205,1,1,1,3.0,2.0
2021-09-23 13:30:53.313,1051.0,269.0,33.0,1085.380578414779,1,1,1,3.0,2.0
2021-09-23 13:30:53.322,1061.0,163.0,21.0,1073.6531097146787,1,1,1,3.0,2.0
2021-09-23 13:30:53.331,905.0,163.0,21.0,919.8016090440371,1,1,1,3.0,2.0
2021-09-23 13:30:53.332,905.0,222.0,6.0,931.8503098674164,1,1,1,3.0,2.0
2021-09-23 13:30:53.341,926.0,-97.0,1.0,931.067129695813,1,1,1,3.0,2.0
2021-09-23 13:30:53.351,1119.0,-231.0,26.0,1142.8901959505995,1,1,1,3.0,2.0
2021-09-23 13:30:53.361,1097.0,-113.0,51.0,1103.983242626445,1,1,1,3.0,2.0
2021-09-23 13:30:53.371,893.0,-113.0,51.0,901.5647508637412,1,1,1,3.0,2.0
2021-09-23 13:30:53.372,893.0,-141.0,-55.0,905.7345085619736,1,1,1,3.0,2.0
2021-09-23 13:30:53.380,1013.0,-141.0,-55.0,1024.2436233631138,1,1,1,3.0,2.0
2021-09-23 13:30:53.381,1013.0,-26.0,0.0,1013.3336074561032,1,1,1,3.0,2.0
2021-09-23 13:30:53.390,1037.0,177.0,30.0,1052.424819167621,1,1,1,3.0,2.0
2021-09-23 13:30:53.400,1026.0,231.0,46.0,1052.6884629366848,1,1,1,3.0,2.0
2021-09-23 13:30:53.410,962.0,-33.0,-26.0,962.9169226885568,1,1,1,3.0,2.0
2021-09-23 13:30:53.420,1012.0,-56.0,-35.0,1014.1523554180604,1,1,1,3.0,2.0
2021-09-23 13:30:53.429,1136.0,-92.0,37.0,1140.3196920162345,1,1,1,3.0,2.0
2021-09-23 13:30:53.439,1057.0,-291.0,-20.0,1096.5080939053755,1,1,1,3.0,2.0
2021-09-23 13:30:53.448,870.0,-291.0,-20.0,917.5952266658758,1,1,1,3.0,2.0
2021-09-23 13:30:53.449,870.0,-82.0,6.0,873.8764214693059,1,1,1,3.0,2.0
2021-09-23 13:30:53.458,908.0,290.0,6.0,953.205119583398,1,1,1,3.0,2.0
2021-09-23 13:30:53.459,908.0,290.0,-15.0,953.3042536357424,1,1,1,3.0,2.0
2021-09-23 13:30:53.470,1020.0,311.0,-15.0,1066.4642516277795,1,1,1,3.0,2.0
2021-09-23 13:30:53.471,1020.0,311.0,41.0,1067.1466628350574,1,1,1,3.0,2.0
2021-09-23 13:30:53.478,1043.0,311.0,41.0,1089.1515046126503,1,1,1,3.0,2.0
2021-09-23 13:30:53.479,1043.0,154.0,16.0,1054.4292294886366,1,1,1,3.0,2.0
2021-09-23 13:30:53.488,845.0,323.0,-2.0,904.6314166554243,1,1,1,3.0,2.0
2021-09-23 13:30:53.498,1110.0,109.0,20.0,1115.518265202323,1,1,1,3.0,2.0
2021-09-23 13:30:53.507,1071.0,160.0,54.0,1084.231063934252,1,1,1,3.0,2.0
2021-09-23 13:30:53.517,1067.0,160.0,54.0,1080.2800562817033,1,1,1,3.0,2.0
2021-09-23 13:30:53.518,1067.0,-262.0,13.0,1098.772951978706,1,1,1,3.0,2.0
2021-09-23 13:30:53.528,892.0,-140.0,-41.0,903.8500981910662,1,1,1,3.0,2.0
2021-09-23 13:30:53.536,1060.0,-140.0,-41.0,1069.9911214584913,1,1,1,3.0,2.0
2021-09-23 13:30:53.537,1060.0,-151.0,15.0,1070.8062383083131,1,1,1,3.0,2.0
2021-09-23 13:30:53.546,1035.0,154.0,35.0,1046.9794649371113,1,1,1,3.0,2.0
2021-09-23 13:30:53.556,945.0,87.0,-9.0,949.0389876079907,1,1,1,3.0,2.0
2021-09-23 13:30:53.566,850.0,408.0,-52.0,944.2817376185986,1,1,1,3.0,2.0
2021-09-23 13:30:53.576,1071.0,408.0,-52.0,1147.2615220602493,1,1,1,3.0,2.0
2021-09-23 13:30:53.577,1071.0,35.0,-9.0,1071.6095370982846,1,1,1,3.0,2.0
2021-09-23 13:30:53.585,1110.0,8.0,-9.0,1110.065313393766,1,1,1,3.0,2.0
2021-09-23 13:30:53.586,1110.0,8.0,74.0,1112.4926966052406,1,1,1,3.0,2.0
2021-09-23 13:30:53.599,1087.0,-277.0,-20.0,1121.9171092375764,1,1,1,3.0,2.0
2021-09-23 13:30:53.605,897.0,-8.0,-8.0,897.0713461035303,1,1,1,3.0,2.0
2021-09-23 13:30:53.615,1117.0,-187.0,37.0,1133.149151700693,1,1,1,3.0,2.0
2021-09-23 13:30:53.627,1082.0,-187.0,37.0,1098.6637338148555,1,1,1,3.0,2.0
2021-09-23 13:30:53.628,1082.0,-65.0,69.0,1086.144557598113,1,1,1,3.0,2.0
2021-09-23 13:30:53.635,1038.0,155.0,3.0,1049.5132204979602,1,1,1,3.0,2.0
2021-09-23 13:30:53.644,812.0,314.0,-20.0,870.8271929608078,1,1,1,3.0,2.0
2021-09-23 13:30:53.654,1150.0,152.0,49.0,1161.036175147011,1,1,1,3.0,2.0
2021-09-23 13:30:53.664,1047.0,192.0,51.0,1065.6800645597157,1,1,1,3.0,2.0
2021-09-23 13:30:53.673,1026.0,-167.0,-33.0,1040.0259612144305,1,1,1,3.0,2.0
2021-09-23 13:30:53.683,980.0,-97.0,-45.0,985.8164129288982,1,1,1,3.0,2.0
2021-09-23 13:30:53.693,1112.0,-129.0,30.0,1119.859366170592,1,1,1,3.0,2.0
2021-09-23 13:30:53.703,1068.0,90.0,30.0,1072.2052042403077,1,1,1,3.0,2.0
2021-09-23 13:30:53.704,1068.0,90.0,42.0,1072.608036516602,1,1,1,3.0,2.0
2021-09-23 13:30:53.712,928.0,12.0,-13.0,928.1686269207768,1,1,1,3.0,2.0
2021-09-23 13:30:53.722,814.0,347.0,-40.0,885.7793178890553,1,1,1,3.0,2.0
2021-09-23 13:30:53.732,1092.0,204.0,42.0,1111.6852072416905,1,1,1,3.0,2.0
2021-09-23 13:30:53.742,1072.0,157.0,10.0,1083.4818872505437,1,1,1,3.0,2.0
2021-09-23 13:30:53.751,1045.0,157.0,10.0,1056.7752835868182,1,1,1,3.0,2.0
2021-09-23 13:30:53.752,1045.0,-383.0,-45.0,1113.8846439376027,1,1,1,3.0,2.0
2021-09-23 13:30:53.761,894.0,-79.0,20.0,897.7065221997666,1,1,1,3.0,2.0
2021-09-23 13:30:53.771,1123.0,-214.0,19.0,1143.3660831072434,1,1,1,3.0,2.0
2021-09-23 13:30:53.790,1085.0,-214.0,19.0,1106.0660016472796,1,1,1,3.0,2.0
2021-09-23 13:30:53.791,1085.0,-141.0,66.0,1096.1122205321865,1,1,1,3.0,2.0
2021-09-23 13:30:53.793,879.0,-111.0,-43.0,887.0236749940782,1,1,1,3.0,2.0
2021-09-23 13:30:53.800,1029.0,-111.0,-43.0,1035.8624426051945,1,1,1,3.0,2.0
2021-09-23 13:30:53.801,1029.0,30.0,1.0,1029.4377105973922,1,1,1,3.0,2.0
2021-09-23 13:30:53.811,1134.0,176.0,39.0,1148.2390866017408,1,1,1,3.0,2.0
2021-09-23 13:30:53.820,1030.0,197.0,43.0,1049.551332713174,1,1,1,3.0,2.0
2021-09-23 13:30:53.829,964.0,197.0,43.0,984.8624269409408,1,1,1,3.0,2.0
2021-09-23 13:30:53.830,964.0,-45.0,-18.0,965.2175920485496,1,1,1,3.0,2.0
2021-09-23 13:30:53.839,997.0,-74.0,-18.0,999.9044954394394,1,1,1,3.0,2.0
2021-09-23 13:30:53.840,997.0,-74.0,-31.0,1000.2229751410432,1,1,1,3.0,2.0
2021-09-23 13:30:53.849,1136.0,-86.0,37.0,1139.851306092159,1,1,1,3.0,2.0
2021-09-23 13:30:53.860,1042.0,-86.0,37.0,1046.1974001114704,1,1,1,3.0,2.0
2021-09-23 13:30:53.861,1042.0,-222.0,-3.0,1065.3905387227728,1,1,1,3.0,2.0
2021-09-23 13:30:53.868,943.0,-222.0,-3.0,968.7837736048224,1,1,1,3.0,2.0
2021-09-23 13:30:53.869,943.0,1.0,-30.0,943.4776096972308,1,1,1,3.0,2.0
2021-09-23 13:30:53.878,919.0,379.0,-30.0,994.5360727495006,1,1,1,3.0,2.0
2021-09-23 13:30:53.879,919.0,379.0,-14.0,994.1820758794638,1,1,1,3.0,2.0
2021-09-23 13:30:53.888,1016.0,304.0,-14.0,1060.5979445576916,1,1,1,3.0,2.0
2021-09-23 13:30:53.889,1016.0,304.0,31.0,1060.9585288784854,1,1,1,3.0,2.0
2021-09-23 13:30:53.898,1044.0,130.0,12.0,1052.1311705296066,1,1,1,3.0,2.0
2021-09-23 13:30:53.909,873.0,262.0,-14.0,911.5750106272112,1,1,1,3.0,2.0
2021-09-23 13:30:53.917,1106.0,96.0,-14.0,1110.246819405487,1,1,1,3.0,2.0
2021-09-23 13:30:53.918,1106.0,96.0,19.0,1110.3211247202316,1,1,1,3.0,2.0
2021-09-23 13:30:53.927,1126.0,-147.0,24.0,1135.808522595248,1,1,1,3.0,2.0
2021-09-23 13:30:53.937,1064.0,-109.0,66.0,1071.603004848344,1,1,1,3.0,2.0
2021-09-23 13:30:53.947,894.0,-154.0,-67.0,909.6378400220608,1,1,1,3.0,2.0
2021-09-23 13:30:53.956,1058.0,-154.0,-67.0,1071.2464702392256,1,1,1,3.0,2.0
2021-09-23 13:30:53.957,1058.0,-41.0,11.0,1058.8512643426366,1,1,1,3.0,2.0
2021-09-23 13:30:53.968,1015.0,179.0,21.0,1030.876811263111,1,1,1,3.0,2.0
2021-09-23 13:30:53.976,992.0,118.0,-6.0,999.0115114451884,1,1,1,3.0,2.0
2021-09-23 13:30:53.986,947.0,-4.0,-14.0,947.1119258039148,1,1,1,3.0,2.0
2021-09-23 13:30:53.996,1031.0,-44.0,-37.0,1032.601568854125,1,1,1,3.0,2.0
2021-09-23 13:30:54.005,1131.0,-52.0,-37.0,1132.7991878528162,1,1,1,3.0,2.0
2021-09-23 13:30:54.006,1131.0,-52.0,61.0,1133.836848933743,1,1,1,3.0,2.0
2021-09-23 13:30:54.017,1078.0,-315.0,-29.0,1123.4544939604807,1,1,1,3.0,2.0
2021-09-23 13:30:54.025,883.0,-43.0,0.0,884.0463788738688,1,1,1,3.0,2.0
2021-09-23 13:30:54.034,1077.0,-43.0,0.0,1077.858061156477,1,1,1,3.0,2.0
2021-09-23 13:30:54.035,1077.0,-204.0,35.0,1096.7087124665327,1,1,1,3.0,2.0
2021-09-23 13:30:54.044,1009.0,-204.0,35.0,1030.010679556285,1,1,1,3.0,2.0
2021-09-23 13:30:54.045,1009.0,260.0,23.0,1042.2139895434143,1,1,1,3.0,2.0
2021-09-23 13:30:54.054,1063.0,168.0,6.0,1076.2104812721348,1,1,1,3.0,2.0
2021-09-23 13:30:54.065,810.0,345.0,0.0,880.4118354497514,1,1,1,3.0,2.0
2021-09-23 13:30:54.074,1161.0,139.0,27.0,1169.6029240729522,1,1,1,3.0,2.0
2021-09-23 13:30:54.083,1057.0,139.0,27.0,1066.4422159685914,1,1,1,3.0,2.0
2021-09-23 13:30:54.084,1057.0,191.0,40.0,1074.862781940095,1,1,1,3.0,2.0
2021-09-23 13:30:54.093,1058.0,-203.0,-38.0,1077.9689234852738,1,1,1,3.0,2.0
2021-09-23 13:30:54.109,876.0,-67.0,-43.0,879.6101409147122,1,1,1,3.0,2.0
2021-09-23 13:30:54.113,1087.0,-118.0,24.0,1093.6493953731242,1,1,1,3.0,2.0
2021-09-23 13:30:54.123,1035.0,100.0,38.0,1040.5138153816124,1,1,1,3.0,2.0
2021-09-23 13:30:54.132,906.0,84.0,7.0,909.9126331687016,1,1,1,3.0,2.0
2021-09-23 13:30:54.143,852.0,84.0,7.0,856.1594477665944,1,1,1,3.0,2.0
2021-09-23 13:30:54.144,852.0,420.0,-40.0,950.7386602005832,1,1,1,3.0,2.0
2021-09-23 13:30:54.152,1087.0,264.0,38.0,1119.244834698825,1,1,1,3.0,2.0
2021-09-23 13:30:54.161,1131.0,264.0,38.0,1162.0245264193006,1,1,1,3.0,2.0
2021-09-23 13:30:54.162,1131.0,3.0,76.0,1133.554586246291,1,1,1,3.0,2.0
2021-09-23 13:30:54.171,1063.0,-364.0,76.0,1126.162066489544,1,1,1,3.0,2.0
2021-09-23 13:30:54.172,1063.0,-364.0,-19.0,1123.7553114446223,1,1,1,3.0,2.0
2021-09-23 13:30:54.181,900.0,-122.0,5.0,908.2450109964822,1,1,1,3.0,2.0
2021-09-23 13:30:54.199,1105.0,-226.0,24.0,1128.129868410548,1,1,1,3.0,2.0
2021-09-23 13:30:54.202,1066.0,-87.0,81.0,1072.6071042091787,1,1,1,3.0,2.0
2021-09-23 13:30:54.212,876.0,-105.0,-61.0,884.3766166062964,1,1,1,3.0,2.0
2021-09-23 13:30:54.220,806.0,298.0,-59.0,861.3483615820024,1,1,1,3.0,2.0
2021-09-23 13:30:54.230,1161.0,163.0,54.0,1173.6294134010104,1,1,1,3.0,2.0
2021-09-23 13:30:54.240,1003.0,174.0,26.0,1018.3128203062162,1,1,1,3.0,2.0
2021-09-23 13:30:54.249,1016.0,-66.0,26.0,1018.4733673493872,1,1,1,3.0,2.0
2021-09-23 13:30:54.250,1016.0,-66.0,-6.0,1018.1591231236894,1,1,1,3.0,2.0
2021-09-23 13:30:54.259,987.0,-66.0,-6.0,989.2224219052054,1,1,1,3.0,2.0
2021-09-23 13:30:54.260,987.0,-105.0,-48.0,993.7293394078692,1,1,1,3.0,2.0
2021-09-23 13:30:54.269,1145.0,-142.0,26.0,1154.0645562532452,1,1,1,3.0,2.0
2021-09-23 13:30:54.279,1069.0,71.0,40.0,1072.1016742828078,1,1,1,3.0,2.0
2021-09-23 13:30:54.289,935.0,25.0,-14.0,935.4389344045928,1,1,1,3.0,2.0
2021-09-23 13:30:54.298,863.0,353.0,-57.0,934.145063681225,1,1,1,3.0,2.0
2021-09-23 13:30:54.308,1076.0,266.0,28.0,1108.7452367428689,1,1,1,3.0,2.0
2021-09-23 13:30:54.318,1073.0,141.0,3.0,1082.2287188944858,1,1,1,3.0,2.0
2021-09-23 13:30:54.328,906.0,195.0,-17.0,926.9034469673744,1,1,1,3.0,2.0
2021-09-23 13:30:54.337,913.0,-60.0,-17.0,915.127313547137,1,1,1,3.0,2.0
2021-09-23 13:30:54.338,913.0,-60.0,9.0,915.0136611002046,1,1,1,3.0,2.0
2021-09-23 13:30:54.347,1096.0,-29.0,40.0,1097.1130297284778,1,1,1,3.0,2.0
2021-09-23 13:30:54.357,1104.0,129.0,32.0,1111.9716723010529,1,1,1,3.0,2.0
2021-09-23 13:30:54.368,926.0,-123.0,-77.0,937.301445640622,1,1,1,3.0,2.0
2021-09-23 13:30:54.376,973.0,-123.0,-77.0,983.7616581266012,1,1,1,3.0,2.0
2021-09-23 13:30:54.377,973.0,225.0,5.0,998.6886401676952,1,1,1,3.0,2.0
2021-09-23 13:30:54.386,1057.0,-136.0,-45.0,1066.6630208271026,1,1,1,3.0,2.0
2021-09-23 13:30:54.396,974.0,-136.0,-45.0,984.4780342902528,1,1,1,3.0,2.0
2021-09-23 13:30:54.397,974.0,18.0,-12.0,974.2402167843412,1,1,1,3.0,2.0
2021-09-23 13:30:54.406,1030.0,26.0,25.0,1030.6313598954769,1,1,1,3.0,2.0
2021-09-23 13:30:54.418,974.0,7.0,-54.0,975.5208865011554,1,1,1,3.0,2.0
2021-09-23 13:30:54.425,1044.0,66.0,-54.0,1047.4769687205535,1,1,1,3.0,2.0
2021-09-23 13:30:54.426,1044.0,66.0,37.0,1046.7382671900364,1,1,1,3.0,2.0
2021-09-23 13:30:54.435,915.0,66.0,37.0,918.1230854302706,1,1,1,3.0,2.0
2021-09-23 13:30:54.436,915.0,97.0,-34.0,920.7551248839184,1,1,1,3.0,2.0
2021-09-23 13:30:54.445,1037.0,29.0,27.0,1037.7567152276106,1,1,1,3.0,2.0
2021-09-23 13:30:54.454,1043.0,29.0,27.0,1043.752365266781,1,1,1,3.0,2.0
2021-09-23 13:30:54.455,1043.0,64.0,34.0,1045.5147057789288,1,1,1,3.0,2.0
2021-09-23 13:30:54.465,1001.0,-61.0,-20.0,1003.0563294252224,1,1,1,3.0,2.0
2021-09-23 13:30:54.474,1057.0,24.0,32.0,1057.7565882564854,1,1,1,3.0,2.0
2021-09-23 13:30:54.484,990.0,-64.0,-32.0,992.5824902747378,1,1,1,3.0,2.0
2021-09-23 13:30:54.493,1004.0,-64.0,-32.0,1006.5465712027436,1,1,1,3.0,2.0
2021-09-23 13:30:54.494,1004.0,127.0,69.0,1014.3500382018034,1,1,1,3.0,2.0
2021-09-23 13:30:54.503,1016.0,24.0,69.0,1018.623090254683,1,1,1,3.0,2.0
2021-09-23 13:30:54.504,1016.0,24.0,-9.0,1016.3232753410698,1,1,1,3.0,2.0
2021-09-23 13:30:54.514,988.0,54.0,-14.0,989.5736455666148,1,1,1,3.0,2.0
2021-09-23 13:30:54.523,1029.0,35.0,12.0,1029.6649940636032,1,1,1,3.0,2.0
2021-09-23 13:30:54.533,987.0,31.0,3.0,987.4912657841588,1,1,1,3.0,2.0
2021-09-23 13:30:54.542,1052.0,7.0,3.0,1052.0275661787575,1,1,1,3.0,2.0
2021-09-23 13:30:54.543,1052.0,7.0,11.0,1052.0807953764768,1,1,1,3.0,2.0
2021-09-23 13:30:54.553,1005.0,40.0,16.0,1005.9229592767032,1,1,1,3.0,2.0
2021-09-23 13:30:54.562,1034.0,-6.0,0.0,1034.0174079772546,1,1,1,3.0,2.0
2021-09-23 13:30:54.572,1003.0,36.0,-1.0,1003.6463520583334,1,1,1,3.0,2.0
2021-09-23 13:30:54.581,1025.0,36.0,-1.0,1025.6324877849763,1,1,1,3.0,2.0
2021-09-23 13:30:54.582,1025.0,45.0,9.0,1026.0268027688169,1,1,1,3.0,2.0
2021-09-23 13:30:54.592,1005.0,43.0,8.0,1005.951291067316,1,1,1,3.0,2.0
2021-09-23 13:30:54.601,1018.0,40.0,8.0,1018.8169609895588,1,1,1,3.0,2.0
2021-09-23 13:30:54.602,1018.0,40.0,11.0,1018.8449342269902,1,1,1,3.0,2.0
2021-09-23 13:30:54.618,988.0,54.0,11.0,989.5357497331768,1,1,1,3.0,2.0
2021-09-23 13:30:54.619,988.0,54.0,-7.0,989.499368367661,1,1,1,3.0,2.0
2021-09-23 13:30:54.622,1030.0,31.0,7.0,1030.4901746256487,1,1,1,3.0,2.0
2021-09-23 13:30:54.630,1024.0,21.0,7.0,1024.2392298677105,1,1,1,3.0,2.0
2021-09-23 13:30:54.631,1024.0,21.0,15.0,1024.3251436921776,1,1,1,3.0,2.0
2021-09-23 13:30:54.641,1012.0,0.0,-4.0,1012.007905107465,1,1,1,3.0,2.0
2021-09-23 13:30:54.650,1011.0,23.0,7.0,1011.2858151877736,1,1,1,3.0,2.0
2021-09-23 13:30:54.659,1008.0,23.0,7.0,1008.2866655867268,1,1,1,3.0,2.0
2021-09-23 13:30:54.660,1008.0,7.0,3.0,1008.0287694307142,1,1,1,3.0,2.0
2021-09-23 13:30:54.671,1006.0,68.0,20.0,1008.4939266054108,1,1,1,3.0,2.0
2021-09-23 13:30:54.679,1011.0,34.0,-2.0,1011.573526739406,1,1,1,3.0,2.0
2021-09-23 13:30:54.689,1005.0,138.0,56.0,1015.97490126479,1,1,1,3.0,2.0
2021-09-23 13:30:54.699,1028.0,28.0,0.0,1028.381252260075,1,1,1,3.0,2.0
2021-09-23 13:30:54.709,1010.0,31.0,11.0,1010.5355016029868,1,1,1,3.0,2.0
2021-09-23 13:30:54.718,896.0,31.0,11.0,896.6035913378888,1,1,1,3.0,2.0
2021-09-23 13:30:54.719,896.0,53.0,-40.0,898.4570106577164,1,1,1,3.0,2.0
2021-09-23 13:30:54.728,1137.0,-51.0,-40.0,1138.845907048008,1,1,1,3.0,2.0
2021-09-23 13:30:54.729,1137.0,-51.0,58.0,1139.6201121426386,1,1,1,3.0,2.0
2021-09-23 13:30:54.738,1088.0,-87.0,72.0,1093.8450530125372,1,1,1,3.0,2.0
2021-09-23 13:30:54.747,1103.0,-439.0,72.0,1189.3334267563491,1,1,1,3.0,2.0
2021-09-23 13:30:54.748,1103.0,-439.0,-13.0,1187.2232309047863,1,1,1,3.0,2.0
2021-09-23 13:30:54.757,833.0,76.0,13.0,836.5608166774248,1,1,1,3.0,2.0
2021-09-23 13:30:54.767,1096.0,-301.0,-34.0,1137.089706223744,1,1,1,3.0,2.0
2021-09-23 13:30:54.778,1038.0,-143.0,-34.0,1048.3553786765249,1,1,1,3.0,2.0
2021-09-23 13:30:54.779,1038.0,-143.0,12.0,1047.8726067609557,1,1,1,3.0,2.0
2021-09-23 13:30:54.786,870.0,-143.0,12.0,881.7556350826458,1,1,1,3.0,2.0
2021-09-23 13:30:54.787,870.0,-78.0,-39.0,874.3597657715044,1,1,1,3.0,2.0
2021-09-23 13:30:54.809,1058.0,-17.0,-21.0,1058.3449343196196,1,1,1,3.0,2.0
2021-09-23 13:30:54.811,1163.0,159.0,14.0,1173.9020402060812,1,1,1,3.0,2.0
2021-09-23 13:30:54.817,945.0,194.0,10.0,964.759555537026,1,1,1,3.0,2.0
2021-09-23 13:30:54.826,1013.0,-5.0,17.0,1013.1549733382352,1,1,1,3.0,2.0
2021-09-23 13:30:54.835,993.0,-78.0,17.0,996.2037944115652,1,1,1,3.0,2.0
2021-09-23 13:30:54.836,993.0,-78.0,-47.0,997.166987018724,1,1,1,3.0,2.0
2021-09-23 13:30:54.845,1136.0,42.0,62.0,1138.465634088267,1,1,1,3.0,2.0
2021-09-23 13:30:54.855,1174.0,-103.0,54.0,1179.746159137634,1,1,1,3.0,2.0
2021-09-23 13:30:54.865,955.0,-45.0,-21.0,956.290227912008,1,1,1,3.0,2.0
2021-09-23 13:30:54.876,922.0,319.0,-18.0,975.7914736253848,1,1,1,3.0,2.0
2021-09-23 13:30:54.884,1029.0,253.0,7.0,1059.6692880328278,1,1,1,3.0,2.0
2021-09-23 13:30:54.894,1044.0,109.0,-4.0,1049.6823328988633,1,1,1,3.0,2.0
2021-09-23 13:30:54.904,860.0,276.0,8.0,903.238617420668,1,1,1,3.0,2.0
2021-09-23 13:30:54.913,903.0,276.0,8.0,944.2716770082644,1,1,1,3.0,2.0
2021-09-23 13:30:54.914,903.0,-26.0,14.0,903.4827059772643,1,1,1,3.0,2.0
2021-09-23 13:30:54.925,1106.0,-195.0,-3.0,1123.062776517858,1,1,1,3.0,2.0
2021-09-23 13:30:54.933,1082.0,-116.0,55.0,1089.589372194865,1,1,1,3.0,2.0
2021-09-23 13:30:54.943,878.0,-150.0,-61.0,892.8073700412648,1,1,1,3.0,2.0
2021-09-23 13:30:54.952,1062.0,-150.0,-61.0,1074.2741735702298,1,1,1,3.0,2.0
2021-09-23 13:30:54.953,1062.0,-54.0,26.0,1063.6898044072811,1,1,1,3.0,2.0
2021-09-23 13:30:54.962,1017.0,162.0,26.0,1030.1499890792602,1,1,1,3.0,2.0
2021-09-23 13:30:54.963,1017.0,162.0,32.0,1030.318882676621,1,1,1,3.0,2.0
2021-09-23 13:30:54.973,1017.0,185.0,20.0,1033.882972100808,1,1,1,3.0,2.0
2021-09-23 13:30:54.982,961.0,12.0,2.0,961.0770000369378,1,1,1,3.0,2.0
2021-09-23 13:30:54.992,1008.0,-38.0,-44.0,1009.675195297973,1,1,1,3.0,2.0
2021-09-23 13:30:55.001,1157.0,-41.0,-44.0,1158.5620397717164,1,1,1,3.0,2.0
2021-09-23 13:30:55.002,1157.0,-41.0,64.0,1159.4938550936783,1,1,1,3.0,2.0
2021-09-23 13:30:55.012,1044.0,-267.0,-28.0,1077.9652127967768,1,1,1,3.0,2.0
2021-09-23 13:30:55.021,890.0,4.0,3.0,890.0140448330015,1,1,1,3.0,2.0
2021-09-23 13:30:55.032,953.0,238.0,-22.0,982.5156487303396,1,1,1,3.0,2.0
2021-09-23 13:30:55.040,1008.0,238.0,-22.0,1035.9498057338492,1,1,1,3.0,2.0
2021-09-23 13:30:55.041,1008.0,296.0,35.0,1051.144614218234,1,1,1,3.0,2.0
2021-09-23 13:30:55.050,1077.0,132.0,8.0,1085.0884756553264,1,1,1,3.0,2.0
2021-09-23 13:30:55.060,803.0,357.0,10.0,878.8390068721346,1,1,1,3.0,2.0
2021-09-23 13:30:55.070,1120.0,55.0,19.0,1121.5105884475634,1,1,1,3.0,2.0
2021-09-23 13:30:55.080,1051.0,55.0,19.0,1052.6096142445213,1,1,1,3.0,2.0
2021-09-23 13:30:55.081,1051.0,170.0,58.0,1066.2387162357218,1,1,1,3.0,2.0
2021-09-23 13:30:55.089,1081.0,-139.0,45.0,1090.8285841505988,1,1,1,3.0,2.0
2021-09-23 13:30:55.099,893.0,-118.0,-67.0,903.2507957372636,1,1,1,3.0,2.0
2021-09-23 13:30:55.114,1081.0,-103.0,26.0,1086.2071625615438,1,1,1,3.0,2.0
2021-09-23 13:30:55.123,1010.0,167.0,26.0,1024.0434561091631,1,1,1,3.0,2.0
2021-09-23 13:30:55.124,1010.0,167.0,29.0,1024.1240159277586,1,1,1,3.0,2.0
2021-09-23 13:30:55.128,975.0,97.0,29.0,980.2423169808576,1,1,1,3.0,2.0
2021-09-23 13:30:55.129,975.0,97.0,19.0,979.9974489762716,1,1,1,3.0,2.0
2021-09-23 13:30:55.138,822.0,339.0,-69.0,891.8329439979216,1,1,1,3.0,2.0
2021-09-23 13:30:55.148,1013.0,-65.0,-49.0,1016.2652212882226,1,1,1,3.0,2.0
2021-09-23 13:30:55.158,1135.0,-28.0,83.0,1138.3751578456024,1,1,1,3.0,2.0
2021-09-23 13:30:55.169,1037.0,-316.0,-20.0,1084.262422110072,1,1,1,3.0,2.0
2021-09-23 13:30:55.178,898.0,-29.0,10.0,898.5237893344839,1,1,1,3.0,2.0
2021-09-23 13:30:55.187,1074.0,-248.0,15.0,1102.3633702187317,1,1,1,3.0,2.0
2021-09-23 13:30:55.197,1087.0,-10.0,85.0,1090.364159352278,1,1,1,3.0,2.0
2021-09-23 13:30:55.219,778.0,88.0,5.0,782.9770111567772,1,1,1,3.0,2.0
2021-09-23 13:30:55.220,778.0,318.0,-20.0,840.7187401265658,1,1,1,3.0,2.0
2021-09-23 13:30:55.226,1162.0,318.0,-20.0,1204.8933562768118,1,1,1,3.0,2.0
2021-09-23 13:30:55.227,1162.0,148.0,32.0,1171.824218899746,1,1,1,3.0,2.0
2021-09-23 13:30:55.236,1016.0,247.0,60.0,1047.3132291726292,1,1,1,3.0,2.0
2021-09-23 13:30:55.245,1043.0,247.0,60.0,1073.525966150796,1,1,1,3.0,2.0
2021-09-23 13:30:55.246,1043.0,-72.0,1.0,1045.4826636534915,1,1,1,3.0,2.0
2021-09-23 13:30:55.255,979.0,-122.0,1.0,986.5728559006678,1,1,1,3.0,2.0
2021-09-23 13:30:55.256,979.0,-122.0,-38.0,987.30390458055,1,1,1,3.0,2.0
2021-09-23 13:30:55.265,1100.0,-164.0,40.0,1112.8773517328852,1,1,1,3.0,2.0
2021-09-23 13:30:55.276,1076.0,69.0,52.0,1079.4632925671906,1,1,1,3.0,2.0
2021-09-23 13:30:55.285,952.0,45.0,-20.0,953.272783624918,1,1,1,3.0,2.0
2021-09-23 13:30:55.295,876.0,425.0,-39.0,974.4341948022966,1,1,1,3.0,2.0
2021-09-23 13:30:55.304,1029.0,313.0,38.0,1076.222096037802,1,1,1,3.0,2.0
2021-09-23 13:30:55.314,1077.0,132.0,9.0,1085.0963090896587,1,1,1,3.0,2.0
2021-09-23 13:30:55.324,1035.0,-451.0,-66.0,1130.920863721242,1,1,1,3.0,2.0
2021-09-23 13:30:55.333,902.0,-45.0,-66.0,905.5302314114092,1,1,1,3.0,2.0
2021-09-23 13:30:55.334,902.0,-45.0,20.0,903.3432348780832,1,1,1,3.0,2.0
2021-09-23 13:30:55.344,1069.0,-205.0,0.0,1088.4787549603343,1,1,1,3.0,2.0
2021-09-23 13:30:55.353,1083.0,-176.0,60.0,1098.8471231249596,1,1,1,3.0,2.0
2021-09-23 13:30:55.363,888.0,-154.0,-60.0,903.2496886243582,1,1,1,3.0,2.0
2021-09-23 13:30:55.373,1044.0,-35.0,21.0,1044.797588052346,1,1,1,3.0,2.0
2021-09-23 13:30:55.383,1140.0,220.0,49.0,1162.0675539743806,1,1,1,3.0,2.0
2021-09-23 13:30:55.392,1022.0,214.0,20.0,1044.356261052712,1,1,1,3.0,2.0
2021-09-23 13:30:55.402,961.0,47.0,21.0,962.377784448498,1,1,1,3.0,2.0
2021-09-23 13:30:55.411,1001.0,47.0,21.0,1002.3228022947496,1,1,1,3.0,2.0
2021-09-23 13:30:55.412,1001.0,-32.0,-54.0,1002.9661011220668,1,1,1,3.0,2.0
2021-09-23 13:30:55.421,1176.0,-62.0,-54.0,1178.870645999806,1,1,1,3.0,2.0
2021-09-23 13:30:55.422,1176.0,-62.0,70.0,1179.7118292193225,1,1,1,3.0,2.0
2021-09-23 13:30:55.432,1050.0,-304.0,-40.0,1093.8537379375728,1,1,1,3.0,2.0
2021-09-23 13:30:55.441,913.0,-61.0,-43.0,916.045304556494,1,1,1,3.0,2.0
2021-09-23 13:30:55.451,972.0,249.0,-18.0,1003.5482051202124,1,1,1,3.0,2.0
2021-09-23 13:30:55.460,997.0,316.0,-18.0,1046.034894255445,1,1,1,3.0,2.0
2021-09-23 13:30:55.461,997.0,316.0,15.0,1045.987571627885,1,1,1,3.0,2.0
2021-09-23 13:30:55.470,1071.0,91.0,-6.0,1074.8758067795554,1,1,1,3.0,2.0
2021-09-23 13:30:55.480,782.0,91.0,-6.0,787.2998158262201,1,1,1,3.0,2.0
2021-09-23 13:30:55.481,782.0,359.0,17.0,860.6358114789322,1,1,1,3.0,2.0
2021-09-23 13:30:55.491,1143.0,82.0,26.0,1146.2325244033168,1,1,1,3.0,2.0
2021-09-23 13:30:55.499,1083.0,-133.0,26.0,1091.4458300804488,1,1,1,3.0,2.0
2021-09-23 13:30:55.500,1083.0,-133.0,5.0,1091.147561056707,1,1,1,3.0,2.0
2021-09-23 13:30:55.509,1074.0,-204.0,20.0,1093.3855678579264,1,1,1,3.0,2.0
2021-09-23 13:30:55.519,879.0,-58.0,-46.0,882.1116709351487,1,1,1,3.0,2.0
2021-09-23 13:30:55.529,1095.0,-157.0,29.0,1106.5780587016895,1,1,1,3.0,2.0
2021-09-23 13:30:55.539,1028.0,-157.0,29.0,1040.3239879960472,1,1,1,3.0,2.0
2021-09-23 13:30:55.540,1028.0,116.0,40.0,1035.2970588193516,1,1,1,3.0,2.0
2021-09-23 13:30:55.548,1060.0,175.0,40.0,1075.0930192313594,1,1,1,3.0,2.0
2021-09-23 13:30:55.549,1060.0,175.0,1.0,1074.349105272583,1,1,1,3.0,2.0
2021-09-23 13:30:55.558,950.0,175.0,1.0,965.9844719248856,1,1,1,3.0,2.0
2021-09-23 13:30:55.559,950.0,80.0,12.0,953.4379895934502,1,1,1,3.0,2.0
2021-09-23 13:30:55.568,1035.0,2.0,-15.0,1035.1106221076084,1,1,1,3.0,2.0
2021-09-23 13:30:55.577,1134.0,2.0,-15.0,1134.1009655229116,1,1,1,3.0,2.0
2021-09-23 13:30:55.578,1134.0,-10.0,96.0,1138.1001713381822,1,1,1,3.0,2.0
2021-09-23 13:30:55.588,1055.0,-405.0,-37.0,1130.6719241229969,1,1,1,3.0,2.0
2021-09-23 13:30:55.598,882.0,-26.0,9.0,882.4290339738375,1,1,1,3.0,2.0
2021-09-23 13:30:55.607,1024.0,176.0,-11.0,1039.0731446823174,1,1,1,3.0,2.0
2021-09-23 13:30:55.617,974.0,287.0,19.0,1015.5816067653057,1,1,1,3.0,2.0
2021-09-23 13:30:55.626,1071.0,287.0,19.0,1108.9504046619938,1,1,1,3.0,2.0
2021-09-23 13:30:55.627,1071.0,120.0,0.0,1077.7017212568603,1,1,1,3.0,2.0
2021-09-23 13:30:55.639,760.0,279.0,-53.0,811.326075015465,1,1,1,3.0,2.0
2021-09-23 13:30:55.647,1178.0,152.0,32.0,1188.1969533709469,1,1,1,3.0,2.0
2021-09-23 13:30:55.656,1020.0,223.0,56.0,1045.593133106755,1,1,1,3.0,2.0
2021-09-23 13:30:55.665,1036.0,223.0,56.0,1061.2073312977063,1,1,1,3.0,2.0
2021-09-23 13:30:55.666,1036.0,-239.0,9.0,1063.248794967575,1,1,1,3.0,2.0
2021-09-23 13:30:55.675,861.0,-2.0,-4.0,861.0116143235235,1,1,1,3.0,2.0
2021-09-23 13:30:55.686,1101.0,-154.0,46.0,1112.6693129587063,1,1,1,3.0,2.0
2021-09-23 13:30:55.696,1077.0,74.0,62.0,1081.3181770413369,1,1,1,3.0,2.0
2021-09-23 13:30:55.704,933.0,74.0,62.0,937.9813430980385,1,1,1,3.0,2.0
2021-09-23 13:30:55.705,933.0,25.0,-6.0,933.3541664341568,1,1,1,3.0,2.0
2021-09-23 13:30:55.714,834.0,390.0,-42.0,921.63984288875,1,1,1,3.0,2.0
2021-09-23 13:30:55.724,1074.0,14.0,-16.0,1074.21040769488,1,1,1,3.0,2.0
2021-09-23 13:30:55.734,1122.0,82.0,95.0,1128.9964570360703,1,1,1,3.0,2.0
2021-09-23 13:30:55.745,1040.0,-423.0,-46.0,1123.6747750127704,1,1,1,3.0,2.0
2021-09-23 13:30:55.753,918.0,-44.0,-46.0,920.2043251365428,1,1,1,3.0,2.0
2021-09-23 13:30:55.754,918.0,-44.0,15.0,919.1762616604065,1,1,1,3.0,2.0
2021-09-23 13:30:55.763,1083.0,-196.0,11.0,1100.6479909580537,1,1,1,3.0,2.0
2021-09-23 13:30:55.773,1092.0,-99.0,77.0,1099.1787843658556,1,1,1,3.0,2.0
2021-09-23 13:30:55.783,1080.0,134.0,-1.0,1088.2816730975487,1,1,1,3.0,2.0
2021-09-23 13:30:55.793,805.0,268.0,-1.0,848.4397444721693,1,1,1,3.0,2.0
2021-09-23 13:30:55.794,805.0,268.0,-78.0,852.0170186093702,1,1,1,3.0,2.0
2021-09-23 13:30:55.802,1169.0,268.0,-78.0,1201.8606408398605,1,1,1,3.0,2.0
2021-09-23 13:30:55.803,1169.0,161.0,42.0,1180.781944306399,1,1,1,3.0,2.0
2021-09-23 13:30:55.825,1012.0,210.0,32.0,1034.054157189071,1,1,1,3.0,2.0
2021-09-23 13:30:55.827,981.0,7.0,23.0,981.294553128672,1,1,1,3.0,2.0
2021-09-23 13:30:55.831,984.0,7.0,23.0,984.2936553691688,1,1,1,3.0,2.0
2021-09-23 13:30:55.832,984.0,-81.0,-50.0,988.593445254418,1,1,1,3.0,2.0
2021-09-23 13:30:55.841,1068.0,-221.0,38.0,1091.287771396711,1,1,1,3.0,2.0
2021-09-23 13:30:55.851,1136.0,-3.0,73.0,1138.3470472575575,1,1,1,3.0,2.0
2021-09-23 13:30:55.861,910.0,-36.0,-30.0,911.205794538204,1,1,1,3.0,2.0
2021-09-23 13:30:55.871,955.0,264.0,-19.0,991.0005045407394,1,1,1,3.0,2.0
2021-09-23 13:30:55.882,1001.0,368.0,43.0,1067.3677904077863,1,1,1,3.0,2.0
2021-09-23 13:30:55.890,1070.0,103.0,-14.0,1075.0372086583793,1,1,1,3.0,2.0
2021-09-23 13:30:55.900,1121.0,-423.0,-92.0,1201.6796578123472,1,1,1,3.0,2.0
2021-09-23 13:30:55.910,943.0,-103.0,-24.0,948.9120085655992,1,1,1,3.0,2.0
2021-09-23 13:30:55.919,1084.0,-146.0,-24.0,1094.051187102322,1,1,1,3.0,2.0
2021-09-23 13:30:55.920,1084.0,-146.0,9.0,1093.824940289807,1,1,1,3.0,2.0
2021-09-23 13:30:55.930,1069.0,-198.0,9.0,1087.2193890839144,1,1,1,3.0,2.0
2021-09-23 13:30:55.931,1069.0,-198.0,31.0,1087.6240159172653,1,1,1,3.0,2.0
2021-09-23 13:30:55.939,887.0,-106.0,-41.0,894.2516424362888,1,1,1,3.0,2.0
2021-09-23 13:30:55.949,1114.0,-196.0,40.0,1131.818006571728,1,1,1,3.0,2.0
2021-09-23 13:30:55.958,1162.0,243.0,40.0,1187.810170018762,1,1,1,3.0,2.0
2021-09-23 13:30:55.959,1162.0,243.0,67.0,1189.0256515315386,1,1,1,3.0,2.0
2021-09-23 13:30:55.968,1056.0,155.0,-3.0,1067.3190713184133,1,1,1,3.0,2.0
2021-09-23 13:30:55.979,948.0,107.0,8.0,954.0529335419498,1,1,1,3.0,2.0
2021-09-23 13:30:55.988,1019.0,-3.0,-31.0,1019.4758457168076,1,1,1,3.0,2.0
2021-09-23 13:30:55.997,1154.0,-3.0,-31.0,1154.4202007934546,1,1,1,3.0,2.0
2021-09-23 13:30:55.998,1154.0,18.0,96.0,1158.126072584501,1,1,1,3.0,2.0
2021-09-23 13:30:56.007,1033.0,-407.0,-40.0,1111.0076507387337,1,1,1,3.0,2.0
2021-09-23 13:30:56.017,859.0,-407.0,-40.0,951.3832035515449,1,1,1,3.0,2.0
2021-09-23 13:30:56.018,859.0,-142.0,-62.0,872.8625321320649,1,1,1,3.0,2.0
2021-09-23 13:30:56.027,1042.0,137.0,-12.0,1051.0361554199742,1,1,1,3.0,2.0
2021-09-23 13:30:56.037,961.0,137.0,-12.0,970.7903996229052,1,1,1,3.0,2.0
2021-09-23 13:30:56.038,961.0,305.0,3.0,1008.2435221711072,1,1,1,3.0,2.0
2021-09-23 13:30:56.046,1114.0,91.0,3.0,1117.71463263214,1,1,1,3.0,2.0
2021-09-23 13:30:56.047,1114.0,91.0,-6.0,1117.7267107839912,1,1,1,3.0,2.0
2021-09-23 13:30:56.056,786.0,231.0,-54.0,821.0194881974484,1,1,1,3.0,2.0
2021-09-23 13:30:56.066,1215.0,127.0,-54.0,1222.8123322897918,1,1,1,3.0,2.0
2021-09-23 13:30:56.067,1215.0,127.0,41.0,1222.3072445175148,1,1,1,3.0,2.0
2021-09-23 13:30:56.077,1160.0,-100.0,18.0,1164.4414970276523,1,1,1,3.0,2.0
2021-09-23 13:30:56.085,1024.0,-100.0,18.0,1029.0286682109493,1,1,1,3.0,2.0
2021-09-23 13:30:56.086,1024.0,-231.0,11.0,1049.789502709948,1,1,1,3.0,2.0
2021-09-23 13:30:56.096,877.0,-20.0,-13.0,877.3243413926232,1,1,1,3.0,2.0
2021-09-23 13:30:56.105,1090.0,-187.0,56.0,1107.3414107672484,1,1,1,3.0,2.0
2021-09-23 13:30:56.115,1070.0,68.0,47.0,1073.1882407108271,1,1,1,3.0,2.0
2021-09-23 13:30:56.134,928.0,28.0,3.0,928.4271646176668,1,1,1,3.0,2.0
2021-09-23 13:30:56.136,925.0,259.0,5.0,960.5888818844408,1,1,1,3.0,2.0
2021-09-23 13:30:56.144,1044.0,32.0,-15.0,1044.598008805301,1,1,1,3.0,2.0
2021-09-23 13:30:56.154,1130.0,80.0,91.0,1136.4774524820102,1,1,1,3.0,2.0
2021-09-23 13:30:56.163,1049.0,80.0,91.0,1055.974431508642,1,1,1,3.0,2.0
2021-09-23 13:30:56.164,1049.0,-480.0,-63.0,1155.322465807707,1,1,1,3.0,2.0
2021-09-23 13:30:56.174,917.0,-65.0,26.0,919.6684185074532,1,1,1,3.0,2.0
2021-09-23 13:30:56.183,1077.0,109.0,23.0,1082.7460459405982,1,1,1,3.0,2.0
2021-09-23 13:30:56.193,933.0,275.0,-5.0,972.6967667264038,1,1,1,3.0,2.0
2021-09-23 13:30:56.203,1080.0,275.0,-5.0,1114.4729696138888,1,1,1,3.0,2.0
2021-09-23 13:30:56.204,1080.0,187.0,20.0,1096.2522519931258,1,1,1,3.0,2.0
2021-09-23 13:30:56.212,753.0,287.0,20.0,806.0880845168225,1,1,1,3.0,2.0
2021-09-23 13:30:56.213,753.0,287.0,-84.0,810.2061466071459,1,1,1,3.0,2.0
2021-09-23 13:30:56.222,1212.0,287.0,-84.0,1248.3465063835442,1,1,1,3.0,2.0
2021-09-23 13:30:56.223,1212.0,177.0,45.0,1225.6826669248449,1,1,1,3.0,2.0
2021-09-23 13:30:56.240,964.0,258.0,40.0,998.7291925241796,1,1,1,3.0,2.0
2021-09-23 13:30:56.242,1009.0,-314.0,-16.0,1056.8505097694754,1,1,1,3.0,2.0
2021-09-23 13:30:56.252,870.0,-19.0,-16.0,870.3545254664906,1,1,1,3.0,2.0
2021-09-23 13:30:56.253,870.0,-19.0,28.0,870.6577973004089,1,1,1,3.0,2.0
2021-09-23 13:30:56.261,1083.0,-254.0,26.0,1112.6908825006162,1,1,1,3.0,2.0
2021-09-23 13:30:56.271,1128.0,10.0,26.0,1128.3439192019423,1,1,1,3.0,2.0
2021-09-23 13:30:56.272,1128.0,10.0,57.0,1129.4835102824654,1,1,1,3.0,2.0
2021-09-23 13:30:56.281,903.0,-34.0,-37.0,904.397036704566,1,1,1,3.0,2.0
2021-09-23 13:30:56.290,937.0,-34.0,-37.0,938.346417907587,1,1,1,3.0,2.0
2021-09-23 13:30:56.291,937.0,347.0,-26.0,999.5268880825568,1,1,1,3.0,2.0
2021-09-23 13:30:56.301,1107.0,63.0,-4.0,1108.7984487723636,1,1,1,3.0,2.0
2021-09-23 13:30:56.310,1064.0,184.0,85.0,1083.1329558276768,1,1,1,3.0,2.0
2021-09-23 13:30:56.321,1094.0,-462.0,-72.0,1189.7327430982136,1,1,1,3.0,2.0
2021-09-23 13:30:56.329,939.0,-462.0,-72.0,1048.9752141971703,1,1,1,3.0,2.0
2021-09-23 13:30:56.330,939.0,-43.0,6.0,940.003191483944,1,1,1,3.0,2.0
2021-09-23 13:30:56.339,1061.0,-179.0,6.0,1076.010222999763,1,1,1,3.0,2.0
2021-09-23 13:30:56.340,1061.0,-179.0,-10.0,1076.0399620831934,1,1,1,3.0,2.0
2021-09-23 13:30:56.349,1110.0,-140.0,60.0,1120.4017136723774,1,1,1,3.0,2.0
2021-09-23 13:30:56.360,1043.0,177.0,31.0,1058.3661937155778,1,1,1,3.0,2.0
2021-09-23 13:30:56.369,770.0,389.0,-92.0,867.5742043191464,1,1,1,3.0,2.0
2021-09-23 13:30:56.378,1179.0,389.0,-92.0,1244.920077755998,1,1,1,3.0,2.0
2021-09-23 13:30:56.379,1179.0,259.0,71.0,1209.199321865506,1,1,1,3.0,2.0
2021-09-23 13:30:56.388,1026.0,188.0,-3.0,1043.0862859802155,1,1,1,3.0,2.0
2021-09-23 13:30:56.399,1004.0,188.0,-3.0,1021.4543553189246,1,1,1,3.0,2.0
2021-09-23 13:30:56.400,1004.0,1.0,17.0,1004.1444119248983,1,1,1,3.0,2.0
2021-09-23 13:30:56.408,985.0,1.0,17.0,985.1471971233536,1,1,1,3.0,2.0
2021-09-23 13:30:56.409,985.0,-42.0,-38.0,986.6270825392946,1,1,1,3.0,2.0
2021-09-23 13:30:56.417,1043.0,-42.0,-38.0,1044.5367394208783,1,1,1,3.0,2.0
2021-09-23 13:30:56.418,1043.0,-230.0,24.0,1068.3281331126686,1,1,1,3.0,2.0
2021-09-23 13:30:56.428,1131.0,-25.0,87.0,1134.6166753578057,1,1,1,3.0,2.0
2021-09-23 13:30:56.437,866.0,-105.0,-40.0,873.2588390620504,1,1,1,3.0,2.0
2021-09-23 13:30:56.447,1008.0,189.0,-38.0,1026.2694577936147,1,1,1,3.0,2.0
2021-09-23 13:30:56.457,969.0,329.0,25.0,1023.6342120113025,1,1,1,3.0,2.0
2021-09-23 13:30:56.466,1090.0,49.0,-17.0,1091.233247294088,1,1,1,3.0,2.0
2021-09-23 13:30:56.477,1074.0,-324.0,-72.0,1124.1156524130424,1,1,1,3.0,2.0
2021-09-23 13:30:56.486,959.0,-149.0,-28.0,970.9098825328743,1,1,1,3.0,2.0
2021-09-23 13:30:56.495,1148.0,-149.0,-28.0,1157.9676161274976,1,1,1,3.0,2.0
2021-09-23 13:30:56.496,1148.0,-223.0,0.0,1169.458421663635,1,1,1,3.0,2.0
2021-09-23 13:30:56.506,1049.0,-239.0,19.0,1076.0497200408538,1,1,1,3.0,2.0
2021-09-23 13:30:56.516,891.0,-47.0,-28.0,892.677993455647,1,1,1,3.0,2.0
2021-09-23 13:30:56.525,1109.0,-181.0,-28.0,1124.022241772822,1,1,1,3.0,2.0
2021-09-23 13:30:56.526,1109.0,-181.0,43.0,1124.4958870533942,1,1,1,3.0,2.0
2021-09-23 13:30:56.535,1128.0,280.0,58.0,1163.6786497998492,1,1,1,3.0,2.0
2021-09-23 13:30:56.544,1085.0,151.0,58.0,1096.991339984049,1,1,1,3.0,2.0
2021-09-23 13:30:56.545,1085.0,151.0,-20.0,1095.6395392646252,1,1,1,3.0,2.0
2021-09-23 13:30:56.554,950.0,181.0,17.0,967.2383367092104,1,1,1,3.0,2.0
2021-09-23 13:30:56.565,1052.0,5.0,-22.0,1052.2418923422504,1,1,1,3.0,2.0
2021-09-23 13:30:56.574,1132.0,44.0,99.0,1137.172370399492,1,1,1,3.0,2.0
2021-09-23 13:30:56.584,1044.0,44.0,99.0,1049.6061165980311,1,1,1,3.0,2.0
2021-09-23 13:30:56.585,1044.0,-424.0,-48.0,1127.8368676364505,1,1,1,3.0,2.0
2021-09-23 13:30:56.593,846.0,-115.0,-54.0,855.4864113473691,1,1,1,3.0,2.0
2021-09-23 13:30:56.604,1045.0,165.0,5.0,1057.957938672422,1,1,1,3.0,2.0
2021-09-23 13:30:56.613,933.0,280.0,4.0,974.1175493748176,1,1,1,3.0,2.0
2021-09-23 13:30:56.622,1107.0,280.0,4.0,1141.869081812797,1,1,1,3.0,2.0
2021-09-23 13:30:56.623,1107.0,145.0,19.0,1116.617660616202,1,1,1,3.0,2.0
2021-09-23 13:30:56.633,751.0,293.0,-67.0,808.9122325691459,1,1,1,3.0,2.0
2021-09-23 13:30:56.646,1198.0,184.0,-67.0,1213.8982659185242,1,1,1,3.0,2.0
2021-09-23 13:30:56.647,1198.0,184.0,63.0,1213.6840610307115,1,1,1,3.0,2.0
2021-09-23 13:30:56.654,1193.0,-117.0,26.0,1199.0054211720646,1,1,1,3.0,2.0
2021-09-23 13:30:56.663,1023.0,-303.0,0.0,1066.9292385158446,1,1,1,3.0,2.0
2021-09-23 13:30:56.671,854.0,-1.0,4.0,854.0099531035924,1,1,1,3.0,2.0
2021-09-23 13:30:56.681,1073.0,-215.0,53.0,1095.610788555863,1,1,1,3.0,2.0
2021-09-23 13:30:56.691,1099.0,61.0,62.0,1102.4363927229542,1,1,1,3.0,2.0
2021-09-23 13:30:56.701,952.0,-26.0,-8.0,952.388576159962,1,1,1,3.0,2.0
2021-09-23 13:30:56.711,893.0,-26.0,-8.0,893.4142376300033,1,1,1,3.0,2.0
2021-09-23 13:30:56.712,893.0,306.0,9.0,944.0158896967783,1,1,1,3.0,2.0
2021-09-23 13:30:56.720,1099.0,25.0,-12.0,1099.3498078409802,1,1,1,3.0,2.0
2021-09-23 13:30:56.730,1073.0,162.0,87.0,1088.6422736601771,1,1,1,3.0,2.0
2021-09-23 13:30:56.740,1072.0,-397.0,-57.0,1144.5706618640895,1,1,1,3.0,2.0
2021-09-23 13:30:56.750,927.0,-80.0,0.0,930.4455921761356,1,1,1,3.0,2.0
2021-09-23 13:30:56.760,1047.0,15.0,-5.0,1047.1193819235702,1,1,1,3.0,2.0
2021-09-23 13:30:56.769,970.0,7.0,-5.0,970.0381435799316,1,1,1,3.0,2.0
2021-09-23 13:30:56.770,970.0,7.0,52.0,971.418035657152,1,1,1,3.0,2.0
2021-09-23 13:30:56.779,991.0,45.0,4.0,992.0292334402247,1,1,1,3.0,2.0
2021-09-23 13:30:56.788,978.0,45.0,4.0,979.0428999793623,1,1,1,3.0,2.0
2021-09-23 13:30:56.789,978.0,-126.0,-41.0,986.9351549114056,1,1,1,3.0,2.0
2021-09-23 13:30:56.798,1002.0,176.0,62.0,1019.2271581938936,1,1,1,3.0,2.0
2021-09-23 13:30:56.808,1008.0,-37.0,-22.0,1008.9187281441456,1,1,1,3.0,2.0
2021-09-23 13:30:56.819,1055.0,80.0,42.0,1058.862125113558,1,1,1,3.0,2.0
2021-09-23 13:30:56.839,1064.0,33.0,35.0,1065.0868509187408,1,1,1,3.0,2.0
2021-09-23 13:30:56.840,1010.0,5.0,35.0,1010.6186224288568,1,1,1,3.0,2.0
2021-09-23 13:30:56.841,1010.0,5.0,-33.0,1010.551334668358,1,1,1,3.0,2.0
2021-09-23 13:30:56.849,1090.0,-26.0,29.0,1090.6956495741606,1,1,1,3.0,2.0
2021-09-23 13:30:56.857,969.0,81.0,-7.0,972.4047511196148,1,1,1,3.0,2.0
2021-09-23 13:30:56.867,1021.0,67.0,31.0,1023.665472700921,1,1,1,3.0,2.0
2021-09-23 13:30:56.876,1031.0,35.0,31.0,1032.0595913027505,1,1,1,3.0,2.0
2021-09-23 13:30:56.877,1031.0,35.0,-20.0,1031.7877688749757,1,1,1,3.0,2.0
2021-09-23 13:30:56.886,1007.0,31.0,-20.0,1007.6755430196764,1,1,1,3.0,2.0
2021-09-23 13:30:56.887,1007.0,31.0,10.0,1007.5266745848468,1,1,1,3.0,2.0
2021-09-23 13:30:56.897,999.0,48.0,23.0,1000.416913091737,1,1,1,3.0,2.0
2021-09-23 13:30:56.906,1022.0,15.0,14.0,1022.2059479380856,1,1,1,3.0,2.0
