time_stamp,Acceleration_X,Acceleration_Y,Acceleration_Z,magnitude,STD_Status_right,STD_Status_left,STD_Status_both,KMeans,KMeans_convert
2021-09-23 13:31:53.566,1043.0,-200.0,-9.0,1062.040488870363,1,1,1,2.0,2.0
2021-09-23 13:31:53.576,1001.0,98.0,85.0,1009.3710913237014,1,1,1,2.0,2.0
2021-09-23 13:31:53.586,908.0,-106.0,85.0,918.1094705970525,1,1,1,2.0,2.0
2021-09-23 13:31:53.587,908.0,-106.0,-38.0,914.955736634292,1,1,1,2.0,2.0
2021-09-23 13:31:53.596,997.0,-20.0,-38.0,997.924345829883,1,1,1,2.0,2.0
2021-09-23 13:31:53.597,997.0,-20.0,-27.0,997.5660379142828,1,1,1,2.0,2.0
2021-09-23 13:31:53.605,1024.0,378.0,74.0,1094.045702884482,1,1,1,2.0,2.0
2021-09-23 13:31:53.615,977.0,109.0,-40.0,983.8749920594588,1,1,1,2.0,2.0
2021-09-23 13:31:53.624,915.0,-107.0,-40.0,922.1030311196248,1,1,1,2.0,2.0
2021-09-23 13:31:53.625,915.0,-107.0,-66.0,923.5962321274378,1,1,1,2.0,2.0
2021-09-23 13:31:53.634,1018.0,3.0,-2.0,1018.0063850487384,1,1,1,2.0,2.0
2021-09-23 13:31:53.645,1116.0,3.0,-2.0,1116.005824357561,1,1,1,2.0,2.0
2021-09-23 13:31:53.646,1116.0,-114.0,12.0,1121.871650412827,1,1,1,2.0,2.0
2021-09-23 13:31:53.653,1094.0,-114.0,12.0,1099.9890908549958,1,1,1,2.0,2.0
2021-09-23 13:31:53.654,1094.0,-217.0,55.0,1116.669154226085,1,1,1,2.0,2.0
2021-09-23 13:31:53.663,857.0,-13.0,55.0,858.86145564928,1,1,1,2.0,2.0
2021-09-23 13:31:53.664,857.0,-13.0,-18.0,857.2875830198406,1,1,1,2.0,2.0
2021-09-23 13:31:53.673,1124.0,-197.0,47.0,1142.100696085945,1,1,1,2.0,2.0
2021-09-23 13:31:53.683,1079.0,228.0,81.0,1105.796545482034,1,1,1,2.0,2.0
2021-09-23 13:31:53.694,1045.0,183.0,22.0,1061.1305291998715,1,1,1,2.0,2.0
2021-09-23 13:31:53.702,898.0,183.0,22.0,916.7207862811882,1,1,1,2.0,2.0
2021-09-23 13:31:53.703,898.0,174.0,-22.0,914.96666605948,1,1,1,2.0,2.0
2021-09-23 13:31:53.712,1126.0,49.0,-1.0,1127.0661027641636,1,1,1,2.0,2.0
2021-09-23 13:31:53.722,1088.0,142.0,61.0,1098.9217442566144,1,1,1,2.0,2.0
2021-09-23 13:31:53.732,1027.0,-286.0,-14.0,1066.1711870051638,1,1,1,2.0,2.0
2021-09-23 13:31:53.743,861.0,-111.0,-50.0,869.5642586951237,1,1,1,2.0,2.0
2021-09-23 13:31:53.751,1005.0,46.0,-9.0,1006.0924410808384,1,1,1,2.0,2.0
2021-09-23 13:31:53.761,1042.0,212.0,21.0,1063.55488809934,1,1,1,2.0,2.0
2021-09-23 13:31:53.771,1031.0,112.0,10.0,1037.113783535828,1,1,1,2.0,2.0
2021-09-23 13:31:53.780,787.0,112.0,10.0,794.9924527943646,1,1,1,2.0,2.0
2021-09-23 13:31:53.781,787.0,368.0,-67.0,871.3678901589155,1,1,1,2.0,2.0
2021-09-23 13:31:53.799,1121.0,195.0,47.0,1138.8041973930374,1,1,1,2.0,2.0
2021-09-23 13:31:53.802,1120.0,-68.0,44.0,1122.9247525992114,1,1,1,2.0,2.0
2021-09-23 13:31:53.810,1061.0,-286.0,11.0,1098.9258391720523,1,1,1,2.0,2.0
2021-09-23 13:31:53.821,835.0,-286.0,11.0,882.6902061312338,1,1,1,2.0,2.0
2021-09-23 13:31:53.822,835.0,-35.0,-20.0,835.9724875855665,1,1,1,2.0,2.0
2021-09-23 13:31:53.829,1164.0,-206.0,-20.0,1182.257163226343,1,1,1,2.0,2.0
2021-09-23 13:31:53.830,1164.0,-206.0,38.0,1182.6986091139197,1,1,1,2.0,2.0
2021-09-23 13:31:53.839,1082.0,80.0,63.0,1086.7810267022514,1,1,1,2.0,2.0
2021-09-23 13:31:53.849,939.0,-33.0,-35.0,940.2313545080276,1,1,1,2.0,2.0
2021-09-23 13:31:53.863,884.0,221.0,-24.0,911.5223529897662,1,1,1,2.0,2.0
2021-09-23 13:31:53.868,1125.0,52.0,-24.0,1126.456834503657,1,1,1,2.0,2.0
2021-09-23 13:31:53.869,1125.0,52.0,0.0,1126.2011365648675,1,1,1,2.0,2.0
2021-09-23 13:31:53.878,1084.0,183.0,58.0,1100.867385292161,1,1,1,2.0,2.0
2021-09-23 13:31:53.888,1036.0,-284.0,-24.0,1074.489646297255,1,1,1,2.0,2.0
2021-09-23 13:31:53.898,889.0,-22.0,1.0,889.2727365662348,1,1,1,2.0,2.0
2021-09-23 13:31:53.908,1141.0,-219.0,33.0,1162.295573423559,1,1,1,2.0,2.0
2021-09-23 13:31:53.922,1078.0,-219.0,33.0,1100.5153338322914,1,1,1,2.0,2.0
2021-09-23 13:31:53.923,1078.0,210.0,34.0,1098.790243859127,1,1,1,2.0,2.0
2021-09-23 13:31:53.927,1018.0,88.0,-39.0,1022.5404637470344,1,1,1,2.0,2.0
2021-09-23 13:31:53.937,814.0,374.0,-49.0,897.1471451216908,1,1,1,2.0,2.0
2021-09-23 13:31:53.946,1116.0,374.0,-49.0,1178.0207977790544,1,1,1,2.0,2.0
2021-09-23 13:31:53.947,1116.0,189.0,41.0,1132.63321512306,1,1,1,2.0,2.0
2021-09-23 13:31:53.958,1049.0,225.0,37.0,1073.496623189845,1,1,1,2.0,2.0
2021-09-23 13:31:53.966,943.0,-63.0,-29.0,945.5469316749962,1,1,1,2.0,2.0
2021-09-23 13:31:53.976,829.0,-15.0,-2.0,829.1381067108181,1,1,1,2.0,2.0
2021-09-23 13:31:53.986,1143.0,-218.0,44.0,1164.4350561538415,1,1,1,2.0,2.0
2021-09-23 13:31:53.995,1085.0,-218.0,44.0,1107.558124885552,1,1,1,2.0,2.0
2021-09-23 13:31:53.996,1085.0,46.0,78.0,1088.7722443192608,1,1,1,2.0,2.0
2021-09-23 13:31:54.013,917.0,-52.0,-40.0,919.3437877094728,1,1,1,2.0,2.0
2021-09-23 13:31:54.016,896.0,263.0,-5.0,933.8147567906602,1,1,1,2.0,2.0
2021-09-23 13:31:54.025,1037.0,277.0,41.0,1074.1410521900743,1,1,1,2.0,2.0
2021-09-23 13:31:54.034,1111.0,277.0,41.0,1145.744735968706,1,1,1,2.0,2.0
2021-09-23 13:31:54.035,1111.0,203.0,50.0,1130.4998894294506,1,1,1,2.0,2.0
2021-09-23 13:31:54.046,1032.0,-270.0,-51.0,1067.9536506796535,1,1,1,2.0,2.0
2021-09-23 13:31:54.054,916.0,-16.0,-30.0,916.6307871766036,1,1,1,2.0,2.0
2021-09-23 13:31:54.064,1102.0,-203.0,31.0,1120.9701155695454,1,1,1,2.0,2.0
2021-09-23 13:31:54.073,1089.0,-203.0,31.0,1108.19267277852,1,1,1,2.0,2.0
2021-09-23 13:31:54.074,1089.0,-231.0,25.0,1113.5111135502868,1,1,1,2.0,2.0
2021-09-23 13:31:54.083,849.0,-136.0,25.0,860.1871889304095,1,1,1,2.0,2.0
2021-09-23 13:31:54.084,849.0,-136.0,-38.0,860.6631164398763,1,1,1,2.0,2.0
2021-09-23 13:31:54.094,808.0,418.0,-38.0,910.5119439084806,1,1,1,2.0,2.0
2021-09-23 13:31:54.095,808.0,418.0,-39.0,910.5542268311098,1,1,1,2.0,2.0
2021-09-23 13:31:54.104,1117.0,198.0,44.0,1135.266048113833,1,1,1,2.0,2.0
2021-09-23 13:31:54.117,1069.0,215.0,40.0,1091.1397710651006,1,1,1,2.0,2.0
2021-09-23 13:31:54.122,923.0,28.0,40.0,924.290538737685,1,1,1,2.0,2.0
2021-09-23 13:31:54.123,923.0,28.0,-16.0,923.5632084486692,1,1,1,2.0,2.0
2021-09-23 13:31:54.132,1082.0,-14.0,-24.0,1082.3566879730545,1,1,1,2.0,2.0
2021-09-23 13:31:54.142,1095.0,52.0,-24.0,1096.496694021464,1,1,1,2.0,2.0
2021-09-23 13:31:54.143,1095.0,52.0,68.0,1098.341021723217,1,1,1,2.0,2.0
2021-09-23 13:31:54.153,1068.0,-56.0,77.0,1072.2355151737886,1,1,1,2.0,2.0
2021-09-23 13:31:54.161,881.0,-62.0,77.0,886.5291873367735,1,1,1,2.0,2.0
2021-09-23 13:31:54.162,881.0,-62.0,-20.0,883.4053429768239,1,1,1,2.0,2.0
2021-09-23 13:31:54.171,966.0,176.0,-16.0,982.0325860173888,1,1,1,2.0,2.0
2021-09-23 13:31:54.182,1030.0,266.0,33.0,1064.3049375061642,1,1,1,2.0,2.0
2021-09-23 13:31:54.191,1013.0,152.0,3.0,1024.3446685564386,1,1,1,2.0,2.0
2021-09-23 13:31:54.201,786.0,152.0,3.0,800.5679234143721,1,1,1,2.0,2.0
2021-09-23 13:31:54.202,786.0,397.0,4.0,880.5799225510425,1,1,1,2.0,2.0
2021-09-23 13:31:54.212,972.0,-56.0,-38.0,974.3531187408392,1,1,1,2.0,2.0
2021-09-23 13:31:54.220,1099.0,-182.0,35.0,1114.517832966346,1,1,1,2.0,2.0
2021-09-23 13:31:54.230,1096.0,-298.0,32.0,1136.2411715828644,1,1,1,2.0,2.0
2021-09-23 13:31:54.239,849.0,-298.0,32.0,900.3493766310943,1,1,1,2.0,2.0
2021-09-23 13:31:54.240,849.0,-106.0,-29.0,856.0829399071097,1,1,1,2.0,2.0
2021-09-23 13:31:54.249,1129.0,-177.0,-29.0,1143.1583442375777,1,1,1,2.0,2.0
2021-09-23 13:31:54.250,1129.0,-177.0,36.0,1143.3573369686312,1,1,1,2.0,2.0
2021-09-23 13:31:54.260,1031.0,108.0,41.0,1037.451685622034,1,1,1,2.0,2.0
2021-09-23 13:31:54.269,1075.0,212.0,24.0,1095.9676090104124,1,1,1,2.0,2.0
2021-09-23 13:31:54.278,926.0,212.0,24.0,950.2610167738126,1,1,1,2.0,2.0
2021-09-23 13:31:54.279,926.0,108.0,-27.0,932.6676792941846,1,1,1,2.0,2.0
2021-09-23 13:31:54.288,1096.0,36.0,-27.0,1096.923424856995,1,1,1,2.0,2.0
2021-09-23 13:31:54.289,1096.0,36.0,10.0,1096.6366763883104,1,1,1,2.0,2.0
2021-09-23 13:31:54.299,1085.0,121.0,85.0,1095.0301365715925,1,1,1,2.0,2.0
2021-09-23 13:31:54.320,1085.0,-310.0,85.0,1131.6138917493015,1,1,1,2.0,2.0
2021-09-23 13:31:54.321,891.0,-40.0,14.0,892.0072869657512,1,1,1,2.0,2.0
2021-09-23 13:31:54.322,891.0,-40.0,12.0,891.9781387455637,1,1,1,2.0,2.0
2021-09-23 13:31:54.329,977.0,103.0,7.0,982.4393111027266,1,1,1,2.0,2.0
2021-09-23 13:31:54.337,1015.0,284.0,22.0,1054.2129765849024,1,1,1,2.0,2.0
2021-09-23 13:31:54.347,1047.0,175.0,6.0,1061.5413322146246,1,1,1,2.0,2.0
2021-09-23 13:31:54.357,774.0,427.0,-47.0,885.2197467295903,1,1,1,2.0,2.0
2021-09-23 13:31:54.367,1147.0,204.0,47.0,1165.9476832173902,1,1,1,2.0,2.0
2021-09-23 13:31:54.377,1047.0,204.0,47.0,1067.7237470432135,1,1,1,2.0,2.0
2021-09-23 13:31:54.378,1047.0,219.0,46.0,1070.647467656838,1,1,1,2.0,2.0
2021-09-23 13:31:54.386,1068.0,-287.0,46.0,1106.8464211443247,1,1,1,2.0,2.0
2021-09-23 13:31:54.387,1068.0,-287.0,15.0,1105.991862537876,1,1,1,2.0,2.0
2021-09-23 13:31:54.396,857.0,-55.0,-7.0,858.7915928792037,1,1,1,2.0,2.0
2021-09-23 13:31:54.405,1142.0,-55.0,-7.0,1143.3450922621744,1,1,1,2.0,2.0
2021-09-23 13:31:54.406,1142.0,-223.0,40.0,1164.2564150564083,1,1,1,2.0,2.0
2021-09-23 13:31:54.415,1075.0,51.0,40.0,1076.9521809254113,1,1,1,2.0,2.0
2021-09-23 13:31:54.416,1075.0,51.0,72.0,1078.614852484426,1,1,1,2.0,2.0
2021-09-23 13:31:54.425,962.0,-29.0,72.0,965.1264165900756,1,1,1,2.0,2.0
2021-09-23 13:31:54.426,962.0,-29.0,-17.0,962.5871389126286,1,1,1,2.0,2.0
2021-09-23 13:31:54.436,816.0,-29.0,-17.0,816.6921084472409,1,1,1,2.0,2.0
2021-09-23 13:31:54.437,816.0,394.0,-35.0,906.816960582454,1,1,1,2.0,2.0
2021-09-23 13:31:54.444,1120.0,394.0,-35.0,1187.7966997765232,1,1,1,2.0,2.0
2021-09-23 13:31:54.445,1120.0,12.0,-2.0,1120.066069479832,1,1,1,2.0,2.0
2021-09-23 13:31:54.454,1099.0,157.0,-2.0,1110.1594480073572,1,1,1,2.0,2.0
2021-09-23 13:31:54.455,1099.0,157.0,68.0,1112.2382838223111,1,1,1,2.0,2.0
2021-09-23 13:31:54.465,1034.0,-345.0,-17.0,1090.1697115587097,1,1,1,2.0,2.0
2021-09-23 13:31:54.474,902.0,-52.0,14.0,903.6061088770924,1,1,1,2.0,2.0
2021-09-23 13:31:54.486,1142.0,-234.0,30.0,1166.1132020520135,1,1,1,2.0,2.0
2021-09-23 13:31:54.493,1074.0,-234.0,30.0,1099.6053837627387,1,1,1,2.0,2.0
2021-09-23 13:31:54.494,1074.0,-165.0,62.0,1088.3680443673454,1,1,1,2.0,2.0
2021-09-23 13:31:54.503,1029.0,201.0,0.0,1048.4474235744967,1,1,1,2.0,2.0
2021-09-23 13:31:54.513,791.0,437.0,-63.0,905.8802349096708,1,1,1,2.0,2.0
2021-09-23 13:31:54.527,1153.0,245.0,40.0,1179.4210444111975,1,1,1,2.0,2.0
2021-09-23 13:31:54.532,1068.0,245.0,40.0,1096.4711578514048,1,1,1,2.0,2.0
2021-09-23 13:31:54.533,1068.0,236.0,45.0,1094.6894536808145,1,1,1,2.0,2.0
2021-09-23 13:31:54.543,993.0,-103.0,-30.0,998.77825366795,1,1,1,2.0,2.0
2021-09-23 13:31:54.552,985.0,-108.0,-48.0,992.0650180305724,1,1,1,2.0,2.0
2021-09-23 13:31:54.562,1137.0,-274.0,36.0,1170.102986920382,1,1,1,2.0,2.0
2021-09-23 13:31:54.571,1097.0,-274.0,36.0,1131.2740605176095,1,1,1,2.0,2.0
2021-09-23 13:31:54.572,1097.0,53.0,83.0,1101.411367291985,1,1,1,2.0,2.0
2021-09-23 13:31:54.581,919.0,-52.0,83.0,924.2045228194894,1,1,1,2.0,2.0
2021-09-23 13:31:54.582,919.0,-52.0,-37.0,921.2133303421092,1,1,1,2.0,2.0
2021-09-23 13:31:54.592,871.0,343.0,-18.0,936.2766685120376,1,1,1,2.0,2.0
2021-09-23 13:31:54.601,1045.0,321.0,46.0,1094.158123855963,1,1,1,2.0,2.0
2021-09-23 13:31:54.611,1069.0,165.0,26.0,1081.9713489737148,1,1,1,2.0,2.0
2021-09-23 13:31:54.622,1044.0,-372.0,-43.0,1109.1298391081182,1,1,1,2.0,2.0
2021-09-23 13:31:54.630,890.0,-43.0,8.0,891.0740709952231,1,1,1,2.0,2.0
2021-09-23 13:31:54.641,1115.0,-231.0,29.0,1139.0465310951963,1,1,1,2.0,2.0
2021-09-23 13:31:54.650,1102.0,-201.0,59.0,1121.733479931842,1,1,1,2.0,2.0
2021-09-23 13:31:54.659,844.0,-201.0,59.0,869.6079576452828,1,1,1,2.0,2.0
2021-09-23 13:31:54.660,844.0,-138.0,-54.0,856.910730473134,1,1,1,2.0,2.0
2021-09-23 13:31:54.670,1072.0,-88.0,17.0,1075.7402102738374,1,1,1,2.0,2.0
2021-09-23 13:31:54.679,1109.0,251.0,48.0,1138.0623884480146,1,1,1,2.0,2.0
2021-09-23 13:31:54.689,1087.0,220.0,34.0,1109.560723890315,1,1,1,2.0,2.0
2021-09-23 13:31:54.699,924.0,-22.0,34.0,924.8870201273236,1,1,1,2.0,2.0
2021-09-23 13:31:54.700,924.0,-22.0,-5.0,924.2753918611054,1,1,1,2.0,2.0
2021-09-23 13:31:54.708,1027.0,-21.0,-39.0,1027.9547655417527,1,1,1,2.0,2.0
2021-09-23 13:31:54.718,1121.0,15.0,57.0,1122.5484399347763,1,1,1,2.0,2.0
2021-09-23 13:31:54.728,1094.0,-337.0,-11.0,1144.7820753313706,1,1,1,2.0,2.0
2021-09-23 13:31:54.739,915.0,-95.0,-21.0,920.1581385827112,1,1,1,2.0,2.0
2021-09-23 13:31:54.748,945.0,227.0,-20.0,972.0874446262536,1,1,1,2.0,2.0
2021-09-23 13:31:54.757,1020.0,279.0,29.0,1057.8667212839243,1,1,1,2.0,2.0
2021-09-23 13:31:54.767,1052.0,191.0,20.0,1069.3853374719515,1,1,1,2.0,2.0
2021-09-23 13:31:54.778,772.0,404.0,-18.0,871.5067412246448,1,1,1,2.0,2.0
2021-09-23 13:31:54.786,1162.0,404.0,-18.0,1230.3592971160904,1,1,1,2.0,2.0
2021-09-23 13:31:54.787,1162.0,167.0,39.0,1174.5867358352043,1,1,1,2.0,2.0
2021-09-23 13:31:54.797,1111.0,-221.0,21.0,1132.9620470254067,1,1,1,2.0,2.0
2021-09-23 13:31:54.816,1083.0,-257.0,21.0,1113.274000414992,1,1,1,2.0,2.0
2021-09-23 13:31:54.819,847.0,-97.0,-39.0,853.4277942509254,1,1,1,2.0,2.0
2021-09-23 13:31:54.826,1130.0,-162.0,20.0,1141.7285141398545,1,1,1,2.0,2.0
2021-09-23 13:31:54.836,1046.0,168.0,50.0,1060.584744374536,1,1,1,2.0,2.0
2021-09-23 13:31:54.845,932.0,46.0,-3.0,933.1393250742356,1,1,1,2.0,2.0
2021-09-23 13:31:54.855,782.0,46.0,-3.0,783.3575173571771,1,1,1,2.0,2.0
2021-09-23 13:31:54.856,782.0,470.0,-54.0,913.9693649132886,1,1,1,2.0,2.0
2021-09-23 13:31:54.864,1082.0,470.0,-54.0,1180.9064315177557,1,1,1,2.0,2.0
2021-09-23 13:31:54.865,1082.0,-7.0,-31.0,1082.4666276611026,1,1,1,2.0,2.0
2021-09-23 13:31:54.882,1098.0,73.0,82.0,1103.474965733251,1,1,1,2.0,2.0
2021-09-23 13:31:54.912,1091.0,73.0,82.0,1096.5099178758028,1,1,1,2.0,2.0
2021-09-23 13:31:54.913,1091.0,-353.0,-5.0,1146.6974317578286,1,1,1,2.0,2.0
2021-09-23 13:31:54.937,1052.0,-67.0,-5.0,1054.1432540219569,1,1,1,2.0,2.0
2021-09-23 13:31:54.938,1052.0,-67.0,67.0,1056.2584910901307,1,1,1,2.0,2.0
2021-09-23 13:31:54.945,1043.0,117.0,-11.0,1049.5994474083911,1,1,1,2.0,2.0
2021-09-23 13:31:54.947,784.0,369.0,-17.0,866.6637179437016,1,1,1,2.0,2.0
2021-09-23 13:31:54.950,1160.0,147.0,52.0,1170.4328259238118,1,1,1,2.0,2.0
2021-09-23 13:31:54.955,1052.0,230.0,50.0,1078.0092763979353,1,1,1,2.0,2.0
2021-09-23 13:31:54.962,1058.0,-209.0,-51.0,1079.6508694943936,1,1,1,2.0,2.0
2021-09-23 13:31:54.972,977.0,-80.0,-29.0,980.6987304978018,1,1,1,2.0,2.0
2021-09-23 13:31:54.982,1148.0,-204.0,36.0,1166.5401836199214,1,1,1,2.0,2.0
2021-09-23 13:31:54.992,1030.0,153.0,37.0,1041.9587323881883,1,1,1,2.0,2.0
2021-09-23 13:31:55.002,951.0,44.0,-2.0,952.0194325747768,1,1,1,2.0,2.0
2021-09-23 13:31:55.011,798.0,44.0,-2.0,799.2146144809916,1,1,1,2.0,2.0
2021-09-23 13:31:55.012,798.0,458.0,-43.0,921.0955433612736,1,1,1,2.0,2.0
2021-09-23 13:31:55.031,1111.0,303.0,42.0,1152.342830931837,1,1,1,2.0,2.0
2021-09-23 13:31:55.034,1057.0,218.0,17.0,1079.380377809417,1,1,1,2.0,2.0
2021-09-23 13:31:55.040,1073.0,-348.0,-2.0,1128.0234926631626,1,1,1,2.0,2.0
2021-09-23 13:31:55.051,870.0,-78.0,-3.0,873.4947051928821,1,1,1,2.0,2.0
2021-09-23 13:31:55.061,1130.0,-335.0,25.0,1178.8765838712718,1,1,1,2.0,2.0
2021-09-23 13:31:55.070,1060.0,-38.0,81.0,1063.7692418941244,1,1,1,2.0,2.0
2021-09-23 13:31:55.080,882.0,-114.0,-43.0,890.3757633718474,1,1,1,2.0,2.0
2021-09-23 13:31:55.089,984.0,132.0,-43.0,993.7449370940212,1,1,1,2.0,2.0
2021-09-23 13:31:55.090,984.0,132.0,-1.0,992.8146856286928,1,1,1,2.0,2.0
2021-09-23 13:31:55.099,1160.0,184.0,36.0,1175.054041310441,1,1,1,2.0,2.0
2021-09-23 13:31:55.110,1043.0,219.0,36.0,1066.3517243386443,1,1,1,2.0,2.0
2021-09-23 13:31:55.111,1043.0,219.0,41.0,1066.532231111653,1,1,1,2.0,2.0
2021-09-23 13:31:55.118,1066.0,-160.0,41.0,1078.720074903587,1,1,1,2.0,2.0
2021-09-23 13:31:55.119,1066.0,-160.0,-35.0,1078.5086925936205,1,1,1,2.0,2.0
2021-09-23 13:31:55.128,969.0,-117.0,-35.0,976.6652445950966,1,1,1,2.0,2.0
2021-09-23 13:31:55.129,969.0,-117.0,-42.0,976.9411445936752,1,1,1,2.0,2.0
2021-09-23 13:31:55.138,1143.0,-209.0,24.0,1162.198778178673,1,1,1,2.0,2.0
2021-09-23 13:31:55.148,1051.0,-334.0,17.0,1102.9261081323623,1,1,1,2.0,2.0
2021-09-23 13:31:55.157,937.0,-334.0,17.0,994.8939641992004,1,1,1,2.0,2.0
2021-09-23 13:31:55.158,937.0,57.0,-12.0,938.8088197284898,1,1,1,2.0,2.0
2021-09-23 13:31:55.167,793.0,492.0,-12.0,933.3043447879154,1,1,1,2.0,2.0
2021-09-23 13:31:55.168,793.0,492.0,-42.0,934.171825736572,1,1,1,2.0,2.0
2021-09-23 13:31:55.177,1089.0,292.0,35.0,1128.011524763821,1,1,1,2.0,2.0
2021-09-23 13:31:55.187,1085.0,198.0,13.0,1102.9950135880035,1,1,1,2.0,2.0
2021-09-23 13:31:55.197,883.0,230.0,10.0,912.517945029028,1,1,1,2.0,2.0
2021-09-23 13:31:55.208,1114.0,35.0,2.0,1114.5514792955953,1,1,1,2.0,2.0
2021-09-23 13:31:55.216,1127.0,-257.0,44.0,1156.7687755122024,1,1,1,2.0,2.0
2021-09-23 13:31:55.226,1060.0,-102.0,77.0,1067.676449117428,1,1,1,2.0,2.0
2021-09-23 13:31:55.236,857.0,-160.0,-61.0,873.9393571638709,1,1,1,2.0,2.0
2021-09-23 13:31:55.245,1027.0,-160.0,-61.0,1041.1772183446965,1,1,1,2.0,2.0
2021-09-23 13:31:55.246,1027.0,65.0,9.0,1029.0942619604873,1,1,1,2.0,2.0
2021-09-23 13:31:55.256,997.0,245.0,19.0,1026.8373775822538,1,1,1,2.0,2.0
2021-09-23 13:31:55.265,1063.0,145.0,9.0,1072.8816337322585,1,1,1,2.0,2.0
2021-09-23 13:31:55.275,1012.0,-112.0,-6.0,1018.1964447001376,1,1,1,2.0,2.0
2021-09-23 13:31:55.284,989.0,-112.0,-6.0,995.3396405247807,1,1,1,2.0,2.0
2021-09-23 13:31:55.285,989.0,-111.0,-36.0,995.8604319883384,1,1,1,2.0,2.0
2021-09-23 13:31:55.294,1148.0,-99.0,42.0,1153.026018787087,1,1,1,2.0,2.0
2021-09-23 13:31:55.304,1094.0,-381.0,-22.0,1158.6548234914487,1,1,1,2.0,2.0
2021-09-23 13:31:55.315,807.0,-23.0,-3.0,807.3332645196778,1,1,1,2.0,2.0
2021-09-23 13:31:55.323,1121.0,-23.0,-3.0,1121.239938639362,1,1,1,2.0,2.0
2021-09-23 13:31:55.324,1121.0,-254.0,42.0,1150.1830289132247,1,1,1,2.0,2.0
2021-09-23 13:31:55.333,1020.0,322.0,42.0,1070.4428989908804,1,1,1,2.0,2.0
2021-09-23 13:31:55.334,1020.0,322.0,39.0,1070.3293885528883,1,1,1,2.0,2.0
2021-09-23 13:31:55.355,1063.0,147.0,14.0,1073.2073425019043,1,1,1,2.0,2.0
2021-09-23 13:31:55.357,812.0,355.0,2.0,886.2127284123152,1,1,1,2.0,2.0
2021-09-23 13:31:55.362,1163.0,355.0,2.0,1215.97615108192,1,1,1,2.0,2.0
2021-09-23 13:31:55.363,1163.0,59.0,0.0,1164.4955989611983,1,1,1,2.0,2.0
2021-09-23 13:31:55.372,1077.0,170.0,0.0,1090.3343523892108,1,1,1,2.0,2.0
2021-09-23 13:31:55.373,1077.0,170.0,70.0,1092.5790589243416,1,1,1,2.0,2.0
2021-09-23 13:31:55.382,1071.0,-423.0,-57.0,1152.917603300427,1,1,1,2.0,2.0
2021-09-23 13:31:55.392,865.0,-166.0,-60.0,882.8255773367692,1,1,1,2.0,2.0
2021-09-23 13:31:55.403,1036.0,-57.0,28.0,1037.9446035314215,1,1,1,2.0,2.0
2021-09-23 13:31:55.411,991.0,221.0,28.0,1015.7292946449855,1,1,1,2.0,2.0
2021-09-23 13:31:55.412,991.0,221.0,44.0,1016.2962166612646,1,1,1,2.0,2.0
2021-09-23 13:31:55.421,1013.0,106.0,1.0,1018.5312955427536,1,1,1,2.0,2.0
2021-09-23 13:31:55.431,773.0,106.0,1.0,780.2345801103666,1,1,1,2.0,2.0
2021-09-23 13:31:55.432,773.0,445.0,-58.0,893.8221299565143,1,1,1,2.0,2.0
2021-09-23 13:31:55.441,1129.0,251.0,56.0,1157.919686334074,1,1,1,2.0,2.0
2021-09-23 13:31:55.451,1129.0,-12.0,72.0,1131.357149621639,1,1,1,2.0,2.0
2021-09-23 13:31:55.461,1093.0,-325.0,-12.0,1140.3587154926297,1,1,1,2.0,2.0
2021-09-23 13:31:55.470,865.0,-12.0,0.0,865.0832329897511,1,1,1,2.0,2.0
2021-09-23 13:31:55.480,1098.0,-259.0,0.0,1128.1334140960455,1,1,1,2.0,2.0
2021-09-23 13:31:55.481,1098.0,-259.0,30.0,1128.5322325924058,1,1,1,2.0,2.0
2021-09-23 13:31:55.490,1092.0,32.0,70.0,1094.7090937778858,1,1,1,2.0,2.0
2021-09-23 13:31:55.499,899.0,-77.0,70.0,905.0027624267232,1,1,1,2.0,2.0
2021-09-23 13:31:55.500,899.0,-77.0,-27.0,902.6954082081064,1,1,1,2.0,2.0
2021-09-23 13:31:55.510,817.0,373.0,-10.0,898.1748159462054,1,1,1,2.0,2.0
2021-09-23 13:31:55.519,1170.0,55.0,10.0,1171.3347087831044,1,1,1,2.0,2.0
2021-09-23 13:31:55.529,1065.0,214.0,71.0,1088.6055300245357,1,1,1,2.0,2.0
2021-09-23 13:31:55.538,1086.0,214.0,71.0,1109.1586901791827,1,1,1,2.0,2.0
2021-09-23 13:31:55.539,1086.0,-354.0,-56.0,1143.611822254387,1,1,1,2.0,2.0
2021-09-23 13:31:55.548,933.0,-89.0,-29.0,937.683848639828,1,1,1,2.0,2.0
2021-09-23 13:31:55.559,1114.0,-200.0,17.0,1131.9386025752458,1,1,1,2.0,2.0
2021-09-23 13:31:55.568,1023.0,173.0,45.0,1038.5003610976744,1,1,1,2.0,2.0
2021-09-23 13:31:55.577,962.0,173.0,45.0,978.4671685856404,1,1,1,2.0,2.0
2021-09-23 13:31:55.578,962.0,66.0,2.0,964.2634494784088,1,1,1,2.0,2.0
2021-09-23 13:31:55.587,782.0,465.0,2.0,909.8093206820866,1,1,1,2.0,2.0
2021-09-23 13:31:55.588,782.0,465.0,-61.0,911.8497683280948,1,1,1,2.0,2.0
2021-09-23 13:31:55.597,1140.0,263.0,-61.0,1171.5331834822264,1,1,1,2.0,2.0
2021-09-23 13:31:55.598,1140.0,263.0,61.0,1171.5331834822264,1,1,1,2.0,2.0
2021-09-23 13:31:55.607,1085.0,209.0,5.0,1104.9574652447034,1,1,1,2.0,2.0
2021-09-23 13:31:55.618,940.0,81.0,-12.0,943.559749035534,1,1,1,2.0,2.0
2021-09-23 13:31:55.626,1054.0,-31.0,-21.0,1054.6648756832665,1,1,1,2.0,2.0
2021-09-23 13:31:55.637,1124.0,-287.0,11.0,1160.114649506677,1,1,1,2.0,2.0
2021-09-23 13:31:55.646,1080.0,-11.0,88.0,1083.6350861798448,1,1,1,2.0,2.0
2021-09-23 13:31:55.656,858.0,-90.0,-38.0,863.5438610748154,1,1,1,2.0,2.0
2021-09-23 13:31:55.666,981.0,188.0,-10.0,998.901897084994,1,1,1,2.0,2.0
2021-09-23 13:31:55.675,1021.0,269.0,22.0,1056.071020339068,1,1,1,2.0,2.0
2021-09-23 13:31:55.685,1082.0,132.0,22.0,1090.244009385055,1,1,1,2.0,2.0
2021-09-23 13:31:55.686,1082.0,132.0,14.0,1090.111920859505,1,1,1,2.0,2.0
2021-09-23 13:31:55.695,1103.0,-343.0,-69.0,1157.1598852362624,1,1,1,2.0,2.0
2021-09-23 13:31:55.704,955.0,-343.0,-69.0,1017.0717772114218,1,1,1,2.0,2.0
2021-09-23 13:31:55.705,955.0,-84.0,-22.0,958.9395184264752,1,1,1,2.0,2.0
2021-09-23 13:31:55.715,1123.0,-175.0,8.0,1136.581717255737,1,1,1,2.0,2.0
2021-09-23 13:31:55.724,1066.0,-175.0,8.0,1080.298569840764,1,1,1,2.0,2.0
2021-09-23 13:31:55.725,1066.0,-260.0,24.0,1097.5117311445924,1,1,1,2.0,2.0
2021-09-23 13:31:55.734,833.0,-46.0,-20.0,834.5088375805256,1,1,1,2.0,2.0
2021-09-23 13:31:55.743,1108.0,-46.0,-20.0,1109.1347979393668,1,1,1,2.0,2.0
2021-09-23 13:31:55.744,1108.0,-189.0,23.0,1124.2392983702357,1,1,1,2.0,2.0
2021-09-23 13:31:55.753,1088.0,281.0,47.0,1124.6839556070852,1,1,1,2.0,2.0
2021-09-23 13:31:55.765,1090.0,181.0,5.0,1104.9371022822972,1,1,1,2.0,2.0
2021-09-23 13:31:55.773,919.0,126.0,5.0,927.6109098107892,1,1,1,2.0,2.0
2021-09-23 13:31:55.774,919.0,126.0,3.0,927.6022854650586,1,1,1,2.0,2.0
2021-09-23 13:31:55.783,1069.0,4.0,-20.0,1069.1945566640338,1,1,1,2.0,2.0
2021-09-23 13:31:55.793,1112.0,83.0,99.0,1119.479343266324,1,1,1,2.0,2.0
2021-09-23 13:31:55.802,1082.0,-452.0,-34.0,1173.1086906165174,1,1,1,2.0,2.0
2021-09-23 13:31:55.824,852.0,-129.0,-70.0,864.5490153831649,1,1,1,2.0,2.0
2021-09-23 13:31:55.829,1037.0,165.0,-21.0,1050.254731005769,1,1,1,2.0,2.0
2021-09-23 13:31:55.831,958.0,294.0,-21.0,1002.3178138694332,1,1,1,2.0,2.0
2021-09-23 13:31:55.832,958.0,294.0,16.0,1002.2255235225254,1,1,1,2.0,2.0
2021-09-23 13:31:55.841,1111.0,146.0,16.0,1120.6663196509476,1,1,1,2.0,2.0
2021-09-23 13:31:55.842,1111.0,146.0,19.0,1120.713165801134,1,1,1,2.0,2.0
2021-09-23 13:31:55.851,744.0,385.0,-92.0,842.7484796782489,1,1,1,2.0,2.0
2021-09-23 13:31:55.862,1208.0,385.0,-92.0,1271.2014002509595,1,1,1,2.0,2.0
2021-09-23 13:31:55.863,1208.0,179.0,44.0,1221.9824057653204,1,1,1,2.0,2.0
2021-09-23 13:31:55.871,1168.0,179.0,44.0,1182.4554959912869,1,1,1,2.0,2.0
2021-09-23 13:31:55.872,1168.0,-121.0,36.0,1174.8025365992364,1,1,1,2.0,2.0
2021-09-23 13:31:55.880,1070.0,-366.0,-13.0,1130.9398746175675,1,1,1,2.0,2.0
2021-09-23 13:31:55.890,821.0,0.0,2.0,821.0024360499791,1,1,1,2.0,2.0
2021-09-23 13:31:55.900,1128.0,-238.0,35.0,1153.365943662288,1,1,1,2.0,2.0
2021-09-23 13:31:55.910,1102.0,86.0,65.0,1107.2601320376343,1,1,1,2.0,2.0
2021-09-23 13:31:55.920,935.0,-20.0,-15.0,935.334164884401,1,1,1,2.0,2.0
2021-09-23 13:31:55.929,869.0,324.0,14.0,927.5413737402768,1,1,1,2.0,2.0
2021-09-23 13:31:55.939,1128.0,-31.0,-21.0,1128.621282804821,1,1,1,2.0,2.0
2021-09-23 13:31:55.948,1086.0,-31.0,-21.0,1086.645296313383,1,1,1,2.0,2.0
2021-09-23 13:31:55.949,1086.0,165.0,104.0,1103.3752761413498,1,1,1,2.0,2.0
2021-09-23 13:31:55.958,1046.0,-503.0,104.0,1165.3072556197358,1,1,1,2.0,2.0
2021-09-23 13:31:55.959,1046.0,-503.0,-61.0,1162.259007278498,1,1,1,2.0,2.0
2021-09-23 13:31:55.978,1091.0,-262.0,-6.0,1122.034313200804,1,1,1,2.0,2.0
2021-09-23 13:31:55.988,983.0,251.0,18.0,1014.6989701384348,1,1,1,2.0,2.0
2021-09-23 13:31:55.997,1059.0,177.0,18.0,1073.8407703193243,1,1,1,2.0,2.0
2021-09-23 13:31:55.998,1059.0,177.0,19.0,1073.8579980611962,1,1,1,2.0,2.0
2021-09-23 13:31:56.008,745.0,466.0,19.0,878.9436842028049,1,1,1,2.0,2.0
2021-09-23 13:31:56.009,745.0,466.0,-85.0,882.83973630552,1,1,1,2.0,2.0
2021-09-23 13:31:56.017,1182.0,227.0,52.0,1204.7227896906409,1,1,1,2.0,2.0
2021-09-23 13:31:56.027,994.0,243.0,29.0,1023.682567986776,1,1,1,2.0,2.0
2021-09-23 13:31:56.046,996.0,-65.0,29.0,998.5399341037894,1,1,1,2.0,2.0
2021-09-23 13:31:56.047,996.0,-65.0,2.0,998.1207341799887,1,1,1,2.0,2.0
2021-09-23 13:31:56.049,827.0,-65.0,2.0,829.5528916229513,1,1,1,2.0,2.0
2021-09-23 13:31:56.050,827.0,-15.0,1.0,827.1366271662741,1,1,1,2.0,2.0
2021-09-23 13:31:56.057,1094.0,-275.0,41.0,1128.7789863387784,1,1,1,2.0,2.0
2021-09-23 13:31:56.066,1124.0,69.0,83.0,1129.1704919984404,1,1,1,2.0,2.0
2021-09-23 13:31:56.075,917.0,69.0,83.0,923.330385073512,1,1,1,2.0,2.0
2021-09-23 13:31:56.076,917.0,-41.0,-11.0,917.982025967829,1,1,1,2.0,2.0
2021-09-23 13:31:56.086,913.0,331.0,-40.0,971.9722218252948,1,1,1,2.0,2.0
2021-09-23 13:31:56.095,1003.0,389.0,31.0,1076.2392856609538,1,1,1,2.0,2.0
2021-09-23 13:31:56.106,1071.0,189.0,20.0,1087.7325038813542,1,1,1,2.0,2.0
2021-09-23 13:31:56.115,1087.0,-514.0,-77.0,1204.862647773596,1,1,1,2.0,2.0
2021-09-23 13:31:56.124,909.0,-52.0,7.0,910.5130421910496,1,1,1,2.0,2.0
2021-09-23 13:31:56.134,1096.0,-308.0,-19.0,1138.613630693046,1,1,1,2.0,2.0
2021-09-23 13:31:56.144,1120.0,-209.0,67.0,1141.3018881961077,1,1,1,2.0,2.0
2021-09-23 13:31:56.155,858.0,-162.0,-72.0,876.1232789967403,1,1,1,2.0,2.0
2021-09-23 13:31:56.163,1073.0,-67.0,35.0,1075.6593326885609,1,1,1,2.0,2.0
2021-09-23 13:31:56.173,1174.0,276.0,57.0,1207.3528895894522,1,1,1,2.0,2.0
2021-09-23 13:31:56.183,1026.0,224.0,26.0,1050.489409751474,1,1,1,2.0,2.0
2021-09-23 13:31:56.193,993.0,-52.0,6.0,994.3787004959428,1,1,1,2.0,2.0
2021-09-23 13:31:56.203,988.0,-81.0,-46.0,992.3814790694151,1,1,1,2.0,2.0
2021-09-23 13:31:56.212,1169.0,-59.0,53.0,1171.6872449591658,1,1,1,2.0,2.0
2021-09-23 13:31:56.222,1064.0,-361.0,-27.0,1123.8976821757396,1,1,1,2.0,2.0
2021-09-23 13:31:56.232,916.0,-57.0,-30.0,918.2619451986452,1,1,1,2.0,2.0
2021-09-23 13:31:56.242,887.0,338.0,-32.0,949.7562845277728,1,1,1,2.0,2.0
2021-09-23 13:31:56.251,1027.0,362.0,21.0,1089.1345187808529,1,1,1,2.0,2.0
2021-09-23 13:31:56.262,1071.0,168.0,20.0,1084.2808676722098,1,1,1,2.0,2.0
2021-09-23 13:31:56.271,814.0,445.0,26.0,928.060881623614,1,1,1,2.0,2.0
2021-09-23 13:31:56.280,1164.0,445.0,26.0,1246.43371263778,1,1,1,2.0,2.0
2021-09-23 13:31:56.281,1164.0,-14.0,5.0,1164.0949274006823,1,1,1,2.0,2.0
2021-09-23 13:31:56.290,1104.0,-284.0,-19.0,1140.1021884024256,1,1,1,2.0,2.0
2021-09-23 13:31:56.300,1118.0,-183.0,55.0,1134.2125021352922,1,1,1,2.0,2.0
2021-09-23 13:31:56.311,851.0,-119.0,-89.0,863.8767273170403,1,1,1,2.0,2.0
2021-09-23 13:31:56.319,1086.0,-119.0,-89.0,1096.1195190306576,1,1,1,2.0,2.0
2021-09-23 13:31:56.320,1086.0,-84.0,24.0,1089.5081459080516,1,1,1,2.0,2.0
2021-09-23 13:31:56.329,979.0,213.0,24.0,1002.1906006344302,1,1,1,2.0,2.0
2021-09-23 13:31:56.330,979.0,213.0,19.0,1002.08332986833,1,1,1,2.0,2.0
2021-09-23 13:31:56.339,1000.0,101.0,0.0,1005.087558374891,1,1,1,2.0,2.0
2021-09-23 13:31:56.349,958.0,101.0,0.0,963.3093999333756,1,1,1,2.0,2.0
2021-09-23 13:31:56.350,958.0,-61.0,-12.0,960.0151040478478,1,1,1,2.0,2.0
2021-09-23 13:31:56.359,974.0,-80.0,-39.0,978.0577692549658,1,1,1,2.0,2.0
2021-09-23 13:31:56.376,1173.0,-71.0,64.0,1176.8882699729827,1,1,1,2.0,2.0
2021-09-23 13:31:56.380,1084.0,-401.0,-30.0,1156.1820790861618,1,1,1,2.0,2.0
2021-09-23 13:31:56.388,859.0,-30.0,0.0,859.5237053159151,1,1,1,2.0,2.0
2021-09-23 13:31:56.398,1076.0,-30.0,0.0,1076.4181343697253,1,1,1,2.0,2.0
2021-09-23 13:31:56.399,1076.0,-296.0,24.0,1116.2293671105415,1,1,1,2.0,2.0
2021-09-23 13:31:56.408,977.0,-296.0,24.0,1021.1371112637128,1,1,1,2.0,2.0
2021-09-23 13:31:56.409,977.0,377.0,12.0,1047.2831517789257,1,1,1,2.0,2.0
2021-09-23 13:31:56.417,1122.0,148.0,15.0,1131.8184483387784,1,1,1,2.0,2.0
2021-09-23 13:31:56.427,723.0,414.0,-10.0,833.2016562633562,1,1,1,2.0,2.0
2021-09-23 13:31:56.437,1196.0,84.0,31.0,1199.3469056115498,1,1,1,2.0,2.0
2021-09-23 13:31:56.447,1046.0,210.0,71.0,1069.2319673485265,1,1,1,2.0,2.0
2021-09-23 13:31:56.457,1103.0,-277.0,-61.0,1138.884981023106,1,1,1,2.0,2.0
2021-09-23 13:31:56.466,854.0,-24.0,-44.0,855.4694617576947,1,1,1,2.0,2.0
2021-09-23 13:31:56.476,1116.0,-164.0,35.0,1128.5286881599422,1,1,1,2.0,2.0
2021-09-23 13:31:56.486,1010.0,167.0,25.0,1024.0185545193992,1,1,1,2.0,2.0
2021-09-23 13:31:56.496,940.0,69.0,32.0,943.0721075294296,1,1,1,2.0,2.0
2021-09-23 13:31:56.506,770.0,523.0,-91.0,935.2593223272356,1,1,1,2.0,2.0
2021-09-23 13:31:56.515,1149.0,302.0,-91.0,1191.5057700237965,1,1,1,2.0,2.0
2021-09-23 13:31:56.516,1149.0,302.0,65.0,1189.8025046199891,1,1,1,2.0,2.0
2021-09-23 13:31:56.524,1127.0,302.0,65.0,1168.5709221095651,1,1,1,2.0,2.0
2021-09-23 13:31:56.525,1127.0,95.0,109.0,1136.2372111491509,1,1,1,2.0,2.0
2021-09-23 13:31:56.534,1058.0,-454.0,109.0,1156.4432541201493,1,1,1,2.0,2.0
2021-09-23 13:31:56.535,1058.0,-454.0,-34.0,1151.7968570889573,1,1,1,2.0,2.0
2021-09-23 13:31:56.544,901.0,-44.0,16.0,902.2156061607448,1,1,1,2.0,2.0
2021-09-23 13:31:56.554,1102.0,-44.0,16.0,1102.9941069652186,1,1,1,2.0,2.0
2021-09-23 13:31:56.555,1102.0,-252.0,12.0,1130.5096195964013,1,1,1,2.0,2.0
2021-09-23 13:31:56.564,1099.0,-71.0,84.0,1104.4899275231078,1,1,1,2.0,2.0
2021-09-23 13:31:56.573,838.0,-71.0,84.0,845.1869615653095,1,1,1,2.0,2.0
2021-09-23 13:31:56.574,838.0,-137.0,-66.0,851.6859749931309,1,1,1,2.0,2.0
2021-09-23 13:31:56.583,726.0,348.0,-62.0,807.4800307128344,1,1,1,2.0,2.0
2021-09-23 13:31:56.593,1231.0,128.0,40.0,1238.283085566463,1,1,1,2.0,2.0
2021-09-23 13:31:56.604,969.0,264.0,54.0,1005.7698543901582,1,1,1,2.0,2.0
2021-09-23 13:31:56.612,1055.0,264.0,54.0,1088.8695973347774,1,1,1,2.0,2.0
2021-09-23 13:31:56.613,1055.0,-129.0,0.0,1062.8574692779837,1,1,1,2.0,2.0
2021-09-23 13:31:56.622,945.0,-137.0,-58.0,956.6389078434976,1,1,1,2.0,2.0
2021-09-23 13:31:56.632,1192.0,-162.0,47.0,1203.8758241612795,1,1,1,2.0,2.0
2021-09-23 13:31:56.642,1093.0,104.0,60.0,1099.5749178659903,1,1,1,2.0,2.0
2021-09-23 13:31:56.652,935.0,11.0,0.0,935.06470364355,1,1,1,2.0,2.0
2021-09-23 13:31:56.662,850.0,417.0,-44.0,947.8000844059892,1,1,1,2.0,2.0
2021-09-23 13:31:56.672,1039.0,359.0,26.0,1099.5808292253917,1,1,1,2.0,2.0
2021-09-23 13:31:56.681,1090.0,141.0,13.0,1099.1587692412777,1,1,1,2.0,2.0
2021-09-23 13:31:56.691,869.0,347.0,-7.0,935.745157615042,1,1,1,2.0,2.0
2021-09-23 13:31:56.700,903.0,-19.0,-7.0,903.226992510742,1,1,1,2.0,2.0
2021-09-23 13:31:56.701,903.0,-19.0,22.0,903.4677636750522,1,1,1,2.0,2.0
2021-09-23 13:31:56.711,1094.0,-276.0,-3.0,1128.2823228252755,1,1,1,2.0,2.0
2021-09-23 13:31:56.720,1124.0,-87.0,94.0,1131.2740605176095,1,1,1,2.0,2.0
2021-09-23 13:31:56.730,830.0,-164.0,-89.0,850.7155811433101,1,1,1,2.0,2.0
2021-09-23 13:31:56.739,1089.0,-164.0,-89.0,1104.8701281146125,1,1,1,2.0,2.0
2021-09-23 13:31:56.740,1089.0,29.0,26.0,1089.6962879628434,1,1,1,2.0,2.0
2021-09-23 13:31:56.749,930.0,254.0,5.0,964.0752045354138,1,1,1,2.0,2.0
2021-09-23 13:31:56.759,977.0,234.0,5.0,1004.6442156305884,1,1,1,2.0,2.0
2021-09-23 13:31:56.760,977.0,234.0,32.0,1005.1412836014648,1,1,1,2.0,2.0
2021-09-23 13:31:56.769,1007.0,-29.0,9.0,1007.4576914193468,1,1,1,2.0,2.0
2021-09-23 13:31:56.779,976.0,-74.0,-44.0,979.7897733697775,1,1,1,2.0,2.0
2021-09-23 13:31:56.788,1158.0,-84.0,65.0,1162.8606967302662,1,1,1,2.0,2.0
2021-09-23 13:31:56.798,1041.0,-364.0,-20.0,1102.985494011594,1,1,1,2.0,2.0
2021-09-23 13:31:56.808,838.0,4.0,16.0,838.1622754574439,1,1,1,2.0,2.0
2021-09-23 13:31:56.818,876.0,4.0,16.0,876.1552373866175,1,1,1,2.0,2.0
2021-09-23 13:31:56.819,876.0,376.0,-41.0,954.1661280930068,1,1,1,2.0,2.0
2021-09-23 13:31:56.828,1001.0,375.0,32.0,1069.4157283301945,1,1,1,2.0,2.0
2021-09-23 13:31:56.843,1108.0,130.0,11.0,1115.6545164162603,1,1,1,2.0,2.0
2021-09-23 13:31:56.847,807.0,467.0,32.0,932.9319374959784,1,1,1,2.0,2.0
2021-09-23 13:31:56.857,1125.0,3.0,-11.0,1125.0577762941778,1,1,1,2.0,2.0
2021-09-23 13:31:56.866,1067.0,211.0,-11.0,1087.7182539610153,1,1,1,2.0,2.0
2021-09-23 13:31:56.867,1067.0,211.0,87.0,1091.136563405333,1,1,1,2.0,2.0
2021-09-23 13:31:56.876,1111.0,-140.0,65.0,1121.671074780838,1,1,1,2.0,2.0
2021-09-23 13:31:56.887,854.0,-109.0,-66.0,863.4541099560532,1,1,1,2.0,2.0
2021-09-23 13:31:56.896,1077.0,-31.0,32.0,1077.9211473943722,1,1,1,2.0,2.0
2021-09-23 13:31:56.906,958.0,214.0,14.0,981.710751698279,1,1,1,2.0,2.0
2021-09-23 13:31:56.915,1057.0,149.0,17.0,1067.5855937581773,1,1,1,2.0,2.0
2021-09-23 13:31:56.925,729.0,452.0,-77.0,861.2049697952283,1,1,1,2.0,2.0
2021-09-23 13:31:56.936,970.0,-101.0,-47.0,976.3759521823548,1,1,1,2.0,2.0
2021-09-23 13:31:56.944,1181.0,-101.0,-47.0,1186.2423866984352,1,1,1,2.0,2.0
2021-09-23 13:31:56.945,1181.0,-135.0,61.0,1190.2550146922297,1,1,1,2.0,2.0
2021-09-23 13:31:56.954,1065.0,-461.0,-25.0,1160.763111060995,1,1,1,2.0,2.0
2021-09-23 13:31:56.964,859.0,-27.0,12.0,859.5079987993131,1,1,1,2.0,2.0
2021-09-23 13:31:56.974,1056.0,-271.0,39.0,1090.9161287651768,1,1,1,2.0,2.0
2021-09-23 13:31:56.990,1127.0,30.0,92.0,1131.146763245159,1,1,1,2.0,2.0
2021-09-23 13:31:56.993,1108.0,30.0,92.0,1112.2176046080192,1,1,1,2.0,2.0
2021-09-23 13:31:56.994,1108.0,158.0,0.0,1119.208649001606,1,1,1,2.0,2.0
2021-09-23 13:31:57.003,793.0,421.0,20.0,898.0478829104827,1,1,1,2.0,2.0
2021-09-23 13:31:57.013,1137.0,8.0,9.0,1137.0637625041086,1,1,1,2.0,2.0
2021-09-23 13:31:57.023,1037.0,223.0,89.0,1064.4336522301426,1,1,1,2.0,2.0
2021-09-23 13:31:57.034,1114.0,-438.0,-73.0,1199.2368406615933,1,1,1,2.0,2.0
2021-09-23 13:31:57.042,943.0,-111.0,-13.0,949.5993892163158,1,1,1,2.0,2.0
2021-09-23 13:31:57.061,1087.0,-107.0,31.0,1092.693461131712,1,1,1,2.0,2.0
2021-09-23 13:31:57.064,947.0,214.0,11.0,970.9407808924292,1,1,1,2.0,2.0
2021-09-23 13:31:57.071,983.0,214.0,11.0,1006.0844894938,1,1,1,2.0,2.0
2021-09-23 13:31:57.072,983.0,122.0,47.0,991.6561904208536,1,1,1,2.0,2.0
2021-09-23 13:31:57.082,743.0,518.0,-68.0,908.2934547820984,1,1,1,2.0,2.0
2021-09-23 13:31:57.091,1179.0,265.0,70.0,1210.4404157165277,1,1,1,2.0,2.0
2021-09-23 13:31:57.101,1073.0,206.0,-15.0,1092.6984945537356,1,1,1,2.0,2.0
2021-09-23 13:31:57.111,1075.0,-432.0,-31.0,1158.9693697419273,1,1,1,2.0,2.0
2021-09-23 13:31:57.120,875.0,-24.0,-31.0,875.8778453642951,1,1,1,2.0,2.0
2021-09-23 13:31:57.121,875.0,-24.0,-4.0,875.3382203468555,1,1,1,2.0,2.0
2021-09-23 13:31:57.134,1073.0,-280.0,28.0,1109.284904792272,1,1,1,2.0,2.0
2021-09-23 13:31:57.140,1105.0,-59.0,89.0,1110.1472875253985,1,1,1,2.0,2.0
2021-09-23 13:31:57.150,834.0,-97.0,-55.0,841.4214164139156,1,1,1,2.0,2.0
2021-09-23 13:31:57.159,1021.0,-97.0,-55.0,1027.0710783582604,1,1,1,2.0,2.0
2021-09-23 13:31:57.160,1021.0,222.0,-20.0,1045.0478457946317,1,1,1,2.0,2.0
2021-09-23 13:31:57.169,1201.0,222.0,-20.0,1221.50931228542,1,1,1,2.0,2.0
2021-09-23 13:31:57.170,1201.0,100.0,38.0,1205.754950228279,1,1,1,2.0,2.0
2021-09-23 13:31:57.182,996.0,100.0,38.0,1001.7285061332736,1,1,1,2.0,2.0
2021-09-23 13:31:57.183,996.0,275.0,68.0,1035.5022935754416,1,1,1,2.0,2.0
2021-09-23 13:31:57.189,1114.0,-265.0,68.0,1147.102872457392,1,1,1,2.0,2.0
2021-09-23 13:31:57.190,1114.0,-265.0,-57.0,1146.5033798467407,1,1,1,2.0,2.0
2021-09-23 13:31:57.198,945.0,-265.0,-57.0,983.1068100669428,1,1,1,2.0,2.0
2021-09-23 13:31:57.199,945.0,-115.0,-40.0,952.8116288123272,1,1,1,2.0,2.0
2021-09-23 13:31:57.208,1163.0,-203.0,-40.0,1181.2611904231849,1,1,1,2.0,2.0
2021-09-23 13:31:57.209,1163.0,-203.0,14.0,1180.6667607754528,1,1,1,2.0,2.0
2021-09-23 13:31:57.218,1052.0,-292.0,21.0,1091.9748165594297,1,1,1,2.0,2.0
2021-09-23 13:31:57.228,953.0,59.0,26.0,955.178517346365,1,1,1,2.0,2.0
2021-09-23 13:31:57.237,767.0,59.0,26.0,769.7051383484458,1,1,1,2.0,2.0
2021-09-23 13:31:57.238,767.0,528.0,-59.0,933.034833218996,1,1,1,2.0,2.0
2021-09-23 13:31:57.247,1124.0,337.0,-59.0,1174.915316097292,1,1,1,2.0,2.0
2021-09-23 13:31:57.248,1124.0,337.0,56.0,1174.7684878306875,1,1,1,2.0,2.0
2021-09-23 13:31:57.257,1110.0,176.0,-15.0,1123.9666365155151,1,1,1,2.0,2.0
2021-09-23 13:31:57.267,906.0,223.0,5.0,933.0541249038022,1,1,1,2.0,2.0
2021-09-23 13:31:57.278,1057.0,-23.0,-25.0,1057.5457436914962,1,1,1,2.0,2.0
2021-09-23 13:31:57.287,1055.0,-299.0,12.0,1096.6175267612678,1,1,1,2.0,2.0
2021-09-23 13:31:57.297,1101.0,-54.0,111.0,1107.8980097463846,1,1,1,2.0,2.0
2021-09-23 13:31:57.306,821.0,-149.0,-81.0,838.3334658714275,1,1,1,2.0,2.0
2021-09-23 13:31:57.316,1056.0,137.0,21.0,1065.0568059967509,1,1,1,2.0,2.0
2021-09-23 13:31:57.326,936.0,314.0,4.0,987.273011886783,1,1,1,2.0,2.0
2021-09-23 13:31:57.339,1125.0,142.0,18.0,1134.0692218731624,1,1,1,2.0,2.0
2021-09-23 13:31:57.345,1073.0,142.0,18.0,1082.50496534658,1,1,1,2.0,2.0
2021-09-23 13:31:57.346,1073.0,-116.0,-19.0,1079.419288321271,1,1,1,2.0,2.0
2021-09-23 13:31:57.355,944.0,-108.0,-56.0,951.806703065281,1,1,1,2.0,2.0
2021-09-23 13:31:57.365,1191.0,-150.0,32.0,1200.8351260685206,1,1,1,2.0,2.0
2021-09-23 13:31:57.375,1042.0,-324.0,11.0,1091.2657788091772,1,1,1,2.0,2.0
2021-09-23 13:31:57.390,836.0,-324.0,11.0,896.6565674772031,1,1,1,2.0,2.0
2021-09-23 13:31:57.391,836.0,0.0,4.0,836.0095693232225,1,1,1,2.0,2.0
2021-09-23 13:31:57.394,1109.0,-261.0,48.0,1140.3096070804631,1,1,1,2.0,2.0
2021-09-23 13:31:57.403,1064.0,-261.0,48.0,1096.5951851070658,1,1,1,2.0,2.0
2021-09-23 13:31:57.404,1064.0,373.0,52.0,1128.6846326587422,1,1,1,2.0,2.0
2021-09-23 13:31:57.413,1098.0,153.0,52.0,1109.8274640681766,1,1,1,2.0,2.0
2021-09-23 13:31:57.414,1098.0,153.0,-1.0,1108.6090383899998,1,1,1,2.0,2.0
2021-09-23 13:31:57.425,865.0,346.0,-1.0,931.6340483258434,1,1,1,2.0,2.0
2021-09-23 13:31:57.426,865.0,346.0,15.0,931.7542594482732,1,1,1,2.0,2.0
2021-09-23 13:31:57.433,1109.0,-16.0,-21.0,1109.314202559401,1,1,1,2.0,2.0
2021-09-23 13:31:57.442,1083.0,-16.0,-21.0,1083.321743527748,1,1,1,2.0,2.0
2021-09-23 13:31:57.443,1083.0,165.0,107.0,1100.7102252636705,1,1,1,2.0,2.0
2021-09-23 13:31:57.452,1090.0,-598.0,107.0,1247.8593670762743,1,1,1,2.0,2.0
2021-09-23 13:31:57.453,1090.0,-598.0,-81.0,1245.8992736172536,1,1,1,2.0,2.0
2021-09-23 13:31:57.465,895.0,-70.0,25.0,898.0812880803163,1,1,1,2.0,2.0
2021-09-23 13:31:57.473,1078.0,2.0,37.0,1078.6366394666927,1,1,1,2.0,2.0
2021-09-23 13:31:57.482,920.0,244.0,0.0,951.806703065281,1,1,1,2.0,2.0
2021-09-23 13:31:57.491,1072.0,244.0,0.0,1099.4180278674714,1,1,1,2.0,2.0
2021-09-23 13:31:57.492,1072.0,172.0,32.0,1086.182305140348,1,1,1,2.0,2.0
2021-09-23 13:31:57.501,733.0,396.0,-102.0,839.3503440161326,1,1,1,2.0,2.0
2021-09-23 13:31:57.511,1220.0,208.0,62.0,1239.1561644925953,1,1,1,2.0,2.0
2021-09-23 13:31:57.521,1201.0,-105.0,62.0,1207.1743867395464,1,1,1,2.0,2.0
2021-09-23 13:31:57.532,1031.0,-382.0,-28.0,1099.8495351637878,1,1,1,2.0,2.0
2021-09-23 13:31:57.540,881.0,-25.0,26.0,881.7380563409974,1,1,1,2.0,2.0
2021-09-23 13:31:57.550,1064.0,-288.0,42.0,1103.0883917438348,1,1,1,2.0,2.0
2021-09-23 13:31:57.560,1152.0,-61.0,61.0,1155.225519108715,1,1,1,2.0,2.0
2021-09-23 13:31:57.570,889.0,42.0,0.0,889.9915729938122,1,1,1,2.0,2.0
2021-09-23 13:31:57.580,966.0,-215.0,0.0,989.6368020642724,1,1,1,2.0,2.0
2021-09-23 13:31:57.581,966.0,-215.0,-35.0,990.2555225799048,1,1,1,2.0,2.0
2021-09-23 13:31:57.589,991.0,61.0,-26.0,993.215988594626,1,1,1,2.0,2.0
2021-09-23 13:31:57.599,1008.0,-36.0,20.0,1008.8409190749552,1,1,1,2.0,2.0
2021-09-23 13:31:57.609,945.0,109.0,-10.0,951.318033046783,1,1,1,2.0,2.0
2021-09-23 13:31:57.619,955.0,-15.0,-27.0,955.4993458919791,1,1,1,2.0,2.0
2021-09-23 13:31:57.629,1036.0,133.0,44.0,1045.4286202319124,1,1,1,2.0,2.0
2021-09-23 13:31:57.639,1078.0,-1.0,-22.0,1078.224930151404,1,1,1,2.0,2.0
2021-09-23 13:31:57.648,950.0,23.0,-25.0,950.6071743890848,1,1,1,2.0,2.0
2021-09-23 13:31:57.657,1037.0,23.0,-25.0,1037.5562635346578,1,1,1,2.0,2.0
2021-09-23 13:31:57.658,1037.0,4.0,5.0,1037.0197683747404,1,1,1,2.0,2.0
2021-09-23 13:31:57.667,989.0,10.0,0.0,989.0505548251818,1,1,1,2.0,2.0
2021-09-23 13:31:57.678,1049.0,13.0,19.0,1049.2525911333266,1,1,1,2.0,2.0
2021-09-23 13:31:57.688,974.0,13.0,19.0,974.27203593247,1,1,1,2.0,2.0
2021-09-23 13:31:57.689,974.0,40.0,-4.0,974.8292158116724,1,1,1,2.0,2.0
2021-09-23 13:31:57.696,1019.0,40.0,-4.0,1019.7926259784388,1,1,1,2.0,2.0
2021-09-23 13:31:57.697,1019.0,65.0,12.0,1021.1415181060852,1,1,1,2.0,2.0
2021-09-23 13:31:57.706,1013.0,59.0,19.0,1014.8945758057828,1,1,1,2.0,2.0
2021-09-23 13:31:57.716,1012.0,40.0,2.0,1012.7921800645976,1,1,1,2.0,2.0
2021-09-23 13:31:57.726,1011.0,19.0,2.0,1011.1804982296682,1,1,1,2.0,2.0
2021-09-23 13:31:57.727,1011.0,19.0,6.0,1011.1963211958398,1,1,1,2.0,2.0
2021-09-23 13:31:57.736,1006.0,19.0,6.0,1006.1972967564562,1,1,1,2.0,2.0
2021-09-23 13:31:57.737,1006.0,35.0,5.0,1006.6210806455426,1,1,1,2.0,2.0
2021-09-23 13:31:57.745,1019.0,19.0,5.0,1019.1893837751649,1,1,1,2.0,2.0
2021-09-23 13:31:57.746,1019.0,19.0,10.0,1019.2261770578696,1,1,1,2.0,2.0
2021-09-23 13:31:57.755,1012.0,20.0,8.0,1012.229223051775,1,1,1,2.0,2.0
2021-09-23 13:31:57.765,1016.0,24.0,10.0,1016.3326227175826,1,1,1,2.0,2.0
2021-09-23 13:31:57.775,1020.0,6.0,2.0,1020.0196076546764,1,1,1,2.0,2.0
2021-09-23 13:31:57.785,1006.0,6.0,2.0,1006.0198805192668,1,1,1,2.0,2.0
2021-09-23 13:31:57.786,1006.0,13.0,16.0,1006.2112104324816,1,1,1,2.0,2.0
2021-09-23 13:31:57.795,1010.0,13.0,16.0,1010.210374130062,1,1,1,2.0,2.0
2021-09-23 13:31:57.796,1010.0,8.0,-1.0,1010.0321777052452,1,1,1,2.0,2.0
2021-09-23 13:31:57.804,1018.0,33.0,10.0,1018.583820802196,1,1,1,2.0,2.0
2021-09-23 13:31:57.814,1012.0,34.0,10.0,1012.6203632161464,1,1,1,2.0,2.0
2021-09-23 13:31:57.823,1005.0,34.0,10.0,1005.6246814791292,1,1,1,2.0,2.0
2021-09-23 13:31:57.824,1005.0,39.0,0.0,1005.7564317467724,1,1,1,2.0,2.0
2021-09-23 13:31:57.833,1003.0,39.0,0.0,1003.7579389474336,1,1,1,2.0,2.0
2021-09-23 13:31:57.834,1003.0,50.0,15.0,1004.3575060704233,1,1,1,2.0,2.0
2021-09-23 13:31:57.854,1035.0,56.0,13.0,1036.5953887607257,1,1,1,2.0,2.0
2021-09-23 13:31:57.858,991.0,20.0,-8.0,991.2340793172922,1,1,1,2.0,2.0
2021-09-23 13:31:57.862,1025.0,20.0,-8.0,1025.2263164784642,1,1,1,2.0,2.0
2021-09-23 13:31:57.863,1025.0,-10.0,19.0,1025.2248533858317,1,1,1,2.0,2.0
2021-09-23 13:31:57.873,1036.0,20.0,17.0,1036.3324756080935,1,1,1,2.0,2.0
2021-09-23 13:31:57.882,1020.0,21.0,12.0,1020.2867244064288,1,1,1,2.0,2.0
2021-09-23 13:31:58.038,1011.0,24.0,13.0,1011.3683799684466,1,1,1,2.0,2.0
2021-09-23 13:31:58.039,1011.0,24.0,4.0,1011.292737045016,1,1,1,2.0,2.0
2021-09-23 13:31:58.049,1009.0,30.0,10.0,1009.4954185136256,1,1,1,2.0,2.0
2021-09-23 13:31:58.058,1010.0,29.0,4.0,1010.4241683570322,1,1,1,2.0,2.0
2021-09-23 13:31:58.075,1022.0,29.0,4.0,1022.419189960752,1,1,1,2.0,2.0
