time_stamp,Acceleration_X,Acceleration_Y,Acceleration_Z,magnitude,STD_Status_right,STD_Status_left,STD_Status_both,KMeans,KMeans_convert
2021-09-27 09:37:44.373,1033.0,-176.0,-13.0,1047.9666025212823,1,1,1,2.0,2.0
2021-09-27 09:37:44.383,965.0,24.0,4.0,965.3066870171364,1,1,1,2.0,2.0
2021-09-27 09:37:44.394,1025.0,94.0,9.0,1029.3405656049897,1,1,1,2.0,2.0
2021-09-27 09:37:44.402,997.0,124.0,9.0,1004.721852056578,1,1,1,2.0,2.0
2021-09-27 09:37:44.412,1028.0,68.0,-26.0,1030.5745970088726,1,1,1,2.0,2.0
2021-09-27 09:37:44.422,988.0,24.0,-30.0,988.74668141036,1,1,1,2.0,2.0
2021-09-27 09:37:44.433,996.0,29.0,-3.0,996.42661546147,1,1,1,2.0,2.0
2021-09-27 09:37:44.443,994.0,19.0,-20.0,994.382723100115,1,1,1,2.0,2.0
2021-09-27 09:37:44.452,1011.0,99.0,44.0,1016.788080181903,1,1,1,2.0,2.0
2021-09-27 09:37:44.460,1051.0,99.0,44.0,1056.568975505149,1,1,1,2.0,2.0
2021-09-27 09:37:44.461,1051.0,44.0,8.0,1051.951044488288,1,1,1,2.0,2.0
2021-09-27 09:37:44.470,1003.0,46.0,8.0,1004.086151682215,1,1,1,2.0,2.0
2021-09-27 09:37:44.471,1003.0,46.0,-25.0,1004.3654713300332,1,1,1,2.0,2.0
2021-09-27 09:37:44.482,1023.0,15.0,3.0,1023.114363109032,1,1,1,2.0,2.0
2021-09-27 09:37:44.491,1008.0,42.0,3.0,1008.8790809606472,1,1,1,2.0,2.0
2021-09-27 09:37:44.492,1008.0,42.0,41.0,1009.7073833542072,1,1,1,2.0,2.0
2021-09-27 09:37:44.500,1047.0,12.0,2.0,1047.070675742569,1,1,1,2.0,2.0
2021-09-27 09:37:44.510,1057.0,-15.0,2.0,1057.1083198991482,1,1,1,2.0,2.0
2021-09-27 09:37:44.524,982.0,-15.0,2.0,982.116591856588,1,1,1,2.0,2.0
2021-09-27 09:37:44.525,982.0,7.0,-37.0,982.7217307050862,1,1,1,2.0,2.0
2021-09-27 09:37:44.530,985.0,23.0,-46.0,986.341725772564,1,1,1,2.0,2.0
2021-09-27 09:37:44.540,988.0,42.0,14.0,988.9914054227164,1,1,1,2.0,2.0
2021-09-27 09:37:44.549,1031.0,21.0,21.0,1031.427651364845,1,1,1,2.0,2.0
2021-09-27 09:37:44.559,999.0,5.0,6.0,999.0305300640216,1,1,1,2.0,2.0
2021-09-27 09:37:44.569,1032.0,28.0,22.0,1032.6141583379535,1,1,1,2.0,2.0
2021-09-27 09:37:44.579,1012.0,60.0,14.0,1013.8737594000548,1,1,1,2.0,2.0
2021-09-27 09:37:44.589,1018.0,60.0,14.0,1019.8627358620374,1,1,1,2.0,2.0
2021-09-27 09:37:44.590,1018.0,46.0,9.0,1019.0785053174264,1,1,1,2.0,2.0
2021-09-27 09:37:44.599,1019.0,22.0,21.0,1019.453775313035,1,1,1,2.0,2.0
2021-09-27 09:37:44.608,1037.0,-47.0,-12.0,1038.1339027312422,1,1,1,2.0,2.0
2021-09-27 09:37:44.617,995.0,-47.0,-12.0,996.1817103320057,1,1,1,2.0,2.0
2021-09-27 09:37:44.618,995.0,48.0,11.0,996.2178476618454,1,1,1,2.0,2.0
2021-09-27 09:37:44.628,1046.0,30.0,7.0,1046.4535345632887,1,1,1,2.0,2.0
2021-09-27 09:37:44.637,1012.0,97.0,-13.0,1016.7212007231874,1,1,1,2.0,2.0
2021-09-27 09:37:44.653,1013.0,20.0,-13.0,1013.28081004231,1,1,1,2.0,2.0
2021-09-27 09:37:44.654,1013.0,20.0,14.0,1013.294133013707,1,1,1,2.0,2.0
2021-09-27 09:37:44.657,996.0,31.0,3.0,996.4868288141092,1,1,1,2.0,2.0
2021-09-27 09:37:44.667,1005.0,23.0,11.0,1005.3233310731428,1,1,1,2.0,2.0
2021-09-27 09:37:44.676,1026.0,0.0,11.0,1026.0589651672071,1,1,1,2.0,2.0
2021-09-27 09:37:44.677,1026.0,0.0,29.0,1026.409762229491,1,1,1,2.0,2.0
2021-09-27 09:37:44.687,1025.0,-13.0,-4.0,1025.0902399301244,1,1,1,2.0,2.0
2021-09-27 09:37:44.697,999.0,17.0,20.0,999.3447853468792,1,1,1,2.0,2.0
2021-09-27 09:37:44.705,1000.0,-17.0,4.0,1000.152488373648,1,1,1,2.0,2.0
2021-09-27 09:37:44.715,1018.0,42.0,3.0,1018.8704530017544,1,1,1,2.0,2.0
2021-09-27 09:37:44.725,994.0,47.0,3.0,995.1150687232104,1,1,1,2.0,2.0
2021-09-27 09:37:44.726,994.0,47.0,-18.0,995.2733292920092,1,1,1,2.0,2.0
2021-09-27 09:37:44.739,988.0,111.0,2.0,994.2177829831852,1,1,1,2.0,2.0
2021-09-27 09:37:44.745,1037.0,111.0,2.0,1042.925692463274,1,1,1,2.0,2.0
2021-09-27 09:37:44.746,1037.0,67.0,11.0,1039.2203808625002,1,1,1,2.0,2.0
2021-09-27 09:37:44.754,989.0,56.0,2.0,990.5861900915032,1,1,1,2.0,2.0
2021-09-27 09:37:44.764,1012.0,94.0,38.0,1017.0663695157756,1,1,1,2.0,2.0
2021-09-27 09:37:44.774,1003.0,94.0,38.0,1008.1116009648932,1,1,1,2.0,2.0
2021-09-27 09:37:44.775,1003.0,64.0,51.0,1006.3329468918326,1,1,1,2.0,2.0
2021-09-27 09:37:44.784,1057.0,24.0,33.0,1057.7873132156578,1,1,1,2.0,2.0
2021-09-27 09:37:44.793,1032.0,24.0,33.0,1032.806371010559,1,1,1,2.0,2.0
2021-09-27 09:37:44.794,1032.0,47.0,27.0,1033.4224692738203,1,1,1,2.0,2.0
2021-09-27 09:37:44.803,968.0,77.0,13.0,971.1446854099548,1,1,1,2.0,2.0
2021-09-27 09:37:44.812,1028.0,77.0,13.0,1030.9616869699862,1,1,1,2.0,2.0
2021-09-27 09:37:44.813,1028.0,34.0,47.0,1029.6353723527568,1,1,1,2.0,2.0
2021-09-27 09:37:44.822,1023.0,54.0,47.0,1025.5018283747718,1,1,1,2.0,2.0
2021-09-27 09:37:44.823,1023.0,54.0,39.0,1025.1663279682962,1,1,1,2.0,2.0
2021-09-27 09:37:44.833,1046.0,64.0,29.0,1048.3572864248142,1,1,1,2.0,2.0
2021-09-27 09:37:44.843,1058.0,71.0,19.0,1060.5498573853097,1,1,1,2.0,2.0
2021-09-27 09:37:44.852,1000.0,71.0,19.0,1002.6973621188,1,1,1,2.0,2.0
2021-09-27 09:37:44.853,1000.0,-3.0,-29.0,1000.4249097258624,1,1,1,2.0,2.0
2021-09-27 09:37:44.862,976.0,53.0,-17.0,977.5858018608905,1,1,1,2.0,2.0
2021-09-27 09:37:44.871,970.0,42.0,3.0,970.9134873921568,1,1,1,2.0,2.0
2021-09-27 09:37:44.881,1024.0,42.0,3.0,1024.8653570103734,1,1,1,2.0,2.0
2021-09-27 09:37:44.882,1024.0,25.0,13.0,1024.387621947864,1,1,1,2.0,2.0
2021-09-27 09:37:44.892,1027.0,24.0,20.0,1027.4750605245852,1,1,1,2.0,2.0
2021-09-27 09:37:44.902,1001.0,51.0,31.0,1002.7776423514836,1,1,1,2.0,2.0
2021-09-27 09:37:44.910,1032.0,3.0,0.0,1032.0043604559044,1,1,1,2.0,2.0
2021-09-27 09:37:44.920,1016.0,29.0,10.0,1016.4629850614336,1,1,1,2.0,2.0
2021-09-27 09:37:44.931,1014.0,5.0,-9.0,1014.0522668975204,1,1,1,2.0,2.0
2021-09-27 09:37:44.940,973.0,24.0,-22.0,973.5445547071791,1,1,1,2.0,2.0
2021-09-27 09:37:44.950,1015.0,27.0,4.0,1015.3669287503902,1,1,1,2.0,2.0
2021-09-27 09:37:44.960,1018.0,58.0,1.0,1019.651411022414,1,1,1,2.0,2.0
2021-09-27 09:37:44.969,1020.0,15.0,-6.0,1020.1279331534844,1,1,1,2.0,2.0
2021-09-27 09:37:44.979,979.0,15.0,-6.0,979.133290211297,1,1,1,2.0,2.0
2021-09-27 09:37:44.980,979.0,6.0,-31.0,979.5090607033708,1,1,1,2.0,2.0
2021-09-27 09:37:44.988,1093.0,6.0,-31.0,1093.4559890548865,1,1,1,2.0,2.0
2021-09-27 09:37:44.989,1093.0,5.0,34.0,1093.5401227206985,1,1,1,2.0,2.0
2021-09-27 09:37:44.999,952.0,-16.0,-61.0,954.0864740682576,1,1,1,2.0,2.0
2021-09-27 09:37:45.008,992.0,-16.0,-61.0,994.0025150873612,1,1,1,2.0,2.0
2021-09-27 09:37:45.009,992.0,-39.0,8.0,992.798569700823,1,1,1,2.0,2.0
2021-09-27 09:37:45.018,1027.0,49.0,42.0,1029.0257528361474,1,1,1,2.0,2.0
2021-09-27 09:37:45.037,1067.0,1.0,42.0,1067.826764976417,1,1,1,2.0,2.0
2021-09-27 09:37:45.038,1067.0,1.0,16.0,1067.1204243195798,1,1,1,2.0,2.0
2021-09-27 09:37:45.041,1039.0,98.0,25.0,1043.910915739461,1,1,1,2.0,2.0
2021-09-27 09:37:45.048,1043.0,57.0,5.0,1044.568331896004,1,1,1,2.0,2.0
2021-09-27 09:37:45.057,977.0,118.0,-19.0,984.2834957470332,1,1,1,2.0,2.0
2021-09-27 09:37:45.067,1020.0,15.0,-21.0,1020.3264183583605,1,1,1,2.0,2.0
2021-09-27 09:37:45.076,997.0,15.0,-21.0,997.3339460782432,1,1,1,2.0,2.0
2021-09-27 09:37:45.077,997.0,37.0,3.0,997.6908338759056,1,1,1,2.0,2.0
2021-09-27 09:37:45.087,1016.0,-102.0,-38.0,1021.814073107236,1,1,1,2.0,2.0
2021-09-27 09:37:45.097,1020.0,79.0,42.0,1023.916500501872,1,1,1,2.0,2.0
2021-09-27 09:37:45.106,1060.0,-4.0,12.0,1060.0754690115227,1,1,1,2.0,2.0
2021-09-27 09:37:45.119,1049.0,49.0,9.0,1050.1823651156974,1,1,1,2.0,2.0
2021-09-27 09:37:45.125,997.0,49.0,9.0,998.2439581585256,1,1,1,2.0,2.0
2021-09-27 09:37:45.126,997.0,-15.0,2.0,997.1148379198858,1,1,1,2.0,2.0
2021-09-27 09:37:45.139,1023.0,-22.0,7.0,1023.2604751479458,1,1,1,2.0,2.0
2021-09-27 09:37:45.146,1011.0,42.0,-23.0,1012.1333904184764,1,1,1,2.0,2.0
2021-09-27 09:37:45.155,995.0,42.0,-23.0,996.151594889051,1,1,1,2.0,2.0
2021-09-27 09:37:45.156,995.0,55.0,0.0,996.518941114518,1,1,1,2.0,2.0
2021-09-27 09:37:45.164,1031.0,55.0,0.0,1032.4659800690772,1,1,1,2.0,2.0
2021-09-27 09:37:45.165,1031.0,16.0,-5.0,1031.136266455603,1,1,1,2.0,2.0
2021-09-27 09:37:45.174,1011.0,75.0,7.0,1013.8022489617982,1,1,1,2.0,2.0
2021-09-27 09:37:45.184,986.0,-11.0,-20.0,986.2641633963996,1,1,1,2.0,2.0
2021-09-27 09:37:45.195,1000.0,2.0,19.0,1000.1824833499136,1,1,1,2.0,2.0
2021-09-27 09:37:45.203,1025.0,-10.0,-23.0,1025.3067833580346,1,1,1,2.0,2.0
2021-09-27 09:37:45.213,1013.0,37.0,32.0,1014.1804573151664,1,1,1,2.0,2.0
2021-09-27 09:37:45.229,1005.0,30.0,2.0,1005.4496506538752,1,1,1,2.0,2.0
2021-09-27 09:37:45.232,1016.0,30.0,2.0,1016.4447845308666,1,1,1,2.0,2.0
2021-09-27 09:37:45.233,1016.0,-31.0,7.0,1016.49692572088,1,1,1,2.0,2.0
2021-09-27 09:37:45.242,1006.0,20.0,7.0,1006.2231362873744,1,1,1,2.0,2.0
2021-09-27 09:37:45.243,1006.0,20.0,-9.0,1006.2390372073626,1,1,1,2.0,2.0
2021-09-27 09:37:45.253,953.0,78.0,-47.0,957.3411095320204,1,1,1,2.0,2.0
2021-09-27 09:37:45.262,1046.0,30.0,14.0,1046.5237694386117,1,1,1,2.0,2.0
2021-09-27 09:37:45.272,1007.0,60.0,13.0,1008.8696645256016,1,1,1,2.0,2.0
2021-09-27 09:37:45.281,1001.0,60.0,13.0,1002.8808503506286,1,1,1,2.0,2.0
2021-09-27 09:37:45.282,1001.0,73.0,9.0,1003.6986599572602,1,1,1,2.0,2.0
2021-09-27 09:37:45.291,995.0,58.0,-11.0,996.7497178329172,1,1,1,2.0,2.0
2021-09-27 09:37:45.302,966.0,31.0,-11.0,966.559879159072,1,1,1,2.0,2.0
2021-09-27 09:37:45.303,966.0,31.0,-32.0,967.0268869064604,1,1,1,2.0,2.0
2021-09-27 09:37:45.311,1073.0,41.0,27.0,1074.1224325001317,1,1,1,2.0,2.0
2021-09-27 09:37:45.320,923.0,41.0,27.0,924.3046034722536,1,1,1,2.0,2.0
2021-09-27 09:37:45.321,923.0,-89.0,-60.0,929.2201030972157,1,1,1,2.0,2.0
2021-09-27 09:37:45.330,1048.0,-89.0,-60.0,1053.4823206869685,1,1,1,2.0,2.0
2021-09-27 09:37:45.331,1048.0,-27.0,28.0,1048.7216027144668,1,1,1,2.0,2.0
2021-09-27 09:37:45.340,979.0,85.0,18.0,982.8479027804862,1,1,1,2.0,2.0
2021-09-27 09:37:45.352,1060.0,-14.0,15.0,1060.1985663072744,1,1,1,2.0,2.0
2021-09-27 09:37:45.361,1047.0,20.0,-6.0,1047.208193245259,1,1,1,2.0,2.0
2021-09-27 09:37:45.369,970.0,-18.0,-6.0,970.1855492636448,1,1,1,2.0,2.0
2021-09-27 09:37:45.370,970.0,-18.0,-31.0,970.6621451359892,1,1,1,2.0,2.0
2021-09-27 09:37:45.379,996.0,65.0,17.0,998.2634922704526,1,1,1,2.0,2.0
2021-09-27 09:37:45.389,1041.0,36.0,-2.0,1041.624212468201,1,1,1,2.0,2.0
2021-09-27 09:37:45.399,977.0,67.0,-2.0,979.2966864030532,1,1,1,2.0,2.0
2021-09-27 09:37:45.409,1025.0,67.0,-2.0,1027.1893691038667,1,1,1,2.0,2.0
2021-09-27 09:37:45.410,1025.0,-127.0,-19.0,1033.0125846280866,1,1,1,2.0,2.0
2021-09-27 09:37:45.418,980.0,-127.0,-19.0,988.3774582617716,1,1,1,2.0,2.0
2021-09-27 09:37:45.419,980.0,1.0,20.0,980.2045704851616,1,1,1,2.0,2.0
2021-09-27 09:37:45.428,1020.0,-83.0,-16.0,1023.4964582254304,1,1,1,2.0,2.0
2021-09-27 09:37:45.438,972.0,33.0,15.0,972.67569107077,1,1,1,2.0,2.0
2021-09-27 09:37:45.448,1029.0,68.0,38.0,1031.9442814415902,1,1,1,2.0,2.0
2021-09-27 09:37:45.458,1067.0,31.0,25.0,1067.7429465934206,1,1,1,2.0,2.0
2021-09-27 09:37:45.468,1018.0,47.0,13.0,1019.1673071679644,1,1,1,2.0,2.0
2021-09-27 09:37:45.477,993.0,101.0,20.0,998.3235948328578,1,1,1,2.0,2.0
2021-09-27 09:37:45.486,1020.0,101.0,20.0,1025.1833982268734,1,1,1,2.0,2.0
2021-09-27 09:37:45.487,1020.0,0.0,-5.0,1020.0122548283427,1,1,1,2.0,2.0
2021-09-27 09:37:45.496,1031.0,36.0,-5.0,1031.6404412390975,1,1,1,2.0,2.0
2021-09-27 09:37:45.497,1031.0,36.0,5.0,1031.6404412390975,1,1,1,2.0,2.0
2021-09-27 09:37:45.507,995.0,-37.0,-14.0,995.786121614476,1,1,1,2.0,2.0
2021-09-27 09:37:45.517,987.0,40.0,42.0,988.7026853407448,1,1,1,2.0,2.0
2021-09-27 09:37:45.525,996.0,40.0,42.0,997.6873257689504,1,1,1,2.0,2.0
2021-09-27 09:37:45.526,996.0,-9.0,-8.0,996.0727885049364,1,1,1,2.0,2.0
2021-09-27 09:37:45.536,1027.0,29.0,1.0,1027.4098500598484,1,1,1,2.0,2.0
2021-09-27 09:37:45.545,1057.0,-7.0,33.0,1057.538178979842,1,1,1,2.0,2.0
2021-09-27 09:37:45.558,1035.0,5.0,-25.0,1035.3139620424329,1,1,1,2.0,2.0
2021-09-27 09:37:45.567,1001.0,2.0,-19.0,1001.1823010820756,1,1,1,2.0,2.0
2021-09-27 09:37:45.575,943.0,124.0,-24.0,951.4205169114232,1,1,1,2.0,2.0
2021-09-27 09:37:45.584,1035.0,-29.0,-22.0,1035.6398988065305,1,1,1,2.0,2.0
2021-09-27 09:37:45.595,969.0,23.0,-1.0,969.2734392316752,1,1,1,2.0,2.0
2021-09-27 09:37:45.604,982.0,-44.0,8.0,983.0178024837596,1,1,1,2.0,2.0
2021-09-27 09:37:45.613,1002.0,-44.0,8.0,1002.9975074744702,1,1,1,2.0,2.0
2021-09-27 09:37:45.614,1002.0,28.0,31.0,1002.8703804580132,1,1,1,2.0,2.0
2021-09-27 09:37:45.624,1041.0,101.0,38.0,1046.5782340561072,1,1,1,2.0,2.0
2021-09-27 09:37:45.632,1026.0,15.0,-5.0,1026.1218251260425,1,1,1,2.0,2.0
2021-09-27 09:37:45.643,1031.0,40.0,42.0,1032.6301370771628,1,1,1,2.0,2.0
2021-09-27 09:37:45.661,1020.0,-64.0,5.0,1022.0181016009452,1,1,1,2.0,2.0
2021-09-27 09:37:45.664,966.0,2.0,-35.0,966.6359190512215,1,1,1,2.0,2.0
2021-09-27 09:37:45.672,1052.0,-12.0,-40.0,1052.8285710408888,1,1,1,2.0,2.0
2021-09-27 09:37:45.683,1014.0,29.0,-29.0,1014.8290496433376,1,1,1,2.0,2.0
2021-09-27 09:37:45.692,998.0,29.0,-29.0,998.8423298999696,1,1,1,2.0,2.0
2021-09-27 09:37:45.693,998.0,30.0,10.0,998.5008763140872,1,1,1,2.0,2.0
2021-09-27 09:37:45.702,969.0,-8.0,-2.0,969.035087084054,1,1,1,2.0,2.0
2021-09-27 09:37:45.711,1012.0,45.0,0.0,1013.0,1,1,1,2.0,2.0
2021-09-27 09:37:45.723,996.0,60.0,2.0,997.8075966838496,1,1,1,2.0,2.0
2021-09-27 09:37:45.732,1030.0,21.0,-7.0,1030.2378366183218,1,1,1,2.0,2.0
2021-09-27 09:37:45.740,962.0,-41.0,-7.0,962.8987485712088,1,1,1,2.0,2.0
2021-09-27 09:37:45.741,962.0,-41.0,27.0,963.2517843222508,1,1,1,2.0,2.0
2021-09-27 09:37:45.751,1031.0,-17.0,36.0,1031.7683848616414,1,1,1,2.0,2.0
2021-09-27 09:37:45.759,1028.0,-17.0,36.0,1028.7706255526546,1,1,1,2.0,2.0
2021-09-27 09:37:45.760,1028.0,90.0,29.0,1032.3395759148243,1,1,1,2.0,2.0
2021-09-27 09:37:45.771,1085.0,-13.0,-6.0,1085.094465933727,1,1,1,2.0,2.0
2021-09-27 09:37:45.779,960.0,60.0,-6.0,961.891885816696,1,1,1,2.0,2.0
2021-09-27 09:37:45.780,960.0,60.0,-35.0,962.5097402104562,1,1,1,2.0,2.0
2021-09-27 09:37:45.790,1013.0,31.0,-8.0,1013.5057967273792,1,1,1,2.0,2.0
2021-09-27 09:37:45.799,982.0,48.0,-8.0,983.2049633723376,1,1,1,2.0,2.0
2021-09-27 09:37:45.800,982.0,48.0,-7.0,983.1973352282848,1,1,1,2.0,2.0
2021-09-27 09:37:45.809,1034.0,-18.0,5.0,1034.1687483191513,1,1,1,2.0,2.0
2021-09-27 09:37:45.819,976.0,40.0,5.0,976.832124778869,1,1,1,2.0,2.0
2021-09-27 09:37:45.820,976.0,40.0,3.0,976.8239350056898,1,1,1,2.0,2.0
2021-09-27 09:37:45.828,1036.0,-31.0,29.0,1036.869326385924,1,1,1,2.0,2.0
2021-09-27 09:37:45.839,1016.0,-63.0,-31.0,1018.4232911712104,1,1,1,2.0,2.0
2021-09-27 09:37:45.847,993.0,-63.0,-31.0,995.4792815523584,1,1,1,2.0,2.0
2021-09-27 09:37:45.848,993.0,-30.0,-14.0,993.5517097765974,1,1,1,2.0,2.0
2021-09-27 09:37:45.858,1015.0,91.0,15.0,1019.1815343696136,1,1,1,2.0,2.0
2021-09-27 09:37:45.868,1060.0,31.0,8.0,1060.4833803506776,1,1,1,2.0,2.0
2021-09-27 09:37:45.877,945.0,40.0,-8.0,945.880013532372,1,1,1,2.0,2.0
2021-09-27 09:37:45.888,1000.0,20.0,-17.0,1000.3444406803088,1,1,1,2.0,2.0
2021-09-27 09:37:45.898,975.0,42.0,-11.0,975.966187938906,1,1,1,2.0,2.0
2021-09-27 09:37:45.907,990.0,61.0,26.0,992.2182219653096,1,1,1,2.0,2.0
2021-09-27 09:37:45.917,979.0,79.0,9.0,982.2234979881108,1,1,1,2.0,2.0
2021-09-27 09:37:45.926,1049.0,-101.0,30.0,1054.2779519652302,1,1,1,2.0,2.0
2021-09-27 09:37:45.936,981.0,58.0,45.0,983.7428525788636,1,1,1,2.0,2.0
2021-09-27 09:37:45.946,1067.0,45.0,8.0,1067.978464202345,1,1,1,2.0,2.0
2021-09-27 09:37:45.955,989.0,62.0,20.0,991.1432792487674,1,1,1,2.0,2.0
2021-09-27 09:37:45.968,1018.0,26.0,-2.0,1018.3339334422672,1,1,1,2.0,2.0
2021-09-27 09:37:45.975,1004.0,32.0,7.0,1004.5342204225798,1,1,1,2.0,2.0
2021-09-27 09:37:45.984,1039.0,32.0,7.0,1039.516233639475,1,1,1,2.0,2.0
2021-09-27 09:37:45.985,1039.0,-10.0,-6.0,1039.065445484547,1,1,1,2.0,2.0
2021-09-27 09:37:45.995,958.0,58.0,-42.0,960.6726809897324,1,1,1,2.0,2.0
2021-09-27 09:37:46.004,1023.0,17.0,-33.0,1023.6732877241644,1,1,1,2.0,2.0
2021-09-27 09:37:46.015,1003.0,38.0,-17.0,1003.8635365426916,1,1,1,2.0,2.0
2021-09-27 09:37:46.023,1012.0,38.0,-17.0,1012.855863388271,1,1,1,2.0,2.0
2021-09-27 09:37:46.024,1012.0,-45.0,21.0,1013.2176469051454,1,1,1,2.0,2.0
2021-09-27 09:37:46.033,999.0,-45.0,21.0,1000.2334727452386,1,1,1,2.0,2.0
2021-09-27 09:37:46.034,999.0,42.0,25.0,1000.1949809912064,1,1,1,2.0,2.0
2021-09-27 09:37:46.073,1023.0,42.0,25.0,1024.1669785733184,1,1,1,2.0,2.0
2021-09-27 09:37:46.074,1023.0,80.0,46.0,1027.153834632379,1,1,1,2.0,2.0
2021-09-27 09:37:46.079,1068.0,-7.0,22.0,1068.2495026912018,1,1,1,2.0,2.0
2021-09-27 09:37:46.086,989.0,-7.0,22.0,989.2694274059014,1,1,1,2.0,2.0
2021-09-27 09:37:46.087,989.0,72.0,-5.0,991.6299713098632,1,1,1,2.0,2.0
2021-09-27 09:37:46.108,1022.0,38.0,-26.0,1023.0366562347608,1,1,1,2.0,2.0
2021-09-27 09:37:46.115,1017.0,65.0,4.0,1019.0829210618732,1,1,1,2.0,2.0
2021-09-27 09:37:46.128,998.0,-81.0,-7.0,1001.3061469900202,1,1,1,2.0,2.0
2021-09-27 09:37:46.131,954.0,80.0,3.0,957.353121893902,1,1,1,2.0,2.0
2021-09-27 09:37:46.141,1002.0,142.0,49.0,1013.1974141301388,1,1,1,2.0,2.0
2021-09-27 09:37:46.152,1067.0,142.0,49.0,1077.5221575447997,1,1,1,2.0,2.0
2021-09-27 09:37:46.153,1067.0,0.0,40.0,1067.7495024583247,1,1,1,2.0,2.0
2021-09-27 09:37:46.161,1055.0,-23.0,27.0,1055.596040159303,1,1,1,2.0,2.0
2021-09-27 09:37:46.170,996.0,-15.0,40.0,996.9157436814808,1,1,1,2.0,2.0
2021-09-27 09:37:46.180,1016.0,61.0,21.0,1018.0461679118488,1,1,1,2.0,2.0
2021-09-27 09:37:46.189,1057.0,61.0,21.0,1058.9669494370446,1,1,1,2.0,2.0
2021-09-27 09:37:46.190,1057.0,42.0,-30.0,1058.2594199911475,1,1,1,2.0,2.0
2021-09-27 09:37:46.201,1014.0,31.0,-56.0,1016.0182084982532,1,1,1,2.0,2.0
2021-09-27 09:37:46.210,1018.0,-20.0,-20.0,1018.3928515067256,1,1,1,2.0,2.0
2021-09-27 09:37:46.219,963.0,-15.0,-1.0,963.117334492532,1,1,1,2.0,2.0
2021-09-27 09:37:46.229,1017.0,9.0,-4.0,1017.0476881641292,1,1,1,2.0,2.0
2021-09-27 09:37:46.243,1009.0,70.0,-4.0,1011.4331416361636,1,1,1,2.0,2.0
2021-09-27 09:37:46.244,1009.0,70.0,-2.0,1011.4272094421824,1,1,1,2.0,2.0
2021-09-27 09:37:46.248,1045.0,-1.0,17.0,1045.1387467700165,1,1,1,2.0,2.0
2021-09-27 09:37:46.258,1011.0,-1.0,17.0,1011.1434121824658,1,1,1,2.0,2.0
2021-09-27 09:37:46.259,1011.0,40.0,20.0,1011.9886362998352,1,1,1,2.0,2.0
2021-09-27 09:37:46.268,1058.0,18.0,17.0,1058.289657891449,1,1,1,2.0,2.0
2021-09-27 09:37:46.277,1042.0,18.0,17.0,1042.2941043678602,1,1,1,2.0,2.0
2021-09-27 09:37:46.278,1042.0,60.0,7.0,1043.74949101784,1,1,1,2.0,2.0
2021-09-27 09:37:46.291,1077.0,25.0,-36.0,1077.891460212947,1,1,1,2.0,2.0
2021-09-27 09:37:46.297,981.0,50.0,-40.0,983.0874833909749,1,1,1,2.0,2.0
2021-09-27 09:37:46.308,993.0,-68.0,-6.0,995.3436592453884,1,1,1,2.0,2.0
2021-09-27 09:37:46.317,935.0,175.0,13.0,951.3248656479026,1,1,1,2.0,2.0
2021-09-27 09:37:46.326,1036.0,175.0,13.0,1050.7568700703318,1,1,1,2.0,2.0
2021-09-27 09:37:46.327,1036.0,-61.0,-22.0,1038.0274562842735,1,1,1,2.0,2.0
2021-09-27 09:37:46.336,1002.0,46.0,3.0,1003.0598187545944,1,1,1,2.0,2.0
2021-09-27 09:37:46.346,1070.0,-58.0,69.0,1073.79001671649,1,1,1,2.0,2.0
2021-09-27 09:37:46.357,1004.0,54.0,68.0,1007.747984369108,1,1,1,2.0,2.0
2021-09-27 09:37:46.366,1061.0,21.0,0.0,1061.207802459066,1,1,1,2.0,2.0
2021-09-27 09:37:46.375,1030.0,137.0,40.0,1039.8408532078358,1,1,1,2.0,2.0
2021-09-27 09:37:46.385,1098.0,-20.0,21.0,1098.382902270424,1,1,1,2.0,2.0
2021-09-27 09:37:46.395,939.0,70.0,-14.0,941.7096155397372,1,1,1,2.0,2.0
2021-09-27 09:37:46.406,987.0,-42.0,-26.0,988.2352958683472,1,1,1,2.0,2.0
2021-09-27 09:37:46.415,944.0,93.0,-15.0,948.6885684986406,1,1,1,2.0,2.0
2021-09-27 09:37:46.424,997.0,48.0,-5.0,998.1673206431876,1,1,1,2.0,2.0
2021-09-27 09:37:46.434,976.0,61.0,1.0,977.904903352059,1,1,1,2.0,2.0
2021-09-27 09:37:46.444,1009.0,-79.0,18.0,1012.2479933296978,1,1,1,2.0,2.0
2021-09-27 09:37:46.454,984.0,86.0,82.0,991.148828380481,1,1,1,2.0,2.0
2021-09-27 09:37:46.463,1089.0,79.0,11.0,1091.9171213970408,1,1,1,2.0,2.0
2021-09-27 09:37:46.473,1048.0,0.0,-20.0,1048.1908223219664,1,1,1,2.0,2.0
2021-09-27 09:37:46.482,1083.0,0.0,-20.0,1083.184656464446,1,1,1,2.0,2.0
2021-09-27 09:37:46.483,1083.0,24.0,2.0,1083.2677416040783,1,1,1,2.0,2.0
2021-09-27 09:37:46.492,1010.0,61.0,8.0,1011.8720274817364,1,1,1,2.0,2.0
2021-09-27 09:37:46.502,1011.0,-46.0,-52.0,1013.3809747572726,1,1,1,2.0,2.0
2021-09-27 09:37:46.513,966.0,47.0,-46.0,968.2360249443316,1,1,1,2.0,2.0
2021-09-27 09:37:46.522,998.0,74.0,0.0,1000.7397264024248,1,1,1,2.0,2.0
2021-09-27 09:37:46.531,1013.0,74.0,0.0,1015.6992665154386,1,1,1,2.0,2.0
2021-09-27 09:37:46.532,1013.0,-4.0,-8.0,1013.0394859036838,1,1,1,2.0,2.0
2021-09-27 09:37:46.541,1024.0,-68.0,17.0,1026.396122362122,1,1,1,2.0,2.0
2021-09-27 09:37:46.551,1015.0,47.0,17.0,1016.2297968471502,1,1,1,2.0,2.0
2021-09-27 09:37:46.552,1015.0,47.0,27.0,1016.4462602617022,1,1,1,2.0,2.0
2021-09-27 09:37:46.563,1021.0,47.0,5.0,1022.093439955467,1,1,1,2.0,2.0
2021-09-27 09:37:46.571,1059.0,6.0,29.0,1059.4139889580465,1,1,1,2.0,2.0
2021-09-27 09:37:46.580,995.0,-15.0,14.0,995.2115353029224,1,1,1,2.0,2.0
2021-09-27 09:37:46.590,1056.0,49.0,-2.0,1057.138117749994,1,1,1,2.0,2.0
2021-09-27 09:37:46.600,997.0,49.0,-2.0,998.205389686912,1,1,1,2.0,2.0
2021-09-27 09:37:46.601,997.0,56.0,-21.0,998.7922706949628,1,1,1,2.0,2.0
2021-09-27 09:37:46.611,983.0,48.0,-48.0,985.3410577054018,1,1,1,2.0,2.0
2021-09-27 09:37:46.620,957.0,70.0,2.0,959.5587527608718,1,1,1,2.0,2.0
2021-09-27 09:37:46.629,1005.0,21.0,2.0,1005.221368654686,1,1,1,2.0,2.0
2021-09-27 09:37:46.639,985.0,21.0,2.0,985.2258624295245,1,1,1,2.0,2.0
2021-09-27 09:37:46.640,985.0,-88.0,-8.0,988.9555096160798,1,1,1,2.0,2.0
2021-09-27 09:37:46.649,986.0,21.0,36.0,986.8804385537288,1,1,1,2.0,2.0
2021-09-27 09:37:46.660,1018.0,129.0,55.0,1027.6137406632902,1,1,1,2.0,2.0
2021-09-27 09:37:46.676,1066.0,-20.0,30.0,1066.6095818058266,1,1,1,2.0,2.0
2021-09-27 09:37:46.680,945.0,75.0,17.0,948.1239370462072,1,1,1,2.0,2.0
2021-09-27 09:37:46.688,989.0,6.0,38.0,989.7479477119416,1,1,1,2.0,2.0
2021-09-27 09:37:46.699,996.0,26.0,-10.0,996.3894820801752,1,1,1,2.0,2.0
2021-09-27 09:37:46.708,1060.0,22.0,-26.0,1060.54702866021,1,1,1,2.0,2.0
2021-09-27 09:37:46.717,975.0,40.0,-49.0,977.0496404993966,1,1,1,2.0,2.0
2021-09-27 09:37:46.727,968.0,-44.0,-40.0,969.8247264325652,1,1,1,2.0,2.0
2021-09-27 09:37:46.737,942.0,142.0,20.0,952.8525594235448,1,1,1,2.0,2.0
2021-09-27 09:37:46.747,968.0,-56.0,-5.0,969.6313732548056,1,1,1,2.0,2.0
2021-09-27 09:37:46.757,1001.0,65.0,18.0,1003.2696546791396,1,1,1,2.0,2.0
2021-09-27 09:37:46.766,1072.0,26.0,51.0,1073.5273634146454,1,1,1,2.0,2.0
2021-09-27 09:37:46.775,1020.0,26.0,51.0,1021.6051096191718,1,1,1,2.0,2.0
2021-09-27 09:37:46.776,1020.0,98.0,30.0,1025.1360885267868,1,1,1,2.0,2.0
2021-09-27 09:37:46.786,1046.0,-79.0,-16.0,1049.101043751268,1,1,1,2.0,2.0
2021-09-27 09:37:46.796,990.0,37.0,21.0,990.9137197556606,1,1,1,2.0,2.0
2021-09-27 09:37:46.807,1064.0,4.0,21.0,1064.214733970546,1,1,1,2.0,2.0
2021-09-27 09:37:46.808,1064.0,4.0,-31.0,1064.4590175295618,1,1,1,2.0,2.0
2021-09-27 09:37:46.815,966.0,43.0,-23.0,967.230065703088,1,1,1,2.0,2.0
2021-09-27 09:37:46.824,986.0,-45.0,-23.0,987.29428236975,1,1,1,2.0,2.0
2021-09-27 09:37:46.825,986.0,-45.0,-33.0,987.5778450329876,1,1,1,2.0,2.0
2021-09-27 09:37:46.834,937.0,139.0,5.0,947.267121777168,1,1,1,2.0,2.0
2021-09-27 09:37:46.845,1048.0,58.0,18.0,1049.7580673660002,1,1,1,2.0,2.0
2021-09-27 09:37:46.854,974.0,58.0,18.0,975.891387399233,1,1,1,2.0,2.0
2021-09-27 09:37:46.855,974.0,104.0,-10.0,979.5876683584784,1,1,1,2.0,2.0
2021-09-27 09:37:46.864,1009.0,0.0,47.0,1010.0940550265605,1,1,1,2.0,2.0
2021-09-27 09:37:46.873,1013.0,103.0,81.0,1021.4396702693704,1,1,1,2.0,2.0
2021-09-27 09:37:46.883,1056.0,19.0,16.0,1056.292099752715,1,1,1,2.0,2.0
2021-09-27 09:37:46.893,1028.0,10.0,16.0,1028.1731371709727,1,1,1,2.0,2.0
2021-09-27 09:37:46.894,1028.0,10.0,-11.0,1028.107484653234,1,1,1,2.0,2.0
2021-09-27 09:37:46.903,993.0,-48.0,-7.0,994.1840875813696,1,1,1,2.0,2.0
2021-09-27 09:37:46.913,944.0,-48.0,-7.0,945.2454707640762,1,1,1,2.0,2.0
2021-09-27 09:37:46.914,944.0,46.0,-29.0,945.5649105164596,1,1,1,2.0,2.0
2021-09-27 09:37:46.922,978.0,-46.0,-19.0,979.2655411072116,1,1,1,2.0,2.0
2021-09-27 09:37:46.932,945.0,131.0,-9.0,954.079137178882,1,1,1,2.0,2.0
2021-09-27 09:37:46.942,1029.0,37.0,0.0,1029.6649940636032,1,1,1,2.0,2.0
2021-09-27 09:37:46.952,1034.0,60.0,0.0,1035.73934945043,1,1,1,2.0,2.0
2021-09-27 09:37:46.953,1034.0,60.0,31.0,1036.2031654072478,1,1,1,2.0,2.0
2021-09-27 09:37:46.961,1038.0,-76.0,23.0,1041.0326603906335,1,1,1,2.0,2.0
2021-09-27 09:37:46.972,993.0,84.0,73.0,999.2166932152404,1,1,1,2.0,2.0
2021-09-27 09:37:46.981,1073.0,68.0,50.0,1076.3145451028709,1,1,1,2.0,2.0
2021-09-27 09:37:46.990,1073.0,-18.0,-17.0,1073.2856097050776,1,1,1,2.0,2.0
2021-09-27 09:37:47.001,988.0,-3.0,-20.0,988.2069621288852,1,1,1,2.0,2.0
2021-09-27 09:37:47.011,1016.0,-32.0,28.0,1016.8893745142584,1,1,1,2.0,2.0
2021-09-27 09:37:47.020,1039.0,-32.0,28.0,1039.8697033763412,1,1,1,2.0,2.0
2021-09-27 09:37:47.021,1039.0,-12.0,-40.0,1039.8389298348086,1,1,1,2.0,2.0
2021-09-27 09:37:47.030,1001.0,71.0,-28.0,1003.9053740268552,1,1,1,2.0,2.0
2021-09-27 09:37:47.039,982.0,46.0,-11.0,983.1383422489432,1,1,1,2.0,2.0
2021-09-27 09:37:47.049,1006.0,56.0,-11.0,1007.6174869463114,1,1,1,2.0,2.0
2021-09-27 09:37:47.050,1006.0,56.0,18.0,1007.7182145818344,1,1,1,2.0,2.0
2021-09-27 09:37:47.059,956.0,130.0,37.0,965.5076384990437,1,1,1,2.0,2.0
2021-09-27 09:37:47.069,1040.0,-2.0,26.0,1040.3268717090798,1,1,1,2.0,2.0
2021-09-27 09:37:47.090,1022.0,71.0,36.0,1025.095605297379,1,1,1,2.0,2.0
2021-09-27 09:37:47.092,1068.0,57.0,40.0,1070.2677235159435,1,1,1,2.0,2.0
2021-09-27 09:37:47.103,1004.0,57.0,40.0,1006.4119434903384,1,1,1,2.0,2.0
2021-09-27 09:37:47.104,1004.0,2.0,-16.0,1004.129473723384,1,1,1,2.0,2.0
2021-09-27 09:37:47.107,1038.0,2.0,-16.0,1038.1252332931706,1,1,1,2.0,2.0
2021-09-27 09:37:47.108,1038.0,-45.0,-25.0,1039.2757093283765,1,1,1,2.0,2.0
2021-09-27 09:37:47.117,1013.0,-45.0,-25.0,1014.3071526909392,1,1,1,2.0,2.0
2021-09-27 09:37:47.118,1013.0,50.0,-1.0,1014.2337008796344,1,1,1,2.0,2.0
2021-09-27 09:37:47.134,1000.0,-6.0,-36.0,1000.6657783695812,1,1,1,2.0,2.0
2021-09-27 09:37:47.140,993.0,88.0,-2.0,996.893675373658,1,1,1,2.0,2.0
2021-09-27 09:37:47.147,984.0,20.0,-26.0,984.5465961547984,1,1,1,2.0,2.0
2021-09-27 09:37:47.156,979.0,126.0,-26.0,987.417338312428,1,1,1,2.0,2.0
2021-09-27 09:37:47.157,979.0,126.0,11.0,987.1362621239278,1,1,1,2.0,2.0
2021-09-27 09:37:47.166,1037.0,54.0,11.0,1038.4632877478143,1,1,1,2.0,2.0
2021-09-27 09:37:47.167,1037.0,54.0,17.0,1038.5441733503685,1,1,1,2.0,2.0
2021-09-27 09:37:47.176,994.0,74.0,37.0,997.437216069262,1,1,1,2.0,2.0
2021-09-27 09:37:47.187,1041.0,74.0,37.0,1044.2825288206252,1,1,1,2.0,2.0
2021-09-27 09:37:47.188,1041.0,84.0,81.0,1047.519928211392,1,1,1,2.0,2.0
2021-09-27 09:37:47.195,1009.0,84.0,81.0,1015.7253565802126,1,1,1,2.0,2.0
2021-09-27 09:37:47.196,1009.0,94.0,12.0,1013.440180770429,1,1,1,2.0,2.0
2021-09-27 09:37:47.205,1018.0,-38.0,-17.0,1018.8508232317428,1,1,1,2.0,2.0
2021-09-27 09:37:47.215,991.0,14.0,-17.0,991.2446721168292,1,1,1,2.0,2.0
2021-09-27 09:37:47.225,1005.0,66.0,-38.0,1007.8814414404106,1,1,1,2.0,2.0
2021-09-27 09:37:47.235,977.0,-6.0,-55.0,978.5652763101704,1,1,1,2.0,2.0
2021-09-27 09:37:47.245,998.0,-37.0,12.0,998.757728380612,1,1,1,2.0,2.0
2021-09-27 09:37:47.261,959.0,189.0,29.0,977.8767816038992,1,1,1,2.0,2.0
2021-09-27 09:37:47.264,1063.0,41.0,13.0,1063.869822863681,1,1,1,2.0,2.0
2021-09-27 09:37:47.274,1003.0,70.0,-3.0,1005.444180449616,1,1,1,2.0,2.0
2021-09-27 09:37:47.284,1062.0,8.0,39.0,1062.745971528474,1,1,1,2.0,2.0
2021-09-27 09:37:47.294,1016.0,81.0,35.0,1019.8244947048488,1,1,1,2.0,2.0
2021-09-27 09:37:47.303,1080.0,-25.0,19.0,1080.4563850521686,1,1,1,2.0,2.0
2021-09-27 09:37:47.313,989.0,-9.0,-9.0,989.0818975191085,1,1,1,2.0,2.0
2021-09-27 09:37:47.323,968.0,-63.0,17.0,970.1968872347508,1,1,1,2.0,2.0
2021-09-27 09:37:47.332,937.0,-63.0,17.0,939.269396925078,1,1,1,2.0,2.0
2021-09-27 09:37:47.333,937.0,31.0,-49.0,938.7923092995596,1,1,1,2.0,2.0
2021-09-27 09:37:47.343,999.0,-6.0,-30.0,999.4683586787528,1,1,1,2.0,2.0
2021-09-27 09:37:47.352,954.0,137.0,1.0,963.7873209375604,1,1,1,2.0,2.0
2021-09-27 09:37:47.361,1018.0,137.0,1.0,1027.1776866735374,1,1,1,2.0,2.0
2021-09-27 09:37:47.362,1018.0,74.0,18.0,1020.8447482354992,1,1,1,2.0,2.0
2021-09-27 09:37:47.371,1008.0,74.0,18.0,1010.8728901301092,1,1,1,2.0,2.0
2021-09-27 09:37:47.372,1008.0,57.0,11.0,1009.6702431982434,1,1,1,2.0,2.0
2021-09-27 09:37:47.381,991.0,-47.0,-9.0,992.154725836651,1,1,1,2.0,2.0
2021-09-27 09:37:47.393,1012.0,96.0,-9.0,1016.5830020219696,1,1,1,2.0,2.0
2021-09-27 09:37:47.394,1012.0,96.0,28.0,1016.9287093990414,1,1,1,2.0,2.0
2021-09-27 09:37:47.400,1042.0,96.0,28.0,1046.7874664897358,1,1,1,2.0,2.0
2021-09-27 09:37:47.401,1042.0,14.0,8.0,1042.1247526088227,1,1,1,2.0,2.0
2021-09-27 09:37:47.410,1029.0,8.0,8.0,1029.0621944275283,1,1,1,2.0,2.0
2021-09-27 09:37:47.411,1029.0,8.0,-4.0,1029.0388719577118,1,1,1,2.0,2.0
2021-09-27 09:37:47.420,1016.0,-65.0,-15.0,1018.1876055030332,1,1,1,2.0,2.0
2021-09-27 09:37:47.430,993.0,-20.0,-15.0,993.3146530682008,1,1,1,2.0,2.0
2021-09-27 09:37:47.431,993.0,-20.0,4.0,993.2094441757991,1,1,1,2.0,2.0
2021-09-27 09:37:47.440,1007.0,-20.0,4.0,1007.2065329414816,1,1,1,2.0,2.0
2021-09-27 09:37:47.441,1007.0,-45.0,-47.0,1009.1000941432916,1,1,1,2.0,2.0
2021-09-27 09:37:47.450,959.0,89.0,-56.0,964.7476353948736,1,1,1,2.0,2.0
2021-09-27 09:37:47.459,1017.0,49.0,1.0,1018.180239446828,1,1,1,2.0,2.0
2021-09-27 09:37:47.469,1025.0,60.0,13.0,1026.8368906501169,1,1,1,2.0,2.0
2021-09-27 09:37:47.480,976.0,109.0,21.0,982.2922172144092,1,1,1,2.0,2.0
2021-09-27 09:37:47.489,1027.0,-7.0,-21.0,1027.2385312087938,1,1,1,2.0,2.0
2021-09-27 09:37:47.499,1068.0,94.0,48.0,1073.2026835598203,1,1,1,2.0,2.0
2021-09-27 09:37:47.508,1055.0,15.0,11.0,1055.1639683006615,1,1,1,2.0,2.0
2021-09-27 09:37:47.518,1039.0,6.0,-14.0,1039.1116398154725,1,1,1,2.0,2.0
2021-09-27 09:37:47.527,1052.0,6.0,-14.0,1052.1102603814868,1,1,1,2.0,2.0
2021-09-27 09:37:47.528,1052.0,11.0,12.0,1052.1259430315365,1,1,1,2.0,2.0
2021-09-27 09:37:47.538,975.0,21.0,4.0,975.2343308149073,1,1,1,2.0,2.0
2021-09-27 09:37:47.547,968.0,75.0,4.0,970.9093675518844,1,1,1,2.0,2.0
2021-09-27 09:37:47.548,968.0,75.0,-20.0,971.107100169698,1,1,1,2.0,2.0
2021-09-27 09:37:47.557,952.0,37.0,-19.0,952.908180256629,1,1,1,2.0,2.0
2021-09-27 09:37:47.567,991.0,13.0,5.0,991.09787609499,1,1,1,2.0,2.0
2021-09-27 09:37:47.576,991.0,13.0,5.0,991.09787609499,1,1,1,2.0,2.0
2021-09-27 09:37:47.577,991.0,88.0,30.0,995.351696637927,1,1,1,2.0,2.0
2021-09-27 09:37:47.586,1037.0,88.0,30.0,1041.159449844259,1,1,1,2.0,2.0
2021-09-27 09:37:47.587,1037.0,-9.0,12.0,1037.1084803433052,1,1,1,2.0,2.0
2021-09-27 09:37:47.597,1045.0,83.0,12.0,1048.359671105294,1,1,1,2.0,2.0
2021-09-27 09:37:47.598,1045.0,83.0,22.0,1048.521816654284,1,1,1,2.0,2.0
2021-09-27 09:37:47.606,1069.0,11.0,7.0,1069.0795106071391,1,1,1,2.0,2.0
2021-09-27 09:37:47.615,945.0,11.0,7.0,945.0899428096776,1,1,1,2.0,2.0
2021-09-27 09:37:47.616,945.0,-83.0,-7.0,948.663797137848,1,1,1,2.0,2.0
2021-09-27 09:37:47.625,1002.0,-65.0,-2.0,1004.1080619136568,1,1,1,2.0,2.0
2021-09-27 09:37:47.636,1002.0,81.0,-2.0,1005.2706103333568,1,1,1,2.0,2.0
2021-09-27 09:37:47.637,1002.0,81.0,16.0,1005.3959419054764,1,1,1,2.0,2.0
2021-09-27 09:37:47.645,1126.0,-39.0,16.0,1126.7888000863338,1,1,1,2.0,2.0
2021-09-27 09:37:47.646,1126.0,-39.0,55.0,1128.0168438458709,1,1,1,2.0,2.0
2021-09-27 09:37:47.654,996.0,60.0,55.0,999.3202689828722,1,1,1,2.0,2.0
2021-09-27 09:37:47.655,996.0,60.0,-1.0,997.8060933868863,1,1,1,2.0,2.0
2021-09-27 09:37:47.664,1004.0,27.0,-14.0,1004.4605517390914,1,1,1,2.0,2.0
2021-09-27 09:37:47.674,932.0,105.0,-4.0,937.9045793682852,1,1,1,2.0,2.0
2021-09-27 09:37:47.693,1051.0,105.0,-4.0,1056.2395561613853,1,1,1,2.0,2.0
2021-09-27 09:37:47.694,1051.0,28.0,26.0,1051.6943472321225,1,1,1,2.0,2.0
2021-09-27 09:37:47.696,1033.0,30.0,-9.0,1033.474721509917,1,1,1,2.0,2.0
2021-09-27 09:37:47.703,978.0,-74.0,-5.0,980.8083400950464,1,1,1,2.0,2.0
2021-09-27 09:37:47.713,1031.0,11.0,-5.0,1031.0708026125074,1,1,1,2.0,2.0
2021-09-27 09:37:47.714,1031.0,11.0,0.0,1031.0586792224776,1,1,1,2.0,2.0
2021-09-27 09:37:47.724,1040.0,11.0,0.0,1040.0581714500397,1,1,1,2.0,2.0
2021-09-27 09:37:47.725,1040.0,-72.0,-13.0,1042.570381317252,1,1,1,2.0,2.0
2021-09-27 09:37:47.733,1013.0,39.0,-13.0,1013.8338128115475,1,1,1,2.0,2.0
2021-09-27 09:37:47.742,1045.0,-18.0,-13.0,1045.2358585505954,1,1,1,2.0,2.0
2021-09-27 09:37:47.743,1045.0,-18.0,6.0,1045.172234610162,1,1,1,2.0,2.0
2021-09-27 09:37:47.752,1042.0,26.0,43.0,1043.2109086852956,1,1,1,2.0,2.0
2021-09-27 09:37:47.762,1014.0,-16.0,-10.0,1014.1755272141012,1,1,1,2.0,2.0
2021-09-27 09:37:47.773,1013.0,71.0,-10.0,1015.5343421076414,1,1,1,2.0,2.0
2021-09-27 09:37:47.774,1013.0,71.0,-21.0,1015.7022201413168,1,1,1,2.0,2.0
2021-09-27 09:37:47.781,1055.0,31.0,-21.0,1055.6642458660804,1,1,1,2.0,2.0
2021-09-27 09:37:47.782,1055.0,31.0,-7.0,1055.4785644436367,1,1,1,2.0,2.0
2021-09-27 09:37:47.791,996.0,46.0,15.0,997.1745082983218,1,1,1,2.0,2.0
2021-09-27 09:37:47.801,988.0,-1.0,10.0,988.0511120382388,1,1,1,2.0,2.0
2021-09-27 09:37:47.811,1044.0,65.0,45.0,1046.989016179253,1,1,1,2.0,2.0
2021-09-27 09:37:47.821,1057.0,29.0,45.0,1058.3548554242095,1,1,1,2.0,2.0
2021-09-27 09:37:47.822,1057.0,29.0,0.0,1057.397749193746,1,1,1,2.0,2.0
2021-09-27 09:37:47.830,983.0,23.0,0.0,983.2690374460084,1,1,1,2.0,2.0
2021-09-27 09:37:47.831,983.0,23.0,-27.0,983.639669797838,1,1,1,2.0,2.0
2021-09-27 09:37:47.840,1000.0,-81.0,16.0,1003.402710779675,1,1,1,2.0,2.0
2021-09-27 09:37:47.850,1006.0,-47.0,12.0,1007.168804123718,1,1,1,2.0,2.0
2021-09-27 09:37:47.861,997.0,-15.0,-31.0,997.5946070423596,1,1,1,2.0,2.0
2021-09-27 09:37:47.870,905.0,171.0,-5.0,921.0271440082536,1,1,1,2.0,2.0
2021-09-27 09:37:47.880,1069.0,171.0,-5.0,1082.6019582468896,1,1,1,2.0,2.0
2021-09-27 09:37:47.881,1069.0,65.0,37.0,1071.613269794659,1,1,1,2.0,2.0
2021-09-27 09:37:47.889,1037.0,3.0,7.0,1037.027964907408,1,1,1,2.0,2.0
2021-09-27 09:37:47.898,989.0,3.0,7.0,989.0293221133536,1,1,1,2.0,2.0
2021-09-27 09:37:47.899,989.0,25.0,4.0,989.3240116362284,1,1,1,2.0,2.0
2021-09-27 09:37:47.908,1056.0,25.0,4.0,1056.303460185566,1,1,1,2.0,2.0
2021-09-27 09:37:47.909,1056.0,29.0,34.0,1056.9451262955895,1,1,1,2.0,2.0
2021-09-27 09:37:47.919,1041.0,44.0,30.0,1042.361261751414,1,1,1,2.0,2.0
2021-09-27 09:37:47.929,1027.0,29.0,20.0,1027.604009334335,1,1,1,2.0,2.0
2021-09-27 09:37:47.938,993.0,-86.0,-27.0,997.0827448110814,1,1,1,2.0,2.0
2021-09-27 09:37:47.947,990.0,-20.0,-27.0,990.5700379074668,1,1,1,2.0,2.0
2021-09-27 09:37:47.948,990.0,-20.0,8.0,990.2343157051264,1,1,1,2.0,2.0
2021-09-27 09:37:47.957,1006.0,92.0,33.0,1010.736859919534,1,1,1,2.0,2.0
2021-09-27 09:37:47.968,931.0,156.0,0.0,943.9793429943264,1,1,1,2.0,2.0
2021-09-27 09:37:47.978,1045.0,29.0,0.0,1045.4023149008233,1,1,1,2.0,2.0
2021-09-27 09:37:47.979,1045.0,29.0,28.0,1045.7772229303907,1,1,1,2.0,2.0
2021-09-27 09:37:47.987,1016.0,45.0,-1.0,1016.996558499585,1,1,1,2.0,2.0
2021-09-27 09:37:47.996,984.0,141.0,21.0,994.2725984356604,1,1,1,2.0,2.0
2021-09-27 09:37:48.006,1047.0,22.0,20.0,1047.4220734737262,1,1,1,2.0,2.0
2021-09-27 09:37:48.016,994.0,22.0,20.0,994.4445685909296,1,1,1,2.0,2.0
2021-09-27 09:37:48.017,994.0,54.0,-4.0,995.4737565601616,1,1,1,2.0,2.0
2021-09-27 09:37:48.027,1084.0,23.0,10.0,1084.2900903356076,1,1,1,2.0,2.0
2021-09-27 09:37:48.036,1041.0,-29.0,13.0,1041.4849974915626,1,1,1,2.0,2.0
2021-09-27 09:37:48.045,1016.0,-25.0,1.0,1016.3080241737738,1,1,1,2.0,2.0
2021-09-27 09:37:48.055,997.0,38.0,17.0,997.8687288416248,1,1,1,2.0,2.0
2021-09-27 09:37:48.065,1052.0,1.0,40.0,1052.760656559695,1,1,1,2.0,2.0
2021-09-27 09:37:48.075,984.0,12.0,-10.0,984.1239759298622,1,1,1,2.0,2.0
2021-09-27 09:37:48.085,987.0,12.0,-10.0,987.1235991505824,1,1,1,2.0,2.0
2021-09-27 09:37:48.086,987.0,33.0,18.0,987.715546096142,1,1,1,2.0,2.0
2021-09-27 09:37:48.107,943.0,169.0,53.0,959.4889264603318,1,1,1,2.0,2.0
2021-09-27 09:37:48.109,1025.0,-36.0,-27.0,1025.9873293564594,1,1,1,2.0,2.0
2021-09-27 09:37:48.113,1018.0,36.0,-27.0,1018.9941118573748,1,1,1,2.0,2.0
2021-09-27 09:37:48.114,1018.0,36.0,6.0,1018.654013883026,1,1,1,2.0,2.0
2021-09-27 09:37:48.123,1031.0,-18.0,17.0,1031.2972413421846,1,1,1,2.0,2.0
2021-09-27 09:37:48.133,997.0,-2.0,3.0,997.0065195373598,1,1,1,2.0,2.0
2021-09-27 09:37:48.149,1029.0,-59.0,3.0,1030.6944261031006,1,1,1,2.0,2.0
2021-09-27 09:37:48.150,1029.0,-59.0,10.0,1030.7385701524902,1,1,1,2.0,2.0
2021-09-27 09:37:48.154,1003.0,62.0,20.0,1005.1134264350468,1,1,1,2.0,2.0
2021-09-27 09:37:48.164,1042.0,37.0,72.0,1045.1397035803395,1,1,1,2.0,2.0
2021-09-27 09:37:48.172,1004.0,49.0,25.0,1005.5058428472706,1,1,1,2.0,2.0
2021-09-27 09:37:48.182,963.0,1.0,17.0,963.150559362346,1,1,1,2.0,2.0
2021-09-27 09:37:48.192,983.0,185.0,70.0,1002.7033459603094,1,1,1,2.0,2.0
2021-09-27 09:37:48.202,1072.0,185.0,70.0,1090.0958673437856,1,1,1,2.0,2.0
2021-09-27 09:37:48.203,1072.0,71.0,18.0,1074.4994183339516,1,1,1,2.0,2.0
2021-09-27 09:37:48.211,1003.0,71.0,18.0,1005.670920331298,1,1,1,2.0,2.0
2021-09-27 09:37:48.212,1003.0,20.0,-20.0,1003.3987243364425,1,1,1,2.0,2.0
2021-09-27 09:37:48.221,996.0,-100.0,9.0,1001.0479508994562,1,1,1,2.0,2.0
2021-09-27 09:37:48.231,1000.0,6.0,12.0,1000.0899959503644,1,1,1,2.0,2.0
2021-09-27 09:37:48.240,1038.0,-11.0,12.0,1038.1276414776748,1,1,1,2.0,2.0
2021-09-27 09:37:48.241,1038.0,-11.0,13.0,1038.139682316402,1,1,1,2.0,2.0
2021-09-27 09:37:48.251,1021.0,59.0,-9.0,1022.7428806889832,1,1,1,2.0,2.0
2021-09-27 09:37:48.260,1037.0,59.0,-9.0,1038.716034342399,1,1,1,2.0,2.0
2021-09-27 09:37:48.261,1037.0,-30.0,16.0,1037.5572273373648,1,1,1,2.0,2.0
2021-09-27 09:37:48.270,993.0,53.0,40.0,995.217564153688,1,1,1,2.0,2.0
2021-09-27 09:37:48.279,1030.0,76.0,40.0,1033.5743804874423,1,1,1,2.0,2.0
2021-09-27 09:37:48.280,1030.0,76.0,4.0,1032.807823363088,1,1,1,2.0,2.0
2021-09-27 09:37:48.289,968.0,178.0,16.0,984.3596903571377,1,1,1,2.0,2.0
2021-09-27 09:37:48.305,1057.0,81.0,6.0,1060.1160313852442,1,1,1,2.0,2.0
2021-09-27 09:37:48.309,1037.0,61.0,8.0,1038.823372859891,1,1,1,2.0,2.0
2021-09-27 09:37:48.318,990.0,61.0,8.0,991.9097741226266,1,1,1,2.0,2.0
2021-09-27 09:37:48.319,990.0,-38.0,-5.0,990.7416413979984,1,1,1,2.0,2.0
2021-09-27 09:37:48.328,993.0,-38.0,-5.0,993.7394024592162,1,1,1,2.0,2.0
2021-09-27 09:37:48.329,993.0,-12.0,20.0,993.2738796525356,1,1,1,2.0,2.0
2021-09-27 09:37:48.340,1012.0,78.0,9.0,1015.0413784669076,1,1,1,2.0,2.0
2021-09-27 09:37:48.348,1038.0,25.0,-22.0,1038.5340629945654,1,1,1,2.0,2.0
2021-09-27 09:37:48.357,1014.0,25.0,-22.0,1014.5466968060168,1,1,1,2.0,2.0
2021-09-27 09:37:48.358,1014.0,-58.0,17.0,1015.7996849773087,1,1,1,2.0,2.0
2021-09-27 09:37:48.367,978.0,-6.0,43.0,978.963227092826,1,1,1,2.0,2.0
2021-09-27 09:37:48.377,1040.0,65.0,27.0,1042.3790097656415,1,1,1,2.0,2.0
2021-09-27 09:37:48.389,1054.0,60.0,-10.0,1055.7537591692487,1,1,1,2.0,2.0
2021-09-27 09:37:48.398,1070.0,66.0,26.0,1072.348823844182,1,1,1,2.0,2.0
2021-09-27 09:37:48.406,1020.0,66.0,26.0,1022.4636912868838,1,1,1,2.0,2.0
2021-09-27 09:37:48.407,1020.0,103.0,16.0,1025.3121475921369,1,1,1,2.0,2.0
2021-09-27 09:37:48.416,1002.0,-50.0,-51.0,1004.5421842809787,1,1,1,2.0,2.0
2021-09-27 09:37:48.426,1001.0,-44.0,-8.0,1001.9985029928936,1,1,1,2.0,2.0
2021-09-27 09:37:48.436,924.0,71.0,-8.0,926.7583287999088,1,1,1,2.0,2.0
2021-09-27 09:37:48.437,924.0,71.0,2.0,926.7259573358244,1,1,1,2.0,2.0
2021-09-27 09:37:48.447,1018.0,33.0,-7.0,1018.5587857360026,1,1,1,2.0,2.0
2021-09-27 09:37:48.455,988.0,-57.0,-4.0,989.6509485672208,1,1,1,2.0,2.0
2021-09-27 09:37:48.465,1029.0,5.0,25.0,1029.315792164873,1,1,1,2.0,2.0
2021-09-27 09:37:48.475,1038.0,79.0,22.0,1041.2343636280932,1,1,1,2.0,2.0
2021-09-27 09:37:48.485,1033.0,5.0,6.0,1033.029525231491,1,1,1,2.0,2.0
2021-09-27 09:37:48.495,1030.0,81.0,6.0,1033.1974641858158,1,1,1,2.0,2.0
2021-09-27 09:37:48.496,1030.0,81.0,29.0,1033.5869581220536,1,1,1,2.0,2.0
2021-09-27 09:37:48.505,1042.0,73.0,31.0,1045.0138755059668,1,1,1,2.0,2.0
2021-09-27 09:37:48.514,1051.0,86.0,26.0,1054.8331621635716,1,1,1,2.0,2.0
2021-09-27 09:37:48.523,1053.0,86.0,26.0,1056.8259080851492,1,1,1,2.0,2.0
2021-09-27 09:37:48.524,1053.0,-15.0,-25.0,1053.4035314161426,1,1,1,2.0,2.0
2021-09-27 09:37:48.534,946.0,23.0,-31.0,946.7871988995204,1,1,1,2.0,2.0
2021-09-27 09:37:48.544,1026.0,-91.0,12.0,1030.097568194392,1,1,1,2.0,2.0
2021-09-27 09:37:48.554,954.0,97.0,74.0,961.7697229586717,1,1,1,2.0,2.0
2021-09-27 09:37:48.562,996.0,-25.0,74.0,999.0580563711,1,1,1,2.0,2.0
2021-09-27 09:37:48.563,996.0,-25.0,15.0,996.42661546147,1,1,1,2.0,2.0
2021-09-27 09:37:48.572,979.0,-25.0,15.0,979.434020238219,1,1,1,2.0,2.0
2021-09-27 09:37:48.573,979.0,61.0,36.0,981.55896409742,1,1,1,2.0,2.0
2021-09-27 09:37:48.582,1085.0,-11.0,39.0,1085.7564183554248,1,1,1,2.0,2.0
2021-09-27 09:37:48.593,980.0,36.0,3.0,980.6655903007916,1,1,1,2.0,2.0
2021-09-27 09:37:48.602,985.0,-33.0,-48.0,986.7208318465764,1,1,1,2.0,2.0
2021-09-27 09:37:48.612,947.0,130.0,39.0,956.6765388573089,1,1,1,2.0,2.0
2021-09-27 09:37:48.621,1033.0,2.0,39.0,1033.7378778007508,1,1,1,2.0,2.0
2021-09-27 09:37:48.622,1033.0,2.0,-11.0,1033.0605016164347,1,1,1,2.0,2.0
2021-09-27 09:37:48.631,1004.0,62.0,-14.0,1006.0099403087428,1,1,1,2.0,2.0
2021-09-27 09:37:48.642,1013.0,-86.0,-14.0,1016.7403798413832,1,1,1,2.0,2.0
2021-09-27 09:37:48.643,1013.0,-86.0,-9.0,1016.6838249918212,1,1,1,2.0,2.0
2021-09-27 09:37:48.652,978.0,67.0,-9.0,980.3336166836268,1,1,1,2.0,2.0
2021-09-27 09:37:48.653,978.0,67.0,47.0,981.4183613525884,1,1,1,2.0,2.0
2021-09-27 09:37:48.660,985.0,-42.0,-5.0,985.9077035909598,1,1,1,2.0,2.0
2021-09-27 09:37:48.671,1017.0,49.0,-5.0,1018.1920251111771,1,1,1,2.0,2.0
2021-09-27 09:37:48.680,1054.0,-40.0,8.0,1054.7890784417518,1,1,1,2.0,2.0
2021-09-27 09:37:48.690,1012.0,36.0,23.0,1012.9012785064496,1,1,1,2.0,2.0
2021-09-27 09:37:48.712,1038.0,25.0,-25.0,1038.6019449240407,1,1,1,2.0,2.0
2021-09-27 09:37:48.713,992.0,81.0,-25.0,995.6153875869938,1,1,1,2.0,2.0
2021-09-27 09:37:48.714,992.0,81.0,-66.0,997.4873432780988,1,1,1,2.0,2.0
2021-09-27 09:37:48.719,1072.0,47.0,16.0,1073.149104272095,1,1,1,2.0,2.0
2021-09-27 09:37:48.729,982.0,23.0,-29.0,982.6973084322558,1,1,1,2.0,2.0
2021-09-27 09:37:48.738,1008.0,-103.0,-29.0,1013.6636523028732,1,1,1,2.0,2.0
2021-09-27 09:37:48.739,1008.0,-103.0,4.0,1013.2566308690016,1,1,1,2.0,2.0
2021-09-27 09:37:48.748,1019.0,39.0,17.0,1019.8877389203186,1,1,1,2.0,2.0
2021-09-27 09:37:48.759,1000.0,69.0,41.0,1003.21582922121,1,1,1,2.0,2.0
2021-09-27 09:37:48.769,996.0,69.0,41.0,999.228702550122,1,1,1,2.0,2.0
2021-09-27 09:37:48.770,996.0,8.0,-2.0,996.0341359612128,1,1,1,2.0,2.0
2021-09-27 09:37:48.777,1022.0,8.0,-2.0,1022.033267560308,1,1,1,2.0,2.0
2021-09-27 09:37:48.778,1022.0,-47.0,28.0,1023.4632382259756,1,1,1,2.0,2.0
2021-09-27 09:37:48.787,1006.0,17.0,20.0,1006.3423870631703,1,1,1,2.0,2.0
2021-09-27 09:37:48.797,1027.0,54.0,20.0,1028.6131439953506,1,1,1,2.0,2.0
2021-09-27 09:37:48.798,1027.0,54.0,11.0,1028.4775155539376,1,1,1,2.0,2.0
2021-09-27 09:37:48.808,1020.0,29.0,-28.0,1020.7962578301314,1,1,1,2.0,2.0
2021-09-27 09:37:48.819,968.0,3.0,-34.0,968.6015692739712,1,1,1,2.0,2.0
2021-09-27 09:37:48.826,1032.0,30.0,-34.0,1032.995643746865,1,1,1,2.0,2.0
2021-09-27 09:37:48.827,1032.0,30.0,-9.0,1032.475181299773,1,1,1,2.0,2.0
2021-09-27 09:37:48.836,996.0,-65.0,-20.0,998.3190872661906,1,1,1,2.0,2.0
2021-09-27 09:37:48.846,994.0,32.0,20.0,994.7160398827396,1,1,1,2.0,2.0
2021-09-27 09:37:48.856,992.0,122.0,20.0,999.67394684467,1,1,1,2.0,2.0
2021-09-27 09:37:48.857,992.0,122.0,13.0,999.5584024958222,1,1,1,2.0,2.0
2021-09-27 09:37:48.865,1066.0,20.0,44.0,1067.09512228292,1,1,1,2.0,2.0
2021-09-27 09:37:48.876,1053.0,-45.0,36.0,1054.575744079106,1,1,1,2.0,2.0
2021-09-27 09:37:48.885,1019.0,-20.0,1.0,1019.1967425379656,1,1,1,2.0,2.0
2021-09-27 09:37:48.897,1029.0,92.0,15.0,1033.2134339041477,1,1,1,2.0,2.0
2021-09-27 09:37:48.905,1059.0,32.0,-14.0,1059.575858539633,1,1,1,2.0,2.0
2021-09-27 09:37:48.915,977.0,15.0,-37.0,977.8154222551412,1,1,1,2.0,2.0
2021-09-27 09:37:48.924,977.0,-28.0,-37.0,978.1012217557036,1,1,1,2.0,2.0
2021-09-27 09:37:48.925,977.0,-28.0,-28.0,977.8021272220674,1,1,1,2.0,2.0
2021-09-27 09:37:48.934,988.0,-61.0,-20.0,990.0833298263334,1,1,1,2.0,2.0
2021-09-27 09:37:48.943,1037.0,-61.0,-20.0,1038.9850817023312,1,1,1,2.0,2.0
2021-09-27 09:37:48.944,1037.0,-41.0,-9.0,1037.8492183356886,1,1,1,2.0,2.0
2021-09-27 09:37:48.954,988.0,104.0,-2.0,993.4606182431188,1,1,1,2.0,2.0
2021-09-27 09:37:48.963,1063.0,-20.0,55.0,1064.609787668703,1,1,1,2.0,2.0
2021-09-27 09:37:48.974,994.0,122.0,48.0,1002.6085976092564,1,1,1,2.0,2.0
2021-09-27 09:37:48.983,985.0,0.0,24.0,985.2923424040196,1,1,1,2.0,2.0
2021-09-27 09:37:48.992,1036.0,61.0,9.0,1037.833319950752,1,1,1,2.0,2.0
2021-09-27 09:37:49.003,1088.0,-18.0,-17.0,1088.2816730975487,1,1,1,2.0,2.0
2021-09-27 09:37:49.012,995.0,95.0,-17.0,999.6694453668172,1,1,1,2.0,2.0
2021-09-27 09:37:49.013,995.0,95.0,0.0,999.5248871338822,1,1,1,2.0,2.0
2021-09-27 09:37:49.022,1018.0,-17.0,0.0,1018.1419350954956,1,1,1,2.0,2.0
2021-09-27 09:37:49.023,1018.0,-17.0,-26.0,1018.473858280123,1,1,1,2.0,2.0
2021-09-27 09:37:49.032,998.0,36.0,11.0,998.7096675210468,1,1,1,2.0,2.0
2021-09-27 09:37:49.041,1048.0,-26.0,-28.0,1048.6963335494218,1,1,1,2.0,2.0
2021-09-27 09:37:49.052,961.0,99.0,11.0,966.1485393043866,1,1,1,2.0,2.0
2021-09-27 09:37:49.062,1062.0,-86.0,20.0,1065.6641121854484,1,1,1,2.0,2.0
2021-09-27 09:37:49.070,965.0,111.0,42.0,972.2705384819598,1,1,1,2.0,2.0
2021-09-27 09:37:49.081,1068.0,18.0,47.0,1069.1852037883802,1,1,1,2.0,2.0
2021-09-27 09:37:49.090,985.0,67.0,23.0,987.5439230738044,1,1,1,2.0,2.0
2021-09-27 09:37:49.102,1063.0,67.0,23.0,1065.3576864133472,1,1,1,2.0,2.0
2021-09-27 09:37:49.103,1063.0,-19.0,29.0,1063.5652307216517,1,1,1,2.0,2.0
2021-09-27 09:37:49.121,996.0,99.0,19.0,1001.0884076843564,1,1,1,2.0,2.0
2021-09-27 09:37:49.124,1036.0,-7.0,-20.0,1036.2166761831234,1,1,1,2.0,2.0
2021-09-27 09:37:49.129,1014.0,102.0,-27.0,1019.474864820119,1,1,1,2.0,2.0
2021-09-27 09:37:49.139,1061.0,26.0,-27.0,1061.6619047512254,1,1,1,2.0,2.0
2021-09-27 09:37:49.140,1061.0,26.0,15.0,1061.424514508686,1,1,1,2.0,2.0
2021-09-27 09:37:49.148,976.0,26.0,15.0,976.461468773858,1,1,1,2.0,2.0
2021-09-27 09:37:49.149,976.0,34.0,-18.0,976.7579024507558,1,1,1,2.0,2.0
2021-09-27 09:37:49.158,1002.0,-96.0,-18.0,1006.7492239877814,1,1,1,2.0,2.0
2021-09-27 09:37:49.159,1002.0,-96.0,-15.0,1006.700054633951,1,1,1,2.0,2.0
2021-09-27 09:37:49.176,988.0,-96.0,-15.0,992.766337060237,1,1,1,2.0,2.0
2021-09-27 09:37:49.177,988.0,69.0,31.0,990.8915177757856,1,1,1,2.0,2.0
2021-09-27 09:37:49.181,1054.0,85.0,31.0,1057.876174228345,1,1,1,2.0,2.0
2021-09-27 09:37:49.182,1054.0,85.0,54.0,1058.7997922175844,1,1,1,2.0,2.0
2021-09-27 09:37:49.189,992.0,59.0,17.0,993.8983851480996,1,1,1,2.0,2.0
2021-09-27 09:37:49.197,1044.0,59.0,17.0,1045.8039969325037,1,1,1,2.0,2.0
2021-09-27 09:37:49.198,1044.0,1.0,43.0,1044.8856396754622,1,1,1,2.0,2.0
2021-09-27 09:37:49.207,1007.0,70.0,43.0,1010.3454854652442,1,1,1,2.0,2.0
2021-09-27 09:37:49.208,1007.0,70.0,11.0,1009.4899702324932,1,1,1,2.0,2.0
2021-09-27 09:37:49.218,1046.0,42.0,-4.0,1046.8505146390291,1,1,1,2.0,2.0
2021-09-27 09:37:49.228,1004.0,60.0,-52.0,1007.1345491045374,1,1,1,2.0,2.0
2021-09-27 09:37:49.236,986.0,26.0,-25.0,986.6595157398524,1,1,1,2.0,2.0
2021-09-27 09:37:49.247,1018.0,36.0,-14.0,1018.73254586275,1,1,1,2.0,2.0
2021-09-27 09:37:49.256,1004.0,36.0,-14.0,1004.7427531462966,1,1,1,2.0,2.0
2021-09-27 09:37:49.257,1004.0,-71.0,-13.0,1006.5912775302596,1,1,1,2.0,2.0
2021-09-27 09:37:49.266,974.0,55.0,23.0,975.8227298029084,1,1,1,2.0,2.0
2021-09-27 09:37:49.276,1015.0,55.0,23.0,1016.7492316200686,1,1,1,2.0,2.0
2021-09-27 09:37:49.277,1015.0,93.0,52.0,1020.5772876171604,1,1,1,2.0,2.0
2021-09-27 09:37:49.285,1093.0,93.0,52.0,1098.1812236602846,1,1,1,2.0,2.0
2021-09-27 09:37:49.286,1093.0,33.0,59.0,1095.0885808919752,1,1,1,2.0,2.0
2021-09-27 09:37:49.296,1027.0,0.0,34.0,1027.5626501581305,1,1,1,2.0,2.0
2021-09-27 09:37:49.313,1008.0,35.0,25.0,1008.9172414028814,1,1,1,2.0,2.0
2021-09-27 09:37:49.317,1047.0,51.0,-6.0,1048.258555891627,1,1,1,2.0,2.0
2021-09-27 09:37:49.326,1022.0,84.0,-43.0,1026.347407070335,1,1,1,2.0,2.0
2021-09-27 09:37:49.334,1028.0,33.0,-52.0,1029.8431919472011,1,1,1,2.0,2.0
2021-09-27 09:37:49.344,1008.0,-30.0,-22.0,1008.6862743192256,1,1,1,2.0,2.0
2021-09-27 09:37:49.354,990.0,-18.0,6.0,990.1818014889992,1,1,1,2.0,2.0
2021-09-27 09:37:49.363,997.0,0.0,6.0,997.0180539990236,1,1,1,2.0,2.0
2021-09-27 09:37:49.364,997.0,0.0,8.0,997.0320957722474,1,1,1,2.0,2.0
2021-09-27 09:37:49.374,1017.0,0.0,8.0,1017.0314646066756,1,1,1,2.0,2.0
2021-09-27 09:37:49.375,1017.0,58.0,22.0,1018.8900823935818,1,1,1,2.0,2.0
2021-09-27 09:37:49.383,1033.0,231.0,71.0,1060.891606150223,1,1,1,2.0,2.0
2021-09-27 09:37:49.392,1038.0,231.0,71.0,1065.760761146703,1,1,1,2.0,2.0
2021-09-27 09:37:49.393,1038.0,60.0,13.0,1039.813925661702,1,1,1,2.0,2.0
2021-09-27 09:37:49.402,1020.0,60.0,13.0,1021.8458787899476,1,1,1,2.0,2.0
2021-09-27 09:37:49.403,1020.0,113.0,27.0,1026.595343842938,1,1,1,2.0,2.0
2021-09-27 09:37:49.412,1046.0,-23.0,27.0,1046.6011656786934,1,1,1,2.0,2.0
2021-09-27 09:37:49.413,1046.0,-23.0,19.0,1046.4253437297857,1,1,1,2.0,2.0
2021-09-27 09:37:49.423,1017.0,-1.0,2.0,1017.002458207452,1,1,1,2.0,2.0
2021-09-27 09:37:49.432,1010.0,-1.0,2.0,1010.0024752444916,1,1,1,2.0,2.0
2021-09-27 09:37:49.433,1010.0,93.0,-14.0,1014.369262152595,1,1,1,2.0,2.0
2021-09-27 09:37:49.442,1039.0,-20.0,-10.0,1039.2405881219229,1,1,1,2.0,2.0
2021-09-27 09:37:49.451,1005.0,-9.0,-10.0,1005.090045717298,1,1,1,2.0,2.0
2021-09-27 09:37:49.452,1005.0,-9.0,7.0,1005.0646745359226,1,1,1,2.0,2.0
2021-09-27 09:37:49.461,1029.0,-40.0,7.0,1029.8009516406555,1,1,1,2.0,2.0
2021-09-27 09:37:49.462,1029.0,-40.0,-15.0,1029.8864015026122,1,1,1,2.0,2.0
2021-09-27 09:37:49.472,1017.0,-3.0,13.0,1017.0875085261838,1,1,1,2.0,2.0
2021-09-27 09:37:49.482,1030.0,54.0,40.0,1032.1899050077946,1,1,1,2.0,2.0
2021-09-27 09:37:49.490,1032.0,54.0,40.0,1034.1856699838768,1,1,1,2.0,2.0
2021-09-27 09:37:49.491,1032.0,60.0,29.0,1034.1494089347052,1,1,1,2.0,2.0
2021-09-27 09:37:49.500,1046.0,1.0,22.0,1046.2318098777157,1,1,1,2.0,2.0
2021-09-27 09:37:49.510,1017.0,-6.0,23.0,1017.2777398527896,1,1,1,2.0,2.0
2021-09-27 09:37:49.520,1028.0,47.0,12.0,1029.1438189096798,1,1,1,2.0,2.0
2021-09-27 09:37:49.531,1015.0,30.0,2.0,1015.4452225501876,1,1,1,2.0,2.0
2021-09-27 09:37:49.539,998.0,27.0,-29.0,998.7862634217594,1,1,1,2.0,2.0
2021-09-27 09:37:49.549,998.0,19.0,-5.0,998.1933680404816,1,1,1,2.0,2.0
2021-09-27 09:37:49.558,995.0,19.0,-5.0,995.1939509462464,1,1,1,2.0,2.0
2021-09-27 09:37:49.559,995.0,60.0,-4.0,996.8154292545836,1,1,1,2.0,2.0
2021-09-27 09:37:49.569,1022.0,0.0,48.0,1023.1265806340876,1,1,1,2.0,2.0
2021-09-27 09:37:49.579,1056.0,61.0,50.0,1058.941452583664,1,1,1,2.0,2.0
2021-09-27 09:37:49.588,1038.0,23.0,50.0,1039.4580318608346,1,1,1,2.0,2.0
2021-09-27 09:37:49.589,1038.0,23.0,9.0,1038.293792719575,1,1,1,2.0,2.0
2021-09-27 09:37:49.598,1028.0,17.0,1.0,1028.1410409082987,1,1,1,2.0,2.0
2021-09-27 09:37:49.608,997.0,2.0,-3.0,997.0065195373598,1,1,1,2.0,2.0
2021-09-27 09:37:49.618,1011.0,18.0,-12.0,1011.2314275179544,1,1,1,2.0,2.0
2021-09-27 09:37:49.628,1008.0,73.0,-16.0,1010.7665407996052,1,1,1,2.0,2.0
2021-09-27 09:37:49.640,1022.0,58.0,0.0,1023.644469530315,1,1,1,2.0,2.0
2021-09-27 09:37:49.646,987.0,58.0,0.0,988.7026853407448,1,1,1,2.0,2.0
2021-09-27 09:37:49.647,987.0,19.0,-19.0,987.3656870683728,1,1,1,2.0,2.0
2021-09-27 09:37:49.657,980.0,24.0,-21.0,980.5187402594609,1,1,1,2.0,2.0
2021-09-27 09:37:49.667,1010.0,37.0,-6.0,1010.6953052230924,1,1,1,2.0,2.0
2021-09-27 09:37:49.676,1027.0,43.0,26.0,1028.2285738103178,1,1,1,2.0,2.0
2021-09-27 09:37:49.686,1020.0,43.0,26.0,1021.236995021234,1,1,1,2.0,2.0
2021-09-27 09:37:49.687,1020.0,15.0,37.0,1020.7810734922548,1,1,1,2.0,2.0
2021-09-27 09:37:49.696,1045.0,15.0,37.0,1045.7624013130326,1,1,1,2.0,2.0
2021-09-27 09:37:49.698,1045.0,-8.0,37.0,1045.6854211472971,1,1,1,2.0,2.0
2021-09-27 09:37:49.699,1045.0,-8.0,26.0,1045.354007023458,1,1,1,2.0,2.0
2021-09-27 09:37:49.705,1009.0,-6.0,-2.0,1009.019821410858,1,1,1,2.0,2.0
2021-09-27 09:37:49.727,1004.0,60.0,-11.0,1005.851380672115,1,1,1,2.0,2.0
2021-09-27 09:37:49.729,1026.0,25.0,13.0,1026.3868666346038,1,1,1,2.0,2.0
