time_stamp,Acceleration_X,Acceleration_Y,Acceleration_Z,magnitude,STD_Status_right,STD_Status_left,STD_Status_both,KMeans,KMeans_convert
2021-09-23 13:32:15.909,927.0,38.0,6.0,927.797930586181,1,1,1,0.0,2.0
2021-09-23 13:32:15.910,927.0,38.0,5.0,927.7920025522964,1,1,1,0.0,2.0
2021-09-23 13:32:15.919,1187.0,38.0,5.0,1187.6186256538754,1,1,1,0.0,2.0
2021-09-23 13:32:15.920,1187.0,-153.0,57.0,1198.1765312340249,1,1,1,0.0,2.0
2021-09-23 13:32:15.929,983.0,467.0,57.0,1089.7830059236564,1,1,1,0.0,2.0
2021-09-23 13:32:15.930,983.0,467.0,95.0,1092.4298604487155,1,1,1,0.0,2.0
2021-09-23 13:32:15.940,971.0,-57.0,-20.0,972.8771762149628,1,1,1,0.0,2.0
2021-09-23 13:32:15.951,892.0,207.0,-88.0,919.9222793258136,1,1,1,0.0,2.0
2021-09-23 13:32:15.958,1116.0,-1.0,-8.0,1116.0291214838437,1,1,1,0.0,2.0
2021-09-23 13:32:15.968,1129.0,137.0,96.0,1141.326421318634,1,1,1,0.0,2.0
2021-09-23 13:32:15.978,1033.0,-328.0,-46.0,1084.799059734106,1,1,1,0.0,2.0
2021-09-23 13:32:15.987,876.0,-328.0,-46.0,936.5233579575043,1,1,1,0.0,2.0
2021-09-23 13:32:15.988,876.0,10.0,15.0,876.185482646226,1,1,1,0.0,2.0
2021-09-23 13:32:15.997,1199.0,-356.0,7.0,1250.7541724895425,1,1,1,0.0,2.0
2021-09-23 13:32:16.007,1041.0,254.0,24.0,1071.8082850958,1,1,1,0.0,2.0
2021-09-23 13:32:16.017,1041.0,114.0,-7.0,1047.2468667892972,1,1,1,0.0,2.0
2021-09-23 13:32:16.026,759.0,114.0,-7.0,767.5454383943663,1,1,1,0.0,2.0
2021-09-23 13:32:16.027,759.0,442.0,3.0,878.3245413854721,1,1,1,0.0,2.0
2021-09-23 13:32:16.036,1181.0,137.0,3.0,1188.9234626333186,1,1,1,0.0,2.0
2021-09-23 13:32:16.037,1181.0,137.0,43.0,1189.6970202534762,1,1,1,0.0,2.0
2021-09-23 13:32:16.047,1090.0,258.0,54.0,1121.4187442699538,1,1,1,0.0,2.0
2021-09-23 13:32:16.056,1057.0,-282.0,-89.0,1097.5855319746156,1,1,1,0.0,2.0
2021-09-23 13:32:16.066,833.0,-92.0,-42.0,839.1167975913722,1,1,1,0.0,2.0
2021-09-23 13:32:16.076,1139.0,-194.0,4.0,1155.410316727352,1,1,1,0.0,2.0
2021-09-23 13:32:16.086,1041.0,211.0,51.0,1063.3922136258095,1,1,1,0.0,2.0
2021-09-23 13:32:16.096,957.0,7.0,-16.0,957.1593388772844,1,1,1,0.0,2.0
2021-09-23 13:32:16.115,721.0,530.0,-53.0,896.409504635019,1,1,1,0.0,2.0
2021-09-23 13:32:16.118,1148.0,289.0,46.0,1184.7113572512085,1,1,1,0.0,2.0
2021-09-23 13:32:16.125,1088.0,289.0,46.0,1126.668096646035,1,1,1,0.0,2.0
2021-09-23 13:32:16.126,1088.0,108.0,79.0,1096.1975186981588,1,1,1,0.0,2.0
2021-09-23 13:32:16.134,1145.0,-405.0,3.0,1214.5200698218207,1,1,1,0.0,2.0
2021-09-23 13:32:16.144,819.0,-32.0,3.0,819.6304045116921,1,1,1,0.0,2.0
2021-09-23 13:32:16.147,819.0,-32.0,-7.0,819.6548053906596,1,1,1,0.0,2.0
2021-09-23 13:32:16.154,1203.0,-334.0,47.0,1249.3894508919147,1,1,1,0.0,2.0
2021-09-23 13:32:16.163,1073.0,-93.0,86.0,1080.4508318290102,1,1,1,0.0,2.0
2021-09-23 13:32:16.174,813.0,-194.0,-58.0,837.8359027876521,1,1,1,0.0,2.0
2021-09-23 13:32:16.183,703.0,503.0,-30.0,864.938148077653,1,1,1,0.0,2.0
2021-09-23 13:32:16.193,1180.0,165.0,52.0,1192.6143551039456,1,1,1,0.0,2.0
2021-09-23 13:32:16.202,1090.0,266.0,52.0,1123.1918803125316,1,1,1,0.0,2.0
2021-09-23 13:32:16.203,1090.0,266.0,57.0,1123.4344662685046,1,1,1,0.0,2.0
2021-09-23 13:32:16.212,994.0,-252.0,-73.0,1028.0413415811645,1,1,1,0.0,2.0
2021-09-23 13:32:16.222,999.0,-132.0,-35.0,1008.290632704678,1,1,1,0.0,2.0
2021-09-23 13:32:16.233,1092.0,-132.0,-35.0,1100.5057928061988,1,1,1,0.0,2.0
2021-09-23 13:32:16.234,1092.0,-188.0,37.0,1108.682551499752,1,1,1,0.0,2.0
2021-09-23 13:32:16.241,1029.0,173.0,37.0,1044.0972176957468,1,1,1,0.0,2.0
2021-09-23 13:32:16.242,1029.0,173.0,59.0,1045.108128377155,1,1,1,0.0,2.0
2021-09-23 13:32:16.251,932.0,-23.0,-18.0,932.4575057341756,1,1,1,0.0,2.0
2021-09-23 13:32:16.261,762.0,585.0,-67.0,962.9942886642682,1,1,1,0.0,2.0
2021-09-23 13:32:16.271,1082.0,386.0,55.0,1150.106516806161,1,1,1,0.0,2.0
2021-09-23 13:32:16.281,1114.0,386.0,55.0,1180.2614117219964,1,1,1,0.0,2.0
2021-09-23 13:32:16.282,1114.0,296.0,47.0,1153.612153195345,1,1,1,0.0,2.0
2021-09-23 13:32:16.290,895.0,276.0,-13.0,936.6803083229624,1,1,1,0.0,2.0
2021-09-23 13:32:16.300,844.0,-55.0,23.0,846.1028306299418,1,1,1,0.0,2.0
2021-09-23 13:32:16.310,1174.0,-389.0,54.0,1237.947090953406,1,1,1,0.0,2.0
2021-09-23 13:32:16.320,1084.0,-192.0,96.0,1105.0502251029136,1,1,1,0.0,2.0
2021-09-23 13:32:16.330,840.0,-169.0,-60.0,858.9301484987006,1,1,1,0.0,2.0
2021-09-23 13:32:16.340,1029.0,-169.0,-60.0,1044.510411628338,1,1,1,0.0,2.0
2021-09-23 13:32:16.341,1029.0,15.0,-20.0,1029.3036481039014,1,1,1,0.0,2.0
2021-09-23 13:32:16.359,1014.0,15.0,-20.0,1014.3081385851144,1,1,1,0.0,2.0
2021-09-23 13:32:16.360,1014.0,339.0,35.0,1069.7392205579824,1,1,1,0.0,2.0
2021-09-23 13:32:16.362,1068.0,313.0,67.0,1114.9358725953705,1,1,1,0.0,2.0
2021-09-23 13:32:16.369,979.0,-229.0,67.0,1007.6561913668768,1,1,1,0.0,2.0
2021-09-23 13:32:16.370,979.0,-229.0,-64.0,1007.461165504656,1,1,1,0.0,2.0
2021-09-23 13:32:16.378,990.0,-178.0,-58.0,1007.545532469873,1,1,1,0.0,2.0
2021-09-23 13:32:16.388,1133.0,-178.0,-58.0,1148.3627475671617,1,1,1,0.0,2.0
2021-09-23 13:32:16.389,1133.0,-145.0,50.0,1143.334596695123,1,1,1,0.0,2.0
2021-09-23 13:32:16.398,1125.0,-484.0,1.0,1224.696697145869,1,1,1,0.0,2.0
2021-09-23 13:32:16.407,769.0,-484.0,1.0,908.635240346752,1,1,1,0.0,2.0
2021-09-23 13:32:16.408,769.0,-44.0,-8.0,770.299292483123,1,1,1,0.0,2.0
2021-09-23 13:32:16.418,772.0,542.0,-46.0,944.3855145013608,1,1,1,0.0,2.0
2021-09-23 13:32:16.432,1085.0,428.0,37.0,1166.9524411903,1,1,1,0.0,2.0
2021-09-23 13:32:16.437,1096.0,237.0,25.0,1121.6104493093849,1,1,1,0.0,2.0
2021-09-23 13:32:16.446,839.0,237.0,25.0,872.1897729278875,1,1,1,0.0,2.0
2021-09-23 13:32:16.447,839.0,401.0,-10.0,929.9580635706106,1,1,1,0.0,2.0
2021-09-23 13:32:16.456,1184.0,2.0,-10.0,1184.043918104392,1,1,1,0.0,2.0
2021-09-23 13:32:16.457,1184.0,2.0,-19.0,1184.1541284815926,1,1,1,0.0,2.0
2021-09-23 13:32:16.468,1105.0,253.0,89.0,1137.081791253382,1,1,1,0.0,2.0
2021-09-23 13:32:16.477,1097.0,-227.0,75.0,1122.7479681567008,1,1,1,0.0,2.0
2021-09-23 13:32:16.485,792.0,-227.0,75.0,827.2955940895612,1,1,1,0.0,2.0
2021-09-23 13:32:16.486,792.0,-184.0,-69.0,816.0153184836666,1,1,1,0.0,2.0
2021-09-23 13:32:16.495,1062.0,-54.0,-69.0,1065.6082769948814,1,1,1,0.0,2.0
2021-09-23 13:32:16.496,1062.0,-54.0,-7.0,1063.395034782465,1,1,1,0.0,2.0
2021-09-23 13:32:16.505,1005.0,316.0,27.0,1053.8548287121905,1,1,1,0.0,2.0
2021-09-23 13:32:16.515,1057.0,65.0,-22.0,1059.2251885222518,1,1,1,0.0,2.0
2021-09-23 13:32:16.525,722.0,605.0,-88.0,946.0724073769406,1,1,1,0.0,2.0
2021-09-23 13:32:16.537,1154.0,605.0,-88.0,1305.9421886132632,1,1,1,0.0,2.0
2021-09-23 13:32:16.538,1154.0,269.0,42.0,1185.681660480586,1,1,1,0.0,2.0
2021-09-23 13:32:16.544,1099.0,-120.0,46.0,1106.488590090291,1,1,1,0.0,2.0
2021-09-23 13:32:16.554,1097.0,-451.0,15.0,1186.1850614469902,1,1,1,0.0,2.0
2021-09-23 13:32:16.564,758.0,-43.0,-7.0,759.2509466572959,1,1,1,0.0,2.0
2021-09-23 13:32:16.574,1210.0,-393.0,-7.0,1272.241329308241,1,1,1,0.0,2.0
2021-09-23 13:32:16.575,1210.0,-393.0,47.0,1273.089941834433,1,1,1,0.0,2.0
2021-09-23 13:32:16.584,1100.0,73.0,101.0,1107.0365847613168,1,1,1,0.0,2.0
2021-09-23 13:32:16.593,911.0,-83.0,-28.0,915.2016171314384,1,1,1,0.0,2.0
2021-09-23 13:32:16.603,783.0,497.0,-20.0,927.6303142955172,1,1,1,0.0,2.0
2021-09-23 13:32:16.612,1191.0,497.0,-20.0,1290.693611977684,1,1,1,0.0,2.0
2021-09-23 13:32:16.613,1191.0,1.0,4.0,1191.0071368383983,1,1,1,0.0,2.0
2021-09-23 13:32:16.623,1097.0,261.0,85.0,1130.8204985761445,1,1,1,0.0,2.0
2021-09-23 13:32:16.633,1065.0,-523.0,-69.0,1188.4927429311465,1,1,1,0.0,2.0
2021-09-23 13:32:16.642,870.0,-29.0,-9.0,870.5297237889123,1,1,1,0.0,2.0
2021-09-23 13:32:16.651,1088.0,-29.0,-9.0,1088.4236307614788,1,1,1,0.0,2.0
2021-09-23 13:32:16.652,1088.0,-97.0,2.0,1092.317261604887,1,1,1,0.0,2.0
2021-09-23 13:32:16.661,1002.0,346.0,25.0,1060.3513568624317,1,1,1,0.0,2.0
2021-09-23 13:32:16.671,1010.0,62.0,-16.0,1012.02766760598,1,1,1,0.0,2.0
2021-09-23 13:32:16.681,691.0,626.0,-53.0,933.8982813989968,1,1,1,0.0,2.0
2021-09-23 13:32:16.690,1187.0,626.0,-53.0,1343.0018615028052,1,1,1,0.0,2.0
2021-09-23 13:32:16.691,1187.0,276.0,42.0,1219.388781316279,1,1,1,0.0,2.0
2021-09-23 13:32:16.701,1098.0,288.0,37.0,1135.7451298596882,1,1,1,0.0,2.0
2021-09-23 13:32:16.710,1137.0,-444.0,11.0,1220.6662115418776,1,1,1,0.0,2.0
2021-09-23 13:32:16.731,766.0,6.0,-20.0,766.2845424514317,1,1,1,0.0,2.0
2021-09-23 13:32:16.733,1187.0,-423.0,-20.0,1260.2769536891485,1,1,1,0.0,2.0
2021-09-23 13:32:16.734,1187.0,-423.0,18.0,1260.246801225855,1,1,1,0.0,2.0
2021-09-23 13:32:16.739,1081.0,15.0,18.0,1081.2539017270642,1,1,1,0.0,2.0
2021-09-23 13:32:16.740,1081.0,15.0,100.0,1085.7191165306062,1,1,1,0.0,2.0
2021-09-23 13:32:16.749,821.0,-136.0,-43.0,833.298265928833,1,1,1,0.0,2.0
2021-09-23 13:32:16.760,973.0,246.0,-20.0,1003.8152220403912,1,1,1,0.0,2.0
2021-09-23 13:32:16.769,1236.0,115.0,32.0,1241.7507801487382,1,1,1,0.0,2.0
2021-09-23 13:32:16.778,1072.0,115.0,32.0,1078.6255142541363,1,1,1,0.0,2.0
2021-09-23 13:32:16.779,1072.0,323.0,62.0,1121.3193122389357,1,1,1,0.0,2.0
2021-09-23 13:32:16.789,1132.0,-430.0,-99.0,1214.9588470396848,1,1,1,0.0,2.0
2021-09-23 13:32:16.798,955.0,-169.0,-46.0,970.9284216666026,1,1,1,0.0,2.0
2021-09-23 13:32:16.809,1081.0,-232.0,42.0,1106.4126716555627,1,1,1,0.0,2.0
2021-09-23 13:32:16.817,1118.0,-232.0,42.0,1142.5900402156497,1,1,1,0.0,2.0
2021-09-23 13:32:16.818,1118.0,-385.0,28.0,1182.7649808816627,1,1,1,0.0,2.0
2021-09-23 13:32:16.827,957.0,-11.0,28.0,957.4727150159424,1,1,1,0.0,2.0
2021-09-23 13:32:16.828,957.0,-11.0,3.0,957.0679181750896,1,1,1,0.0,2.0
2021-09-23 13:32:16.838,699.0,597.0,-89.0,923.542635723982,1,1,1,0.0,2.0
2021-09-23 13:32:16.847,1119.0,346.0,65.0,1173.0737402226682,1,1,1,0.0,2.0
2021-09-23 13:32:16.857,1126.0,238.0,20.0,1151.051693018172,1,1,1,0.0,2.0
2021-09-23 13:32:16.866,885.0,287.0,20.0,930.5879861678852,1,1,1,0.0,2.0
2021-09-23 13:32:16.867,885.0,287.0,-6.0,930.392390338614,1,1,1,0.0,2.0
2021-09-23 13:32:16.876,1164.0,-23.0,-25.0,1164.4955989611983,1,1,1,0.0,2.0
2021-09-23 13:32:16.886,1165.0,-400.0,42.0,1232.4727177507823,1,1,1,0.0,2.0
2021-09-23 13:32:16.896,1109.0,-101.0,121.0,1120.1441871473512,1,1,1,0.0,2.0
2021-09-23 13:32:16.905,803.0,-101.0,121.0,818.3220637377437,1,1,1,0.0,2.0
2021-09-23 13:32:16.906,803.0,-175.0,-81.0,825.8298856302065,1,1,1,0.0,2.0
2021-09-23 13:32:16.916,1068.0,65.0,-12.0,1070.0434570614411,1,1,1,0.0,2.0
2021-09-23 13:32:16.925,969.0,335.0,-9.0,1025.3131229044131,1,1,1,0.0,2.0
2021-09-23 13:32:16.936,1110.0,111.0,-4.0,1115.5433653605762,1,1,1,0.0,2.0
2021-09-23 13:32:16.944,1012.0,111.0,-4.0,1018.0771090639452,1,1,1,0.0,2.0
2021-09-23 13:32:16.945,1012.0,-254.0,-37.0,1044.0445392798144,1,1,1,0.0,2.0
2021-09-23 13:32:16.954,974.0,-254.0,-37.0,1007.2541883755064,1,1,1,0.0,2.0
2021-09-23 13:32:16.955,974.0,-183.0,-57.0,992.6802103396642,1,1,1,0.0,2.0
2021-09-23 13:32:16.964,1142.0,-183.0,-57.0,1157.9732293969494,1,1,1,0.0,2.0
2021-09-23 13:32:16.965,1142.0,-121.0,57.0,1149.806070604952,1,1,1,0.0,2.0
2021-09-23 13:32:16.974,1146.0,-486.0,-4.0,1244.8003856040534,1,1,1,0.0,2.0
2021-09-23 13:32:16.983,716.0,-486.0,-4.0,865.371596483268,1,1,1,0.0,2.0
2021-09-23 13:32:16.984,716.0,20.0,5.0,716.2967262245445,1,1,1,0.0,2.0
2021-09-23 13:32:16.994,1203.0,-444.0,32.0,1282.7193769488322,1,1,1,0.0,2.0
2021-09-23 13:32:17.003,1061.0,432.0,51.0,1146.710948757358,1,1,1,0.0,2.0
2021-09-23 13:32:17.013,1100.0,247.0,21.0,1127.585916903896,1,1,1,0.0,2.0
2021-09-23 13:32:17.023,826.0,475.0,-18.0,953.0083945065752,1,1,1,0.0,2.0
2021-09-23 13:32:17.032,1206.0,475.0,-18.0,1296.2966481481003,1,1,1,0.0,2.0
2021-09-23 13:32:17.033,1206.0,-30.0,-27.0,1206.6751841320015,1,1,1,0.0,2.0
2021-09-23 13:32:17.042,1125.0,240.0,-27.0,1150.632000250297,1,1,1,0.0,2.0
2021-09-23 13:32:17.043,1125.0,240.0,113.0,1155.8520666590514,1,1,1,0.0,2.0
2021-09-23 13:32:17.052,1098.0,-601.0,-81.0,1254.3388696839463,1,1,1,0.0,2.0
2021-09-23 13:32:17.062,838.0,-48.0,7.0,839.4027638744109,1,1,1,0.0,2.0
2021-09-23 13:32:17.072,1083.0,-48.0,7.0,1084.0857899631376,1,1,1,0.0,2.0
2021-09-23 13:32:17.073,1083.0,-51.0,23.0,1084.4440972221666,1,1,1,0.0,2.0
2021-09-23 13:32:17.081,982.0,345.0,23.0,1041.0946162573314,1,1,1,0.0,2.0
2021-09-23 13:32:17.082,982.0,345.0,17.0,1040.9793465770583,1,1,1,0.0,2.0
2021-09-23 13:32:17.091,1042.0,74.0,-1.0,1044.6248130309752,1,1,1,0.0,2.0
2021-09-23 13:32:17.101,681.0,614.0,-77.0,920.1554216544072,1,1,1,0.0,2.0
2021-09-23 13:32:17.111,1217.0,299.0,56.0,1254.4425056573937,1,1,1,0.0,2.0
2021-09-23 13:32:17.133,1150.0,299.0,56.0,1189.5532774953797,1,1,1,0.0,2.0
2021-09-23 13:32:17.134,1150.0,-78.0,79.0,1155.346268440765,1,1,1,0.0,2.0
2021-09-23 13:32:17.135,1143.0,-488.0,-3.0,1242.820180074334,1,1,1,0.0,2.0
2021-09-23 13:32:17.140,762.0,-21.0,-9.0,762.34244273817,1,1,1,0.0,2.0
2021-09-23 13:32:17.149,1189.0,-21.0,-9.0,1189.219491935782,1,1,1,0.0,2.0
2021-09-23 13:32:17.150,1189.0,-469.0,19.0,1278.296913866258,1,1,1,0.0,2.0
2021-09-23 13:32:17.159,1074.0,63.0,19.0,1076.0139404301417,1,1,1,0.0,2.0
2021-09-23 13:32:17.160,1074.0,63.0,120.0,1082.5178982354057,1,1,1,0.0,2.0
2021-09-23 13:32:17.169,877.0,-107.0,-40.0,884.4082767590995,1,1,1,0.0,2.0
2021-09-23 13:32:17.181,705.0,-107.0,-40.0,714.1946513381348,1,1,1,0.0,2.0
2021-09-23 13:32:17.182,705.0,572.0,18.0,908.037994799777,1,1,1,0.0,2.0
2021-09-23 13:32:17.189,1207.0,21.0,29.0,1207.5309519842544,1,1,1,0.0,2.0
2021-09-23 13:32:17.199,1077.0,297.0,81.0,1120.1334741895716,1,1,1,0.0,2.0
2021-09-23 13:32:17.208,1116.0,-539.0,81.0,1241.9895329671665,1,1,1,0.0,2.0
2021-09-23 13:32:17.209,1116.0,-539.0,-94.0,1242.9050647575625,1,1,1,0.0,2.0
2021-09-23 13:32:17.218,896.0,-75.0,-27.0,899.5387707041871,1,1,1,0.0,2.0
2021-09-23 13:32:17.228,1147.0,-339.0,20.0,1196.2148636428155,1,1,1,0.0,2.0
2021-09-23 13:32:17.237,989.0,-339.0,20.0,1045.677770634912,1,1,1,0.0,2.0
2021-09-23 13:32:17.238,989.0,310.0,28.0,1036.824478877693,1,1,1,0.0,2.0
2021-09-23 13:32:17.247,1007.0,13.0,13.0,1007.1678112410068,1,1,1,0.0,2.0
2021-09-23 13:32:17.257,675.0,668.0,-69.0,952.1607007223098,1,1,1,0.0,2.0
2021-09-23 13:32:17.267,1176.0,329.0,61.0,1222.6765721154552,1,1,1,0.0,2.0
2021-09-23 13:32:17.277,1114.0,272.0,19.0,1146.8831675458491,1,1,1,0.0,2.0
2021-09-23 13:32:17.288,912.0,52.0,-2.0,913.483442652356,1,1,1,0.0,2.0
2021-09-23 13:32:17.296,794.0,52.0,-2.0,795.7034623526531,1,1,1,0.0,2.0
2021-09-23 13:32:17.297,794.0,29.0,-16.0,794.6905057945514,1,1,1,0.0,2.0
2021-09-23 13:32:17.306,1165.0,-443.0,26.0,1246.655525796922,1,1,1,0.0,2.0
2021-09-23 13:32:17.316,1067.0,-38.0,92.0,1071.6328662373137,1,1,1,0.0,2.0
2021-09-23 13:32:17.325,812.0,-143.0,92.0,829.6125601749288,1,1,1,0.0,2.0
2021-09-23 13:32:17.326,812.0,-143.0,-54.0,826.2620649648633,1,1,1,0.0,2.0
2021-09-23 13:32:17.336,986.0,201.0,-21.0,1006.4978887210842,1,1,1,0.0,2.0
2021-09-23 13:32:17.345,976.0,379.0,-21.0,1047.214400206567,1,1,1,0.0,2.0
2021-09-23 13:32:17.346,976.0,379.0,28.0,1047.3781552046996,1,1,1,0.0,2.0
2021-09-23 13:32:17.355,1052.0,351.0,68.0,1111.0936054176534,1,1,1,0.0,2.0
2021-09-23 13:32:17.374,1100.0,-305.0,-57.0,1142.9234445053614,1,1,1,0.0,2.0
2021-09-23 13:32:17.377,940.0,-168.0,-53.0,956.3644702727094,1,1,1,0.0,2.0
2021-09-23 13:32:17.384,1152.0,-168.0,-53.0,1165.3913505771354,1,1,1,0.0,2.0
2021-09-23 13:32:17.385,1152.0,-183.0,34.0,1166.9400155963458,1,1,1,0.0,2.0
2021-09-23 13:32:17.394,1109.0,-443.0,13.0,1194.27760591916,1,1,1,0.0,2.0
2021-09-23 13:32:17.403,716.0,-443.0,13.0,842.0653181315569,1,1,1,0.0,2.0
2021-09-23 13:32:17.404,716.0,42.0,-10.0,717.3004949113028,1,1,1,0.0,2.0
2021-09-23 13:32:17.413,757.0,549.0,-10.0,935.1737806418656,1,1,1,0.0,2.0
2021-09-23 13:32:17.414,757.0,549.0,-54.0,936.6781731203092,1,1,1,0.0,2.0
2021-09-23 13:32:17.423,1073.0,384.0,48.0,1140.6528832208332,1,1,1,0.0,2.0
2021-09-23 13:32:17.433,1119.0,163.0,7.0,1130.8311102901264,1,1,1,0.0,2.0
2021-09-23 13:32:17.448,805.0,404.0,-2.0,900.691401091406,1,1,1,0.0,2.0
2021-09-23 13:32:17.452,1172.0,-36.0,-19.0,1172.7066981986586,1,1,1,0.0,2.0
2021-09-23 13:32:17.464,1108.0,-36.0,-19.0,1108.7474915416944,1,1,1,0.0,2.0
2021-09-23 13:32:17.465,1108.0,182.0,9.0,1122.884232679398,1,1,1,0.0,2.0
2021-09-23 13:32:17.472,1096.0,-148.0,9.0,1105.984177102005,1,1,1,0.0,2.0
2021-09-23 13:32:17.473,1096.0,-148.0,106.0,1111.0157514634975,1,1,1,0.0,2.0
2021-09-23 13:32:17.482,791.0,-204.0,-92.0,822.0468356486751,1,1,1,0.0,2.0
2021-09-23 13:32:17.492,1115.0,-79.0,22.0,1118.0116278465086,1,1,1,0.0,2.0
2021-09-23 13:32:17.501,944.0,319.0,2.0,996.444178065184,1,1,1,0.0,2.0
2021-09-23 13:32:17.511,1062.0,54.0,19.0,1063.5417246163877,1,1,1,0.0,2.0
2021-09-23 13:32:17.521,664.0,643.0,-99.0,929.5945352679308,1,1,1,0.0,2.0
2021-09-23 13:32:17.531,1007.0,-133.0,-54.0,1017.1794335317638,1,1,1,0.0,2.0
2021-09-23 13:32:17.540,1179.0,-51.0,80.0,1182.8110584535468,1,1,1,0.0,2.0
2021-09-23 13:32:17.550,1119.0,-51.0,80.0,1123.0146926910618,1,1,1,0.0,2.0
2021-09-23 13:32:17.551,1119.0,-506.0,-20.0,1228.2495674739723,1,1,1,0.0,2.0
2021-09-23 13:32:17.560,770.0,31.0,-3.0,770.629612719366,1,1,1,0.0,2.0
2021-09-23 13:32:17.569,1140.0,31.0,-3.0,1140.4253592410157,1,1,1,0.0,2.0
2021-09-23 13:32:17.570,1140.0,-414.0,13.0,1212.9159080496884,1,1,1,0.0,2.0
2021-09-23 13:32:17.580,1110.0,40.0,94.0,1114.690988570375,1,1,1,0.0,2.0
2021-09-23 13:32:17.589,1136.0,151.0,3.0,1145.9956369899494,1,1,1,0.0,2.0
2021-09-23 13:32:17.599,712.0,151.0,3.0,727.8420158248629,1,1,1,0.0,2.0
2021-09-23 13:32:17.600,712.0,603.0,33.0,933.6176947766146,1,1,1,0.0,2.0
2021-09-23 13:32:17.608,1248.0,603.0,33.0,1386.434996673122,1,1,1,0.0,2.0
2021-09-23 13:32:17.609,1248.0,1.0,18.0,1248.13020154149,1,1,1,0.0,2.0
2021-09-23 13:32:17.618,1038.0,314.0,18.0,1084.6031532316324,1,1,1,0.0,2.0
2021-09-23 13:32:17.619,1038.0,314.0,79.0,1087.3274575766034,1,1,1,0.0,2.0
2021-09-23 13:32:17.628,1179.0,-502.0,-107.0,1285.8825762875863,1,1,1,0.0,2.0
2021-09-23 13:32:17.638,906.0,-111.0,-107.0,919.0244828077216,1,1,1,0.0,2.0
2021-09-23 13:32:17.639,906.0,-111.0,-35.0,913.4451269780797,1,1,1,0.0,2.0
2021-09-23 13:32:17.648,1141.0,-227.0,31.0,1163.774462685962,1,1,1,0.0,2.0
2021-09-23 13:32:17.657,970.0,267.0,31.0,1006.5535256507724,1,1,1,0.0,2.0
2021-09-23 13:32:17.658,970.0,267.0,27.0,1006.438274311942,1,1,1,0.0,2.0
2021-09-23 13:32:17.667,1004.0,-17.0,27.0,1004.5068441777786,1,1,1,0.0,2.0
2021-09-23 13:32:17.668,1004.0,-17.0,13.0,1004.228061746932,1,1,1,0.0,2.0
2021-09-23 13:32:17.677,684.0,676.0,-88.0,965.6997462979888,1,1,1,0.0,2.0
2021-09-23 13:32:17.687,1144.0,676.0,-88.0,1331.7116805074588,1,1,1,0.0,2.0
2021-09-23 13:32:17.688,1144.0,367.0,60.0,1202.9235220910762,1,1,1,0.0,2.0
2021-09-23 13:32:17.696,1113.0,367.0,60.0,1173.481145992555,1,1,1,0.0,2.0
2021-09-23 13:32:17.697,1113.0,130.0,125.0,1127.5167404522206,1,1,1,0.0,2.0
2021-09-23 13:32:17.707,1147.0,-618.0,-30.0,1303.2394254318735,1,1,1,0.0,2.0
2021-09-23 13:32:17.716,798.0,16.0,28.0,798.6513632368006,1,1,1,0.0,2.0
2021-09-23 13:32:17.726,1119.0,-458.0,11.0,1209.1509417769148,1,1,1,0.0,2.0
2021-09-23 13:32:17.736,1115.0,-91.0,11.0,1118.76136865732,1,1,1,0.0,2.0
2021-09-23 13:32:17.737,1115.0,-91.0,114.0,1124.5007781233412,1,1,1,0.0,2.0
2021-09-23 13:32:17.746,796.0,-149.0,-85.0,814.2739096888712,1,1,1,0.0,2.0
2021-09-23 13:32:17.762,637.0,582.0,-32.0,863.4332631998839,1,1,1,0.0,2.0
2021-09-23 13:32:17.765,1267.0,144.0,29.0,1275.4865738219278,1,1,1,0.0,2.0
2021-09-23 13:32:17.775,1003.0,353.0,68.0,1065.4773578072882,1,1,1,0.0,2.0
2021-09-23 13:32:17.785,1119.0,-308.0,68.0,1162.6044039139022,1,1,1,0.0,2.0
2021-09-23 13:32:17.786,1119.0,-308.0,-50.0,1161.6905784243927,1,1,1,0.0,2.0
2021-09-23 13:32:17.795,967.0,-202.0,-41.0,988.7234193645866,1,1,1,0.0,2.0
2021-09-23 13:32:17.804,1163.0,-231.0,33.0,1186.1783171176246,1,1,1,0.0,2.0
2021-09-23 13:32:17.814,1038.0,200.0,63.0,1058.967893753158,1,1,1,0.0,2.0
2021-09-23 13:32:17.823,946.0,-33.0,63.0,948.6695947483508,1,1,1,0.0,2.0
2021-09-23 13:32:17.824,946.0,-33.0,-20.0,946.7866707975984,1,1,1,0.0,2.0
2021-09-23 13:32:17.834,724.0,606.0,-54.0,945.6891666927352,1,1,1,0.0,2.0
2021-09-23 13:32:17.843,1103.0,606.0,-54.0,1259.6670194936437,1,1,1,0.0,2.0
2021-09-23 13:32:17.844,1103.0,390.0,62.0,1171.5600710164204,1,1,1,0.0,2.0
2021-09-23 13:32:17.853,1107.0,179.0,-12.0,1121.4428206556051,1,1,1,0.0,2.0
2021-09-23 13:32:17.862,878.0,179.0,-12.0,896.1411719143363,1,1,1,0.0,2.0
2021-09-23 13:32:17.863,878.0,316.0,-6.0,933.15379225506,1,1,1,0.0,2.0
2021-09-23 13:32:17.872,823.0,-13.0,-6.0,823.124534927735,1,1,1,0.0,2.0
2021-09-23 13:32:17.873,823.0,-13.0,18.0,823.2994594921097,1,1,1,0.0,2.0
2021-09-23 13:32:17.882,1155.0,-13.0,18.0,1155.213400199288,1,1,1,0.0,2.0
2021-09-23 13:32:17.883,1155.0,-464.0,11.0,1244.7658414336408,1,1,1,0.0,2.0
2021-09-23 13:32:17.893,1117.0,-154.0,100.0,1131.9916077427429,1,1,1,0.0,2.0
2021-09-23 13:32:17.901,788.0,-154.0,100.0,809.1106228446145,1,1,1,0.0,2.0
2021-09-23 13:32:17.902,788.0,-202.0,-104.0,820.0999939031825,1,1,1,0.0,2.0
2021-09-23 13:32:17.911,1090.0,8.0,20.0,1090.2128232597524,1,1,1,0.0,2.0
2021-09-23 13:32:17.922,951.0,336.0,11.0,1008.671403381696,1,1,1,0.0,2.0
2021-09-23 13:32:17.931,1002.0,349.0,60.0,1062.7346799648535,1,1,1,0.0,2.0
2021-09-23 13:32:17.942,1001.0,-135.0,-18.0,1010.222747714582,1,1,1,0.0,2.0
2021-09-23 13:32:17.951,973.0,-166.0,-18.0,987.2228725065077,1,1,1,0.0,2.0
2021-09-23 13:32:17.952,973.0,-166.0,-67.0,989.3300763648097,1,1,1,0.0,2.0
2021-09-23 13:32:17.960,1177.0,-74.0,61.0,1180.900503852886,1,1,1,0.0,2.0
2021-09-23 13:32:17.970,1098.0,-536.0,-15.0,1221.9349409849938,1,1,1,0.0,2.0
2021-09-23 13:32:17.980,761.0,20.0,8.0,761.3048009831542,1,1,1,0.0,2.0
2021-09-23 13:32:17.990,857.0,491.0,-21.0,987.9124455132652,1,1,1,0.0,2.0
2021-09-23 13:32:18.000,1011.0,469.0,36.0,1115.0686077546975,1,1,1,0.0,2.0
2021-09-23 13:32:18.009,1161.0,132.0,13.0,1168.5520955438828,1,1,1,0.0,2.0
2021-09-23 13:32:18.019,700.0,603.0,30.0,924.396559924365,1,1,1,0.0,2.0
2021-09-23 13:32:18.028,1233.0,603.0,30.0,1372.8794557425645,1,1,1,0.0,2.0
2021-09-23 13:32:18.029,1233.0,-36.0,-6.0,1233.5400277250835,1,1,1,0.0,2.0
2021-09-23 13:32:18.038,1074.0,333.0,98.0,1128.702352261215,1,1,1,0.0,2.0
2021-09-23 13:32:18.049,1116.0,333.0,98.0,1168.7382084966675,1,1,1,0.0,2.0
2021-09-23 13:32:18.050,1116.0,-301.0,79.0,1158.5758499122965,1,1,1,0.0,2.0
2021-09-23 13:32:18.058,754.0,-90.0,-81.0,763.6602647774729,1,1,1,0.0,2.0
2021-09-23 13:32:18.067,1131.0,-90.0,-81.0,1137.4629664301162,1,1,1,0.0,2.0
2021-09-23 13:32:18.068,1131.0,-183.0,30.0,1146.102089693584,1,1,1,0.0,2.0
2021-09-23 13:32:18.077,964.0,329.0,30.0,1019.0372907798812,1,1,1,0.0,2.0
2021-09-23 13:32:18.078,964.0,329.0,27.0,1018.9533846059888,1,1,1,0.0,2.0
2021-09-23 13:32:18.087,1031.0,27.0,19.0,1031.528477551638,1,1,1,0.0,2.0
2021-09-23 13:32:18.097,625.0,27.0,19.0,625.871392540033,1,1,1,0.0,2.0
2021-09-23 13:32:18.098,625.0,722.0,-89.0,959.077681942396,1,1,1,0.0,2.0
2021-09-23 13:32:18.108,1020.0,-139.0,-61.0,1031.2332422880868,1,1,1,0.0,2.0
2021-09-23 13:32:18.116,1154.0,31.0,-61.0,1156.0268162979612,1,1,1,0.0,2.0
2021-09-23 13:32:18.117,1154.0,31.0,136.0,1162.3996730901124,1,1,1,0.0,2.0
2021-09-23 13:32:18.128,1138.0,-598.0,-41.0,1286.2072150318547,1,1,1,0.0,2.0
2021-09-23 13:32:18.141,815.0,28.0,-2.0,815.4832922874631,1,1,1,0.0,2.0
2021-09-23 13:32:18.151,1118.0,-462.0,13.0,1209.7673330025077,1,1,1,0.0,2.0
2021-09-23 13:32:18.155,1093.0,-462.0,13.0,1186.7021530274562,1,1,1,0.0,2.0
2021-09-23 13:32:18.156,1093.0,-2.0,123.0,1099.900904627321,1,1,1,0.0,2.0
2021-09-23 13:32:18.165,1177.0,106.0,7.0,1181.7842442679628,1,1,1,0.0,2.0
2021-09-23 13:32:18.178,623.0,533.0,7.0,819.9188984283751,1,1,1,0.0,2.0
2021-09-23 13:32:18.185,1288.0,42.0,21.0,1288.8556940169835,1,1,1,0.0,2.0
2021-09-23 13:32:18.196,994.0,382.0,86.0,1068.3426416651166,1,1,1,0.0,2.0
2021-09-23 13:32:18.204,1156.0,-392.0,-98.0,1224.583194397179,1,1,1,0.0,2.0
2021-09-23 13:32:18.214,944.0,-182.0,-29.0,961.8217090500711,1,1,1,0.0,2.0
2021-09-23 13:32:18.224,1197.0,-326.0,49.0,1241.5659466979594,1,1,1,0.0,2.0
2021-09-23 13:32:18.233,975.0,-326.0,49.0,1029.2239795107769,1,1,1,0.0,2.0
2021-09-23 13:32:18.234,975.0,239.0,44.0,1004.8293387436496,1,1,1,0.0,2.0
2021-09-23 13:32:18.244,958.0,-25.0,19.0,958.5144756340408,1,1,1,0.0,2.0
2021-09-23 13:32:18.254,725.0,696.0,-83.0,1008.429472000893,1,1,1,0.0,2.0
2021-09-23 13:32:18.263,1136.0,382.0,55.0,1199.768727713804,1,1,1,0.0,2.0
2021-09-23 13:32:18.273,1123.0,173.0,-7.0,1136.2688942323468,1,1,1,0.0,2.0
2021-09-23 13:32:18.282,1105.0,173.0,-7.0,1118.482454042083,1,1,1,0.0,2.0
2021-09-23 13:32:18.283,1105.0,-646.0,-61.0,1281.429670329199,1,1,1,0.0,2.0
2021-09-23 13:32:18.292,819.0,21.0,-61.0,821.5369742135773,1,1,1,0.0,2.0
2021-09-23 13:32:18.293,819.0,21.0,34.0,819.9743898439756,1,1,1,0.0,2.0
2021-09-23 13:32:18.303,1109.0,21.0,34.0,1109.7197844501106,1,1,1,0.0,2.0
2021-09-23 13:32:18.304,1109.0,-409.0,16.0,1182.1243589402936,1,1,1,0.0,2.0
2021-09-23 13:32:18.312,1122.0,-93.0,112.0,1131.404878900564,1,1,1,0.0,2.0
2021-09-23 13:32:18.322,790.0,-188.0,-98.0,817.9535439131002,1,1,1,0.0,2.0
2021-09-23 13:32:18.331,1132.0,69.0,-98.0,1138.3272815846944,1,1,1,0.0,2.0
2021-09-23 13:32:18.332,1132.0,69.0,7.0,1134.1225683320124,1,1,1,0.0,2.0
2021-09-23 13:32:18.341,1276.0,192.0,31.0,1290.7366113967637,1,1,1,0.0,2.0
2021-09-23 13:32:18.352,952.0,379.0,65.0,1026.727812031991,1,1,1,0.0,2.0
2021-09-23 13:32:18.360,1060.0,379.0,65.0,1127.5930116846237,1,1,1,0.0,2.0
2021-09-23 13:32:18.361,1060.0,-160.0,-7.0,1072.0303167354923,1,1,1,0.0,2.0
2021-09-23 13:32:18.370,982.0,-204.0,-7.0,1002.990029860716,1,1,1,0.0,2.0
2021-09-23 13:32:18.371,982.0,-204.0,-53.0,1004.3649735031584,1,1,1,0.0,2.0
2021-09-23 13:32:18.389,1197.0,-230.0,28.0,1219.2181921214922,1,1,1,0.0,2.0
2021-09-23 13:32:18.391,1082.0,-529.0,28.0,1204.7194694201637,1,1,1,0.0,2.0
2021-09-23 13:32:18.392,1082.0,-529.0,-4.0,1204.4006808367387,1,1,1,0.0,2.0
2021-09-23 13:32:18.400,933.0,-15.0,0.0,933.1205709874796,1,1,1,0.0,2.0
2021-09-23 13:32:18.410,756.0,656.0,0.0,1000.9355623615338,1,1,1,0.0,2.0
2021-09-23 13:32:18.411,756.0,656.0,-55.0,1002.4455097410532,1,1,1,0.0,2.0
2021-09-23 13:32:18.419,1046.0,501.0,51.0,1160.912572074228,1,1,1,0.0,2.0
2021-09-23 13:32:18.429,1137.0,501.0,51.0,1243.531664253066,1,1,1,0.0,2.0
2021-09-23 13:32:18.430,1137.0,171.0,-11.0,1149.8395540248214,1,1,1,0.0,2.0
2021-09-23 13:32:18.439,843.0,472.0,4.0,966.151644411994,1,1,1,0.0,2.0
2021-09-23 13:32:18.448,1162.0,472.0,4.0,1254.210508646774,1,1,1,0.0,2.0
2021-09-23 13:32:18.449,1162.0,-82.0,-26.0,1165.1798144492548,1,1,1,0.0,2.0
2021-09-23 13:32:18.459,1102.0,-435.0,7.0,1184.7691758313094,1,1,1,0.0,2.0
2021-09-23 13:32:18.473,1153.0,-165.0,7.0,1164.7673587459428,1,1,1,0.0,2.0
2021-09-23 13:32:18.474,1153.0,-165.0,92.0,1168.374083930314,1,1,1,0.0,2.0
2021-09-23 13:32:18.478,781.0,-179.0,-108.0,808.4961348083242,1,1,1,0.0,2.0
2021-09-23 13:32:18.488,1131.0,-30.0,35.0,1131.9390442952306,1,1,1,0.0,2.0
2021-09-23 13:32:18.497,908.0,369.0,35.0,980.7395168952866,1,1,1,0.0,2.0
2021-09-23 13:32:18.498,908.0,369.0,14.0,980.2147723840934,1,1,1,0.0,2.0
2021-09-23 13:32:18.509,1106.0,369.0,14.0,1166.0158661013152,1,1,1,0.0,2.0
2021-09-23 13:32:18.510,1106.0,154.0,36.0,1117.2501957932252,1,1,1,0.0,2.0
2021-09-23 13:32:18.517,1002.0,-84.0,18.0,1005.6758921242966,1,1,1,0.0,2.0
2021-09-23 13:32:18.527,978.0,-153.0,-69.0,992.297334471881,1,1,1,0.0,2.0
2021-09-23 13:32:18.536,1203.0,-130.0,-69.0,1211.9694715627122,1,1,1,0.0,2.0
2021-09-23 13:32:18.537,1203.0,-130.0,62.0,1211.591102641481,1,1,1,0.0,2.0
2021-09-23 13:32:18.546,1125.0,-547.0,-18.0,1251.0627482264829,1,1,1,0.0,2.0
2021-09-23 13:32:18.557,782.0,-26.0,-4.0,782.4423301432508,1,1,1,0.0,2.0
2021-09-23 13:32:18.566,1118.0,-448.0,28.0,1204.7456163024624,1,1,1,0.0,2.0
2021-09-23 13:32:18.575,970.0,512.0,28.0,1097.1909587669777,1,1,1,0.0,2.0
2021-09-23 13:32:18.576,970.0,512.0,36.0,1097.4242570674296,1,1,1,0.0,2.0
2021-09-23 13:32:18.585,1160.0,120.0,2.0,1166.1920939536506,1,1,1,0.0,2.0
2021-09-23 13:32:18.595,704.0,598.0,2.0,923.7012504051296,1,1,1,0.0,2.0
2021-09-23 13:32:18.596,704.0,598.0,36.0,924.4003461704242,1,1,1,0.0,2.0
2021-09-23 13:32:18.605,1241.0,-63.0,10.0,1242.6383222804614,1,1,1,0.0,2.0
2021-09-23 13:32:18.614,1049.0,343.0,10.0,1103.6983283488291,1,1,1,0.0,2.0
2021-09-23 13:32:18.615,1049.0,343.0,116.0,1109.732400175826,1,1,1,0.0,2.0
2021-09-23 13:32:18.624,1184.0,-652.0,-124.0,1357.3267845290611,1,1,1,0.0,2.0
2021-09-23 13:32:18.635,757.0,-100.0,-85.0,768.2929128919517,1,1,1,0.0,2.0
2021-09-23 13:32:18.644,1157.0,-202.0,41.0,1175.2165757850762,1,1,1,0.0,2.0
2021-09-23 13:32:18.653,941.0,-202.0,41.0,963.3099189772728,1,1,1,0.0,2.0
2021-09-23 13:32:18.654,941.0,322.0,20.0,994.768817364115,1,1,1,0.0,2.0
2021-09-23 13:32:18.664,1018.0,39.0,24.0,1019.0294402027844,1,1,1,0.0,2.0
2021-09-23 13:32:18.673,627.0,704.0,-90.0,947.0190072010172,1,1,1,0.0,2.0
2021-09-23 13:32:18.683,1243.0,704.0,-90.0,1431.3507606453422,1,1,1,0.0,2.0
2021-09-23 13:32:18.684,1243.0,318.0,65.0,1284.6781698153045,1,1,1,0.0,2.0
2021-09-23 13:32:18.692,1186.0,318.0,65.0,1229.6117273350967,1,1,1,0.0,2.0
2021-09-23 13:32:18.693,1186.0,35.0,152.0,1196.2127737154456,1,1,1,0.0,2.0
2021-09-23 13:32:18.702,1124.0,-614.0,152.0,1289.7581168575755,1,1,1,0.0,2.0
2021-09-23 13:32:18.703,1124.0,-614.0,-56.0,1281.9937597352025,1,1,1,0.0,2.0
2021-09-23 13:32:18.713,797.0,7.0,4.0,797.0407768740567,1,1,1,0.0,2.0
2021-09-23 13:32:18.722,1081.0,-416.0,22.0,1158.490828621444,1,1,1,0.0,2.0
2021-09-23 13:32:18.731,1116.0,-416.0,22.0,1191.2161852493443,1,1,1,0.0,2.0
2021-09-23 13:32:18.732,1116.0,57.0,128.0,1124.76175255029,1,1,1,0.0,2.0
2021-09-23 13:32:18.741,791.0,57.0,128.0,803.314384285505,1,1,1,0.0,2.0
2021-09-23 13:32:18.742,791.0,-158.0,-63.0,809.0821960715734,1,1,1,0.0,2.0
2021-09-23 13:32:18.752,618.0,530.0,10.0,814.2014492740725,1,1,1,0.0,2.0
2021-09-23 13:32:18.761,1321.0,32.0,26.0,1321.643295295671,1,1,1,0.0,2.0
2021-09-23 13:32:18.777,948.0,422.0,93.0,1041.8430783952062,1,1,1,0.0,2.0
2021-09-23 13:32:18.780,1205.0,-374.0,93.0,1265.12845197632,1,1,1,0.0,2.0
2021-09-23 13:32:18.781,1205.0,-374.0,-62.0,1263.2280079225602,1,1,1,0.0,2.0
2021-09-23 13:32:18.791,911.0,-163.0,-60.0,927.4103730280356,1,1,1,0.0,2.0
2021-09-23 13:32:18.800,1198.0,-289.0,-10.0,1232.4061830419384,1,1,1,0.0,2.0
2021-09-23 13:32:18.811,972.0,261.0,50.0,1007.673062059317,1,1,1,0.0,2.0
2021-09-23 13:32:18.819,977.0,27.0,50.0,978.6511125012836,1,1,1,0.0,2.0
2021-09-23 13:32:18.820,977.0,27.0,50.0,978.6511125012836,1,1,1,0.0,2.0
2021-09-23 13:32:18.829,674.0,716.0,-86.0,987.0805438260852,1,1,1,0.0,2.0
2021-09-23 13:32:18.839,1164.0,387.0,66.0,1228.422158706037,1,1,1,0.0,2.0
2021-09-23 13:32:18.849,1154.0,171.0,-41.0,1167.3208642014415,1,1,1,0.0,2.0
2021-09-23 13:32:18.859,905.0,313.0,-41.0,958.475351795757,1,1,1,0.0,2.0
2021-09-23 13:32:18.860,905.0,313.0,17.0,957.7489232570298,1,1,1,0.0,2.0
2021-09-23 13:32:18.868,842.0,27.0,23.0,842.7466997858846,1,1,1,0.0,2.0
2021-09-23 13:32:18.878,1092.0,-434.0,4.0,1175.0897838037738,1,1,1,0.0,2.0
2021-09-23 13:32:18.888,1111.0,-19.0,130.0,1118.7412569490766,1,1,1,0.0,2.0
2021-09-23 13:32:18.898,762.0,-149.0,-96.0,782.3432750397999,1,1,1,0.0,2.0
2021-09-23 13:32:18.910,1101.0,-149.0,-96.0,1115.1762192586425,1,1,1,0.0,2.0
2021-09-23 13:32:18.911,1101.0,45.0,-4.0,1101.9264948262205,1,1,1,0.0,2.0
2021-09-23 13:32:18.918,830.0,324.0,47.0,892.2359553391692,1,1,1,0.0,2.0
2021-09-23 13:32:18.927,1079.0,74.0,12.0,1081.6011279579918,1,1,1,0.0,2.0
2021-09-23 13:32:18.937,896.0,150.0,-14.0,908.5769092377376,1,1,1,0.0,2.0
2021-09-23 13:32:18.947,979.0,-68.0,-39.0,982.1333921621848,1,1,1,0.0,2.0
2021-09-23 13:32:18.957,1044.0,164.0,75.0,1059.4607118718466,1,1,1,0.0,2.0
2021-09-23 13:32:18.967,936.0,60.0,-22.0,938.1790873815085,1,1,1,0.0,2.0
2021-09-23 13:32:18.976,1018.0,22.0,25.0,1018.5445498356956,1,1,1,0.0,2.0
2021-09-23 13:32:18.985,1027.0,22.0,25.0,1027.5397802518405,1,1,1,0.0,2.0
2021-09-23 13:32:18.986,1027.0,50.0,20.0,1028.4109100938203,1,1,1,0.0,2.0
2021-09-23 13:32:18.995,1009.0,5.0,20.0,1009.2105825842297,1,1,1,0.0,2.0
2021-09-23 13:32:18.996,1009.0,5.0,-31.0,1009.4884843325356,1,1,1,0.0,2.0
2021-09-23 13:32:19.005,1033.0,31.0,12.0,1033.5347115602842,1,1,1,0.0,2.0
2021-09-23 13:32:19.015,1032.0,0.0,-12.0,1032.069765083737,1,1,1,0.0,2.0
2021-09-23 13:32:19.024,998.0,0.0,-12.0,998.0721416811512,1,1,1,0.0,2.0
2021-09-23 13:32:19.025,998.0,43.0,3.0,998.9304280078768,1,1,1,0.0,2.0
2021-09-23 13:32:19.034,1015.0,30.0,16.0,1015.5692984725364,1,1,1,0.0,2.0
2021-09-23 13:32:19.044,997.0,42.0,4.0,997.892278755578,1,1,1,0.0,2.0
2021-09-23 13:32:19.054,1023.0,14.0,4.0,1023.1036115662968,1,1,1,0.0,2.0
2021-09-23 13:32:19.055,1023.0,14.0,4.0,1023.1036115662968,1,1,1,0.0,2.0
2021-09-23 13:32:19.064,1013.0,38.0,14.0,1013.8091536379025,1,1,1,0.0,2.0
2021-09-23 13:32:19.074,1003.0,38.0,14.0,1003.8172144369712,1,1,1,0.0,2.0
2021-09-23 13:32:19.075,1003.0,40.0,0.0,1003.7972902932144,1,1,1,0.0,2.0
2021-09-23 13:32:19.083,1002.0,39.0,-6.0,1002.7766451209362,1,1,1,0.0,2.0
2021-09-23 13:32:19.093,1018.0,48.0,12.0,1019.2016483503154,1,1,1,0.0,2.0
2021-09-23 13:32:19.103,1017.0,37.0,9.0,1017.7126313454108,1,1,1,0.0,2.0
