time_stamp,Acceleration_X,Acceleration_Y,Acceleration_Z,magnitude,STD_Status_right,STD_Status_left,STD_Status_both,KMeans,KMeans_convert
2021-09-27 07:15:33.997,1053.0,82.0,95.0,1060.4517905119496,1,1,1,0.0,2.0
2021-09-27 07:15:34.006,1067.0,108.0,95.0,1076.6512898798755,1,1,1,0.0,2.0
2021-09-27 07:15:34.007,1067.0,108.0,56.0,1073.912938743174,1,1,1,0.0,2.0
2021-09-27 07:15:34.016,983.0,49.0,13.0,984.3063547493738,1,1,1,0.0,2.0
2021-09-27 07:15:34.026,1005.0,49.0,13.0,1006.277794647184,1,1,1,0.0,2.0
2021-09-27 07:15:34.027,1005.0,10.0,3.0,1005.0542273927311,1,1,1,0.0,2.0
2021-09-27 07:15:34.036,988.0,-80.0,-6.0,991.2517339202992,1,1,1,0.0,2.0
2021-09-27 07:15:34.046,1017.0,-22.0,14.0,1017.3342616859024,1,1,1,0.0,2.0
2021-09-27 07:15:34.055,1071.0,53.0,37.0,1072.9487406209114,1,1,1,0.0,2.0
2021-09-27 07:15:34.068,1046.0,57.0,-2.0,1047.5538172332722,1,1,1,0.0,2.0
2021-09-27 07:15:34.075,1007.0,130.0,50.0,1016.5869367643872,1,1,1,0.0,2.0
2021-09-27 07:15:34.085,1009.0,130.0,50.0,1018.5681125972872,1,1,1,0.0,2.0
2021-09-27 07:15:34.086,1009.0,101.0,22.0,1014.2810261461073,1,1,1,0.0,2.0
2021-09-27 07:15:34.094,975.0,83.0,22.0,978.7737225733024,1,1,1,0.0,2.0
2021-09-27 07:15:34.095,975.0,83.0,-4.0,978.5346187028848,1,1,1,0.0,2.0
2021-09-27 07:15:34.104,997.0,0.0,2.0,997.002006016036,1,1,1,0.0,2.0
2021-09-27 07:15:34.114,1020.0,-77.0,-4.0,1022.9100644729232,1,1,1,0.0,2.0
2021-09-27 07:15:34.124,1054.0,10.0,34.0,1054.5956571122413,1,1,1,0.0,2.0
2021-09-27 07:15:34.134,1040.0,6.0,20.0,1040.2095942645406,1,1,1,0.0,2.0
2021-09-27 07:15:34.143,1026.0,6.0,20.0,1026.2124536371598,1,1,1,0.0,2.0
2021-09-27 07:15:34.144,1026.0,17.0,-18.0,1026.2986894661808,1,1,1,0.0,2.0
2021-09-27 07:15:34.153,980.0,17.0,-18.0,980.3127052119644,1,1,1,0.0,2.0
2021-09-27 07:15:34.154,980.0,7.0,-38.0,980.7614388830752,1,1,1,0.0,2.0
2021-09-27 07:15:34.163,960.0,61.0,14.0,962.0379410397492,1,1,1,0.0,2.0
2021-09-27 07:15:34.172,1002.0,73.0,14.0,1004.75320352811,1,1,1,0.0,2.0
2021-09-27 07:15:34.173,1002.0,73.0,19.0,1004.835309889138,1,1,1,0.0,2.0
2021-09-27 07:15:34.183,1014.0,18.0,14.0,1014.2563778453653,1,1,1,0.0,2.0
2021-09-27 07:15:34.192,1039.0,18.0,14.0,1039.2502104883115,1,1,1,0.0,2.0
2021-09-27 07:15:34.193,1039.0,85.0,61.0,1044.2542793783514,1,1,1,0.0,2.0
2021-09-27 07:15:34.202,1036.0,99.0,61.0,1042.505635476375,1,1,1,0.0,2.0
2021-09-27 07:15:34.203,1036.0,99.0,21.0,1040.931313776274,1,1,1,0.0,2.0
2021-09-27 07:15:34.211,987.0,99.0,21.0,992.1748837780564,1,1,1,0.0,2.0
2021-09-27 07:15:34.212,987.0,37.0,11.0,987.754524160735,1,1,1,0.0,2.0
2021-09-27 07:15:34.221,1016.0,17.0,11.0,1016.2017516221864,1,1,1,0.0,2.0
2021-09-27 07:15:34.222,1016.0,17.0,12.0,1016.2130682096152,1,1,1,0.0,2.0
2021-09-27 07:15:34.231,1003.0,9.0,20.0,1003.239752003478,1,1,1,0.0,2.0
2021-09-27 07:15:34.242,1019.0,-45.0,20.0,1020.1891981392472,1,1,1,0.0,2.0
2021-09-27 07:15:34.243,1019.0,-45.0,-7.0,1020.0171567184544,1,1,1,0.0,2.0
2021-09-27 07:15:34.250,973.0,-45.0,-7.0,974.0651928900858,1,1,1,0.0,2.0
2021-09-27 07:15:34.251,973.0,-43.0,-19.0,974.1350009110648,1,1,1,0.0,2.0
2021-09-27 07:15:34.260,1009.0,-3.0,-2.0,1009.0064420012392,1,1,1,0.0,2.0
2021-09-27 07:15:34.270,1034.0,71.0,28.0,1036.8129050122784,1,1,1,0.0,2.0
2021-09-27 07:15:34.281,1024.0,96.0,-5.0,1028.5023091855458,1,1,1,0.0,2.0
2021-09-27 07:15:34.290,983.0,96.0,-5.0,987.6892223771604,1,1,1,0.0,2.0
2021-09-27 07:15:34.291,983.0,98.0,6.0,987.8911883400924,1,1,1,0.0,2.0
2021-09-27 07:15:34.300,1030.0,75.0,52.0,1034.0352992040455,1,1,1,0.0,2.0
2021-09-27 07:15:34.310,1033.0,13.0,30.0,1033.517295452766,1,1,1,0.0,2.0
2021-09-27 07:15:34.319,1029.0,-17.0,1.0,1029.1409038610796,1,1,1,0.0,2.0
2021-09-27 07:15:34.329,1017.0,-70.0,-11.0,1019.4655462545068,1,1,1,0.0,2.0
2021-09-27 07:15:34.339,1083.0,25.0,-11.0,1083.3443589182527,1,1,1,0.0,2.0
2021-09-27 07:15:34.340,1083.0,25.0,17.0,1083.4218938160702,1,1,1,0.0,2.0
2021-09-27 07:15:34.348,1014.0,4.0,-51.0,1015.2896138540964,1,1,1,0.0,2.0
2021-09-27 07:15:34.358,889.0,12.0,-51.0,890.5425312695627,1,1,1,0.0,2.0
2021-09-27 07:15:34.359,889.0,12.0,-55.0,890.7805565906791,1,1,1,0.0,2.0
2021-09-27 07:15:34.368,980.0,19.0,1.0,980.1846764768362,1,1,1,0.0,2.0
2021-09-27 07:15:34.377,1035.0,19.0,1.0,1035.1748644552763,1,1,1,0.0,2.0
2021-09-27 07:15:34.378,1035.0,43.0,45.0,1036.8698086066545,1,1,1,0.0,2.0
2021-09-27 07:15:34.388,1009.0,108.0,19.0,1014.9413776174464,1,1,1,0.0,2.0
2021-09-27 07:15:34.398,1038.0,66.0,66.0,1042.18808283342,1,1,1,0.0,2.0
2021-09-27 07:15:34.407,1083.0,148.0,76.0,1095.7047960103123,1,1,1,0.0,2.0
2021-09-27 07:15:34.416,1044.0,148.0,76.0,1057.1735902868554,1,1,1,0.0,2.0
2021-09-27 07:15:34.417,1044.0,117.0,41.0,1051.335341363544,1,1,1,0.0,2.0
2021-09-27 07:15:34.426,1015.0,0.0,41.0,1015.8277413026284,1,1,1,0.0,2.0
2021-09-27 07:15:34.427,1015.0,0.0,-12.0,1015.0709334819908,1,1,1,0.0,2.0
2021-09-27 07:15:34.436,971.0,-102.0,-25.0,976.6626848610528,1,1,1,0.0,2.0
2021-09-27 07:15:34.447,984.0,-80.0,-48.0,988.4128691999108,1,1,1,0.0,2.0
2021-09-27 07:15:34.456,957.0,-80.0,-48.0,961.5367907677792,1,1,1,0.0,2.0
2021-09-27 07:15:34.457,957.0,-103.0,-47.0,963.6736999628038,1,1,1,0.0,2.0
2021-09-27 07:15:34.466,981.0,-10.0,-7.0,981.075939976106,1,1,1,0.0,2.0
2021-09-27 07:15:34.475,1042.0,56.0,9.0,1043.5425242892595,1,1,1,0.0,2.0
2021-09-27 07:15:34.487,1019.0,112.0,56.0,1026.6649891761188,1,1,1,0.0,2.0
2021-09-27 07:15:34.496,933.0,67.0,3.0,935.4073978753856,1,1,1,0.0,2.0
2021-09-27 07:15:34.504,987.0,67.0,3.0,989.2759978893656,1,1,1,0.0,2.0
2021-09-27 07:15:34.505,987.0,71.0,47.0,990.6659376399292,1,1,1,0.0,2.0
2021-09-27 07:15:34.514,1025.0,-3.0,32.0,1025.5037786376022,1,1,1,0.0,2.0
2021-09-27 07:15:34.524,1037.0,-62.0,17.0,1038.9908565526457,1,1,1,0.0,2.0
2021-09-27 07:15:34.534,1006.0,-81.0,-6.0,1009.2735010887782,1,1,1,0.0,2.0
2021-09-27 07:15:34.544,995.0,-74.0,-16.0,997.8762448319932,1,1,1,0.0,2.0
2021-09-27 07:15:34.559,996.0,-2.0,-48.0,997.1579614083216,1,1,1,0.0,2.0
2021-09-27 07:15:34.563,926.0,-26.0,-65.0,928.6425577152924,1,1,1,0.0,2.0
2021-09-27 07:15:34.573,958.0,24.0,27.0,958.6808645216612,1,1,1,0.0,2.0
2021-09-27 07:15:34.584,1039.0,87.0,78.0,1045.5496162306215,1,1,1,0.0,2.0
2021-09-27 07:15:34.594,1041.0,96.0,64.0,1047.3743361377535,1,1,1,0.0,2.0
2021-09-27 07:15:34.603,976.0,-1.0,-73.0,978.7267238611604,1,1,1,0.0,2.0
2021-09-27 07:15:34.612,1147.0,-1.0,-73.0,1149.3211039565922,1,1,1,0.0,2.0
2021-09-27 07:15:34.613,1147.0,237.0,82.0,1174.0962481841086,1,1,1,0.0,2.0
2021-09-27 07:15:34.630,1056.0,131.0,12.0,1064.1621117104291,1,1,1,0.0,2.0
2021-09-27 07:15:34.634,985.0,29.0,-40.0,986.2383079154856,1,1,1,0.0,2.0
2021-09-27 07:15:34.641,951.0,-20.0,-40.0,952.0509440150772,1,1,1,0.0,2.0
2021-09-27 07:15:34.651,970.0,-17.0,-4.0,970.1572037561748,1,1,1,0.0,2.0
2021-09-27 07:15:34.662,964.0,-87.0,-48.0,969.1073211982252,1,1,1,0.0,2.0
2021-09-27 07:15:34.670,1002.0,-87.0,-48.0,1006.9145941935692,1,1,1,0.0,2.0
2021-09-27 07:15:34.671,1002.0,3.0,-15.0,1002.1167596642618,1,1,1,0.0,2.0
2021-09-27 07:15:34.683,1047.0,27.0,33.0,1047.8678351777005,1,1,1,0.0,2.0
2021-09-27 07:15:34.690,1063.0,186.0,84.0,1082.4144307981117,1,1,1,0.0,2.0
2021-09-27 07:15:34.708,1063.0,66.0,17.0,1065.182613451797,1,1,1,0.0,2.0
2021-09-27 07:15:34.713,1012.0,112.0,84.0,1021.637900628202,1,1,1,0.0,2.0
2021-09-27 07:15:34.719,1016.0,25.0,84.0,1019.7730139594792,1,1,1,0.0,2.0
2021-09-27 07:15:34.720,1016.0,25.0,22.0,1016.5456212093976,1,1,1,0.0,2.0
2021-09-27 07:15:34.730,999.0,-69.0,-17.0,1001.5243381965312,1,1,1,0.0,2.0
2021-09-27 07:15:34.739,993.0,-135.0,-32.0,1002.6455006631209,1,1,1,0.0,2.0
2021-09-27 07:15:34.750,985.0,-47.0,19.0,986.303705762074,1,1,1,0.0,2.0
2021-09-27 07:15:34.758,1064.0,13.0,19.0,1064.2490310073108,1,1,1,0.0,2.0
2021-09-27 07:15:34.759,1064.0,13.0,80.0,1067.08247103961,1,1,1,0.0,2.0
2021-09-27 07:15:34.768,946.0,-11.0,-34.0,946.6747065386294,1,1,1,0.0,2.0
2021-09-27 07:15:34.789,1024.0,-11.0,-34.0,1024.6233454299197,1,1,1,0.0,2.0
2021-09-27 07:15:34.790,1024.0,57.0,25.0,1025.889857635799,1,1,1,0.0,2.0
2021-09-27 07:15:34.792,1027.0,112.0,25.0,1033.3915037390234,1,1,1,0.0,2.0
2021-09-27 07:15:34.793,1027.0,112.0,60.0,1034.829937719237,1,1,1,0.0,2.0
2021-09-27 07:15:34.799,1006.0,51.0,-4.0,1007.2998560508188,1,1,1,0.0,2.0
2021-09-27 07:15:34.807,968.0,-73.0,-74.0,973.5650979775312,1,1,1,0.0,2.0
2021-09-27 07:15:34.817,1102.0,167.0,67.0,1116.5939279791914,1,1,1,0.0,2.0
2021-09-27 07:15:34.827,1022.0,-3.0,-32.0,1022.505256710204,1,1,1,0.0,2.0
2021-09-27 07:15:34.837,981.0,-7.0,-46.0,982.1028459382449,1,1,1,0.0,2.0
2021-09-27 07:15:34.848,942.0,36.0,-7.0,942.7136362650112,1,1,1,0.0,2.0
2021-09-27 07:15:34.856,1003.0,60.0,48.0,1005.9388649416028,1,1,1,0.0,2.0
2021-09-27 07:15:34.867,1027.0,81.0,57.0,1031.7649926218664,1,1,1,0.0,2.0
2021-09-27 07:15:34.876,962.0,-15.0,-13.0,962.204759913398,1,1,1,0.0,2.0
2021-09-27 07:15:34.885,1038.0,-15.0,-13.0,1038.1897707066853,1,1,1,0.0,2.0
2021-09-27 07:15:34.886,1038.0,87.0,108.0,1047.223471853071,1,1,1,0.0,2.0
2021-09-27 07:15:34.896,1073.0,140.0,73.0,1084.5542863314863,1,1,1,0.0,2.0
2021-09-27 07:15:34.906,992.0,100.0,-37.0,997.7138868433174,1,1,1,0.0,2.0
2021-09-27 07:15:34.915,965.0,0.0,-76.0,967.988119761808,1,1,1,0.0,2.0
2021-09-27 07:15:34.924,1051.0,0.0,-76.0,1053.7442763782872,1,1,1,0.0,2.0
2021-09-27 07:15:34.925,1051.0,-41.0,7.0,1051.8227036910737,1,1,1,0.0,2.0
2021-09-27 07:15:34.934,973.0,-126.0,-40.0,981.9394074992612,1,1,1,0.0,2.0
2021-09-27 07:15:34.944,993.0,-94.0,-7.0,997.4637838037028,1,1,1,0.0,2.0
2021-09-27 07:15:34.956,1034.0,-94.0,-7.0,1038.287532430203,1,1,1,0.0,2.0
2021-09-27 07:15:34.957,1034.0,-24.0,60.0,1036.017374371685,1,1,1,0.0,2.0
2021-09-27 07:15:34.963,1102.0,-24.0,60.0,1103.8931107675237,1,1,1,0.0,2.0
2021-09-27 07:15:34.964,1102.0,64.0,78.0,1106.6092354575756,1,1,1,0.0,2.0
2021-09-27 07:15:34.973,1076.0,81.0,28.0,1079.407707958397,1,1,1,0.0,2.0
2021-09-27 07:15:34.983,1003.0,69.0,21.0,1005.5898766395773,1,1,1,0.0,2.0
2021-09-27 07:15:34.993,1024.0,67.0,21.0,1026.4044037317844,1,1,1,0.0,2.0
2021-09-27 07:15:34.994,1024.0,67.0,18.0,1026.347407070335,1,1,1,0.0,2.0
2021-09-27 07:15:35.004,992.0,6.0,-32.0,992.5341303955244,1,1,1,0.0,2.0
2021-09-27 07:15:35.012,952.0,-37.0,-32.0,953.2559991943402,1,1,1,0.0,2.0
2021-09-27 07:15:35.013,952.0,-37.0,-56.0,954.3631384331647,1,1,1,0.0,2.0
2021-09-27 07:15:35.022,955.0,-38.0,-22.0,956.0088911720436,1,1,1,0.0,2.0
2021-09-27 07:15:35.032,997.0,21.0,-4.0,997.229161226245,1,1,1,0.0,2.0
2021-09-27 07:15:35.042,965.0,-96.0,-37.0,970.468958802908,1,1,1,0.0,2.0
2021-09-27 07:15:35.052,967.0,-56.0,-11.0,968.68261055931,1,1,1,0.0,2.0
2021-09-27 07:15:35.062,1035.0,-56.0,-11.0,1036.5722357848488,1,1,1,0.0,2.0
2021-09-27 07:15:35.063,1035.0,58.0,86.0,1040.1850796853414,1,1,1,0.0,2.0
2021-09-27 07:15:35.075,1056.0,101.0,89.0,1064.545912584328,1,1,1,0.0,2.0
2021-09-27 07:15:35.080,991.0,101.0,89.0,1000.1014948493978,1,1,1,0.0,2.0
2021-09-27 07:15:35.081,991.0,47.0,35.0,992.7310814112752,1,1,1,0.0,2.0
2021-09-27 07:15:35.090,1091.0,47.0,35.0,1092.5726520465355,1,1,1,0.0,2.0
2021-09-27 07:15:35.091,1091.0,134.0,99.0,1103.647588680372,1,1,1,0.0,2.0
2021-09-27 07:15:35.100,1105.0,113.0,99.0,1115.1659069394111,1,1,1,0.0,2.0
2021-09-27 07:15:35.101,1105.0,113.0,34.0,1111.2830422534123,1,1,1,0.0,2.0
2021-09-27 07:15:35.112,997.0,12.0,-85.0,1000.6887628029008,1,1,1,0.0,2.0
2021-09-27 07:15:35.120,903.0,84.0,-70.0,909.5960641955307,1,1,1,0.0,2.0
2021-09-27 07:15:35.129,934.0,84.0,-70.0,940.3786471416712,1,1,1,0.0,2.0
2021-09-27 07:15:35.130,934.0,98.0,25.0,939.4599512485884,1,1,1,0.0,2.0
2021-09-27 07:15:35.139,980.0,-99.0,-20.0,985.1908444560372,1,1,1,0.0,2.0
2021-09-27 07:15:35.149,1021.0,-40.0,24.0,1022.0650664218986,1,1,1,0.0,2.0
2021-09-27 07:15:35.160,1037.0,18.0,61.0,1038.948506904938,1,1,1,0.0,2.0
2021-09-27 07:15:35.168,1067.0,18.0,61.0,1068.893820732443,1,1,1,0.0,2.0
2021-09-27 07:15:35.169,1067.0,36.0,52.0,1068.872770726245,1,1,1,0.0,2.0
2021-09-27 07:15:35.178,1085.0,64.0,52.0,1088.1291283666658,1,1,1,0.0,2.0
2021-09-27 07:15:35.179,1085.0,64.0,42.0,1087.6971085738896,1,1,1,0.0,2.0
2021-09-27 07:15:35.188,1014.0,23.0,-24.0,1014.5447254803506,1,1,1,0.0,2.0
2021-09-27 07:15:35.198,1022.0,94.0,21.0,1026.5286162596735,1,1,1,0.0,2.0
2021-09-27 07:15:35.208,994.0,19.0,21.0,994.4033386910968,1,1,1,0.0,2.0
2021-09-27 07:15:35.209,994.0,19.0,-37.0,994.8698407329472,1,1,1,0.0,2.0
2021-09-27 07:15:35.219,960.0,-85.0,-42.0,964.6704100365056,1,1,1,0.0,2.0
2021-09-27 07:15:35.227,1013.0,-52.0,-34.0,1014.903443683191,1,1,1,0.0,2.0
2021-09-27 07:15:35.237,1056.0,13.0,35.0,1056.6598317339408,1,1,1,0.0,2.0
2021-09-27 07:15:35.247,976.0,1.0,4.0,976.0087089775376,1,1,1,0.0,2.0
2021-09-27 07:15:35.257,952.0,69.0,26.0,954.8512973233056,1,1,1,0.0,2.0
2021-09-27 07:15:35.268,992.0,138.0,78.0,1004.5854866560636,1,1,1,0.0,2.0
2021-09-27 07:15:35.276,1050.0,42.0,53.0,1052.1753656116457,1,1,1,0.0,2.0
2021-09-27 07:15:35.286,1012.0,-10.0,0.0,1012.0494059086246,1,1,1,0.0,2.0
2021-09-27 07:15:35.295,1062.0,-10.0,0.0,1062.047079935725,1,1,1,0.0,2.0
2021-09-27 07:15:35.296,1062.0,128.0,78.0,1072.525990361073,1,1,1,0.0,2.0
2021-09-27 07:15:35.305,1077.0,117.0,78.0,1086.1408748408285,1,1,1,0.0,2.0
2021-09-27 07:15:35.306,1077.0,117.0,67.0,1085.4063755110342,1,1,1,0.0,2.0
2021-09-27 07:15:35.316,1012.0,21.0,-52.0,1013.552662667313,1,1,1,0.0,2.0
2021-09-27 07:15:35.325,916.0,103.0,-127.0,930.4805210212623,1,1,1,0.0,2.0
2021-09-27 07:15:35.335,871.0,155.0,-16.0,884.828796999736,1,1,1,0.0,2.0
2021-09-27 07:15:35.344,989.0,164.0,-16.0,1002.6330335671172,1,1,1,0.0,2.0
2021-09-27 07:15:35.345,989.0,164.0,115.0,1009.0797788083952,1,1,1,0.0,2.0
2021-09-27 07:15:35.354,981.0,-72.0,-8.0,983.6711848986936,1,1,1,0.0,2.0
2021-09-27 07:15:35.364,1074.0,-72.0,-8.0,1076.440430307223,1,1,1,0.0,2.0
2021-09-27 07:15:35.365,1074.0,82.0,100.0,1081.7578287213826,1,1,1,0.0,2.0
2021-09-27 07:15:35.375,1111.0,114.0,98.0,1121.124881536397,1,1,1,0.0,2.0
2021-09-27 07:15:35.383,1094.0,105.0,98.0,1103.3879644078052,1,1,1,0.0,2.0
2021-09-27 07:15:35.384,1094.0,105.0,5.0,1099.038670839202,1,1,1,0.0,2.0
2021-09-27 07:15:35.393,988.0,19.0,-78.0,991.2562736245357,1,1,1,0.0,2.0
2021-09-27 07:15:35.403,1022.0,31.0,2.0,1022.4720045067248,1,1,1,0.0,2.0
2021-09-27 07:15:35.413,989.0,-14.0,-43.0,990.033332772185,1,1,1,0.0,2.0
2021-09-27 07:15:35.424,943.0,-51.0,-54.0,945.92071549364,1,1,1,0.0,2.0
2021-09-27 07:15:35.432,1020.0,-35.0,-2.0,1020.602273170112,1,1,1,0.0,2.0
2021-09-27 07:15:35.442,1092.0,62.0,101.0,1098.4120356223343,1,1,1,0.0,2.0
2021-09-27 07:15:35.452,1124.0,197.0,84.0,1144.2206954954102,1,1,1,0.0,2.0
2021-09-27 07:15:35.462,959.0,105.0,27.0,965.1088021565236,1,1,1,0.0,2.0
2021-09-27 07:15:35.472,982.0,130.0,43.0,991.500378214754,1,1,1,0.0,2.0
2021-09-27 07:15:35.481,1004.0,130.0,43.0,1013.294133013707,1,1,1,0.0,2.0
2021-09-27 07:15:35.482,1004.0,63.0,36.0,1006.6185970863046,1,1,1,0.0,2.0
2021-09-27 07:15:35.494,985.0,-122.0,-21.0,992.748709392261,1,1,1,0.0,2.0
2021-09-27 07:15:35.500,963.0,-122.0,-21.0,970.9243018896992,1,1,1,0.0,2.0
2021-09-27 07:15:35.501,963.0,-176.0,-72.0,981.5951303872693,1,1,1,0.0,2.0
2021-09-27 07:15:35.510,971.0,-90.0,-72.0,977.8164449425057,1,1,1,0.0,2.0
2021-09-27 07:15:35.511,971.0,-90.0,2.0,975.1640887563487,1,1,1,0.0,2.0
2021-09-27 07:15:35.520,935.0,-90.0,2.0,939.323692876955,1,1,1,0.0,2.0
2021-09-27 07:15:35.521,935.0,23.0,-108.0,941.497742960651,1,1,1,0.0,2.0
2021-09-27 07:15:35.531,863.0,155.0,-50.0,878.2334541566952,1,1,1,0.0,2.0
2021-09-27 07:15:35.540,949.0,59.0,8.0,950.8659211476664,1,1,1,0.0,2.0
2021-09-27 07:15:35.549,984.0,114.0,8.0,990.6139510424836,1,1,1,0.0,2.0
2021-09-27 07:15:35.550,984.0,114.0,90.0,994.6617515517524,1,1,1,0.0,2.0
2021-09-27 07:15:35.559,1027.0,43.0,36.0,1028.5300190077098,1,1,1,0.0,2.0
2021-09-27 07:15:35.569,1061.0,95.0,98.0,1069.742959780526,1,1,1,0.0,2.0
2021-09-27 07:15:35.585,1135.0,126.0,71.0,1144.177433792504,1,1,1,0.0,2.0
2021-09-27 07:15:35.591,1082.0,71.0,71.0,1086.6489773611347,1,1,1,0.0,2.0
2021-09-27 07:15:35.592,1082.0,71.0,-30.0,1084.7419047865717,1,1,1,0.0,2.0
2021-09-27 07:15:35.598,976.0,-18.0,-30.0,976.6268478799874,1,1,1,0.0,2.0
2021-09-27 07:15:35.599,976.0,-18.0,-96.0,980.8751194724026,1,1,1,0.0,2.0
2021-09-27 07:15:35.608,939.0,19.0,-34.0,939.807427082804,1,1,1,0.0,2.0
2021-09-27 07:15:35.618,947.0,-130.0,-103.0,961.4145827893396,1,1,1,0.0,2.0
2021-09-27 07:15:35.628,931.0,-96.0,-43.0,936.9236895286616,1,1,1,0.0,2.0
2021-09-27 07:15:35.645,1026.0,-96.0,-43.0,1031.378204152095,1,1,1,0.0,2.0
2021-09-27 07:15:35.646,1026.0,-52.0,20.0,1027.5115571126196,1,1,1,0.0,2.0
2021-09-27 07:15:35.648,1087.0,102.0,130.0,1099.4876079338048,1,1,1,0.0,2.0
2021-09-27 07:15:35.657,1147.0,219.0,114.0,1173.2714945825626,1,1,1,0.0,2.0
2021-09-27 07:15:35.667,1109.0,114.0,9.0,1114.880262629131,1,1,1,0.0,2.0
2021-09-27 07:15:35.681,1066.0,125.0,9.0,1073.3415113560084,1,1,1,0.0,2.0
2021-09-27 07:15:35.682,1066.0,125.0,117.0,1079.661984141333,1,1,1,0.0,2.0
2021-09-27 07:15:35.687,1057.0,11.0,0.0,1057.057235914877,1,1,1,0.0,2.0
2021-09-27 07:15:35.696,941.0,-128.0,-60.0,951.5592467103664,1,1,1,0.0,2.0
2021-09-27 07:15:35.706,947.0,-232.0,-85.0,978.7022018980032,1,1,1,0.0,2.0
2021-09-27 07:15:35.716,993.0,-92.0,-85.0,1000.8686227472616,1,1,1,0.0,2.0
2021-09-27 07:15:35.717,993.0,-92.0,12.0,997.3249219787904,1,1,1,0.0,2.0
2021-09-27 07:15:35.733,958.0,-92.0,12.0,962.4822076277566,1,1,1,0.0,2.0
2021-09-27 07:15:35.734,958.0,35.0,-54.0,960.158841025796,1,1,1,0.0,2.0
2021-09-27 07:15:35.737,890.0,130.0,-32.0,900.0133332345694,1,1,1,0.0,2.0
2021-09-27 07:15:35.745,961.0,79.0,-4.0,964.2499675913916,1,1,1,0.0,2.0
2021-09-27 07:15:35.755,979.0,119.0,73.0,988.903938711946,1,1,1,0.0,2.0
2021-09-27 07:15:35.765,1028.0,-17.0,53.0,1029.505706637899,1,1,1,0.0,2.0
2021-09-27 07:15:35.774,1025.0,-123.0,-19.0,1032.5284499712343,1,1,1,0.0,2.0
2021-09-27 07:15:35.784,1108.0,100.0,73.0,1114.8959592715366,1,1,1,0.0,2.0
2021-09-27 07:15:35.805,1040.0,31.0,73.0,1043.0196546566128,1,1,1,0.0,2.0
2021-09-27 07:15:35.806,1040.0,31.0,-36.0,1041.0845306698202,1,1,1,0.0,2.0
2021-09-27 07:15:35.808,977.0,31.0,-36.0,978.1543845426448,1,1,1,0.0,2.0
2021-09-27 07:15:35.809,977.0,-30.0,-83.0,980.9780833433538,1,1,1,0.0,2.0
2021-09-27 07:15:35.814,934.0,-12.0,-45.0,935.1604140467024,1,1,1,0.0,2.0
2021-09-27 07:15:35.823,973.0,82.0,50.0,977.728489919364,1,1,1,0.0,2.0
2021-09-27 07:15:35.834,933.0,-84.0,-64.0,938.9574005246458,1,1,1,0.0,2.0
2021-09-27 07:15:35.842,1026.0,26.0,-64.0,1028.3229064841453,1,1,1,0.0,2.0
2021-09-27 07:15:35.843,1026.0,26.0,44.0,1027.272115848571,1,1,1,0.0,2.0
2021-09-27 07:15:35.852,1129.0,162.0,114.0,1146.2464830916604,1,1,1,0.0,2.0
2021-09-27 07:15:35.863,1121.0,198.0,94.0,1142.226334839116,1,1,1,0.0,2.0
2021-09-27 07:15:35.876,1070.0,101.0,-43.0,1075.6161025198537,1,1,1,0.0,2.0
2021-09-27 07:15:35.881,1050.0,78.0,-43.0,1053.770847955095,1,1,1,0.0,2.0
2021-09-27 07:15:35.882,1050.0,78.0,77.0,1055.704977728153,1,1,1,0.0,2.0
2021-09-27 07:15:35.891,1033.0,-50.0,-55.0,1035.6707971165354,1,1,1,0.0,2.0
2021-09-27 07:15:35.901,935.0,-117.0,-75.0,945.2719185504244,1,1,1,0.0,2.0
2021-09-27 07:15:35.912,953.0,-157.0,-39.0,966.6328154992464,1,1,1,0.0,2.0
2021-09-27 07:15:35.921,1016.0,-36.0,31.0,1017.1101218648844,1,1,1,0.0,2.0
2021-09-27 07:15:35.930,1081.0,104.0,71.0,1088.3096985692996,1,1,1,0.0,2.0
2021-09-27 07:15:35.940,915.0,116.0,71.0,925.0524309464844,1,1,1,0.0,2.0
2021-09-27 07:15:35.941,915.0,116.0,25.0,922.6624518208162,1,1,1,0.0,2.0
2021-09-27 07:15:35.950,1009.0,159.0,56.0,1022.9848483726432,1,1,1,0.0,2.0
2021-09-27 07:15:35.960,1012.0,159.0,56.0,1025.9439555843194,1,1,1,0.0,2.0
2021-09-27 07:15:35.961,1012.0,142.0,47.0,1022.9941348805476,1,1,1,0.0,2.0
2021-09-27 07:15:35.969,1069.0,-99.0,47.0,1074.6027172867189,1,1,1,0.0,2.0
2021-09-27 07:15:35.970,1069.0,-99.0,-7.0,1073.5972242885132,1,1,1,0.0,2.0
2021-09-27 07:15:35.979,1003.0,-166.0,-44.0,1017.595695745614,1,1,1,0.0,2.0
2021-09-27 07:15:35.989,1091.0,91.0,36.0,1095.380299256838,1,1,1,0.0,2.0
2021-09-27 07:15:35.998,1022.0,91.0,36.0,1026.67472940557,1,1,1,0.0,2.0
2021-09-27 07:15:35.999,1022.0,-8.0,-78.0,1025.0034146284586,1,1,1,0.0,2.0
2021-09-27 07:15:36.009,942.0,-25.0,-45.0,943.405533161641,1,1,1,0.0,2.0
2021-09-27 07:15:36.019,979.0,20.0,-19.0,979.388584781342,1,1,1,0.0,2.0
2021-09-27 07:15:36.028,991.0,85.0,55.0,996.158119978952,1,1,1,0.0,2.0
2021-09-27 07:15:36.038,1017.0,81.0,36.0,1020.8555235683452,1,1,1,0.0,2.0
2021-09-27 07:15:36.047,1052.0,81.0,36.0,1055.727711107367,1,1,1,0.0,2.0
2021-09-27 07:15:36.048,1052.0,87.0,77.0,1058.3959561525166,1,1,1,0.0,2.0
2021-09-27 07:15:36.057,1083.0,156.0,98.0,1098.557690792796,1,1,1,0.0,2.0
2021-09-27 07:15:36.068,1063.0,94.0,98.0,1071.63846515511,1,1,1,0.0,2.0
2021-09-27 07:15:36.069,1063.0,94.0,33.0,1067.6581850011737,1,1,1,0.0,2.0
2021-09-27 07:15:36.077,1008.0,-4.0,-47.0,1009.1030670848246,1,1,1,0.0,2.0
2021-09-27 07:15:36.086,912.0,-4.0,-47.0,913.2190317771526,1,1,1,0.0,2.0
2021-09-27 07:15:36.087,912.0,-18.0,-61.0,914.214963780401,1,1,1,0.0,2.0
2021-09-27 07:15:36.097,952.0,22.0,10.0,952.3066732938504,1,1,1,0.0,2.0
2021-09-27 07:15:36.107,986.0,-125.0,-86.0,997.6056335045428,1,1,1,0.0,2.0
2021-09-27 07:15:36.116,953.0,-93.0,-3.0,957.5317227120988,1,1,1,0.0,2.0
2021-09-27 07:15:36.126,1029.0,-17.0,66.0,1031.2545757474245,1,1,1,0.0,2.0
2021-09-27 07:15:36.135,1123.0,86.0,66.0,1128.2202799099118,1,1,1,0.0,2.0
2021-09-27 07:15:36.136,1123.0,86.0,65.0,1128.1622223776153,1,1,1,0.0,2.0
2021-09-27 07:15:36.145,1074.0,187.0,29.0,1090.5439009961956,1,1,1,0.0,2.0
2021-09-27 07:15:36.155,975.0,139.0,72.0,987.486708771313,1,1,1,0.0,2.0
2021-09-27 07:15:36.165,999.0,66.0,32.0,1001.68907351533,1,1,1,0.0,2.0
2021-09-27 07:15:36.175,1037.0,-108.0,-14.0,1042.7027380802258,1,1,1,0.0,2.0
2021-09-27 07:15:36.184,972.0,-149.0,-30.0,983.8114656782568,1,1,1,0.0,2.0
2021-09-27 07:15:36.194,1018.0,-157.0,-15.0,1030.1446500370712,1,1,1,0.0,2.0
2021-09-27 07:15:36.204,1011.0,-22.0,-61.0,1013.0774896324564,1,1,1,0.0,2.0
2021-09-27 07:15:36.214,953.0,-22.0,-61.0,955.2036432091328,1,1,1,0.0,2.0
2021-09-27 07:15:36.215,953.0,-1.0,-41.0,953.8820681824352,1,1,1,0.0,2.0
2021-09-27 07:15:36.223,956.0,-47.0,-17.0,957.3055938413814,1,1,1,0.0,2.0
2021-09-27 07:15:36.233,980.0,61.0,58.0,983.6081536872292,1,1,1,0.0,2.0
2021-09-27 07:15:36.243,1054.0,130.0,94.0,1066.138827733049,1,1,1,0.0,2.0
2021-09-27 07:15:36.253,1053.0,54.0,0.0,1054.3837062473983,1,1,1,0.0,2.0
2021-09-27 07:15:36.263,1117.0,212.0,134.0,1144.8095911547912,1,1,1,0.0,2.0
2021-09-27 07:15:36.272,1091.0,133.0,56.0,1100.502612445786,1,1,1,0.0,2.0
2021-09-27 07:15:36.282,978.0,11.0,-62.0,980.0249996811306,1,1,1,0.0,2.0
2021-09-27 07:15:36.293,916.0,11.0,-62.0,918.161750455768,1,1,1,0.0,2.0
2021-09-27 07:15:36.294,916.0,-81.0,-63.0,921.7298953598066,1,1,1,0.0,2.0
2021-09-27 07:15:36.301,941.0,87.0,-63.0,947.1108699619068,1,1,1,0.0,2.0
2021-09-27 07:15:36.302,941.0,87.0,36.0,945.6986835139404,1,1,1,0.0,2.0
2021-09-27 07:15:36.311,983.0,-159.0,-96.0,1000.3929228058344,1,1,1,0.0,2.0
2021-09-27 07:15:36.321,986.0,-142.0,-30.0,996.6243023326292,1,1,1,0.0,2.0
2021-09-27 07:15:36.331,1037.0,-33.0,57.0,1039.0895052881633,1,1,1,0.0,2.0
2021-09-27 07:15:36.340,1116.0,147.0,57.0,1127.082073320306,1,1,1,0.0,2.0
2021-09-27 07:15:36.341,1116.0,147.0,128.0,1132.8940815451372,1,1,1,0.0,2.0
2021-09-27 07:15:36.350,1103.0,200.0,30.0,1121.3870874947686,1,1,1,0.0,2.0
2021-09-27 07:15:36.360,1001.0,102.0,30.0,1006.6305181147648,1,1,1,0.0,2.0
2021-09-27 07:15:36.361,1001.0,102.0,-94.0,1010.5646936243122,1,1,1,0.0,2.0
2021-09-27 07:15:36.371,1023.0,90.0,56.0,1028.4770293983236,1,1,1,0.0,2.0
2021-09-27 07:15:36.379,1025.0,90.0,56.0,1030.4663992581222,1,1,1,0.0,2.0
2021-09-27 07:15:36.380,1025.0,-91.0,-42.0,1029.888343462533,1,1,1,0.0,2.0
2021-09-27 07:15:36.389,966.0,-172.0,-49.0,982.4158997084688,1,1,1,0.0,2.0
2021-09-27 07:15:36.399,1042.0,-153.0,-9.0,1053.2112798484452,1,1,1,0.0,2.0
2021-09-27 07:15:36.409,1046.0,50.0,92.0,1051.227853512263,1,1,1,0.0,2.0
2021-09-27 07:15:36.419,908.0,-35.0,-47.0,909.8890042197456,1,1,1,0.0,2.0
2021-09-27 07:15:36.428,945.0,-35.0,-47.0,946.8151878798734,1,1,1,0.0,2.0
2021-09-27 07:15:36.429,945.0,-13.0,3.0,945.094175201604,1,1,1,0.0,2.0
2021-09-27 07:15:36.438,1017.0,-13.0,3.0,1017.0875085261838,1,1,1,0.0,2.0
2021-09-27 07:15:36.439,1017.0,101.0,95.0,1026.4087879592614,1,1,1,0.0,2.0
2021-09-27 07:15:36.448,1031.0,92.0,54.0,1036.5042209272474,1,1,1,0.0,2.0
2021-09-27 07:15:36.457,971.0,92.0,54.0,976.8423618987866,1,1,1,0.0,2.0
2021-09-27 07:15:36.458,971.0,-8.0,-47.0,972.169738265906,1,1,1,0.0,2.0
2021-09-27 07:15:36.467,1142.0,187.0,-47.0,1158.1632009349978,1,1,1,0.0,2.0
2021-09-27 07:15:36.468,1142.0,187.0,112.0,1162.6164457808086,1,1,1,0.0,2.0
2021-09-27 07:15:36.478,1093.0,120.0,1.0,1099.568097027192,1,1,1,0.0,2.0
2021-09-27 07:15:36.487,988.0,-1.0,1.0,988.0010121452306,1,1,1,0.0,2.0
2021-09-27 07:15:36.488,988.0,-1.0,-64.0,990.0712095602012,1,1,1,0.0,2.0
2021-09-27 07:15:36.497,927.0,-15.0,-48.0,928.3630755259496,1,1,1,0.0,2.0
2021-09-27 07:15:36.507,996.0,45.0,40.0,997.8181196991763,1,1,1,0.0,2.0
2021-09-27 07:15:36.517,997.0,58.0,83.0,1002.1287342452564,1,1,1,0.0,2.0
2021-09-27 07:15:36.527,980.0,-140.0,-14.0,990.04848366128,1,1,1,0.0,2.0
2021-09-27 07:15:36.536,1033.0,30.0,84.0,1036.8437683662858,1,1,1,0.0,2.0
2021-09-27 07:15:36.545,1127.0,30.0,84.0,1130.524214689805,1,1,1,0.0,2.0
2021-09-27 07:15:36.546,1127.0,104.0,83.0,1134.8277402319702,1,1,1,0.0,2.0
2021-09-27 07:15:36.555,1072.0,135.0,-15.0,1080.571145274572,1,1,1,0.0,2.0
2021-09-27 07:15:36.565,1012.0,59.0,-73.0,1016.343445888249,1,1,1,0.0,2.0
2021-09-27 07:15:36.575,1023.0,115.0,100.0,1034.2891278554562,1,1,1,0.0,2.0
2021-09-27 07:15:36.591,868.0,125.0,-3.0,876.9595201604234,1,1,1,0.0,2.0
2021-09-27 07:15:36.604,946.0,-184.0,-50.0,965.0243520243414,1,1,1,0.0,2.0
2021-09-27 07:15:36.606,1011.0,-153.0,-20.0,1022.7071917220492,1,1,1,0.0,2.0
2021-09-27 07:15:36.614,1025.0,65.0,86.0,1030.6531909425207,1,1,1,0.0,2.0
2021-09-27 07:15:36.624,1124.0,118.0,78.0,1132.865393592725,1,1,1,0.0,2.0
2021-09-27 07:15:36.633,969.0,118.0,78.0,979.2696257926108,1,1,1,0.0,2.0
2021-09-27 07:15:36.634,969.0,53.0,17.0,970.59723881742,1,1,1,0.0,2.0
2021-09-27 07:15:36.644,1020.0,79.0,52.0,1024.3754194630014,1,1,1,0.0,2.0
2021-09-27 07:15:36.662,1017.0,57.0,23.0,1018.8557307097016,1,1,1,0.0,2.0
2021-09-27 07:15:36.665,1023.0,19.0,23.0,1023.43490266846,1,1,1,0.0,2.0
2021-09-27 07:15:36.666,1023.0,19.0,-40.0,1023.9580069514568,1,1,1,0.0,2.0
2021-09-27 07:15:36.674,979.0,-99.0,-106.0,989.6858087292148,1,1,1,0.0,2.0
2021-09-27 07:15:36.684,1098.0,83.0,26.0,1101.4395126378934,1,1,1,0.0,2.0
2021-09-27 07:15:36.692,1026.0,8.0,-27.0,1026.3863794887382,1,1,1,0.0,2.0
2021-09-27 07:15:36.704,950.0,4.0,-31.0,950.5140714371356,1,1,1,0.0,2.0
2021-09-27 07:15:36.711,975.0,4.0,-31.0,975.5008969754974,1,1,1,0.0,2.0
2021-09-27 07:15:36.712,975.0,44.0,30.0,976.4532758918882,1,1,1,0.0,2.0
2021-09-27 07:15:36.721,1006.0,11.0,30.0,1006.50732734541,1,1,1,0.0,2.0
2021-09-27 07:15:36.722,1006.0,11.0,67.0,1008.2886491476536,1,1,1,0.0,2.0
2021-09-27 07:15:36.731,1007.0,-88.0,-10.0,1010.8872340671832,1,1,1,0.0,2.0
2021-09-27 07:15:36.747,1043.0,-88.0,-10.0,1046.7535526569757,1,1,1,0.0,2.0
2021-09-27 07:15:36.748,1043.0,19.0,43.0,1044.0589063841178,1,1,1,0.0,2.0
2021-09-27 07:15:36.751,1085.0,107.0,97.0,1094.5697784974698,1,1,1,0.0,2.0
2021-09-27 07:15:36.760,1112.0,117.0,35.0,1118.6858361488269,1,1,1,0.0,2.0
2021-09-27 07:15:36.770,1043.0,117.0,35.0,1050.1252306272809,1,1,1,0.0,2.0
2021-09-27 07:15:36.771,1043.0,68.0,-74.0,1047.8306160825805,1,1,1,0.0,2.0
2021-09-27 07:15:36.781,1079.0,68.0,-74.0,1083.6701527678983,1,1,1,0.0,2.0
2021-09-27 07:15:36.782,1079.0,97.0,116.0,1089.5439412891983,1,1,1,0.0,2.0
2021-09-27 07:15:36.789,1048.0,97.0,116.0,1058.8526809712482,1,1,1,0.0,2.0
2021-09-27 07:15:36.790,1048.0,-91.0,13.0,1052.0237639901486,1,1,1,0.0,2.0
2021-09-27 07:15:36.799,1009.0,-129.0,13.0,1017.29592548088,1,1,1,0.0,2.0
2021-09-27 07:15:36.800,1009.0,-129.0,-52.0,1018.5411135540872,1,1,1,0.0,2.0
2021-09-27 07:15:36.821,993.0,-129.0,-52.0,1002.693372871288,1,1,1,0.0,2.0
2021-09-27 07:15:36.822,993.0,-131.0,-33.0,1002.1471947772942,1,1,1,0.0,2.0
2021-09-27 07:15:36.823,1031.0,18.0,80.0,1034.2557710740607,1,1,1,0.0,2.0
2021-09-27 07:15:36.830,1159.0,18.0,80.0,1161.8971555176474,1,1,1,0.0,2.0
2021-09-27 07:15:36.831,1159.0,103.0,77.0,1166.112773277096,1,1,1,0.0,2.0
2021-09-27 07:15:36.838,963.0,103.0,77.0,971.548763572884,1,1,1,0.0,2.0
2021-09-27 07:15:36.839,963.0,18.0,36.0,963.8407544817763,1,1,1,0.0,2.0
2021-09-27 07:15:36.848,1014.0,103.0,51.0,1020.4930181044846,1,1,1,0.0,2.0
2021-09-27 07:15:36.858,1028.0,91.0,46.0,1033.0445295339402,1,1,1,0.0,2.0
2021-09-27 07:15:36.868,998.0,-35.0,-48.0,999.7664727325076,1,1,1,0.0,2.0
2021-09-27 07:15:36.879,981.0,-80.0,-89.0,988.2722297019176,1,1,1,0.0,2.0
2021-09-27 07:15:36.887,974.0,-6.0,-89.0,978.076172902704,1,1,1,0.0,2.0
2021-09-27 07:15:36.888,974.0,-6.0,-36.0,974.683538385665,1,1,1,0.0,2.0
2021-09-27 07:15:36.897,1005.0,-8.0,-30.0,1005.479487607778,1,1,1,0.0,2.0
2021-09-27 07:15:36.907,953.0,-6.0,-24.0,953.3210372167396,1,1,1,0.0,2.0
2021-09-27 07:15:36.917,970.0,42.0,21.0,971.1359328127036,1,1,1,0.0,2.0
2021-09-27 07:15:36.926,999.0,110.0,21.0,1005.2571810238412,1,1,1,0.0,2.0
2021-09-27 07:15:36.927,999.0,110.0,75.0,1007.832327324342,1,1,1,0.0,2.0
2021-09-27 07:15:36.937,1090.0,49.0,62.0,1092.8609243632054,1,1,1,0.0,2.0
2021-09-27 07:15:36.946,1081.0,42.0,56.0,1083.2640490665235,1,1,1,0.0,2.0
2021-09-27 07:15:36.956,1109.0,115.0,93.0,1118.818573317408,1,1,1,0.0,2.0
2021-09-27 07:15:36.965,1063.0,115.0,93.0,1073.2394886510651,1,1,1,0.0,2.0
2021-09-27 07:15:36.966,1063.0,151.0,-4.0,1073.678722896193,1,1,1,0.0,2.0
2021-09-27 07:15:36.976,945.0,151.0,-4.0,956.9963427307338,1,1,1,0.0,2.0
2021-09-27 07:15:36.977,945.0,89.0,-82.0,952.7171668443892,1,1,1,0.0,2.0
2021-09-27 07:15:36.985,909.0,89.0,-82.0,917.0201742600868,1,1,1,0.0,2.0
2021-09-27 07:15:36.986,909.0,91.0,-68.0,916.0709579503108,1,1,1,0.0,2.0
2021-09-27 07:15:36.995,1013.0,-112.0,-27.0,1019.5302840033738,1,1,1,0.0,2.0
2021-09-27 07:15:37.004,1004.0,-112.0,-27.0,1010.5884424433124,1,1,1,0.0,2.0
2021-09-27 07:15:37.005,1004.0,-186.0,-53.0,1022.458312108616,1,1,1,0.0,2.0
2021-09-27 07:15:37.014,1003.0,-201.0,-45.0,1023.9311500291412,1,1,1,0.0,2.0
2021-09-27 07:15:37.025,1053.0,26.0,93.0,1057.4185547832988,1,1,1,0.0,2.0
2021-09-27 07:15:37.034,1143.0,147.0,119.0,1158.5417558292838,1,1,1,0.0,2.0
2021-09-27 07:15:37.043,1120.0,147.0,119.0,1135.856505021651,1,1,1,0.0,2.0
2021-09-27 07:15:37.044,1120.0,118.0,19.0,1126.3591789478169,1,1,1,0.0,2.0
2021-09-27 07:15:37.053,1029.0,115.0,19.0,1035.5805135285234,1,1,1,0.0,2.0
2021-09-27 07:15:37.054,1029.0,115.0,63.0,1037.32106890779,1,1,1,0.0,2.0
2021-09-27 07:15:37.063,1031.0,51.0,33.0,1032.7879743684084,1,1,1,0.0,2.0
2021-09-27 07:15:37.073,978.0,-106.0,33.0,984.280955825114,1,1,1,0.0,2.0
2021-09-27 07:15:37.074,978.0,-106.0,-71.0,986.2864695411774,1,1,1,0.0,2.0
2021-09-27 07:15:37.083,975.0,-115.0,-61.0,983.6518693114958,1,1,1,0.0,2.0
2021-09-27 07:15:37.093,1003.0,0.0,0.0,1003.0,1,1,1,0.0,2.0
2021-09-27 07:15:37.102,989.0,41.0,-75.0,992.686758247535,1,1,1,0.0,2.0
2021-09-27 07:15:37.112,920.0,61.0,-51.0,923.4294775455244,1,1,1,0.0,2.0
2021-09-27 07:15:37.122,951.0,17.0,10.0,951.204499568836,1,1,1,0.0,2.0
2021-09-27 07:15:37.132,990.0,30.0,75.0,993.2899878685982,1,1,1,0.0,2.0
2021-09-27 07:15:37.141,1052.0,30.0,75.0,1055.096678034767,1,1,1,0.0,2.0
2021-09-27 07:15:37.142,1052.0,25.0,33.0,1052.8143236107685,1,1,1,0.0,2.0
2021-09-27 07:15:37.151,996.0,-4.0,-31.0,996.4903411473692,1,1,1,0.0,2.0
2021-09-27 07:15:37.161,1097.0,179.0,104.0,1116.3628442401691,1,1,1,0.0,2.0
2021-09-27 07:15:37.171,1102.0,176.0,19.0,1116.1276808680984,1,1,1,0.0,2.0
2021-09-27 07:15:37.181,983.0,61.0,-84.0,988.46648906273,1,1,1,0.0,2.0
2021-09-27 07:15:37.190,878.0,68.0,-87.0,884.9163802303583,1,1,1,0.0,2.0
2021-09-27 07:15:37.200,897.0,52.0,36.0,899.2268901673259,1,1,1,0.0,2.0
2021-09-27 07:15:37.210,981.0,-243.0,-79.0,1013.7312267065664,1,1,1,0.0,2.0
2021-09-27 07:15:37.219,1010.0,-141.0,-79.0,1022.8499401182952,1,1,1,0.0,2.0
2021-09-27 07:15:37.220,1010.0,-141.0,0.0,1019.7945871595908,1,1,1,0.0,2.0
2021-09-27 07:15:37.229,1031.0,116.0,116.0,1043.9698271501911,1,1,1,0.0,2.0
2021-09-27 07:15:37.239,1119.0,152.0,116.0,1135.218481174439,1,1,1,0.0,2.0
2021-09-27 07:15:37.240,1119.0,152.0,81.0,1132.1775479137536,1,1,1,0.0,2.0
2021-09-27 07:15:37.249,1097.0,64.0,-2.0,1098.8671439259615,1,1,1,0.0,2.0
2021-09-27 07:15:37.258,1039.0,67.0,-2.0,1041.1599300779876,1,1,1,0.0,2.0
2021-09-27 07:15:37.259,1039.0,67.0,49.0,1042.3104144159745,1,1,1,0.0,2.0
2021-09-27 07:15:37.268,1012.0,43.0,22.0,1013.1520122864092,1,1,1,0.0,2.0
2021-09-27 07:15:37.278,987.0,43.0,22.0,988.1811574807526,1,1,1,0.0,2.0
2021-09-27 07:15:37.279,987.0,-61.0,-63.0,990.8879855967576,1,1,1,0.0,2.0
2021-09-27 07:15:37.289,934.0,-78.0,-71.0,939.9366999963348,1,1,1,0.0,2.0
2021-09-27 07:15:37.297,1017.0,-78.0,-71.0,1022.454888980438,1,1,1,0.0,2.0
2021-09-27 07:15:37.298,1017.0,47.0,22.0,1018.323131427348,1,1,1,0.0,2.0
2021-09-27 07:15:37.307,1088.0,120.0,98.0,1098.9758869056227,1,1,1,0.0,2.0
2021-09-27 07:15:37.317,928.0,77.0,8.0,931.2233888815292,1,1,1,0.0,2.0
2021-09-27 07:15:37.327,970.0,86.0,8.0,973.8377688301064,1,1,1,0.0,2.0
2021-09-27 07:15:37.328,970.0,86.0,71.0,976.389778725689,1,1,1,0.0,2.0
2021-09-27 07:15:37.337,1016.0,61.0,96.0,1022.3468100405069,1,1,1,0.0,2.0
2021-09-27 07:15:37.346,1041.0,-10.0,96.0,1045.4649683274902,1,1,1,0.0,2.0
2021-09-27 07:15:37.347,1041.0,-10.0,10.0,1041.096057047571,1,1,1,0.0,2.0
2021-09-27 07:15:37.357,1000.0,-40.0,-54.0,1002.2554564580828,1,1,1,0.0,2.0
2021-09-27 07:15:37.366,1131.0,150.0,112.0,1146.3878052386983,1,1,1,0.0,2.0
2021-09-27 07:15:37.376,1057.0,168.0,-20.0,1070.454576336614,1,1,1,0.0,2.0
2021-09-27 07:15:37.385,916.0,41.0,-20.0,917.1352135863063,1,1,1,0.0,2.0
2021-09-27 07:15:37.386,916.0,41.0,-110.0,923.4917433307132,1,1,1,0.0,2.0
2021-09-27 07:15:37.396,909.0,69.0,-58.0,913.4582639617422,1,1,1,0.0,2.0
2021-09-27 07:15:37.405,945.0,83.0,-58.0,950.4093854755432,1,1,1,0.0,2.0
2021-09-27 07:15:37.406,945.0,83.0,32.0,949.1775387144388,1,1,1,0.0,2.0
2021-09-27 07:15:37.415,996.0,173.0,103.0,1016.1466429605522,1,1,1,0.0,2.0
2021-09-27 07:15:37.424,1039.0,-102.0,103.0,1049.0633917928888,1,1,1,0.0,2.0
2021-09-27 07:15:37.425,1039.0,-102.0,26.0,1044.3184380254904,1,1,1,0.0,2.0
2021-09-27 07:15:37.435,1075.0,133.0,136.0,1091.700508381305,1,1,1,0.0,2.0
2021-09-27 07:15:37.444,1135.0,133.0,136.0,1150.830135163309,1,1,1,0.0,2.0
2021-09-27 07:15:37.445,1135.0,173.0,84.0,1151.1776578790957,1,1,1,0.0,2.0
2021-09-27 07:15:37.454,1073.0,11.0,-36.0,1073.6600951884168,1,1,1,0.0,2.0
2021-09-27 07:15:37.463,1006.0,11.0,-36.0,1006.704028004259,1,1,1,0.0,2.0
2021-09-27 07:15:37.464,1006.0,-67.0,-93.0,1012.508765394157,1,1,1,0.0,2.0
2021-09-27 07:15:37.473,1010.0,60.0,7.0,1011.8048230760712,1,1,1,0.0,2.0
2021-09-27 07:15:37.483,980.0,-31.0,-83.0,983.9969512147892,1,1,1,0.0,2.0
2021-09-27 07:15:37.493,942.0,-23.0,-68.0,944.7311786958236,1,1,1,0.0,2.0
2021-09-27 07:15:37.503,989.0,-5.0,-21.0,989.2355634529118,1,1,1,0.0,2.0
2021-09-27 07:15:37.513,1032.0,60.0,89.0,1037.566865315195,1,1,1,0.0,2.0
2021-09-27 07:15:37.523,963.0,-31.0,-1.0,963.499351323082,1,1,1,0.0,2.0
2021-09-27 07:15:37.532,978.0,62.0,59.0,981.7377450215512,1,1,1,0.0,2.0
2021-09-27 07:15:37.541,1022.0,62.0,59.0,1025.577398346902,1,1,1,0.0,2.0
2021-09-27 07:15:37.542,1022.0,69.0,84.0,1027.765050972254,1,1,1,0.0,2.0
2021-09-27 07:15:37.552,1061.0,58.0,7.0,1062.6071710655824,1,1,1,0.0,2.0
2021-09-27 07:15:37.561,989.0,-56.0,-40.0,991.3914464024792,1,1,1,0.0,2.0
2021-09-27 07:15:37.571,961.0,-140.0,-100.0,976.2791608961036,1,1,1,0.0,2.0
2021-09-27 07:15:37.581,1034.0,129.0,-32.0,1042.5070743165247,1,1,1,0.0,2.0
2021-09-27 07:15:37.591,955.0,46.0,-96.0,960.9146684279516,1,1,1,0.0,2.0
2021-09-27 07:15:37.603,907.0,59.0,-50.0,910.2911622113004,1,1,1,0.0,2.0
2021-09-27 07:15:37.610,931.0,111.0,68.0,940.056381287846,1,1,1,0.0,2.0
2021-09-27 07:15:37.620,1026.0,206.0,148.0,1056.8897766560144,1,1,1,0.0,2.0
2021-09-27 07:15:37.629,1015.0,206.0,148.0,1046.2146051360592,1,1,1,0.0,2.0
2021-09-27 07:15:37.630,1015.0,-30.0,56.0,1016.9862339284638,1,1,1,0.0,2.0
2021-09-27 07:15:37.645,1095.0,141.0,56.0,1105.460085213392,1,1,1,0.0,2.0
2021-09-27 07:15:37.646,1095.0,141.0,111.0,1109.6066870742984,1,1,1,0.0,2.0
2021-09-27 07:15:37.650,1119.0,126.0,73.0,1128.4351997345705,1,1,1,0.0,2.0
2021-09-27 07:15:37.659,1060.0,35.0,-31.0,1061.0306310375777,1,1,1,0.0,2.0
2021-09-27 07:15:37.678,968.0,-52.0,-90.0,973.5645844010556,1,1,1,0.0,2.0
2021-09-27 07:15:37.681,936.0,-22.0,-58.0,938.0533033895248,1,1,1,0.0,2.0
2021-09-27 07:15:37.688,971.0,-49.0,-85.0,975.9441582385748,1,1,1,0.0,2.0
2021-09-27 07:15:37.698,947.0,-61.0,-77.0,952.0814040826552,1,1,1,0.0,2.0
2021-09-27 07:15:37.709,967.0,-5.0,-4.0,967.0211993539748,1,1,1,0.0,2.0
2021-09-27 07:15:37.717,1075.0,98.0,-4.0,1079.4651453381905,1,1,1,0.0,2.0
2021-09-27 07:15:37.718,1075.0,98.0,104.0,1084.456084864666,1,1,1,0.0,2.0
2021-09-27 07:15:37.727,1093.0,148.0,113.0,1108.7479425009094,1,1,1,0.0,2.0
2021-09-27 07:15:37.737,1068.0,82.0,16.0,1071.2628062245044,1,1,1,0.0,2.0
2021-09-27 07:15:37.747,1057.0,28.0,62.0,1059.1869523365551,1,1,1,0.0,2.0
2021-09-27 07:15:37.764,1082.0,43.0,2.0,1082.8559460980948,1,1,1,0.0,2.0
2021-09-27 07:15:37.767,1016.0,-83.0,-70.0,1021.7852024765284,1,1,1,0.0,2.0
2021-09-27 07:15:37.776,934.0,-83.0,-70.0,940.2898489295734,1,1,1,0.0,2.0
2021-09-27 07:15:37.777,934.0,-123.0,-98.0,947.1478237318609,1,1,1,0.0,2.0
2021-09-27 07:15:37.786,968.0,-106.0,-4.0,973.7946395416232,1,1,1,0.0,2.0
2021-09-27 07:15:37.797,938.0,43.0,-89.0,943.1935114280632,1,1,1,0.0,2.0
2021-09-27 07:15:37.805,884.0,58.0,-49.0,887.2547548477833,1,1,1,0.0,2.0
2021-09-27 07:15:37.815,937.0,60.0,15.0,939.0388703349824,1,1,1,0.0,2.0
2021-09-27 07:15:37.836,1029.0,137.0,102.0,1043.0790957544878,1,1,1,0.0,2.0
2021-09-27 07:15:37.838,1075.0,137.0,102.0,1088.4842672266789,1,1,1,0.0,2.0
2021-09-27 07:15:37.839,1075.0,0.0,10.0,1075.0465106217498,1,1,1,0.0,2.0
2021-09-27 07:15:37.846,1105.0,102.0,68.0,1111.7792046984869,1,1,1,0.0,2.0
2021-09-27 07:15:37.854,1014.0,6.0,-2.0,1014.0197236740516,1,1,1,0.0,2.0
2021-09-27 07:15:37.865,997.0,-44.0,-23.0,998.235443169596,1,1,1,0.0,2.0
2021-09-27 07:15:37.874,1010.0,-22.0,-3.0,1010.2440299254432,1,1,1,0.0,2.0
2021-09-27 07:15:37.883,1030.0,-1.0,-3.0,1030.0048543574928,1,1,1,0.0,2.0
2021-09-27 07:15:37.884,1030.0,-1.0,18.0,1030.157754909412,1,1,1,0.0,2.0
2021-09-27 07:15:37.894,1036.0,57.0,38.0,1038.2624908952455,1,1,1,0.0,2.0
2021-09-27 07:15:37.907,993.0,57.0,38.0,995.3602362963874,1,1,1,0.0,2.0
2021-09-27 07:15:37.908,993.0,-26.0,-20.0,993.5416448242116,1,1,1,0.0,2.0
2021-09-27 07:15:37.913,1031.0,38.0,24.0,1031.9791664563777,1,1,1,0.0,2.0
2021-09-27 07:15:37.922,1047.0,38.0,24.0,1047.9642169463611,1,1,1,0.0,2.0
2021-09-27 07:15:37.923,1047.0,66.0,39.0,1049.802838632093,1,1,1,0.0,2.0
2021-09-27 07:15:37.932,1024.0,96.0,39.0,1029.2293233288683,1,1,1,0.0,2.0
2021-09-27 07:15:37.933,1024.0,96.0,11.0,1028.548977929588,1,1,1,0.0,2.0
2021-09-27 07:15:37.943,1005.0,79.0,-13.0,1008.1840109821222,1,1,1,0.0,2.0
2021-09-27 07:15:37.952,1031.0,49.0,25.0,1032.4664643464214,1,1,1,0.0,2.0
2021-09-27 07:15:37.961,1004.0,49.0,25.0,1005.5058428472706,1,1,1,0.0,2.0
2021-09-27 07:15:37.962,1004.0,45.0,-4.0,1005.0159202719128,1,1,1,0.0,2.0
2021-09-27 07:15:37.972,995.0,18.0,-7.0,995.1874195346322,1,1,1,0.0,2.0
2021-09-27 07:15:37.981,997.0,-34.0,-7.0,997.6041299032396,1,1,1,0.0,2.0
2021-09-27 07:15:37.982,997.0,-34.0,19.0,997.7604923026367,1,1,1,0.0,2.0
2021-09-27 07:15:37.992,1008.0,-14.0,32.0,1008.6049771838328,1,1,1,0.0,2.0
2021-09-27 07:15:38.000,1027.0,-14.0,32.0,1027.5937913397493,1,1,1,0.0,2.0
2021-09-27 07:15:38.001,1027.0,73.0,3.0,1029.5955516609422,1,1,1,0.0,2.0
2021-09-27 07:15:38.010,1040.0,19.0,26.0,1040.4984382496689,1,1,1,0.0,2.0
2021-09-27 07:15:38.020,1010.0,52.0,-2.0,1011.3397055391428,1,1,1,0.0,2.0
2021-09-27 07:15:38.030,997.0,12.0,3.0,997.07672723818,1,1,1,0.0,2.0
2021-09-27 07:15:38.040,994.0,-6.0,-19.0,994.1996781331204,1,1,1,0.0,2.0
2021-09-27 07:15:38.049,979.0,6.0,-19.0,979.2027369242796,1,1,1,0.0,2.0
2021-09-27 07:15:38.050,979.0,6.0,-19.0,979.2027369242796,1,1,1,0.0,2.0
2021-09-27 07:15:38.059,1033.0,11.0,13.0,1033.1403583250435,1,1,1,0.0,2.0
2021-09-27 07:15:38.069,1030.0,38.0,3.0,1030.7050984641533,1,1,1,0.0,2.0
2021-09-27 07:15:38.079,1030.0,84.0,19.0,1033.594214380092,1,1,1,0.0,2.0
2021-09-27 07:15:38.089,1033.0,122.0,16.0,1040.3023598935072,1,1,1,0.0,2.0
2021-09-27 07:15:38.099,1025.0,122.0,16.0,1032.3589492032313,1,1,1,0.0,2.0
2021-09-27 07:15:38.100,1025.0,56.0,-7.0,1026.5524828278387,1,1,1,0.0,2.0
2021-09-27 07:15:38.108,1047.0,58.0,38.0,1049.2935718853898,1,1,1,0.0,2.0
