time_stamp,Acceleration_X,Acceleration_Y,Acceleration_Z,magnitude,STD_Status_right,STD_Status_left,STD_Status_both,KMeans,KMeans_convert
2021-09-27 12:44:48.561,967.0,79.0,3.0,970.226262270817,1,1,1,0.0,2.0
2021-09-27 12:44:48.562,967.0,79.0,-29.0,970.6549335371452,1,1,1,0.0,2.0
2021-09-27 12:44:48.571,932.0,61.0,-1.0,933.9946466656004,1,1,1,0.0,2.0
2021-09-27 12:44:48.581,1047.0,106.0,80.0,1055.3885540406434,1,1,1,0.0,2.0
2021-09-27 12:44:48.594,989.0,-26.0,4.0,989.349786475946,1,1,1,0.0,2.0
2021-09-27 12:44:48.608,999.0,85.0,-17.0,1002.7537085446256,1,1,1,0.0,2.0
2021-09-27 12:44:48.611,967.0,105.0,-48.0,973.8675474621792,1,1,1,0.0,2.0
2021-09-27 12:44:48.621,976.0,68.0,-45.0,979.4003267305968,1,1,1,0.0,2.0
2021-09-27 12:44:48.631,976.0,0.0,-45.0,977.0368467974992,1,1,1,0.0,2.0
2021-09-27 12:44:48.632,976.0,0.0,10.0,976.051228163768,1,1,1,0.0,2.0
2021-09-27 12:44:48.641,958.0,-9.0,-93.0,962.5455833361868,1,1,1,0.0,2.0
2021-09-27 12:44:48.650,963.0,40.0,-58.0,965.5739225973329,1,1,1,0.0,2.0
2021-09-27 12:44:48.659,968.0,162.0,7.0,981.487136950862,1,1,1,0.0,2.0
2021-09-27 12:44:48.669,999.0,234.0,23.0,1026.2972279023263,1,1,1,0.0,2.0
2021-09-27 12:44:48.679,1023.0,206.0,57.0,1045.0904267095743,1,1,1,0.0,2.0
2021-09-27 12:44:48.690,1094.0,-113.0,45.0,1100.7406597377967,1,1,1,0.0,2.0
2021-09-27 12:44:48.698,1067.0,44.0,93.0,1071.948692802039,1,1,1,0.0,2.0
2021-09-27 12:44:48.710,1066.0,83.0,60.0,1070.9084928227994,1,1,1,0.0,2.0
2021-09-27 12:44:48.717,1021.0,83.0,60.0,1026.1237742104995,1,1,1,0.0,2.0
2021-09-27 12:44:48.718,1021.0,12.0,31.0,1021.5409928142874,1,1,1,0.0,2.0
2021-09-27 12:44:48.728,1044.0,-12.0,-24.0,1044.34477065766,1,1,1,0.0,2.0
2021-09-27 12:44:48.739,986.0,-10.0,-41.0,986.90273076935,1,1,1,0.0,2.0
2021-09-27 12:44:48.747,967.0,100.0,-90.0,976.313986379382,1,1,1,0.0,2.0
2021-09-27 12:44:48.756,899.0,100.0,-90.0,909.0110010335408,1,1,1,0.0,2.0
2021-09-27 12:44:48.757,899.0,-25.0,-74.0,902.386835010352,1,1,1,0.0,2.0
2021-09-27 12:44:48.767,968.0,65.0,-23.0,970.452471788289,1,1,1,0.0,2.0
2021-09-27 12:44:48.782,1015.0,50.0,35.0,1016.8333196743704,1,1,1,0.0,2.0
2021-09-27 12:44:48.787,1089.0,120.0,85.0,1098.883979317198,1,1,1,0.0,2.0
2021-09-27 12:44:48.797,1042.0,44.0,78.0,1045.841288150358,1,1,1,0.0,2.0
2021-09-27 12:44:48.805,1054.0,44.0,78.0,1057.7977122304624,1,1,1,0.0,2.0
2021-09-27 12:44:48.806,1054.0,109.0,80.0,1062.6368147208152,1,1,1,0.0,2.0
2021-09-27 12:44:48.816,1010.0,109.0,80.0,1019.0098134954344,1,1,1,0.0,2.0
2021-09-27 12:44:48.817,1010.0,67.0,6.0,1012.237620324398,1,1,1,0.0,2.0
2021-09-27 12:44:48.825,1006.0,1.0,-38.0,1006.7179346768388,1,1,1,0.0,2.0
2021-09-27 12:44:48.835,979.0,-12.0,-38.0,979.810696002039,1,1,1,0.0,2.0
2021-09-27 12:44:48.836,979.0,-12.0,-36.0,979.7351682980458,1,1,1,0.0,2.0
2021-09-27 12:44:48.846,967.0,-17.0,-53.0,968.600536857171,1,1,1,0.0,2.0
2021-09-27 12:44:48.854,1001.0,64.0,-45.0,1004.0527874569144,1,1,1,0.0,2.0
2021-09-27 12:44:48.864,941.0,123.0,-45.0,950.0710499746848,1,1,1,0.0,2.0
2021-09-27 12:44:48.865,941.0,123.0,-46.0,950.1189399227868,1,1,1,0.0,2.0
2021-09-27 12:44:48.874,974.0,255.0,19.0,1007.0064547955986,1,1,1,0.0,2.0
2021-09-27 12:44:48.885,996.0,182.0,50.0,1013.7258011908348,1,1,1,0.0,2.0
2021-09-27 12:44:48.895,979.0,80.0,59.0,984.0335360138902,1,1,1,0.0,2.0
2021-09-27 12:44:48.903,1055.0,80.0,59.0,1059.6725909449578,1,1,1,0.0,2.0
2021-09-27 12:44:48.904,1055.0,31.0,54.0,1056.8358434496815,1,1,1,0.0,2.0
2021-09-27 12:44:48.913,1064.0,44.0,48.0,1065.9906190956842,1,1,1,0.0,2.0
2021-09-27 12:44:48.923,1018.0,-80.0,7.0,1021.1625727571492,1,1,1,0.0,2.0
2021-09-27 12:44:48.933,1011.0,-35.0,-64.0,1013.6281369417484,1,1,1,0.0,2.0
2021-09-27 12:44:48.942,1025.0,-35.0,-64.0,1027.5923316179428,1,1,1,0.0,2.0
2021-09-27 12:44:48.943,1025.0,-9.0,-66.0,1027.1621098930782,1,1,1,0.0,2.0
2021-09-27 12:44:48.953,970.0,-51.0,-27.0,971.7149787875044,1,1,1,0.0,2.0
2021-09-27 12:44:48.961,879.0,-51.0,-27.0,880.8921613909389,1,1,1,0.0,2.0
2021-09-27 12:44:48.962,879.0,38.0,-101.0,885.5992321586554,1,1,1,0.0,2.0
2021-09-27 12:44:48.972,906.0,56.0,-21.0,907.9719158652432,1,1,1,0.0,2.0
2021-09-27 12:44:48.982,1081.0,124.0,84.0,1091.326257358449,1,1,1,0.0,2.0
2021-09-27 12:44:48.991,1099.0,89.0,104.0,1107.4917606916993,1,1,1,0.0,2.0
2021-09-27 12:44:49.001,1088.0,89.0,104.0,1096.5769466845452,1,1,1,0.0,2.0
2021-09-27 12:44:49.002,1088.0,20.0,86.0,1091.5768410881572,1,1,1,0.0,2.0
2021-09-27 12:44:49.011,1040.0,88.0,59.0,1045.3827050415557,1,1,1,0.0,2.0
2021-09-27 12:44:49.021,984.0,123.0,13.0,991.7429102343006,1,1,1,0.0,2.0
2021-09-27 12:44:49.032,968.0,-41.0,-49.0,970.1061797555976,1,1,1,0.0,2.0
2021-09-27 12:44:49.040,961.0,-85.0,-91.0,969.0340551291272,1,1,1,0.0,2.0
2021-09-27 12:44:49.051,1033.0,-111.0,-2.0,1038.948506904938,1,1,1,0.0,2.0
2021-09-27 12:44:49.059,1057.0,-111.0,-2.0,1062.8141888401751,1,1,1,0.0,2.0
2021-09-27 12:44:49.060,1057.0,19.0,0.0,1057.1707525277077,1,1,1,0.0,2.0
2021-09-27 12:44:49.069,937.0,19.0,0.0,937.1926162747976,1,1,1,0.0,2.0
2021-09-27 12:44:49.070,937.0,157.0,-2.0,950.0642083564668,1,1,1,0.0,2.0
2021-09-27 12:44:49.079,985.0,188.0,14.0,1002.8783575289676,1,1,1,0.0,2.0
2021-09-27 12:44:49.095,984.0,188.0,14.0,1001.896202208592,1,1,1,0.0,2.0
2021-09-27 12:44:49.096,984.0,186.0,68.0,1003.731039671485,1,1,1,0.0,2.0
2021-09-27 12:44:49.099,1016.0,53.0,62.0,1019.2688556018966,1,1,1,0.0,2.0
2021-09-27 12:44:49.109,1020.0,53.0,62.0,1023.2560774312556,1,1,1,0.0,2.0
2021-09-27 12:44:49.110,1020.0,-142.0,53.0,1031.1997866563006,1,1,1,0.0,2.0
2021-09-27 12:44:49.120,1088.0,32.0,34.0,1089.0013774095971,1,1,1,0.0,2.0
2021-09-27 12:44:49.128,1055.0,36.0,6.0,1055.631090864607,1,1,1,0.0,2.0
2021-09-27 12:44:49.137,1009.0,11.0,6.0,1009.0777968026052,1,1,1,0.0,2.0
2021-09-27 12:44:49.138,1009.0,11.0,-60.0,1010.8422230991343,1,1,1,0.0,2.0
2021-09-27 12:44:49.147,982.0,-18.0,-74.0,984.9487296301264,1,1,1,0.0,2.0
2021-09-27 12:44:49.157,992.0,-18.0,-74.0,994.9190921879024,1,1,1,0.0,2.0
2021-09-27 12:44:49.158,992.0,58.0,-7.0,993.7187730942794,1,1,1,0.0,2.0
2021-09-27 12:44:49.169,988.0,106.0,14.0,993.768584731878,1,1,1,0.0,2.0
2021-09-27 12:44:49.187,941.0,71.0,17.0,943.8278444716494,1,1,1,0.0,2.0
2021-09-27 12:44:49.190,1034.0,146.0,65.0,1046.27768780568,1,1,1,0.0,2.0
2021-09-27 12:44:49.198,1095.0,142.0,65.0,1106.0804672355443,1,1,1,0.0,2.0
2021-09-27 12:44:49.199,1095.0,142.0,118.0,1110.4562125541015,1,1,1,0.0,2.0
2021-09-27 12:44:49.206,1090.0,53.0,62.0,1093.0475744449552,1,1,1,0.0,2.0
2021-09-27 12:44:49.216,1036.0,-87.0,32.0,1040.1389330276988,1,1,1,0.0,2.0
2021-09-27 12:44:49.225,1016.0,27.0,32.0,1016.8623308983376,1,1,1,0.0,2.0
2021-09-27 12:44:49.226,1016.0,27.0,14.0,1016.455114601722,1,1,1,0.0,2.0
2021-09-27 12:44:49.235,942.0,-159.0,-68.0,957.7416144242663,1,1,1,0.0,2.0
2021-09-27 12:44:49.247,976.0,-84.0,-72.0,982.2504772205508,1,1,1,0.0,2.0
2021-09-27 12:44:49.256,1003.0,0.0,-5.0,1003.0124625347383,1,1,1,0.0,2.0
2021-09-27 12:44:49.264,1056.0,20.0,-5.0,1056.201211890992,1,1,1,0.0,2.0
2021-09-27 12:44:49.265,1056.0,20.0,2.0,1056.1912705566165,1,1,1,0.0,2.0
2021-09-27 12:44:49.274,913.0,158.0,2.0,926.5727170600264,1,1,1,0.0,2.0
2021-09-27 12:44:49.275,913.0,158.0,-14.0,926.6763188945748,1,1,1,0.0,2.0
2021-09-27 12:44:49.284,974.0,183.0,7.0,991.0671016636562,1,1,1,0.0,2.0
2021-09-27 12:44:49.299,997.0,147.0,40.0,1008.5722581947216,1,1,1,0.0,2.0
2021-09-27 12:44:49.306,1006.0,40.0,83.0,1010.210374130062,1,1,1,0.0,2.0
2021-09-27 12:44:49.313,1025.0,-119.0,37.0,1032.5478197158716,1,1,1,0.0,2.0
2021-09-27 12:44:49.323,1075.0,9.0,42.0,1075.8577972947912,1,1,1,0.0,2.0
2021-09-27 12:44:49.333,1053.0,-3.0,3.0,1053.00854697386,1,1,1,0.0,2.0
2021-09-27 12:44:49.343,998.0,-3.0,3.0,998.0090179953286,1,1,1,0.0,2.0
2021-09-27 12:44:49.344,998.0,-57.0,-72.0,1002.2160445732248,1,1,1,0.0,2.0
2021-09-27 12:44:49.355,977.0,-18.0,-65.0,979.3252779337416,1,1,1,0.0,2.0
2021-09-27 12:44:49.363,1037.0,80.0,11.0,1040.1394137326015,1,1,1,0.0,2.0
2021-09-27 12:44:49.372,1039.0,75.0,-23.0,1041.9572927908323,1,1,1,0.0,2.0
2021-09-27 12:44:49.382,950.0,127.0,-3.0,958.456050113932,1,1,1,0.0,2.0
2021-09-27 12:44:49.392,1038.0,191.0,88.0,1059.0887592643026,1,1,1,0.0,2.0
2021-09-27 12:44:49.401,1095.0,191.0,88.0,1115.011210705973,1,1,1,0.0,2.0
2021-09-27 12:44:49.402,1095.0,52.0,105.0,1101.251106696379,1,1,1,0.0,2.0
2021-09-27 12:44:49.411,1061.0,52.0,105.0,1067.4502330319667,1,1,1,0.0,2.0
2021-09-27 12:44:49.412,1061.0,-73.0,76.0,1066.2204274914263,1,1,1,0.0,2.0
2021-09-27 12:44:49.421,1067.0,-61.0,22.0,1068.968661841871,1,1,1,0.0,2.0
2021-09-27 12:44:49.431,1023.0,-142.0,29.0,1033.2153696108087,1,1,1,0.0,2.0
2021-09-27 12:44:49.441,985.0,-45.0,-42.0,986.921476106382,1,1,1,0.0,2.0
2021-09-27 12:44:49.450,986.0,-107.0,-83.0,995.2557460271204,1,1,1,0.0,2.0
2021-09-27 12:44:49.461,994.0,-62.0,-49.0,997.1363998972256,1,1,1,0.0,2.0
2021-09-27 12:44:49.469,1040.0,17.0,-49.0,1041.29246612083,1,1,1,0.0,2.0
2021-09-27 12:44:49.470,1040.0,17.0,-17.0,1040.2778475003686,1,1,1,0.0,2.0
2021-09-27 12:44:49.479,1038.0,17.0,-17.0,1038.2783827086066,1,1,1,0.0,2.0
2021-09-27 12:44:49.480,1038.0,11.0,-35.0,1038.6481598693565,1,1,1,0.0,2.0
2021-09-27 12:44:49.489,968.0,11.0,-35.0,968.694998438621,1,1,1,0.0,2.0
2021-09-27 12:44:49.490,968.0,165.0,37.0,982.6586385922632,1,1,1,0.0,2.0
2021-09-27 12:44:49.499,999.0,145.0,37.0,1010.1460290472858,1,1,1,0.0,2.0
2021-09-27 12:44:49.500,999.0,145.0,71.0,1011.96195580664,1,1,1,0.0,2.0
2021-09-27 12:44:49.511,1039.0,76.0,79.0,1044.76695966134,1,1,1,0.0,2.0
2021-09-27 12:44:49.519,1039.0,-117.0,40.0,1046.3316873726037,1,1,1,0.0,2.0
2021-09-27 12:44:49.528,1028.0,-117.0,40.0,1035.4095807939966,1,1,1,0.0,2.0
2021-09-27 12:44:49.529,1028.0,-167.0,45.0,1042.448080241889,1,1,1,0.0,2.0
2021-09-27 12:44:49.538,1026.0,11.0,-7.0,1026.0828426594023,1,1,1,0.0,2.0
2021-09-27 12:44:49.548,1000.0,11.0,-7.0,1000.084996387807,1,1,1,0.0,2.0
2021-09-27 12:44:49.549,1000.0,-48.0,-59.0,1002.8883287784338,1,1,1,0.0,2.0
2021-09-27 12:44:49.558,957.0,-53.0,-57.0,960.1598825195728,1,1,1,0.0,2.0
2021-09-27 12:44:49.568,983.0,48.0,-17.0,984.3180380344556,1,1,1,0.0,2.0
2021-09-27 12:44:49.577,1047.0,48.0,-17.0,1048.2375684929443,1,1,1,0.0,2.0
2021-09-27 12:44:49.578,1047.0,103.0,3.0,1052.0584584518106,1,1,1,0.0,2.0
2021-09-27 12:44:49.586,1009.0,103.0,3.0,1014.2479972866596,1,1,1,0.0,2.0
2021-09-27 12:44:49.587,1009.0,47.0,-21.0,1010.3123279461654,1,1,1,0.0,2.0
2021-09-27 12:44:49.597,1028.0,115.0,-21.0,1034.6255361240608,1,1,1,0.0,2.0
2021-09-27 12:44:49.598,1028.0,115.0,73.0,1036.9850529298867,1,1,1,0.0,2.0
2021-09-27 12:44:49.606,1089.0,125.0,73.0,1098.5786271359916,1,1,1,0.0,2.0
2021-09-27 12:44:49.607,1089.0,125.0,91.0,1099.9213608254,1,1,1,0.0,2.0
2021-09-27 12:44:49.623,1061.0,125.0,91.0,1072.20660322533,1,1,1,0.0,2.0
2021-09-27 12:44:49.624,1061.0,-29.0,33.0,1061.9091298223216,1,1,1,0.0,2.0
2021-09-27 12:44:49.627,1030.0,-29.0,33.0,1030.9364674896317,1,1,1,0.0,2.0
2021-09-27 12:44:49.628,1030.0,-149.0,42.0,1041.5685287104252,1,1,1,0.0,2.0
2021-09-27 12:44:49.636,1053.0,-147.0,27.0,1063.5539478559608,1,1,1,0.0,2.0
2021-09-27 12:44:49.647,983.0,-2.0,-55.0,984.5394862574076,1,1,1,0.0,2.0
2021-09-27 12:44:49.655,969.0,-2.0,-55.0,970.5616930417148,1,1,1,0.0,2.0
2021-09-27 12:44:49.656,969.0,-115.0,-56.0,977.4057499319308,1,1,1,0.0,2.0
2021-09-27 12:44:49.665,980.0,-36.0,-50.0,981.9348247210708,1,1,1,0.0,2.0
2021-09-27 12:44:49.675,1034.0,37.0,-20.0,1034.8550623154915,1,1,1,0.0,2.0
2021-09-27 12:44:49.685,1076.0,94.0,-2.0,1080.099995370799,1,1,1,0.0,2.0
2021-09-27 12:44:49.695,1017.0,73.0,-32.0,1020.118620553512,1,1,1,0.0,2.0
2021-09-27 12:44:49.707,1021.0,163.0,87.0,1037.5832496720443,1,1,1,0.0,2.0
2021-09-27 12:44:49.714,1032.0,36.0,64.0,1034.60910492804,1,1,1,0.0,2.0
2021-09-27 12:44:49.724,1037.0,-146.0,58.0,1048.8322077434502,1,1,1,0.0,2.0
2021-09-27 12:44:49.733,1021.0,-146.0,58.0,1033.015488751258,1,1,1,0.0,2.0
2021-09-27 12:44:49.734,1021.0,-182.0,25.0,1037.3957778977124,1,1,1,0.0,2.0
2021-09-27 12:44:49.744,1056.0,-182.0,25.0,1071.8605319723272,1,1,1,0.0,2.0
2021-09-27 12:44:49.745,1056.0,-96.0,67.0,1062.4692936739395,1,1,1,0.0,2.0
2021-09-27 12:44:49.754,987.0,-79.0,-69.0,992.5578068807882,1,1,1,0.0,2.0
2021-09-27 12:44:49.763,964.0,-51.0,-69.0,967.8109319490042,1,1,1,0.0,2.0
2021-09-27 12:44:49.772,996.0,61.0,-9.0,997.906809276297,1,1,1,0.0,2.0
2021-09-27 12:44:49.782,1015.0,56.0,-10.0,1016.592838849458,1,1,1,0.0,2.0
2021-09-27 12:44:49.792,948.0,131.0,-37.0,957.7233420983328,1,1,1,0.0,2.0
2021-09-27 12:44:49.803,1037.0,153.0,111.0,1054.0868085693892,1,1,1,0.0,2.0
2021-09-27 12:44:49.818,1089.0,142.0,107.0,1103.4192312987843,1,1,1,0.0,2.0
2021-09-27 12:44:49.822,1071.0,50.0,40.0,1072.9123915772434,1,1,1,0.0,2.0
2021-09-27 12:44:49.831,997.0,-61.0,40.0,999.6649438686944,1,1,1,0.0,2.0
2021-09-27 12:44:49.832,997.0,-61.0,26.0,999.2026821421168,1,1,1,0.0,2.0
2021-09-27 12:44:49.842,1018.0,-53.0,37.0,1020.04999877457,1,1,1,0.0,2.0
2021-09-27 12:44:49.852,1019.0,46.0,41.0,1020.8614009746868,1,1,1,0.0,2.0
2021-09-27 12:44:49.860,1009.0,-44.0,-61.0,1011.7993872304924,1,1,1,0.0,2.0
2021-09-27 12:44:49.870,1008.0,-22.0,-25.0,1008.5499491844716,1,1,1,0.0,2.0
2021-09-27 12:44:49.880,1048.0,25.0,-23.0,1048.550427971874,1,1,1,0.0,2.0
2021-09-27 12:44:49.891,1054.0,52.0,-2.0,1055.2838480712192,1,1,1,0.0,2.0
2021-09-27 12:44:49.900,1043.0,94.0,-26.0,1047.5499988067395,1,1,1,0.0,2.0
2021-09-27 12:44:49.909,1033.0,151.0,116.0,1050.4027798896957,1,1,1,0.0,2.0
2021-09-27 12:44:49.919,1070.0,0.0,87.0,1073.531089442686,1,1,1,0.0,2.0
2021-09-27 12:44:49.928,1025.0,0.0,87.0,1028.6855690637449,1,1,1,0.0,2.0
2021-09-27 12:44:49.929,1025.0,-149.0,3.0,1035.7774857564727,1,1,1,0.0,2.0
2021-09-27 12:44:49.939,999.0,-153.0,7.0,1010.6725483557966,1,1,1,0.0,2.0
2021-09-27 12:44:49.950,1031.0,-82.0,57.0,1035.8252748412735,1,1,1,0.0,2.0
2021-09-27 12:44:49.958,1059.0,68.0,95.0,1065.424797909266,1,1,1,0.0,2.0
2021-09-27 12:44:49.968,958.0,-11.0,-68.0,960.4733208163568,1,1,1,0.0,2.0
2021-09-27 12:44:49.977,989.0,48.0,-68.0,992.4963476003325,1,1,1,0.0,2.0
2021-09-27 12:44:49.978,989.0,48.0,10.0,990.2146232004452,1,1,1,0.0,2.0
2021-09-27 12:44:49.988,1038.0,58.0,10.0,1039.667254461734,1,1,1,0.0,2.0
2021-09-27 12:44:49.989,1038.0,58.0,7.0,1039.6427270942647,1,1,1,0.0,2.0
2021-09-27 12:44:49.999,974.0,142.0,-31.0,984.7847480541116,1,1,1,0.0,2.0
2021-09-27 12:44:50.008,954.0,-88.0,-94.0,962.6505077129498,1,1,1,0.0,2.0
2021-09-27 12:44:50.018,1128.0,77.0,122.0,1137.1881990242423,1,1,1,0.0,2.0
2021-09-27 12:44:50.026,1068.0,77.0,122.0,1077.6998654541997,1,1,1,0.0,2.0
2021-09-27 12:44:50.027,1068.0,-39.0,29.0,1069.105233361057,1,1,1,0.0,2.0
2021-09-27 12:44:50.037,1006.0,-110.0,-14.0,1012.0928811131912,1,1,1,0.0,2.0
2021-09-27 12:44:50.048,943.0,-107.0,-1.0,949.05163189365,1,1,1,0.0,2.0
2021-09-27 12:44:50.057,993.0,101.0,40.0,998.9244215655156,1,1,1,0.0,2.0
2021-09-27 12:44:50.065,1000.0,101.0,40.0,1005.8831940140964,1,1,1,0.0,2.0
2021-09-27 12:44:50.066,1000.0,-181.0,-78.0,1019.2374600651216,1,1,1,0.0,2.0
2021-09-27 12:44:50.075,1009.0,-45.0,-30.0,1010.4484153087676,1,1,1,0.0,2.0
2021-09-27 12:44:50.085,1052.0,77.0,12.0,1054.882457907041,1,1,1,0.0,2.0
2021-09-27 12:44:50.100,1074.0,77.0,12.0,1076.8235695786009,1,1,1,0.0,2.0
2021-09-27 12:44:50.101,1074.0,130.0,32.0,1082.3123393919152,1,1,1,0.0,2.0
2021-09-27 12:44:50.114,1029.0,146.0,-25.0,1039.6066563850002,1,1,1,0.0,2.0
2021-09-27 12:44:50.116,951.0,146.0,-25.0,962.4666227979026,1,1,1,0.0,2.0
2021-09-27 12:44:50.117,951.0,60.0,-87.0,956.8542208717064,1,1,1,0.0,2.0
2021-09-27 12:44:50.124,1057.0,-64.0,65.0,1060.9288383298854,1,1,1,0.0,2.0
2021-09-27 12:44:50.136,1034.0,-146.0,17.0,1044.3950402027003,1,1,1,0.0,2.0
2021-09-27 12:44:50.143,1032.0,-146.0,17.0,1042.414984543104,1,1,1,0.0,2.0
2021-09-27 12:44:50.144,1032.0,-122.0,24.0,1039.463323066283,1,1,1,0.0,2.0
2021-09-27 12:44:50.153,1073.0,-91.0,46.0,1077.8339389720477,1,1,1,0.0,2.0
2021-09-27 12:44:50.163,1020.0,89.0,64.0,1025.873773911781,1,1,1,0.0,2.0
2021-09-27 12:44:50.174,989.0,35.0,-50.0,990.8814258023006,1,1,1,0.0,2.0
2021-09-27 12:44:50.185,964.0,66.0,-5.0,966.269631107177,1,1,1,0.0,2.0
2021-09-27 12:44:50.201,1018.0,40.0,-5.0,1018.797820963512,1,1,1,0.0,2.0
2021-09-27 12:44:50.202,1018.0,40.0,2.0,1018.7875146467,1,1,1,0.0,2.0
2021-09-27 12:44:50.205,970.0,185.0,-38.0,988.2150575659126,1,1,1,0.0,2.0
2021-09-27 12:44:50.213,934.0,-7.0,-100.0,939.364146643888,1,1,1,0.0,2.0
2021-09-27 12:44:50.223,944.0,63.0,-100.0,951.3700646961728,1,1,1,0.0,2.0
2021-09-27 12:44:50.224,944.0,63.0,-46.0,947.2175040612372,1,1,1,0.0,2.0
2021-09-27 12:44:50.232,1104.0,-10.0,-46.0,1105.003167416275,1,1,1,0.0,2.0
2021-09-27 12:44:50.233,1104.0,-10.0,31.0,1104.4804208314424,1,1,1,0.0,2.0
2021-09-27 12:44:50.241,1048.0,-75.0,40.0,1051.4413916143876,1,1,1,0.0,2.0
2021-09-27 12:44:50.251,1010.0,-68.0,28.0,1012.673688806024,1,1,1,0.0,2.0
2021-09-27 12:44:50.262,1005.0,55.0,82.0,1009.8386009655206,1,1,1,0.0,2.0
2021-09-27 12:44:50.272,1039.0,75.0,64.0,1043.667571595477,1,1,1,0.0,2.0
2021-09-27 12:44:50.280,1020.0,-74.0,6.0,1022.6983915113976,1,1,1,0.0,2.0
2021-09-27 12:44:50.290,1062.0,19.0,23.0,1062.4189380842192,1,1,1,0.0,2.0
2021-09-27 12:44:50.300,1016.0,123.0,-9.0,1023.4578643012128,1,1,1,0.0,2.0
2021-09-27 12:44:50.309,992.0,140.0,-9.0,1001.8707501469438,1,1,1,0.0,2.0
2021-09-27 12:44:50.310,992.0,140.0,-74.0,1004.5596050011168,1,1,1,0.0,2.0
2021-09-27 12:44:50.321,933.0,140.0,-74.0,946.3429610875752,1,1,1,0.0,2.0
2021-09-27 12:44:50.322,933.0,105.0,-95.0,943.6837393957788,1,1,1,0.0,2.0
2021-09-27 12:44:50.330,913.0,154.0,6.0,925.9163029129576,1,1,1,0.0,2.0
2021-09-27 12:44:50.339,1034.0,-145.0,47.0,1045.174626557687,1,1,1,0.0,2.0
2021-09-27 12:44:50.348,1030.0,-145.0,47.0,1041.2175565173688,1,1,1,0.0,2.0
2021-09-27 12:44:50.349,1030.0,-149.0,36.0,1041.343843310172,1,1,1,0.0,2.0
2021-09-27 12:44:50.358,1051.0,-93.0,36.0,1055.7206069789488,1,1,1,0.0,2.0
2021-09-27 12:44:50.359,1051.0,-93.0,61.0,1056.868487561248,1,1,1,0.0,2.0
2021-09-27 12:44:50.369,1063.0,13.0,61.0,1064.8281551499283,1,1,1,0.0,2.0
2021-09-27 12:44:50.370,1063.0,13.0,77.0,1065.864437909437,1,1,1,0.0,2.0
2021-09-27 12:44:50.379,1113.0,2.0,30.0,1113.4060355503736,1,1,1,0.0,2.0
2021-09-27 12:44:50.387,998.0,2.0,30.0,998.4528030908622,1,1,1,0.0,2.0
2021-09-27 12:44:50.388,998.0,48.0,-17.0,999.2982537761186,1,1,1,0.0,2.0
2021-09-27 12:44:50.397,1020.0,87.0,-34.0,1024.268031327738,1,1,1,0.0,2.0
2021-09-27 12:44:50.407,989.0,93.0,-44.0,994.3369650173928,1,1,1,0.0,2.0
2021-09-27 12:44:50.418,985.0,42.0,-62.0,987.8425987980067,1,1,1,0.0,2.0
2021-09-27 12:44:50.428,967.0,104.0,-50.0,973.8608730203714,1,1,1,0.0,2.0
2021-09-27 12:44:50.436,1112.0,-26.0,-50.0,1113.427141756478,1,1,1,0.0,2.0
2021-09-27 12:44:50.437,1112.0,-26.0,31.0,1112.7358177033757,1,1,1,0.0,2.0
2021-09-27 12:44:50.446,1013.0,-108.0,17.0,1018.8827214159636,1,1,1,0.0,2.0
2021-09-27 12:44:50.456,1028.0,-112.0,44.0,1035.0188404082314,1,1,1,0.0,2.0
2021-09-27 12:44:50.467,1011.0,56.0,74.0,1015.2502154641484,1,1,1,0.0,2.0
2021-09-27 12:44:50.476,1063.0,56.0,74.0,1067.0431106567344,1,1,1,0.0,2.0
2021-09-27 12:44:50.477,1063.0,71.0,64.0,1067.2890892349644,1,1,1,0.0,2.0
2021-09-27 12:44:50.486,1076.0,33.0,5.0,1076.5175335311544,1,1,1,0.0,2.0
2021-09-27 12:44:50.495,1103.0,44.0,26.0,1104.1834086781057,1,1,1,0.0,2.0
2021-09-27 12:44:50.505,1062.0,62.0,-10.0,1063.8552533122163,1,1,1,0.0,2.0
2021-09-27 12:44:50.516,1005.0,141.0,-80.0,1017.99115909717,1,1,1,0.0,2.0
2021-09-27 12:44:50.526,933.0,112.0,-118.0,947.0781382758236,1,1,1,0.0,2.0
2021-09-27 12:44:50.535,878.0,155.0,-22.0,891.8480812335697,1,1,1,0.0,2.0
2021-09-27 12:44:50.544,976.0,104.0,55.0,983.06510465991,1,1,1,0.0,2.0
2021-09-27 12:44:50.553,1034.0,104.0,55.0,1040.6714178836662,1,1,1,0.0,2.0
2021-09-27 12:44:50.554,1034.0,-203.0,4.0,1053.7461743702795,1,1,1,0.0,2.0
2021-09-27 12:44:50.563,1021.0,-203.0,4.0,1040.9927953641177,1,1,1,0.0,2.0
2021-09-27 12:44:50.564,1021.0,-38.0,48.0,1022.8338085925787,1,1,1,0.0,2.0
2021-09-27 12:44:50.575,1056.0,95.0,79.0,1063.2036493541584,1,1,1,0.0,2.0
2021-09-27 12:44:50.584,1117.0,73.0,61.0,1121.043710120172,1,1,1,0.0,2.0
2021-09-27 12:44:50.592,1069.0,-4.0,61.0,1070.7464685909545,1,1,1,0.0,2.0
2021-09-27 12:44:50.593,1069.0,-4.0,-33.0,1069.516713286894,1,1,1,0.0,2.0
2021-09-27 12:44:50.602,1027.0,112.0,-10.0,1033.137454552878,1,1,1,0.0,2.0
2021-09-27 12:44:50.612,1007.0,112.0,-10.0,1013.2586047006954,1,1,1,0.0,2.0
2021-09-27 12:44:50.613,1007.0,136.0,-36.0,1016.7797204901364,1,1,1,0.0,2.0
2021-09-27 12:44:50.623,956.0,22.0,-82.0,959.7624706144744,1,1,1,0.0,2.0
2021-09-27 12:44:50.640,932.0,63.0,-50.0,935.4640559636698,1,1,1,0.0,2.0
2021-09-27 12:44:50.643,961.0,12.0,23.0,961.35009231809,1,1,1,0.0,2.0
2021-09-27 12:44:50.651,1021.0,12.0,23.0,1021.329525667402,1,1,1,0.0,2.0
2021-09-27 12:44:50.652,1021.0,-79.0,48.0,1025.176082436573,1,1,1,0.0,2.0
2021-09-27 12:44:50.662,1018.0,-19.0,35.0,1018.778680577877,1,1,1,0.0,2.0
2021-09-27 12:44:50.671,972.0,-19.0,35.0,972.8155015212288,1,1,1,0.0,2.0
2021-09-27 12:44:50.672,972.0,74.0,64.0,976.9114596523063,1,1,1,0.0,2.0
2021-09-27 12:44:50.680,1117.0,74.0,64.0,1121.2765047034563,1,1,1,0.0,2.0
2021-09-27 12:44:50.681,1117.0,48.0,58.0,1119.5342781710615,1,1,1,0.0,2.0
2021-09-27 12:44:50.690,1037.0,55.0,4.0,1038.4652136687102,1,1,1,0.0,2.0
2021-09-27 12:44:50.700,940.0,-28.0,-83.0,944.072560770622,1,1,1,0.0,2.0
2021-09-27 12:44:50.711,1047.0,78.0,-83.0,1053.1770981178806,1,1,1,0.0,2.0
2021-09-27 12:44:50.713,1047.0,78.0,6.0,1049.918568270892,1,1,1,0.0,2.0
2021-09-27 12:44:50.720,1018.0,56.0,-33.0,1020.0730366008112,1,1,1,0.0,2.0
2021-09-27 12:44:50.730,941.0,69.0,-33.0,944.1032782487306,1,1,1,0.0,2.0
2021-09-27 12:44:50.731,941.0,69.0,-90.0,947.8090524995,1,1,1,0.0,2.0
2021-09-27 12:44:50.739,878.0,183.0,-37.0,897.631327439055,1,1,1,0.0,2.0
2021-09-27 12:44:50.749,937.0,152.0,57.0,950.9584638668504,1,1,1,0.0,2.0
2021-09-27 12:44:50.760,992.0,-175.0,-16.0,1007.444787569026,1,1,1,0.0,2.0
2021-09-27 12:44:50.768,983.0,-82.0,-16.0,986.5439675959708,1,1,1,0.0,2.0
2021-09-27 12:44:50.769,983.0,-82.0,40.0,987.2248983894196,1,1,1,0.0,2.0
2021-09-27 12:44:50.779,1068.0,90.0,99.0,1076.3479920546142,1,1,1,0.0,2.0
2021-09-27 12:44:50.788,1134.0,61.0,57.0,1137.069039240802,1,1,1,0.0,2.0
2021-09-27 12:44:50.799,1039.0,-15.0,-62.0,1040.9562911092858,1,1,1,0.0,2.0
2021-09-27 12:44:50.809,936.0,-84.0,-109.0,946.0618373024038,1,1,1,0.0,2.0
2021-09-27 12:44:50.818,999.0,51.0,-61.0,1002.1591689946264,1,1,1,0.0,2.0
2021-09-27 12:44:50.828,930.0,51.0,-61.0,933.3927362048624,1,1,1,0.0,2.0
2021-09-27 12:44:50.829,930.0,35.0,-100.0,936.0154913247964,1,1,1,0.0,2.0
2021-09-27 12:44:50.843,912.0,35.0,-51.0,914.0951810396988,1,1,1,0.0,2.0
2021-09-27 12:44:50.847,999.0,50.0,52.0,1001.6012180503776,1,1,1,0.0,2.0
2021-09-27 12:44:50.857,1105.0,130.0,115.0,1118.548166151105,1,1,1,0.0,2.0
2021-09-27 12:44:50.867,957.0,40.0,13.0,957.9237965516882,1,1,1,0.0,2.0
2021-09-27 12:44:50.877,970.0,137.0,99.0,984.6166766818444,1,1,1,0.0,2.0
2021-09-27 12:44:50.886,1074.0,79.0,53.0,1078.204989786265,1,1,1,0.0,2.0
2021-09-27 12:44:50.895,1032.0,79.0,53.0,1036.3754146061165,1,1,1,0.0,2.0
2021-09-27 12:44:50.896,1032.0,-73.0,-31.0,1035.0429942760832,1,1,1,0.0,2.0
2021-09-27 12:44:50.905,974.0,-40.0,-83.0,978.3480975603724,1,1,1,0.0,2.0
2021-09-27 12:44:50.918,1044.0,147.0,-83.0,1057.560400166345,1,1,1,0.0,2.0
2021-09-27 12:44:50.919,1044.0,147.0,0.0,1054.2983448720763,1,1,1,0.0,2.0
2021-09-27 12:44:50.926,961.0,129.0,-57.0,971.2934674957924,1,1,1,0.0,2.0
2021-09-27 12:44:50.934,912.0,129.0,-57.0,922.8401811798184,1,1,1,0.0,2.0
2021-09-27 12:44:50.935,912.0,125.0,-50.0,921.8833982668308,1,1,1,0.0,2.0
2021-09-27 12:44:50.944,947.0,173.0,7.0,962.6977718889766,1,1,1,0.0,2.0
2021-09-27 12:44:50.955,1000.0,205.0,86.0,1024.4125145662756,1,1,1,0.0,2.0
2021-09-27 12:44:50.964,1033.0,165.0,143.0,1055.8233753805605,1,1,1,0.0,2.0
2021-09-27 12:44:50.974,1060.0,165.0,143.0,1082.2541291212522,1,1,1,0.0,2.0
2021-09-27 12:44:50.975,1060.0,31.0,109.0,1066.0403369479036,1,1,1,0.0,2.0
2021-09-27 12:44:50.986,1123.0,90.0,100.0,1131.03006149262,1,1,1,0.0,2.0
2021-09-27 12:44:50.993,1096.0,51.0,10.0,1097.2315161350407,1,1,1,0.0,2.0
2021-09-27 12:44:51.003,999.0,-23.0,10.0,999.3147652266528,1,1,1,0.0,2.0
2021-09-27 12:44:51.004,999.0,-23.0,-81.0,1002.5422684356008,1,1,1,0.0,2.0
2021-09-27 12:44:51.013,960.0,-22.0,-115.0,967.1137471879924,1,1,1,0.0,2.0
2021-09-27 12:44:51.023,996.0,0.0,-59.0,997.7459596510528,1,1,1,0.0,2.0
2021-09-27 12:44:51.033,909.0,0.0,-59.0,910.9127290800144,1,1,1,0.0,2.0
2021-09-27 12:44:51.034,909.0,20.0,-127.0,918.0468397636364,1,1,1,0.0,2.0
2021-09-27 12:44:51.042,919.0,-8.0,-42.0,919.9940217197068,1,1,1,0.0,2.0
2021-09-27 12:44:51.052,1012.0,86.0,81.0,1018.872415957955,1,1,1,0.0,2.0
2021-09-27 12:44:51.062,1123.0,110.0,146.0,1137.780734588172,1,1,1,0.0,2.0
2021-09-27 12:44:51.072,1104.0,110.0,146.0,1119.0317243045436,1,1,1,0.0,2.0
2021-09-27 12:44:51.073,1104.0,119.0,107.0,1115.5384350169204,1,1,1,0.0,2.0
2021-09-27 12:44:51.082,1003.0,135.0,87.0,1015.7770424655206,1,1,1,0.0,2.0
2021-09-27 12:44:51.091,1067.0,61.0,68.0,1070.9033569841863,1,1,1,0.0,2.0
2021-09-27 12:44:51.100,1021.0,61.0,68.0,1025.0785335768182,1,1,1,0.0,2.0
2021-09-27 12:44:51.101,1021.0,-62.0,-21.0,1023.0962809041972,1,1,1,0.0,2.0
2021-09-27 12:44:51.111,994.0,-124.0,-88.0,1005.5625291348122,1,1,1,0.0,2.0
2021-09-27 12:44:51.132,1006.0,-134.0,-89.0,1018.7801529280003,1,1,1,0.0,2.0
2021-09-27 12:44:51.134,939.0,150.0,-90.0,955.154961249744,1,1,1,0.0,2.0
2021-09-27 12:44:51.141,891.0,51.0,-78.0,895.8604802088325,1,1,1,0.0,2.0
2021-09-27 12:44:51.149,933.0,142.0,-78.0,946.9619844534416,1,1,1,0.0,2.0
2021-09-27 12:44:51.150,933.0,142.0,28.0,944.1594145058344,1,1,1,0.0,2.0
2021-09-27 12:44:51.160,1016.0,172.0,98.0,1035.1057916947427,1,1,1,0.0,2.0
2021-09-27 12:44:51.169,1056.0,155.0,134.0,1075.6937296461294,1,1,1,0.0,2.0
2021-09-27 12:44:51.179,1040.0,29.0,92.0,1044.4639773587216,1,1,1,0.0,2.0
2021-09-27 12:44:51.190,1113.0,62.0,89.0,1118.2727753102104,1,1,1,0.0,2.0
2021-09-27 12:44:51.198,1095.0,-20.0,-2.0,1095.1844593492003,1,1,1,0.0,2.0
2021-09-27 12:44:51.217,1053.0,-53.0,-109.0,1059.9523574198984,1,1,1,0.0,2.0
2021-09-27 12:44:51.220,954.0,-53.0,-109.0,961.6683419973853,1,1,1,0.0,2.0
2021-09-27 12:44:51.221,954.0,-38.0,-108.0,960.8454610393912,1,1,1,0.0,2.0
2021-09-27 12:44:51.229,929.0,30.0,-43.0,930.4783715917312,1,1,1,0.0,2.0
2021-09-27 12:44:51.239,933.0,19.0,-82.0,936.7891972050062,1,1,1,0.0,2.0
2021-09-27 12:44:51.247,932.0,85.0,-19.0,936.0608954549912,1,1,1,0.0,2.0
2021-09-27 12:44:51.257,997.0,63.0,88.0,1002.856919006894,1,1,1,0.0,2.0
2021-09-27 12:44:51.267,1099.0,168.0,158.0,1122.9376652334715,1,1,1,0.0,2.0
2021-09-27 12:44:51.277,1116.0,52.0,74.0,1119.658876622697,1,1,1,0.0,2.0
2021-09-27 12:44:51.288,1056.0,78.0,74.0,1061.4593727505542,1,1,1,0.0,2.0
2021-09-27 12:44:51.289,1056.0,78.0,93.0,1062.9529622706737,1,1,1,0.0,2.0
2021-09-27 12:44:51.296,1092.0,56.0,45.0,1094.3605438793927,1,1,1,0.0,2.0
2021-09-27 12:44:51.306,1048.0,-61.0,-72.0,1052.2399916368888,1,1,1,0.0,2.0
2021-09-27 12:44:51.317,993.0,-116.0,-106.0,1005.3561557975364,1,1,1,0.0,2.0
2021-09-27 12:44:51.326,935.0,-100.0,-87.0,944.3484526381138,1,1,1,0.0,2.0
2021-09-27 12:44:51.337,1001.0,-13.0,-12.0,1001.1563314487904,1,1,1,0.0,2.0
2021-09-27 12:44:51.345,894.0,85.0,-90.0,902.5303319002636,1,1,1,0.0,2.0
2021-09-27 12:44:51.354,891.0,162.0,-90.0,910.0686787270508,1,1,1,0.0,2.0
2021-09-27 12:44:51.355,891.0,162.0,25.0,905.9525373881348,1,1,1,0.0,2.0
2021-09-27 12:44:51.364,999.0,141.0,98.0,1013.64984092141,1,1,1,0.0,2.0
2021-09-27 12:44:51.375,1051.0,135.0,125.0,1066.9821929160769,1,1,1,0.0,2.0
2021-09-27 12:44:51.385,1063.0,-61.0,125.0,1072.061099005089,1,1,1,0.0,2.0
2021-09-27 12:44:51.386,1063.0,-61.0,60.0,1066.4379963223366,1,1,1,0.0,2.0
2021-09-27 12:44:51.395,1093.0,57.0,81.0,1097.4784735929904,1,1,1,0.0,2.0
2021-09-27 12:44:51.403,1072.0,-25.0,14.0,1072.3828607358475,1,1,1,0.0,2.0
2021-09-27 12:44:51.413,969.0,-4.0,-112.0,975.4593789594726,1,1,1,0.0,2.0
2021-09-27 12:44:51.423,962.0,-52.0,-106.0,969.2182416772808,1,1,1,0.0,2.0
2021-09-27 12:44:51.434,962.0,-38.0,-16.0,962.8831704833146,1,1,1,0.0,2.0
2021-09-27 12:44:51.443,886.0,-38.0,-16.0,886.9588491018059,1,1,1,0.0,2.0
2021-09-27 12:44:51.444,886.0,34.0,-81.0,890.3443154196021,1,1,1,0.0,2.0
2021-09-27 12:44:51.452,949.0,34.0,-81.0,953.0571861121452,1,1,1,0.0,2.0
2021-09-27 12:44:51.453,949.0,113.0,2.0,955.7060217451808,1,1,1,0.0,2.0
2021-09-27 12:44:51.462,1004.0,112.0,90.0,1014.2287710373828,1,1,1,0.0,2.0
2021-09-27 12:44:51.472,1048.0,141.0,145.0,1067.3378096928825,1,1,1,0.0,2.0
2021-09-27 12:44:51.483,1111.0,80.0,93.0,1117.752208675966,1,1,1,0.0,2.0
2021-09-27 12:44:51.492,1042.0,80.0,93.0,1049.1963591244491,1,1,1,0.0,2.0
2021-09-27 12:44:51.493,1042.0,-1.0,34.0,1042.555034518562,1,1,1,0.0,2.0
2021-09-27 12:44:51.501,1105.0,45.0,69.0,1108.0663337544372,1,1,1,0.0,2.0
2021-09-27 12:44:51.510,1048.0,45.0,69.0,1051.2326098442722,1,1,1,0.0,2.0
2021-09-27 12:44:51.511,1048.0,-9.0,-32.0,1048.5270621209545,1,1,1,0.0,2.0
2021-09-27 12:44:51.522,1001.0,-46.0,-114.0,1008.5202030698244,1,1,1,0.0,2.0
2021-09-27 12:44:51.533,1065.0,89.0,103.0,1073.664286450844,1,1,1,0.0,2.0
2021-09-27 12:44:51.542,970.0,-97.0,-10.0,974.8892244762992,1,1,1,0.0,2.0
2021-09-27 12:44:51.550,863.0,56.0,-69.0,867.5632541780456,1,1,1,0.0,2.0
2021-09-27 12:44:51.560,887.0,134.0,2.0,897.0668871383003,1,1,1,0.0,2.0
2021-09-27 12:44:51.569,1006.0,206.0,134.0,1035.5809963493923,1,1,1,0.0,2.0
2021-09-27 12:44:51.580,1059.0,165.0,126.0,1079.1580051132455,1,1,1,0.0,2.0
2021-09-27 12:44:51.591,1079.0,-114.0,126.0,1092.2971207505768,1,1,1,0.0,2.0
2021-09-27 12:44:51.592,1079.0,-114.0,29.0,1085.3930163770171,1,1,1,0.0,2.0
2021-09-27 12:44:51.599,1048.0,-114.0,29.0,1054.580959433651,1,1,1,0.0,2.0
2021-09-27 12:44:51.600,1048.0,-198.0,8.0,1066.5702039715904,1,1,1,0.0,2.0
2021-09-27 12:44:51.609,1061.0,-10.0,-31.0,1061.4998822421037,1,1,1,0.0,2.0
2021-09-27 12:44:51.618,1031.0,-17.0,-92.0,1035.2362049310293,1,1,1,0.0,2.0
2021-09-27 12:44:51.628,915.0,-78.0,-109.0,924.7648349715728,1,1,1,0.0,2.0
2021-09-27 12:44:51.639,895.0,20.0,-68.0,897.802316771348,1,1,1,0.0,2.0
2021-09-27 12:44:51.648,1033.0,23.0,-68.0,1035.491187794469,1,1,1,0.0,2.0
2021-09-27 12:44:51.649,1033.0,23.0,2.0,1033.2579542398887,1,1,1,0.0,2.0
2021-09-27 12:44:51.664,953.0,-63.0,-33.0,955.6500405483172,1,1,1,0.0,2.0
2021-09-27 12:44:51.668,1038.0,80.0,-33.0,1041.601171274303,1,1,1,0.0,2.0
2021-09-27 12:44:51.669,1038.0,80.0,85.0,1044.5424835783367,1,1,1,0.0,2.0
2021-09-27 12:44:51.677,1140.0,283.0,168.0,1186.5550977514697,1,1,1,0.0,2.0
2021-09-27 12:44:51.688,1098.0,84.0,93.0,1105.1284993158035,1,1,1,0.0,2.0
2021-09-27 12:44:51.698,1061.0,-87.0,-5.0,1064.5726842259292,1,1,1,0.0,2.0
2021-09-27 12:44:51.706,1075.0,40.0,38.0,1076.4148828402551,1,1,1,0.0,2.0
2021-09-27 12:44:51.716,1045.0,-7.0,-13.0,1045.1043010149754,1,1,1,0.0,2.0
2021-09-27 12:44:51.726,967.0,-67.0,-127.0,977.6026800290596,1,1,1,0.0,2.0
2021-09-27 12:44:51.736,909.0,-113.0,-134.0,925.7461855173912,1,1,1,0.0,2.0
2021-09-27 12:44:51.746,954.0,-75.0,-7.0,956.969174007188,1,1,1,0.0,2.0
2021-09-27 12:44:51.755,1078.0,40.0,82.0,1081.8539642668968,1,1,1,0.0,2.0
2021-09-27 12:44:51.764,901.0,172.0,82.0,920.9283359740864,1,1,1,0.0,2.0
2021-09-27 12:44:51.765,901.0,172.0,44.0,918.3251058312628,1,1,1,0.0,2.0
2021-09-27 12:44:51.774,1004.0,172.0,44.0,1019.576382621724,1,1,1,0.0,2.0
2021-09-27 12:44:51.775,1004.0,168.0,110.0,1023.8847591404024,1,1,1,0.0,2.0
2021-09-27 12:44:51.785,1051.0,125.0,111.0,1064.2119149868602,1,1,1,0.0,2.0
2021-09-27 12:44:51.796,1064.0,-116.0,26.0,1070.6203809007186,1,1,1,0.0,2.0
2021-09-27 12:44:51.803,984.0,-214.0,26.0,1007.337083602108,1,1,1,0.0,2.0
2021-09-27 12:44:51.804,984.0,-214.0,8.0,1007.0332665806033,1,1,1,0.0,2.0
2021-09-27 12:44:51.813,1085.0,0.0,0.0,1085.0,1,1,1,0.0,2.0
2021-09-27 12:44:51.824,1012.0,6.0,-86.0,1015.6652992004796,1,1,1,0.0,2.0
2021-09-27 12:44:51.834,954.0,0.0,-112.0,960.5519246766412,1,1,1,0.0,2.0
2021-09-27 12:44:51.844,938.0,61.0,-40.0,940.8320785347404,1,1,1,0.0,2.0
2021-09-27 12:44:51.853,1022.0,82.0,49.0,1026.4545776604048,1,1,1,0.0,2.0
2021-09-27 12:44:51.862,1057.0,177.0,21.0,1071.9230382821331,1,1,1,0.0,2.0
2021-09-27 12:44:51.872,1072.0,78.0,117.0,1081.1831482223536,1,1,1,0.0,2.0
2021-09-27 12:44:51.882,1099.0,180.0,155.0,1124.3780503015878,1,1,1,0.0,2.0
2021-09-27 12:44:51.897,1151.0,180.0,155.0,1175.255716854847,1,1,1,0.0,2.0
2021-09-27 12:44:51.898,1151.0,-34.0,71.0,1153.688866202669,1,1,1,0.0,2.0
2021-09-27 12:44:51.902,1068.0,-114.0,8.0,1074.0968298994276,1,1,1,0.0,2.0
2021-09-27 12:44:51.911,958.0,-76.0,-43.0,961.9714132966736,1,1,1,0.0,2.0
2021-09-27 12:44:51.925,978.0,-97.0,-102.0,988.0774261159902,1,1,1,0.0,2.0
2021-09-27 12:44:51.932,984.0,-31.0,-161.0,997.5660379142828,1,1,1,0.0,2.0
2021-09-27 12:44:51.940,942.0,-137.0,-161.0,965.4294381258528,1,1,1,0.0,2.0
2021-09-27 12:44:51.941,942.0,-137.0,-108.0,958.0172232272236,1,1,1,0.0,2.0
2021-09-27 12:44:51.951,1032.0,-50.0,12.0,1033.2802136884263,1,1,1,0.0,2.0
2021-09-27 12:44:51.960,1092.0,98.0,64.0,1098.2549795015727,1,1,1,0.0,2.0
2021-09-27 12:44:51.969,904.0,98.0,64.0,911.545939599316,1,1,1,0.0,2.0
2021-09-27 12:44:51.970,904.0,185.0,46.0,923.8814859060658,1,1,1,0.0,2.0
2021-09-27 12:44:51.980,1044.0,160.0,139.0,1065.2966722936856,1,1,1,0.0,2.0
2021-09-27 12:44:51.989,1062.0,126.0,105.0,1074.5906197245536,1,1,1,0.0,2.0
2021-09-27 12:44:52.000,1051.0,-159.0,22.0,1063.1867192549012,1,1,1,0.0,2.0
2021-09-27 12:44:52.009,986.0,-221.0,-3.0,1010.4682083074164,1,1,1,0.0,2.0
2021-09-27 12:44:52.018,989.0,-202.0,-3.0,1009.422607236434,1,1,1,0.0,2.0
2021-09-27 12:44:52.019,989.0,-202.0,21.0,1009.6365682759316,1,1,1,0.0,2.0
2021-09-27 12:44:52.029,965.0,-8.0,21.0,965.2616225666492,1,1,1,0.0,2.0
2021-09-27 12:44:52.030,965.0,-8.0,-123.0,972.840171867918,1,1,1,0.0,2.0
2021-09-27 12:44:52.038,917.0,-43.0,-100.0,923.4381408627218,1,1,1,0.0,2.0
2021-09-27 12:44:52.048,938.0,72.0,-8.0,940.7932822889416,1,1,1,0.0,2.0
2021-09-27 12:44:52.059,1102.0,112.0,60.0,1109.3006806091846,1,1,1,0.0,2.0
2021-09-27 12:44:52.067,1026.0,194.0,24.0,1044.4558391813414,1,1,1,0.0,2.0
2021-09-27 12:44:52.078,1039.0,176.0,107.0,1059.2195239892435,1,1,1,0.0,2.0
2021-09-27 12:44:52.088,1099.0,182.0,189.0,1129.88760502981,1,1,1,0.0,2.0
2021-09-27 12:44:52.097,1171.0,-40.0,54.0,1172.9266814255698,1,1,1,0.0,2.0
2021-09-27 12:44:52.107,1054.0,-28.0,-7.0,1054.3950872419691,1,1,1,0.0,2.0
2021-09-27 12:44:52.116,969.0,-101.0,-7.0,974.2746019475208,1,1,1,0.0,2.0
2021-09-27 12:44:52.117,969.0,-101.0,-66.0,976.4824627201452,1,1,1,0.0,2.0
2021-09-27 12:44:52.128,956.0,59.0,25.0,958.145082959778,1,1,1,0.0,2.0
2021-09-27 12:44:52.147,969.0,-115.0,-164.0,989.485725010725,1,1,1,0.0,2.0
2021-09-27 12:44:52.148,921.0,-134.0,-164.0,945.0359781510966,1,1,1,0.0,2.0
2021-09-27 12:44:52.149,921.0,-134.0,-122.0,938.6591500646016,1,1,1,0.0,2.0
2021-09-27 12:44:52.157,960.0,-41.0,13.0,960.963058603191,1,1,1,0.0,2.0
2021-09-27 12:44:52.165,1094.0,68.0,58.0,1097.644751274291,1,1,1,0.0,2.0
2021-09-27 12:44:52.175,1123.0,162.0,63.0,1136.3722981488063,1,1,1,0.0,2.0
2021-09-27 12:44:52.184,1041.0,162.0,63.0,1055.4117679844203,1,1,1,0.0,2.0
2021-09-27 12:44:52.185,1041.0,103.0,111.0,1051.9557975504483,1,1,1,0.0,2.0
2021-09-27 12:44:52.195,1091.0,123.0,167.0,1110.5399587588013,1,1,1,0.0,2.0
2021-09-27 12:44:52.206,1124.0,123.0,167.0,1142.975940254212,1,1,1,0.0,2.0
2021-09-27 12:44:52.207,1124.0,-129.0,30.0,1131.776037915629,1,1,1,0.0,2.0
2021-09-27 12:44:52.214,1009.0,-171.0,0.0,1023.3875121379976,1,1,1,0.0,2.0
2021-09-27 12:44:52.232,1020.0,-207.0,-43.0,1041.6803732431556,1,1,1,0.0,2.0
2021-09-27 12:44:52.235,1022.0,-21.0,-43.0,1023.1197388380308,1,1,1,0.0,2.0
2021-09-27 12:44:52.236,1022.0,-21.0,-81.0,1025.4199139864604,1,1,1,0.0,2.0
2021-09-27 12:44:52.244,958.0,-76.0,-114.0,967.7479010568816,1,1,1,0.0,2.0
2021-09-27 12:44:52.254,958.0,-76.0,-114.0,967.7479010568816,1,1,1,0.0,2.0
2021-09-27 12:44:52.255,958.0,66.0,-43.0,961.2330622694998,1,1,1,0.0,2.0
2021-09-27 12:44:52.262,972.0,66.0,-43.0,975.186648801141,1,1,1,0.0,2.0
2021-09-27 12:44:52.263,972.0,38.0,-2.0,972.7445707892696,1,1,1,0.0,2.0
2021-09-27 12:44:52.272,1023.0,148.0,54.0,1035.059901648209,1,1,1,0.0,2.0
2021-09-27 12:44:52.282,1014.0,46.0,58.0,1016.69857873413,1,1,1,0.0,2.0
2021-09-27 12:44:52.292,1093.0,179.0,141.0,1116.499440214817,1,1,1,0.0,2.0
2021-09-27 12:44:52.303,1110.0,-12.0,32.0,1110.5260014965882,1,1,1,0.0,2.0
2021-09-27 12:44:52.316,1075.0,-96.0,22.0,1079.5022000903934,1,1,1,0.0,2.0
2021-09-27 12:44:52.321,957.0,-160.0,-59.0,972.0750999794204,1,1,1,0.0,2.0
2021-09-27 12:44:52.331,975.0,-44.0,34.0,976.5843537554756,1,1,1,0.0,2.0
2021-09-27 12:44:52.341,912.0,-96.0,34.0,917.6687855648136,1,1,1,0.0,2.0
2021-09-27 12:44:52.342,912.0,-96.0,-185.0,935.5132281266792,1,1,1,0.0,2.0
2021-09-27 12:44:52.352,917.0,-176.0,-89.0,937.969082646118,1,1,1,0.0,2.0
2021-09-27 12:44:52.360,1058.0,-69.0,70.0,1062.555880883448,1,1,1,0.0,2.0
2021-09-27 12:44:52.370,1137.0,38.0,101.0,1142.109451847764,1,1,1,0.0,2.0
2021-09-27 12:44:52.380,1055.0,147.0,-5.0,1065.2037363809798,1,1,1,0.0,2.0
2021-09-27 12:44:52.390,1025.0,113.0,133.0,1039.751412598223,1,1,1,0.0,2.0
2021-09-27 12:44:52.401,1082.0,187.0,111.0,1103.636715590778,1,1,1,0.0,2.0
2021-09-27 12:44:52.410,1075.0,-133.0,-29.0,1083.5843298977704,1,1,1,0.0,2.0
2021-09-27 12:44:52.419,857.0,1.0,26.0,857.3948915173218,1,1,1,0.0,2.0
2021-09-27 12:44:52.428,1027.0,1.0,26.0,1027.329547905637,1,1,1,0.0,2.0
2021-09-27 12:44:52.429,1027.0,-81.0,34.0,1030.750212224087,1,1,1,0.0,2.0
2021-09-27 12:44:52.439,1046.0,16.0,101.0,1050.9866792685814,1,1,1,0.0,2.0
2021-09-27 12:44:52.449,1027.0,36.0,3.0,1027.6351492626166,1,1,1,0.0,2.0
2021-09-27 12:44:52.458,1015.0,36.0,3.0,1015.6426536927248,1,1,1,0.0,2.0
2021-09-27 12:44:52.459,1015.0,84.0,1.0,1018.4704217600038,1,1,1,0.0,2.0
2021-09-27 12:44:52.467,1063.0,84.0,1.0,1066.3142126033958,1,1,1,0.0,2.0
2021-09-27 12:44:52.468,1063.0,88.0,41.0,1067.4240019785952,1,1,1,0.0,2.0
2021-09-27 12:44:52.477,1061.0,42.0,41.0,1062.6222282636477,1,1,1,0.0,2.0
2021-09-27 12:44:52.478,1061.0,42.0,47.0,1062.8706412353292,1,1,1,0.0,2.0
2021-09-27 12:44:52.487,1038.0,45.0,-20.0,1039.1674552255763,1,1,1,0.0,2.0
2021-09-27 12:44:52.498,1107.0,45.0,-20.0,1108.094761290748,1,1,1,0.0,2.0
2021-09-27 12:44:52.499,1107.0,95.0,66.0,1113.0274030768514,1,1,1,0.0,2.0
2021-09-27 12:44:52.508,1059.0,95.0,66.0,1065.2990190552134,1,1,1,0.0,2.0
2021-09-27 12:44:52.509,1059.0,126.0,40.0,1067.219283933719,1,1,1,0.0,2.0
2021-09-27 12:44:52.520,1003.0,9.0,0.0,1003.0403780506546,1,1,1,0.0,2.0
2021-09-27 12:44:52.526,998.0,-15.0,-38.0,998.835822345194,1,1,1,0.0,2.0
2021-09-27 12:44:52.538,976.0,49.0,-1.0,977.2297580405542,1,1,1,0.0,2.0
2021-09-27 12:44:52.547,1028.0,17.0,-12.0,1028.2105815444615,1,1,1,0.0,2.0
2021-09-27 12:44:52.557,995.0,29.0,-12.0,995.4948518199378,1,1,1,0.0,2.0
2021-09-27 12:44:52.565,1014.0,3.0,4.0,1014.012327341241,1,1,1,0.0,2.0
2021-09-27 12:44:52.575,1028.0,15.0,16.0,1028.2339228016162,1,1,1,0.0,2.0
2021-09-27 12:44:52.585,1030.0,25.0,29.0,1030.7114048073786,1,1,1,0.0,2.0
2021-09-27 12:44:52.595,1016.0,10.0,29.0,1016.4629850614336,1,1,1,0.0,2.0
2021-09-27 12:44:52.596,1016.0,10.0,29.0,1016.4629850614336,1,1,1,0.0,2.0
2021-09-27 12:44:52.605,1000.0,3.0,29.0,1000.4249097258624,1,1,1,0.0,2.0
2021-09-27 12:44:52.606,1000.0,3.0,7.0,1000.0289995795122,1,1,1,0.0,2.0
2021-09-27 12:44:52.615,1005.0,-3.0,-3.0,1005.0089551839824,1,1,1,0.0,2.0
2021-09-27 12:44:52.624,999.0,3.0,-14.0,999.1025973342278,1,1,1,0.0,2.0
2021-09-27 12:44:52.634,1006.0,-13.0,-34.0,1006.6583332988408,1,1,1,0.0,2.0
2021-09-27 12:44:52.644,1005.0,-20.0,-6.0,1005.216892018832,1,1,1,0.0,2.0
2021-09-27 12:44:52.655,999.0,7.0,-11.0,999.0850814620344,1,1,1,0.0,2.0
2021-09-27 12:44:52.664,979.0,48.0,-25.0,980.4947730610296,1,1,1,0.0,2.0
2021-09-27 12:44:52.680,968.0,59.0,-25.0,970.1185494567146,1,1,1,0.0,2.0
2021-09-27 12:44:52.681,968.0,59.0,-7.0,969.8216330851772,1,1,1,0.0,2.0
2021-09-27 12:44:52.684,989.0,-42.0,-7.0,989.9161580659244,1,1,1,0.0,2.0
2021-09-27 12:44:52.685,989.0,-42.0,11.0,989.9525241141616,1,1,1,0.0,2.0
2021-09-27 12:44:52.693,1024.0,-42.0,11.0,1024.919996877805,1,1,1,0.0,2.0
2021-09-27 12:44:52.694,1024.0,-10.0,2.0,1024.0507799909144,1,1,1,0.0,2.0
2021-09-27 12:44:52.704,1043.0,46.0,4.0,1044.021551501692,1,1,1,0.0,2.0
