time_stamp,Acceleration_X,Acceleration_Y,Acceleration_Z,magnitude,STD_Status_right,STD_Status_left,STD_Status_both,KMeans,KMeans_convert
2021-08-31 10:45:31.244,1022.0,18.0,6.0,1022.176110071058,1,1,1,0.0,2.0
2021-08-31 10:45:31.245,1022.0,18.0,12.0,1022.2289371760124,1,1,1,0.0,2.0
2021-08-31 10:45:31.254,1017.0,91.0,12.0,1021.1336837064968,1,1,1,0.0,2.0
2021-08-31 10:45:31.264,1006.0,128.0,16.0,1014.2366587734836,1,1,1,0.0,2.0
2021-08-31 10:45:31.274,990.0,128.0,16.0,998.3686693802044,1,1,1,0.0,2.0
2021-08-31 10:45:31.275,990.0,-27.0,-18.0,990.5316754147744,1,1,1,0.0,2.0
2021-08-31 10:45:31.283,1003.0,4.0,9.0,1003.0483537696476,1,1,1,0.0,2.0
2021-08-31 10:45:31.293,1002.0,34.0,12.0,1002.6484927430948,1,1,1,0.0,2.0
2021-08-31 10:45:31.303,1009.0,44.0,18.0,1010.1192998849197,1,1,1,0.0,2.0
2021-08-31 10:45:31.315,1006.0,60.0,22.0,1008.0277773950478,1,1,1,0.0,2.0
2021-08-31 10:45:31.323,1029.0,43.0,22.0,1030.1330011217,1,1,1,0.0,2.0
2021-08-31 10:45:31.324,1029.0,43.0,15.0,1030.00728152766,1,1,1,0.0,2.0
2021-08-31 10:45:31.333,1005.0,47.0,26.0,1006.434299892447,1,1,1,0.0,2.0
2021-08-31 10:45:31.342,1013.0,41.0,2.0,1013.8313469211732,1,1,1,0.0,2.0
2021-08-31 10:45:31.352,997.0,63.0,17.0,999.1331242632284,1,1,1,0.0,2.0
2021-08-31 10:45:31.361,1003.0,63.0,17.0,1005.1203907990326,1,1,1,0.0,2.0
2021-08-31 10:45:31.362,1003.0,46.0,8.0,1004.086151682215,1,1,1,0.0,2.0
2021-08-31 10:45:31.371,1039.0,31.0,6.0,1039.4796775310233,1,1,1,0.0,2.0
2021-08-31 10:45:31.381,1033.0,35.0,15.0,1033.701601043551,1,1,1,0.0,2.0
2021-08-31 10:45:31.391,1016.0,91.0,2.0,1020.0691153054288,1,1,1,0.0,2.0
2021-08-31 10:45:31.400,999.0,91.0,2.0,1003.1380762387598,1,1,1,0.0,2.0
2021-08-31 10:45:31.401,999.0,96.0,-13.0,1003.6862059428734,1,1,1,0.0,2.0
2021-08-31 10:45:31.410,988.0,116.0,-20.0,994.98743710662,1,1,1,0.0,2.0
2021-08-31 10:45:31.421,961.0,104.0,-25.0,966.9343307588164,1,1,1,0.0,2.0
2021-08-31 10:45:31.431,1025.0,-38.0,13.0,1025.7865274997523,1,1,1,0.0,2.0
2021-08-31 10:45:31.439,1027.0,-38.0,13.0,1027.7849969716428,1,1,1,0.0,2.0
2021-08-31 10:45:31.440,1027.0,-16.0,19.0,1027.300345565989,1,1,1,0.0,2.0
2021-08-31 10:45:31.449,1042.0,11.0,19.0,1042.2312603256537,1,1,1,0.0,2.0
2021-08-31 10:45:31.450,1042.0,11.0,28.0,1042.4341705834474,1,1,1,0.0,2.0
2021-08-31 10:45:31.460,1040.0,46.0,34.0,1041.5718890215885,1,1,1,0.0,2.0
2021-08-31 10:45:31.469,1037.0,79.0,35.0,1040.5935806067612,1,1,1,0.0,2.0
2021-08-31 10:45:31.479,980.0,79.0,35.0,983.8018093091716,1,1,1,0.0,2.0
2021-08-31 10:45:31.480,980.0,20.0,-23.0,980.4738650264984,1,1,1,0.0,2.0
2021-08-31 10:45:31.489,992.0,38.0,-17.0,992.873103674382,1,1,1,0.0,2.0
2021-08-31 10:45:31.498,985.0,52.0,-1.0,986.3721407258012,1,1,1,0.0,2.0
2021-08-31 10:45:31.508,990.0,49.0,-20.0,991.4136371868202,1,1,1,0.0,2.0
2021-08-31 10:45:31.518,1001.0,36.0,-11.0,1001.7075421499032,1,1,1,0.0,2.0
2021-08-31 10:45:31.527,1024.0,55.0,-11.0,1025.5349823384863,1,1,1,0.0,2.0
2021-08-31 10:45:31.528,1024.0,55.0,30.0,1025.9147138042226,1,1,1,0.0,2.0
2021-08-31 10:45:31.537,1016.0,47.0,30.0,1017.5288693693168,1,1,1,0.0,2.0
2021-08-31 10:45:31.547,1018.0,17.0,9.0,1018.1817126623322,1,1,1,0.0,2.0
2021-08-31 10:45:31.557,996.0,47.0,24.0,997.3971124883008,1,1,1,0.0,2.0
2021-08-31 10:45:31.566,1000.0,47.0,24.0,1001.3915318195976,1,1,1,0.0,2.0
2021-08-31 10:45:31.567,1000.0,46.0,17.0,1001.2017778649816,1,1,1,0.0,2.0
2021-08-31 10:45:31.576,1001.0,28.0,22.0,1001.6331663837816,1,1,1,0.0,2.0
2021-08-31 10:45:31.587,1037.0,36.0,0.0,1037.6246913022069,1,1,1,0.0,2.0
2021-08-31 10:45:31.596,1027.0,93.0,4.0,1031.209968920006,1,1,1,0.0,2.0
2021-08-31 10:45:31.605,999.0,93.0,4.0,1003.327463991692,1,1,1,0.0,2.0
2021-08-31 10:45:31.606,999.0,102.0,-9.0,1004.2340364675956,1,1,1,0.0,2.0
2021-08-31 10:45:31.616,975.0,150.0,-19.0,986.6539413593806,1,1,1,0.0,2.0
2021-08-31 10:45:31.625,957.0,112.0,-23.0,963.8059970761752,1,1,1,0.0,2.0
2021-08-31 10:45:31.635,1031.0,112.0,-23.0,1037.3205868968378,1,1,1,0.0,2.0
2021-08-31 10:45:31.636,1031.0,-45.0,25.0,1032.284360048141,1,1,1,0.0,2.0
2021-08-31 10:45:31.645,1038.0,-41.0,18.0,1038.9653507215723,1,1,1,0.0,2.0
2021-08-31 10:45:31.654,1040.0,10.0,18.0,1040.2038261802347,1,1,1,0.0,2.0
2021-08-31 10:45:31.655,1040.0,10.0,34.0,1040.603670952587,1,1,1,0.0,2.0
2021-08-31 10:45:31.664,1040.0,38.0,33.0,1041.2170763102188,1,1,1,0.0,2.0
2021-08-31 10:45:31.702,985.0,20.0,-26.0,985.5460415424536,1,1,1,0.0,2.0
2021-08-31 10:45:31.706,989.0,41.0,-20.0,990.0515138112764,1,1,1,0.0,2.0
2021-08-31 10:45:31.709,984.0,56.0,-11.0,985.6535902638412,1,1,1,0.0,2.0
2021-08-31 10:45:31.721,989.0,50.0,-28.0,990.658871660674,1,1,1,0.0,2.0
2021-08-31 10:45:31.728,991.0,47.0,-22.0,992.357798377178,1,1,1,0.0,2.0
2021-08-31 10:45:31.732,1010.0,47.0,-22.0,1011.3322896061412,1,1,1,0.0,2.0
2021-08-31 10:45:31.733,1010.0,54.0,4.0,1011.4504436698816,1,1,1,0.0,2.0
2021-08-31 10:45:31.743,1020.0,50.0,4.0,1021.2325885908656,1,1,1,0.0,2.0
2021-08-31 10:45:31.744,1020.0,50.0,36.0,1021.859090090214,1,1,1,0.0,2.0
2021-08-31 10:45:31.752,1008.0,24.0,19.0,1008.4646746416058,1,1,1,0.0,2.0
2021-08-31 10:45:31.763,1002.0,39.0,13.0,1002.8429587926516,1,1,1,0.0,2.0
2021-08-31 10:45:31.772,1008.0,45.0,27.0,1009.3651470107336,1,1,1,0.0,2.0
2021-08-31 10:45:31.781,1002.0,18.0,27.0,1002.5253114011635,1,1,1,0.0,2.0
2021-08-31 10:45:31.782,1002.0,18.0,5.0,1002.174136565098,1,1,1,0.0,2.0
2021-08-31 10:45:31.791,1034.0,20.0,1.0,1034.193888978271,1,1,1,0.0,2.0
2021-08-31 10:45:31.801,1019.0,83.0,12.0,1022.4451085510656,1,1,1,0.0,2.0
2021-08-31 10:45:31.811,1000.0,83.0,12.0,1003.5103387608918,1,1,1,0.0,2.0
2021-08-31 10:45:31.812,1000.0,89.0,-1.0,1003.9531861595938,1,1,1,0.0,2.0
2021-08-31 10:45:31.820,986.0,131.0,-1.0,994.6647676478744,1,1,1,0.0,2.0
2021-08-31 10:45:31.821,986.0,131.0,-19.0,994.8457166817376,1,1,1,0.0,2.0
2021-08-31 10:45:31.830,964.0,125.0,-20.0,972.2761953272332,1,1,1,0.0,2.0
2021-08-31 10:45:31.840,1020.0,-36.0,25.0,1020.9412323929326,1,1,1,0.0,2.0
2021-08-31 10:45:31.850,1039.0,-36.0,19.0,1039.7970955912504,1,1,1,0.0,2.0
2021-08-31 10:45:31.859,1039.0,-36.0,19.0,1039.7970955912504,1,1,1,0.0,2.0
2021-08-31 10:45:31.860,1039.0,17.0,29.0,1039.5436498771949,1,1,1,0.0,2.0
2021-08-31 10:45:31.870,1034.0,17.0,29.0,1034.5462773602735,1,1,1,0.0,2.0
2021-08-31 10:45:31.871,1034.0,32.0,31.0,1034.9594194943104,1,1,1,0.0,2.0
2021-08-31 10:45:31.887,1036.0,70.0,33.0,1038.8864230511438,1,1,1,0.0,2.0
2021-08-31 10:45:31.890,1036.0,73.0,23.0,1038.823372859891,1,1,1,0.0,2.0
2021-08-31 10:45:31.899,988.0,35.0,-24.0,988.9110172305697,1,1,1,0.0,2.0
2021-08-31 10:45:31.908,982.0,51.0,-18.0,983.4881798984674,1,1,1,0.0,2.0
2021-08-31 10:45:31.918,992.0,51.0,-18.0,993.4732004437764,1,1,1,0.0,2.0
2021-08-31 10:45:31.919,992.0,52.0,-24.0,993.6518504989562,1,1,1,0.0,2.0
2021-08-31 10:45:31.928,983.0,33.0,-23.0,983.8226466187896,1,1,1,0.0,2.0
2021-08-31 10:45:31.938,1008.0,40.0,-13.0,1008.8770985605728,1,1,1,0.0,2.0
2021-08-31 10:45:31.947,1022.0,54.0,-13.0,1023.5081826736902,1,1,1,0.0,2.0
2021-08-31 10:45:31.948,1022.0,54.0,34.0,1023.9902343284334,1,1,1,0.0,2.0
2021-08-31 10:45:31.957,1031.0,23.0,11.0,1031.3151797583512,1,1,1,0.0,2.0
2021-08-31 10:45:31.968,1006.0,34.0,26.0,1006.9101250856504,1,1,1,0.0,2.0
2021-08-31 10:45:31.977,1001.0,56.0,27.0,1002.9287113249876,1,1,1,0.0,2.0
2021-08-31 10:45:31.986,1000.0,21.0,27.0,1000.5848289875275,1,1,1,0.0,2.0
2021-08-31 10:45:31.987,1000.0,21.0,18.0,1000.3824268748428,1,1,1,0.0,2.0
2021-08-31 10:45:31.996,1035.0,15.0,-1.0,1035.1091729861157,1,1,1,0.0,2.0
2021-08-31 10:45:32.006,1027.0,15.0,-1.0,1027.110023317853,1,1,1,0.0,2.0
2021-08-31 10:45:32.007,1027.0,60.0,1.0,1028.7516707155328,1,1,1,0.0,2.0
2021-08-31 10:45:32.016,1000.0,60.0,1.0,1001.798882011754,1,1,1,0.0,2.0
2021-08-31 10:45:32.017,1000.0,107.0,5.0,1005.7206371552688,1,1,1,0.0,2.0
2021-08-31 10:45:32.025,991.0,107.0,5.0,996.772290947135,1,1,1,0.0,2.0
2021-08-31 10:45:32.026,991.0,119.0,-15.0,998.2319369765726,1,1,1,0.0,2.0
2021-08-31 10:45:32.035,968.0,140.0,-15.0,978.1865875179438,1,1,1,0.0,2.0
2021-08-31 10:45:32.036,968.0,140.0,-9.0,978.1129791593607,1,1,1,0.0,2.0
2021-08-31 10:45:32.045,1019.0,-22.0,41.0,1020.0617628359568,1,1,1,0.0,2.0
2021-08-31 10:45:32.055,1033.0,-38.0,15.0,1033.8075256061934,1,1,1,0.0,2.0
2021-08-31 10:45:32.065,1043.0,3.0,26.0,1043.3283279965133,1,1,1,0.0,2.0
2021-08-31 10:45:32.075,1037.0,23.0,33.0,1037.7798417776287,1,1,1,0.0,2.0
2021-08-31 10:45:32.084,1040.0,61.0,28.0,1042.1636147937616,1,1,1,0.0,2.0
2021-08-31 10:45:32.094,1028.0,71.0,29.0,1030.856925087085,1,1,1,0.0,2.0
2021-08-31 10:45:32.104,987.0,30.0,-22.0,987.7008656470844,1,1,1,0.0,2.0
2021-08-31 10:45:32.113,1002.0,30.0,-22.0,1002.6903809252384,1,1,1,0.0,2.0
2021-08-31 10:45:32.114,1002.0,47.0,0.0,1003.1016897603154,1,1,1,0.0,2.0
2021-08-31 10:45:32.124,982.0,70.0,-8.0,984.524250590101,1,1,1,0.0,2.0
2021-08-31 10:45:32.133,997.0,42.0,-21.0,998.1052048757184,1,1,1,0.0,2.0
2021-08-31 10:45:32.143,993.0,41.0,-5.0,993.8586418600988,1,1,1,0.0,2.0
2021-08-31 10:45:32.152,1025.0,41.0,-5.0,1025.831857567311,1,1,1,0.0,2.0
2021-08-31 10:45:32.153,1025.0,49.0,25.0,1026.4750362283537,1,1,1,0.0,2.0
2021-08-31 10:45:32.163,1023.0,35.0,26.0,1023.9287084558182,1,1,1,0.0,2.0
2021-08-31 10:45:32.172,1014.0,35.0,26.0,1014.936943854149,1,1,1,0.0,2.0
2021-08-31 10:45:32.173,1014.0,15.0,19.0,1014.28891347584,1,1,1,0.0,2.0
2021-08-31 10:45:32.182,999.0,44.0,22.0,1000.2104778495376,1,1,1,0.0,2.0
2021-08-31 10:45:32.191,1004.0,44.0,22.0,1005.2044568146324,1,1,1,0.0,2.0
2021-08-31 10:45:32.192,1004.0,25.0,13.0,1004.3953404909842,1,1,1,0.0,2.0
2021-08-31 10:45:32.201,1040.0,9.0,-8.0,1040.0697092022249,1,1,1,0.0,2.0
2021-08-31 10:45:32.211,1028.0,42.0,0.0,1028.8576189152705,1,1,1,0.0,2.0
2021-08-31 10:45:32.221,1016.0,100.0,-2.0,1020.9113575624476,1,1,1,0.0,2.0
2021-08-31 10:45:32.231,987.0,96.0,-6.0,991.6758542991756,1,1,1,0.0,2.0
2021-08-31 10:45:32.241,973.0,145.0,-21.0,983.9690035768404,1,1,1,0.0,2.0
2021-08-31 10:45:32.250,1031.0,-25.0,40.0,1032.0784853876182,1,1,1,0.0,2.0
2021-08-31 10:45:32.260,1038.0,-45.0,25.0,1039.2757093283765,1,1,1,0.0,2.0
2021-08-31 10:45:32.270,1037.0,-6.0,11.0,1037.0756963693634,1,1,1,0.0,2.0
2021-08-31 10:45:32.280,1033.0,16.0,11.0,1033.1824621043468,1,1,1,0.0,2.0
2021-08-31 10:45:32.281,1033.0,16.0,33.0,1033.6508114445612,1,1,1,0.0,2.0
2021-08-31 10:45:32.289,1033.0,52.0,31.0,1034.772438751632,1,1,1,0.0,2.0
2021-08-31 10:45:32.299,1026.0,70.0,32.0,1028.8828893513587,1,1,1,0.0,2.0
2021-08-31 10:45:32.309,987.0,20.0,-22.0,987.4477201350966,1,1,1,0.0,2.0
2021-08-31 10:45:32.319,992.0,40.0,-8.0,992.8383554234798,1,1,1,0.0,2.0
2021-08-31 10:45:32.329,995.0,56.0,-6.0,996.5926951367844,1,1,1,0.0,2.0
2021-08-31 10:45:32.338,1002.0,47.0,-6.0,1003.1196339420338,1,1,1,0.0,2.0
2021-08-31 10:45:32.339,1002.0,47.0,-21.0,1003.3214838724424,1,1,1,0.0,2.0
2021-08-31 10:45:32.348,995.0,31.0,-13.0,995.5676772575534,1,1,1,0.0,2.0
2021-08-31 10:45:32.358,1027.0,50.0,38.0,1028.9183641086402,1,1,1,0.0,2.0
2021-08-31 10:45:32.368,1019.0,39.0,23.0,1020.0053921426102,1,1,1,0.0,2.0
2021-08-31 10:45:32.377,1020.0,9.0,3.0,1020.0441166929988,1,1,1,0.0,2.0
2021-08-31 10:45:32.387,995.0,49.0,3.0,996.2103191595638,1,1,1,0.0,2.0
2021-08-31 10:45:32.388,995.0,49.0,15.0,996.3187241038884,1,1,1,0.0,2.0
2021-08-31 10:45:32.397,1004.0,36.0,21.0,1004.8646675050328,1,1,1,0.0,2.0
2021-08-31 10:45:32.406,1036.0,4.0,21.0,1036.220536372446,1,1,1,0.0,2.0
2021-08-31 10:45:32.407,1036.0,4.0,-12.0,1036.0772171995677,1,1,1,0.0,2.0
2021-08-31 10:45:32.416,1027.0,32.0,1.0,1027.4989051089058,1,1,1,0.0,2.0
2021-08-31 10:45:32.426,1013.0,102.0,20.0,1018.3187123882188,1,1,1,0.0,2.0
2021-08-31 10:45:32.436,1002.0,81.0,20.0,1005.4675529324652,1,1,1,0.0,2.0
2021-08-31 10:45:32.437,1002.0,81.0,-4.0,1005.2765788577788,1,1,1,0.0,2.0
2021-08-31 10:45:32.445,986.0,130.0,-4.0,994.5411002065224,1,1,1,0.0,2.0
2021-08-31 10:45:32.446,986.0,130.0,-13.0,994.6180171301944,1,1,1,0.0,2.0
2021-08-31 10:45:32.455,1024.0,-18.0,31.0,1024.627249296055,1,1,1,0.0,2.0
2021-08-31 10:45:32.465,1018.0,-37.0,20.0,1018.8684900417718,1,1,1,0.0,2.0
2021-08-31 10:45:32.475,1041.0,-15.0,14.0,1041.2021897787192,1,1,1,0.0,2.0
2021-08-31 10:45:32.485,1027.0,17.0,28.0,1027.5222625325448,1,1,1,0.0,2.0
2021-08-31 10:45:32.495,1034.0,48.0,34.0,1035.6717626738696,1,1,1,0.0,2.0
2021-08-31 10:45:32.504,1027.0,73.0,27.0,1029.9451441703095,1,1,1,0.0,2.0
2021-08-31 10:45:32.514,990.0,16.0,-27.0,990.497349819776,1,1,1,0.0,2.0
2021-08-31 10:45:32.523,999.0,16.0,-27.0,999.4928714102967,1,1,1,0.0,2.0
2021-08-31 10:45:32.524,999.0,38.0,-4.0,999.7304636750848,1,1,1,0.0,2.0
2021-08-31 10:45:32.533,986.0,65.0,4.0,988.1482682269904,1,1,1,0.0,2.0
2021-08-31 10:45:32.543,998.0,65.0,4.0,1000.122492497794,1,1,1,0.0,2.0
2021-08-31 10:45:32.544,998.0,53.0,-17.0,999.5508991542152,1,1,1,0.0,2.0
2021-08-31 10:45:32.553,991.0,41.0,0.0,991.8477705777232,1,1,1,0.0,2.0
2021-08-31 10:45:32.563,1021.0,56.0,28.0,1022.9178852674344,1,1,1,0.0,2.0
2021-08-31 10:45:32.573,1023.0,43.0,26.0,1024.2333718445225,1,1,1,0.0,2.0
2021-08-31 10:45:32.582,1020.0,24.0,3.0,1020.2867244064288,1,1,1,0.0,2.0
2021-08-31 10:45:32.592,1001.0,24.0,3.0,1001.2921651546068,1,1,1,0.0,2.0
2021-08-31 10:45:32.593,1001.0,40.0,12.0,1001.8707501469438,1,1,1,0.0,2.0
2021-08-31 10:45:32.602,1002.0,48.0,19.0,1003.3289590159352,1,1,1,0.0,2.0
2021-08-31 10:45:32.611,1033.0,17.0,19.0,1033.3145697221153,1,1,1,0.0,2.0
2021-08-31 10:45:32.612,1033.0,17.0,-19.0,1033.3145697221153,1,1,1,0.0,2.0
2021-08-31 10:45:32.621,1034.0,6.0,-6.0,1034.0348156614457,1,1,1,0.0,2.0
2021-08-31 10:45:32.631,1011.0,101.0,6.0,1016.0501956104334,1,1,1,0.0,2.0
2021-08-31 10:45:32.641,994.0,95.0,-4.0,998.5374304451486,1,1,1,0.0,2.0
2021-08-31 10:45:32.651,983.0,131.0,-4.0,991.6985429050504,1,1,1,0.0,2.0
2021-08-31 10:45:32.652,983.0,131.0,-15.0,991.8039120713328,1,1,1,0.0,2.0
2021-08-31 10:45:32.660,960.0,131.0,-15.0,969.0128998109363,1,1,1,0.0,2.0
2021-08-31 10:45:32.663,960.0,111.0,-27.0,966.7729826593212,1,1,1,0.0,2.0
2021-08-31 10:45:32.670,1035.0,-36.0,37.0,1036.2866398830008,1,1,1,0.0,2.0
2021-08-31 10:45:32.680,1042.0,-24.0,9.0,1042.315211440378,1,1,1,0.0,2.0
2021-08-31 10:45:32.690,1041.0,-24.0,9.0,1041.3155141454486,1,1,1,0.0,2.0
2021-08-31 10:45:32.691,1041.0,4.0,32.0,1041.4993999038118,1,1,1,0.0,2.0
2021-08-31 10:45:32.701,1044.0,34.0,38.0,1045.244469011915,1,1,1,0.0,2.0
2021-08-31 10:45:32.736,1030.0,34.0,38.0,1031.2613635737548,1,1,1,0.0,2.0
2021-08-31 10:45:32.737,1030.0,63.0,20.0,1032.1186947245942,1,1,1,0.0,2.0
2021-08-31 10:45:32.742,992.0,42.0,-13.0,992.9738163718116,1,1,1,0.0,2.0
2021-08-31 10:45:32.749,994.0,56.0,-13.0,995.6610869166276,1,1,1,0.0,2.0
2021-08-31 10:45:32.750,994.0,56.0,-10.0,995.6264359688328,1,1,1,0.0,2.0
2021-08-31 10:45:32.751,994.0,56.0,-10.0,995.6264359688328,1,1,1,0.0,2.0
2021-08-31 10:45:32.752,994.0,64.0,-16.0,996.1867294839858,1,1,1,0.0,2.0
2021-08-31 10:45:32.760,994.0,31.0,-11.0,994.5441166685368,1,1,1,0.0,2.0
2021-08-31 10:45:32.768,1031.0,48.0,31.0,1032.5822001177437,1,1,1,0.0,2.0
2021-08-31 10:45:32.777,1026.0,48.0,31.0,1027.5898987436574,1,1,1,0.0,2.0
2021-08-31 10:45:32.778,1026.0,40.0,40.0,1027.558270853775,1,1,1,0.0,2.0
2021-08-31 10:45:32.787,1016.0,29.0,16.0,1016.5397188501784,1,1,1,0.0,2.0
2021-08-31 10:45:32.797,1004.0,28.0,4.0,1004.398327358225,1,1,1,0.0,2.0
2021-08-31 10:45:32.808,994.0,44.0,20.0,995.174356582805,1,1,1,0.0,2.0
2021-08-31 10:45:32.816,1033.0,44.0,20.0,1034.130069188591,1,1,1,0.0,2.0
2021-08-31 10:45:32.817,1033.0,3.0,-14.0,1033.0992207914978,1,1,1,0.0,2.0
2021-08-31 10:45:32.826,1027.0,3.0,-4.0,1027.012171300808,1,1,1,0.0,2.0
2021-08-31 10:45:32.836,1021.0,82.0,3.0,1024.291950568782,1,1,1,0.0,2.0
2021-08-31 10:45:32.846,1010.0,90.0,3.0,1014.0064102361484,1,1,1,0.0,2.0
2021-08-31 10:45:32.847,1010.0,90.0,-7.0,1014.0261337855154,1,1,1,0.0,2.0
2021-08-31 10:45:32.856,985.0,102.0,-19.0,990.4493929525122,1,1,1,0.0,2.0
2021-08-31 10:45:32.866,965.0,117.0,-31.0,972.561052068198,1,1,1,0.0,2.0
2021-08-31 10:45:32.875,1024.0,-14.0,33.0,1024.627249296055,1,1,1,0.0,2.0
2021-08-31 10:45:32.885,1033.0,-46.0,14.0,1034.1184651673134,1,1,1,0.0,2.0
2021-08-31 10:45:32.901,1031.0,3.0,43.0,1031.9006735146556,1,1,1,0.0,2.0
2021-08-31 10:45:32.904,1041.0,24.0,43.0,1042.1640945647666,1,1,1,0.0,2.0
2021-08-31 10:45:32.905,1041.0,24.0,34.0,1041.8315602821792,1,1,1,0.0,2.0
2021-08-31 10:45:32.914,1036.0,61.0,32.0,1038.287532430203,1,1,1,0.0,2.0
2021-08-31 10:45:32.924,978.0,17.0,-32.0,978.6710376832452,1,1,1,0.0,2.0
2021-08-31 10:45:32.935,983.0,29.0,-28.0,983.8262041641298,1,1,1,0.0,2.0
2021-08-31 10:45:32.943,990.0,29.0,-28.0,990.8203671705584,1,1,1,0.0,2.0
2021-08-31 10:45:32.944,990.0,47.0,-13.0,991.2002824858356,1,1,1,0.0,2.0
2021-08-31 10:45:32.954,987.0,61.0,-19.0,989.0657207688477,1,1,1,0.0,2.0
2021-08-31 10:45:32.963,994.0,42.0,-19.0,995.0683393616742,1,1,1,0.0,2.0
2021-08-31 10:45:32.973,1032.0,71.0,37.0,1035.1009612593352,1,1,1,0.0,2.0
2021-08-31 10:45:32.983,1029.0,71.0,37.0,1032.109974760442,1,1,1,0.0,2.0
2021-08-31 10:45:32.984,1029.0,48.0,29.0,1030.5270496207268,1,1,1,0.0,2.0
2021-08-31 10:45:32.992,1018.0,45.0,21.0,1019.2104787530396,1,1,1,0.0,2.0
2021-08-31 10:45:33.002,1011.0,17.0,6.0,1011.1607191737622,1,1,1,0.0,2.0
2021-08-31 10:45:33.012,991.0,45.0,32.0,992.5371529570064,1,1,1,0.0,2.0
2021-08-31 10:45:33.022,1023.0,7.0,-11.0,1023.083085580052,1,1,1,0.0,2.0
2021-08-31 10:45:33.032,1029.0,0.0,-20.0,1029.1943451068898,1,1,1,0.0,2.0
2021-08-31 10:45:33.042,1027.0,78.0,-5.0,1029.969902472883,1,1,1,0.0,2.0
2021-08-31 10:45:33.051,1011.0,78.0,-5.0,1014.0167651474012,1,1,1,0.0,2.0
2021-08-31 10:45:33.052,1011.0,106.0,1.0,1016.5421781706848,1,1,1,0.0,2.0
2021-08-31 10:45:33.061,993.0,110.0,-12.0,999.1461354576716,1,1,1,0.0,2.0
2021-08-31 10:45:33.070,976.0,110.0,-12.0,982.2525133589633,1,1,1,0.0,2.0
2021-08-31 10:45:33.071,976.0,142.0,-24.0,986.5677878382204,1,1,1,0.0,2.0
2021-08-31 10:45:33.080,1020.0,-23.0,34.0,1020.8256462295606,1,1,1,0.0,2.0
2021-08-31 10:45:33.090,1043.0,-23.0,34.0,1043.8074535085482,1,1,1,0.0,2.0
2021-08-31 10:45:33.091,1043.0,-58.0,21.0,1044.8224729589233,1,1,1,0.0,2.0
2021-08-31 10:45:33.100,1043.0,-29.0,32.0,1043.8936727464154,1,1,1,0.0,2.0
2021-08-31 10:45:33.109,1035.0,-29.0,32.0,1035.9005743796072,1,1,1,0.0,2.0
2021-08-31 10:45:33.110,1035.0,13.0,28.0,1035.460284124891,1,1,1,0.0,2.0
2021-08-31 10:45:33.119,1041.0,65.0,31.0,1043.487901223584,1,1,1,0.0,2.0
2021-08-31 10:45:33.129,984.0,15.0,-20.0,984.3175300684226,1,1,1,0.0,2.0
2021-08-31 10:45:33.139,986.0,15.0,-20.0,986.3168861983456,1,1,1,0.0,2.0
2021-08-31 10:45:33.140,986.0,25.0,-20.0,986.5196399464128,1,1,1,0.0,2.0
2021-08-31 10:45:33.149,985.0,39.0,-3.0,985.7763438021832,1,1,1,0.0,2.0
2021-08-31 10:45:33.158,990.0,61.0,-3.0,991.8820494393474,1,1,1,0.0,2.0
2021-08-31 10:45:33.159,990.0,61.0,-8.0,991.9097741226266,1,1,1,0.0,2.0
2021-08-31 10:45:33.168,997.0,42.0,-22.0,998.1267454587118,1,1,1,0.0,2.0
2021-08-31 10:45:33.178,1028.0,83.0,39.0,1032.0823610545815,1,1,1,0.0,2.0
2021-08-31 10:45:33.188,1032.0,57.0,32.0,1034.0681795703802,1,1,1,0.0,2.0
2021-08-31 10:45:33.198,1016.0,51.0,32.0,1017.782393245236,1,1,1,0.0,2.0
2021-08-31 10:45:33.208,1016.0,17.0,4.0,1016.150087339464,1,1,1,0.0,2.0
2021-08-31 10:45:33.217,992.0,41.0,26.0,993.1872935151758,1,1,1,0.0,2.0
2021-08-31 10:45:33.227,1006.0,33.0,20.0,1006.7397876313422,1,1,1,0.0,2.0
2021-08-31 10:45:33.236,1027.0,33.0,20.0,1027.724671300636,1,1,1,0.0,2.0
2021-08-31 10:45:33.237,1027.0,16.0,-6.0,1027.1421517978902,1,1,1,0.0,2.0
2021-08-31 10:45:33.249,1023.0,35.0,-1.0,1023.5990425943158,1,1,1,0.0,2.0
2021-08-31 10:45:33.256,1015.0,107.0,4.0,1020.632157047778,1,1,1,0.0,2.0
2021-08-31 10:45:33.266,996.0,109.0,-5.0,1001.959081000816,1,1,1,0.0,2.0
2021-08-31 10:45:33.275,985.0,109.0,-5.0,991.025226722307,1,1,1,0.0,2.0
2021-08-31 10:45:33.276,985.0,140.0,-15.0,995.0125627347628,1,1,1,0.0,2.0
2021-08-31 10:45:33.285,1025.0,-19.0,28.0,1025.5583844911023,1,1,1,0.0,2.0
2021-08-31 10:45:33.296,1028.0,-42.0,21.0,1029.0719119672833,1,1,1,0.0,2.0
2021-08-31 10:45:33.305,1040.0,-41.0,17.0,1040.946684513669,1,1,1,0.0,2.0
2021-08-31 10:45:33.315,1039.0,10.0,28.0,1039.425321992879,1,1,1,0.0,2.0
2021-08-31 10:45:33.324,1044.0,39.0,28.0,1045.1033441722402,1,1,1,0.0,2.0
2021-08-31 10:45:33.325,1044.0,39.0,34.0,1045.2813018513243,1,1,1,0.0,2.0
2021-08-31 10:45:33.334,984.0,29.0,-17.0,984.5740195637908,1,1,1,0.0,2.0
2021-08-31 10:45:33.344,987.0,29.0,-17.0,987.5722758360524,1,1,1,0.0,2.0
2021-08-31 10:45:33.345,987.0,29.0,-22.0,987.67099785303,1,1,1,0.0,2.0
2021-08-31 10:45:33.354,986.0,38.0,-8.0,986.7644095730246,1,1,1,0.0,2.0
2021-08-31 10:45:33.364,983.0,54.0,-8.0,984.5146012121912,1,1,1,0.0,2.0
2021-08-31 10:45:33.373,991.0,40.0,-22.0,992.0509059519072,1,1,1,0.0,2.0
2021-08-31 10:45:33.383,1001.0,47.0,-11.0,1002.16316036861,1,1,1,0.0,2.0
2021-08-31 10:45:33.393,1025.0,64.0,35.0,1027.5923316179428,1,1,1,0.0,2.0
2021-08-31 10:45:33.403,1018.0,59.0,35.0,1020.3087767925942,1,1,1,0.0,2.0
2021-08-31 10:45:33.404,1018.0,59.0,31.0,1020.1793959887644,1,1,1,0.0,2.0
2021-08-31 10:45:33.412,1021.0,11.0,5.0,1021.07149602758,1,1,1,0.0,2.0
2021-08-31 10:45:33.422,1002.0,32.0,21.0,1002.7307714436612,1,1,1,0.0,2.0
2021-08-31 10:45:33.432,1001.0,34.0,23.0,1001.8413047983198,1,1,1,0.0,2.0
2021-08-31 10:45:33.441,1035.0,34.0,23.0,1035.8136898110586,1,1,1,0.0,2.0
2021-08-31 10:45:33.442,1035.0,12.0,-23.0,1035.3250697244805,1,1,1,0.0,2.0
2021-08-31 10:45:33.452,1029.0,22.0,-14.0,1029.3303648489148,1,1,1,0.0,2.0
2021-08-31 10:45:33.461,1014.0,93.0,5.0,1018.2681375747744,1,1,1,0.0,2.0
2021-08-31 10:45:33.471,996.0,110.0,5.0,1002.068360941508,1,1,1,0.0,2.0
2021-08-31 10:45:33.472,996.0,110.0,-3.0,1002.0603774224386,1,1,1,0.0,2.0
2021-08-31 10:45:33.481,975.0,137.0,-16.0,984.7080785694816,1,1,1,0.0,2.0
2021-08-31 10:45:33.490,1024.0,-11.0,-16.0,1024.1840654882303,1,1,1,0.0,2.0
2021-08-31 10:45:33.491,1024.0,-11.0,35.0,1024.6570157862582,1,1,1,0.0,2.0
2021-08-31 10:45:33.501,1036.0,-37.0,39.0,1037.39384999141,1,1,1,0.0,2.0
2021-08-31 10:45:33.510,1050.0,-51.0,39.0,1051.9610258940204,1,1,1,0.0,2.0
2021-08-31 10:45:33.511,1050.0,-51.0,19.0,1051.4095301070845,1,1,1,0.0,2.0
2021-08-31 10:45:33.520,1038.0,-4.0,24.0,1038.2851246165478,1,1,1,0.0,2.0
2021-08-31 10:45:33.529,1024.0,49.0,24.0,1025.452583009083,1,1,1,0.0,2.0
2021-08-31 10:45:33.530,1024.0,49.0,33.0,1025.7026859670398,1,1,1,0.0,2.0
2021-08-31 10:45:33.539,1005.0,-6.0,-22.0,1005.2586731782023,1,1,1,0.0,2.0
2021-08-31 10:45:33.549,983.0,7.0,-26.0,983.3686999289738,1,1,1,0.0,2.0
2021-08-31 10:45:33.559,983.0,36.0,-26.0,984.0025406471266,1,1,1,0.0,2.0
2021-08-31 10:45:33.560,983.0,36.0,-22.0,983.9049750865172,1,1,1,0.0,2.0
2021-08-31 10:45:33.568,995.0,36.0,-22.0,995.8940706721776,1,1,1,0.0,2.0
2021-08-31 10:45:33.569,995.0,59.0,5.0,996.7602520165016,1,1,1,0.0,2.0
2021-08-31 10:45:33.578,993.0,54.0,-6.0,994.485294008916,1,1,1,0.0,2.0
2021-08-31 10:45:33.588,1006.0,41.0,-15.0,1006.9468704951618,1,1,1,0.0,2.0
2021-08-31 10:45:33.598,1021.0,62.0,36.0,1023.514044847456,1,1,1,0.0,2.0
2021-08-31 10:45:33.608,1025.0,62.0,36.0,1027.5042578987204,1,1,1,0.0,2.0
2021-08-31 10:45:33.609,1025.0,52.0,27.0,1026.673268377043,1,1,1,0.0,2.0
2021-08-31 10:45:33.617,1016.0,31.0,19.0,1016.650382383246,1,1,1,0.0,2.0
2021-08-31 10:45:33.628,1006.0,22.0,11.0,1006.3006508991236,1,1,1,0.0,2.0
2021-08-31 10:45:33.637,999.0,47.0,17.0,1000.2494688826384,1,1,1,0.0,2.0
2021-08-31 10:45:33.647,1018.0,17.0,-15.0,1018.2524244999372,1,1,1,0.0,2.0
2021-08-31 10:45:33.657,1024.0,0.0,-19.0,1024.1762543624998,1,1,1,0.0,2.0
2021-08-31 10:45:33.666,1018.0,0.0,-19.0,1018.1772930094248,1,1,1,0.0,2.0
2021-08-31 10:45:33.667,1018.0,73.0,0.0,1020.6140308657332,1,1,1,0.0,2.0
2021-08-31 10:45:33.676,1008.0,111.0,4.0,1014.1010797745952,1,1,1,0.0,2.0
2021-08-31 10:45:33.686,993.0,110.0,-7.0,999.0985937333712,1,1,1,0.0,2.0
2021-08-31 10:45:33.696,1018.0,-10.0,34.0,1018.6167090716704,1,1,1,0.0,2.0
2021-08-31 10:45:33.705,1029.0,-23.0,42.0,1030.1135859700132,1,1,1,0.0,2.0
2021-08-31 10:45:33.715,1048.0,-23.0,42.0,1049.093418147307,1,1,1,0.0,2.0
2021-08-31 10:45:33.716,1048.0,-54.0,9.0,1049.4288923028564,1,1,1,0.0,2.0
2021-08-31 10:45:33.725,1043.0,-17.0,13.0,1043.2195358600222,1,1,1,0.0,2.0
2021-08-31 10:45:33.765,1032.0,21.0,25.0,1032.5163436963117,1,1,1,0.0,2.0
2021-08-31 10:45:33.773,1009.0,24.0,-20.0,1009.4835313168808,1,1,1,0.0,2.0
2021-08-31 10:45:33.780,993.0,44.0,1.0,993.974848776366,1,1,1,0.0,2.0
2021-08-31 10:45:33.783,997.0,49.0,-2.0,998.205389686912,1,1,1,0.0,2.0
2021-08-31 10:45:33.794,1024.0,75.0,33.0,1027.2730893000166,1,1,1,0.0,2.0
2021-08-31 10:45:33.803,1026.0,75.0,33.0,1029.2667292786646,1,1,1,0.0,2.0
2021-08-31 10:45:33.814,1029.0,55.0,40.0,1031.2448787751628,1,1,1,0.0,2.0
2021-08-31 10:45:33.822,1022.0,42.0,21.0,1023.078198379772,1,1,1,0.0,2.0
2021-08-31 10:45:33.832,1013.0,20.0,10.0,1013.2467616528562,1,1,1,0.0,2.0
2021-08-31 10:45:33.842,1030.0,-13.0,-15.0,1030.1912443813528,1,1,1,0.0,2.0
2021-08-31 10:45:33.852,1018.0,-31.0,-13.0,1018.5548586109636,1,1,1,0.0,2.0
2021-08-31 10:45:33.862,1034.0,-6.0,-19.0,1034.1919551031133,1,1,1,0.0,2.0
2021-08-31 10:45:33.871,1020.0,34.0,2.0,1020.5684690406616,1,1,1,0.0,2.0
2021-08-31 10:45:33.881,1013.0,126.0,7.0,1020.8300544165028,1,1,1,0.0,2.0
2021-08-31 10:45:33.891,995.0,91.0,-5.0,999.1651515140028,1,1,1,0.0,2.0
2021-08-31 10:45:33.900,1006.0,91.0,-5.0,1010.1197948758356,1,1,1,0.0,2.0
2021-08-31 10:45:33.901,1006.0,4.0,25.0,1006.318538038528,1,1,1,0.0,2.0
2021-08-31 10:45:33.911,1028.0,-1.0,39.0,1028.74000602679,1,1,1,0.0,2.0
2021-08-31 10:45:33.928,1018.0,-51.0,39.0,1020.0225487703692,1,1,1,0.0,2.0
2021-08-31 10:45:33.929,1018.0,-51.0,15.0,1019.3870707439838,1,1,1,0.0,2.0
2021-08-31 10:45:33.931,1032.0,-28.0,4.0,1032.3875241400392,1,1,1,0.0,2.0
2021-08-31 10:45:33.940,1034.0,20.0,24.0,1034.4718459194528,1,1,1,0.0,2.0
2021-08-31 10:45:33.950,1020.0,35.0,24.0,1020.8824614028788,1,1,1,0.0,2.0
2021-08-31 10:45:33.951,1020.0,35.0,-14.0,1020.696330942754,1,1,1,0.0,2.0
2021-08-31 10:45:33.959,996.0,6.0,-27.0,996.3839621350796,1,1,1,0.0,2.0
2021-08-31 10:45:33.969,985.0,20.0,-30.0,985.6596775763936,1,1,1,0.0,2.0
2021-08-31 10:45:33.978,989.0,20.0,-30.0,989.657011292296,1,1,1,0.0,2.0
2021-08-31 10:45:33.979,989.0,49.0,-4.0,990.2211874121862,1,1,1,0.0,2.0
2021-08-31 10:45:33.988,992.0,57.0,-4.0,993.6443025549936,1,1,1,0.0,2.0
2021-08-31 10:45:33.989,992.0,57.0,1.0,993.636754553695,1,1,1,0.0,2.0
2021-08-31 10:45:33.999,1007.0,46.0,-14.0,1008.1473106644684,1,1,1,0.0,2.0
2021-08-31 10:45:34.009,1024.0,81.0,45.0,1028.183835702546,1,1,1,0.0,2.0
2021-08-31 10:45:34.018,1032.0,64.0,32.0,1034.4776459643774,1,1,1,0.0,2.0
2021-08-31 10:45:34.027,1025.0,64.0,32.0,1027.4945255328614,1,1,1,0.0,2.0
2021-08-31 10:45:34.028,1025.0,48.0,29.0,1026.5329999566502,1,1,1,0.0,2.0
2021-08-31 10:45:34.037,1012.0,17.0,2.0,1012.1447524934366,1,1,1,0.0,2.0
2021-08-31 10:45:34.051,994.0,41.0,21.0,995.0668319263788,1,1,1,0.0,2.0
2021-08-31 10:45:34.057,1018.0,-20.0,-19.0,1018.3737035096692,1,1,1,0.0,2.0
2021-08-31 10:45:34.066,1033.0,-20.0,-19.0,1033.3682789789902,1,1,1,0.0,2.0
2021-08-31 10:45:34.067,1033.0,22.0,-20.0,1033.4277913816718,1,1,1,0.0,2.0
2021-08-31 10:45:34.076,1016.0,3.0,0.0,1016.0044291242042,1,1,1,0.0,2.0
2021-08-31 10:45:34.086,1020.0,117.0,11.0,1026.747291206556,1,1,1,0.0,2.0
2021-08-31 10:45:34.097,998.0,103.0,0.0,1003.3010515294,1,1,1,0.0,2.0
2021-08-31 10:45:34.105,997.0,103.0,0.0,1002.3063403969866,1,1,1,0.0,2.0
2021-08-31 10:45:34.106,997.0,29.0,24.0,997.7103788174202,1,1,1,0.0,2.0
2021-08-31 10:45:34.115,1031.0,-22.0,24.0,1031.5139359213715,1,1,1,0.0,2.0
2021-08-31 10:45:34.116,1031.0,-22.0,42.0,1032.0896278909115,1,1,1,0.0,2.0
2021-08-31 10:45:34.125,1037.0,-42.0,32.0,1038.3433921396138,1,1,1,0.0,2.0
2021-08-31 10:45:34.135,1046.0,-43.0,21.0,1047.0940740926767,1,1,1,0.0,2.0
2021-08-31 10:45:34.146,1027.0,11.0,27.0,1027.4137433380963,1,1,1,0.0,2.0
2021-08-31 10:45:34.154,1015.0,42.0,-11.0,1015.9281470655294,1,1,1,0.0,2.0
2021-08-31 10:45:34.164,998.0,32.0,-23.0,998.7777530562042,1,1,1,0.0,2.0
2021-08-31 10:45:34.174,979.0,27.0,-23.0,979.6422816518284,1,1,1,0.0,2.0
2021-08-31 10:45:34.184,977.0,37.0,-17.0,977.8481477202888,1,1,1,0.0,2.0
2021-08-31 10:45:34.194,992.0,56.0,-17.0,993.7248110015166,1,1,1,0.0,2.0
2021-08-31 10:45:34.195,992.0,56.0,-4.0,993.5874395341358,1,1,1,0.0,2.0
2021-08-31 10:45:34.204,998.0,57.0,-14.0,999.7244620394162,1,1,1,0.0,2.0
2021-08-31 10:45:34.213,1023.0,75.0,32.0,1026.2446102172717,1,1,1,0.0,2.0
2021-08-31 10:45:34.223,1037.0,58.0,38.0,1039.3156402171576,1,1,1,0.0,2.0
2021-08-31 10:45:34.232,1026.0,58.0,38.0,1028.3404105645172,1,1,1,0.0,2.0
2021-08-31 10:45:34.233,1026.0,64.0,28.0,1028.3754178314457,1,1,1,0.0,2.0
2021-08-31 10:45:34.243,1009.0,29.0,8.0,1009.4483642069068,1,1,1,0.0,2.0
2021-08-31 10:45:34.252,1001.0,29.0,8.0,1001.4519459265132,1,1,1,0.0,2.0
2021-08-31 10:45:34.253,1001.0,30.0,18.0,1001.611202014035,1,1,1,0.0,2.0
2021-08-31 10:45:34.262,1029.0,-20.0,-20.0,1029.3886535220795,1,1,1,0.0,2.0
2021-08-31 10:45:34.272,1039.0,4.0,-20.0,1039.200173210147,1,1,1,0.0,2.0
2021-08-31 10:45:34.281,1027.0,6.0,-20.0,1027.2122468117288,1,1,1,0.0,2.0
2021-08-31 10:45:34.282,1027.0,6.0,-2.0,1027.019474012056,1,1,1,0.0,2.0
2021-08-31 10:45:34.291,1008.0,113.0,3.0,1014.318490416102,1,1,1,0.0,2.0
2021-08-31 10:45:34.301,1007.0,105.0,3.0,1012.4638265143104,1,1,1,0.0,2.0
2021-08-31 10:45:34.302,1007.0,105.0,-15.0,1012.5704913733168,1,1,1,0.0,2.0
2021-08-31 10:45:34.312,990.0,36.0,27.0,991.0221995495358,1,1,1,0.0,2.0
2021-08-31 10:45:34.320,1029.0,36.0,27.0,1029.983495013391,1,1,1,0.0,2.0
2021-08-31 10:45:34.321,1029.0,-21.0,40.0,1029.991262098859,1,1,1,0.0,2.0
2021-08-31 10:45:34.330,1028.0,-57.0,27.0,1029.9330075301011,1,1,1,0.0,2.0
2021-08-31 10:45:34.341,1046.0,-57.0,18.0,1047.7065428830729,1,1,1,0.0,2.0
2021-08-31 10:45:34.350,1038.0,7.0,29.0,1038.4286205608937,1,1,1,0.0,2.0
2021-08-31 10:45:34.360,1020.0,58.0,29.0,1022.0591959373,1,1,1,0.0,2.0
2021-08-31 10:45:34.361,1020.0,58.0,-8.0,1021.6790102571356,1,1,1,0.0,2.0
2021-08-31 10:45:34.369,999.0,13.0,-30.0,999.5348918371984,1,1,1,0.0,2.0
2021-08-31 10:45:34.379,978.0,24.0,-28.0,978.6950495430126,1,1,1,0.0,2.0
2021-08-31 10:45:34.389,986.0,31.0,-12.0,986.5601856957334,1,1,1,0.0,2.0
2021-08-31 10:45:34.399,986.0,47.0,-4.0,987.1276513197269,1,1,1,0.0,2.0
2021-08-31 10:45:34.409,997.0,63.0,-14.0,999.0865828345408,1,1,1,0.0,2.0
2021-08-31 10:45:34.418,1023.0,81.0,37.0,1026.8685407587477,1,1,1,0.0,2.0
2021-08-31 10:45:34.428,1028.0,64.0,44.0,1030.9296775241269,1,1,1,0.0,2.0
2021-08-31 10:45:34.438,1027.0,71.0,37.0,1030.1160128839858,1,1,1,0.0,2.0
2021-08-31 10:45:34.447,1018.0,35.0,37.0,1019.2732705216988,1,1,1,0.0,2.0
2021-08-31 10:45:34.448,1018.0,35.0,8.0,1018.6329073812608,1,1,1,0.0,2.0
2021-08-31 10:45:34.458,994.0,21.0,9.0,994.2625407808544,1,1,1,0.0,2.0
2021-08-31 10:45:34.467,1031.0,21.0,9.0,1031.253121207398,1,1,1,0.0,2.0
2021-08-31 10:45:34.470,1031.0,-26.0,-18.0,1031.4848520458263,1,1,1,0.0,2.0
2021-08-31 10:45:34.477,1027.0,9.0,-20.0,1027.2341505226548,1,1,1,0.0,2.0
2021-08-31 10:45:34.486,1022.0,3.0,-20.0,1022.200078262568,1,1,1,0.0,2.0
2021-08-31 10:45:34.487,1022.0,3.0,-12.0,1022.074850487967,1,1,1,0.0,2.0
2021-08-31 10:45:34.497,1015.0,91.0,3.0,1019.0755614771656,1,1,1,0.0,2.0
2021-08-31 10:45:34.506,1001.0,107.0,3.0,1006.7070080216984,1,1,1,0.0,2.0
2021-08-31 10:45:34.507,1001.0,107.0,-5.0,1006.714954691744,1,1,1,0.0,2.0
2021-08-31 10:45:34.516,982.0,65.0,30.0,984.6060125755886,1,1,1,0.0,2.0
2021-08-31 10:45:34.525,1029.0,65.0,30.0,1031.487275733443,1,1,1,0.0,2.0
2021-08-31 10:45:34.526,1029.0,-13.0,33.0,1029.611091626348,1,1,1,0.0,2.0
2021-08-31 10:45:34.535,1034.0,-20.0,44.0,1035.1289774709237,1,1,1,0.0,2.0
2021-08-31 10:45:34.545,1051.0,-61.0,15.0,1052.8755861924049,1,1,1,0.0,2.0
2021-08-31 10:45:34.555,1047.0,-6.0,30.0,1047.4468960286245,1,1,1,0.0,2.0
2021-08-31 10:45:34.564,1013.0,-6.0,30.0,1013.4618887753008,1,1,1,0.0,2.0
2021-08-31 10:45:34.565,1013.0,60.0,-3.0,1014.7797790653892,1,1,1,0.0,2.0
2021-08-31 10:45:34.574,1002.0,29.0,-17.0,1002.563713686068,1,1,1,0.0,2.0
2021-08-31 10:45:34.584,988.0,24.0,-31.0,988.777528061798,1,1,1,0.0,2.0
2021-08-31 10:45:34.594,978.0,29.0,-27.0,978.802329380146,1,1,1,0.0,2.0
2021-08-31 10:45:34.604,984.0,45.0,-27.0,985.3983965889126,1,1,1,0.0,2.0
2021-08-31 10:45:34.605,984.0,45.0,-3.0,985.0329943712544,1,1,1,0.0,2.0
2021-08-31 10:45:34.613,994.0,56.0,-3.0,995.5807350486448,1,1,1,0.0,2.0
2021-08-31 10:45:34.614,994.0,56.0,-14.0,995.6746456548948,1,1,1,0.0,2.0
2021-08-31 10:45:34.624,1028.0,89.0,38.0,1032.5449142773402,1,1,1,0.0,2.0
2021-08-31 10:45:34.633,1027.0,73.0,37.0,1030.2557934804347,1,1,1,0.0,2.0
2021-08-31 10:45:34.643,1041.0,63.0,28.0,1043.280403343224,1,1,1,0.0,2.0
2021-08-31 10:45:34.653,1016.0,45.0,20.0,1017.1927054398296,1,1,1,0.0,2.0
2021-08-31 10:45:34.663,1007.0,8.0,5.0,1007.044189695765,1,1,1,0.0,2.0
2021-08-31 10:45:34.672,1034.0,-24.0,-6.0,1034.2958957667772,1,1,1,0.0,2.0
2021-08-31 10:45:34.685,1024.0,-12.0,-13.0,1024.1528206278592,1,1,1,0.0,2.0
2021-08-31 10:45:34.691,1030.0,-12.0,-13.0,1030.151930542287,1,1,1,0.0,2.0
2021-08-31 10:45:34.692,1030.0,2.0,-13.0,1030.083977159144,1,1,1,0.0,2.0
2021-08-31 10:45:34.701,1023.0,37.0,0.0,1023.6688917809312,1,1,1,0.0,2.0
2021-08-31 10:45:34.711,1019.0,37.0,0.0,1019.6715157343564,1,1,1,0.0,2.0
2021-08-31 10:45:34.712,1019.0,122.0,9.0,1026.3167152492451,1,1,1,0.0,2.0
2021-08-31 10:45:34.721,972.0,85.0,26.0,976.0558385666262,1,1,1,0.0,2.0
2021-08-31 10:45:34.731,1009.0,12.0,21.0,1009.2898493495316,1,1,1,0.0,2.0
2021-08-31 10:45:34.740,1037.0,-14.0,39.0,1037.8275386594826,1,1,1,0.0,2.0
2021-08-31 10:45:34.750,1042.0,-59.0,26.0,1043.992816067237,1,1,1,0.0,2.0
2021-08-31 10:45:34.760,1045.0,-59.0,26.0,1046.9871059377951,1,1,1,0.0,2.0
2021-08-31 10:45:34.761,1045.0,-47.0,16.0,1046.178761015535,1,1,1,0.0,2.0
2021-08-31 10:45:34.770,1016.0,71.0,9.0,1018.5175501678898,1,1,1,0.0,2.0
2021-08-31 10:45:34.810,990.0,71.0,9.0,992.5834977471668,1,1,1,0.0,2.0
2021-08-31 10:45:34.811,990.0,14.0,-34.0,990.682592963054,1,1,1,0.0,2.0
2021-08-31 10:45:34.814,991.0,28.0,-18.0,991.5588736933374,1,1,1,0.0,2.0
2021-08-31 10:45:34.818,990.0,28.0,-18.0,990.5594378935572,1,1,1,0.0,2.0
2021-08-31 10:45:34.819,990.0,57.0,-10.0,991.6899717149508,1,1,1,0.0,2.0
2021-08-31 10:45:34.828,1026.0,71.0,-10.0,1028.5023091855458,1,1,1,0.0,2.0
2021-08-31 10:45:34.829,1026.0,71.0,40.0,1029.231266528568,1,1,1,0.0,2.0
2021-08-31 10:45:34.838,1025.0,71.0,40.0,1028.2344090721726,1,1,1,0.0,2.0
2021-08-31 10:45:34.839,1025.0,75.0,40.0,1028.5183518051583,1,1,1,0.0,2.0
2021-08-31 10:45:34.848,1044.0,51.0,32.0,1045.7346699808704,1,1,1,0.0,2.0
2021-08-31 10:45:34.858,1013.0,52.0,26.0,1014.6669404292228,1,1,1,0.0,2.0
2021-08-31 10:45:34.867,1011.0,19.0,11.0,1011.2383497474768,1,1,1,0.0,2.0
2021-08-31 10:45:34.877,1035.0,-13.0,-8.0,1035.112554266443,1,1,1,0.0,2.0
2021-08-31 10:45:34.887,1016.0,-22.0,-18.0,1016.3975600128132,1,1,1,0.0,2.0
2021-08-31 10:45:34.897,1031.0,3.0,-17.0,1031.1445097560284,1,1,1,0.0,2.0
2021-08-31 10:45:34.906,1021.0,15.0,3.0,1021.1145871056784,1,1,1,0.0,2.0
2021-08-31 10:45:34.917,1016.0,15.0,3.0,1016.1151509548512,1,1,1,0.0,2.0
2021-08-31 10:45:34.918,1016.0,123.0,7.0,1023.442230905096,1,1,1,0.0,2.0
2021-08-31 10:45:34.926,958.0,82.0,12.0,961.5778699616584,1,1,1,0.0,2.0
2021-08-31 10:45:34.943,982.0,25.0,20.0,982.5217554843252,1,1,1,0.0,2.0
2021-08-31 10:45:34.945,1026.0,-19.0,20.0,1026.370790698956,1,1,1,0.0,2.0
2021-08-31 10:45:34.946,1026.0,-19.0,42.0,1027.0350529558375,1,1,1,0.0,2.0
2021-08-31 10:45:34.955,1043.0,-48.0,32.0,1044.5941795740582,1,1,1,0.0,2.0
2021-08-31 10:45:34.965,1051.0,-48.0,32.0,1052.58206330908,1,1,1,0.0,2.0
2021-08-31 10:45:34.966,1051.0,-46.0,17.0,1052.14352633089,1,1,1,0.0,2.0
2021-08-31 10:45:34.975,1035.0,4.0,25.0,1035.309615525713,1,1,1,0.0,2.0
2021-08-31 10:45:34.984,1006.0,4.0,25.0,1006.318538038528,1,1,1,0.0,2.0
2021-08-31 10:45:34.985,1006.0,46.0,-11.0,1007.1112153084188,1,1,1,0.0,2.0
2021-08-31 10:45:34.994,1001.0,13.0,-24.0,1001.3720587274242,1,1,1,0.0,2.0
2021-08-31 10:45:35.004,975.0,18.0,-36.0,975.8304155948408,1,1,1,0.0,2.0
2021-08-31 10:45:35.014,988.0,18.0,-36.0,988.8194981896344,1,1,1,0.0,2.0
2021-08-31 10:45:35.015,988.0,27.0,-8.0,988.4012343173192,1,1,1,0.0,2.0
2021-08-31 10:45:35.023,1003.0,27.0,-8.0,1003.395236185622,1,1,1,0.0,2.0
2021-08-31 10:45:35.024,1003.0,54.0,7.0,1004.4769783325052,1,1,1,0.0,2.0
2021-08-31 10:45:35.033,1001.0,70.0,32.0,1003.954680252052,1,1,1,0.0,2.0
2021-08-31 10:45:35.043,1022.0,83.0,37.0,1026.0321632385603,1,1,1,0.0,2.0
2021-08-31 10:45:35.053,1029.0,71.0,40.0,1032.2218753737009,1,1,1,0.0,2.0
2021-08-31 10:45:35.064,1027.0,66.0,38.0,1029.819887164741,1,1,1,0.0,2.0
2021-08-31 10:45:35.072,1014.0,66.0,38.0,1016.8559386658466,1,1,1,0.0,2.0
2021-08-31 10:45:35.073,1014.0,23.0,6.0,1014.2785613429872,1,1,1,0.0,2.0
2021-08-31 10:45:35.083,1032.0,15.0,9.0,1032.1482451663617,1,1,1,0.0,2.0
2021-08-31 10:45:35.092,1036.0,-38.0,-20.0,1036.889579463503,1,1,1,0.0,2.0
2021-08-31 10:45:35.102,1037.0,0.0,-20.0,1037.192846099509,1,1,1,0.0,2.0
2021-08-31 10:45:35.112,1021.0,-10.0,-5.0,1021.0612126606318,1,1,1,0.0,2.0
2021-08-31 10:45:35.122,1018.0,117.0,12.0,1024.7716818882143,1,1,1,0.0,2.0
2021-08-31 10:45:35.131,976.0,87.0,10.0,979.9209151763216,1,1,1,0.0,2.0
2021-08-31 10:45:35.141,985.0,34.0,17.0,985.733229631628,1,1,1,0.0,2.0
2021-08-31 10:45:35.150,1021.0,34.0,17.0,1021.7073945117556,1,1,1,0.0,2.0
2021-08-31 10:45:35.151,1021.0,-11.0,38.0,1021.7661180524632,1,1,1,0.0,2.0
2021-08-31 10:45:35.160,1029.0,-25.0,40.0,1030.080579372313,1,1,1,0.0,2.0
2021-08-31 10:45:35.171,1045.0,-58.0,13.0,1046.6890655777388,1,1,1,0.0,2.0
2021-08-31 10:45:35.180,1031.0,-6.0,30.0,1031.453828341337,1,1,1,0.0,2.0
2021-08-31 10:45:35.190,1019.0,53.0,-7.0,1020.401391610184,1,1,1,0.0,2.0
2021-08-31 10:45:35.199,995.0,14.0,-7.0,995.123107962025,1,1,1,0.0,2.0
2021-08-31 10:45:35.200,995.0,14.0,-20.0,995.2994524262534,1,1,1,0.0,2.0
2021-08-31 10:45:35.209,985.0,24.0,-29.0,985.7190269037116,1,1,1,0.0,2.0
2021-08-31 10:45:35.220,980.0,39.0,-20.0,980.9796124283114,1,1,1,0.0,2.0
2021-08-31 10:45:35.229,996.0,56.0,0.0,997.573054968908,1,1,1,0.0,2.0
2021-08-31 10:45:35.239,1012.0,54.0,26.0,1013.7731501672354,1,1,1,0.0,2.0
2021-08-31 10:45:35.248,1024.0,79.0,48.0,1028.163897440481,1,1,1,0.0,2.0
2021-08-31 10:45:35.258,1039.0,68.0,34.0,1041.777807404247,1,1,1,0.0,2.0
2021-08-31 10:45:35.274,1033.0,67.0,29.0,1035.5766509534676,1,1,1,0.0,2.0
2021-08-31 10:45:35.278,1016.0,67.0,29.0,1018.619654238028,1,1,1,0.0,2.0
2021-08-31 10:45:35.279,1016.0,25.0,4.0,1016.3154037994308,1,1,1,0.0,2.0
2021-08-31 10:45:35.287,1033.0,34.0,3.0,1033.5637377539906,1,1,1,0.0,2.0
2021-08-31 10:45:35.297,1035.0,-39.0,-24.0,1036.0125481865557,1,1,1,0.0,2.0
2021-08-31 10:45:35.307,1021.0,-1.0,-20.0,1021.1963572202948,1,1,1,0.0,2.0
2021-08-31 10:45:35.316,1021.0,-1.0,-20.0,1021.1963572202948,1,1,1,0.0,2.0
2021-08-31 10:45:35.317,1021.0,-3.0,-11.0,1021.0636610907276,1,1,1,0.0,2.0
2021-08-31 10:45:35.327,1012.0,77.0,-11.0,1014.98472894916,1,1,1,0.0,2.0
2021-08-31 10:45:35.328,1012.0,77.0,10.0,1014.97438391321,1,1,1,0.0,2.0
2021-08-31 10:45:35.336,980.0,54.0,-10.0,981.537569326819,1,1,1,0.0,2.0
2021-08-31 10:45:35.346,976.0,60.0,23.0,978.1129791593607,1,1,1,0.0,2.0
2021-08-31 10:45:35.355,1028.0,60.0,23.0,1030.0063106602795,1,1,1,0.0,2.0
2021-08-31 10:45:35.356,1028.0,-3.0,25.0,1028.3083195228949,1,1,1,0.0,2.0
2021-08-31 10:45:35.365,1016.0,0.0,48.0,1017.1332262786424,1,1,1,0.0,2.0
2021-08-31 10:45:35.376,1050.0,-56.0,19.0,1051.6639197005857,1,1,1,0.0,2.0
2021-08-31 10:45:35.385,1034.0,-56.0,19.0,1035.6896253221812,1,1,1,0.0,2.0
2021-08-31 10:45:35.386,1034.0,-25.0,22.0,1034.5361279336744,1,1,1,0.0,2.0
2021-08-31 10:45:35.395,1023.0,57.0,-1.0,1024.5872339630237,1,1,1,0.0,2.0
2021-08-31 10:45:35.404,1010.0,57.0,-1.0,1011.6076314461056,1,1,1,0.0,2.0
2021-08-31 10:45:35.405,1010.0,24.0,-27.0,1010.6458331186054,1,1,1,0.0,2.0
2021-08-31 10:45:35.414,987.0,14.0,-31.0,987.5859456270124,1,1,1,0.0,2.0
2021-08-31 10:45:35.424,976.0,16.0,-14.0,976.231529914907,1,1,1,0.0,2.0
2021-08-31 10:45:35.434,984.0,16.0,-14.0,984.2296479988804,1,1,1,0.0,2.0
2021-08-31 10:45:35.435,984.0,57.0,7.0,985.6743884265228,1,1,1,0.0,2.0
2021-08-31 10:45:35.443,1005.0,57.0,7.0,1006.639458793465,1,1,1,0.0,2.0
2021-08-31 10:45:35.444,1005.0,50.0,18.0,1006.4039944276852,1,1,1,0.0,2.0
2021-08-31 10:45:35.453,1017.0,85.0,41.0,1021.3691790924572,1,1,1,0.0,2.0
2021-08-31 10:45:35.463,1033.0,62.0,45.0,1035.836859741919,1,1,1,0.0,2.0
2021-08-31 10:45:35.473,1045.0,65.0,39.0,1047.7456752475764,1,1,1,0.0,2.0
2021-08-31 10:45:35.484,1011.0,65.0,39.0,1013.8377582236716,1,1,1,0.0,2.0
2021-08-31 10:45:35.485,1011.0,58.0,18.0,1012.8222943833732,1,1,1,0.0,2.0
2021-08-31 10:45:35.492,994.0,13.0,18.0,994.2479570006668,1,1,1,0.0,2.0
2021-08-31 10:45:35.493,994.0,13.0,3.0,994.08953319105,1,1,1,0.0,2.0
2021-08-31 10:45:35.502,1036.0,13.0,3.0,1036.0859037743926,1,1,1,0.0,2.0
2021-08-31 10:45:35.503,1036.0,-18.0,-20.0,1036.3493619431624,1,1,1,0.0,2.0
2021-08-31 10:45:35.512,1014.0,6.0,-19.0,1014.1957404761666,1,1,1,0.0,2.0
2021-08-31 10:45:35.522,1017.0,-6.0,-6.0,1017.0353976140652,1,1,1,0.0,2.0
2021-08-31 10:45:35.531,1020.0,-6.0,-6.0,1020.0352935070432,1,1,1,0.0,2.0
2021-08-31 10:45:35.532,1020.0,71.0,6.0,1022.4856967214748,1,1,1,0.0,2.0
2021-08-31 10:45:35.541,1020.0,130.0,4.0,1028.2587223067935,1,1,1,0.0,2.0
2021-08-31 10:45:35.551,981.0,97.0,33.0,986.3361495960696,1,1,1,0.0,2.0
2021-08-31 10:45:35.561,1021.0,-1.0,26.0,1021.331483897368,1,1,1,0.0,2.0
2021-08-31 10:45:35.570,1026.0,-1.0,26.0,1026.3298689992414,1,1,1,0.0,2.0
2021-08-31 10:45:35.571,1026.0,-10.0,49.0,1027.2180878469771,1,1,1,0.0,2.0
2021-08-31 10:45:35.581,1052.0,-75.0,17.0,1054.8070913678955,1,1,1,0.0,2.0
2021-08-31 10:45:35.591,1038.0,-25.0,21.0,1038.5133605303304,1,1,1,0.0,2.0
2021-08-31 10:45:35.600,1016.0,66.0,0.0,1018.141444004712,1,1,1,0.0,2.0
2021-08-31 10:45:35.610,1011.0,31.0,-20.0,1011.672872029294,1,1,1,0.0,2.0
2021-08-31 10:45:35.619,982.0,6.0,-32.0,982.539566633324,1,1,1,0.0,2.0
2021-08-31 10:45:35.629,978.0,25.0,-15.0,978.4344638247368,1,1,1,0.0,2.0
2021-08-31 10:45:35.639,987.0,25.0,-15.0,987.430503883691,1,1,1,0.0,2.0
2021-08-31 10:45:35.640,987.0,40.0,-8.0,987.8425987980067,1,1,1,0.0,2.0
2021-08-31 10:45:35.649,1013.0,48.0,15.0,1014.2475043104616,1,1,1,0.0,2.0
2021-08-31 10:45:35.659,1023.0,86.0,40.0,1027.38746342361,1,1,1,0.0,2.0
2021-08-31 10:45:35.671,1010.0,46.0,-13.0,1011.1305553685934,1,1,1,0.0,2.0
2021-08-31 10:45:35.678,1035.0,61.0,33.0,1037.32106890779,1,1,1,0.0,2.0
2021-08-31 10:45:35.689,1021.0,39.0,12.0,1021.8150517583894,1,1,1,0.0,2.0
2021-08-31 10:45:35.697,993.0,39.0,12.0,993.8380149702464,1,1,1,0.0,2.0
2021-08-31 10:45:35.698,993.0,13.0,4.0,993.0931476956227,1,1,1,0.0,2.0
2021-08-31 10:45:35.707,1031.0,-30.0,-27.0,1031.78970725628,1,1,1,0.0,2.0
2021-08-31 10:45:35.717,1017.0,-19.0,-17.0,1017.3195171626268,1,1,1,0.0,2.0
2021-08-31 10:45:35.727,1032.0,-2.0,-16.0,1032.125961305111,1,1,1,0.0,2.0
2021-08-31 10:45:35.737,1014.0,55.0,-2.0,1015.4924913557952,1,1,1,0.0,2.0
2021-08-31 10:45:35.747,1010.0,142.0,1.0,1019.9338213825444,1,1,1,0.0,2.0
2021-08-31 10:45:35.756,963.0,90.0,19.0,967.383067869187,1,1,1,0.0,2.0
2021-08-31 10:45:35.766,1011.0,11.0,29.0,1011.4756546748912,1,1,1,0.0,2.0
2021-08-31 10:45:35.775,1024.0,11.0,29.0,1024.4696188760308,1,1,1,0.0,2.0
2021-08-31 10:45:35.776,1024.0,-9.0,53.0,1025.4101618376912,1,1,1,0.0,2.0
2021-08-31 10:45:35.785,1047.0,-52.0,19.0,1048.4626841237605,1,1,1,0.0,2.0
2021-08-31 10:45:35.806,1012.0,75.0,19.0,1014.9532008915484,1,1,1,0.0,2.0
2021-08-31 10:45:35.807,1012.0,75.0,7.0,1014.7994875836308,1,1,1,0.0,2.0
2021-08-31 10:45:35.831,1011.0,35.0,-23.0,1011.8670861333518,1,1,1,0.0,2.0
2021-08-31 10:45:35.835,978.0,15.0,-23.0,978.3854046335728,1,1,1,0.0,2.0
2021-08-31 10:45:35.839,968.0,21.0,-30.0,968.6924176434952,1,1,1,0.0,2.0
2021-08-31 10:45:35.845,976.0,38.0,-3.0,976.7440811184882,1,1,1,0.0,2.0
2021-08-31 10:45:35.854,994.0,71.0,-2.0,996.5344951380258,1,1,1,0.0,2.0
2021-08-31 10:45:35.864,1022.0,72.0,-2.0,1024.5350164830872,1,1,1,0.0,2.0
2021-08-31 10:45:35.865,1022.0,72.0,41.0,1025.353109908972,1,1,1,0.0,2.0
2021-08-31 10:45:35.875,1032.0,80.0,51.0,1036.3517742542829,1,1,1,0.0,2.0
2021-08-31 10:45:35.883,1039.0,69.0,40.0,1042.056620342676,1,1,1,0.0,2.0
2021-08-31 10:45:35.894,1010.0,50.0,14.0,1011.333772797092,1,1,1,0.0,2.0
2021-08-31 10:45:35.902,1006.0,50.0,14.0,1007.3390690328654,1,1,1,0.0,2.0
2021-08-31 10:45:35.903,1006.0,1.0,16.0,1006.1277254901586,1,1,1,0.0,2.0
2021-08-31 10:45:35.912,1023.0,-14.0,-12.0,1023.1661644131904,1,1,1,0.0,2.0
2021-08-31 10:45:35.922,1021.0,-33.0,-19.0,1021.709841393338,1,1,1,0.0,2.0
2021-08-31 10:45:35.932,1021.0,9.0,-21.0,1021.2555997398496,1,1,1,0.0,2.0
2021-08-31 10:45:35.942,1011.0,32.0,5.0,1011.518660233216,1,1,1,0.0,2.0
2021-08-31 10:45:35.958,1019.0,140.0,11.0,1028.6311292197995,1,1,1,0.0,2.0
2021-08-31 10:45:35.961,970.0,99.0,26.0,975.3855647896374,1,1,1,0.0,2.0
2021-08-31 10:45:35.971,1005.0,10.0,23.0,1005.3128866178928,1,1,1,0.0,2.0
2021-08-31 10:45:35.981,1029.0,3.0,57.0,1030.5818744767444,1,1,1,0.0,2.0
2021-08-31 10:45:35.993,1046.0,-44.0,25.0,1047.223471853071,1,1,1,0.0,2.0
2021-08-31 10:45:36.000,1042.0,-51.0,17.0,1043.385834674786,1,1,1,0.0,2.0
2021-08-31 10:45:36.010,1019.0,75.0,9.0,1021.7959678918292,1,1,1,0.0,2.0
2021-08-31 10:45:36.020,1008.0,48.0,-18.0,1009.3027296108932,1,1,1,0.0,2.0
2021-08-31 10:45:36.029,988.0,48.0,-18.0,989.3290655792944,1,1,1,0.0,2.0
2021-08-31 10:45:36.030,988.0,9.0,-28.0,988.4376561017898,1,1,1,0.0,2.0
2021-08-31 10:45:36.040,979.0,19.0,-27.0,979.5565323144958,1,1,1,0.0,2.0
2021-08-31 10:45:36.049,983.0,35.0,-12.0,983.6960912802286,1,1,1,0.0,2.0
2021-08-31 10:45:36.059,988.0,61.0,-2.0,989.8833264582246,1,1,1,0.0,2.0
2021-08-31 10:45:36.073,1009.0,63.0,29.0,1011.3807393855194,1,1,1,0.0,2.0
2021-08-31 10:45:36.078,1037.0,81.0,44.0,1041.0888530764316,1,1,1,0.0,2.0
2021-08-31 10:45:36.089,1040.0,53.0,47.0,1042.409708320102,1,1,1,0.0,2.0
2021-08-31 10:45:36.098,1020.0,53.0,47.0,1022.456845055086,1,1,1,0.0,2.0
2021-08-31 10:45:36.099,1020.0,64.0,26.0,1022.336539501548,1,1,1,0.0,2.0
2021-08-31 10:45:36.108,1014.0,16.0,6.0,1014.1439739997472,1,1,1,0.0,2.0
2021-08-31 10:45:36.117,1033.0,-1.0,-6.0,1033.0179088476636,1,1,1,0.0,2.0
2021-08-31 10:45:36.127,1033.0,-34.0,-20.0,1033.7528718218875,1,1,1,0.0,2.0
2021-08-31 10:45:36.137,1028.0,4.0,-25.0,1028.3117231656945,1,1,1,0.0,2.0
2021-08-31 10:45:36.148,1026.0,0.0,-6.0,1026.017543709658,1,1,1,0.0,2.0
2021-08-31 10:45:36.156,1010.0,123.0,-6.0,1017.4797295278172,1,1,1,0.0,2.0
2021-08-31 10:45:36.157,1010.0,123.0,1.0,1017.4625300226048,1,1,1,0.0,2.0
2021-08-31 10:45:36.166,965.0,71.0,9.0,967.6502467317414,1,1,1,0.0,2.0
2021-08-31 10:45:36.176,977.0,68.0,20.0,979.5677618215088,1,1,1,0.0,2.0
2021-08-31 10:45:36.186,1028.0,-8.0,35.0,1028.626754464417,1,1,1,0.0,2.0
2021-08-31 10:45:36.196,1024.0,-8.0,35.0,1024.6292012235451,1,1,1,0.0,2.0
2021-08-31 10:45:36.197,1024.0,-19.0,38.0,1024.8809686983168,1,1,1,0.0,2.0
2021-08-31 10:45:36.205,1051.0,-64.0,19.0,1053.1182269811875,1,1,1,0.0,2.0
2021-08-31 10:45:36.215,1037.0,73.0,26.0,1039.8913404774555,1,1,1,0.0,2.0
2021-08-31 10:45:36.225,1028.0,74.0,-3.0,1030.66434885466,1,1,1,0.0,2.0
2021-08-31 10:45:36.234,1005.0,74.0,-3.0,1007.7251609441932,1,1,1,0.0,2.0
2021-08-31 10:45:36.235,1005.0,27.0,-22.0,1005.6033015061158,1,1,1,0.0,2.0
2021-08-31 10:45:36.245,976.0,12.0,-35.0,976.701080167315,1,1,1,0.0,2.0
2021-08-31 10:45:36.255,980.0,15.0,-17.0,980.2622098193932,1,1,1,0.0,2.0
2021-08-31 10:45:36.264,1008.0,37.0,-3.0,1008.6833001492588,1,1,1,0.0,2.0
2021-08-31 10:45:36.273,1011.0,37.0,-3.0,1011.6812739198052,1,1,1,0.0,2.0
2021-08-31 10:45:36.274,1011.0,55.0,22.0,1012.7339235949393,1,1,1,0.0,2.0
2021-08-31 10:45:36.285,1021.0,83.0,39.0,1025.1102379744336,1,1,1,0.0,2.0
2021-08-31 10:45:36.295,1030.0,73.0,43.0,1033.4785919408298,1,1,1,0.0,2.0
2021-08-31 10:45:36.303,1037.0,64.0,32.0,1039.465728150765,1,1,1,0.0,2.0
2021-08-31 10:45:36.313,1021.0,37.0,1.0,1021.6706905847892,1,1,1,0.0,2.0
2021-08-31 10:45:36.322,1027.0,36.0,1.0,1027.6312568231856,1,1,1,0.0,2.0
2021-08-31 10:45:36.323,1027.0,36.0,6.0,1027.6482861368474,1,1,1,0.0,2.0
2021-08-31 10:45:36.332,1034.0,-37.0,-21.0,1034.8748716632365,1,1,1,0.0,2.0
2021-08-31 10:45:36.343,1022.0,-14.0,-20.0,1022.29154354323,1,1,1,0.0,2.0
2021-08-31 10:45:36.352,1018.0,-24.0,-1.0,1018.283359384803,1,1,1,0.0,2.0
2021-08-31 10:45:36.361,1005.0,-24.0,-1.0,1005.2870236902494,1,1,1,0.0,2.0
2021-08-31 10:45:36.362,1005.0,85.0,12.0,1008.659506473815,1,1,1,0.0,2.0
2021-08-31 10:45:36.371,966.0,58.0,-2.0,967.7417010752404,1,1,1,0.0,2.0
2021-08-31 10:45:36.381,967.0,89.0,20.0,971.2929527181795,1,1,1,0.0,2.0
2021-08-31 10:45:36.391,1034.0,89.0,20.0,1038.0158958320435,1,1,1,0.0,2.0
2021-08-31 10:45:36.392,1034.0,-18.0,18.0,1034.3132987639674,1,1,1,0.0,2.0
2021-08-31 10:45:36.401,1033.0,-10.0,18.0,1033.2052071103783,1,1,1,0.0,2.0
2021-08-31 10:45:36.402,1033.0,-10.0,45.0,1034.0280460413053,1,1,1,0.0,2.0
2021-08-31 10:45:36.410,1052.0,-52.0,7.0,1053.3076473661436,1,1,1,0.0,2.0
2021-08-31 10:45:36.420,1032.0,87.0,23.0,1035.91601976222,1,1,1,0.0,2.0
2021-08-31 10:45:36.430,1016.0,65.0,4.0,1018.0849669845832,1,1,1,0.0,2.0
2021-08-31 10:45:36.440,1008.0,34.0,-19.0,1008.7521995019392,1,1,1,0.0,2.0
2021-08-31 10:45:36.451,986.0,38.0,-21.0,986.955419459258,1,1,1,0.0,2.0
2021-08-31 10:45:36.459,976.0,41.0,-19.0,977.045546533016,1,1,1,0.0,2.0
2021-08-31 10:45:36.469,997.0,47.0,-7.0,998.1317548299924,1,1,1,0.0,2.0
2021-08-31 10:45:36.479,1010.0,53.0,24.0,1011.674354720925,1,1,1,0.0,2.0
2021-08-31 10:45:36.489,1020.0,76.0,42.0,1023.6894060211818,1,1,1,0.0,2.0
2021-08-31 10:45:36.499,1039.0,67.0,40.0,1041.9261010263635,1,1,1,0.0,2.0
2021-08-31 10:45:36.508,1032.0,65.0,26.0,1034.371790025231,1,1,1,0.0,2.0
2021-08-31 10:45:36.518,1010.0,34.0,0.0,1010.5721151902026,1,1,1,0.0,2.0
2021-08-31 10:45:36.527,1030.0,55.0,0.0,1031.467401326867,1,1,1,0.0,2.0
2021-08-31 10:45:36.528,1030.0,55.0,20.0,1031.6612816229947,1,1,1,0.0,2.0
2021-08-31 10:45:36.537,1036.0,-20.0,-13.0,1036.2745775131225,1,1,1,0.0,2.0
2021-08-31 10:45:36.547,1015.0,-20.0,-13.0,1015.2802568749182,1,1,1,0.0,2.0
2021-08-31 10:45:36.548,1015.0,-21.0,-17.0,1015.3595422312236,1,1,1,0.0,2.0
2021-08-31 10:45:36.557,1023.0,-21.0,-17.0,1023.35673154575,1,1,1,0.0,2.0
2021-08-31 10:45:36.558,1023.0,-13.0,-16.0,1023.2077013001808,1,1,1,0.0,2.0
2021-08-31 10:45:36.566,1026.0,-13.0,-16.0,1026.2070941091763,1,1,1,0.0,2.0
2021-08-31 10:45:36.567,1026.0,62.0,5.0,1027.8837482906324,1,1,1,0.0,2.0
2021-08-31 10:45:36.576,1022.0,153.0,15.0,1033.497943877974,1,1,1,0.0,2.0
2021-08-31 10:45:36.586,973.0,114.0,24.0,979.9494884941774,1,1,1,0.0,2.0
2021-08-31 10:45:36.596,1022.0,12.0,28.0,1022.4539109417108,1,1,1,0.0,2.0
2021-08-31 10:45:36.607,1025.0,-3.0,48.0,1026.1276723683072,1,1,1,0.0,2.0
2021-08-31 10:45:36.615,1054.0,-53.0,18.0,1055.4851964854836,1,1,1,0.0,2.0
2021-08-31 10:45:36.625,1037.0,-33.0,8.0,1037.5557816329683,1,1,1,0.0,2.0
2021-08-31 10:45:36.635,1025.0,78.0,8.0,1027.994649791525,1,1,1,0.0,2.0
2021-08-31 10:45:36.645,999.0,20.0,-16.0,999.328274392354,1,1,1,0.0,2.0
2021-08-31 10:45:36.655,988.0,12.0,-31.0,988.5590523585328,1,1,1,0.0,2.0
2021-08-31 10:45:36.664,977.0,12.0,-11.0,977.1356098311022,1,1,1,0.0,2.0
2021-08-31 10:45:36.675,987.0,36.0,-11.0,987.7175709685436,1,1,1,0.0,2.0
2021-08-31 10:45:36.676,987.0,36.0,13.0,987.7418691135856,1,1,1,0.0,2.0
2021-08-31 10:45:36.684,1003.0,34.0,7.0,1003.6005181345812,1,1,1,0.0,2.0
2021-08-31 10:45:36.693,1012.0,34.0,7.0,1012.5951807114232,1,1,1,0.0,2.0
2021-08-31 10:45:36.694,1012.0,69.0,29.0,1014.764011975198,1,1,1,0.0,2.0
2021-08-31 10:45:36.707,1028.0,67.0,46.0,1031.2075445806242,1,1,1,0.0,2.0
2021-08-31 10:45:36.714,1036.0,60.0,39.0,1038.4685840216837,1,1,1,0.0,2.0
2021-08-31 10:45:36.723,1011.0,58.0,5.0,1012.674676290466,1,1,1,0.0,2.0
2021-08-31 10:45:36.732,1033.0,58.0,5.0,1034.6390675013197,1,1,1,0.0,2.0
2021-08-31 10:45:36.733,1033.0,48.0,15.0,1034.2233801263633,1,1,1,0.0,2.0
2021-08-31 10:45:36.742,1037.0,-7.0,15.0,1037.1321034468078,1,1,1,0.0,2.0
2021-08-31 10:45:36.743,1037.0,-7.0,-15.0,1037.1321034468078,1,1,1,0.0,2.0
2021-08-31 10:45:36.752,1014.0,-10.0,-22.0,1014.2879275629776,1,1,1,0.0,2.0
2021-08-31 10:45:36.763,1022.0,-25.0,-13.0,1022.3883802156596,1,1,1,0.0,2.0
2021-08-31 10:45:36.772,1019.0,73.0,22.0,1021.8483253399204,1,1,1,0.0,2.0
2021-08-31 10:45:36.781,1022.0,143.0,22.0,1032.190389414666,1,1,1,0.0,2.0
2021-08-31 10:45:36.782,1022.0,143.0,8.0,1031.9869185217417,1,1,1,0.0,2.0
2021-08-31 10:45:36.791,967.0,92.0,21.0,971.5935364132472,1,1,1,0.0,2.0
2021-08-31 10:45:36.868,1024.0,92.0,21.0,1028.338951902533,1,1,1,0.0,2.0
2021-08-31 10:45:36.869,1024.0,-7.0,20.0,1024.219214816828,1,1,1,0.0,2.0
2021-08-31 10:45:36.880,1029.0,-7.0,51.0,1030.2868532598093,1,1,1,0.0,2.0
2021-08-31 10:45:36.885,1054.0,-7.0,51.0,1055.256366955443,1,1,1,0.0,2.0
2021-08-31 10:45:36.886,1054.0,-57.0,13.0,1055.6201968511214,1,1,1,0.0,2.0
2021-08-31 10:45:36.888,982.0,15.0,13.0,982.20059051092,1,1,1,0.0,2.0
2021-08-31 10:45:36.889,982.0,15.0,-26.0,982.4586505293748,1,1,1,0.0,2.0
2021-08-31 10:45:36.895,1005.0,32.0,-26.0,1005.8454155584744,1,1,1,0.0,2.0
2021-08-31 10:45:36.896,1005.0,32.0,16.0,1005.6366142896748,1,1,1,0.0,2.0
2021-08-31 10:45:36.899,1009.0,80.0,40.0,1012.9565637281788,1,1,1,0.0,2.0
2021-08-31 10:45:36.908,1032.0,75.0,40.0,1035.494567827374,1,1,1,0.0,2.0
2021-08-31 10:45:36.909,1032.0,75.0,41.0,1035.5336788342522,1,1,1,0.0,2.0
2021-08-31 10:45:36.919,1041.0,69.0,39.0,1044.0129309544016,1,1,1,0.0,2.0
2021-08-31 10:45:36.929,1016.0,47.0,4.0,1017.094390899881,1,1,1,0.0,2.0
2021-08-31 10:45:36.939,994.0,9.0,0.0,994.0407436317688,1,1,1,0.0,2.0
2021-08-31 10:45:36.947,1029.0,-32.0,0.0,1029.4974502153952,1,1,1,0.0,2.0
2021-08-31 10:45:36.948,1029.0,-32.0,-20.0,1029.6917014330063,1,1,1,0.0,2.0
2021-08-31 10:45:36.957,1018.0,-22.0,-14.0,1018.3339334422672,1,1,1,0.0,2.0
2021-08-31 10:45:36.973,1015.0,-17.0,-6.0,1015.1600858977858,1,1,1,0.0,2.0
2021-08-31 10:45:36.977,1009.0,82.0,13.0,1012.4099959996444,1,1,1,0.0,2.0
2021-08-31 10:45:36.987,1019.0,131.0,6.0,1027.403523451229,1,1,1,0.0,2.0
2021-08-31 10:45:36.996,970.0,95.0,23.0,974.9123037483936,1,1,1,0.0,2.0
2021-08-31 10:45:37.007,1033.0,7.0,30.0,1033.4592396413127,1,1,1,0.0,2.0
2021-08-31 10:45:37.016,1024.0,-2.0,55.0,1025.4779373540905,1,1,1,0.0,2.0
2021-08-31 10:45:37.026,1052.0,-53.0,7.0,1053.3574891744968,1,1,1,0.0,2.0
2021-08-31 10:45:37.035,1014.0,-18.0,7.0,1014.1839083716524,1,1,1,0.0,2.0
2021-08-31 10:45:37.036,1014.0,-18.0,13.0,1014.2430675138972,1,1,1,0.0,2.0
2021-08-31 10:45:37.045,1016.0,41.0,18.0,1016.9862339284638,1,1,1,0.0,2.0
2021-08-31 10:45:37.055,1004.0,41.0,18.0,1004.9980099482784,1,1,1,0.0,2.0
2021-08-31 10:45:37.058,1004.0,22.0,-25.0,1004.5521390151932,1,1,1,0.0,2.0
2021-08-31 10:45:37.065,980.0,15.0,-36.0,980.7757134024068,1,1,1,0.0,2.0
2021-08-31 10:45:37.074,981.0,15.0,-36.0,981.7749232894472,1,1,1,0.0,2.0
2021-08-31 10:45:37.075,981.0,35.0,-24.0,981.9175118104372,1,1,1,0.0,2.0
2021-08-31 10:45:37.084,997.0,56.0,10.0,998.6215499377128,1,1,1,0.0,2.0
2021-08-31 10:45:37.095,1005.0,67.0,-3.0,1007.235325035813,1,1,1,0.0,2.0
2021-08-31 10:45:37.104,1024.0,69.0,39.0,1027.062802364101,1,1,1,0.0,2.0
2021-08-31 10:45:37.113,1033.0,62.0,39.0,1035.5935496129744,1,1,1,0.0,2.0
2021-08-31 10:45:37.114,1033.0,62.0,40.0,1035.631691287979,1,1,1,0.0,2.0
2021-08-31 10:45:37.124,1032.0,65.0,29.0,1034.4515455061198,1,1,1,0.0,2.0
2021-08-31 10:45:37.133,1023.0,29.0,-3.0,1023.4153604475556,1,1,1,0.0,2.0
2021-08-31 10:45:37.143,994.0,18.0,18.0,994.325902307689,1,1,1,0.0,2.0
2021-08-31 10:45:37.152,996.0,18.0,18.0,996.325248099234,1,1,1,0.0,2.0
2021-08-31 10:45:37.153,996.0,24.0,21.0,996.5104113856512,1,1,1,0.0,2.0
2021-08-31 10:45:37.167,1016.0,-5.0,-25.0,1016.3198315491044,1,1,1,0.0,2.0
2021-08-31 10:45:37.172,1009.0,-4.0,-8.0,1009.0396424323476,1,1,1,0.0,2.0
2021-08-31 10:45:37.182,1022.0,127.0,14.0,1029.9558242953915,1,1,1,0.0,2.0
2021-08-31 10:45:37.192,1019.0,126.0,0.0,1026.7604394404764,1,1,1,0.0,2.0
2021-08-31 10:45:37.201,995.0,134.0,3.0,1003.9870517093336,1,1,1,0.0,2.0
2021-08-31 10:45:37.212,1033.0,-14.0,38.0,1033.7934996893723,1,1,1,0.0,2.0
2021-08-31 10:45:37.221,1029.0,-14.0,48.0,1030.2140554273176,1,1,1,0.0,2.0
2021-08-31 10:45:37.231,1058.0,-69.0,9.0,1060.2858105246903,1,1,1,0.0,2.0
2021-08-31 10:45:37.240,991.0,75.0,9.0,993.874740598633,1,1,1,0.0,2.0
2021-08-31 10:45:37.241,991.0,75.0,25.0,994.1483792674009,1,1,1,0.0,2.0
2021-08-31 10:45:37.251,1038.0,25.0,27.0,1038.6520110219783,1,1,1,0.0,2.0
2021-08-31 10:45:37.260,1004.0,74.0,-1.0,1006.7238946205656,1,1,1,0.0,2.0
2021-08-31 10:45:37.270,993.0,70.0,-7.0,995.4888246484738,1,1,1,0.0,2.0
2021-08-31 10:45:37.280,1003.0,86.0,-14.0,1006.7775325264266,1,1,1,0.0,2.0
2021-08-31 10:45:37.289,1000.0,65.0,-18.0,1002.2719191915934,1,1,1,0.0,2.0
2021-08-31 10:45:37.299,996.0,37.0,-26.0,997.0260778936528,1,1,1,0.0,2.0
2021-08-31 10:45:37.314,1000.0,10.0,-26.0,1000.3879247571914,1,1,1,0.0,2.0
2021-08-31 10:45:37.315,1000.0,10.0,-20.0,1000.24996875781,1,1,1,0.0,2.0
2021-08-31 10:45:37.319,1024.0,10.0,-20.0,1024.2441115281065,1,1,1,0.0,2.0
2021-08-31 10:45:37.320,1024.0,45.0,12.0,1025.0585349139824,1,1,1,0.0,2.0
2021-08-31 10:45:37.328,1023.0,28.0,17.0,1023.5243035707556,1,1,1,0.0,2.0
2021-08-31 10:45:37.485,1003.0,47.0,7.0,1004.124992219594,1,1,1,0.0,2.0
2021-08-31 10:45:37.497,1011.0,42.0,8.0,1011.903651540007,1,1,1,0.0,2.0
2021-08-31 10:45:37.504,1014.0,41.0,8.0,1014.8600888792504,1,1,1,0.0,2.0
2021-08-31 10:45:37.514,1014.0,39.0,4.0,1014.7576065248292,1,1,1,0.0,2.0
2021-08-31 10:45:37.524,1009.0,41.0,1.0,1009.8331545359362,1,1,1,0.0,2.0
2021-08-31 10:45:37.533,1004.0,37.0,9.0,1004.721852056578,1,1,1,0.0,2.0
2021-08-31 10:45:37.544,1010.0,36.0,0.0,1010.6413805104164,1,1,1,0.0,2.0
