time_stamp,Acceleration_X,Acceleration_Y,Acceleration_Z,magnitude,STD_Status_right,STD_Status_left,STD_Status_both,KMeans,KMeans_convert
2021-09-02 08:18:27.987,1017.0,102.0,35.0,1022.701324923362,1,1,1,0.0,2.0
2021-09-02 08:18:27.997,996.0,119.0,41.0,1003.9213116574426,1,1,1,0.0,2.0
2021-09-02 08:18:28.006,1029.0,115.0,30.0,1035.840721346675,1,1,1,0.0,2.0
2021-09-02 08:18:28.016,1000.0,42.0,66.0,1003.0553324717436,1,1,1,0.0,2.0
2021-09-02 08:18:28.026,1023.0,38.0,28.0,1024.0883750926969,1,1,1,0.0,2.0
2021-09-02 08:18:28.036,1012.0,38.0,28.0,1013.100192478513,1,1,1,0.0,2.0
2021-09-02 08:18:28.037,1012.0,89.0,51.0,1017.1853321789496,1,1,1,0.0,2.0
2021-09-02 08:18:28.045,1015.0,98.0,23.0,1019.9794115569196,1,1,1,0.0,2.0
2021-09-02 08:18:28.055,1001.0,98.0,23.0,1006.0487065743883,1,1,1,0.0,2.0
2021-09-02 08:18:28.056,1001.0,5.0,20.0,1001.2122652065344,1,1,1,0.0,2.0
2021-09-02 08:18:28.070,1016.0,-13.0,-7.0,1016.107277800922,1,1,1,0.0,2.0
2021-09-02 08:18:28.078,1018.0,-13.0,-7.0,1018.1070670612204,1,1,1,0.0,2.0
2021-09-02 08:18:28.079,1018.0,133.0,11.0,1026.7102804589033,1,1,1,0.0,2.0
2021-09-02 08:18:28.084,979.0,128.0,-24.0,987.623916275826,1,1,1,0.0,2.0
2021-09-02 08:18:28.094,954.0,199.0,-35.0,975.1625505524707,1,1,1,0.0,2.0
2021-09-02 08:18:28.104,933.0,143.0,-33.0,944.471810061052,1,1,1,0.0,2.0
2021-09-02 08:18:28.114,966.0,143.0,-33.0,977.0844385210524,1,1,1,0.0,2.0
2021-09-02 08:18:28.115,966.0,143.0,15.0,976.6422067471792,1,1,1,0.0,2.0
2021-09-02 08:18:28.124,1031.0,-63.0,26.0,1033.2502117106,1,1,1,0.0,2.0
2021-09-02 08:18:28.139,1060.0,2.0,49.0,1061.1338275637056,1,1,1,0.0,2.0
2021-09-02 08:18:28.143,1057.0,60.0,72.0,1061.1470209165177,1,1,1,0.0,2.0
2021-09-02 08:18:28.153,1058.0,74.0,42.0,1061.4160353037823,1,1,1,0.0,2.0
2021-09-02 08:18:28.163,1039.0,74.0,42.0,1042.4782971362042,1,1,1,0.0,2.0
2021-09-02 08:18:28.164,1039.0,59.0,15.0,1040.7819175984948,1,1,1,0.0,2.0
2021-09-02 08:18:28.172,990.0,60.0,-2.0,991.818531788956,1,1,1,0.0,2.0
2021-09-02 08:18:28.182,975.0,60.0,-2.0,976.8464567167146,1,1,1,0.0,2.0
2021-09-02 08:18:28.183,975.0,82.0,-20.0,978.6465143247586,1,1,1,0.0,2.0
2021-09-02 08:18:28.192,962.0,68.0,-56.0,966.0248444010124,1,1,1,0.0,2.0
2021-09-02 08:18:28.201,957.0,61.0,-56.0,960.5758689452904,1,1,1,0.0,2.0
2021-09-02 08:18:28.202,957.0,61.0,-51.0,960.297349782868,1,1,1,0.0,2.0
2021-09-02 08:18:28.211,987.0,61.0,-51.0,990.1974550563136,1,1,1,0.0,2.0
2021-09-02 08:18:28.212,987.0,99.0,-10.0,992.0030241889386,1,1,1,0.0,2.0
2021-09-02 08:18:28.228,1024.0,93.0,49.0,1029.3813676184352,1,1,1,0.0,2.0
2021-09-02 08:18:28.231,1026.0,93.0,49.0,1031.3709323032135,1,1,1,0.0,2.0
2021-09-02 08:18:28.232,1026.0,-4.0,18.0,1026.1656786308924,1,1,1,0.0,2.0
2021-09-02 08:18:28.240,996.0,-4.0,18.0,996.1706681086328,1,1,1,0.0,2.0
2021-09-02 08:18:28.241,996.0,60.0,54.0,999.265730424095,1,1,1,0.0,2.0
2021-09-02 08:18:28.250,1034.0,60.0,54.0,1037.146084213791,1,1,1,0.0,2.0
2021-09-02 08:18:28.251,1034.0,50.0,24.0,1035.486359156894,1,1,1,0.0,2.0
2021-09-02 08:18:28.261,1014.0,10.0,36.0,1014.6881294269684,1,1,1,0.0,2.0
2021-09-02 08:18:28.271,1025.0,-35.0,-3.0,1025.6017745694476,1,1,1,0.0,2.0
2021-09-02 08:18:28.279,999.0,-35.0,-3.0,999.6174268188804,1,1,1,0.0,2.0
2021-09-02 08:18:28.280,999.0,161.0,-4.0,1011.8982162253276,1,1,1,0.0,2.0
2021-09-02 08:18:28.289,980.0,157.0,-27.0,992.8635354367688,1,1,1,0.0,2.0
2021-09-02 08:18:28.299,952.0,213.0,-23.0,975.808382829334,1,1,1,0.0,2.0
2021-09-02 08:18:28.309,937.0,141.0,-32.0,948.0896582074926,1,1,1,0.0,2.0
2021-09-02 08:18:28.320,962.0,138.0,-32.0,972.3744134848469,1,1,1,0.0,2.0
2021-09-02 08:18:28.321,962.0,138.0,25.0,972.1692239522912,1,1,1,0.0,2.0
2021-09-02 08:18:28.328,1042.0,-70.0,25.0,1044.6477875341525,1,1,1,0.0,2.0
2021-09-02 08:18:28.329,1042.0,-70.0,40.0,1045.1143478108029,1,1,1,0.0,2.0
2021-09-02 08:18:28.338,1062.0,6.0,60.0,1063.7104869277166,1,1,1,0.0,2.0
2021-09-02 08:18:28.348,1069.0,49.0,54.0,1071.4840176129553,1,1,1,0.0,2.0
2021-09-02 08:18:28.358,1066.0,83.0,42.0,1070.0509333671926,1,1,1,0.0,2.0
2021-09-02 08:18:28.368,1039.0,54.0,7.0,1040.4258743418486,1,1,1,0.0,2.0
2021-09-02 08:18:28.377,1024.0,40.0,-40.0,1025.561309722632,1,1,1,0.0,2.0
2021-09-02 08:18:28.387,971.0,81.0,-25.0,974.693285090238,1,1,1,0.0,2.0
2021-09-02 08:18:28.397,964.0,67.0,-52.0,967.72361756857,1,1,1,0.0,2.0
2021-09-02 08:18:28.407,963.0,52.0,-34.0,965.0020725366344,1,1,1,0.0,2.0
2021-09-02 08:18:28.416,985.0,102.0,0.0,990.2671356760256,1,1,1,0.0,2.0
2021-09-02 08:18:28.428,1018.0,75.0,62.0,1022.6402104357134,1,1,1,0.0,2.0
2021-09-02 08:18:28.436,1037.0,-9.0,12.0,1037.1084803433052,1,1,1,0.0,2.0
2021-09-02 08:18:28.445,990.0,-9.0,12.0,990.113629842555,1,1,1,0.0,2.0
2021-09-02 08:18:28.446,990.0,60.0,50.0,993.0760293149764,1,1,1,0.0,2.0
2021-09-02 08:18:28.456,1024.0,43.0,21.0,1025.117554234635,1,1,1,0.0,2.0
2021-09-02 08:18:28.465,1010.0,4.0,36.0,1010.649296244746,1,1,1,0.0,2.0
2021-09-02 08:18:28.476,1030.0,-38.0,-25.0,1031.0038797211191,1,1,1,0.0,2.0
2021-09-02 08:18:28.485,1023.0,-96.0,-34.0,1028.056905039794,1,1,1,0.0,2.0
2021-09-02 08:18:28.494,982.0,-96.0,-34.0,987.2669345217636,1,1,1,0.0,2.0
2021-09-02 08:18:28.495,982.0,130.0,-28.0,990.9631678321854,1,1,1,0.0,2.0
2021-09-02 08:18:28.504,937.0,224.0,-32.0,963.9341263800136,1,1,1,0.0,2.0
2021-09-02 08:18:28.514,926.0,127.0,-45.0,935.7510352652567,1,1,1,0.0,2.0
2021-09-02 08:18:28.524,954.0,137.0,25.0,964.1109894612756,1,1,1,0.0,2.0
2021-09-02 08:18:28.533,1003.0,137.0,25.0,1012.6218445204508,1,1,1,0.0,2.0
2021-09-02 08:18:28.534,1003.0,26.0,57.0,1004.9547253483612,1,1,1,0.0,2.0
2021-09-02 08:18:28.543,1056.0,7.0,57.0,1057.560400166345,1,1,1,0.0,2.0
2021-09-02 08:18:28.544,1056.0,7.0,58.0,1057.6147691858316,1,1,1,0.0,2.0
2021-09-02 08:18:28.553,1053.0,61.0,42.0,1055.6012504729235,1,1,1,0.0,2.0
2021-09-02 08:18:28.563,1060.0,63.0,42.0,1062.7008045541322,1,1,1,0.0,2.0
2021-09-02 08:18:28.564,1060.0,63.0,33.0,1062.3831700474177,1,1,1,0.0,2.0
2021-09-02 08:18:28.572,1037.0,63.0,33.0,1039.4359047098576,1,1,1,0.0,2.0
2021-09-02 08:18:28.573,1037.0,45.0,9.0,1038.0149324552128,1,1,1,0.0,2.0
2021-09-02 08:18:28.584,1025.0,34.0,-53.0,1026.9323249367503,1,1,1,0.0,2.0
2021-09-02 08:18:28.592,977.0,88.0,-16.0,981.0856231746544,1,1,1,0.0,2.0
2021-09-02 08:18:28.602,964.0,69.0,-48.0,967.657480723422,1,1,1,0.0,2.0
2021-09-02 08:18:28.612,964.0,49.0,-37.0,965.9534150257972,1,1,1,0.0,2.0
2021-09-02 08:18:28.621,996.0,104.0,-37.0,1002.0982985715524,1,1,1,0.0,2.0
2021-09-02 08:18:28.622,996.0,104.0,4.0,1001.4229875532116,1,1,1,0.0,2.0
2021-09-02 08:18:28.632,1029.0,77.0,48.0,1032.9927395679024,1,1,1,0.0,2.0
2021-09-02 08:18:28.641,1043.0,99.0,66.0,1049.7647355479226,1,1,1,0.0,2.0
2021-09-02 08:18:28.651,990.0,69.0,55.0,993.9245444197462,1,1,1,0.0,2.0
2021-09-02 08:18:28.660,1035.0,69.0,55.0,1038.7545427096818,1,1,1,0.0,2.0
2021-09-02 08:18:28.661,1035.0,22.0,26.0,1035.560234848751,1,1,1,0.0,2.0
2021-09-02 08:18:28.670,1021.0,16.0,42.0,1021.9887474918694,1,1,1,0.0,2.0
2021-09-02 08:18:28.680,1029.0,-41.0,-22.0,1030.0514550254277,1,1,1,0.0,2.0
2021-09-02 08:18:28.690,1023.0,-41.0,-22.0,1024.0576155666242,1,1,1,0.0,2.0
2021-09-02 08:18:28.691,1023.0,-82.0,-37.0,1026.9479052025958,1,1,1,0.0,2.0
2021-09-02 08:18:28.699,985.0,-82.0,-37.0,989.099590536767,1,1,1,0.0,2.0
2021-09-02 08:18:28.700,985.0,144.0,-32.0,995.984437629424,1,1,1,0.0,2.0
2021-09-02 08:18:28.709,933.0,219.0,-32.0,958.8920690046403,1,1,1,0.0,2.0
2021-09-02 08:18:28.720,924.0,123.0,-45.0,933.2363044802748,1,1,1,0.0,2.0
2021-09-02 08:18:28.729,957.0,142.0,31.0,967.9741732091824,1,1,1,0.0,2.0
2021-09-02 08:18:28.740,1008.0,28.0,44.0,1009.3483046005476,1,1,1,0.0,2.0
2021-09-02 08:18:28.748,1046.0,28.0,44.0,1047.2993841304406,1,1,1,0.0,2.0
2021-09-02 08:18:28.751,1046.0,-57.0,54.0,1048.942801109765,1,1,1,0.0,2.0
2021-09-02 08:18:28.758,1044.0,77.0,45.0,1047.8024622990729,1,1,1,0.0,2.0
2021-09-02 08:18:28.768,1064.0,75.0,28.0,1067.0074976306398,1,1,1,0.0,2.0
2021-09-02 08:18:28.778,1037.0,40.0,7.0,1037.7947774006188,1,1,1,0.0,2.0
2021-09-02 08:18:28.789,1029.0,8.0,-53.0,1030.395069863982,1,1,1,0.0,2.0
2021-09-02 08:18:28.797,988.0,-11.0,-45.0,989.08543614796,1,1,1,0.0,2.0
2021-09-02 08:18:28.807,970.0,77.0,-41.0,973.9147806661524,1,1,1,0.0,2.0
2021-09-02 08:18:28.817,965.0,60.0,-28.0,967.2688354330456,1,1,1,0.0,2.0
2021-09-02 08:18:28.826,992.0,60.0,-28.0,994.2072218607144,1,1,1,0.0,2.0
2021-09-02 08:18:28.827,992.0,91.0,7.0,996.1897409630355,1,1,1,0.0,2.0
2021-09-02 08:18:28.837,1011.0,74.0,58.0,1015.3624968453385,1,1,1,0.0,2.0
2021-09-02 08:18:28.846,1033.0,100.0,77.0,1040.6815074747894,1,1,1,0.0,2.0
2021-09-02 08:18:28.856,987.0,64.0,46.0,990.141909021126,1,1,1,0.0,2.0
2021-09-02 08:18:28.866,1033.0,35.0,22.0,1033.8268713861137,1,1,1,0.0,2.0
2021-09-02 08:18:28.876,1018.0,32.0,45.0,1019.496444329258,1,1,1,0.0,2.0
2021-09-02 08:18:28.885,1027.0,-48.0,-37.0,1028.7866639882147,1,1,1,0.0,2.0
2021-09-02 08:18:28.911,1014.0,-48.0,-37.0,1015.8095293902296,1,1,1,0.0,2.0
2021-09-02 08:18:28.912,1014.0,-81.0,-38.0,1017.9395856336464,1,1,1,0.0,2.0
2021-09-02 08:18:28.913,1029.0,1.0,-30.0,1029.4377105973922,1,1,1,0.0,2.0
2021-09-02 08:18:28.915,935.0,202.0,-32.0,957.1065771375723,1,1,1,0.0,2.0
2021-09-02 08:18:28.930,942.0,98.0,-40.0,947.9282673282826,1,1,1,0.0,2.0
2021-09-02 08:18:28.940,964.0,148.0,-40.0,976.1147473529944,1,1,1,0.0,2.0
2021-09-02 08:18:28.941,964.0,148.0,35.0,975.9226403767872,1,1,1,0.0,2.0
2021-09-02 08:18:28.945,1011.0,11.0,35.0,1011.6654585385428,1,1,1,0.0,2.0
2021-09-02 08:18:28.946,1011.0,11.0,51.0,1012.3452968231738,1,1,1,0.0,2.0
2021-09-02 08:18:28.953,1044.0,11.0,51.0,1045.302826935812,1,1,1,0.0,2.0
2021-09-02 08:18:28.954,1044.0,-43.0,58.0,1046.493669354956,1,1,1,0.0,2.0
2021-09-02 08:18:28.963,1043.0,99.0,54.0,1049.0786433818964,1,1,1,0.0,2.0
2021-09-02 08:18:28.973,1058.0,79.0,34.0,1061.4899905321763,1,1,1,0.0,2.0
2021-09-02 08:18:28.983,1037.0,42.0,-2.0,1037.8521089249662,1,1,1,0.0,2.0
2021-09-02 08:18:28.994,1023.0,1.0,-59.0,1024.7004440323035,1,1,1,0.0,2.0
2021-09-02 08:18:29.002,980.0,-15.0,-43.0,981.0575926009644,1,1,1,0.0,2.0
2021-09-02 08:18:29.012,979.0,20.0,-30.0,979.6637178134138,1,1,1,0.0,2.0
2021-09-02 08:18:29.022,960.0,66.0,-24.0,962.565322458689,1,1,1,0.0,2.0
2021-09-02 08:18:29.031,989.0,66.0,-24.0,991.4902924386098,1,1,1,0.0,2.0
2021-09-02 08:18:29.032,989.0,82.0,12.0,992.466120328548,1,1,1,0.0,2.0
2021-09-02 08:18:29.041,1013.0,82.0,12.0,1016.384277721768,1,1,1,0.0,2.0
2021-09-02 08:18:29.042,1013.0,89.0,63.0,1018.8518047292256,1,1,1,0.0,2.0
2021-09-02 08:18:29.053,1047.0,96.0,80.0,1054.431126247703,1,1,1,0.0,2.0
2021-09-02 08:18:29.061,1054.0,30.0,70.0,1056.747841256371,1,1,1,0.0,2.0
2021-09-02 08:18:29.071,1034.0,44.0,28.0,1035.3144449876086,1,1,1,0.0,2.0
2021-09-02 08:18:29.080,1019.0,34.0,28.0,1019.9514694337178,1,1,1,0.0,2.0
2021-09-02 08:18:29.081,1019.0,34.0,32.0,1020.0691153054288,1,1,1,0.0,2.0
2021-09-02 08:18:29.098,1026.0,-73.0,-46.0,1029.6217752165112,1,1,1,0.0,2.0
2021-09-02 08:18:29.103,1007.0,-73.0,-46.0,1010.6898634101364,1,1,1,0.0,2.0
2021-09-02 08:18:29.104,1007.0,-40.0,-34.0,1008.3674925343438,1,1,1,0.0,2.0
2021-09-02 08:18:29.110,1021.0,1.0,-41.0,1021.823370255349,1,1,1,0.0,2.0
2021-09-02 08:18:29.119,1028.0,1.0,-41.0,1028.8177681202828,1,1,1,0.0,2.0
2021-09-02 08:18:29.120,1028.0,79.0,-10.0,1031.079531365064,1,1,1,0.0,2.0
2021-09-02 08:18:29.139,972.0,120.0,61.0,981.2772289215724,1,1,1,0.0,2.0
2021-09-02 08:18:29.149,1031.0,-20.0,63.0,1033.1166439468489,1,1,1,0.0,2.0
2021-09-02 08:18:29.158,1033.0,-20.0,63.0,1035.112554266443,1,1,1,0.0,2.0
2021-09-02 08:18:29.159,1033.0,-53.0,56.0,1035.8735444058798,1,1,1,0.0,2.0
2021-09-02 08:18:29.168,1052.0,-140.0,18.0,1061.4273408952683,1,1,1,0.0,2.0
2021-09-02 08:18:29.178,1043.0,-67.0,38.0,1045.840331981895,1,1,1,0.0,2.0
2021-09-02 08:18:29.188,1026.0,48.0,-14.0,1027.2176010953085,1,1,1,0.0,2.0
2021-09-02 08:18:29.199,1014.0,-14.0,-57.0,1015.6972974267482,1,1,1,0.0,2.0
2021-09-02 08:18:29.208,973.0,-17.0,-47.0,974.282813150268,1,1,1,0.0,2.0
2021-09-02 08:18:29.217,976.0,45.0,-35.0,977.6635413065172,1,1,1,0.0,2.0
2021-09-02 08:18:29.227,982.0,84.0,-6.0,985.604383107137,1,1,1,0.0,2.0
2021-09-02 08:18:29.244,1017.0,71.0,31.0,1019.9465672279111,1,1,1,0.0,2.0
2021-09-02 08:18:29.247,1036.0,87.0,72.0,1042.1367472649642,1,1,1,0.0,2.0
2021-09-02 08:18:29.256,1045.0,77.0,74.0,1050.4427637905835,1,1,1,0.0,2.0
2021-09-02 08:18:29.266,1053.0,24.0,70.0,1055.5969874909647,1,1,1,0.0,2.0
2021-09-02 08:18:29.277,1034.0,25.0,20.0,1034.4955292315187,1,1,1,0.0,2.0
2021-09-02 08:18:29.285,1038.0,16.0,20.0,1038.315944209661,1,1,1,0.0,2.0
2021-09-02 08:18:29.286,1038.0,16.0,11.0,1038.1815833465744,1,1,1,0.0,2.0
2021-09-02 08:18:29.295,1039.0,-103.0,-55.0,1045.5405300608868,1,1,1,0.0,2.0
2021-09-02 08:18:29.305,1017.0,-22.0,-32.0,1017.7411262202191,1,1,1,0.0,2.0
2021-09-02 08:18:29.315,1017.0,-20.0,-36.0,1017.8334834342992,1,1,1,0.0,2.0
2021-09-02 08:18:29.327,1022.0,113.0,-36.0,1028.8581048910487,1,1,1,0.0,2.0
2021-09-02 08:18:29.328,1022.0,113.0,-5.0,1028.2402443009123,1,1,1,0.0,2.0
2021-09-02 08:18:29.335,1001.0,153.0,-17.0,1012.767989225568,1,1,1,0.0,2.0
2021-09-02 08:18:29.344,964.0,117.0,56.0,972.6875140557732,1,1,1,0.0,2.0
2021-09-02 08:18:29.354,1033.0,-33.0,60.0,1035.267115289576,1,1,1,0.0,2.0
2021-09-02 08:18:29.364,1044.0,-68.0,68.0,1048.4197632627877,1,1,1,0.0,2.0
2021-09-02 08:18:29.374,1057.0,-127.0,68.0,1066.7717656556158,1,1,1,0.0,2.0
2021-09-02 08:18:29.375,1057.0,-127.0,25.0,1064.895769547424,1,1,1,0.0,2.0
2021-09-02 08:18:29.383,1056.0,-65.0,42.0,1058.831903561656,1,1,1,0.0,2.0
2021-09-02 08:18:29.393,1041.0,34.0,-27.0,1041.9049860711868,1,1,1,0.0,2.0
2021-09-02 08:18:29.403,1002.0,-6.0,-50.0,1003.2646709617558,1,1,1,0.0,2.0
2021-09-02 08:18:29.412,964.0,-8.0,-50.0,965.3289594744374,1,1,1,0.0,2.0
2021-09-02 08:18:29.413,964.0,-8.0,-42.0,964.9476669747432,1,1,1,0.0,2.0
2021-09-02 08:18:29.422,969.0,-8.0,-42.0,969.9427818175668,1,1,1,0.0,2.0
2021-09-02 08:18:29.423,969.0,47.0,-31.0,970.6343286737804,1,1,1,0.0,2.0
2021-09-02 08:18:29.432,987.0,75.0,-13.0,989.9308056626988,1,1,1,0.0,2.0
2021-09-02 08:18:29.442,1007.0,75.0,-13.0,1009.8727642629044,1,1,1,0.0,2.0
2021-09-02 08:18:29.443,1007.0,88.0,35.0,1011.4435228919112,1,1,1,0.0,2.0
2021-09-02 08:18:29.451,1033.0,88.0,35.0,1037.3321550978742,1,1,1,0.0,2.0
2021-09-02 08:18:29.452,1033.0,100.0,67.0,1039.9894230231382,1,1,1,0.0,2.0
2021-09-02 08:18:29.461,1047.0,72.0,68.0,1051.6734283987591,1,1,1,0.0,2.0
2021-09-02 08:18:29.471,1068.0,14.0,66.0,1070.1289641907651,1,1,1,0.0,2.0
2021-09-02 08:18:29.482,1038.0,32.0,35.0,1039.0827685993063,1,1,1,0.0,2.0
2021-09-02 08:18:29.491,1035.0,25.0,35.0,1035.8933342772314,1,1,1,0.0,2.0
2021-09-02 08:18:29.492,1035.0,25.0,18.0,1035.458352614918,1,1,1,0.0,2.0
2021-09-02 08:18:29.500,1033.0,-93.0,-45.0,1038.153649514367,1,1,1,0.0,2.0
2021-09-02 08:18:29.510,1005.0,-41.0,-41.0,1006.6712472301969,1,1,1,0.0,2.0
2021-09-02 08:18:29.520,1019.0,-4.0,-39.0,1019.7538918778394,1,1,1,0.0,2.0
2021-09-02 08:18:29.534,1019.0,78.0,-15.0,1022.090993992218,1,1,1,0.0,2.0
2021-09-02 08:18:29.539,1005.0,179.0,-15.0,1020.926539962597,1,1,1,0.0,2.0
2021-09-02 08:18:29.540,1005.0,179.0,-7.0,1020.840340112008,1,1,1,0.0,2.0
2021-09-02 08:18:29.549,959.0,137.0,62.0,970.7182907517504,1,1,1,0.0,2.0
2021-09-02 08:18:29.559,1029.0,-15.0,60.0,1030.856925087085,1,1,1,0.0,2.0
2021-09-02 08:18:29.569,1037.0,-42.0,62.0,1039.700437626146,1,1,1,0.0,2.0
2021-09-02 08:18:29.578,1051.0,-42.0,62.0,1053.6645576273313,1,1,1,0.0,2.0
2021-09-02 08:18:29.579,1051.0,-136.0,31.0,1060.2160157250971,1,1,1,0.0,2.0
2021-09-02 08:18:29.588,1052.0,-60.0,37.0,1054.359047004387,1,1,1,0.0,2.0
2021-09-02 08:18:29.599,1030.0,50.0,-8.0,1031.2439090729215,1,1,1,0.0,2.0
2021-09-02 08:18:29.608,1025.0,4.0,-53.0,1026.37712367336,1,1,1,0.0,2.0
2021-09-02 08:18:29.617,973.0,4.0,-53.0,974.4506144489828,1,1,1,0.0,2.0
2021-09-02 08:18:29.618,973.0,-22.0,-65.0,975.4168339740708,1,1,1,0.0,2.0
2021-09-02 08:18:29.627,971.0,12.0,-53.0,972.519408546688,1,1,1,0.0,2.0
2021-09-02 08:18:29.638,981.0,90.0,-1.0,985.1202972226286,1,1,1,0.0,2.0
2021-09-02 08:18:29.647,996.0,72.0,-1.0,998.5995193269422,1,1,1,0.0,2.0
2021-09-02 08:18:29.648,996.0,72.0,11.0,998.6596016661532,1,1,1,0.0,2.0
2021-09-02 08:18:29.657,1023.0,62.0,60.0,1026.631871704751,1,1,1,0.0,2.0
2021-09-02 08:18:29.666,1048.0,88.0,76.0,1054.4306520582566,1,1,1,0.0,2.0
2021-09-02 08:18:29.677,1059.0,27.0,58.0,1060.9307234687851,1,1,1,0.0,2.0
2021-09-02 08:18:29.686,1027.0,33.0,33.0,1028.059823162057,1,1,1,0.0,2.0
2021-09-02 08:18:29.696,1021.0,-27.0,13.0,1021.4396702693704,1,1,1,0.0,2.0
2021-09-02 08:18:29.705,1041.0,-75.0,-52.0,1044.9928229418613,1,1,1,0.0,2.0
2021-09-02 08:18:29.715,1001.0,-42.0,-33.0,1002.4240619618026,1,1,1,0.0,2.0
2021-09-02 08:18:29.725,1015.0,-10.0,-47.0,1016.136801813614,1,1,1,0.0,2.0
2021-09-02 08:18:29.735,1013.0,53.0,-14.0,1014.4821338988676,1,1,1,0.0,2.0
2021-09-02 08:18:29.744,1017.0,193.0,-14.0,1035.245864517217,1,1,1,0.0,2.0
2021-09-02 08:18:29.745,1017.0,193.0,7.0,1035.1748644552763,1,1,1,0.0,2.0
2021-09-02 08:18:29.755,948.0,145.0,53.0,960.4884174210536,1,1,1,0.0,2.0
2021-09-02 08:18:29.764,1016.0,0.0,56.0,1017.5421367196544,1,1,1,0.0,2.0
2021-09-02 08:18:29.774,1046.0,-41.0,88.0,1050.4955973253766,1,1,1,0.0,2.0
2021-09-02 08:18:29.783,1062.0,-41.0,88.0,1066.428150416145,1,1,1,0.0,2.0
2021-09-02 08:18:29.784,1062.0,-126.0,42.0,1070.2728624047234,1,1,1,0.0,2.0
2021-09-02 08:18:29.794,1057.0,-120.0,21.0,1063.997180447392,1,1,1,0.0,2.0
2021-09-02 08:18:29.803,1037.0,50.0,9.0,1038.2437093476656,1,1,1,0.0,2.0
2021-09-02 08:18:29.813,1025.0,27.0,-42.0,1026.215377004262,1,1,1,0.0,2.0
2021-09-02 08:18:29.822,987.0,27.0,-42.0,988.2621109806852,1,1,1,0.0,2.0
2021-09-02 08:18:29.823,987.0,0.0,-49.0,988.2155635285249,1,1,1,0.0,2.0
2021-09-02 08:18:29.833,958.0,36.0,-44.0,959.6853651067104,1,1,1,0.0,2.0
2021-09-02 08:18:29.842,974.0,73.0,-20.0,976.9365383687928,1,1,1,0.0,2.0
2021-09-02 08:18:29.852,981.0,111.0,-14.0,987.3591038725476,1,1,1,0.0,2.0
2021-09-02 08:18:29.862,1018.0,63.0,69.0,1022.2788269351958,1,1,1,0.0,2.0
2021-09-02 08:18:29.871,1041.0,97.0,69.0,1047.783851755695,1,1,1,0.0,2.0
2021-09-02 08:18:29.872,1041.0,97.0,71.0,1047.917458581543,1,1,1,0.0,2.0
2021-09-02 08:18:29.881,1074.0,39.0,62.0,1076.494774720249,1,1,1,0.0,2.0
2021-09-02 08:18:29.891,1050.0,35.0,40.0,1051.3443774520315,1,1,1,0.0,2.0
2021-09-02 08:18:29.901,1034.0,-26.0,16.0,1034.4505788098338,1,1,1,0.0,2.0
2021-09-02 08:18:29.911,1034.0,-49.0,16.0,1035.2840190015493,1,1,1,0.0,2.0
2021-09-02 08:18:29.912,1034.0,-49.0,-36.0,1035.7861748449825,1,1,1,0.0,2.0
2021-09-02 08:18:29.931,1002.0,-62.0,-40.0,1004.7128943135943,1,1,1,0.0,2.0
2021-09-02 08:18:29.934,1015.0,9.0,-33.0,1015.5761911348652,1,1,1,0.0,2.0
2021-09-02 08:18:29.941,1016.0,9.0,-33.0,1016.575624338888,1,1,1,0.0,2.0
2021-09-02 08:18:29.942,1016.0,29.0,-22.0,1016.6518578156438,1,1,1,0.0,2.0
2021-09-02 08:18:29.950,1011.0,185.0,12.0,1027.8569939441966,1,1,1,0.0,2.0
2021-09-02 08:18:29.969,945.0,138.0,32.0,955.558998701807,1,1,1,0.0,2.0
2021-09-02 08:18:29.972,1003.0,13.0,53.0,1004.4834493410032,1,1,1,0.0,2.0
2021-09-02 08:18:29.979,1041.0,-36.0,70.0,1043.9717429126135,1,1,1,0.0,2.0
2021-09-02 08:18:29.990,1052.0,-104.0,70.0,1059.443250013893,1,1,1,0.0,2.0
2021-09-02 08:18:29.991,1052.0,-104.0,46.0,1058.1285366154718,1,1,1,0.0,2.0
2021-09-02 08:18:29.998,1060.0,-130.0,46.0,1068.9321774556138,1,1,1,0.0,2.0
2021-09-02 08:18:29.999,1060.0,-130.0,23.0,1068.1895899137007,1,1,1,0.0,2.0
2021-09-02 08:18:30.008,1061.0,-2.0,43.0,1061.8728737471356,1,1,1,0.0,2.0
2021-09-02 08:18:30.018,1038.0,21.0,-43.0,1039.102497350478,1,1,1,0.0,2.0
2021-09-02 08:18:30.028,990.0,-9.0,-53.0,991.4585215731418,1,1,1,0.0,2.0
2021-09-02 08:18:30.038,965.0,3.0,-53.0,966.459000682388,1,1,1,0.0,2.0
2021-09-02 08:18:30.039,965.0,3.0,-40.0,965.8333189531204,1,1,1,0.0,2.0
2021-09-02 08:18:30.047,970.0,67.0,-14.0,972.4119497414664,1,1,1,0.0,2.0
2021-09-02 08:18:30.057,977.0,99.0,-3.0,982.007637444842,1,1,1,0.0,2.0
2021-09-02 08:18:30.067,1006.0,66.0,58.0,1009.8296886109064,1,1,1,0.0,2.0
2021-09-02 08:18:30.076,1034.0,66.0,58.0,1037.726360848562,1,1,1,0.0,2.0
2021-09-02 08:18:30.077,1034.0,90.0,73.0,1040.4734499255617,1,1,1,0.0,2.0
2021-09-02 08:18:30.087,1064.0,39.0,61.0,1066.4605009094337,1,1,1,0.0,2.0
2021-09-02 08:18:30.097,1038.0,45.0,63.0,1040.8832787589586,1,1,1,0.0,2.0
2021-09-02 08:18:30.106,1025.0,-2.0,16.0,1025.1268214225984,1,1,1,0.0,2.0
2021-09-02 08:18:30.115,1038.0,-2.0,16.0,1038.1252332931706,1,1,1,0.0,2.0
2021-09-02 08:18:30.116,1038.0,-25.0,-16.0,1038.424287081153,1,1,1,0.0,2.0
2021-09-02 08:18:30.125,1012.0,-75.0,-50.0,1016.0063976176529,1,1,1,0.0,2.0
2021-09-02 08:18:30.150,1016.0,14.0,-38.0,1016.8067663032144,1,1,1,0.0,2.0
2021-09-02 08:18:30.151,1011.0,3.0,-21.0,1011.2225274389413,1,1,1,0.0,2.0
2021-09-02 08:18:30.154,1014.0,3.0,-21.0,1014.2218692179734,1,1,1,0.0,2.0
2021-09-02 08:18:30.155,1014.0,180.0,11.0,1029.9111612173158,1,1,1,0.0,2.0
2021-09-02 08:18:30.164,995.0,168.0,11.0,1009.1432009383008,1,1,1,0.0,2.0
2021-09-02 08:18:30.165,995.0,168.0,-18.0,1009.2437762998592,1,1,1,0.0,2.0
2021-09-02 08:18:30.175,987.0,59.0,60.0,990.5806378079476,1,1,1,0.0,2.0
2021-09-02 08:18:30.184,1036.0,59.0,60.0,1039.4118529245277,1,1,1,0.0,2.0
2021-09-02 08:18:30.185,1036.0,-36.0,74.0,1039.2632005416144,1,1,1,0.0,2.0
2021-09-02 08:18:30.195,1056.0,-95.0,47.0,1061.3057994753444,1,1,1,0.0,2.0
2021-09-02 08:18:30.203,1064.0,-146.0,47.0,1074.9981395332738,1,1,1,0.0,2.0
2021-09-02 08:18:30.204,1064.0,-146.0,16.0,1074.089381755541,1,1,1,0.0,2.0
2021-09-02 08:18:30.213,1058.0,-22.0,48.0,1059.316760936029,1,1,1,0.0,2.0
2021-09-02 08:18:30.223,1035.0,38.0,-40.0,1036.4694882146796,1,1,1,0.0,2.0
2021-09-02 08:18:30.233,1001.0,-42.0,-63.0,1003.859551929452,1,1,1,0.0,2.0
2021-09-02 08:18:30.242,964.0,-42.0,-63.0,966.9689757174218,1,1,1,0.0,2.0
2021-09-02 08:18:30.243,964.0,-8.0,-46.0,965.1300430511942,1,1,1,0.0,2.0
2021-09-02 08:18:30.260,983.0,53.0,-25.0,984.7451446948088,1,1,1,0.0,2.0
2021-09-02 08:18:30.262,984.0,102.0,-25.0,989.5882982331592,1,1,1,0.0,2.0
2021-09-02 08:18:30.263,984.0,102.0,-2.0,989.274481627824,1,1,1,0.0,2.0
2021-09-02 08:18:30.272,1003.0,87.0,49.0,1007.9578364197582,1,1,1,0.0,2.0
2021-09-02 08:18:30.282,1032.0,113.0,78.0,1041.094135993475,1,1,1,0.0,2.0
2021-09-02 08:18:30.292,1066.0,48.0,70.0,1069.373648450344,1,1,1,0.0,2.0
2021-09-02 08:18:30.301,1042.0,35.0,64.0,1044.550142405811,1,1,1,0.0,2.0
2021-09-02 08:18:30.311,1030.0,-13.0,8.0,1030.1131005865327,1,1,1,0.0,2.0
2021-09-02 08:18:30.320,1041.0,-13.0,8.0,1041.1119056086145,1,1,1,0.0,2.0
2021-09-02 08:18:30.321,1041.0,12.0,-13.0,1041.1503253613284,1,1,1,0.0,2.0
2021-09-02 08:18:30.330,1030.0,-104.0,-13.0,1035.318791484053,1,1,1,0.0,2.0
2021-09-02 08:18:30.331,1030.0,-104.0,-72.0,1037.7379245262264,1,1,1,0.0,2.0
2021-09-02 08:18:30.341,1014.0,-18.0,-41.0,1014.988177271046,1,1,1,0.0,2.0
2021-09-02 08:18:30.350,1010.0,-37.0,-35.0,1011.2833430844196,1,1,1,0.0,2.0
2021-09-02 08:18:30.360,1009.0,135.0,12.0,1018.0618841701128,1,1,1,0.0,2.0
2021-09-02 08:18:30.370,1022.0,183.0,-8.0,1038.2856061797254,1,1,1,0.0,2.0
2021-09-02 08:18:30.379,963.0,88.0,60.0,968.872024572905,1,1,1,0.0,2.0
2021-09-02 08:18:30.389,1045.0,88.0,60.0,1050.4137280138716,1,1,1,0.0,2.0
2021-09-02 08:18:30.390,1045.0,-61.0,51.0,1048.02051506638,1,1,1,0.0,2.0
2021-09-02 08:18:30.399,1047.0,-80.0,70.0,1052.3825350128157,1,1,1,0.0,2.0
2021-09-02 08:18:30.408,1068.0,-80.0,70.0,1073.2772242063093,1,1,1,0.0,2.0
2021-09-02 08:18:30.409,1068.0,-160.0,19.0,1080.0856447523038,1,1,1,0.0,2.0
2021-09-02 08:18:30.418,1053.0,-73.0,19.0,1055.6983470670018,1,1,1,0.0,2.0
2021-09-02 08:18:30.419,1053.0,-73.0,30.0,1055.9535974653431,1,1,1,0.0,2.0
2021-09-02 08:18:30.429,1040.0,-73.0,30.0,1042.9904122282237,1,1,1,0.0,2.0
2021-09-02 08:18:30.430,1040.0,48.0,-21.0,1041.3188752730837,1,1,1,0.0,2.0
2021-09-02 08:18:30.438,1004.0,-10.0,-74.0,1006.7730628100852,1,1,1,0.0,2.0
2021-09-02 08:18:30.449,969.0,-24.0,-63.0,971.342370124973,1,1,1,0.0,2.0
2021-09-02 08:18:30.457,966.0,35.0,-63.0,968.6846752168632,1,1,1,0.0,2.0
2021-09-02 08:18:30.458,966.0,35.0,-37.0,967.3417183188162,1,1,1,0.0,2.0
2021-09-02 08:18:30.467,974.0,81.0,13.0,977.4487198825316,1,1,1,0.0,2.0
2021-09-02 08:18:30.477,994.0,64.0,27.0,996.4241064928126,1,1,1,0.0,2.0
2021-09-02 08:18:30.487,1028.0,101.0,68.0,1035.185490624748,1,1,1,0.0,2.0
2021-09-02 08:18:30.497,1056.0,101.0,68.0,1062.9962370582505,1,1,1,0.0,2.0
2021-09-02 08:18:30.498,1056.0,65.0,82.0,1061.1715224222708,1,1,1,0.0,2.0
2021-09-02 08:18:30.506,1077.0,21.0,65.0,1079.1640283108031,1,1,1,0.0,2.0
2021-09-02 08:18:30.516,1028.0,28.0,4.0,1028.3890314467576,1,1,1,0.0,2.0
2021-09-02 08:18:30.526,1011.0,-33.0,11.0,1011.5982404096994,1,1,1,0.0,2.0
2021-09-02 08:18:30.538,1035.0,-94.0,-72.0,1041.7509299251908,1,1,1,0.0,2.0
2021-09-02 08:18:30.545,995.0,-61.0,-42.0,997.7524743141456,1,1,1,0.0,2.0
2021-09-02 08:18:30.555,1019.0,-61.0,-42.0,1021.6878192481304,1,1,1,0.0,2.0
2021-09-02 08:18:30.556,1019.0,-35.0,-38.0,1020.3087767925942,1,1,1,0.0,2.0
2021-09-02 08:18:30.565,1013.0,94.0,-4.0,1017.3598183533692,1,1,1,0.0,2.0
2021-09-02 08:18:30.574,1011.0,94.0,-4.0,1015.3684060477754,1,1,1,0.0,2.0
2021-09-02 08:18:30.575,1011.0,220.0,11.0,1034.718319157441,1,1,1,0.0,2.0
2021-09-02 08:18:30.584,935.0,220.0,11.0,960.5966895633152,1,1,1,0.0,2.0
2021-09-02 08:18:30.585,935.0,152.0,61.0,949.2365353272072,1,1,1,0.0,2.0
2021-09-02 08:18:30.594,1038.0,-16.0,62.0,1039.9730765745812,1,1,1,0.0,2.0
2021-09-02 08:18:30.604,1050.0,-56.0,72.0,1053.9544582191395,1,1,1,0.0,2.0
2021-09-02 08:18:30.614,1070.0,-160.0,24.0,1082.1626495125397,1,1,1,0.0,2.0
2021-09-02 08:18:30.623,1043.0,-94.0,24.0,1047.5022673006488,1,1,1,0.0,2.0
2021-09-02 08:18:30.624,1043.0,-94.0,26.0,1047.5499988067395,1,1,1,0.0,2.0
2021-09-02 08:18:30.634,1032.0,76.0,2.0,1034.7965983709068,1,1,1,0.0,2.0
2021-09-02 08:18:30.644,1018.0,-7.0,-62.0,1019.910290172621,1,1,1,0.0,2.0
2021-09-02 08:18:30.653,960.0,-9.0,-61.0,961.9781702304892,1,1,1,0.0,2.0
2021-09-02 08:18:30.662,959.0,19.0,-61.0,961.1259022625496,1,1,1,0.0,2.0
2021-09-02 08:18:30.663,959.0,19.0,-41.0,960.0640603626406,1,1,1,0.0,2.0
2021-09-02 08:18:30.672,971.0,93.0,1.0,975.4440014680496,1,1,1,0.0,2.0
2021-09-02 08:18:30.682,993.0,112.0,-8.0,999.328274392354,1,1,1,0.0,2.0
2021-09-02 08:18:30.693,1033.0,81.0,66.0,1038.2706776173543,1,1,1,0.0,2.0
2021-09-02 08:18:30.701,1067.0,81.0,66.0,1072.103539775893,1,1,1,0.0,2.0
2021-09-02 08:18:30.702,1067.0,75.0,72.0,1072.0531703231889,1,1,1,0.0,2.0
2021-09-02 08:18:30.712,1083.0,25.0,66.0,1085.2971943205234,1,1,1,0.0,2.0
2021-09-02 08:18:30.721,1033.0,31.0,14.0,1033.559867641928,1,1,1,0.0,2.0
2021-09-02 08:18:30.731,1011.0,-31.0,4.0,1011.4830695567772,1,1,1,0.0,2.0
2021-09-02 08:18:30.744,1043.0,-75.0,-55.0,1047.1384817682904,1,1,1,0.0,2.0
2021-09-02 08:18:30.750,1004.0,-62.0,-40.0,1006.707504690414,1,1,1,0.0,2.0
2021-09-02 08:18:30.760,1012.0,-27.0,-45.0,1013.359758427381,1,1,1,0.0,2.0
2021-09-02 08:18:30.770,1013.0,64.0,0.0,1015.0197042422378,1,1,1,0.0,2.0
2021-09-02 08:18:30.780,1019.0,224.0,6.0,1043.34701801462,1,1,1,0.0,2.0
2021-09-02 08:18:30.789,945.0,224.0,6.0,971.2038920844584,1,1,1,0.0,2.0
2021-09-02 08:18:30.790,945.0,158.0,60.0,959.9942708162378,1,1,1,0.0,2.0
2021-09-02 08:18:30.800,1036.0,-22.0,51.0,1037.487831253938,1,1,1,0.0,2.0
2021-09-02 08:18:30.809,1051.0,-39.0,76.0,1054.465741501354,1,1,1,0.0,2.0
2021-09-02 08:18:30.819,1090.0,-155.0,21.0,1101.165745925653,1,1,1,0.0,2.0
2021-09-02 08:18:30.828,1047.0,-155.0,21.0,1058.6193839147288,1,1,1,0.0,2.0
2021-09-02 08:18:30.829,1047.0,-128.0,26.0,1055.1156334734123,1,1,1,0.0,2.0
2021-09-02 08:18:30.838,1059.0,0.0,39.0,1059.7178869869094,1,1,1,0.0,2.0
2021-09-02 08:18:30.849,1003.0,21.0,-45.0,1004.2285596416784,1,1,1,0.0,2.0
2021-09-02 08:18:30.858,974.0,-12.0,-60.0,975.9200786949718,1,1,1,0.0,2.0
2021-09-02 08:18:30.868,956.0,52.0,-52.0,958.824280043012,1,1,1,0.0,2.0
2021-09-02 08:18:30.877,967.0,88.0,-52.0,972.3872685303936,1,1,1,0.0,2.0
2021-09-02 08:18:30.878,967.0,88.0,0.0,970.995880526792,1,1,1,0.0,2.0
2021-09-02 08:18:30.888,989.0,121.0,-18.0,996.537003828759,1,1,1,0.0,2.0
2021-09-02 08:18:30.897,1039.0,89.0,77.0,1045.6438208108916,1,1,1,0.0,2.0
2021-09-02 08:18:30.907,1057.0,92.0,86.0,1064.4759273933817,1,1,1,0.0,2.0
2021-09-02 08:18:30.916,1077.0,33.0,86.0,1080.9320052621256,1,1,1,0.0,2.0
2021-09-02 08:18:30.917,1077.0,33.0,63.0,1079.345635095635,1,1,1,0.0,2.0
2021-09-02 08:18:30.944,1026.0,44.0,14.0,1027.038460818289,1,1,1,0.0,2.0
2021-09-02 08:18:30.945,1006.0,44.0,14.0,1007.0590846618684,1,1,1,0.0,2.0
2021-09-02 08:18:30.946,1006.0,-46.0,-3.0,1007.0556091894828,1,1,1,0.0,2.0
2021-09-02 08:18:30.947,975.0,41.0,-3.0,975.8662818234884,1,1,1,0.0,2.0
2021-09-02 08:18:30.948,975.0,41.0,61.0,977.7663320037155,1,1,1,0.0,2.0
2021-09-02 08:18:30.955,992.0,-62.0,61.0,995.8057039402815,1,1,1,0.0,2.0
2021-09-02 08:18:30.956,992.0,-62.0,-53.0,995.3476779497704,1,1,1,0.0,2.0
2021-09-02 08:18:30.965,1004.0,-43.0,-42.0,1005.7976933757604,1,1,1,0.0,2.0
2021-09-02 08:18:30.976,1016.0,59.0,-14.0,1017.8079386603348,1,1,1,0.0,2.0
2021-09-02 08:18:30.992,1022.0,226.0,-14.0,1046.7836452677316,1,1,1,0.0,2.0
2021-09-02 08:18:30.993,1022.0,226.0,14.0,1046.7836452677316,1,1,1,0.0,2.0
2021-09-02 08:18:30.996,995.0,151.0,-20.0,1006.5912775302596,1,1,1,0.0,2.0
2021-09-02 08:18:31.004,1029.0,0.0,-20.0,1029.1943451068898,1,1,1,0.0,2.0
2021-09-02 08:18:31.005,1029.0,0.0,60.0,1030.747786803348,1,1,1,0.0,2.0
2021-09-02 08:18:31.015,1046.0,-35.0,92.0,1050.621244788054,1,1,1,0.0,2.0
2021-09-02 08:18:31.025,1076.0,-140.0,34.0,1085.6021370649562,1,1,1,0.0,2.0
2021-09-02 08:18:31.034,1057.0,-107.0,22.0,1062.6297567826716,1,1,1,0.0,2.0
2021-09-02 08:18:31.043,1057.0,-1.0,45.0,1057.957938672422,1,1,1,0.0,2.0
2021-09-02 08:18:31.053,1018.0,13.0,-72.0,1020.625788425905,1,1,1,0.0,2.0
2021-09-02 08:18:31.063,951.0,-31.0,-75.0,954.4563897842582,1,1,1,0.0,2.0
2021-09-02 08:18:31.074,951.0,15.0,-75.0,954.0707520933654,1,1,1,0.0,2.0
2021-09-02 08:18:31.075,951.0,15.0,-52.0,952.5387131240388,1,1,1,0.0,2.0
2021-09-02 08:18:31.082,956.0,80.0,8.0,959.3747964169164,1,1,1,0.0,2.0
2021-09-02 08:18:31.092,987.0,138.0,0.0,996.6007224560898,1,1,1,0.0,2.0
2021-09-02 08:18:31.102,1019.0,105.0,74.0,1027.0647496628435,1,1,1,0.0,2.0
2021-09-02 08:18:31.112,1054.0,96.0,78.0,1061.2332448618447,1,1,1,0.0,2.0
2021-09-02 08:18:31.123,1078.0,36.0,64.0,1080.4980333161186,1,1,1,0.0,2.0
2021-09-02 08:18:31.131,1029.0,32.0,29.0,1029.9058209370407,1,1,1,0.0,2.0
2021-09-02 08:18:31.141,1010.0,-42.0,9.0,1010.9129537205466,1,1,1,0.0,2.0
2021-09-02 08:18:31.151,982.0,14.0,61.0,983.9923780192609,1,1,1,0.0,2.0
2021-09-02 08:18:31.166,1000.0,-95.0,61.0,1006.3528208337272,1,1,1,0.0,2.0
2021-09-02 08:18:31.167,1000.0,-95.0,-48.0,1005.648546958628,1,1,1,0.0,2.0
2021-09-02 08:18:31.170,1006.0,-18.0,-45.0,1007.1668183573166,1,1,1,0.0,2.0
2021-09-02 08:18:31.180,1020.0,31.0,-16.0,1020.5963942715064,1,1,1,0.0,2.0
2021-09-02 08:18:31.190,1026.0,223.0,14.0,1050.0480941366447,1,1,1,0.0,2.0
2021-09-02 08:18:31.200,1009.0,144.0,-13.0,1019.306627075484,1,1,1,0.0,2.0
2021-09-02 08:18:31.211,1028.0,1.0,59.0,1029.692187015129,1,1,1,0.0,2.0
2021-09-02 08:18:31.219,1054.0,-32.0,86.0,1057.986767403071,1,1,1,0.0,2.0
2021-09-02 08:18:31.229,1079.0,-139.0,28.0,1088.2766192471472,1,1,1,0.0,2.0
2021-09-02 08:18:31.239,1048.0,-129.0,6.0,1055.926607298064,1,1,1,0.0,2.0
2021-09-02 08:18:31.248,1044.0,-129.0,6.0,1051.9567481603035,1,1,1,0.0,2.0
2021-09-02 08:18:31.249,1044.0,-2.0,32.0,1044.4922211294827,1,1,1,0.0,2.0
2021-09-02 08:18:31.260,1057.0,35.0,56.0,1059.060904764216,1,1,1,0.0,2.0
2021-09-02 08:18:31.276,960.0,-17.0,-72.0,962.8463013378616,1,1,1,0.0,2.0
2021-09-02 08:18:31.278,954.0,19.0,-47.0,955.3460106160488,1,1,1,0.0,2.0
2021-09-02 08:18:31.287,967.0,19.0,-47.0,968.3279403177418,1,1,1,0.0,2.0
2021-09-02 08:18:31.288,967.0,78.0,4.0,970.1489576348572,1,1,1,0.0,2.0
2021-09-02 08:18:31.297,991.0,120.0,-6.0,998.2569809422822,1,1,1,0.0,2.0
2021-09-02 08:18:31.308,999.0,120.0,-6.0,1006.1992844362392,1,1,1,0.0,2.0
2021-09-02 08:18:31.309,999.0,92.0,-32.0,1003.7375154889849,1,1,1,0.0,2.0
2021-09-02 08:18:31.317,1065.0,96.0,84.0,1072.612231889978,1,1,1,0.0,2.0
2021-09-02 08:18:31.326,1090.0,96.0,84.0,1097.4388365644802,1,1,1,0.0,2.0
2021-09-02 08:18:31.327,1090.0,25.0,41.0,1091.0572853888104,1,1,1,0.0,2.0
2021-09-02 08:18:31.336,1027.0,40.0,41.0,1028.5961306557597,1,1,1,0.0,2.0
2021-09-02 08:18:31.337,1027.0,40.0,12.0,1027.8487242780427,1,1,1,0.0,2.0
2021-09-02 08:18:31.346,996.0,-32.0,-2.0,996.5159306303136,1,1,1,0.0,2.0
2021-09-02 08:18:31.357,965.0,35.0,58.0,967.3747981005088,1,1,1,0.0,2.0
2021-09-02 08:18:31.365,988.0,35.0,58.0,990.3196453670904,1,1,1,0.0,2.0
2021-09-02 08:18:31.366,988.0,-69.0,-40.0,991.2139022431032,1,1,1,0.0,2.0
2021-09-02 08:18:31.375,1015.0,-38.0,-40.0,1016.498401376018,1,1,1,0.0,2.0
2021-09-02 08:18:31.376,1015.0,-38.0,-38.0,1016.4216644680494,1,1,1,0.0,2.0
2021-09-02 08:18:31.385,1017.0,79.0,4.0,1020.0715661168092,1,1,1,0.0,2.0
2021-09-02 08:18:31.395,1023.0,263.0,13.0,1056.3460607206334,1,1,1,0.0,2.0
2021-09-02 08:18:31.405,1005.0,130.0,-18.0,1013.5329299041052,1,1,1,0.0,2.0
2021-09-02 08:18:31.416,962.0,243.0,-18.0,992.379463713352,1,1,1,0.0,2.0
2021-09-02 08:18:31.417,962.0,243.0,-22.0,992.4600747637156,1,1,1,0.0,2.0
2021-09-02 08:18:31.426,1057.0,243.0,-22.0,1084.7958333253314,1,1,1,0.0,2.0
2021-09-02 08:18:31.427,1057.0,-32.0,82.0,1060.658757565316,1,1,1,0.0,2.0
2021-09-02 08:18:31.434,1073.0,-139.0,21.0,1082.1695800566563,1,1,1,0.0,2.0
2021-09-02 08:18:31.444,1050.0,-122.0,0.0,1057.0638580521047,1,1,1,0.0,2.0
2021-09-02 08:18:31.454,1043.0,11.0,25.0,1043.3575609540576,1,1,1,0.0,2.0
2021-09-02 08:18:31.463,1042.0,64.0,44.0,1044.8904248771737,1,1,1,0.0,2.0
2021-09-02 08:18:31.473,969.0,-34.0,-62.0,971.57655385461,1,1,1,0.0,2.0
2021-09-02 08:18:31.483,943.0,13.0,-35.0,943.73884099363,1,1,1,0.0,2.0
2021-09-02 08:18:31.492,972.0,13.0,-35.0,972.7168138775024,1,1,1,0.0,2.0
2021-09-02 08:18:31.493,972.0,108.0,14.0,978.081796170443,1,1,1,0.0,2.0
2021-09-02 08:18:31.502,1000.0,123.0,2.0,1007.5380886100536,1,1,1,0.0,2.0
2021-09-02 08:18:31.513,1001.0,107.0,-20.0,1006.9011868103048,1,1,1,0.0,2.0
2021-09-02 08:18:31.523,1057.0,92.0,81.0,1064.0836433288505,1,1,1,0.0,2.0
2021-09-02 08:18:31.532,1081.0,37.0,54.0,1082.980147555808,1,1,1,0.0,2.0
2021-09-02 08:18:31.541,1029.0,37.0,54.0,1031.080016293595,1,1,1,0.0,2.0
2021-09-02 08:18:31.542,1029.0,38.0,7.0,1029.7252060622775,1,1,1,0.0,2.0
2021-09-02 08:18:31.551,1006.0,-50.0,0.0,1007.2417783233576,1,1,1,0.0,2.0
2021-09-02 08:18:31.562,968.0,24.0,57.0,969.9737109839627,1,1,1,0.0,2.0
2021-09-02 08:18:31.571,1049.0,21.0,57.0,1050.7573459176956,1,1,1,0.0,2.0
2021-09-02 08:18:31.572,1049.0,21.0,36.0,1049.8276048952036,1,1,1,0.0,2.0
2021-09-02 08:18:31.580,1001.0,-37.0,36.0,1002.3302848861746,1,1,1,0.0,2.0
2021-09-02 08:18:31.581,1001.0,-37.0,-40.0,1002.4819200364662,1,1,1,0.0,2.0
2021-09-02 08:18:31.590,996.0,49.0,1.0,997.2050942509268,1,1,1,0.0,2.0
2021-09-02 08:18:31.600,1021.0,254.0,15.0,1052.227161785895,1,1,1,0.0,2.0
2021-09-02 08:18:31.610,1002.0,141.0,-12.0,1011.9431802230796,1,1,1,0.0,2.0
2021-09-02 08:18:31.619,945.0,141.0,-12.0,955.5364985179792,1,1,1,0.0,2.0
2021-09-02 08:18:31.620,945.0,240.0,-23.0,975.2712443212914,1,1,1,0.0,2.0
2021-09-02 08:18:31.629,1055.0,-35.0,83.0,1058.838514599842,1,1,1,0.0,2.0
2021-09-02 08:18:31.639,1074.0,-128.0,19.0,1081.7675351016965,1,1,1,0.0,2.0
2021-09-02 08:18:31.649,1042.0,-132.0,17.0,1050.4651350711265,1,1,1,0.0,2.0
2021-09-02 08:18:31.658,1034.0,-132.0,17.0,1042.5300954888544,1,1,1,0.0,2.0
2021-09-02 08:18:31.659,1034.0,13.0,33.0,1034.608138378971,1,1,1,0.0,2.0
2021-09-02 08:18:31.669,1038.0,13.0,33.0,1038.605796248028,1,1,1,0.0,2.0
2021-09-02 08:18:31.670,1038.0,49.0,55.0,1040.610397795448,1,1,1,0.0,2.0
2021-09-02 08:18:31.679,1047.0,87.0,64.0,1052.5559367558571,1,1,1,0.0,2.0
2021-09-02 08:18:31.688,951.0,1.0,-53.0,952.4762464229752,1,1,1,0.0,2.0
2021-09-02 08:18:31.698,973.0,100.0,12.0,978.1988550391992,1,1,1,0.0,2.0
2021-09-02 08:18:31.707,1007.0,114.0,12.0,1013.50333003893,1,1,1,0.0,2.0
2021-09-02 08:18:31.708,1007.0,114.0,2.0,1013.4342603247632,1,1,1,0.0,2.0
2021-09-02 08:18:31.718,999.0,102.0,-29.0,1004.6123630535312,1,1,1,0.0,2.0
2021-09-02 08:18:31.727,980.0,34.0,-29.0,981.01834845226,1,1,1,0.0,2.0
2021-09-02 08:18:31.728,980.0,34.0,-39.0,981.36486588832,1,1,1,0.0,2.0
2021-09-02 08:18:31.737,1079.0,48.0,56.0,1081.5179147845863,1,1,1,0.0,2.0
2021-09-02 08:18:31.746,1035.0,34.0,56.0,1037.0713572363284,1,1,1,0.0,2.0
2021-09-02 08:18:31.747,1035.0,34.0,7.0,1035.5819619904548,1,1,1,0.0,2.0
2021-09-02 08:18:31.756,997.0,-68.0,-4.0,999.3242716956294,1,1,1,0.0,2.0
2021-09-02 08:18:31.767,963.0,23.0,54.0,964.7870231299756,1,1,1,0.0,2.0
2021-09-02 08:18:31.776,1043.0,2.0,36.0,1043.623016227603,1,1,1,0.0,2.0
2021-09-02 08:18:31.785,997.0,-52.0,36.0,999.00400399598,1,1,1,0.0,2.0
2021-09-02 08:18:31.786,997.0,-52.0,-54.0,999.8144827916828,1,1,1,0.0,2.0
2021-09-02 08:18:31.795,1016.0,29.0,6.0,1016.4315028569312,1,1,1,0.0,2.0
2021-09-02 08:18:31.805,1023.0,-2.0,-3.0,1023.0063538414609,1,1,1,0.0,2.0
2021-09-02 08:18:31.815,1043.0,8.0,-20.0,1043.2224115690767,1,1,1,0.0,2.0
2021-09-02 08:18:31.826,1020.0,26.0,-10.0,1020.380321252816,1,1,1,0.0,2.0
2021-09-02 08:18:31.834,1033.0,26.0,1.0,1033.327634392887,1,1,1,0.0,2.0
2021-09-02 08:18:31.844,989.0,22.0,-25.0,989.5605085087016,1,1,1,0.0,2.0
2021-09-02 08:18:31.854,966.0,-3.0,-7.0,966.0300202374664,1,1,1,0.0,2.0
2021-09-02 08:18:31.864,982.0,11.0,11.0,982.1232101931,1,1,1,0.0,2.0
2021-09-02 08:18:31.875,982.0,47.0,34.0,983.711848053077,1,1,1,0.0,2.0
2021-09-02 08:18:31.883,1007.0,61.0,51.0,1010.134149506886,1,1,1,0.0,2.0
2021-09-02 08:18:31.893,989.0,14.0,-28.0,989.4953259111436,1,1,1,0.0,2.0
2021-09-02 08:18:31.903,1009.0,21.0,-12.0,1009.2898493495316,1,1,1,0.0,2.0
2021-09-02 08:18:31.912,1004.0,42.0,-12.0,1004.9497499875304,1,1,1,0.0,2.0
2021-09-02 08:18:31.913,1004.0,42.0,12.0,1004.9497499875304,1,1,1,0.0,2.0
