time_stamp,Acceleration_X,Acceleration_Y,Acceleration_Z,magnitude,STD_Status_right,STD_Status_left,STD_Status_both,KMeans,KMeans_convert
2021-09-02 08:19:20.703,978.0,182.0,-5.0,994.8029955724902,1,1,1,1.0,2.0
2021-09-02 08:19:20.712,992.0,85.0,-60.0,997.441226338675,1,1,1,1.0,2.0
2021-09-02 08:19:20.721,1013.0,85.0,-60.0,1018.3290234496905,1,1,1,1.0,2.0
2021-09-02 08:19:20.722,1013.0,104.0,63.0,1020.2715324853476,1,1,1,1.0,2.0
2021-09-02 08:19:20.731,1010.0,116.0,50.0,1017.868360840438,1,1,1,1.0,2.0
2021-09-02 08:19:20.743,996.0,141.0,36.0,1006.5748854407208,1,1,1,1.0,2.0
2021-09-02 08:19:20.751,1040.0,126.0,18.0,1047.7595143924964,1,1,1,1.0,2.0
2021-09-02 08:19:20.760,1056.0,126.0,18.0,1063.64279718334,1,1,1,1.0,2.0
2021-09-02 08:19:20.761,1056.0,77.0,35.0,1059.381895257796,1,1,1,1.0,2.0
2021-09-02 08:19:20.770,1032.0,59.0,35.0,1034.2775256187288,1,1,1,1.0,2.0
2021-09-02 08:19:20.780,999.0,120.0,52.0,1007.5241932579088,1,1,1,1.0,2.0
2021-09-02 08:19:20.791,1016.0,65.0,14.0,1018.173364412957,1,1,1,1.0,2.0
2021-09-02 08:19:20.800,1003.0,1.0,27.0,1003.3638422825492,1,1,1,1.0,2.0
2021-09-02 08:19:20.809,1016.0,-75.0,-32.0,1019.2668934091796,1,1,1,1.0,2.0
2021-09-02 08:19:20.819,1028.0,-53.0,-33.0,1029.894169320324,1,1,1,1.0,2.0
2021-09-02 08:19:20.829,970.0,185.0,-32.0,988.0025303611322,1,1,1,1.0,2.0
2021-09-02 08:19:20.839,928.0,203.0,-38.0,950.7034237868296,1,1,1,1.0,2.0
2021-09-02 08:19:20.848,943.0,154.0,-38.0,956.2473529375128,1,1,1,1.0,2.0
2021-09-02 08:19:20.849,943.0,154.0,-11.0,955.5553359172874,1,1,1,1.0,2.0
2021-09-02 08:19:20.859,977.0,121.0,50.0,985.733229631628,1,1,1,1.0,2.0
2021-09-02 08:19:20.868,1019.0,-20.0,48.0,1020.3259283189856,1,1,1,1.0,2.0
2021-09-02 08:19:20.878,1071.0,13.0,72.0,1073.4961574220931,1,1,1,1.0,2.0
2021-09-02 08:19:20.887,1064.0,13.0,72.0,1066.5125409483005,1,1,1,1.0,2.0
2021-09-02 08:19:20.888,1064.0,91.0,65.0,1069.8607386010574,1,1,1,1.0,2.0
2021-09-02 08:19:20.899,1053.0,67.0,29.0,1055.5278300452337,1,1,1,1.0,2.0
2021-09-02 08:19:20.907,1029.0,54.0,-1.0,1030.4164206766118,1,1,1,1.0,2.0
2021-09-02 08:19:20.917,1017.0,-13.0,-48.0,1018.215104975368,1,1,1,1.0,2.0
2021-09-02 08:19:20.927,989.0,-17.0,-34.0,989.7302662847084,1,1,1,1.0,2.0
2021-09-02 08:19:20.936,957.0,-17.0,-34.0,957.754665872216,1,1,1,1.0,2.0
2021-09-02 08:19:20.937,957.0,70.0,-58.0,961.3079631418852,1,1,1,1.0,2.0
2021-09-02 08:19:20.947,958.0,99.0,-23.0,963.3763542873576,1,1,1,1.0,2.0
2021-09-02 08:19:20.956,1003.0,110.0,12.0,1009.0852293042446,1,1,1,1.0,2.0
2021-09-02 08:19:20.966,1030.0,106.0,67.0,1037.6054163312758,1,1,1,1.0,2.0
2021-09-02 08:19:20.975,1043.0,64.0,67.0,1047.1074443437026,1,1,1,1.0,2.0
2021-09-02 08:19:20.976,1043.0,64.0,68.0,1047.171905658283,1,1,1,1.0,2.0
2021-09-02 08:19:20.985,1012.0,95.0,62.0,1018.3383524153452,1,1,1,1.0,2.0
2021-09-02 08:19:20.995,1025.0,24.0,39.0,1026.0224169091043,1,1,1,1.0,2.0
2021-09-02 08:19:21.005,1019.0,24.0,39.0,1020.0284309763136,1,1,1,1.0,2.0
2021-09-02 08:19:21.006,1019.0,2.0,30.0,1019.4434756277564,1,1,1,1.0,2.0
2021-09-02 08:19:21.015,1033.0,-79.0,-40.0,1036.7883101192838,1,1,1,1.0,2.0
2021-09-02 08:19:21.024,1028.0,-40.0,-29.0,1029.1865720072333,1,1,1,1.0,2.0
2021-09-02 08:19:21.034,961.0,169.0,-49.0,976.9764582629408,1,1,1,1.0,2.0
2021-09-02 08:19:21.044,923.0,203.0,-36.0,945.7452088168357,1,1,1,1.0,2.0
2021-09-02 08:19:21.055,943.0,136.0,-22.0,953.0104931216656,1,1,1,1.0,2.0
2021-09-02 08:19:21.063,964.0,121.0,38.0,972.3070502675582,1,1,1,1.0,2.0
2021-09-02 08:19:21.073,1014.0,-11.0,50.0,1015.2915837334612,1,1,1,1.0,2.0
2021-09-02 08:19:21.083,1039.0,-67.0,43.0,1042.0455844155765,1,1,1,1.0,2.0
2021-09-02 08:19:21.093,1058.0,112.0,55.0,1065.3323425110118,1,1,1,1.0,2.0
2021-09-02 08:19:21.103,1054.0,96.0,24.0,1058.634970138433,1,1,1,1.0,2.0
2021-09-02 08:19:21.112,1017.0,70.0,0.0,1019.4061997064762,1,1,1,1.0,2.0
2021-09-02 08:19:21.122,1018.0,-13.0,0.0,1018.0830025101096,1,1,1,1.0,2.0
2021-09-02 08:19:21.123,1018.0,-13.0,-50.0,1019.3100607764056,1,1,1,1.0,2.0
2021-09-02 08:19:21.132,984.0,-22.0,-53.0,985.6718520887162,1,1,1,1.0,2.0
2021-09-02 08:19:21.141,955.0,79.0,-53.0,959.726523547203,1,1,1,1.0,2.0
2021-09-02 08:19:21.142,955.0,79.0,-50.0,959.5655266838216,1,1,1,1.0,2.0
2021-09-02 08:19:21.152,960.0,81.0,-16.0,963.543979276504,1,1,1,1.0,2.0
2021-09-02 08:19:21.162,1003.0,81.0,-16.0,1006.3925675401224,1,1,1,1.0,2.0
2021-09-02 08:19:21.163,1003.0,104.0,9.0,1008.4175722388022,1,1,1,1.0,2.0
2021-09-02 08:19:21.171,1026.0,85.0,69.0,1031.8245974970746,1,1,1,1.0,2.0
2021-09-02 08:19:21.180,1045.0,85.0,69.0,1050.7192774475968,1,1,1,1.0,2.0
2021-09-02 08:19:21.181,1045.0,57.0,69.0,1048.825533632739,1,1,1,1.0,2.0
2021-09-02 08:19:21.190,1058.0,2.0,65.0,1059.996698108065,1,1,1,1.0,2.0
2021-09-02 08:19:21.200,1016.0,17.0,28.0,1016.5279140289264,1,1,1,1.0,2.0
2021-09-02 08:19:21.210,1019.0,17.0,28.0,1019.52636062046,1,1,1,1.0,2.0
2021-09-02 08:19:21.211,1019.0,4.0,14.0,1019.1040182434764,1,1,1,1.0,2.0
2021-09-02 08:19:21.220,1026.0,-81.0,-50.0,1030.4062305712248,1,1,1,1.0,2.0
2021-09-02 08:19:21.229,1016.0,-23.0,-38.0,1016.9705010471052,1,1,1,1.0,2.0
2021-09-02 08:19:21.239,1023.0,1.0,-44.0,1023.9462876538008,1,1,1,1.0,2.0
2021-09-02 08:19:21.249,928.0,189.0,-28.0,947.4645112087312,1,1,1,1.0,2.0
2021-09-02 08:19:21.259,957.0,189.0,-28.0,975.886263864801,1,1,1,1.0,2.0
2021-09-02 08:19:21.260,957.0,131.0,-2.0,965.926498238867,1,1,1,1.0,2.0
2021-09-02 08:19:21.268,982.0,112.0,-2.0,988.3683523869024,1,1,1,1.0,2.0
2021-09-02 08:19:21.269,982.0,112.0,65.0,990.5013881868113,1,1,1,1.0,2.0
2021-09-02 08:19:21.306,1029.0,-41.0,65.0,1031.865785846202,1,1,1,1.0,2.0
2021-09-02 08:19:21.307,1029.0,-41.0,66.0,1031.9292611414796,1,1,1,1.0,2.0
2021-09-02 08:19:21.308,1053.0,94.0,40.0,1057.9437603199897,1,1,1,1.0,2.0
2021-09-02 08:19:21.310,1056.0,64.0,23.0,1058.1876015149676,1,1,1,1.0,2.0
2021-09-02 08:19:21.317,1017.0,63.0,-19.0,1019.1265868379649,1,1,1,1.0,2.0
2021-09-02 08:19:21.327,1015.0,-32.0,-57.0,1017.1027480053332,1,1,1,1.0,2.0
2021-09-02 08:19:21.338,976.0,-32.0,-57.0,978.1865875179438,1,1,1,1.0,2.0
2021-09-02 08:19:21.339,976.0,-20.0,-38.0,976.9442153981976,1,1,1,1.0,2.0
2021-09-02 08:19:21.347,991.0,16.0,-35.0,991.746943529447,1,1,1,1.0,2.0
2021-09-02 08:19:21.375,970.0,83.0,-12.0,973.6185084518472,1,1,1,1.0,2.0
2021-09-02 08:19:21.380,1001.0,93.0,35.0,1005.9199769365356,1,1,1,1.0,2.0
2021-09-02 08:19:21.382,1024.0,93.0,35.0,1028.809992175426,1,1,1,1.0,2.0
2021-09-02 08:19:21.383,1024.0,104.0,81.0,1032.4499987892875,1,1,1,1.0,2.0
2021-09-02 08:19:21.385,1060.0,104.0,81.0,1068.16524938794,1,1,1,1.0,2.0
2021-09-02 08:19:21.386,1060.0,43.0,47.0,1061.912425767775,1,1,1,1.0,2.0
2021-09-02 08:19:21.395,1064.0,-20.0,69.0,1066.4225241432216,1,1,1,1.0,2.0
2021-09-02 08:19:21.405,1023.0,9.0,26.0,1023.369923341506,1,1,1,1.0,2.0
2021-09-02 08:19:21.415,1028.0,-6.0,3.0,1028.0218869265382,1,1,1,1.0,2.0
2021-09-02 08:19:21.430,1020.0,-94.0,-51.0,1025.5910491029065,1,1,1,1.0,2.0
2021-09-02 08:19:21.434,1018.0,-17.0,-51.0,1019.4184616731249,1,1,1,1.0,2.0
2021-09-02 08:19:21.435,1018.0,-17.0,-34.0,1018.7094777216907,1,1,1,1.0,2.0
2021-09-02 08:19:21.444,1023.0,-12.0,-35.0,1023.6688917809312,1,1,1,1.0,2.0
2021-09-02 08:19:21.454,1017.0,105.0,-3.0,1022.410387271178,1,1,1,1.0,2.0
2021-09-02 08:19:21.464,950.0,140.0,3.0,960.2650675724906,1,1,1,1.0,2.0
2021-09-02 08:19:21.474,975.0,112.0,62.0,983.3681914725532,1,1,1,1.0,2.0
2021-09-02 08:19:21.483,1035.0,-36.0,59.0,1037.3051624281063,1,1,1,1.0,2.0
2021-09-02 08:19:21.493,1043.0,-72.0,42.0,1046.3254751749091,1,1,1,1.0,2.0
2021-09-02 08:19:21.503,1059.0,-140.0,21.0,1068.4203292712095,1,1,1,1.0,2.0
2021-09-02 08:19:21.512,1047.0,-140.0,21.0,1056.527330455772,1,1,1,1.0,2.0
2021-09-02 08:19:21.513,1047.0,59.0,19.0,1048.8331611843707,1,1,1,1.0,2.0
2021-09-02 08:19:21.522,1027.0,54.0,-22.0,1028.6539748622954,1,1,1,1.0,2.0
2021-09-02 08:19:21.533,1019.0,-15.0,-68.0,1021.3765221503772,1,1,1,1.0,2.0
2021-09-02 08:19:21.542,974.0,-13.0,-44.0,975.079996718218,1,1,1,1.0,2.0
2021-09-02 08:19:21.552,977.0,40.0,-41.0,978.6776793204184,1,1,1,1.0,2.0
2021-09-02 08:19:21.562,961.0,103.0,-10.0,966.555740762011,1,1,1,1.0,2.0
2021-09-02 08:19:21.571,1004.0,89.0,33.0,1008.477069645116,1,1,1,1.0,2.0
2021-09-02 08:19:21.582,1034.0,107.0,82.0,1042.7506892829176,1,1,1,1.0,2.0
2021-09-02 08:19:21.591,1053.0,50.0,73.0,1056.7109349296998,1,1,1,1.0,2.0
2021-09-02 08:19:21.600,1063.0,-2.0,73.0,1065.5055138289997,1,1,1,1.0,2.0
2021-09-02 08:19:21.601,1063.0,-2.0,68.0,1065.1746335695382,1,1,1,1.0,2.0
2021-09-02 08:19:21.610,1034.0,13.0,30.0,1034.516795417068,1,1,1,1.0,2.0
2021-09-02 08:19:21.620,1014.0,-14.0,6.0,1014.1143919696632,1,1,1,1.0,2.0
2021-09-02 08:19:21.630,1040.0,-106.0,6.0,1045.4051846054715,1,1,1,1.0,2.0
2021-09-02 08:19:21.631,1040.0,-106.0,-57.0,1046.9407815153634,1,1,1,1.0,2.0
2021-09-02 08:19:21.639,1017.0,-38.0,-57.0,1019.3046649554784,1,1,1,1.0,2.0
2021-09-02 08:19:21.640,1017.0,-38.0,-39.0,1018.4566755635706,1,1,1,1.0,2.0
2021-09-02 08:19:21.649,1022.0,-22.0,-41.0,1023.058649345188,1,1,1,1.0,2.0
2021-09-02 08:19:21.659,1015.0,92.0,-14.0,1019.2570823889328,1,1,1,1.0,2.0
2021-09-02 08:19:21.669,940.0,131.0,-4.0,949.0927246586604,1,1,1,1.0,2.0
2021-09-02 08:19:21.678,968.0,131.0,-4.0,976.832124778869,1,1,1,1.0,2.0
2021-09-02 08:19:21.679,968.0,95.0,41.0,973.5142525921232,1,1,1,1.0,2.0
2021-09-02 08:19:21.690,1018.0,-48.0,54.0,1020.5606302420254,1,1,1,1.0,2.0
2021-09-02 08:19:21.698,1031.0,-90.0,56.0,1036.434754338159,1,1,1,1.0,2.0
2021-09-02 08:19:21.708,1057.0,-149.0,26.0,1067.7668284789522,1,1,1,1.0,2.0
2021-09-02 08:19:21.718,1063.0,-48.0,59.0,1065.7175986160687,1,1,1,1.0,2.0
2021-09-02 08:19:21.727,1033.0,45.0,59.0,1035.6616242769644,1,1,1,1.0,2.0
2021-09-02 08:19:21.728,1033.0,45.0,-37.0,1034.6414838000649,1,1,1,1.0,2.0
2021-09-02 08:19:21.738,1008.0,-21.0,-54.0,1009.6638054322837,1,1,1,1.0,2.0
2021-09-02 08:19:21.747,980.0,-7.0,-38.0,980.7614388830752,1,1,1,1.0,2.0
2021-09-02 08:19:21.757,978.0,38.0,-41.0,979.5963454403044,1,1,1,1.0,2.0
2021-09-02 08:19:21.767,976.0,99.0,-4.0,981.0163097522895,1,1,1,1.0,2.0
2021-09-02 08:19:21.776,1004.0,93.0,34.0,1008.8711513369782,1,1,1,1.0,2.0
2021-09-02 08:19:21.786,1031.0,97.0,72.0,1038.052985160199,1,1,1,1.0,2.0
2021-09-02 08:19:21.796,1052.0,57.0,69.0,1055.800170486821,1,1,1,1.0,2.0
2021-09-02 08:19:21.806,1054.0,7.0,70.0,1056.345114060741,1,1,1,1.0,2.0
2021-09-02 08:19:21.815,1037.0,-15.0,19.0,1037.2825073238246,1,1,1,1.0,2.0
2021-09-02 08:19:21.825,1032.0,10.0,9.0,1032.0876900728929,1,1,1,1.0,2.0
2021-09-02 08:19:21.835,1040.0,-108.0,-63.0,1047.488902089182,1,1,1,1.0,2.0
2021-09-02 08:19:21.846,1026.0,-35.0,-36.0,1027.227822831917,1,1,1,1.0,2.0
2021-09-02 08:19:21.854,1031.0,-9.0,-40.0,1031.814905881864,1,1,1,1.0,2.0
2021-09-02 08:19:21.864,1012.0,90.0,-14.0,1016.0905471462668,1,1,1,1.0,2.0
2021-09-02 08:19:21.884,997.0,177.0,-14.0,1012.686526028662,1,1,1,1.0,2.0
2021-09-02 08:19:21.885,997.0,177.0,4.0,1012.5976496121252,1,1,1,1.0,2.0
2021-09-02 08:19:21.887,966.0,177.0,4.0,982.0901180645288,1,1,1,1.0,2.0
2021-09-02 08:19:21.898,966.0,107.0,58.0,973.63699601032,1,1,1,1.0,2.0
2021-09-02 08:19:21.917,1033.0,-53.0,60.0,1036.097485760872,1,1,1,1.0,2.0
2021-09-02 08:19:21.918,1047.0,-53.0,60.0,1050.0561889727617,1,1,1,1.0,2.0
2021-09-02 08:19:21.919,1047.0,-66.0,53.0,1050.416108025767,1,1,1,1.0,2.0
2021-09-02 08:19:21.921,1048.0,-126.0,53.0,1056.8770032506147,1,1,1,1.0,2.0
2021-09-02 08:19:21.922,1048.0,-126.0,21.0,1055.7561271430066,1,1,1,1.0,2.0
2021-09-02 08:19:21.926,1048.0,-44.0,55.0,1050.3642225437802,1,1,1,1.0,2.0
2021-09-02 08:19:21.932,1029.0,44.0,55.0,1031.4077758093547,1,1,1,1.0,2.0
2021-09-02 08:19:21.933,1029.0,44.0,-36.0,1030.5692601664382,1,1,1,1.0,2.0
2021-09-02 08:19:21.942,1012.0,-35.0,-70.0,1015.0216746454236,1,1,1,1.0,2.0
2021-09-02 08:19:21.953,984.0,-14.0,-46.0,985.1740962895848,1,1,1,1.0,2.0
2021-09-02 08:19:21.962,970.0,36.0,-29.0,971.1009216348216,1,1,1,1.0,2.0
2021-09-02 08:19:21.971,983.0,105.0,-29.0,989.017188930506,1,1,1,1.0,2.0
2021-09-02 08:19:21.972,983.0,105.0,-4.0,988.600020230629,1,1,1,1.0,2.0
2021-09-02 08:19:21.981,973.0,128.0,-31.0,981.8727005065372,1,1,1,1.0,2.0
2021-09-02 08:19:21.991,1032.0,111.0,80.0,1041.0307392195486,1,1,1,1.0,2.0
2021-09-02 08:19:22.002,1063.0,52.0,76.0,1066.9812556929012,1,1,1,1.0,2.0
2021-09-02 08:19:22.011,1060.0,0.0,59.0,1061.6407113520092,1,1,1,1.0,2.0
2021-09-02 08:19:22.020,1016.0,-3.0,16.0,1016.130405016994,1,1,1,1.0,2.0
2021-09-02 08:19:22.030,1011.0,6.0,24.0,1011.3026253303212,1,1,1,1.0,2.0
2021-09-02 08:19:22.040,1027.0,-118.0,-62.0,1035.6143104457374,1,1,1,1.0,2.0
2021-09-02 08:19:22.050,1014.0,-16.0,-40.0,1014.9147747471212,1,1,1,1.0,2.0
2021-09-02 08:19:22.059,1015.0,-14.0,-40.0,1015.8843438108494,1,1,1,1.0,2.0
2021-09-02 08:19:22.060,1015.0,-14.0,-51.0,1016.3768985961852,1,1,1,1.0,2.0
2021-09-02 08:19:22.069,1009.0,109.0,-2.0,1014.8724057732578,1,1,1,1.0,2.0
2021-09-02 08:19:22.079,994.0,156.0,0.0,1006.166984153227,1,1,1,1.0,2.0
2021-09-02 08:19:22.089,971.0,100.0,55.0,977.6839980279926,1,1,1,1.0,2.0
2021-09-02 08:19:22.098,1031.0,100.0,55.0,1037.2974501077306,1,1,1,1.0,2.0
2021-09-02 08:19:22.099,1031.0,-45.0,61.0,1033.7828592117398,1,1,1,1.0,2.0
2021-09-02 08:19:22.109,1049.0,-45.0,61.0,1051.735232841422,1,1,1,1.0,2.0
2021-09-02 08:19:22.110,1049.0,-81.0,52.0,1053.4068539742848,1,1,1,1.0,2.0
2021-09-02 08:19:22.119,1066.0,-123.0,22.0,1073.2981878303904,1,1,1,1.0,2.0
2021-09-02 08:19:22.131,1018.0,-24.0,56.0,1019.8215530179776,1,1,1,1.0,2.0
2021-09-02 08:19:22.137,1039.0,-24.0,56.0,1040.784800042737,1,1,1,1.0,2.0
2021-09-02 08:19:22.138,1039.0,18.0,68.0,1041.3784134501732,1,1,1,1.0,2.0
2021-09-02 08:19:22.148,998.0,-32.0,-56.0,1000.0819966382757,1,1,1,1.0,2.0
2021-09-02 08:19:22.158,976.0,-2.0,-48.0,977.181661719048,1,1,1,1.0,2.0
2021-09-02 08:19:22.167,968.0,49.0,-35.0,969.8711254594602,1,1,1,1.0,2.0
2021-09-02 08:19:22.176,967.0,49.0,-35.0,968.873056700412,1,1,1,1.0,2.0
2021-09-02 08:19:22.177,967.0,108.0,-10.0,973.0637183658632,1,1,1,1.0,2.0
2021-09-02 08:19:22.186,972.0,121.0,-48.0,980.6778268116396,1,1,1,1.0,2.0
2021-09-02 08:19:22.196,1038.0,91.0,84.0,1045.361659905317,1,1,1,1.0,2.0
2021-09-02 08:19:22.206,1077.0,33.0,84.0,1080.7747221322304,1,1,1,1.0,2.0
2021-09-02 08:19:22.207,1077.0,33.0,65.0,1079.4642189530878,1,1,1,1.0,2.0
2021-09-02 08:19:22.216,1052.0,4.0,50.0,1053.1951386139228,1,1,1,1.0,2.0
2021-09-02 08:19:22.225,1032.0,-22.0,5.0,1032.246579069168,1,1,1,1.0,2.0
2021-09-02 08:19:22.235,1016.0,1.0,48.0,1017.133717856212,1,1,1,1.0,2.0
2021-09-02 08:19:22.245,1020.0,56.0,37.0,1022.2059479380856,1,1,1,1.0,2.0
2021-09-02 08:19:22.255,1029.0,-15.0,-50.0,1030.3232502472222,1,1,1,1.0,2.0
2021-09-02 08:19:22.264,1005.0,-15.0,-50.0,1006.3548082063304,1,1,1,1.0,2.0
2021-09-02 08:19:22.265,1005.0,16.0,-40.0,1005.9229592767032,1,1,1,1.0,2.0
2021-09-02 08:19:22.275,998.0,180.0,9.0,1014.1424949187368,1,1,1,1.0,2.0
2021-09-02 08:19:22.284,986.0,154.0,-33.0,998.4993740608954,1,1,1,1.0,2.0
2021-09-02 08:19:22.294,959.0,224.0,-36.0,985.4709534024836,1,1,1,1.0,2.0
2021-09-02 08:19:22.304,930.0,148.0,-49.0,942.9766699128882,1,1,1,1.0,2.0
2021-09-02 08:19:22.342,1052.0,148.0,-49.0,1063.4890690552488,1,1,1,1.0,2.0
2021-09-02 08:19:22.343,1052.0,-145.0,47.0,1062.9854185265197,1,1,1,1.0,2.0
2021-09-02 08:19:22.344,1056.0,-20.0,48.0,1057.279527844931,1,1,1,1.0,2.0
2021-09-02 08:19:22.346,1051.0,40.0,72.0,1054.2224622915223,1,1,1,1.0,2.0
2021-09-02 08:19:22.352,1055.0,86.0,72.0,1060.9453331816867,1,1,1,1.0,2.0
2021-09-02 08:19:22.353,1055.0,86.0,47.0,1059.5423540378176,1,1,1,1.0,2.0
2021-09-02 08:19:22.363,964.0,0.0,-54.0,965.5112635282926,1,1,1,1.0,2.0
2021-09-02 08:19:22.373,972.0,0.0,-54.0,973.4988443752771,1,1,1,1.0,2.0
2021-09-02 08:19:22.374,972.0,67.0,-27.0,974.6804604587084,1,1,1,1.0,2.0
2021-09-02 08:19:22.382,967.0,121.0,-15.0,974.6563496945988,1,1,1,1.0,2.0
2021-09-02 08:19:22.409,976.0,102.0,-41.0,982.1715736061597,1,1,1,1.0,2.0
2021-09-02 08:19:22.410,970.0,88.0,-42.0,974.8887115973804,1,1,1,1.0,2.0
2021-09-02 08:19:22.412,1076.0,11.0,65.0,1078.0176250878276,1,1,1,1.0,2.0
2021-09-02 08:19:22.421,1051.0,9.0,38.0,1051.725249292799,1,1,1,1.0,2.0
2021-09-02 08:19:22.433,1028.0,-12.0,38.0,1028.772083602583,1,1,1,1.0,2.0
2021-09-02 08:19:22.434,1028.0,-12.0,12.0,1028.1400682786368,1,1,1,1.0,2.0
2021-09-02 08:19:22.441,996.0,37.0,63.0,998.6761236757392,1,1,1,1.0,2.0
2021-09-02 08:19:22.450,1024.0,42.0,46.0,1025.8927819221656,1,1,1,1.0,2.0
2021-09-02 08:19:22.460,1022.0,-1.0,40.0,1022.7829681804444,1,1,1,1.0,2.0
2021-09-02 08:19:22.469,1007.0,-1.0,40.0,1007.7946219344497,1,1,1,1.0,2.0
2021-09-02 08:19:22.470,1007.0,34.0,-25.0,1007.8839218878333,1,1,1,1.0,2.0
2021-09-02 08:19:22.479,1008.0,183.0,-25.0,1024.781928021762,1,1,1,1.0,2.0
2021-09-02 08:19:22.480,1008.0,183.0,5.0,1024.4891409868628,1,1,1,1.0,2.0
2021-09-02 08:19:22.490,978.0,160.0,5.0,991.0141270436058,1,1,1,1.0,2.0
2021-09-02 08:19:22.491,978.0,160.0,-30.0,991.455495723333,1,1,1,1.0,2.0
2021-09-02 08:19:22.499,957.0,242.0,-30.0,987.5793638994286,1,1,1,1.0,2.0
2021-09-02 08:19:22.500,957.0,242.0,-35.0,987.7438939320252,1,1,1,1.0,2.0
2021-09-02 08:19:22.508,920.0,242.0,-35.0,951.9395989242174,1,1,1,1.0,2.0
2021-09-02 08:19:22.509,920.0,138.0,-53.0,931.8009444081928,1,1,1,1.0,2.0
2021-09-02 08:19:22.518,1071.0,-146.0,-53.0,1082.204232111481,1,1,1,1.0,2.0
2021-09-02 08:19:22.519,1071.0,-146.0,34.0,1081.4402433791706,1,1,1,1.0,2.0
2021-09-02 08:19:22.529,1057.0,-146.0,34.0,1067.5771634874925,1,1,1,1.0,2.0
2021-09-02 08:19:22.530,1057.0,-93.0,49.0,1062.2141968548528,1,1,1,1.0,2.0
2021-09-02 08:19:22.538,1059.0,-13.0,54.0,1060.4555624824643,1,1,1,1.0,2.0
2021-09-02 08:19:22.548,1036.0,36.0,68.0,1038.8532138853882,1,1,1,1.0,2.0
2021-09-02 08:19:22.557,1041.0,87.0,68.0,1046.840006877842,1,1,1,1.0,2.0
2021-09-02 08:19:22.558,1041.0,87.0,48.0,1045.7313230462212,1,1,1,1.0,2.0
2021-09-02 08:19:22.567,1060.0,53.0,20.0,1061.512600019425,1,1,1,1.0,2.0
2021-09-02 08:19:22.578,959.0,70.0,-41.0,962.4250620178176,1,1,1,1.0,2.0
2021-09-02 08:19:22.587,967.0,128.0,-18.0,975.600840508043,1,1,1,1.0,2.0
2021-09-02 08:19:22.597,977.0,94.0,-43.0,982.4530523134426,1,1,1,1.0,2.0
2021-09-02 08:19:22.606,966.0,75.0,-37.0,969.6133249909471,1,1,1,1.0,2.0
2021-09-02 08:19:22.616,971.0,89.0,-15.0,975.185623355882,1,1,1,1.0,2.0
2021-09-02 08:19:22.626,1052.0,7.0,35.0,1052.605339146634,1,1,1,1.0,2.0
2021-09-02 08:19:22.635,1026.0,7.0,35.0,1026.6206699652994,1,1,1,1.0,2.0
2021-09-02 08:19:22.636,1026.0,-31.0,6.0,1026.4857524583574,1,1,1,1.0,2.0
2021-09-02 08:19:22.645,986.0,31.0,45.0,987.5130378886143,1,1,1,1.0,2.0
2021-09-02 08:19:22.656,1030.0,35.0,32.0,1031.0911695868606,1,1,1,1.0,2.0
2021-09-02 08:19:22.665,1020.0,6.0,42.0,1020.8819716304132,1,1,1,1.0,2.0
2021-09-02 08:19:22.675,1003.0,32.0,-12.0,1003.5820843359052,1,1,1,1.0,2.0
2021-09-02 08:19:22.686,1007.0,200.0,13.0,1026.7511869971224,1,1,1,1.0,2.0
2021-09-02 08:19:22.694,996.0,167.0,-28.0,1010.2915420807996,1,1,1,1.0,2.0
2021-09-02 08:19:22.704,956.0,263.0,-28.0,991.9117904330002,1,1,1,1.0,2.0
2021-09-02 08:19:22.708,956.0,263.0,-32.0,992.0327615557866,1,1,1,1.0,2.0
2021-09-02 08:19:22.714,909.0,119.0,-56.0,918.4650238305212,1,1,1,1.0,2.0
2021-09-02 08:19:22.723,938.0,119.0,-56.0,947.1752741705202,1,1,1,1.0,2.0
2021-09-02 08:19:22.724,938.0,133.0,18.0,947.553164735362,1,1,1,1.0,2.0
2021-09-02 08:19:22.734,1059.0,-101.0,33.0,1064.317151980555,1,1,1,1.0,2.0
2021-09-02 08:19:22.743,1042.0,-7.0,45.0,1042.9947267364298,1,1,1,1.0,2.0
2021-09-02 08:19:22.753,1062.0,58.0,62.0,1065.388192162838,1,1,1,1.0,2.0
2021-09-02 08:19:22.762,1058.0,58.0,62.0,1061.4009609944774,1,1,1,1.0,2.0
2021-09-02 08:19:22.763,1058.0,87.0,43.0,1062.4415278028246,1,1,1,1.0,2.0
2021-09-02 08:19:22.772,1062.0,85.0,22.0,1065.6232917874872,1,1,1,1.0,2.0
2021-09-02 08:19:22.782,976.0,89.0,-16.0,980.1800854944972,1,1,1,1.0,2.0
2021-09-02 08:19:22.792,975.0,89.0,-16.0,979.184354450172,1,1,1,1.0,2.0
2021-09-02 08:19:22.793,975.0,127.0,-15.0,983.3509037978254,1,1,1,1.0,2.0
2021-09-02 08:19:22.802,974.0,96.0,-40.0,979.5366251447672,1,1,1,1.0,2.0
2021-09-02 08:19:22.812,971.0,83.0,-28.0,974.94307526132,1,1,1,1.0,2.0
2021-09-02 08:19:22.821,980.0,82.0,-11.0,983.4861463182896,1,1,1,1.0,2.0
2021-09-02 08:19:22.831,1003.0,104.0,72.0,1010.944607780268,1,1,1,1.0,2.0
2021-09-02 08:19:22.842,1014.0,-34.0,9.0,1014.60977720501,1,1,1,1.0,2.0
2021-09-02 08:19:22.850,980.0,40.0,9.0,980.8572780991126,1,1,1,1.0,2.0
2021-09-02 08:19:22.851,980.0,40.0,69.0,983.2400520727376,1,1,1,1.0,2.0
2021-09-02 08:19:22.860,1040.0,19.0,33.0,1040.696881901738,1,1,1,1.0,2.0
2021-09-02 08:19:22.870,1040.0,29.0,40.0,1041.1728963049318,1,1,1,1.0,2.0
2021-09-02 08:19:22.880,1044.0,-52.0,-45.0,1046.262395386549,1,1,1,1.0,2.0
2021-09-02 08:19:22.890,1003.0,209.0,0.0,1024.5438009182428,1,1,1,1.0,2.0
2021-09-02 08:19:22.899,992.0,160.0,-17.0,1004.9641784660784,1,1,1,1.0,2.0
2021-09-02 08:19:22.909,941.0,259.0,-35.0,976.6201922958588,1,1,1,1.0,2.0
2021-09-02 08:19:22.919,913.0,115.0,-35.0,920.8794709406872,1,1,1,1.0,2.0
2021-09-02 08:19:22.920,913.0,115.0,-33.0,920.8056255258218,1,1,1,1.0,2.0
2021-09-02 08:19:22.929,932.0,144.0,36.0,943.7457284671544,1,1,1,1.0,2.0
2021-09-02 08:19:22.938,987.0,40.0,60.0,989.6307392153903,1,1,1,1.0,2.0
2021-09-02 08:19:22.949,1048.0,-7.0,60.0,1049.7394914930085,1,1,1,1.0,2.0
2021-09-02 08:19:22.950,1048.0,-7.0,51.0,1049.2635512586912,1,1,1,1.0,2.0
2021-09-02 08:19:22.958,1033.0,94.0,68.0,1039.494588730504,1,1,1,1.0,2.0
2021-09-02 08:19:22.968,1064.0,81.0,43.0,1067.94475512547,1,1,1,1.0,2.0
2021-09-02 08:19:22.977,1057.0,69.0,43.0,1060.1221627718194,1,1,1,1.0,2.0
2021-09-02 08:19:22.978,1057.0,69.0,9.0,1059.2879684014165,1,1,1,1.0,2.0
2021-09-02 08:19:22.987,1034.0,4.0,-54.0,1035.4168242789954,1,1,1,1.0,2.0
2021-09-02 08:19:22.998,987.0,150.0,-25.0,998.6460834549946,1,1,1,1.0,2.0
2021-09-02 08:19:23.007,980.0,89.0,-43.0,984.9720808225989,1,1,1,1.0,2.0
2021-09-02 08:19:23.016,965.0,93.0,-43.0,970.4241340774662,1,1,1,1.0,2.0
2021-09-02 08:19:23.017,965.0,93.0,-34.0,970.0670079948086,1,1,1,1.0,2.0
2021-09-02 08:19:23.026,980.0,75.0,0.0,982.8657080191576,1,1,1,1.0,2.0
2021-09-02 08:19:23.036,998.0,100.0,73.0,1005.6505357230214,1,1,1,1.0,2.0
2021-09-02 08:19:23.046,1006.0,-37.0,18.0,1006.8410996776006,1,1,1,1.0,2.0
2021-09-02 08:19:23.055,1004.0,-37.0,18.0,1004.842773771101,1,1,1,1.0,2.0
2021-09-02 08:19:23.056,1004.0,54.0,61.0,1007.2998560508188,1,1,1,1.0,2.0
2021-09-02 08:19:23.065,1042.0,24.0,39.0,1043.0057526207609,1,1,1,1.0,2.0
2021-09-02 08:19:23.076,1044.0,21.0,35.0,1044.797588052346,1,1,1,1.0,2.0
2021-09-02 08:19:23.085,1053.0,-40.0,-47.0,1054.8070913678955,1,1,1,1.0,2.0
2021-09-02 08:19:23.094,1013.0,-40.0,-47.0,1014.8783178292854,1,1,1,1.0,2.0
2021-09-02 08:19:23.095,1013.0,-87.0,-52.0,1018.0579551282924,1,1,1,1.0,2.0
2021-09-02 08:19:23.106,978.0,186.0,-31.0,996.0125501217342,1,1,1,1.0,2.0
2021-09-02 08:19:23.114,929.0,241.0,-38.0,960.5029932280272,1,1,1,1.0,2.0
2021-09-02 08:19:23.127,921.0,89.0,-32.0,925.843399285214,1,1,1,1.0,2.0
2021-09-02 08:19:23.136,933.0,169.0,50.0,949.4998683517548,1,1,1,1.0,2.0
2021-09-02 08:19:23.143,1015.0,20.0,50.0,1016.427567512806,1,1,1,1.0,2.0
2021-09-02 08:19:23.144,1015.0,20.0,60.0,1016.9685344198216,1,1,1,1.0,2.0
2021-09-02 08:19:23.154,1057.0,-47.0,89.0,1061.781050876309,1,1,1,1.0,2.0
2021-09-02 08:19:23.165,1047.0,84.0,61.0,1052.1340218812431,1,1,1,1.0,2.0
2021-09-02 08:19:23.173,1066.0,75.0,36.0,1069.2413198151294,1,1,1,1.0,2.0
2021-09-02 08:19:23.182,1042.0,75.0,36.0,1045.3157417737475,1,1,1,1.0,2.0
2021-09-02 08:19:23.183,1042.0,81.0,1.0,1045.1440092159548,1,1,1,1.0,2.0
2021-09-02 08:19:23.192,1026.0,-9.0,-79.0,1029.0762848302354,1,1,1,1.0,2.0
2021-09-02 08:19:23.202,962.0,-45.0,-66.0,965.3108307690328,1,1,1,1.0,2.0
2021-09-02 08:19:23.212,980.0,-45.0,-66.0,983.250222476456,1,1,1,1.0,2.0
2021-09-02 08:19:23.213,980.0,88.0,-41.0,984.7969333827152,1,1,1,1.0,2.0
2021-09-02 08:19:23.221,965.0,88.0,-41.0,969.8711254594602,1,1,1,1.0,2.0
2021-09-02 08:19:23.222,965.0,82.0,-32.0,969.0061919306812,1,1,1,1.0,2.0
2021-09-02 08:19:23.232,980.0,67.0,17.0,982.434730656444,1,1,1,1.0,2.0
2021-09-02 08:19:23.241,1008.0,109.0,77.0,1016.7959480643104,1,1,1,1.0,2.0
2021-09-02 08:19:23.251,1048.0,91.0,89.0,1055.701662402783,1,1,1,1.0,2.0
2021-09-02 08:19:23.262,996.0,53.0,41.0,998.251471323734,1,1,1,1.0,2.0
2021-09-02 08:19:23.270,1037.0,-11.0,41.0,1037.8684887788047,1,1,1,1.0,2.0
2021-09-02 08:19:23.271,1037.0,-11.0,31.0,1037.5215660409183,1,1,1,1.0,2.0
2021-09-02 08:19:23.280,1041.0,40.0,33.0,1042.2907463850956,1,1,1,1.0,2.0
2021-09-02 08:19:23.290,1047.0,-96.0,-68.0,1053.5886293995395,1,1,1,1.0,2.0
2021-09-02 08:19:23.300,1006.0,-70.0,-57.0,1010.0420783313932,1,1,1,1.0,2.0
2021-09-02 08:19:23.310,1019.0,-13.0,-39.0,1019.8289072192453,1,1,1,1.0,2.0
2021-09-02 08:19:23.319,917.0,227.0,-40.0,945.5252508526676,1,1,1,1.0,2.0
2021-09-02 08:19:23.329,928.0,65.0,-42.0,931.2212411666736,1,1,1,1.0,2.0
2021-09-02 08:19:23.339,928.0,175.0,62.0,946.3894547172428,1,1,1,1.0,2.0
2021-09-02 08:19:23.375,1028.0,2.0,59.0,1029.6936437601237,1,1,1,1.0,2.0
2021-09-02 08:19:23.377,1046.0,2.0,59.0,1047.6645455488126,1,1,1,1.0,2.0
2021-09-02 08:19:23.378,1046.0,102.0,54.0,1052.3478512355125,1,1,1,1.0,2.0
2021-09-02 08:19:23.380,1065.0,60.0,29.0,1067.0829396068518,1,1,1,1.0,2.0
2021-09-02 08:19:23.387,1039.0,60.0,29.0,1041.1349576303735,1,1,1,1.0,2.0
2021-09-02 08:19:23.388,1039.0,80.0,-11.0,1042.1333887751605,1,1,1,1.0,2.0
2021-09-02 08:19:23.397,1021.0,-9.0,-74.0,1023.7177345342808,1,1,1,1.0,2.0
2021-09-02 08:19:23.408,956.0,-55.0,-74.0,960.4358385649716,1,1,1,1.0,2.0
2021-09-02 08:19:23.438,956.0,-4.0,-74.0,958.8680826891674,1,1,1,1.0,2.0
2021-09-02 08:19:23.439,956.0,-4.0,-50.0,957.3149951818368,1,1,1,1.0,2.0
2021-09-02 08:19:23.441,965.0,84.0,-32.0,969.1774863253892,1,1,1,1.0,2.0
2021-09-02 08:19:23.444,986.0,68.0,12.0,988.4148926437724,1,1,1,1.0,2.0
2021-09-02 08:19:23.446,1002.0,129.0,82.0,1013.5921270412472,1,1,1,1.0,2.0
2021-09-02 08:19:23.456,1075.0,70.0,64.0,1079.1760746050666,1,1,1,1.0,2.0
2021-09-02 08:19:23.466,1091.0,23.0,59.0,1092.8362182870771,1,1,1,1.0,2.0
2021-09-02 08:19:23.475,1027.0,23.0,59.0,1028.9504361241118,1,1,1,1.0,2.0
2021-09-02 08:19:23.476,1027.0,-4.0,29.0,1027.4171499444617,1,1,1,1.0,2.0
2021-09-02 08:19:23.487,1042.0,50.0,18.0,1043.3542063939744,1,1,1,1.0,2.0
2021-09-02 08:19:23.495,1037.0,50.0,18.0,1038.3607273004889,1,1,1,1.0,2.0
2021-09-02 08:19:23.496,1037.0,-111.0,-79.0,1045.9115641391484,1,1,1,1.0,2.0
2021-09-02 08:19:23.505,993.0,-64.0,-50.0,996.315713014705,1,1,1,1.0,2.0
2021-09-02 08:19:23.514,1007.0,-64.0,-50.0,1010.2697659536288,1,1,1,1.0,2.0
2021-09-02 08:19:23.515,1007.0,-37.0,-35.0,1008.2871614773244,1,1,1,1.0,2.0
2021-09-02 08:19:23.524,903.0,186.0,-57.0,923.7174892790543,1,1,1,1.0,2.0
2021-09-02 08:19:23.534,917.0,82.0,-30.0,921.1476537450444,1,1,1,1.0,2.0
2021-09-02 08:19:23.545,947.0,152.0,-30.0,959.590016621682,1,1,1,1.0,2.0
2021-09-02 08:19:23.546,947.0,152.0,64.0,961.2538686528133,1,1,1,1.0,2.0
2021-09-02 08:19:23.554,1042.0,-29.0,63.0,1044.3055108539838,1,1,1,1.0,2.0
2021-09-02 08:19:23.563,1048.0,-45.0,63.0,1050.8558416833396,1,1,1,1.0,2.0
2021-09-02 08:19:23.564,1048.0,-45.0,81.0,1052.088399327737,1,1,1,1.0,2.0
2021-09-02 08:19:23.573,1076.0,-169.0,2.0,1089.1928203949933,1,1,1,1.0,2.0
2021-09-02 08:19:23.583,1065.0,63.0,34.0,1067.403391413012,1,1,1,1.0,2.0
2021-09-02 08:19:23.594,1045.0,81.0,-11.0,1048.1922533581328,1,1,1,1.0,2.0
2021-09-02 08:19:23.602,1026.0,-41.0,-11.0,1026.8777921447129,1,1,1,1.0,2.0
2021-09-02 08:19:23.603,1026.0,-41.0,-68.0,1029.0680249623929,1,1,1,1.0,2.0
2021-09-02 08:19:23.612,956.0,-20.0,-55.0,957.7896428757203,1,1,1,1.0,2.0
2021-09-02 08:19:23.622,966.0,8.0,-38.0,966.7802232151836,1,1,1,1.0,2.0
2021-09-02 08:19:23.632,971.0,52.0,-27.0,972.7661589508548,1,1,1,1.0,2.0
2021-09-02 08:19:23.642,977.0,54.0,29.0,978.9208343885628,1,1,1,1.0,2.0
2021-09-02 08:19:23.653,1015.0,118.0,79.0,1024.8853594427037,1,1,1,1.0,2.0
2021-09-02 08:19:23.661,1059.0,76.0,74.0,1064.2993000091656,1,1,1,1.0,2.0
2021-09-02 08:19:23.671,1074.0,40.0,66.0,1076.7692417598118,1,1,1,1.0,2.0
2021-09-02 08:19:23.680,1047.0,40.0,66.0,1049.840464070613,1,1,1,1.0,2.0
2021-09-02 08:19:23.681,1047.0,2.0,1.0,1047.002387771871,1,1,1,1.0,2.0
2021-09-02 08:19:23.690,1061.0,42.0,17.0,1061.967042803118,1,1,1,1.0,2.0
2021-09-02 08:19:23.701,1048.0,-120.0,17.0,1054.9848340142146,1,1,1,1.0,2.0
2021-09-02 08:19:23.702,1048.0,-120.0,-80.0,1057.8771195181414,1,1,1,1.0,2.0
2021-09-02 08:19:23.710,995.0,-46.0,-52.0,997.4191696573712,1,1,1,1.0,2.0
2021-09-02 08:19:23.719,1007.0,-46.0,-52.0,1009.3904100990854,1,1,1,1.0,2.0
2021-09-02 08:19:23.720,1007.0,-38.0,-34.0,1008.2901368157876,1,1,1,1.0,2.0
2021-09-02 08:19:23.729,1013.0,80.0,10.0,1016.2032277059544,1,1,1,1.0,2.0
2021-09-02 08:19:23.739,937.0,47.0,-37.0,938.9073436713552,1,1,1,1.0,2.0
2021-09-02 08:19:23.749,941.0,47.0,-37.0,942.8992523064168,1,1,1,1.0,2.0
2021-09-02 08:19:23.750,941.0,175.0,68.0,959.5467680108146,1,1,1,1.0,2.0
2021-09-02 08:19:23.759,1043.0,-14.0,61.0,1044.8760692062958,1,1,1,1.0,2.0
2021-09-02 08:19:23.768,1053.0,-14.0,61.0,1054.8582843206948,1,1,1,1.0,2.0
2021-09-02 08:19:23.769,1053.0,-46.0,71.0,1056.392919325002,1,1,1,1.0,2.0
2021-09-02 08:19:23.778,1081.0,-175.0,9.0,1095.1104967079807,1,1,1,1.0,2.0
2021-09-02 08:19:23.788,1067.0,87.0,47.0,1071.5722094194118,1,1,1,1.0,2.0
2021-09-02 08:19:23.798,1051.0,87.0,47.0,1055.641511120134,1,1,1,1.0,2.0
2021-09-02 08:19:23.799,1051.0,63.0,-16.0,1053.008072143799,1,1,1,1.0,2.0
2021-09-02 08:19:23.808,1015.0,63.0,-16.0,1017.0791512955124,1,1,1,1.0,2.0
2021-09-02 08:19:23.809,1015.0,-67.0,-86.0,1020.8378911462876,1,1,1,1.0,2.0
2021-09-02 08:19:23.817,957.0,-32.0,-73.0,960.3134904811031,1,1,1,1.0,2.0
2021-09-02 08:19:23.827,956.0,-4.0,-37.0,956.7240981599658,1,1,1,1.0,2.0
2021-09-02 08:19:23.837,983.0,119.0,6.0,990.1949303041296,1,1,1,1.0,2.0
2021-09-02 08:19:23.847,981.0,74.0,48.0,984.9573594831404,1,1,1,1.0,2.0
2021-09-02 08:19:23.857,1035.0,138.0,87.0,1047.777648167778,1,1,1,1.0,2.0
2021-09-02 08:19:23.866,1077.0,73.0,83.0,1082.6573788599974,1,1,1,1.0,2.0
2021-09-02 08:19:23.876,1066.0,20.0,74.0,1068.7525438566215,1,1,1,1.0,2.0
2021-09-02 08:19:23.885,1032.0,20.0,74.0,1034.842983258813,1,1,1,1.0,2.0
2021-09-02 08:19:23.886,1032.0,-1.0,-9.0,1032.0397279174867,1,1,1,1.0,2.0
2021-09-02 08:19:23.895,1052.0,46.0,2.0,1053.0071224830342,1,1,1,1.0,2.0
2021-09-02 08:19:23.906,1052.0,-142.0,-81.0,1064.6262254894907,1,1,1,1.0,2.0
2021-09-02 08:19:23.919,998.0,-55.0,-66.0,1001.6910701408892,1,1,1,1.0,2.0
2021-09-02 08:19:23.924,995.0,-55.0,-66.0,998.7021578028156,1,1,1,1.0,2.0
2021-09-02 08:19:23.925,995.0,-51.0,-36.0,996.9563681525888,1,1,1,1.0,2.0
2021-09-02 08:19:23.934,999.0,140.0,-36.0,1009.4042797610877,1,1,1,1.0,2.0
2021-09-02 08:19:23.935,999.0,140.0,13.0,1008.84587524557,1,1,1,1.0,2.0
2021-09-02 08:19:23.944,1019.0,203.0,0.0,1039.0235800981611,1,1,1,1.0,2.0
2021-09-02 08:19:23.955,956.0,125.0,64.0,966.2592819735293,1,1,1,1.0,2.0
2021-09-02 08:19:23.964,1059.0,-42.0,72.0,1062.2753880232754,1,1,1,1.0,2.0
2021-09-02 08:19:23.973,1058.0,-42.0,72.0,1061.278474294094,1,1,1,1.0,2.0
2021-09-02 08:19:23.974,1058.0,-56.0,70.0,1061.7909398747006,1,1,1,1.0,2.0
2021-09-02 08:19:23.983,1091.0,-162.0,11.0,1103.0167723112827,1,1,1,1.0,2.0
2021-09-02 08:19:23.993,1013.0,-39.0,31.0,1014.2243341588684,1,1,1,1.0,2.0
2021-09-02 08:19:24.004,1043.0,28.0,-43.0,1044.2614615123937,1,1,1,1.0,2.0
2021-09-02 08:19:24.012,986.0,28.0,-43.0,987.3342898937524,1,1,1,1.0,2.0
2021-09-02 08:19:24.013,986.0,-53.0,-70.0,989.9015102524088,1,1,1,1.0,2.0
2021-09-02 08:19:24.022,971.0,-10.0,-50.0,972.3379042287715,1,1,1,1.0,2.0
2021-09-02 08:19:24.032,1018.0,46.0,-2.0,1019.0407253883428,1,1,1,1.0,2.0
2021-09-02 08:19:24.042,982.0,69.0,-29.0,984.8482116549736,1,1,1,1.0,2.0
2021-09-02 08:19:24.052,989.0,58.0,2.0,990.701266780254,1,1,1,1.0,2.0
2021-09-02 08:19:24.061,1023.0,54.0,11.0,1024.4832843926738,1,1,1,1.0,2.0
2021-09-02 08:19:24.072,1018.0,46.0,3.0,1019.0431786730138,1,1,1,1.0,2.0
2021-09-02 08:19:24.081,1018.0,17.0,-8.0,1018.173364412957,1,1,1,1.0,2.0
2021-09-02 08:19:24.091,1016.0,-13.0,-11.0,1016.142706513214,1,1,1,1.0,2.0
2021-09-02 08:19:24.100,1011.0,0.0,-11.0,1011.0598399699198,1,1,1,1.0,2.0
2021-09-02 08:19:24.101,1011.0,0.0,1.0,1011.0004945597208,1,1,1,1.0,2.0
2021-09-02 08:19:24.111,1007.0,0.0,1.0,1007.0004965242072,1,1,1,1.0,2.0
2021-09-02 08:19:24.112,1007.0,45.0,-19.0,1008.1840109821222,1,1,1,1.0,2.0
2021-09-02 08:19:24.120,996.0,19.0,-29.0,996.6032309801128,1,1,1,1.0,2.0
2021-09-02 08:19:24.131,996.0,10.0,-23.0,996.315713014705,1,1,1,1.0,2.0
2021-09-02 08:19:24.139,1007.0,31.0,-23.0,1007.7395496853342,1,1,1,1.0,2.0
2021-09-02 08:19:24.140,1007.0,31.0,-16.0,1007.6040889158796,1,1,1,1.0,2.0
2021-09-02 08:19:24.149,1006.0,16.0,-2.0,1006.1292163534464,1,1,1,1.0,2.0
2021-09-02 08:19:24.160,1017.0,43.0,12.0,1017.9793711072932,1,1,1,1.0,2.0
2021-09-02 08:19:24.169,1022.0,46.0,6.0,1023.0522958285172,1,1,1,1.0,2.0
