time_stamp,Acceleration_X,Acceleration_Y,Acceleration_Z,magnitude,STD_Status_right,STD_Status_left,STD_Status_both,KMeans,KMeans_convert
2021-09-02 08:19:57.422,1037.0,140.0,5.0,1046.4196099079948,1,1,1,3.0,2.0
2021-09-02 08:19:57.423,1037.0,140.0,10.0,1046.4554457787488,1,1,1,3.0,2.0
2021-09-02 08:19:57.431,934.0,244.0,-42.0,966.258764513937,1,1,1,3.0,2.0
2021-09-02 08:19:57.441,931.0,255.0,-44.0,966.2929162526236,1,1,1,3.0,2.0
2021-09-02 08:19:57.450,891.0,263.0,-47.0,930.1929907282682,1,1,1,3.0,2.0
2021-09-02 08:19:57.460,930.0,213.0,-27.0,954.4621522092953,1,1,1,3.0,2.0
2021-09-02 08:19:57.486,1072.0,-60.0,60.0,1075.3529653095304,1,1,1,3.0,2.0
2021-09-02 08:19:57.489,1099.0,24.0,57.0,1100.7388427778862,1,1,1,3.0,2.0
2021-09-02 08:19:57.491,1098.0,63.0,73.0,1102.2259296532632,1,1,1,3.0,2.0
2021-09-02 08:19:57.499,1088.0,115.0,47.0,1095.0698607851464,1,1,1,3.0,2.0
2021-09-02 08:19:57.509,1059.0,38.0,47.0,1060.7233381047106,1,1,1,3.0,2.0
2021-09-02 08:19:57.510,1059.0,38.0,31.0,1060.1348970767824,1,1,1,3.0,2.0
2021-09-02 08:19:57.519,1037.0,9.0,-24.0,1037.316730801157,1,1,1,3.0,2.0
2021-09-02 08:19:57.528,974.0,9.0,-24.0,974.3372106206352,1,1,1,3.0,2.0
2021-09-02 08:19:57.529,974.0,119.0,7.0,981.2675476137994,1,1,1,3.0,2.0
2021-09-02 08:19:57.538,955.0,105.0,-49.0,962.0036382467584,1,1,1,3.0,2.0
2021-09-02 08:19:57.549,944.0,113.0,-43.0,951.711090615214,1,1,1,3.0,2.0
2021-09-02 08:19:57.558,955.0,126.0,-13.0,963.363898015698,1,1,1,3.0,2.0
2021-09-02 08:19:57.568,1049.0,-56.0,52.0,1051.779919945233,1,1,1,3.0,2.0
2021-09-02 08:19:57.578,1044.0,-34.0,31.0,1045.0133970433103,1,1,1,3.0,2.0
2021-09-02 08:19:57.587,1041.0,17.0,52.0,1042.4365688136618,1,1,1,3.0,2.0
2021-09-02 08:19:57.597,1022.0,125.0,61.0,1031.421349400913,1,1,1,3.0,2.0
2021-09-02 08:19:57.607,1022.0,33.0,51.0,1023.8036921207112,1,1,1,3.0,2.0
2021-09-02 08:19:57.617,1012.0,-2.0,27.0,1012.362089373165,1,1,1,3.0,2.0
2021-09-02 08:19:57.626,1021.0,138.0,-14.0,1030.3790564641731,1,1,1,3.0,2.0
2021-09-02 08:19:57.636,951.0,150.0,-26.0,963.1079897913836,1,1,1,3.0,2.0
2021-09-02 08:19:57.646,943.0,193.0,-53.0,964.0057053773074,1,1,1,3.0,2.0
2021-09-02 08:19:57.655,931.0,196.0,-53.0,952.8829938665084,1,1,1,3.0,2.0
2021-09-02 08:19:57.656,931.0,196.0,-47.0,952.5681078012216,1,1,1,3.0,2.0
2021-09-02 08:19:57.666,960.0,164.0,-3.0,973.9122137030628,1,1,1,3.0,2.0
2021-09-02 08:19:57.675,1040.0,-115.0,22.0,1046.5701123192846,1,1,1,3.0,2.0
2021-09-02 08:19:57.685,1070.0,-43.0,70.0,1073.149104272095,1,1,1,3.0,2.0
2021-09-02 08:19:57.694,1066.0,-43.0,70.0,1069.1608859287735,1,1,1,3.0,2.0
2021-09-02 08:19:57.695,1066.0,25.0,91.0,1070.1691455092507,1,1,1,3.0,2.0
2021-09-02 08:19:57.705,1048.0,139.0,61.0,1058.9362587049327,1,1,1,3.0,2.0
2021-09-02 08:19:57.716,1057.0,139.0,61.0,1067.8440897434418,1,1,1,3.0,2.0
2021-09-02 08:19:57.717,1057.0,78.0,37.0,1060.5196839285916,1,1,1,3.0,2.0
2021-09-02 08:19:57.724,1000.0,31.0,-11.0,1000.5408537386168,1,1,1,3.0,2.0
2021-09-02 08:19:57.733,980.0,31.0,-11.0,980.5518854196343,1,1,1,3.0,2.0
2021-09-02 08:19:57.734,980.0,105.0,-7.0,985.633806238402,1,1,1,3.0,2.0
2021-09-02 08:19:57.743,943.0,117.0,-48.0,951.4420633964004,1,1,1,3.0,2.0
2021-09-02 08:19:57.753,934.0,109.0,-63.0,942.4468154755472,1,1,1,3.0,2.0
2021-09-02 08:19:57.763,942.0,124.0,-15.0,950.2447053259492,1,1,1,3.0,2.0
2021-09-02 08:19:57.774,1015.0,138.0,23.0,1024.5965059475852,1,1,1,3.0,2.0
2021-09-02 08:19:57.782,1056.0,-28.0,23.0,1056.6215027151395,1,1,1,3.0,2.0
2021-09-02 08:19:57.783,1056.0,-28.0,27.0,1056.7161397461475,1,1,1,3.0,2.0
2021-09-02 08:19:57.792,1039.0,4.0,39.0,1039.7393904243506,1,1,1,3.0,2.0
2021-09-02 08:19:57.802,1018.0,109.0,56.0,1025.3492088064436,1,1,1,3.0,2.0
2021-09-02 08:19:57.812,1026.0,24.0,43.0,1027.1810940627752,1,1,1,3.0,2.0
2021-09-02 08:19:57.822,1019.0,1.0,33.0,1019.5346977911051,1,1,1,3.0,2.0
2021-09-02 08:19:57.831,1025.0,114.0,-26.0,1031.6477111882718,1,1,1,3.0,2.0
2021-09-02 08:19:57.841,963.0,142.0,-23.0,973.6847539116548,1,1,1,3.0,2.0
2021-09-02 08:19:57.851,952.0,191.0,-44.0,971.9675920523276,1,1,1,3.0,2.0
2021-09-02 08:19:57.861,917.0,219.0,-45.0,943.8617483508906,1,1,1,3.0,2.0
2021-09-02 08:19:57.871,946.0,168.0,0.0,960.8017485412898,1,1,1,3.0,2.0
2021-09-02 08:19:57.881,1040.0,-145.0,21.0,1050.2694892264556,1,1,1,3.0,2.0
2021-09-02 08:19:57.890,1077.0,-51.0,56.0,1079.6601317081222,1,1,1,3.0,2.0
2021-09-02 08:19:57.899,1068.0,-51.0,56.0,1070.68249261861,1,1,1,3.0,2.0
2021-09-02 08:19:57.900,1068.0,1.0,85.0,1071.377617836027,1,1,1,3.0,2.0
2021-09-02 08:19:57.909,1066.0,110.0,55.0,1073.0708271125443,1,1,1,3.0,2.0
2021-09-02 08:19:57.922,1070.0,52.0,55.0,1072.6737621476532,1,1,1,3.0,2.0
2021-09-02 08:19:57.923,1070.0,52.0,21.0,1071.4686182992016,1,1,1,3.0,2.0
2021-09-02 08:19:57.930,1027.0,39.0,-9.0,1027.7796456439482,1,1,1,3.0,2.0
2021-09-02 08:19:57.939,970.0,118.0,-8.0,977.1837084192512,1,1,1,3.0,2.0
2021-09-02 08:19:57.948,935.0,123.0,-8.0,943.0896033781733,1,1,1,3.0,2.0
2021-09-02 08:19:57.949,935.0,123.0,-61.0,945.0264546561648,1,1,1,3.0,2.0
2021-09-02 08:19:57.958,936.0,112.0,-68.0,945.1264465668072,1,1,1,3.0,2.0
2021-09-02 08:19:57.968,942.0,117.0,-27.0,949.622030073018,1,1,1,3.0,2.0
2021-09-02 08:19:57.979,1005.0,130.0,21.0,1013.5906471549548,1,1,1,3.0,2.0
2021-09-02 08:19:57.987,1050.0,-28.0,21.0,1050.5831713862544,1,1,1,3.0,2.0
2021-09-02 08:19:57.988,1050.0,-28.0,21.0,1050.5831713862544,1,1,1,3.0,2.0
2021-09-02 08:19:57.997,1043.0,-11.0,39.0,1043.7868556367243,1,1,1,3.0,2.0
2021-09-02 08:19:58.007,1018.0,87.0,66.0,1023.8403195811348,1,1,1,3.0,2.0
2021-09-02 08:19:58.017,1036.0,8.0,35.0,1036.6219175765098,1,1,1,3.0,2.0
2021-09-02 08:19:58.027,1023.0,-6.0,23.0,1023.2761113208888,1,1,1,3.0,2.0
2021-09-02 08:19:58.037,1014.0,98.0,23.0,1018.9842982107232,1,1,1,3.0,2.0
2021-09-02 08:19:58.038,1014.0,98.0,-17.0,1018.8665270780074,1,1,1,3.0,2.0
2021-09-02 08:19:58.046,976.0,153.0,-21.0,988.1427022449744,1,1,1,3.0,2.0
2021-09-02 08:19:58.056,939.0,214.0,-46.0,964.1747766872976,1,1,1,3.0,2.0
2021-09-02 08:19:58.066,909.0,238.0,-44.0,940.670505543785,1,1,1,3.0,2.0
2021-09-02 08:19:58.075,915.0,183.0,-44.0,934.1573743219072,1,1,1,3.0,2.0
2021-09-02 08:19:58.076,915.0,183.0,-15.0,933.2411263976744,1,1,1,3.0,2.0
2021-09-02 08:19:58.085,962.0,183.0,-15.0,979.366121529635,1,1,1,3.0,2.0
2021-09-02 08:19:58.086,962.0,166.0,66.0,978.4457062095984,1,1,1,3.0,2.0
2021-09-02 08:19:58.095,1071.0,-39.0,51.0,1072.9226439962947,1,1,1,3.0,2.0
2021-09-02 08:19:58.104,1065.0,-39.0,51.0,1066.9334562192714,1,1,1,3.0,2.0
2021-09-02 08:19:58.105,1065.0,-2.0,75.0,1067.6394522496814,1,1,1,3.0,2.0
2021-09-02 08:19:58.114,1059.0,108.0,57.0,1066.0178234907708,1,1,1,3.0,2.0
2021-09-02 08:19:58.124,1051.0,75.0,32.0,1054.1584321154007,1,1,1,3.0,2.0
2021-09-02 08:19:58.136,1029.0,56.0,32.0,1031.019398459602,1,1,1,3.0,2.0
2021-09-02 08:19:58.137,1029.0,56.0,-5.0,1030.5348126094527,1,1,1,3.0,2.0
2021-09-02 08:19:58.144,979.0,130.0,-3.0,987.5980963934672,1,1,1,3.0,2.0
2021-09-02 08:19:58.153,952.0,130.0,-3.0,960.839736896846,1,1,1,3.0,2.0
2021-09-02 08:19:58.154,952.0,130.0,-60.0,962.7066012030872,1,1,1,3.0,2.0
2021-09-02 08:19:58.163,955.0,98.0,-55.0,961.5893094247668,1,1,1,3.0,2.0
2021-09-02 08:19:58.173,949.0,98.0,-55.0,955.6306818012908,1,1,1,3.0,2.0
2021-09-02 08:19:58.174,949.0,114.0,-12.0,955.8980071116374,1,1,1,3.0,2.0
2021-09-02 08:19:58.184,1010.0,121.0,16.0,1017.3480230481604,1,1,1,3.0,2.0
2021-09-02 08:19:58.192,1023.0,121.0,16.0,1030.255308163952,1,1,1,3.0,2.0
2021-09-02 08:19:58.193,1023.0,108.0,88.0,1032.4422502009495,1,1,1,3.0,2.0
2021-09-02 08:19:58.202,1030.0,-3.0,59.0,1031.6927837297303,1,1,1,3.0,2.0
2021-09-02 08:19:58.212,1015.0,90.0,51.0,1020.2578105557438,1,1,1,3.0,2.0
2021-09-02 08:19:58.229,1029.0,90.0,51.0,1034.186636927784,1,1,1,3.0,2.0
2021-09-02 08:19:58.230,1029.0,16.0,31.0,1029.5911810034115,1,1,1,3.0,2.0
2021-09-02 08:19:58.232,1018.0,-2.0,23.0,1018.2617541673652,1,1,1,3.0,2.0
2021-09-02 08:19:58.241,1031.0,-112.0,-67.0,1039.227597785971,1,1,1,3.0,2.0
2021-09-02 08:19:58.252,964.0,175.0,-29.0,980.1846764768362,1,1,1,3.0,2.0
2021-09-02 08:19:58.262,937.0,232.0,-54.0,966.8034960631866,1,1,1,3.0,2.0
2021-09-02 08:19:58.271,891.0,237.0,-61.0,923.9972943683332,1,1,1,3.0,2.0
2021-09-02 08:19:58.280,931.0,147.0,-61.0,944.5056908245708,1,1,1,3.0,2.0
2021-09-02 08:19:58.281,931.0,147.0,-31.0,943.0434772586044,1,1,1,3.0,2.0
2021-09-02 08:19:58.290,953.0,158.0,70.0,968.5416872804184,1,1,1,3.0,2.0
2021-09-02 08:19:58.300,1068.0,-41.0,42.0,1069.6116117544725,1,1,1,3.0,2.0
2021-09-02 08:19:58.310,1052.0,8.0,76.0,1054.772013280595,1,1,1,3.0,2.0
2021-09-02 08:19:58.321,1046.0,92.0,76.0,1052.784878310854,1,1,1,3.0,2.0
2021-09-02 08:19:58.322,1046.0,92.0,40.0,1050.799695470074,1,1,1,3.0,2.0
2021-09-02 08:19:58.345,1061.0,26.0,22.0,1061.5465133473897,1,1,1,3.0,2.0
2021-09-02 08:19:58.347,1038.0,38.0,-22.0,1038.9282939645066,1,1,1,3.0,2.0
2021-09-02 08:19:58.349,1016.0,-40.0,-22.0,1017.0250734372283,1,1,1,3.0,2.0
2021-09-02 08:19:58.350,1016.0,-40.0,-57.0,1018.3835230403132,1,1,1,3.0,2.0
2021-09-02 08:19:58.358,944.0,-40.0,-57.0,946.564841941639,1,1,1,3.0,2.0
2021-09-02 08:19:58.359,944.0,128.0,-65.0,954.8533918879904,1,1,1,3.0,2.0
2021-09-02 08:19:58.368,943.0,110.0,-65.0,951.6165194026426,1,1,1,3.0,2.0
2021-09-02 08:19:58.369,943.0,110.0,-50.0,950.709734882314,1,1,1,3.0,2.0
2021-09-02 08:19:58.379,941.0,115.0,-17.0,948.1534685903964,1,1,1,3.0,2.0
2021-09-02 08:19:58.389,993.0,138.0,53.0,1003.9432254863816,1,1,1,3.0,2.0
2021-09-02 08:19:58.398,1034.0,119.0,101.0,1045.714110070243,1,1,1,3.0,2.0
2021-09-02 08:19:58.407,1019.0,0.0,46.0,1020.0377443996864,1,1,1,3.0,2.0
2021-09-02 08:19:58.417,1027.0,81.0,59.0,1031.8774152000808,1,1,1,3.0,2.0
2021-09-02 08:19:58.428,1027.0,-5.0,39.0,1027.7524020891412,1,1,1,3.0,2.0
2021-09-02 08:19:58.438,1029.0,-5.0,39.0,1029.7509407618911,1,1,1,3.0,2.0
2021-09-02 08:19:58.439,1029.0,-4.0,12.0,1029.0777424470905,1,1,1,3.0,2.0
2021-09-02 08:19:58.446,1050.0,-158.0,12.0,1061.8888830758142,1,1,1,3.0,2.0
2021-09-02 08:19:58.447,1050.0,-158.0,-87.0,1065.3792751879491,1,1,1,3.0,2.0
2021-09-02 08:19:58.456,1026.0,-64.0,-61.0,1029.8024082317927,1,1,1,3.0,2.0
2021-09-02 08:19:58.466,932.0,245.0,-43.0,964.623242514921,1,1,1,3.0,2.0
2021-09-02 08:19:58.476,904.0,197.0,-59.0,927.0954643401076,1,1,1,3.0,2.0
2021-09-02 08:19:58.494,942.0,158.0,2.0,955.160719460343,1,1,1,3.0,2.0
2021-09-02 08:19:58.499,961.0,103.0,72.0,969.1821294266624,1,1,1,3.0,2.0
2021-09-02 08:19:58.505,1034.0,-39.0,97.0,1039.271860486947,1,1,1,3.0,2.0
2021-09-02 08:19:58.527,1058.0,-39.0,97.0,1063.1528582475803,1,1,1,3.0,2.0
2021-09-02 08:19:58.528,1058.0,33.0,75.0,1061.1682241756016,1,1,1,3.0,2.0
2021-09-02 08:19:58.532,1052.0,116.0,53.0,1059.7023166908714,1,1,1,3.0,2.0
2021-09-02 08:19:58.534,1059.0,48.0,53.0,1061.4113246051222,1,1,1,3.0,2.0
2021-09-02 08:19:58.535,1059.0,48.0,10.0,1060.1344254385856,1,1,1,3.0,2.0
2021-09-02 08:19:58.544,1037.0,30.0,-48.0,1038.5436919070858,1,1,1,3.0,2.0
2021-09-02 08:19:58.554,1003.0,-60.0,-70.0,1007.2283752952952,1,1,1,3.0,2.0
2021-09-02 08:19:58.564,976.0,-25.0,-61.0,978.2239007507432,1,1,1,3.0,2.0
2021-09-02 08:19:58.575,944.0,134.0,-51.0,954.8261621886992,1,1,1,3.0,2.0
2021-09-02 08:19:58.583,947.0,116.0,-15.0,954.1959966380072,1,1,1,3.0,2.0
2021-09-02 08:19:58.593,988.0,137.0,69.0,999.8369867133342,1,1,1,3.0,2.0
2021-09-02 08:19:58.603,1036.0,115.0,88.0,1046.0712212846695,1,1,1,3.0,2.0
2021-09-02 08:19:58.613,1081.0,21.0,77.0,1083.942341639997,1,1,1,3.0,2.0
2021-09-02 08:19:58.623,1027.0,21.0,77.0,1030.0965974121068,1,1,1,3.0,2.0
2021-09-02 08:19:58.624,1027.0,94.0,51.0,1032.5531463319455,1,1,1,3.0,2.0
2021-09-02 08:19:58.632,1028.0,-8.0,46.0,1029.0597650282514,1,1,1,3.0,2.0
2021-09-02 08:19:58.642,1041.0,-3.0,-2.0,1041.0062439774315,1,1,1,3.0,2.0
2021-09-02 08:19:58.651,1047.0,-3.0,-2.0,1047.0062081955389,1,1,1,3.0,2.0
2021-09-02 08:19:58.652,1047.0,-158.0,-88.0,1062.5050588114864,1,1,1,3.0,2.0
2021-09-02 08:19:58.661,1025.0,-36.0,-55.0,1027.105642083617,1,1,1,3.0,2.0
2021-09-02 08:19:58.672,1020.0,-39.0,-46.0,1021.7812877519336,1,1,1,3.0,2.0
2021-09-02 08:19:58.681,901.0,175.0,-46.0,918.9896626186826,1,1,1,3.0,2.0
2021-09-02 08:19:58.690,932.0,175.0,-46.0,949.4024436454754,1,1,1,3.0,2.0
2021-09-02 08:19:58.691,932.0,167.0,23.0,947.1230120739332,1,1,1,3.0,2.0
2021-09-02 08:19:58.700,970.0,90.0,23.0,974.437786623651,1,1,1,3.0,2.0
2021-09-02 08:19:58.701,970.0,90.0,72.0,976.8234231425862,1,1,1,3.0,2.0
2021-09-02 08:19:58.710,1056.0,-82.0,79.0,1062.1209912246345,1,1,1,3.0,2.0
2021-09-02 08:19:58.723,1058.0,-137.0,52.0,1068.0997144461746,1,1,1,3.0,2.0
2021-09-02 08:19:58.730,1069.0,118.0,49.0,1076.6085639637092,1,1,1,3.0,2.0
2021-09-02 08:19:58.739,1050.0,99.0,49.0,1055.7944875779567,1,1,1,3.0,2.0
2021-09-02 08:19:58.740,1050.0,99.0,25.0,1054.9530795253409,1,1,1,3.0,2.0
2021-09-02 08:19:58.749,1035.0,19.0,-61.0,1036.9701056443237,1,1,1,3.0,2.0
2021-09-02 08:19:58.759,1009.0,-113.0,-80.0,1018.4547118060772,1,1,1,3.0,2.0
2021-09-02 08:19:58.770,970.0,-69.0,-61.0,974.362355594673,1,1,1,3.0,2.0
2021-09-02 08:19:58.778,962.0,-69.0,-61.0,966.3984685418328,1,1,1,3.0,2.0
2021-09-02 08:19:58.779,962.0,15.0,-20.0,962.3247892473726,1,1,1,3.0,2.0
2021-09-02 08:19:58.788,961.0,83.0,-25.0,964.901549382112,1,1,1,3.0,2.0
2021-09-02 08:19:58.798,980.0,111.0,54.0,987.7433877278046,1,1,1,3.0,2.0
2021-09-02 08:19:58.808,1030.0,105.0,90.0,1039.242512602328,1,1,1,3.0,2.0
2021-09-02 08:19:58.819,1080.0,34.0,81.0,1083.5667953568898,1,1,1,3.0,2.0
2021-09-02 08:19:58.827,1077.0,-18.0,71.0,1079.4878415248595,1,1,1,3.0,2.0
2021-09-02 08:19:58.837,1033.0,-2.0,43.0,1033.896513196558,1,1,1,3.0,2.0
2021-09-02 08:19:58.847,1053.0,-16.0,-9.0,1053.160006836568,1,1,1,3.0,2.0
2021-09-02 08:19:58.856,1039.0,-16.0,-9.0,1039.162162513628,1,1,1,3.0,2.0
2021-09-02 08:19:58.857,1039.0,-143.0,-78.0,1051.691019263738,1,1,1,3.0,2.0
2021-09-02 08:19:58.866,1018.0,-30.0,-78.0,1021.4244954963632,1,1,1,3.0,2.0
2021-09-02 08:19:58.867,1018.0,-30.0,-43.0,1019.349302251196,1,1,1,3.0,2.0
2021-09-02 08:19:58.878,1016.0,-39.0,-54.0,1018.1812215907344,1,1,1,3.0,2.0
2021-09-02 08:19:58.886,901.0,194.0,-67.0,924.0811652663416,1,1,1,3.0,2.0
2021-09-02 08:19:58.896,929.0,138.0,2.0,939.1959326998812,1,1,1,3.0,2.0
2021-09-02 08:19:58.905,946.0,145.0,2.0,957.0501554255136,1,1,1,3.0,2.0
2021-09-02 08:19:58.906,946.0,145.0,81.0,960.4696767727756,1,1,1,3.0,2.0
2021-09-02 08:19:58.915,1039.0,-55.0,84.0,1043.840026057633,1,1,1,3.0,2.0
2021-09-02 08:19:58.931,1052.0,-87.0,80.0,1058.618439287735,1,1,1,3.0,2.0
2021-09-02 08:19:58.935,1056.0,101.0,50.0,1061.9967043263364,1,1,1,3.0,2.0
2021-09-02 08:19:58.944,1067.0,101.0,50.0,1072.9352263766905,1,1,1,3.0,2.0
2021-09-02 08:19:58.945,1067.0,67.0,24.0,1069.370843066146,1,1,1,3.0,2.0
2021-09-02 08:19:58.954,1032.0,43.0,-36.0,1033.5226170723115,1,1,1,3.0,2.0
2021-09-02 08:19:58.965,1012.0,-74.0,-79.0,1017.772567914856,1,1,1,3.0,2.0
2021-09-02 08:19:58.974,976.0,-41.0,-62.0,978.8263380191606,1,1,1,3.0,2.0
2021-09-02 08:19:58.984,954.0,38.0,-33.0,955.3266457081578,1,1,1,3.0,2.0
2021-09-02 08:19:58.993,944.0,99.0,-33.0,949.7504935508064,1,1,1,3.0,2.0
2021-09-02 08:19:58.994,944.0,99.0,-20.0,949.3876974134434,1,1,1,3.0,2.0
2021-09-02 08:19:59.003,983.0,109.0,42.0,989.9161580659244,1,1,1,3.0,2.0
2021-09-02 08:19:59.013,1026.0,141.0,42.0,1036.494573068282,1,1,1,3.0,2.0
2021-09-02 08:19:59.014,1026.0,141.0,94.0,1039.9004760071994,1,1,1,3.0,2.0
2021-09-02 08:19:59.023,1089.0,43.0,91.0,1093.641166013789,1,1,1,3.0,2.0
2021-09-02 08:19:59.033,1058.0,-21.0,81.0,1061.3039150026725,1,1,1,3.0,2.0
2021-09-02 08:19:59.042,1037.0,-1.0,50.0,1038.205182032916,1,1,1,3.0,2.0
2021-09-02 08:19:59.052,1047.0,8.0,4.0,1047.0382036965032,1,1,1,3.0,2.0
2021-09-02 08:19:59.062,1047.0,-147.0,-91.0,1061.1781188848552,1,1,1,3.0,2.0
2021-09-02 08:19:59.071,1014.0,-147.0,-91.0,1028.633073549553,1,1,1,3.0,2.0
2021-09-02 08:19:59.072,1014.0,-65.0,-73.0,1018.7001521546956,1,1,1,3.0,2.0
2021-09-02 08:19:59.081,1016.0,-12.0,-73.0,1018.6898448497462,1,1,1,3.0,2.0
2021-09-02 08:19:59.082,1016.0,-12.0,-53.0,1017.452210179918,1,1,1,3.0,2.0
2021-09-02 08:19:59.091,894.0,251.0,-63.0,930.7018856755368,1,1,1,3.0,2.0
2021-09-02 08:19:59.101,916.0,125.0,-26.0,924.8551237896668,1,1,1,3.0,2.0
2021-09-02 08:19:59.110,933.0,125.0,-26.0,941.6952798012742,1,1,1,3.0,2.0
2021-09-02 08:19:59.111,933.0,181.0,85.0,954.1881365852332,1,1,1,3.0,2.0
2021-09-02 08:19:59.121,1044.0,181.0,85.0,1062.9778925264627,1,1,1,3.0,2.0
2021-09-02 08:19:59.122,1044.0,-30.0,80.0,1047.4903340842816,1,1,1,3.0,2.0
2021-09-02 08:19:59.131,1057.0,-65.0,93.0,1063.0724340326014,1,1,1,3.0,2.0
2021-09-02 08:19:59.142,1058.0,94.0,63.0,1064.0343039582888,1,1,1,3.0,2.0
2021-09-02 08:19:59.149,1069.0,94.0,63.0,1074.9725577892675,1,1,1,3.0,2.0
2021-09-02 08:19:59.150,1069.0,67.0,33.0,1071.6058043889086,1,1,1,3.0,2.0
2021-09-02 08:19:59.159,1046.0,56.0,33.0,1048.017652523086,1,1,1,3.0,2.0
2021-09-02 08:19:59.160,1046.0,56.0,-31.0,1047.9565830701194,1,1,1,3.0,2.0
2021-09-02 08:19:59.169,1017.0,56.0,-31.0,1019.0122668545262,1,1,1,3.0,2.0
2021-09-02 08:19:59.170,1017.0,-80.0,-91.0,1024.1923647440456,1,1,1,3.0,2.0
2021-09-02 08:19:59.179,972.0,-55.0,-68.0,975.9267390537058,1,1,1,3.0,2.0
2021-09-02 08:19:59.189,962.0,-55.0,-68.0,965.9673907539528,1,1,1,3.0,2.0
2021-09-02 08:19:59.190,962.0,0.0,-40.0,962.8312417033424,1,1,1,3.0,2.0
2021-09-02 08:19:59.198,945.0,0.0,-40.0,945.8461819978976,1,1,1,3.0,2.0
2021-09-02 08:19:59.199,945.0,118.0,-23.0,952.616397087516,1,1,1,3.0,2.0
2021-09-02 08:19:59.208,979.0,94.0,33.0,984.0558927215466,1,1,1,3.0,2.0
2021-09-02 08:19:59.218,1016.0,123.0,84.0,1026.859776210949,1,1,1,3.0,2.0
2021-09-02 08:19:59.228,1068.0,72.0,91.0,1074.285343844921,1,1,1,3.0,2.0
2021-09-02 08:19:59.245,1061.0,1.0,88.0,1064.64360233836,1,1,1,3.0,2.0
2021-09-02 08:19:59.247,1053.0,-29.0,88.0,1057.0685881247252,1,1,1,3.0,2.0
2021-09-02 08:19:59.248,1053.0,-29.0,16.0,1053.5207639149785,1,1,1,3.0,2.0
2021-09-02 08:19:59.257,1051.0,28.0,16.0,1051.494650485679,1,1,1,3.0,2.0
2021-09-02 08:19:59.267,1055.0,-163.0,-80.0,1070.5110928897468,1,1,1,3.0,2.0
2021-09-02 08:19:59.276,1014.0,-163.0,-80.0,1030.1286327444743,1,1,1,3.0,2.0
2021-09-02 08:19:59.277,1014.0,-73.0,-63.0,1018.5744940847478,1,1,1,3.0,2.0
2021-09-02 08:19:59.286,1030.0,-40.0,-59.0,1032.4635586789493,1,1,1,3.0,2.0
2021-09-02 08:19:59.296,996.0,88.0,1.0,999.8804928590216,1,1,1,3.0,2.0
2021-09-02 08:19:59.306,916.0,120.0,-20.0,924.0432890292532,1,1,1,3.0,2.0
2021-09-02 08:19:59.315,931.0,120.0,-20.0,938.914799116512,1,1,1,3.0,2.0
2021-09-02 08:19:59.316,931.0,165.0,89.0,949.6878434517312,1,1,1,3.0,2.0
2021-09-02 08:19:59.326,1053.0,-42.0,89.0,1057.588766960013,1,1,1,3.0,2.0
2021-09-02 08:19:59.327,1053.0,-42.0,85.0,1057.259665361353,1,1,1,3.0,2.0
2021-09-02 08:19:59.352,1072.0,-55.0,99.0,1077.9656766335374,1,1,1,3.0,2.0
2021-09-02 08:19:59.362,1093.0,-177.0,14.0,1107.3274131890712,1,1,1,3.0,2.0
2021-09-02 08:19:59.364,1057.0,68.0,37.0,1059.8311186222077,1,1,1,3.0,2.0
2021-09-02 08:19:59.366,1047.0,61.0,-28.0,1049.149179097043,1,1,1,3.0,2.0
2021-09-02 08:19:59.374,1008.0,-67.0,-78.0,1013.2309707070742,1,1,1,3.0,2.0
2021-09-02 08:19:59.384,969.0,-54.0,-61.0,972.4186341283264,1,1,1,3.0,2.0
2021-09-02 08:19:59.395,964.0,14.0,-17.0,964.25152320336,1,1,1,3.0,2.0
2021-09-02 08:19:59.403,934.0,91.0,-17.0,938.5765818514758,1,1,1,3.0,2.0
2021-09-02 08:19:59.404,934.0,91.0,-38.0,939.1916737279988,1,1,1,3.0,2.0
2021-09-02 08:19:59.413,974.0,91.0,65.0,980.398898408194,1,1,1,3.0,2.0
2021-09-02 08:19:59.423,1022.0,167.0,101.0,1040.4681638570207,1,1,1,3.0,2.0
2021-09-02 08:19:59.434,1093.0,49.0,98.0,1098.4780380144157,1,1,1,3.0,2.0
2021-09-02 08:19:59.444,1078.0,2.0,80.0,1080.9662344402807,1,1,1,3.0,2.0
2021-09-02 08:19:59.453,1037.0,-41.0,-6.0,1037.8275386594826,1,1,1,3.0,2.0
2021-09-02 08:19:59.462,1063.0,15.0,4.0,1063.1133523759354,1,1,1,3.0,2.0
2021-09-02 08:19:59.472,1037.0,-154.0,-84.0,1051.7323804086284,1,1,1,3.0,2.0
2021-09-02 08:19:59.482,1002.0,-22.0,-61.0,1004.0961109375936,1,1,1,3.0,2.0
2021-09-02 08:19:59.492,1005.0,-50.0,-51.0,1007.5346147899832,1,1,1,3.0,2.0
2021-09-02 08:19:59.501,987.0,175.0,14.0,1002.4918952290836,1,1,1,3.0,2.0
2021-09-02 08:19:59.518,1019.0,211.0,2.0,1040.6180855626142,1,1,1,3.0,2.0
2021-09-02 08:19:59.522,963.0,122.0,77.0,973.746373549088,1,1,1,3.0,2.0
2021-09-02 08:19:59.532,1062.0,-41.0,97.0,1067.208508211961,1,1,1,3.0,2.0
2021-09-02 08:19:59.540,1074.0,-86.0,78.0,1080.2573767394508,1,1,1,3.0,2.0
2021-09-02 08:19:59.561,1087.0,-196.0,-4.0,1104.5365543973635,1,1,1,3.0,2.0
2021-09-02 08:19:59.562,1041.0,-69.0,-4.0,1043.2919054607871,1,1,1,3.0,2.0
2021-09-02 08:19:59.563,1041.0,-69.0,35.0,1043.871160632384,1,1,1,3.0,2.0
2021-09-02 08:19:59.570,1044.0,-69.0,35.0,1046.862932766272,1,1,1,3.0,2.0
2021-09-02 08:19:59.571,1044.0,28.0,-67.0,1046.5223361209255,1,1,1,3.0,2.0
2021-09-02 08:19:59.579,991.0,-104.0,-77.0,999.4128276142948,1,1,1,3.0,2.0
2021-09-02 08:19:59.590,964.0,-40.0,-61.0,966.7559154202264,1,1,1,3.0,2.0
2021-09-02 08:19:59.599,956.0,28.0,2.0,956.412045093536,1,1,1,3.0,2.0
2021-09-02 08:19:59.609,977.0,182.0,12.0,993.8797714009476,1,1,1,3.0,2.0
2021-09-02 08:19:59.619,958.0,128.0,78.0,969.6556089664,1,1,1,3.0,2.0
2021-09-02 08:19:59.629,1046.0,128.0,87.0,1057.3878191089586,1,1,1,3.0,2.0
2021-09-02 08:19:59.638,1088.0,53.0,99.0,1093.7796853114432,1,1,1,3.0,2.0
2021-09-02 08:19:59.648,1068.0,8.0,62.0,1069.828023562666,1,1,1,3.0,2.0
2021-09-02 08:19:59.657,1036.0,8.0,62.0,1037.884386625023,1,1,1,3.0,2.0
2021-09-02 08:19:59.658,1036.0,-64.0,-5.0,1037.9869941381733,1,1,1,3.0,2.0
2021-09-02 08:19:59.668,990.0,-32.0,27.0,990.884958004712,1,1,1,3.0,2.0
2021-09-02 08:19:59.678,1039.0,-168.0,-92.0,1056.5079270881029,1,1,1,3.0,2.0
2021-09-02 08:19:59.687,997.0,-31.0,-58.0,999.166652766194,1,1,1,3.0,2.0
2021-09-02 08:19:59.696,1008.0,-59.0,-58.0,1011.3896380722912,1,1,1,3.0,2.0
2021-09-02 08:19:59.697,1008.0,-59.0,-40.0,1010.5171943119028,1,1,1,3.0,2.0
2021-09-02 08:19:59.706,989.0,202.0,20.0,1009.616263735881,1,1,1,3.0,2.0
2021-09-02 08:19:59.716,1016.0,195.0,-13.0,1034.6255361240608,1,1,1,3.0,2.0
2021-09-02 08:19:59.731,946.0,106.0,71.0,954.5642985152964,1,1,1,3.0,2.0
2021-09-02 08:19:59.735,1063.0,106.0,71.0,1070.6287872087132,1,1,1,3.0,2.0
2021-09-02 08:19:59.736,1063.0,-46.0,98.0,1068.4984791753332,1,1,1,3.0,2.0
2021-09-02 08:19:59.745,1080.0,-89.0,68.0,1085.792337420006,1,1,1,3.0,2.0
2021-09-02 08:19:59.755,1097.0,-212.0,-6.0,1117.3132953652705,1,1,1,3.0,2.0
2021-09-02 08:19:59.766,1027.0,-66.0,34.0,1029.6800473933638,1,1,1,3.0,2.0
2021-09-02 08:19:59.775,1052.0,53.0,-53.0,1054.666772018537,1,1,1,3.0,2.0
2021-09-02 08:19:59.785,1005.0,-100.0,-96.0,1014.5151551356934,1,1,1,3.0,2.0
2021-09-02 08:19:59.794,951.0,-62.0,-67.0,955.3711320738136,1,1,1,3.0,2.0
2021-09-02 08:19:59.804,957.0,-12.0,-23.0,957.3515550726388,1,1,1,3.0,2.0
2021-09-02 08:19:59.814,982.0,-12.0,-23.0,982.3426082584426,1,1,1,3.0,2.0
2021-09-02 08:19:59.815,982.0,165.0,20.0,995.9663648939156,1,1,1,3.0,2.0
2021-09-02 08:19:59.823,990.0,168.0,20.0,1004.352527751088,1,1,1,3.0,2.0
2021-09-02 08:19:59.824,990.0,168.0,-27.0,1004.5163015103338,1,1,1,3.0,2.0
2021-09-02 08:19:59.834,1026.0,153.0,88.0,1041.071083067818,1,1,1,3.0,2.0
2021-09-02 08:19:59.843,1098.0,42.0,97.0,1103.076153309462,1,1,1,3.0,2.0
2021-09-02 08:19:59.853,1067.0,7.0,58.0,1068.5981471067596,1,1,1,3.0,2.0
2021-09-02 08:19:59.862,1038.0,7.0,58.0,1039.6427270942647,1,1,1,3.0,2.0
2021-09-02 08:19:59.863,1038.0,-63.0,-21.0,1040.122108216146,1,1,1,3.0,2.0
2021-09-02 08:19:59.872,979.0,-40.0,9.0,979.8581529997084,1,1,1,3.0,2.0
2021-09-02 08:19:59.882,1051.0,-150.0,-79.0,1064.5853652948645,1,1,1,3.0,2.0
2021-09-02 08:19:59.892,1001.0,-58.0,-60.0,1004.4724983791244,1,1,1,3.0,2.0
2021-09-02 08:19:59.901,1006.0,-58.0,-60.0,1009.4552986635912,1,1,1,3.0,2.0
2021-09-02 08:19:59.902,1006.0,-58.0,-45.0,1008.6748732867296,1,1,1,3.0,2.0
2021-09-02 08:19:59.911,980.0,153.0,27.0,992.2388825277912,1,1,1,3.0,2.0
2021-09-02 08:19:59.922,1025.0,202.0,7.0,1044.738244729272,1,1,1,3.0,2.0
2021-09-02 08:19:59.931,1005.0,154.0,47.0,1017.8162899069752,1,1,1,3.0,2.0
2021-09-02 08:19:59.942,950.0,120.0,5.0,957.5620084360072,1,1,1,3.0,2.0
2021-09-02 08:19:59.950,969.0,90.0,5.0,973.1834359461736,1,1,1,3.0,2.0
2021-09-02 08:19:59.951,969.0,90.0,1.0,973.1711052019576,1,1,1,3.0,2.0
2021-09-02 08:19:59.961,967.0,38.0,11.0,967.8088654274666,1,1,1,3.0,2.0
2021-09-02 08:19:59.970,975.0,0.0,14.0,975.10050764011,1,1,1,3.0,2.0
2021-09-02 08:19:59.980,979.0,30.0,31.0,979.9499987244247,1,1,1,3.0,2.0
2021-09-02 08:19:59.990,1021.0,-5.0,-37.0,1021.6824359848808,1,1,1,3.0,2.0
2021-09-02 08:19:59.999,1001.0,-14.0,-26.0,1001.435469713351,1,1,1,3.0,2.0
2021-09-02 08:20:00.009,985.0,25.0,-23.0,985.5856127196664,1,1,1,3.0,2.0
2021-09-02 08:20:00.019,994.0,20.0,-25.0,994.5154599100006,1,1,1,3.0,2.0
2021-09-02 08:20:00.028,1004.0,20.0,-25.0,1004.5103284685528,1,1,1,3.0,2.0
2021-09-02 08:20:00.029,1004.0,29.0,2.0,1004.4207285794135,1,1,1,3.0,2.0
2021-09-02 08:20:00.038,1007.0,34.0,0.0,1007.5738186356372,1,1,1,3.0,2.0
2021-09-02 08:20:00.049,1004.0,38.0,-11.0,1004.779080196239,1,1,1,3.0,2.0
2021-09-02 08:20:00.058,995.0,41.0,-18.0,996.0070280876536,1,1,1,3.0,2.0
2021-09-02 08:20:00.068,1007.0,37.0,-3.0,1007.6839782392096,1,1,1,3.0,2.0
2021-09-02 08:20:00.078,1016.0,32.0,8.0,1016.5352920582736,1,1,1,3.0,2.0
2021-09-02 08:20:00.087,1004.0,68.0,-11.0,1006.3602734607522,1,1,1,3.0,2.0
2021-09-02 08:20:00.097,998.0,68.0,-11.0,1000.3744299011246,1,1,1,3.0,2.0
2021-09-02 08:20:00.098,998.0,62.0,-7.0,999.9484986738069,1,1,1,3.0,2.0
2021-09-02 08:20:00.106,1005.0,62.0,-7.0,1006.9349532119738,1,1,1,3.0,2.0
2021-09-02 08:20:00.107,1005.0,57.0,-3.0,1006.6195905107352,1,1,1,3.0,2.0
