time_stamp,Acceleration_X,Acceleration_Y,Acceleration_Z,magnitude,STD_Status_right,STD_Status_left,STD_Status_both,KMeans,KMeans_convert
2021-09-02 13:25:58.297,998.0,40.0,5.0,998.8137964605816,1,1,1,2.0,2.0
2021-09-02 13:25:58.804,1030.0,50.0,24.0,1031.492123091592,1,1,1,2.0,2.0
2021-09-02 13:25:58.813,918.0,156.0,11.0,931.2255365914316,1,1,1,2.0,2.0
2021-09-02 13:25:58.823,991.0,170.0,69.0,1007.8402651214128,1,1,1,2.0,2.0
2021-09-02 13:25:58.834,1026.0,238.0,80.0,1056.2764789580424,1,1,1,2.0,2.0
2021-09-02 13:25:58.843,1022.0,148.0,80.0,1035.754797237261,1,1,1,2.0,2.0
2021-09-02 13:25:58.844,1022.0,148.0,50.0,1033.8703980673786,1,1,1,2.0,2.0
2021-09-02 13:25:58.853,1016.0,86.0,48.0,1020.7624601247834,1,1,1,2.0,2.0
2021-09-02 13:25:58.862,1055.0,-65.0,12.0,1057.0685881247252,1,1,1,2.0,2.0
2021-09-02 13:25:58.872,1035.0,-123.0,-10.0,1042.331041464275,1,1,1,2.0,2.0
2021-09-02 13:25:58.883,1044.0,-96.0,-4.0,1048.412132703547,1,1,1,2.0,2.0
2021-09-02 13:25:58.891,1050.0,-96.0,-4.0,1054.387025716838,1,1,1,2.0,2.0
2021-09-02 13:25:58.892,1050.0,-90.0,10.0,1053.897528225586,1,1,1,2.0,2.0
2021-09-02 13:25:58.902,1076.0,-13.0,10.0,1076.1249927401557,1,1,1,2.0,2.0
2021-09-02 13:25:58.903,1076.0,-13.0,17.0,1076.2128042352963,1,1,1,2.0,2.0
2021-09-02 13:25:58.911,1077.0,62.0,-19.0,1078.9504159135397,1,1,1,2.0,2.0
2021-09-02 13:25:58.920,935.0,314.0,2.0,986.3189139421388,1,1,1,2.0,2.0
2021-09-02 13:25:58.931,972.0,198.0,13.0,992.0468738925596,1,1,1,2.0,2.0
2021-09-02 13:25:58.941,976.0,151.0,61.0,989.4938099856917,1,1,1,2.0,2.0
2021-09-02 13:25:58.965,1006.0,-108.0,61.0,1013.6177780603496,1,1,1,2.0,2.0
2021-09-02 13:25:58.966,1006.0,-108.0,28.0,1012.1679702499976,1,1,1,2.0,2.0
2021-09-02 13:25:58.967,1025.0,-162.0,37.0,1038.3823958446137,1,1,1,2.0,2.0
2021-09-02 13:25:58.970,1051.0,-11.0,25.0,1051.3548401943085,1,1,1,2.0,2.0
2021-09-02 13:25:58.979,1016.0,-25.0,25.0,1016.6149713632984,1,1,1,2.0,2.0
2021-09-02 13:25:58.980,1016.0,-25.0,-9.0,1016.347381558097,1,1,1,2.0,2.0
2021-09-02 13:25:58.989,1014.0,-23.0,-10.0,1014.3101103705908,1,1,1,2.0,2.0
2021-09-02 13:25:59.000,1040.0,-24.0,14.0,1040.371087641328,1,1,1,2.0,2.0
2021-09-02 13:25:59.010,1047.0,8.0,-27.0,1047.3786325870888,1,1,1,2.0,2.0
2021-09-02 13:25:59.018,966.0,214.0,-27.0,989.7883612166796,1,1,1,2.0,2.0
2021-09-02 13:25:59.019,966.0,214.0,0.0,989.4200321400411,1,1,1,2.0,2.0
2021-09-02 13:25:59.028,1026.0,214.0,0.0,1048.0801496068896,1,1,1,2.0,2.0
2021-09-02 13:25:59.029,1026.0,227.0,20.0,1051.0019029478492,1,1,1,2.0,2.0
2021-09-02 13:25:59.038,1011.0,202.0,37.0,1031.6462572025357,1,1,1,2.0,2.0
2021-09-02 13:25:59.049,1004.0,127.0,41.0,1012.830686738904,1,1,1,2.0,2.0
2021-09-02 13:25:59.059,959.0,45.0,41.0,960.930278428149,1,1,1,2.0,2.0
2021-09-02 13:25:59.060,959.0,45.0,32.0,960.5883613702592,1,1,1,2.0,2.0
2021-09-02 13:25:59.067,1020.0,-12.0,61.0,1021.8928515260296,1,1,1,2.0,2.0
2021-09-02 13:25:59.077,1017.0,-175.0,-20.0,1032.1404943126686,1,1,1,2.0,2.0
2021-09-02 13:25:59.087,1026.0,-163.0,-20.0,1039.0596710487805,1,1,1,2.0,2.0
2021-09-02 13:25:59.097,1044.0,-119.0,2.0,1050.7621043794832,1,1,1,2.0,2.0
2021-09-02 13:25:59.107,1064.0,-119.0,2.0,1070.6357924149556,1,1,1,2.0,2.0
2021-09-02 13:25:59.108,1064.0,12.0,-9.0,1064.1057278297114,1,1,1,2.0,2.0
2021-09-02 13:25:59.127,1082.0,90.0,-19.0,1085.9028501666253,1,1,1,2.0,2.0
2021-09-02 13:25:59.138,964.0,214.0,29.0,987.8932128524824,1,1,1,2.0,2.0
2021-09-02 13:25:59.146,974.0,139.0,56.0,985.4608059177187,1,1,1,2.0,2.0
2021-09-02 13:25:59.156,1003.0,-108.0,41.0,1009.6306255259892,1,1,1,2.0,2.0
2021-09-02 13:25:59.165,1022.0,-170.0,60.0,1037.7783963833513,1,1,1,2.0,2.0
2021-09-02 13:25:59.175,1087.0,-169.0,39.0,1100.750198728122,1,1,1,2.0,2.0
2021-09-02 13:25:59.185,1035.0,-33.0,-4.0,1035.5336788342522,1,1,1,2.0,2.0
2021-09-02 13:25:59.195,1009.0,-17.0,-9.0,1009.1833331957084,1,1,1,2.0,2.0
2021-09-02 13:25:59.210,1013.0,8.0,-15.0,1013.1426355652002,1,1,1,2.0,2.0
2021-09-02 13:25:59.214,1034.0,20.0,-33.0,1034.7197688263234,1,1,1,2.0,2.0
2021-09-02 13:25:59.223,995.0,56.0,-45.0,997.5900961817936,1,1,1,2.0,2.0
2021-09-02 13:25:59.233,1024.0,56.0,-45.0,1026.516926309547,1,1,1,2.0,2.0
2021-09-02 13:25:59.234,1024.0,235.0,33.0,1051.1374791148871,1,1,1,2.0,2.0
2021-09-02 13:25:59.244,995.0,200.0,41.0,1015.7292946449855,1,1,1,2.0,2.0
2021-09-02 13:25:59.253,1006.0,115.0,40.0,1013.3415021600566,1,1,1,2.0,2.0
2021-09-02 13:25:59.263,981.0,38.0,48.0,982.9084392760092,1,1,1,2.0,2.0
2021-09-02 13:25:59.272,1042.0,-31.0,68.0,1044.6765049526098,1,1,1,2.0,2.0
2021-09-02 13:25:59.282,1022.0,-177.0,-16.0,1037.3374571469017,1,1,1,2.0,2.0
2021-09-02 13:25:59.293,1046.0,-151.0,-28.0,1057.2137910564732,1,1,1,2.0,2.0
2021-09-02 13:25:59.302,1039.0,-81.0,-28.0,1042.528656680477,1,1,1,2.0,2.0
2021-09-02 13:25:59.311,1074.0,49.0,-28.0,1075.481752518377,1,1,1,2.0,2.0
2021-09-02 13:25:59.312,1074.0,49.0,4.0,1075.1246439366926,1,1,1,2.0,2.0
2021-09-02 13:25:59.321,1057.0,49.0,4.0,1058.1427124920342,1,1,1,2.0,2.0
2021-09-02 13:25:59.322,1057.0,84.0,-21.0,1060.540428272303,1,1,1,2.0,2.0
2021-09-02 13:25:59.331,968.0,187.0,-72.0,988.5226350468664,1,1,1,2.0,2.0
2021-09-02 13:25:59.342,978.0,196.0,59.0,999.1901720893776,1,1,1,2.0,2.0
2021-09-02 13:25:59.351,980.0,111.0,59.0,988.029351790725,1,1,1,2.0,2.0
2021-09-02 13:25:59.352,980.0,111.0,61.0,988.1507982084516,1,1,1,2.0,2.0
2021-09-02 13:25:59.361,1005.0,-168.0,29.0,1019.3576408699744,1,1,1,2.0,2.0
2021-09-02 13:25:59.371,1033.0,-203.0,46.0,1053.7618326737784,1,1,1,2.0,2.0
2021-09-02 13:25:59.380,1121.0,-196.0,48.0,1139.017559127163,1,1,1,2.0,2.0
2021-09-02 13:25:59.389,1005.0,-196.0,48.0,1025.0585349139824,1,1,1,2.0,2.0
2021-09-02 13:25:59.390,1005.0,-42.0,-31.0,1006.3548082063304,1,1,1,2.0,2.0
2021-09-02 13:25:59.400,1023.0,-44.0,-31.0,1024.4149549865035,1,1,1,2.0,2.0
2021-09-02 13:25:59.401,1023.0,-44.0,-22.0,1024.1821127123828,1,1,1,2.0,2.0
2021-09-02 13:25:59.409,1045.0,-5.0,-9.0,1045.0507164726505,1,1,1,2.0,2.0
2021-09-02 13:25:59.419,1029.0,16.0,-37.0,1029.7892988373883,1,1,1,2.0,2.0
2021-09-02 13:25:59.429,995.0,56.0,-59.0,998.3195881079364,1,1,1,2.0,2.0
2021-09-02 13:25:59.439,940.0,88.0,-81.0,947.5784927909666,1,1,1,2.0,2.0
2021-09-02 13:25:59.448,997.0,88.0,-81.0,1004.1483954077704,1,1,1,2.0,2.0
2021-09-02 13:25:59.449,997.0,202.0,58.0,1018.9097114072472,1,1,1,2.0,2.0
2021-09-02 13:25:59.458,998.0,108.0,48.0,1004.9736314948766,1,1,1,2.0,2.0
2021-09-02 13:25:59.468,980.0,21.0,68.0,982.580785482802,1,1,1,2.0,2.0
2021-09-02 13:25:59.478,1062.0,-24.0,54.0,1063.64279718334,1,1,1,2.0,2.0
2021-09-02 13:25:59.487,1077.0,-32.0,82.0,1080.5910419765655,1,1,1,2.0,2.0
2021-09-02 13:25:59.498,1034.0,-148.0,-27.0,1044.8870752382766,1,1,1,2.0,2.0
2021-09-02 13:25:59.507,1037.0,-83.0,-27.0,1040.6666132820828,1,1,1,2.0,2.0
2021-09-02 13:25:59.508,1037.0,-83.0,-30.0,1040.7487689159186,1,1,1,2.0,2.0
2021-09-02 13:25:59.516,1066.0,38.0,-3.0,1066.6813019829306,1,1,1,2.0,2.0
2021-09-02 13:25:59.527,1055.0,97.0,-21.0,1059.657963684509,1,1,1,2.0,2.0
2021-09-02 13:25:59.536,956.0,185.0,-51.0,975.0702538791757,1,1,1,2.0,2.0
2021-09-02 13:25:59.546,959.0,207.0,80.0,984.3424200957712,1,1,1,2.0,2.0
2021-09-02 13:25:59.557,1000.0,99.0,51.0,1006.1818921050012,1,1,1,2.0,2.0
2021-09-02 13:25:59.565,1005.0,-149.0,35.0,1016.587920447612,1,1,1,2.0,2.0
2021-09-02 13:25:59.575,1046.0,-196.0,40.0,1064.956337133124,1,1,1,2.0,2.0
2021-09-02 13:25:59.585,1112.0,-255.0,40.0,1141.564277647124,1,1,1,2.0,2.0
2021-09-02 13:25:59.586,1112.0,-255.0,66.0,1142.7707556636196,1,1,1,2.0,2.0
2021-09-02 13:25:59.594,1143.0,-31.0,66.0,1145.323535076443,1,1,1,2.0,2.0
2021-09-02 13:25:59.595,1143.0,-31.0,102.0,1147.960800724485,1,1,1,2.0,2.0
2021-09-02 13:25:59.605,1013.0,-20.0,-23.0,1013.4584352601738,1,1,1,2.0,2.0
2021-09-02 13:25:59.615,1040.0,-9.0,-17.0,1040.1778694050358,1,1,1,2.0,2.0
2021-09-02 13:25:59.624,1008.0,22.0,-25.0,1008.5499491844716,1,1,1,2.0,2.0
2021-09-02 13:25:59.634,976.0,69.0,-57.0,980.0948933649232,1,1,1,2.0,2.0
2021-09-02 13:25:59.644,924.0,88.0,-86.0,932.1566391975116,1,1,1,2.0,2.0
2021-09-02 13:25:59.654,1007.0,183.0,41.0,1024.3139167267034,1,1,1,2.0,2.0
2021-09-02 13:25:59.663,1014.0,101.0,38.0,1019.7259435750371,1,1,1,2.0,2.0
2021-09-02 13:25:59.673,969.0,63.0,60.0,972.8977335773786,1,1,1,2.0,2.0
2021-09-02 13:25:59.683,1073.0,-20.0,83.0,1076.3911928290754,1,1,1,2.0,2.0
2021-09-02 13:25:59.692,1069.0,0.0,87.0,1072.534381733285,1,1,1,2.0,2.0
2021-09-02 13:25:59.702,1097.0,-42.0,61.0,1099.497157795326,1,1,1,2.0,2.0
2021-09-02 13:25:59.719,1053.0,-49.0,-23.0,1054.3903451758272,1,1,1,2.0,2.0
2021-09-02 13:25:59.722,1065.0,74.0,-19.0,1067.7368589685382,1,1,1,2.0,2.0
2021-09-02 13:25:59.732,1048.0,103.0,-10.0,1053.0968616418909,1,1,1,2.0,2.0
2021-09-02 13:25:59.741,931.0,103.0,-10.0,936.7336868075153,1,1,1,2.0,2.0
2021-09-02 13:25:59.742,931.0,231.0,-60.0,961.1045728743568,1,1,1,2.0,2.0
2021-09-02 13:25:59.752,903.0,243.0,-86.0,939.0708173508534,1,1,1,2.0,2.0
2021-09-02 13:25:59.761,1021.0,47.0,40.0,1022.8636272739392,1,1,1,2.0,2.0
2021-09-02 13:25:59.770,1037.0,-209.0,40.0,1058.607576016722,1,1,1,2.0,2.0
2021-09-02 13:25:59.771,1037.0,-209.0,21.0,1058.0600172012928,1,1,1,2.0,2.0
2021-09-02 13:25:59.783,1067.0,-238.0,41.0,1093.989945109186,1,1,1,2.0,2.0
2021-09-02 13:25:59.790,1113.0,-234.0,61.0,1138.9670759069377,1,1,1,2.0,2.0
2021-09-02 13:25:59.800,1148.0,-29.0,124.0,1155.0415576939213,1,1,1,2.0,2.0
2021-09-02 13:25:59.809,1022.0,-15.0,-18.0,1022.2685557132236,1,1,1,2.0,2.0
2021-09-02 13:25:59.819,1017.0,2.0,-22.0,1017.2398930439172,1,1,1,2.0,2.0
2021-09-02 13:25:59.829,1018.0,17.0,-36.0,1018.7781897940296,1,1,1,2.0,2.0
2021-09-02 13:25:59.839,955.0,79.0,-53.0,959.726523547203,1,1,1,2.0,2.0
2021-09-02 13:25:59.849,910.0,101.0,-106.0,921.7033145215438,1,1,1,2.0,2.0
2021-09-02 13:25:59.858,918.0,156.0,-47.0,932.3459658302812,1,1,1,2.0,2.0
2021-09-02 13:25:59.868,999.0,76.0,41.0,1002.725286407,1,1,1,2.0,2.0
2021-09-02 13:25:59.878,991.0,25.0,62.0,993.2522338258292,1,1,1,2.0,2.0
2021-09-02 13:25:59.888,1047.0,-20.0,73.0,1049.7323468389454,1,1,1,2.0,2.0
2021-09-02 13:25:59.899,1076.0,-30.0,69.0,1078.6273684641976,1,1,1,2.0,2.0
2021-09-02 13:25:59.907,1072.0,-36.0,59.0,1074.22576770435,1,1,1,2.0,2.0
2021-09-02 13:25:59.916,1063.0,-36.0,59.0,1065.2445728563937,1,1,1,2.0,2.0
2021-09-02 13:25:59.917,1063.0,-59.0,-26.0,1064.9535201124977,1,1,1,2.0,2.0
2021-09-02 13:25:59.927,1059.0,85.0,-14.0,1062.4979999981176,1,1,1,2.0,2.0
2021-09-02 13:25:59.937,1020.0,149.0,-37.0,1031.489214679436,1,1,1,2.0,2.0
2021-09-02 13:25:59.946,915.0,252.0,-37.0,949.788397486514,1,1,1,2.0,2.0
2021-09-02 13:25:59.947,915.0,252.0,-78.0,952.2672944084554,1,1,1,2.0,2.0
2021-09-02 13:25:59.957,883.0,250.0,-86.0,921.7293529013816,1,1,1,2.0,2.0
2021-09-02 13:25:59.966,864.0,359.0,-48.0,936.8463054311524,1,1,1,2.0,2.0
2021-09-02 13:25:59.985,1023.0,359.0,-48.0,1085.225322225758,1,1,1,2.0,2.0
2021-09-02 13:25:59.986,1023.0,-231.0,33.0,1049.2754643085866,1,1,1,2.0,2.0
2021-09-02 13:25:59.988,1084.0,-201.0,34.0,1103.001813235137,1,1,1,2.0,2.0
2021-09-02 13:25:59.995,1103.0,-148.0,99.0,1117.279732206756,1,1,1,2.0,2.0
2021-09-02 13:26:00.005,1142.0,-11.0,88.0,1145.438344041267,1,1,1,2.0,2.0
2021-09-02 13:26:00.016,1076.0,-26.0,23.0,1076.5597986178009,1,1,1,2.0,2.0
2021-09-02 13:26:00.024,1051.0,24.0,-32.0,1051.7609043884452,1,1,1,2.0,2.0
2021-09-02 13:26:00.034,997.0,49.0,-34.0,998.782258552884,1,1,1,2.0,2.0
2021-09-02 13:26:00.044,943.0,94.0,-78.0,950.8780153100608,1,1,1,2.0,2.0
2021-09-02 13:26:00.054,919.0,107.0,-89.0,929.4788862583164,1,1,1,2.0,2.0
2021-09-02 13:26:00.064,930.0,107.0,-89.0,940.3563154464376,1,1,1,2.0,2.0
2021-09-02 13:26:00.065,930.0,193.0,-49.0,951.0783353646532,1,1,1,2.0,2.0
2021-09-02 13:26:00.073,1008.0,44.0,58.0,1010.625548855757,1,1,1,2.0,2.0
2021-09-02 13:26:00.083,991.0,11.0,55.0,992.5860164237656,1,1,1,2.0,2.0
2021-09-02 13:26:00.093,1053.0,7.0,85.0,1056.448294996021,1,1,1,2.0,2.0
2021-09-02 13:26:00.102,1092.0,7.0,85.0,1095.32552239049,1,1,1,2.0,2.0
2021-09-02 13:26:00.103,1092.0,-93.0,77.0,1098.6546318111075,1,1,1,2.0,2.0
2021-09-02 13:26:00.113,1102.0,-39.0,50.0,1103.8229024621658,1,1,1,2.0,2.0
2021-09-02 13:26:00.121,1073.0,-149.0,50.0,1084.4491689332424,1,1,1,2.0,2.0
2021-09-02 13:26:00.122,1073.0,-149.0,7.0,1083.3185127191357,1,1,1,2.0,2.0
2021-09-02 13:26:00.132,1081.0,94.0,-34.0,1085.611809073575,1,1,1,2.0,2.0
2021-09-02 13:26:00.154,975.0,146.0,-52.0,987.2411053030562,1,1,1,2.0,2.0
2021-09-02 13:26:00.155,918.0,254.0,-67.0,954.845013601684,1,1,1,2.0,2.0
2021-09-02 13:26:00.162,878.0,265.0,-79.0,920.5161595539756,1,1,1,2.0,2.0
2021-09-02 13:26:00.172,875.0,352.0,-45.0,944.2213723486668,1,1,1,2.0,2.0
2021-09-02 13:26:00.185,1042.0,-198.0,46.0,1061.642124258453,1,1,1,2.0,2.0
2021-09-02 13:26:00.190,1111.0,-229.0,36.0,1134.9264293336375,1,1,1,2.0,2.0
2021-09-02 13:26:00.200,1126.0,-137.0,36.0,1134.874882971687,1,1,1,2.0,2.0
2021-09-02 13:26:00.201,1126.0,-137.0,105.0,1139.1531942631773,1,1,1,2.0,2.0
2021-09-02 13:26:00.210,1128.0,-1.0,105.0,1132.876868860866,1,1,1,2.0,2.0
2021-09-02 13:26:00.211,1128.0,-1.0,85.0,1131.1984794897844,1,1,1,2.0,2.0
2021-09-02 13:26:00.225,1093.0,-7.0,23.0,1093.2643779068264,1,1,1,2.0,2.0
2021-09-02 13:26:00.230,1015.0,-25.0,-9.0,1015.3477236887863,1,1,1,2.0,2.0
2021-09-02 13:26:00.239,974.0,-25.0,-9.0,974.362355594673,1,1,1,2.0,2.0
2021-09-02 13:26:00.240,974.0,51.0,-38.0,976.0742799602908,1,1,1,2.0,2.0
2021-09-02 13:26:00.249,946.0,97.0,-63.0,953.0445949691966,1,1,1,2.0,2.0
2021-09-02 13:26:00.260,924.0,97.0,-63.0,931.2110394534636,1,1,1,2.0,2.0
2021-09-02 13:26:00.261,924.0,136.0,-79.0,937.2902432011122,1,1,1,2.0,2.0
2021-09-02 13:26:00.269,932.0,204.0,-38.0,954.821449277298,1,1,1,2.0,2.0
2021-09-02 13:26:00.278,985.0,240.0,-38.0,1014.5289547371232,1,1,1,2.0,2.0
2021-09-02 13:26:00.279,985.0,240.0,23.0,1014.077906277422,1,1,1,2.0,2.0
2021-09-02 13:26:00.288,1050.0,-41.0,53.0,1052.135922778041,1,1,1,2.0,2.0
2021-09-02 13:26:00.298,1056.0,-31.0,87.0,1060.0311316183124,1,1,1,2.0,2.0
2021-09-02 13:26:00.309,1062.0,-40.0,91.0,1066.6419267964295,1,1,1,2.0,2.0
2021-09-02 13:26:00.318,1079.0,-54.0,41.0,1081.128114517424,1,1,1,2.0,2.0
2021-09-02 13:26:00.327,1048.0,-153.0,-10.0,1059.1567400531424,1,1,1,2.0,2.0
2021-09-02 13:26:00.337,1067.0,95.0,-25.0,1071.5124824284596,1,1,1,2.0,2.0
2021-09-02 13:26:00.347,991.0,176.0,-58.0,1008.1770677812503,1,1,1,2.0,2.0
2021-09-02 13:26:00.357,908.0,287.0,-58.0,954.042451885659,1,1,1,2.0,2.0
2021-09-02 13:26:00.358,908.0,287.0,-86.0,956.1532303977224,1,1,1,2.0,2.0
2021-09-02 13:26:00.367,857.0,295.0,-55.0,908.0192729232128,1,1,1,2.0,2.0
2021-09-02 13:26:00.376,912.0,268.0,-50.0,951.876042350053,1,1,1,2.0,2.0
2021-09-02 13:26:00.385,924.0,277.0,35.0,965.2616225666492,1,1,1,2.0,2.0
2021-09-02 13:26:00.395,1118.0,-214.0,45.0,1139.1861129771553,1,1,1,2.0,2.0
2021-09-02 13:26:00.406,1126.0,-119.0,99.0,1136.5905155331889,1,1,1,2.0,2.0
2021-09-02 13:26:00.415,1119.0,5.0,69.0,1121.136476973254,1,1,1,2.0,2.0
2021-09-02 13:26:00.425,1092.0,-6.0,15.0,1092.1194989560438,1,1,1,2.0,2.0
2021-09-02 13:26:00.435,1019.0,-55.0,-16.0,1020.6086419387208,1,1,1,2.0,2.0
2021-09-02 13:26:00.444,987.0,53.0,-46.0,989.4917887481432,1,1,1,2.0,2.0
2021-09-02 13:26:00.455,938.0,93.0,-80.0,945.9878434736886,1,1,1,2.0,2.0
2021-09-02 13:26:00.464,917.0,93.0,-80.0,925.1691737190556,1,1,1,2.0,2.0
2021-09-02 13:26:00.465,917.0,133.0,-75.0,929.6251932902852,1,1,1,2.0,2.0
2021-09-02 13:26:00.473,951.0,217.0,-19.0,975.6285153684264,1,1,1,2.0,2.0
2021-09-02 13:26:00.483,991.0,217.0,-19.0,1014.6580704848308,1,1,1,2.0,2.0
2021-09-02 13:26:00.484,991.0,243.0,29.0,1020.7698075472256,1,1,1,2.0,2.0
2021-09-02 13:26:00.493,1012.0,227.0,29.0,1037.5519264113966,1,1,1,2.0,2.0
2021-09-02 13:26:00.494,1012.0,227.0,77.0,1040.000961538017,1,1,1,2.0,2.0
2021-09-02 13:26:00.504,1057.0,-27.0,72.0,1059.7933760879996,1,1,1,2.0,2.0
2021-09-02 13:26:00.514,1086.0,-75.0,72.0,1090.9651690132,1,1,1,2.0,2.0
2021-09-02 13:26:00.515,1086.0,-75.0,76.0,1091.2364546696558,1,1,1,2.0,2.0
2021-09-02 13:26:00.522,1072.0,-75.0,76.0,1077.3045066275365,1,1,1,2.0,2.0
2021-09-02 13:26:00.523,1072.0,-100.0,42.0,1077.4729694985392,1,1,1,2.0,2.0
2021-09-02 13:26:00.532,1026.0,-125.0,-18.0,1033.7431982847577,1,1,1,2.0,2.0
2021-09-02 13:26:00.542,1050.0,-148.0,-20.0,1060.5677724690677,1,1,1,2.0,2.0
2021-09-02 13:26:00.552,1059.0,-148.0,-20.0,1069.4788450455671,1,1,1,2.0,2.0
2021-09-02 13:26:00.553,1059.0,-137.0,-22.0,1068.0514968858008,1,1,1,2.0,2.0
2021-09-02 13:26:00.562,901.0,305.0,-79.0,954.4982975364596,1,1,1,2.0,2.0
2021-09-02 13:26:00.571,853.0,205.0,-59.0,879.2695832337201,1,1,1,2.0,2.0
2021-09-02 13:26:00.581,869.0,365.0,19.0,942.733790632329,1,1,1,2.0,2.0
2021-09-02 13:26:00.591,965.0,256.0,53.0,999.7849768825296,1,1,1,2.0,2.0
2021-09-02 13:26:00.601,960.0,191.0,65.0,980.971966979689,1,1,1,2.0,2.0
2021-09-02 13:26:00.611,1136.0,-48.0,111.0,1142.4189249132737,1,1,1,2.0,2.0
2021-09-02 13:26:00.621,1127.0,17.0,59.0,1128.671342774326,1,1,1,2.0,2.0
2021-09-02 13:26:00.630,1071.0,-10.0,13.0,1071.1255762047697,1,1,1,2.0,2.0
2021-09-02 13:26:00.640,1009.0,4.0,-31.0,1009.48402661954,1,1,1,2.0,2.0
2021-09-02 13:26:00.650,1019.0,-43.0,-20.0,1020.1029359824428,1,1,1,2.0,2.0
2021-09-02 13:26:00.660,943.0,118.0,-98.0,955.393636152136,1,1,1,2.0,2.0
2021-09-02 13:26:00.670,922.0,130.0,-58.0,932.9244342389152,1,1,1,2.0,2.0
2021-09-02 13:26:00.679,973.0,215.0,0.0,996.4707722758357,1,1,1,2.0,2.0
2021-09-02 13:26:00.689,1005.0,260.0,35.0,1038.6770431659688,1,1,1,2.0,2.0
2021-09-02 13:26:00.698,995.0,213.0,35.0,1018.144881635222,1,1,1,2.0,2.0
2021-09-02 13:26:00.699,995.0,213.0,70.0,1019.9480378921272,1,1,1,2.0,2.0
2021-09-02 13:26:00.709,989.0,159.0,54.0,1003.154026059807,1,1,1,2.0,2.0
2021-09-02 13:26:00.719,1077.0,-61.0,63.0,1080.5642044783826,1,1,1,2.0,2.0
2021-09-02 13:26:00.735,1069.0,-131.0,21.0,1077.2014667646902,1,1,1,2.0,2.0
2021-09-02 13:26:00.738,1050.0,-185.0,-25.0,1066.466126982006,1,1,1,2.0,2.0
2021-09-02 13:26:00.747,1078.0,-158.0,-36.0,1090.111920859505,1,1,1,2.0,2.0
2021-09-02 13:26:00.759,1056.0,-105.0,-10.0,1061.2544463982235,1,1,1,2.0,2.0
2021-09-02 13:26:00.768,917.0,260.0,-99.0,958.2744909471398,1,1,1,2.0,2.0
2021-09-02 13:26:00.776,866.0,330.0,-99.0,932.0177036945169,1,1,1,2.0,2.0
2021-09-02 13:26:00.777,866.0,330.0,-21.0,926.9827398608888,1,1,1,2.0,2.0
2021-09-02 13:26:00.786,910.0,306.0,-21.0,960.3004738101508,1,1,1,2.0,2.0
2021-09-02 13:26:00.787,910.0,306.0,14.0,960.172901096464,1,1,1,2.0,2.0
2021-09-02 13:26:00.796,938.0,191.0,54.0,958.7705669241208,1,1,1,2.0,2.0
2021-09-02 13:26:00.806,975.0,185.0,76.0,995.3019642299516,1,1,1,2.0,2.0
2021-09-02 13:26:00.818,999.0,185.0,76.0,1018.8238316804334,1,1,1,2.0,2.0
2021-09-02 13:26:00.819,999.0,-119.0,37.0,1006.742767542931,1,1,1,2.0,2.0
2021-09-02 13:26:00.825,1090.0,3.0,36.0,1090.598459562455,1,1,1,2.0,2.0
2021-09-02 13:26:00.835,1036.0,-25.0,12.0,1036.371072541105,1,1,1,2.0,2.0
2021-09-02 13:26:00.845,1058.0,-25.0,12.0,1058.3633591541234,1,1,1,2.0,2.0
2021-09-02 13:26:00.846,1058.0,-70.0,-31.0,1060.7662324942287,1,1,1,2.0,2.0
2021-09-02 13:26:00.854,1005.0,-70.0,-31.0,1007.9117024819188,1,1,1,2.0,2.0
2021-09-02 13:26:00.855,1005.0,-63.0,-41.0,1007.8070251789278,1,1,1,2.0,2.0
2021-09-02 13:26:00.864,1011.0,-63.0,-41.0,1013.7904122647836,1,1,1,2.0,2.0
2021-09-02 13:26:00.865,1011.0,-23.0,-30.0,1011.7064791726896,1,1,1,2.0,2.0
2021-09-02 13:26:00.874,905.0,164.0,-62.0,921.8269902752902,1,1,1,2.0,2.0
2021-09-02 13:26:00.883,970.0,224.0,-62.0,997.4567659803608,1,1,1,2.0,2.0
2021-09-02 13:26:00.884,970.0,224.0,10.0,995.5782239482742,1,1,1,2.0,2.0
2021-09-02 13:26:00.894,997.0,290.0,49.0,1039.4758294448218,1,1,1,2.0,2.0
2021-09-02 13:26:00.904,987.0,234.0,70.0,1016.7718524821584,1,1,1,2.0,2.0
2021-09-02 13:26:00.913,982.0,234.0,70.0,1011.9189690879404,1,1,1,2.0,2.0
2021-09-02 13:26:00.914,982.0,148.0,52.0,994.4506020914262,1,1,1,2.0,2.0
2021-09-02 13:26:00.922,1073.0,-66.0,52.0,1076.28481360651,1,1,1,2.0,2.0
2021-09-02 13:26:00.923,1073.0,-66.0,55.0,1076.4339273731575,1,1,1,2.0,2.0
2021-09-02 13:26:00.933,1085.0,-131.0,19.0,1093.0448298217232,1,1,1,2.0,2.0
2021-09-02 13:26:00.942,1057.0,-169.0,-27.0,1070.7656139417254,1,1,1,2.0,2.0
2021-09-02 13:26:00.953,1067.0,-162.0,-41.0,1080.0064814620328,1,1,1,2.0,2.0
2021-09-02 13:26:00.962,1059.0,-162.0,-41.0,1072.103539775893,1,1,1,2.0,2.0
2021-09-02 13:26:00.963,1059.0,-139.0,-29.0,1068.4769534248271,1,1,1,2.0,2.0
2021-09-02 13:26:00.972,1043.0,24.0,-1.0,1043.276569275856,1,1,1,2.0,2.0
2021-09-02 13:26:00.982,870.0,285.0,-48.0,916.7491478043488,1,1,1,2.0,2.0
2021-09-02 13:26:01.000,892.0,310.0,-48.0,945.551690813358,1,1,1,2.0,2.0
2021-09-02 13:26:01.001,892.0,310.0,14.0,944.4363398345068,1,1,1,2.0,2.0
2021-09-02 13:26:01.008,966.0,264.0,81.0,1004.6954762513864,1,1,1,2.0,2.0
2021-09-02 13:26:01.013,972.0,184.0,75.0,992.1013053111058,1,1,1,2.0,2.0
2021-09-02 13:26:01.025,1019.0,-123.0,38.0,1027.099800408899,1,1,1,2.0,2.0
2021-09-02 13:26:01.030,1109.0,-26.0,36.0,1109.8887331620228,1,1,1,2.0,2.0
2021-09-02 13:26:01.040,1035.0,-24.0,0.0,1035.2782234742504,1,1,1,2.0,2.0
2021-09-02 13:26:01.050,1027.0,-58.0,0.0,1028.636476117778,1,1,1,2.0,2.0
2021-09-02 13:26:01.051,1027.0,-58.0,-37.0,1029.3017050408496,1,1,1,2.0,2.0
2021-09-02 13:26:01.061,1027.0,-81.0,-45.0,1031.1716636913566,1,1,1,2.0,2.0
2021-09-02 13:26:01.069,1014.0,-20.0,-22.0,1014.435803784547,1,1,1,2.0,2.0
2021-09-02 13:26:01.079,1010.0,12.0,-40.0,1010.8629976411244,1,1,1,2.0,2.0
2021-09-02 13:26:01.088,965.0,12.0,-40.0,965.903204260137,1,1,1,2.0,2.0
2021-09-02 13:26:01.089,965.0,233.0,10.0,992.780942605165,1,1,1,2.0,2.0
2021-09-02 13:26:01.099,1018.0,248.0,53.0,1049.112482053283,1,1,1,2.0,2.0
2021-09-02 13:26:01.110,985.0,245.0,64.0,1017.0280232127332,1,1,1,2.0,2.0
2021-09-02 13:26:01.118,1010.0,118.0,43.0,1017.778463124466,1,1,1,2.0,2.0
2021-09-02 13:26:01.127,982.0,14.0,68.0,984.4511161048068,1,1,1,2.0,2.0
2021-09-02 13:26:01.138,1052.0,-118.0,11.0,1058.654334520952,1,1,1,2.0,2.0
2021-09-02 13:26:01.147,1061.0,-230.0,11.0,1085.6988532737796,1,1,1,2.0,2.0
2021-09-02 13:26:01.148,1061.0,-230.0,-24.0,1085.9083755087258,1,1,1,2.0,2.0
2021-09-02 13:26:01.173,1060.0,-230.0,-24.0,1084.9313342327246,1,1,1,2.0,2.0
2021-09-02 13:26:01.174,1060.0,-148.0,-32.0,1070.7604774178023,1,1,1,2.0,2.0
2021-09-02 13:26:01.177,1021.0,52.0,-19.0,1022.499877750604,1,1,1,2.0,2.0
2021-09-02 13:26:01.186,1031.0,101.0,-19.0,1036.1095501924494,1,1,1,2.0,2.0
2021-09-02 13:26:01.187,1031.0,101.0,-21.0,1036.1481554295217,1,1,1,2.0,2.0
2021-09-02 13:26:01.196,915.0,101.0,-21.0,920.7969374406064,1,1,1,2.0,2.0
2021-09-02 13:26:01.197,915.0,279.0,25.0,956.9174468051044,1,1,1,2.0,2.0
2021-09-02 13:26:01.208,922.0,221.0,109.0,954.3615667031024,1,1,1,2.0,2.0
2021-09-02 13:26:01.216,1009.0,175.0,63.0,1025.9995126704496,1,1,1,2.0,2.0
2021-09-02 13:26:01.226,1031.0,-81.0,40.0,1034.9502403497474,1,1,1,2.0,2.0
2021-09-02 13:26:01.239,1021.0,-165.0,40.0,1035.019806573768,1,1,1,2.0,2.0
2021-09-02 13:26:01.240,1021.0,-165.0,62.0,1036.1032767055608,1,1,1,2.0,2.0
2021-09-02 13:26:01.245,1018.0,-17.0,2.0,1018.1438994562606,1,1,1,2.0,2.0
2021-09-02 13:26:01.255,1009.0,-17.0,2.0,1009.1451828156344,1,1,1,2.0,2.0
2021-09-02 13:26:01.256,1009.0,-56.0,-45.0,1011.5542496574268,1,1,1,2.0,2.0
2021-09-02 13:26:01.265,1024.0,-56.0,-45.0,1026.516926309547,1,1,1,2.0,2.0
2021-09-02 13:26:01.266,1024.0,-96.0,-43.0,1029.3886535220795,1,1,1,2.0,2.0
2021-09-02 13:26:01.275,1028.0,-23.0,-36.0,1028.8872630176738,1,1,1,2.0,2.0
2021-09-02 13:26:01.285,1041.0,13.0,-17.0,1041.2199575497964,1,1,1,2.0,2.0
2021-09-02 13:26:01.294,962.0,218.0,18.0,986.5556243821228,1,1,1,2.0,2.0
2021-09-02 13:26:01.305,1005.0,276.0,69.0,1044.4912637260304,1,1,1,2.0,2.0
2021-09-02 13:26:01.313,963.0,276.0,69.0,1004.1444119248983,1,1,1,2.0,2.0
2021-09-02 13:26:01.314,963.0,234.0,73.0,993.7072003361956,1,1,1,2.0,2.0
2021-09-02 13:26:01.324,999.0,148.0,57.0,1011.5107513022292,1,1,1,2.0,2.0
2021-09-02 13:26:01.334,973.0,23.0,53.0,974.7138041497104,1,1,1,2.0,2.0
2021-09-02 13:26:01.343,1067.0,-57.0,42.0,1069.3465294281364,1,1,1,2.0,2.0
2021-09-02 13:26:01.352,1082.0,-177.0,-23.0,1096.6229981174022,1,1,1,2.0,2.0
2021-09-02 13:26:01.363,1026.0,-150.0,-41.0,1037.7172061790243,1,1,1,2.0,2.0
2021-09-02 13:26:01.372,1059.0,-99.0,-20.0,1063.8054333382586,1,1,1,2.0,2.0
2021-09-02 13:26:01.383,1030.0,27.0,-2.0,1030.3557638019986,1,1,1,2.0,2.0
2021-09-02 13:26:01.392,1051.0,99.0,6.0,1055.6694558430684,1,1,1,2.0,2.0
2021-09-02 13:26:01.401,938.0,205.0,6.0,960.158841025796,1,1,1,2.0,2.0
2021-09-02 13:26:01.402,938.0,205.0,22.0,960.3921074227964,1,1,1,2.0,2.0
2021-09-02 13:26:01.412,918.0,230.0,83.0,950.0068420806242,1,1,1,2.0,2.0
2021-09-02 13:26:01.421,976.0,175.0,62.0,993.50138399501,1,1,1,2.0,2.0
2021-09-02 13:26:01.433,1045.0,-165.0,45.0,1058.902733965684,1,1,1,2.0,2.0
2021-09-02 13:26:01.441,1065.0,-225.0,52.0,1089.7495125027583,1,1,1,2.0,2.0
2021-09-02 13:26:01.450,1002.0,-17.0,-17.0,1002.2883816547012,1,1,1,2.0,2.0
2021-09-02 13:26:01.460,1035.0,-120.0,-47.0,1042.9928091794304,1,1,1,2.0,2.0
2021-09-02 13:26:01.471,1017.0,-73.0,-41.0,1020.440591117386,1,1,1,2.0,2.0
2021-09-02 13:26:01.480,1004.0,-14.0,-33.0,1004.6397364229628,1,1,1,2.0,2.0
2021-09-02 13:26:01.490,983.0,28.0,-23.0,983.6676267927088,1,1,1,2.0,2.0
2021-09-02 13:26:01.499,972.0,82.0,-53.0,976.891498581086,1,1,1,2.0,2.0
2021-09-02 13:26:01.508,994.0,246.0,-53.0,1025.358961534935,1,1,1,2.0,2.0
2021-09-02 13:26:01.509,994.0,246.0,82.0,1027.266275120526,1,1,1,2.0,2.0
2021-09-02 13:26:01.519,968.0,224.0,74.0,996.3312702108672,1,1,1,2.0,2.0
2021-09-02 13:26:01.529,1014.0,83.0,38.0,1018.100682643912,1,1,1,2.0,2.0
2021-09-02 13:26:01.539,990.0,8.0,60.0,991.8487787964452,1,1,1,2.0,2.0
2021-09-02 13:26:01.548,1062.0,-77.0,46.0,1065.7809343387598,1,1,1,2.0,2.0
2021-09-02 13:26:01.558,1017.0,-183.0,-49.0,1034.4945625763337,1,1,1,2.0,2.0
2021-09-02 13:26:01.567,1053.0,-132.0,-49.0,1062.3718746277125,1,1,1,2.0,2.0
2021-09-02 13:26:01.568,1053.0,-132.0,-47.0,1062.281506946252,1,1,1,2.0,2.0
2021-09-02 13:26:01.577,1036.0,-86.0,-47.0,1040.6252927927517,1,1,1,2.0,2.0
2021-09-02 13:26:01.578,1036.0,-86.0,-43.0,1040.452305490261,1,1,1,2.0,2.0
2021-09-02 13:26:01.588,1053.0,-86.0,-43.0,1057.3807261341583,1,1,1,2.0,2.0
2021-09-02 13:26:01.589,1053.0,64.0,-9.0,1054.9815164257618,1,1,1,2.0,2.0
2021-09-02 13:26:01.597,1002.0,140.0,-40.0,1012.5235799723382,1,1,1,2.0,2.0
2021-09-02 13:26:01.607,917.0,306.0,-69.0,969.1676841496522,1,1,1,2.0,2.0
2021-09-02 13:26:01.616,952.0,227.0,96.0,983.3864957380694,1,1,1,2.0,2.0
2021-09-02 13:26:01.626,1012.0,61.0,38.0,1014.5486681278528,1,1,1,2.0,2.0
2021-09-02 13:26:01.637,1024.0,-146.0,49.0,1035.5158134958635,1,1,1,2.0,2.0
2021-09-02 13:26:01.648,1092.0,-229.0,53.0,1117.01119063329,1,1,1,2.0,2.0
2021-09-02 13:26:01.655,1096.0,-214.0,81.0,1119.6307427004674,1,1,1,2.0,2.0
2021-09-02 13:26:01.665,1157.0,-22.0,111.0,1162.5205374529949,1,1,1,2.0,2.0
2021-09-02 13:26:01.676,1018.0,-3.0,-31.0,1018.4763129302517,1,1,1,2.0,2.0
2021-09-02 13:26:01.686,1018.0,20.0,-36.0,1018.8326653577612,1,1,1,2.0,2.0
2021-09-02 13:26:01.694,1005.0,12.0,-36.0,1005.7161627417548,1,1,1,2.0,2.0
2021-09-02 13:26:01.695,1005.0,12.0,-34.0,1005.6465581903018,1,1,1,2.0,2.0
2021-09-02 13:26:01.704,960.0,52.0,-73.0,964.1747766872976,1,1,1,2.0,2.0
2021-09-02 13:26:01.714,960.0,136.0,-92.0,973.9404499249428,1,1,1,2.0,2.0
2021-09-02 13:26:01.724,989.0,193.0,57.0,1009.2665653830012,1,1,1,2.0,2.0
2021-09-02 13:26:01.734,1018.0,53.0,36.0,1020.0142155872144,1,1,1,2.0,2.0
2021-09-02 13:26:01.751,1015.0,53.0,36.0,1017.020157125708,1,1,1,2.0,2.0
2021-09-02 13:26:01.752,1015.0,1.0,54.0,1016.43593010086,1,1,1,2.0,2.0
2021-09-02 13:26:01.755,1060.0,-36.0,64.0,1062.5403521749186,1,1,1,2.0,2.0
2021-09-02 13:26:01.763,1056.0,-51.0,96.0,1061.5804255919568,1,1,1,2.0,2.0
2021-09-02 13:26:01.774,1052.0,-153.0,-39.0,1063.7828725825586,1,1,1,2.0,2.0
2021-09-02 13:26:01.782,1040.0,-13.0,-10.0,1040.1293188829934,1,1,1,2.0,2.0
2021-09-02 13:26:01.791,1036.0,94.0,-14.0,1040.3499411255812,1,1,1,2.0,2.0
2021-09-02 13:26:01.802,989.0,132.0,-39.0,998.531922374042,1,1,1,2.0,2.0
2021-09-02 13:26:01.812,922.0,353.0,-66.0,989.4690495412174,1,1,1,2.0,2.0
2021-09-02 13:26:01.821,881.0,353.0,-66.0,951.3811013468788,1,1,1,2.0,2.0
2021-09-02 13:26:01.822,881.0,296.0,-67.0,931.80792012088,1,1,1,2.0,2.0
2021-09-02 13:26:01.832,1014.0,16.0,42.0,1014.9955664927804,1,1,1,2.0,2.0
2021-09-02 13:26:01.841,1037.0,-168.0,33.0,1051.0385340224211,1,1,1,2.0,2.0
2021-09-02 13:26:01.851,1085.0,-220.0,49.0,1108.1633453602406,1,1,1,2.0,2.0
2021-09-02 13:26:01.860,1117.0,-205.0,49.0,1136.712364672787,1,1,1,2.0,2.0
2021-09-02 13:26:01.861,1117.0,-205.0,81.0,1138.540732692511,1,1,1,2.0,2.0
2021-09-02 13:26:01.871,1138.0,-46.0,78.0,1141.5971268359078,1,1,1,2.0,2.0
2021-09-02 13:26:01.880,996.0,-46.0,78.0,1000.1079941686296,1,1,1,2.0,2.0
2021-09-02 13:26:01.881,996.0,29.0,-29.0,996.8440198947876,1,1,1,2.0,2.0
2021-09-02 13:26:01.890,1040.0,4.0,-25.0,1040.3081274314836,1,1,1,2.0,2.0
2021-09-02 13:26:01.899,980.0,4.0,-25.0,980.3269862652973,1,1,1,2.0,2.0
2021-09-02 13:26:01.900,980.0,18.0,-28.0,980.5651431699988,1,1,1,2.0,2.0
2021-09-02 13:26:01.909,965.0,99.0,-70.0,972.587271148456,1,1,1,2.0,2.0
2021-09-02 13:26:01.919,955.0,99.0,-70.0,962.6660895658472,1,1,1,2.0,2.0
2021-09-02 13:26:01.920,955.0,122.0,-99.0,967.8377963274633,1,1,1,2.0,2.0
2021-09-02 13:26:01.931,936.0,202.0,-40.0,958.3840566286566,1,1,1,2.0,2.0
2021-09-02 13:26:01.938,1011.0,202.0,-40.0,1031.7582081088572,1,1,1,2.0,2.0
2021-09-02 13:26:01.939,1011.0,53.0,28.0,1012.7753946458216,1,1,1,2.0,2.0
2021-09-02 13:26:01.948,1022.0,0.0,28.0,1022.383489694547,1,1,1,2.0,2.0
2021-09-02 13:26:01.949,1022.0,0.0,49.0,1023.1739832501606,1,1,1,2.0,2.0
2021-09-02 13:26:01.958,1055.0,-38.0,81.0,1058.787041854971,1,1,1,2.0,2.0
2021-09-02 13:26:01.968,1062.0,-60.0,72.0,1066.1275721038269,1,1,1,2.0,2.0
2021-09-02 13:26:01.978,1058.0,-60.0,53.0,1061.0245049008058,1,1,1,2.0,2.0
2021-09-02 13:26:01.988,1043.0,-44.0,-2.0,1043.9295953271944,1,1,1,2.0,2.0
2021-09-02 13:26:01.997,1034.0,109.0,-10.0,1039.7773800193963,1,1,1,2.0,2.0
2021-09-02 13:26:02.016,980.0,139.0,-42.0,990.6992480061748,1,1,1,2.0,2.0
2021-09-02 13:26:02.018,918.0,139.0,-42.0,929.4132557694668,1,1,1,2.0,2.0
2021-09-02 13:26:02.019,918.0,285.0,-74.0,964.0669063918748,1,1,1,2.0,2.0
2021-09-02 13:26:02.027,921.0,225.0,-58.0,949.8578841068804,1,1,1,2.0,2.0
2021-09-02 13:26:02.037,1038.0,5.0,31.0,1038.4748432196131,1,1,1,2.0,2.0
2021-09-02 13:26:02.046,1039.0,-181.0,23.0,1054.898573323521,1,1,1,2.0,2.0
2021-09-02 13:26:02.056,1073.0,-181.0,23.0,1088.4020396893789,1,1,1,2.0,2.0
2021-09-02 13:26:02.057,1073.0,-195.0,32.0,1091.0444537231283,1,1,1,2.0,2.0
2021-09-02 13:26:02.065,1113.0,-195.0,32.0,1130.4061217102462,1,1,1,2.0,2.0
2021-09-02 13:26:02.066,1113.0,-168.0,104.0,1130.4021408330757,1,1,1,2.0,2.0
2021-09-02 13:26:02.075,1118.0,-168.0,104.0,1135.325503985531,1,1,1,2.0,2.0
2021-09-02 13:26:02.076,1118.0,15.0,81.0,1121.0307756703205,1,1,1,2.0,2.0
2021-09-02 13:26:02.085,1012.0,15.0,81.0,1015.3472312465328,1,1,1,2.0,2.0
2021-09-02 13:26:02.086,1012.0,8.0,-9.0,1012.0716377806464,1,1,1,2.0,2.0
2021-09-02 13:26:02.095,1018.0,15.0,-31.0,1018.5823481682764,1,1,1,2.0,2.0
2021-09-02 13:26:02.105,1002.0,48.0,-15.0,1003.2611823448568,1,1,1,2.0,2.0
2021-09-02 13:26:02.114,964.0,88.0,-63.0,970.0561839398788,1,1,1,2.0,2.0
2021-09-02 13:26:02.124,940.0,110.0,-101.0,951.788316801588,1,1,1,2.0,2.0
2021-09-02 13:26:02.135,934.0,165.0,-42.0,949.3919106459672,1,1,1,2.0,2.0
2021-09-02 13:26:02.143,1012.0,63.0,-42.0,1014.8285569493992,1,1,1,2.0,2.0
2021-09-02 13:26:02.144,1012.0,63.0,38.0,1014.6708826018416,1,1,1,2.0,2.0
2021-09-02 13:26:02.153,1009.0,5.0,43.0,1009.9282152707686,1,1,1,2.0,2.0
2021-09-02 13:26:02.164,1043.0,-27.0,73.0,1045.9000908308594,1,1,1,2.0,2.0
2021-09-02 13:26:02.173,1064.0,-23.0,78.0,1067.1030878036104,1,1,1,2.0,2.0
2021-09-02 13:26:02.192,1067.0,-58.0,55.0,1069.9897195767817,1,1,1,2.0,2.0
2021-09-02 13:26:02.195,1040.0,-55.0,7.0,1041.4768360362125,1,1,1,2.0,2.0
2021-09-02 13:26:02.203,1041.0,89.0,-7.0,1044.8210373073466,1,1,1,2.0,2.0
2021-09-02 13:26:02.213,992.0,140.0,-28.0,1002.2215323969048,1,1,1,2.0,2.0
2021-09-02 13:26:02.223,934.0,279.0,-65.0,976.9452389975602,1,1,1,2.0,2.0
2021-09-02 13:26:02.231,915.0,232.0,-58.0,945.7341063956612,1,1,1,2.0,2.0
2021-09-02 13:26:02.241,884.0,325.0,2.0,941.851899185854,1,1,1,2.0,2.0
2021-09-02 13:26:02.259,1012.0,-185.0,29.0,1029.1792846729863,1,1,1,2.0,2.0
2021-09-02 13:26:02.263,1059.0,-206.0,34.0,1079.3854733134035,1,1,1,2.0,2.0
2021-09-02 13:26:02.270,1120.0,-206.0,34.0,1139.2945185508445,1,1,1,2.0,2.0
2021-09-02 13:26:02.271,1120.0,-186.0,83.0,1138.3694479385856,1,1,1,2.0,2.0
2021-09-02 13:26:02.281,1128.0,39.0,86.0,1131.9456700743194,1,1,1,2.0,2.0
2021-09-02 13:26:02.293,1020.0,39.0,86.0,1024.3617525073844,1,1,1,2.0,2.0
2021-09-02 13:26:02.294,1020.0,-180.0,49.0,1036.9189939431142,1,1,1,2.0,2.0
2021-09-02 13:26:02.299,1029.0,39.0,49.0,1030.903972249598,1,1,1,2.0,2.0
2021-09-02 13:26:02.300,1029.0,39.0,-14.0,1029.8339672005386,1,1,1,2.0,2.0
2021-09-02 13:26:02.309,984.0,39.0,-14.0,984.8720729109948,1,1,1,2.0,2.0
2021-09-02 13:26:02.310,984.0,39.0,-15.0,984.8867955252522,1,1,1,2.0,2.0
2021-09-02 13:26:02.319,951.0,102.0,-64.0,958.5932401180388,1,1,1,2.0,2.0
2021-09-02 13:26:02.330,952.0,102.0,-80.0,960.7850956379372,1,1,1,2.0,2.0
2021-09-02 13:26:02.340,940.0,197.0,-37.0,961.1337055789896,1,1,1,2.0,2.0
2021-09-02 13:26:02.348,1016.0,73.0,25.0,1018.9259050588516,1,1,1,2.0,2.0
2021-09-02 13:26:02.358,1037.0,73.0,25.0,1039.8668183955097,1,1,1,2.0,2.0
2021-09-02 13:26:02.359,1037.0,-2.0,37.0,1037.6617946132544,1,1,1,2.0,2.0
2021-09-02 13:26:02.368,1039.0,-27.0,37.0,1040.009134575269,1,1,1,2.0,2.0
2021-09-02 13:26:02.369,1039.0,-27.0,77.0,1042.1991172515932,1,1,1,2.0,2.0
2021-09-02 13:26:02.378,1053.0,-58.0,71.0,1056.9834435789428,1,1,1,2.0,2.0
2021-09-02 13:26:02.389,1072.0,-57.0,49.0,1074.632030045634,1,1,1,2.0,2.0
2021-09-02 13:26:02.397,1088.0,-145.0,-9.0,1097.6565947508354,1,1,1,2.0,2.0
2021-09-02 13:26:02.406,1061.0,-145.0,-9.0,1070.9000887104269,1,1,1,2.0,2.0
2021-09-02 13:26:02.407,1061.0,103.0,-3.0,1065.9920262365945,1,1,1,2.0,2.0
2021-09-02 13:26:02.416,991.0,146.0,-3.0,1001.7015523597836,1,1,1,2.0,2.0
2021-09-02 13:26:02.417,991.0,146.0,-46.0,1002.7527112902762,1,1,1,2.0,2.0
2021-09-02 13:26:02.427,930.0,294.0,-75.0,978.24383463429,1,1,1,2.0,2.0
2021-09-02 13:26:02.438,910.0,207.0,-55.0,934.8657657653316,1,1,1,2.0,2.0
2021-09-02 13:26:02.446,889.0,380.0,-55.0,968.372862073282,1,1,1,2.0,2.0
2021-09-02 13:26:02.447,889.0,380.0,0.0,966.8097020613726,1,1,1,2.0,2.0
2021-09-02 13:26:02.456,955.0,189.0,30.0,973.9845994675686,1,1,1,2.0,2.0
2021-09-02 13:26:02.468,1110.0,-230.0,42.0,1134.3562050784576,1,1,1,2.0,2.0
2021-09-02 13:26:02.476,1116.0,-121.0,94.0,1126.4692627852746,1,1,1,2.0,2.0
2021-09-02 13:26:02.487,1098.0,39.0,68.0,1100.7947129233498,1,1,1,2.0,2.0
2021-09-02 13:26:02.495,1098.0,-47.0,3.0,1099.0095540985983,1,1,1,2.0,2.0
2021-09-02 13:26:02.505,1043.0,-68.0,-21.0,1045.4252723174432,1,1,1,2.0,2.0
2021-09-02 13:26:02.515,989.0,61.0,-32.0,991.3959854669577,1,1,1,2.0,2.0
2021-09-02 13:26:02.524,937.0,61.0,-32.0,939.5286052058234,1,1,1,2.0,2.0
2021-09-02 13:26:02.525,937.0,92.0,-73.0,944.3315095876025,1,1,1,2.0,2.0
2021-09-02 13:26:02.535,931.0,120.0,-73.0,941.5359791319712,1,1,1,2.0,2.0
2021-09-02 13:26:02.536,931.0,120.0,-92.0,943.199342663045,1,1,1,2.0,2.0
2021-09-02 13:26:02.545,959.0,207.0,-36.0,981.7464031001082,1,1,1,2.0,2.0
2021-09-02 13:26:02.552,976.0,207.0,-36.0,998.3591538118936,1,1,1,2.0,2.0
2021-09-02 13:26:02.553,976.0,227.0,35.0,1002.661458319806,1,1,1,2.0,2.0
2021-09-02 13:26:02.563,1034.0,227.0,35.0,1059.2025302084585,1,1,1,2.0,2.0
2021-09-02 13:26:02.564,1034.0,-7.0,39.0,1034.7589091184475,1,1,1,2.0,2.0
2021-09-02 13:26:02.573,1060.0,-7.0,39.0,1060.7403075211198,1,1,1,2.0,2.0
2021-09-02 13:26:02.574,1060.0,-17.0,82.0,1063.3028731269374,1,1,1,2.0,2.0
2021-09-02 13:26:02.583,1063.0,-17.0,82.0,1066.29358058651,1,1,1,2.0,2.0
2021-09-02 13:26:02.584,1063.0,-58.0,83.0,1067.811781167449,1,1,1,2.0,2.0
2021-09-02 13:26:02.594,1071.0,-76.0,51.0,1074.9037166183768,1,1,1,2.0,2.0
2021-09-02 13:26:02.603,1077.0,-170.0,-23.0,1090.5769115472783,1,1,1,2.0,2.0
2021-09-02 13:26:02.612,1047.0,81.0,-10.0,1050.1761756962496,1,1,1,2.0,2.0
2021-09-02 13:26:02.622,970.0,182.0,-51.0,988.243391073272,1,1,1,2.0,2.0
2021-09-02 13:26:02.633,939.0,290.0,-85.0,986.4309403095588,1,1,1,2.0,2.0
2021-09-02 13:26:02.642,891.0,178.0,-52.0,910.0928524057312,1,1,1,2.0,2.0
2021-09-02 13:26:02.652,926.0,234.0,-4.0,955.1167467906738,1,1,1,2.0,2.0
2021-09-02 13:26:02.661,1005.0,90.0,4.0,1009.0297319702726,1,1,1,2.0,2.0
2021-09-02 13:26:02.671,1029.0,77.0,72.0,1034.3858081006333,1,1,1,2.0,2.0
2021-09-02 13:26:02.684,1018.0,65.0,73.0,1022.6817686846676,1,1,1,2.0,2.0
2021-09-02 13:26:02.692,1050.0,24.0,60.0,1051.986691931034,1,1,1,2.0,2.0
2021-09-02 13:26:02.700,1005.0,-3.0,26.0,1005.3407382574328,1,1,1,2.0,2.0
2021-09-02 13:26:02.710,986.0,25.0,-10.0,986.367578542604,1,1,1,2.0,2.0
2021-09-02 13:26:02.719,1018.0,65.0,16.0,1020.1985100949717,1,1,1,2.0,2.0
2021-09-02 13:26:02.729,995.0,74.0,-21.0,997.968937392342,1,1,1,2.0,2.0
2021-09-02 13:26:02.740,962.0,60.0,-52.0,965.2709464186728,1,1,1,2.0,2.0
2021-09-02 13:26:02.749,955.0,60.0,-52.0,958.2948398066223,1,1,1,2.0,2.0
2021-09-02 13:26:02.750,955.0,31.0,-51.0,956.8631041063292,1,1,1,2.0,2.0
2021-09-02 13:26:02.767,991.0,28.0,-5.0,991.4080895373004,1,1,1,2.0,2.0
2021-09-02 13:26:02.771,1016.0,66.0,19.0,1018.3187123882188,1,1,1,2.0,2.0
2021-09-02 13:26:02.779,1005.0,31.0,9.0,1005.5182743242412,1,1,1,2.0,2.0
2021-09-02 13:26:02.789,1011.0,35.0,19.0,1011.7840678721918,1,1,1,2.0,2.0
2021-09-02 13:26:02.798,1018.0,36.0,11.0,1018.695734751059,1,1,1,2.0,2.0
2021-09-02 13:26:02.808,1017.0,41.0,9.0,1017.865904724193,1,1,1,2.0,2.0
2021-09-02 13:26:02.817,1010.0,41.0,9.0,1010.8719008855672,1,1,1,2.0,2.0
2021-09-02 13:26:02.818,1010.0,39.0,-4.0,1010.7606046933172,1,1,1,2.0,2.0
2021-09-02 13:26:02.828,1004.0,40.0,0.0,1004.7964968091798,1,1,1,2.0,2.0
2021-09-02 13:26:02.857,1008.0,46.0,7.0,1009.073337275344,1,1,1,2.0,2.0
2021-09-02 13:26:02.887,1008.0,47.0,10.0,1009.1446873466658,1,1,1,2.0,2.0
2021-09-02 13:26:02.888,1008.0,47.0,0.0,1009.0951392212728,1,1,1,2.0,2.0
2021-09-02 13:26:02.898,1013.0,45.0,2.0,1014.0009861928144,1,1,1,2.0,2.0
2021-09-02 13:26:02.905,1011.0,45.0,2.0,1012.0029644225356,1,1,1,2.0,2.0
2021-09-02 13:26:02.906,1011.0,45.0,-2.0,1012.0029644225356,1,1,1,2.0,2.0
2021-09-02 13:26:02.915,1014.0,49.0,3.0,1015.1876673797806,1,1,1,2.0,2.0
2021-09-02 13:26:02.925,1019.0,49.0,3.0,1020.1818465352144,1,1,1,2.0,2.0
2021-09-02 13:26:02.926,1019.0,51.0,14.0,1020.3715009740324,1,1,1,2.0,2.0
