time_stamp,Acceleration_X,Acceleration_Y,Acceleration_Z,magnitude,STD_Status_right,STD_Status_left,STD_Status_both,KMeans,KMeans_convert
2021-08-31 13:39:12.478,1026.0,47.0,2.0,1027.07789383279,1,1,1,3.0,2.0
2021-08-31 13:39:12.479,1026.0,17.0,20.0,1026.3357150562383,1,1,1,3.0,2.0
2021-08-31 13:39:12.491,1021.0,-5.0,8.0,1021.0435837906236,1,1,1,3.0,2.0
2021-08-31 13:39:12.499,998.0,79.0,6.0,1001.1398503705664,1,1,1,3.0,2.0
2021-08-31 13:39:12.508,1011.0,58.0,8.0,1012.6939320446232,1,1,1,3.0,2.0
2021-08-31 13:39:12.518,991.0,85.0,14.0,994.7371512113136,1,1,1,3.0,2.0
2021-08-31 13:39:12.527,1021.0,-1.0,14.0,1021.0964694875798,1,1,1,3.0,2.0
2021-08-31 13:39:12.528,1021.0,-1.0,11.0,1021.0597435997564,1,1,1,3.0,2.0
2021-08-31 13:39:12.538,1014.0,49.0,0.0,1015.1832346921416,1,1,1,3.0,2.0
2021-08-31 13:39:12.547,1018.0,17.0,9.0,1018.1817126623322,1,1,1,3.0,2.0
2021-08-31 13:39:12.557,1019.0,34.0,6.0,1019.584719383338,1,1,1,3.0,2.0
2021-08-31 13:39:12.567,1021.0,49.0,13.0,1022.2577952747536,1,1,1,3.0,2.0
2021-08-31 13:39:12.576,1010.0,33.0,4.0,1010.546881643796,1,1,1,3.0,2.0
2021-08-31 13:39:12.587,1012.0,79.0,10.0,1015.128070737875,1,1,1,3.0,2.0
2021-08-31 13:39:12.596,1024.0,5.0,7.0,1024.0361321750322,1,1,1,3.0,2.0
2021-08-31 13:39:12.605,1008.0,5.0,7.0,1008.0367056808992,1,1,1,3.0,2.0
2021-08-31 13:39:12.606,1008.0,53.0,7.0,1009.416663226836,1,1,1,3.0,2.0
2021-08-31 13:39:12.615,1013.0,20.0,13.0,1013.28081004231,1,1,1,3.0,2.0
2021-08-31 13:39:12.625,998.0,75.0,13.0,1000.8985962623786,1,1,1,3.0,2.0
2021-08-31 13:39:12.626,998.0,75.0,2.0,1000.8161669357664,1,1,1,3.0,2.0
2021-08-31 13:39:12.635,1014.0,21.0,18.0,1014.3771487962454,1,1,1,3.0,2.0
2021-08-31 13:39:12.644,1014.0,21.0,18.0,1014.3771487962454,1,1,1,3.0,2.0
2021-08-31 13:39:12.645,1014.0,35.0,-3.0,1014.6082988030404,1,1,1,3.0,2.0
2021-08-31 13:39:12.655,1001.0,76.0,19.0,1004.0607551338712,1,1,1,3.0,2.0
2021-08-31 13:39:12.664,1026.0,35.0,4.0,1026.604597690854,1,1,1,3.0,2.0
2021-08-31 13:39:12.674,1008.0,63.0,4.0,1009.9747521596764,1,1,1,3.0,2.0
2021-08-31 13:39:12.675,1008.0,63.0,7.0,1009.9910890696016,1,1,1,3.0,2.0
2021-08-31 13:39:12.684,1018.0,24.0,3.0,1018.2872875569057,1,1,1,3.0,2.0
2021-08-31 13:39:12.695,995.0,86.0,3.0,998.7141733248808,1,1,1,3.0,2.0
2021-08-31 13:39:12.703,1021.0,42.0,15.0,1021.9735808718344,1,1,1,3.0,2.0
2021-08-31 13:39:12.713,1005.0,79.0,-3.0,1008.104657265306,1,1,1,3.0,2.0
2021-08-31 13:39:12.723,1025.0,0.0,9.0,1025.0395114335838,1,1,1,3.0,2.0
2021-08-31 13:39:12.732,1015.0,0.0,9.0,1015.0399006935638,1,1,1,3.0,2.0
2021-08-31 13:39:12.733,1015.0,46.0,-1.0,1016.0423219531754,1,1,1,3.0,2.0
2021-08-31 13:39:12.743,997.0,62.0,12.0,998.997997995992,1,1,1,3.0,2.0
2021-08-31 13:39:12.752,1023.0,62.0,12.0,1024.9473157192033,1,1,1,3.0,2.0
2021-08-31 13:39:12.753,1023.0,19.0,4.0,1023.1842453830102,1,1,1,3.0,2.0
2021-08-31 13:39:12.762,997.0,89.0,0.0,1000.9645348362748,1,1,1,3.0,2.0
2021-08-31 13:39:12.771,1022.0,89.0,0.0,1025.8679252223455,1,1,1,3.0,2.0
2021-08-31 13:39:12.772,1022.0,26.0,12.0,1022.401095461072,1,1,1,3.0,2.0
2021-08-31 13:39:12.781,1006.0,68.0,7.0,1008.319889717544,1,1,1,3.0,2.0
2021-08-31 13:39:12.792,1026.0,-4.0,17.0,1026.148624712814,1,1,1,3.0,2.0
2021-08-31 13:39:12.801,1003.0,-4.0,17.0,1003.1520323460448,1,1,1,3.0,2.0
2021-08-31 13:39:12.802,1003.0,52.0,-2.0,1004.349042912871,1,1,1,3.0,2.0
2021-08-31 13:39:12.810,999.0,52.0,-2.0,1000.3544371871402,1,1,1,3.0,2.0
2021-08-31 13:39:12.811,999.0,60.0,14.0,1000.8980967111488,1,1,1,3.0,2.0
2021-08-31 13:39:12.820,1011.0,57.0,14.0,1012.7023254639046,1,1,1,3.0,2.0
2021-08-31 13:39:12.821,1011.0,57.0,8.0,1012.6371512047144,1,1,1,3.0,2.0
2021-08-31 13:39:12.830,1003.0,57.0,8.0,1004.6501878763572,1,1,1,3.0,2.0
2021-08-31 13:39:12.831,1003.0,20.0,3.0,1003.2038676161492,1,1,1,3.0,2.0
2021-08-31 13:39:12.840,1024.0,20.0,5.0,1024.2074985079928,1,1,1,3.0,2.0
2021-08-31 13:39:12.851,1001.0,79.0,10.0,1004.1623374733788,1,1,1,3.0,2.0
2021-08-31 13:39:12.859,1018.0,4.0,10.0,1018.056972865468,1,1,1,3.0,2.0
2021-08-31 13:39:12.860,1018.0,4.0,7.0,1018.031924843224,1,1,1,3.0,2.0
2021-08-31 13:39:12.869,1008.0,47.0,5.0,1009.1075264807016,1,1,1,3.0,2.0
2021-08-31 13:39:12.879,1025.0,-6.0,4.0,1025.0253655397996,1,1,1,3.0,2.0
2021-08-31 13:39:12.889,1007.0,77.0,5.0,1009.9519790564302,1,1,1,3.0,2.0
2021-08-31 13:39:12.899,1031.0,0.0,13.0,1031.081956005438,1,1,1,3.0,2.0
2021-08-31 13:39:12.909,1020.0,6.0,7.0,1020.0416658156664,1,1,1,3.0,2.0
2021-08-31 13:39:12.918,1012.0,46.0,5.0,1013.0572540582294,1,1,1,3.0,2.0
2021-08-31 13:39:12.928,1013.0,53.0,3.0,1014.3899644613998,1,1,1,3.0,2.0
2021-08-31 13:39:12.938,1012.0,62.0,17.0,1014.0399400418112,1,1,1,3.0,2.0
2021-08-31 13:39:12.947,1023.0,7.0,5.0,1023.0361674936032,1,1,1,3.0,2.0
2021-08-31 13:39:12.958,1016.0,67.0,0.0,1018.2067569997756,1,1,1,3.0,2.0
2021-08-31 13:39:12.967,1022.0,-4.0,10.0,1022.0567498920988,1,1,1,3.0,2.0
2021-08-31 13:39:12.976,996.0,-4.0,10.0,996.05823122948,1,1,1,3.0,2.0
2021-08-31 13:39:12.977,996.0,75.0,0.0,998.8198035681912,1,1,1,3.0,2.0
2021-08-31 13:39:12.986,1016.0,30.0,19.0,1016.620381460061,1,1,1,3.0,2.0
2021-08-31 13:39:12.996,1005.0,23.0,-10.0,1005.3128866178928,1,1,1,3.0,2.0
2021-08-31 13:39:13.007,1005.0,68.0,11.0,1007.3579304298944,1,1,1,3.0,2.0
2021-08-31 13:39:13.016,1028.0,13.0,4.0,1028.089976607106,1,1,1,3.0,2.0
2021-08-31 13:39:13.025,998.0,67.0,4.0,1000.2544676231144,1,1,1,3.0,2.0
2021-08-31 13:39:13.026,998.0,67.0,15.0,1000.3589355826238,1,1,1,3.0,2.0
2021-08-31 13:39:13.036,1020.0,35.0,5.0,1020.6125611611882,1,1,1,3.0,2.0
2021-08-31 13:39:13.045,1004.0,70.0,6.0,1006.455165419702,1,1,1,3.0,2.0
2021-08-31 13:39:13.055,1022.0,33.0,17.0,1022.6739460844792,1,1,1,3.0,2.0
2021-08-31 13:39:13.065,1009.0,33.0,17.0,1009.6826234020272,1,1,1,3.0,2.0
2021-08-31 13:39:13.066,1009.0,37.0,2.0,1009.6801473734145,1,1,1,3.0,2.0
2021-08-31 13:39:13.074,1018.0,-5.0,6.0,1018.029960266396,1,1,1,3.0,2.0
2021-08-31 13:39:13.093,1019.0,49.0,0.0,1020.177435547366,1,1,1,3.0,2.0
2021-08-31 13:39:13.095,1003.0,49.0,11.0,1004.256441353502,1,1,1,3.0,2.0
2021-08-31 13:39:13.104,1016.0,40.0,2.0,1016.7890636705334,1,1,1,3.0,2.0
2021-08-31 13:39:13.115,988.0,80.0,11.0,991.2946080757224,1,1,1,3.0,2.0
2021-08-31 13:39:13.123,1031.0,10.0,12.0,1031.118324926873,1,1,1,3.0,2.0
2021-08-31 13:39:13.133,1006.0,77.0,7.0,1008.9667982644424,1,1,1,3.0,2.0
2021-08-31 13:39:13.143,1021.0,-9.0,4.0,1021.0475013435956,1,1,1,3.0,2.0
2021-08-31 13:39:13.152,999.0,73.0,4.0,1001.6716028719192,1,1,1,3.0,2.0
2021-08-31 13:39:13.153,999.0,73.0,12.0,1001.7354940302356,1,1,1,3.0,2.0
2021-08-31 13:39:13.163,1003.0,56.0,8.0,1004.5939478217056,1,1,1,3.0,2.0
2021-08-31 13:39:13.172,1017.0,25.0,16.0,1017.4330444800778,1,1,1,3.0,2.0
2021-08-31 13:39:13.182,1021.0,7.0,13.0,1021.1067524994633,1,1,1,3.0,2.0
2021-08-31 13:39:13.191,1030.0,2.0,13.0,1030.083977159144,1,1,1,3.0,2.0
2021-08-31 13:39:13.192,1030.0,2.0,10.0,1030.0504841996824,1,1,1,3.0,2.0
2021-08-31 13:39:13.201,991.0,72.0,3.0,993.616626269911,1,1,1,3.0,2.0
2021-08-31 13:39:13.226,1021.0,18.0,15.0,1021.2688186760624,1,1,1,3.0,2.0
2021-08-31 13:39:13.228,1005.0,87.0,4.0,1008.766573593713,1,1,1,3.0,2.0
2021-08-31 13:39:13.231,1021.0,-3.0,2.0,1021.0063662876936,1,1,1,3.0,2.0
2021-08-31 13:39:13.240,1011.0,78.0,-2.0,1014.0064102361484,1,1,1,3.0,2.0
2021-08-31 13:39:13.250,1023.0,-5.0,15.0,1023.1221823418746,1,1,1,3.0,2.0
2021-08-31 13:39:13.260,1030.0,11.0,9.0,1030.0980535851916,1,1,1,3.0,2.0
2021-08-31 13:39:13.271,1005.0,74.0,0.0,1007.7206954310308,1,1,1,3.0,2.0
2021-08-31 13:39:13.279,1022.0,40.0,3.0,1022.7868790710996,1,1,1,3.0,2.0
2021-08-31 13:39:13.289,1011.0,81.0,11.0,1014.2992655030368,1,1,1,3.0,2.0
2021-08-31 13:39:13.299,1021.0,2.0,8.0,1021.0333001425564,1,1,1,3.0,2.0
2021-08-31 13:39:13.309,1008.0,61.0,4.0,1009.8519693499636,1,1,1,3.0,2.0
2021-08-31 13:39:13.319,1025.0,3.0,4.0,1025.0121950494054,1,1,1,3.0,2.0
2021-08-31 13:39:13.320,1025.0,3.0,0.0,1025.0043902345003,1,1,1,3.0,2.0
2021-08-31 13:39:13.328,1015.0,36.0,7.0,1015.6623454672324,1,1,1,3.0,2.0
2021-08-31 13:39:13.346,1011.0,32.0,20.0,1011.70400809723,1,1,1,3.0,2.0
2021-08-31 13:39:13.349,1005.0,39.0,0.0,1005.7564317467724,1,1,1,3.0,2.0
2021-08-31 13:39:13.358,992.0,89.0,0.0,995.984437629424,1,1,1,3.0,2.0
2021-08-31 13:39:13.359,992.0,89.0,16.0,996.1129454032812,1,1,1,3.0,2.0
2021-08-31 13:39:13.368,1027.0,4.0,4.0,1027.0155792391856,1,1,1,3.0,2.0
2021-08-31 13:39:13.387,1015.0,53.0,4.0,1016.3906729206049,1,1,1,3.0,2.0
2021-08-31 13:39:13.388,1015.0,53.0,-2.0,1016.3847696615688,1,1,1,3.0,2.0
2021-08-31 13:39:13.391,1015.0,12.0,0.0,1015.0709334819908,1,1,1,3.0,2.0
2021-08-31 13:39:13.396,996.0,95.0,0.0,1000.5203646103362,1,1,1,3.0,2.0
2021-08-31 13:39:13.397,996.0,95.0,3.0,1000.524862259804,1,1,1,3.0,2.0
2021-08-31 13:39:13.406,1018.0,29.0,13.0,1018.4959499183096,1,1,1,3.0,2.0
2021-08-31 13:39:13.416,1013.0,34.0,3.0,1013.574861566722,1,1,1,3.0,2.0
2021-08-31 13:39:13.426,1004.0,34.0,3.0,1004.5800117462024,1,1,1,3.0,2.0
2021-08-31 13:39:13.427,1004.0,73.0,9.0,1006.690617816616,1,1,1,3.0,2.0
2021-08-31 13:39:13.436,1011.0,53.0,5.0,1012.4006124059784,1,1,1,3.0,2.0
2021-08-31 13:39:13.447,996.0,81.0,2.0,999.2902481261387,1,1,1,3.0,2.0
2021-08-31 13:39:13.455,1024.0,16.0,5.0,1024.1371978402112,1,1,1,3.0,2.0
2021-08-31 13:39:13.465,987.0,106.0,-3.0,992.6802103396642,1,1,1,3.0,2.0
2021-08-31 13:39:13.475,1026.0,20.0,9.0,1026.234378687442,1,1,1,3.0,2.0
2021-08-31 13:39:13.486,996.0,78.0,6.0,999.067565282749,1,1,1,3.0,2.0
2021-08-31 13:39:13.495,1018.0,-12.0,9.0,1018.1105048078032,1,1,1,3.0,2.0
2021-08-31 13:39:13.504,1009.0,71.0,11.0,1011.5547439461692,1,1,1,3.0,2.0
2021-08-31 13:39:13.514,1000.0,58.0,6.0,1001.6985574512923,1,1,1,3.0,2.0
2021-08-31 13:39:13.523,1017.0,58.0,6.0,1018.6702115994163,1,1,1,3.0,2.0
2021-08-31 13:39:13.524,1017.0,20.0,12.0,1017.2674181354674,1,1,1,3.0,2.0
2021-08-31 13:39:13.533,986.0,95.0,0.0,990.5659998203048,1,1,1,3.0,2.0
2021-08-31 13:39:13.544,1023.0,10.0,12.0,1023.1192501365616,1,1,1,3.0,2.0
2021-08-31 13:39:13.554,1009.0,74.0,8.0,1011.7415677928826,1,1,1,3.0,2.0
2021-08-31 13:39:13.562,1018.0,74.0,8.0,1020.7173947768304,1,1,1,3.0,2.0
2021-08-31 13:39:13.563,1018.0,1.0,5.0,1018.0127700574292,1,1,1,3.0,2.0
2021-08-31 13:39:13.572,990.0,95.0,0.0,994.5476358626568,1,1,1,3.0,2.0
2021-08-31 13:39:13.582,1017.0,32.0,4.0,1017.5111792997656,1,1,1,3.0,2.0
2021-08-31 13:39:13.592,1000.0,69.0,1.0,1002.3781721486158,1,1,1,3.0,2.0
2021-08-31 13:39:13.603,1029.0,3.0,7.0,1029.0281823157227,1,1,1,3.0,2.0
2021-08-31 13:39:13.611,1022.0,3.0,7.0,1022.0283753399414,1,1,1,3.0,2.0
2021-08-31 13:39:13.612,1022.0,24.0,12.0,1022.3521898054504,1,1,1,3.0,2.0
2021-08-31 13:39:13.621,998.0,72.0,5.0,1000.6063161903388,1,1,1,3.0,2.0
2021-08-31 13:39:13.631,1014.0,13.0,-1.0,1014.0838229653403,1,1,1,3.0,2.0
2021-08-31 13:39:13.641,996.0,77.0,3.0,998.9764761995148,1,1,1,3.0,2.0
2021-08-31 13:39:13.651,1031.0,9.0,3.0,1031.0436460208657,1,1,1,3.0,2.0
2021-08-31 13:39:13.652,1031.0,9.0,8.0,1031.070317679643,1,1,1,3.0,2.0
2021-08-31 13:39:13.660,1009.0,59.0,10.0,1010.7729715420768,1,1,1,3.0,2.0
2021-08-31 13:39:13.670,1025.0,-15.0,13.0,1025.192177106322,1,1,1,3.0,2.0
2021-08-31 13:39:13.680,1016.0,29.0,6.0,1016.4315028569312,1,1,1,3.0,2.0
2021-08-31 13:39:13.692,1007.0,81.0,4.0,1010.2603624808804,1,1,1,3.0,2.0
2021-08-31 13:39:13.700,1010.0,28.0,2.0,1010.390023703718,1,1,1,3.0,2.0
2021-08-31 13:39:13.710,997.0,90.0,15.0,1001.1663198490048,1,1,1,3.0,2.0
2021-08-31 13:39:13.719,1029.0,-2.0,6.0,1029.019436162408,1,1,1,3.0,2.0
2021-08-31 13:39:13.728,1000.0,-2.0,6.0,1000.019999800004,1,1,1,3.0,2.0
2021-08-31 13:39:13.729,1000.0,62.0,-7.0,1001.9446092474374,1,1,1,3.0,2.0
2021-08-31 13:39:13.738,1020.0,-6.0,-7.0,1020.0416658156664,1,1,1,3.0,2.0
2021-08-31 13:39:13.739,1020.0,-6.0,5.0,1020.0299015224996,1,1,1,3.0,2.0
2021-08-31 13:39:13.748,977.0,92.0,0.0,981.3220674172164,1,1,1,3.0,2.0
2021-08-31 13:39:13.759,1015.0,6.0,0.0,1015.0177338352272,1,1,1,3.0,2.0
2021-08-31 13:39:13.760,1015.0,6.0,11.0,1015.0773369551702,1,1,1,3.0,2.0
2021-08-31 13:39:13.768,1014.0,25.0,5.0,1014.3204621814548,1,1,1,3.0,2.0
2021-08-31 13:39:13.777,1003.0,75.0,5.0,1005.812606801088,1,1,1,3.0,2.0
2021-08-31 13:39:13.778,1003.0,75.0,13.0,1005.8841881648204,1,1,1,3.0,2.0
2021-08-31 13:39:13.787,1031.0,1.0,0.0,1031.0004849659383,1,1,1,3.0,2.0
2021-08-31 13:39:13.797,996.0,70.0,6.0,998.4748369388184,1,1,1,3.0,2.0
2021-08-31 13:39:13.807,1018.0,15.0,6.0,1018.1281844640192,1,1,1,3.0,2.0
2021-08-31 13:39:13.808,1018.0,15.0,-4.0,1018.1183624706904,1,1,1,3.0,2.0
2021-08-31 13:39:13.816,986.0,101.0,-4.0,991.1674934137015,1,1,1,3.0,2.0
2021-08-31 13:39:13.817,986.0,101.0,6.0,991.1775824745029,1,1,1,3.0,2.0
2021-08-31 13:39:13.826,1024.0,30.0,11.0,1024.498413859192,1,1,1,3.0,2.0
2021-08-31 13:39:13.836,1018.0,34.0,5.0,1018.5798937736794,1,1,1,3.0,2.0
2021-08-31 13:39:13.846,1011.0,34.0,-1.0,1011.5720438999884,1,1,1,3.0,2.0
2021-08-31 13:39:13.856,1006.0,77.0,12.0,1009.0138750284856,1,1,1,3.0,2.0
2021-08-31 13:39:13.866,1008.0,77.0,12.0,1011.0079129265011,1,1,1,3.0,2.0
2021-08-31 13:39:13.867,1008.0,40.0,4.0,1008.8012688334604,1,1,1,3.0,2.0
2021-08-31 13:39:13.875,1019.0,9.0,9.0,1019.0794865956236,1,1,1,3.0,2.0
2021-08-31 13:39:13.885,980.0,93.0,2.0,984.4048963714068,1,1,1,3.0,2.0
2021-08-31 13:39:13.895,1025.0,21.0,9.0,1025.254602525636,1,1,1,3.0,2.0
2021-08-31 13:39:13.904,999.0,73.0,7.0,1001.6880752010578,1,1,1,3.0,2.0
2021-08-31 13:39:13.915,1012.0,19.0,7.0,1012.2025489001696,1,1,1,3.0,2.0
2021-08-31 13:39:13.924,999.0,85.0,14.0,1002.7073351681436,1,1,1,3.0,2.0
2021-08-31 13:39:13.934,1009.0,36.0,3.0,1009.6464727814384,1,1,1,3.0,2.0
2021-08-31 13:39:13.943,1003.0,27.0,3.0,1003.3678288643702,1,1,1,3.0,2.0
2021-08-31 13:39:13.944,1003.0,27.0,14.0,1003.4610107024588,1,1,1,3.0,2.0
2021-08-31 13:39:13.953,1022.0,4.0,20.0,1022.2035022440492,1,1,1,3.0,2.0
2021-08-31 13:39:13.964,1015.0,45.0,9.0,1016.0369087784164,1,1,1,3.0,2.0
2021-08-31 13:39:13.974,1001.0,77.0,5.0,1003.9696210543424,1,1,1,3.0,2.0
2021-08-31 13:39:13.982,1021.0,77.0,5.0,1023.9116172795384,1,1,1,3.0,2.0
2021-08-31 13:39:13.983,1021.0,-2.0,4.0,1021.0097942723174,1,1,1,3.0,2.0
2021-08-31 13:39:13.992,999.0,98.0,7.0,1003.8197049271348,1,1,1,3.0,2.0
2021-08-31 13:39:14.002,1039.0,0.0,4.0,1039.0076996827308,1,1,1,3.0,2.0
2021-08-31 13:39:14.012,1006.0,68.0,12.0,1008.3669966832512,1,1,1,3.0,2.0
2021-08-31 13:39:14.023,1019.0,9.0,12.0,1019.1103963751916,1,1,1,3.0,2.0
2021-08-31 13:39:14.024,1019.0,9.0,2.0,1019.04170670292,1,1,1,3.0,2.0
2021-08-31 13:39:14.031,1015.0,45.0,7.0,1016.0211611969506,1,1,1,3.0,2.0
2021-08-31 13:39:14.041,1010.0,78.0,6.0,1013.0251724414354,1,1,1,3.0,2.0
2021-08-31 13:39:14.051,1022.0,3.0,2.0,1022.006360058488,1,1,1,3.0,2.0
2021-08-31 13:39:14.061,989.0,82.0,10.0,992.443953077452,1,1,1,3.0,2.0
2021-08-31 13:39:14.071,1037.0,5.0,10.0,1037.060268258311,1,1,1,3.0,2.0
2021-08-31 13:39:14.072,1037.0,5.0,18.0,1037.1682602162489,1,1,1,3.0,2.0
2021-08-31 13:39:14.080,1005.0,66.0,6.0,1007.1827043789026,1,1,1,3.0,2.0
2021-08-31 13:39:14.090,1031.0,-22.0,5.0,1031.2468181769095,1,1,1,3.0,2.0
2021-08-31 13:39:14.109,1022.0,12.0,10.0,1022.1193668060496,1,1,1,3.0,2.0
2021-08-31 13:39:14.112,1015.0,30.0,21.0,1015.660376306962,1,1,1,3.0,2.0
2021-08-31 13:39:14.119,1016.0,28.0,7.0,1016.409858275686,1,1,1,3.0,2.0
2021-08-31 13:39:14.130,1012.0,69.0,7.0,1014.3736983971932,1,1,1,3.0,2.0
2021-08-31 13:39:14.131,1012.0,69.0,12.0,1014.4205242403171,1,1,1,3.0,2.0
2021-08-31 13:39:14.139,1022.0,6.0,3.0,1022.0220154184548,1,1,1,3.0,2.0
2021-08-31 13:39:14.149,998.0,93.0,0.0,1002.3237999768338,1,1,1,3.0,2.0
2021-08-31 13:39:14.158,1033.0,1.0,4.0,1033.0082284280218,1,1,1,3.0,2.0
2021-08-31 13:39:14.168,976.0,118.0,13.0,983.1932668605904,1,1,1,3.0,2.0
2021-08-31 13:39:14.178,1020.0,118.0,13.0,1026.8850958116004,1,1,1,3.0,2.0
2021-08-31 13:39:14.179,1020.0,17.0,17.0,1020.2832939924087,1,1,1,3.0,2.0
2021-08-31 13:39:14.188,1015.0,49.0,2.0,1016.1840384497287,1,1,1,3.0,2.0
2021-08-31 13:39:14.197,1023.0,50.0,2.0,1024.2231202233231,1,1,1,3.0,2.0
2021-08-31 13:39:14.198,1023.0,50.0,14.0,1024.3168455121686,1,1,1,3.0,2.0
2021-08-31 13:39:14.207,991.0,82.0,17.0,994.5320507655848,1,1,1,3.0,2.0
2021-08-31 13:39:14.217,1011.0,61.0,-4.0,1012.8464839253776,1,1,1,3.0,2.0
2021-08-31 13:39:14.227,1004.0,17.0,16.0,1004.2713776664154,1,1,1,3.0,2.0
2021-08-31 13:39:14.248,990.0,101.0,3.0,995.1432057749277,1,1,1,3.0,2.0
2021-08-31 13:39:14.250,1026.0,-7.0,14.0,1026.1193887652644,1,1,1,3.0,2.0
2021-08-31 13:39:14.257,1010.0,59.0,7.0,1011.7460155592412,1,1,1,3.0,2.0
2021-08-31 13:39:14.266,1019.0,-20.0,9.0,1019.2359883756068,1,1,1,3.0,2.0
2021-08-31 13:39:14.275,1001.0,94.0,9.0,1005.444180449616,1,1,1,3.0,2.0
2021-08-31 13:39:14.276,1001.0,94.0,7.0,1005.4282669589114,1,1,1,3.0,2.0
2021-08-31 13:39:14.287,1003.0,54.0,5.0,1004.4650317457548,1,1,1,3.0,2.0
2021-08-31 13:39:14.295,1011.0,32.0,8.0,1011.53793799343,1,1,1,3.0,2.0
2021-08-31 13:39:14.305,980.0,98.0,4.0,984.8959335889248,1,1,1,3.0,2.0
2021-08-31 13:39:14.317,1023.0,19.0,5.0,1023.188643408438,1,1,1,3.0,2.0
2021-08-31 13:39:14.324,996.0,101.0,11.0,1001.1683175170896,1,1,1,3.0,2.0
2021-08-31 13:39:14.334,1020.0,-11.0,-1.0,1020.0598021684808,1,1,1,3.0,2.0
2021-08-31 13:39:14.344,987.0,96.0,-1.0,991.6582072468316,1,1,1,3.0,2.0
2021-08-31 13:39:14.361,1012.0,32.0,2.0,1012.5077777479044,1,1,1,3.0,2.0
2021-08-31 13:39:14.364,1004.0,81.0,5.0,1007.2745405300384,1,1,1,3.0,2.0
2021-08-31 13:39:14.373,1037.0,-12.0,6.0,1037.0867851824166,1,1,1,3.0,2.0
2021-08-31 13:39:14.383,1021.0,-12.0,6.0,1021.0881450687792,1,1,1,3.0,2.0
2021-08-31 13:39:14.384,1021.0,15.0,6.0,1021.12780786736,1,1,1,3.0,2.0
2021-08-31 13:39:14.393,1002.0,90.0,6.0,1006.05168853295,1,1,1,3.0,2.0
2021-08-31 13:39:14.394,1002.0,90.0,4.0,1006.0417486367054,1,1,1,3.0,2.0
2021-08-31 13:39:14.413,1014.0,18.0,2.0,1014.1617228036168,1,1,1,3.0,2.0
2021-08-31 13:39:14.416,1000.0,85.0,21.0,1003.825682078318,1,1,1,3.0,2.0
2021-08-31 13:39:14.422,1033.0,85.0,21.0,1036.7039114424138,1,1,1,3.0,2.0
2021-08-31 13:39:14.423,1033.0,1.0,10.0,1033.0488855809292,1,1,1,3.0,2.0
2021-08-31 13:39:14.432,991.0,78.0,3.0,994.0694140752948,1,1,1,3.0,2.0
2021-08-31 13:39:14.441,1022.0,78.0,3.0,1024.9765850984109,1,1,1,3.0,2.0
2021-08-31 13:39:14.442,1022.0,-16.0,14.0,1022.2211111105072,1,1,1,3.0,2.0
2021-08-31 13:39:14.451,1018.0,23.0,-3.0,1018.2642093287968,1,1,1,3.0,2.0
2021-08-31 13:39:14.461,1010.0,85.0,4.0,1013.5783146851554,1,1,1,3.0,2.0
2021-08-31 13:39:14.472,1030.0,29.0,8.0,1030.4392267378023,1,1,1,3.0,2.0
2021-08-31 13:39:14.480,1011.0,29.0,8.0,1011.4474776279784,1,1,1,3.0,2.0
2021-08-31 13:39:14.481,1011.0,67.0,10.0,1013.2669934424983,1,1,1,3.0,2.0
2021-08-31 13:39:14.491,1031.0,-8.0,-2.0,1031.0329771641643,1,1,1,3.0,2.0
2021-08-31 13:39:14.500,994.0,83.0,1.0,997.4597736249818,1,1,1,3.0,2.0
2021-08-31 13:39:14.510,1023.0,-25.0,0.0,1023.305428501188,1,1,1,3.0,2.0
2021-08-31 13:39:14.520,984.0,110.0,0.0,990.129284487637,1,1,1,3.0,2.0
2021-08-31 13:39:14.521,984.0,110.0,8.0,990.1616029719592,1,1,1,3.0,2.0
2021-08-31 13:39:14.529,1021.0,24.0,8.0,1021.3133701269164,1,1,1,3.0,2.0
2021-08-31 13:39:14.530,1021.0,24.0,19.0,1021.4587607926225,1,1,1,3.0,2.0
2021-08-31 13:39:14.539,1011.0,56.0,2.0,1012.5517270737332,1,1,1,3.0,2.0
2021-08-31 13:39:14.549,1015.0,40.0,8.0,1015.8193737077472,1,1,1,3.0,2.0
2021-08-31 13:39:14.559,1043.0,-31.0,0.0,1043.460588618468,1,1,1,3.0,2.0
2021-08-31 13:39:14.568,1003.0,-31.0,0.0,1003.4789484588104,1,1,1,3.0,2.0
2021-08-31 13:39:14.569,1003.0,59.0,-3.0,1004.7382743779596,1,1,1,3.0,2.0
2021-08-31 13:39:14.579,1013.0,35.0,16.0,1013.7307334790636,1,1,1,3.0,2.0
2021-08-31 13:39:14.588,994.0,84.0,4.0,997.5510012024448,1,1,1,3.0,2.0
2021-08-31 13:39:14.598,1034.0,2.0,14.0,1034.096707276452,1,1,1,3.0,2.0
2021-08-31 13:39:14.607,1012.0,2.0,14.0,1012.0988094054848,1,1,1,3.0,2.0
2021-08-31 13:39:14.608,1012.0,60.0,1.0,1013.7775890203926,1,1,1,3.0,2.0
2021-08-31 13:39:14.617,1031.0,6.0,4.0,1031.0252179263125,1,1,1,3.0,2.0
2021-08-31 13:39:14.628,990.0,110.0,6.0,996.1104356445624,1,1,1,3.0,2.0
2021-08-31 13:39:14.637,1010.0,32.0,0.0,1010.5068035396891,1,1,1,3.0,2.0
2021-08-31 13:39:14.647,1005.0,35.0,4.0,1005.6172234006336,1,1,1,3.0,2.0
2021-08-31 13:39:14.656,994.0,86.0,0.0,997.7133856975158,1,1,1,3.0,2.0
2021-08-31 13:39:14.666,1022.0,0.0,13.0,1022.0826776733868,1,1,1,3.0,2.0
2021-08-31 13:39:14.679,1003.0,83.0,13.0,1006.5122950068716,1,1,1,3.0,2.0
2021-08-31 13:39:14.680,1003.0,83.0,7.0,1006.4526814510456,1,1,1,3.0,2.0
2021-08-31 13:39:14.685,1011.0,83.0,7.0,1014.4254531506984,1,1,1,3.0,2.0
2021-08-31 13:39:14.686,1011.0,16.0,5.0,1011.1389617653946,1,1,1,3.0,2.0
2021-08-31 13:39:14.695,994.0,89.0,5.0,997.9889778950468,1,1,1,3.0,2.0
2021-08-31 13:39:14.696,994.0,89.0,-3.0,997.9809617422568,1,1,1,3.0,2.0
2021-08-31 13:39:14.705,1008.0,41.0,5.0,1008.84587524557,1,1,1,3.0,2.0
2021-08-31 13:39:14.715,1024.0,46.0,10.0,1025.081460177678,1,1,1,3.0,2.0
2021-08-31 13:39:14.725,1003.0,88.0,4.0,1006.8609635893132,1,1,1,3.0,2.0
2021-08-31 13:39:14.736,1020.0,12.0,4.0,1020.0784283573494,1,1,1,3.0,2.0
2021-08-31 13:39:14.744,1009.0,89.0,6.0,1012.935338508831,1,1,1,3.0,2.0
2021-08-31 13:39:14.755,1004.0,23.0,7.0,1004.2878073540472,1,1,1,3.0,2.0
2021-08-31 13:39:14.764,1003.0,88.0,7.0,1006.8773510214638,1,1,1,3.0,2.0
2021-08-31 13:39:14.765,1003.0,88.0,6.0,1006.8708953982134,1,1,1,3.0,2.0
2021-08-31 13:39:14.773,1003.0,88.0,6.0,1006.8708953982134,1,1,1,3.0,2.0
2021-08-31 13:39:14.774,1003.0,37.0,17.0,1003.8261801726431,1,1,1,3.0,2.0
2021-08-31 13:39:14.784,999.0,69.0,0.0,1001.3800477341258,1,1,1,3.0,2.0
2021-08-31 13:39:14.793,1034.0,-14.0,4.0,1034.1025094254437,1,1,1,3.0,2.0
2021-08-31 13:39:14.803,1009.0,33.0,16.0,1009.666281500972,1,1,1,3.0,2.0
2021-08-31 13:39:14.813,1006.0,71.0,-2.0,1008.5043381165992,1,1,1,3.0,2.0
2021-08-31 13:39:14.822,1015.0,36.0,4.0,1015.6460997808242,1,1,1,3.0,2.0
2021-08-31 13:39:14.832,1015.0,67.0,18.0,1017.3681732784844,1,1,1,3.0,2.0
2021-08-31 13:39:14.842,1040.0,-22.0,18.0,1040.388389016333,1,1,1,3.0,2.0
2021-08-31 13:39:14.843,1040.0,-22.0,0.0,1040.2326662819237,1,1,1,3.0,2.0
2021-08-31 13:39:14.852,1002.0,68.0,12.0,1004.3764234588544,1,1,1,3.0,2.0
2021-08-31 13:39:14.861,1025.0,-22.0,12.0,1025.3062956989977,1,1,1,3.0,2.0
2021-08-31 13:39:14.862,1025.0,-22.0,2.0,1025.2380211443583,1,1,1,3.0,2.0
2021-08-31 13:39:14.871,1012.0,51.0,-2.0,1013.2862379406916,1,1,1,3.0,2.0
2021-08-31 13:39:14.881,1031.0,13.0,14.0,1031.1769974160595,1,1,1,3.0,2.0
2021-08-31 13:39:14.893,1000.0,47.0,11.0,1001.1643221769342,1,1,1,3.0,2.0
2021-08-31 13:39:14.900,1032.0,36.0,11.0,1032.6863028044868,1,1,1,3.0,2.0
2021-08-31 13:39:14.901,1032.0,36.0,1.0,1032.6282002734577,1,1,1,3.0,2.0
2021-08-31 13:39:14.911,1036.0,-31.0,4.0,1036.471417840357,1,1,1,3.0,2.0
2021-08-31 13:39:14.920,1002.0,81.0,20.0,1005.4675529324652,1,1,1,3.0,2.0
2021-08-31 13:39:14.930,1025.0,-31.0,0.0,1025.4686733391711,1,1,1,3.0,2.0
2021-08-31 13:39:14.941,985.0,82.0,-2.0,988.4093281631856,1,1,1,3.0,2.0
2021-08-31 13:39:14.949,1032.0,-16.0,17.0,1032.2640166159044,1,1,1,3.0,2.0
2021-08-31 13:39:14.959,1011.0,64.0,11.0,1013.0834121630854,1,1,1,3.0,2.0
2021-08-31 13:39:14.969,1028.0,10.0,3.0,1028.0530141972251,1,1,1,3.0,2.0
2021-08-31 13:39:14.979,1021.0,18.0,13.0,1021.2414014325898,1,1,1,3.0,2.0
2021-08-31 13:39:14.989,1006.0,31.0,11.0,1006.5376296989596,1,1,1,3.0,2.0
2021-08-31 13:39:14.998,1014.0,32.0,8.0,1014.5363473035356,1,1,1,3.0,2.0
2021-08-31 13:39:15.008,996.0,77.0,4.0,998.9799797793748,1,1,1,3.0,2.0
2021-08-31 13:39:15.018,1033.0,0.0,13.0,1033.0817973423011,1,1,1,3.0,2.0
2021-08-31 13:39:15.027,1011.0,68.0,13.0,1013.3676529276036,1,1,1,3.0,2.0
2021-08-31 13:39:15.028,1011.0,68.0,0.0,1013.2842641628262,1,1,1,3.0,2.0
2021-08-31 13:39:15.037,1011.0,20.0,3.0,1011.2022547443216,1,1,1,3.0,2.0
2021-08-31 13:39:15.048,1008.0,74.0,1.0,1010.7131145879132,1,1,1,3.0,2.0
2021-08-31 13:39:15.057,1012.0,18.0,5.0,1012.1724161426254,1,1,1,3.0,2.0
2021-08-31 13:39:15.067,1019.0,39.0,12.0,1019.8166501876698,1,1,1,3.0,2.0
2021-08-31 13:39:15.076,992.0,87.0,14.0,995.906120073574,1,1,1,3.0,2.0
2021-08-31 13:39:15.086,1033.0,11.0,10.0,1033.1069644523743,1,1,1,3.0,2.0
2021-08-31 13:39:15.100,1013.0,81.0,4.0,1016.2411131222748,1,1,1,3.0,2.0
2021-08-31 13:39:15.105,1008.0,81.0,4.0,1011.2571384173266,1,1,1,3.0,2.0
2021-08-31 13:39:15.106,1008.0,18.0,5.0,1008.1731002164262,1,1,1,3.0,2.0
2021-08-31 13:39:15.124,989.0,112.0,2.0,995.3235654800905,1,1,1,3.0,2.0
2021-08-31 13:39:15.127,1001.0,33.0,15.0,1001.6561286189988,1,1,1,3.0,2.0
2021-08-31 13:39:15.135,1025.0,25.0,0.0,1025.304832720494,1,1,1,3.0,2.0
2021-08-31 13:39:15.147,1032.0,-31.0,1.0,1032.4659800690772,1,1,1,3.0,2.0
2021-08-31 13:39:15.154,1001.0,20.0,1.0,1001.2002796643636,1,1,1,3.0,2.0
2021-08-31 13:39:15.164,988.0,84.0,10.0,991.6148445843276,1,1,1,3.0,2.0
2021-08-31 13:39:15.174,1013.0,13.0,3.0,1013.0878540383356,1,1,1,3.0,2.0
2021-08-31 13:39:15.184,989.0,109.0,0.0,994.9884421439276,1,1,1,3.0,2.0
2021-08-31 13:39:15.194,1030.0,-19.0,0.0,1030.1752278132103,1,1,1,3.0,2.0
2021-08-31 13:39:15.195,1030.0,-19.0,4.0,1030.182993453105,1,1,1,3.0,2.0
2021-08-31 13:39:15.203,1000.0,78.0,12.0,1003.109166541708,1,1,1,3.0,2.0
2021-08-31 13:39:15.213,1018.0,-31.0,0.0,1018.4718945557604,1,1,1,3.0,2.0
2021-08-31 13:39:15.223,999.0,76.0,15.0,1001.999001995511,1,1,1,3.0,2.0
2021-08-31 13:39:15.232,996.0,76.0,15.0,999.008007975912,1,1,1,3.0,2.0
2021-08-31 13:39:15.233,996.0,82.0,3.0,999.3743042524158,1,1,1,3.0,2.0
2021-08-31 13:39:15.243,1016.0,61.0,9.0,1017.8693432852764,1,1,1,3.0,2.0
2021-08-31 13:39:15.268,1028.0,18.0,2.0,1028.159520697056,1,1,1,3.0,2.0
2021-08-31 13:39:15.269,1027.0,18.0,2.0,1027.159675999793,1,1,1,3.0,2.0
2021-08-31 13:39:15.270,1027.0,-4.0,0.0,1027.007789649134,1,1,1,3.0,2.0
2021-08-31 13:39:15.273,987.0,77.0,3.0,990.0035353472229,1,1,1,3.0,2.0
2021-08-31 13:39:15.289,1035.0,-29.0,6.0,1035.4235848192757,1,1,1,3.0,2.0
2021-08-31 13:39:15.292,994.0,103.0,8.0,999.354291530286,1,1,1,3.0,2.0
2021-08-31 13:39:15.303,1033.0,0.0,10.0,1033.048401576615,1,1,1,3.0,2.0
2021-08-31 13:39:15.311,1012.0,68.0,10.0,1014.3313068223814,1,1,1,3.0,2.0
2021-08-31 13:39:15.320,1020.0,7.0,10.0,1020.0730366008112,1,1,1,3.0,2.0
2021-08-31 13:39:15.321,1020.0,7.0,6.0,1020.0416658156664,1,1,1,3.0,2.0
2021-08-31 13:39:15.330,1017.0,2.0,11.0,1017.0614534038738,1,1,1,3.0,2.0
2021-08-31 13:39:15.340,1003.0,96.0,1.0,1007.584239654432,1,1,1,3.0,2.0
2021-08-31 13:39:15.350,1016.0,26.0,18.0,1016.4920068549482,1,1,1,3.0,2.0
2021-08-31 13:39:15.360,1000.0,84.0,18.0,1003.683216956426,1,1,1,3.0,2.0
2021-08-31 13:39:15.361,1000.0,84.0,11.0,1003.5820843359052,1,1,1,3.0,2.0
2021-08-31 13:39:15.377,1030.0,-6.0,9.0,1030.056794550669,1,1,1,3.0,2.0
2021-08-31 13:39:15.382,1005.0,78.0,9.0,1008.0624980624962,1,1,1,3.0,2.0
2021-08-31 13:39:15.383,1005.0,78.0,5.0,1008.0347216242108,1,1,1,3.0,2.0
2021-08-31 13:39:15.389,1026.0,-20.0,19.0,1026.370790698956,1,1,1,3.0,2.0
2021-08-31 13:39:15.399,1007.0,-20.0,19.0,1007.3777841505142,1,1,1,3.0,2.0
2021-08-31 13:39:15.400,1007.0,87.0,-4.0,1010.759120661298,1,1,1,3.0,2.0
2021-08-31 13:39:15.409,996.0,47.0,2.0,997.110324888876,1,1,1,3.0,2.0
2021-08-31 13:39:15.429,1035.0,25.0,2.0,1035.3038201417012,1,1,1,3.0,2.0
2021-08-31 13:39:15.431,993.0,100.0,15.0,998.13526137493,1,1,1,3.0,2.0
2021-08-31 13:39:15.439,1041.0,100.0,15.0,1045.899612773616,1,1,1,3.0,2.0
2021-08-31 13:39:15.440,1041.0,1.0,9.0,1041.0393844615105,1,1,1,3.0,2.0
2021-08-31 13:39:15.447,1011.0,86.0,9.0,1014.6910859961272,1,1,1,3.0,2.0
2021-08-31 13:39:15.448,1011.0,86.0,4.0,1014.6590560380369,1,1,1,3.0,2.0
2021-08-31 13:39:15.458,1003.0,32.0,11.0,1003.5706253174212,1,1,1,3.0,2.0
2021-08-31 13:39:15.470,993.0,104.0,2.0,998.4332726827568,1,1,1,3.0,2.0
2021-08-31 13:39:15.477,1006.0,29.0,12.0,1006.4894435611334,1,1,1,3.0,2.0
2021-08-31 13:39:15.487,1022.0,30.0,15.0,1022.5502432643592,1,1,1,3.0,2.0
2021-08-31 13:39:15.496,988.0,101.0,21.0,993.371028367548,1,1,1,3.0,2.0
2021-08-31 13:39:15.506,1008.0,45.0,-1.0,1009.0044598513924,1,1,1,3.0,2.0
2021-08-31 13:39:15.516,996.0,87.0,6.0,999.8104820414716,1,1,1,3.0,2.0
2021-08-31 13:39:15.525,1012.0,19.0,6.0,1012.1961272401708,1,1,1,3.0,2.0
2021-08-31 13:39:15.526,1012.0,19.0,3.0,1012.1827898161478,1,1,1,3.0,2.0
2021-08-31 13:39:15.536,996.0,113.0,4.0,1002.397625695512,1,1,1,3.0,2.0
2021-08-31 13:39:15.546,1015.0,28.0,14.0,1015.4826438694066,1,1,1,3.0,2.0
2021-08-31 13:39:15.555,993.0,90.0,13.0,997.1549528533668,1,1,1,3.0,2.0
2021-08-31 13:39:15.564,1031.0,90.0,13.0,1035.0024154561186,1,1,1,3.0,2.0
2021-08-31 13:39:15.565,1031.0,-32.0,0.0,1031.4964856944496,1,1,1,3.0,2.0
2021-08-31 13:39:15.574,1001.0,73.0,10.0,1003.708124904845,1,1,1,3.0,2.0
2021-08-31 13:39:15.584,1006.0,79.0,2.0,1009.0991031608344,1,1,1,3.0,2.0
2021-08-31 13:39:15.595,1013.0,21.0,14.0,1013.3143638575344,1,1,1,3.0,2.0
2021-08-31 13:39:15.603,1030.0,21.0,14.0,1030.3091768978863,1,1,1,3.0,2.0
2021-08-31 13:39:15.604,1030.0,21.0,3.0,1030.21842344233,1,1,1,3.0,2.0
2021-08-31 13:39:15.613,1028.0,-19.0,15.0,1028.2849799544872,1,1,1,3.0,2.0
2021-08-31 13:39:15.623,1002.0,89.0,4.0,1005.9527821920868,1,1,1,3.0,2.0
2021-08-31 13:39:15.633,1026.0,-18.0,4.0,1026.1656786308924,1,1,1,3.0,2.0
2021-08-31 13:39:15.644,997.0,96.0,14.0,1001.7090395918368,1,1,1,3.0,2.0
2021-08-31 13:39:15.652,1009.0,56.0,14.0,1010.6497909760828,1,1,1,3.0,2.0
2021-08-31 13:39:15.653,1009.0,56.0,0.0,1010.5528190055184,1,1,1,3.0,2.0
2021-08-31 13:39:15.662,1015.0,66.0,-2.0,1017.145515646606,1,1,1,3.0,2.0
2021-08-31 13:39:15.674,1028.0,6.0,12.0,1028.0875449104517,1,1,1,3.0,2.0
2021-08-31 13:39:15.682,1019.0,0.0,8.0,1019.0314028527284,1,1,1,3.0,2.0
2021-08-31 13:39:15.692,1001.0,84.0,8.0,1004.5501480762422,1,1,1,3.0,2.0
2021-08-31 13:39:15.693,1001.0,84.0,12.0,1004.5899661055748,1,1,1,3.0,2.0
2021-08-31 13:39:15.702,1023.0,-10.0,-1.0,1023.0493634228995,1,1,1,3.0,2.0
2021-08-31 13:39:15.711,990.0,69.0,0.0,992.4016324049452,1,1,1,3.0,2.0
2021-08-31 13:39:15.721,1040.0,5.0,17.0,1040.150950583616,1,1,1,3.0,2.0
2021-08-31 13:39:15.730,1007.0,5.0,17.0,1007.1558965721246,1,1,1,3.0,2.0
2021-08-31 13:39:15.731,1007.0,64.0,-7.0,1009.0559944819712,1,1,1,3.0,2.0
2021-08-31 13:39:15.740,1018.0,12.0,20.0,1018.2671555147008,1,1,1,3.0,2.0
2021-08-31 13:39:15.750,1022.0,12.0,20.0,1022.2661101689716,1,1,1,3.0,2.0
2021-08-31 13:39:15.751,1022.0,19.0,0.0,1022.1765992234416,1,1,1,3.0,2.0
2021-08-31 13:39:15.765,1008.0,74.0,12.0,1010.783854243824,1,1,1,3.0,2.0
2021-08-31 13:39:15.770,1017.0,33.0,10.0,1017.5843945344288,1,1,1,3.0,2.0
2021-08-31 13:39:15.779,987.0,92.0,10.0,991.3289060649852,1,1,1,3.0,2.0
2021-08-31 13:39:15.780,987.0,92.0,14.0,991.3773247356428,1,1,1,3.0,2.0
2021-08-31 13:39:15.789,1040.0,9.0,17.0,1040.1778694050358,1,1,1,3.0,2.0
2021-08-31 13:39:15.799,994.0,53.0,-5.0,995.4245325488016,1,1,1,3.0,2.0
2021-08-31 13:39:15.809,1006.0,34.0,12.0,1006.6459159009188,1,1,1,3.0,2.0
2021-08-31 13:39:15.818,1002.0,82.0,12.0,1005.4213047275256,1,1,1,3.0,2.0
2021-08-31 13:39:15.819,1002.0,82.0,0.0,1005.3496904062785,1,1,1,3.0,2.0
2021-08-31 13:39:15.828,998.0,30.0,17.0,998.5955137091294,1,1,1,3.0,2.0
2021-08-31 13:39:15.838,1015.0,28.0,4.0,1015.3940121942812,1,1,1,3.0,2.0
2021-08-31 13:39:15.849,992.0,110.0,20.0,998.2805216971832,1,1,1,3.0,2.0
2021-08-31 13:39:15.858,1001.0,32.0,20.0,1001.7110361775996,1,1,1,3.0,2.0
2021-08-31 13:39:15.859,1001.0,32.0,5.0,1001.523838957416,1,1,1,3.0,2.0
2021-08-31 13:39:15.867,1002.0,71.0,4.0,1004.5202835184564,1,1,1,3.0,2.0
2021-08-31 13:39:15.877,1004.0,42.0,7.0,1004.9024828310456,1,1,1,3.0,2.0
2021-08-31 13:39:15.887,996.0,119.0,18.0,1003.2452342274048,1,1,1,3.0,2.0
2021-08-31 13:39:15.898,1012.0,20.0,6.0,1012.2153920979468,1,1,1,3.0,2.0
2021-08-31 13:39:15.906,1021.0,24.0,9.0,1021.3216927099904,1,1,1,3.0,2.0
2021-08-31 13:39:15.916,1021.0,-20.0,13.0,1021.2786103703534,1,1,1,3.0,2.0
2021-08-31 13:39:15.926,999.0,70.0,2.0,1001.4514466513092,1,1,1,3.0,2.0
2021-08-31 13:39:15.936,1005.0,63.0,1.0,1006.9731873292357,1,1,1,3.0,2.0
2021-08-31 13:39:15.946,1011.0,17.0,-2.0,1011.14489565047,1,1,1,3.0,2.0
2021-08-31 13:39:15.955,972.0,112.0,18.0,978.5969548286976,1,1,1,3.0,2.0
2021-08-31 13:39:15.965,1036.0,-32.0,18.0,1036.6503750059612,1,1,1,3.0,2.0
2021-08-31 13:39:15.966,1036.0,-32.0,0.0,1036.4940906729762,1,1,1,3.0,2.0
2021-08-31 13:39:15.975,995.0,75.0,15.0,997.9353686486916,1,1,1,3.0,2.0
2021-08-31 13:39:15.984,1038.0,-28.0,15.0,1038.4859170927643,1,1,1,3.0,2.0
2021-08-31 13:39:15.985,1038.0,-28.0,2.0,1038.3795067315225,1,1,1,3.0,2.0
2021-08-31 13:39:15.994,992.0,94.0,20.0,996.6443698732262,1,1,1,3.0,2.0
2021-08-31 13:39:16.005,1010.0,74.0,-6.0,1012.7250367202344,1,1,1,3.0,2.0
2021-08-31 13:39:16.014,1006.0,69.0,0.0,1008.3635257187756,1,1,1,3.0,2.0
2021-08-31 13:39:16.023,1029.0,69.0,0.0,1031.3108163885415,1,1,1,3.0,2.0
2021-08-31 13:39:16.024,1029.0,4.0,10.0,1029.0563638596284,1,1,1,3.0,2.0
2021-08-31 13:39:16.033,1012.0,-5.0,14.0,1012.109183833444,1,1,1,3.0,2.0
2021-08-31 13:39:16.043,1006.0,69.0,8.0,1008.3952598063916,1,1,1,3.0,2.0
2021-08-31 13:39:16.054,1020.0,-23.0,12.0,1020.3298486273936,1,1,1,3.0,2.0
2021-08-31 13:39:16.063,999.0,78.0,-4.0,1002.0484020245729,1,1,1,3.0,2.0
2021-08-31 13:39:16.072,1027.0,-2.0,-4.0,1027.009737052186,1,1,1,3.0,2.0
2021-08-31 13:39:16.073,1027.0,-2.0,18.0,1027.159675999793,1,1,1,3.0,2.0
2021-08-31 13:39:16.082,1016.0,63.0,-15.0,1018.0618841701128,1,1,1,3.0,2.0
2021-08-31 13:39:16.094,1037.0,6.0,12.0,1037.0867851824166,1,1,1,3.0,2.0
2021-08-31 13:39:16.102,1008.0,20.0,5.0,1008.210791451867,1,1,1,3.0,2.0
2021-08-31 13:39:16.111,1011.0,70.0,5.0,1013.4327802079424,1,1,1,3.0,2.0
2021-08-31 13:39:16.112,1011.0,70.0,6.0,1013.4382072923836,1,1,1,3.0,2.0
2021-08-31 13:39:16.130,1025.0,25.0,9.0,1025.3443324074112,1,1,1,3.0,2.0
2021-08-31 13:39:16.133,999.0,71.0,11.0,1001.580251402752,1,1,1,3.0,2.0
2021-08-31 13:39:16.141,1034.0,22.0,5.0,1034.246102240661,1,1,1,3.0,2.0
2021-08-31 13:39:16.152,996.0,73.0,-2.0,998.6736203585232,1,1,1,3.0,2.0
2021-08-31 13:39:16.160,1028.0,-10.0,20.0,1028.2431619028644,1,1,1,3.0,2.0
2021-08-31 13:39:16.170,998.0,86.0,5.0,1001.7110361775996,1,1,1,3.0,2.0
2021-08-31 13:39:16.180,993.0,32.0,14.0,993.614110205768,1,1,1,3.0,2.0
2021-08-31 13:39:16.189,1025.0,32.0,14.0,1025.5949492855354,1,1,1,3.0,2.0
2021-08-31 13:39:16.190,1025.0,42.0,10.0,1025.908865348185,1,1,1,3.0,2.0
2021-08-31 13:39:16.200,995.0,85.0,10.0,998.6741210224684,1,1,1,3.0,2.0
2021-08-31 13:39:16.201,995.0,85.0,4.0,998.6320643760644,1,1,1,3.0,2.0
2021-08-31 13:39:16.209,1042.0,-4.0,6.0,1042.0249517166085,1,1,1,3.0,2.0
2021-08-31 13:39:16.219,1004.0,95.0,6.0,1008.502354979898,1,1,1,3.0,2.0
2021-08-31 13:39:16.229,1014.0,16.0,-1.0,1014.1267179203988,1,1,1,3.0,2.0
2021-08-31 13:39:16.238,990.0,107.0,-1.0,995.7660367777162,1,1,1,3.0,2.0
2021-08-31 13:39:16.239,990.0,107.0,3.0,995.7700537774772,1,1,1,3.0,2.0
2021-08-31 13:39:16.249,1014.0,20.0,15.0,1014.3081385851144,1,1,1,3.0,2.0
2021-08-31 13:39:16.259,1016.0,38.0,5.0,1016.7226760528164,1,1,1,3.0,2.0
2021-08-31 13:39:16.268,998.0,89.0,17.0,1002.1047849401778,1,1,1,3.0,2.0
2021-08-31 13:39:16.292,993.0,83.0,4.0,996.4707722758357,1,1,1,3.0,2.0
2021-08-31 13:39:16.293,1004.0,90.0,4.0,1008.033729594402,1,1,1,3.0,2.0
2021-08-31 13:39:16.297,1001.0,24.0,11.0,1001.34809132489,1,1,1,3.0,2.0
2021-08-31 13:39:16.307,993.0,120.0,7.0,1000.2489690072168,1,1,1,3.0,2.0
2021-08-31 13:39:16.316,1017.0,120.0,7.0,1024.0790985075323,1,1,1,3.0,2.0
2021-08-31 13:39:16.317,1017.0,7.0,15.0,1017.134701010638,1,1,1,3.0,2.0
2021-08-31 13:39:16.326,993.0,91.0,15.0,997.273783872814,1,1,1,3.0,2.0
2021-08-31 13:39:16.336,1029.0,91.0,15.0,1033.124871445848,1,1,1,3.0,2.0
2021-08-31 13:39:16.337,1029.0,-44.0,-9.0,1029.9796114486926,1,1,1,3.0,2.0
2021-08-31 13:39:16.347,998.0,91.0,12.0,1002.212053409856,1,1,1,3.0,2.0
2021-08-31 13:39:16.355,1003.0,91.0,12.0,1007.1911437259564,1,1,1,3.0,2.0
2021-08-31 13:39:16.356,1003.0,69.0,-8.0,1005.4024069993068,1,1,1,3.0,2.0
2021-08-31 13:39:16.365,1012.0,22.0,-8.0,1012.2707147794011,1,1,1,3.0,2.0
2021-08-31 13:39:16.366,1012.0,22.0,12.0,1012.3102291293908,1,1,1,3.0,2.0
2021-08-31 13:39:16.375,1023.0,15.0,14.0,1023.2057466609538,1,1,1,3.0,2.0
2021-08-31 13:39:16.393,1016.0,-6.0,14.0,1016.1141668139462,1,1,1,3.0,2.0
2021-08-31 13:39:16.394,1016.0,-6.0,5.0,1016.0300192415576,1,1,1,3.0,2.0
2021-08-31 13:39:16.398,1005.0,84.0,2.0,1008.506321249401,1,1,1,3.0,2.0
2021-08-31 13:39:16.404,1015.0,-8.0,2.0,1015.0334969842128,1,1,1,3.0,2.0
2021-08-31 13:39:16.405,1015.0,-8.0,1.0,1015.0320191993944,1,1,1,3.0,2.0
2021-08-31 13:39:16.414,1004.0,91.0,0.0,1008.1155687717554,1,1,1,3.0,2.0
2021-08-31 13:39:16.425,1013.0,54.0,-5.0,1014.4505902211304,1,1,1,3.0,2.0
2021-08-31 13:39:16.438,1007.0,54.0,-5.0,1008.459220791798,1,1,1,3.0,2.0
2021-08-31 13:39:16.439,1007.0,79.0,0.0,1010.0940550265605,1,1,1,3.0,2.0
2021-08-31 13:39:16.447,1022.0,79.0,0.0,1025.0487793271109,1,1,1,3.0,2.0
2021-08-31 13:39:16.448,1022.0,3.0,19.0,1022.1810015843572,1,1,1,3.0,2.0
2021-08-31 13:39:16.453,1024.0,13.0,6.0,1024.1000927643745,1,1,1,3.0,2.0
2021-08-31 13:39:16.465,1009.0,87.0,6.0,1012.7615711508804,1,1,1,3.0,2.0
2021-08-31 13:39:16.466,1009.0,87.0,9.0,1012.783787389984,1,1,1,3.0,2.0
2021-08-31 13:39:16.473,1014.0,-4.0,-1.0,1014.008382608349,1,1,1,3.0,2.0
2021-08-31 13:39:16.482,986.0,-4.0,-1.0,986.0086206519696,1,1,1,3.0,2.0
2021-08-31 13:39:16.483,986.0,82.0,16.0,989.5332232926796,1,1,1,3.0,2.0
2021-08-31 13:39:16.492,1048.0,15.0,14.0,1048.2008395341038,1,1,1,3.0,2.0
2021-08-31 13:39:16.503,998.0,52.0,14.0,999.4518497656604,1,1,1,3.0,2.0
2021-08-31 13:39:16.504,998.0,52.0,-5.0,999.3662992116556,1,1,1,3.0,2.0
2021-08-31 13:39:16.512,1021.0,1.0,14.0,1021.0964694875798,1,1,1,3.0,2.0
2021-08-31 13:39:16.521,1012.0,1.0,14.0,1012.0973273356668,1,1,1,3.0,2.0
2021-08-31 13:39:16.522,1012.0,20.0,4.0,1012.2055127295048,1,1,1,3.0,2.0
2021-08-31 13:39:16.531,998.0,37.0,7.0,998.7101681669212,1,1,1,3.0,2.0
2021-08-31 13:39:16.542,1033.0,27.0,12.0,1033.4224692738203,1,1,1,3.0,2.0
2021-08-31 13:39:16.552,985.0,85.0,15.0,988.7744940076074,1,1,1,3.0,2.0
2021-08-31 13:39:16.561,1044.0,11.0,6.0,1044.0751888633308,1,1,1,3.0,2.0
2021-08-31 13:39:16.570,994.0,54.0,6.0,995.4838019777118,1,1,1,3.0,2.0
2021-08-31 13:39:16.571,994.0,54.0,3.0,995.4702406400704,1,1,1,3.0,2.0
2021-08-31 13:39:16.580,994.0,32.0,14.0,994.6134927699302,1,1,1,3.0,2.0
2021-08-31 13:39:16.590,996.0,109.0,4.0,1001.9545897893776,1,1,1,3.0,2.0
2021-08-31 13:39:16.600,1000.0,109.0,4.0,1005.9309121405904,1,1,1,3.0,2.0
2021-08-31 13:39:16.601,1000.0,22.0,6.0,1000.2599662087852,1,1,1,3.0,2.0
2021-08-31 13:39:16.609,1027.0,16.0,6.0,1027.1421517978902,1,1,1,3.0,2.0
2021-08-31 13:39:16.610,1027.0,16.0,1.0,1027.1251140927282,1,1,1,3.0,2.0
2021-08-31 13:39:16.619,992.0,87.0,20.0,996.0085340999846,1,1,1,3.0,2.0
2021-08-31 13:39:16.629,1047.0,-4.0,3.0,1047.011938804902,1,1,1,3.0,2.0
2021-08-31 13:39:16.639,1012.0,81.0,12.0,1015.3073426307918,1,1,1,3.0,2.0
2021-08-31 13:39:16.649,1004.0,43.0,12.0,1004.99203976947,1,1,1,3.0,2.0
2021-08-31 13:39:16.650,1004.0,43.0,-4.0,1004.9283556552676,1,1,1,3.0,2.0
2021-08-31 13:39:16.659,1002.0,114.0,-4.0,1008.4721116619934,1,1,1,3.0,2.0
2021-08-31 13:39:16.660,1002.0,114.0,17.0,1008.607455851879,1,1,1,3.0,2.0
2021-08-31 13:39:16.669,1006.0,13.0,0.0,1006.0839925175234,1,1,1,3.0,2.0
2021-08-31 13:39:16.678,1002.0,75.0,15.0,1004.9149217719876,1,1,1,3.0,2.0
2021-08-31 13:39:16.688,1013.0,5.0,-6.0,1013.030108140918,1,1,1,3.0,2.0
2021-08-31 13:39:16.698,1008.0,68.0,3.0,1010.2955013262208,1,1,1,3.0,2.0
2021-08-31 13:39:16.708,1013.0,53.0,0.0,1014.3855282879384,1,1,1,3.0,2.0
2021-08-31 13:39:16.717,1009.0,13.0,18.0,1009.2442717201816,1,1,1,3.0,2.0
2021-08-31 13:39:16.727,987.0,82.0,9.0,990.4413157779718,1,1,1,3.0,2.0
2021-08-31 13:39:16.736,1018.0,-12.0,9.0,1018.1105048078032,1,1,1,3.0,2.0
2021-08-31 13:39:16.737,1018.0,-12.0,7.0,1018.0947893000928,1,1,1,3.0,2.0
2021-08-31 13:39:16.746,995.0,82.0,13.0,998.4578108262764,1,1,1,3.0,2.0
2021-08-31 13:39:16.756,1029.0,82.0,13.0,1032.3439349364146,1,1,1,3.0,2.0
2021-08-31 13:39:16.757,1029.0,-10.0,-6.0,1029.066081454442,1,1,1,3.0,2.0
