time_stamp,Acceleration_X,Acceleration_Y,Acceleration_Z,magnitude,STD_Status_right,STD_Status_left,STD_Status_both,KMeans,KMeans_convert
2021-09-02 05:31:36.735,1016.0,46.0,7.0,1017.0648946847,1,1,1,0.0,2.0
2021-09-02 05:31:36.736,1016.0,42.0,11.0,1016.92723436832,1,1,1,0.0,2.0
2021-09-02 05:31:36.745,1018.0,46.0,-1.0,1019.0392534147052,1,1,1,0.0,2.0
2021-09-02 05:31:36.755,1004.0,46.0,2.0,1005.055222363428,1,1,1,0.0,2.0
2021-09-02 05:31:36.765,1006.0,48.0,6.0,1007.1623503685988,1,1,1,0.0,2.0
2021-09-02 05:31:36.775,1005.0,48.0,6.0,1006.1635055993634,1,1,1,0.0,2.0
2021-09-02 05:31:36.776,1005.0,42.0,4.0,1005.885182314562,1,1,1,0.0,2.0
2021-09-02 05:31:36.784,1021.0,40.0,15.0,1021.893340814001,1,1,1,0.0,2.0
2021-09-02 05:31:36.794,1009.0,39.0,13.0,1009.8371155785472,1,1,1,0.0,2.0
2021-09-02 05:31:36.804,1012.0,45.0,4.0,1013.007897303866,1,1,1,0.0,2.0
2021-09-02 05:31:36.814,1016.0,45.0,13.0,1017.0791512955124,1,1,1,0.0,2.0
2021-09-02 05:31:36.824,1010.0,45.0,13.0,1011.0855552325926,1,1,1,0.0,2.0
2021-09-02 05:31:36.825,1010.0,45.0,10.0,1011.0514329152596,1,1,1,0.0,2.0
2021-09-02 05:31:36.833,1006.0,43.0,11.0,1006.97864922748,1,1,1,0.0,2.0
2021-09-02 05:31:36.843,1008.0,43.0,5.0,1008.9291352716502,1,1,1,0.0,2.0
2021-09-02 05:31:36.853,1013.0,46.0,14.0,1014.1405228073672,1,1,1,0.0,2.0
2021-09-02 05:31:36.881,1013.0,42.0,14.0,1013.9669619864349,1,1,1,0.0,2.0
2021-09-02 05:31:36.884,1008.0,44.0,10.0,1009.0094152187085,1,1,1,0.0,2.0
2021-09-02 05:31:36.961,977.0,126.0,-3.0,985.0959344145116,1,1,1,0.0,2.0
2021-09-02 05:31:36.962,977.0,126.0,13.0,985.1771414319356,1,1,1,0.0,2.0
2021-09-02 05:31:36.964,1040.0,-48.0,14.0,1041.2012293500234,1,1,1,0.0,2.0
2021-09-02 05:31:36.971,1002.0,99.0,-9.0,1006.9190632816524,1,1,1,0.0,2.0
2021-09-02 05:31:36.980,1020.0,-64.0,3.0,1022.0102739209622,1,1,1,0.0,2.0
2021-09-02 05:31:36.990,971.0,189.0,4.0,989.2310144753852,1,1,1,0.0,2.0
2021-09-02 05:31:36.999,1026.0,19.0,8.0,1026.2070941091763,1,1,1,0.0,2.0
2021-09-02 05:31:37.009,1022.0,58.0,4.0,1023.6522847139062,1,1,1,0.0,2.0
2021-09-02 05:31:37.019,996.0,89.0,14.0,1000.066497789022,1,1,1,0.0,2.0
2021-09-02 05:31:37.030,1012.0,57.0,-5.0,1013.6162982115076,1,1,1,0.0,2.0
2021-09-02 05:31:37.043,1002.0,110.0,-12.0,1008.0912657096084,1,1,1,0.0,2.0
2021-09-02 05:31:37.048,1031.0,-26.0,3.0,1031.332148243232,1,1,1,0.0,2.0
2021-09-02 05:31:37.058,955.0,196.0,8.0,974.9384595962968,1,1,1,0.0,2.0
2021-09-02 05:31:37.068,1050.0,4.0,17.0,1050.1452280518156,1,1,1,0.0,2.0
2021-09-02 05:31:37.078,976.0,136.0,17.0,985.5764810505576,1,1,1,0.0,2.0
2021-09-02 05:31:37.079,976.0,136.0,5.0,985.4425401818212,1,1,1,0.0,2.0
2021-09-02 05:31:37.087,1050.0,-81.0,10.0,1053.1671282374891,1,1,1,0.0,2.0
2021-09-02 05:31:37.097,996.0,91.0,6.0,1000.1664861411824,1,1,1,0.0,2.0
2021-09-02 05:31:37.107,995.0,93.0,7.0,999.3612960286184,1,1,1,0.0,2.0
2021-09-02 05:31:37.119,1020.0,-27.0,7.0,1020.3813012790856,1,1,1,0.0,2.0
2021-09-02 05:31:37.120,1020.0,-27.0,6.0,1020.3749310915082,1,1,1,0.0,2.0
2021-09-02 05:31:37.127,962.0,183.0,-5.0,979.2640093457944,1,1,1,0.0,2.0
2021-09-02 05:31:37.136,1048.0,-21.0,23.0,1048.4626841237605,1,1,1,0.0,2.0
2021-09-02 05:31:37.146,957.0,146.0,-11.0,968.1353211199352,1,1,1,0.0,2.0
2021-09-02 05:31:37.155,1040.0,146.0,-11.0,1050.2556831552972,1,1,1,0.0,2.0
2021-09-02 05:31:37.156,1040.0,-80.0,19.0,1043.2454169561447,1,1,1,0.0,2.0
2021-09-02 05:31:37.172,974.0,125.0,-3.0,981.9928716645554,1,1,1,0.0,2.0
2021-09-02 05:31:37.175,1018.0,57.0,9.0,1019.634248149796,1,1,1,0.0,2.0
2021-09-02 05:31:37.185,1010.0,109.0,11.0,1015.9242097715754,1,1,1,0.0,2.0
2021-09-02 05:31:37.195,1025.0,-48.0,8.0,1026.1544718023697,1,1,1,0.0,2.0
2021-09-02 05:31:37.204,1046.0,11.0,8.0,1046.0884283845223,1,1,1,0.0,2.0
2021-09-02 05:31:37.215,970.0,136.0,-4.0,979.4957886586344,1,1,1,0.0,2.0
2021-09-02 05:31:37.224,1045.0,-59.0,18.0,1046.818991039043,1,1,1,0.0,2.0
2021-09-02 05:31:37.234,967.0,118.0,0.0,974.1729825857418,1,1,1,0.0,2.0
2021-09-02 05:31:37.243,1035.0,-53.0,0.0,1036.3561164001494,1,1,1,0.0,2.0
2021-09-02 05:31:37.244,1035.0,-53.0,8.0,1036.3869933572112,1,1,1,0.0,2.0
2021-09-02 05:31:37.254,996.0,116.0,7.0,1002.7567003017232,1,1,1,0.0,2.0
2021-09-02 05:31:37.263,1053.0,-85.0,2.0,1056.4269970045257,1,1,1,0.0,2.0
2021-09-02 05:31:37.273,1035.0,2.0,11.0,1035.060384711926,1,1,1,0.0,2.0
2021-09-02 05:31:37.282,969.0,2.0,11.0,969.0644973375096,1,1,1,0.0,2.0
2021-09-02 05:31:37.283,969.0,137.0,0.0,978.636806992257,1,1,1,0.0,2.0
2021-09-02 05:31:37.292,1019.0,37.0,0.0,1019.6715157343564,1,1,1,0.0,2.0
2021-09-02 05:31:37.303,995.0,145.0,37.0,1006.1903398462936,1,1,1,0.0,2.0
2021-09-02 05:31:37.316,1043.0,-73.0,0.0,1045.5515290983988,1,1,1,0.0,2.0
2021-09-02 05:31:37.321,1001.0,-73.0,0.0,1003.6583083898624,1,1,1,0.0,2.0
2021-09-02 05:31:37.322,1001.0,123.0,-2.0,1008.5306143097492,1,1,1,0.0,2.0
2021-09-02 05:31:37.331,1056.0,-83.0,12.0,1059.3247849455804,1,1,1,0.0,2.0
2021-09-02 05:31:37.342,942.0,197.0,-4.0,962.3871362398812,1,1,1,0.0,2.0
2021-09-02 05:31:37.361,1037.0,3.0,29.0,1037.409755111258,1,1,1,0.0,2.0
2021-09-02 05:31:37.365,1006.0,60.0,29.0,1008.2048402978436,1,1,1,0.0,2.0
2021-09-02 05:31:37.366,1006.0,60.0,4.0,1007.7956141996252,1,1,1,0.0,2.0
2021-09-02 05:31:37.371,1018.0,79.0,23.0,1021.3197344612508,1,1,1,0.0,2.0
2021-09-02 05:31:37.381,1047.0,79.0,23.0,1050.2280704685054,1,1,1,0.0,2.0
2021-09-02 05:31:37.382,1047.0,-77.0,-6.0,1049.8447504274145,1,1,1,0.0,2.0
2021-09-02 05:31:37.390,987.0,132.0,-2.0,995.789636419259,1,1,1,0.0,2.0
2021-09-02 05:31:37.400,1035.0,-36.0,9.0,1035.665003753627,1,1,1,0.0,2.0
2021-09-02 05:31:37.409,937.0,-36.0,9.0,937.7345040041984,1,1,1,0.0,2.0
2021-09-02 05:31:37.410,937.0,193.0,3.0,956.6749709279532,1,1,1,0.0,2.0
2021-09-02 05:31:37.419,1058.0,-55.0,-2.0,1059.4305073953649,1,1,1,0.0,2.0
2021-09-02 05:31:37.430,1004.0,95.0,31.0,1008.960851569574,1,1,1,0.0,2.0
2021-09-02 05:31:37.439,1020.0,19.0,16.0,1020.3024061522152,1,1,1,0.0,2.0
2021-09-02 05:31:37.448,982.0,19.0,16.0,982.314104551085,1,1,1,0.0,2.0
2021-09-02 05:31:37.449,982.0,125.0,4.0,989.9318158337976,1,1,1,0.0,2.0
2021-09-02 05:31:37.458,1018.0,32.0,9.0,1018.5425862476249,1,1,1,0.0,2.0
2021-09-02 05:31:37.468,1025.0,10.0,7.0,1025.0726803500324,1,1,1,0.0,2.0
2021-09-02 05:31:37.478,985.0,10.0,7.0,985.0756316141416,1,1,1,0.0,2.0
2021-09-02 05:31:37.479,985.0,123.0,9.0,992.690787707834,1,1,1,0.0,2.0
2021-09-02 05:31:37.488,1042.0,-59.0,11.0,1043.7269757939573,1,1,1,0.0,2.0
2021-09-02 05:31:37.497,1003.0,112.0,18.0,1009.394372879104,1,1,1,0.0,2.0
2021-09-02 05:31:37.507,1032.0,-60.0,-2.0,1033.744649321098,1,1,1,0.0,2.0
2021-09-02 05:31:37.517,956.0,129.0,-13.0,964.7517815479794,1,1,1,0.0,2.0
2021-09-02 05:31:37.527,1021.0,-10.0,9.0,1021.0886347423518,1,1,1,0.0,2.0
2021-09-02 05:31:37.538,1009.0,3.0,14.0,1009.1015806151528,1,1,1,0.0,2.0
2021-09-02 05:31:37.546,984.0,172.0,11.0,998.9799797793748,1,1,1,0.0,2.0
2021-09-02 05:31:37.556,1033.0,19.0,17.0,1033.3145697221153,1,1,1,0.0,2.0
2021-09-02 05:31:37.566,977.0,131.0,-9.0,985.78445919988,1,1,1,0.0,2.0
2021-09-02 05:31:37.575,1040.0,-49.0,-9.0,1041.1925854518945,1,1,1,0.0,2.0
2021-09-02 05:31:37.576,1040.0,-49.0,23.0,1041.407701143025,1,1,1,0.0,2.0
2021-09-02 05:31:37.586,956.0,139.0,-11.0,966.1148999989598,1,1,1,0.0,2.0
2021-09-02 05:31:37.595,1026.0,7.0,33.0,1026.5544310946204,1,1,1,0.0,2.0
2021-09-02 05:31:37.605,995.0,109.0,-3.0,1000.9570420352712,1,1,1,0.0,2.0
2021-09-02 05:31:37.614,1036.0,-100.0,-3.0,1040.8193887509974,1,1,1,0.0,2.0
2021-09-02 05:31:37.615,1036.0,-100.0,7.0,1040.8386042033603,1,1,1,0.0,2.0
2021-09-02 05:31:37.624,1030.0,24.0,-6.0,1030.297044545892,1,1,1,0.0,2.0
2021-09-02 05:31:37.634,970.0,24.0,-6.0,970.3154126365304,1,1,1,0.0,2.0
2021-09-02 05:31:37.635,970.0,139.0,9.0,979.9499987244247,1,1,1,0.0,2.0
2021-09-02 05:31:37.645,1037.0,-47.0,6.0,1038.0818850167843,1,1,1,0.0,2.0
2021-09-02 05:31:37.653,954.0,-47.0,6.0,955.1759000309838,1,1,1,0.0,2.0
2021-09-02 05:31:37.654,954.0,185.0,-1.0,971.7726071463428,1,1,1,0.0,2.0
2021-09-02 05:31:37.663,1056.0,-97.0,-4.0,1060.453205002465,1,1,1,0.0,2.0
2021-09-02 05:31:37.673,985.0,136.0,-5.0,994.3570787197124,1,1,1,0.0,2.0
2021-09-02 05:31:37.683,1047.0,-118.0,15.0,1053.735260869636,1,1,1,0.0,2.0
2021-09-02 05:31:37.694,1003.0,87.0,0.0,1006.7661098785557,1,1,1,0.0,2.0
2021-09-02 05:31:37.702,981.0,122.0,0.0,988.5570292097468,1,1,1,0.0,2.0
2021-09-02 05:31:37.703,981.0,122.0,13.0,988.6425036381958,1,1,1,0.0,2.0
2021-09-02 05:31:37.712,1008.0,104.0,13.0,1013.4342603247632,1,1,1,0.0,2.0
2021-09-02 05:31:37.722,1024.0,-14.0,0.0,1024.095698653207,1,1,1,0.0,2.0
2021-09-02 05:31:37.732,1055.0,-74.0,10.0,1057.6393525205085,1,1,1,0.0,2.0
2021-09-02 05:31:37.742,974.0,166.0,10.0,988.095137119903,1,1,1,0.0,2.0
2021-09-02 05:31:37.743,974.0,166.0,0.0,988.0445334092992,1,1,1,0.0,2.0
2021-09-02 05:31:37.751,1046.0,-107.0,18.0,1051.6125712447526,1,1,1,0.0,2.0
2021-09-02 05:31:37.761,958.0,189.0,10.0,976.5167689292388,1,1,1,0.0,2.0
2021-09-02 05:31:37.771,1055.0,-71.0,8.0,1057.4166633829827,1,1,1,0.0,2.0
2021-09-02 05:31:37.780,1006.0,-71.0,8.0,1008.5340846991736,1,1,1,0.0,2.0
2021-09-02 05:31:37.781,1006.0,130.0,9.0,1014.4047515661588,1,1,1,0.0,2.0
2021-09-02 05:31:37.791,1037.0,-38.0,0.0,1037.6960055815962,1,1,1,0.0,2.0
2021-09-02 05:31:37.801,1044.0,-3.0,0.0,1044.0043103359296,1,1,1,0.0,2.0
2021-09-02 05:31:37.802,1044.0,-3.0,31.0,1044.4644560730633,1,1,1,0.0,2.0
2021-09-02 05:31:37.810,968.0,162.0,0.0,981.4621745131088,1,1,1,0.0,2.0
2021-09-02 05:31:37.819,1010.0,162.0,0.0,1022.9095756712808,1,1,1,0.0,2.0
2021-09-02 05:31:37.820,1010.0,8.0,3.0,1010.03613796735,1,1,1,0.0,2.0
2021-09-02 05:31:37.829,984.0,165.0,3.0,997.7424517379222,1,1,1,0.0,2.0
2021-09-02 05:31:37.830,984.0,165.0,15.0,997.8506902337645,1,1,1,0.0,2.0
2021-09-02 05:31:37.839,1044.0,-65.0,16.0,1046.1438715587833,1,1,1,0.0,2.0
2021-09-02 05:31:37.850,998.0,131.0,1.0,1006.5614735325408,1,1,1,0.0,2.0
2021-09-02 05:31:37.859,1030.0,-40.0,10.0,1030.824912388132,1,1,1,0.0,2.0
2021-09-02 05:31:37.868,953.0,160.0,10.0,966.3896729580672,1,1,1,0.0,2.0
2021-09-02 05:31:37.869,953.0,160.0,-4.0,966.3462112514334,1,1,1,0.0,2.0
2021-09-02 05:31:37.878,1029.0,7.0,30.0,1029.4610240315076,1,1,1,0.0,2.0
2021-09-02 05:31:37.901,1014.0,27.0,5.0,1014.3717267353226,1,1,1,0.0,2.0
2021-09-02 05:31:37.905,984.0,172.0,16.0,999.0475464160852,1,1,1,0.0,2.0
2021-09-02 05:31:37.908,1042.0,-60.0,17.0,1043.8644548024422,1,1,1,0.0,2.0
2021-09-02 05:31:37.917,1003.0,117.0,-18.0,1009.9613854004518,1,1,1,0.0,2.0
2021-09-02 05:31:37.927,1032.0,-25.0,10.0,1032.3511999314962,1,1,1,0.0,2.0
2021-09-02 05:31:37.937,955.0,200.0,-16.0,975.848861248503,1,1,1,0.0,2.0
2021-09-02 05:31:37.947,1033.0,10.0,-16.0,1033.1722992802313,1,1,1,0.0,2.0
2021-09-02 05:31:37.948,1033.0,10.0,36.0,1033.675480990045,1,1,1,0.0,2.0
2021-09-02 05:31:37.956,1012.0,43.0,7.0,1012.937312966602,1,1,1,0.0,2.0
2021-09-02 05:31:37.974,1003.0,135.0,35.0,1012.6494951363971,1,1,1,0.0,2.0
2021-09-02 05:31:37.976,1005.0,81.0,0.0,1008.2588953240136,1,1,1,0.0,2.0
2021-09-02 05:31:37.985,984.0,81.0,0.0,987.3282129059212,1,1,1,0.0,2.0
2021-09-02 05:31:37.986,984.0,118.0,8.0,991.0822367493024,1,1,1,0.0,2.0
2021-09-02 05:31:37.996,1015.0,-36.0,14.0,1015.7347094591186,1,1,1,0.0,2.0
2021-09-02 05:31:38.006,944.0,192.0,-4.0,963.335870815574,1,1,1,0.0,2.0
2021-09-02 05:31:38.015,1061.0,-36.0,16.0,1061.731133573844,1,1,1,0.0,2.0
2021-09-02 05:31:38.025,982.0,162.0,7.0,995.2974429787308,1,1,1,0.0,2.0
2021-09-02 05:31:38.034,1044.0,162.0,7.0,1056.5173921900198,1,1,1,0.0,2.0
2021-09-02 05:31:38.035,1044.0,-95.0,3.0,1048.3176999364266,1,1,1,0.0,2.0
2021-09-02 05:31:38.045,985.0,138.0,6.0,994.6381251490412,1,1,1,0.0,2.0
2021-09-02 05:31:38.054,995.0,138.0,6.0,1004.5421842809787,1,1,1,0.0,2.0
2021-09-02 05:31:38.055,995.0,70.0,0.0,997.459272351508,1,1,1,0.0,2.0
2021-09-02 05:31:38.064,1018.0,-14.0,3.0,1018.100682643912,1,1,1,0.0,2.0
2021-09-02 05:31:38.073,974.0,-14.0,3.0,974.1052304551084,1,1,1,0.0,2.0
2021-09-02 05:31:38.074,974.0,160.0,11.0,987.115494762391,1,1,1,0.0,2.0
2021-09-02 05:31:38.083,1016.0,22.0,22.0,1016.47626632401,1,1,1,0.0,2.0
2021-09-02 05:31:38.093,972.0,128.0,1.0,980.3922684313662,1,1,1,0.0,2.0
2021-09-02 05:31:38.103,1041.0,128.0,1.0,1048.8403119636469,1,1,1,0.0,2.0
2021-09-02 05:31:38.104,1041.0,-71.0,9.0,1043.4572343896036,1,1,1,0.0,2.0
2021-09-02 05:31:38.112,968.0,-71.0,9.0,970.6420555488002,1,1,1,0.0,2.0
2021-09-02 05:31:38.113,968.0,146.0,0.0,978.9484153927622,1,1,1,0.0,2.0
2021-09-02 05:31:38.122,1011.0,15.0,6.0,1011.12907187955,1,1,1,0.0,2.0
2021-09-02 05:31:38.132,994.0,117.0,0.0,1000.8621283673392,1,1,1,0.0,2.0
2021-09-02 05:31:38.142,1044.0,-64.0,7.0,1045.9832694646698,1,1,1,0.0,2.0
2021-09-02 05:31:38.152,1027.0,21.0,7.0,1027.2385312087938,1,1,1,0.0,2.0
2021-09-02 05:31:38.153,1027.0,21.0,14.0,1027.3100797714387,1,1,1,0.0,2.0
2021-09-02 05:31:38.162,991.0,137.0,-15.0,1000.5373556244664,1,1,1,0.0,2.0
2021-09-02 05:31:38.171,1032.0,-52.0,7.0,1033.332956989179,1,1,1,0.0,2.0
2021-09-02 05:31:38.189,966.0,146.0,-13.0,977.0573166401242,1,1,1,0.0,2.0
2021-09-02 05:31:38.192,1050.0,-60.0,7.0,1051.7361836506338,1,1,1,0.0,2.0
2021-09-02 05:31:38.201,977.0,125.0,-10.0,985.0147207021832,1,1,1,0.0,2.0
2021-09-02 05:31:38.211,1050.0,-90.0,9.0,1053.8885140279308,1,1,1,0.0,2.0
2021-09-02 05:31:38.220,1026.0,15.0,0.0,1026.1096432643053,1,1,1,0.0,2.0
2021-09-02 05:31:38.230,991.0,132.0,10.0,999.802480493022,1,1,1,0.0,2.0
2021-09-02 05:31:38.240,1009.0,51.0,-7.0,1010.3123279461654,1,1,1,0.0,2.0
2021-09-02 05:31:38.250,1019.0,105.0,14.0,1024.491093177486,1,1,1,0.0,2.0
2021-09-02 05:31:38.259,1043.0,-58.0,0.0,1044.6114110041112,1,1,1,0.0,2.0
2021-09-02 05:31:38.269,985.0,134.0,3.0,994.0774617704598,1,1,1,0.0,2.0
2021-09-02 05:31:38.278,1033.0,134.0,3.0,1041.6592533069536,1,1,1,0.0,2.0
2021-09-02 05:31:38.279,1033.0,-109.0,14.0,1038.8291486091446,1,1,1,0.0,2.0
2021-09-02 05:31:38.291,940.0,-109.0,14.0,946.4021344016506,1,1,1,0.0,2.0
2021-09-02 05:31:38.292,940.0,195.0,12.0,960.08801679846,1,1,1,0.0,2.0
2021-09-02 05:31:38.298,1048.0,-17.0,15.0,1048.2452003229016,1,1,1,0.0,2.0
2021-09-02 05:31:38.308,1010.0,91.0,15.0,1014.2021494751428,1,1,1,0.0,2.0
2021-09-02 05:31:38.309,1010.0,91.0,12.0,1014.1622158215124,1,1,1,0.0,2.0
2021-09-02 05:31:38.318,1016.0,61.0,12.0,1017.9002898123176,1,1,1,0.0,2.0
2021-09-02 05:31:38.319,1016.0,61.0,9.0,1017.8693432852764,1,1,1,0.0,2.0
2021-09-02 05:31:38.327,1048.0,-92.0,9.0,1052.0689140926083,1,1,1,0.0,2.0
2021-09-02 05:31:38.328,1048.0,-92.0,3.0,1052.0346952453613,1,1,1,0.0,2.0
2021-09-02 05:31:38.337,996.0,83.0,11.0,999.512881357714,1,1,1,0.0,2.0
2021-09-02 05:31:38.347,1022.0,-42.0,9.0,1022.9022436186168,1,1,1,0.0,2.0
2021-09-02 05:31:38.358,960.0,178.0,0.0,976.36263754816,1,1,1,0.0,2.0
2021-09-02 05:31:38.367,1074.0,-73.0,0.0,1076.4780536546018,1,1,1,0.0,2.0
2021-09-02 05:31:38.368,1074.0,-73.0,8.0,1076.507779813969,1,1,1,0.0,2.0
2021-09-02 05:31:38.386,997.0,122.0,17.0,1004.5805094665136,1,1,1,0.0,2.0
2021-09-02 05:31:38.390,1024.0,-12.0,5.0,1024.0825162065798,1,1,1,0.0,2.0
2021-09-02 05:31:38.397,977.0,165.0,-5.0,990.8476169421816,1,1,1,0.0,2.0
2021-09-02 05:31:38.405,1008.0,28.0,-5.0,1008.4012098366404,1,1,1,0.0,2.0
2021-09-02 05:31:38.406,1008.0,28.0,4.0,1008.3967473172452,1,1,1,0.0,2.0
2021-09-02 05:31:38.416,1022.0,-15.0,18.0,1022.2685557132236,1,1,1,0.0,2.0
2021-09-02 05:31:38.425,969.0,173.0,-8.0,984.354610899954,1,1,1,0.0,2.0
2021-09-02 05:31:38.435,1057.0,-82.0,20.0,1060.3645599509632,1,1,1,0.0,2.0
2021-09-02 05:31:38.446,970.0,151.0,-10.0,981.7336706052208,1,1,1,0.0,2.0
2021-09-02 05:31:38.454,1026.0,-89.0,16.0,1029.9771842133202,1,1,1,0.0,2.0
2021-09-02 05:31:38.464,959.0,143.0,-14.0,969.7040785724272,1,1,1,0.0,2.0
2021-09-02 05:31:38.474,1016.0,2.0,8.0,1016.0334640158266,1,1,1,0.0,2.0
2021-09-02 05:31:38.486,1023.0,4.0,8.0,1023.0390999370454,1,1,1,0.0,2.0
2021-09-02 05:31:38.487,1023.0,4.0,7.0,1023.0317688126796,1,1,1,0.0,2.0
2021-09-02 05:31:38.494,1053.0,-98.0,4.0,1057.5580362325277,1,1,1,0.0,2.0
2021-09-02 05:31:38.503,1022.0,0.0,13.0,1022.0826776733868,1,1,1,0.0,2.0
2021-09-02 05:31:38.513,990.0,148.0,-8.0,1001.0334659740404,1,1,1,0.0,2.0
2021-09-02 05:31:38.523,1023.0,-43.0,26.0,1024.2333718445225,1,1,1,0.0,2.0
2021-09-02 05:31:38.532,948.0,-43.0,26.0,949.3308169442304,1,1,1,0.0,2.0
2021-09-02 05:31:38.533,948.0,149.0,-12.0,959.7129779262132,1,1,1,0.0,2.0
2021-09-02 05:31:38.543,1018.0,2.0,31.0,1018.473858280123,1,1,1,0.0,2.0
2021-09-02 05:31:38.553,991.0,122.0,-9.0,998.5219076214604,1,1,1,0.0,2.0
2021-09-02 05:31:38.562,1061.0,-125.0,15.0,1068.4432600751431,1,1,1,0.0,2.0
2021-09-02 05:31:38.571,1016.0,-125.0,15.0,1023.7704820905903,1,1,1,0.0,2.0
2021-09-02 05:31:38.572,1016.0,26.0,-2.0,1016.3345905753677,1,1,1,0.0,2.0
2021-09-02 05:31:38.581,980.0,170.0,10.0,994.6858800646564,1,1,1,0.0,2.0
2021-09-02 05:31:38.591,1029.0,-31.0,19.0,1029.6421708535447,1,1,1,0.0,2.0
2021-09-02 05:31:38.602,1002.0,98.0,20.0,1006.979642296705,1,1,1,0.0,2.0
2021-09-02 05:31:38.611,1054.0,-102.0,0.0,1058.9239821630258,1,1,1,0.0,2.0
2021-09-02 05:31:38.620,986.0,136.0,0.0,995.3351194447024,1,1,1,0.0,2.0
2021-09-02 05:31:38.630,1047.0,-142.0,-2.0,1056.587431308929,1,1,1,0.0,2.0
2021-09-02 05:31:38.640,1007.0,71.0,2.0,1009.5018573534176,1,1,1,0.0,2.0
2021-09-02 05:31:38.650,984.0,141.0,2.0,994.0528154982512,1,1,1,0.0,2.0
2021-09-02 05:31:38.651,984.0,141.0,9.0,994.0915450802304,1,1,1,0.0,2.0
2021-09-02 05:31:38.659,1009.0,94.0,9.0,1013.4090980448124,1,1,1,0.0,2.0
2021-09-02 05:31:38.660,1009.0,94.0,15.0,1013.4801428740476,1,1,1,0.0,2.0
2021-09-02 05:31:38.669,1021.0,37.0,5.0,1021.6824359848808,1,1,1,0.0,2.0
2021-09-02 05:31:38.679,1046.0,-123.0,4.0,1053.2146030130805,1,1,1,0.0,2.0
2021-09-02 05:31:38.690,980.0,149.0,16.0,991.3914464024792,1,1,1,0.0,2.0
2021-09-02 05:31:38.698,1043.0,149.0,16.0,1053.710586451517,1,1,1,0.0,2.0
2021-09-02 05:31:38.699,1043.0,-98.0,6.0,1047.6110919611342,1,1,1,0.0,2.0
2021-09-02 05:31:38.710,960.0,158.0,-10.0,972.9665975767102,1,1,1,0.0,2.0
2021-09-02 05:31:38.718,1063.0,-75.0,16.0,1065.7626377388167,1,1,1,0.0,2.0
2021-09-02 05:31:38.728,1005.0,128.0,4.0,1013.1263494747336,1,1,1,0.0,2.0
2021-09-02 05:31:38.738,1037.0,-19.0,14.0,1037.2685283956127,1,1,1,0.0,2.0
2021-09-02 05:31:38.747,1035.0,-31.0,19.0,1035.63845042563,1,1,1,0.0,2.0
2021-09-02 05:31:38.758,1013.0,-8.0,9.0,1013.0715670672038,1,1,1,0.0,2.0
2021-09-02 05:31:38.767,1032.0,-9.0,17.0,1032.179247999106,1,1,1,0.0,2.0
2021-09-02 05:31:38.777,959.0,161.0,4.0,972.4289177106984,1,1,1,0.0,2.0
2021-09-02 05:31:38.786,1063.0,-32.0,19.0,1063.6512586369652,1,1,1,0.0,2.0
2021-09-02 05:31:38.797,981.0,142.0,0.0,991.2239908315375,1,1,1,0.0,2.0
2021-09-02 05:31:38.806,1059.0,142.0,0.0,1068.4778893360406,1,1,1,0.0,2.0
2021-09-02 05:31:38.807,1059.0,-69.0,14.0,1061.3378349988282,1,1,1,0.0,2.0
2021-09-02 05:31:38.816,970.0,148.0,-15.0,981.3404098476736,1,1,1,0.0,2.0
2021-09-02 05:31:38.825,1008.0,14.0,-15.0,1008.2088077377622,1,1,1,0.0,2.0
2021-09-02 05:31:38.826,1008.0,14.0,21.0,1008.3159227147016,1,1,1,0.0,2.0
2021-09-02 05:31:38.835,1029.0,-7.0,14.0,1029.1190407333838,1,1,1,0.0,2.0
2021-09-02 05:31:38.845,974.0,184.0,28.0,991.6229121999957,1,1,1,0.0,2.0
2021-09-02 05:31:38.855,1057.0,-52.0,19.0,1058.44886508513,1,1,1,0.0,2.0
2021-09-02 05:31:38.865,994.0,150.0,19.0,1005.4337372497504,1,1,1,0.0,2.0
2021-09-02 05:31:38.866,994.0,150.0,2.0,1005.2561862530368,1,1,1,0.0,2.0
2021-09-02 05:31:38.874,1013.0,-22.0,5.0,1013.2512028120174,1,1,1,0.0,2.0
2021-09-02 05:31:38.884,946.0,192.0,-17.0,965.4372066582064,1,1,1,0.0,2.0
2021-09-02 05:31:38.895,1011.0,192.0,-17.0,1029.2103769395255,1,1,1,0.0,2.0
2021-09-02 05:31:38.896,1011.0,5.0,40.0,1011.803340575628,1,1,1,0.0,2.0
2021-09-02 05:31:38.904,1023.0,42.0,4.0,1023.8696206060612,1,1,1,0.0,2.0
2021-09-02 05:31:38.923,1000.0,42.0,4.0,1000.8896043020928,1,1,1,0.0,2.0
2021-09-02 05:31:38.924,1000.0,162.0,37.0,1013.7124838927456,1,1,1,0.0,2.0
2021-09-02 05:31:38.925,1011.0,87.0,5.0,1014.7487373729518,1,1,1,0.0,2.0
2021-09-02 05:31:38.933,979.0,146.0,5.0,989.8393809098524,1,1,1,0.0,2.0
2021-09-02 05:31:38.934,979.0,146.0,7.0,989.8515040146174,1,1,1,0.0,2.0
2021-09-02 05:31:38.943,1027.0,-37.0,3.0,1027.6706670913595,1,1,1,0.0,2.0
2021-09-02 05:31:38.952,949.0,192.0,17.0,968.376992704804,1,1,1,0.0,2.0
2021-09-02 05:31:38.962,1066.0,-38.0,12.0,1066.7445804877566,1,1,1,0.0,2.0
2021-09-02 05:31:38.972,981.0,152.0,2.0,992.7079127316352,1,1,1,0.0,2.0
2021-09-02 05:31:38.988,1044.0,152.0,2.0,1055.0090047009078,1,1,1,0.0,2.0
2021-09-02 05:31:38.989,1044.0,-103.0,0.0,1049.06863455162,1,1,1,0.0,2.0
2021-09-02 05:31:38.991,981.0,156.0,0.0,993.3262303996607,1,1,1,0.0,2.0
2021-09-02 05:31:38.992,981.0,156.0,21.0,993.5481870548604,1,1,1,0.0,2.0
2021-09-02 05:31:39.001,990.0,96.0,-4.0,994.6516978319596,1,1,1,0.0,2.0
2021-09-02 05:31:39.011,1027.0,-43.0,17.0,1028.0403688571766,1,1,1,0.0,2.0
2021-09-02 05:31:39.021,1039.0,-36.0,17.0,1039.7624728754158,1,1,1,0.0,2.0
2021-09-02 05:31:39.022,1039.0,-36.0,16.0,1039.7466037453548,1,1,1,0.0,2.0
2021-09-02 05:31:39.030,1018.0,-36.0,16.0,1018.7619937944288,1,1,1,0.0,2.0
2021-09-02 05:31:39.031,1018.0,-45.0,25.0,1019.3007407041358,1,1,1,0.0,2.0
2021-09-02 05:31:39.040,985.0,153.0,-1.0,996.8124196658064,1,1,1,0.0,2.0
2021-09-02 05:31:39.050,1037.0,-90.0,-5.0,1040.91017864175,1,1,1,0.0,2.0
2021-09-02 05:31:39.060,982.0,208.0,-7.0,1003.811237235368,1,1,1,0.0,2.0
2021-09-02 05:31:39.070,987.0,39.0,-2.0,987.7722409543608,1,1,1,0.0,2.0
2021-09-02 05:31:39.081,985.0,142.0,0.0,995.1828977630192,1,1,1,0.0,2.0
2021-09-02 05:31:39.089,1060.0,-60.0,17.0,1061.832849369429,1,1,1,0.0,2.0
2021-09-02 05:31:39.099,1021.0,-2.0,19.0,1021.1787306833216,1,1,1,0.0,2.0
2021-09-02 05:31:39.109,987.0,147.0,0.0,997.8867671234046,1,1,1,0.0,2.0
2021-09-02 05:31:39.118,1018.0,147.0,0.0,1028.5587003180713,1,1,1,0.0,2.0
2021-09-02 05:31:39.119,1018.0,-45.0,19.0,1019.171231933084,1,1,1,0.0,2.0
2021-09-02 05:31:39.129,965.0,189.0,27.0,983.7047321223986,1,1,1,0.0,2.0
2021-09-02 05:31:39.138,1082.0,-50.0,21.0,1083.358204842701,1,1,1,0.0,2.0
2021-09-02 05:31:39.148,969.0,151.0,-4.0,980.702809213882,1,1,1,0.0,2.0
2021-09-02 05:31:39.157,1062.0,151.0,-4.0,1072.688678042236,1,1,1,0.0,2.0
2021-09-02 05:31:39.158,1062.0,-119.0,20.0,1068.833476272146,1,1,1,0.0,2.0
2021-09-02 05:31:39.167,1024.0,-7.0,1.0,1024.0244137714687,1,1,1,0.0,2.0
2021-09-02 05:31:39.177,1005.0,-7.0,1.0,1005.0248753140391,1,1,1,0.0,2.0
2021-09-02 05:31:39.178,1005.0,154.0,-5.0,1016.742838676526,1,1,1,0.0,2.0
2021-09-02 05:31:39.187,1032.0,154.0,-5.0,1043.439025530481,1,1,1,0.0,2.0
2021-09-02 05:31:39.188,1032.0,35.0,5.0,1032.6054425578047,1,1,1,0.0,2.0
2021-09-02 05:31:39.205,988.0,198.0,29.0,1008.0620020613812,1,1,1,0.0,2.0
2021-09-02 05:31:39.207,1076.0,-91.0,29.0,1080.2305309516112,1,1,1,0.0,2.0
2021-09-02 05:31:39.208,1076.0,-91.0,5.0,1079.8527677419731,1,1,1,0.0,2.0
2021-09-02 05:31:39.216,984.0,131.0,-8.0,992.7139567871502,1,1,1,0.0,2.0
2021-09-02 05:31:39.227,1057.0,-157.0,5.0,1068.607973019105,1,1,1,0.0,2.0
2021-09-02 05:31:39.236,925.0,235.0,14.0,954.4872969296134,1,1,1,0.0,2.0
2021-09-02 05:31:39.245,1050.0,-26.0,21.0,1050.5317701050265,1,1,1,0.0,2.0
2021-09-02 05:31:39.255,1011.0,81.0,4.0,1014.2475043104616,1,1,1,0.0,2.0
2021-09-02 05:31:39.267,1019.0,130.0,31.0,1027.7266173452938,1,1,1,0.0,2.0
2021-09-02 05:31:39.275,1073.0,-144.0,31.0,1083.063248383953,1,1,1,0.0,2.0
2021-09-02 05:31:39.276,1073.0,-144.0,-13.0,1082.6975570305865,1,1,1,0.0,2.0
2021-09-02 05:31:39.284,974.0,144.0,-13.0,984.673042182023,1,1,1,0.0,2.0
2021-09-02 05:31:39.285,974.0,144.0,-2.0,984.5892544609655,1,1,1,0.0,2.0
2021-09-02 05:31:39.294,1026.0,-48.0,19.0,1027.2979120002142,1,1,1,0.0,2.0
2021-09-02 05:31:39.304,924.0,215.0,4.0,948.692257794908,1,1,1,0.0,2.0
2021-09-02 05:31:39.314,1071.0,-70.0,13.0,1073.3638712011875,1,1,1,0.0,2.0
2021-09-02 05:31:39.324,998.0,89.0,14.0,1002.0583815327328,1,1,1,0.0,2.0
2021-09-02 05:31:39.335,1029.0,-67.0,4.0,1031.1866950266572,1,1,1,0.0,2.0
2021-09-02 05:31:39.343,978.0,171.0,1.0,992.8373482096652,1,1,1,0.0,2.0
2021-09-02 05:31:39.353,992.0,67.0,-6.0,994.2781301024376,1,1,1,0.0,2.0
2021-09-02 05:31:39.362,1018.0,67.0,-6.0,1020.2200742976978,1,1,1,0.0,2.0
2021-09-02 05:31:39.363,1018.0,-34.0,30.0,1019.0093228229072,1,1,1,0.0,2.0
2021-09-02 05:31:39.372,951.0,153.0,-23.0,963.50350284781,1,1,1,0.0,2.0
2021-09-02 05:31:39.383,1071.0,-89.0,24.0,1074.9595341220988,1,1,1,0.0,2.0
2021-09-02 05:31:39.401,997.0,153.0,5.0,1008.6837958448624,1,1,1,0.0,2.0
2021-09-02 05:31:39.403,1018.0,-53.0,16.0,1019.5042913102426,1,1,1,0.0,2.0
2021-09-02 05:31:39.411,989.0,-53.0,16.0,990.5483329954172,1,1,1,0.0,2.0
2021-09-02 05:31:39.412,989.0,140.0,-13.0,998.944442899604,1,1,1,0.0,2.0
2021-09-02 05:31:39.423,987.0,15.0,8.0,987.146392385648,1,1,1,0.0,2.0
2021-09-02 05:31:39.432,1032.0,2.0,22.0,1032.23640703087,1,1,1,0.0,2.0
2021-09-02 05:31:39.441,1072.0,-75.0,15.0,1074.7250811254012,1,1,1,0.0,2.0
2021-09-02 05:31:39.450,1020.0,-75.0,15.0,1022.8636272739392,1,1,1,0.0,2.0
2021-09-02 05:31:39.451,1020.0,-14.0,7.0,1020.1200909696856,1,1,1,0.0,2.0
2021-09-02 05:31:39.462,1015.0,162.0,-9.0,1027.8861804694136,1,1,1,0.0,2.0
2021-09-02 05:31:39.471,996.0,-24.0,2.0,996.2911221124076,1,1,1,0.0,2.0
2021-09-02 05:31:39.480,969.0,137.0,-22.0,978.8840585074414,1,1,1,0.0,2.0
2021-09-02 05:31:39.489,1085.0,137.0,-22.0,1093.836368018544,1,1,1,0.0,2.0
2021-09-02 05:31:39.490,1085.0,-77.0,5.0,1087.740318274541,1,1,1,0.0,2.0
2021-09-02 05:31:39.499,986.0,118.0,-1.0,993.0362531146584,1,1,1,0.0,2.0
2021-09-02 05:31:39.509,1051.0,118.0,-1.0,1057.6038956055334,1,1,1,0.0,2.0
2021-09-02 05:31:39.510,1051.0,-132.0,6.0,1059.2738078513978,1,1,1,0.0,2.0
2021-09-02 05:31:39.519,1003.0,-7.0,0.0,1003.0244264224076,1,1,1,0.0,2.0
2021-09-02 05:31:39.529,997.0,162.0,0.0,1010.0757397344024,1,1,1,0.0,2.0
2021-09-02 05:31:39.538,1021.0,-9.0,0.0,1021.0396662226204,1,1,1,0.0,2.0
2021-09-02 05:31:39.539,1021.0,-9.0,5.0,1021.0519085727228,1,1,1,0.0,2.0
2021-09-02 05:31:39.548,1009.0,136.0,33.0,1018.658922309131,1,1,1,0.0,2.0
2021-09-02 05:31:39.558,1071.0,-103.0,-9.0,1075.979089016139,1,1,1,0.0,2.0
2021-09-02 05:31:39.568,978.0,127.0,15.0,986.3255040806762,1,1,1,0.0,2.0
2021-09-02 05:31:39.579,1049.0,-143.0,-1.0,1058.7025077896055,1,1,1,0.0,2.0
2021-09-02 05:31:39.587,1018.0,59.0,2.0,1019.7102529640466,1,1,1,0.0,2.0
2021-09-02 05:31:39.597,1067.0,-54.0,3.0,1068.369786169564,1,1,1,0.0,2.0
2021-09-02 05:31:39.607,999.0,93.0,8.0,1003.351384112266,1,1,1,0.0,2.0
2021-09-02 05:31:39.616,1045.0,93.0,8.0,1049.1606168742703,1,1,1,0.0,2.0
2021-09-02 05:31:39.617,1045.0,69.0,9.0,1047.3141839963785,1,1,1,0.0,2.0
2021-09-02 05:31:39.627,1044.0,-123.0,-3.0,1051.2249997027277,1,1,1,0.0,2.0
2021-09-02 05:31:39.636,987.0,124.0,19.0,994.9401992079725,1,1,1,0.0,2.0
2021-09-02 05:31:39.646,1036.0,-98.0,4.0,1040.6324999729732,1,1,1,0.0,2.0
2021-09-02 05:31:39.655,954.0,-98.0,4.0,959.0286752751452,1,1,1,0.0,2.0
2021-09-02 05:31:39.656,954.0,131.0,-20.0,963.159903650479,1,1,1,0.0,2.0
2021-09-02 05:31:39.666,1076.0,-58.0,-20.0,1077.7476513544343,1,1,1,0.0,2.0
2021-09-02 05:31:39.667,1076.0,-58.0,16.0,1077.6808432926698,1,1,1,0.0,2.0
2021-09-02 05:31:39.676,984.0,121.0,-6.0,991.429775627099,1,1,1,0.0,2.0
2021-09-02 05:31:39.685,1046.0,-18.0,29.0,1046.5567352035914,1,1,1,0.0,2.0
2021-09-02 05:31:39.694,999.0,-18.0,29.0,999.5829130192252,1,1,1,0.0,2.0
2021-09-02 05:31:39.695,999.0,-61.0,22.0,1001.1023923655362,1,1,1,0.0,2.0
2021-09-02 05:31:39.704,988.0,5.0,22.0,988.2575575223292,1,1,1,0.0,2.0
2021-09-02 05:31:39.705,988.0,5.0,0.0,988.012651740857,1,1,1,0.0,2.0
2021-09-02 05:31:39.714,1034.0,-22.0,20.0,1034.427377827946,1,1,1,0.0,2.0
2021-09-02 05:31:39.724,951.0,-22.0,20.0,951.4646604052092,1,1,1,0.0,2.0
2021-09-02 05:31:39.725,951.0,140.0,-7.0,961.2751947283358,1,1,1,0.0,2.0
2021-09-02 05:31:39.734,1086.0,-80.0,15.0,1089.0459127144272,1,1,1,0.0,2.0
2021-09-02 05:31:39.743,988.0,140.0,15.0,997.9824647758096,1,1,1,0.0,2.0
2021-09-02 05:31:39.744,988.0,140.0,-9.0,997.9103166116682,1,1,1,0.0,2.0
2021-09-02 05:31:39.753,1013.0,-9.0,18.0,1013.1998815633568,1,1,1,0.0,2.0
2021-09-02 05:31:39.763,979.0,119.0,-16.0,986.3356426693704,1,1,1,0.0,2.0
2021-09-02 05:31:39.773,1013.0,-12.0,-16.0,1013.1974141301388,1,1,1,0.0,2.0
2021-09-02 05:31:39.774,1013.0,-12.0,27.0,1013.4308067154856,1,1,1,0.0,2.0
2021-09-02 05:31:39.782,1040.0,-12.0,27.0,1040.4196268813848,1,1,1,0.0,2.0
2021-09-02 05:31:39.783,1040.0,15.0,23.0,1040.362436845929,1,1,1,0.0,2.0
2021-09-02 05:31:39.792,959.0,202.0,21.0,980.2683306115728,1,1,1,0.0,2.0
2021-09-02 05:31:39.802,1089.0,-19.0,23.0,1089.4085551343903,1,1,1,0.0,2.0
2021-09-02 05:31:39.812,996.0,140.0,6.0,1005.8091270216232,1,1,1,0.0,2.0
2021-09-02 05:31:39.822,1022.0,-22.0,-2.0,1022.2387196736388,1,1,1,0.0,2.0
2021-09-02 05:31:39.832,958.0,191.0,0.0,976.8546463010758,1,1,1,0.0,2.0
2021-09-02 05:31:39.842,1002.0,-4.0,41.0,1002.8464488644312,1,1,1,0.0,2.0
2021-09-02 05:31:39.851,1038.0,48.0,16.0,1039.2324090404418,1,1,1,0.0,2.0
2021-09-02 05:31:39.860,1055.0,48.0,16.0,1056.2125733014163,1,1,1,0.0,2.0
2021-09-02 05:31:39.861,1055.0,-164.0,3.0,1067.6750441965007,1,1,1,0.0,2.0
2021-09-02 05:31:39.870,1004.0,-164.0,3.0,1017.3106703460846,1,1,1,0.0,2.0
2021-09-02 05:31:39.871,1004.0,75.0,-4.0,1006.80534364891,1,1,1,0.0,2.0
2021-09-02 05:31:39.882,975.0,154.0,12.0,987.1600680740688,1,1,1,0.0,2.0
2021-09-02 05:31:39.890,1021.0,-25.0,4.0,1021.313859692504,1,1,1,0.0,2.0
2021-09-02 05:31:39.900,932.0,225.0,21.0,959.004692376424,1,1,1,0.0,2.0
2021-09-02 05:31:39.909,1037.0,-11.0,21.0,1037.2709385690896,1,1,1,0.0,2.0
2021-09-02 05:31:39.910,1037.0,-11.0,23.0,1037.3133567056775,1,1,1,0.0,2.0
2021-09-02 05:31:39.919,979.0,137.0,25.0,988.8553989335346,1,1,1,0.0,2.0
2021-09-02 05:31:39.942,1044.0,-146.0,-8.0,1054.1897362429593,1,1,1,0.0,2.0
2021-09-02 05:31:39.943,992.0,175.0,27.0,1007.6795125435468,1,1,1,0.0,2.0
2021-09-02 05:31:39.948,976.0,175.0,27.0,991.9324573780212,1,1,1,0.0,2.0
2021-09-02 05:31:39.949,976.0,148.0,-14.0,987.2568054969285,1,1,1,0.0,2.0
2021-09-02 05:31:39.958,1016.0,-50.0,15.0,1017.3401594353778,1,1,1,0.0,2.0
2021-09-02 05:31:39.968,1048.0,-11.0,19.0,1048.229936607422,1,1,1,0.0,2.0
2021-09-02 05:31:39.978,1017.0,-85.0,24.0,1020.8280952246564,1,1,1,0.0,2.0
2021-09-02 05:31:39.994,989.0,165.0,12.0,1002.7412427939722,1,1,1,0.0,2.0
2021-09-02 05:31:40.008,1042.0,-112.0,-2.0,1048.0038167869427,1,1,1,0.0,2.0
2021-09-02 05:31:40.012,993.0,191.0,5.0,1011.2146161918348,1,1,1,0.0,2.0
2021-09-02 05:31:40.017,1086.0,-63.0,16.0,1087.9434727962662,1,1,1,0.0,2.0
2021-09-02 05:31:40.027,980.0,148.0,-14.0,991.2113800799503,1,1,1,0.0,2.0
2021-09-02 05:31:40.036,1064.0,-30.0,-14.0,1064.514913000283,1,1,1,0.0,2.0
2021-09-02 05:31:40.037,1064.0,-30.0,30.0,1064.8455287035767,1,1,1,0.0,2.0
2021-09-02 05:31:40.047,1014.0,-30.0,30.0,1014.8871858487524,1,1,1,0.0,2.0
2021-09-02 05:31:40.048,1014.0,-19.0,15.0,1014.28891347584,1,1,1,0.0,2.0
2021-09-02 05:31:40.056,1013.0,158.0,15.0,1025.3574986315748,1,1,1,0.0,2.0
2021-09-02 05:31:40.066,1046.0,-4.0,24.0,1046.2829445231343,1,1,1,0.0,2.0
2021-09-02 05:31:40.075,953.0,-4.0,24.0,953.3105475132436,1,1,1,0.0,2.0
2021-09-02 05:31:40.076,953.0,165.0,7.0,967.2037013990384,1,1,1,0.0,2.0
2021-09-02 05:31:40.086,1088.0,-39.0,21.0,1088.901281108623,1,1,1,0.0,2.0
2021-09-02 05:31:40.096,969.0,122.0,1.0,976.650398044254,1,1,1,0.0,2.0
2021-09-02 05:31:40.105,1061.0,-62.0,22.0,1063.0376286848928,1,1,1,0.0,2.0
2021-09-02 05:31:40.114,1004.0,-62.0,22.0,1006.1530698656144,1,1,1,0.0,2.0
2021-09-02 05:31:40.115,1004.0,-5.0,11.0,1004.0727065307572,1,1,1,0.0,2.0
2021-09-02 05:31:40.124,992.0,1.0,39.0,992.7668407032944,1,1,1,0.0,2.0
2021-09-02 05:31:40.134,1043.0,6.0,17.0,1043.155788940463,1,1,1,0.0,2.0
2021-09-02 05:31:40.144,976.0,207.0,17.0,997.8546988414696,1,1,1,0.0,2.0
2021-09-02 05:31:40.153,1088.0,207.0,17.0,1107.6470556996032,1,1,1,0.0,2.0
2021-09-02 05:31:40.154,1088.0,-51.0,20.0,1089.378263047322,1,1,1,0.0,2.0
2021-09-02 05:31:40.163,969.0,132.0,-6.0,977.9677908806608,1,1,1,0.0,2.0
2021-09-02 05:31:40.173,1025.0,-7.0,-2.0,1025.0258533324904,1,1,1,0.0,2.0
2021-09-02 05:31:40.183,950.0,207.0,10.0,972.3420180162946,1,1,1,0.0,2.0
2021-09-02 05:31:40.193,1003.0,-15.0,32.0,1003.6224389679616,1,1,1,0.0,2.0
2021-09-02 05:31:40.204,1041.0,40.0,4.0,1041.7758876073108,1,1,1,0.0,2.0
2021-09-02 05:31:40.220,971.0,194.0,31.0,990.6755271025928,1,1,1,0.0,2.0
2021-09-02 05:31:40.222,1011.0,114.0,19.0,1017.5843945344288,1,1,1,0.0,2.0
2021-09-02 05:31:40.232,969.0,148.0,6.0,980.2555789180695,1,1,1,0.0,2.0
2021-09-02 05:31:40.246,1042.0,-107.0,7.0,1047.502744626476,1,1,1,0.0,2.0
2021-09-02 05:31:40.253,997.0,31.0,0.0,997.481829408436,1,1,1,0.0,2.0
2021-09-02 05:31:40.261,1030.0,101.0,23.0,1035.195633684764,1,1,1,0.0,2.0
2021-09-02 05:31:40.271,977.0,75.0,7.0,979.8994846411543,1,1,1,0.0,2.0
2021-09-02 05:31:40.281,993.0,75.0,7.0,995.8529007840464,1,1,1,0.0,2.0
2021-09-02 05:31:40.282,993.0,51.0,4.0,994.3168509082002,1,1,1,0.0,2.0
2021-09-02 05:31:40.290,1030.0,49.0,12.0,1031.234696856152,1,1,1,0.0,2.0
2021-09-02 05:31:40.301,992.0,41.0,-3.0,992.8514491100872,1,1,1,0.0,2.0
2021-09-02 05:31:40.310,1008.0,74.0,10.0,1010.7620887231576,1,1,1,0.0,2.0
2021-09-02 05:31:40.320,1013.0,-38.0,2.0,1013.7144568368352,1,1,1,0.0,2.0
2021-09-02 05:31:40.329,986.0,67.0,2.0,988.2757712298728,1,1,1,0.0,2.0
2021-09-02 05:31:40.330,986.0,67.0,13.0,988.3592464281396,1,1,1,0.0,2.0
2021-09-02 05:31:40.339,1026.0,9.0,12.0,1026.1096432643053,1,1,1,0.0,2.0
2021-09-02 05:31:40.349,1010.0,55.0,12.0,1011.5675953686932,1,1,1,0.0,2.0
2021-09-02 05:31:40.350,1010.0,55.0,11.0,1011.556226810947,1,1,1,0.0,2.0
2021-09-02 05:31:40.359,1016.0,34.0,14.0,1016.6651366108704,1,1,1,0.0,2.0
2021-09-02 05:31:40.368,1015.0,34.0,14.0,1015.6657914885192,1,1,1,0.0,2.0
2021-09-02 05:31:40.369,1015.0,34.0,6.0,1015.5870223668674,1,1,1,0.0,2.0
2021-09-02 05:31:40.378,1003.0,40.0,0.0,1003.7972902932144,1,1,1,0.0,2.0
2021-09-02 05:31:40.389,1006.0,41.0,5.0,1006.8475554918928,1,1,1,0.0,2.0
2021-09-02 05:31:40.398,1012.0,51.0,10.0,1013.3336074561032,1,1,1,0.0,2.0
2021-09-02 05:31:40.407,1015.0,51.0,10.0,1016.3296709237608,1,1,1,0.0,2.0
2021-09-02 05:31:40.408,1015.0,38.0,3.0,1015.7155113514808,1,1,1,0.0,2.0
2021-09-02 05:31:40.420,1005.0,54.0,4.0,1006.457649382228,1,1,1,0.0,2.0
