time_stamp,Acceleration_X,Acceleration_Y,Acceleration_Z,magnitude,STD_Status_right,STD_Status_left,STD_Status_both,KMeans,KMeans_convert
2021-09-24 12:07:10.056,1045.0,-141.0,28.0,1054.8412202791471,1,1,1,2.0,2.0
2021-09-24 12:07:10.065,996.0,-94.0,28.0,1000.8176657113922,1,1,1,2.0,2.0
2021-09-24 12:07:10.066,996.0,-94.0,23.0,1000.6902617693448,1,1,1,2.0,2.0
2021-09-24 12:07:10.075,942.0,14.0,-6.0,942.1231342027432,1,1,1,2.0,2.0
2021-09-24 12:07:10.085,1057.0,92.0,2.0,1060.998114984188,1,1,1,2.0,2.0
2021-09-24 12:07:10.095,1034.0,109.0,12.0,1039.7985381793917,1,1,1,2.0,2.0
2021-09-24 12:07:10.105,1086.0,38.0,9.0,1086.7018910446416,1,1,1,2.0,2.0
2021-09-24 12:07:10.115,960.0,-51.0,26.0,961.7052563025742,1,1,1,2.0,2.0
2021-09-24 12:07:10.124,979.0,3.0,50.0,980.2805720812792,1,1,1,2.0,2.0
2021-09-24 12:07:10.134,978.0,175.0,-3.0,993.538122066788,1,1,1,2.0,2.0
2021-09-24 12:07:10.143,1125.0,57.0,-3.0,1126.4470693290475,1,1,1,2.0,2.0
2021-09-24 12:07:10.144,1125.0,57.0,23.0,1126.6778599049508,1,1,1,2.0,2.0
2021-09-24 12:07:10.154,1051.0,36.0,-10.0,1051.6639197005857,1,1,1,2.0,2.0
2021-09-24 12:07:10.163,975.0,-17.0,0.0,975.1481938659376,1,1,1,2.0,2.0
2021-09-24 12:07:10.173,955.0,45.0,14.0,956.1621201449052,1,1,1,2.0,2.0
2021-09-24 12:07:10.182,1013.0,45.0,14.0,1014.0956562376156,1,1,1,2.0,2.0
2021-09-24 12:07:10.183,1013.0,94.0,-31.0,1017.8241498412189,1,1,1,2.0,2.0
2021-09-24 12:07:10.192,1092.0,42.0,2.0,1092.8092239727848,1,1,1,2.0,2.0
2021-09-24 12:07:10.202,982.0,-57.0,-2.0,983.6549191662696,1,1,1,2.0,2.0
2021-09-24 12:07:10.212,1035.0,-78.0,36.0,1038.5590979814292,1,1,1,2.0,2.0
2021-09-24 12:07:10.221,992.0,-78.0,36.0,995.712810000956,1,1,1,2.0,2.0
2021-09-24 12:07:10.222,992.0,37.0,54.0,994.1574322007556,1,1,1,2.0,2.0
2021-09-24 12:07:10.231,1022.0,128.0,26.0,1030.3125739308437,1,1,1,2.0,2.0
2021-09-24 12:07:10.241,1055.0,31.0,-1.0,1055.4558256980724,1,1,1,2.0,2.0
2021-09-24 12:07:10.251,939.0,-71.0,-42.0,942.6165710404204,1,1,1,2.0,2.0
2021-09-24 12:07:10.262,992.0,-78.0,-7.0,995.0864284071008,1,1,1,2.0,2.0
2021-09-24 12:07:10.271,967.0,61.0,-14.0,969.023219536044,1,1,1,2.0,2.0
2021-09-24 12:07:10.280,1057.0,61.0,-14.0,1058.8512643426366,1,1,1,2.0,2.0
2021-09-24 12:07:10.281,1057.0,76.0,-25.0,1060.0235846432852,1,1,1,2.0,2.0
2021-09-24 12:07:10.299,1041.0,110.0,32.0,1047.284584055356,1,1,1,2.0,2.0
2021-09-24 12:07:10.301,988.0,110.0,32.0,994.6195252457092,1,1,1,2.0,2.0
2021-09-24 12:07:10.302,988.0,-16.0,8.0,988.1619300499286,1,1,1,2.0,2.0
2021-09-24 12:07:10.310,979.0,53.0,8.0,980.4662156341748,1,1,1,2.0,2.0
2021-09-24 12:07:10.311,979.0,53.0,25.0,980.7522622966516,1,1,1,2.0,2.0
2021-09-24 12:07:10.320,1008.0,42.0,40.0,1009.6672719267472,1,1,1,2.0,2.0
2021-09-24 12:07:10.329,1011.0,96.0,-10.0,1015.5968688411756,1,1,1,2.0,2.0
2021-09-24 12:07:10.342,1043.0,46.0,-10.0,1044.0617797812542,1,1,1,2.0,2.0
2021-09-24 12:07:10.343,1043.0,46.0,9.0,1044.052680663193,1,1,1,2.0,2.0
2021-09-24 12:07:10.348,952.0,-27.0,9.0,952.425325156781,1,1,1,2.0,2.0
2021-09-24 12:07:10.349,952.0,-27.0,-7.0,952.4085257913224,1,1,1,2.0,2.0
2021-09-24 12:07:10.358,1018.0,-27.0,-7.0,1018.3820501167526,1,1,1,2.0,2.0
2021-09-24 12:07:10.359,1018.0,13.0,33.0,1018.6176907947358,1,1,1,2.0,2.0
2021-09-24 12:07:10.368,1074.0,13.0,33.0,1074.585501484177,1,1,1,2.0,2.0
2021-09-24 12:07:10.369,1074.0,84.0,25.0,1077.5699513256668,1,1,1,2.0,2.0
2021-09-24 12:07:10.378,1029.0,120.0,25.0,1036.2750600106133,1,1,1,2.0,2.0
2021-09-24 12:07:10.379,1029.0,120.0,-14.0,1036.068047958241,1,1,1,2.0,2.0
2021-09-24 12:07:10.387,1043.0,120.0,-14.0,1049.9738091971628,1,1,1,2.0,2.0
2021-09-24 12:07:10.388,1043.0,64.0,9.0,1045.00047846879,1,1,1,2.0,2.0
2021-09-24 12:07:10.397,981.0,14.0,-21.0,981.3246149975042,1,1,1,2.0,2.0
2021-09-24 12:07:10.407,971.0,89.0,6.0,975.0887139127392,1,1,1,2.0,2.0
2021-09-24 12:07:10.418,1001.0,-2.0,-10.0,1001.051946704066,1,1,1,2.0,2.0
2021-09-24 12:07:10.427,1047.0,10.0,7.0,1047.0711532651446,1,1,1,2.0,2.0
2021-09-24 12:07:10.436,1017.0,13.0,4.0,1017.0909497188538,1,1,1,2.0,2.0
2021-09-24 12:07:10.446,964.0,-67.0,-15.0,966.4419278984124,1,1,1,2.0,2.0
2021-09-24 12:07:10.456,1005.0,2.0,45.0,1006.0089462822884,1,1,1,2.0,2.0
2021-09-24 12:07:10.473,1060.0,80.0,18.0,1063.166967131692,1,1,1,2.0,2.0
2021-09-24 12:07:10.476,1045.0,-4.0,18.0,1045.1626667653222,1,1,1,2.0,2.0
2021-09-24 12:07:10.477,1045.0,-4.0,1.0,1045.008133939636,1,1,1,2.0,2.0
2021-09-24 12:07:10.485,971.0,-3.0,1.0,971.0051493169332,1,1,1,2.0,2.0
2021-09-24 12:07:10.486,971.0,-3.0,-17.0,971.1534379283224,1,1,1,2.0,2.0
2021-09-24 12:07:10.496,965.0,21.0,0.0,965.2284703633644,1,1,1,2.0,2.0
2021-09-24 12:07:10.505,977.0,74.0,3.0,979.8030414323076,1,1,1,2.0,2.0
2021-09-24 12:07:10.514,1028.0,74.0,3.0,1030.66434885466,1,1,1,2.0,2.0
2021-09-24 12:07:10.515,1028.0,-35.0,-7.0,1028.6194631640994,1,1,1,2.0,2.0
2021-09-24 12:07:10.524,1028.0,-11.0,5.0,1028.0710092206666,1,1,1,2.0,2.0
2021-09-24 12:07:10.534,975.0,-42.0,11.0,975.966187938906,1,1,1,2.0,2.0
2021-09-24 12:07:10.544,943.0,25.0,-3.0,943.336101291581,1,1,1,2.0,2.0
2021-09-24 12:07:10.553,973.0,25.0,-3.0,973.3257419795286,1,1,1,2.0,2.0
2021-09-24 12:07:10.554,973.0,100.0,0.0,978.1252476038026,1,1,1,2.0,2.0
2021-09-24 12:07:10.564,1073.0,7.0,16.0,1073.1421154721309,1,1,1,2.0,2.0
2021-09-24 12:07:10.573,1085.0,-35.0,37.0,1086.1947339220533,1,1,1,2.0,2.0
2021-09-24 12:07:10.584,997.0,-19.0,6.0,997.1990774163402,1,1,1,2.0,2.0
2021-09-24 12:07:10.593,1055.0,-4.0,-39.0,1055.7281847142283,1,1,1,2.0,2.0
2021-09-24 12:07:10.603,994.0,121.0,-39.0,1002.0968017112916,1,1,1,2.0,2.0
2021-09-24 12:07:10.604,994.0,121.0,23.0,1001.601717250924,1,1,1,2.0,2.0
2021-09-24 12:07:10.612,1032.0,-23.0,-25.0,1032.5589571545056,1,1,1,2.0,2.0
2021-09-24 12:07:10.622,1037.0,1.0,4.0,1037.0081966889172,1,1,1,2.0,2.0
2021-09-24 12:07:10.633,1003.0,-32.0,20.0,1003.709619362094,1,1,1,2.0,2.0
2021-09-24 12:07:10.641,1040.0,-32.0,20.0,1040.684390197143,1,1,1,2.0,2.0
2021-09-24 12:07:10.642,1040.0,74.0,52.0,1043.925284682769,1,1,1,2.0,2.0
2021-09-24 12:07:10.652,997.0,112.0,3.0,1003.2756351073218,1,1,1,2.0,2.0
2021-09-24 12:07:10.661,1089.0,-22.0,-2.0,1089.2240357245153,1,1,1,2.0,2.0
2021-09-24 12:07:10.671,1031.0,-67.0,25.0,1033.477140530936,1,1,1,2.0,2.0
2021-09-24 12:07:10.680,991.0,-67.0,25.0,993.5768717114948,1,1,1,2.0,2.0
2021-09-24 12:07:10.681,991.0,-98.0,12.0,995.906120073574,1,1,1,2.0,2.0
2021-09-24 12:07:10.690,1089.0,57.0,12.0,1090.5567385514612,1,1,1,2.0,2.0
2021-09-24 12:07:10.691,1089.0,57.0,13.0,1090.5682005266797,1,1,1,2.0,2.0
2021-09-24 12:07:10.700,1026.0,171.0,-32.0,1040.6445118290876,1,1,1,2.0,2.0
2021-09-24 12:07:10.710,985.0,-81.0,-23.0,988.5924337157352,1,1,1,2.0,2.0
2021-09-24 12:07:10.720,952.0,32.0,-25.0,952.865677837123,1,1,1,2.0,2.0
2021-09-24 12:07:10.729,1008.0,32.0,-25.0,1008.8176247469112,1,1,1,2.0,2.0
2021-09-24 12:07:10.730,1008.0,-143.0,14.0,1018.1890787078792,1,1,1,2.0,2.0
2021-09-24 12:07:10.740,1035.0,30.0,57.0,1037.0024107975837,1,1,1,2.0,2.0
2021-09-24 12:07:10.759,1035.0,72.0,5.0,1037.513373407784,1,1,1,2.0,2.0
2021-09-24 12:07:10.764,1004.0,29.0,13.0,1004.5028621163804,1,1,1,2.0,2.0
2021-09-24 12:07:10.770,1030.0,29.0,13.0,1030.4901746256487,1,1,1,2.0,2.0
2021-09-24 12:07:10.771,1030.0,-10.0,21.0,1030.2625878871852,1,1,1,2.0,2.0
2021-09-24 12:07:10.778,972.0,-10.0,21.0,972.278252353718,1,1,1,2.0,2.0
2021-09-24 12:07:10.779,972.0,-46.0,-12.0,973.1618570412631,1,1,1,2.0,2.0
2021-09-24 12:07:10.792,1022.0,-46.0,-12.0,1023.1050776924136,1,1,1,2.0,2.0
2021-09-24 12:07:10.793,1022.0,18.0,-5.0,1022.1707293793928,1,1,1,2.0,2.0
2021-09-24 12:07:10.819,1028.0,44.0,-26.0,1029.2696439709082,1,1,1,2.0,2.0
2021-09-24 12:07:10.833,982.0,97.0,-4.0,986.7872111048056,1,1,1,2.0,2.0
2021-09-24 12:07:10.835,990.0,-112.0,29.0,996.7371769930126,1,1,1,2.0,2.0
2021-09-24 12:07:10.840,1003.0,57.0,29.0,1005.0368152460884,1,1,1,2.0,2.0
2021-09-24 12:07:10.841,1003.0,57.0,12.0,1004.6900019408972,1,1,1,2.0,2.0
2021-09-24 12:07:10.846,1072.0,57.0,12.0,1073.5813895555382,1,1,1,2.0,2.0
2021-09-24 12:07:10.847,1072.0,48.0,-5.0,1073.085737487923,1,1,1,2.0,2.0
2021-09-24 12:07:10.856,1028.0,44.0,-5.0,1028.9533517123116,1,1,1,2.0,2.0
2021-09-24 12:07:10.857,1028.0,44.0,45.0,1029.924754533068,1,1,1,2.0,2.0
2021-09-24 12:07:10.866,999.0,19.0,23.0,999.4453461795696,1,1,1,2.0,2.0
2021-09-24 12:07:10.876,995.0,-51.0,31.0,996.788342628464,1,1,1,2.0,2.0
2021-09-24 12:07:10.887,1058.0,65.0,-2.0,1059.996698108065,1,1,1,2.0,2.0
2021-09-24 12:07:10.903,1025.0,65.0,-2.0,1027.0608550616655,1,1,1,2.0,2.0
2021-09-24 12:07:10.904,1025.0,29.0,-29.0,1025.820159677124,1,1,1,2.0,2.0
2021-09-24 12:07:10.906,953.0,24.0,-38.0,954.0592224804496,1,1,1,2.0,2.0
2021-09-24 12:07:10.915,991.0,54.0,-38.0,993.1973620585186,1,1,1,2.0,2.0
2021-09-24 12:07:10.916,991.0,54.0,-10.0,992.5205287549472,1,1,1,2.0,2.0
2021-09-24 12:07:10.927,998.0,157.0,-7.0,1010.29797584673,1,1,1,2.0,2.0
2021-09-24 12:07:10.934,1045.0,61.0,-7.0,1046.8022735932511,1,1,1,2.0,2.0
2021-09-24 12:07:10.935,1045.0,61.0,25.0,1047.0773610388107,1,1,1,2.0,2.0
2021-09-24 12:07:10.944,1037.0,105.0,25.0,1042.6020333761105,1,1,1,2.0,2.0
2021-09-24 12:07:10.945,1037.0,105.0,23.0,1042.5559937000985,1,1,1,2.0,2.0
2021-09-24 12:07:10.954,1006.0,-7.0,17.0,1006.1679780235504,1,1,1,2.0,2.0
2021-09-24 12:07:10.964,1008.0,3.0,38.0,1008.7204766435548,1,1,1,2.0,2.0
2021-09-24 12:07:10.974,1012.0,3.0,38.0,1012.717630931742,1,1,1,2.0,2.0
2021-09-24 12:07:10.975,1012.0,110.0,10.0,1018.0098231353172,1,1,1,2.0,2.0
2021-09-24 12:07:10.984,1021.0,31.0,0.0,1021.4705086295932,1,1,1,2.0,2.0
2021-09-24 12:07:10.993,1057.0,14.0,-16.0,1057.2137910564732,1,1,1,2.0,2.0
2021-09-24 12:07:11.003,981.0,-35.0,-11.0,981.6857949466316,1,1,1,2.0,2.0
2021-09-24 12:07:11.012,957.0,-35.0,-11.0,957.7029810959136,1,1,1,2.0,2.0
2021-09-24 12:07:11.013,957.0,79.0,-13.0,960.3431678311664,1,1,1,2.0,2.0
2021-09-24 12:07:11.023,987.0,135.0,-5.0,996.2022886944196,1,1,1,2.0,2.0
2021-09-24 12:07:11.032,1074.0,30.0,-4.0,1074.4263585746585,1,1,1,2.0,2.0
2021-09-24 12:07:11.042,1056.0,58.0,22.0,1057.820400635193,1,1,1,2.0,2.0
2021-09-24 12:07:11.052,1013.0,-37.0,39.0,1014.4254531506984,1,1,1,2.0,2.0
2021-09-24 12:07:11.061,963.0,-37.0,39.0,964.499351995635,1,1,1,2.0,2.0
2021-09-24 12:07:11.062,963.0,26.0,40.0,964.1809996053646,1,1,1,2.0,2.0
2021-09-24 12:07:11.071,996.0,165.0,-6.0,1009.5924920481532,1,1,1,2.0,2.0
2021-09-24 12:07:11.082,1078.0,12.0,-2.0,1078.0686434545808,1,1,1,2.0,2.0
2021-09-24 12:07:11.091,958.0,-42.0,9.0,958.9624601620231,1,1,1,2.0,2.0
2021-09-24 12:07:11.100,963.0,-42.0,9.0,963.9574679414025,1,1,1,2.0,2.0
2021-09-24 12:07:11.101,963.0,-100.0,-20.0,968.3847375914182,1,1,1,2.0,2.0
2021-09-24 12:07:11.110,986.0,-15.0,-17.0,986.260614645034,1,1,1,2.0,2.0
2021-09-24 12:07:11.120,976.0,185.0,-24.0,993.6684557738562,1,1,1,2.0,2.0
2021-09-24 12:07:11.131,1057.0,104.0,-2.0,1062.1059269206626,1,1,1,2.0,2.0
2021-09-24 12:07:11.140,1047.0,-57.0,4.0,1048.5580575247134,1,1,1,2.0,2.0
2021-09-24 12:07:11.149,947.0,46.0,0.0,948.1165540164352,1,1,1,2.0,2.0
2021-09-24 12:07:11.159,999.0,27.0,17.0,999.509379645834,1,1,1,2.0,2.0
2021-09-24 12:07:11.169,996.0,93.0,-19.0,1000.5128684829596,1,1,1,2.0,2.0
2021-09-24 12:07:11.179,1059.0,15.0,29.0,1059.5031854600531,1,1,1,2.0,2.0
2021-09-24 12:07:11.188,983.0,15.0,29.0,983.54206824111,1,1,1,2.0,2.0
2021-09-24 12:07:11.189,983.0,15.0,23.0,983.3834450508102,1,1,1,2.0,2.0
2021-09-24 12:07:11.198,1022.0,-20.0,17.0,1022.3370285771712,1,1,1,2.0,2.0
2021-09-24 12:07:11.212,1057.0,-20.0,17.0,1057.3258721888917,1,1,1,2.0,2.0
2021-09-24 12:07:11.213,1057.0,51.0,13.0,1058.309501044,1,1,1,2.0,2.0
2021-09-24 12:07:11.218,992.0,140.0,-20.0,1002.0299396724632,1,1,1,2.0,2.0
2021-09-24 12:07:11.227,1061.0,21.0,-20.0,1061.3962502289144,1,1,1,2.0,2.0
2021-09-24 12:07:11.228,1061.0,21.0,-1.0,1061.2082736202165,1,1,1,2.0,2.0
2021-09-24 12:07:11.239,926.0,62.0,-19.0,928.2677415487408,1,1,1,2.0,2.0
2021-09-24 12:07:11.248,1001.0,4.0,17.0,1001.1523360608016,1,1,1,2.0,2.0
2021-09-24 12:07:11.257,1047.0,28.0,22.0,1047.6053646292578,1,1,1,2.0,2.0
2021-09-24 12:07:11.266,987.0,28.0,22.0,987.6421416687322,1,1,1,2.0,2.0
2021-09-24 12:07:11.267,987.0,80.0,-6.0,990.2550176595926,1,1,1,2.0,2.0
2021-09-24 12:07:11.276,1057.0,24.0,9.0,1057.3107395652426,1,1,1,2.0,2.0
2021-09-24 12:07:11.287,961.0,31.0,-9.0,961.541990762754,1,1,1,2.0,2.0
2021-09-24 12:07:11.296,1010.0,35.0,23.0,1010.867943897718,1,1,1,2.0,2.0
2021-09-24 12:07:11.314,1067.0,20.0,40.0,1067.9367958826028,1,1,1,2.0,2.0
2021-09-24 12:07:11.317,1045.0,-16.0,27.0,1045.4711856383226,1,1,1,2.0,2.0
2021-09-24 12:07:11.325,1074.0,-16.0,27.0,1074.4584682527286,1,1,1,2.0,2.0
2021-09-24 12:07:11.326,1074.0,44.0,22.0,1075.1260391228557,1,1,1,2.0,2.0
2021-09-24 12:07:11.336,995.0,-47.0,-1.0,996.10993369206,1,1,1,2.0,2.0
2021-09-24 12:07:11.344,977.0,-47.0,-1.0,978.1303594102372,1,1,1,2.0,2.0
2021-09-24 12:07:11.345,977.0,62.0,1.0,978.9657808115664,1,1,1,2.0,2.0
2021-09-24 12:07:11.354,1001.0,37.0,1.0,1001.6840819340198,1,1,1,2.0,2.0
2021-09-24 12:07:11.355,1001.0,37.0,-12.0,1001.755459181531,1,1,1,2.0,2.0
2021-09-24 12:07:11.365,1040.0,6.0,22.0,1040.249969959144,1,1,1,2.0,2.0
2021-09-24 12:07:11.374,1063.0,-4.0,-6.0,1063.024458796692,1,1,1,2.0,2.0
2021-09-24 12:07:11.385,960.0,-20.0,3.0,960.212997204266,1,1,1,2.0,2.0
2021-09-24 12:07:11.393,1058.0,20.0,3.0,1058.1932715718806,1,1,1,2.0,2.0
2021-09-24 12:07:11.394,1058.0,20.0,52.0,1059.4659031795218,1,1,1,2.0,2.0
2021-09-24 12:07:11.403,1056.0,62.0,14.0,1057.9111493882651,1,1,1,2.0,2.0
2021-09-24 12:07:11.413,1042.0,62.0,14.0,1043.9367796950155,1,1,1,2.0,2.0
2021-09-24 12:07:11.414,1042.0,-52.0,8.0,1043.3273695250211,1,1,1,2.0,2.0
2021-09-24 12:07:11.424,950.0,-103.0,-2.0,955.5694637230724,1,1,1,2.0,2.0
2021-09-24 12:07:11.432,934.0,-103.0,-2.0,939.6643017588782,1,1,1,2.0,2.0
2021-09-24 12:07:11.433,934.0,2.0,-23.0,934.2852883354204,1,1,1,2.0,2.0
2021-09-24 12:07:11.443,982.0,40.0,-17.0,982.961342067937,1,1,1,2.0,2.0
2021-09-24 12:07:11.452,1061.0,77.0,19.0,1063.960055641188,1,1,1,2.0,2.0
2021-09-24 12:07:11.462,1003.0,40.0,6.0,1003.8152220403912,1,1,1,2.0,2.0
2021-09-24 12:07:11.472,1008.0,40.0,6.0,1008.8111815399352,1,1,1,2.0,2.0
2021-09-24 12:07:11.473,1008.0,-99.0,23.0,1013.1110501815682,1,1,1,2.0,2.0
2021-09-24 12:07:11.488,1011.0,42.0,20.0,1012.06966163402,1,1,1,2.0,2.0
2021-09-24 12:07:11.492,1005.0,42.0,20.0,1006.0760408637112,1,1,1,2.0,2.0
2021-09-24 12:07:11.493,1005.0,2.0,32.0,1005.5113127160728,1,1,1,2.0,2.0
2021-09-24 12:07:11.501,1042.0,81.0,21.0,1045.3544853302155,1,1,1,2.0,2.0
2021-09-24 12:07:11.512,1073.0,-43.0,20.0,1074.047484983788,1,1,1,2.0,2.0
2021-09-24 12:07:11.520,969.0,-58.0,20.0,970.9402659278272,1,1,1,2.0,2.0
2021-09-24 12:07:11.521,969.0,-58.0,7.0,970.7594964768564,1,1,1,2.0,2.0
2021-09-24 12:07:11.530,1031.0,52.0,0.0,1032.310515300508,1,1,1,2.0,2.0
2021-09-24 12:07:11.540,990.0,57.0,23.0,991.9062455696104,1,1,1,2.0,2.0
2021-09-24 12:07:11.550,1071.0,34.0,1.0,1071.540013251955,1,1,1,2.0,2.0
2021-09-24 12:07:11.560,1062.0,39.0,20.0,1062.904040824006,1,1,1,2.0,2.0
2021-09-24 12:07:11.569,993.0,-75.0,11.0,995.8890500452349,1,1,1,2.0,2.0
2021-09-24 12:07:11.579,1059.0,52.0,26.0,1060.5946445273048,1,1,1,2.0,2.0
2021-09-24 12:07:11.589,1007.0,118.0,6.0,1013.9077867340797,1,1,1,2.0,2.0
2021-09-24 12:07:11.599,1030.0,102.0,-3.0,1035.04251120425,1,1,1,2.0,2.0
2021-09-24 12:07:11.608,1062.0,-71.0,7.0,1064.3937241453466,1,1,1,2.0,2.0
2021-09-24 12:07:11.618,971.0,-71.0,7.0,973.6174813549724,1,1,1,2.0,2.0
2021-09-24 12:07:11.619,971.0,-49.0,0.0,972.2355681623668,1,1,1,2.0,2.0
2021-09-24 12:07:11.628,1047.0,26.0,2.0,1047.324687000168,1,1,1,2.0,2.0
2021-09-24 12:07:11.638,1028.0,88.0,0.0,1031.7596619368292,1,1,1,2.0,2.0
2021-09-24 12:07:11.647,992.0,34.0,0.0,992.5824902747378,1,1,1,2.0,2.0
2021-09-24 12:07:11.648,992.0,34.0,0.0,992.5824902747378,1,1,1,2.0,2.0
2021-09-24 12:07:11.657,1011.0,63.0,18.0,1013.1209207197332,1,1,1,2.0,2.0
2021-09-24 12:07:11.668,1025.0,-112.0,5.0,1031.1129908986698,1,1,1,2.0,2.0
2021-09-24 12:07:11.677,1032.0,4.0,19.0,1032.182638877442,1,1,1,2.0,2.0
2021-09-24 12:07:11.687,1006.0,132.0,0.0,1014.6230827257972,1,1,1,2.0,2.0
2021-09-24 12:07:11.697,1065.0,38.0,18.0,1065.829723736395,1,1,1,2.0,2.0
2021-09-24 12:07:11.706,984.0,73.0,0.0,986.704109649899,1,1,1,2.0,2.0
2021-09-24 12:07:11.716,992.0,-27.0,0.0,992.367371491022,1,1,1,2.0,2.0
2021-09-24 12:07:11.717,992.0,-27.0,12.0,992.439922614966,1,1,1,2.0,2.0
2021-09-24 12:07:11.725,1063.0,102.0,12.0,1067.9499051921864,1,1,1,2.0,2.0
2021-09-24 12:07:11.726,1063.0,102.0,7.0,1067.905426524278,1,1,1,2.0,2.0
2021-09-24 12:07:11.735,1006.0,68.0,7.0,1008.319889717544,1,1,1,2.0,2.0
2021-09-24 12:07:11.736,1006.0,68.0,-24.0,1008.5811816606534,1,1,1,2.0,2.0
2021-09-24 12:07:11.745,1005.0,68.0,-24.0,1007.5837434178858,1,1,1,2.0,2.0
2021-09-24 12:07:11.746,1005.0,0.0,-6.0,1005.01791028817,1,1,1,2.0,2.0
2021-09-24 12:07:11.755,958.0,37.0,-29.0,959.1527511298708,1,1,1,2.0,2.0
2021-09-24 12:07:11.764,1013.0,37.0,-29.0,1014.0902326716296,1,1,1,2.0,2.0
2021-09-24 12:07:11.765,1013.0,131.0,4.0,1021.4430967998168,1,1,1,2.0,2.0
2021-09-24 12:07:11.775,1052.0,51.0,39.0,1053.9573046380958,1,1,1,2.0,2.0
2021-09-24 12:07:11.784,1002.0,114.0,-9.0,1008.5043381165992,1,1,1,2.0,2.0
2021-09-24 12:07:11.794,996.0,4.0,-9.0,996.0486935888224,1,1,1,2.0,2.0
2021-09-24 12:07:11.795,996.0,4.0,-17.0,996.1531006828218,1,1,1,2.0,2.0
2021-09-24 12:07:11.804,1003.0,10.0,9.0,1003.09022525394,1,1,1,2.0,2.0
2021-09-24 12:07:11.813,1016.0,140.0,13.0,1025.6826994738676,1,1,1,2.0,2.0
2021-09-24 12:07:11.824,1044.0,86.0,16.0,1047.6583412544378,1,1,1,2.0,2.0
2021-09-24 12:07:11.841,1038.0,51.0,-17.0,1039.3911679440037,1,1,1,2.0,2.0
2021-09-24 12:07:11.843,1004.0,-11.0,-17.0,1004.2041625087998,1,1,1,2.0,2.0
2021-09-24 12:07:11.844,1004.0,-11.0,16.0,1004.1877314526404,1,1,1,2.0,2.0
2021-09-24 12:07:11.852,1016.0,-14.0,16.0,1016.2224165998308,1,1,1,2.0,2.0
2021-09-24 12:07:11.853,1016.0,-14.0,-20.0,1016.2932647617024,1,1,1,2.0,2.0
2021-09-24 12:07:11.863,976.0,142.0,-2.0,986.2778513177714,1,1,1,2.0,2.0
2021-09-24 12:07:11.873,1070.0,90.0,-1.0,1073.7788412890245,1,1,1,2.0,2.0
2021-09-24 12:07:11.882,1070.0,57.0,2.0,1071.5190152302478,1,1,1,2.0,2.0
2021-09-24 12:07:11.891,1027.0,57.0,2.0,1028.5825197814709,1,1,1,2.0,2.0
2021-09-24 12:07:11.892,1027.0,-13.0,-15.0,1027.1918029267952,1,1,1,2.0,2.0
2021-09-24 12:07:11.901,977.0,-8.0,-22.0,977.280410117792,1,1,1,2.0,2.0
2021-09-24 12:07:11.918,991.0,-8.0,-22.0,991.2764498362704,1,1,1,2.0,2.0
2021-09-24 12:07:11.919,991.0,132.0,11.0,999.8129825122296,1,1,1,2.0,2.0
2021-09-24 12:07:11.921,1066.0,31.0,9.0,1066.4886309755018,1,1,1,2.0,2.0
2021-09-24 12:07:11.930,1032.0,31.0,9.0,1032.5047215388413,1,1,1,2.0,2.0
2021-09-24 12:07:11.931,1032.0,24.0,-34.0,1032.8388063972036,1,1,1,2.0,2.0
2021-09-24 12:07:11.941,1025.0,-69.0,-17.0,1027.460461526379,1,1,1,2.0,2.0
2021-09-24 12:07:11.950,978.0,38.0,-11.0,978.799775234956,1,1,1,2.0,2.0
2021-09-24 12:07:11.960,1013.0,212.0,14.0,1035.0405789146623,1,1,1,2.0,2.0
2021-09-24 12:07:11.969,1044.0,212.0,14.0,1065.3994556033902,1,1,1,2.0,2.0
2021-09-24 12:07:11.970,1044.0,61.0,-18.0,1045.9354664605269,1,1,1,2.0,2.0
2021-09-24 12:07:11.979,994.0,9.0,-18.0,994.203701461627,1,1,1,2.0,2.0
2021-09-24 12:07:11.980,994.0,9.0,-7.0,994.0653902032803,1,1,1,2.0,2.0
2021-09-24 12:07:11.989,1002.0,20.0,12.0,1002.271420324854,1,1,1,2.0,2.0
2021-09-24 12:07:12.000,989.0,33.0,33.0,990.1004999493738,1,1,1,2.0,2.0
2021-09-24 12:07:12.012,996.0,100.0,13.0,1001.091903872966,1,1,1,2.0,2.0
2021-09-24 12:07:12.018,1013.0,100.0,13.0,1018.0068762046748,1,1,1,2.0,2.0
2021-09-24 12:07:12.019,1013.0,38.0,11.0,1013.7721637527832,1,1,1,2.0,2.0
2021-09-24 12:07:12.028,999.0,-63.0,11.0,1001.0449540355318,1,1,1,2.0,2.0
2021-09-24 12:07:12.038,1019.0,-67.0,15.0,1021.3104327284628,1,1,1,2.0,2.0
2021-09-24 12:07:12.049,983.0,43.0,0.0,983.9400388235048,1,1,1,2.0,2.0
2021-09-24 12:07:12.058,997.0,120.0,-3.0,1004.200179247146,1,1,1,2.0,2.0
2021-09-24 12:07:12.068,1044.0,82.0,4.0,1047.2229943999512,1,1,1,2.0,2.0
2021-09-24 12:07:12.077,996.0,-58.0,-16.0,997.8156142294026,1,1,1,2.0,2.0
2021-09-24 12:07:12.087,961.0,71.0,-8.0,963.6524269673168,1,1,1,2.0,2.0
2021-09-24 12:07:12.097,970.0,71.0,-8.0,972.6278836225084,1,1,1,2.0,2.0
2021-09-24 12:07:12.098,970.0,51.0,27.0,971.7149787875044,1,1,1,2.0,2.0
2021-09-24 12:07:12.106,998.0,57.0,-5.0,999.6389348159664,1,1,1,2.0,2.0
2021-09-24 12:07:12.116,1065.0,47.0,29.0,1066.4309635414756,1,1,1,2.0,2.0
2021-09-24 12:07:12.126,1005.0,-61.0,27.0,1007.211497154396,1,1,1,2.0,2.0
2021-09-24 12:07:12.136,980.0,49.0,-25.0,981.542663362118,1,1,1,2.0,2.0
2021-09-24 12:07:12.146,1056.0,146.0,29.0,1066.4394028729434,1,1,1,2.0,2.0
2021-09-24 12:07:12.156,1002.0,182.0,2.0,1018.396779256494,1,1,1,2.0,2.0
2021-09-24 12:07:12.165,1057.0,52.0,-19.0,1058.44886508513,1,1,1,2.0,2.0
2021-09-24 12:07:12.175,945.0,24.0,-6.0,945.3237540652408,1,1,1,2.0,2.0
2021-09-24 12:07:12.184,953.0,24.0,-6.0,953.3210372167396,1,1,1,2.0,2.0
2021-09-24 12:07:12.185,953.0,99.0,16.0,958.2619683572964,1,1,1,2.0,2.0
2021-09-24 12:07:12.194,1065.0,36.0,17.0,1065.743871668986,1,1,1,2.0,2.0
2021-09-24 12:07:12.205,1014.0,-15.0,-17.0,1014.2534200090232,1,1,1,2.0,2.0
2021-09-24 12:07:12.214,1042.0,27.0,-1.0,1042.350229049718,1,1,1,2.0,2.0
2021-09-24 12:07:12.224,973.0,-57.0,6.0,974.6866163029016,1,1,1,2.0,2.0
2021-09-24 12:07:12.233,1001.0,-9.0,9.0,1001.0809158105052,1,1,1,2.0,2.0
2021-09-24 12:07:12.245,1093.0,22.0,28.0,1093.579901058903,1,1,1,2.0,2.0
2021-09-24 12:07:12.253,1057.0,57.0,15.0,1058.6420547097116,1,1,1,2.0,2.0
2021-09-24 12:07:12.263,983.0,-61.0,1.0,984.8913645676868,1,1,1,2.0,2.0
2021-09-24 12:07:12.272,942.0,-1.0,-32.0,942.543898181936,1,1,1,2.0,2.0
2021-09-24 12:07:12.282,962.0,45.0,-2.0,963.0539964093394,1,1,1,2.0,2.0
2021-09-24 12:07:12.292,1046.0,44.0,30.0,1047.3547632010846,1,1,1,2.0,2.0
2021-09-24 12:07:12.301,1056.0,44.0,30.0,1057.341950364214,1,1,1,2.0,2.0
2021-09-24 12:07:12.302,1056.0,48.0,17.0,1057.2270333282252,1,1,1,2.0,2.0
2021-09-24 12:07:12.323,950.0,-57.0,52.0,953.1280081919742,1,1,1,2.0,2.0
2021-09-24 12:07:12.327,957.0,-59.0,23.0,959.0928005151536,1,1,1,2.0,2.0
2021-09-24 12:07:12.331,993.0,65.0,36.0,995.7760792467352,1,1,1,2.0,2.0
2021-09-24 12:07:12.341,1088.0,36.0,3.0,1088.5995590666018,1,1,1,2.0,2.0
2021-09-24 12:07:12.350,1035.0,36.0,3.0,1035.6302428956003,1,1,1,2.0,2.0
2021-09-24 12:07:12.351,1035.0,29.0,-2.0,1035.408132090916,1,1,1,2.0,2.0
2021-09-24 12:07:12.360,989.0,-57.0,-9.0,990.6820882604064,1,1,1,2.0,2.0
2021-09-24 12:07:12.371,1069.0,-55.0,18.0,1070.565271246924,1,1,1,2.0,2.0
2021-09-24 12:07:12.380,951.0,107.0,18.0,957.1697864015558,1,1,1,2.0,2.0
2021-09-24 12:07:12.389,1065.0,107.0,18.0,1070.512961154605,1,1,1,2.0,2.0
2021-09-24 12:07:12.390,1065.0,69.0,24.0,1067.5026932050337,1,1,1,2.0,2.0
2021-09-24 12:07:12.399,1021.0,86.0,5.0,1024.627737278276,1,1,1,2.0,2.0
2021-09-24 12:07:12.409,991.0,-51.0,18.0,992.4746848156884,1,1,1,2.0,2.0
2021-09-24 12:07:12.422,1026.0,19.0,12.0,1026.2460718560633,1,1,1,2.0,2.0
2021-09-24 12:07:12.429,1019.0,34.0,18.0,1019.7259435750371,1,1,1,2.0,2.0
2021-09-24 12:07:12.438,1058.0,20.0,18.0,1058.342099701226,1,1,1,2.0,2.0
2021-09-24 12:07:12.439,1058.0,20.0,1.0,1058.1894915373143,1,1,1,2.0,2.0
2021-09-24 12:07:12.448,1039.0,20.0,1.0,1039.19295609622,1,1,1,2.0,2.0
2021-09-24 12:07:12.449,1039.0,-33.0,10.0,1039.5720273266302,1,1,1,2.0,2.0
2021-09-24 12:07:12.458,965.0,-70.0,-12.0,967.6099420737676,1,1,1,2.0,2.0
2021-09-24 12:07:12.469,1038.0,73.0,-19.0,1040.7372386918803,1,1,1,2.0,2.0
2021-09-24 12:07:12.477,1011.0,100.0,-19.0,1016.111214385512,1,1,1,2.0,2.0
2021-09-24 12:07:12.478,1011.0,100.0,-30.0,1016.3764066525748,1,1,1,2.0,2.0
2021-09-24 12:07:12.487,1046.0,90.0,17.0,1050.0023809496815,1,1,1,2.0,2.0
2021-09-24 12:07:12.504,1058.0,-15.0,27.0,1058.4507546409516,1,1,1,2.0,2.0
2021-09-24 12:07:12.507,969.0,-37.0,0.0,969.7061410551136,1,1,1,2.0,2.0
2021-09-24 12:07:12.517,1035.0,40.0,9.0,1035.8117589600922,1,1,1,2.0,2.0
2021-09-24 12:07:12.526,1022.0,70.0,-14.0,1024.4901170826392,1,1,1,2.0,2.0
2021-09-24 12:07:12.537,1024.0,49.0,7.0,1025.1955910946945,1,1,1,2.0,2.0
2021-09-24 12:07:12.546,1096.0,2.0,23.0,1096.243129967071,1,1,1,2.0,2.0
2021-09-24 12:07:12.555,1003.0,2.0,23.0,1003.2656677072132,1,1,1,2.0,2.0
2021-09-24 12:07:12.556,1003.0,-41.0,-12.0,1003.9093584582224,1,1,1,2.0,2.0
2021-09-24 12:07:12.565,991.0,69.0,-12.0,993.4716905881112,1,1,1,2.0,2.0
2021-09-24 12:07:12.566,991.0,69.0,-3.0,993.4037447080618,1,1,1,2.0,2.0
2021-09-24 12:07:12.575,1014.0,69.0,-3.0,1016.349349387306,1,1,1,2.0,2.0
2021-09-24 12:07:12.576,1014.0,118.0,4.0,1020.8506257038784,1,1,1,2.0,2.0
2021-09-24 12:07:12.586,1018.0,75.0,17.0,1020.9005828189148,1,1,1,2.0,2.0
2021-09-24 12:07:12.594,1046.0,75.0,17.0,1048.8231500114784,1,1,1,2.0,2.0
2021-09-24 12:07:12.595,1046.0,7.0,8.0,1046.0540139017678,1,1,1,2.0,2.0
2021-09-24 12:07:12.604,1009.0,-81.0,28.0,1012.6332011147964,1,1,1,2.0,2.0
2021-09-24 12:07:12.614,1014.0,66.0,5.0,1016.1579601617065,1,1,1,2.0,2.0
2021-09-24 12:07:12.624,1021.0,66.0,5.0,1023.1431962340364,1,1,1,2.0,2.0
2021-09-24 12:07:12.625,1021.0,99.0,-1.0,1025.788964651112,1,1,1,2.0,2.0
2021-09-24 12:07:12.634,1006.0,37.0,36.0,1007.3236818421376,1,1,1,2.0,2.0
2021-09-24 12:07:12.643,976.0,-32.0,36.0,977.187801806797,1,1,1,2.0,2.0
2021-09-24 12:07:12.644,976.0,-32.0,1.0,976.5249612785124,1,1,1,2.0,2.0
2021-09-24 12:07:12.653,999.0,-109.0,15.0,1005.0407951919166,1,1,1,2.0,2.0
2021-09-24 12:07:12.663,1049.0,58.0,21.0,1050.8120669272885,1,1,1,2.0,2.0
2021-09-24 12:07:12.673,1032.0,117.0,0.0,1038.6110917951917,1,1,1,2.0,2.0
2021-09-24 12:07:12.682,999.0,117.0,0.0,1005.8280171082928,1,1,1,2.0,2.0
2021-09-24 12:07:12.683,999.0,-4.0,-12.0,999.080076870718,1,1,1,2.0,2.0
2021-09-24 12:07:12.693,962.0,-38.0,-23.0,963.0249217959004,1,1,1,2.0,2.0
2021-09-24 12:07:12.702,950.0,177.0,12.0,966.4227853274156,1,1,1,2.0,2.0
2021-09-24 12:07:12.712,1014.0,43.0,20.0,1015.1083685991364,1,1,1,2.0,2.0
2021-09-24 12:07:12.721,1030.0,43.0,20.0,1031.0911695868606,1,1,1,2.0,2.0
2021-09-24 12:07:12.722,1030.0,163.0,5.0,1042.8298039469337,1,1,1,2.0,2.0
2021-09-24 12:07:12.732,1047.0,27.0,13.0,1047.4287565271443,1,1,1,2.0,2.0
2021-09-24 12:07:12.742,953.0,23.0,4.0,953.2858962556826,1,1,1,2.0,2.0
2021-09-24 12:07:12.751,1011.0,98.0,22.0,1015.97686981545,1,1,1,2.0,2.0
2021-09-24 12:07:12.760,1051.0,98.0,22.0,1055.788331058835,1,1,1,2.0,2.0
2021-09-24 12:07:12.761,1051.0,48.0,7.0,1052.11881458322,1,1,1,2.0,2.0
2021-09-24 12:07:12.770,1046.0,48.0,7.0,1047.1241569174117,1,1,1,2.0,2.0
2021-09-24 12:07:12.771,1046.0,81.0,-2.0,1049.133451949751,1,1,1,2.0,2.0
2021-09-24 12:07:12.781,996.0,0.0,0.0,996.0,1,1,1,2.0,2.0
2021-09-24 12:07:12.790,976.0,-55.0,-21.0,977.7740025179644,1,1,1,2.0,2.0
2021-09-24 12:07:12.800,934.0,163.0,-41.0,949.0026343482932,1,1,1,2.0,2.0
2021-09-24 12:07:12.810,1050.0,163.0,-41.0,1063.367293083627,1,1,1,2.0,2.0
2021-09-24 12:07:12.811,1050.0,27.0,-6.0,1050.3642225437802,1,1,1,2.0,2.0
2021-09-24 12:07:12.819,1023.0,-22.0,17.0,1023.377740621712,1,1,1,2.0,2.0
2021-09-24 12:07:12.829,1044.0,-56.0,-9.0,1045.539573617374,1,1,1,2.0,2.0
2021-09-24 12:07:12.839,987.0,-24.0,12.0,987.364674271872,1,1,1,2.0,2.0
2021-09-24 12:07:12.856,975.0,112.0,22.0,981.6582908527794,1,1,1,2.0,2.0
2021-09-24 12:07:12.858,1062.0,89.0,22.0,1065.949811201259,1,1,1,2.0,2.0
2021-09-24 12:07:12.859,1062.0,89.0,10.0,1065.7696749298134,1,1,1,2.0,2.0
2021-09-24 12:07:12.868,1011.0,15.0,38.0,1011.8250836977704,1,1,1,2.0,2.0
2021-09-24 12:07:12.878,1032.0,24.0,21.0,1032.4926149856956,1,1,1,2.0,2.0
2021-09-24 12:07:12.888,930.0,45.0,-37.0,931.8229445554558,1,1,1,2.0,2.0
2021-09-24 12:07:12.897,985.0,118.0,-37.0,992.7325923933394,1,1,1,2.0,2.0
2021-09-24 12:07:12.898,985.0,118.0,-10.0,992.0932415856888,1,1,1,2.0,2.0
2021-09-24 12:07:12.907,1060.0,76.0,6.0,1062.7379733499693,1,1,1,2.0,2.0
2021-09-24 12:07:12.917,998.0,43.0,20.0,999.1261181652694,1,1,1,2.0,2.0
2021-09-24 12:07:12.933,934.0,-30.0,19.0,934.6748097600577,1,1,1,2.0,2.0
2021-09-24 12:07:12.937,987.0,17.0,17.0,987.2927630647356,1,1,1,2.0,2.0
2021-09-24 12:07:12.947,991.0,144.0,35.0,1002.0189618964304,1,1,1,2.0,2.0
2021-09-24 12:07:12.956,1077.0,63.0,35.0,1079.408634391999,1,1,1,2.0,2.0
2021-09-24 12:07:12.957,1077.0,63.0,27.0,1079.178854500031,1,1,1,2.0,2.0
2021-09-24 12:07:12.966,1003.0,-32.0,20.0,1003.709619362094,1,1,1,2.0,2.0
2021-09-24 12:07:12.975,1001.0,-32.0,20.0,1001.7110361775996,1,1,1,2.0,2.0
2021-09-24 12:07:12.976,1001.0,-57.0,-13.0,1002.7058392170655,1,1,1,2.0,2.0
2021-09-24 12:07:12.985,995.0,2.0,-12.0,995.07436908002,1,1,1,2.0,2.0
2021-09-24 12:07:12.996,972.0,158.0,-11.0,984.819272760236,1,1,1,2.0,2.0
2021-09-24 12:07:13.005,1038.0,46.0,5.0,1039.0307983885752,1,1,1,2.0,2.0
2021-09-24 12:07:13.020,996.0,37.0,17.0,996.8319818304386,1,1,1,2.0,2.0
2021-09-24 12:07:13.024,982.0,37.0,17.0,982.8438329663568,1,1,1,2.0,2.0
2021-09-24 12:07:13.025,982.0,30.0,23.0,982.7273273904618,1,1,1,2.0,2.0
2021-09-24 12:07:13.034,1067.0,54.0,17.0,1068.5008189046932,1,1,1,2.0,2.0
2021-09-24 12:07:13.044,997.0,128.0,17.0,1005.3268125341132,1,1,1,2.0,2.0
2021-09-24 12:07:13.045,997.0,128.0,6.0,1005.2009749298892,1,1,1,2.0,2.0
2021-09-24 12:07:13.054,1053.0,65.0,6.0,1055.0213267986576,1,1,1,2.0,2.0
2021-09-24 12:07:13.055,1053.0,65.0,27.0,1055.3497050741048,1,1,1,2.0,2.0
2021-09-24 12:07:13.063,1013.0,-2.0,27.0,1013.3617320582024,1,1,1,2.0,2.0
2021-09-24 12:07:13.064,1013.0,-2.0,5.0,1013.0143138179244,1,1,1,2.0,2.0
2021-09-24 12:07:13.073,986.0,-33.0,23.0,986.8201457205868,1,1,1,2.0,2.0
2021-09-24 12:07:13.083,997.0,64.0,0.0,999.0520506960586,1,1,1,2.0,2.0
2021-09-24 12:07:13.093,1051.0,-27.0,-19.0,1051.51842589657,1,1,1,2.0,2.0
2021-09-24 12:07:13.103,1056.0,49.0,-13.0,1057.2161557600225,1,1,1,2.0,2.0
2021-09-24 12:07:13.112,963.0,3.0,-21.0,963.2336165230116,1,1,1,2.0,2.0
2021-09-24 12:07:13.122,937.0,3.0,-21.0,937.2400973069814,1,1,1,2.0,2.0
2021-09-24 12:07:13.123,937.0,46.0,18.0,938.301124373194,1,1,1,2.0,2.0
2021-09-24 12:07:13.132,1075.0,64.0,27.0,1077.241848425877,1,1,1,2.0,2.0
2021-09-24 12:07:13.141,1033.0,64.0,27.0,1035.3327967373582,1,1,1,2.0,2.0
2021-09-24 12:07:13.142,1033.0,-13.0,6.0,1033.0992207914978,1,1,1,2.0,2.0
2021-09-24 12:07:13.152,1050.0,79.0,18.0,1053.1215504394545,1,1,1,2.0,2.0
2021-09-24 12:07:13.161,970.0,-16.0,18.0,970.2989230129032,1,1,1,2.0,2.0
2021-09-24 12:07:13.162,970.0,-16.0,7.0,970.1572037561748,1,1,1,2.0,2.0
2021-09-24 12:07:13.171,981.0,1.0,3.0,981.0050968267188,1,1,1,2.0,2.0
2021-09-24 12:07:13.180,1051.0,1.0,3.0,1051.0047573631623,1,1,1,2.0,2.0
2021-09-24 12:07:13.181,1051.0,19.0,16.0,1051.29348899344,1,1,1,2.0,2.0
2021-09-24 12:07:13.190,1062.0,-27.0,16.0,1062.4636464369028,1,1,1,2.0,2.0
2021-09-24 12:07:13.191,1062.0,-27.0,19.0,1062.5130587432795,1,1,1,2.0,2.0
2021-09-24 12:07:13.200,959.0,5.0,20.0,959.2215593907384,1,1,1,2.0,2.0
2021-09-24 12:07:13.210,1008.0,-16.0,20.0,1008.3253443209686,1,1,1,2.0,2.0
2021-09-24 12:07:13.211,1008.0,-16.0,-19.0,1008.3060051393128,1,1,1,2.0,2.0
2021-09-24 12:07:13.220,931.0,65.0,24.0,933.5748497040825,1,1,1,2.0,2.0
2021-09-24 12:07:13.229,1045.0,65.0,24.0,1047.294609935523,1,1,1,2.0,2.0
2021-09-24 12:07:13.230,1045.0,69.0,40.0,1048.0391214072115,1,1,1,2.0,2.0
2021-09-24 12:07:13.239,1045.0,-4.0,5.0,1045.019617040752,1,1,1,2.0,2.0
2021-09-24 12:07:13.249,998.0,-63.0,5.0,999.9989999995,1,1,1,2.0,2.0
2021-09-24 12:07:13.250,998.0,-63.0,14.0,1000.0844964301766,1,1,1,2.0,2.0
2021-09-24 12:07:13.260,979.0,4.0,14.0,979.1082677620489,1,1,1,2.0,2.0
2021-09-24 12:07:13.268,962.0,4.0,14.0,962.1101808005152,1,1,1,2.0,2.0
2021-09-24 12:07:13.269,962.0,37.0,-2.0,962.7133529768868,1,1,1,2.0,2.0
2021-09-24 12:07:13.279,1052.0,-19.0,19.0,1052.34309994412,1,1,1,2.0,2.0
2021-09-24 12:07:13.288,1057.0,-3.0,10.0,1057.051559764234,1,1,1,2.0,2.0
2021-09-24 12:07:13.298,982.0,-23.0,17.0,982.4164086577543,1,1,1,2.0,2.0
2021-09-24 12:07:13.308,1023.0,58.0,17.0,1024.7838796546323,1,1,1,2.0,2.0
2021-09-24 12:07:13.318,1019.0,113.0,-15.0,1025.3560357261276,1,1,1,2.0,2.0
2021-09-24 12:07:13.340,1044.0,113.0,-15.0,1050.204741943208,1,1,1,2.0,2.0
2021-09-24 12:07:13.341,1044.0,29.0,31.0,1044.8626704021922,1,1,1,2.0,2.0
2021-09-24 12:07:13.342,1069.0,72.0,15.0,1071.5269478645882,1,1,1,2.0,2.0
2021-09-24 12:07:13.346,983.0,72.0,15.0,985.7474321549106,1,1,1,2.0,2.0
2021-09-24 12:07:13.347,983.0,-74.0,21.0,986.0050709808748,1,1,1,2.0,2.0
2021-09-24 12:07:13.356,1002.0,92.0,21.0,1006.4338030889066,1,1,1,2.0,2.0
2021-09-24 12:07:13.357,1002.0,92.0,8.0,1006.2464906771104,1,1,1,2.0,2.0
2021-09-24 12:07:13.366,1035.0,97.0,-9.0,1039.5744321596217,1,1,1,2.0,2.0
2021-09-24 12:07:13.376,1023.0,-2.0,-14.0,1023.0977470408192,1,1,1,2.0,2.0
2021-09-24 12:07:13.386,1099.0,-51.0,0.0,1100.1827120983132,1,1,1,2.0,2.0
2021-09-24 12:07:13.396,973.0,-105.0,3.0,978.6536670344622,1,1,1,2.0,2.0
2021-09-24 12:07:13.405,1016.0,30.0,8.0,1016.4742987405044,1,1,1,2.0,2.0
2021-09-24 12:07:13.415,1038.0,30.0,8.0,1038.4642507087087,1,1,1,2.0,2.0
2021-09-24 12:07:13.416,1038.0,162.0,0.0,1050.565561971265,1,1,1,2.0,2.0
2021-09-24 12:07:13.425,1018.0,-50.0,-36.0,1019.8627358620374,1,1,1,2.0,2.0
2021-09-24 12:07:13.434,975.0,-50.0,-36.0,976.944727198013,1,1,1,2.0,2.0
2021-09-24 12:07:13.435,975.0,77.0,17.0,978.1835206135912,1,1,1,2.0,2.0
2021-09-24 12:07:13.445,988.0,-143.0,5.0,998.3075678366864,1,1,1,2.0,2.0
2021-09-24 12:07:13.454,987.0,48.0,14.0,988.2656525449016,1,1,1,2.0,2.0
2021-09-24 12:07:13.464,1040.0,156.0,9.0,1051.6734283987591,1,1,1,2.0,2.0
2021-09-24 12:07:13.473,1063.0,156.0,9.0,1074.4235663833886,1,1,1,2.0,2.0
2021-09-24 12:07:13.474,1063.0,2.0,21.0,1063.209292660669,1,1,1,2.0,2.0
2021-09-24 12:07:13.483,914.0,44.0,21.0,915.2994045666152,1,1,1,2.0,2.0
2021-09-24 12:07:13.484,914.0,44.0,34.0,915.6899038429984,1,1,1,2.0,2.0
2021-09-24 12:07:13.494,999.0,40.0,35.0,1000.4129147507044,1,1,1,2.0,2.0
2021-09-24 12:07:13.503,1022.0,97.0,26.0,1026.9221002588267,1,1,1,2.0,2.0
2021-09-24 12:07:13.521,1043.0,154.0,-19.0,1054.4790182834363,1,1,1,2.0,2.0
2021-09-24 12:07:13.524,1038.0,-14.0,-13.0,1038.17580399468,1,1,1,2.0,2.0
2021-09-24 12:07:13.532,919.0,-25.0,-13.0,919.431889810224,1,1,1,2.0,2.0
2021-09-24 12:07:13.533,919.0,-25.0,-18.0,919.5161771279504,1,1,1,2.0,2.0
2021-09-24 12:07:13.543,946.0,-25.0,-18.0,946.5014527194344,1,1,1,2.0,2.0
2021-09-24 12:07:13.544,946.0,166.0,8.0,960.48737628352,1,1,1,2.0,2.0
2021-09-24 12:07:13.552,1003.0,41.0,28.0,1004.228061746932,1,1,1,2.0,2.0
2021-09-24 12:07:13.561,1053.0,199.0,28.0,1072.0046641689578,1,1,1,2.0,2.0
2021-09-24 12:07:13.562,1053.0,199.0,32.0,1072.116598136602,1,1,1,2.0,2.0
2021-09-24 12:07:13.571,1035.0,25.0,20.0,1035.495050688317,1,1,1,2.0,2.0
2021-09-24 12:07:13.581,920.0,40.0,16.0,921.0081432864748,1,1,1,2.0,2.0
2021-09-24 12:07:13.591,1066.0,44.0,7.0,1066.9306444188394,1,1,1,2.0,2.0
2021-09-24 12:07:13.600,1015.0,44.0,7.0,1015.9773619525192,1,1,1,2.0,2.0
2021-09-24 12:07:13.601,1015.0,-22.0,7.0,1015.2625276252444,1,1,1,2.0,2.0
2021-09-24 12:07:13.611,1036.0,137.0,-29.0,1045.4214461163497,1,1,1,2.0,2.0
2021-09-24 12:07:13.620,1028.0,44.0,-14.0,1029.036442503374,1,1,1,2.0,2.0
2021-09-24 12:07:13.630,961.0,-16.0,-14.0,961.2351429280976,1,1,1,2.0,2.0
2021-09-24 12:07:13.633,961.0,-16.0,-17.0,961.28351697093,1,1,1,2.0,2.0
2021-09-24 12:07:13.639,972.0,-16.0,-17.0,972.2803093758508,1,1,1,2.0,2.0
2021-09-24 12:07:13.640,972.0,127.0,6.0,980.2800620230936,1,1,1,2.0,2.0
2021-09-24 12:07:13.650,1083.0,127.0,6.0,1090.4375268670829,1,1,1,2.0,2.0
2021-09-24 12:07:13.651,1083.0,75.0,20.0,1085.778062036621,1,1,1,2.0,2.0
2021-09-24 12:07:13.659,1042.0,159.0,32.0,1054.546822099427,1,1,1,2.0,2.0
2021-09-24 12:07:13.669,1054.0,46.0,25.0,1055.2994835590512,1,1,1,2.0,2.0
2021-09-24 12:07:13.678,940.0,46.0,25.0,941.4568497812312,1,1,1,2.0,2.0
2021-09-24 12:07:13.679,940.0,-7.0,7.0,940.052126214286,1,1,1,2.0,2.0
2021-09-24 12:07:13.688,1021.0,58.0,7.0,1022.670034761946,1,1,1,2.0,2.0
2021-09-24 12:07:13.689,1021.0,58.0,9.0,1022.6856799623235,1,1,1,2.0,2.0
2021-09-24 12:07:13.699,1072.0,77.0,-10.0,1074.8083550103247,1,1,1,2.0,2.0
2021-09-24 12:07:13.708,1045.0,-36.0,25.0,1045.918734892917,1,1,1,2.0,2.0
2021-09-24 12:07:13.717,1020.0,-36.0,25.0,1020.9412323929326,1,1,1,2.0,2.0
2021-09-24 12:07:13.718,1020.0,9.0,-6.0,1020.0573513288358,1,1,1,2.0,2.0
2021-09-24 12:07:13.727,946.0,9.0,-6.0,946.0618373024038,1,1,1,2.0,2.0
2021-09-24 12:07:13.728,946.0,-15.0,-38.0,946.881724398565,1,1,1,2.0,2.0
2021-09-24 12:07:13.737,950.0,135.0,0.0,959.5441626105596,1,1,1,2.0,2.0
2021-09-24 12:07:13.747,1100.0,51.0,0.0,1101.1816380597709,1,1,1,2.0,2.0
2021-09-24 12:07:13.748,1100.0,51.0,21.0,1101.3818593022131,1,1,1,2.0,2.0
2021-09-24 12:07:13.757,1012.0,-52.0,20.0,1013.5324365801029,1,1,1,2.0,2.0
2021-09-24 12:07:13.767,949.0,-71.0,13.0,951.7410362068036,1,1,1,2.0,2.0
2021-09-24 12:07:13.776,924.0,-20.0,2.0,924.218588863046,1,1,1,2.0,2.0
2021-09-24 12:07:13.786,1047.0,87.0,26.0,1050.9300642764008,1,1,1,2.0,2.0
2021-09-24 12:07:13.796,1086.0,90.0,6.0,1089.739418393223,1,1,1,2.0,2.0
2021-09-24 12:07:13.808,1033.0,-51.0,16.0,1034.3819410643246,1,1,1,2.0,2.0
2021-09-24 12:07:13.815,916.0,-66.0,16.0,918.5140173127464,1,1,1,2.0,2.0
2021-09-24 12:07:13.816,916.0,-66.0,3.0,918.3795511660744,1,1,1,2.0,2.0
2021-09-24 12:07:13.825,981.0,-47.0,-1.0,982.1257556952672,1,1,1,2.0,2.0
2021-09-24 12:07:13.835,993.0,137.0,18.0,1002.5677034494976,1,1,1,2.0,2.0
2021-09-24 12:07:13.848,1046.0,130.0,-14.0,1054.1404081051062,1,1,1,2.0,2.0
2021-09-24 12:07:13.855,1047.0,-39.0,23.0,1047.9785303144336,1,1,1,2.0,2.0
2021-09-24 12:07:13.872,920.0,-22.0,23.0,920.5503788495228,1,1,1,2.0,2.0
2021-09-24 12:07:13.873,920.0,-22.0,21.0,920.5025801158844,1,1,1,2.0,2.0
2021-09-24 12:07:13.874,1061.0,19.0,21.0,1061.3778780434425,1,1,1,2.0,2.0
2021-09-24 12:07:13.875,1061.0,19.0,50.0,1062.3474008063465,1,1,1,2.0,2.0
2021-09-24 12:07:13.884,1027.0,66.0,40.0,1029.8956257796224,1,1,1,2.0,2.0
2021-09-24 12:07:13.893,1089.0,66.0,40.0,1091.731194021679,1,1,1,2.0,2.0
2021-09-24 12:07:13.894,1089.0,52.0,41.0,1091.0114573183914,1,1,1,2.0,2.0
2021-09-24 12:07:13.905,1084.0,17.0,35.0,1084.6981146844498,1,1,1,2.0,2.0
2021-09-24 12:07:13.913,993.0,-81.0,1.0,996.298650004104,1,1,1,2.0,2.0
2021-09-24 12:07:13.923,1016.0,73.0,-3.0,1018.623581113259,1,1,1,2.0,2.0
2021-09-24 12:07:13.932,1059.0,73.0,-3.0,1061.517310268655,1,1,1,2.0,2.0
2021-09-24 12:07:13.933,1059.0,-12.0,-10.0,1059.1151967562355,1,1,1,2.0,2.0
2021-09-24 12:07:13.946,1043.0,6.0,15.0,1043.125112342714,1,1,1,2.0,2.0
2021-09-24 12:07:13.952,1016.0,77.0,35.0,1019.5145903811284,1,1,1,2.0,2.0
2021-09-24 12:07:13.962,985.0,25.0,25.0,985.6343135260664,1,1,1,2.0,2.0
2021-09-24 12:07:13.972,1034.0,73.0,-4.0,1036.5814005663035,1,1,1,2.0,2.0
2021-09-24 12:07:13.981,1050.0,73.0,-4.0,1052.5421606757614,1,1,1,2.0,2.0
2021-09-24 12:07:13.982,1050.0,67.0,-7.0,1052.1587332717436,1,1,1,2.0,2.0
2021-09-24 12:07:13.992,1031.0,-93.0,25.0,1035.4878077505307,1,1,1,2.0,2.0
2021-09-24 12:07:14.001,980.0,-67.0,-19.0,982.4713736287688,1,1,1,2.0,2.0
2021-09-24 12:07:14.010,1016.0,-67.0,-19.0,1018.38401401436,1,1,1,2.0,2.0
2021-09-24 12:07:14.011,1016.0,-114.0,19.0,1022.5521991566004,1,1,1,2.0,2.0
2021-09-24 12:07:14.020,1032.0,10.0,19.0,1032.2233285486236,1,1,1,2.0,2.0
2021-09-24 12:07:14.021,1032.0,10.0,19.0,1032.2233285486236,1,1,1,2.0,2.0
2021-09-24 12:07:14.030,1033.0,3.0,-4.0,1033.0121006067643,1,1,1,2.0,2.0
2021-09-24 12:07:14.041,988.0,6.0,8.0,988.0506059914138,1,1,1,2.0,2.0
2021-09-24 12:07:14.050,1028.0,-48.0,0.0,1029.1200124378108,1,1,1,2.0,2.0
2021-09-24 12:07:14.059,957.0,90.0,0.0,961.2226589089544,1,1,1,2.0,2.0
2021-09-24 12:07:14.060,957.0,90.0,6.0,961.2413848768684,1,1,1,2.0,2.0
2021-09-24 12:07:14.069,1050.0,39.0,-16.0,1050.8458497800711,1,1,1,2.0,2.0
2021-09-24 12:07:14.079,1014.0,7.0,-14.0,1014.1208014827424,1,1,1,2.0,2.0
2021-09-24 12:07:14.089,964.0,7.0,-14.0,964.127066314394,1,1,1,2.0,2.0
2021-09-24 12:07:14.090,964.0,-63.0,20.0,966.2634216402896,1,1,1,2.0,2.0
2021-09-24 12:07:14.099,990.0,23.0,20.0,990.4690807895016,1,1,1,2.0,2.0
2021-09-24 12:07:14.100,990.0,23.0,38.0,990.9959636648376,1,1,1,2.0,2.0
2021-09-24 12:07:14.108,964.0,-43.0,-19.0,965.1455848730802,1,1,1,2.0,2.0
2021-09-24 12:07:14.118,1068.0,11.0,19.0,1068.225631596621,1,1,1,2.0,2.0
2021-09-24 12:07:14.128,1059.0,32.0,22.0,1059.711753261235,1,1,1,2.0,2.0
2021-09-24 12:07:14.138,968.0,-27.0,5.0,968.389384493655,1,1,1,2.0,2.0
2021-09-24 12:07:14.148,988.0,70.0,12.0,990.5493425367562,1,1,1,2.0,2.0
2021-09-24 12:07:14.157,960.0,53.0,4.0,961.4702283482312,1,1,1,2.0,2.0
2021-09-24 12:07:14.167,1084.0,69.0,44.0,1087.0846333197796,1,1,1,2.0,2.0
2021-09-24 12:07:14.177,1044.0,24.0,20.0,1044.4673283545062,1,1,1,2.0,2.0
2021-09-24 12:07:14.186,1004.0,-124.0,20.0,1011.8260720104024,1,1,1,2.0,2.0
2021-09-24 12:07:14.187,1004.0,-124.0,10.0,1011.6778143262804,1,1,1,2.0,2.0
2021-09-24 12:07:14.197,1012.0,52.0,24.0,1013.6192579070308,1,1,1,2.0,2.0
2021-09-24 12:07:14.206,1077.0,136.0,24.0,1085.8181247336038,1,1,1,2.0,2.0
2021-09-24 12:07:14.207,1077.0,136.0,-3.0,1085.5569998853125,1,1,1,2.0,2.0
2021-09-24 12:07:14.216,1095.0,38.0,7.0,1095.6815230713714,1,1,1,2.0,2.0
2021-09-24 12:07:14.225,1051.0,38.0,7.0,1051.710036084091,1,1,1,2.0,2.0
2021-09-24 12:07:14.226,1051.0,28.0,8.0,1051.403347911733,1,1,1,2.0,2.0
2021-09-24 12:07:14.235,949.0,-6.0,-4.0,949.0273968648112,1,1,1,2.0,2.0
2021-09-24 12:07:14.250,1021.0,65.0,28.0,1023.4500476330048,1,1,1,2.0,2.0
2021-09-24 12:07:14.255,1018.0,65.0,28.0,1020.4572504519726,1,1,1,2.0,2.0
2021-09-24 12:07:14.256,1018.0,117.0,0.0,1024.7014199268,1,1,1,2.0,2.0
2021-09-24 12:07:14.264,1084.0,117.0,0.0,1090.295831414575,1,1,1,2.0,2.0
2021-09-24 12:07:14.265,1084.0,37.0,41.0,1085.4059148539775,1,1,1,2.0,2.0
2021-09-24 12:07:14.274,1005.0,78.0,20.0,1008.2207099638453,1,1,1,2.0,2.0
2021-09-24 12:07:14.284,996.0,-92.0,13.0,1000.324447366953,1,1,1,2.0,2.0
2021-09-24 12:07:14.294,994.0,21.0,33.0,994.769319993334,1,1,1,2.0,2.0
2021-09-24 12:07:14.305,1047.0,86.0,30.0,1050.9543282179295,1,1,1,2.0,2.0
2021-09-24 12:07:14.313,1015.0,33.0,30.0,1015.9793304984112,1,1,1,2.0,2.0
2021-09-24 12:07:14.314,1015.0,33.0,17.0,1015.6785908937924,1,1,1,2.0,2.0
2021-09-24 12:07:14.323,1051.0,-32.0,-27.0,1051.8336370358195,1,1,1,2.0,2.0
2021-09-24 12:07:14.333,1015.0,-31.0,-2.0,1015.4752581919464,1,1,1,2.0,2.0
2021-09-24 12:07:14.353,1000.0,78.0,-15.0,1003.1495401982696,1,1,1,2.0,2.0
2021-09-24 12:07:14.358,1071.0,96.0,9.0,1075.3315767706256,1,1,1,2.0,2.0
2021-09-24 12:07:14.362,1062.0,103.0,-1.0,1066.9835987492966,1,1,1,2.0,2.0
2021-09-24 12:07:14.372,975.0,40.0,-26.0,976.1664817027882,1,1,1,2.0,2.0
2021-09-24 12:07:14.382,981.0,9.0,3.0,981.045870487206,1,1,1,2.0,2.0
2021-09-24 12:07:14.391,1051.0,9.0,3.0,1051.0428154932604,1,1,1,2.0,2.0
2021-09-24 12:07:14.392,1051.0,-18.0,20.0,1051.3443774520315,1,1,1,2.0,2.0
2021-09-24 12:07:14.402,955.0,101.0,0.0,960.325986319229,1,1,1,2.0,2.0
2021-09-24 12:07:14.411,1066.0,101.0,0.0,1070.774019109541,1,1,1,2.0,2.0
2021-09-24 12:07:14.412,1066.0,42.0,29.0,1067.2211579611792,1,1,1,2.0,2.0
2021-09-24 12:07:14.421,981.0,68.0,55.0,984.8908568973518,1,1,1,2.0,2.0
2021-09-24 12:07:14.430,980.0,68.0,55.0,983.8948114508988,1,1,1,2.0,2.0
2021-09-24 12:07:14.431,980.0,-77.0,14.0,983.1200333631698,1,1,1,2.0,2.0
2021-09-24 12:07:14.440,1037.0,-77.0,14.0,1039.949037212882,1,1,1,2.0,2.0
2021-09-24 12:07:14.441,1037.0,7.0,7.0,1037.04725061108,1,1,1,2.0,2.0
2021-09-24 12:07:14.451,1037.0,85.0,-17.0,1040.6166441105966,1,1,1,2.0,2.0
2021-09-24 12:07:14.461,1018.0,41.0,-3.0,1018.8297208071622,1,1,1,2.0,2.0
2021-09-24 12:07:14.469,929.0,41.0,-3.0,929.9091353460294,1,1,1,2.0,2.0
2021-09-24 12:07:14.470,929.0,48.0,-31.0,930.7556070204466,1,1,1,2.0,2.0
2021-09-24 12:07:14.479,962.0,103.0,-31.0,967.9948346969626,1,1,1,2.0,2.0
2021-09-24 12:07:14.480,962.0,103.0,-30.0,967.9633257515492,1,1,1,2.0,2.0
2021-09-24 12:07:14.489,995.0,27.0,0.0,995.3662642464832,1,1,1,2.0,2.0
2021-09-24 12:07:14.499,985.0,77.0,-41.0,988.8553989335346,1,1,1,2.0,2.0
2021-09-24 12:07:14.509,987.0,16.0,-41.0,987.9807690436083,1,1,1,2.0,2.0
2021-09-24 12:07:14.510,987.0,16.0,23.0,987.3975896263876,1,1,1,2.0,2.0
2021-09-24 12:07:14.518,978.0,76.0,23.0,981.2181205012472,1,1,1,2.0,2.0
2021-09-24 12:07:14.519,978.0,76.0,39.0,981.723484490414,1,1,1,2.0,2.0
2021-09-24 12:07:14.532,1037.0,3.0,39.0,1037.7374427088964,1,1,1,2.0,2.0
2021-09-24 12:07:14.533,1037.0,3.0,32.0,1037.497951805207,1,1,1,2.0,2.0
2021-09-24 12:07:14.538,1063.0,103.0,8.0,1068.0084269330462,1,1,1,2.0,2.0
2021-09-24 12:07:14.548,1051.0,58.0,28.0,1052.9715095860856,1,1,1,2.0,2.0
2021-09-24 12:07:14.559,1008.0,64.0,5.0,1010.0420783313932,1,1,1,2.0,2.0
2021-09-24 12:07:14.568,996.0,-1.0,-11.0,996.0612430970295,1,1,1,2.0,2.0
2021-09-24 12:07:14.577,951.0,177.0,-4.0,967.3396507949004,1,1,1,2.0,2.0
2021-09-24 12:07:14.587,1103.0,94.0,20.0,1107.1788473412955,1,1,1,2.0,2.0
2021-09-24 12:07:14.596,1082.0,94.0,20.0,1086.259637471631,1,1,1,2.0,2.0
2021-09-24 12:07:14.597,1082.0,96.0,-7.0,1086.2729859478234,1,1,1,2.0,2.0
2021-09-24 12:07:14.607,1017.0,31.0,37.0,1018.144881635222,1,1,1,2.0,2.0
2021-09-24 12:07:14.616,981.0,20.0,15.0,981.3185007937026,1,1,1,2.0,2.0
2021-09-24 12:07:14.626,1058.0,62.0,28.0,1060.1848895357828,1,1,1,2.0,2.0
2021-09-24 12:07:14.635,1045.0,62.0,28.0,1047.21201291811,1,1,1,2.0,2.0
2021-09-24 12:07:14.636,1045.0,127.0,-2.0,1052.6908378056685,1,1,1,2.0,2.0
2021-09-24 12:07:14.648,1007.0,127.0,-2.0,1014.9788175129568,1,1,1,2.0,2.0
2021-09-24 12:07:14.649,1007.0,-95.0,-16.0,1011.5977461422104,1,1,1,2.0,2.0
2021-09-24 12:07:14.655,1029.0,41.0,3.0,1029.820858207873,1,1,1,2.0,2.0
2021-09-24 12:07:14.666,957.0,-40.0,-45.0,958.8920690046403,1,1,1,2.0,2.0
2021-09-24 12:07:14.675,996.0,136.0,3.0,1005.246735881296,1,1,1,2.0,2.0
2021-09-24 12:07:14.684,1065.0,61.0,3.0,1066.7497363486902,1,1,1,2.0,2.0
2021-09-24 12:07:14.685,1065.0,61.0,0.0,1066.7455179188707,1,1,1,2.0,2.0
2021-09-24 12:07:14.694,1012.0,-36.0,17.0,1012.7828000119276,1,1,1,2.0,2.0
2021-09-24 12:07:14.704,1021.0,-56.0,33.0,1023.066957730529,1,1,1,2.0,2.0
2021-09-24 12:07:14.715,929.0,-2.0,18.0,929.1765171376212,1,1,1,2.0,2.0
2021-09-24 12:07:14.724,1018.0,80.0,18.0,1021.2972143308724,1,1,1,2.0,2.0
2021-09-24 12:07:14.733,1050.0,59.0,12.0,1051.7247738833578,1,1,1,2.0,2.0
2021-09-24 12:07:14.743,1036.0,-71.0,-3.0,1038.4343985057506,1,1,1,2.0,2.0
2021-09-24 12:07:14.753,992.0,-88.0,-9.0,995.9362429392758,1,1,1,2.0,2.0
2021-09-24 12:07:14.763,946.0,33.0,-9.0,946.6181912471365,1,1,1,2.0,2.0
2021-09-24 12:07:14.764,946.0,33.0,-26.0,946.9324157509868,1,1,1,2.0,2.0
2021-09-24 12:07:14.772,978.0,144.0,13.0,988.6298599577092,1,1,1,2.0,2.0
2021-09-24 12:07:14.782,1044.0,125.0,-14.0,1051.5498086158354,1,1,1,2.0,2.0
2021-09-24 12:07:14.792,981.0,-6.0,2.0,981.020387147994,1,1,1,2.0,2.0
2021-09-24 12:07:14.802,969.0,7.0,31.0,969.5210157598442,1,1,1,2.0,2.0
2021-09-24 12:07:14.813,1092.0,30.0,18.0,1092.5602958189538,1,1,1,2.0,2.0
2021-09-24 12:07:14.821,1035.0,30.0,18.0,1035.5911355356418,1,1,1,2.0,2.0
2021-09-24 12:07:14.822,1035.0,107.0,26.0,1040.841006109963,1,1,1,2.0,2.0
2021-09-24 12:07:14.831,1065.0,48.0,26.0,1066.3981432842052,1,1,1,2.0,2.0
2021-09-24 12:07:14.832,1065.0,48.0,20.0,1066.2687278542871,1,1,1,2.0,2.0
2021-09-24 12:07:14.841,1016.0,-61.0,5.0,1017.8418344713484,1,1,1,2.0,2.0
2021-09-24 12:07:14.850,963.0,-61.0,5.0,964.943003498134,1,1,1,2.0,2.0
2021-09-24 12:07:14.851,963.0,-1.0,7.0,963.0259601900668,1,1,1,2.0,2.0
2021-09-24 12:07:14.862,1061.0,85.0,44.0,1065.3084060496285,1,1,1,2.0,2.0
2021-09-24 12:07:14.870,1071.0,10.0,33.0,1071.5549449281636,1,1,1,2.0,2.0
2021-09-24 12:07:14.887,1083.0,-14.0,-27.0,1083.4269703122588,1,1,1,2.0,2.0
2021-09-24 12:07:14.890,991.0,11.0,-2.0,991.063065601781,1,1,1,2.0,2.0
2021-09-24 12:07:14.899,950.0,139.0,-2.0,960.1171803483156,1,1,1,2.0,2.0
2021-09-24 12:07:14.900,950.0,139.0,50.0,961.4161429890804,1,1,1,2.0,2.0
2021-09-24 12:07:14.909,1074.0,139.0,50.0,1084.1111566624522,1,1,1,2.0,2.0
2021-09-24 12:07:14.910,1074.0,56.0,15.0,1075.5635732024398,1,1,1,2.0,2.0
2021-09-24 12:07:14.919,1026.0,-12.0,-12.0,1026.1403412789111,1,1,1,2.0,2.0
2021-09-24 12:07:14.929,1060.0,56.0,2.0,1061.4800987300705,1,1,1,2.0,2.0
2021-09-24 12:07:14.938,987.0,-53.0,2.0,988.4239980898884,1,1,1,2.0,2.0
2021-09-24 12:07:14.939,987.0,-53.0,-2.0,988.4239980898884,1,1,1,2.0,2.0
2021-09-24 12:07:14.948,976.0,-49.0,-2.0,977.2312929905592,1,1,1,2.0,2.0
2021-09-24 12:07:14.966,1052.0,-49.0,-2.0,1053.1424405084051,1,1,1,2.0,2.0
2021-09-24 12:07:14.967,1052.0,33.0,13.0,1052.5977389297395,1,1,1,2.0,2.0
2021-09-24 12:07:14.968,1067.0,33.0,13.0,1067.5893405237805,1,1,1,2.0,2.0
2021-09-24 12:07:14.969,1067.0,3.0,41.0,1067.7916463430497,1,1,1,2.0,2.0
2021-09-24 12:07:14.977,995.0,-15.0,41.0,995.95732840318,1,1,1,2.0,2.0
2021-09-24 12:07:14.978,995.0,-15.0,12.0,995.1854098608962,1,1,1,2.0,2.0
2021-09-24 12:07:14.988,1018.0,24.0,12.0,1018.3535731758396,1,1,1,2.0,2.0
2021-09-24 12:07:14.989,1018.0,24.0,23.0,1018.5425862476249,1,1,1,2.0,2.0
2021-09-24 12:07:14.997,955.0,76.0,22.0,958.2718820877508,1,1,1,2.0,2.0
2021-09-24 12:07:15.007,1053.0,85.0,24.0,1056.6976861903313,1,1,1,2.0,2.0
2021-09-24 12:07:15.016,1024.0,85.0,24.0,1027.802023738035,1,1,1,2.0,2.0
2021-09-24 12:07:15.017,1024.0,-6.0,-27.0,1024.373467051934,1,1,1,2.0,2.0
2021-09-24 12:07:15.026,1047.0,-113.0,1.0,1053.0807186536083,1,1,1,2.0,2.0
2021-09-24 12:07:15.036,1008.0,-99.0,1.0,1012.8504331834982,1,1,1,2.0,2.0
2021-09-24 12:07:15.037,1008.0,-99.0,0.0,1012.8499395270752,1,1,1,2.0,2.0
2021-09-24 12:07:15.046,981.0,-62.0,24.0,983.250222476456,1,1,1,2.0,2.0
2021-09-24 12:07:15.056,1022.0,36.0,24.0,1022.9154412755728,1,1,1,2.0,2.0
2021-09-24 12:07:15.057,1022.0,36.0,-17.0,1022.7751463542708,1,1,1,2.0,2.0
2021-09-24 12:07:15.065,1046.0,-10.0,-17.0,1046.1859299378864,1,1,1,2.0,2.0
2021-09-24 12:07:15.066,1046.0,-10.0,26.0,1046.3708711542004,1,1,1,2.0,2.0
2021-09-24 12:07:15.075,957.0,-43.0,10.0,958.0177451383664,1,1,1,2.0,2.0
2021-09-24 12:07:15.085,999.0,91.0,-4.0,1003.1440574513712,1,1,1,2.0,2.0
2021-09-24 12:07:15.096,950.0,97.0,14.0,955.0418838982928,1,1,1,2.0,2.0
2021-09-24 12:07:15.105,1030.0,157.0,15.0,1042.0047984534428,1,1,1,2.0,2.0
2021-09-24 12:07:15.114,1032.0,-22.0,-11.0,1032.2930785392296,1,1,1,2.0,2.0
2021-09-24 12:07:15.124,1001.0,-122.0,32.0,1008.914763495906,1,1,1,2.0,2.0
2021-09-24 12:07:15.134,984.0,-5.0,20.0,984.2159315922496,1,1,1,2.0,2.0
2021-09-24 12:07:15.144,1102.0,60.0,48.0,1104.6755179689644,1,1,1,2.0,2.0
2021-09-24 12:07:15.153,1055.0,31.0,48.0,1056.5462602271612,1,1,1,2.0,2.0
2021-09-24 12:07:15.154,1055.0,31.0,20.0,1055.644826634413,1,1,1,2.0,2.0
2021-09-24 12:07:15.163,1093.0,31.0,20.0,1093.622421130803,1,1,1,2.0,2.0
2021-09-24 12:07:15.164,1093.0,-18.0,3.0,1093.1523224144016,1,1,1,2.0,2.0
2021-09-24 12:07:15.173,1011.0,-65.0,4.0,1013.0952571204743,1,1,1,2.0,2.0
2021-09-24 12:07:15.182,999.0,-65.0,4.0,1001.120372382862,1,1,1,2.0,2.0
2021-09-24 12:07:15.183,999.0,87.0,-8.0,1002.8130433934332,1,1,1,2.0,2.0
2021-09-24 12:07:15.192,1056.0,122.0,-10.0,1063.071023027154,1,1,1,2.0,2.0
2021-09-24 12:07:15.202,1021.0,122.0,-10.0,1028.3117231656945,1,1,1,2.0,2.0
2021-09-24 12:07:15.203,1021.0,137.0,14.0,1030.2456017862926,1,1,1,2.0,2.0
2021-09-24 12:07:15.213,1039.0,15.0,-2.0,1039.1101962737157,1,1,1,2.0,2.0
2021-09-24 12:07:15.221,997.0,15.0,-2.0,997.1148379198858,1,1,1,2.0,2.0
2021-09-24 12:07:15.222,997.0,-59.0,16.0,998.8723642187724,1,1,1,2.0,2.0
2021-09-24 12:07:15.231,1038.0,23.0,16.0,1038.3780621719625,1,1,1,2.0,2.0
2021-09-24 12:07:15.232,1038.0,23.0,28.0,1038.6322737138491,1,1,1,2.0,2.0
2021-09-24 12:07:15.241,1027.0,209.0,28.0,1048.4245323341113,1,1,1,2.0,2.0
2021-09-24 12:07:15.252,1105.0,30.0,37.0,1106.0262203040215,1,1,1,2.0,2.0
2021-09-24 12:07:15.261,1033.0,-20.0,6.0,1033.2110142657211,1,1,1,2.0,2.0
2021-09-24 12:07:15.270,992.0,-27.0,6.0,992.385509769263,1,1,1,2.0,2.0
2021-09-24 12:07:15.271,992.0,-27.0,34.0,992.9496462560426,1,1,1,2.0,2.0
2021-09-24 12:07:15.280,1028.0,61.0,16.0,1029.9325220615185,1,1,1,2.0,2.0
2021-09-24 12:07:15.290,1018.0,131.0,-34.0,1026.9571558736031,1,1,1,2.0,2.0
2021-09-24 12:07:15.300,1040.0,0.0,-32.0,1040.4921912249029,1,1,1,2.0,2.0
2021-09-24 12:07:15.309,920.0,0.0,-32.0,920.5563535167198,1,1,1,2.0,2.0
2021-09-24 12:07:15.310,920.0,21.0,-48.0,921.4906402129106,1,1,1,2.0,2.0
2021-09-24 12:07:15.320,946.0,-75.0,-13.0,949.0574271349442,1,1,1,2.0,2.0
2021-09-24 12:07:15.329,1049.0,-49.0,10.0,1050.191411124658,1,1,1,2.0,2.0
2021-09-24 12:07:15.339,1007.0,84.0,9.0,1010.5374807497246,1,1,1,2.0,2.0
2021-09-24 12:07:15.348,1059.0,84.0,9.0,1062.3643442811888,1,1,1,2.0,2.0
2021-09-24 12:07:15.349,1059.0,40.0,30.0,1060.1797017487177,1,1,1,2.0,2.0
2021-09-24 12:07:15.369,963.0,35.0,31.0,964.1343267408332,1,1,1,2.0,2.0
2021-09-24 12:07:15.373,996.0,67.0,-7.0,998.2755130724184,1,1,1,2.0,2.0
2021-09-24 12:07:15.378,1071.0,62.0,13.0,1072.8718469602975,1,1,1,2.0,2.0
2021-09-24 12:07:15.388,1027.0,94.0,-37.0,1031.956394427594,1,1,1,2.0,2.0
2021-09-24 12:07:15.398,1057.0,-17.0,-10.0,1057.1839953385595,1,1,1,2.0,2.0
2021-09-24 12:07:15.407,918.0,17.0,-50.0,919.5178084191735,1,1,1,2.0,2.0
2021-09-24 12:07:15.417,961.0,112.0,-13.0,967.5918561046284,1,1,1,2.0,2.0
2021-09-24 12:07:15.427,1031.0,-27.0,-5.0,1031.365599581448,1,1,1,2.0,2.0
2021-09-24 12:07:15.436,1001.0,28.0,-5.0,1001.404014371822,1,1,1,2.0,2.0
2021-09-24 12:07:15.437,1001.0,28.0,-53.0,1002.7930992981552,1,1,1,2.0,2.0
2021-09-24 12:07:15.446,1047.0,-5.0,13.0,1047.0926415556553,1,1,1,2.0,2.0
2021-09-24 12:07:15.459,976.0,54.0,30.0,977.9529641041024,1,1,1,2.0,2.0
2021-09-24 12:07:15.466,1050.0,57.0,28.0,1051.9187230960383,1,1,1,2.0,2.0
2021-09-24 12:07:15.476,1063.0,57.0,28.0,1064.8953000178,1,1,1,2.0,2.0
2021-09-24 12:07:15.477,1063.0,79.0,-3.0,1065.9357391512867,1,1,1,2.0,2.0
2021-09-24 12:07:15.485,1047.0,83.0,-3.0,1050.2890078449836,1,1,1,2.0,2.0
2021-09-24 12:07:15.486,1047.0,83.0,0.0,1050.284723301258,1,1,1,2.0,2.0
2021-09-24 12:07:15.495,1041.0,-7.0,0.0,1041.0235347964042,1,1,1,2.0,2.0
2021-09-24 12:07:15.496,1041.0,-7.0,-2.0,1041.0254559807845,1,1,1,2.0,2.0
2021-09-24 12:07:15.505,908.0,23.0,-47.0,909.506459570244,1,1,1,2.0,2.0
2021-09-24 12:07:15.515,976.0,116.0,0.0,982.8692690281856,1,1,1,2.0,2.0
2021-09-24 12:07:15.525,1038.0,98.0,13.0,1042.6969837877157,1,1,1,2.0,2.0
2021-09-24 12:07:15.541,1062.0,49.0,3.0,1063.1340461108373,1,1,1,2.0,2.0
2021-09-24 12:07:15.544,1012.0,-29.0,19.0,1012.5936993681128,1,1,1,2.0,2.0
2021-09-24 12:07:15.554,956.0,68.0,22.0,958.6678256831196,1,1,1,2.0,2.0
2021-09-24 12:07:15.564,1044.0,119.0,30.0,1051.1883751259809,1,1,1,2.0,2.0
2021-09-24 12:07:15.574,1046.0,45.0,-3.0,1046.971823880662,1,1,1,2.0,2.0
2021-09-24 12:07:15.583,1023.0,-107.0,-3.0,1028.5849503079462,1,1,1,2.0,2.0
2021-09-24 12:07:15.584,1023.0,-107.0,37.0,1029.2458404093748,1,1,1,2.0,2.0
2021-09-24 12:07:15.592,1022.0,-107.0,37.0,1028.251914659049,1,1,1,2.0,2.0
2021-09-24 12:07:15.593,1022.0,21.0,-31.0,1022.6856799623235,1,1,1,2.0,2.0
2021-09-24 12:07:15.602,958.0,21.0,-31.0,958.7314535363904,1,1,1,2.0,2.0
2021-09-24 12:07:15.603,958.0,-22.0,-44.0,959.2622164976582,1,1,1,2.0,2.0
2021-09-24 12:07:15.612,1004.0,106.0,-28.0,1009.9683163347254,1,1,1,2.0,2.0
2021-09-24 12:07:15.622,1022.0,80.0,-13.0,1025.2087592290654,1,1,1,2.0,2.0
2021-09-24 12:07:15.632,1032.0,80.0,-13.0,1035.1777625123136,1,1,1,2.0,2.0
2021-09-24 12:07:15.633,1032.0,-36.0,16.0,1032.7516642446044,1,1,1,2.0,2.0
2021-09-24 12:07:15.641,966.0,4.0,16.0,966.1407764917078,1,1,1,2.0,2.0
2021-09-24 12:07:15.642,966.0,4.0,6.0,966.0269147389216,1,1,1,2.0,2.0
2021-09-24 12:07:15.651,907.0,27.0,8.0,907.4370501583016,1,1,1,2.0,2.0
2021-09-24 12:07:15.662,989.0,141.0,61.0,1000.861129228226,1,1,1,2.0,2.0
2021-09-24 12:07:15.672,1079.0,89.0,37.0,1083.2963583433668,1,1,1,2.0,2.0
2021-09-24 12:07:15.680,1009.0,89.0,37.0,1013.5931136309086,1,1,1,2.0,2.0
2021-09-24 12:07:15.681,1009.0,-24.0,27.0,1009.6464727814384,1,1,1,2.0,2.0
2021-09-24 12:07:15.690,960.0,-56.0,27.0,962.0109146989964,1,1,1,2.0,2.0
2021-09-24 12:07:15.700,1078.0,6.0,27.0,1078.3547653717676,1,1,1,2.0,2.0
2021-09-24 12:07:15.701,1078.0,6.0,9.0,1078.0542657955582,1,1,1,2.0,2.0
2021-09-24 12:07:15.710,997.0,126.0,-2.0,1004.9323360306404,1,1,1,2.0,2.0
2021-09-24 12:07:15.720,1019.0,126.0,-2.0,1026.7623873126636,1,1,1,2.0,2.0
2021-09-24 12:07:15.721,1019.0,108.0,-11.0,1024.7663148249949,1,1,1,2.0,2.0
2021-09-24 12:07:15.729,1003.0,1.0,-11.0,1003.0608157036144,1,1,1,2.0,2.0
2021-09-24 12:07:15.730,1003.0,1.0,0.0,1003.0004985043628,1,1,1,2.0,2.0
2021-09-24 12:07:15.739,930.0,1.0,0.0,930.0005376342532,1,1,1,2.0,2.0
2021-09-24 12:07:15.740,930.0,22.0,40.0,931.1197559927508,1,1,1,2.0,2.0
2021-09-24 12:07:15.749,1060.0,-22.0,20.0,1060.416899148632,1,1,1,2.0,2.0
2021-09-24 12:07:15.759,980.0,12.0,28.0,980.4733550688668,1,1,1,2.0,2.0
2021-09-24 12:07:15.769,1072.0,16.0,21.0,1072.3250440048485,1,1,1,2.0,2.0
2021-09-24 12:07:15.779,1018.0,-19.0,9.0,1018.2170691949729,1,1,1,2.0,2.0
2021-09-24 12:07:15.788,1010.0,-43.0,31.0,1011.3901324414828,1,1,1,2.0,2.0
2021-09-24 12:07:15.798,1071.0,12.0,12.0,1071.1344453428803,1,1,1,2.0,2.0
2021-09-24 12:07:15.808,1056.0,25.0,11.0,1056.3531606427844,1,1,1,2.0,2.0
2021-09-24 12:07:15.817,1041.0,25.0,11.0,1041.3582476746417,1,1,1,2.0,2.0
2021-09-24 12:07:15.818,1041.0,47.0,-15.0,1042.1684124938731,1,1,1,2.0,2.0
2021-09-24 12:07:15.828,1035.0,22.0,-1.0,1035.234273002976,1,1,1,2.0,2.0
2021-09-24 12:07:15.837,990.0,-31.0,12.0,990.5579235965962,1,1,1,2.0,2.0
2021-09-24 12:07:15.846,1020.0,-31.0,12.0,1020.5415229181024,1,1,1,2.0,2.0
2021-09-24 12:07:15.847,1020.0,-76.0,9.0,1022.867049034233,1,1,1,2.0,2.0
2021-09-24 12:07:15.856,979.0,3.0,9.0,979.0459641916716,1,1,1,2.0,2.0
2021-09-24 12:07:15.857,979.0,3.0,-30.0,979.4641392108238,1,1,1,2.0,2.0
2021-09-24 12:07:15.870,1001.0,76.0,2.0,1003.8829613057492,1,1,1,2.0,2.0
2021-09-24 12:07:15.877,1022.0,40.0,31.0,1023.2521683338864,1,1,1,2.0,2.0
2021-09-24 12:07:15.885,1004.0,40.0,31.0,1005.2745893535756,1,1,1,2.0,2.0
2021-09-24 12:07:15.886,1004.0,76.0,17.0,1007.015888653203,1,1,1,2.0,2.0
2021-09-24 12:07:15.903,1045.0,-61.0,-1.0,1046.779346376303,1,1,1,2.0,2.0
2021-09-24 12:07:15.905,1008.0,-61.0,-1.0,1009.844542491566,1,1,1,2.0,2.0
2021-09-24 12:07:15.906,1008.0,2.0,2.0,1008.0039682461572,1,1,1,2.0,2.0
2021-09-24 12:07:15.915,998.0,77.0,10.0,1001.0159838883692,1,1,1,2.0,2.0
2021-09-24 12:07:15.925,1013.0,48.0,-23.0,1014.3973580407236,1,1,1,2.0,2.0
2021-09-24 12:07:15.934,1009.0,97.0,-23.0,1013.91271813702,1,1,1,2.0,2.0
2021-09-24 12:07:15.935,1009.0,97.0,-3.0,1013.6562533719208,1,1,1,2.0,2.0
2021-09-24 12:07:15.944,1012.0,9.0,-25.0,1012.3487541356486,1,1,1,2.0,2.0
2021-09-24 12:07:15.954,1004.0,-38.0,-25.0,1005.0298503029647,1,1,1,2.0,2.0
2021-09-24 12:07:15.964,996.0,5.0,2.0,996.0145581265366,1,1,1,2.0,2.0
2021-09-24 12:07:15.982,1036.0,42.0,42.0,1037.7013057715596,1,1,1,2.0,2.0
2021-09-24 12:07:15.985,1001.0,28.0,12.0,1001.4634291875066,1,1,1,2.0,2.0
2021-09-24 12:07:15.993,1000.0,19.0,12.0,1000.2524681299216,1,1,1,2.0,2.0
2021-09-24 12:07:15.994,1000.0,19.0,-9.0,1000.2209755848954,1,1,1,2.0,2.0
2021-09-24 12:07:16.003,1054.0,-9.0,-9.0,1054.076847293403,1,1,1,2.0,2.0
2021-09-24 12:07:16.004,1054.0,-9.0,9.0,1054.076847293403,1,1,1,2.0,2.0
2021-09-24 12:07:16.013,999.0,3.0,4.0,999.0125124341536,1,1,1,2.0,2.0
2021-09-24 12:07:16.022,1033.0,11.0,4.0,1033.0663095852076,1,1,1,2.0,2.0
2021-09-24 12:07:16.023,1033.0,11.0,22.0,1033.2927949037485,1,1,1,2.0,2.0
2021-09-24 12:07:16.033,1023.0,71.0,6.0,1025.4784249315048,1,1,1,2.0,2.0
2021-09-24 12:07:16.042,1026.0,76.0,30.0,1029.2482693694462,1,1,1,2.0,2.0
2021-09-24 12:07:16.052,1021.0,81.0,11.0,1024.2670550203204,1,1,1,2.0,2.0
2021-09-24 12:07:16.062,1018.0,36.0,0.0,1018.6363433532106,1,1,1,2.0,2.0
2021-09-24 12:07:16.071,1011.0,11.0,2.0,1011.0618180902688,1,1,1,2.0,2.0
2021-09-24 12:07:16.081,1002.0,17.0,2.0,1002.1461969193916,1,1,1,2.0,2.0
2021-09-24 12:07:16.082,1002.0,17.0,4.0,1002.1521840519034,1,1,1,2.0,2.0
2021-09-24 12:07:16.091,1018.0,24.0,14.0,1018.3791042632404,1,1,1,2.0,2.0
2021-09-24 12:07:16.100,1011.0,24.0,14.0,1011.3817281323604,1,1,1,2.0,2.0
2021-09-24 12:07:16.101,1011.0,18.0,-3.0,1011.1646750158948,1,1,1,2.0,2.0
2021-09-24 12:07:16.110,1016.0,7.0,-3.0,1016.0285429061528,1,1,1,2.0,2.0
2021-09-24 12:07:16.120,1015.0,34.0,9.0,1015.609176799816,1,1,1,2.0,2.0
2021-09-24 12:07:16.130,1005.0,52.0,-2.0,1006.346361845662,1,1,1,2.0,2.0
2021-09-24 12:07:16.140,1011.0,45.0,-1.0,1012.0014822123532,1,1,1,2.0,2.0
2021-09-24 12:07:16.150,1017.0,49.0,17.0,1018.3216584164358,1,1,1,2.0,2.0
2021-09-24 12:07:16.159,1033.0,49.0,17.0,1034.3012133803188,1,1,1,2.0,2.0
2021-09-24 12:07:16.160,1033.0,45.0,20.0,1034.1730996308113,1,1,1,2.0,2.0
2021-09-24 12:07:16.169,1008.0,16.0,9.0,1008.1671488399134,1,1,1,2.0,2.0
2021-09-24 12:07:16.179,1033.0,-4.0,1.0,1033.0082284280218,1,1,1,2.0,2.0
2021-09-24 12:07:16.188,996.0,41.0,1.0,996.8440198947876,1,1,1,2.0,2.0
2021-09-24 12:07:16.189,996.0,41.0,5.0,996.8560578137648,1,1,1,2.0,2.0
2021-09-24 12:07:16.198,1016.0,21.0,16.0,1016.3429539284464,1,1,1,2.0,2.0
2021-09-24 12:07:16.208,1026.0,56.0,0.0,1027.5271285956396,1,1,1,2.0,2.0
2021-09-24 12:07:16.218,1018.0,3.0,-7.0,1018.0284868312872,1,1,1,2.0,2.0
2021-09-24 12:07:16.227,990.0,-12.0,-7.0,990.0974699492974,1,1,1,2.0,2.0
2021-09-24 12:07:16.228,990.0,-12.0,-15.0,990.1863460985512,1,1,1,2.0,2.0
2021-09-24 12:07:16.237,990.0,80.0,-13.0,993.3121362391582,1,1,1,2.0,2.0
2021-09-24 12:07:16.247,1037.0,46.0,-13.0,1038.1011511408703,1,1,1,2.0,2.0
2021-09-24 12:07:16.248,1037.0,46.0,-4.0,1038.0274562842735,1,1,1,2.0,2.0
2021-09-24 12:07:16.257,999.0,38.0,6.0,999.7404663211348,1,1,1,2.0,2.0
2021-09-24 12:07:16.272,1033.0,22.0,8.0,1033.2652128084055,1,1,1,2.0,2.0
2021-09-24 12:07:16.276,978.0,39.0,7.0,978.802329380146,1,1,1,2.0,2.0
