time_stamp,Acceleration_X,Acceleration_Y,Acceleration_Z,magnitude,STD_Status_right,STD_Status_left,STD_Status_both,KMeans,KMeans_convert
2021-09-23 15:13:23.451,991.0,-75.0,0.0,993.8339901613348,1,1,1,1.0,2.0
2021-09-23 15:13:23.463,1023.0,298.0,16.0,1065.6401831762914,1,1,1,1.0,2.0
2021-09-23 15:13:23.471,991.0,-145.0,-16.0,1001.6795894895732,1,1,1,1.0,2.0
2021-09-23 15:13:23.481,998.0,162.0,-16.0,1011.1893986786056,1,1,1,1.0,2.0
2021-09-23 15:13:23.482,998.0,162.0,20.0,1011.2605994500132,1,1,1,1.0,2.0
2021-09-23 15:13:23.490,1014.0,162.0,20.0,1027.0540394740678,1,1,1,1.0,2.0
2021-09-23 15:13:23.491,1014.0,13.0,-4.0,1014.0912187766936,1,1,1,1.0,2.0
2021-09-23 15:13:23.500,991.0,113.0,-9.0,997.4622799885718,1,1,1,1.0,2.0
2021-09-23 15:13:23.510,1057.0,-25.0,2.0,1057.297498341881,1,1,1,1.0,2.0
2021-09-23 15:13:23.519,1014.0,-25.0,2.0,1014.3101103705908,1,1,1,1.0,2.0
2021-09-23 15:13:23.520,1014.0,-24.0,7.0,1014.3081385851144,1,1,1,1.0,2.0
2021-09-23 15:13:23.529,965.0,166.0,7.0,979.1986519598564,1,1,1,1.0,2.0
2021-09-23 15:13:23.530,965.0,166.0,17.0,979.3211934804638,1,1,1,1.0,2.0
2021-09-23 15:13:23.540,1047.0,166.0,17.0,1060.2141293153943,1,1,1,1.0,2.0
2021-09-23 15:13:23.541,1047.0,-216.0,19.0,1069.217470863622,1,1,1,1.0,2.0
2021-09-23 15:13:23.549,941.0,253.0,-14.0,974.5183425672398,1,1,1,1.0,2.0
2021-09-23 15:13:23.558,1046.0,253.0,-14.0,1076.25322299169,1,1,1,1.0,2.0
2021-09-23 15:13:23.559,1046.0,-175.0,15.0,1060.644143905014,1,1,1,1.0,2.0
2021-09-23 15:13:23.568,937.0,291.0,15.0,981.2619426024836,1,1,1,1.0,2.0
2021-09-23 15:13:23.569,937.0,291.0,-17.0,981.294553128672,1,1,1,1.0,2.0
2021-09-23 15:13:23.578,1056.0,-133.0,12.0,1064.410165302831,1,1,1,1.0,2.0
2021-09-23 15:13:23.589,997.0,57.0,18.0,998.7902682745764,1,1,1,1.0,2.0
2021-09-23 15:13:23.599,1009.0,8.0,18.0,1009.1922512584013,1,1,1,1.0,2.0
2021-09-23 15:13:23.607,1040.0,-90.0,18.0,1044.042144743209,1,1,1,1.0,2.0
2021-09-23 15:13:23.608,1040.0,-90.0,18.0,1044.042144743209,1,1,1,1.0,2.0
2021-09-23 15:13:23.617,1030.0,-95.0,7.0,1034.3954756281564,1,1,1,1.0,2.0
2021-09-23 15:13:23.627,1061.0,-78.0,6.0,1063.8801624243213,1,1,1,1.0,2.0
2021-09-23 15:13:23.638,961.0,304.0,-17.0,1008.0803539401012,1,1,1,1.0,2.0
2021-09-23 15:13:23.646,1035.0,304.0,-17.0,1078.8558754532507,1,1,1,1.0,2.0
2021-09-23 15:13:23.647,1035.0,-218.0,9.0,1057.747606946005,1,1,1,1.0,2.0
2021-09-23 15:13:23.656,952.0,106.0,-12.0,957.958245436616,1,1,1,1.0,2.0
2021-09-23 15:13:23.666,1019.0,20.0,41.0,1020.0205880275164,1,1,1,1.0,2.0
2021-09-23 15:13:23.676,1026.0,83.0,-2.0,1029.3536807142625,1,1,1,1.0,2.0
2021-09-23 15:13:23.685,1038.0,83.0,-2.0,1041.3150339834722,1,1,1,1.0,2.0
2021-09-23 15:13:23.686,1038.0,-86.0,11.0,1041.6146120326846,1,1,1,1.0,2.0
2021-09-23 15:13:23.697,1062.0,-24.0,-18.0,1062.4236443152045,1,1,1,1.0,2.0
2021-09-23 15:13:23.705,934.0,262.0,29.0,970.4849303312236,1,1,1,1.0,2.0
2021-09-23 15:13:23.715,1057.0,-206.0,16.0,1077.005571016232,1,1,1,1.0,2.0
2021-09-23 15:13:23.724,951.0,-206.0,16.0,973.1870323838064,1,1,1,1.0,2.0
2021-09-23 15:13:23.725,951.0,194.0,-7.0,970.6111476796464,1,1,1,1.0,2.0
2021-09-23 15:13:23.734,1039.0,194.0,-7.0,1056.9796592177163,1,1,1,1.0,2.0
2021-09-23 15:13:23.735,1039.0,-238.0,19.0,1066.0797343538616,1,1,1,1.0,2.0
2021-09-23 15:13:23.745,981.0,266.0,-36.0,1017.0609617913766,1,1,1,1.0,2.0
2021-09-23 15:13:23.754,1050.0,-129.0,-10.0,1057.941869858642,1,1,1,1.0,2.0
2021-09-23 15:13:23.764,1015.0,7.0,3.0,1015.0285710264516,1,1,1,1.0,2.0
2021-09-23 15:13:23.773,977.0,85.0,3.0,980.6951616073162,1,1,1,1.0,2.0
2021-09-23 15:13:23.774,977.0,85.0,17.0,980.8379070978038,1,1,1,1.0,2.0
2021-09-23 15:13:23.783,1032.0,-161.0,23.0,1044.7363303724055,1,1,1,1.0,2.0
2021-09-23 15:13:23.800,1028.0,-55.0,2.0,1029.472194864922,1,1,1,1.0,2.0
2021-09-23 15:13:23.803,1072.0,-107.0,19.0,1077.4943155302492,1,1,1,1.0,2.0
2021-09-23 15:13:23.812,971.0,-107.0,19.0,977.0624340337724,1,1,1,1.0,2.0
2021-09-23 15:13:23.813,971.0,274.0,-37.0,1009.5969492822372,1,1,1,1.0,2.0
2021-09-23 15:13:23.822,1036.0,-175.0,-37.0,1051.3277319656322,1,1,1,1.0,2.0
2021-09-23 15:13:23.823,1036.0,-175.0,8.0,1050.7069048978406,1,1,1,1.0,2.0
2021-09-23 15:13:23.833,959.0,67.0,10.0,961.3896192491368,1,1,1,1.0,2.0
2021-09-23 15:13:23.842,1015.0,-180.0,20.0,1031.0310373601758,1,1,1,1.0,2.0
2021-09-23 15:13:23.851,1031.0,-180.0,20.0,1046.7860335331188,1,1,1,1.0,2.0
2021-09-23 15:13:23.852,1031.0,57.0,-14.0,1032.6693565706305,1,1,1,1.0,2.0
2021-09-23 15:13:23.861,1006.0,-124.0,-14.0,1013.7100177072336,1,1,1,1.0,2.0
2021-09-23 15:13:23.862,1006.0,-124.0,3.0,1013.6177780603496,1,1,1,1.0,2.0
2021-09-23 15:13:23.872,1052.0,-19.0,-3.0,1052.1758408174935,1,1,1,1.0,2.0
2021-09-23 15:13:23.882,945.0,273.0,31.0,984.1315968913914,1,1,1,1.0,2.0
2021-09-23 15:13:23.891,1047.0,-211.0,24.0,1068.319240676681,1,1,1,1.0,2.0
2021-09-23 15:13:23.900,969.0,-211.0,24.0,991.9969758018418,1,1,1,1.0,2.0
2021-09-23 15:13:23.901,969.0,234.0,45.0,997.8687288416248,1,1,1,1.0,2.0
2021-09-23 15:13:23.910,1060.0,-218.0,7.0,1082.2074662466528,1,1,1,1.0,2.0
2021-09-23 15:13:23.920,1008.0,157.0,-19.0,1020.3303386648856,1,1,1,1.0,2.0
2021-09-23 15:13:23.931,1054.0,-121.0,-16.0,1061.0433544393934,1,1,1,1.0,2.0
2021-09-23 15:13:23.940,1022.0,-31.0,5.0,1022.4822736849768,1,1,1,1.0,2.0
2021-09-23 15:13:23.949,961.0,153.0,13.0,973.1901150340564,1,1,1,1.0,2.0
2021-09-23 15:13:23.959,1044.0,70.0,30.0,1046.7740921516925,1,1,1,1.0,2.0
2021-09-23 15:13:23.969,1022.0,20.0,23.0,1022.4543999611914,1,1,1,1.0,2.0
2021-09-23 15:13:23.980,1057.0,-184.0,-9.0,1072.9333623296463,1,1,1,1.0,2.0
2021-09-23 15:13:23.989,945.0,240.0,12.0,975.0738433575171,1,1,1,1.0,2.0
2021-09-23 15:13:24.008,1032.0,-174.0,3.0,1046.5701123192846,1,1,1,1.0,2.0
2021-09-23 15:13:24.010,988.0,118.0,22.0,995.2647888878618,1,1,1,1.0,2.0
2021-09-23 15:13:24.018,1060.0,-158.0,15.0,1071.8157490912326,1,1,1,1.0,2.0
2021-09-23 15:13:24.028,1015.0,79.0,5.0,1018.0820202714514,1,1,1,1.0,2.0
2021-09-23 15:13:24.037,1015.0,-131.0,-12.0,1023.4891303770646,1,1,1,1.0,2.0
2021-09-23 15:13:24.047,1064.0,-58.0,18.0,1065.731673546395,1,1,1,1.0,2.0
2021-09-23 15:13:24.067,955.0,284.0,0.0,996.3337794133048,1,1,1,1.0,2.0
2021-09-23 15:13:24.068,1056.0,-198.0,9.0,1074.4398540635025,1,1,1,1.0,2.0
2021-09-23 15:13:24.090,975.0,291.0,45.0,1018.4944771573385,1,1,1,1.0,2.0
2021-09-23 15:13:24.091,1058.0,-190.0,45.0,1075.8666274218194,1,1,1,1.0,2.0
2021-09-23 15:13:24.092,1058.0,-190.0,14.0,1075.0162789465098,1,1,1,1.0,2.0
2021-09-23 15:13:24.096,1015.0,137.0,-16.0,1024.3290486948029,1,1,1,1.0,2.0
2021-09-23 15:13:24.105,1035.0,137.0,-16.0,1044.1503723123408,1,1,1,1.0,2.0
2021-09-23 15:13:24.106,1035.0,-112.0,13.0,1041.1234316832947,1,1,1,1.0,2.0
2021-09-23 15:13:24.115,1040.0,-53.0,0.0,1041.3496050798694,1,1,1,1.0,2.0
2021-09-23 15:13:24.126,961.0,238.0,20.0,990.2348206359944,1,1,1,1.0,2.0
2021-09-23 15:13:24.135,1057.0,27.0,20.0,1057.5339238057568,1,1,1,1.0,2.0
2021-09-23 15:13:24.136,1057.0,27.0,21.0,1057.5533083490402,1,1,1,1.0,2.0
2021-09-23 15:13:24.144,1008.0,27.0,21.0,1008.5801901683376,1,1,1,1.0,2.0
2021-09-23 15:13:24.145,1008.0,94.0,10.0,1012.4228365658294,1,1,1,1.0,2.0
2021-09-23 15:13:24.154,1044.0,-234.0,4.0,1069.9102766120157,1,1,1,1.0,2.0
2021-09-23 15:13:24.164,962.0,251.0,-26.0,994.545624896113,1,1,1,1.0,2.0
2021-09-23 15:13:24.174,1040.0,-158.0,0.0,1051.9334579715585,1,1,1,1.0,2.0
2021-09-23 15:13:24.184,1037.0,51.0,-3.0,1038.2576751462038,1,1,1,1.0,2.0
2021-09-23 15:13:24.194,1054.0,-104.0,6.0,1059.1354965253502,1,1,1,1.0,2.0
2021-09-23 15:13:24.203,990.0,129.0,28.0,998.761733347849,1,1,1,1.0,2.0
2021-09-23 15:13:24.213,1039.0,-65.0,-1.0,1041.0316998055343,1,1,1,1.0,2.0
2021-09-23 15:13:24.223,1075.0,-104.0,13.0,1080.097217846616,1,1,1,1.0,2.0
2021-09-23 15:13:24.233,963.0,268.0,-22.0,999.8384869567684,1,1,1,1.0,2.0
2021-09-23 15:13:24.247,1059.0,-202.0,-22.0,1078.3176711897102,1,1,1,1.0,2.0
2021-09-23 15:13:24.248,1059.0,-202.0,5.0,1078.104818651693,1,1,1,1.0,2.0
2021-09-23 15:13:24.252,978.0,294.0,17.0,1021.376032614825,1,1,1,1.0,2.0
2021-09-23 15:13:24.262,1047.0,-186.0,27.0,1063.7358694713646,1,1,1,1.0,2.0
2021-09-23 15:13:24.271,1016.0,-186.0,27.0,1033.2381138924368,1,1,1,1.0,2.0
2021-09-23 15:13:24.272,1016.0,113.0,-25.0,1022.570290982483,1,1,1,1.0,2.0
2021-09-23 15:13:24.281,1020.0,-103.0,23.0,1025.4452691392164,1,1,1,1.0,2.0
2021-09-23 15:13:24.291,1057.0,-60.0,23.0,1058.951368099593,1,1,1,1.0,2.0
2021-09-23 15:13:24.292,1057.0,-60.0,-8.0,1058.7317885092525,1,1,1,1.0,2.0
2021-09-23 15:13:24.301,942.0,268.0,28.0,979.7816083189152,1,1,1,1.0,2.0
2021-09-23 15:13:24.310,1022.0,268.0,28.0,1056.9257305979452,1,1,1,1.0,2.0
2021-09-23 15:13:24.311,1022.0,-3.0,22.0,1022.241165283418,1,1,1,1.0,2.0
2021-09-23 15:13:24.320,985.0,235.0,35.0,1013.2497224277932,1,1,1,1.0,2.0
2021-09-23 15:13:24.331,1058.0,-206.0,9.0,1077.905840043554,1,1,1,1.0,2.0
2021-09-23 15:13:24.340,980.0,180.0,-16.0,996.5219515896276,1,1,1,1.0,2.0
2021-09-23 15:13:24.350,1053.0,180.0,-16.0,1068.3936540433026,1,1,1,1.0,2.0
2021-09-23 15:13:24.351,1053.0,-162.0,-12.0,1065.4562403027164,1,1,1,1.0,2.0
2021-09-23 15:13:24.359,1024.0,-9.0,-12.0,1024.1098573883569,1,1,1,1.0,2.0
2021-09-23 15:13:24.360,1024.0,-9.0,18.0,1024.1977348149137,1,1,1,1.0,2.0
2021-09-23 15:13:24.369,1059.0,-74.0,14.0,1061.6746205876827,1,1,1,1.0,2.0
2021-09-23 15:13:24.379,1030.0,-74.0,14.0,1032.749727668809,1,1,1,1.0,2.0
2021-09-23 15:13:24.380,1030.0,90.0,35.0,1034.516795417068,1,1,1,1.0,2.0
2021-09-23 15:13:24.389,1040.0,21.0,1.0,1040.2124782946992,1,1,1,1.0,2.0
2021-09-23 15:13:24.399,1060.0,-181.0,10.0,1075.388766911762,1,1,1,1.0,2.0
2021-09-23 15:13:24.408,922.0,225.0,-11.0,949.1206456504884,1,1,1,1.0,2.0
2021-09-23 15:13:24.418,1045.0,-196.0,19.0,1063.3917434323064,1,1,1,1.0,2.0
2021-09-23 15:13:24.428,975.0,338.0,0.0,1031.924900368239,1,1,1,1.0,2.0
2021-09-23 15:13:24.437,1043.0,338.0,0.0,1096.4000182415175,1,1,1,1.0,2.0
2021-09-23 15:13:24.438,1043.0,-140.0,9.0,1052.3925123260808,1,1,1,1.0,2.0
2021-09-23 15:13:24.457,1024.0,-107.0,1.0,1029.5756407374836,1,1,1,1.0,2.0
2021-09-23 15:13:24.467,1062.0,-127.0,2.0,1069.568604625248,1,1,1,1.0,2.0
2021-09-23 15:13:24.476,980.0,-127.0,2.0,988.19684273934,1,1,1,1.0,2.0
2021-09-23 15:13:24.477,980.0,275.0,-15.0,1017.9636535751166,1,1,1,1.0,2.0
2021-09-23 15:13:24.487,1023.0,-23.0,-15.0,1023.3684575948196,1,1,1,1.0,2.0
2021-09-23 15:13:24.488,1023.0,-23.0,11.0,1023.3176437450886,1,1,1,1.0,2.0
2021-09-23 15:13:24.497,973.0,245.0,38.0,1004.0906333593596,1,1,1,1.0,2.0
2021-09-23 15:13:24.506,1069.0,-156.0,4.0,1080.330042163042,1,1,1,1.0,2.0
2021-09-23 15:13:24.516,993.0,127.0,-3.0,1001.0929027817548,1,1,1,1.0,2.0
2021-09-23 15:13:24.525,1053.0,-147.0,-3.0,1063.2154062089205,1,1,1,1.0,2.0
2021-09-23 15:13:24.526,1053.0,-147.0,3.0,1063.2154062089205,1,1,1,1.0,2.0
2021-09-23 15:13:24.536,1044.0,-48.0,10.0,1045.1507068361002,1,1,1,1.0,2.0
2021-09-23 15:13:24.546,1041.0,-34.0,14.0,1041.6491731864428,1,1,1,1.0,2.0
2021-09-23 15:13:24.554,1047.0,-34.0,14.0,1047.645455294872,1,1,1,1.0,2.0
2021-09-23 15:13:24.555,1047.0,0.0,18.0,1047.1547163623911,1,1,1,1.0,2.0
2021-09-23 15:13:24.564,1023.0,101.0,18.0,1028.131314570274,1,1,1,1.0,2.0
2021-09-23 15:13:24.565,1023.0,101.0,17.0,1028.1142932573207,1,1,1,1.0,2.0
2021-09-23 15:13:24.574,1056.0,-217.0,1.0,1078.0658606968314,1,1,1,1.0,2.0
2021-09-23 15:13:24.584,948.0,213.0,-16.0,971.7659183157228,1,1,1,1.0,2.0
2021-09-23 15:13:24.595,1053.0,-184.0,2.0,1068.9569682639242,1,1,1,1.0,2.0
2021-09-23 15:13:24.603,962.0,-184.0,2.0,979.4406567015686,1,1,1,1.0,2.0
2021-09-23 15:13:24.604,962.0,313.0,14.0,1011.735637407322,1,1,1,1.0,2.0
2021-09-23 15:13:24.613,1044.0,-119.0,-4.0,1050.7678145051837,1,1,1,1.0,2.0
2021-09-23 15:13:24.623,1018.0,128.0,33.0,1026.5461509352613,1,1,1,1.0,2.0
2021-09-23 15:13:24.633,1036.0,-53.0,-5.0,1037.3668589269662,1,1,1,1.0,2.0
2021-09-23 15:13:24.643,1035.0,-53.0,-5.0,1036.3681778209905,1,1,1,1.0,2.0
2021-09-23 15:13:24.644,1035.0,-153.0,23.0,1046.5003583372536,1,1,1,1.0,2.0
2021-09-23 15:13:24.656,975.0,-153.0,23.0,987.1995745542032,1,1,1,1.0,2.0
2021-09-23 15:13:24.657,975.0,249.0,-21.0,1006.5122950068716,1,1,1,1.0,2.0
2021-09-23 15:13:24.662,1032.0,-29.0,17.0,1032.547335476684,1,1,1,1.0,2.0
2021-09-23 15:13:24.672,979.0,249.0,22.0,1010.4088281482896,1,1,1,1.0,2.0
2021-09-23 15:13:24.682,1057.0,-162.0,6.0,1069.359153886102,1,1,1,1.0,2.0
2021-09-23 15:13:24.692,1007.0,103.0,6.0,1012.2717026569496,1,1,1,1.0,2.0
2021-09-23 15:13:24.693,1007.0,103.0,-22.0,1012.4929629385084,1,1,1,1.0,2.0
2021-09-23 15:13:24.701,1035.0,103.0,-22.0,1040.345135039329,1,1,1,1.0,2.0
2021-09-23 15:13:24.702,1035.0,-155.0,22.0,1046.7731368352934,1,1,1,1.0,2.0
2021-09-23 15:13:24.711,1045.0,-81.0,-7.0,1048.1579079508963,1,1,1,1.0,2.0
2021-09-23 15:13:24.721,1047.0,-80.0,8.0,1050.08237772091,1,1,1,1.0,2.0
2021-09-23 15:13:24.730,1039.0,-80.0,8.0,1042.1060406695665,1,1,1,1.0,2.0
2021-09-23 15:13:24.731,1039.0,-13.0,19.0,1039.2550216380962,1,1,1,1.0,2.0
2021-09-23 15:13:24.741,1002.0,232.0,26.0,1028.8362357537762,1,1,1,1.0,2.0
2021-09-23 15:13:24.750,1051.0,-188.0,3.0,1067.686283512156,1,1,1,1.0,2.0
2021-09-23 15:13:24.760,955.0,236.0,-3.0,983.7326872682436,1,1,1,1.0,2.0
2021-09-23 15:13:24.769,1050.0,236.0,-3.0,1076.199330979164,1,1,1,1.0,2.0
2021-09-23 15:13:24.770,1050.0,-235.0,-13.0,1076.0548313166946,1,1,1,1.0,2.0
2021-09-23 15:13:24.779,923.0,307.0,0.0,972.7168138775024,1,1,1,1.0,2.0
2021-09-23 15:13:24.789,1057.0,-115.0,7.0,1063.2605513231458,1,1,1,1.0,2.0
2021-09-23 15:13:24.799,1027.0,128.0,7.0,1034.9695647699018,1,1,1,1.0,2.0
2021-09-23 15:13:24.800,1027.0,128.0,14.0,1035.0405789146623,1,1,1,1.0,2.0
2021-09-23 15:13:24.814,1034.0,128.0,14.0,1041.986564212802,1,1,1,1.0,2.0
2021-09-23 15:13:24.815,1034.0,-32.0,-15.0,1034.6037888969863,1,1,1,1.0,2.0
2021-09-23 15:13:24.818,1055.0,-156.0,-15.0,1066.576767044923,1,1,1,1.0,2.0
2021-09-23 15:13:24.819,1055.0,-156.0,21.0,1066.678020772904,1,1,1,1.0,2.0
2021-09-23 15:13:24.828,966.0,212.0,-16.0,989.118799740456,1,1,1,1.0,2.0
2021-09-23 15:13:24.838,1025.0,-66.0,21.0,1027.3373350560175,1,1,1,1.0,2.0
2021-09-23 15:13:24.848,976.0,263.0,15.0,1010.9253187055906,1,1,1,1.0,2.0
2021-09-23 15:13:24.858,1067.0,-155.0,1.0,1078.1998887033888,1,1,1,1.0,2.0
2021-09-23 15:13:24.867,1004.0,127.0,-12.0,1012.0716377806464,1,1,1,1.0,2.0
2021-09-23 15:13:24.877,1029.0,-145.0,9.0,1039.2049845915867,1,1,1,1.0,2.0
2021-09-23 15:13:24.887,1041.0,-98.0,0.0,1045.602697012589,1,1,1,1.0,2.0
2021-09-23 15:13:24.897,1047.0,-101.0,10.0,1051.9077906356622,1,1,1,1.0,2.0
2021-09-23 15:13:24.907,1043.0,-18.0,8.0,1043.1859853353092,1,1,1,1.0,2.0
2021-09-23 15:13:24.916,1011.0,217.0,34.0,1034.5849409304196,1,1,1,1.0,2.0
2021-09-23 15:13:24.926,1055.0,-180.0,2.0,1070.2471677140752,1,1,1,1.0,2.0
2021-09-23 15:13:24.936,943.0,231.0,-18.0,971.0478875936036,1,1,1,1.0,2.0
2021-09-23 15:13:24.946,1057.0,-227.0,-6.0,1081.1170149433408,1,1,1,1.0,2.0
2021-09-23 15:13:24.956,924.0,278.0,7.0,964.9398945012068,1,1,1,1.0,2.0
2021-09-23 15:13:24.965,1048.0,-142.0,5.0,1057.588294186353,1,1,1,1.0,2.0
2021-09-23 15:13:24.975,1032.0,141.0,26.0,1041.912184399434,1,1,1,1.0,2.0
2021-09-23 15:13:24.984,1031.0,2.0,26.0,1031.329724191056,1,1,1,1.0,2.0
2021-09-23 15:13:24.985,1031.0,2.0,-16.0,1031.1260834640932,1,1,1,1.0,2.0
2021-09-23 15:13:24.994,1045.0,-170.0,32.0,1059.2209401253358,1,1,1,1.0,2.0
2021-09-23 15:13:25.004,968.0,209.0,-11.0,990.366598790569,1,1,1,1.0,2.0
2021-09-23 15:13:25.024,1018.0,-84.0,33.0,1021.9926614217932,1,1,1,1.0,2.0
2021-09-23 15:13:25.027,977.0,219.0,2.0,1001.2462234635394,1,1,1,1.0,2.0
2021-09-23 15:13:25.035,1037.0,-135.0,16.0,1045.8728412192372,1,1,1,1.0,2.0
2021-09-23 15:13:25.043,1029.0,121.0,-30.0,1036.5239987573852,1,1,1,1.0,2.0
2021-09-23 15:13:25.053,1015.0,-115.0,25.0,1021.7998825601812,1,1,1,1.0,2.0
2021-09-23 15:13:25.062,1022.0,-115.0,25.0,1028.7536148174645,1,1,1,1.0,2.0
2021-09-23 15:13:25.063,1022.0,-126.0,-9.0,1029.7771603604344,1,1,1,1.0,2.0
2021-09-23 15:13:25.081,998.0,-46.0,28.0,999.4518497656604,1,1,1,1.0,2.0
2021-09-23 15:13:25.084,1040.0,-46.0,28.0,1041.3932974625868,1,1,1,1.0,2.0
2021-09-23 15:13:25.085,1040.0,-62.0,24.0,1042.1228334510286,1,1,1,1.0,2.0
2021-09-23 15:13:25.105,978.0,280.0,56.0,1018.8326653577612,1,1,1,1.0,2.0
2021-09-23 15:13:25.106,1073.0,-123.0,-5.0,1080.0384252423614,1,1,1,1.0,2.0
2021-09-23 15:13:25.111,985.0,173.0,-5.0,1000.0894959952334,1,1,1,1.0,2.0
2021-09-23 15:13:25.112,985.0,173.0,0.0,1000.0769970357284,1,1,1,1.0,2.0
2021-09-23 15:13:25.121,1050.0,-219.0,-9.0,1072.6332085107192,1,1,1,1.0,2.0
2021-09-23 15:13:25.131,896.0,319.0,-17.0,951.2444480784106,1,1,1,1.0,2.0
2021-09-23 15:13:25.141,1036.0,-147.0,22.0,1046.6083317077118,1,1,1,1.0,2.0
2021-09-23 15:13:25.153,1060.0,96.0,21.0,1064.5454429003958,1,1,1,1.0,2.0
2021-09-23 15:13:25.161,1041.0,103.0,-2.0,1046.085082581718,1,1,1,1.0,2.0
2021-09-23 15:13:25.170,1061.0,-178.0,0.0,1075.8275884174006,1,1,1,1.0,2.0
2021-09-23 15:13:25.180,933.0,168.0,0.0,948.0047468235588,1,1,1,1.0,2.0
2021-09-23 15:13:25.189,1010.0,168.0,0.0,1023.8769457312728,1,1,1,1.0,2.0
2021-09-23 15:13:25.190,1010.0,-115.0,33.0,1017.0614534038738,1,1,1,1.0,2.0
2021-09-23 15:13:25.200,960.0,261.0,3.0,994.851747749382,1,1,1,1.0,2.0
2021-09-23 15:13:25.209,1062.0,-121.0,23.0,1069.1183283435,1,1,1,1.0,2.0
2021-09-23 15:13:25.219,1037.0,171.0,-20.0,1051.1945585856122,1,1,1,1.0,2.0
2021-09-23 15:13:25.232,1016.0,-75.0,-4.0,1018.77230036942,1,1,1,1.0,2.0
2021-09-23 15:13:25.238,1027.0,-176.0,-4.0,1041.9793663983946,1,1,1,1.0,2.0
2021-09-23 15:13:25.239,1027.0,-176.0,26.0,1042.296023210297,1,1,1,1.0,2.0
2021-09-23 15:13:25.248,972.0,7.0,26.0,972.3728708679608,1,1,1,1.0,2.0
2021-09-23 15:13:25.249,972.0,7.0,31.0,972.519408546688,1,1,1,1.0,2.0
2021-09-23 15:13:25.259,1046.0,-71.0,25.0,1048.704915598282,1,1,1,1.0,2.0
2021-09-23 15:13:25.267,963.0,-71.0,25.0,965.9373685700332,1,1,1,1.0,2.0
2021-09-23 15:13:25.268,963.0,254.0,58.0,997.6216717774328,1,1,1,1.0,2.0
2021-09-23 15:13:25.277,1103.0,-93.0,0.0,1106.913727442207,1,1,1,1.0,2.0
2021-09-23 15:13:25.287,977.0,158.0,-7.0,989.7181416948968,1,1,1,1.0,2.0
2021-09-23 15:13:25.297,1057.0,-233.0,4.0,1082.3834810269418,1,1,1,1.0,2.0
2021-09-23 15:13:25.307,901.0,-233.0,4.0,930.6481612295808,1,1,1,1.0,2.0
2021-09-23 15:13:25.308,901.0,305.0,-3.0,951.2281534942076,1,1,1,1.0,2.0
2021-09-23 15:13:25.316,1037.0,-122.0,-3.0,1044.156118595299,1,1,1,1.0,2.0
2021-09-23 15:13:25.317,1037.0,-122.0,21.0,1044.362963724777,1,1,1,1.0,2.0
2021-09-23 15:13:25.326,1063.0,48.0,14.0,1064.1752675194064,1,1,1,1.0,2.0
2021-09-23 15:13:25.336,1038.0,188.0,-6.0,1054.904735035349,1,1,1,1.0,2.0
2021-09-23 15:13:25.346,1054.0,-207.0,8.0,1074.1643263486271,1,1,1,1.0,2.0
2021-09-23 15:13:25.356,921.0,170.0,2.0,936.560195609444,1,1,1,1.0,2.0
2021-09-23 15:13:25.366,1001.0,-104.0,25.0,1006.6985646160424,1,1,1,1.0,2.0
2021-09-23 15:13:25.375,942.0,258.0,13.0,976.7788900257826,1,1,1,1.0,2.0
2021-09-23 15:13:25.385,1072.0,-132.0,19.0,1080.2633938072695,1,1,1,1.0,2.0
2021-09-23 15:13:25.394,1014.0,-132.0,19.0,1022.7321252410136,1,1,1,1.0,2.0
2021-09-23 15:13:25.395,1014.0,165.0,-12.0,1027.4069300914805,1,1,1,1.0,2.0
2021-09-23 15:13:25.404,1028.0,165.0,-12.0,1041.226680411139,1,1,1,1.0,2.0
2021-09-23 15:13:25.405,1028.0,-55.0,-5.0,1029.4823942156563,1,1,1,1.0,2.0
2021-09-23 15:13:25.415,1035.0,-180.0,30.0,1050.9638433362015,1,1,1,1.0,2.0
2021-09-23 15:13:25.424,969.0,-1.0,38.0,969.745327392713,1,1,1,1.0,2.0
2021-09-23 15:13:25.435,1047.0,-90.0,15.0,1050.9681251113184,1,1,1,1.0,2.0
2021-09-23 15:13:25.443,968.0,247.0,15.0,999.1286203487516,1,1,1,1.0,2.0
2021-09-23 15:13:25.444,968.0,247.0,43.0,999.9409982593972,1,1,1,1.0,2.0
2021-09-23 15:13:25.454,1090.0,247.0,43.0,1118.462337318517,1,1,1,1.0,2.0
2021-09-23 15:13:25.455,1090.0,-118.0,-3.0,1096.37265562399,1,1,1,1.0,2.0
2021-09-23 15:13:25.464,996.0,170.0,-7.0,1010.4281270827728,1,1,1,1.0,2.0
2021-09-23 15:13:25.473,1033.0,-195.0,18.0,1051.3981167949655,1,1,1,1.0,2.0
2021-09-23 15:13:25.483,912.0,292.0,-11.0,957.6685230287148,1,1,1,1.0,2.0
2021-09-23 15:13:25.492,1028.0,-179.0,11.0,1043.5257543539594,1,1,1,1.0,2.0
2021-09-23 15:13:25.502,1052.0,9.0,24.0,1052.3122160271637,1,1,1,1.0,2.0
2021-09-23 15:13:25.512,1040.0,240.0,15.0,1067.4385228199328,1,1,1,1.0,2.0
2021-09-23 15:13:25.522,1053.0,240.0,15.0,1080.1083279004936,1,1,1,1.0,2.0
2021-09-23 15:13:25.523,1053.0,-209.0,-4.0,1073.5483221541544,1,1,1,1.0,2.0
2021-09-23 15:13:25.531,919.0,208.0,8.0,942.2786212156147,1,1,1,1.0,2.0
2021-09-23 15:13:25.541,1010.0,-110.0,8.0,1016.003937000246,1,1,1,1.0,2.0
2021-09-23 15:13:25.542,1010.0,-110.0,32.0,1016.47626632401,1,1,1,1.0,2.0
2021-09-23 15:13:25.551,926.0,255.0,10.0,960.5212126757012,1,1,1,1.0,2.0
2021-09-23 15:13:25.561,1066.0,-148.0,25.0,1076.5152112255544,1,1,1,1.0,2.0
2021-09-23 15:13:25.571,1008.0,176.0,-1.0,1023.2502137796014,1,1,1,1.0,2.0
2021-09-23 15:13:25.580,1037.0,-8.0,6.0,1037.0482148868489,1,1,1,1.0,2.0
2021-09-23 15:13:25.590,1035.0,-218.0,12.0,1057.7773867879762,1,1,1,1.0,2.0
2021-09-23 15:13:25.599,979.0,-218.0,12.0,1003.0498492098984,1,1,1,1.0,2.0
2021-09-23 15:13:25.600,979.0,38.0,21.0,979.962244170662,1,1,1,1.0,2.0
2021-09-23 15:13:25.610,1026.0,-117.0,40.0,1033.423920760498,1,1,1,1.0,2.0
2021-09-23 15:13:25.620,971.0,207.0,20.0,993.0206442969854,1,1,1,1.0,2.0
2021-09-23 15:13:25.629,1078.0,-124.0,20.0,1085.292587277735,1,1,1,1.0,2.0
2021-09-23 15:13:25.630,1078.0,-124.0,14.0,1085.1985993356238,1,1,1,1.0,2.0
2021-09-23 15:13:25.639,997.0,191.0,-29.0,1015.5446814394728,1,1,1,1.0,2.0
2021-09-23 15:13:25.658,1028.0,-130.0,35.0,1036.7781826408193,1,1,1,1.0,2.0
2021-09-23 15:13:25.661,944.0,262.0,9.0,979.7249614049854,1,1,1,1.0,2.0
2021-09-23 15:13:25.670,990.0,262.0,9.0,1024.1215748142406,1,1,1,1.0,2.0
2021-09-23 15:13:25.671,990.0,-116.0,15.0,996.885650413326,1,1,1,1.0,2.0
2021-09-23 15:13:25.682,1045.0,-51.0,34.0,1046.7960641882448,1,1,1,1.0,2.0
2021-09-23 15:13:25.703,988.0,315.0,37.0,1037.6598672011942,1,1,1,1.0,2.0
2021-09-23 15:13:25.710,946.0,182.0,37.0,964.0586081769096,1,1,1,1.0,2.0
2021-09-23 15:13:25.711,946.0,182.0,-7.0,963.3737592440432,1,1,1,1.0,2.0
2021-09-23 15:13:25.717,1025.0,-113.0,5.0,1031.222090531424,1,1,1,1.0,2.0
2021-09-23 15:13:25.727,887.0,289.0,7.0,932.9196106846506,1,1,1,1.0,2.0
2021-09-23 15:13:25.736,1040.0,-156.0,7.0,1051.658214440414,1,1,1,1.0,2.0
2021-09-23 15:13:25.737,1040.0,-156.0,23.0,1051.8864007106472,1,1,1,1.0,2.0
2021-09-23 15:13:25.746,1059.0,140.0,22.0,1068.4404522480418,1,1,1,1.0,2.0
2021-09-23 15:13:25.757,1063.0,119.0,13.0,1069.7191220128768,1,1,1,1.0,2.0
2021-09-23 15:13:25.766,1050.0,-205.0,-3.0,1069.8289582919317,1,1,1,1.0,2.0
2021-09-23 15:13:25.775,1001.0,102.0,-3.0,1006.1878552238644,1,1,1,1.0,2.0
2021-09-23 15:13:25.776,1001.0,102.0,-9.0,1006.2236331949276,1,1,1,1.0,2.0
2021-09-23 15:13:25.785,1004.0,-128.0,35.0,1012.7314550264548,1,1,1,1.0,2.0
2021-09-23 15:13:25.795,971.0,181.0,35.0,988.34558733269,1,1,1,1.0,2.0
2021-09-23 15:13:25.796,971.0,181.0,-13.0,987.8112167818302,1,1,1,1.0,2.0
2021-09-23 15:13:25.806,1072.0,181.0,-13.0,1087.2506610713097,1,1,1,1.0,2.0
2021-09-23 15:13:25.807,1072.0,-108.0,21.0,1077.631198509026,1,1,1,1.0,2.0
2021-09-23 15:13:25.814,1015.0,-108.0,21.0,1020.9456400808028,1,1,1,1.0,2.0
2021-09-23 15:13:25.815,1015.0,187.0,-35.0,1032.6756509185254,1,1,1,1.0,2.0
2021-09-23 15:13:25.833,1021.0,-82.0,18.0,1024.4457037832703,1,1,1,1.0,2.0
2021-09-23 15:13:25.836,967.0,263.0,-19.0,1002.3068392463456,1,1,1,1.0,2.0
2021-09-23 15:13:25.844,959.0,-65.0,28.0,961.6080282526764,1,1,1,1.0,2.0
2021-09-23 15:13:25.854,1031.0,-65.0,28.0,1033.4263399004303,1,1,1,1.0,2.0
2021-09-23 15:13:25.855,1031.0,-89.0,45.0,1035.8122416731712,1,1,1,1.0,2.0
2021-09-23 15:13:25.863,977.0,276.0,45.0,1016.2332409442234,1,1,1,1.0,2.0
2021-09-23 15:13:25.864,977.0,276.0,44.0,1016.1894508407375,1,1,1,1.0,2.0
2021-09-23 15:13:25.873,1110.0,-98.0,-15.0,1114.418682542607,1,1,1,1.0,2.0
2021-09-23 15:13:25.883,967.0,170.0,5.0,981.8421461721838,1,1,1,1.0,2.0
2021-09-23 15:13:25.893,1023.0,-99.0,2.0,1027.781105099719,1,1,1,1.0,2.0
2021-09-23 15:13:25.903,895.0,-99.0,2.0,900.4609930474501,1,1,1,1.0,2.0
2021-09-23 15:13:25.905,895.0,281.0,2.0,938.0778219316348,1,1,1,1.0,2.0
2021-09-23 15:13:25.906,895.0,281.0,5.0,938.0890149660638,1,1,1,1.0,2.0
2021-09-23 15:13:25.913,1048.0,-192.0,5.0,1065.4543631709432,1,1,1,1.0,2.0
2021-09-23 15:13:25.914,1048.0,-192.0,22.0,1065.6697424624572,1,1,1,1.0,2.0
2021-09-23 15:13:25.922,1069.0,120.0,16.0,1075.8331655047637,1,1,1,1.0,2.0
2021-09-23 15:13:25.932,1043.0,196.0,-3.0,1061.260571207656,1,1,1,1.0,2.0
2021-09-23 15:13:25.941,1050.0,196.0,-3.0,1068.1409083075134,1,1,1,1.0,2.0
2021-09-23 15:13:25.942,1050.0,-233.0,-6.0,1075.557994717161,1,1,1,1.0,2.0
2021-09-23 15:13:25.951,992.0,150.0,-6.0,1003.2945728947208,1,1,1,1.0,2.0
2021-09-23 15:13:25.952,992.0,150.0,-23.0,1003.5402333738294,1,1,1,1.0,2.0
2021-09-23 15:13:25.962,993.0,-129.0,47.0,1002.4465073010132,1,1,1,1.0,2.0
2021-09-23 15:13:25.971,946.0,188.0,9.0,964.5418601595268,1,1,1,1.0,2.0
2021-09-23 15:13:25.981,1092.0,-122.0,27.0,1099.125561526071,1,1,1,1.0,2.0
2021-09-23 15:13:25.991,1024.0,181.0,-37.0,1040.5315949071417,1,1,1,1.0,2.0
2021-09-23 15:13:26.000,1043.0,-35.0,14.0,1043.6809857422909,1,1,1,1.0,2.0
2021-09-23 15:13:26.011,978.0,318.0,-28.0,1028.7818038826308,1,1,1,1.0,2.0
2021-09-23 15:13:26.019,961.0,318.0,-28.0,1012.6346824003216,1,1,1,1.0,2.0
2021-09-23 15:13:26.020,961.0,-46.0,30.0,962.5679196815151,1,1,1,1.0,2.0
2021-09-23 15:13:26.039,1041.0,-114.0,30.0,1047.6530914381915,1,1,1,1.0,2.0
2021-09-23 15:13:26.040,1041.0,-114.0,36.0,1047.842068252654,1,1,1,1.0,2.0
2021-09-23 15:13:26.042,980.0,261.0,40.0,1014.9487671799004,1,1,1,1.0,2.0
2021-09-23 15:13:26.049,1121.0,-73.0,-21.0,1123.5706475340123,1,1,1,1.0,2.0
2021-09-23 15:13:26.059,983.0,170.0,-7.0,997.6161586502096,1,1,1,1.0,2.0
2021-09-23 15:13:26.068,1032.0,170.0,-7.0,1045.9316421258131,1,1,1,1.0,2.0
2021-09-23 15:13:26.069,1032.0,-95.0,-21.0,1036.5760946500743,1,1,1,1.0,2.0
2021-09-23 15:13:26.078,884.0,291.0,5.0,930.6782473013968,1,1,1,1.0,2.0
2021-09-23 15:13:26.095,1032.0,-190.0,5.0,1049.3564694611646,1,1,1,1.0,2.0
2021-09-23 15:13:26.096,1032.0,-190.0,28.0,1049.718057384934,1,1,1,1.0,2.0
2021-09-23 15:13:26.098,1073.0,70.0,12.0,1075.3478506976242,1,1,1,1.0,2.0
2021-09-23 15:13:26.120,1034.0,295.0,13.0,1075.3371564304844,1,1,1,1.0,2.0
2021-09-23 15:13:26.123,1047.0,-194.0,-9.0,1064.8596151606089,1,1,1,1.0,2.0
2021-09-23 15:13:26.127,1001.0,201.0,-18.0,1021.139559511823,1,1,1,1.0,2.0
2021-09-23 15:13:26.137,993.0,-120.0,36.0,1000.8721197036112,1,1,1,1.0,2.0
2021-09-23 15:13:26.148,933.0,-120.0,36.0,941.373995816753,1,1,1,1.0,2.0
2021-09-23 15:13:26.149,933.0,204.0,23.0,955.3187949579972,1,1,1,1.0,2.0
2021-09-23 15:13:26.157,1082.0,-141.0,20.0,1091.3317552421904,1,1,1,1.0,2.0
2021-09-23 15:13:26.167,1016.0,206.0,-26.0,1036.9995178398108,1,1,1,1.0,2.0
2021-09-23 15:13:26.176,1034.0,-2.0,6.0,1034.0193421788588,1,1,1,1.0,2.0
2021-09-23 15:13:26.186,971.0,314.0,-42.0,1021.3721163219604,1,1,1,1.0,2.0
2021-09-23 15:13:26.195,951.0,314.0,-42.0,1002.3776733347568,1,1,1,1.0,2.0
2021-09-23 15:13:26.196,951.0,-6.0,31.0,951.5240406842069,1,1,1,1.0,2.0
2021-09-23 15:13:26.206,1028.0,-145.0,40.0,1038.9461006231263,1,1,1,1.0,2.0
2021-09-23 15:13:26.216,977.0,217.0,33.0,1001.3525852565618,1,1,1,1.0,2.0
2021-09-23 15:13:26.226,1114.0,-65.0,-10.0,1115.9395144899208,1,1,1,1.0,2.0
2021-09-23 15:13:26.235,986.0,189.0,1.0,1003.9511940328572,1,1,1,1.0,2.0
2021-09-23 15:13:26.244,1030.0,-58.0,-25.0,1031.9345909504148,1,1,1,1.0,2.0
2021-09-23 15:13:26.254,905.0,265.0,5.0,943.0137856892655,1,1,1,1.0,2.0
2021-09-23 15:13:26.264,1017.0,-171.0,27.0,1031.6292938841937,1,1,1,1.0,2.0
2021-09-23 15:13:26.274,1074.0,-171.0,27.0,1087.8630428505237,1,1,1,1.0,2.0
2021-09-23 15:13:26.275,1074.0,24.0,21.0,1074.4733593719295,1,1,1,1.0,2.0
2021-09-23 15:13:26.283,1028.0,299.0,14.0,1070.691832414911,1,1,1,1.0,2.0
2021-09-23 15:13:26.293,1058.0,-167.0,-14.0,1071.190459255496,1,1,1,1.0,2.0
2021-09-23 15:13:26.303,1002.0,219.0,-16.0,1025.7782411418173,1,1,1,1.0,2.0
2021-09-23 15:13:26.313,1016.0,-220.0,28.0,1039.923074078078,1,1,1,1.0,2.0
2021-09-23 15:13:26.323,1014.0,-73.0,29.0,1017.0378557359604,1,1,1,1.0,2.0
2021-09-23 15:13:26.332,1041.0,-73.0,29.0,1043.9592903940268,1,1,1,1.0,2.0
2021-09-23 15:13:26.333,1041.0,67.0,-15.0,1043.2617121317162,1,1,1,1.0,2.0
2021-09-23 15:13:26.342,1057.0,125.0,35.0,1064.9408434274646,1,1,1,1.0,2.0
2021-09-23 15:13:26.351,993.0,125.0,35.0,1001.4484509948576,1,1,1,1.0,2.0
2021-09-23 15:13:26.352,993.0,12.0,-20.0,993.2738796525356,1,1,1,1.0,2.0
2021-09-23 15:13:26.361,996.0,25.0,-20.0,996.5144253848008,1,1,1,1.0,2.0
2021-09-23 15:13:26.362,996.0,25.0,-21.0,996.5349968766776,1,1,1,1.0,2.0
2021-09-23 15:13:26.372,1014.0,42.0,30.0,1015.3127596952576,1,1,1,1.0,2.0
2021-09-23 15:13:26.382,1003.0,-10.0,-20.0,1003.249221280535,1,1,1,1.0,2.0
2021-09-23 15:13:26.391,1004.0,25.0,21.0,1004.5307362146764,1,1,1,1.0,2.0
2021-09-23 15:13:26.400,1019.0,25.0,21.0,1019.522927648025,1,1,1,1.0,2.0
2021-09-23 15:13:26.401,1019.0,40.0,2.0,1019.7867424123536,1,1,1,1.0,2.0
2021-09-23 15:13:26.410,1021.0,41.0,17.0,1021.9642850902374,1,1,1,1.0,2.0
2021-09-23 15:13:26.421,1016.0,52.0,13.0,1017.4128955345514,1,1,1,1.0,2.0
2021-09-23 15:13:26.431,1018.0,32.0,-1.0,1018.5033136912222,1,1,1,1.0,2.0
2021-09-23 15:13:26.439,1003.0,32.0,-1.0,1003.5108370117384,1,1,1,1.0,2.0
2021-09-23 15:13:26.440,1003.0,48.0,9.0,1004.1882293673832,1,1,1,1.0,2.0
2021-09-23 15:13:26.449,1028.0,26.0,0.0,1028.3287412107084,1,1,1,1.0,2.0
