time_stamp,Acceleration_X,Acceleration_Y,Acceleration_Z,magnitude,STD_Status_right,STD_Status_left,STD_Status_both,KMeans,KMeans_convert
2021-09-23 15:13:40.804,1044.0,3.0,-25.0,1044.3035957038546,1,1,1,3.0,2.0
2021-09-23 15:13:40.805,1044.0,21.0,40.0,1044.977033240444,1,1,1,3.0,2.0
2021-09-23 15:13:40.814,1066.0,21.0,40.0,1066.9568876013689,1,1,1,3.0,2.0
2021-09-23 15:13:40.815,1066.0,-85.0,-7.0,1069.4063773888763,1,1,1,3.0,2.0
2021-09-23 15:13:40.824,1009.0,-44.0,19.0,1010.1376143872676,1,1,1,3.0,2.0
2021-09-23 15:13:40.835,968.0,137.0,14.0,977.7468997649648,1,1,1,3.0,2.0
2021-09-23 15:13:40.844,1052.0,-231.0,35.0,1077.631662489554,1,1,1,3.0,2.0
2021-09-23 15:13:40.854,914.0,418.0,-31.0,1005.525235884212,1,1,1,3.0,2.0
2021-09-23 15:13:40.863,1069.0,418.0,-31.0,1148.2360384520248,1,1,1,3.0,2.0
2021-09-23 15:13:40.864,1069.0,-41.0,10.0,1069.8326972008288,1,1,1,3.0,2.0
2021-09-23 15:13:40.873,916.0,390.0,10.0,995.6184007941998,1,1,1,3.0,2.0
2021-09-23 15:13:40.874,916.0,390.0,-17.0,995.713312153654,1,1,1,3.0,2.0
2021-09-23 15:13:40.884,1066.0,-213.0,33.0,1087.5725263172108,1,1,1,3.0,2.0
2021-09-23 15:13:40.892,980.0,-213.0,33.0,1003.4231410526668,1,1,1,3.0,2.0
2021-09-23 15:13:40.893,980.0,46.0,14.0,981.178882773167,1,1,1,3.0,2.0
2021-09-23 15:13:40.902,1058.0,-40.0,21.0,1058.9641164836512,1,1,1,3.0,2.0
2021-09-23 15:13:40.912,1053.0,-99.0,28.0,1058.0141775987693,1,1,1,3.0,2.0
2021-09-23 15:13:40.922,950.0,506.0,-5.0,1076.364715140737,1,1,1,3.0,2.0
2021-09-23 15:13:40.932,1087.0,-94.0,-15.0,1091.1599332820097,1,1,1,3.0,2.0
2021-09-23 15:13:40.942,923.0,374.0,25.0,996.2078096461602,1,1,1,3.0,2.0
2021-09-23 15:13:40.951,1047.0,-290.0,26.0,1086.7313375439212,1,1,1,3.0,2.0
2021-09-23 15:13:40.961,943.0,152.0,-23.0,955.4485857438902,1,1,1,3.0,2.0
2021-09-23 15:13:40.971,1027.0,-14.0,33.0,1027.6254181363947,1,1,1,3.0,2.0
2021-09-23 15:13:40.980,1039.0,-14.0,33.0,1039.6181991481296,1,1,1,3.0,2.0
2021-09-23 15:13:40.981,1039.0,27.0,-9.0,1039.3897247904656,1,1,1,3.0,2.0
2021-09-23 15:13:40.991,1074.0,-116.0,-17.0,1080.3800257316866,1,1,1,3.0,2.0
2021-09-23 15:13:41.000,1041.0,-61.0,4.0,1042.7933639988316,1,1,1,3.0,2.0
2021-09-23 15:13:41.010,933.0,253.0,19.0,966.8810681774672,1,1,1,3.0,2.0
2021-09-23 15:13:41.019,1064.0,253.0,19.0,1093.8308827236503,1,1,1,3.0,2.0
2021-09-23 15:13:41.020,1064.0,-272.0,21.0,1098.4174980397936,1,1,1,3.0,2.0
2021-09-23 15:13:41.029,872.0,406.0,-33.0,962.4494791935834,1,1,1,3.0,2.0
2021-09-23 15:13:41.040,1074.0,-26.0,12.0,1074.3816826435566,1,1,1,3.0,2.0
2021-09-23 15:13:41.049,905.0,358.0,-30.0,973.6986186700688,1,1,1,3.0,2.0
2021-09-23 15:13:41.058,1054.0,358.0,-30.0,1113.543892264692,1,1,1,3.0,2.0
2021-09-23 15:13:41.059,1054.0,-218.0,10.0,1076.3549600387412,1,1,1,3.0,2.0
2021-09-23 15:13:41.068,1011.0,54.0,10.0,1012.4904937825344,1,1,1,3.0,2.0
2021-09-23 15:13:41.069,1011.0,54.0,19.0,1012.6193756787394,1,1,1,3.0,2.0
2021-09-23 15:13:41.078,1010.0,54.0,19.0,1011.6209764531378,1,1,1,3.0,2.0
2021-09-23 15:13:41.079,1010.0,24.0,0.0,1010.2851082738972,1,1,1,3.0,2.0
2021-09-23 15:13:41.091,1062.0,-116.0,0.0,1068.3164325236226,1,1,1,3.0,2.0
2021-09-23 15:13:41.092,1062.0,-116.0,35.0,1068.889610764367,1,1,1,3.0,2.0
2021-09-23 15:13:41.098,901.0,498.0,35.0,1030.0631048629982,1,1,1,3.0,2.0
2021-09-23 15:13:41.099,901.0,498.0,-9.0,1029.5076493159245,1,1,1,3.0,2.0
2021-09-23 15:13:41.107,1062.0,-159.0,-9.0,1073.874294319405,1,1,1,3.0,2.0
2021-09-23 15:13:41.108,1062.0,-159.0,-3.0,1073.8407703193243,1,1,1,3.0,2.0
2021-09-23 15:13:41.117,982.0,338.0,-7.0,1038.5648752003892,1,1,1,3.0,2.0
2021-09-23 15:13:41.127,1014.0,-264.0,-7.0,1047.826798664741,1,1,1,3.0,2.0
2021-09-23 15:13:41.128,1014.0,-264.0,21.0,1048.013835786532,1,1,1,3.0,2.0
2021-09-23 15:13:41.137,933.0,177.0,-30.0,950.1147299142352,1,1,1,3.0,2.0
2021-09-23 15:13:41.149,1010.0,65.0,47.0,1013.180141929361,1,1,1,3.0,2.0
2021-09-23 15:13:41.156,1011.0,6.0,-16.0,1011.1444011613772,1,1,1,3.0,2.0
2021-09-23 15:13:41.166,1049.0,-131.0,-5.0,1057.159874380408,1,1,1,3.0,2.0
2021-09-23 15:13:41.176,1052.0,-118.0,-22.0,1058.825764703523,1,1,1,3.0,2.0
2021-09-23 15:13:41.185,915.0,-118.0,-22.0,922.8396393740356,1,1,1,3.0,2.0
2021-09-23 15:13:41.186,915.0,286.0,21.0,958.885811762798,1,1,1,3.0,2.0
2021-09-23 15:13:41.195,1057.0,-264.0,8.0,1089.499426342208,1,1,1,3.0,2.0
2021-09-23 15:13:41.205,917.0,-264.0,8.0,954.2793092171704,1,1,1,3.0,2.0
2021-09-23 15:13:41.206,917.0,335.0,-26.0,976.621728203914,1,1,1,3.0,2.0
2021-09-23 15:13:41.215,1074.0,49.0,33.0,1075.6235400919784,1,1,1,3.0,2.0
2021-09-23 15:13:41.225,1040.0,1.0,3.0,1040.0048076811952,1,1,1,3.0,2.0
2021-09-23 15:13:41.235,1044.0,-269.0,-27.0,1078.4368317152378,1,1,1,3.0,2.0
2021-09-23 15:13:41.245,1020.0,71.0,26.0,1022.79861165334,1,1,1,3.0,2.0
2021-09-23 15:13:41.254,971.0,71.0,26.0,973.9394231675808,1,1,1,3.0,2.0
2021-09-23 15:13:41.255,971.0,118.0,24.0,978.4380409612048,1,1,1,3.0,2.0
2021-09-23 15:13:41.264,1056.0,-132.0,23.0,1064.4665330577566,1,1,1,3.0,2.0
2021-09-23 15:13:41.273,858.0,521.0,23.0,1004.0587632205596,1,1,1,3.0,2.0
2021-09-23 15:13:41.278,858.0,521.0,5.0,1003.8077505179964,1,1,1,3.0,2.0
2021-09-23 15:13:41.283,1090.0,-115.0,28.0,1096.4073148241944,1,1,1,3.0,2.0
2021-09-23 15:13:41.293,973.0,360.0,-21.0,1037.6752863974357,1,1,1,3.0,2.0
2021-09-23 15:13:41.303,1034.0,-265.0,10.0,1067.4647535164802,1,1,1,3.0,2.0
2021-09-23 15:13:41.312,936.0,150.0,10.0,947.9957805813272,1,1,1,3.0,2.0
2021-09-23 15:13:41.313,936.0,150.0,-15.0,948.06170685246,1,1,1,3.0,2.0
2021-09-23 15:13:41.322,1017.0,-1.0,20.0,1017.1971293707036,1,1,1,3.0,2.0
2021-09-23 15:13:41.332,1022.0,-6.0,8.0,1022.0489225081157,1,1,1,3.0,2.0
2021-09-23 15:13:41.364,941.0,428.0,8.0,1033.7934996893723,1,1,1,3.0,2.0
2021-09-23 15:13:41.365,941.0,428.0,1.0,1033.7630289384506,1,1,1,3.0,2.0
2021-09-23 15:13:41.367,1078.0,-100.0,-6.0,1082.6449094693976,1,1,1,3.0,2.0
2021-09-23 15:13:41.368,945.0,324.0,-6.0,999.018017855534,1,1,1,3.0,2.0
2021-09-23 15:13:41.369,945.0,324.0,37.0,999.684950371866,1,1,1,3.0,2.0
2021-09-23 15:13:41.371,1061.0,-237.0,7.0,1087.1701798706586,1,1,1,3.0,2.0
2021-09-23 15:13:41.381,943.0,280.0,-1.0,983.6920249752968,1,1,1,3.0,2.0
2021-09-23 15:13:41.390,1047.0,280.0,-1.0,1083.7942609185563,1,1,1,3.0,2.0
2021-09-23 15:13:41.391,1047.0,-1.0,15.0,1047.10792184951,1,1,1,3.0,2.0
2021-09-23 15:13:41.401,1025.0,-55.0,11.0,1026.5334870329366,1,1,1,3.0,2.0
2021-09-23 15:13:41.411,1069.0,-228.0,-40.0,1093.7755711296536,1,1,1,3.0,2.0
2021-09-23 15:13:41.425,1045.0,-228.0,-40.0,1070.3312571349115,1,1,1,3.0,2.0
2021-09-23 15:13:41.426,1045.0,-27.0,5.0,1045.3607032981486,1,1,1,3.0,2.0
2021-09-23 15:13:41.434,947.0,152.0,-2.0,959.12303694573,1,1,1,3.0,2.0
2021-09-23 15:13:41.440,1041.0,-200.0,37.0,1060.6837417439754,1,1,1,3.0,2.0
2021-09-23 15:13:41.454,850.0,510.0,37.0,991.9521157797892,1,1,1,3.0,2.0
2021-09-23 15:13:41.455,850.0,510.0,-17.0,991.4075852039866,1,1,1,3.0,2.0
2021-09-23 15:13:41.459,1040.0,-98.0,4.0,1044.6147615269467,1,1,1,3.0,2.0
2021-09-23 15:13:41.469,935.0,326.0,-14.0,990.301469250652,1,1,1,3.0,2.0
2021-09-23 15:13:41.478,1053.0,-251.0,-14.0,1082.5922593479042,1,1,1,3.0,2.0
2021-09-23 15:13:41.479,1053.0,-251.0,0.0,1082.5017321002308,1,1,1,3.0,2.0
2021-09-23 15:13:41.488,953.0,131.0,20.0,962.1694237503082,1,1,1,3.0,2.0
2021-09-23 15:13:41.499,1025.0,83.0,-4.0,1028.3627764558576,1,1,1,3.0,2.0
2021-09-23 15:13:41.508,1036.0,-25.0,37.0,1036.961908654315,1,1,1,3.0,2.0
2021-09-23 15:13:41.517,936.0,-25.0,37.0,937.0645655449788,1,1,1,3.0,2.0
2021-09-23 15:13:41.518,936.0,403.0,-15.0,1019.1810437797594,1,1,1,3.0,2.0
2021-09-23 15:13:41.527,1062.0,-116.0,-15.0,1068.4217332121243,1,1,1,3.0,2.0
2021-09-23 15:13:41.528,1062.0,-116.0,-16.0,1068.436240493554,1,1,1,3.0,2.0
2021-09-23 15:13:41.538,948.0,287.0,17.0,990.6371686949768,1,1,1,3.0,2.0
2021-09-23 15:13:41.547,1027.0,287.0,17.0,1066.4834738522677,1,1,1,3.0,2.0
2021-09-23 15:13:41.548,1027.0,-169.0,18.0,1040.9678189070016,1,1,1,3.0,2.0
2021-09-23 15:13:41.556,936.0,-169.0,18.0,951.3048932913148,1,1,1,3.0,2.0
2021-09-23 15:13:41.557,936.0,271.0,-23.0,974.713291178488,1,1,1,3.0,2.0
2021-09-23 15:13:41.566,1029.0,-35.0,-23.0,1029.8519311046614,1,1,1,3.0,2.0
2021-09-23 15:13:41.567,1029.0,-35.0,27.0,1029.9490278649716,1,1,1,3.0,2.0
2021-09-23 15:13:41.576,1054.0,-53.0,9.0,1055.370077271475,1,1,1,3.0,2.0
2021-09-23 15:13:41.586,1093.0,-245.0,9.0,1120.1584709316803,1,1,1,3.0,2.0
2021-09-23 15:13:41.587,1093.0,-245.0,-24.0,1120.3794000248308,1,1,1,3.0,2.0
2021-09-23 15:13:41.596,1034.0,-74.0,13.0,1036.7260969031308,1,1,1,3.0,2.0
2021-09-23 15:13:41.606,967.0,254.0,4.0,999.8104820414716,1,1,1,3.0,2.0
2021-09-23 15:13:41.615,1037.0,-187.0,20.0,1053.9155563896,1,1,1,3.0,2.0
2021-09-23 15:13:41.625,880.0,408.0,-36.0,970.649267243323,1,1,1,3.0,2.0
2021-09-23 15:13:41.635,1047.0,-45.0,35.0,1048.550904820553,1,1,1,3.0,2.0
2021-09-23 15:13:41.644,940.0,-45.0,35.0,941.727136701497,1,1,1,3.0,2.0
2021-09-23 15:13:41.645,940.0,286.0,6.0,982.5639928269304,1,1,1,3.0,2.0
2021-09-23 15:13:41.655,1035.0,-302.0,8.0,1078.1896864652342,1,1,1,3.0,2.0
2021-09-23 15:13:41.664,964.0,181.0,34.0,981.4341546940376,1,1,1,3.0,2.0
2021-09-23 15:13:41.674,1014.0,117.0,4.0,1020.7355191233428,1,1,1,3.0,2.0
2021-09-23 15:13:41.683,1033.0,117.0,4.0,1039.6124277825847,1,1,1,3.0,2.0
2021-09-23 15:13:41.684,1033.0,-124.0,33.0,1040.9389991733426,1,1,1,3.0,2.0
2021-09-23 15:13:41.694,915.0,404.0,0.0,1000.220475695234,1,1,1,3.0,2.0
2021-09-23 15:13:41.703,1055.0,404.0,0.0,1129.7083694476198,1,1,1,3.0,2.0
2021-09-23 15:13:41.704,1055.0,-145.0,5.0,1064.9295751363093,1,1,1,3.0,2.0
2021-09-23 15:13:41.713,936.0,335.0,5.0,994.1559233842546,1,1,1,3.0,2.0
2021-09-23 15:13:41.714,936.0,335.0,8.0,994.1755378201578,1,1,1,3.0,2.0
2021-09-23 15:13:41.723,1041.0,-222.0,20.0,1064.5961675677777,1,1,1,3.0,2.0
2021-09-23 15:13:41.732,943.0,-222.0,20.0,968.9855520078718,1,1,1,3.0,2.0
2021-09-23 15:13:41.733,943.0,237.0,-49.0,973.5599622005828,1,1,1,3.0,2.0
2021-09-23 15:13:41.742,989.0,-47.0,50.0,991.3778290843508,1,1,1,3.0,2.0
2021-09-23 15:13:41.752,993.0,221.0,50.0,1018.5234410655456,1,1,1,3.0,2.0
2021-09-23 15:13:41.753,993.0,221.0,-11.0,1017.354903659485,1,1,1,3.0,2.0
2021-09-23 15:13:41.763,1039.0,-224.0,-15.0,1062.9778925264627,1,1,1,3.0,2.0
2021-09-23 15:13:41.772,1047.0,-98.0,21.0,1051.7860999271668,1,1,1,3.0,2.0
2021-09-23 15:13:41.781,955.0,350.0,33.0,1017.65121726454,1,1,1,3.0,2.0
2021-09-23 15:13:41.791,1045.0,-229.0,-3.0,1069.801383435262,1,1,1,3.0,2.0
2021-09-23 15:13:41.801,890.0,373.0,-17.0,965.151801531759,1,1,1,3.0,2.0
2021-09-23 15:13:41.811,1068.0,373.0,-17.0,1131.389411299222,1,1,1,3.0,2.0
2021-09-23 15:13:41.812,1068.0,-279.0,0.0,1103.841021162015,1,1,1,3.0,2.0
2021-09-23 15:13:41.820,912.0,-279.0,0.0,953.7216575081012,1,1,1,3.0,2.0
2021-09-23 15:13:41.821,912.0,275.0,-8.0,952.5927776337588,1,1,1,3.0,2.0
2021-09-23 15:13:41.830,1053.0,-292.0,-4.0,1092.7437943086202,1,1,1,3.0,2.0
2021-09-23 15:13:41.840,1008.0,95.0,-8.0,1012.4983950604563,1,1,1,3.0,2.0
2021-09-23 15:13:41.850,1016.0,115.0,14.0,1022.583492923683,1,1,1,3.0,2.0
2021-09-23 15:13:41.860,1025.0,115.0,14.0,1031.5260539608294,1,1,1,3.0,2.0
2021-09-23 15:13:41.861,1025.0,-165.0,19.0,1038.3693947723998,1,1,1,3.0,2.0
2021-09-23 15:13:41.869,1002.0,-74.0,-6.0,1004.746734256947,1,1,1,3.0,2.0
2021-09-23 15:13:41.879,1058.0,-188.0,24.0,1074.841383646908,1,1,1,3.0,2.0
2021-09-23 15:13:41.889,949.0,274.0,-5.0,987.7762904625724,1,1,1,3.0,2.0
2021-09-23 15:13:41.898,1055.0,-223.0,-5.0,1078.3223080322507,1,1,1,3.0,2.0
2021-09-23 15:13:41.899,1055.0,-223.0,12.0,1078.3774849281674,1,1,1,3.0,2.0
2021-09-23 15:13:41.908,948.0,251.0,-31.0,981.1554413037722,1,1,1,3.0,2.0
2021-09-23 15:13:41.919,993.0,16.0,38.0,993.8556233175924,1,1,1,3.0,2.0
2021-09-23 15:13:41.928,1026.0,-87.0,17.0,1029.822314770854,1,1,1,3.0,2.0
2021-09-23 15:13:41.937,1042.0,-87.0,17.0,1045.7638356722805,1,1,1,3.0,2.0
2021-09-23 15:13:41.938,1042.0,-165.0,8.0,1055.013270058723,1,1,1,3.0,2.0
2021-09-23 15:13:41.947,1042.0,-150.0,19.0,1052.9126269543926,1,1,1,3.0,2.0
2021-09-23 15:13:41.957,960.0,-150.0,19.0,971.8338335332846,1,1,1,3.0,2.0
2021-09-23 15:13:41.958,960.0,311.0,13.0,1009.2026555652736,1,1,1,3.0,2.0
2021-09-23 15:13:41.968,1048.0,-143.0,13.0,1057.7910946874151,1,1,1,3.0,2.0
2021-09-23 15:13:41.969,1048.0,-143.0,0.0,1057.711208222736,1,1,1,3.0,2.0
2021-09-23 15:13:41.976,921.0,-143.0,0.0,932.0354070527578,1,1,1,3.0,2.0
2021-09-23 15:13:41.977,921.0,362.0,-3.0,989.5928455683176,1,1,1,3.0,2.0
2021-09-23 15:13:41.986,1046.0,-110.0,3.0,1051.772313763773,1,1,1,3.0,2.0
2021-09-23 15:13:41.996,928.0,224.0,-20.0,954.8612464646368,1,1,1,3.0,2.0
2021-09-23 15:13:42.006,1058.0,-299.0,-20.0,1099.620389043419,1,1,1,3.0,2.0
2021-09-23 15:13:42.007,1058.0,-299.0,21.0,1099.6390316826698,1,1,1,3.0,2.0
2021-09-23 15:13:42.016,1022.0,79.0,-15.0,1025.1585243268478,1,1,1,3.0,2.0
2021-09-23 15:13:42.025,1033.0,79.0,-15.0,1036.1249924598865,1,1,1,3.0,2.0
2021-09-23 15:13:42.026,1033.0,191.0,33.0,1051.0275924065934,1,1,1,3.0,2.0
2021-09-23 15:13:42.035,1010.0,-174.0,17.0,1025.0195120094056,1,1,1,3.0,2.0
2021-09-23 15:13:42.045,855.0,411.0,-1.0,948.6553641865944,1,1,1,3.0,2.0
2021-09-23 15:13:42.055,1039.0,-236.0,26.0,1065.7828108953531,1,1,1,3.0,2.0
2021-09-23 15:13:42.067,953.0,226.0,-60.0,981.2670380686392,1,1,1,3.0,2.0
2021-09-23 15:13:42.075,1049.0,-286.0,7.0,1087.3113629499142,1,1,1,3.0,2.0
2021-09-23 15:13:42.084,980.0,319.0,3.0,1030.616320460723,1,1,1,3.0,2.0
2021-09-23 15:13:42.101,991.0,88.0,19.0,995.0809012336636,1,1,1,3.0,2.0
2021-09-23 15:13:42.104,1016.0,88.0,19.0,1019.9808821737788,1,1,1,3.0,2.0
2021-09-23 15:13:42.105,1016.0,-117.0,37.0,1023.3836035426796,1,1,1,3.0,2.0
2021-09-23 15:13:42.114,1026.0,-215.0,19.0,1048.4569614438162,1,1,1,3.0,2.0
2021-09-23 15:13:42.123,1064.0,-215.0,19.0,1085.6712209504312,1,1,1,3.0,2.0
2021-09-23 15:13:42.124,1064.0,-191.0,-19.0,1081.1743615162172,1,1,1,3.0,2.0
2021-09-23 15:13:42.133,927.0,346.0,18.0,989.6307392153903,1,1,1,3.0,2.0
2021-09-23 15:13:42.142,1101.0,346.0,18.0,1154.2274472563888,1,1,1,3.0,2.0
2021-09-23 15:13:42.143,1101.0,-196.0,-20.0,1118.4887125045116,1,1,1,3.0,2.0
2021-09-23 15:13:42.154,897.0,324.0,-20.0,953.931339248271,1,1,1,3.0,2.0
2021-09-23 15:13:42.155,897.0,324.0,-13.0,953.8102536668392,1,1,1,3.0,2.0
2021-09-23 15:13:42.162,1045.0,324.0,-13.0,1094.1526401741212,1,1,1,3.0,2.0
2021-09-23 15:13:42.163,1045.0,-154.0,17.0,1056.4232106499744,1,1,1,3.0,2.0
2021-09-23 15:13:42.172,915.0,322.0,-27.0,970.3803378057491,1,1,1,3.0,2.0
2021-09-23 15:13:42.181,1076.0,322.0,-27.0,1123.4718510047326,1,1,1,3.0,2.0
2021-09-23 15:13:42.182,1076.0,-406.0,-27.0,1150.3655940612966,1,1,1,3.0,2.0
2021-09-23 15:13:42.191,1063.0,39.0,-27.0,1064.0577991819805,1,1,1,3.0,2.0
2021-09-23 15:13:42.192,1063.0,39.0,-1.0,1063.7156574949906,1,1,1,3.0,2.0
2021-09-23 15:13:42.201,987.0,267.0,4.0,1022.484229707236,1,1,1,3.0,2.0
2021-09-23 15:13:42.211,1041.0,-173.0,29.0,1055.67561305545,1,1,1,3.0,2.0
2021-09-23 15:13:42.221,851.0,403.0,1.0,941.6002336448308,1,1,1,3.0,2.0
2021-09-23 15:13:42.231,1039.0,-281.0,17.0,1076.4622612985556,1,1,1,3.0,2.0
2021-09-23 15:13:42.240,948.0,249.0,7.0,980.180595604708,1,1,1,3.0,2.0
2021-09-23 15:13:42.250,1062.0,-297.0,15.0,1102.849944462074,1,1,1,3.0,2.0
2021-09-23 15:13:42.260,971.0,282.0,-14.0,1011.2175829167528,1,1,1,3.0,2.0
2021-09-23 15:13:42.269,993.0,48.0,-14.0,994.2580148029988,1,1,1,3.0,2.0
2021-09-23 15:13:42.270,993.0,48.0,10.0,994.2097364238596,1,1,1,3.0,2.0
2021-09-23 15:13:42.279,1016.0,-148.0,10.0,1026.771639655089,1,1,1,3.0,2.0
2021-09-23 15:13:42.280,1016.0,-148.0,64.0,1028.715704167094,1,1,1,3.0,2.0
2021-09-23 15:13:42.289,1008.0,-151.0,35.0,1019.8480278943524,1,1,1,3.0,2.0
2021-09-23 15:13:42.299,1067.0,-190.0,14.0,1083.8749927920655,1,1,1,3.0,2.0
2021-09-23 15:13:42.309,934.0,341.0,29.0,994.7250876498492,1,1,1,3.0,2.0
2021-09-23 15:13:42.319,1087.0,-145.0,-3.0,1096.632572924952,1,1,1,3.0,2.0
2021-09-23 15:13:42.328,936.0,-145.0,-3.0,947.169467413303,1,1,1,3.0,2.0
2021-09-23 15:13:42.329,936.0,328.0,-17.0,991.9521157797892,1,1,1,3.0,2.0
2021-09-23 15:13:42.338,964.0,-118.0,6.0,971.213673709344,1,1,1,3.0,2.0
2021-09-23 15:13:42.347,941.0,-118.0,6.0,948.3886334198656,1,1,1,3.0,2.0
2021-09-23 15:13:42.348,941.0,243.0,-26.0,972.2170539545168,1,1,1,3.0,2.0
2021-09-23 15:13:42.357,1057.0,-393.0,-26.0,1127.9955673671773,1,1,1,3.0,2.0
2021-09-23 15:13:42.358,1057.0,-393.0,-29.0,1128.0687035814797,1,1,1,3.0,2.0
2021-09-23 15:13:42.387,1053.0,-393.0,-29.0,1124.3215732164886,1,1,1,3.0,2.0
2021-09-23 15:13:42.388,1053.0,-37.0,26.0,1053.9705878249165,1,1,1,3.0,2.0
2021-09-23 15:13:42.396,840.0,376.0,26.0,920.6801833427284,1,1,1,3.0,2.0
2021-09-23 15:13:42.397,840.0,376.0,-18.0,920.4890004774636,1,1,1,3.0,2.0
2021-09-23 15:13:42.406,1054.0,-273.0,-13.0,1088.8590358719534,1,1,1,3.0,2.0
2021-09-23 15:13:42.416,914.0,181.0,-28.0,932.1700488644764,1,1,1,3.0,2.0
2021-09-23 15:13:42.426,1092.0,-273.0,38.0,1126.2490843503492,1,1,1,3.0,2.0
2021-09-23 15:13:42.436,974.0,267.0,-23.0,1010.1950306747702,1,1,1,3.0,2.0
2021-09-23 15:13:42.456,899.0,196.0,2.0,920.1201008564044,1,1,1,3.0,2.0
2021-09-23 15:13:42.460,963.0,-153.0,43.0,976.0261266994854,1,1,1,3.0,2.0
2021-09-23 15:13:42.465,995.0,-125.0,17.0,1002.9651040789006,1,1,1,3.0,2.0
2021-09-23 15:13:42.476,1017.0,-236.0,18.0,1044.1786245657397,1,1,1,3.0,2.0
2021-09-23 15:13:42.484,986.0,277.0,18.0,1024.3285605702888,1,1,1,3.0,2.0
2021-09-23 15:13:42.485,986.0,277.0,28.0,1024.553073295864,1,1,1,3.0,2.0
2021-09-23 15:13:42.494,1052.0,-105.0,-3.0,1057.2312897374916,1,1,1,3.0,2.0
2021-09-23 15:13:42.504,941.0,354.0,-43.0,1006.303135243054,1,1,1,3.0,2.0
2021-09-23 15:13:42.514,957.0,-4.0,41.0,957.8862145369876,1,1,1,3.0,2.0
2021-09-23 15:13:42.524,966.0,215.0,1.0,989.6373073000028,1,1,1,3.0,2.0
2021-09-23 15:13:42.534,1050.0,-373.0,-12.0,1114.3486886966757,1,1,1,3.0,2.0
2021-09-23 15:13:42.543,1029.0,-40.0,4.0,1029.784929002168,1,1,1,3.0,2.0
2021-09-23 15:13:42.553,983.0,418.0,10.0,1068.228908052951,1,1,1,3.0,2.0
2021-09-23 15:13:42.562,1013.0,418.0,10.0,1095.8982617013314,1,1,1,3.0,2.0
2021-09-23 15:13:42.563,1013.0,-183.0,-6.0,1029.4143966352908,1,1,1,3.0,2.0
2021-09-23 15:13:42.572,872.0,379.0,13.0,950.891160964282,1,1,1,3.0,2.0
2021-09-23 15:13:42.583,1069.0,379.0,13.0,1134.2711316083116,1,1,1,3.0,2.0
2021-09-23 15:13:42.584,1069.0,-291.0,-1.0,1107.900266269487,1,1,1,3.0,2.0
2021-09-23 15:13:42.592,925.0,195.0,10.0,945.3835200594518,1,1,1,3.0,2.0
2021-09-23 15:13:42.601,1077.0,195.0,10.0,1094.5565312033912,1,1,1,3.0,2.0
2021-09-23 15:13:42.602,1077.0,-369.0,9.0,1138.495059277817,1,1,1,3.0,2.0
2021-09-23 15:13:42.611,989.0,306.0,-7.0,1035.2806382812344,1,1,1,3.0,2.0
2021-09-23 15:13:42.621,1002.0,160.0,-40.0,1015.4821514925804,1,1,1,3.0,2.0
2021-09-23 15:13:42.632,996.0,-141.0,68.0,1008.2266610241963,1,1,1,3.0,2.0
2021-09-23 15:13:42.643,939.0,209.0,-6.0,961.9968814918268,1,1,1,3.0,2.0
2021-09-23 15:13:42.650,1012.0,-247.0,19.0,1041.880031481552,1,1,1,3.0,2.0
2021-09-23 15:13:42.660,987.0,305.0,32.0,1033.5463221355876,1,1,1,3.0,2.0
2021-09-23 15:13:42.670,1093.0,-129.0,-4.0,1100.5934762663278,1,1,1,3.0,2.0
2021-09-23 15:13:42.680,907.0,365.0,-65.0,979.8464165367958,1,1,1,3.0,2.0
2021-09-23 15:13:42.690,976.0,-135.0,41.0,986.1450197612924,1,1,1,3.0,2.0
2021-09-23 15:13:42.699,1043.0,-131.0,50.0,1052.383010125116,1,1,1,3.0,2.0
2021-09-23 15:13:42.709,1054.0,-400.0,-16.0,1127.4626379618971,1,1,1,3.0,2.0
2021-09-23 15:13:42.719,1047.0,-58.0,21.0,1048.81552238704,1,1,1,3.0,2.0
2021-09-23 15:13:42.729,979.0,401.0,14.0,1058.034971066647,1,1,1,3.0,2.0
2021-09-23 15:13:42.739,1065.0,401.0,14.0,1138.0782046942118,1,1,1,3.0,2.0
2021-09-23 15:13:42.740,1065.0,-151.0,-9.0,1075.6890814728947,1,1,1,3.0,2.0
2021-09-23 15:13:42.748,864.0,367.0,-6.0,938.7337215632556,1,1,1,3.0,2.0
2021-09-23 15:13:42.758,1060.0,-249.0,34.0,1089.383770762168,1,1,1,3.0,2.0
2021-09-23 15:13:42.767,912.0,-249.0,34.0,945.992071848385,1,1,1,3.0,2.0
2021-09-23 15:13:42.768,912.0,207.0,37.0,935.9284160661008,1,1,1,3.0,2.0
2021-09-23 15:13:42.778,1076.0,-377.0,-2.0,1140.1355182608777,1,1,1,3.0,2.0
2021-09-23 15:13:42.788,1016.0,285.0,4.0,1055.2236729717545,1,1,1,3.0,2.0
2021-09-23 15:13:42.797,1000.0,202.0,-20.0,1020.3940415349356,1,1,1,3.0,2.0
2021-09-23 15:13:42.807,1003.0,-173.0,56.0,1019.3497927600712,1,1,1,3.0,2.0
2021-09-23 15:13:42.816,915.0,247.0,5.0,947.7652662975152,1,1,1,3.0,2.0
2021-09-23 15:13:42.826,1011.0,-281.0,27.0,1049.67185348565,1,1,1,3.0,2.0
2021-09-23 15:13:42.837,991.0,226.0,15.0,1016.5539828262932,1,1,1,3.0,2.0
2021-09-23 15:13:42.849,1034.0,-125.0,-19.0,1041.7014927511625,1,1,1,3.0,2.0
2021-09-23 15:13:42.855,968.0,401.0,-19.0,1047.9437007778615,1,1,1,3.0,2.0
2021-09-23 15:13:42.856,968.0,401.0,-45.0,1048.7373360379613,1,1,1,3.0,2.0
2021-09-23 15:13:42.865,933.0,-61.0,32.0,935.5394165934432,1,1,1,3.0,2.0
2021-09-23 15:13:42.875,1060.0,-162.0,53.0,1073.616784518573,1,1,1,3.0,2.0
2021-09-23 15:13:42.886,1053.0,-364.0,-3.0,1114.1427197625983,1,1,1,3.0,2.0
2021-09-23 15:13:42.896,1041.0,-124.0,29.0,1048.760220450795,1,1,1,3.0,2.0
2021-09-23 15:13:42.904,994.0,462.0,7.0,1096.142782670214,1,1,1,3.0,2.0
2021-09-23 15:13:42.914,999.0,-6.0,-21.0,999.2387102189348,1,1,1,3.0,2.0
2021-09-23 15:13:42.924,1001.0,-53.0,24.0,1002.6893836079048,1,1,1,3.0,2.0
2021-09-23 15:13:42.933,1047.0,-53.0,24.0,1048.6152774015836,1,1,1,3.0,2.0
2021-09-23 15:13:42.934,1047.0,53.0,27.0,1048.688228216566,1,1,1,3.0,2.0
2021-09-23 15:13:42.945,1035.0,7.0,-2.0,1035.0256035480477,1,1,1,3.0,2.0
2021-09-23 15:13:42.953,993.0,19.0,19.0,993.363478289795,1,1,1,3.0,2.0
2021-09-23 15:13:42.963,1019.0,69.0,43.0,1022.2382305509808,1,1,1,3.0,2.0
2021-09-23 15:13:42.973,980.0,36.0,-38.0,981.3969635168024,1,1,1,3.0,2.0
2021-09-23 15:13:42.982,1011.0,60.0,-38.0,1013.4914898508029,1,1,1,3.0,2.0
2021-09-23 15:13:42.983,1011.0,60.0,26.0,1013.1125307684237,1,1,1,3.0,2.0
2021-09-23 15:13:42.993,1021.0,10.0,0.0,1021.0489704220852,1,1,1,3.0,2.0
2021-09-23 15:13:43.002,1014.0,37.0,6.0,1014.692564277476,1,1,1,3.0,2.0
2021-09-23 15:13:43.012,1013.0,40.0,7.0,1013.813592333423,1,1,1,3.0,2.0
2021-09-23 15:13:43.021,1022.0,46.0,7.0,1023.058649345188,1,1,1,3.0,2.0
2021-09-23 15:13:43.022,1022.0,46.0,3.0,1023.0390999370454,1,1,1,3.0,2.0
2021-09-23 15:13:43.031,997.0,18.0,1.0,997.1629756464084,1,1,1,3.0,2.0
2021-09-23 15:13:43.041,1025.0,66.0,7.0,1027.1465328763954,1,1,1,3.0,2.0
2021-09-23 15:13:43.056,996.0,24.0,7.0,996.3137056168604,1,1,1,3.0,2.0
2021-09-23 15:13:43.057,996.0,24.0,-2.0,996.2911221124076,1,1,1,3.0,2.0
2021-09-23 15:13:43.061,1013.0,16.0,-6.0,1013.1441161058972,1,1,1,3.0,2.0
2021-09-23 15:13:43.070,997.0,38.0,10.0,997.7740225121116,1,1,1,3.0,2.0
