time_stamp,Acceleration_X,Acceleration_Y,Acceleration_Z,magnitude,STD_Status_right,STD_Status_left,STD_Status_both,KMeans,KMeans_convert
2021-09-23 17:22:31.342,1140.0,-432.0,-37.0,1219.6692174520106,1,1,1,3.0,2.0
2021-09-23 17:22:31.351,903.0,248.0,-11.0,936.500934329486,1,1,1,3.0,2.0
2021-09-23 17:22:31.361,998.0,-96.0,20.0,1002.8060630052054,1,1,1,3.0,2.0
2021-09-23 17:22:31.370,1026.0,31.0,-20.0,1026.6630411191395,1,1,1,3.0,2.0
2021-09-23 17:22:31.380,976.0,31.0,-20.0,976.6969847398937,1,1,1,3.0,2.0
2021-09-23 17:22:31.381,976.0,205.0,73.0,999.9649993874784,1,1,1,3.0,2.0
2021-09-23 17:22:31.390,1077.0,-331.0,-18.0,1126.8602397813138,1,1,1,3.0,2.0
2021-09-23 17:22:31.400,946.0,242.0,-1.0,976.4635169836096,1,1,1,3.0,2.0
2021-09-23 17:22:31.409,1018.0,-155.0,17.0,1029.8728076806378,1,1,1,3.0,2.0
2021-09-23 17:22:31.420,915.0,452.0,11.0,1020.6125611611882,1,1,1,3.0,2.0
2021-09-23 17:22:31.429,1102.0,-106.0,11.0,1107.1409124406885,1,1,1,3.0,2.0
2021-09-23 17:22:31.430,1102.0,-106.0,-2.0,1107.0880723772611,1,1,1,3.0,2.0
2021-09-23 17:22:31.439,1077.0,-106.0,-2.0,1082.2056181705952,1,1,1,3.0,2.0
2021-09-23 17:22:31.440,1077.0,16.0,11.0,1077.175008993432,1,1,1,3.0,2.0
2021-09-23 17:22:31.448,1019.0,-65.0,5.0,1021.0832483201358,1,1,1,3.0,2.0
2021-09-23 17:22:31.459,1051.0,-223.0,2.0,1074.3993670884213,1,1,1,3.0,2.0
2021-09-23 17:22:31.469,1019.0,-223.0,2.0,1043.1174430523151,1,1,1,3.0,2.0
2021-09-23 17:22:31.470,1019.0,-18.0,20.0,1019.3551883421204,1,1,1,3.0,2.0
2021-09-23 17:22:31.478,1042.0,-87.0,9.0,1045.6643821035505,1,1,1,3.0,2.0
2021-09-23 17:22:31.487,969.0,-87.0,9.0,972.9393609059096,1,1,1,3.0,2.0
2021-09-23 17:22:31.488,969.0,376.0,-13.0,1039.4739053963788,1,1,1,3.0,2.0
2021-09-23 17:22:31.498,1067.0,-245.0,0.0,1094.7666418008907,1,1,1,3.0,2.0
2021-09-23 17:22:31.507,1014.0,-245.0,0.0,1043.1783164924393,1,1,1,3.0,2.0
2021-09-23 17:22:31.508,1014.0,77.0,14.0,1017.01573242502,1,1,1,3.0,2.0
2021-09-23 17:22:31.517,1013.0,77.0,14.0,1016.0187006152988,1,1,1,3.0,2.0
2021-09-23 17:22:31.518,1013.0,-173.0,0.0,1027.6662882473083,1,1,1,3.0,2.0
2021-09-23 17:22:31.526,936.0,-173.0,0.0,951.853455107455,1,1,1,3.0,2.0
2021-09-23 17:22:31.527,936.0,226.0,-29.0,963.3343137249914,1,1,1,3.0,2.0
2021-09-23 17:22:31.537,1059.0,-46.0,110.0,1065.6908557363154,1,1,1,3.0,2.0
2021-09-23 17:22:31.547,1050.0,10.0,-28.0,1050.4208680333802,1,1,1,3.0,2.0
2021-09-23 17:22:31.556,939.0,313.0,4.0,989.8009900985148,1,1,1,3.0,2.0
2021-09-23 17:22:31.565,1057.0,-309.0,0.0,1101.2402099451326,1,1,1,3.0,2.0
2021-09-23 17:22:31.576,963.0,173.0,-1.0,978.4165779462244,1,1,1,3.0,2.0
2021-09-23 17:22:31.590,1036.0,173.0,-1.0,1050.3456573909373,1,1,1,3.0,2.0
2021-09-23 17:22:31.591,1036.0,-276.0,-6.0,1072.151108752866,1,1,1,3.0,2.0
2021-09-23 17:22:31.595,919.0,381.0,-31.0,995.330598344088,1,1,1,3.0,2.0
2021-09-23 17:22:31.605,1105.0,381.0,-31.0,1169.2506147101228,1,1,1,3.0,2.0
2021-09-23 17:22:31.606,1105.0,-33.0,1.0,1105.4931026469592,1,1,1,3.0,2.0
2021-09-23 17:22:31.615,1047.0,18.0,10.0,1047.2024637098598,1,1,1,3.0,2.0
2021-09-23 17:22:31.625,979.0,97.0,35.0,984.4160705717884,1,1,1,3.0,2.0
2021-09-23 17:22:31.634,1016.0,89.0,5.0,1019.9029365581804,1,1,1,3.0,2.0
2021-09-23 17:22:31.644,978.0,21.0,86.0,981.9984725039036,1,1,1,3.0,2.0
2021-09-23 17:22:31.653,1064.0,21.0,86.0,1067.676449117428,1,1,1,3.0,2.0
2021-09-23 17:22:31.654,1064.0,-152.0,17.0,1074.9367423248682,1,1,1,3.0,2.0
2021-09-23 17:22:31.663,945.0,-152.0,17.0,957.2972370168004,1,1,1,3.0,2.0
2021-09-23 17:22:31.664,945.0,403.0,-37.0,1028.0092412035992,1,1,1,3.0,2.0
2021-09-23 17:22:31.674,1077.0,-142.0,-3.0,1086.3249974109958,1,1,1,3.0,2.0
2021-09-23 17:22:31.683,990.0,115.0,49.0,997.8607117228336,1,1,1,3.0,2.0
2021-09-23 17:22:31.693,1051.0,-264.0,17.0,1083.7831886498332,1,1,1,3.0,2.0
2021-09-23 17:22:31.703,934.0,181.0,7.0,951.4021231845134,1,1,1,3.0,2.0
2021-09-23 17:22:31.713,1069.0,-44.0,23.0,1070.1523256060325,1,1,1,3.0,2.0
2021-09-23 17:22:31.722,1023.0,1.0,23.0,1023.2590092444824,1,1,1,3.0,2.0
2021-09-23 17:22:31.723,1023.0,1.0,-1.0,1023.0009775166396,1,1,1,3.0,2.0
2021-09-23 17:22:31.732,928.0,327.0,-19.0,984.1107661234074,1,1,1,3.0,2.0
2021-09-23 17:22:31.741,1017.0,-300.0,-19.0,1060.495167362869,1,1,1,3.0,2.0
2021-09-23 17:22:31.742,1017.0,-300.0,23.0,1060.5743726868004,1,1,1,3.0,2.0
2021-09-23 17:22:31.752,904.0,371.0,63.0,979.1966094712542,1,1,1,3.0,2.0
2021-09-23 17:22:31.761,1058.0,-261.0,63.0,1091.5374478230235,1,1,1,3.0,2.0
2021-09-23 17:22:31.762,1058.0,-261.0,24.0,1089.982109944929,1,1,1,3.0,2.0
2021-09-23 17:22:31.771,971.0,238.0,-8.0,999.77447456914,1,1,1,3.0,2.0
2021-09-23 17:22:31.781,1068.0,-72.0,-8.0,1070.4541092452305,1,1,1,3.0,2.0
2021-09-23 17:22:31.782,1068.0,-72.0,26.0,1070.7399310757023,1,1,1,3.0,2.0
2021-09-23 17:22:31.790,1045.0,9.0,-6.0,1045.055979361871,1,1,1,3.0,2.0
2021-09-23 17:22:31.800,943.0,204.0,46.0,965.909416042726,1,1,1,3.0,2.0
2021-09-23 17:22:31.810,999.0,86.0,-6.0,1002.7128203030018,1,1,1,3.0,2.0
2021-09-23 17:22:31.820,960.0,126.0,-6.0,968.2520333053786,1,1,1,3.0,2.0
2021-09-23 17:22:31.821,960.0,126.0,3.0,968.2380905541776,1,1,1,3.0,2.0
2021-09-23 17:22:31.830,1038.0,-214.0,36.0,1060.4414175238535,1,1,1,3.0,2.0
2021-09-23 17:22:31.839,963.0,411.0,-52.0,1048.329146785493,1,1,1,3.0,2.0
2021-09-23 17:22:31.855,1053.0,411.0,-52.0,1131.5626363573515,1,1,1,3.0,2.0
2021-09-23 17:22:31.856,1053.0,-108.0,41.0,1059.3177049403073,1,1,1,3.0,2.0
2021-09-23 17:22:31.859,914.0,398.0,-12.0,996.9674016736956,1,1,1,3.0,2.0
2021-09-23 17:22:31.869,1092.0,-264.0,43.0,1124.2815483676677,1,1,1,3.0,2.0
2021-09-23 17:22:31.878,989.0,189.0,15.0,1007.0089373982736,1,1,1,3.0,2.0
2021-09-23 17:22:31.889,1080.0,-31.0,-18.0,1080.594743648145,1,1,1,3.0,2.0
2021-09-23 17:22:31.898,1043.0,-137.0,14.0,1052.0522800697693,1,1,1,3.0,2.0
2021-09-23 17:22:31.908,955.0,381.0,-5.0,1028.207663850061,1,1,1,3.0,2.0
2021-09-23 17:22:31.918,1032.0,-86.0,3.0,1035.581479170036,1,1,1,3.0,2.0
2021-09-23 17:22:31.927,934.0,406.0,10.0,1018.47533107091,1,1,1,3.0,2.0
2021-09-23 17:22:31.942,1035.0,-281.0,10.0,1072.5138693741912,1,1,1,3.0,2.0
2021-09-23 17:22:31.943,1035.0,-281.0,-2.0,1072.4691137743782,1,1,1,3.0,2.0
2021-09-23 17:22:31.946,943.0,191.0,-3.0,962.1533141864658,1,1,1,3.0,2.0
2021-09-23 17:22:31.956,1070.0,191.0,-3.0,1086.9176601748634,1,1,1,3.0,2.0
2021-09-23 17:22:31.957,1070.0,-97.0,89.0,1078.0677158694623,1,1,1,3.0,2.0
2021-09-23 17:22:31.973,1040.0,12.0,-39.0,1040.800172943875,1,1,1,3.0,2.0
2021-09-23 17:22:31.977,1114.0,-202.0,-39.0,1132.8375876532346,1,1,1,3.0,2.0
2021-09-23 17:22:31.978,1114.0,-202.0,-9.0,1132.2018371297584,1,1,1,3.0,2.0
2021-09-23 17:22:31.986,1034.0,-12.0,-6.0,1034.0870369557874,1,1,1,3.0,2.0
2021-09-23 17:22:31.995,967.0,-12.0,-6.0,967.0930668761928,1,1,1,3.0,2.0
2021-09-23 17:22:31.996,967.0,329.0,-31.0,1021.9055729371476,1,1,1,3.0,2.0
2021-09-23 17:22:32.006,1061.0,-230.0,-31.0,1086.0856319830402,1,1,1,3.0,2.0
2021-09-23 17:22:32.007,1061.0,-230.0,-1.0,1085.6435879237715,1,1,1,3.0,2.0
2021-09-23 17:22:32.015,937.0,-230.0,-1.0,964.816044642708,1,1,1,3.0,2.0
2021-09-23 17:22:32.016,937.0,318.0,10.0,989.5418131640522,1,1,1,3.0,2.0
2021-09-23 17:22:32.025,1123.0,-35.0,36.0,1124.1218795130712,1,1,1,3.0,2.0
2021-09-23 17:22:32.034,961.0,296.0,-14.0,1005.6505357230214,1,1,1,3.0,2.0
2021-09-23 17:22:32.044,1059.0,-195.0,-14.0,1076.8946095138558,1,1,1,3.0,2.0
2021-09-23 17:22:32.045,1059.0,-195.0,19.0,1076.9712159570468,1,1,1,3.0,2.0
2021-09-23 17:22:32.054,944.0,165.0,26.0,958.664174776548,1,1,1,3.0,2.0
2021-09-23 17:22:32.064,1086.0,-28.0,26.0,1086.671983627074,1,1,1,3.0,2.0
2021-09-23 17:22:32.065,1086.0,-28.0,34.0,1086.8928190028676,1,1,1,3.0,2.0
2021-09-23 17:22:32.073,1039.0,-104.0,24.0,1044.4678070673122,1,1,1,3.0,2.0
2021-09-23 17:22:32.084,977.0,436.0,-28.0,1070.2378240372557,1,1,1,3.0,2.0
2021-09-23 17:22:32.093,1093.0,-40.0,31.0,1094.1709190067154,1,1,1,3.0,2.0
2021-09-23 17:22:32.103,957.0,410.0,-43.0,1042.0163146515508,1,1,1,3.0,2.0
2021-09-23 17:22:32.111,1073.0,410.0,-43.0,1149.4685728631296,1,1,1,3.0,2.0
2021-09-23 17:22:32.112,1073.0,-234.0,14.0,1098.3082445288298,1,1,1,3.0,2.0
2021-09-23 17:22:32.123,922.0,136.0,-9.0,932.0198495740314,1,1,1,3.0,2.0
2021-09-23 17:22:32.134,1016.0,-27.0,56.0,1017.9002898123176,1,1,1,3.0,2.0
2021-09-23 17:22:32.141,1022.0,2.0,56.0,1023.535050694406,1,1,1,3.0,2.0
2021-09-23 17:22:32.142,1022.0,2.0,7.0,1022.0259292209764,1,1,1,3.0,2.0
2021-09-23 17:22:32.151,1042.0,-211.0,20.0,1063.3367293571685,1,1,1,3.0,2.0
2021-09-23 17:22:32.161,1041.0,-22.0,20.0,1041.4245051850853,1,1,1,3.0,2.0
2021-09-23 17:22:32.162,1041.0,-22.0,-39.0,1041.962571304747,1,1,1,3.0,2.0
2021-09-23 17:22:32.172,943.0,337.0,56.0,1002.972581878488,1,1,1,3.0,2.0
2021-09-23 17:22:32.181,1049.0,-230.0,13.0,1073.9972067002782,1,1,1,3.0,2.0
2021-09-23 17:22:32.191,1008.0,-230.0,13.0,1033.9888780833187,1,1,1,3.0,2.0
2021-09-23 17:22:32.192,1008.0,290.0,43.0,1049.7680696230002,1,1,1,3.0,2.0
2021-09-23 17:22:32.200,1058.0,-9.0,43.0,1058.91170547879,1,1,1,3.0,2.0
2021-09-23 17:22:32.201,1058.0,-9.0,-2.0,1058.0401693697645,1,1,1,3.0,2.0
2021-09-23 17:22:32.210,981.0,264.0,-29.0,1016.3158957725692,1,1,1,3.0,2.0
2021-09-23 17:22:32.221,1071.0,264.0,-29.0,1103.4391691434555,1,1,1,3.0,2.0
2021-09-23 17:22:32.222,1071.0,-199.0,0.0,1089.330987349575,1,1,1,3.0,2.0
2021-09-23 17:22:32.230,1014.0,53.0,9.0,1015.424049350812,1,1,1,3.0,2.0
2021-09-23 17:22:32.241,993.0,142.0,26.0,1003.4385880560902,1,1,1,3.0,2.0
2021-09-23 17:22:32.249,1016.0,-169.0,28.0,1030.340235068009,1,1,1,3.0,2.0
2021-09-23 17:22:32.259,911.0,426.0,0.0,1005.6823554184492,1,1,1,3.0,2.0
2021-09-23 17:22:32.269,1086.0,-139.0,25.0,1095.1447392924829,1,1,1,3.0,2.0
2021-09-23 17:22:32.279,928.0,-139.0,25.0,938.685250763002,1,1,1,3.0,2.0
2021-09-23 17:22:32.280,928.0,420.0,36.0,1019.2546296191152,1,1,1,3.0,2.0
2021-09-23 17:22:32.289,1042.0,-233.0,-5.0,1067.7443514250028,1,1,1,3.0,2.0
2021-09-23 17:22:32.299,915.0,135.0,20.0,925.121613627095,1,1,1,3.0,2.0
2021-09-23 17:22:32.308,1041.0,0.0,5.0,1041.0120076156663,1,1,1,3.0,2.0
2021-09-23 17:22:32.318,1036.0,-26.0,7.0,1036.3498444058357,1,1,1,3.0,2.0
2021-09-23 17:22:32.327,1041.0,-236.0,21.0,1067.6225924923094,1,1,1,3.0,2.0
2021-09-23 17:22:32.338,1071.0,-35.0,-17.0,1071.7065829787557,1,1,1,3.0,2.0
2021-09-23 17:22:32.348,925.0,389.0,23.0,1003.7305415299468,1,1,1,3.0,2.0
2021-09-23 17:22:32.357,1066.0,-284.0,6.0,1103.1989847711066,1,1,1,3.0,2.0
2021-09-23 17:22:32.366,992.0,280.0,33.0,1031.2870599401508,1,1,1,3.0,2.0
2021-09-23 17:22:32.377,1025.0,-47.0,47.0,1027.1528610679134,1,1,1,3.0,2.0
2021-09-23 17:22:32.386,973.0,212.0,47.0,996.9363068922707,1,1,1,3.0,2.0
2021-09-23 17:22:32.387,973.0,212.0,-39.0,996.5911900072166,1,1,1,3.0,2.0
2021-09-23 17:22:32.396,1092.0,-196.0,17.0,1109.5805513796645,1,1,1,3.0,2.0
2021-09-23 17:22:32.405,984.0,-196.0,17.0,1003.4744640497834,1,1,1,3.0,2.0
2021-09-23 17:22:32.406,984.0,34.0,-4.0,984.59534835383,1,1,1,3.0,2.0
2021-09-23 17:22:32.415,1000.0,34.0,-4.0,1000.5858284025414,1,1,1,3.0,2.0
2021-09-23 17:22:32.416,1000.0,263.0,11.0,1034.06479487506,1,1,1,3.0,2.0
2021-09-23 17:22:32.429,1097.0,-228.0,11.0,1120.4972110630174,1,1,1,3.0,2.0
2021-09-23 17:22:32.430,1097.0,-228.0,56.0,1121.8417892020248,1,1,1,3.0,2.0
2021-09-23 17:22:32.436,891.0,354.0,-17.0,958.8983262056516,1,1,1,3.0,2.0
2021-09-23 17:22:32.445,1069.0,-271.0,-9.0,1102.8522113139186,1,1,1,3.0,2.0
2021-09-23 17:22:32.455,864.0,-271.0,-9.0,905.5484525965466,1,1,1,3.0,2.0
2021-09-23 17:22:32.456,864.0,428.0,2.0,964.2012238117104,1,1,1,3.0,2.0
2021-09-23 17:22:32.464,1082.0,-236.0,27.0,1107.767574900078,1,1,1,3.0,2.0
2021-09-23 17:22:32.474,1002.0,143.0,20.0,1012.3502358373804,1,1,1,3.0,2.0
2021-09-23 17:22:32.484,1031.0,-70.0,-2.0,1033.3755367725714,1,1,1,3.0,2.0
2021-09-23 17:22:32.494,919.0,136.0,-2.0,929.0107642002864,1,1,1,3.0,2.0
2021-09-23 17:22:32.495,919.0,136.0,5.0,929.0220664763566,1,1,1,3.0,2.0
2021-09-23 17:22:32.503,1052.0,-141.0,18.0,1061.5597015712306,1,1,1,3.0,2.0
2021-09-23 17:22:32.514,1054.0,-81.0,18.0,1057.2610841225548,1,1,1,3.0,2.0
2021-09-23 17:22:32.515,1054.0,-81.0,15.0,1057.2142639976062,1,1,1,3.0,2.0
2021-09-23 17:22:32.523,967.0,-81.0,15.0,970.5024471890836,1,1,1,3.0,2.0
2021-09-23 17:22:32.524,967.0,390.0,-69.0,1044.964114216369,1,1,1,3.0,2.0
2021-09-23 17:22:32.532,1043.0,-244.0,2.0,1071.1624526653277,1,1,1,3.0,2.0
2021-09-23 17:22:32.543,968.0,240.0,14.0,997.406637234784,1,1,1,3.0,2.0
2021-09-23 17:22:32.552,1096.0,-266.0,6.0,1127.833321018669,1,1,1,3.0,2.0
2021-09-23 17:22:32.562,955.0,196.0,2.0,974.9076879376836,1,1,1,3.0,2.0
2021-09-23 17:22:32.571,1069.0,-205.0,20.0,1088.66248213117,1,1,1,3.0,2.0
2021-09-23 17:22:32.582,1038.0,28.0,-20.0,1038.5701709562045,1,1,1,3.0,2.0
2021-09-23 17:22:32.592,948.0,269.0,19.0,985.6094561234688,1,1,1,3.0,2.0
2021-09-23 17:22:32.601,1070.0,269.0,19.0,1103.4591066278804,1,1,1,3.0,2.0
2021-09-23 17:22:32.602,1070.0,-175.0,2.0,1084.2181514805957,1,1,1,3.0,2.0
2021-09-23 17:22:32.616,992.0,161.0,39.0,1005.7365460198808,1,1,1,3.0,2.0
2021-09-23 17:22:32.621,1057.0,-325.0,5.0,1105.847638691696,1,1,1,3.0,2.0
2021-09-23 17:22:32.631,928.0,370.0,-58.0,1000.72373810158,1,1,1,3.0,2.0
2021-09-23 17:22:32.641,1084.0,-202.0,-21.0,1102.8603719419789,1,1,1,3.0,2.0
2021-09-23 17:22:32.651,997.0,126.0,-1.0,1004.9308433917232,1,1,1,3.0,2.0
2021-09-23 17:22:32.659,1014.0,126.0,-1.0,1021.7989038944992,1,1,1,3.0,2.0
2021-09-23 17:22:32.660,1014.0,90.0,56.0,1019.5253797723724,1,1,1,3.0,2.0
2021-09-23 17:22:32.669,975.0,128.0,56.0,984.959390025802,1,1,1,3.0,2.0
2021-09-23 17:22:32.670,975.0,128.0,27.0,983.7367534050968,1,1,1,3.0,2.0
2021-09-23 17:22:32.680,1049.0,-80.0,6.0,1052.063211028691,1,1,1,3.0,2.0
2021-09-23 17:22:32.689,1114.0,-224.0,24.0,1136.5509227482946,1,1,1,3.0,2.0
2021-09-23 17:22:32.698,906.0,359.0,24.0,974.8297287218932,1,1,1,3.0,2.0
2021-09-23 17:22:32.699,906.0,359.0,-20.0,974.7394523666312,1,1,1,3.0,2.0
2021-09-23 17:22:32.709,1049.0,-222.0,6.0,1072.2504371647512,1,1,1,3.0,2.0
2021-09-23 17:22:32.718,955.0,230.0,10.0,982.3568598019764,1,1,1,3.0,2.0
2021-09-23 17:22:32.730,1051.0,-251.0,25.0,1080.8455023730264,1,1,1,3.0,2.0
2021-09-23 17:22:32.738,999.0,219.0,-40.0,1023.5047630568214,1,1,1,3.0,2.0
2021-09-23 17:22:32.748,1050.0,-173.0,22.0,1064.3838593289547,1,1,1,3.0,2.0
2021-09-23 17:22:32.758,1044.0,-71.0,-26.0,1046.7344457884244,1,1,1,3.0,2.0
2021-09-23 17:22:32.767,927.0,339.0,28.0,987.4380993257248,1,1,1,3.0,2.0
2021-09-23 17:22:32.778,1054.0,-223.0,7.0,1077.3550946647072,1,1,1,3.0,2.0
2021-09-23 17:22:32.787,956.0,216.0,43.0,981.0407738723196,1,1,1,3.0,2.0
2021-09-23 17:22:32.796,1089.0,-313.0,-16.0,1133.2016590174935,1,1,1,3.0,2.0
2021-09-23 17:22:32.808,943.0,338.0,-14.0,1001.84280204032,1,1,1,3.0,2.0
2021-09-23 17:22:32.816,1062.0,-221.0,0.0,1084.7511235301856,1,1,1,3.0,2.0
2021-09-23 17:22:32.825,1010.0,-221.0,0.0,1033.8960295890492,1,1,1,3.0,2.0
2021-09-23 17:22:32.826,1010.0,-27.0,-9.0,1010.4009105300728,1,1,1,3.0,2.0
2021-09-23 17:22:32.835,991.0,276.0,-9.0,1028.7555589157223,1,1,1,3.0,2.0
2021-09-23 17:22:32.836,991.0,276.0,24.0,1028.9961127234642,1,1,1,3.0,2.0
2021-09-23 17:22:32.845,1057.0,189.0,3.0,1073.768597045006,1,1,1,3.0,2.0
2021-09-23 17:22:32.859,1039.0,48.0,7.0,1040.131722427501,1,1,1,3.0,2.0
2021-09-23 17:22:32.864,1053.0,48.0,7.0,1054.1166918325505,1,1,1,3.0,2.0
2021-09-23 17:22:32.865,1053.0,-267.0,-23.0,1086.5666109355652,1,1,1,3.0,2.0
2021-09-23 17:22:32.874,882.0,-267.0,-23.0,921.8145149649142,1,1,1,3.0,2.0
2021-09-23 17:22:32.875,882.0,263.0,19.0,920.5726478665332,1,1,1,3.0,2.0
2021-09-23 17:22:32.884,1069.0,-234.0,40.0,1095.0420083266213,1,1,1,3.0,2.0
2021-09-23 17:22:32.894,984.0,220.0,2.0,1008.2955915801676,1,1,1,3.0,2.0
2021-09-23 17:22:32.905,1073.0,-230.0,-9.0,1097.4105886130317,1,1,1,3.0,2.0
2021-09-23 17:22:32.913,1009.0,222.0,-6.0,1033.1510054198272,1,1,1,3.0,2.0
2021-09-23 17:22:32.924,995.0,-153.0,13.0,1006.77852579403,1,1,1,3.0,2.0
2021-09-23 17:22:32.941,1046.0,-137.0,14.0,1055.026539950536,1,1,1,3.0,2.0
2021-09-23 17:22:32.953,1081.0,-274.0,3.0,1115.1887732576938,1,1,1,3.0,2.0
2021-09-23 17:22:32.962,912.0,327.0,58.0,970.5859055230504,1,1,1,3.0,2.0
2021-09-23 17:22:32.973,1130.0,-324.0,-58.0,1176.962191406334,1,1,1,3.0,2.0
2021-09-23 17:22:32.983,934.0,240.0,45.0,965.3916303759836,1,1,1,3.0,2.0
2021-09-23 17:22:32.991,1086.0,-143.0,45.0,1096.2983170652046,1,1,1,3.0,2.0
2021-09-23 17:22:32.992,1086.0,-143.0,42.0,1096.179273659195,1,1,1,3.0,2.0
2021-09-23 17:22:33.007,1019.0,-74.0,-38.0,1022.3898473674316,1,1,1,3.0,2.0
2021-09-23 17:22:33.011,944.0,293.0,34.0,989.0101111717717,1,1,1,3.0,2.0
2021-09-23 17:22:33.022,1070.0,19.0,12.0,1070.235955292103,1,1,1,3.0,2.0
2021-09-23 17:22:33.031,1025.0,84.0,-1.0,1028.436677681227,1,1,1,3.0,2.0
2021-09-23 17:22:33.041,1015.0,-233.0,-1.0,1041.4004993277083,1,1,1,3.0,2.0
2021-09-23 17:22:33.042,1015.0,-233.0,22.0,1041.632372768819,1,1,1,3.0,2.0
2021-09-23 17:22:33.050,936.0,259.0,-8.0,971.2059513820948,1,1,1,3.0,2.0
2021-09-23 17:22:33.059,1049.0,-223.0,-8.0,1072.4709786283263,1,1,1,3.0,2.0
2021-09-23 17:22:33.060,1049.0,-223.0,25.0,1072.7324922831417,1,1,1,3.0,2.0
2021-09-23 17:22:33.070,968.0,-223.0,25.0,993.6689589596728,1,1,1,3.0,2.0
2021-09-23 17:22:33.071,968.0,251.0,-9.0,1000.0529985955744,1,1,1,3.0,2.0
2021-09-23 17:22:33.080,1057.0,-167.0,-10.0,1070.157932269812,1,1,1,3.0,2.0
2021-09-23 17:22:33.089,1006.0,237.0,-10.0,1033.5884093777368,1,1,1,3.0,2.0
2021-09-23 17:22:33.090,1006.0,237.0,44.0,1034.476195956195,1,1,1,3.0,2.0
2021-09-23 17:22:33.099,1003.0,-55.0,10.0,1004.556618613406,1,1,1,3.0,2.0
2021-09-23 17:22:33.109,1131.0,-76.0,40.0,1134.2561439110657,1,1,1,3.0,2.0
2021-09-23 17:22:33.119,985.0,253.0,40.0,1017.759303568383,1,1,1,3.0,2.0
2021-09-23 17:22:33.120,985.0,253.0,-66.0,1019.1123588692268,1,1,1,3.0,2.0
2021-09-23 17:22:33.129,1020.0,-183.0,35.0,1036.877041890696,1,1,1,3.0,2.0
2021-09-23 17:22:33.139,983.0,198.0,5.0,1002.7552044242902,1,1,1,3.0,2.0
2021-09-23 17:22:33.149,1088.0,-305.0,19.0,1130.1017653291228,1,1,1,3.0,2.0
2021-09-23 17:22:33.158,953.0,204.0,-40.0,975.41017013357,1,1,1,3.0,2.0
2021-09-23 17:22:33.167,1037.0,-226.0,54.0,1062.7139784532808,1,1,1,3.0,2.0
2021-09-23 17:22:33.178,1038.0,-226.0,54.0,1063.6898044072811,1,1,1,3.0,2.0
2021-09-23 17:22:33.179,1038.0,-64.0,-32.0,1040.4633583168606,1,1,1,3.0,2.0
2021-09-23 17:22:33.188,923.0,359.0,73.0,993.0453161865272,1,1,1,3.0,2.0
2021-09-23 17:22:33.197,1032.0,15.0,-9.0,1032.1482451663617,1,1,1,3.0,2.0
2021-09-23 17:22:33.206,952.0,220.0,39.0,977.8675779470348,1,1,1,3.0,2.0
2021-09-23 17:22:33.216,1093.0,-292.0,-5.0,1131.3434491788955,1,1,1,3.0,2.0
2021-09-23 17:22:33.226,898.0,247.0,-50.0,932.6912672476352,1,1,1,3.0,2.0
2021-09-23 17:22:33.236,1085.0,247.0,-50.0,1113.8823995377609,1,1,1,3.0,2.0
2021-09-23 17:22:33.237,1085.0,-275.0,18.0,1119.4525447735602,1,1,1,3.0,2.0
2021-09-23 17:22:33.245,996.0,56.0,18.0,997.7354358746612,1,1,1,3.0,2.0
2021-09-23 17:22:33.246,996.0,56.0,-14.0,997.6712885514949,1,1,1,3.0,2.0
2021-09-23 17:22:33.255,1096.0,56.0,-14.0,1097.519020336322,1,1,1,3.0,2.0
2021-09-23 17:22:33.256,1096.0,-178.0,10.0,1110.405331399305,1,1,1,3.0,2.0
2021-09-23 17:22:33.264,969.0,223.0,10.0,994.3792033223544,1,1,1,3.0,2.0
2021-09-23 17:22:33.265,969.0,223.0,26.0,994.668789095144,1,1,1,3.0,2.0
2021-09-23 17:22:33.275,1057.0,84.0,17.0,1060.4687642736112,1,1,1,3.0,2.0
2021-09-23 17:22:33.285,1077.0,-139.0,12.0,1085.9990791892965,1,1,1,3.0,2.0
2021-09-23 17:22:33.294,901.0,343.0,23.0,964.3541880450356,1,1,1,3.0,2.0
2021-09-23 17:22:33.304,1084.0,-373.0,9.0,1146.414410237415,1,1,1,3.0,2.0
2021-09-23 17:22:33.314,864.0,310.0,-81.0,921.4971513792108,1,1,1,3.0,2.0
2021-09-23 17:22:33.323,1176.0,-332.0,5.0,1221.9758590086794,1,1,1,3.0,2.0
2021-09-23 17:22:33.334,984.0,-332.0,5.0,1038.5109532402632,1,1,1,3.0,2.0
2021-09-23 17:22:33.335,984.0,236.0,-31.0,1012.3798694166138,1,1,1,3.0,2.0
2021-09-23 17:22:33.344,1011.0,-163.0,69.0,1026.3776108236189,1,1,1,3.0,2.0
2021-09-23 17:22:33.354,979.0,-163.0,-42.0,993.3649883099364,1,1,1,3.0,2.0
2021-09-23 17:22:33.363,939.0,361.0,45.0,1007.0089373982736,1,1,1,3.0,2.0
2021-09-23 17:22:33.372,1031.0,-73.0,31.0,1034.045937084035,1,1,1,3.0,2.0
2021-09-23 17:22:33.382,957.0,276.0,31.0,996.4868288141092,1,1,1,3.0,2.0
2021-09-23 17:22:33.383,957.0,276.0,82.0,999.3743042524158,1,1,1,3.0,2.0
2021-09-23 17:22:33.393,1104.0,-154.0,-11.0,1114.7434682472915,1,1,1,3.0,2.0
2021-09-23 17:22:33.401,937.0,-154.0,-11.0,949.6346665955282,1,1,1,3.0,2.0
2021-09-23 17:22:33.402,937.0,246.0,-40.0,969.5798058953168,1,1,1,3.0,2.0
2021-09-23 17:22:33.411,1105.0,246.0,-40.0,1132.7581383508132,1,1,1,3.0,2.0
2021-09-23 17:22:33.412,1105.0,-356.0,18.0,1161.0706266201037,1,1,1,3.0,2.0
2021-09-23 17:22:33.421,1003.0,51.0,-4.0,1004.3037389156729,1,1,1,3.0,2.0
2021-09-23 17:22:33.433,1082.0,-212.0,30.0,1102.9814141679813,1,1,1,3.0,2.0
2021-09-23 17:22:33.440,1041.0,-212.0,30.0,1062.7911365832892,1,1,1,3.0,2.0
2021-09-23 17:22:33.441,1041.0,145.0,29.0,1051.4499512577856,1,1,1,3.0,2.0
2021-09-23 17:22:33.451,1038.0,100.0,-6.0,1042.8230914205917,1,1,1,3.0,2.0
2021-09-23 17:22:33.461,1036.0,-208.0,17.0,1056.810768302443,1,1,1,3.0,2.0
2021-09-23 17:22:33.470,865.0,312.0,40.0,920.4178398966416,1,1,1,3.0,2.0
2021-09-23 17:22:33.480,1098.0,312.0,40.0,1142.1681137205678,1,1,1,3.0,2.0
2021-09-23 17:22:33.481,1098.0,-243.0,38.0,1125.2097582228837,1,1,1,3.0,2.0
2021-09-23 17:22:33.492,955.0,274.0,-9.0,993.570329669722,1,1,1,3.0,2.0
2021-09-23 17:22:33.500,1081.0,-219.0,11.0,1103.0154124036526,1,1,1,3.0,2.0
2021-09-23 17:22:33.509,1000.0,-219.0,11.0,1023.7587606462764,1,1,1,3.0,2.0
2021-09-23 17:22:33.510,1000.0,223.0,-6.0,1024.5804019207085,1,1,1,3.0,2.0
2021-09-23 17:22:33.519,1055.0,-125.0,22.0,1062.6071710655824,1,1,1,3.0,2.0
2021-09-23 17:22:33.529,1003.0,-113.0,-34.0,1009.9178184387084,1,1,1,3.0,2.0
2021-09-23 17:22:33.538,997.0,-113.0,-34.0,1003.9591625160856,1,1,1,3.0,2.0
2021-09-23 17:22:33.539,997.0,-202.0,28.0,1017.6428646632372,1,1,1,3.0,2.0
2021-09-23 17:22:33.549,1052.0,-14.0,30.0,1052.5207836427744,1,1,1,3.0,2.0
2021-09-23 17:22:33.558,1001.0,215.0,-17.0,1023.970214410556,1,1,1,3.0,2.0
2021-09-23 17:22:33.568,1097.0,-260.0,-9.0,1127.4262725340402,1,1,1,3.0,2.0
2021-09-23 17:22:33.578,980.0,280.0,5.0,1019.2276487615512,1,1,1,3.0,2.0
2021-09-23 17:22:33.588,1061.0,-228.0,8.0,1085.2506622895928,1,1,1,3.0,2.0
2021-09-23 17:22:33.598,961.0,17.0,-24.0,961.4499466950944,1,1,1,3.0,2.0
2021-09-23 17:22:33.607,1047.0,-241.0,15.0,1074.4835968966674,1,1,1,3.0,2.0
2021-09-23 17:22:33.616,1051.0,-241.0,15.0,1078.3816578558817,1,1,1,3.0,2.0
2021-09-23 17:22:33.617,1051.0,41.0,22.0,1052.0294672679088,1,1,1,3.0,2.0
2021-09-23 17:22:33.631,1002.0,188.0,16.0,1019.6097292591908,1,1,1,3.0,2.0
2021-09-23 17:22:33.636,1080.0,-253.0,-20.0,1109.418316055761,1,1,1,3.0,2.0
2021-09-23 17:22:33.647,915.0,350.0,13.0,979.741802721513,1,1,1,3.0,2.0
2021-09-23 17:22:33.656,1057.0,-264.0,0.0,1089.4700546596036,1,1,1,3.0,2.0
2021-09-23 17:22:33.666,952.0,324.0,21.0,1005.8434271793996,1,1,1,3.0,2.0
2021-09-23 17:22:33.676,1046.0,-237.0,-14.0,1072.6047734370754,1,1,1,3.0,2.0
2021-09-23 17:22:33.685,1039.0,288.0,29.0,1078.5666414274085,1,1,1,3.0,2.0
2021-09-23 17:22:33.695,1021.0,-72.0,40.0,1024.3168455121686,1,1,1,3.0,2.0
2021-09-23 17:22:33.704,1021.0,-211.0,40.0,1043.3417465049504,1,1,1,3.0,2.0
2021-09-23 17:22:33.705,1021.0,-211.0,33.0,1043.0968315549617,1,1,1,3.0,2.0
2021-09-23 17:22:33.715,1003.0,-179.0,63.0,1020.7933189436536,1,1,1,3.0,2.0
2021-09-23 17:22:33.726,1071.0,-201.0,-1.0,1089.6985821776589,1,1,1,3.0,2.0
2021-09-23 17:22:33.733,960.0,-201.0,-1.0,980.8170063778462,1,1,1,3.0,2.0
2021-09-23 17:22:33.734,960.0,255.0,-12.0,993.3624716084256,1,1,1,3.0,2.0
2021-09-23 17:22:33.743,1003.0,-223.0,-12.0,1027.5611903920856,1,1,1,3.0,2.0
2021-09-23 17:22:33.744,1003.0,-223.0,-2.0,1027.4930656700317,1,1,1,3.0,2.0
2021-09-23 17:22:33.754,1012.0,290.0,-29.0,1053.1310459767103,1,1,1,3.0,2.0
2021-09-23 17:22:33.762,1049.0,-265.0,-29.0,1082.343291197391,1,1,1,3.0,2.0
2021-09-23 17:22:33.763,1049.0,-265.0,32.0,1082.4278266933088,1,1,1,3.0,2.0
2021-09-23 17:22:33.773,941.0,359.0,32.0,1007.6636343542424,1,1,1,3.0,2.0
2021-09-23 17:22:33.774,941.0,359.0,-4.0,1007.1633432566932,1,1,1,3.0,2.0
2021-09-23 17:22:33.786,1091.0,-190.0,-5.0,1107.4321649654212,1,1,1,3.0,2.0
2021-09-23 17:22:33.792,1012.0,-19.0,31.0,1012.6529514103042,1,1,1,3.0,2.0
2021-09-23 17:22:33.802,877.0,-19.0,31.0,877.7533822207694,1,1,1,3.0,2.0
2021-09-23 17:22:33.803,877.0,256.0,-4.0,913.60877841667,1,1,1,3.0,2.0
2021-09-23 17:22:33.812,1175.0,256.0,-4.0,1202.5709958251946,1,1,1,3.0,2.0
2021-09-23 17:22:33.813,1175.0,-233.0,36.0,1198.419792893959,1,1,1,3.0,2.0
2021-09-23 17:22:33.821,904.0,326.0,36.0,961.658983215984,1,1,1,3.0,2.0
2021-09-23 17:22:33.822,904.0,326.0,-46.0,962.0852353092216,1,1,1,3.0,2.0
2021-09-23 17:22:33.832,1050.0,-151.0,53.0,1062.1252280216302,1,1,1,3.0,2.0
2021-09-23 17:22:33.841,897.0,382.0,17.0,975.1010204076292,1,1,1,3.0,2.0
2021-09-23 17:22:33.851,1016.0,382.0,17.0,1085.5731205220586,1,1,1,3.0,2.0
2021-09-23 17:22:33.852,1016.0,-204.0,0.0,1036.2779549908412,1,1,1,3.0,2.0
2021-09-23 17:22:33.871,1077.0,157.0,21.0,1088.585779807912,1,1,1,3.0,2.0
2021-09-23 17:22:33.874,1058.0,157.0,21.0,1069.791568484254,1,1,1,3.0,2.0
2021-09-23 17:22:33.875,1058.0,112.0,5.0,1063.923399498291,1,1,1,3.0,2.0
2021-09-23 17:22:33.879,1075.0,-177.0,5.0,1089.4856584645802,1,1,1,3.0,2.0
2021-09-23 17:22:33.880,1075.0,-177.0,22.0,1089.6962879628434,1,1,1,3.0,2.0
2021-09-23 17:22:33.890,1038.0,40.0,17.0,1038.9095244534049,1,1,1,3.0,2.0
2021-09-23 17:22:33.900,1059.0,-215.0,16.0,1080.7229062067668,1,1,1,3.0,2.0
2021-09-23 17:22:33.910,944.0,-215.0,16.0,968.3062532071142,1,1,1,3.0,2.0
2021-09-23 17:22:33.911,944.0,226.0,-37.0,971.3809757247668,1,1,1,3.0,2.0
2021-09-23 17:22:33.920,1038.0,-166.0,3.0,1051.1940829361629,1,1,1,3.0,2.0
2021-09-23 17:22:33.928,986.0,-166.0,3.0,999.8804928590216,1,1,1,3.0,2.0
2021-09-23 17:22:33.929,986.0,328.0,-69.0,1041.4129824426043,1,1,1,3.0,2.0
2021-09-23 17:22:33.939,1001.0,-161.0,38.0,1014.5767590478308,1,1,1,3.0,2.0
2021-09-23 17:22:33.960,953.0,331.0,0.0,1008.84587524557,1,1,1,3.0,2.0
2021-09-23 17:22:33.962,1041.0,-230.0,0.0,1066.1055294857072,1,1,1,3.0,2.0
2021-09-23 17:22:33.963,1041.0,-230.0,21.0,1066.3123369819932,1,1,1,3.0,2.0
2021-09-23 17:22:33.968,1023.0,28.0,31.0,1023.8525284434278,1,1,1,3.0,2.0
2021-09-23 17:22:33.981,952.0,290.0,33.0,995.7374151853488,1,1,1,3.0,2.0
2021-09-23 17:22:33.987,1046.0,290.0,33.0,1085.9581023225528,1,1,1,3.0,2.0
2021-09-23 17:22:33.988,1046.0,-110.0,-6.0,1051.7851491630788,1,1,1,3.0,2.0
2021-09-23 17:22:33.997,952.0,244.0,-1.0,982.772099726076,1,1,1,3.0,2.0
2021-09-23 17:22:34.008,1048.0,-220.0,7.0,1070.865537777736,1,1,1,3.0,2.0
2021-09-23 17:22:34.023,942.0,372.0,8.0,1012.8237753923434,1,1,1,3.0,2.0
2021-09-23 17:22:34.026,996.0,372.0,8.0,1063.232806115387,1,1,1,3.0,2.0
2021-09-23 17:22:34.027,996.0,-278.0,28.0,1034.4486454145513,1,1,1,3.0,2.0
2021-09-23 17:22:34.036,1128.0,75.0,28.0,1130.8373004106293,1,1,1,3.0,2.0
2021-09-23 17:22:34.037,1128.0,75.0,8.0,1130.5189074049138,1,1,1,3.0,2.0
2021-09-23 17:22:34.046,1028.0,119.0,-20.0,1035.0579693910868,1,1,1,3.0,2.0
2021-09-23 17:22:34.057,1058.0,119.0,-20.0,1064.8591456150434,1,1,1,3.0,2.0
2021-09-23 17:22:34.058,1058.0,-220.0,-8.0,1080.66090888863,1,1,1,3.0,2.0
2021-09-23 17:22:34.066,1053.0,-220.0,-8.0,1075.7662385481335,1,1,1,3.0,2.0
2021-09-23 17:22:34.067,1053.0,101.0,-30.0,1058.2580025683717,1,1,1,3.0,2.0
2021-09-23 17:22:34.075,1027.0,-202.0,-30.0,1047.106966837677,1,1,1,3.0,2.0
2021-09-23 17:22:34.076,1027.0,-202.0,29.0,1047.0787935967378,1,1,1,3.0,2.0
2021-09-23 17:22:34.084,952.0,-202.0,29.0,973.6267251878412,1,1,1,3.0,2.0
2021-09-23 17:22:34.085,952.0,200.0,0.0,972.7815787729536,1,1,1,3.0,2.0
2021-09-23 17:22:34.095,1115.0,-209.0,26.0,1134.7167047329478,1,1,1,3.0,2.0
2021-09-23 17:22:34.106,989.0,270.0,-29.0,1025.6032371243764,1,1,1,3.0,2.0
2021-09-23 17:22:34.115,1055.0,-219.0,-32.0,1077.9656766335374,1,1,1,3.0,2.0
2021-09-23 17:22:34.124,948.0,384.0,4.0,1022.8274536792608,1,1,1,3.0,2.0
2021-09-23 17:22:34.134,1006.0,-107.0,34.0,1012.2455235761728,1,1,1,3.0,2.0
2021-09-23 17:22:34.143,1063.0,-122.0,34.0,1070.5180988661518,1,1,1,3.0,2.0
2021-09-23 17:22:34.154,938.0,274.0,38.0,977.9386483824024,1,1,1,3.0,2.0
2021-09-23 17:22:34.164,1109.0,-244.0,-45.0,1136.4162969616373,1,1,1,3.0,2.0
2021-09-23 17:22:34.172,950.0,456.0,-45.0,1054.7326675513564,1,1,1,3.0,2.0
2021-09-23 17:22:34.173,950.0,456.0,0.0,1053.7722714135157,1,1,1,3.0,2.0
2021-09-23 17:22:34.183,1085.0,-165.0,0.0,1097.474373277117,1,1,1,3.0,2.0
2021-09-23 17:22:34.184,1085.0,-165.0,-25.0,1097.759081037365,1,1,1,3.0,2.0
2021-09-23 17:22:34.192,933.0,-165.0,-25.0,947.8074699009288,1,1,1,3.0,2.0
2021-09-23 17:22:34.193,933.0,292.0,-5.0,977.6389926757216,1,1,1,3.0,2.0
2021-09-23 17:22:34.203,1025.0,-273.0,33.0,1061.2459658344997,1,1,1,3.0,2.0
2021-09-23 17:22:34.213,1088.0,20.0,10.0,1088.2297551528354,1,1,1,3.0,2.0
2021-09-23 17:22:34.223,977.0,270.0,0.0,1013.6217243133652,1,1,1,3.0,2.0
2021-09-23 17:22:34.232,1057.0,-241.0,-7.0,1084.1489750029743,1,1,1,3.0,2.0
2021-09-23 17:22:34.241,1024.0,157.0,10.0,1036.013996044455,1,1,1,3.0,2.0
2021-09-23 17:22:34.251,1026.0,-150.0,32.0,1037.400597647794,1,1,1,3.0,2.0
2021-09-23 17:22:34.262,916.0,283.0,-6.0,958.7392763415922,1,1,1,3.0,2.0
2021-09-23 17:22:34.272,1083.0,-279.0,13.0,1118.4359615105373,1,1,1,3.0,2.0
2021-09-23 17:22:34.280,1005.0,266.0,13.0,1039.6874530357668,1,1,1,3.0,2.0
2021-09-23 17:22:34.281,1005.0,266.0,31.0,1040.068266990201,1,1,1,3.0,2.0
2021-09-23 17:22:34.290,1076.0,-154.0,12.0,1087.0308183303728,1,1,1,3.0,2.0
2021-09-23 17:22:34.300,953.0,364.0,-20.0,1020.3455297104016,1,1,1,3.0,2.0
2021-09-23 17:22:34.311,1014.0,-16.0,34.0,1014.6960135922484,1,1,1,3.0,2.0
2021-09-23 17:22:34.321,1024.0,-160.0,14.0,1036.5191749311732,1,1,1,3.0,2.0
2021-09-23 17:22:34.329,974.0,212.0,14.0,996.9032049301476,1,1,1,3.0,2.0
2021-09-23 17:22:34.330,974.0,212.0,-1.0,996.805397256656,1,1,1,3.0,2.0
2021-09-23 17:22:34.339,1087.0,-241.0,-7.0,1113.417711373409,1,1,1,3.0,2.0
2021-09-23 17:22:34.349,967.0,353.0,67.0,1031.5943970379055,1,1,1,3.0,2.0
2021-09-23 17:22:34.360,1035.0,-109.0,-30.0,1041.1560882019564,1,1,1,3.0,2.0
2021-09-23 17:22:34.369,991.0,317.0,1.0,1040.4667221973032,1,1,1,3.0,2.0
2021-09-23 17:22:34.378,1034.0,-238.0,21.0,1061.2450235454585,1,1,1,3.0,2.0
2021-09-23 17:22:34.388,1052.0,-14.0,24.0,1052.3668561865677,1,1,1,3.0,2.0
2021-09-23 17:22:34.398,975.0,338.0,35.0,1032.518280709838,1,1,1,3.0,2.0
2021-09-23 17:22:34.408,1016.0,195.0,15.0,1034.6525987016123,1,1,1,3.0,2.0
2021-09-23 17:22:34.417,1020.0,218.0,14.0,1043.1299056205798,1,1,1,3.0,2.0
2021-09-23 17:22:34.427,1015.0,-206.0,7.0,1035.717142853202,1,1,1,3.0,2.0
2021-09-23 17:22:34.437,851.0,357.0,35.0,923.5123171891104,1,1,1,3.0,2.0
2021-09-23 17:22:34.446,1101.0,-290.0,35.0,1139.0899876655926,1,1,1,3.0,2.0
2021-09-23 17:22:34.447,1101.0,-290.0,0.0,1138.5521507599026,1,1,1,3.0,2.0
2021-09-23 17:22:34.457,1050.0,241.0,14.0,1077.3936142376192,1,1,1,3.0,2.0
2021-09-23 17:22:34.467,1069.0,-237.0,1.0,1094.957076784291,1,1,1,3.0,2.0
2021-09-23 17:22:34.478,972.0,359.0,1.0,1036.1785560413805,1,1,1,3.0,2.0
2021-09-23 17:22:34.485,1021.0,359.0,1.0,1082.2767668207612,1,1,1,3.0,2.0
2021-09-23 17:22:34.486,1021.0,-3.0,2.0,1021.0063662876936,1,1,1,3.0,2.0
2021-09-23 17:22:34.495,1026.0,-132.0,48.0,1035.5694085864066,1,1,1,3.0,2.0
2021-09-23 17:22:34.506,943.0,224.0,2.0,969.24145598504,1,1,1,3.0,2.0
2021-09-23 17:22:34.516,1082.0,-152.0,-6.0,1092.6408376040133,1,1,1,3.0,2.0
2021-09-23 17:22:34.525,1015.0,295.0,-64.0,1058.9362587049327,1,1,1,3.0,2.0
2021-09-23 17:22:34.535,1088.0,295.0,-64.0,1129.0991984763784,1,1,1,3.0,2.0
2021-09-23 17:22:34.536,1088.0,-137.0,-35.0,1097.149944173539,1,1,1,3.0,2.0
2021-09-23 17:22:34.544,960.0,399.0,10.0,1039.6638879945767,1,1,1,3.0,2.0
2021-09-23 17:22:34.554,1031.0,-217.0,1.0,1053.5895785361583,1,1,1,3.0,2.0
2021-09-23 17:22:34.564,1014.0,-217.0,1.0,1036.9599799413668,1,1,1,3.0,2.0
2021-09-23 17:22:34.565,1014.0,-39.0,37.0,1015.424049350812,1,1,1,3.0,2.0
2021-09-23 17:22:34.574,979.0,315.0,40.0,1029.2064904575757,1,1,1,3.0,2.0
2021-09-23 17:22:34.584,996.0,104.0,-17.0,1001.5592843162108,1,1,1,3.0,2.0
2021-09-23 17:22:34.593,1011.0,307.0,13.0,1056.6640904279843,1,1,1,3.0,2.0
2021-09-23 17:22:34.603,1035.0,-195.0,-11.0,1053.26682279468,1,1,1,3.0,2.0
2021-09-23 17:22:34.615,850.0,-195.0,-11.0,872.1502164191671,1,1,1,3.0,2.0
2021-09-23 17:22:34.616,850.0,415.0,-9.0,945.9418586784284,1,1,1,3.0,2.0
2021-09-23 17:22:34.623,1091.0,-211.0,81.0,1114.164709547022,1,1,1,3.0,2.0
2021-09-23 17:22:34.632,1047.0,118.0,81.0,1056.737431910122,1,1,1,3.0,2.0
2021-09-23 17:22:34.633,1047.0,118.0,-59.0,1055.2791099988667,1,1,1,3.0,2.0
2021-09-23 17:22:34.647,1076.0,118.0,-59.0,1084.0576552932966,1,1,1,3.0,2.0
2021-09-23 17:22:34.648,1076.0,-307.0,2.0,1118.9410172122568,1,1,1,3.0,2.0
2021-09-23 17:22:34.652,1012.0,299.0,24.0,1055.519303471045,1,1,1,3.0,2.0
2021-09-23 17:22:34.662,1028.0,54.0,24.0,1029.697042823762,1,1,1,3.0,2.0
2021-09-23 17:22:34.663,1028.0,54.0,-43.0,1030.3150003760986,1,1,1,3.0,2.0
2021-09-23 17:22:34.671,995.0,54.0,-43.0,997.3915981198156,1,1,1,3.0,2.0
2021-09-23 17:22:34.672,995.0,-209.0,57.0,1018.30987425243,1,1,1,3.0,2.0
2021-09-23 17:22:34.683,914.0,188.0,-32.0,933.6830297268984,1,1,1,3.0,2.0
2021-09-23 17:22:34.690,1149.0,188.0,-32.0,1164.718420906959,1,1,1,3.0,2.0
2021-09-23 17:22:34.691,1149.0,-226.0,34.0,1171.5088561338323,1,1,1,3.0,2.0
2021-09-23 17:22:34.700,970.0,325.0,34.0,1023.5628949898488,1,1,1,3.0,2.0
2021-09-23 17:22:34.701,970.0,325.0,33.0,1023.5301656521902,1,1,1,3.0,2.0
2021-09-23 17:22:34.710,1088.0,325.0,33.0,1135.9832745247616,1,1,1,3.0,2.0
2021-09-23 17:22:34.711,1088.0,-183.0,-15.0,1103.38479235487,1,1,1,3.0,2.0
2021-09-23 17:22:34.721,987.0,437.0,-33.0,1079.9199044373615,1,1,1,3.0,2.0
2021-09-23 17:22:34.730,972.0,-176.0,6.0,987.823870940564,1,1,1,3.0,2.0
2021-09-23 17:22:34.740,1022.0,-146.0,32.0,1032.8717248526073,1,1,1,3.0,2.0
2021-09-23 17:22:34.749,969.0,253.0,32.0,1001.9950099676146,1,1,1,3.0,2.0
2021-09-23 17:22:34.750,969.0,253.0,70.0,1003.9272882036826,1,1,1,3.0,2.0
2021-09-23 17:22:34.759,1012.0,4.0,26.0,1012.3418394988918,1,1,1,3.0,2.0
2021-09-23 17:22:34.770,1021.0,428.0,-2.0,1107.081297827761,1,1,1,3.0,2.0
2021-09-23 17:22:34.780,1129.0,-242.0,-19.0,1154.8012816064936,1,1,1,3.0,2.0
2021-09-23 17:22:34.789,859.0,275.0,12.0,902.0254985309452,1,1,1,3.0,2.0
2021-09-23 17:22:34.798,1077.0,-302.0,12.0,1118.6049347289686,1,1,1,3.0,2.0
2021-09-23 17:22:34.799,1077.0,-302.0,50.0,1119.6575369281447,1,1,1,3.0,2.0
2021-09-23 17:22:34.808,1082.0,166.0,2.0,1094.6615915432494,1,1,1,3.0,2.0
2021-09-23 17:22:34.819,1076.0,-253.0,66.0,1107.3125123468983,1,1,1,3.0,2.0
2021-09-23 17:22:34.831,971.0,349.0,-55.0,1033.27972979247,1,1,1,3.0,2.0
2021-09-23 17:22:34.838,1043.0,129.0,-14.0,1051.040436900503,1,1,1,3.0,2.0
2021-09-23 17:22:34.847,1031.0,-173.0,44.0,1046.3393331037498,1,1,1,3.0,2.0
2021-09-23 17:22:34.856,971.0,-173.0,44.0,987.271998995211,1,1,1,3.0,2.0
2021-09-23 17:22:34.857,971.0,168.0,0.0,985.4263036879014,1,1,1,3.0,2.0
2021-09-23 17:22:34.867,1020.0,-227.0,-20.0,1045.145444423885,1,1,1,3.0,2.0
2021-09-23 17:22:34.886,938.0,221.0,-20.0,963.8905539530928,1,1,1,3.0,2.0
2021-09-23 17:22:34.887,938.0,221.0,-51.0,965.0316057000412,1,1,1,3.0,2.0
2021-09-23 17:22:34.889,1084.0,-195.0,19.0,1101.5634343967668,1,1,1,3.0,2.0
2021-09-23 17:22:34.896,980.0,-195.0,19.0,999.3928156635908,1,1,1,3.0,2.0
2021-09-23 17:22:34.897,980.0,452.0,-35.0,1079.7819224269315,1,1,1,3.0,2.0
2021-09-23 17:22:34.906,941.0,-32.0,-35.0,942.1942474882768,1,1,1,3.0,2.0
2021-09-23 17:22:34.907,941.0,-32.0,24.0,941.8497757073576,1,1,1,3.0,2.0
2021-09-23 17:22:34.915,1069.0,-107.0,24.0,1074.6096965875563,1,1,1,3.0,2.0
2021-09-23 17:22:34.916,1069.0,-107.0,47.0,1075.369238912849,1,1,1,3.0,2.0
2021-09-23 17:22:34.925,892.0,150.0,-6.0,904.5440840556088,1,1,1,3.0,2.0
2021-09-23 17:22:34.935,950.0,-62.0,-13.0,952.1097625799244,1,1,1,3.0,2.0
2021-09-23 17:22:34.946,985.0,389.0,25.0,1059.325728942708,1,1,1,3.0,2.0
2021-09-23 17:22:34.956,1031.0,-148.0,-52.0,1042.8657631737651,1,1,1,3.0,2.0
2021-09-23 17:22:34.976,967.0,323.0,5.0,1019.5307744251764,1,1,1,3.0,2.0
2021-09-23 17:22:34.977,956.0,-226.0,3.0,982.3548238798444,1,1,1,3.0,2.0
2021-09-23 17:22:34.985,1076.0,-102.0,3.0,1080.8279233994651,1,1,1,3.0,2.0
2021-09-23 17:22:34.986,1076.0,-102.0,30.0,1081.2400288557578,1,1,1,3.0,2.0
2021-09-23 17:22:34.993,1059.0,-510.0,-1.0,1175.407163496973,1,1,1,3.0,2.0
2021-09-23 17:22:35.003,1027.0,160.0,38.0,1040.0831697513424,1,1,1,3.0,2.0
2021-09-23 17:22:35.013,1016.0,317.0,17.0,1064.4406982072792,1,1,1,3.0,2.0
2021-09-23 17:22:35.024,1050.0,317.0,17.0,1096.940290079638,1,1,1,3.0,2.0
2021-09-23 17:22:35.025,1050.0,-142.0,17.0,1059.6947673740774,1,1,1,3.0,2.0
2021-09-23 17:22:35.037,894.0,-142.0,17.0,905.366776505522,1,1,1,3.0,2.0
2021-09-23 17:22:35.038,894.0,167.0,-11.0,909.5306481916924,1,1,1,3.0,2.0
2021-09-23 17:22:35.042,1095.0,167.0,-11.0,1107.7161188680068,1,1,1,3.0,2.0
2021-09-23 17:22:35.043,1095.0,-412.0,8.0,1169.971367171009,1,1,1,3.0,2.0
2021-09-23 17:22:35.052,849.0,202.0,-34.0,873.3618952072503,1,1,1,3.0,2.0
2021-09-23 17:22:35.062,1078.0,-245.0,42.0,1106.2879372026073,1,1,1,3.0,2.0
2021-09-23 17:22:35.074,902.0,490.0,0.0,1026.5008524107518,1,1,1,3.0,2.0
2021-09-23 17:22:35.081,1017.0,53.0,0.0,1018.380086215358,1,1,1,3.0,2.0
2021-09-23 17:22:35.082,1017.0,53.0,-14.0,1018.4763129302517,1,1,1,3.0,2.0
2021-09-23 17:22:35.091,980.0,-207.0,49.0,1002.8210209204832,1,1,1,3.0,2.0
2021-09-23 17:22:35.101,1053.0,-244.0,33.0,1081.4037173969766,1,1,1,3.0,2.0
2021-09-23 17:22:35.111,993.0,-208.0,12.0,1014.6216043432152,1,1,1,3.0,2.0
2021-09-23 17:22:35.121,909.0,-208.0,12.0,932.5711769082294,1,1,1,3.0,2.0
2021-09-23 17:22:35.122,909.0,293.0,53.0,956.5244377432288,1,1,1,3.0,2.0
2021-09-23 17:22:35.130,1051.0,-69.0,-16.0,1053.3840705079986,1,1,1,3.0,2.0
2021-09-23 17:22:35.140,1011.0,373.0,0.0,1077.6131031126154,1,1,1,3.0,2.0
2021-09-23 17:22:35.150,961.0,-145.0,32.0,972.4042369303004,1,1,1,3.0,2.0
2021-09-23 17:22:35.159,892.0,287.0,-17.0,937.188348199016,1,1,1,3.0,2.0
2021-09-23 17:22:35.170,1098.0,-352.0,30.0,1153.4331363369097,1,1,1,3.0,2.0
2021-09-23 17:22:35.180,992.0,-51.0,-1.0,993.3106261386716,1,1,1,3.0,2.0
2021-09-23 17:22:35.189,1021.0,379.0,-3.0,1089.0780504628674,1,1,1,3.0,2.0
2021-09-23 17:22:35.198,979.0,-39.0,-2.0,979.7785464072992,1,1,1,3.0,2.0
2021-09-23 17:22:35.208,955.0,267.0,30.0,992.0756019578348,1,1,1,3.0,2.0
2021-09-23 17:22:35.219,1063.0,-247.0,-33.0,1091.8182083112554,1,1,1,3.0,2.0
2021-09-23 17:22:35.228,866.0,168.0,29.0,882.6216630017643,1,1,1,3.0,2.0
2021-09-23 17:22:35.237,1126.0,168.0,29.0,1138.8331747890031,1,1,1,3.0,2.0
2021-09-23 17:22:35.238,1126.0,-453.0,28.0,1214.030065525562,1,1,1,3.0,2.0
2021-09-23 17:22:35.247,1003.0,292.0,28.0,1045.0153108926204,1,1,1,3.0,2.0
2021-09-23 17:22:35.248,1003.0,292.0,27.0,1044.9889951573653,1,1,1,3.0,2.0
2021-09-23 17:22:35.258,1029.0,205.0,27.0,1049.5689591446576,1,1,1,3.0,2.0
2021-09-23 17:22:35.259,1029.0,205.0,-27.0,1049.5689591446576,1,1,1,3.0,2.0
2021-09-23 17:22:35.267,999.0,-140.0,26.0,1009.097121193,1,1,1,3.0,2.0
2021-09-23 17:22:35.277,1028.0,-48.0,-14.0,1029.2152350213244,1,1,1,3.0,2.0
2021-09-23 17:22:35.287,940.0,-243.0,54.0,972.4016659796506,1,1,1,3.0,2.0
2021-09-23 17:22:35.296,957.0,288.0,54.0,1000.8541352265074,1,1,1,3.0,2.0
2021-09-23 17:22:35.297,957.0,288.0,6.0,999.4143284944438,1,1,1,3.0,2.0
2021-09-23 17:22:35.307,1084.0,-162.0,6.0,1096.054743158388,1,1,1,3.0,2.0
2021-09-23 17:22:35.308,1084.0,-162.0,-36.0,1096.629381331724,1,1,1,3.0,2.0
2021-09-23 17:22:35.315,1016.0,-162.0,-36.0,1029.4639381736497,1,1,1,3.0,2.0
2021-09-23 17:22:35.316,1016.0,404.0,-31.0,1093.815798020855,1,1,1,3.0,2.0
2021-09-23 17:22:35.325,958.0,-125.0,-31.0,966.6178148575578,1,1,1,3.0,2.0
2021-09-23 17:22:35.326,958.0,-125.0,65.0,968.3047041091972,1,1,1,3.0,2.0
2021-09-23 17:22:35.336,952.0,200.0,-5.0,972.7944284379922,1,1,1,3.0,2.0
2021-09-23 17:22:35.344,1010.0,-354.0,52.0,1071.5036164194687,1,1,1,3.0,2.0
2021-09-23 17:22:35.356,1018.0,-86.0,7.0,1021.6501358097104,1,1,1,3.0,2.0
2021-09-23 17:22:35.364,978.0,-86.0,7.0,981.7988592374712,1,1,1,3.0,2.0
2021-09-23 17:22:35.365,978.0,347.0,32.0,1038.2278170035709,1,1,1,3.0,2.0
2021-09-23 17:22:35.374,1026.0,-116.0,-52.0,1033.8452495417291,1,1,1,3.0,2.0
2021-09-23 17:22:35.384,908.0,-116.0,-52.0,916.855495702567,1,1,1,3.0,2.0
2021-09-23 17:22:35.385,908.0,376.0,27.0,983.1424108439224,1,1,1,3.0,2.0
2021-09-23 17:22:35.394,1053.0,-251.0,-4.0,1082.50912236341,1,1,1,3.0,2.0
2021-09-23 17:22:35.404,926.0,191.0,26.0,945.8504110058842,1,1,1,3.0,2.0
2021-09-23 17:22:35.415,1113.0,-434.0,41.0,1195.326733575385,1,1,1,3.0,2.0
2021-09-23 17:22:35.423,1036.0,296.0,41.0,1078.2360594971772,1,1,1,3.0,2.0
2021-09-23 17:22:35.424,1036.0,296.0,0.0,1077.4562636135167,1,1,1,3.0,2.0
2021-09-23 17:22:35.433,990.0,302.0,0.0,1035.0381635476056,1,1,1,3.0,2.0
2021-09-23 17:22:35.434,990.0,302.0,0.0,1035.0381635476056,1,1,1,3.0,2.0
2021-09-23 17:22:35.443,1020.0,-246.0,16.0,1049.367428501571,1,1,1,3.0,2.0
2021-09-23 17:22:35.455,1029.0,-16.0,-3.0,1029.128757736368,1,1,1,3.0,2.0
2021-09-23 17:22:35.462,1027.0,-255.0,16.0,1058.3052489712031,1,1,1,3.0,2.0
2021-09-23 17:22:35.472,955.0,214.0,0.0,978.6832991320532,1,1,1,3.0,2.0
2021-09-23 17:22:35.482,1073.0,-240.0,15.0,1099.6153873059434,1,1,1,3.0,2.0
2021-09-23 17:22:35.492,953.0,467.0,-1.0,1061.272349587984,1,1,1,3.0,2.0
2021-09-23 17:22:35.501,988.0,12.0,15.0,988.1867232461686,1,1,1,3.0,2.0
2021-09-23 17:22:35.511,986.0,12.0,15.0,986.1871019233622,1,1,1,3.0,2.0
2021-09-23 17:22:35.512,986.0,407.0,-29.0,1067.09231090848,1,1,1,3.0,2.0
2021-09-23 17:22:35.521,1078.0,-251.0,61.0,1108.5152231701647,1,1,1,3.0,2.0
2021-09-23 17:22:35.531,976.0,-148.0,15.0,987.2714925490352,1,1,1,3.0,2.0
2021-09-23 17:22:35.541,1012.0,398.0,56.0,1088.8911791359135,1,1,1,3.0,2.0
2021-09-23 17:22:35.551,1071.0,-65.0,-55.0,1074.3793557212462,1,1,1,3.0,2.0
2021-09-23 17:22:35.562,977.0,321.0,4.0,1028.3900038409552,1,1,1,3.0,2.0
2021-09-23 17:22:35.570,1118.0,-261.0,-62.0,1149.7343171359198,1,1,1,3.0,2.0
2021-09-23 17:22:35.579,886.0,299.0,-62.0,937.1451328369582,1,1,1,3.0,2.0
2021-09-23 17:22:35.580,886.0,299.0,5.0,935.1053416594305,1,1,1,3.0,2.0
2021-09-23 17:22:35.589,1134.0,299.0,5.0,1172.7668139915966,1,1,1,3.0,2.0
2021-09-23 17:22:35.590,1134.0,-478.0,-4.0,1230.63235777384,1,1,1,3.0,2.0
2021-09-23 17:22:35.599,999.0,39.0,-4.0,999.768973313335,1,1,1,3.0,2.0
2021-09-23 17:22:35.600,999.0,39.0,-33.0,1000.3054533491256,1,1,1,3.0,2.0
2021-09-23 17:22:35.610,1040.0,319.0,12.0,1087.890159896669,1,1,1,3.0,2.0
2021-09-23 17:22:35.618,1066.0,319.0,12.0,1112.7717645591122,1,1,1,3.0,2.0
2021-09-23 17:22:35.619,1066.0,-177.0,8.0,1080.6243565642965,1,1,1,3.0,2.0
2021-09-23 17:22:35.628,1058.0,174.0,-3.0,1072.2168623930515,1,1,1,3.0,2.0
2021-09-23 17:22:35.638,918.0,174.0,-3.0,934.3495063411764,1,1,1,3.0,2.0
2021-09-23 17:22:35.639,918.0,-76.0,6.0,921.1601380867498,1,1,1,3.0,2.0
2021-09-23 17:22:35.648,1014.0,-114.0,-58.0,1022.0352244418976,1,1,1,3.0,2.0
2021-09-23 17:22:35.666,1142.0,25.0,70.0,1144.4164451806869,1,1,1,3.0,2.0
2021-09-23 17:22:35.670,963.0,147.0,16.0,974.2864055297088,1,1,1,3.0,2.0
2021-09-23 17:22:35.677,1096.0,-108.0,5.0,1101.319662949863,1,1,1,3.0,2.0
2021-09-23 17:22:35.687,1012.0,152.0,11.0,1023.4104748340228,1,1,1,3.0,2.0
2021-09-23 17:22:35.697,1030.0,152.0,11.0,1041.2132346450462,1,1,1,3.0,2.0
2021-09-23 17:22:35.698,1030.0,-56.0,28.0,1031.9011580573017,1,1,1,3.0,2.0
2021-09-23 17:22:35.707,974.0,-56.0,28.0,976.01024584786,1,1,1,3.0,2.0
2021-09-23 17:22:35.708,974.0,-19.0,-12.0,974.25920575584,1,1,1,3.0,2.0
2021-09-23 17:22:35.716,1074.0,7.0,24.0,1074.2909289387117,1,1,1,3.0,2.0
2021-09-23 17:22:35.726,1012.0,70.0,0.0,1014.4180597761456,1,1,1,3.0,2.0
2021-09-23 17:22:35.736,1065.0,51.0,8.0,1066.2504396247627,1,1,1,3.0,2.0
2021-09-23 17:22:35.746,1021.0,40.0,8.0,1021.8145624329298,1,1,1,3.0,2.0
2021-09-23 17:22:35.747,1021.0,40.0,-16.0,1021.908508624916,1,1,1,3.0,2.0
2021-09-23 17:22:35.756,1039.0,42.0,18.0,1040.0043269140758,1,1,1,3.0,2.0
2021-09-23 17:22:35.765,1001.0,10.0,10.0,1001.0998951153676,1,1,1,3.0,2.0
2021-09-23 17:22:35.775,1013.0,-1.0,2.0,1013.0024679140718,1,1,1,3.0,2.0
2021-09-23 17:22:35.784,1020.0,-1.0,2.0,1020.0024509774474,1,1,1,3.0,2.0
2021-09-23 17:22:35.785,1020.0,40.0,15.0,1020.8942158715564,1,1,1,3.0,2.0
2021-09-23 17:22:35.795,1002.0,40.0,15.0,1002.910265178296,1,1,1,3.0,2.0
2021-09-23 17:22:35.796,1002.0,40.0,4.0,1002.8060630052054,1,1,1,3.0,2.0
2021-09-23 17:22:35.804,1011.0,17.0,0.0,1011.1429176926474,1,1,1,3.0,2.0
2021-09-23 17:22:35.814,1020.0,14.0,5.0,1020.1083275809486,1,1,1,3.0,2.0
2021-09-23 17:22:35.823,1010.0,45.0,5.0,1011.0143421336812,1,1,1,3.0,2.0
2021-09-23 17:22:35.824,1010.0,45.0,7.0,1011.0262113318328,1,1,1,3.0,2.0
2021-09-23 17:22:35.833,1015.0,45.0,7.0,1016.0211611969506,1,1,1,3.0,2.0
2021-09-23 17:22:35.834,1015.0,23.0,4.0,1015.2684374095356,1,1,1,3.0,2.0
2021-09-23 17:22:35.844,998.0,15.0,8.0,998.1447790776648,1,1,1,3.0,2.0
2021-09-23 17:22:35.855,1040.0,31.0,19.0,1040.6353828310855,1,1,1,3.0,2.0
2021-09-23 17:22:35.862,1020.0,31.0,19.0,1020.6478334861638,1,1,1,3.0,2.0
2021-09-23 17:22:35.863,1020.0,-19.0,8.0,1020.2083120618064,1,1,1,3.0,2.0
2021-09-23 17:22:35.872,1033.0,77.0,8.0,1035.8967129979706,1,1,1,3.0,2.0
2021-09-23 17:22:35.884,988.0,77.0,8.0,991.0282538858314,1,1,1,3.0,2.0
2021-09-23 17:22:35.885,988.0,37.0,-6.0,988.7107767188542,1,1,1,3.0,2.0
2021-09-23 17:22:35.902,1023.0,9.0,17.0,1023.1808246834966,1,1,1,3.0,2.0
2021-09-23 17:22:35.905,1014.0,20.0,17.0,1014.3396866927764,1,1,1,3.0,2.0
2021-09-23 17:22:35.906,1014.0,20.0,3.0,1014.2016564766594,1,1,1,3.0,2.0
2021-09-23 17:22:35.912,1018.0,43.0,12.0,1018.9784099773656,1,1,1,3.0,2.0
2021-09-23 17:22:35.921,1026.0,35.0,12.0,1026.6669372294016,1,1,1,3.0,2.0
2021-09-23 17:22:35.922,1026.0,35.0,12.0,1026.6669372294016,1,1,1,3.0,2.0
