time_stamp,Acceleration_X,Acceleration_Y,Acceleration_Z,magnitude,STD_Status_right,STD_Status_left,STD_Status_both,KMeans,KMeans_convert
2021-09-23 17:22:07.415,1090.0,5.0,65.0,1091.9478009502102,1,1,1,0.0,2.0
2021-09-23 17:22:07.427,984.0,5.0,65.0,986.1571882818682,1,1,1,0.0,2.0
2021-09-23 17:22:07.428,984.0,95.0,7.0,988.600020230629,1,1,1,0.0,2.0
2021-09-23 17:22:07.435,1021.0,-43.0,92.0,1026.0380109917955,1,1,1,0.0,2.0
2021-09-23 17:22:07.446,878.0,377.0,-38.0,956.2724507168446,1,1,1,0.0,2.0
2021-09-23 17:22:07.454,1042.0,-315.0,28.0,1088.9320456300293,1,1,1,0.0,2.0
2021-09-23 17:22:07.464,915.0,495.0,-35.0,1040.9010519737217,1,1,1,0.0,2.0
2021-09-23 17:22:07.474,1012.0,-192.0,-28.0,1030.4329187288224,1,1,1,0.0,2.0
2021-09-23 17:22:07.484,1014.0,35.0,-11.0,1014.6634910156174,1,1,1,0.0,2.0
2021-09-23 17:22:07.495,983.0,-46.0,53.0,985.5019025856824,1,1,1,0.0,2.0
2021-09-23 17:22:07.504,1085.0,-168.0,31.0,1098.3669696417496,1,1,1,0.0,2.0
2021-09-23 17:22:07.521,1022.0,-244.0,3.0,1050.7278429736218,1,1,1,0.0,2.0
2021-09-23 17:22:07.524,1088.0,-82.0,20.0,1091.268986089131,1,1,1,0.0,2.0
2021-09-23 17:22:07.533,927.0,493.0,-41.0,1050.742118695163,1,1,1,0.0,2.0
2021-09-23 17:22:07.544,1048.0,-315.0,1.0,1094.3171386759873,1,1,1,0.0,2.0
2021-09-23 17:22:07.552,911.0,-315.0,1.0,963.922714744289,1,1,1,0.0,2.0
2021-09-23 17:22:07.553,911.0,228.0,13.0,939.1879471117588,1,1,1,0.0,2.0
2021-09-23 17:22:07.562,1029.0,-29.0,62.0,1031.2739694184083,1,1,1,0.0,2.0
2021-09-23 17:22:07.573,997.0,123.0,21.0,1004.7780849520952,1,1,1,0.0,2.0
2021-09-23 17:22:07.581,1071.0,-175.0,21.0,1085.4063755110342,1,1,1,0.0,2.0
2021-09-23 17:22:07.582,1071.0,-175.0,34.0,1085.7356952776306,1,1,1,0.0,2.0
2021-09-23 17:22:07.592,1065.0,-27.0,-53.0,1066.6597395608403,1,1,1,0.0,2.0
2021-09-23 17:22:07.609,893.0,344.0,12.0,957.0417963704616,1,1,1,0.0,2.0
2021-09-23 17:22:07.612,1065.0,-392.0,11.0,1134.9052823914426,1,1,1,0.0,2.0
2021-09-23 17:22:07.620,927.0,371.0,13.0,998.5684753686148,1,1,1,0.0,2.0
2021-09-23 17:22:07.632,1030.0,-462.0,7.0,1128.8901629476625,1,1,1,0.0,2.0
2021-09-23 17:22:07.640,914.0,426.0,-75.0,1011.1859374022168,1,1,1,0.0,2.0
2021-09-23 17:22:07.650,1113.0,-191.0,10.0,1129.3139510339895,1,1,1,0.0,2.0
2021-09-23 17:22:07.659,990.0,63.0,23.0,992.26911672187,1,1,1,0.0,2.0
2021-09-23 17:22:07.670,978.0,10.0,55.0,979.5963454403044,1,1,1,0.0,2.0
2021-09-23 17:22:07.679,1063.0,-314.0,13.0,1108.482746821077,1,1,1,0.0,2.0
2021-09-23 17:22:07.689,1045.0,-150.0,8.0,1055.7409720191786,1,1,1,0.0,2.0
2021-09-23 17:22:07.698,1107.0,-150.0,8.0,1117.1450219197147,1,1,1,0.0,2.0
2021-09-23 17:22:07.699,1107.0,-164.0,8.0,1119.1108077397876,1,1,1,0.0,2.0
2021-09-23 17:22:07.708,887.0,517.0,-25.0,1026.9776044296195,1,1,1,0.0,2.0
2021-09-23 17:22:07.719,1062.0,-340.0,-2.0,1115.0999955160971,1,1,1,0.0,2.0
2021-09-23 17:22:07.728,920.0,248.0,-2.0,952.842064562643,1,1,1,0.0,2.0
2021-09-23 17:22:07.729,920.0,248.0,21.0,953.0713509491302,1,1,1,0.0,2.0
2021-09-23 17:22:07.738,1033.0,23.0,-16.0,1033.3798914242525,1,1,1,0.0,2.0
2021-09-23 17:22:07.748,1005.0,191.0,-7.0,1023.0127076434584,1,1,1,0.0,2.0
2021-09-23 17:22:07.757,1030.0,-172.0,27.0,1044.6114110041112,1,1,1,0.0,2.0
2021-09-23 17:22:07.768,1066.0,-12.0,-43.0,1066.9343934844353,1,1,1,0.0,2.0
2021-09-23 17:22:07.778,887.0,469.0,73.0,1006.0114313465826,1,1,1,0.0,2.0
2021-09-23 17:22:07.787,1079.0,-344.0,26.0,1132.8075741272214,1,1,1,0.0,2.0
2021-09-23 17:22:07.796,953.0,304.0,-12.0,1000.3844261082836,1,1,1,0.0,2.0
2021-09-23 17:22:07.806,1078.0,-379.0,36.0,1143.2501913404608,1,1,1,0.0,2.0
2021-09-23 17:22:07.817,913.0,366.0,-71.0,986.1876089264152,1,1,1,0.0,2.0
2021-09-23 17:22:07.825,1118.0,-235.0,-3.0,1142.43511850783,1,1,1,0.0,2.0
2021-09-23 17:22:07.835,968.0,60.0,0.0,969.857721524142,1,1,1,0.0,2.0
2021-09-23 17:22:07.845,986.0,93.0,39.0,991.1437837165704,1,1,1,0.0,2.0
2021-09-23 17:22:07.855,1064.0,-309.0,24.0,1108.220645900445,1,1,1,0.0,2.0
2021-09-23 17:22:07.865,1040.0,-78.0,21.0,1043.1323022512531,1,1,1,0.0,2.0
2021-09-23 17:22:07.874,1088.0,-205.0,20.0,1107.325155498601,1,1,1,0.0,2.0
2021-09-23 17:22:07.884,908.0,432.0,20.0,1005.7275973145016,1,1,1,0.0,2.0
2021-09-23 17:22:07.885,908.0,432.0,-24.0,1005.8150923504776,1,1,1,0.0,2.0
2021-09-23 17:22:07.894,1036.0,-317.0,10.0,1083.4597362154257,1,1,1,0.0,2.0
2021-09-23 17:22:07.903,917.0,-317.0,10.0,970.297892402122,1,1,1,0.0,2.0
2021-09-23 17:22:07.904,917.0,164.0,0.0,931.5497839621884,1,1,1,0.0,2.0
2021-09-23 17:22:07.914,1024.0,-26.0,27.0,1024.685805503326,1,1,1,0.0,2.0
2021-09-23 17:22:07.923,1044.0,174.0,-23.0,1058.6505561326646,1,1,1,0.0,2.0
2021-09-23 17:22:07.934,1038.0,-153.0,22.0,1049.4460443491128,1,1,1,0.0,2.0
2021-09-23 17:22:07.943,1035.0,-59.0,-68.0,1038.9080806308132,1,1,1,0.0,2.0
2021-09-23 17:22:07.952,891.0,440.0,-68.0,996.0446777128022,1,1,1,0.0,2.0
2021-09-23 17:22:07.953,891.0,440.0,89.0,997.6983512064156,1,1,1,0.0,2.0
2021-09-23 17:22:07.962,1093.0,440.0,89.0,1181.5963777872714,1,1,1,0.0,2.0
2021-09-23 17:22:07.963,1093.0,-393.0,34.0,1162.0043029180229,1,1,1,0.0,2.0
2021-09-23 17:22:07.972,974.0,334.0,-15.0,1029.784929002168,1,1,1,0.0,2.0
2021-09-23 17:22:07.981,1057.0,-404.0,58.0,1133.061781192888,1,1,1,0.0,2.0
2021-09-23 17:22:07.992,962.0,342.0,-53.0,1022.3585476729776,1,1,1,0.0,2.0
2021-09-23 17:22:08.001,1083.0,342.0,-53.0,1136.9529453763687,1,1,1,0.0,2.0
2021-09-23 17:22:08.002,1083.0,-220.0,-31.0,1105.5541596864443,1,1,1,0.0,2.0
2021-09-23 17:22:08.012,1023.0,40.0,3.0,1023.7861104742532,1,1,1,0.0,2.0
2021-09-23 17:22:08.022,964.0,113.0,45.0,971.6429385324632,1,1,1,0.0,2.0
2021-09-23 17:22:08.030,1063.0,113.0,45.0,1069.93597939316,1,1,1,0.0,2.0
2021-09-23 17:22:08.031,1063.0,-255.0,17.0,1093.2899889782216,1,1,1,0.0,2.0
2021-09-23 17:22:08.041,1065.0,-142.0,4.0,1074.4324082975158,1,1,1,0.0,2.0
2021-09-23 17:22:08.050,1073.0,-255.0,21.0,1103.0843122807976,1,1,1,0.0,2.0
2021-09-23 17:22:08.060,908.0,399.0,-18.0,991.962196860344,1,1,1,0.0,2.0
2021-09-23 17:22:08.070,1058.0,-263.0,-18.0,1090.3471924116648,1,1,1,0.0,2.0
2021-09-23 17:22:08.071,1058.0,-263.0,43.0,1091.046286827465,1,1,1,0.0,2.0
2021-09-23 17:22:08.080,911.0,244.0,-13.0,943.1998727735285,1,1,1,0.0,2.0
2021-09-23 17:22:08.090,1035.0,28.0,30.0,1035.8132070986544,1,1,1,0.0,2.0
2021-09-23 17:22:08.099,1020.0,192.0,-51.0,1039.1655306061689,1,1,1,0.0,2.0
2021-09-23 17:22:08.109,1003.0,-209.0,22.0,1024.7799763851751,1,1,1,0.0,2.0
2021-09-23 17:22:08.119,1091.0,-43.0,22.0,1092.068679158962,1,1,1,0.0,2.0
2021-09-23 17:22:08.120,1091.0,-43.0,-13.0,1091.9244479358451,1,1,1,0.0,2.0
2021-09-23 17:22:08.129,917.0,415.0,54.0,1007.9831347795458,1,1,1,0.0,2.0
2021-09-23 17:22:08.138,1072.0,415.0,54.0,1150.7932047070838,1,1,1,0.0,2.0
2021-09-23 17:22:08.139,1072.0,-346.0,0.0,1126.454615153225,1,1,1,0.0,2.0
2021-09-23 17:22:08.152,982.0,349.0,23.0,1042.4269758597002,1,1,1,0.0,2.0
2021-09-23 17:22:08.158,1080.0,-381.0,28.0,1145.5762741956555,1,1,1,0.0,2.0
2021-09-23 17:22:08.168,960.0,308.0,-73.0,1010.8377713560174,1,1,1,0.0,2.0
2021-09-23 17:22:08.177,1090.0,308.0,-73.0,1135.0299555518347,1,1,1,0.0,2.0
2021-09-23 17:22:08.178,1090.0,-240.0,-6.0,1116.125440978746,1,1,1,0.0,2.0
2021-09-23 17:22:08.188,1034.0,73.0,-17.0,1036.7130750598258,1,1,1,0.0,2.0
2021-09-23 17:22:08.196,950.0,73.0,-17.0,952.9522548375652,1,1,1,0.0,2.0
2021-09-23 17:22:08.197,950.0,253.0,38.0,983.846024538393,1,1,1,0.0,2.0
2021-09-23 17:22:08.207,1023.0,-221.0,32.0,1047.0883439328318,1,1,1,0.0,2.0
2021-09-23 17:22:08.216,1015.0,-221.0,32.0,1039.2737849094433,1,1,1,0.0,2.0
2021-09-23 17:22:08.217,1015.0,-61.0,-5.0,1016.8436457981138,1,1,1,0.0,2.0
2021-09-23 17:22:08.227,1097.0,-272.0,20.0,1130.3950636834893,1,1,1,0.0,2.0
2021-09-23 17:22:08.235,869.0,-272.0,20.0,910.7936099907596,1,1,1,0.0,2.0
2021-09-23 17:22:08.236,869.0,330.0,-30.0,930.0327951206882,1,1,1,0.0,2.0
2021-09-23 17:22:08.251,1065.0,-236.0,49.0,1091.9349797492523,1,1,1,0.0,2.0
2021-09-23 17:22:08.256,907.0,276.0,49.0,949.3292368825475,1,1,1,0.0,2.0
2021-09-23 17:22:08.257,907.0,276.0,25.0,948.3933782982672,1,1,1,0.0,2.0
2021-09-23 17:22:08.266,1079.0,38.0,-16.0,1079.7874790902142,1,1,1,0.0,2.0
2021-09-23 17:22:08.276,1010.0,-200.0,-16.0,1029.7358884684943,1,1,1,0.0,2.0
2021-09-23 17:22:08.277,1010.0,-200.0,62.0,1031.4766114653305,1,1,1,0.0,2.0
2021-09-23 17:22:08.284,1005.0,-150.0,33.0,1016.6680874307012,1,1,1,0.0,2.0
2021-09-23 17:22:08.294,1022.0,-119.0,-61.0,1030.7114048073786,1,1,1,0.0,2.0
2021-09-23 17:22:08.304,957.0,330.0,128.0,1020.3592504603464,1,1,1,0.0,2.0
2021-09-23 17:22:08.315,1034.0,-276.0,-4.0,1070.2093253191172,1,1,1,0.0,2.0
2021-09-23 17:22:08.324,949.0,311.0,-26.0,998.99849849737,1,1,1,0.0,2.0
2021-09-23 17:22:08.334,1045.0,-68.0,-35.0,1047.7948272443418,1,1,1,0.0,2.0
2021-09-23 17:22:08.343,950.0,257.0,-60.0,985.9761660405388,1,1,1,0.0,2.0
2021-09-23 17:22:08.353,1145.0,-286.0,8.0,1180.2054905820426,1,1,1,0.0,2.0
2021-09-23 17:22:08.363,974.0,63.0,-19.0,976.2202620310644,1,1,1,0.0,2.0
2021-09-23 17:22:08.372,955.0,244.0,-17.0,985.8245279967424,1,1,1,0.0,2.0
2021-09-23 17:22:08.385,1055.0,244.0,-17.0,1082.9819943101547,1,1,1,0.0,2.0
2021-09-23 17:22:08.386,1055.0,-293.0,11.0,1094.986301284176,1,1,1,0.0,2.0
2021-09-23 17:22:08.391,914.0,-293.0,11.0,959.8781172628117,1,1,1,0.0,2.0
2021-09-23 17:22:08.392,914.0,495.0,-1.0,1039.4334995563688,1,1,1,0.0,2.0
2021-09-23 17:22:08.402,1116.0,-253.0,0.0,1144.3185745237206,1,1,1,0.0,2.0
2021-09-23 17:22:08.411,886.0,413.0,0.0,977.53005068898,1,1,1,0.0,2.0
2021-09-23 17:22:08.412,886.0,413.0,7.0,977.5551135358048,1,1,1,0.0,2.0
2021-09-23 17:22:08.422,1050.0,-316.0,7.0,1096.542292846017,1,1,1,0.0,2.0
2021-09-23 17:22:08.423,1050.0,-316.0,22.0,1096.740625672269,1,1,1,0.0,2.0
2021-09-23 17:22:08.433,1020.0,237.0,22.0,1047.4029788004234,1,1,1,0.0,2.0
2021-09-23 17:22:08.441,1006.0,-30.0,-13.0,1006.531171896827,1,1,1,0.0,2.0
2021-09-23 17:22:08.450,1040.0,-30.0,-13.0,1040.5138153816124,1,1,1,0.0,2.0
2021-09-23 17:22:08.451,1040.0,-207.0,74.0,1062.9793036555322,1,1,1,0.0,2.0
2021-09-23 17:22:08.461,1052.0,-134.0,-12.0,1060.5677724690677,1,1,1,0.0,2.0
2021-09-23 17:22:08.471,1069.0,-77.0,21.0,1071.9752795657184,1,1,1,0.0,2.0
2021-09-23 17:22:08.479,927.0,-77.0,21.0,930.4294707284372,1,1,1,0.0,2.0
2021-09-23 17:22:08.480,927.0,414.0,4.0,1015.2541553719444,1,1,1,0.0,2.0
2021-09-23 17:22:08.490,1093.0,-275.0,9.0,1127.1002617336223,1,1,1,0.0,2.0
2021-09-23 17:22:08.499,908.0,371.0,-7.0,980.8944897388302,1,1,1,0.0,2.0
2021-09-23 17:22:08.509,1031.0,-141.0,66.0,1042.6878727596288,1,1,1,0.0,2.0
2021-09-23 17:22:08.519,918.0,256.0,66.0,955.3093739726414,1,1,1,0.0,2.0
2021-09-23 17:22:08.520,918.0,256.0,-7.0,953.0524644530332,1,1,1,0.0,2.0
2021-09-23 17:22:08.534,1078.0,256.0,-7.0,1108.002256315392,1,1,1,0.0,2.0
2021-09-23 17:22:08.535,1078.0,-226.0,47.0,1102.4377533448317,1,1,1,0.0,2.0
2021-09-23 17:22:08.538,1039.0,6.0,13.0,1039.098647867468,1,1,1,0.0,2.0
2021-09-23 17:22:08.548,953.0,397.0,-24.0,1032.6635463692903,1,1,1,0.0,2.0
2021-09-23 17:22:08.558,1070.0,-320.0,0.0,1116.8258592994705,1,1,1,0.0,2.0
2021-09-23 17:22:08.570,991.0,103.0,0.0,996.3382959617682,1,1,1,0.0,2.0
2021-09-23 17:22:08.577,1056.0,-310.0,6.0,1100.5780299460826,1,1,1,0.0,2.0
2021-09-23 17:22:08.587,836.0,423.0,-11.0,936.9877267072392,1,1,1,0.0,2.0
2021-09-23 17:22:08.597,1113.0,-290.0,14.0,1150.2456259425635,1,1,1,0.0,2.0
2021-09-23 17:22:08.606,1010.0,193.0,14.0,1028.370069576123,1,1,1,0.0,2.0
2021-09-23 17:22:08.607,1010.0,193.0,9.0,1028.3141543322254,1,1,1,0.0,2.0
2021-09-23 17:22:08.623,1006.0,17.0,-7.0,1006.1679780235504,1,1,1,0.0,2.0
2021-09-23 17:22:08.627,942.0,246.0,26.0,973.9383964091364,1,1,1,0.0,2.0
2021-09-23 17:22:08.636,1072.0,-175.0,33.0,1086.69130851406,1,1,1,0.0,2.0
2021-09-23 17:22:08.646,1073.0,-175.0,33.0,1087.6778015570603,1,1,1,0.0,2.0
2021-09-23 17:22:08.647,1073.0,-156.0,18.0,1084.430265162311,1,1,1,0.0,2.0
2021-09-23 17:22:08.656,1001.0,441.0,-70.0,1096.075727310846,1,1,1,0.0,2.0
2021-09-23 17:22:08.665,1074.0,-256.0,-70.0,1106.3055635763567,1,1,1,0.0,2.0
2021-09-23 17:22:08.666,1074.0,-256.0,14.0,1104.1775219592182,1,1,1,0.0,2.0
2021-09-23 17:22:08.678,923.0,330.0,-27.0,980.5906383399752,1,1,1,0.0,2.0
2021-09-23 17:22:08.685,1083.0,-277.0,-47.0,1118.8507496534112,1,1,1,0.0,2.0
2021-09-23 17:22:08.695,999.0,246.0,4.0,1028.850329251053,1,1,1,0.0,2.0
2021-09-23 17:22:08.705,1058.0,-345.0,20.0,1113.0089846897015,1,1,1,0.0,2.0
2021-09-23 17:22:08.714,1062.0,-63.0,-7.0,1063.890031911193,1,1,1,0.0,2.0
2021-09-23 17:22:08.725,961.0,452.0,31.0,1062.4434102576947,1,1,1,0.0,2.0
2021-09-23 17:22:08.734,1036.0,-281.0,-11.0,1073.4887051105848,1,1,1,0.0,2.0
2021-09-23 17:22:08.743,949.0,174.0,-11.0,964.882376251116,1,1,1,0.0,2.0
2021-09-23 17:22:08.744,949.0,174.0,22.0,965.0704637486322,1,1,1,0.0,2.0
2021-09-23 17:22:08.754,1110.0,-353.0,8.0,1164.8059924296406,1,1,1,0.0,2.0
2021-09-23 17:22:08.763,896.0,465.0,-27.0,1009.8366204490704,1,1,1,0.0,2.0
2021-09-23 17:22:08.773,1038.0,-330.0,-43.0,1090.0426597156645,1,1,1,0.0,2.0
2021-09-23 17:22:08.784,1010.0,137.0,14.0,1019.345378171697,1,1,1,0.0,2.0
2021-09-23 17:22:08.792,973.0,118.0,40.0,980.9449525839868,1,1,1,0.0,2.0
2021-09-23 17:22:08.803,1077.0,-221.0,28.0,1099.7972540427622,1,1,1,0.0,2.0
2021-09-23 17:22:08.812,1032.0,-72.0,-2.0,1034.5105122713833,1,1,1,0.0,2.0
2021-09-23 17:22:08.821,1104.0,-72.0,-2.0,1106.3471426274848,1,1,1,0.0,2.0
2021-09-23 17:22:08.822,1104.0,-228.0,70.0,1129.4689017409908,1,1,1,0.0,2.0
2021-09-23 17:22:08.832,1005.0,330.0,-69.0,1060.0405652615375,1,1,1,0.0,2.0
2021-09-23 17:22:08.841,1016.0,-238.0,3.0,1043.5080258435964,1,1,1,0.0,2.0
2021-09-23 17:22:08.851,891.0,391.0,-31.0,973.5106573633389,1,1,1,0.0,2.0
2021-09-23 17:22:08.861,1025.0,1.0,66.0,1027.1231669084289,1,1,1,0.0,2.0
2021-09-23 17:22:08.870,1053.0,250.0,66.0,1084.2808676722098,1,1,1,0.0,2.0
2021-09-23 17:22:08.871,1053.0,250.0,2.0,1082.2721469205424,1,1,1,0.0,2.0
2021-09-23 17:22:08.880,1012.0,-317.0,7.0,1060.5102545473098,1,1,1,0.0,2.0
2021-09-23 17:22:08.890,1051.0,-317.0,7.0,1097.788230944384,1,1,1,0.0,2.0
2021-09-23 17:22:08.891,1051.0,-81.0,-32.0,1054.6022947063975,1,1,1,0.0,2.0
2021-09-23 17:22:08.900,904.0,504.0,52.0,1036.3088342767323,1,1,1,0.0,2.0
2021-09-23 17:22:08.909,1098.0,504.0,52.0,1209.2658930111277,1,1,1,0.0,2.0
2021-09-23 17:22:08.910,1098.0,-205.0,-13.0,1117.0487903399744,1,1,1,0.0,2.0
2021-09-23 17:22:08.919,893.0,488.0,32.0,1018.1438994562606,1,1,1,0.0,2.0
2021-09-23 17:22:08.930,1129.0,-393.0,19.0,1195.596503842329,1,1,1,0.0,2.0
2021-09-23 17:22:08.940,865.0,379.0,-42.0,945.3200516227296,1,1,1,0.0,2.0
2021-09-23 17:22:08.948,1109.0,-357.0,-26.0,1165.335144926128,1,1,1,0.0,2.0
2021-09-23 17:22:08.959,943.0,184.0,-20.0,960.9916753021328,1,1,1,0.0,2.0
2021-09-23 17:22:08.968,999.0,173.0,60.0,1015.6426536927248,1,1,1,0.0,2.0
2021-09-23 17:22:08.977,1016.0,-220.0,60.0,1041.2761401280643,1,1,1,0.0,2.0
2021-09-23 17:22:08.978,1016.0,-220.0,23.0,1039.8004616271337,1,1,1,0.0,2.0
2021-09-23 17:22:08.988,1024.0,27.0,12.0,1024.4261808446718,1,1,1,0.0,2.0
2021-09-23 17:22:08.998,1067.0,-182.0,11.0,1082.4666276611026,1,1,1,0.0,2.0
2021-09-23 17:22:09.007,922.0,-182.0,11.0,939.8558400095196,1,1,1,0.0,2.0
2021-09-23 17:22:09.008,922.0,306.0,-27.0,971.8276596187206,1,1,1,0.0,2.0
2021-09-23 17:22:09.016,1138.0,306.0,-27.0,1178.7319457790222,1,1,1,0.0,2.0
2021-09-23 17:22:09.017,1138.0,-274.0,40.0,1171.2045081880449,1,1,1,0.0,2.0
2021-09-23 17:22:09.026,936.0,333.0,-17.0,993.616626269911,1,1,1,0.0,2.0
2021-09-23 17:22:09.036,1059.0,333.0,-17.0,1110.251773247852,1,1,1,0.0,2.0
2021-09-23 17:22:09.037,1059.0,-21.0,33.0,1059.7221333915793,1,1,1,0.0,2.0
2021-09-23 17:22:09.046,1020.0,252.0,-20.0,1050.8586964953947,1,1,1,0.0,2.0
2021-09-23 17:22:09.056,1100.0,-212.0,46.0,1121.1868711325512,1,1,1,0.0,2.0
2021-09-23 17:22:09.066,1050.0,-111.0,-31.0,1056.3058269270316,1,1,1,0.0,2.0
2021-09-23 17:22:09.075,952.0,413.0,47.0,1038.7887176899833,1,1,1,0.0,2.0
2021-09-23 17:22:09.085,1099.0,-253.0,-9.0,1127.7814504592634,1,1,1,0.0,2.0
2021-09-23 17:22:09.095,934.0,393.0,3.0,1013.3183112921624,1,1,1,0.0,2.0
2021-09-23 17:22:09.105,1066.0,-324.0,9.0,1114.1871476551864,1,1,1,0.0,2.0
2021-09-23 17:22:09.115,934.0,251.0,9.0,967.1804381810044,1,1,1,0.0,2.0
2021-09-23 17:22:09.116,934.0,251.0,-46.0,968.2318937114188,1,1,1,0.0,2.0
2021-09-23 17:22:09.124,1109.0,-370.0,-46.0,1169.9987179480156,1,1,1,0.0,2.0
2021-09-23 17:22:09.125,1109.0,-370.0,9.0,1169.128735426514,1,1,1,0.0,2.0
2021-09-23 17:22:09.135,996.0,99.0,6.0,1000.92607119607,1,1,1,0.0,2.0
2021-09-23 17:22:09.144,1046.0,276.0,18.0,1081.9500912703877,1,1,1,0.0,2.0
2021-09-23 17:22:09.153,1022.0,-312.0,18.0,1068.7151163897702,1,1,1,0.0,2.0
2021-09-23 17:22:09.154,1022.0,-312.0,-10.0,1068.6103125087277,1,1,1,0.0,2.0
2021-09-23 17:22:09.167,1011.0,118.0,20.0,1018.059428520752,1,1,1,0.0,2.0
2021-09-23 17:22:09.174,1127.0,-256.0,4.0,1155.7166607780646,1,1,1,0.0,2.0
2021-09-23 17:22:09.182,845.0,341.0,4.0,911.2200612365818,1,1,1,0.0,2.0
2021-09-23 17:22:09.183,845.0,341.0,-3.0,911.2162202243768,1,1,1,0.0,2.0
2021-09-23 17:22:09.193,1104.0,-343.0,25.0,1156.3260785781838,1,1,1,0.0,2.0
2021-09-23 17:22:09.203,963.0,325.0,-22.0,1016.6012000779854,1,1,1,0.0,2.0
2021-09-23 17:22:09.213,1055.0,32.0,-49.0,1056.621975921379,1,1,1,0.0,2.0
2021-09-23 17:22:09.224,995.0,309.0,-55.0,1043.326890288945,1,1,1,0.0,2.0
2021-09-23 17:22:09.232,1002.0,-186.0,20.0,1019.3134944657604,1,1,1,0.0,2.0
2021-09-23 17:22:09.241,1034.0,-109.0,20.0,1039.9216316626942,1,1,1,0.0,2.0
2021-09-23 17:22:09.242,1034.0,-109.0,5.0,1039.7413139815114,1,1,1,0.0,2.0
2021-09-23 17:22:09.251,925.0,341.0,14.0,985.9523315049264,1,1,1,0.0,2.0
2021-09-23 17:22:09.261,1104.0,341.0,14.0,1155.5487873733416,1,1,1,0.0,2.0
2021-09-23 17:22:09.262,1104.0,-230.0,36.0,1128.2783344547568,1,1,1,0.0,2.0
2021-09-23 17:22:09.272,991.0,403.0,-34.0,1070.34854136398,1,1,1,0.0,2.0
2021-09-23 17:22:09.280,1160.0,-292.0,-18.0,1196.322698940382,1,1,1,0.0,2.0
2021-09-23 17:22:09.290,921.0,286.0,31.0,964.882376251116,1,1,1,0.0,2.0
2021-09-23 17:22:09.300,1046.0,-396.0,31.0,1118.8802438152172,1,1,1,0.0,2.0
2021-09-23 17:22:09.301,1046.0,-396.0,6.0,1118.4668077328,1,1,1,0.0,2.0
2021-09-23 17:22:09.310,1072.0,-20.0,27.0,1072.5264565501402,1,1,1,0.0,2.0
2021-09-23 17:22:09.320,965.0,481.0,-33.0,1078.7376882263825,1,1,1,0.0,2.0
2021-09-23 17:22:09.329,1061.0,-313.0,-33.0,1106.697338932375,1,1,1,0.0,2.0
2021-09-23 17:22:09.330,1061.0,-313.0,-21.0,1106.4045372285852,1,1,1,0.0,2.0
2021-09-23 17:22:09.339,1011.0,171.0,-29.0,1025.7694672781015,1,1,1,0.0,2.0
2021-09-23 17:22:09.348,1070.0,-316.0,38.0,1116.333283567233,1,1,1,0.0,2.0
2021-09-23 17:22:09.358,795.0,-316.0,38.0,856.3439729454514,1,1,1,0.0,2.0
2021-09-23 17:22:09.359,795.0,268.0,3.0,838.9624544638455,1,1,1,0.0,2.0
2021-09-23 17:22:09.369,1114.0,-387.0,54.0,1180.542671825123,1,1,1,0.0,2.0
2021-09-23 17:22:09.378,970.0,321.0,-7.0,1021.7582884420366,1,1,1,0.0,2.0
2021-09-23 17:22:09.391,1121.0,-188.0,56.0,1138.033830780087,1,1,1,0.0,2.0
2021-09-23 17:22:09.398,991.0,218.0,56.0,1016.2386530731844,1,1,1,0.0,2.0
2021-09-23 17:22:09.399,991.0,218.0,-33.0,1015.2310081946866,1,1,1,0.0,2.0
2021-09-23 17:22:09.407,1045.0,-90.0,-2.0,1048.8703447042442,1,1,1,0.0,2.0
2021-09-23 17:22:09.418,1028.0,-236.0,17.0,1054.8786660085605,1,1,1,0.0,2.0
2021-09-23 17:22:09.428,968.0,341.0,17.0,1026.447270930173,1,1,1,0.0,2.0
2021-09-23 17:22:09.429,968.0,341.0,-48.0,1027.4283430001335,1,1,1,0.0,2.0
2021-09-23 17:22:09.437,1038.0,-334.0,-48.0,1091.468735237066,1,1,1,0.0,2.0
2021-09-23 17:22:09.438,1038.0,-334.0,4.0,1090.4201025292955,1,1,1,0.0,2.0
2021-09-23 17:22:09.447,926.0,292.0,-28.0,971.351635608856,1,1,1,0.0,2.0
2021-09-23 17:22:09.457,1155.0,-331.0,-23.0,1201.7133601653932,1,1,1,0.0,2.0
2021-09-23 17:22:09.466,1003.0,306.0,6.0,1048.656759859965,1,1,1,0.0,2.0
2021-09-23 17:22:09.476,1053.0,-279.0,32.0,1089.804569636226,1,1,1,0.0,2.0
2021-09-23 17:22:09.486,1045.0,-131.0,19.0,1053.3503690605514,1,1,1,0.0,2.0
2021-09-23 17:22:09.495,894.0,502.0,20.0,1025.495002425658,1,1,1,0.0,2.0
2021-09-23 17:22:09.505,1030.0,21.0,-10.0,1030.2625878871852,1,1,1,0.0,2.0
2021-09-23 17:22:09.515,998.0,356.0,-6.0,1059.6112494684076,1,1,1,0.0,2.0
2021-09-23 17:22:09.529,1025.0,-326.0,12.0,1075.6602623505248,1,1,1,0.0,2.0
2021-09-23 17:22:09.540,907.0,-326.0,12.0,963.8822542198814,1,1,1,0.0,2.0
2021-09-23 17:22:09.541,907.0,265.0,-18.0,945.0915299588712,1,1,1,0.0,2.0
2021-09-23 17:22:09.551,1079.0,-417.0,0.0,1156.775691307524,1,1,1,0.0,2.0
2021-09-23 17:22:09.554,1017.0,207.0,-20.0,1038.0452783958897,1,1,1,0.0,2.0
2021-09-23 17:22:09.563,1028.0,207.0,-20.0,1048.8245801848848,1,1,1,0.0,2.0
2021-09-23 17:22:09.564,1028.0,191.0,24.0,1045.8685385840804,1,1,1,0.0,2.0
2021-09-23 17:22:09.573,1057.0,185.0,28.0,1073.4328111251305,1,1,1,0.0,2.0
2021-09-23 17:22:09.585,1043.0,-62.0,-13.0,1044.9220066588705,1,1,1,0.0,2.0
2021-09-23 17:22:09.593,1099.0,-237.0,23.0,1124.4994441972838,1,1,1,0.0,2.0
2021-09-23 17:22:09.603,912.0,233.0,-43.0,942.2749068079868,1,1,1,0.0,2.0
2021-09-23 17:22:09.612,1049.0,-310.0,33.0,1094.34455268896,1,1,1,0.0,2.0
2021-09-23 17:22:09.622,937.0,335.0,14.0,995.183400183102,1,1,1,0.0,2.0
2021-09-23 17:22:09.639,1121.0,-227.0,-13.0,1143.8264728532909,1,1,1,0.0,2.0
2021-09-23 17:22:09.642,978.0,-227.0,-13.0,1004.0826659194948,1,1,1,0.0,2.0
2021-09-23 17:22:09.643,978.0,354.0,-30.0,1040.5287117614776,1,1,1,0.0,2.0
2021-09-23 17:22:09.652,1029.0,-286.0,53.0,1069.320344892025,1,1,1,0.0,2.0
2021-09-23 17:22:09.662,1027.0,-151.0,5.0,1038.0534668310684,1,1,1,0.0,2.0
2021-09-23 17:22:09.672,921.0,446.0,94.0,1027.6152003546854,1,1,1,0.0,2.0
2021-09-23 17:22:09.682,1008.0,-98.0,49.0,1013.9373747919544,1,1,1,0.0,2.0
2021-09-23 17:22:09.691,955.0,434.0,54.0,1050.3794552446273,1,1,1,0.0,2.0
2021-09-23 17:22:09.701,1132.0,-302.0,-34.0,1172.0853211264102,1,1,1,0.0,2.0
2021-09-23 17:22:09.710,871.0,381.0,-57.0,952.392251123454,1,1,1,0.0,2.0
2021-09-23 17:22:09.722,1060.0,381.0,-57.0,1127.83420767416,1,1,1,0.0,2.0
2021-09-23 17:22:09.723,1060.0,-463.0,-23.0,1156.934743189952,1,1,1,0.0,2.0
2021-09-23 17:22:09.730,988.0,114.0,32.0,995.069846794686,1,1,1,0.0,2.0
2021-09-23 17:22:09.739,1101.0,-197.0,38.0,1119.1309128068976,1,1,1,0.0,2.0
2021-09-23 17:22:09.749,985.0,-197.0,38.0,1005.2253478698196,1,1,1,0.0,2.0
2021-09-23 17:22:09.750,985.0,229.0,9.0,1011.3095470725074,1,1,1,0.0,2.0
2021-09-23 17:22:09.759,1072.0,229.0,9.0,1096.2235173540112,1,1,1,0.0,2.0
2021-09-23 17:22:09.760,1072.0,55.0,33.0,1073.9171290188085,1,1,1,0.0,2.0
2021-09-23 17:22:09.770,1105.0,-351.0,22.0,1159.6163158562404,1,1,1,0.0,2.0
2021-09-23 17:22:09.778,902.0,-351.0,22.0,968.1368704888788,1,1,1,0.0,2.0
2021-09-23 17:22:09.779,902.0,263.0,21.0,939.7946584227856,1,1,1,0.0,2.0
2021-09-23 17:22:09.788,1041.0,-388.0,-4.0,1110.963995816246,1,1,1,0.0,2.0
2021-09-23 17:22:09.798,931.0,267.0,-19.0,968.7161606993042,1,1,1,0.0,2.0
2021-09-23 17:22:09.808,1080.0,267.0,-19.0,1112.6769522192862,1,1,1,0.0,2.0
2021-09-23 17:22:09.809,1080.0,-256.0,-7.0,1109.9481969893911,1,1,1,0.0,2.0
2021-09-23 17:22:09.819,1027.0,381.0,-51.0,1096.5815063186135,1,1,1,0.0,2.0
2021-09-23 17:22:09.827,1041.0,-197.0,31.0,1059.929714650929,1,1,1,0.0,2.0
2021-09-23 17:22:09.837,1013.0,-189.0,9.0,1030.5197717656852,1,1,1,0.0,2.0
2021-09-23 17:22:09.847,919.0,402.0,48.0,1004.2255722694975,1,1,1,0.0,2.0
2021-09-23 17:22:09.857,1011.0,-117.0,53.0,1019.1265868379649,1,1,1,0.0,2.0
2021-09-23 17:22:09.868,951.0,378.0,55.0,1024.8463299441532,1,1,1,0.0,2.0
2021-09-23 17:22:09.876,1111.0,-284.0,-45.0,1147.6070756142976,1,1,1,0.0,2.0
2021-09-23 17:22:09.886,924.0,381.0,-13.0,999.5529000508176,1,1,1,0.0,2.0
2021-09-23 17:22:09.896,1054.0,-445.0,16.0,1144.201468273835,1,1,1,0.0,2.0
2021-09-23 17:22:09.906,1008.0,-40.0,41.0,1009.6261684405767,1,1,1,0.0,2.0
2021-09-23 17:22:09.916,1048.0,-284.0,45.0,1086.7313375439212,1,1,1,0.0,2.0
2021-09-23 17:22:09.925,1113.0,169.0,7.0,1125.779285650611,1,1,1,0.0,2.0
2021-09-23 17:22:09.935,1047.0,214.0,-10.0,1068.693127141744,1,1,1,0.0,2.0
2021-09-23 17:22:09.944,1044.0,-268.0,14.0,1077.9406291628495,1,1,1,0.0,2.0
2021-09-23 17:22:09.954,897.0,-268.0,14.0,936.2846789305056,1,1,1,0.0,2.0
2021-09-23 17:22:09.955,897.0,331.0,93.0,960.6346860279406,1,1,1,0.0,2.0
2021-09-23 17:22:09.966,1066.0,-473.0,0.0,1166.2268218489917,1,1,1,0.0,2.0
2021-09-23 17:22:09.973,935.0,-473.0,0.0,1047.8330019616676,1,1,1,0.0,2.0
2021-09-23 17:22:09.974,935.0,172.0,-38.0,951.4478440776458,1,1,1,0.0,2.0
2021-09-23 17:22:09.983,1075.0,-229.0,43.0,1099.961362957809,1,1,1,0.0,2.0
2021-09-23 17:22:09.993,1040.0,-229.0,43.0,1065.781403478218,1,1,1,0.0,2.0
2021-09-23 17:22:09.994,1040.0,342.0,-47.0,1095.797882823288,1,1,1,0.0,2.0
2021-09-23 17:22:10.002,1035.0,342.0,-47.0,1091.0536192140146,1,1,1,0.0,2.0
2021-09-23 17:22:10.003,1035.0,-156.0,18.0,1046.8452607716197,1,1,1,0.0,2.0
2021-09-23 17:22:10.014,1008.0,-234.0,30.0,1035.2391028163495,1,1,1,0.0,2.0
2021-09-23 17:22:10.023,928.0,301.0,30.0,976.0558385666262,1,1,1,0.0,2.0
2021-09-23 17:22:10.024,928.0,301.0,-9.0,975.6362026903266,1,1,1,0.0,2.0
2021-09-23 17:22:10.032,1026.0,-146.0,16.0,1036.4593576209345,1,1,1,0.0,2.0
2021-09-23 17:22:10.042,943.0,294.0,32.0,988.2858898112428,1,1,1,0.0,2.0
2021-09-23 17:22:10.052,1148.0,-215.0,-19.0,1168.1138643128932,1,1,1,0.0,2.0
2021-09-23 17:22:10.063,929.0,296.0,21.0,975.2425339370716,1,1,1,0.0,2.0
2021-09-23 17:22:10.073,1104.0,-371.0,29.0,1165.0313300508274,1,1,1,0.0,2.0
2021-09-23 17:22:10.081,990.0,-115.0,5.0,996.6694537307744,1,1,1,0.0,2.0
2021-09-23 17:22:10.091,1046.0,-370.0,53.0,1110.7767552483265,1,1,1,0.0,2.0
2021-09-23 17:22:10.101,1076.0,104.0,17.0,1081.14800096934,1,1,1,0.0,2.0
2021-09-23 17:22:10.111,966.0,400.0,-4.0,1045.5486597954205,1,1,1,0.0,2.0
2021-09-23 17:22:10.122,1082.0,-288.0,-7.0,1119.6950477697042,1,1,1,0.0,2.0
2021-09-23 17:22:10.130,911.0,302.0,23.0,960.0281245880248,1,1,1,0.0,2.0
2021-09-23 17:22:10.140,1026.0,-539.0,-28.0,1159.3019451376765,1,1,1,0.0,2.0
2021-09-23 17:22:10.149,916.0,214.0,-37.0,941.393116609634,1,1,1,0.0,2.0
2021-09-23 17:22:10.160,1038.0,-233.0,4.0,1063.8369235930852,1,1,1,0.0,2.0
2021-09-23 17:22:10.173,1009.0,-233.0,4.0,1035.5607176790743,1,1,1,0.0,2.0
2021-09-23 17:22:10.174,1009.0,373.0,20.0,1075.92285968837,1,1,1,0.0,2.0
2021-09-23 17:22:10.179,1059.0,-144.0,0.0,1068.7455263064262,1,1,1,0.0,2.0
2021-09-23 17:22:10.189,1063.0,-324.0,96.0,1115.4196519696077,1,1,1,0.0,2.0
2021-09-23 17:22:10.198,958.0,281.0,96.0,1002.9661011220668,1,1,1,0.0,2.0
2021-09-23 17:22:10.199,958.0,281.0,-43.0,999.2867456341048,1,1,1,0.0,2.0
2021-09-23 17:22:10.209,1001.0,-125.0,69.0,1011.1315443600798,1,1,1,0.0,2.0
2021-09-23 17:22:10.219,988.0,-125.0,69.0,998.2634922704526,1,1,1,0.0,2.0
2021-09-23 17:22:10.220,988.0,312.0,8.0,1036.1235447570912,1,1,1,0.0,2.0
2021-09-23 17:22:10.228,1082.0,-234.0,17.0,1107.144525344365,1,1,1,0.0,2.0
2021-09-23 17:22:10.238,992.0,348.0,-57.0,1052.813848693111,1,1,1,0.0,2.0
2021-09-23 17:22:10.247,1079.0,-294.0,-57.0,1119.7883728633728,1,1,1,0.0,2.0
2021-09-23 17:22:10.248,1079.0,-294.0,39.0,1119.016532496281,1,1,1,0.0,2.0
2021-09-23 17:22:10.258,912.0,-181.0,-12.0,929.8650439714356,1,1,1,0.0,2.0
2021-09-23 17:22:10.268,1001.0,-181.0,-12.0,1017.3032979401964,1,1,1,0.0,2.0
2021-09-23 17:22:10.269,1001.0,-310.0,3.0,1047.9074386604957,1,1,1,0.0,2.0
2021-09-23 17:22:10.276,1070.0,-84.0,3.0,1073.2963244137195,1,1,1,0.0,2.0
2021-09-23 17:22:10.277,1070.0,-84.0,-8.0,1073.3219461093674,1,1,1,0.0,2.0
2021-09-23 17:22:10.286,996.0,-84.0,-8.0,999.5679066476674,1,1,1,0.0,2.0
2021-09-23 17:22:10.287,996.0,420.0,24.0,1081.1993340730469,1,1,1,0.0,2.0
2021-09-23 17:22:10.296,1009.0,-229.0,-39.0,1035.395093671976,1,1,1,0.0,2.0
2021-09-23 17:22:10.306,950.0,334.0,-19.0,1007.1827043789026,1,1,1,0.0,2.0
2021-09-23 17:22:10.316,1145.0,-575.0,-7.0,1281.2880238260248,1,1,1,0.0,2.0
2021-09-23 17:22:10.325,854.0,298.0,-36.0,905.2159963235296,1,1,1,0.0,2.0
2021-09-23 17:22:10.335,1140.0,-282.0,37.0,1174.943828444577,1,1,1,0.0,2.0
2021-09-23 17:22:10.344,911.0,346.0,37.0,975.1953650423078,1,1,1,0.0,2.0
2021-09-23 17:22:10.345,911.0,346.0,-22.0,974.74150419483,1,1,1,0.0,2.0
2021-09-23 17:22:10.354,1059.0,346.0,-22.0,1114.3074082137298,1,1,1,0.0,2.0
2021-09-23 17:22:10.355,1059.0,54.0,13.0,1060.4555624824643,1,1,1,0.0,2.0
2021-09-23 17:22:10.367,1080.0,-384.0,74.0,1148.6217828336703,1,1,1,0.0,2.0
2021-09-23 17:22:10.374,949.0,183.0,-38.0,967.230065703088,1,1,1,0.0,2.0
2021-09-23 17:22:10.383,997.0,183.0,-38.0,1014.367783400084,1,1,1,0.0,2.0
2021-09-23 17:22:10.384,997.0,-255.0,16.0,1029.2181498593968,1,1,1,0.0,2.0
2021-09-23 17:22:10.398,988.0,293.0,-28.0,1030.9107623844077,1,1,1,0.0,2.0
2021-09-23 17:22:10.404,1101.0,-137.0,-45.0,1110.40307996691,1,1,1,0.0,2.0
2021-09-23 17:22:10.414,1006.0,338.0,-13.0,1061.3430171250009,1,1,1,0.0,2.0
2021-09-23 17:22:10.423,987.0,-302.0,-13.0,1032.2509384834675,1,1,1,0.0,2.0
2021-09-23 17:22:10.424,987.0,-302.0,46.0,1033.1935927017744,1,1,1,0.0,2.0
2021-09-23 17:22:10.433,951.0,-212.0,-39.0,975.1235819115442,1,1,1,0.0,2.0
2021-09-23 17:22:10.442,1019.0,-212.0,-39.0,1041.5498067783412,1,1,1,0.0,2.0
2021-09-23 17:22:10.443,1019.0,-269.0,-7.0,1053.9312121765822,1,1,1,0.0,2.0
2021-09-23 17:22:10.454,1106.0,-116.0,46.0,1113.017520077739,1,1,1,0.0,2.0
2021-09-23 17:22:10.462,856.0,374.0,45.0,935.2202949038264,1,1,1,0.0,2.0
2021-09-23 17:22:10.472,1264.0,-285.0,-26.0,1295.9926697323565,1,1,1,0.0,2.0
2021-09-23 17:22:10.482,879.0,488.0,-26.0,1005.7141741071366,1,1,1,0.0,2.0
2021-09-23 17:22:10.483,879.0,488.0,-7.0,1005.4024069993068,1,1,1,0.0,2.0
2021-09-23 17:22:10.491,1112.0,-543.0,-7.0,1237.5144443601455,1,1,1,0.0,2.0
2021-09-23 17:22:10.501,855.0,-543.0,-7.0,1012.8785712018988,1,1,1,0.0,2.0
2021-09-23 17:22:10.502,855.0,295.0,-34.0,905.0999944757484,1,1,1,0.0,2.0
2021-09-23 17:22:10.511,1091.0,-290.0,78.0,1131.5763341463094,1,1,1,0.0,2.0
2021-09-23 17:22:10.521,1033.0,276.0,6.0,1069.2525426670727,1,1,1,0.0,2.0
2021-09-23 17:22:10.530,1131.0,229.0,6.0,1153.966204011192,1,1,1,0.0,2.0
2021-09-23 17:22:10.531,1131.0,229.0,30.0,1154.3405043573582,1,1,1,0.0,2.0
2021-09-23 17:22:10.546,1060.0,-396.0,-38.0,1132.192563126962,1,1,1,0.0,2.0
2021-09-23 17:22:10.555,875.0,-396.0,-38.0,961.1893673985372,1,1,1,0.0,2.0
2021-09-23 17:22:10.556,875.0,234.0,107.0,912.0471479040982,1,1,1,0.0,2.0
2021-09-23 17:22:10.563,1051.0,234.0,107.0,1082.037892127628,1,1,1,0.0,2.0
2021-09-23 17:22:10.564,1051.0,-233.0,83.0,1079.7124617230274,1,1,1,0.0,2.0
2021-09-23 17:22:10.570,908.0,142.0,-59.0,920.9283359740864,1,1,1,0.0,2.0
2021-09-23 17:22:10.579,1104.0,-211.0,-59.0,1125.5300973319197,1,1,1,0.0,2.0
2021-09-23 17:22:10.580,1104.0,-211.0,46.0,1124.9235529581554,1,1,1,0.0,2.0
2021-09-23 17:22:10.590,1057.0,424.0,-73.0,1141.2072554974402,1,1,1,0.0,2.0
2021-09-23 17:22:10.599,976.0,-170.0,-9.0,990.735585310228,1,1,1,0.0,2.0
2021-09-23 17:22:10.608,1069.0,-170.0,-9.0,1082.4703229188317,1,1,1,0.0,2.0
2021-09-23 17:22:10.609,1069.0,-284.0,73.0,1108.4881596120006,1,1,1,0.0,2.0
2021-09-23 17:22:10.618,978.0,-284.0,73.0,1021.0137119549374,1,1,1,0.0,2.0
2021-09-23 17:22:10.619,978.0,-251.0,34.0,1010.2677862824293,1,1,1,0.0,2.0
2021-09-23 17:22:10.628,1044.0,-161.0,60.0,1058.0439499378083,1,1,1,0.0,2.0
2021-09-23 17:22:10.639,931.0,447.0,42.0,1033.6024380776198,1,1,1,0.0,2.0
2021-09-23 17:22:10.654,1134.0,-119.0,-44.0,1141.0753699909574,1,1,1,0.0,2.0
2021-09-23 17:22:10.658,931.0,184.0,6.0,949.0273968648112,1,1,1,0.0,2.0
2021-09-23 17:22:10.667,1121.0,-434.0,6.0,1202.0952541292224,1,1,1,0.0,2.0
2021-09-23 17:22:10.668,1121.0,-434.0,47.0,1202.9987531165607,1,1,1,0.0,2.0
2021-09-23 17:22:10.676,991.0,311.0,47.0,1039.7167883611382,1,1,1,0.0,2.0
2021-09-23 17:22:10.677,991.0,311.0,50.0,1039.856720899567,1,1,1,0.0,2.0
2021-09-23 17:22:10.688,1005.0,-465.0,10.0,1107.4068809611038,1,1,1,0.0,2.0
2021-09-23 17:22:10.696,1150.0,136.0,-26.0,1158.305659141835,1,1,1,0.0,2.0
2021-09-23 17:22:10.706,1049.0,439.0,40.0,1137.858514930569,1,1,1,0.0,2.0
2021-09-23 17:22:10.716,1016.0,-216.0,-4.0,1038.714590250854,1,1,1,0.0,2.0
2021-09-23 17:22:10.726,926.0,-199.0,-5.0,947.1546864161102,1,1,1,0.0,2.0
2021-09-23 17:22:10.736,1020.0,-199.0,-5.0,1039.2429937218726,1,1,1,0.0,2.0
2021-09-23 17:22:10.737,1020.0,-275.0,-25.0,1056.716612910008,1,1,1,0.0,2.0
2021-09-23 17:22:10.746,1118.0,31.0,17.0,1118.5588942921154,1,1,1,0.0,2.0
2021-09-23 17:22:10.755,995.0,111.0,4.0,1001.1803034418924,1,1,1,0.0,2.0
2021-09-23 17:22:10.764,1064.0,111.0,4.0,1069.7817534431963,1,1,1,0.0,2.0
2021-09-23 17:22:10.765,1064.0,139.0,50.0,1074.205287642916,1,1,1,0.0,2.0
2021-09-23 17:22:10.775,943.0,139.0,50.0,954.499869041374,1,1,1,0.0,2.0
2021-09-23 17:22:10.776,943.0,20.0,9.0,943.2550026371448,1,1,1,0.0,2.0
2021-09-23 17:22:10.784,1006.0,-80.0,9.0,1009.216032373644,1,1,1,0.0,2.0
2021-09-23 17:22:10.785,1006.0,-80.0,-9.0,1009.216032373644,1,1,1,0.0,2.0
2021-09-23 17:22:10.794,889.0,3.0,23.0,889.3025356986226,1,1,1,0.0,2.0
2021-09-23 17:22:10.804,1075.0,29.0,12.0,1075.458041952358,1,1,1,0.0,2.0
2021-09-23 17:22:10.814,951.0,-34.0,-7.0,951.6333327495418,1,1,1,0.0,2.0
2021-09-23 17:22:10.823,1011.0,28.0,-7.0,1011.4118844466876,1,1,1,0.0,2.0
2021-09-23 17:22:10.824,1011.0,28.0,12.0,1011.4588474080396,1,1,1,0.0,2.0
2021-09-23 17:22:10.833,1027.0,68.0,40.0,1030.0257278340189,1,1,1,0.0,2.0
2021-09-23 17:22:10.843,987.0,68.0,40.0,990.1479687400264,1,1,1,0.0,2.0
2021-09-23 17:22:10.844,987.0,21.0,-12.0,987.2963081061328,1,1,1,0.0,2.0
2021-09-23 17:22:10.854,921.0,68.0,17.0,923.663358589048,1,1,1,0.0,2.0
2021-09-23 17:22:10.862,1065.0,-19.0,-2.0,1065.171347718291,1,1,1,0.0,2.0
2021-09-23 17:22:10.872,1023.0,85.0,-2.0,1026.5271550231878,1,1,1,0.0,2.0
2021-09-23 17:22:10.873,1023.0,85.0,14.0,1026.6206699652994,1,1,1,0.0,2.0
2021-09-23 17:22:10.882,1000.0,39.0,-7.0,1000.7846921291311,1,1,1,0.0,2.0
2021-09-23 17:22:10.892,1019.0,-3.0,26.0,1019.336058422344,1,1,1,0.0,2.0
2021-09-23 17:22:10.902,1012.0,-3.0,26.0,1012.3383821628024,1,1,1,0.0,2.0
2021-09-23 17:22:10.903,1012.0,6.0,-2.0,1012.0197626528842,1,1,1,0.0,2.0
2021-09-23 17:22:10.911,992.0,6.0,16.0,992.1471665030344,1,1,1,0.0,2.0
2021-09-23 17:22:10.921,1017.0,32.0,10.0,1017.5524556503216,1,1,1,0.0,2.0
2021-09-23 17:22:10.931,1002.0,36.0,-6.0,1002.6644503521604,1,1,1,0.0,2.0
2021-09-23 17:22:10.941,1014.0,0.0,6.0,1014.0177513239104,1,1,1,0.0,2.0
2021-09-23 17:22:10.951,1012.0,23.0,21.0,1012.4791355874944,1,1,1,0.0,2.0
2021-09-23 17:22:10.959,1000.0,23.0,21.0,1000.4848824445075,1,1,1,0.0,2.0
