time_stamp,Acceleration_X,Acceleration_Y,Acceleration_Z,magnitude,STD_Status_right,STD_Status_left,STD_Status_both,KMeans,KMeans_convert
2021-08-12 06:19:12.375,1055.0,58.0,-2.0,1056.5950028274788,1,1,1,0.0,2.0
2021-08-12 06:19:12.376,1055.0,126.0,34.0,1063.0413914801247,1,1,1,0.0,2.0
2021-08-12 06:19:12.386,1058.0,86.0,4.0,1061.4970560486731,1,1,1,0.0,2.0
2021-08-12 06:19:12.395,989.0,29.0,4.0,989.4331710631092,1,1,1,0.0,2.0
2021-08-12 06:19:12.396,989.0,29.0,0.0,989.4250855926384,1,1,1,0.0,2.0
2021-08-12 06:19:12.405,997.0,-20.0,5.0,997.2131166405704,1,1,1,0.0,2.0
2021-08-12 06:19:12.415,974.0,183.0,31.0,991.5271050253745,1,1,1,0.0,2.0
2021-08-12 06:19:12.425,1057.0,71.0,1.0,1059.3823672310202,1,1,1,0.0,2.0
2021-08-12 06:19:12.434,985.0,40.0,9.0,985.8529302081524,1,1,1,0.0,2.0
2021-08-12 06:19:12.444,1015.0,24.0,18.0,1015.4432529688696,1,1,1,0.0,2.0
2021-08-12 06:19:12.454,1032.0,3.0,39.0,1032.7410130327933,1,1,1,0.0,2.0
2021-08-12 06:19:12.464,1020.0,73.0,21.0,1022.8245206290276,1,1,1,0.0,2.0
2021-08-12 06:19:12.475,1070.0,73.0,21.0,1072.692873100218,1,1,1,0.0,2.0
2021-08-12 06:19:12.476,1070.0,36.0,32.0,1071.083563500066,1,1,1,0.0,2.0
2021-08-12 06:19:12.483,1002.0,-37.0,-4.0,1002.6908795835336,1,1,1,0.0,2.0
2021-08-12 06:19:12.493,994.0,28.0,-14.0,994.4928355699705,1,1,1,0.0,2.0
2021-08-12 06:19:12.503,1011.0,38.0,13.0,1011.7974105521322,1,1,1,0.0,2.0
2021-08-12 06:19:12.513,983.0,153.0,-5.0,994.8482296310328,1,1,1,0.0,2.0
2021-08-12 06:19:12.522,1022.0,153.0,-5.0,1033.4011805683213,1,1,1,0.0,2.0
2021-08-12 06:19:12.523,1022.0,63.0,-14.0,1024.0356439108944,1,1,1,0.0,2.0
2021-08-12 06:19:12.533,1002.0,52.0,-8.0,1003.3802868304718,1,1,1,0.0,2.0
2021-08-12 06:19:12.542,987.0,24.0,-8.0,987.3241615599204,1,1,1,0.0,2.0
2021-08-12 06:19:12.543,987.0,24.0,-4.0,987.2998531348012,1,1,1,0.0,2.0
2021-08-12 06:19:12.552,1019.0,42.0,32.0,1020.3670908060492,1,1,1,0.0,2.0
2021-08-12 06:19:12.561,1016.0,62.0,32.0,1018.3928515067256,1,1,1,0.0,2.0
2021-08-12 06:19:12.562,1016.0,62.0,23.0,1018.1497925158164,1,1,1,0.0,2.0
2021-08-12 06:19:12.572,1038.0,36.0,11.0,1038.6823383498922,1,1,1,0.0,2.0
2021-08-12 06:19:12.581,1016.0,-69.0,18.0,1018.4993863522944,1,1,1,0.0,2.0
2021-08-12 06:19:12.591,1003.0,14.0,18.0,1003.2591888440396,1,1,1,0.0,2.0
2021-08-12 06:19:12.592,1003.0,14.0,34.0,1003.6737517739516,1,1,1,0.0,2.0
2021-08-12 06:19:12.600,1010.0,12.0,34.0,1010.6433594498112,1,1,1,0.0,2.0
2021-08-12 06:19:12.601,1010.0,12.0,7.0,1010.0955400356938,1,1,1,0.0,2.0
2021-08-12 06:19:12.610,957.0,160.0,-3.0,970.287586234102,1,1,1,0.0,2.0
2021-08-12 06:19:12.620,1040.0,40.0,-3.0,1040.7732702178705,1,1,1,0.0,2.0
2021-08-12 06:19:12.631,989.0,85.0,-5.0,992.658551567456,1,1,1,0.0,2.0
2021-08-12 06:19:12.639,988.0,78.0,7.0,991.09888507656,1,1,1,0.0,2.0
2021-08-12 06:19:12.650,1005.0,110.0,7.0,1011.0262113318328,1,1,1,0.0,2.0
2021-08-12 06:19:12.659,1038.0,61.0,15.0,1039.8990335604703,1,1,1,0.0,2.0
2021-08-12 06:19:12.670,1037.0,52.0,21.0,1038.5152863583664,1,1,1,0.0,2.0
2021-08-12 06:19:12.679,1019.0,-59.0,7.0,1020.7306206830478,1,1,1,0.0,2.0
2021-08-12 06:19:12.690,995.0,21.0,33.0,995.7685474044658,1,1,1,0.0,2.0
2021-08-12 06:19:12.699,1065.0,37.0,24.0,1065.9127544034736,1,1,1,0.0,2.0
2021-08-12 06:19:12.708,967.0,157.0,0.0,979.66218667457,1,1,1,0.0,2.0
2021-08-12 06:19:12.718,1052.0,31.0,-7.0,1052.4799285497088,1,1,1,0.0,2.0
2021-08-12 06:19:12.728,986.0,72.0,-6.0,988.6435151256492,1,1,1,0.0,2.0
2021-08-12 06:19:12.744,969.0,151.0,26.0,981.0392448826908,1,1,1,0.0,2.0
2021-08-12 06:19:12.747,1011.0,95.0,26.0,1015.7863948685276,1,1,1,0.0,2.0
2021-08-12 06:19:12.748,1011.0,95.0,-8.0,1015.4851057499563,1,1,1,0.0,2.0
2021-08-12 06:19:12.757,1012.0,80.0,-4.0,1015.1650112173884,1,1,1,0.0,2.0
2021-08-12 06:19:12.767,1015.0,48.0,12.0,1016.20519581431,1,1,1,0.0,2.0
2021-08-12 06:19:12.779,1001.0,-21.0,17.0,1001.3645689757552,1,1,1,0.0,2.0
2021-08-12 06:19:12.786,1009.0,19.0,28.0,1009.5672340166354,1,1,1,0.0,2.0
2021-08-12 06:19:12.796,1058.0,57.0,33.0,1060.0481121156718,1,1,1,0.0,2.0
2021-08-12 06:19:12.806,1046.0,-30.0,21.0,1046.6408170905625,1,1,1,0.0,2.0
2021-08-12 06:19:12.815,989.0,-30.0,21.0,989.6777253227436,1,1,1,0.0,2.0
2021-08-12 06:19:12.816,989.0,30.0,19.0,989.6373073000028,1,1,1,0.0,2.0
2021-08-12 06:19:12.827,982.0,61.0,-4.0,983.9009096448686,1,1,1,0.0,2.0
2021-08-12 06:19:12.835,981.0,153.0,7.0,992.8841825711596,1,1,1,0.0,2.0
2021-08-12 06:19:12.845,1006.0,62.0,-17.0,1008.0520819878308,1,1,1,0.0,2.0
2021-08-12 06:19:12.854,1016.0,62.0,-17.0,1018.031924843224,1,1,1,0.0,2.0
2021-08-12 06:19:12.855,1016.0,94.0,3.0,1020.3435695882048,1,1,1,0.0,2.0
2021-08-12 06:19:12.865,1001.0,-90.0,-1.0,1005.0383077276208,1,1,1,0.0,2.0
2021-08-12 06:19:12.875,1009.0,-32.0,-1.0,1009.50780086139,1,1,1,0.0,2.0
2021-08-12 06:19:12.876,1009.0,-32.0,22.0,1009.7469980148492,1,1,1,0.0,2.0
2021-08-12 06:19:12.883,1018.0,-32.0,22.0,1018.7403987277622,1,1,1,0.0,2.0
2021-08-12 06:19:12.884,1018.0,47.0,25.0,1019.39099466299,1,1,1,0.0,2.0
2021-08-12 06:19:12.893,1066.0,47.0,25.0,1067.32844054677,1,1,1,0.0,2.0
2021-08-12 06:19:12.894,1066.0,42.0,35.0,1067.4010492781051,1,1,1,0.0,2.0
2021-08-12 06:19:12.903,1053.0,-35.0,31.0,1054.037475614601,1,1,1,0.0,2.0
2021-08-12 06:19:12.913,985.0,21.0,13.0,985.3095960153844,1,1,1,0.0,2.0
2021-08-12 06:19:12.924,1011.0,17.0,5.0,1011.1552798655604,1,1,1,0.0,2.0
2021-08-12 06:19:12.933,967.0,157.0,10.0,979.7132233465056,1,1,1,0.0,2.0
2021-08-12 06:19:12.944,1025.0,91.0,-6.0,1029.049075603297,1,1,1,0.0,2.0
2021-08-12 06:19:12.952,998.0,67.0,-20.0,1000.4464003633578,1,1,1,0.0,2.0
2021-08-12 06:19:12.962,996.0,-85.0,-5.0,999.6329326307732,1,1,1,0.0,2.0
2021-08-12 06:19:12.973,991.0,116.0,20.0,997.9664323012072,1,1,1,0.0,2.0
2021-08-12 06:19:12.981,1017.0,48.0,26.0,1018.4640396204472,1,1,1,0.0,2.0
2021-08-12 06:19:12.991,1061.0,13.0,30.0,1061.5036504883062,1,1,1,0.0,2.0
2021-08-12 06:19:13.001,1034.0,-44.0,21.0,1035.148781576832,1,1,1,0.0,2.0
2021-08-12 06:19:13.011,999.0,5.0,33.0,999.5574020535288,1,1,1,0.0,2.0
2021-08-12 06:19:13.021,1024.0,37.0,7.0,1024.6921488915586,1,1,1,0.0,2.0
2021-08-12 06:19:13.032,1024.0,95.0,7.0,1028.4211199698302,1,1,1,0.0,2.0
2021-08-12 06:19:13.040,1046.0,93.0,7.0,1050.1495131646732,1,1,1,0.0,2.0
2021-08-12 06:19:13.041,1046.0,93.0,-9.0,1050.1647489798922,1,1,1,0.0,2.0
2021-08-12 06:19:13.050,978.0,73.0,-18.0,980.885824140608,1,1,1,0.0,2.0
2021-08-12 06:19:13.060,1003.0,-34.0,-9.0,1003.6164606063414,1,1,1,0.0,2.0
2021-08-12 06:19:13.070,976.0,115.0,19.0,982.9353997084448,1,1,1,0.0,2.0
2021-08-12 06:19:13.080,1051.0,65.0,15.0,1053.1149035124324,1,1,1,0.0,2.0
2021-08-12 06:19:13.090,1053.0,30.0,29.0,1053.8263614087475,1,1,1,0.0,2.0
2021-08-12 06:19:13.121,1038.0,30.0,29.0,1038.838293479789,1,1,1,0.0,2.0
2021-08-12 06:19:13.124,1038.0,-65.0,27.0,1040.3835831076922,1,1,1,0.0,2.0
2021-08-12 06:19:13.128,1039.0,26.0,11.0,1039.3834711019797,1,1,1,0.0,2.0
2021-08-12 06:19:13.132,1038.0,26.0,11.0,1038.383840398145,1,1,1,0.0,2.0
2021-08-12 06:19:13.133,1038.0,63.0,17.0,1040.049037305453,1,1,1,0.0,2.0
2021-08-12 06:19:13.138,987.0,-8.0,-22.0,987.2775698859972,1,1,1,0.0,2.0
2021-08-12 06:19:13.147,970.0,87.0,-22.0,974.1421867468836,1,1,1,0.0,2.0
2021-08-12 06:19:13.148,970.0,87.0,-19.0,974.0790522334416,1,1,1,0.0,2.0
2021-08-12 06:19:13.157,989.0,-23.0,2.0,989.2694274059014,1,1,1,0.0,2.0
2021-08-12 06:19:13.168,999.0,94.0,9.0,1003.4530382633758,1,1,1,0.0,2.0
2021-08-12 06:19:13.177,1030.0,68.0,9.0,1032.2814538680814,1,1,1,0.0,2.0
2021-08-12 06:19:13.178,1030.0,68.0,9.0,1032.2814538680814,1,1,1,0.0,2.0
2021-08-12 06:19:13.187,1024.0,8.0,17.0,1024.1723487772945,1,1,1,0.0,2.0
2021-08-12 06:19:13.202,1016.0,38.0,32.0,1017.2138418248152,1,1,1,0.0,2.0
2021-08-12 06:19:13.206,998.0,4.0,35.0,998.6215499377128,1,1,1,0.0,2.0
2021-08-12 06:19:13.216,1037.0,33.0,16.0,1037.6483026536496,1,1,1,0.0,2.0
2021-08-12 06:19:13.226,1051.0,53.0,23.0,1052.586813521811,1,1,1,0.0,2.0
2021-08-12 06:19:13.235,992.0,-25.0,-7.0,992.33965959242,1,1,1,0.0,2.0
2021-08-12 06:19:13.246,993.0,12.0,3.0,993.0770362867122,1,1,1,0.0,2.0
2021-08-12 06:19:13.256,987.0,6.0,-3.0,987.0227960893304,1,1,1,0.0,2.0
2021-08-12 06:19:13.265,1006.0,119.0,9.0,1013.0537991636968,1,1,1,0.0,2.0
2021-08-12 06:19:13.274,1020.0,77.0,3.0,1022.906642856522,1,1,1,0.0,2.0
2021-08-12 06:19:13.285,1013.0,-47.0,16.0,1014.2159533353832,1,1,1,0.0,2.0
2021-08-12 06:19:13.295,999.0,72.0,50.0,1002.8384715396592,1,1,1,0.0,2.0
2021-08-12 06:19:13.305,995.0,16.0,34.0,995.7092949249796,1,1,1,0.0,2.0
2021-08-12 06:19:13.316,1052.0,19.0,21.0,1052.3811096746274,1,1,1,0.0,2.0
2021-08-12 06:19:13.323,1064.0,13.0,32.0,1064.5604726834451,1,1,1,0.0,2.0
2021-08-12 06:19:13.333,978.0,5.0,32.0,978.536151606061,1,1,1,0.0,2.0
2021-08-12 06:19:13.334,978.0,5.0,-3.0,978.017382258618,1,1,1,0.0,2.0
2021-08-12 06:19:13.343,1020.0,3.0,-8.0,1020.035783686043,1,1,1,0.0,2.0
2021-08-12 06:19:13.353,972.0,157.0,-3.0,984.602457847836,1,1,1,0.0,2.0
2021-08-12 06:19:13.362,1002.0,120.0,-13.0,1009.2437762998592,1,1,1,0.0,2.0
2021-08-12 06:19:13.371,1011.0,120.0,-13.0,1018.1797483745196,1,1,1,0.0,2.0
2021-08-12 06:19:13.372,1011.0,64.0,1.0,1013.0241852986532,1,1,1,0.0,2.0
2021-08-12 06:19:13.382,1045.0,-75.0,-1.0,1047.688407877075,1,1,1,0.0,2.0
2021-08-12 06:19:13.392,992.0,73.0,51.0,995.9889557620606,1,1,1,0.0,2.0
2021-08-12 06:19:13.403,1049.0,49.0,18.0,1050.298052935451,1,1,1,0.0,2.0
2021-08-12 06:19:13.411,1064.0,49.0,31.0,1065.578716003656,1,1,1,0.0,2.0
2021-08-12 06:19:13.421,1058.0,-26.0,19.0,1058.4899621630807,1,1,1,0.0,2.0
2021-08-12 06:19:13.430,990.0,30.0,12.0,990.527132389618,1,1,1,0.0,2.0
2021-08-12 06:19:13.441,1020.0,20.0,12.0,1020.2666318173892,1,1,1,0.0,2.0
2021-08-12 06:19:13.442,1020.0,20.0,-3.0,1020.2004704958728,1,1,1,0.0,2.0
2021-08-12 06:19:13.451,986.0,108.0,-3.0,991.9017088401451,1,1,1,0.0,2.0
2021-08-12 06:19:13.452,986.0,108.0,-8.0,991.9294329739388,1,1,1,0.0,2.0
2021-08-12 06:19:13.460,1033.0,34.0,-4.0,1033.567124090158,1,1,1,0.0,2.0
2021-08-12 06:19:13.469,1008.0,62.0,0.0,1009.9049460221491,1,1,1,0.0,2.0
2021-08-12 06:19:13.479,1006.0,-89.0,0.0,1009.9292054396684,1,1,1,0.0,2.0
2021-08-12 06:19:13.480,1006.0,-89.0,3.0,1009.933661187704,1,1,1,0.0,2.0
2021-08-12 06:19:13.490,999.0,90.0,38.0,1003.7654108406008,1,1,1,0.0,2.0
2021-08-12 06:19:13.500,1045.0,65.0,20.0,1047.2105805424237,1,1,1,0.0,2.0
2021-08-12 06:19:13.509,1033.0,65.0,20.0,1035.2362049310293,1,1,1,0.0,2.0
2021-08-12 06:19:13.510,1033.0,58.0,21.0,1034.8400842642309,1,1,1,0.0,2.0
2021-08-12 06:19:13.518,1010.0,58.0,21.0,1011.8819101061152,1,1,1,0.0,2.0
2021-08-12 06:19:13.519,1010.0,-36.0,21.0,1010.8595352471084,1,1,1,0.0,2.0
2021-08-12 06:19:13.528,984.0,11.0,10.0,984.112290340894,1,1,1,0.0,2.0
2021-08-12 06:19:13.539,1021.0,-2.0,0.0,1021.0019588619798,1,1,1,0.0,2.0
2021-08-12 06:19:13.549,1010.0,111.0,-3.0,1016.0856263130584,1,1,1,0.0,2.0
2021-08-12 06:19:13.558,1016.0,111.0,-3.0,1022.0499009343918,1,1,1,0.0,2.0
2021-08-12 06:19:13.559,1016.0,16.0,-18.0,1016.2853929876194,1,1,1,0.0,2.0
2021-08-12 06:19:13.567,979.0,64.0,0.0,981.0897002822932,1,1,1,0.0,2.0
2021-08-12 06:19:13.577,964.0,140.0,-8.0,974.1457796449154,1,1,1,0.0,2.0
2021-08-12 06:19:13.587,999.0,140.0,-8.0,1008.7938342396824,1,1,1,0.0,2.0
2021-08-12 06:19:13.588,999.0,77.0,27.0,1002.3267930171276,1,1,1,0.0,2.0
2021-08-12 06:19:13.598,1040.0,64.0,21.0,1042.1789673563749,1,1,1,0.0,2.0
2021-08-12 06:19:13.606,1038.0,57.0,19.0,1039.737466863631,1,1,1,0.0,2.0
2021-08-12 06:19:13.616,1014.0,2.0,29.0,1014.416581094769,1,1,1,0.0,2.0
2021-08-12 06:19:13.626,1012.0,42.0,24.0,1013.1554668460316,1,1,1,0.0,2.0
2021-08-12 06:19:13.635,1009.0,8.0,24.0,1009.317095862346,1,1,1,0.0,2.0
2021-08-12 06:19:13.636,1009.0,8.0,4.0,1009.0396424323476,1,1,1,0.0,2.0
2021-08-12 06:19:13.645,1024.0,111.0,-15.0,1030.1077613531509,1,1,1,0.0,2.0
2021-08-12 06:19:13.656,1025.0,7.0,-9.0,1025.0634126726015,1,1,1,0.0,2.0
2021-08-12 06:19:13.666,986.0,63.0,4.0,988.0187245189232,1,1,1,0.0,2.0
2021-08-12 06:19:13.675,951.0,166.0,-6.0,965.397845450258,1,1,1,0.0,2.0
2021-08-12 06:19:13.684,981.0,166.0,-6.0,994.9638184376356,1,1,1,0.0,2.0
2021-08-12 06:19:13.685,981.0,95.0,15.0,985.70330221624,1,1,1,0.0,2.0
2021-08-12 06:19:13.695,1062.0,75.0,15.0,1064.7506750408754,1,1,1,0.0,2.0
2021-08-12 06:19:13.696,1062.0,75.0,22.0,1064.872292812617,1,1,1,0.0,2.0
2021-08-12 06:19:13.705,1026.0,54.0,4.0,1027.4278563480748,1,1,1,0.0,2.0
2021-08-12 06:19:13.715,999.0,6.0,23.0,999.2827427710338,1,1,1,0.0,2.0
2021-08-12 06:19:13.724,990.0,52.0,23.0,991.6314839697257,1,1,1,0.0,2.0
2021-08-12 06:19:13.735,1057.0,11.0,23.0,1057.3074292749484,1,1,1,0.0,2.0
2021-08-12 06:19:13.736,1057.0,11.0,23.0,1057.3074292749484,1,1,1,0.0,2.0
2021-08-12 06:19:13.743,1033.0,96.0,9.0,1037.4902409179567,1,1,1,0.0,2.0
2021-08-12 06:19:13.754,1001.0,21.0,-3.0,1001.2247499937264,1,1,1,0.0,2.0
2021-08-12 06:19:13.769,993.0,40.0,4.0,993.8133627598291,1,1,1,0.0,2.0
2021-08-12 06:19:13.774,985.0,148.0,-2.0,996.0587332080372,1,1,1,0.0,2.0
2021-08-12 06:19:13.782,1035.0,54.0,-19.0,1036.581882920978,1,1,1,0.0,2.0
2021-08-12 06:19:13.793,1040.0,67.0,2.0,1042.157857524473,1,1,1,0.0,2.0
2021-08-12 06:19:13.803,1023.0,38.0,17.0,1023.846668207696,1,1,1,0.0,2.0
2021-08-12 06:19:13.811,1008.0,38.0,17.0,1008.8592567846122,1,1,1,0.0,2.0
2021-08-12 06:19:13.812,1008.0,17.0,26.0,1008.4785570352996,1,1,1,0.0,2.0
2021-08-12 06:19:13.821,1014.0,60.0,31.0,1016.2465252093116,1,1,1,0.0,2.0
2021-08-12 06:19:13.831,1045.0,32.0,20.0,1045.681117740968,1,1,1,0.0,2.0
2021-08-12 06:19:13.841,1029.0,-57.0,26.0,1030.905427282251,1,1,1,0.0,2.0
2021-08-12 06:19:13.851,1013.0,7.0,-8.0,1013.0557733905868,1,1,1,0.0,2.0
2021-08-12 06:19:13.861,993.0,37.0,1.0,993.6895893587696,1,1,1,0.0,2.0
2021-08-12 06:19:13.870,961.0,156.0,-3.0,973.5841001166772,1,1,1,0.0,2.0
2021-08-12 06:19:13.880,1031.0,56.0,-13.0,1032.601568854125,1,1,1,0.0,2.0
2021-08-12 06:19:13.890,995.0,80.0,2.0,998.2129031424108,1,1,1,0.0,2.0
2021-08-12 06:19:13.901,968.0,37.0,-16.0,968.8389959121176,1,1,1,0.0,2.0
2021-08-12 06:19:13.910,998.0,51.0,40.0,1000.1024947474134,1,1,1,0.0,2.0
2021-08-12 06:19:13.919,1037.0,63.0,25.0,1039.212682755556,1,1,1,0.0,2.0
2021-08-12 06:19:13.929,1032.0,53.0,20.0,1033.5535786789187,1,1,1,0.0,2.0
2021-08-12 06:19:13.938,1031.0,-79.0,10.0,1034.0705972031117,1,1,1,0.0,2.0
2021-08-12 06:19:13.949,986.0,28.0,32.0,986.9164098341864,1,1,1,0.0,2.0
2021-08-12 06:19:13.959,1014.0,7.0,-2.0,1014.0261337855154,1,1,1,0.0,2.0
2021-08-12 06:19:13.967,951.0,170.0,-5.0,966.0879877112644,1,1,1,0.0,2.0
2021-08-12 06:19:13.977,1051.0,35.0,-4.0,1051.5902243744947,1,1,1,0.0,2.0
2021-08-12 06:19:13.987,961.0,88.0,-5.0,965.0336781687984,1,1,1,0.0,2.0
2021-08-12 06:19:13.997,963.0,112.0,7.0,969.516374281528,1,1,1,0.0,2.0
2021-08-12 06:19:14.007,994.0,80.0,7.0,997.2386875768508,1,1,1,0.0,2.0
2021-08-12 06:19:14.008,994.0,80.0,48.0,998.3686693802044,1,1,1,0.0,2.0
2021-08-12 06:19:14.017,1048.0,58.0,26.0,1049.9257116577344,1,1,1,0.0,2.0
2021-08-12 06:19:14.026,1010.0,56.0,18.0,1011.7114213055024,1,1,1,0.0,2.0
2021-08-12 06:19:14.035,1006.0,-56.0,4.0,1007.5653824938609,1,1,1,0.0,2.0
2021-08-12 06:19:14.047,1004.0,17.0,38.0,1004.8626771852958,1,1,1,0.0,2.0
2021-08-12 06:19:14.056,1057.0,36.0,29.0,1058.0103969243405,1,1,1,0.0,2.0
2021-08-12 06:19:14.066,980.0,126.0,-1.0,988.067305399789,1,1,1,0.0,2.0
2021-08-12 06:19:14.075,1036.0,32.0,-15.0,1036.602623959635,1,1,1,0.0,2.0
2021-08-12 06:19:14.085,980.0,90.0,0.0,984.1239759298622,1,1,1,0.0,2.0
2021-08-12 06:19:14.095,980.0,163.0,15.0,993.5763684790414,1,1,1,0.0,2.0
2021-08-12 06:19:14.106,1018.0,80.0,-7.0,1021.1625727571492,1,1,1,0.0,2.0
2021-08-12 06:19:14.115,1050.0,77.0,17.0,1052.9567892368614,1,1,1,0.0,2.0
2021-08-12 06:19:14.124,1019.0,49.0,9.0,1020.2171337514384,1,1,1,0.0,2.0
2021-08-12 06:19:14.158,1008.0,-17.0,9.0,1008.1835150407886,1,1,1,0.0,2.0
2021-08-12 06:19:14.159,1008.0,-17.0,20.0,1008.3417079542032,1,1,1,0.0,2.0
2021-08-12 06:19:14.160,1066.0,45.0,37.0,1067.5907455574911,1,1,1,0.0,2.0
2021-08-12 06:19:14.164,1048.0,-43.0,26.0,1049.2039839802362,1,1,1,0.0,2.0
2021-08-12 06:19:14.173,1021.0,20.0,-5.0,1021.20810807592,1,1,1,0.0,2.0
2021-08-12 06:19:14.182,988.0,20.0,-5.0,988.2150575659126,1,1,1,0.0,2.0
2021-08-12 06:19:14.183,988.0,72.0,-6.0,990.638178145785,1,1,1,0.0,2.0
2021-08-12 06:19:14.193,982.0,137.0,12.0,991.5830777095784,1,1,1,0.0,2.0
2021-08-12 06:19:14.203,1023.0,71.0,-15.0,1025.5705729007634,1,1,1,0.0,2.0
2021-08-12 06:19:14.219,983.0,68.0,-17.0,985.4958142985691,1,1,1,0.0,2.0
2021-08-12 06:19:14.222,1028.0,62.0,20.0,1030.062134048233,1,1,1,0.0,2.0
2021-08-12 06:19:14.232,1003.0,-8.0,33.0,1003.5746110778211,1,1,1,0.0,2.0
2021-08-12 06:19:14.243,1015.0,54.0,32.0,1016.939034554186,1,1,1,0.0,2.0
2021-08-12 06:19:14.251,1059.0,61.0,32.0,1061.2379563509778,1,1,1,0.0,2.0
2021-08-12 06:19:14.252,1059.0,61.0,26.0,1061.0739842254168,1,1,1,0.0,2.0
2021-08-12 06:19:14.261,1058.0,-53.0,25.0,1059.6216305832943,1,1,1,0.0,2.0
2021-08-12 06:19:14.270,973.0,9.0,18.0,973.2080969659058,1,1,1,0.0,2.0
2021-08-12 06:19:14.280,969.0,62.0,-2.0,970.9835220023048,1,1,1,0.0,2.0
2021-08-12 06:19:14.290,963.0,138.0,-19.0,973.023124082876,1,1,1,0.0,2.0
2021-08-12 06:19:14.301,1031.0,68.0,-16.0,1033.3639242783736,1,1,1,0.0,2.0
2021-08-12 06:19:14.309,982.0,100.0,-16.0,987.2081847310628,1,1,1,0.0,2.0
2021-08-12 06:19:14.310,982.0,100.0,2.0,987.0805438260852,1,1,1,0.0,2.0
2021-08-12 06:19:14.319,1009.0,-54.0,-11.0,1010.5038347280034,1,1,1,0.0,2.0
2021-08-12 06:19:14.330,998.0,9.0,28.0,998.4332726827568,1,1,1,0.0,2.0
2021-08-12 06:19:14.340,1028.0,47.0,30.0,1029.5110489936474,1,1,1,0.0,2.0
2021-08-12 06:19:14.349,1051.0,29.0,28.0,1051.7727891517254,1,1,1,0.0,2.0
2021-08-12 06:19:14.359,1032.0,-79.0,13.0,1035.1009612593352,1,1,1,0.0,2.0
2021-08-12 06:19:14.368,994.0,18.0,33.0,994.7105106512146,1,1,1,0.0,2.0
2021-08-12 06:19:14.378,1023.0,35.0,12.0,1023.6688917809312,1,1,1,0.0,2.0
2021-08-12 06:19:14.388,967.0,141.0,-9.0,977.2671078062538,1,1,1,0.0,2.0
2021-08-12 06:19:14.398,1036.0,51.0,-9.0,1037.29359392604,1,1,1,0.0,2.0
2021-08-12 06:19:14.399,1036.0,51.0,-9.0,1037.29359392604,1,1,1,0.0,2.0
2021-08-12 06:19:14.408,990.0,107.0,-7.0,995.7901385332152,1,1,1,0.0,2.0
2021-08-12 06:19:14.416,987.0,0.0,-7.0,987.0248223829024,1,1,1,0.0,2.0
2021-08-12 06:19:14.417,987.0,0.0,-15.0,987.1139751821976,1,1,1,0.0,2.0
2021-08-12 06:19:14.427,983.0,113.0,10.0,989.52412805348,1,1,1,0.0,2.0
2021-08-12 06:19:14.436,1024.0,46.0,25.0,1025.3375054098042,1,1,1,0.0,2.0
2021-08-12 06:19:14.447,1038.0,65.0,24.0,1040.3100499370369,1,1,1,0.0,2.0
2021-08-12 06:19:14.457,1031.0,65.0,24.0,1033.325698896529,1,1,1,0.0,2.0
2021-08-12 06:19:14.458,1031.0,-57.0,20.0,1032.7681249922462,1,1,1,0.0,2.0
2021-08-12 06:19:14.466,1005.0,16.0,33.0,1005.6689316072165,1,1,1,0.0,2.0
2021-08-12 06:19:14.475,1053.0,16.0,33.0,1053.6384579161868,1,1,1,0.0,2.0
2021-08-12 06:19:14.476,1053.0,43.0,22.0,1054.1072051741228,1,1,1,0.0,2.0
2021-08-12 06:19:14.485,1069.0,43.0,22.0,1070.0906503656597,1,1,1,0.0,2.0
2021-08-12 06:19:14.486,1069.0,26.0,15.0,1069.4213388557384,1,1,1,0.0,2.0
2021-08-12 06:19:14.496,1050.0,30.0,-17.0,1050.5660379052808,1,1,1,0.0,2.0
2021-08-12 06:19:14.506,989.0,106.0,-4.0,994.6723078481676,1,1,1,0.0,2.0
2021-08-12 06:19:14.519,987.0,70.0,-4.0,989.4872409485632,1,1,1,0.0,2.0
2021-08-12 06:19:14.525,1003.0,72.0,6.0,1005.5988265705166,1,1,1,0.0,2.0
2021-08-12 06:19:14.534,1001.0,46.0,-7.0,1002.0808350627208,1,1,1,0.0,2.0
2021-08-12 06:19:14.544,1027.0,54.0,22.0,1028.6539748622954,1,1,1,0.0,2.0
2021-08-12 06:19:14.555,1001.0,-63.0,6.0,1002.9985044854254,1,1,1,0.0,2.0
2021-08-12 06:19:14.563,995.0,22.0,37.0,995.9307204821026,1,1,1,0.0,2.0
2021-08-12 06:19:14.573,1045.0,51.0,31.0,1046.7029186927875,1,1,1,0.0,2.0
2021-08-12 06:19:14.583,1072.0,-12.0,5.0,1072.0788217290742,1,1,1,0.0,2.0
2021-08-12 06:19:14.594,972.0,-13.0,4.0,972.0951599509176,1,1,1,0.0,2.0
2021-08-12 06:19:14.603,966.0,78.0,-4.0,969.1522068282154,1,1,1,0.0,2.0
2021-08-12 06:19:14.612,970.0,121.0,23.0,977.7883206502316,1,1,1,0.0,2.0
2021-08-12 06:19:14.622,1019.0,85.0,23.0,1022.7976339432938,1,1,1,0.0,2.0
2021-08-12 06:19:14.623,1019.0,85.0,-9.0,1022.5786033357044,1,1,1,0.0,2.0
2021-08-12 06:19:14.632,1010.0,53.0,-12.0,1011.4608247480472,1,1,1,0.0,2.0
2021-08-12 06:19:14.642,1000.0,-61.0,-6.0,1001.8767389255028,1,1,1,0.0,2.0
2021-08-12 06:19:14.652,1012.0,-35.0,-6.0,1012.62283205545,1,1,1,0.0,2.0
2021-08-12 06:19:14.653,1012.0,-35.0,22.0,1012.8440156312324,1,1,1,0.0,2.0
2021-08-12 06:19:14.661,994.0,20.0,28.0,994.595395123062,1,1,1,0.0,2.0
2021-08-12 06:19:14.671,1061.0,34.0,35.0,1062.1214619806908,1,1,1,0.0,2.0
2021-08-12 06:19:14.681,1033.0,-34.0,15.0,1033.6682253024903,1,1,1,0.0,2.0
2021-08-12 06:19:14.690,989.0,3.0,14.0,989.1036346106508,1,1,1,0.0,2.0
2021-08-12 06:19:14.702,990.0,7.0,-10.0,990.075249665398,1,1,1,0.0,2.0
2021-08-12 06:19:14.711,970.0,122.0,10.0,977.6932034130134,1,1,1,0.0,2.0
2021-08-12 06:19:14.719,1003.0,122.0,10.0,1010.4419825007272,1,1,1,0.0,2.0
2021-08-12 06:19:14.720,1003.0,78.0,-15.0,1006.1401492833888,1,1,1,0.0,2.0
2021-08-12 06:19:14.730,1024.0,68.0,-7.0,1026.2792017769823,1,1,1,0.0,2.0
2021-08-12 06:19:14.739,995.0,-46.0,-7.0,996.0873455676464,1,1,1,0.0,2.0
2021-08-12 06:19:14.750,996.0,98.0,35.0,1001.4214896835398,1,1,1,0.0,2.0
2021-08-12 06:19:14.759,1013.0,18.0,35.0,1013.7642724026132,1,1,1,0.0,2.0
2021-08-12 06:19:14.760,1013.0,18.0,22.0,1013.3987369244152,1,1,1,0.0,2.0
2021-08-12 06:19:14.768,1051.0,18.0,22.0,1051.3843255441843,1,1,1,0.0,2.0
2021-08-12 06:19:14.769,1051.0,40.0,31.0,1052.2176580917087,1,1,1,0.0,2.0
2021-08-12 06:19:14.782,1047.0,-41.0,31.0,1048.2609407967084,1,1,1,0.0,2.0
2021-08-12 06:19:14.783,1047.0,-41.0,9.0,1047.8411139099287,1,1,1,0.0,2.0
2021-08-12 06:19:14.788,993.0,26.0,21.0,993.5622778668684,1,1,1,0.0,2.0
2021-08-12 06:19:14.798,1013.0,33.0,0.0,1013.5373698093229,1,1,1,0.0,2.0
2021-08-12 06:19:14.808,1020.0,125.0,-4.0,1027.638555135024,1,1,1,0.0,2.0
2021-08-12 06:19:14.818,1034.0,125.0,-4.0,1041.5358851235037,1,1,1,0.0,2.0
2021-08-12 06:19:14.819,1034.0,85.0,-9.0,1037.5268671220038,1,1,1,0.0,2.0
2021-08-12 06:19:14.828,991.0,75.0,-9.0,993.874740598633,1,1,1,0.0,2.0
2021-08-12 06:19:14.829,991.0,75.0,-11.0,993.8948636551052,1,1,1,0.0,2.0
2021-08-12 06:19:14.837,993.0,-32.0,-7.0,993.5401350725596,1,1,1,0.0,2.0
2021-08-12 06:19:14.847,965.0,89.0,29.0,969.5292672219854,1,1,1,0.0,2.0
2021-08-12 06:19:14.857,1039.0,42.0,10.0,1039.896629478142,1,1,1,0.0,2.0
2021-08-12 06:19:14.867,1053.0,38.0,31.0,1054.14135674491,1,1,1,0.0,2.0
2021-08-12 06:19:14.876,1046.0,-58.0,31.0,1048.0653605572506,1,1,1,0.0,2.0
2021-08-12 06:19:14.886,991.0,12.0,31.0,991.5573609227052,1,1,1,0.0,2.0
2021-08-12 06:19:14.887,991.0,12.0,17.0,991.2184421206056,1,1,1,0.0,2.0
2021-08-12 06:19:14.895,1025.0,31.0,17.0,1025.609574838301,1,1,1,0.0,2.0
2021-08-12 06:19:14.896,1025.0,31.0,5.0,1025.480862815099,1,1,1,0.0,2.0
2021-08-12 06:19:14.905,1003.0,103.0,9.0,1008.3149309615524,1,1,1,0.0,2.0
2021-08-12 06:19:14.916,1019.0,73.0,-18.0,1021.7700328351776,1,1,1,0.0,2.0
2021-08-12 06:19:14.927,996.0,77.0,-18.0,999.1341251303552,1,1,1,0.0,2.0
2021-08-12 06:19:14.928,996.0,77.0,-9.0,999.0125124341536,1,1,1,0.0,2.0
2021-08-12 06:19:14.935,992.0,-32.0,-13.0,992.6011283491472,1,1,1,0.0,2.0
2021-08-12 06:19:14.944,991.0,107.0,14.0,996.8580641194612,1,1,1,0.0,2.0
2021-08-12 06:19:14.954,1034.0,67.0,0.0,1036.1684226031982,1,1,1,0.0,2.0
2021-08-12 06:19:14.964,1012.0,28.0,20.0,1012.5848112627406,1,1,1,0.0,2.0
2021-08-12 06:19:14.975,1056.0,-57.0,12.0,1057.6053139049557,1,1,1,0.0,2.0
2021-08-12 06:19:14.984,987.0,29.0,23.0,987.6937784556508,1,1,1,0.0,2.0
2021-08-12 06:19:14.993,1045.0,31.0,18.0,1045.6146517718655,1,1,1,0.0,2.0
2021-08-12 06:19:15.002,1022.0,80.0,18.0,1025.2843508022545,1,1,1,0.0,2.0
2021-08-12 06:19:15.003,1022.0,80.0,20.0,1025.3214130213023,1,1,1,0.0,2.0
2021-08-12 06:19:15.013,999.0,-1.0,-14.0,999.0985937333712,1,1,1,0.0,2.0
2021-08-12 06:19:15.023,974.0,29.0,-2.0,974.4336816838794,1,1,1,0.0,2.0
2021-08-12 06:19:15.033,982.0,-4.0,-17.0,982.155283038278,1,1,1,0.0,2.0
2021-08-12 06:19:15.043,998.0,-4.0,-17.0,998.1527939148394,1,1,1,0.0,2.0
2021-08-12 06:19:15.044,998.0,95.0,17.0,1002.6554742283114,1,1,1,0.0,2.0
2021-08-12 06:19:15.052,1021.0,46.0,-11.0,1022.094907530607,1,1,1,0.0,2.0
2021-08-12 06:19:15.061,1011.0,-28.0,-11.0,1011.4474776279784,1,1,1,0.0,2.0
2021-08-12 06:19:15.062,1011.0,-28.0,13.0,1011.4712057196684,1,1,1,0.0,2.0
2021-08-12 06:19:15.072,1016.0,52.0,35.0,1017.9317265907376,1,1,1,0.0,2.0
2021-08-12 06:19:15.082,1008.0,24.0,38.0,1009.0014866193212,1,1,1,0.0,2.0
2021-08-12 06:19:15.092,1042.0,24.0,19.0,1042.4495191614797,1,1,1,0.0,2.0
2021-08-12 06:19:15.100,1057.0,19.0,19.0,1057.3414774801945,1,1,1,0.0,2.0
2021-08-12 06:19:15.101,1057.0,19.0,20.0,1057.359919800254,1,1,1,0.0,2.0
2021-08-12 06:19:15.110,987.0,19.0,20.0,987.385436392496,1,1,1,0.0,2.0
2021-08-12 06:19:15.111,987.0,12.0,4.0,987.0810503702318,1,1,1,0.0,2.0
2021-08-12 06:19:15.121,992.0,25.0,-9.0,992.3557829730222,1,1,1,0.0,2.0
2021-08-12 06:19:15.133,983.0,162.0,3.0,996.26402123132,1,1,1,0.0,2.0
2021-08-12 06:19:15.139,1014.0,102.0,2.0,1019.1192275685902,1,1,1,0.0,2.0
2021-08-12 06:19:15.150,1016.0,59.0,-7.0,1017.7357220811303,1,1,1,0.0,2.0
2021-08-12 06:19:15.159,1022.0,-76.0,1.0,1024.822423642262,1,1,1,0.0,2.0
2021-08-12 06:19:15.189,984.0,90.0,50.0,989.371517681806,1,1,1,0.0,2.0
2021-08-12 06:19:15.191,1043.0,65.0,17.0,1045.1617099760208,1,1,1,0.0,2.0
2021-08-12 06:19:15.194,1041.0,46.0,21.0,1042.2274223987777,1,1,1,0.0,2.0
2021-08-12 06:19:15.198,1066.0,-18.0,20.0,1066.339533169431,1,1,1,0.0,2.0
2021-08-12 06:19:15.210,986.0,34.0,16.0,986.7157645441772,1,1,1,0.0,2.0
2021-08-12 06:19:15.218,1008.0,-2.0,0.0,1008.0019841250314,1,1,1,0.0,2.0
2021-08-12 06:19:15.227,983.0,-2.0,0.0,983.0020345858904,1,1,1,0.0,2.0
2021-08-12 06:19:15.228,983.0,153.0,0.0,994.8356648210798,1,1,1,0.0,2.0
2021-08-12 06:19:15.243,1037.0,25.0,-20.0,1037.4940963687457,1,1,1,0.0,2.0
2021-08-12 06:19:15.249,1020.0,48.0,-10.0,1021.1777514223468,1,1,1,0.0,2.0
2021-08-12 06:19:15.257,1026.0,-95.0,-5.0,1030.400892856756,1,1,1,0.0,2.0
2021-08-12 06:19:15.267,985.0,93.0,43.0,990.3145964793208,1,1,1,0.0,2.0
2021-08-12 06:19:15.277,1046.0,80.0,43.0,1049.9357123176635,1,1,1,0.0,2.0
2021-08-12 06:19:15.278,1046.0,80.0,29.0,1049.4555731425698,1,1,1,0.0,2.0
2021-08-12 06:19:15.286,1015.0,56.0,2.0,1016.5456212093976,1,1,1,0.0,2.0
2021-08-12 06:19:15.296,1061.0,-19.0,25.0,1061.4645542833732,1,1,1,0.0,2.0
2021-08-12 06:19:15.308,985.0,25.0,18.0,985.4816081490308,1,1,1,0.0,2.0
2021-08-12 06:19:15.317,1002.0,21.0,-1.0,1002.2205346130162,1,1,1,0.0,2.0
2021-08-12 06:19:15.325,1014.0,21.0,-1.0,1014.2179253000808,1,1,1,0.0,2.0
2021-08-12 06:19:15.326,1014.0,123.0,-9.0,1021.472466589286,1,1,1,0.0,2.0
2021-08-12 06:19:15.335,1028.0,23.0,-23.0,1028.5144627082304,1,1,1,0.0,2.0
2021-08-12 06:19:15.344,1003.0,23.0,-23.0,1003.527279150896,1,1,1,0.0,2.0
2021-08-12 06:19:15.345,1003.0,62.0,-4.0,1004.9223850626475,1,1,1,0.0,2.0
2021-08-12 06:19:15.354,1005.0,-59.0,0.0,1006.7303511864536,1,1,1,0.0,2.0
2021-08-12 06:19:15.365,1000.0,102.0,0.0,1005.1885395287792,1,1,1,0.0,2.0
2021-08-12 06:19:15.366,1000.0,102.0,28.0,1005.5784405007896,1,1,1,0.0,2.0
2021-08-12 06:19:15.375,1030.0,81.0,23.0,1033.4360164035313,1,1,1,0.0,2.0
2021-08-12 06:19:15.384,1033.0,28.0,7.0,1033.403115923307,1,1,1,0.0,2.0
2021-08-12 06:19:15.393,1004.0,1.0,36.0,1004.645708695359,1,1,1,0.0,2.0
2021-08-12 06:19:15.403,995.0,24.0,20.0,995.490331444761,1,1,1,0.0,2.0
2021-08-12 06:19:15.414,1017.0,23.0,2.0,1017.262011479835,1,1,1,0.0,2.0
2021-08-12 06:19:15.423,1020.0,129.0,-16.0,1028.2494833453602,1,1,1,0.0,2.0
2021-08-12 06:19:15.433,1020.0,14.0,-8.0,1020.1274430187632,1,1,1,0.0,2.0
2021-08-12 06:19:15.442,989.0,54.0,0.0,990.4731192717952,1,1,1,0.0,2.0
2021-08-12 06:19:15.452,961.0,54.0,0.0,962.5159738934208,1,1,1,0.0,2.0
2021-08-12 06:19:15.453,961.0,136.0,-11.0,970.6379345564442,1,1,1,0.0,2.0
2021-08-12 06:19:15.462,984.0,108.0,22.0,990.1535234497728,1,1,1,0.0,2.0
2021-08-12 06:19:15.473,1041.0,81.0,17.0,1044.284922806032,1,1,1,0.0,2.0
2021-08-12 06:19:15.481,1025.0,32.0,23.0,1025.7572812317735,1,1,1,0.0,2.0
2021-08-12 06:19:15.491,991.0,9.0,36.0,991.6945094130552,1,1,1,0.0,2.0
2021-08-12 06:19:15.501,1008.0,76.0,33.0,1011.399525410211,1,1,1,0.0,2.0
2021-08-12 06:19:15.512,1059.0,4.0,19.0,1059.1779831548615,1,1,1,0.0,2.0
2021-08-12 06:19:15.521,1017.0,84.0,7.0,1020.4871385764742,1,1,1,0.0,2.0
2021-08-12 06:19:15.530,1008.0,84.0,7.0,1011.5181659268408,1,1,1,0.0,2.0
2021-08-12 06:19:15.531,1008.0,17.0,-8.0,1008.17508400079,1,1,1,0.0,2.0
2021-08-12 06:19:15.540,983.0,17.0,-8.0,983.1795359953338,1,1,1,0.0,2.0
2021-08-12 06:19:15.541,983.0,49.0,-5.0,984.2332040730996,1,1,1,0.0,2.0
2021-08-12 06:19:15.550,962.0,160.0,-6.0,975.2333054197852,1,1,1,0.0,2.0
2021-08-12 06:19:15.560,988.0,128.0,18.0,996.4195903333092,1,1,1,0.0,2.0
2021-08-12 06:19:15.570,1041.0,63.0,14.0,1042.9985618398523,1,1,1,0.0,2.0
2021-08-12 06:19:15.580,1022.0,0.0,24.0,1022.2817615510902,1,1,1,0.0,2.0
2021-08-12 06:19:15.589,1015.0,0.0,24.0,1015.2837041930694,1,1,1,0.0,2.0
2021-08-12 06:19:15.590,1015.0,28.0,39.0,1016.1348335727891,1,1,1,0.0,2.0
2021-08-12 06:19:15.598,1018.0,28.0,39.0,1019.1314929880244,1,1,1,0.0,2.0
2021-08-12 06:19:15.599,1018.0,53.0,24.0,1019.6612182484926,1,1,1,0.0,2.0
2021-08-12 06:19:15.608,1045.0,62.0,25.0,1047.1360943067525,1,1,1,0.0,2.0
2021-08-12 06:19:15.618,1048.0,63.0,15.0,1049.9990476186158,1,1,1,0.0,2.0
2021-08-12 06:19:15.629,999.0,-8.0,-1.0,999.0325320028372,1,1,1,0.0,2.0
2021-08-12 06:19:15.637,993.0,33.0,-2.0,993.5502000402396,1,1,1,0.0,2.0
2021-08-12 06:19:15.648,961.0,179.0,-12.0,977.6021685736996,1,1,1,0.0,2.0
2021-08-12 06:19:15.658,1032.0,52.0,-8.0,1033.3402150308484,1,1,1,0.0,2.0
2021-08-12 06:19:15.667,1033.0,58.0,-8.0,1034.6579144818832,1,1,1,0.0,2.0
2021-08-12 06:19:15.668,1033.0,58.0,10.0,1034.6753113900031,1,1,1,0.0,2.0
2021-08-12 06:19:15.676,1014.0,-41.0,15.0,1014.939407058372,1,1,1,0.0,2.0
2021-08-12 06:19:15.688,986.0,63.0,44.0,988.9898887248544,1,1,1,0.0,2.0
2021-08-12 06:19:15.697,1037.0,54.0,24.0,1038.6823383498922,1,1,1,0.0,2.0
2021-08-12 06:19:15.708,1026.0,-61.0,4.0,1027.8195366891991,1,1,1,0.0,2.0
2021-08-12 06:19:15.716,1024.0,-68.0,14.0,1026.350817216024,1,1,1,0.0,2.0
2021-08-12 06:19:15.726,989.0,-3.0,2.0,989.00657227341,1,1,1,0.0,2.0
2021-08-12 06:19:15.737,1008.0,12.0,-4.0,1008.0793619551984,1,1,1,0.0,2.0
2021-08-12 06:19:15.746,976.0,160.0,-6.0,989.0460049967344,1,1,1,0.0,2.0
2021-08-12 06:19:15.755,1037.0,41.0,-19.0,1037.9841039245257,1,1,1,0.0,2.0
2021-08-12 06:19:15.765,988.0,94.0,0.0,992.4615861583762,1,1,1,0.0,2.0
2021-08-12 06:19:15.774,969.0,128.0,5.0,977.4303044207296,1,1,1,0.0,2.0
2021-08-12 06:19:15.784,985.0,85.0,5.0,988.6733535399848,1,1,1,0.0,2.0
2021-08-12 06:19:15.785,985.0,85.0,51.0,989.9752522159328,1,1,1,0.0,2.0
2021-08-12 06:19:15.795,1039.0,68.0,21.0,1041.4345874801738,1,1,1,0.0,2.0
2021-08-12 06:19:15.809,1024.0,54.0,22.0,1025.6588126662784,1,1,1,0.0,2.0
2021-08-12 06:19:15.814,1016.0,-30.0,7.0,1016.4669202684364,1,1,1,0.0,2.0
2021-08-12 06:19:15.823,994.0,-30.0,7.0,994.4772496140874,1,1,1,0.0,2.0
2021-08-12 06:19:15.824,994.0,20.0,21.0,994.4229482468714,1,1,1,0.0,2.0
2021-08-12 06:19:15.834,1001.0,30.0,-16.0,1001.5772561315478,1,1,1,0.0,2.0
2021-08-12 06:19:15.842,988.0,141.0,-2.0,998.0125249715056,1,1,1,0.0,2.0
2021-08-12 06:19:15.853,1035.0,32.0,-12.0,1035.564097485037,1,1,1,0.0,2.0
2021-08-12 06:19:15.863,975.0,84.0,-8.0,978.6444706838128,1,1,1,0.0,2.0
2021-08-12 06:19:15.873,980.0,129.0,15.0,988.5676506946804,1,1,1,0.0,2.0
2021-08-12 06:19:15.882,991.0,87.0,37.0,995.4993721745884,1,1,1,0.0,2.0
2021-08-12 06:19:15.893,1034.0,85.0,17.0,1037.6271006483976,1,1,1,0.0,2.0
2021-08-12 06:19:15.901,1030.0,40.0,17.0,1030.916582464362,1,1,1,0.0,2.0
2021-08-12 06:19:15.902,1030.0,40.0,16.0,1030.900577165422,1,1,1,0.0,2.0
2021-08-12 06:19:15.911,1012.0,-29.0,30.0,1012.8598126098202,1,1,1,0.0,2.0
2021-08-12 06:19:15.923,1000.0,-29.0,30.0,1000.870121444336,1,1,1,0.0,2.0
2021-08-12 06:19:15.924,1000.0,20.0,27.0,1000.5643407597536,1,1,1,0.0,2.0
2021-08-12 06:19:15.931,1064.0,25.0,34.0,1064.8366071844075,1,1,1,0.0,2.0
2021-08-12 06:19:15.940,1000.0,142.0,-16.0,1010.1584034199784,1,1,1,0.0,2.0
2021-08-12 06:19:15.950,1033.0,35.0,-16.0,1033.7165955908806,1,1,1,0.0,2.0
2021-08-12 06:19:15.961,981.0,78.0,-10.0,984.1468386374056,1,1,1,0.0,2.0
2021-08-12 06:19:15.969,982.0,78.0,-10.0,985.1436443483764,1,1,1,0.0,2.0
2021-08-12 06:19:15.970,982.0,97.0,0.0,986.7791039538688,1,1,1,0.0,2.0
2021-08-12 06:19:15.980,1028.0,84.0,-4.0,1031.4339532902725,1,1,1,0.0,2.0
2021-08-12 06:19:15.989,1003.0,71.0,-4.0,1005.5177770681132,1,1,1,0.0,2.0
2021-08-12 06:19:15.990,1003.0,71.0,-13.0,1005.5938543964954,1,1,1,0.0,2.0
2021-08-12 06:19:16.000,1032.0,43.0,18.0,1033.0522736047774,1,1,1,0.0,2.0
2021-08-12 06:19:16.009,1016.0,1.0,29.0,1016.4142856138928,1,1,1,0.0,2.0
2021-08-12 06:19:16.018,996.0,1.0,29.0,996.4226011085858,1,1,1,0.0,2.0
2021-08-12 06:19:16.019,996.0,28.0,13.0,996.4782988103656,1,1,1,0.0,2.0
2021-08-12 06:19:16.029,1070.0,27.0,32.0,1070.8188455569878,1,1,1,0.0,2.0
2021-08-12 06:19:16.037,1046.0,-39.0,32.0,1047.215832577029,1,1,1,0.0,2.0
2021-08-12 06:19:16.038,1046.0,-39.0,20.0,1046.917857331701,1,1,1,0.0,2.0
2021-08-12 06:19:16.049,1016.0,22.0,-16.0,1016.3641079849288,1,1,1,0.0,2.0
2021-08-12 06:19:16.058,990.0,47.0,0.0,991.1150286419836,1,1,1,0.0,2.0
2021-08-12 06:19:16.067,967.0,47.0,0.0,968.1415185808324,1,1,1,0.0,2.0
2021-08-12 06:19:16.068,967.0,118.0,4.0,974.1811946450208,1,1,1,0.0,2.0
2021-08-12 06:19:16.077,1038.0,71.0,-4.0,1040.433082903461,1,1,1,0.0,2.0
2021-08-12 06:19:16.087,986.0,86.0,-15.0,989.8570603880138,1,1,1,0.0,2.0
2021-08-12 06:19:16.096,1002.0,-24.0,-4.0,1002.2953656482704,1,1,1,0.0,2.0
2021-08-12 06:19:16.106,1005.0,-1.0,34.0,1005.5754571388464,1,1,1,0.0,2.0
2021-08-12 06:19:16.116,1012.0,38.0,26.0,1013.0468893392842,1,1,1,0.0,2.0
2021-08-12 06:19:16.126,1066.0,51.0,30.0,1067.6408572174446,1,1,1,0.0,2.0
2021-08-12 06:19:16.136,1053.0,-61.0,24.0,1055.038387927188,1,1,1,0.0,2.0
2021-08-12 06:19:16.146,975.0,35.0,30.0,976.089135274028,1,1,1,0.0,2.0
2021-08-12 06:19:16.156,1044.0,44.0,30.0,1045.3573551661652,1,1,1,0.0,2.0
2021-08-12 06:19:16.157,1044.0,44.0,20.0,1045.11817513619,1,1,1,0.0,2.0
2021-08-12 06:19:16.166,976.0,157.0,-3.0,988.551465529236,1,1,1,0.0,2.0
2021-08-12 06:19:16.185,1038.0,71.0,-10.0,1040.4734499255617,1,1,1,0.0,2.0
2021-08-12 06:19:16.208,986.0,-3.0,-10.0,986.05527228447,1,1,1,0.0,2.0
2021-08-12 06:19:16.209,986.0,-3.0,-18.0,986.1688496398576,1,1,1,0.0,2.0
2021-08-12 06:19:16.210,993.0,91.0,17.0,997.3058708340184,1,1,1,0.0,2.0
2021-08-12 06:19:16.214,1017.0,55.0,24.0,1018.7688648560083,1,1,1,0.0,2.0
2021-08-12 06:19:16.223,1042.0,55.0,24.0,1043.7264967413637,1,1,1,0.0,2.0
2021-08-12 06:19:16.224,1042.0,65.0,20.0,1044.2169314850244,1,1,1,0.0,2.0
2021-08-12 06:19:16.233,1028.0,-81.0,16.0,1031.310331568534,1,1,1,0.0,2.0
2021-08-12 06:19:16.243,990.0,0.0,20.0,990.2019995940224,1,1,1,0.0,2.0
2021-08-12 06:19:16.260,1034.0,46.0,12.0,1035.092266418796,1,1,1,0.0,2.0
2021-08-12 06:19:16.264,1044.0,69.0,14.0,1046.3713489961392,1,1,1,0.0,2.0
2021-08-12 06:19:16.272,1052.0,62.0,-6.0,1053.8424929751125,1,1,1,0.0,2.0
2021-08-12 06:19:16.284,990.0,84.0,-13.0,993.6422897602536,1,1,1,0.0,2.0
2021-08-12 06:19:16.294,993.0,19.0,-13.0,993.2668322258628,1,1,1,0.0,2.0
2021-08-12 06:19:16.307,1001.0,99.0,13.0,1005.9676933182296,1,1,1,0.0,2.0
2021-08-12 06:19:16.311,1019.0,99.0,13.0,1023.8803641051038,1,1,1,0.0,2.0
2021-08-12 06:19:16.312,1019.0,70.0,4.0,1021.4093204979088,1,1,1,0.0,2.0
2021-08-12 06:19:16.322,1046.0,46.0,21.0,1047.221562039285,1,1,1,0.0,2.0
2021-08-12 06:19:16.331,1024.0,-83.0,8.0,1027.3894101069957,1,1,1,0.0,2.0
2021-08-12 06:19:16.342,992.0,50.0,20.0,993.4606182431188,1,1,1,0.0,2.0
2021-08-12 06:19:16.350,1047.0,50.0,20.0,1048.3839945363532,1,1,1,0.0,2.0
2021-08-12 06:19:16.351,1047.0,28.0,20.0,1047.5652724293604,1,1,1,0.0,2.0
2021-08-12 06:19:16.360,1049.0,29.0,29.0,1049.8014097913947,1,1,1,0.0,2.0
2021-08-12 06:19:16.370,990.0,-12.0,2.0,990.07474465315,1,1,1,0.0,2.0
2021-08-12 06:19:16.380,987.0,101.0,-2.0,992.1562376964628,1,1,1,0.0,2.0
2021-08-12 06:19:16.392,973.0,70.0,10.0,975.565989567082,1,1,1,0.0,2.0
2021-08-12 06:19:16.400,1006.0,101.0,6.0,1011.0751703013976,1,1,1,0.0,2.0
2021-08-12 06:19:16.409,1011.0,54.0,-9.0,1012.4811109349153,1,1,1,0.0,2.0
2021-08-12 06:19:16.419,1052.0,-89.0,1.0,1055.758495111453,1,1,1,0.0,2.0
2021-08-12 06:19:16.428,1016.0,-85.0,-2.0,1019.551371927869,1,1,1,0.0,2.0
2021-08-12 06:19:16.439,997.0,23.0,29.0,997.6868246098072,1,1,1,0.0,2.0
2021-08-12 06:19:16.448,1045.0,30.0,25.0,1045.7294105073263,1,1,1,0.0,2.0
2021-08-12 06:19:16.458,1068.0,-23.0,25.0,1068.540125591922,1,1,1,0.0,2.0
2021-08-12 06:19:16.468,973.0,20.0,4.0,973.2137483615816,1,1,1,0.0,2.0
2021-08-12 06:19:16.478,1001.0,20.0,-13.0,1001.2841754467112,1,1,1,0.0,2.0
2021-08-12 06:19:16.488,971.0,130.0,14.0,979.7637470329264,1,1,1,0.0,2.0
2021-08-12 06:19:16.499,995.0,99.0,-4.0,999.9209968792536,1,1,1,0.0,2.0
2021-08-12 06:19:16.509,1030.0,47.0,-4.0,1031.079531365064,1,1,1,0.0,2.0
2021-08-12 06:19:16.510,1030.0,47.0,-11.0,1031.1304476156254,1,1,1,0.0,2.0
2021-08-12 06:19:16.517,1019.0,-78.0,-2.0,1021.9828765688789,1,1,1,0.0,2.0
2021-08-12 06:19:16.526,976.0,85.0,46.0,980.7736741980792,1,1,1,0.0,2.0
2021-08-12 06:19:16.537,1060.0,85.0,46.0,1064.39701239716,1,1,1,0.0,2.0
2021-08-12 06:19:16.538,1060.0,77.0,27.0,1063.1359273394912,1,1,1,0.0,2.0
2021-08-12 06:19:16.547,1065.0,77.0,27.0,1068.121247799144,1,1,1,0.0,2.0
2021-08-12 06:19:16.548,1065.0,31.0,28.0,1065.818933965803,1,1,1,0.0,2.0
2021-08-12 06:19:16.556,1061.0,-19.0,22.0,1061.3981345376485,1,1,1,0.0,2.0
2021-08-12 06:19:16.565,976.0,2.0,9.0,976.04354411061,1,1,1,0.0,2.0
2021-08-12 06:19:16.575,1000.0,11.0,-6.0,1000.0784969191168,1,1,1,0.0,2.0
2021-08-12 06:19:16.584,988.0,11.0,-6.0,988.0794502467908,1,1,1,0.0,2.0
2021-08-12 06:19:16.585,988.0,142.0,-20.0,998.3526431076344,1,1,1,0.0,2.0
2021-08-12 06:19:16.595,1037.0,142.0,-20.0,1046.868186544992,1,1,1,0.0,2.0
2021-08-12 06:19:16.596,1037.0,40.0,-26.0,1038.0968162941258,1,1,1,0.0,2.0
2021-08-12 06:19:16.605,1012.0,45.0,-18.0,1013.159908405381,1,1,1,0.0,2.0
2021-08-12 06:19:16.614,1016.0,-56.0,4.0,1017.5499987715592,1,1,1,0.0,2.0
2021-08-12 06:19:16.624,1002.0,96.0,41.0,1007.4229499073366,1,1,1,0.0,2.0
2021-08-12 06:19:16.634,1047.0,86.0,21.0,1050.7359325729751,1,1,1,0.0,2.0
2021-08-12 06:19:16.644,1037.0,48.0,13.0,1038.1916971349751,1,1,1,0.0,2.0
2021-08-12 06:19:16.654,1056.0,-24.0,23.0,1056.523071210468,1,1,1,0.0,2.0
2021-08-12 06:19:16.663,989.0,1.0,20.0,989.202709256298,1,1,1,0.0,2.0
2021-08-12 06:19:16.673,1002.0,21.0,7.0,1002.2444811521788,1,1,1,0.0,2.0
2021-08-12 06:19:16.682,996.0,21.0,7.0,996.245953567692,1,1,1,0.0,2.0
2021-08-12 06:19:16.683,996.0,140.0,-15.0,1005.9030768418992,1,1,1,0.0,2.0
2021-08-12 06:19:16.694,1025.0,24.0,-33.0,1025.8118735908647,1,1,1,0.0,2.0
2021-08-12 06:19:16.703,1003.0,50.0,-14.0,1004.3430688763676,1,1,1,0.0,2.0
2021-08-12 06:19:16.713,1007.0,-60.0,-14.0,1008.8830457491096,1,1,1,0.0,2.0
2021-08-12 06:19:16.714,1007.0,-60.0,0.0,1008.7859039459264,1,1,1,0.0,2.0
2021-08-12 06:19:16.746,988.0,55.0,25.0,989.8454424807944,1,1,1,0.0,2.0
2021-08-12 06:19:16.747,1046.0,69.0,38.0,1048.9618677530657,1,1,1,0.0,2.0
2021-08-12 06:19:16.756,1010.0,-5.0,38.0,1010.726966099154,1,1,1,0.0,2.0
2021-08-12 06:19:16.774,996.0,40.0,21.0,997.0240719260494,1,1,1,0.0,2.0
2021-08-12 06:19:16.782,1011.0,117.0,-15.0,1017.858045112382,1,1,1,0.0,2.0
2021-08-12 06:19:16.790,1010.0,25.0,-14.0,1010.4063538992616,1,1,1,0.0,2.0
2021-08-12 06:19:16.800,1006.0,54.0,4.0,1007.4562025219756,1,1,1,0.0,2.0
2021-08-12 06:19:16.809,955.0,54.0,4.0,956.5338467613155,1,1,1,0.0,2.0
2021-08-12 06:19:16.810,955.0,124.0,0.0,963.0166146022613,1,1,1,0.0,2.0
2021-08-12 06:19:16.826,993.0,98.0,18.0,997.9864728542166,1,1,1,0.0,2.0
2021-08-12 06:19:16.831,1050.0,92.0,15.0,1054.1294986860012,1,1,1,0.0,2.0
2021-08-12 06:19:16.839,1021.0,23.0,8.0,1021.2903602795828,1,1,1,0.0,2.0
2021-08-12 06:19:16.850,989.0,2.0,26.0,989.3437218681888,1,1,1,0.0,2.0
2021-08-12 06:19:16.860,1025.0,39.0,28.0,1026.1237742104995,1,1,1,0.0,2.0
2021-08-12 06:19:16.868,1030.0,39.0,28.0,1031.118324926873,1,1,1,0.0,2.0
2021-08-12 06:19:16.869,1030.0,34.0,19.0,1030.7361447043563,1,1,1,0.0,2.0
2021-08-12 06:19:16.878,1031.0,97.0,0.0,1035.5529923668803,1,1,1,0.0,2.0
2021-08-12 06:19:16.888,1001.0,21.0,-8.0,1001.2522159775727,1,1,1,0.0,2.0
2021-08-12 06:19:16.897,993.0,39.0,0.0,993.765565915825,1,1,1,0.0,2.0
2021-08-12 06:19:16.908,957.0,39.0,0.0,957.7943411818636,1,1,1,0.0,2.0
2021-08-12 06:19:16.909,957.0,172.0,6.0,972.3523024089571,1,1,1,0.0,2.0
2021-08-12 06:19:16.918,1047.0,60.0,-14.0,1048.811231823916,1,1,1,0.0,2.0
2021-08-12 06:19:16.927,1056.0,71.0,17.0,1058.5206658351078,1,1,1,0.0,2.0
2021-08-12 06:19:16.936,1016.0,-13.0,17.0,1016.2253687051904,1,1,1,0.0,2.0
2021-08-12 06:19:16.937,1016.0,-13.0,26.0,1016.4157613890096,1,1,1,0.0,2.0
2021-08-12 06:19:16.947,1011.0,10.0,48.0,1012.1882236027052,1,1,1,0.0,2.0
2021-08-12 06:19:16.957,1026.0,39.0,20.0,1026.935733140103,1,1,1,0.0,2.0
2021-08-12 06:19:16.966,1059.0,62.0,21.0,1061.021206197124,1,1,1,0.0,2.0
2021-08-12 06:19:16.976,1051.0,-87.0,-2.0,1054.5966053425357,1,1,1,0.0,2.0
2021-08-12 06:19:16.985,1019.0,-27.0,-7.0,1019.381675330688,1,1,1,0.0,2.0
2021-08-12 06:19:16.995,961.0,29.0,-12.0,961.5123504146997,1,1,1,0.0,2.0
2021-08-12 06:19:17.006,957.0,190.0,10.0,975.7299831408276,1,1,1,0.0,2.0
2021-08-12 06:19:17.015,1040.0,190.0,10.0,1057.2606112023657,1,1,1,0.0,2.0
2021-08-12 06:19:17.016,1040.0,34.0,-10.0,1040.603670952587,1,1,1,0.0,2.0
2021-08-12 06:19:17.025,989.0,114.0,-6.0,995.566672804991,1,1,1,0.0,2.0
2021-08-12 06:19:17.034,1016.0,-40.0,14.0,1016.883474150308,1,1,1,0.0,2.0
2021-08-12 06:19:17.044,1009.0,-40.0,14.0,1009.8895979264267,1,1,1,0.0,2.0
2021-08-12 06:19:17.045,1009.0,39.0,44.0,1010.711630486164,1,1,1,0.0,2.0
2021-08-12 06:19:17.053,1026.0,48.0,19.0,1027.2979120002142,1,1,1,0.0,2.0
2021-08-12 06:19:17.063,1031.0,48.0,16.0,1032.2407664881289,1,1,1,0.0,2.0
2021-08-12 06:19:17.073,1014.0,-103.0,16.0,1019.3434161262828,1,1,1,0.0,2.0
2021-08-12 06:19:17.074,1014.0,-103.0,-10.0,1019.2668934091796,1,1,1,0.0,2.0
2021-08-12 06:19:17.083,991.0,-20.0,3.0,991.206335734392,1,1,1,0.0,2.0
2021-08-12 06:19:17.093,991.0,-1.0,7.0,991.025226722307,1,1,1,0.0,2.0
2021-08-12 06:19:17.103,970.0,216.0,10.0,993.808834736339,1,1,1,0.0,2.0
2021-08-12 06:19:17.113,1053.0,20.0,-15.0,1053.2967293217994,1,1,1,0.0,2.0
2021-08-12 06:19:17.123,989.0,109.0,1.0,994.9889446622008,1,1,1,0.0,2.0
2021-08-12 06:19:17.132,962.0,134.0,15.0,971.4036236292308,1,1,1,0.0,2.0
2021-08-12 06:19:17.141,999.0,134.0,15.0,1008.0585300467428,1,1,1,0.0,2.0
2021-08-12 06:19:17.142,999.0,92.0,58.0,1004.9024828310456,1,1,1,0.0,2.0
2021-08-12 06:19:17.152,1046.0,58.0,32.0,1048.0954155037605,1,1,1,0.0,2.0
2021-08-12 06:19:17.162,1031.0,72.0,15.0,1033.6198527505169,1,1,1,0.0,2.0
2021-08-12 06:19:17.172,1005.0,-52.0,4.0,1006.3523239899632,1,1,1,0.0,2.0
2021-08-12 06:19:17.181,989.0,32.0,34.0,990.1015099473386,1,1,1,0.0,2.0
2021-08-12 06:19:17.200,997.0,12.0,-17.0,997.2171278111904,1,1,1,0.0,2.0
2021-08-12 06:19:17.223,1045.0,35.0,-19.0,1045.75857634542,1,1,1,0.0,2.0
2021-08-12 06:19:17.225,979.0,81.0,-2.0,982.3471891342692,1,1,1,0.0,2.0
2021-08-12 06:19:17.231,979.0,121.0,23.0,986.7172847376294,1,1,1,0.0,2.0
2021-08-12 06:19:17.239,1008.0,79.0,-9.0,1011.1310498644576,1,1,1,0.0,2.0
2021-08-12 06:19:17.250,1051.0,70.0,13.0,1053.4087525742325,1,1,1,0.0,2.0
2021-08-12 06:19:17.259,1032.0,33.0,24.0,1032.806371010559,1,1,1,0.0,2.0
2021-08-12 06:19:17.278,1011.0,-39.0,0.0,1011.7519458839702,1,1,1,0.0,2.0
2021-08-12 06:19:17.280,986.0,29.0,39.0,987.1970421349528,1,1,1,0.0,2.0
2021-08-12 06:19:17.289,1070.0,55.0,35.0,1071.984141673747,1,1,1,0.0,2.0
2021-08-12 06:19:17.298,1032.0,-35.0,10.0,1032.6417578231087,1,1,1,0.0,2.0
2021-08-12 06:19:17.308,1046.0,50.0,-25.0,1047.4927207384308,1,1,1,0.0,2.0
2021-08-12 06:19:17.318,989.0,70.0,13.0,991.559377949702,1,1,1,0.0,2.0
2021-08-12 06:19:17.327,963.0,135.0,16.0,972.5481993197046,1,1,1,0.0,2.0
2021-08-12 06:19:17.336,1014.0,59.0,16.0,1015.8410308704804,1,1,1,0.0,2.0
2021-08-12 06:19:17.337,1014.0,59.0,-8.0,1015.74652349885,1,1,1,0.0,2.0
2021-08-12 06:19:17.351,1003.0,68.0,-14.0,1005.3999204296766,1,1,1,0.0,2.0
2021-08-12 06:19:17.357,1038.0,34.0,7.0,1038.5802809605043,1,1,1,0.0,2.0
2021-08-12 06:19:17.367,998.0,-8.0,15.0,998.1447790776648,1,1,1,0.0,2.0
2021-08-12 06:19:17.376,1018.0,3.0,18.0,1018.1635428554688,1,1,1,0.0,2.0
2021-08-12 06:19:17.385,1034.0,3.0,18.0,1034.1610126087717,1,1,1,0.0,2.0
2021-08-12 06:19:17.386,1034.0,-106.0,2.0,1039.4209926685144,1,1,1,0.0,2.0
2021-08-12 06:19:17.395,1031.0,56.0,40.0,1033.294246572582,1,1,1,0.0,2.0
2021-08-12 06:19:17.405,994.0,22.0,-6.0,994.261535009778,1,1,1,0.0,2.0
2021-08-12 06:19:17.416,1013.0,83.0,0.0,1016.394608407581,1,1,1,0.0,2.0
2021-08-12 06:19:17.425,1001.0,16.0,-22.0,1001.369562149759,1,1,1,0.0,2.0
2021-08-12 06:19:17.434,989.0,16.0,-22.0,989.3740445352304,1,1,1,0.0,2.0
2021-08-12 06:19:17.435,989.0,80.0,-3.0,992.2348512323078,1,1,1,0.0,2.0
2021-08-12 06:19:17.445,1011.0,58.0,-7.0,1012.686526028662,1,1,1,0.0,2.0
2021-08-12 06:19:17.455,1012.0,43.0,-5.0,1012.9254661622444,1,1,1,0.0,2.0
2021-08-12 06:19:17.464,1011.0,38.0,21.0,1011.931815884845,1,1,1,0.0,2.0
2021-08-12 06:19:17.474,1028.0,31.0,22.0,1028.7025809241463,1,1,1,0.0,2.0
2021-08-12 06:19:17.483,984.0,26.0,14.0,984.442989715504,1,1,1,0.0,2.0
2021-08-12 06:19:17.493,1038.0,42.0,14.0,1038.943694335742,1,1,1,0.0,2.0
2021-08-12 06:19:17.494,1038.0,42.0,43.0,1039.7389095345045,1,1,1,0.0,2.0
2021-08-12 06:19:17.504,1012.0,34.0,4.0,1012.5788858158164,1,1,1,0.0,2.0
2021-08-12 06:19:17.513,1021.0,39.0,45.0,1022.7350585562226,1,1,1,0.0,2.0
2021-08-12 06:19:17.523,1028.0,44.0,15.0,1029.050533258693,1,1,1,0.0,2.0
2021-08-12 06:19:17.532,1006.0,41.0,8.0,1006.8669226864096,1,1,1,0.0,2.0
2021-08-12 06:19:17.542,1012.0,48.0,11.0,1013.1974141301388,1,1,1,0.0,2.0
2021-08-12 06:19:17.555,1010.0,48.0,11.0,1011.1997824366856,1,1,1,0.0,2.0
2021-08-12 06:19:17.556,1010.0,56.0,16.0,1011.6778143262804,1,1,1,0.0,2.0
2021-08-12 06:19:17.562,1015.0,23.0,5.0,1015.2728697251788,1,1,1,0.0,2.0
2021-08-12 06:19:17.572,1013.0,47.0,24.0,1014.3736983971932,1,1,1,0.0,2.0
2021-08-12 06:19:17.581,1017.0,33.0,9.0,1017.5750586566083,1,1,1,0.0,2.0
2021-08-12 06:19:17.591,1016.0,53.0,10.0,1017.4305873129626,1,1,1,0.0,2.0
2021-08-12 06:19:17.601,1014.0,42.0,12.0,1014.9403923383876,1,1,1,0.0,2.0
2021-08-12 06:19:17.611,1000.0,57.0,1.0,1001.6236818286596,1,1,1,0.0,2.0
2021-08-12 06:19:17.620,1016.0,50.0,11.0,1017.289044470646,1,1,1,0.0,2.0
2021-08-12 06:19:17.630,1006.0,53.0,9.0,1007.4353577277304,1,1,1,0.0,2.0
2021-08-12 06:19:17.640,1016.0,52.0,7.0,1017.3539207178592,1,1,1,0.0,2.0
2021-08-12 06:19:17.649,1008.0,43.0,19.0,1009.0956347145697,1,1,1,0.0,2.0
2021-08-12 06:19:17.660,1019.0,40.0,6.0,1019.8024318464828,1,1,1,0.0,2.0
2021-08-12 06:19:17.669,999.0,42.0,14.0,999.9804998098712,1,1,1,0.0,2.0
2021-08-12 06:19:17.679,1010.0,42.0,14.0,1010.969831399533,1,1,1,0.0,2.0
2021-08-12 06:19:17.680,1010.0,42.0,3.0,1010.8773417185688,1,1,1,0.0,2.0
2021-08-12 06:19:17.688,1006.0,38.0,3.0,1006.7219079765772,1,1,1,0.0,2.0
2021-08-12 06:19:17.689,1006.0,38.0,9.0,1006.7576669685708,1,1,1,0.0,2.0
2021-08-12 06:19:17.698,1026.0,48.0,20.0,1027.3168936603738,1,1,1,0.0,2.0
2021-08-12 06:19:17.710,1010.0,13.0,5.0,1010.0960350382531,1,1,1,0.0,2.0
2021-08-12 06:19:17.718,992.0,34.0,8.0,992.614728885281,1,1,1,0.0,2.0
