time_stamp,Acceleration_X,Acceleration_Y,Acceleration_Z,magnitude,STD_Status_right,STD_Status_left,STD_Status_both,KMeans,KMeans_convert
2021-09-27 07:16:25.364,1023.0,104.0,14.0,1028.3681247491097,1,1,1,3.0,2.0
2021-09-27 07:16:25.373,974.0,-71.0,14.0,976.6846983545918,1,1,1,3.0,2.0
2021-09-27 07:16:25.374,974.0,-71.0,-1.0,976.584865743884,1,1,1,3.0,2.0
2021-09-27 07:16:25.395,1001.0,-48.0,-1.0,1002.1506872721288,1,1,1,3.0,2.0
2021-09-27 07:16:25.396,1003.0,-48.0,31.0,1004.6262986802606,1,1,1,3.0,2.0
2021-09-27 07:16:25.397,1003.0,-168.0,40.0,1017.7588122929716,1,1,1,3.0,2.0
2021-09-27 07:16:25.403,965.0,20.0,5.0,965.2201821346256,1,1,1,3.0,2.0
2021-09-27 07:16:25.412,1094.0,20.0,5.0,1094.1942240754151,1,1,1,3.0,2.0
2021-09-27 07:16:25.413,1094.0,80.0,32.0,1097.387807477375,1,1,1,3.0,2.0
2021-09-27 07:16:25.422,1006.0,23.0,-9.0,1006.303135243054,1,1,1,3.0,2.0
2021-09-27 07:16:25.432,966.0,0.0,17.0,966.1495743413648,1,1,1,3.0,2.0
2021-09-27 07:16:25.442,1007.0,0.0,17.0,1007.1434853088214,1,1,1,3.0,2.0
2021-09-27 07:16:25.443,1007.0,-74.0,20.0,1009.9133626207744,1,1,1,3.0,2.0
2021-09-27 07:16:25.452,991.0,-74.0,20.0,993.9602607750472,1,1,1,3.0,2.0
2021-09-27 07:16:25.453,991.0,40.0,10.0,991.8573486142049,1,1,1,3.0,2.0
2021-09-27 07:16:25.461,1042.0,101.0,0.0,1046.8834701149883,1,1,1,3.0,2.0
2021-09-27 07:16:25.471,1048.0,-68.0,17.0,1050.341373078296,1,1,1,3.0,2.0
2021-09-27 07:16:25.481,967.0,-63.0,18.0,969.2172099173642,1,1,1,3.0,2.0
2021-09-27 07:16:25.491,983.0,115.0,-11.0,989.7651236530816,1,1,1,3.0,2.0
2021-09-27 07:16:25.502,1008.0,56.0,28.0,1009.9425726248004,1,1,1,3.0,2.0
2021-09-27 07:16:25.510,1074.0,96.0,28.0,1078.645446845255,1,1,1,3.0,2.0
2021-09-27 07:16:25.511,1074.0,96.0,8.0,1078.311643264599,1,1,1,3.0,2.0
2021-09-27 07:16:25.520,1022.0,-17.0,4.0,1022.1492063294868,1,1,1,3.0,2.0
2021-09-27 07:16:25.530,974.0,-27.0,18.0,974.5404044984488,1,1,1,3.0,2.0
2021-09-27 07:16:25.539,988.0,101.0,18.0,993.3121362391582,1,1,1,3.0,2.0
2021-09-27 07:16:25.540,988.0,101.0,-11.0,993.2099475941628,1,1,1,3.0,2.0
2021-09-27 07:16:25.550,1015.0,101.0,-11.0,1020.0720562783788,1,1,1,3.0,2.0
2021-09-27 07:16:25.551,1015.0,58.0,16.0,1016.7816874826178,1,1,1,3.0,2.0
2021-09-27 07:16:25.559,1069.0,81.0,6.0,1072.0811536446297,1,1,1,3.0,2.0
2021-09-27 07:16:25.569,1027.0,-55.0,-7.0,1028.495503150111,1,1,1,3.0,2.0
2021-09-27 07:16:25.583,969.0,13.0,30.0,969.5514426785204,1,1,1,3.0,2.0
2021-09-27 07:16:25.590,985.0,45.0,-12.0,986.1004005678124,1,1,1,3.0,2.0
2021-09-27 07:16:25.598,1008.0,12.0,10.0,1008.121024480692,1,1,1,3.0,2.0
2021-09-27 07:16:25.608,1057.0,37.0,-9.0,1057.6856810981228,1,1,1,3.0,2.0
2021-09-27 07:16:25.617,1047.0,37.0,-9.0,1047.692225799161,1,1,1,3.0,2.0
2021-09-27 07:16:25.618,1047.0,16.0,12.0,1047.191004545016,1,1,1,3.0,2.0
2021-09-27 07:16:25.628,1030.0,13.0,22.0,1030.3169415281882,1,1,1,3.0,2.0
2021-09-27 07:16:25.637,989.0,92.0,-14.0,993.3685116813398,1,1,1,3.0,2.0
2021-09-27 07:16:25.647,1026.0,63.0,12.0,1028.0024319037382,1,1,1,3.0,2.0
2021-09-27 07:16:25.657,1074.0,-24.0,0.0,1074.2681229562756,1,1,1,3.0,2.0
2021-09-27 07:16:25.666,1054.0,-95.0,0.0,1058.27264917884,1,1,1,3.0,2.0
2021-09-27 07:16:25.667,1054.0,-95.0,-8.0,1058.302886701156,1,1,1,3.0,2.0
2021-09-27 07:16:25.679,987.0,11.0,29.0,987.4872151071122,1,1,1,3.0,2.0
2021-09-27 07:16:25.686,1007.0,97.0,29.0,1012.076578130331,1,1,1,3.0,2.0
2021-09-27 07:16:25.687,1007.0,97.0,-20.0,1011.858685785718,1,1,1,3.0,2.0
2021-09-27 07:16:25.696,1040.0,127.0,-6.0,1047.7428119533915,1,1,1,3.0,2.0
2021-09-27 07:16:25.705,1076.0,127.0,-6.0,1083.485579045702,1,1,1,3.0,2.0
2021-09-27 07:16:25.706,1076.0,14.0,-7.0,1076.1138415613843,1,1,1,3.0,2.0
2021-09-27 07:16:25.715,1036.0,-20.0,-7.0,1036.2166761831234,1,1,1,3.0,2.0
2021-09-27 07:16:25.718,1036.0,-20.0,21.0,1036.4058085518432,1,1,1,3.0,2.0
2021-09-27 07:16:25.726,1012.0,19.0,18.0,1012.3383821628024,1,1,1,3.0,2.0
2021-09-27 07:16:25.736,1005.0,86.0,-8.0,1008.7046148402416,1,1,1,3.0,2.0
2021-09-27 07:16:25.744,1029.0,86.0,-8.0,1032.6185162004408,1,1,1,3.0,2.0
2021-09-27 07:16:25.745,1029.0,94.0,-5.0,1033.296666016106,1,1,1,3.0,2.0
2021-09-27 07:16:25.754,971.0,17.0,-5.0,971.1616755206109,1,1,1,3.0,2.0
2021-09-27 07:16:25.755,971.0,17.0,-2.0,971.1508636664028,1,1,1,3.0,2.0
2021-09-27 07:16:25.764,1041.0,-75.0,-2.0,1043.7001485100975,1,1,1,3.0,2.0
2021-09-27 07:16:25.775,1016.0,13.0,15.0,1016.1938791392124,1,1,1,3.0,2.0
2021-09-27 07:16:25.784,1010.0,85.0,4.0,1013.5783146851554,1,1,1,3.0,2.0
2021-09-27 07:16:25.793,1043.0,84.0,4.0,1046.3847284818332,1,1,1,3.0,2.0
2021-09-27 07:16:25.794,1043.0,84.0,-1.0,1046.377560921487,1,1,1,3.0,2.0
2021-09-27 07:16:25.803,987.0,12.0,11.0,987.1342360591086,1,1,1,3.0,2.0
2021-09-27 07:16:25.813,997.0,-149.0,16.0,1008.1993850424628,1,1,1,3.0,2.0
2021-09-27 07:16:25.823,982.0,2.0,20.0,982.2056811075772,1,1,1,3.0,2.0
2021-09-27 07:16:25.841,1040.0,116.0,19.0,1046.6217081639384,1,1,1,3.0,2.0
2021-09-27 07:16:25.843,1057.0,102.0,-7.0,1061.933142904957,1,1,1,3.0,2.0
2021-09-27 07:16:25.852,1022.0,7.0,-4.0,1022.0317998966568,1,1,1,3.0,2.0
2021-09-27 07:16:25.871,1022.0,-165.0,-4.0,1035.2415177145865,1,1,1,3.0,2.0
2021-09-27 07:16:25.872,1022.0,-165.0,35.0,1035.8252748412735,1,1,1,3.0,2.0
2021-09-27 07:16:25.874,956.0,-7.0,10.0,956.0779256943442,1,1,1,3.0,2.0
2021-09-27 07:16:25.881,1038.0,89.0,13.0,1041.8896294713754,1,1,1,3.0,2.0
2021-09-27 07:16:25.891,1045.0,73.0,13.0,1047.6273192314145,1,1,1,3.0,2.0
2021-09-27 07:16:25.892,1045.0,73.0,-18.0,1047.7012933083552,1,1,1,3.0,2.0
2021-09-27 07:16:25.905,981.0,57.0,-14.0,982.7542927914384,1,1,1,3.0,2.0
2021-09-27 07:16:25.910,921.0,57.0,-14.0,922.8683546421992,1,1,1,3.0,2.0
2021-09-27 07:16:25.911,921.0,111.0,19.0,927.8593643435412,1,1,1,3.0,2.0
2021-09-27 07:16:25.920,969.0,-14.0,19.0,969.2873670898636,1,1,1,3.0,2.0
2021-09-27 07:16:25.921,969.0,-14.0,17.0,969.2502256899402,1,1,1,3.0,2.0
2021-09-27 07:16:25.930,1057.0,111.0,9.0,1062.8504128051134,1,1,1,3.0,2.0
2021-09-27 07:16:25.940,1066.0,57.0,-20.0,1067.7101666650926,1,1,1,3.0,2.0
2021-09-27 07:16:25.949,1001.0,57.0,-20.0,1002.8210209204832,1,1,1,3.0,2.0
2021-09-27 07:16:25.950,1001.0,51.0,0.0,1002.2983587734742,1,1,1,3.0,2.0
2021-09-27 07:16:25.960,918.0,51.0,0.0,919.4155752433172,1,1,1,3.0,2.0
2021-09-27 07:16:25.961,918.0,108.0,13.0,924.4225224430656,1,1,1,3.0,2.0
2021-09-27 07:16:25.969,989.0,-1.0,6.0,989.018705586502,1,1,1,3.0,2.0
2021-09-27 07:16:25.979,1111.0,61.0,-8.0,1112.70211647143,1,1,1,3.0,2.0
2021-09-27 07:16:25.989,1044.0,23.0,-8.0,1044.2839652125278,1,1,1,3.0,2.0
2021-09-27 07:16:25.990,1044.0,23.0,-19.0,1044.4261582323568,1,1,1,3.0,2.0
2021-09-27 07:16:25.998,953.0,23.0,-19.0,953.466832144674,1,1,1,3.0,2.0
2021-09-27 07:16:25.999,953.0,42.0,1.0,953.9255736167262,1,1,1,3.0,2.0
2021-09-27 07:16:26.009,916.0,154.0,0.0,928.8552093841106,1,1,1,3.0,2.0
2021-09-27 07:16:26.018,1055.0,102.0,12.0,1059.9872640744322,1,1,1,3.0,2.0
2021-09-27 07:16:26.028,1091.0,113.0,0.0,1096.836359718258,1,1,1,3.0,2.0
2021-09-27 07:16:26.037,1046.0,113.0,0.0,1052.086023098872,1,1,1,3.0,2.0
2021-09-27 07:16:26.038,1046.0,26.0,-16.0,1046.445411858641,1,1,1,3.0,2.0
2021-09-27 07:16:26.047,969.0,-4.0,12.0,969.082555822774,1,1,1,3.0,2.0
2021-09-27 07:16:26.057,915.0,154.0,-21.0,928.1066749032676,1,1,1,3.0,2.0
2021-09-27 07:16:26.067,1044.0,123.0,13.0,1051.3010986392053,1,1,1,3.0,2.0
2021-09-27 07:16:26.077,1072.0,67.0,14.0,1074.1829453123896,1,1,1,3.0,2.0
2021-09-27 07:16:26.086,1041.0,27.0,-9.0,1041.3889763196075,1,1,1,3.0,2.0
2021-09-27 07:16:26.097,968.0,28.0,7.0,968.430173011973,1,1,1,3.0,2.0
2021-09-27 07:16:26.109,937.0,28.0,7.0,937.4443983511768,1,1,1,3.0,2.0
2021-09-27 07:16:26.110,937.0,162.0,-18.0,951.0715009924332,1,1,1,3.0,2.0
2021-09-27 07:16:26.117,1039.0,107.0,-7.0,1044.5185493805268,1,1,1,3.0,2.0
2021-09-27 07:16:26.125,1069.0,107.0,-7.0,1074.3644632991172,1,1,1,3.0,2.0
2021-09-27 07:16:26.126,1069.0,71.0,20.0,1071.54187972286,1,1,1,3.0,2.0
2021-09-27 07:16:26.135,1015.0,12.0,-8.0,1015.1024578829469,1,1,1,3.0,2.0
2021-09-27 07:16:26.145,948.0,12.0,-8.0,948.1096982944536,1,1,1,3.0,2.0
2021-09-27 07:16:26.146,948.0,-2.0,33.0,948.5763016225948,1,1,1,3.0,2.0
2021-09-27 07:16:26.155,935.0,85.0,-5.0,938.8690004468142,1,1,1,3.0,2.0
2021-09-27 07:16:26.165,1051.0,73.0,0.0,1053.532154231659,1,1,1,3.0,2.0
2021-09-27 07:16:26.174,1044.0,-19.0,-11.0,1044.2308173962306,1,1,1,3.0,2.0
2021-09-27 07:16:26.184,1012.0,-11.0,9.0,1012.0997974508246,1,1,1,3.0,2.0
2021-09-27 07:16:26.194,959.0,21.0,27.0,959.6098165400352,1,1,1,3.0,2.0
2021-09-27 07:16:26.203,937.0,21.0,27.0,937.6241251162428,1,1,1,3.0,2.0
2021-09-27 07:16:26.204,937.0,88.0,5.0,941.1365469473598,1,1,1,3.0,2.0
2021-09-27 07:16:26.213,1039.0,74.0,-4.0,1041.6395729809808,1,1,1,3.0,2.0
2021-09-27 07:16:26.224,1022.0,5.0,1.0,1022.012720077397,1,1,1,3.0,2.0
2021-09-27 07:16:26.233,1051.0,-55.0,8.0,1052.46852684534,1,1,1,3.0,2.0
2021-09-27 07:16:26.243,977.0,40.0,22.0,978.0659486967124,1,1,1,3.0,2.0
2021-09-27 07:16:26.253,988.0,78.0,-9.0,991.1150286419836,1,1,1,3.0,2.0
2021-09-27 07:16:26.262,1041.0,91.0,-12.0,1045.038755262215,1,1,1,3.0,2.0
2021-09-27 07:16:26.273,1000.0,11.0,-6.0,1000.0784969191168,1,1,1,3.0,2.0
2021-09-27 07:16:26.281,984.0,11.0,-6.0,984.0797731891456,1,1,1,3.0,2.0
2021-09-27 07:16:26.282,984.0,22.0,24.0,984.5384705535888,1,1,1,3.0,2.0
2021-09-27 07:16:26.291,984.0,27.0,24.0,984.6628864743508,1,1,1,3.0,2.0
2021-09-27 07:16:26.292,984.0,27.0,25.0,984.6877677720994,1,1,1,3.0,2.0
2021-09-27 07:16:26.301,973.0,91.0,25.0,977.5658545591698,1,1,1,3.0,2.0
2021-09-27 07:16:26.302,973.0,91.0,0.0,977.2461307163104,1,1,1,3.0,2.0
2021-09-27 07:16:26.311,1026.0,79.0,-9.0,1029.0762848302354,1,1,1,3.0,2.0
2021-09-27 07:16:26.321,987.0,10.0,-11.0,987.111949071634,1,1,1,3.0,2.0
2021-09-27 07:16:26.330,950.0,10.0,-11.0,950.116308669628,1,1,1,3.0,2.0
2021-09-27 07:16:26.331,950.0,64.0,41.0,953.0356761422944,1,1,1,3.0,2.0
2021-09-27 07:16:26.340,1020.0,31.0,7.0,1020.4949779396272,1,1,1,3.0,2.0
2021-09-27 07:16:26.350,996.0,51.0,-1.0,997.3053694831888,1,1,1,3.0,2.0
2021-09-27 07:16:26.360,998.0,53.0,0.0,999.4063237742696,1,1,1,3.0,2.0
2021-09-27 07:16:26.369,964.0,53.0,0.0,965.4558508808158,1,1,1,3.0,2.0
2021-09-27 07:16:26.370,964.0,0.0,-13.0,964.0876516168018,1,1,1,3.0,2.0
2021-09-27 07:16:26.380,945.0,86.0,52.0,950.3288904374108,1,1,1,3.0,2.0
2021-09-27 07:16:26.389,1040.0,6.0,34.0,1040.5729191171563,1,1,1,3.0,2.0
2021-09-27 07:16:26.411,983.0,59.0,-17.0,984.9157324360292,1,1,1,3.0,2.0
2021-09-27 07:16:26.412,1031.0,59.0,-17.0,1032.8267037601229,1,1,1,3.0,2.0
2021-09-27 07:16:26.413,1031.0,52.0,-17.0,1032.4504830741278,1,1,1,3.0,2.0
2021-09-27 07:16:26.419,996.0,-16.0,-3.0,996.1330232453896,1,1,1,3.0,2.0
2021-09-27 07:16:26.428,937.0,69.0,27.0,939.92499700774,1,1,1,3.0,2.0
2021-09-27 07:16:26.438,1039.0,46.0,25.0,1040.318220546002,1,1,1,3.0,2.0
2021-09-27 07:16:26.448,1013.0,103.0,-5.0,1018.2352380466904,1,1,1,3.0,2.0
2021-09-27 07:16:26.458,1030.0,105.0,-9.0,1035.377225942313,1,1,1,3.0,2.0
2021-09-27 07:16:26.468,994.0,57.0,-14.0,995.7313894821232,1,1,1,3.0,2.0
2021-09-27 07:16:26.477,939.0,99.0,40.0,945.0513213577344,1,1,1,3.0,2.0
2021-09-27 07:16:26.487,1011.0,59.0,26.0,1013.0537991636968,1,1,1,3.0,2.0
2021-09-27 07:16:26.496,1011.0,59.0,26.0,1013.0537991636968,1,1,1,3.0,2.0
2021-09-27 07:16:26.497,1011.0,101.0,30.0,1016.4752825327332,1,1,1,3.0,2.0
2021-09-27 07:16:26.506,1027.0,80.0,30.0,1030.547912520325,1,1,1,3.0,2.0
2021-09-27 07:16:26.507,1027.0,80.0,-29.0,1030.5192865735216,1,1,1,3.0,2.0
2021-09-27 07:16:26.517,993.0,80.0,-29.0,996.639353025958,1,1,1,3.0,2.0
2021-09-27 07:16:26.518,993.0,72.0,-12.0,995.6791651932864,1,1,1,3.0,2.0
2021-09-27 07:16:26.526,951.0,58.0,26.0,953.1217131090866,1,1,1,3.0,2.0
2021-09-27 07:16:26.535,1003.0,58.0,26.0,1005.0119402275776,1,1,1,3.0,2.0
2021-09-27 07:16:26.536,1003.0,15.0,26.0,1003.4490520200814,1,1,1,3.0,2.0
2021-09-27 07:16:26.545,1034.0,-40.0,26.0,1035.0999951695487,1,1,1,3.0,2.0
2021-09-27 07:16:26.546,1034.0,-40.0,6.0,1034.7908001137234,1,1,1,3.0,2.0
2021-09-27 07:16:26.555,1050.0,24.0,-17.0,1050.4118240004727,1,1,1,3.0,2.0
2021-09-27 07:16:26.565,1021.0,24.0,-17.0,1021.4235164710084,1,1,1,3.0,2.0
2021-09-27 07:16:26.566,1021.0,41.0,-10.0,1021.8718119216325,1,1,1,3.0,2.0
2021-09-27 07:16:26.576,941.0,108.0,-2.0,947.1794972443186,1,1,1,3.0,2.0
2021-09-27 07:16:26.588,1037.0,69.0,-24.0,1039.5701034562317,1,1,1,3.0,2.0
2021-09-27 07:16:26.604,1027.0,-15.0,11.0,1027.168437988629,1,1,1,3.0,2.0
2021-09-27 07:16:26.607,1016.0,-15.0,11.0,1016.1702613243511,1,1,1,3.0,2.0
2021-09-27 07:16:26.608,1016.0,-149.0,38.0,1027.570435542012,1,1,1,3.0,2.0
2021-09-27 07:16:26.614,1021.0,36.0,-15.0,1021.7445864794196,1,1,1,3.0,2.0
2021-09-27 07:16:26.624,918.0,103.0,4.0,923.7689104965592,1,1,1,3.0,2.0
2021-09-27 07:16:26.633,1041.0,60.0,16.0,1042.8504207219748,1,1,1,3.0,2.0
2021-09-27 07:16:26.643,1022.0,60.0,16.0,1023.8847591404024,1,1,1,3.0,2.0
2021-09-27 07:16:26.644,1022.0,-19.0,6.0,1022.1942085533452,1,1,1,3.0,2.0
2021-09-27 07:16:26.653,1015.0,-121.0,19.0,1022.3634383134014,1,1,1,3.0,2.0
2021-09-27 07:16:26.662,988.0,-121.0,19.0,995.563157213042,1,1,1,3.0,2.0
2021-09-27 07:16:26.663,988.0,90.0,-7.0,992.1154166728788,1,1,1,3.0,2.0
2021-09-27 07:16:26.674,925.0,151.0,12.0,937.3206495111478,1,1,1,3.0,2.0
2021-09-27 07:16:26.683,1041.0,151.0,12.0,1051.9629271034223,1,1,1,3.0,2.0
2021-09-27 07:16:26.684,1041.0,85.0,15.0,1044.572161222,1,1,1,3.0,2.0
2021-09-27 07:16:26.692,1014.0,-52.0,21.0,1015.549604893823,1,1,1,3.0,2.0
2021-09-27 07:16:26.701,1008.0,-52.0,21.0,1009.558814532368,1,1,1,3.0,2.0
2021-09-27 07:16:26.702,1008.0,-138.0,8.0,1017.4340273452624,1,1,1,3.0,2.0
2021-09-27 07:16:26.713,987.0,67.0,-3.0,989.2759978893656,1,1,1,3.0,2.0
2021-09-27 07:16:26.721,944.0,96.0,7.0,948.8946200711648,1,1,1,3.0,2.0
2021-09-27 07:16:26.731,1019.0,62.0,7.0,1020.9084190073074,1,1,1,3.0,2.0
2021-09-27 07:16:26.732,1019.0,62.0,37.0,1021.5546975076765,1,1,1,3.0,2.0
2021-09-27 07:16:26.741,1015.0,34.0,26.0,1015.9020622087544,1,1,1,3.0,2.0
2021-09-27 07:16:26.751,1023.0,-76.0,16.0,1025.9439555843194,1,1,1,3.0,2.0
2021-09-27 07:16:26.760,992.0,-4.0,22.0,992.2519841250004,1,1,1,3.0,2.0
2021-09-27 07:16:26.770,957.0,121.0,22.0,964.8699394218892,1,1,1,3.0,2.0
2021-09-27 07:16:26.771,957.0,121.0,16.0,964.7517815479794,1,1,1,3.0,2.0
2021-09-27 07:16:26.780,1061.0,42.0,5.0,1061.8427378854178,1,1,1,3.0,2.0
2021-09-27 07:16:26.789,1055.0,9.0,5.0,1055.05023577079,1,1,1,3.0,2.0
2021-09-27 07:16:26.790,1055.0,9.0,-23.0,1055.2890599262364,1,1,1,3.0,2.0
2021-09-27 07:16:26.799,1066.0,-80.0,-23.0,1069.2450607788655,1,1,1,3.0,2.0
2021-09-27 07:16:26.800,1066.0,-80.0,16.0,1069.1173929929305,1,1,1,3.0,2.0
2021-09-27 07:16:26.809,1043.0,55.0,3.0,1044.453445587691,1,1,1,3.0,2.0
2021-09-27 07:16:26.819,910.0,135.0,0.0,919.9592382274336,1,1,1,3.0,2.0
2021-09-27 07:16:26.828,1040.0,135.0,0.0,1048.7254168751704,1,1,1,3.0,2.0
2021-09-27 07:16:26.829,1040.0,71.0,9.0,1042.459591543001,1,1,1,3.0,2.0
2021-09-27 07:16:26.839,1034.0,-8.0,10.0,1034.079300634144,1,1,1,3.0,2.0
2021-09-27 07:16:26.855,1016.0,-8.0,10.0,1016.0807054560184,1,1,1,3.0,2.0
2021-09-27 07:16:26.856,1016.0,-86.0,10.0,1019.6823034651528,1,1,1,3.0,2.0
2021-09-27 07:16:26.858,1044.0,-19.0,-4.0,1044.180539945081,1,1,1,3.0,2.0
2021-09-27 07:16:26.867,1070.0,-19.0,-4.0,1070.1761537242362,1,1,1,3.0,2.0
2021-09-27 07:16:26.868,1070.0,23.0,0.0,1070.2471677140752,1,1,1,3.0,2.0
2021-09-27 07:16:26.877,1039.0,23.0,0.0,1039.25454052412,1,1,1,3.0,2.0
2021-09-27 07:16:26.878,1039.0,61.0,4.0,1040.7968101411534,1,1,1,3.0,2.0
2021-09-27 07:16:26.899,1037.0,-2.0,4.0,1037.0096431567067,1,1,1,3.0,2.0
2021-09-27 07:16:26.900,1037.0,-2.0,7.0,1037.0255541692306,1,1,1,3.0,2.0
2021-09-27 07:16:26.907,1027.0,-24.0,22.0,1027.51593661607,1,1,1,3.0,2.0
2021-09-27 07:16:26.916,1029.0,-24.0,22.0,1029.5149343258695,1,1,1,3.0,2.0
2021-09-27 07:16:26.917,1029.0,12.0,-9.0,1029.1093236386505,1,1,1,3.0,2.0
2021-09-27 07:16:26.927,1029.0,-10.0,-2.0,1029.050533258693,1,1,1,3.0,2.0
2021-09-27 07:16:26.936,1020.0,19.0,-12.0,1020.2475189874268,1,1,1,3.0,2.0
2021-09-27 07:16:26.946,1043.0,-87.0,18.0,1046.7769580956583,1,1,1,3.0,2.0
2021-09-27 07:16:26.957,1008.0,0.0,22.0,1008.2400507815588,1,1,1,3.0,2.0
2021-09-27 07:16:26.965,1010.0,77.0,2.0,1012.9328704312048,1,1,1,3.0,2.0
2021-09-27 07:16:26.975,1038.0,13.0,2.0,1038.0833299884937,1,1,1,3.0,2.0
2021-09-27 07:16:26.976,1038.0,13.0,2.0,1038.0833299884937,1,1,1,3.0,2.0
2021-09-27 07:16:26.985,1031.0,-20.0,-10.0,1031.24245451785,1,1,1,3.0,2.0
2021-09-27 07:16:26.995,1013.0,-85.0,11.0,1016.6193978082456,1,1,1,3.0,2.0
2021-09-27 07:16:27.005,1028.0,-22.0,12.0,1028.305402105814,1,1,1,3.0,2.0
2021-09-27 07:16:27.014,1105.0,46.0,1.0,1105.9575037043692,1,1,1,3.0,2.0
2021-09-27 07:16:27.024,1051.0,-34.0,-21.0,1051.7594782078268,1,1,1,3.0,2.0
2021-09-27 07:16:27.033,966.0,-34.0,-21.0,966.8262511951152,1,1,1,3.0,2.0
2021-09-27 07:16:27.034,966.0,30.0,19.0,966.6524711601372,1,1,1,3.0,2.0
2021-09-27 07:16:27.043,1002.0,-43.0,19.0,1003.102188214142,1,1,1,3.0,2.0
2021-09-27 07:16:27.044,1002.0,-43.0,19.0,1003.102188214142,1,1,1,3.0,2.0
2021-09-27 07:16:27.053,1010.0,-4.0,2.0,1010.00990094157,1,1,1,3.0,2.0
2021-09-27 07:16:27.063,1041.0,-4.0,2.0,1041.0096061036134,1,1,1,3.0,2.0
2021-09-27 07:16:27.064,1041.0,67.0,18.0,1043.3091583993692,1,1,1,3.0,2.0
2021-09-27 07:16:27.073,1081.0,-68.0,12.0,1083.2031203795527,1,1,1,3.0,2.0
2021-09-27 07:16:27.083,952.0,33.0,3.0,952.5765061138134,1,1,1,3.0,2.0
2021-09-27 07:16:27.092,982.0,33.0,3.0,982.5589040866712,1,1,1,3.0,2.0
2021-09-27 07:16:27.095,982.0,7.0,23.0,982.2942532663012,1,1,1,3.0,2.0
2021-09-27 07:16:27.102,1003.0,6.0,18.0,1003.179445562956,1,1,1,3.0,2.0
2021-09-27 07:16:27.113,1059.0,49.0,0.0,1060.1330105227362,1,1,1,3.0,2.0
2021-09-27 07:16:27.121,1068.0,49.0,0.0,1069.1234727570056,1,1,1,3.0,2.0
2021-09-27 07:16:27.122,1068.0,-69.0,-7.0,1070.2495036205344,1,1,1,3.0,2.0
2021-09-27 07:16:27.132,983.0,-8.0,7.0,983.0574754306076,1,1,1,3.0,2.0
2021-09-27 07:16:27.141,990.0,81.0,-1.0,993.3086126677852,1,1,1,3.0,2.0
2021-09-27 07:16:27.151,1001.0,33.0,12.0,1001.6156947652128,1,1,1,3.0,2.0
2021-09-27 07:16:27.161,1064.0,91.0,0.0,1067.884357034974,1,1,1,3.0,2.0
2021-09-27 07:16:27.170,1052.0,-101.0,0.0,1056.8372627798474,1,1,1,3.0,2.0
2021-09-27 07:16:27.171,1052.0,-101.0,3.0,1056.841520758907,1,1,1,3.0,2.0
2021-09-27 07:16:27.180,964.0,-36.0,3.0,964.6766297573504,1,1,1,3.0,2.0
2021-09-27 07:16:27.181,964.0,-36.0,9.0,964.7139472403204,1,1,1,3.0,2.0
2021-09-27 07:16:27.190,967.0,116.0,-13.0,974.019506991518,1,1,1,3.0,2.0
2021-09-27 07:16:27.200,996.0,61.0,13.0,997.950900595816,1,1,1,3.0,2.0
2021-09-27 07:16:27.210,1090.0,91.0,-8.0,1093.8212833913958,1,1,1,3.0,2.0
2021-09-27 07:16:27.220,1043.0,91.0,-8.0,1046.9928366517129,1,1,1,3.0,2.0
2021-09-27 07:16:27.221,1043.0,-82.0,-6.0,1046.2356331152175,1,1,1,3.0,2.0
2021-09-27 07:16:27.229,961.0,-30.0,21.0,961.697457623758,1,1,1,3.0,2.0
2021-09-27 07:16:27.239,985.0,92.0,0.0,989.2871170696604,1,1,1,3.0,2.0
2021-09-27 07:16:27.248,1089.0,92.0,0.0,1092.879224800252,1,1,1,3.0,2.0
2021-09-27 07:16:27.249,1089.0,126.0,-15.0,1096.367639070034,1,1,1,3.0,2.0
2021-09-27 07:16:27.258,1044.0,107.0,-27.0,1049.81617438483,1,1,1,3.0,2.0
2021-09-27 07:16:27.269,1037.0,-82.0,-18.0,1040.3927143151282,1,1,1,3.0,2.0
2021-09-27 07:16:27.278,966.0,-47.0,52.0,968.5396223180546,1,1,1,3.0,2.0
2021-09-27 07:16:27.288,982.0,86.0,11.0,985.8199632792998,1,1,1,3.0,2.0
2021-09-27 07:16:27.297,1073.0,77.0,19.0,1075.927042136222,1,1,1,3.0,2.0
2021-09-27 07:16:27.307,1020.0,-87.0,-11.0,1023.7626678092926,1,1,1,3.0,2.0
2021-09-27 07:16:27.318,1057.0,-48.0,15.0,1058.1956340866277,1,1,1,3.0,2.0
2021-09-27 07:16:27.326,963.0,-48.0,15.0,964.3121901127248,1,1,1,3.0,2.0
2021-09-27 07:16:27.327,963.0,-28.0,37.0,964.1172127910588,1,1,1,3.0,2.0
2021-09-27 07:16:27.336,1003.0,76.0,37.0,1006.555512627098,1,1,1,3.0,2.0
2021-09-27 07:16:27.337,1003.0,76.0,0.0,1005.87524077293,1,1,1,3.0,2.0
2021-09-27 07:16:27.346,1046.0,126.0,-3.0,1053.5658498641649,1,1,1,3.0,2.0
2021-09-27 07:16:27.356,991.0,17.0,-5.0,991.1584131711742,1,1,1,3.0,2.0
2021-09-27 07:16:27.366,1033.0,-74.0,-7.0,1035.6707971165354,1,1,1,3.0,2.0
2021-09-27 07:16:27.377,998.0,-34.0,22.0,998.8213053394486,1,1,1,3.0,2.0
2021-09-27 07:16:27.385,977.0,161.0,12.0,990.249463519168,1,1,1,3.0,2.0
2021-09-27 07:16:27.395,1079.0,161.0,12.0,1091.0114573183914,1,1,1,3.0,2.0
2021-09-27 07:16:27.396,1079.0,97.0,3.0,1083.3554356719685,1,1,1,3.0,2.0
2021-09-27 07:16:27.405,1011.0,-55.0,-6.0,1012.5127159695328,1,1,1,3.0,2.0
2021-09-27 07:16:27.427,913.0,-7.0,14.0,913.1341631983768,1,1,1,3.0,2.0
2021-09-27 07:16:27.429,983.0,-19.0,11.0,983.2451372877468,1,1,1,3.0,2.0
2021-09-27 07:16:27.434,987.0,-19.0,11.0,987.2441440697432,1,1,1,3.0,2.0
2021-09-27 07:16:27.435,987.0,119.0,-3.0,994.1524028035138,1,1,1,3.0,2.0
2021-09-27 07:16:27.444,1066.0,105.0,-21.0,1071.3645504682336,1,1,1,3.0,2.0
2021-09-27 07:16:27.454,1018.0,-26.0,11.0,1018.3913785966572,1,1,1,3.0,2.0
2021-09-27 07:16:27.463,953.0,-35.0,22.0,953.8962207703728,1,1,1,3.0,2.0
2021-09-27 07:16:27.473,996.0,-35.0,22.0,996.8575625434156,1,1,1,3.0,2.0
2021-09-27 07:16:27.474,996.0,-57.0,25.0,997.9428841371634,1,1,1,3.0,2.0
2021-09-27 07:16:27.484,1010.0,128.0,3.0,1018.0830025101096,1,1,1,3.0,2.0
2021-09-27 07:16:27.492,1112.0,128.0,3.0,1119.346684454821,1,1,1,3.0,2.0
2021-09-27 07:16:27.493,1112.0,103.0,-2.0,1116.7618367404932,1,1,1,3.0,2.0
2021-09-27 07:16:27.502,1026.0,-3.0,-2.0,1026.0063352630918,1,1,1,3.0,2.0
2021-09-27 07:16:27.503,1026.0,-3.0,10.0,1026.0531175333956,1,1,1,3.0,2.0
2021-09-27 07:16:27.512,929.0,-21.0,8.0,929.2717578835592,1,1,1,3.0,2.0
2021-09-27 07:16:27.523,975.0,12.0,18.0,975.2399704688072,1,1,1,3.0,2.0
2021-09-27 07:16:27.532,1022.0,72.0,3.0,1024.537456611519,1,1,1,3.0,2.0
2021-09-27 07:16:27.541,1038.0,72.0,3.0,1040.4984382496689,1,1,1,3.0,2.0
2021-09-27 07:16:27.542,1038.0,128.0,-22.0,1046.0936860530228,1,1,1,3.0,2.0
2021-09-27 07:16:27.551,1050.0,7.0,3.0,1050.0276186843848,1,1,1,3.0,2.0
2021-09-27 07:16:27.561,935.0,38.0,14.0,935.8765944289876,1,1,1,3.0,2.0
2021-09-27 07:16:27.571,1059.0,166.0,6.0,1071.9482263617026,1,1,1,3.0,2.0
2021-09-27 07:16:27.582,1027.0,148.0,4.0,1037.616981356801,1,1,1,3.0,2.0
2021-09-27 07:16:27.590,1122.0,71.0,-14.0,1124.3313568517067,1,1,1,3.0,2.0
2021-09-27 07:16:27.600,975.0,45.0,-16.0,976.169042737988,1,1,1,3.0,2.0
2021-09-27 07:16:27.610,935.0,49.0,14.0,936.3877402016752,1,1,1,3.0,2.0
2021-09-27 07:16:27.624,1026.0,80.0,14.0,1029.209405320414,1,1,1,3.0,2.0
2021-09-27 07:16:27.625,1026.0,80.0,9.0,1029.153535678715,1,1,1,3.0,2.0
2021-09-27 07:16:27.631,1037.0,-20.0,12.0,1037.2622619183635,1,1,1,3.0,2.0
2021-09-27 07:16:27.639,1057.0,84.0,-1.0,1060.3329665722931,1,1,1,3.0,2.0
2021-09-27 07:16:27.649,981.0,84.0,-1.0,984.5902701123956,1,1,1,3.0,2.0
2021-09-27 07:16:27.650,981.0,0.0,11.0,981.0616698250932,1,1,1,3.0,2.0
2021-09-27 07:16:27.659,933.0,64.0,22.0,935.4512280177946,1,1,1,3.0,2.0
2021-09-27 07:16:27.669,1006.0,122.0,4.0,1013.378507764991,1,1,1,3.0,2.0
2021-09-27 07:16:27.679,1049.0,42.0,31.0,1050.298052935451,1,1,1,3.0,2.0
2021-09-27 07:16:27.692,1077.0,70.0,31.0,1079.7175556598124,1,1,1,3.0,2.0
2021-09-27 07:16:27.693,1077.0,70.0,7.0,1079.295140357817,1,1,1,3.0,2.0
2021-09-27 07:16:27.698,1017.0,-83.0,-20.0,1020.5772876171604,1,1,1,3.0,2.0
2021-09-27 07:16:27.707,925.0,-83.0,-20.0,928.931644417392,1,1,1,3.0,2.0
2021-09-27 07:16:27.708,925.0,63.0,28.0,927.5656311011096,1,1,1,3.0,2.0
2021-09-27 07:16:27.718,1078.0,139.0,-16.0,1087.0423174835466,1,1,1,3.0,2.0
2021-09-27 07:16:27.728,1082.0,44.0,2.0,1082.8961169013396,1,1,1,3.0,2.0
2021-09-27 07:16:27.737,989.0,-107.0,0.0,994.77133050767,1,1,1,3.0,2.0
2021-09-27 07:16:27.746,972.0,-107.0,0.0,977.8716684718912,1,1,1,3.0,2.0
2021-09-27 07:16:27.747,972.0,-44.0,2.0,972.9974306235346,1,1,1,3.0,2.0
2021-09-27 07:16:27.756,903.0,60.0,23.0,905.283381047062,1,1,1,3.0,2.0
2021-09-27 07:16:27.766,1051.0,126.0,4.0,1058.533419406303,1,1,1,3.0,2.0
2021-09-27 07:16:27.776,1050.0,126.0,4.0,1057.540542958047,1,1,1,3.0,2.0
2021-09-27 07:16:27.777,1050.0,3.0,-6.0,1050.021428352774,1,1,1,3.0,2.0
2021-09-27 07:16:27.785,991.0,3.0,-6.0,991.0227040789732,1,1,1,3.0,2.0
2021-09-27 07:16:27.786,991.0,-130.0,-6.0,999.508379154472,1,1,1,3.0,2.0
2021-09-27 07:16:27.795,946.0,-26.0,-6.0,946.3762465320016,1,1,1,3.0,2.0
2021-09-27 07:16:27.796,946.0,-26.0,20.0,946.5685395152324,1,1,1,3.0,2.0
2021-09-27 07:16:27.805,940.0,95.0,20.0,945.0,1,1,1,3.0,2.0
2021-09-27 07:16:27.815,1061.0,123.0,-10.0,1068.1526108192593,1,1,1,3.0,2.0
2021-09-27 07:16:27.825,1095.0,123.0,-10.0,1101.9319398220564,1,1,1,3.0,2.0
2021-09-27 07:16:27.826,1095.0,-85.0,-28.0,1098.650990988494,1,1,1,3.0,2.0
2021-09-27 07:16:27.835,955.0,-89.0,-28.0,959.5467680108146,1,1,1,3.0,2.0
2021-09-27 07:16:27.836,955.0,-89.0,4.0,959.1464955886562,1,1,1,3.0,2.0
2021-09-27 07:16:27.844,980.0,-32.0,9.0,980.5636134387204,1,1,1,3.0,2.0
2021-09-27 07:16:27.854,913.0,138.0,24.0,923.6823046913912,1,1,1,3.0,2.0
2021-09-27 07:16:27.870,1082.0,63.0,-11.0,1083.888370636017,1,1,1,3.0,2.0
2021-09-27 07:16:27.873,1036.0,33.0,-11.0,1036.58381233743,1,1,1,3.0,2.0
2021-09-27 07:16:27.874,1036.0,33.0,-14.0,1036.619988230981,1,1,1,3.0,2.0
2021-09-27 07:16:27.884,964.0,-89.0,-14.0,968.2009089026926,1,1,1,3.0,2.0
2021-09-27 07:16:27.885,964.0,-89.0,32.0,968.6284117245374,1,1,1,3.0,2.0
2021-09-27 07:16:27.893,990.0,3.0,-7.0,990.0292924959342,1,1,1,3.0,2.0
2021-09-27 07:16:27.911,915.0,86.0,19.0,919.2290247810934,1,1,1,3.0,2.0
2021-09-27 07:16:27.916,1081.0,138.0,6.0,1089.7894292018068,1,1,1,3.0,2.0
2021-09-27 07:16:27.922,1062.0,0.0,-18.0,1062.152531419099,1,1,1,3.0,2.0
2021-09-27 07:16:27.932,969.0,-56.0,26.0,970.9649839206356,1,1,1,3.0,2.0
2021-09-27 07:16:27.942,979.0,17.0,28.0,979.5478548799952,1,1,1,3.0,2.0
2021-09-27 07:16:27.952,1095.0,71.0,-1.0,1097.2998678574604,1,1,1,3.0,2.0
2021-09-27 07:16:27.961,1081.0,134.0,-1.0,1089.2740701953755,1,1,1,3.0,2.0
2021-09-27 07:16:27.962,1081.0,134.0,0.0,1089.273611173979,1,1,1,3.0,2.0
2021-09-27 07:16:27.971,1030.0,-6.0,-13.0,1030.0995097562177,1,1,1,3.0,2.0
2021-09-27 07:16:27.981,943.0,-38.0,20.0,943.9772243015188,1,1,1,3.0,2.0
2021-09-27 07:16:27.990,966.0,-38.0,20.0,966.9539802906858,1,1,1,3.0,2.0
2021-09-27 07:16:27.991,966.0,3.0,23.0,966.278427783628,1,1,1,3.0,2.0
2021-09-27 07:16:28.000,1064.0,3.0,23.0,1064.2527895194826,1,1,1,3.0,2.0
2021-09-27 07:16:28.001,1064.0,48.0,14.0,1065.1741641628378,1,1,1,3.0,2.0
2021-09-27 07:16:28.011,1054.0,48.0,14.0,1055.1852917852864,1,1,1,3.0,2.0
2021-09-27 07:16:28.012,1054.0,-27.0,-16.0,1054.4671640217157,1,1,1,3.0,2.0
2021-09-27 07:16:28.020,1031.0,8.0,3.0,1031.0354019140177,1,1,1,3.0,2.0
2021-09-27 07:16:28.030,940.0,30.0,55.0,942.0854525997098,1,1,1,3.0,2.0
2021-09-27 07:16:28.040,996.0,72.0,23.0,998.8638545868,1,1,1,3.0,2.0
2021-09-27 07:16:28.049,1066.0,74.0,-19.0,1068.7342981302695,1,1,1,3.0,2.0
2021-09-27 07:16:28.060,1083.0,-41.0,-17.0,1083.9091290325034,1,1,1,3.0,2.0
2021-09-27 07:16:28.069,1035.0,-48.0,-6.0,1036.1298181212624,1,1,1,3.0,2.0
2021-09-27 07:16:28.080,987.0,-7.0,49.0,988.2403553791962,1,1,1,3.0,2.0
2021-09-27 07:16:28.088,997.0,60.0,49.0,1000.0049999875,1,1,1,3.0,2.0
2021-09-27 07:16:28.089,997.0,60.0,21.0,999.0245242235048,1,1,1,3.0,2.0
2021-09-27 07:16:28.098,1068.0,51.0,14.0,1069.308655159959,1,1,1,3.0,2.0
2021-09-27 07:16:28.108,1059.0,-83.0,-20.0,1062.435880418202,1,1,1,3.0,2.0
2021-09-27 07:16:28.118,1018.0,21.0,-10.0,1018.2656824228144,1,1,1,3.0,2.0
2021-09-27 07:16:28.127,949.0,-8.0,-10.0,949.0864028106188,1,1,1,3.0,2.0
2021-09-27 07:16:28.128,949.0,-8.0,35.0,949.6788931001888,1,1,1,3.0,2.0
2021-09-27 07:16:28.138,973.0,2.0,12.0,973.0760504708766,1,1,1,3.0,2.0
2021-09-27 07:16:28.147,1049.0,52.0,34.0,1050.838236837621,1,1,1,3.0,2.0
2021-09-27 07:16:28.157,1043.0,-66.0,-15.0,1045.1937619408184,1,1,1,3.0,2.0
2021-09-27 07:16:28.168,987.0,1.0,8.0,987.032927515592,1,1,1,3.0,2.0
2021-09-27 07:16:28.176,936.0,21.0,46.0,937.364923602329,1,1,1,3.0,2.0
2021-09-27 07:16:28.186,993.0,50.0,26.0,994.5979087048192,1,1,1,3.0,2.0
2021-09-27 07:16:28.196,1062.0,25.0,25.0,1062.588349267956,1,1,1,3.0,2.0
2021-09-27 07:16:28.205,1039.0,25.0,25.0,1039.601365909068,1,1,1,3.0,2.0
2021-09-27 07:16:28.206,1039.0,-36.0,-15.0,1039.73169616012,1,1,1,3.0,2.0
2021-09-27 07:16:28.216,1006.0,14.0,21.0,1006.3165505942948,1,1,1,3.0,2.0
2021-09-27 07:16:28.225,957.0,-13.0,45.0,958.1456048012744,1,1,1,3.0,2.0
2021-09-27 07:16:28.235,999.0,27.0,32.0,999.8769924345694,1,1,1,3.0,2.0
2021-09-27 07:16:28.244,1051.0,27.0,32.0,1051.8336370358195,1,1,1,3.0,2.0
2021-09-27 07:16:28.245,1051.0,-1.0,29.0,1051.4004945785407,1,1,1,3.0,2.0
2021-09-27 07:16:28.254,996.0,84.0,-24.0,999.8239845092736,1,1,1,3.0,2.0
2021-09-27 07:16:28.264,1016.0,44.0,-16.0,1017.0781680873896,1,1,1,3.0,2.0
2021-09-27 07:16:28.274,1035.0,-65.0,-5.0,1037.0511077087765,1,1,1,3.0,2.0
2021-09-27 07:16:28.285,1027.0,-27.0,3.0,1027.359236100012,1,1,1,3.0,2.0
2021-09-27 07:16:28.293,975.0,-46.0,-10.0,976.1357487562884,1,1,1,3.0,2.0
2021-09-27 07:16:28.304,1026.0,80.0,11.0,1029.1729689415672,1,1,1,3.0,2.0
2021-09-27 07:16:28.313,1062.0,77.0,13.0,1064.8671278615,1,1,1,3.0,2.0
2021-09-27 07:16:28.324,959.0,-39.0,3.0,959.79737444942,1,1,1,3.0,2.0
2021-09-27 07:16:28.332,1015.0,0.0,3.0,1015.0044334878544,1,1,1,3.0,2.0
2021-09-27 07:16:28.333,1015.0,0.0,12.0,1015.0709334819908,1,1,1,3.0,2.0
2021-09-27 07:16:28.342,977.0,-48.0,6.0,978.196810463007,1,1,1,3.0,2.0
2021-09-27 07:16:28.352,1029.0,61.0,4.0,1030.8142412675525,1,1,1,3.0,2.0
2021-09-27 07:16:28.362,1053.0,94.0,0.0,1057.1873060153532,1,1,1,3.0,2.0
2021-09-27 07:16:28.372,999.0,-20.0,0.0,999.200180144099,1,1,1,3.0,2.0
2021-09-27 07:16:28.373,999.0,-20.0,20.0,999.400320192064,1,1,1,3.0,2.0
2021-09-27 07:16:28.381,980.0,-3.0,3.0,980.0091836304392,1,1,1,3.0,2.0
2021-09-27 07:16:28.391,993.0,-52.0,-9.0,994.4013274327424,1,1,1,3.0,2.0
2021-09-27 07:16:28.401,1040.0,51.0,18.0,1041.4053005434532,1,1,1,3.0,2.0
2021-09-27 07:16:28.410,1053.0,51.0,18.0,1054.3879741347585,1,1,1,3.0,2.0
2021-09-27 07:16:28.411,1053.0,63.0,8.0,1054.9132665769257,1,1,1,3.0,2.0
2021-09-27 07:16:28.421,1000.0,-32.0,4.0,1000.5198648702584,1,1,1,3.0,2.0
2021-09-27 07:16:28.442,1002.0,-32.0,4.0,1002.5188277533744,1,1,1,3.0,2.0
2021-09-27 07:16:28.443,1002.0,5.0,3.0,1002.0169659242302,1,1,1,3.0,2.0
2021-09-27 07:16:28.444,1011.0,-41.0,0.0,1011.8310135590824,1,1,1,3.0,2.0
2021-09-27 07:16:28.449,1023.0,-41.0,0.0,1023.8212734652468,1,1,1,3.0,2.0
2021-09-27 07:16:28.450,1023.0,74.0,-1.0,1025.6734373083862,1,1,1,3.0,2.0
2021-09-27 07:16:28.460,1048.0,64.0,2.0,1049.9542847191017,1,1,1,3.0,2.0
2021-09-27 07:16:28.469,1002.0,31.0,5.0,1002.4918952290836,1,1,1,3.0,2.0
2021-09-27 07:16:28.482,996.0,1.0,3.0,996.00502006767,1,1,1,3.0,2.0
