time_stamp,Acceleration_X,Acceleration_Y,Acceleration_Z,magnitude,STD_Status_right,STD_Status_left,STD_Status_both,KMeans,KMeans_convert
2021-09-02 05:34:01.893,1011.0,41.0,13.0,1011.9145220817812,1,1,1,3.0,2.0
2021-09-02 05:34:01.904,1007.0,45.0,7.0,1008.0292654481814,1,1,1,3.0,2.0
2021-09-02 05:34:01.913,1010.0,45.0,7.0,1011.0262113318328,1,1,1,3.0,2.0
2021-09-02 05:34:01.914,1010.0,41.0,10.0,1010.8812986696312,1,1,1,3.0,2.0
2021-09-02 05:34:01.922,1011.0,43.0,10.0,1011.9634380747162,1,1,1,3.0,2.0
2021-09-02 05:34:01.923,1011.0,43.0,5.0,1011.9263807214436,1,1,1,3.0,2.0
2021-09-02 05:34:01.932,1007.0,42.0,0.0,1007.87548834169,1,1,1,3.0,2.0
2021-09-02 05:34:01.942,1005.0,44.0,8.0,1005.9945327883248,1,1,1,3.0,2.0
2021-09-02 05:34:01.952,1011.0,45.0,9.0,1012.041007074318,1,1,1,3.0,2.0
2021-09-02 05:34:01.963,1011.0,45.0,9.0,1012.041007074318,1,1,1,3.0,2.0
2021-09-02 05:34:01.971,1012.0,43.0,11.0,1012.972852548379,1,1,1,3.0,2.0
2021-09-02 05:34:01.984,1008.0,37.0,8.0,1008.7105630457132,1,1,1,3.0,2.0
2021-09-02 05:34:01.991,1016.0,42.0,4.0,1016.8756069451168,1,1,1,3.0,2.0
2021-09-02 05:34:02.001,1010.0,46.0,7.0,1011.0712141090756,1,1,1,3.0,2.0
2021-09-02 05:34:02.098,1022.0,-262.0,12.0,1055.1170551175826,1,1,1,3.0,2.0
2021-09-02 05:34:02.108,1020.0,-174.0,14.0,1034.8294545479462,1,1,1,3.0,2.0
2021-09-02 05:34:02.119,882.0,15.0,8.0,882.1638169863917,1,1,1,3.0,2.0
2021-09-02 05:34:02.127,1119.0,15.0,8.0,1119.129125704447,1,1,1,3.0,2.0
2021-09-02 05:34:02.128,1119.0,226.0,30.0,1141.9881785727907,1,1,1,3.0,2.0
2021-09-02 05:34:02.137,1008.0,121.0,-25.0,1015.5441890927248,1,1,1,3.0,2.0
2021-09-02 05:34:02.147,1014.0,-234.0,35.0,1041.23820521531,1,1,1,3.0,2.0
2021-09-02 05:34:02.157,998.0,-156.0,28.0,1010.5068035396891,1,1,1,3.0,2.0
2021-09-02 05:34:02.167,904.0,-156.0,28.0,917.78864669378,1,1,1,3.0,2.0
2021-09-02 05:34:02.168,904.0,45.0,-10.0,905.1745687987484,1,1,1,3.0,2.0
2021-09-02 05:34:02.176,1106.0,242.0,-10.0,1132.2102278287368,1,1,1,3.0,2.0
2021-09-02 05:34:02.177,1106.0,242.0,22.0,1132.3797949451412,1,1,1,3.0,2.0
2021-09-02 05:34:02.187,1008.0,79.0,-28.0,1011.4786206341684,1,1,1,3.0,2.0
2021-09-02 05:34:02.196,1011.0,-269.0,29.0,1046.5768008130124,1,1,1,3.0,2.0
2021-09-02 05:34:02.206,916.0,18.0,-14.0,916.283798830908,1,1,1,3.0,2.0
2021-09-02 05:34:02.216,916.0,74.0,-9.0,919.028291185859,1,1,1,3.0,2.0
2021-09-02 05:34:02.226,1097.0,74.0,-9.0,1099.529899547984,1,1,1,3.0,2.0
2021-09-02 05:34:02.227,1097.0,226.0,15.0,1120.138384307939,1,1,1,3.0,2.0
2021-09-02 05:34:02.235,1008.0,82.0,-15.0,1011.4410511740168,1,1,1,3.0,2.0
2021-09-02 05:34:02.245,1005.0,-244.0,37.0,1034.8574781099087,1,1,1,3.0,2.0
2021-09-02 05:34:02.254,927.0,56.0,37.0,929.4267050176684,1,1,1,3.0,2.0
2021-09-02 05:34:02.255,927.0,56.0,-18.0,928.8643603885338,1,1,1,3.0,2.0
2021-09-02 05:34:02.264,905.0,148.0,-16.0,917.1613816553768,1,1,1,3.0,2.0
2021-09-02 05:34:02.275,1113.0,242.0,14.0,1139.0913045054815,1,1,1,3.0,2.0
2021-09-02 05:34:02.284,1015.0,54.0,-10.0,1016.4846285114204,1,1,1,3.0,2.0
2021-09-02 05:34:02.293,984.0,54.0,-10.0,985.5313287765132,1,1,1,3.0,2.0
2021-09-02 05:34:02.294,984.0,-209.0,25.0,1006.2613974509804,1,1,1,3.0,2.0
2021-09-02 05:34:02.303,954.0,103.0,-11.0,959.6072113109614,1,1,1,3.0,2.0
2021-09-02 05:34:02.313,937.0,157.0,-20.0,950.2725924701816,1,1,1,3.0,2.0
2021-09-02 05:34:02.323,1093.0,157.0,-20.0,1104.399384280886,1,1,1,3.0,2.0
2021-09-02 05:34:02.324,1093.0,257.0,13.0,1122.8833421152883,1,1,1,3.0,2.0
2021-09-02 05:34:02.333,1014.0,21.0,0.0,1014.2174323092656,1,1,1,3.0,2.0
2021-09-02 05:34:02.342,962.0,-153.0,0.0,974.0908581852104,1,1,1,3.0,2.0
2021-09-02 05:34:02.343,962.0,-153.0,25.0,974.4116173363288,1,1,1,3.0,2.0
2021-09-02 05:34:02.352,967.0,81.0,-10.0,970.4380454207264,1,1,1,3.0,2.0
2021-09-02 05:34:02.364,969.0,81.0,-10.0,972.4309744141226,1,1,1,3.0,2.0
2021-09-02 05:34:02.365,969.0,119.0,-10.0,976.3308865338636,1,1,1,3.0,2.0
2021-09-02 05:34:02.372,1067.0,119.0,-10.0,1073.6619579737376,1,1,1,3.0,2.0
2021-09-02 05:34:02.373,1067.0,218.0,4.0,1089.049585647963,1,1,1,3.0,2.0
2021-09-02 05:34:02.382,1019.0,218.0,4.0,1042.0657368899526,1,1,1,3.0,2.0
2021-09-02 05:34:02.383,1019.0,-33.0,7.0,1019.5582376696292,1,1,1,3.0,2.0
2021-09-02 05:34:02.391,947.0,-95.0,30.0,952.2258135547472,1,1,1,3.0,2.0
2021-09-02 05:34:02.401,993.0,131.0,7.0,1001.62817452386,1,1,1,3.0,2.0
2021-09-02 05:34:02.411,1099.0,221.0,25.0,1121.279180222303,1,1,1,3.0,2.0
2021-09-02 05:34:02.421,1075.0,221.0,25.0,1097.7663685866862,1,1,1,3.0,2.0
2021-09-02 05:34:02.422,1075.0,273.0,7.0,1109.1451663330638,1,1,1,3.0,2.0
2021-09-02 05:34:02.430,1010.0,-69.0,7.0,1012.3783877582532,1,1,1,3.0,2.0
2021-09-02 05:34:02.431,1010.0,-69.0,6.0,1012.3719672136324,1,1,1,3.0,2.0
2021-09-02 05:34:02.440,912.0,-83.0,22.0,916.0332963380752,1,1,1,3.0,2.0
2021-09-02 05:34:02.450,1023.0,122.0,5.0,1030.2611319466537,1,1,1,3.0,2.0
2021-09-02 05:34:02.460,1096.0,227.0,21.0,1119.457904523435,1,1,1,3.0,2.0
2021-09-02 05:34:02.470,1075.0,253.0,13.0,1104.4469204085815,1,1,1,3.0,2.0
2021-09-02 05:34:02.479,992.0,-119.0,-16.0,999.2402113606116,1,1,1,3.0,2.0
2021-09-02 05:34:02.490,901.0,-73.0,10.0,904.0077433296686,1,1,1,3.0,2.0
2021-09-02 05:34:02.499,1052.0,163.0,8.0,1064.5830169601618,1,1,1,3.0,2.0
2021-09-02 05:34:02.508,1101.0,253.0,8.0,1129.7229748925176,1,1,1,3.0,2.0
2021-09-02 05:34:02.509,1101.0,253.0,28.0,1130.0415921549084,1,1,1,3.0,2.0
2021-09-02 05:34:02.518,1081.0,307.0,8.0,1123.776668204141,1,1,1,3.0,2.0
2021-09-02 05:34:02.529,985.0,-153.0,-3.0,996.8164324488235,1,1,1,3.0,2.0
2021-09-02 05:34:02.538,884.0,-153.0,-3.0,897.1477024436946,1,1,1,3.0,2.0
2021-09-02 05:34:02.539,884.0,-74.0,16.0,887.2361579647213,1,1,1,3.0,2.0
2021-09-02 05:34:02.547,1069.0,-74.0,16.0,1071.6776567606512,1,1,1,3.0,2.0
2021-09-02 05:34:02.548,1069.0,179.0,17.0,1084.016143791226,1,1,1,3.0,2.0
2021-09-02 05:34:02.557,1080.0,243.0,9.0,1107.0365847613168,1,1,1,3.0,2.0
2021-09-02 05:34:02.567,1076.0,293.0,-5.0,1115.1905666745931,1,1,1,3.0,2.0
2021-09-02 05:34:02.577,990.0,293.0,-5.0,1032.4601687232298,1,1,1,3.0,2.0
2021-09-02 05:34:02.578,990.0,-159.0,-3.0,1002.6913782415804,1,1,1,3.0,2.0
2021-09-02 05:34:02.586,904.0,-159.0,-3.0,917.881255936736,1,1,1,3.0,2.0
2021-09-02 05:34:02.587,904.0,-54.0,14.0,905.7196034093554,1,1,1,3.0,2.0
2021-09-02 05:34:02.596,1092.0,163.0,19.0,1104.261744334195,1,1,1,3.0,2.0
2021-09-02 05:34:02.619,1059.0,163.0,19.0,1071.639398305232,1,1,1,3.0,2.0
2021-09-02 05:34:02.620,1011.0,179.0,0.0,1026.723916152731,1,1,1,3.0,2.0
2021-09-02 05:34:02.621,1011.0,-208.0,12.0,1032.2446415457916,1,1,1,3.0,2.0
2021-09-02 05:34:02.625,992.0,-208.0,12.0,1013.6429351601086,1,1,1,3.0,2.0
2021-09-02 05:34:02.626,992.0,-148.0,0.0,1002.9795611078024,1,1,1,3.0,2.0
2021-09-02 05:34:02.635,902.0,-35.0,0.0,902.6787911544172,1,1,1,3.0,2.0
2021-09-02 05:34:02.636,902.0,-35.0,4.0,902.6876536211182,1,1,1,3.0,2.0
2021-09-02 05:34:02.645,1099.0,224.0,27.0,1121.920674557698,1,1,1,3.0,2.0
2021-09-02 05:34:02.655,1038.0,154.0,-11.0,1049.4193632671354,1,1,1,3.0,2.0
2021-09-02 05:34:02.665,1003.0,-256.0,28.0,1035.5331959913212,1,1,1,3.0,2.0
2021-09-02 05:34:02.674,1001.0,-256.0,28.0,1033.5961493736322,1,1,1,3.0,2.0
2021-09-02 05:34:02.675,1001.0,-163.0,3.0,1014.1888384319756,1,1,1,3.0,2.0
2021-09-02 05:34:02.684,895.0,-9.0,1.0,895.0458088835453,1,1,1,3.0,2.0
2021-09-02 05:34:02.694,1104.0,223.0,14.0,1126.3840375289417,1,1,1,3.0,2.0
2021-09-02 05:34:02.704,1029.0,109.0,-21.0,1034.9700478757827,1,1,1,3.0,2.0
2021-09-02 05:34:02.714,1008.0,-217.0,43.0,1031.989341030226,1,1,1,3.0,2.0
2021-09-02 05:34:02.725,995.0,-116.0,33.0,1002.2823953357656,1,1,1,3.0,2.0
2021-09-02 05:34:02.733,929.0,24.0,-3.0,929.3148013455937,1,1,1,3.0,2.0
2021-09-02 05:34:02.743,1088.0,226.0,15.0,1111.3257848173955,1,1,1,3.0,2.0
2021-09-02 05:34:02.753,1009.0,72.0,-24.0,1011.8502853683444,1,1,1,3.0,2.0
2021-09-02 05:34:02.762,1015.0,-245.0,-24.0,1044.4261582323568,1,1,1,3.0,2.0
2021-09-02 05:34:02.763,1015.0,-245.0,22.0,1044.3821139793615,1,1,1,3.0,2.0
2021-09-02 05:34:02.773,934.0,44.0,-25.0,935.369980275185,1,1,1,3.0,2.0
2021-09-02 05:34:02.782,923.0,112.0,4.0,929.7790060008884,1,1,1,3.0,2.0
2021-09-02 05:34:02.805,1105.0,260.0,10.0,1135.220242948477,1,1,1,3.0,2.0
2021-09-02 05:34:02.806,1021.0,260.0,10.0,1053.6322887990857,1,1,1,3.0,2.0
2021-09-02 05:34:02.807,1021.0,68.0,-21.0,1023.4774057105512,1,1,1,3.0,2.0
2021-09-02 05:34:02.811,987.0,-219.0,20.0,1011.2022547443216,1,1,1,3.0,2.0
2021-09-02 05:34:02.822,949.0,43.0,-16.0,950.1084148664298,1,1,1,3.0,2.0
2021-09-02 05:34:02.831,932.0,124.0,-2.0,940.2148690591954,1,1,1,3.0,2.0
2021-09-02 05:34:02.840,1093.0,124.0,-2.0,1100.0131817392007,1,1,1,3.0,2.0
2021-09-02 05:34:02.841,1093.0,220.0,7.0,1114.9430478728498,1,1,1,3.0,2.0
2021-09-02 05:34:02.850,1016.0,19.0,7.0,1016.2017516221864,1,1,1,3.0,2.0
2021-09-02 05:34:02.851,1016.0,19.0,-8.0,1016.2091320195858,1,1,1,3.0,2.0
2021-09-02 05:34:02.860,975.0,-202.0,20.0,995.906120073574,1,1,1,3.0,2.0
2021-09-02 05:34:02.870,955.0,101.0,-13.0,960.4139732427886,1,1,1,3.0,2.0
2021-09-02 05:34:02.879,1110.0,101.0,-13.0,1114.661383560048,1,1,1,3.0,2.0
2021-09-02 05:34:02.880,1110.0,235.0,13.0,1134.677927872046,1,1,1,3.0,2.0
2021-09-02 05:34:02.905,1101.0,303.0,13.0,1142.0065674066852,1,1,1,3.0,2.0
2021-09-02 05:34:02.906,1101.0,303.0,13.0,1142.0065674066852,1,1,1,3.0,2.0
2021-09-02 05:34:02.907,1038.0,-7.0,-6.0,1038.040943315821,1,1,1,3.0,2.0
2021-09-02 05:34:02.909,934.0,-219.0,-6.0,959.3503009849948,1,1,1,3.0,2.0
2021-09-02 05:34:02.910,934.0,-219.0,13.0,959.4196162263934,1,1,1,3.0,2.0
2021-09-02 05:34:02.919,959.0,111.0,0.0,965.402506729706,1,1,1,3.0,2.0
2021-09-02 05:34:02.929,1126.0,231.0,14.0,1149.5359933468808,1,1,1,3.0,2.0
2021-09-02 05:34:02.939,1119.0,277.0,11.0,1152.8273938452364,1,1,1,3.0,2.0
2021-09-02 05:34:02.949,1012.0,-36.0,11.0,1012.699856818396,1,1,1,3.0,2.0
2021-09-02 05:34:02.950,1012.0,-36.0,-4.0,1012.64801387254,1,1,1,3.0,2.0
2021-09-02 05:34:02.958,918.0,-174.0,18.0,934.5180576104456,1,1,1,3.0,2.0
2021-09-02 05:34:02.967,977.0,114.0,18.0,983.7931693196492,1,1,1,3.0,2.0
2021-09-02 05:34:02.968,977.0,114.0,4.0,983.6366198957824,1,1,1,3.0,2.0
2021-09-02 05:34:02.983,1125.0,248.0,21.0,1152.2022391924083,1,1,1,3.0,2.0
2021-09-02 05:34:02.987,1105.0,289.0,2.0,1142.1689892480886,1,1,1,3.0,2.0
2021-09-02 05:34:02.997,1026.0,-49.0,5.0,1027.1815808317438,1,1,1,3.0,2.0
2021-09-02 05:34:03.006,912.0,-49.0,5.0,913.3290754158656,1,1,1,3.0,2.0
2021-09-02 05:34:03.007,912.0,-141.0,25.0,923.1738731138356,1,1,1,3.0,2.0
2021-09-02 05:34:03.017,993.0,121.0,7.0,1000.3694317600872,1,1,1,3.0,2.0
2021-09-02 05:34:03.026,1128.0,246.0,26.0,1154.8056113476414,1,1,1,3.0,2.0
2021-09-02 05:34:03.036,1047.0,-162.0,-11.0,1059.5159272044946,1,1,1,3.0,2.0
2021-09-02 05:34:03.046,1001.0,-116.0,-11.0,1007.7588997374322,1,1,1,3.0,2.0
2021-09-02 05:34:03.047,1001.0,-116.0,2.0,1007.7008484664484,1,1,1,3.0,2.0
2021-09-02 05:34:03.056,896.0,-96.0,20.0,901.3500984634106,1,1,1,3.0,2.0
2021-09-02 05:34:03.065,1021.0,134.0,3.0,1029.7601662523173,1,1,1,3.0,2.0
2021-09-02 05:34:03.075,1123.0,233.0,28.0,1147.2584713132433,1,1,1,3.0,2.0
2021-09-02 05:34:03.085,1012.0,-145.0,-12.0,1022.4054968553328,1,1,1,3.0,2.0
2021-09-02 05:34:03.094,987.0,-108.0,-12.0,992.96374556174,1,1,1,3.0,2.0
2021-09-02 05:34:03.095,987.0,-108.0,-1.0,992.8917362935396,1,1,1,3.0,2.0
2021-09-02 05:34:03.105,904.0,-99.0,13.0,909.4976635484009,1,1,1,3.0,2.0
2021-09-02 05:34:03.114,1039.0,166.0,0.0,1052.177266433751,1,1,1,3.0,2.0
2021-09-02 05:34:03.124,1102.0,166.0,0.0,1114.4325910525051,1,1,1,3.0,2.0
2021-09-02 05:34:03.125,1102.0,224.0,21.0,1124.7315235201688,1,1,1,3.0,2.0
2021-09-02 05:34:03.133,1012.0,-194.0,21.0,1030.6410626401414,1,1,1,3.0,2.0
2021-09-02 05:34:03.134,1012.0,-194.0,-5.0,1030.4392267378023,1,1,1,3.0,2.0
2021-09-02 05:34:03.143,986.0,-146.0,-4.0,996.7587471399486,1,1,1,3.0,2.0
2021-09-02 05:34:03.153,905.0,-86.0,14.0,909.1847996969592,1,1,1,3.0,2.0
2021-09-02 05:34:03.163,1061.0,195.0,16.0,1078.8892436204933,1,1,1,3.0,2.0
2021-09-02 05:34:03.173,1084.0,207.0,8.0,1103.6163282590558,1,1,1,3.0,2.0
2021-09-02 05:34:03.190,999.0,207.0,8.0,1020.2519296722746,1,1,1,3.0,2.0
2021-09-02 05:34:03.191,999.0,-185.0,9.0,1016.0250981151992,1,1,1,3.0,2.0
2021-09-02 05:34:03.193,920.0,-80.0,14.0,923.5778256324694,1,1,1,3.0,2.0
2021-09-02 05:34:03.203,918.0,-93.0,3.0,922.7036360608968,1,1,1,3.0,2.0
2021-09-02 05:34:03.211,1070.0,-93.0,3.0,1074.038174368118,1,1,1,3.0,2.0
2021-09-02 05:34:03.212,1070.0,180.0,14.0,1085.1248776062596,1,1,1,3.0,2.0
2021-09-02 05:34:03.221,1070.0,142.0,7.0,1079.4040022160375,1,1,1,3.0,2.0
2021-09-02 05:34:03.231,995.0,-208.0,14.0,1016.6046429168028,1,1,1,3.0,2.0
2021-09-02 05:34:03.241,925.0,-80.0,13.0,928.54402157356,1,1,1,3.0,2.0
2021-09-02 05:34:03.251,919.0,-74.0,9.0,922.0184379935145,1,1,1,3.0,2.0
2021-09-02 05:34:03.262,1077.0,265.0,25.0,1109.4047953745287,1,1,1,3.0,2.0
2021-09-02 05:34:03.270,1062.0,144.0,-8.0,1071.7481047335702,1,1,1,3.0,2.0
2021-09-02 05:34:03.280,985.0,-236.0,28.0,1013.2645261727068,1,1,1,3.0,2.0
2021-09-02 05:34:03.290,912.0,-67.0,12.0,914.5364946244628,1,1,1,3.0,2.0
2021-09-02 05:34:03.299,915.0,-67.0,12.0,917.5282012014673,1,1,1,3.0,2.0
2021-09-02 05:34:03.300,915.0,-28.0,-6.0,915.4479777682618,1,1,1,3.0,2.0
2021-09-02 05:34:03.310,1094.0,-28.0,-6.0,1094.3747073100694,1,1,1,3.0,2.0
2021-09-02 05:34:03.311,1094.0,265.0,30.0,1126.0377435947696,1,1,1,3.0,2.0
2021-09-02 05:34:03.319,1054.0,91.0,-24.0,1058.1932715718806,1,1,1,3.0,2.0
2021-09-02 05:34:03.329,993.0,-243.0,22.0,1022.537040893874,1,1,1,3.0,2.0
2021-09-02 05:34:03.338,932.0,-243.0,22.0,963.4090512342096,1,1,1,3.0,2.0
2021-09-02 05:34:03.339,932.0,-28.0,2.0,932.4226509475196,1,1,1,3.0,2.0
2021-09-02 05:34:03.348,1103.0,270.0,9.0,1135.6011623805252,1,1,1,3.0,2.0
2021-09-02 05:34:03.359,1091.0,270.0,9.0,1123.94928711219,1,1,1,3.0,2.0
2021-09-02 05:34:03.360,1091.0,284.0,20.0,1127.535808744006,1,1,1,3.0,2.0
2021-09-02 05:34:03.368,1050.0,284.0,20.0,1087.9135995105494,1,1,1,3.0,2.0
2021-09-02 05:34:03.369,1050.0,79.0,-23.0,1053.218875637918,1,1,1,3.0,2.0
2021-09-02 05:34:03.377,988.0,79.0,-23.0,991.4201934598668,1,1,1,3.0,2.0
2021-09-02 05:34:03.378,988.0,-266.0,22.0,1023.4178032455758,1,1,1,3.0,2.0
2021-09-02 05:34:03.387,924.0,1.0,-8.0,924.0351724907446,1,1,1,3.0,2.0
2021-09-02 05:34:03.401,1097.0,265.0,13.0,1128.6288140925697,1,1,1,3.0,2.0
2021-09-02 05:34:03.407,1098.0,289.0,20.0,1135.5725428170583,1,1,1,3.0,2.0
2021-09-02 05:34:03.418,1043.0,67.0,-19.0,1045.322438293563,1,1,1,3.0,2.0
2021-09-02 05:34:03.426,977.0,-249.0,-19.0,1008.4101348161868,1,1,1,3.0,2.0
2021-09-02 05:34:03.427,977.0,-249.0,8.0,1008.2628625512298,1,1,1,3.0,2.0
2021-09-02 05:34:03.436,938.0,55.0,-13.0,939.7010162812423,1,1,1,3.0,2.0
2021-09-02 05:34:03.446,1114.0,228.0,13.0,1137.1670941422813,1,1,1,3.0,2.0
2021-09-02 05:34:03.456,1109.0,238.0,9.0,1134.286559913323,1,1,1,3.0,2.0
2021-09-02 05:34:03.467,1035.0,40.0,-11.0,1035.8310673077922,1,1,1,3.0,2.0
2021-09-02 05:34:03.475,970.0,-201.0,13.0,990.6916775667391,1,1,1,3.0,2.0
2021-09-02 05:34:03.485,951.0,81.0,-4.0,954.4516750469874,1,1,1,3.0,2.0
2021-09-02 05:34:03.495,1109.0,209.0,14.0,1128.608878221326,1,1,1,3.0,2.0
2021-09-02 05:34:03.504,1038.0,209.0,14.0,1058.9244543403463,1,1,1,3.0,2.0
2021-09-02 05:34:03.505,1038.0,-42.0,-1.0,1038.8498447802742,1,1,1,3.0,2.0
2021-09-02 05:34:03.515,1017.0,23.0,-3.0,1017.2644690541392,1,1,1,3.0,2.0
2021-09-02 05:34:03.525,942.0,-185.0,16.0,960.1275956871566,1,1,1,3.0,2.0
2021-09-02 05:34:03.534,933.0,110.0,-9.0,939.5051889159528,1,1,1,3.0,2.0
2021-09-02 05:34:03.543,1137.0,110.0,-9.0,1142.3440812644849,1,1,1,3.0,2.0
2021-09-02 05:34:03.544,1137.0,211.0,12.0,1156.4748159817402,1,1,1,3.0,2.0
2021-09-02 05:34:03.553,1039.0,-86.0,-16.0,1042.6758844434833,1,1,1,3.0,2.0
2021-09-02 05:34:03.563,1024.0,-2.0,-4.0,1024.0097655784343,1,1,1,3.0,2.0
2021-09-02 05:34:03.574,934.0,-134.0,24.0,943.8686349275516,1,1,1,3.0,2.0
2021-09-02 05:34:03.583,976.0,116.0,12.0,982.9425212086412,1,1,1,3.0,2.0
2021-09-02 05:34:03.592,1107.0,199.0,12.0,1124.808428133431,1,1,1,3.0,2.0
2021-09-02 05:34:03.593,1107.0,199.0,21.0,1124.9404428679768,1,1,1,3.0,2.0
2021-09-02 05:34:03.602,1033.0,-74.0,-15.0,1035.7557627162882,1,1,1,3.0,2.0
2021-09-02 05:34:03.613,953.0,-68.0,30.0,955.8938225556226,1,1,1,3.0,2.0
2021-09-02 05:34:03.634,932.0,-74.0,24.0,935.241145373748,1,1,1,3.0,2.0
2021-09-02 05:34:03.635,987.0,-74.0,24.0,990.061109225082,1,1,1,3.0,2.0
2021-09-02 05:34:03.636,987.0,142.0,10.0,997.2126152431084,1,1,1,3.0,2.0
2021-09-02 05:34:03.641,1119.0,200.0,23.0,1136.965258923948,1,1,1,3.0,2.0
2021-09-02 05:34:03.651,1031.0,-153.0,-6.0,1042.308015895493,1,1,1,3.0,2.0
2021-09-02 05:34:03.662,935.0,-79.0,19.0,938.5238409331964,1,1,1,3.0,2.0
2021-09-02 05:34:03.670,908.0,-79.0,19.0,911.628213692402,1,1,1,3.0,2.0
2021-09-02 05:34:03.671,908.0,-70.0,25.0,911.037320860128,1,1,1,3.0,2.0
2021-09-02 05:34:03.680,1036.0,143.0,8.0,1045.8532401823882,1,1,1,3.0,2.0
2021-09-02 05:34:03.691,1110.0,196.0,17.0,1127.2998713740724,1,1,1,3.0,2.0
2021-09-02 05:34:03.700,1010.0,-143.0,-9.0,1020.1127388676216,1,1,1,3.0,2.0
2021-09-02 05:34:03.710,954.0,-65.0,22.0,956.4648451459154,1,1,1,3.0,2.0
2021-09-02 05:34:03.719,928.0,-81.0,20.0,931.7429903143892,1,1,1,3.0,2.0
2021-09-02 05:34:03.729,1026.0,191.0,4.0,1043.634514569157,1,1,1,3.0,2.0
2021-09-02 05:34:03.740,1109.0,209.0,20.0,1128.6992513508635,1,1,1,3.0,2.0
2021-09-02 05:34:03.749,994.0,-145.0,2.0,1004.5222745165984,1,1,1,3.0,2.0
2021-09-02 05:34:03.758,935.0,-101.0,2.0,940.4413857333162,1,1,1,3.0,2.0
2021-09-02 05:34:03.759,935.0,-101.0,19.0,940.6311710761024,1,1,1,3.0,2.0
2021-09-02 05:34:03.768,944.0,-106.0,14.0,950.0357887995588,1,1,1,3.0,2.0
2021-09-02 05:34:03.778,1041.0,202.0,13.0,1060.4970532726622,1,1,1,3.0,2.0
2021-09-02 05:34:03.788,1086.0,164.0,12.0,1098.3788053308383,1,1,1,3.0,2.0
2021-09-02 05:34:03.797,981.0,164.0,12.0,994.6863827357848,1,1,1,3.0,2.0
2021-09-02 05:34:03.798,981.0,-168.0,10.0,995.331603034888,1,1,1,3.0,2.0
2021-09-02 05:34:03.830,933.0,-94.0,20.0,937.9365650191914,1,1,1,3.0,2.0
2021-09-02 05:34:03.832,1038.0,254.0,21.0,1068.8316050716314,1,1,1,3.0,2.0
2021-09-02 05:34:03.836,1087.0,254.0,21.0,1116.479287761309,1,1,1,3.0,2.0
2021-09-02 05:34:03.837,1087.0,125.0,-4.0,1094.1709190067154,1,1,1,3.0,2.0
2021-09-02 05:34:03.846,968.0,-208.0,18.0,990.2585520963704,1,1,1,3.0,2.0
2021-09-02 05:34:03.856,942.0,-101.0,13.0,947.4882585024473,1,1,1,3.0,2.0
2021-09-02 05:34:03.866,1055.0,291.0,12.0,1094.4633388103962,1,1,1,3.0,2.0
2021-09-02 05:34:03.876,1057.0,251.0,19.0,1086.5592482695088,1,1,1,3.0,2.0
2021-09-02 05:34:03.887,1076.0,98.0,-14.0,1080.544307282214,1,1,1,3.0,2.0
2021-09-02 05:34:03.895,975.0,-211.0,14.0,997.6682815445222,1,1,1,3.0,2.0
2021-09-02 05:34:03.905,947.0,-62.0,7.0,949.0532124175124,1,1,1,3.0,2.0
2021-09-02 05:34:03.930,1072.0,-62.0,7.0,1073.814229743674,1,1,1,3.0,2.0
2021-09-02 05:34:03.931,1072.0,267.0,18.0,1104.896827762665,1,1,1,3.0,2.0
2021-09-02 05:34:03.935,1074.0,284.0,14.0,1111.0031503105652,1,1,1,3.0,2.0
2021-09-02 05:34:03.937,1075.0,81.0,-20.0,1078.2328134498598,1,1,1,3.0,2.0
2021-09-02 05:34:03.944,970.0,-230.0,13.0,996.9799396176436,1,1,1,3.0,2.0
2021-09-02 05:34:03.955,951.0,-25.0,9.0,951.37111581128,1,1,1,3.0,2.0
2021-09-02 05:34:03.965,1125.0,77.0,4.0,1127.639126671295,1,1,1,3.0,2.0
2021-09-02 05:34:03.973,998.0,151.0,0.0,1009.3587072988472,1,1,1,3.0,2.0
2021-09-02 05:34:03.983,1028.0,81.0,20.0,1031.3801433031372,1,1,1,3.0,2.0
2021-09-02 05:34:03.993,1018.0,118.0,-5.0,1024.8282782983697,1,1,1,3.0,2.0
2021-09-02 05:34:04.003,1014.0,53.0,4.0,1015.3920425136292,1,1,1,3.0,2.0
2021-09-02 05:34:04.012,984.0,-20.0,-3.0,984.2078032610796,1,1,1,3.0,2.0
2021-09-02 05:34:04.023,983.0,31.0,2.0,983.4907218677764,1,1,1,3.0,2.0
2021-09-02 05:34:04.032,986.0,23.0,9.0,986.3092821219924,1,1,1,3.0,2.0
2021-09-02 05:34:04.042,1037.0,89.0,7.0,1040.8357219081213,1,1,1,3.0,2.0
2021-09-02 05:34:04.052,1014.0,74.0,10.0,1016.745789270848,1,1,1,3.0,2.0
2021-09-02 05:34:04.061,1002.0,23.0,3.0,1002.2684271192024,1,1,1,3.0,2.0
2021-09-02 05:34:04.072,1004.0,32.0,13.0,1004.5939478217056,1,1,1,3.0,2.0
2021-09-02 05:34:04.081,1008.0,81.0,9.0,1011.289276122317,1,1,1,3.0,2.0
2021-09-02 05:34:04.090,999.0,97.0,9.0,1003.738511764892,1,1,1,3.0,2.0
2021-09-02 05:34:04.091,999.0,97.0,0.0,1003.6981617996518,1,1,1,3.0,2.0
2021-09-02 05:34:04.100,1019.0,34.0,10.0,1019.6161042274686,1,1,1,3.0,2.0
2021-09-02 05:34:04.110,1005.0,33.0,16.0,1005.6689316072165,1,1,1,3.0,2.0
2021-09-02 05:34:04.120,998.0,30.0,16.0,998.5789903658098,1,1,1,3.0,2.0
2021-09-02 05:34:04.121,998.0,30.0,7.0,998.4753377024392,1,1,1,3.0,2.0
2021-09-02 05:34:04.139,1015.0,40.0,8.0,1015.8193737077472,1,1,1,3.0,2.0
2021-09-02 05:34:04.257,1013.0,44.0,17.0,1014.0976284362368,1,1,1,3.0,2.0
2021-09-02 05:34:04.266,1020.0,43.0,-1.0,1020.9064599658482,1,1,1,3.0,2.0
2021-09-02 05:34:04.276,1008.0,44.0,-1.0,1008.9603560100862,1,1,1,3.0,2.0
2021-09-02 05:34:04.277,1008.0,44.0,9.0,1009.0,1,1,1,3.0,2.0
2021-09-02 05:34:04.286,1018.0,41.0,11.0,1018.8846843485284,1,1,1,3.0,2.0
2021-09-02 05:34:04.295,1015.0,41.0,11.0,1015.8872968986276,1,1,1,3.0,2.0
2021-09-02 05:34:04.296,1015.0,45.0,8.0,1016.0285429061528,1,1,1,3.0,2.0
