time_stamp,Acceleration_X,Acceleration_Y,Acceleration_Z,magnitude,STD_Status_right,STD_Status_left,STD_Status_both,KMeans,KMeans_convert
2021-08-12 06:19:35.863,1027.0,-48.0,23.0,1028.378335049898,1,1,1,3.0,2.0
2021-08-12 06:19:35.872,975.0,-62.0,-38.0,977.7080341287984,1,1,1,3.0,2.0
2021-08-12 06:19:35.883,998.0,214.0,13.0,1020.7688278939556,1,1,1,3.0,2.0
2021-08-12 06:19:35.891,1091.0,214.0,13.0,1111.8659991203976,1,1,1,3.0,2.0
2021-08-12 06:19:35.892,1091.0,35.0,-1.0,1091.5617252359118,1,1,1,3.0,2.0
2021-08-12 06:19:35.901,992.0,-12.0,0.0,992.0725779901388,1,1,1,3.0,2.0
2021-08-12 06:19:35.911,980.0,-83.0,-21.0,983.7326872682436,1,1,1,3.0,2.0
2021-08-12 06:19:35.921,973.0,85.0,40.0,977.524424247292,1,1,1,3.0,2.0
2021-08-12 06:19:35.934,1064.0,65.0,40.0,1066.7337999707331,1,1,1,3.0,2.0
2021-08-12 06:19:35.935,1064.0,65.0,23.0,1066.231682140425,1,1,1,3.0,2.0
2021-08-12 06:19:35.941,1000.0,65.0,23.0,1002.374181630792,1,1,1,3.0,2.0
2021-08-12 06:19:35.942,1000.0,36.0,15.0,1000.7602110395876,1,1,1,3.0,2.0
2021-08-12 06:19:35.951,1033.0,-59.0,20.0,1034.876804262227,1,1,1,3.0,2.0
2021-08-12 06:19:35.960,990.0,33.0,25.0,990.8652784309278,1,1,1,3.0,2.0
2021-08-12 06:19:35.970,984.0,-14.0,-8.0,984.132104953395,1,1,1,3.0,2.0
2021-08-12 06:19:35.979,994.0,142.0,0.0,1004.0916292848976,1,1,1,3.0,2.0
2021-08-12 06:19:35.990,1043.0,13.0,-3.0,1043.0853272863155,1,1,1,3.0,2.0
2021-08-12 06:19:36.001,987.0,71.0,2.0,989.5524240786842,1,1,1,3.0,2.0
2021-08-12 06:19:36.009,957.0,162.0,18.0,970.7816438314024,1,1,1,3.0,2.0
2021-08-12 06:19:36.018,1010.0,162.0,18.0,1023.067935183192,1,1,1,3.0,2.0
2021-08-12 06:19:36.019,1010.0,107.0,-20.0,1015.8489060879084,1,1,1,3.0,2.0
2021-08-12 06:19:36.028,1052.0,75.0,17.0,1054.8070913678955,1,1,1,3.0,2.0
2021-08-12 06:19:36.039,1025.0,54.0,15.0,1026.5310516491938,1,1,1,3.0,2.0
2021-08-12 06:19:36.050,1009.0,-38.0,17.0,1009.8584059163938,1,1,1,3.0,2.0
2021-08-12 06:19:36.058,991.0,51.0,32.0,992.82727601532,1,1,1,3.0,2.0
2021-08-12 06:19:36.068,1085.0,53.0,40.0,1087.029898392864,1,1,1,3.0,2.0
2021-08-12 06:19:36.077,1014.0,124.0,1.0,1021.5542080575068,1,1,1,3.0,2.0
2021-08-12 06:19:36.086,1033.0,-6.0,-15.0,1033.1263233506345,1,1,1,3.0,2.0
2021-08-12 06:19:36.098,991.0,53.0,-4.0,992.424304418226,1,1,1,3.0,2.0
2021-08-12 06:19:36.107,959.0,189.0,9.0,977.4881073445345,1,1,1,3.0,2.0
2021-08-12 06:19:36.116,1038.0,108.0,-17.0,1043.741826315301,1,1,1,3.0,2.0
2021-08-12 06:19:36.126,1068.0,84.0,19.0,1071.466751700677,1,1,1,3.0,2.0
2021-08-12 06:19:36.136,1033.0,50.0,9.0,1034.2485194574851,1,1,1,3.0,2.0
2021-08-12 06:19:36.146,999.0,-7.0,29.0,999.4453461795696,1,1,1,3.0,2.0
2021-08-12 06:19:36.156,980.0,68.0,25.0,982.6744120002312,1,1,1,3.0,2.0
2021-08-12 06:19:36.165,1067.0,42.0,38.0,1068.50222273985,1,1,1,3.0,2.0
2021-08-12 06:19:36.175,1054.0,-72.0,27.0,1056.8013058281108,1,1,1,3.0,2.0
2021-08-12 06:19:36.184,1017.0,1.0,27.0,1017.3588354164916,1,1,1,3.0,2.0
2021-08-12 06:19:36.185,1017.0,1.0,-18.0,1017.1597711274272,1,1,1,3.0,2.0
2021-08-12 06:19:36.195,981.0,81.0,-4.0,984.3464837139412,1,1,1,3.0,2.0
2021-08-12 06:19:36.210,930.0,199.0,-19.0,951.242345567101,1,1,1,3.0,2.0
2021-08-12 06:19:36.214,1033.0,69.0,-19.0,1035.476218944694,1,1,1,3.0,2.0
2021-08-12 06:19:36.223,975.0,69.0,-19.0,977.6231380240548,1,1,1,3.0,2.0
2021-08-12 06:19:36.224,975.0,52.0,-17.0,976.5336655743108,1,1,1,3.0,2.0
2021-08-12 06:19:36.233,1019.0,-87.0,-7.0,1022.7311474674076,1,1,1,3.0,2.0
2021-08-12 06:19:36.245,1011.0,3.0,40.0,1011.7954338699104,1,1,1,3.0,2.0
2021-08-12 06:19:36.253,971.0,86.0,25.0,975.1215308873044,1,1,1,3.0,2.0
2021-08-12 06:19:36.262,1061.0,86.0,25.0,1064.7732152904673,1,1,1,3.0,2.0
2021-08-12 06:19:36.263,1061.0,41.0,38.0,1062.4716466805123,1,1,1,3.0,2.0
2021-08-12 06:19:36.272,1052.0,-74.0,23.0,1054.8502263354735,1,1,1,3.0,2.0
2021-08-12 06:19:36.283,1014.0,40.0,37.0,1015.46294861014,1,1,1,3.0,2.0
2021-08-12 06:19:36.293,986.0,81.0,-9.0,989.3624209560418,1,1,1,3.0,2.0
2021-08-12 06:19:36.302,928.0,195.0,-26.0,948.6226857924072,1,1,1,3.0,2.0
2021-08-12 06:19:36.311,1045.0,109.0,-26.0,1050.990960950664,1,1,1,3.0,2.0
2021-08-12 06:19:36.312,1045.0,109.0,-16.0,1050.7911305297548,1,1,1,3.0,2.0
2021-08-12 06:19:36.321,967.0,77.0,-23.0,970.333447841514,1,1,1,3.0,2.0
2021-08-12 06:19:36.331,1005.0,-63.0,-7.0,1006.9970208496152,1,1,1,3.0,2.0
2021-08-12 06:19:36.341,948.0,99.0,18.0,953.32523306582,1,1,1,3.0,2.0
2021-08-12 06:19:36.351,971.0,92.0,21.0,975.5747024190408,1,1,1,3.0,2.0
2021-08-12 06:19:36.360,1064.0,38.0,41.0,1065.4675030239073,1,1,1,3.0,2.0
2021-08-12 06:19:36.370,1028.0,-121.0,15.0,1035.2052936495254,1,1,1,3.0,2.0
2021-08-12 06:19:36.380,1005.0,12.0,53.0,1006.468081957893,1,1,1,3.0,2.0
2021-08-12 06:19:36.391,1034.0,17.0,16.0,1034.2635060757002,1,1,1,3.0,2.0
2021-08-12 06:19:36.401,1085.0,39.0,32.0,1086.172177879732,1,1,1,3.0,2.0
2021-08-12 06:19:36.409,1050.0,76.0,-9.0,1052.7853532415809,1,1,1,3.0,2.0
2021-08-12 06:19:36.419,974.0,87.0,-22.0,978.1252476038026,1,1,1,3.0,2.0
2021-08-12 06:19:36.429,994.0,0.0,5.0,994.012575373169,1,1,1,3.0,2.0
2021-08-12 06:19:36.439,952.0,93.0,-4.0,956.5401193886224,1,1,1,3.0,2.0
2021-08-12 06:19:36.450,1059.0,64.0,14.0,1061.0245049008058,1,1,1,3.0,2.0
2021-08-12 06:19:36.459,1050.0,34.0,35.0,1051.133198029631,1,1,1,3.0,2.0
2021-08-12 06:19:36.468,1016.0,-104.0,14.0,1021.4049148109676,1,1,1,3.0,2.0
2021-08-12 06:19:36.478,1003.0,29.0,59.0,1005.1522272770428,1,1,1,3.0,2.0
2021-08-12 06:19:36.487,1061.0,22.0,28.0,1061.5973813079986,1,1,1,3.0,2.0
2021-08-12 06:19:36.498,1090.0,22.0,28.0,1090.5814962670145,1,1,1,3.0,2.0
2021-08-12 06:19:36.499,1090.0,6.0,20.0,1090.199981654742,1,1,1,3.0,2.0
2021-08-12 06:19:36.508,986.0,6.0,20.0,986.2210705516284,1,1,1,3.0,2.0
2021-08-12 06:19:36.509,986.0,-42.0,-17.0,987.0405260170426,1,1,1,3.0,2.0
2021-08-12 06:19:36.516,980.0,80.0,-17.0,983.4068334112796,1,1,1,3.0,2.0
2021-08-12 06:19:36.517,980.0,80.0,-23.0,983.528850619035,1,1,1,3.0,2.0
2021-08-12 06:19:36.526,973.0,74.0,-1.0,975.810432409902,1,1,1,3.0,2.0
2021-08-12 06:19:36.536,970.0,87.0,-11.0,973.9558511554824,1,1,1,3.0,2.0
2021-08-12 06:19:36.545,1039.0,87.0,-11.0,1042.6941066295522,1,1,1,3.0,2.0
2021-08-12 06:19:36.546,1039.0,71.0,3.0,1041.4273858507852,1,1,1,3.0,2.0
2021-08-12 06:19:36.557,1015.0,-102.0,-16.0,1020.237717397274,1,1,1,3.0,2.0
2021-08-12 06:19:36.565,1004.0,-114.0,-4.0,1010.4593015060032,1,1,1,3.0,2.0
2021-08-12 06:19:36.575,985.0,21.0,-4.0,985.231952384818,1,1,1,3.0,2.0
2021-08-12 06:19:36.576,985.0,21.0,55.0,986.7578223657516,1,1,1,3.0,2.0
2021-08-12 06:19:36.585,1065.0,67.0,38.0,1067.7818129187256,1,1,1,3.0,2.0
2021-08-12 06:19:36.595,1101.0,7.0,24.0,1101.2837963032057,1,1,1,3.0,2.0
2021-08-12 06:19:36.605,989.0,-37.0,24.0,989.9828281339026,1,1,1,3.0,2.0
2021-08-12 06:19:36.606,989.0,-37.0,-9.0,989.732792222224,1,1,1,3.0,2.0
2021-08-12 06:19:36.615,992.0,14.0,2.0,992.1008013301874,1,1,1,3.0,2.0
2021-08-12 06:19:36.638,955.0,14.0,2.0,955.1047063018798,1,1,1,3.0,2.0
2021-08-12 06:19:36.639,955.0,130.0,10.0,963.8594295850406,1,1,1,3.0,2.0
2021-08-12 06:19:36.640,989.0,102.0,-7.0,994.2705869128384,1,1,1,3.0,2.0
2021-08-12 06:19:36.644,1039.0,61.0,-15.0,1040.89720914219,1,1,1,3.0,2.0
2021-08-12 06:19:36.653,1017.0,-120.0,-25.0,1024.3602881798963,1,1,1,3.0,2.0
2021-08-12 06:19:36.674,993.0,97.0,-25.0,998.0395783735232,1,1,1,3.0,2.0
2021-08-12 06:19:36.675,993.0,97.0,42.0,998.6100339972556,1,1,1,3.0,2.0
2021-08-12 06:19:36.677,982.0,23.0,42.0,983.166822060224,1,1,1,3.0,2.0
2021-08-12 06:19:36.682,1079.0,23.0,42.0,1080.0620352553829,1,1,1,3.0,2.0
2021-08-12 06:19:36.683,1079.0,66.0,43.0,1081.8715265686587,1,1,1,3.0,2.0
2021-08-12 06:19:36.692,1085.0,-37.0,21.0,1085.833781018071,1,1,1,3.0,2.0
2021-08-12 06:19:36.703,979.0,4.0,11.0,979.069966856302,1,1,1,3.0,2.0
2021-08-12 06:19:36.713,986.0,0.0,-7.0,986.0248475570988,1,1,1,3.0,2.0
2021-08-12 06:19:36.735,1000.0,0.0,-7.0,1000.0244996998824,1,1,1,3.0,2.0
2021-08-12 06:19:36.736,1000.0,158.0,1.0,1012.4055511503284,1,1,1,3.0,2.0
2021-08-12 06:19:36.737,1019.0,107.0,-20.0,1024.7975409806563,1,1,1,3.0,2.0
2021-08-12 06:19:36.741,1018.0,53.0,-21.0,1019.5950176418086,1,1,1,3.0,2.0
2021-08-12 06:19:36.750,1000.0,-133.0,-21.0,1009.0242811746404,1,1,1,3.0,2.0
2021-08-12 06:19:36.751,1000.0,-133.0,-20.0,1009.0039643133222,1,1,1,3.0,2.0
2021-08-12 06:19:36.761,985.0,110.0,39.0,991.890114881684,1,1,1,3.0,2.0
2021-08-12 06:19:36.770,1068.0,110.0,30.0,1074.0688990935355,1,1,1,3.0,2.0
2021-08-12 06:19:36.781,1041.0,58.0,8.0,1042.6451937260344,1,1,1,3.0,2.0
2021-08-12 06:19:36.790,1070.0,-47.0,26.0,1071.3472826306136,1,1,1,3.0,2.0
2021-08-12 06:19:36.800,987.0,-3.0,26.0,987.3469501649356,1,1,1,3.0,2.0
2021-08-12 06:19:36.810,996.0,22.0,6.0,996.2610099768032,1,1,1,3.0,2.0
2021-08-12 06:19:36.820,1037.0,137.0,1.0,1046.0109942060838,1,1,1,3.0,2.0
2021-08-12 06:19:36.831,1032.0,-11.0,-14.0,1032.1535738445127,1,1,1,3.0,2.0
2021-08-12 06:19:36.839,1003.0,51.0,-29.0,1004.7143872763044,1,1,1,3.0,2.0
2021-08-12 06:19:36.848,992.0,51.0,-29.0,993.7333646406364,1,1,1,3.0,2.0
2021-08-12 06:19:36.849,992.0,-104.0,-12.0,997.5088972034284,1,1,1,3.0,2.0
2021-08-12 06:19:36.858,964.0,108.0,23.0,970.3035607478724,1,1,1,3.0,2.0
2021-08-12 06:19:36.868,1067.0,81.0,26.0,1070.3859117159568,1,1,1,3.0,2.0
2021-08-12 06:19:36.878,1027.0,29.0,9.0,1027.4487821784596,1,1,1,3.0,2.0
2021-08-12 06:19:36.889,1004.0,-10.0,9.0,1004.0901353962204,1,1,1,3.0,2.0
2021-08-12 06:19:36.890,1004.0,-10.0,34.0,1004.625303284762,1,1,1,3.0,2.0
2021-08-12 06:19:36.897,994.0,-28.0,27.0,994.7607752620728,1,1,1,3.0,2.0
2021-08-12 06:19:36.907,1002.0,-28.0,27.0,1002.7547057979832,1,1,1,3.0,2.0
2021-08-12 06:19:36.908,1002.0,20.0,1.0,1002.2000798243832,1,1,1,3.0,2.0
2021-08-12 06:19:36.917,1044.0,144.0,6.0,1053.9013236541646,1,1,1,3.0,2.0
2021-08-12 06:19:36.929,1029.0,-17.0,-17.0,1029.2808168813797,1,1,1,3.0,2.0
2021-08-12 06:19:36.936,985.0,48.0,3.0,986.173412742404,1,1,1,3.0,2.0
2021-08-12 06:19:36.946,986.0,-89.0,-4.0,990.0166665263772,1,1,1,3.0,2.0
2021-08-12 06:19:36.956,957.0,109.0,14.0,963.2891570032334,1,1,1,3.0,2.0
2021-08-12 06:19:36.966,1057.0,67.0,1.0,1059.1218060261058,1,1,1,3.0,2.0
2021-08-12 06:19:36.975,1029.0,67.0,1.0,1031.179421827259,1,1,1,3.0,2.0
2021-08-12 06:19:36.976,1029.0,21.0,16.0,1029.3386226116263,1,1,1,3.0,2.0
2021-08-12 06:19:36.985,1005.0,21.0,16.0,1005.3467063655204,1,1,1,3.0,2.0
2021-08-12 06:19:36.986,1005.0,10.0,42.0,1005.9269357165064,1,1,1,3.0,2.0
2021-08-12 06:19:36.995,993.0,10.0,42.0,993.938126846938,1,1,1,3.0,2.0
2021-08-12 06:19:36.996,993.0,72.0,34.0,996.187231397793,1,1,1,3.0,2.0
2021-08-12 06:19:37.005,1030.0,37.0,18.0,1030.8215170435665,1,1,1,3.0,2.0
2021-08-12 06:19:37.015,1041.0,98.0,16.0,1045.7251072820236,1,1,1,3.0,2.0
2021-08-12 06:19:37.025,1013.0,-27.0,-17.0,1013.5023433618692,1,1,1,3.0,2.0
2021-08-12 06:19:37.035,976.0,15.0,0.0,976.1152595877188,1,1,1,3.0,2.0
2021-08-12 06:19:37.045,930.0,222.0,-18.0,956.2991163856632,1,1,1,3.0,2.0
2021-08-12 06:19:37.053,958.0,222.0,-18.0,983.5507104364268,1,1,1,3.0,2.0
2021-08-12 06:19:37.054,958.0,112.0,10.0,964.5765910491504,1,1,1,3.0,2.0
2021-08-12 06:19:37.063,1060.0,78.0,4.0,1062.87346377638,1,1,1,3.0,2.0
2021-08-12 06:19:37.074,1030.0,-22.0,17.0,1030.3751743903772,1,1,1,3.0,2.0
2021-08-12 06:19:37.083,1016.0,-22.0,17.0,1016.3803421947908,1,1,1,3.0,2.0
2021-08-12 06:19:37.084,1016.0,43.0,36.0,1017.5465591313256,1,1,1,3.0,2.0
2021-08-12 06:19:37.092,1005.0,63.0,31.0,1007.4497506079398,1,1,1,3.0,2.0
2021-08-12 06:19:37.103,1071.0,26.0,23.0,1071.5624106882435,1,1,1,3.0,2.0
2021-08-12 06:19:37.112,1085.0,54.0,25.0,1086.6305719976776,1,1,1,3.0,2.0
2021-08-12 06:19:37.121,993.0,54.0,25.0,994.7813830183997,1,1,1,3.0,2.0
2021-08-12 06:19:37.122,993.0,-37.0,-17.0,993.83449326334,1,1,1,3.0,2.0
2021-08-12 06:19:37.135,973.0,15.0,6.0,973.1341120318413,1,1,1,3.0,2.0
2021-08-12 06:19:37.142,940.0,223.0,-13.0,966.1770024172588,1,1,1,3.0,2.0
2021-08-12 06:19:37.152,1066.0,81.0,-6.0,1069.0897997829743,1,1,1,3.0,2.0
2021-08-12 06:19:37.161,965.0,88.0,-23.0,969.2770501770894,1,1,1,3.0,2.0
2021-08-12 06:19:37.170,1034.0,88.0,-23.0,1037.992774541326,1,1,1,3.0,2.0
2021-08-12 06:19:37.171,1034.0,-92.0,1.0,1038.085256614311,1,1,1,3.0,2.0
2021-08-12 06:19:37.182,983.0,66.0,61.0,987.0997923209184,1,1,1,3.0,2.0
2021-08-12 06:19:37.190,1038.0,99.0,23.0,1042.9640454013745,1,1,1,3.0,2.0
2021-08-12 06:19:37.201,1061.0,38.0,25.0,1061.9745759668638,1,1,1,3.0,2.0
2021-08-12 06:19:37.211,1015.0,-112.0,12.0,1021.2311197765176,1,1,1,3.0,2.0
2021-08-12 06:19:37.225,977.0,-24.0,-14.0,977.3950071491056,1,1,1,3.0,2.0
2021-08-12 06:19:37.229,997.0,6.0,1.0,997.0185554943298,1,1,1,3.0,2.0
2021-08-12 06:19:37.239,948.0,232.0,-12.0,976.0491790888408,1,1,1,3.0,2.0
2021-08-12 06:19:37.250,1073.0,63.0,-23.0,1075.0939493830294,1,1,1,3.0,2.0
2021-08-12 06:19:37.259,965.0,90.0,-13.0,969.2749867813573,1,1,1,3.0,2.0
2021-08-12 06:19:37.268,1038.0,-113.0,-17.0,1044.2710376142777,1,1,1,3.0,2.0
2021-08-12 06:19:37.280,975.0,99.0,54.0,981.4998726439042,1,1,1,3.0,2.0
2021-08-12 06:19:37.288,1053.0,40.0,22.0,1053.9890891275868,1,1,1,3.0,2.0
2021-08-12 06:19:37.297,1032.0,46.0,26.0,1033.3518277914836,1,1,1,3.0,2.0
2021-08-12 06:19:37.307,1022.0,-74.0,6.0,1024.6931247939551,1,1,1,3.0,2.0
2021-08-12 06:19:37.319,1004.0,8.0,44.0,1004.9955223780852,1,1,1,3.0,2.0
2021-08-12 06:19:37.328,984.0,6.0,-17.0,984.165128421039,1,1,1,3.0,2.0
2021-08-12 06:19:37.337,972.0,174.0,-13.0,987.536834756051,1,1,1,3.0,2.0
2021-08-12 06:19:37.346,1069.0,174.0,-13.0,1083.146342836461,1,1,1,3.0,2.0
2021-08-12 06:19:37.347,1069.0,17.0,-17.0,1069.2703119417465,1,1,1,3.0,2.0
2021-08-12 06:19:37.356,962.0,63.0,-19.0,964.2478934381968,1,1,1,3.0,2.0
2021-08-12 06:19:37.366,946.0,162.0,23.0,960.0463530476017,1,1,1,3.0,2.0
2021-08-12 06:19:37.377,1009.0,99.0,-20.0,1014.0424054249409,1,1,1,3.0,2.0
2021-08-12 06:19:37.386,1044.0,108.0,21.0,1049.7814058174206,1,1,1,3.0,2.0
2021-08-12 06:19:37.396,1012.0,72.0,20.0,1014.7551428793056,1,1,1,3.0,2.0
2021-08-12 06:19:37.405,1017.0,72.0,20.0,1019.7416339445988,1,1,1,3.0,2.0
2021-08-12 06:19:37.406,1017.0,-55.0,26.0,1018.8179425196632,1,1,1,3.0,2.0
2021-08-12 06:19:37.416,973.0,21.0,35.0,973.8557388032376,1,1,1,3.0,2.0
2021-08-12 06:19:37.424,1099.0,40.0,48.0,1100.774727180816,1,1,1,3.0,2.0
2021-08-12 06:19:37.435,1016.0,156.0,-7.0,1027.9304451177618,1,1,1,3.0,2.0
2021-08-12 06:19:37.444,1043.0,11.0,-28.0,1043.4337544856403,1,1,1,3.0,2.0
2021-08-12 06:19:37.454,995.0,11.0,-28.0,995.4546699875388,1,1,1,3.0,2.0
2021-08-12 06:19:37.455,995.0,71.0,0.0,997.5299494250788,1,1,1,3.0,2.0
2021-08-12 06:19:37.464,935.0,190.0,10.0,954.1619359416932,1,1,1,3.0,2.0
2021-08-12 06:19:37.474,1028.0,103.0,10.0,1033.1955284456085,1,1,1,3.0,2.0
2021-08-12 06:19:37.475,1028.0,103.0,-5.0,1033.159232645191,1,1,1,3.0,2.0
2021-08-12 06:19:37.484,1008.0,53.0,-28.0,1009.7806692544674,1,1,1,3.0,2.0
2021-08-12 06:19:37.493,1037.0,55.0,15.0,1038.5658380670914,1,1,1,3.0,2.0
2021-08-12 06:19:37.503,999.0,-44.0,41.0,1000.8086730239702,1,1,1,3.0,2.0
2021-08-12 06:19:37.514,984.0,60.0,40.0,986.6387383434728,1,1,1,3.0,2.0
2021-08-12 06:19:37.523,1087.0,39.0,42.0,1088.5099907671954,1,1,1,3.0,2.0
2021-08-12 06:19:37.533,1061.0,-72.0,23.0,1063.688864283161,1,1,1,3.0,2.0
2021-08-12 06:19:37.542,1026.0,7.0,-30.0,1026.4623714486568,1,1,1,3.0,2.0
2021-08-12 06:19:37.552,979.0,41.0,-6.0,979.876522833362,1,1,1,3.0,2.0
2021-08-12 06:19:37.562,908.0,191.0,-14.0,927.9768316073414,1,1,1,3.0,2.0
2021-08-12 06:19:37.571,1046.0,98.0,-21.0,1050.79065469769,1,1,1,3.0,2.0
2021-08-12 06:19:37.581,980.0,68.0,-35.0,982.9796539094796,1,1,1,3.0,2.0
2021-08-12 06:19:37.591,983.0,-86.0,0.0,986.7547821014094,1,1,1,3.0,2.0
2021-08-12 06:19:37.601,990.0,-20.0,48.0,991.3647159345544,1,1,1,3.0,2.0
2021-08-12 06:19:37.611,996.0,61.0,36.0,998.5153979784188,1,1,1,3.0,2.0
2021-08-12 06:19:37.620,1065.0,28.0,32.0,1065.8484882946543,1,1,1,3.0,2.0
2021-08-12 06:19:37.631,1048.0,-101.0,20.0,1053.0455830589672,1,1,1,3.0,2.0
2021-08-12 06:19:37.656,989.0,7.0,47.0,990.1408990643704,1,1,1,3.0,2.0
2021-08-12 06:19:37.662,925.0,207.0,-15.0,947.9973628655304,1,1,1,3.0,2.0
2021-08-12 06:19:37.669,1062.0,83.0,-11.0,1065.2952642342873,1,1,1,3.0,2.0
2021-08-12 06:19:37.690,990.0,76.0,-11.0,992.9738163718116,1,1,1,3.0,2.0
2021-08-12 06:19:37.691,990.0,76.0,-24.0,993.20289971385,1,1,1,3.0,2.0
2021-08-12 06:19:37.693,970.0,-13.0,-20.0,970.2932546400598,1,1,1,3.0,2.0
2021-08-12 06:19:37.698,963.0,137.0,0.0,972.6962526914556,1,1,1,3.0,2.0
2021-08-12 06:19:37.708,1001.0,82.0,28.0,1004.7432507859908,1,1,1,3.0,2.0
2021-08-12 06:19:37.720,1061.0,82.0,28.0,1064.532291666157,1,1,1,3.0,2.0
2021-08-12 06:19:37.721,1061.0,52.0,24.0,1062.5445872997518,1,1,1,3.0,2.0
2021-08-12 06:19:37.727,1025.0,52.0,24.0,1026.5987531650328,1,1,1,3.0,2.0
2021-08-12 06:19:37.728,1025.0,-113.0,9.0,1031.2492424239642,1,1,1,3.0,2.0
2021-08-12 06:19:37.748,980.0,15.0,43.0,981.0575926009644,1,1,1,3.0,2.0
2021-08-12 06:19:37.752,1045.0,37.0,21.0,1045.865670150809,1,1,1,3.0,2.0
2021-08-12 06:19:37.757,949.0,225.0,0.0,975.3081564305714,1,1,1,3.0,2.0
2021-08-12 06:19:37.767,1066.0,71.0,-20.0,1068.5490161897114,1,1,1,3.0,2.0
2021-08-12 06:19:37.776,995.0,75.0,-19.0,998.0035070078662,1,1,1,3.0,2.0
2021-08-12 06:19:37.787,962.0,35.0,-5.0,962.649468913789,1,1,1,3.0,2.0
2021-08-12 06:19:37.796,988.0,95.0,3.0,992.5613331175056,1,1,1,3.0,2.0
2021-08-12 06:19:37.806,1030.0,57.0,-18.0,1031.73300809851,1,1,1,3.0,2.0
2021-08-12 06:19:37.815,1032.0,64.0,15.0,1034.0913886112774,1,1,1,3.0,2.0
2021-08-12 06:19:37.825,1015.0,-121.0,5.0,1022.199099980038,1,1,1,3.0,2.0
2021-08-12 06:19:37.836,970.0,0.0,41.0,970.8661081735216,1,1,1,3.0,2.0
2021-08-12 06:19:37.845,1059.0,45.0,36.0,1060.566829577467,1,1,1,3.0,2.0
2021-08-12 06:19:37.855,1102.0,-8.0,25.0,1102.312569101886,1,1,1,3.0,2.0
2021-08-12 06:19:37.864,1067.0,56.0,-14.0,1068.5602463127664,1,1,1,3.0,2.0
2021-08-12 06:19:37.874,980.0,75.0,-5.0,982.878425849301,1,1,1,3.0,2.0
2021-08-12 06:19:37.883,946.0,75.0,-5.0,948.981559357188,1,1,1,3.0,2.0
2021-08-12 06:19:37.884,946.0,114.0,20.0,953.054038342003,1,1,1,3.0,2.0
2021-08-12 06:19:37.894,986.0,118.0,-19.0,993.2174988390004,1,1,1,3.0,2.0
2021-08-12 06:19:37.904,1049.0,46.0,-13.0,1050.0885676932207,1,1,1,3.0,2.0
2021-08-12 06:19:37.916,1036.0,46.0,-13.0,1037.1022128989987,1,1,1,3.0,2.0
2021-08-12 06:19:37.917,1036.0,-159.0,-23.0,1048.3825637619125,1,1,1,3.0,2.0
2021-08-12 06:19:37.923,1008.0,-78.0,14.0,1011.11028082994,1,1,1,3.0,2.0
2021-08-12 06:19:37.933,956.0,22.0,41.0,957.1316523864416,1,1,1,3.0,2.0
2021-08-12 06:19:37.943,1090.0,22.0,41.0,1090.9926672530846,1,1,1,3.0,2.0
2021-08-12 06:19:37.944,1090.0,52.0,42.0,1092.047618009398,1,1,1,3.0,2.0
2021-08-12 06:19:37.953,1070.0,-43.0,27.0,1071.203995511593,1,1,1,3.0,2.0
2021-08-12 06:19:37.962,986.0,-2.0,7.0,986.0268759014634,1,1,1,3.0,2.0
2021-08-12 06:19:37.971,971.0,99.0,-8.0,976.0665960886072,1,1,1,3.0,2.0
2021-08-12 06:19:37.981,938.0,178.0,24.0,955.0413603609009,1,1,1,3.0,2.0
2021-08-12 06:19:37.992,1015.0,100.0,-15.0,1020.024509509453,1,1,1,3.0,2.0
2021-08-12 06:19:38.001,1004.0,67.0,-20.0,1006.4318158722924,1,1,1,3.0,2.0
2021-08-12 06:19:38.011,1013.0,-97.0,-8.0,1017.66497434077,1,1,1,3.0,2.0
2021-08-12 06:19:38.020,985.0,89.0,40.0,989.8211959743032,1,1,1,3.0,2.0
2021-08-12 06:19:38.030,999.0,3.0,33.0,999.5493984791348,1,1,1,3.0,2.0
2021-08-12 06:19:38.040,1085.0,48.0,41.0,1086.8348540601742,1,1,1,3.0,2.0
2021-08-12 06:19:38.050,1058.0,-74.0,41.0,1061.3769358715122,1,1,1,3.0,2.0
2021-08-12 06:19:38.051,1058.0,-74.0,26.0,1060.9033886268817,1,1,1,3.0,2.0
2021-08-12 06:19:38.060,984.0,-45.0,27.0,985.3983965889126,1,1,1,3.0,2.0
2021-08-12 06:19:38.069,980.0,12.0,0.0,980.073466634007,1,1,1,3.0,2.0
2021-08-12 06:19:38.079,941.0,162.0,0.0,954.8429190186206,1,1,1,3.0,2.0
2021-08-12 06:19:38.080,941.0,162.0,-3.0,954.847631824052,1,1,1,3.0,2.0
2021-08-12 06:19:38.088,1022.0,118.0,-3.0,1028.7939541035416,1,1,1,3.0,2.0
2021-08-12 06:19:38.089,1022.0,118.0,-13.0,1028.8717121196405,1,1,1,3.0,2.0
2021-08-12 06:19:38.100,1005.0,63.0,-23.0,1007.235325035813,1,1,1,3.0,2.0
2021-08-12 06:19:38.109,989.0,-73.0,1.0,991.6909800941016,1,1,1,3.0,2.0
2021-08-12 06:19:38.118,976.0,99.0,29.0,981.4367019833728,1,1,1,3.0,2.0
2021-08-12 06:19:38.127,1056.0,99.0,29.0,1061.0268611114425,1,1,1,3.0,2.0
2021-08-12 06:19:38.128,1056.0,99.0,20.0,1060.8190232080117,1,1,1,3.0,2.0
2021-08-12 06:19:38.138,1077.0,24.0,35.0,1077.835794543863,1,1,1,3.0,2.0
2021-08-12 06:19:38.148,1051.0,-68.0,31.0,1053.6536432813205,1,1,1,3.0,2.0
2021-08-12 06:19:38.157,988.0,-31.0,31.0,988.9721937445968,1,1,1,3.0,2.0
2021-08-12 06:19:38.158,988.0,-31.0,41.0,989.3361410562136,1,1,1,3.0,2.0
2021-08-12 06:19:38.167,1005.0,22.0,13.0,1005.3248231293207,1,1,1,3.0,2.0
2021-08-12 06:19:38.177,1047.0,151.0,6.0,1057.8497057710986,1,1,1,3.0,2.0
2021-08-12 06:19:38.187,1014.0,-38.0,-30.0,1015.1551605542868,1,1,1,3.0,2.0
2021-08-12 06:19:38.197,1000.0,61.0,-34.0,1002.435534086856,1,1,1,3.0,2.0
2021-08-12 06:19:38.206,976.0,-76.0,1.0,978.95505514809,1,1,1,3.0,2.0
2021-08-12 06:19:38.216,954.0,114.0,16.0,960.9203921241344,1,1,1,3.0,2.0
2021-08-12 06:19:38.225,1059.0,59.0,16.0,1060.7629329873853,1,1,1,3.0,2.0
2021-08-12 06:19:38.226,1059.0,59.0,4.0,1060.6498008296612,1,1,1,3.0,2.0
2021-08-12 06:19:38.241,1029.0,1.0,17.0,1029.1409038610796,1,1,1,3.0,2.0
2021-08-12 06:19:38.246,1043.0,-132.0,17.0,1051.4570842407215,1,1,1,3.0,2.0
2021-08-12 06:19:38.247,1043.0,-132.0,8.0,1051.3500844152722,1,1,1,3.0,2.0
2021-08-12 06:19:38.256,990.0,-17.0,40.0,990.9535811530224,1,1,1,3.0,2.0
2021-08-12 06:19:38.265,1039.0,32.0,20.0,1039.685048464197,1,1,1,3.0,2.0
2021-08-12 06:19:38.275,1054.0,100.0,17.0,1058.8696803667578,1,1,1,3.0,2.0
2021-08-12 06:19:38.284,1003.0,-31.0,-21.0,1003.6986599572602,1,1,1,3.0,2.0
2021-08-12 06:19:38.293,970.0,-31.0,-21.0,970.7224114029716,1,1,1,3.0,2.0
2021-08-12 06:19:38.294,970.0,15.0,-4.0,970.124218850349,1,1,1,3.0,2.0
2021-08-12 06:19:38.303,985.0,-24.0,-4.0,985.3004617881796,1,1,1,3.0,2.0
2021-08-12 06:19:38.304,985.0,-24.0,-13.0,985.3781000204948,1,1,1,3.0,2.0
2021-08-12 06:19:38.314,977.0,142.0,11.0,987.326693653119,1,1,1,3.0,2.0
2021-08-12 06:19:38.327,1058.0,56.0,-3.0,1059.4852523749446,1,1,1,3.0,2.0
2021-08-12 06:19:38.333,1009.0,-39.0,15.0,1009.8648424417992,1,1,1,3.0,2.0
2021-08-12 06:19:38.343,1008.0,49.0,60.0,1010.9723042695086,1,1,1,3.0,2.0
2021-08-12 06:19:38.353,969.0,-6.0,43.0,969.9721645490658,1,1,1,3.0,2.0
2021-08-12 06:19:38.363,1045.0,57.0,23.0,1046.8060947472554,1,1,1,3.0,2.0
2021-08-12 06:19:38.372,1087.0,60.0,39.0,1089.3530189979738,1,1,1,3.0,2.0
2021-08-12 06:19:38.382,996.0,-67.0,-30.0,998.7016571529256,1,1,1,3.0,2.0
2021-08-12 06:19:38.391,978.0,-67.0,-30.0,980.7512426706376,1,1,1,3.0,2.0
2021-08-12 06:19:38.392,978.0,0.0,3.0,978.0046012161702,1,1,1,3.0,2.0
2021-08-12 06:19:38.401,948.0,250.0,3.0,980.4147081720062,1,1,1,3.0,2.0
2021-08-12 06:19:38.402,948.0,250.0,3.0,980.4147081720062,1,1,1,3.0,2.0
2021-08-12 06:19:38.413,977.0,138.0,0.0,986.6980287808424,1,1,1,3.0,2.0
2021-08-12 06:19:38.421,1051.0,69.0,-5.0,1053.2744181835994,1,1,1,3.0,2.0
2021-08-12 06:19:38.431,1026.0,-110.0,-4.0,1031.8875907772126,1,1,1,3.0,2.0
2021-08-12 06:19:38.441,986.0,85.0,64.0,991.7242560308788,1,1,1,3.0,2.0
2021-08-12 06:19:38.450,1031.0,118.0,34.0,1038.287532430203,1,1,1,3.0,2.0
2021-08-12 06:19:38.460,1056.0,41.0,26.0,1057.115414701725,1,1,1,3.0,2.0
2021-08-12 06:19:38.471,1096.0,20.0,25.0,1096.4675097785616,1,1,1,3.0,2.0
2021-08-12 06:19:38.479,993.0,-24.0,2.0,993.2920013772384,1,1,1,3.0,2.0
2021-08-12 06:19:38.489,998.0,16.0,6.0,998.1462818645372,1,1,1,3.0,2.0
2021-08-12 06:19:38.499,973.0,228.0,-7.0,999.3808083008198,1,1,1,3.0,2.0
2021-08-12 06:19:38.552,1071.0,33.0,-7.0,1071.5311474707582,1,1,1,3.0,2.0
2021-08-12 06:19:38.553,1071.0,33.0,-29.0,1071.9006483811827,1,1,1,3.0,2.0
2021-08-12 06:19:38.558,1028.0,-97.0,-29.0,1032.9733781661555,1,1,1,3.0,2.0
2021-08-12 06:19:38.559,1028.0,-97.0,-15.0,1032.67516673928,1,1,1,3.0,2.0
2021-08-12 06:19:38.561,1048.0,104.0,28.0,1053.519814716363,1,1,1,3.0,2.0
2021-08-12 06:19:38.565,1038.0,55.0,13.0,1039.5373971146971,1,1,1,3.0,2.0
2021-08-12 06:19:38.570,1026.0,-53.0,14.0,1027.463381342615,1,1,1,3.0,2.0
2021-08-12 06:19:38.578,990.0,-47.0,7.0,991.1397479669556,1,1,1,3.0,2.0
2021-08-12 06:19:38.588,990.0,13.0,-7.0,990.1100948884422,1,1,1,3.0,2.0
2021-08-12 06:19:38.596,989.0,13.0,-7.0,989.1102061954472,1,1,1,3.0,2.0
2021-08-12 06:19:38.597,989.0,184.0,-21.0,1006.1898429222988,1,1,1,3.0,2.0
2021-08-12 06:19:38.606,1056.0,19.0,-21.0,1056.3796665971945,1,1,1,3.0,2.0
2021-08-12 06:19:38.607,1056.0,19.0,-37.0,1056.8188113390108,1,1,1,3.0,2.0
2021-08-12 06:19:38.617,983.0,89.0,4.0,987.0288749575668,1,1,1,3.0,2.0
2021-08-12 06:19:38.626,1006.0,-92.0,4.0,1010.2059196025332,1,1,1,3.0,2.0
2021-08-12 06:19:38.627,1006.0,-92.0,-4.0,1010.2059196025332,1,1,1,3.0,2.0
2021-08-12 06:19:38.636,978.0,99.0,49.0,984.2184716819736,1,1,1,3.0,2.0
2021-08-12 06:19:38.646,1045.0,112.0,20.0,1051.175056781695,1,1,1,3.0,2.0
2021-08-12 06:19:38.655,1029.0,57.0,17.0,1030.7177111120193,1,1,1,3.0,2.0
2021-08-12 06:19:38.676,1005.0,-42.0,22.0,1006.1177863451178,1,1,1,3.0,2.0
2021-08-12 06:19:38.677,992.0,-42.0,22.0,993.1324181598344,1,1,1,3.0,2.0
2021-08-12 06:19:38.678,992.0,30.0,27.0,992.8207290341998,1,1,1,3.0,2.0
2021-08-12 06:19:38.685,990.0,19.0,-9.0,990.2232071608904,1,1,1,3.0,2.0
2021-08-12 06:19:38.706,1012.0,172.0,-14.0,1026.6080069822171,1,1,1,3.0,2.0
2021-08-12 06:19:38.710,1050.0,53.0,-33.0,1051.854552683022,1,1,1,3.0,2.0
2021-08-12 06:19:38.715,981.0,82.0,-33.0,984.9741113349122,1,1,1,3.0,2.0
2021-08-12 06:19:38.716,981.0,82.0,-4.0,984.42927628144,1,1,1,3.0,2.0
2021-08-12 06:19:38.724,940.0,142.0,12.0,950.7407638257656,1,1,1,3.0,2.0
2021-08-12 06:19:38.733,991.0,142.0,12.0,1001.1937874357792,1,1,1,3.0,2.0
2021-08-12 06:19:38.734,991.0,106.0,39.0,997.4156605949196,1,1,1,3.0,2.0
2021-08-12 06:19:38.752,1039.0,91.0,18.0,1043.1327815767272,1,1,1,3.0,2.0
2021-08-12 06:19:38.760,1038.0,32.0,10.0,1038.5412846873253,1,1,1,3.0,2.0
2021-08-12 06:19:38.765,1006.0,-26.0,35.0,1006.944387739462,1,1,1,3.0,2.0
2021-08-12 06:19:38.773,991.0,38.0,26.0,992.069050016177,1,1,1,3.0,2.0
2021-08-12 06:19:38.783,1098.0,44.0,49.0,1099.973181491258,1,1,1,3.0,2.0
2021-08-12 06:19:38.794,1026.0,138.0,49.0,1036.398089538957,1,1,1,3.0,2.0
2021-08-12 06:19:38.795,1026.0,138.0,-18.0,1035.3955765793091,1,1,1,3.0,2.0
2021-08-12 06:19:38.802,1025.0,53.0,-23.0,1026.6270013982682,1,1,1,3.0,2.0
2021-08-12 06:19:38.811,993.0,53.0,-23.0,994.6793453168716,1,1,1,3.0,2.0
2021-08-12 06:19:38.812,993.0,69.0,-8.0,995.426541739771,1,1,1,3.0,2.0
2021-08-12 06:19:38.821,955.0,69.0,-8.0,957.5228456804568,1,1,1,3.0,2.0
2021-08-12 06:19:38.822,955.0,154.0,9.0,967.3789329936848,1,1,1,3.0,2.0
2021-08-12 06:19:38.833,1027.0,95.0,-5.0,1031.3966259397982,1,1,1,3.0,2.0
2021-08-12 06:19:38.841,1039.0,103.0,24.0,1044.3687088380234,1,1,1,3.0,2.0
2021-08-12 06:19:38.850,1031.0,103.0,24.0,1036.4101504713276,1,1,1,3.0,2.0
2021-08-12 06:19:38.851,1031.0,25.0,23.0,1031.5594990110849,1,1,1,3.0,2.0
2021-08-12 06:19:38.860,1010.0,-34.0,43.0,1011.4865298163886,1,1,1,3.0,2.0
2021-08-12 06:19:38.870,1006.0,42.0,32.0,1007.384732860291,1,1,1,3.0,2.0
2021-08-12 06:19:38.881,1085.0,41.0,32.0,1086.2458285305404,1,1,1,3.0,2.0
2021-08-12 06:19:38.890,1057.0,-108.0,16.0,1062.6236398650276,1,1,1,3.0,2.0
2021-08-12 06:19:38.900,1015.0,21.0,-27.0,1015.5761911348652,1,1,1,3.0,2.0
2021-08-12 06:19:38.909,974.0,48.0,-5.0,975.1948523243956,1,1,1,3.0,2.0
2021-08-12 06:19:38.919,940.0,187.0,0.0,958.4200540472848,1,1,1,3.0,2.0
2021-08-12 06:19:38.930,1053.0,82.0,-1.0,1056.1884301581797,1,1,1,3.0,2.0
2021-08-12 06:19:38.939,968.0,69.0,-35.0,971.0870197876192,1,1,1,3.0,2.0
2021-08-12 06:19:38.953,996.0,-11.0,-2.0,996.0627490273894,1,1,1,3.0,2.0
2021-08-12 06:19:38.958,1011.0,4.0,51.0,1012.29343571911,1,1,1,3.0,2.0
2021-08-12 06:19:38.968,1005.0,76.0,27.0,1008.2311242964086,1,1,1,3.0,2.0
2021-08-12 06:19:38.979,1064.0,40.0,30.0,1065.1741641628378,1,1,1,3.0,2.0
2021-08-12 06:19:38.987,1043.0,-115.0,3.0,1049.3250211445452,1,1,1,3.0,2.0
2021-08-12 06:19:38.997,990.0,-115.0,3.0,996.6614269650452,1,1,1,3.0,2.0
2021-08-12 06:19:38.998,990.0,50.0,40.0,992.0685460188728,1,1,1,3.0,2.0
2021-08-12 06:19:39.007,975.0,58.0,-4.0,976.7317953256156,1,1,1,3.0,2.0
2021-08-12 06:19:39.016,936.0,58.0,-4.0,937.8038174373146,1,1,1,3.0,2.0
2021-08-12 06:19:39.017,936.0,205.0,-2.0,958.18839483684,1,1,1,3.0,2.0
2021-08-12 06:19:39.027,1053.0,87.0,-9.0,1056.6262347679997,1,1,1,3.0,2.0
2021-08-12 06:19:39.039,980.0,102.0,-26.0,985.636849960471,1,1,1,3.0,2.0
2021-08-12 06:19:39.046,983.0,6.0,-21.0,983.2425946835298,1,1,1,3.0,2.0
2021-08-12 06:19:39.056,965.0,125.0,4.0,973.0703982754792,1,1,1,3.0,2.0
2021-08-12 06:19:39.065,1017.0,44.0,4.0,1017.9592329754664,1,1,1,3.0,2.0
2021-08-12 06:19:39.066,1017.0,44.0,21.0,1018.1679625680628,1,1,1,3.0,2.0
2021-08-12 06:19:39.076,1057.0,50.0,26.0,1058.5012990072332,1,1,1,3.0,2.0
2021-08-12 06:19:39.086,1033.0,-130.0,-2.0,1041.1498451231696,1,1,1,3.0,2.0
2021-08-12 06:19:39.095,991.0,23.0,43.0,992.199072767154,1,1,1,3.0,2.0
2021-08-12 06:19:39.105,1053.0,52.0,21.0,1054.492294898355,1,1,1,3.0,2.0
2021-08-12 06:19:39.114,941.0,259.0,6.0,976.0112704267302,1,1,1,3.0,2.0
2021-08-12 06:19:39.124,1061.0,259.0,6.0,1092.1712319961557,1,1,1,3.0,2.0
2021-08-12 06:19:39.125,1061.0,61.0,-17.0,1062.8880467857375,1,1,1,3.0,2.0
2021-08-12 06:19:39.134,983.0,61.0,-17.0,985.0375627355536,1,1,1,3.0,2.0
2021-08-12 06:19:39.135,983.0,107.0,-8.0,988.8387128344036,1,1,1,3.0,2.0
2021-08-12 06:19:39.144,955.0,96.0,8.0,959.846341869364,1,1,1,3.0,2.0
2021-08-12 06:19:39.153,994.0,121.0,-11.0,1001.3980227661726,1,1,1,3.0,2.0
2021-08-12 06:19:39.163,1036.0,66.0,-6.0,1038.1175270652163,1,1,1,3.0,2.0
2021-08-12 06:19:39.175,1063.0,59.0,27.0,1064.978403536898,1,1,1,3.0,2.0
2021-08-12 06:19:39.184,1005.0,-108.0,-6.0,1010.8041353298868,1,1,1,3.0,2.0
2021-08-12 06:19:39.193,992.0,52.0,49.0,994.569756226279,1,1,1,3.0,2.0
2021-08-12 06:19:39.202,1071.0,52.0,49.0,1073.3806407794025,1,1,1,3.0,2.0
2021-08-12 06:19:39.203,1071.0,35.0,29.0,1071.9640852192765,1,1,1,3.0,2.0
2021-08-12 06:19:39.212,1088.0,-42.0,28.0,1089.1703264411865,1,1,1,3.0,2.0
2021-08-12 06:19:39.222,1062.0,52.0,-18.0,1063.4246564754835,1,1,1,3.0,2.0
2021-08-12 06:19:39.231,969.0,115.0,-18.0,975.966187938906,1,1,1,3.0,2.0
2021-08-12 06:19:39.232,969.0,115.0,-1.0,975.8006968638626,1,1,1,3.0,2.0
2021-08-12 06:19:39.242,941.0,115.0,-1.0,948.0015822771604,1,1,1,3.0,2.0
2021-08-12 06:19:39.243,941.0,155.0,30.0,954.1519795085056,1,1,1,3.0,2.0
2021-08-12 06:19:39.257,984.0,155.0,30.0,996.5846677528208,1,1,1,3.0,2.0
2021-08-12 06:19:39.258,984.0,68.0,-13.0,986.4324609419542,1,1,1,3.0,2.0
2021-08-12 06:19:39.262,1017.0,59.0,-2.0,1018.7119318040798,1,1,1,3.0,2.0
2021-08-12 06:19:39.270,1010.0,-118.0,-19.0,1017.0471965449784,1,1,1,3.0,2.0
2021-08-12 06:19:39.282,1021.0,-81.0,3.0,1024.212380319629,1,1,1,3.0,2.0
2021-08-12 06:19:39.290,981.0,27.0,31.0,981.8609881240826,1,1,1,3.0,2.0
2021-08-12 06:19:39.300,1076.0,60.0,31.0,1078.117340552502,1,1,1,3.0,2.0
2021-08-12 06:19:39.301,1076.0,60.0,52.0,1078.925391303773,1,1,1,3.0,2.0
2021-08-12 06:19:39.309,1084.0,60.0,52.0,1086.9038595938466,1,1,1,3.0,2.0
2021-08-12 06:19:39.310,1084.0,-42.0,17.0,1084.9465424618854,1,1,1,3.0,2.0
2021-08-12 06:19:39.319,983.0,-28.0,13.0,983.4846211303968,1,1,1,3.0,2.0
2021-08-12 06:19:39.330,982.0,26.0,13.0,982.430150188806,1,1,1,3.0,2.0
2021-08-12 06:19:39.331,982.0,26.0,-8.0,982.3767098216448,1,1,1,3.0,2.0
2021-08-12 06:19:39.340,962.0,169.0,46.0,977.8143995667072,1,1,1,3.0,2.0
2021-08-12 06:19:39.348,1003.0,87.0,-14.0,1006.8634465507226,1,1,1,3.0,2.0
2021-08-12 06:19:39.359,1010.0,44.0,-16.0,1011.0845661961218,1,1,1,3.0,2.0
2021-08-12 06:19:39.368,1014.0,-92.0,-22.0,1018.4026708527427,1,1,1,3.0,2.0
2021-08-12 06:19:39.377,974.0,-92.0,-22.0,978.5826485279616,1,1,1,3.0,2.0
2021-08-12 06:19:39.378,974.0,90.0,45.0,979.183843820965,1,1,1,3.0,2.0
2021-08-12 06:19:39.391,991.0,-4.0,28.0,991.4035505282396,1,1,1,3.0,2.0
2021-08-12 06:19:39.397,1076.0,66.0,40.0,1078.764107671367,1,1,1,3.0,2.0
2021-08-12 06:19:39.408,1050.0,-68.0,23.0,1052.4509489757706,1,1,1,3.0,2.0
2021-08-12 06:19:39.417,990.0,-10.0,26.0,990.3918416465272,1,1,1,3.0,2.0
2021-08-12 06:19:39.427,979.0,-10.0,26.0,979.3962425903012,1,1,1,3.0,2.0
2021-08-12 06:19:39.428,979.0,23.0,-18.0,979.4355517337524,1,1,1,3.0,2.0
2021-08-12 06:19:39.438,1022.0,139.0,-11.0,1031.4678860730469,1,1,1,3.0,2.0
2021-08-12 06:19:39.447,1004.0,99.0,4.0,1008.8770985605728,1,1,1,3.0,2.0
2021-08-12 06:19:39.456,1014.0,99.0,4.0,1018.8292300479015,1,1,1,3.0,2.0
2021-08-12 06:19:39.457,1014.0,65.0,-13.0,1016.1643567848656,1,1,1,3.0,2.0
2021-08-12 06:19:39.466,985.0,-64.0,0.0,987.0769980097804,1,1,1,3.0,2.0
2021-08-12 06:19:39.475,981.0,-64.0,0.0,983.0854489819284,1,1,1,3.0,2.0
2021-08-12 06:19:39.476,981.0,93.0,22.0,985.6439519420792,1,1,1,3.0,2.0
2021-08-12 06:19:39.486,1042.0,93.0,22.0,1046.3732603617125,1,1,1,3.0,2.0
2021-08-12 06:19:39.487,1042.0,133.0,20.0,1050.644088166873,1,1,1,3.0,2.0
2021-08-12 06:19:39.496,1065.0,43.0,38.0,1066.544888881851,1,1,1,3.0,2.0
2021-08-12 06:19:39.505,1050.0,-76.0,24.0,1053.0204176558022,1,1,1,3.0,2.0
2021-08-12 06:19:39.515,979.0,-9.0,21.0,979.2665622801588,1,1,1,3.0,2.0
2021-08-12 06:19:39.525,992.0,40.0,17.0,992.951660454828,1,1,1,3.0,2.0
2021-08-12 06:19:39.535,1055.0,155.0,-1.0,1066.3259351624156,1,1,1,3.0,2.0
2021-08-12 06:19:39.545,997.0,21.0,-31.0,997.702861577534,1,1,1,3.0,2.0
2021-08-12 06:19:39.554,988.0,75.0,-29.0,991.2668661869012,1,1,1,3.0,2.0
2021-08-12 06:19:39.564,985.0,-23.0,5.0,985.2811781415496,1,1,1,3.0,2.0
2021-08-12 06:19:39.573,981.0,78.0,10.0,984.1468386374056,1,1,1,3.0,2.0
2021-08-12 06:19:39.583,1041.0,61.0,24.0,1043.0618390105162,1,1,1,3.0,2.0
2021-08-12 06:19:39.594,1030.0,14.0,17.0,1030.2354099913282,1,1,1,3.0,2.0
2021-08-12 06:19:39.603,1008.0,-2.0,48.0,1009.1441918774542,1,1,1,3.0,2.0
2021-08-12 06:19:39.616,984.0,91.0,30.0,988.6541356814324,1,1,1,3.0,2.0
2021-08-12 06:19:39.623,1040.0,-49.0,4.0,1041.1613707778445,1,1,1,3.0,2.0
2021-08-12 06:19:39.632,1028.0,-13.0,18.0,1028.2397580331155,1,1,1,3.0,2.0
2021-08-12 06:19:39.643,982.0,85.0,0.0,985.6718520887162,1,1,1,3.0,2.0
2021-08-12 06:19:39.652,1054.0,64.0,3.0,1055.9455478385237,1,1,1,3.0,2.0
2021-08-12 06:19:39.661,1032.0,64.0,3.0,1033.9869438247274,1,1,1,3.0,2.0
2021-08-12 06:19:39.662,1032.0,47.0,-21.0,1033.283117059405,1,1,1,3.0,2.0
2021-08-12 06:19:39.671,1037.0,25.0,-21.0,1037.513855329171,1,1,1,3.0,2.0
2021-08-12 06:19:39.672,1037.0,25.0,18.0,1037.457469007766,1,1,1,3.0,2.0
2021-08-12 06:19:39.697,994.0,30.0,4.0,994.4606578442408,1,1,1,3.0,2.0
2021-08-12 06:19:39.698,1044.0,68.0,40.0,1046.976599547478,1,1,1,3.0,2.0
2021-08-12 06:19:39.701,1022.0,63.0,4.0,1023.947752573343,1,1,1,3.0,2.0
2021-08-12 06:19:39.710,1005.0,48.0,12.0,1006.2171733775964,1,1,1,3.0,2.0
2021-08-12 06:19:39.726,1031.0,41.0,21.0,1032.0285848754384,1,1,1,3.0,2.0
2021-08-12 06:19:39.730,1003.0,38.0,14.0,1003.8172144369712,1,1,1,3.0,2.0
2021-08-12 06:19:39.739,1002.0,44.0,0.0,1002.9656026006076,1,1,1,3.0,2.0
2021-08-12 06:19:39.750,1008.0,54.0,0.0,1009.4453922823166,1,1,1,3.0,2.0
2021-08-12 06:19:39.760,1010.0,29.0,2.0,1010.41823023934,1,1,1,3.0,2.0
2021-08-12 06:19:39.769,1005.0,11.0,9.0,1005.1004924881888,1,1,1,3.0,2.0
2021-08-12 06:19:39.784,1017.0,11.0,9.0,1017.0993068525806,1,1,1,3.0,2.0
2021-08-12 06:19:39.785,1017.0,9.0,8.0,1017.0712856039148,1,1,1,3.0,2.0
2021-08-12 06:19:39.789,1015.0,51.0,13.0,1016.3636160351276,1,1,1,3.0,2.0
2021-08-12 06:19:39.800,1022.0,61.0,21.0,1024.034179117084,1,1,1,3.0,2.0
2021-08-12 06:19:39.809,1016.0,40.0,9.0,1016.8269272595018,1,1,1,3.0,2.0
2021-08-12 06:19:39.818,1020.0,28.0,15.0,1020.4944879811944,1,1,1,3.0,2.0
2021-08-12 06:19:39.827,1003.0,28.0,8.0,1003.4226427582746,1,1,1,3.0,2.0
2021-08-12 06:19:39.838,1005.0,81.0,11.0,1008.3188979682964,1,1,1,3.0,2.0
2021-08-12 06:19:39.847,1022.0,81.0,11.0,1025.2638684748429,1,1,1,3.0,2.0
2021-08-12 06:19:39.848,1022.0,68.0,9.0,1024.299272673763,1,1,1,3.0,2.0
2021-08-12 06:19:39.856,1012.0,68.0,9.0,1014.321941002954,1,1,1,3.0,2.0
2021-08-12 06:19:39.857,1012.0,11.0,3.0,1012.064227210902,1,1,1,3.0,2.0
2021-08-12 06:19:39.867,986.0,18.0,8.0,986.1967349367976,1,1,1,3.0,2.0
2021-08-12 06:19:39.876,994.0,24.0,9.0,994.3304279765354,1,1,1,3.0,2.0
2021-08-12 06:19:39.886,1014.0,66.0,13.0,1016.228812817271,1,1,1,3.0,2.0
2021-08-12 06:19:39.896,1029.0,51.0,15.0,1030.3722628254316,1,1,1,3.0,2.0
