time_stamp,Acceleration_X,Acceleration_Y,Acceleration_Z,magnitude,STD_Status_right,STD_Status_left,STD_Status_both,KMeans,KMeans_convert
2021-09-23 15:14:46.371,1087.0,142.0,54.0,1097.5650322418255,1,1,1,2.0,2.0
2021-09-23 15:14:46.381,968.0,-342.0,-103.0,1031.7930994148005,1,1,1,2.0,2.0
2021-09-23 15:14:46.392,942.0,-192.0,86.0,965.206713611131,1,1,1,2.0,2.0
2021-09-23 15:14:46.400,933.0,216.0,-53.0,959.1423252051804,1,1,1,2.0,2.0
2021-09-23 15:14:46.410,952.0,102.0,-29.0,957.8877804837056,1,1,1,2.0,2.0
2021-09-23 15:14:46.420,1178.0,222.0,21.0,1198.9199306042085,1,1,1,2.0,2.0
2021-09-23 15:14:46.429,1022.0,222.0,21.0,1046.04445412229,1,1,1,2.0,2.0
2021-09-23 15:14:46.430,1022.0,-187.0,-40.0,1039.736985972895,1,1,1,2.0,2.0
2021-09-23 15:14:46.440,901.0,-151.0,49.0,914.8786804817348,1,1,1,2.0,2.0
2021-09-23 15:14:46.458,989.0,188.0,1.0,1006.710484697562,1,1,1,2.0,2.0
2021-09-23 15:14:46.460,1149.0,335.0,8.0,1196.86674279136,1,1,1,2.0,2.0
2021-09-23 15:14:46.468,1180.0,335.0,8.0,1226.6576539523976,1,1,1,2.0,2.0
2021-09-23 15:14:46.469,1180.0,294.0,11.0,1216.1237601494347,1,1,1,2.0,2.0
2021-09-23 15:14:46.478,1048.0,294.0,11.0,1088.5132061670174,1,1,1,2.0,2.0
2021-09-23 15:14:46.479,1048.0,-213.0,-26.0,1069.7424923784229,1,1,1,2.0,2.0
2021-09-23 15:14:46.489,874.0,-213.0,50.0,900.968922882471,1,1,1,2.0,2.0
2021-09-23 15:14:46.498,957.0,161.0,4.0,970.4565935682028,1,1,1,2.0,2.0
2021-09-23 15:14:46.508,1169.0,332.0,7.0,1215.2505914419462,1,1,1,2.0,2.0
2021-09-23 15:14:46.517,997.0,-101.0,7.0,1002.1272374304572,1,1,1,2.0,2.0
2021-09-23 15:14:46.518,997.0,-101.0,-31.0,1002.582166208835,1,1,1,2.0,2.0
2021-09-23 15:14:46.527,1048.0,-147.0,-20.0,1058.4483926956475,1,1,1,2.0,2.0
2021-09-23 15:14:46.546,896.0,-178.0,50.0,914.8770409186144,1,1,1,2.0,2.0
2021-09-23 15:14:46.548,936.0,156.0,0.0,948.9109547265224,1,1,1,2.0,2.0
2021-09-23 15:14:46.556,1168.0,156.0,0.0,1178.371757977931,1,1,1,2.0,2.0
2021-09-23 15:14:46.557,1168.0,315.0,13.0,1209.800810050977,1,1,1,2.0,2.0
2021-09-23 15:14:46.568,1011.0,-167.0,-26.0,1025.0297556656587,1,1,1,2.0,2.0
2021-09-23 15:14:46.576,862.0,-181.0,40.0,881.7057332239594,1,1,1,2.0,2.0
2021-09-23 15:14:46.586,883.0,-209.0,48.0,908.6660552700316,1,1,1,2.0,2.0
2021-09-23 15:14:46.595,922.0,-209.0,48.0,946.6092118715092,1,1,1,2.0,2.0
2021-09-23 15:14:46.596,922.0,142.0,-10.0,932.9244342389152,1,1,1,2.0,2.0
2021-09-23 15:14:46.605,1152.0,309.0,-10.0,1192.7635977007346,1,1,1,2.0,2.0
2021-09-23 15:14:46.606,1152.0,309.0,2.0,1192.723354345005,1,1,1,2.0,2.0
2021-09-23 15:14:46.616,1042.0,309.0,2.0,1086.8527959204043,1,1,1,2.0,2.0
2021-09-23 15:14:46.617,1042.0,-113.0,-36.0,1048.7273239503202,1,1,1,2.0,2.0
2021-09-23 15:14:46.626,876.0,-140.0,44.0,888.2071830378316,1,1,1,2.0,2.0
2021-09-23 15:14:46.634,970.0,-140.0,44.0,981.0382255549476,1,1,1,2.0,2.0
2021-09-23 15:14:46.635,970.0,148.0,-1.0,981.2262735985008,1,1,1,2.0,2.0
2021-09-23 15:14:46.644,920.0,174.0,-1.0,936.3103118090712,1,1,1,2.0,2.0
2021-09-23 15:14:46.645,920.0,174.0,-1.0,936.3103118090712,1,1,1,2.0,2.0
2021-09-23 15:14:46.654,1176.0,326.0,-9.0,1220.3823171449185,1,1,1,2.0,2.0
2021-09-23 15:14:46.665,1025.0,-112.0,-35.0,1031.6947222894958,1,1,1,2.0,2.0
2021-09-23 15:14:46.674,877.0,-112.0,-35.0,884.8152349502127,1,1,1,2.0,2.0
2021-09-23 15:14:46.675,877.0,-158.0,55.0,892.8146504174313,1,1,1,2.0,2.0
2021-09-23 15:14:46.684,972.0,132.0,0.0,980.9220152489188,1,1,1,2.0,2.0
2021-09-23 15:14:46.693,1174.0,277.0,9.0,1206.2694558016462,1,1,1,2.0,2.0
2021-09-23 15:14:46.703,1152.0,328.0,-15.0,1197.878541422293,1,1,1,2.0,2.0
2021-09-23 15:14:46.713,1046.0,-69.0,-39.0,1048.9985700657555,1,1,1,2.0,2.0
2021-09-23 15:14:46.723,896.0,-184.0,32.0,915.257340861028,1,1,1,2.0,2.0
2021-09-23 15:14:46.732,951.0,100.0,-13.0,956.3315324718724,1,1,1,2.0,2.0
2021-09-23 15:14:46.746,1186.0,279.0,21.0,1218.5557024609093,1,1,1,2.0,2.0
2021-09-23 15:14:46.752,1075.0,-165.0,-19.0,1087.755027568248,1,1,1,2.0,2.0
2021-09-23 15:14:46.761,1041.0,-165.0,-19.0,1054.1664953886554,1,1,1,2.0,2.0
2021-09-23 15:14:46.762,1041.0,-63.0,-40.0,1043.6714042264452,1,1,1,2.0,2.0
2021-09-23 15:14:46.772,913.0,-63.0,-40.0,916.0447587317992,1,1,1,2.0,2.0
2021-09-23 15:14:46.773,913.0,-203.0,49.0,936.578346963029,1,1,1,2.0,2.0
2021-09-23 15:14:46.782,918.0,111.0,-6.0,924.7058991917376,1,1,1,2.0,2.0
2021-09-23 15:14:46.791,1172.0,257.0,17.0,1199.967499559884,1,1,1,2.0,2.0
2021-09-23 15:14:46.800,1068.0,257.0,17.0,1098.6182230420177,1,1,1,2.0,2.0
2021-09-23 15:14:46.801,1068.0,-147.0,-3.0,1078.073281368201,1,1,1,2.0,2.0
2021-09-23 15:14:46.810,915.0,-221.0,-3.0,941.3155687653316,1,1,1,2.0,2.0
2021-09-23 15:14:46.811,915.0,-221.0,46.0,942.4340825755402,1,1,1,2.0,2.0
2021-09-23 15:14:46.821,905.0,-225.0,46.0,933.6841007535686,1,1,1,2.0,2.0
2021-09-23 15:14:46.822,905.0,-225.0,40.0,933.4077351297236,1,1,1,2.0,2.0
2021-09-23 15:14:46.830,918.0,-225.0,40.0,946.017441699676,1,1,1,2.0,2.0
2021-09-23 15:14:46.831,918.0,82.0,2.0,921.6572030858327,1,1,1,2.0,2.0
2021-09-23 15:14:46.839,1175.0,82.0,2.0,1177.859499261266,1,1,1,2.0,2.0
2021-09-23 15:14:46.840,1175.0,254.0,29.0,1202.489916797642,1,1,1,2.0,2.0
2021-09-23 15:14:46.849,1079.0,254.0,29.0,1108.8724002336787,1,1,1,2.0,2.0
2021-09-23 15:14:46.850,1079.0,-114.0,-8.0,1085.0350224762333,1,1,1,2.0,2.0
2021-09-23 15:14:46.859,918.0,-236.0,35.0,948.4961781683676,1,1,1,2.0,2.0
2021-09-23 15:14:46.869,894.0,-236.0,35.0,925.2875228814014,1,1,1,2.0,2.0
2021-09-23 15:14:46.870,894.0,188.0,-17.0,913.7116613024044,1,1,1,2.0,2.0
2021-09-23 15:14:46.880,893.0,97.0,-7.0,898.2800231553633,1,1,1,2.0,2.0
2021-09-23 15:14:46.889,1182.0,277.0,40.0,1214.6822629807352,1,1,1,2.0,2.0
2021-09-23 15:14:46.906,1077.0,-84.0,-16.0,1080.3892816943344,1,1,1,2.0,2.0
2021-09-23 15:14:46.909,917.0,-230.0,46.0,946.52258293186,1,1,1,2.0,2.0
2021-09-23 15:14:46.918,884.0,178.0,46.0,902.9152784176376,1,1,1,2.0,2.0
2021-09-23 15:14:46.919,884.0,178.0,-24.0,902.0620821207374,1,1,1,2.0,2.0
2021-09-23 15:14:46.929,1172.0,320.0,25.0,1215.1580144162322,1,1,1,2.0,2.0
2021-09-23 15:14:46.938,1189.0,278.0,38.0,1221.658299198266,1,1,1,2.0,2.0
2021-09-23 15:14:46.947,1094.0,-76.0,-19.0,1096.8012582049676,1,1,1,2.0,2.0
2021-09-23 15:14:46.957,936.0,-247.0,40.0,968.8678960518818,1,1,1,2.0,2.0
2021-09-23 15:14:46.966,877.0,-247.0,40.0,911.9967105203834,1,1,1,2.0,2.0
2021-09-23 15:14:46.967,877.0,169.0,-13.0,893.2295337705757,1,1,1,2.0,2.0
2021-09-23 15:14:46.976,1156.0,304.0,-13.0,1195.3748366098391,1,1,1,2.0,2.0
2021-09-23 15:14:46.977,1156.0,304.0,21.0,1195.4886030406144,1,1,1,2.0,2.0
2021-09-23 15:14:46.986,1045.0,-25.0,-34.0,1045.8518059457565,1,1,1,2.0,2.0
2021-09-23 15:14:46.996,1079.0,-36.0,-20.0,1079.7856268722974,1,1,1,2.0,2.0
2021-09-23 15:14:47.006,928.0,-208.0,36.0,951.705836905501,1,1,1,2.0,2.0
2021-09-23 15:14:47.015,880.0,198.0,36.0,902.7181176868004,1,1,1,2.0,2.0
2021-09-23 15:14:47.016,880.0,198.0,-22.0,902.2682527940348,1,1,1,2.0,2.0
2021-09-23 15:14:47.025,1157.0,327.0,2.0,1202.3235837327654,1,1,1,2.0,2.0
2021-09-23 15:14:47.036,1060.0,-38.0,-33.0,1061.1941386947065,1,1,1,2.0,2.0
2021-09-23 15:14:47.045,912.0,-230.0,36.0,941.2438578816864,1,1,1,2.0,2.0
2021-09-23 15:14:47.054,936.0,-230.0,36.0,964.516459164902,1,1,1,2.0,2.0
2021-09-23 15:14:47.055,936.0,-213.0,35.0,960.5675405717184,1,1,1,2.0,2.0
2021-09-23 15:14:47.065,854.0,182.0,-20.0,873.4071215647374,1,1,1,2.0,2.0
2021-09-23 15:14:47.074,1140.0,300.0,16.0,1178.921541070482,1,1,1,2.0,2.0
2021-09-23 15:14:47.084,1070.0,300.0,16.0,1111.375724046553,1,1,1,2.0,2.0
2021-09-23 15:14:47.085,1070.0,-31.0,-30.0,1070.869273067446,1,1,1,2.0,2.0
2021-09-23 15:14:47.094,921.0,-244.0,35.0,953.415963784958,1,1,1,2.0,2.0
2021-09-23 15:14:47.103,898.0,72.0,0.0,900.881790247755,1,1,1,2.0,2.0
2021-09-23 15:14:47.113,856.0,198.0,-16.0,878.7468349871879,1,1,1,2.0,2.0
2021-09-23 15:14:47.123,1155.0,298.0,17.0,1192.945095132211,1,1,1,2.0,2.0
2021-09-23 15:14:47.133,1065.0,-25.0,-31.0,1065.7443408247589,1,1,1,2.0,2.0
2021-09-23 15:14:47.142,913.0,-269.0,-31.0,952.3082484153962,1,1,1,2.0,2.0
2021-09-23 15:14:47.143,913.0,-269.0,38.0,952.5618090181864,1,1,1,2.0,2.0
2021-09-23 15:14:47.152,882.0,68.0,20.0,884.8434889854816,1,1,1,2.0,2.0
2021-09-23 15:14:47.170,1179.0,274.0,25.0,1210.6783222640108,1,1,1,2.0,2.0
2021-09-23 15:14:47.172,1163.0,305.0,25.0,1202.588458284878,1,1,1,2.0,2.0
2021-09-23 15:14:47.173,1163.0,305.0,22.0,1202.5298333097603,1,1,1,2.0,2.0
2021-09-23 15:14:47.182,1077.0,-4.0,22.0,1077.232101266946,1,1,1,2.0,2.0
2021-09-23 15:14:47.183,1077.0,-4.0,-36.0,1077.6089272087531,1,1,1,2.0,2.0
2021-09-23 15:14:47.192,920.0,-304.0,38.0,969.6700469747428,1,1,1,2.0,2.0
2021-09-23 15:14:47.201,881.0,57.0,18.0,883.0254809460483,1,1,1,2.0,2.0
2021-09-23 15:14:47.211,1191.0,271.0,31.0,1221.835913697089,1,1,1,2.0,2.0
2021-09-23 15:14:47.220,1089.0,271.0,31.0,1122.6410824479924,1,1,1,2.0,2.0
2021-09-23 15:14:47.221,1089.0,-23.0,-24.0,1089.5072280623017,1,1,1,2.0,2.0
2021-09-23 15:14:47.230,1062.0,32.0,-24.0,1062.753028694814,1,1,1,2.0,2.0
2021-09-23 15:14:47.231,1062.0,32.0,-24.0,1062.753028694814,1,1,1,2.0,2.0
2021-09-23 15:14:47.240,941.0,-320.0,33.0,994.469707934837,1,1,1,2.0,2.0
2021-09-23 15:14:47.250,863.0,91.0,9.0,867.8312047858154,1,1,1,2.0,2.0
2021-09-23 15:14:47.260,1178.0,306.0,25.0,1217.351633670403,1,1,1,2.0,2.0
2021-09-23 15:14:47.269,1109.0,-6.0,25.0,1109.2979761993618,1,1,1,2.0,2.0
2021-09-23 15:14:47.270,1109.0,-6.0,-20.0,1109.196556071105,1,1,1,2.0,2.0
2021-09-23 15:14:47.279,931.0,-6.0,-20.0,931.2341273815088,1,1,1,2.0,2.0
2021-09-23 15:14:47.280,931.0,-261.0,40.0,967.7200008266854,1,1,1,2.0,2.0
2021-09-23 15:14:47.289,938.0,-344.0,33.0,999.6344331804502,1,1,1,2.0,2.0
2021-09-23 15:14:47.300,855.0,39.0,9.0,855.9363294077428,1,1,1,2.0,2.0
2021-09-23 15:14:47.308,1183.0,292.0,9.0,1218.5376481668509,1,1,1,2.0,2.0
2021-09-23 15:14:47.309,1183.0,292.0,18.0,1218.6373537685442,1,1,1,2.0,2.0
2021-09-23 15:14:47.318,1107.0,28.0,-21.0,1107.5531589950886,1,1,1,2.0,2.0
2021-09-23 15:14:47.328,955.0,-280.0,23.0,995.4667247075616,1,1,1,2.0,2.0
2021-09-23 15:14:47.338,842.0,133.0,-17.0,852.6089373212083,1,1,1,2.0,2.0
2021-09-23 15:14:47.348,857.0,42.0,16.0,858.1777205218043,1,1,1,2.0,2.0
2021-09-23 15:14:47.357,1166.0,300.0,18.0,1204.1096295603652,1,1,1,2.0,2.0
2021-09-23 15:14:47.368,1108.0,49.0,18.0,1109.2290115210656,1,1,1,2.0,2.0
2021-09-23 15:14:47.369,1108.0,49.0,-18.0,1109.2290115210656,1,1,1,2.0,2.0
2021-09-23 15:14:47.377,955.0,-292.0,25.0,998.956455507446,1,1,1,2.0,2.0
2021-09-23 15:14:47.386,829.0,-292.0,25.0,879.2781129995219,1,1,1,2.0,2.0
2021-09-23 15:14:47.387,829.0,122.0,-3.0,837.934364971386,1,1,1,2.0,2.0
2021-09-23 15:14:47.396,1164.0,292.0,-3.0,1200.070414600743,1,1,1,2.0,2.0
2021-09-23 15:14:47.397,1164.0,292.0,23.0,1200.2870490011962,1,1,1,2.0,2.0
2021-09-23 15:14:47.407,1156.0,285.0,11.0,1190.664520341477,1,1,1,2.0,2.0
2021-09-23 15:14:47.416,1107.0,36.0,-23.0,1107.8239932408037,1,1,1,2.0,2.0
2021-09-23 15:14:47.426,970.0,-267.0,-23.0,1006.338909115612,1,1,1,2.0,2.0
2021-09-23 15:14:47.427,970.0,-267.0,30.0,1006.5232237757856,1,1,1,2.0,2.0
2021-09-23 15:14:47.435,826.0,125.0,30.0,835.9431798872457,1,1,1,2.0,2.0
2021-09-23 15:14:47.436,826.0,125.0,-3.0,835.4100789432696,1,1,1,2.0,2.0
2021-09-23 15:14:47.447,1116.0,125.0,-3.0,1122.9826356627248,1,1,1,2.0,2.0
2021-09-23 15:14:47.448,1116.0,-19.0,-26.0,1116.4645090642157,1,1,1,2.0,2.0
2021-09-23 15:14:47.456,1063.0,47.0,-26.0,1064.3561434031374,1,1,1,2.0,2.0
2021-09-23 15:14:47.472,1109.0,67.0,-22.0,1111.2398480976103,1,1,1,2.0,2.0
2021-09-23 15:14:47.474,947.0,-246.0,-22.0,978.6771684268516,1,1,1,2.0,2.0
2021-09-23 15:14:47.475,947.0,-246.0,29.0,978.8595404857634,1,1,1,2.0,2.0
2021-09-23 15:14:47.484,851.0,119.0,-3.0,859.2851680321265,1,1,1,2.0,2.0
2021-09-23 15:14:47.494,1148.0,293.0,28.0,1185.1316382579616,1,1,1,2.0,2.0
2021-09-23 15:14:47.506,1065.0,48.0,-28.0,1066.44877982958,1,1,1,2.0,2.0
2021-09-23 15:14:47.513,1113.0,48.0,-28.0,1114.38637823692,1,1,1,2.0,2.0
2021-09-23 15:14:47.514,1113.0,52.0,-20.0,1114.3935570524443,1,1,1,2.0,2.0
2021-09-23 15:14:47.523,966.0,-237.0,18.0,994.8110373332214,1,1,1,2.0,2.0
2021-09-23 15:14:47.533,851.0,96.0,6.0,856.4187060077564,1,1,1,2.0,2.0
2021-09-23 15:14:47.543,1132.0,263.0,18.0,1162.2895508435065,1,1,1,2.0,2.0
2021-09-23 15:14:47.566,1065.0,63.0,-34.0,1067.403391413012,1,1,1,2.0,2.0
2021-09-23 15:14:47.573,967.0,-258.0,18.0,1000.9880119162268,1,1,1,2.0,2.0
2021-09-23 15:14:47.582,838.0,93.0,9.0,843.1927419042457,1,1,1,2.0,2.0
2021-09-23 15:14:47.592,1140.0,277.0,36.0,1173.722710012889,1,1,1,2.0,2.0
2021-09-23 15:14:47.601,1068.0,85.0,36.0,1071.9818095471585,1,1,1,2.0,2.0
2021-09-23 15:14:47.602,1068.0,85.0,-22.0,1071.603004848344,1,1,1,2.0,2.0
2021-09-23 15:14:47.611,956.0,-331.0,-22.0,1011.9194631985296,1,1,1,2.0,2.0
2021-09-23 15:14:47.612,956.0,-331.0,30.0,1012.1249922810916,1,1,1,2.0,2.0
2021-09-23 15:14:47.623,862.0,31.0,16.0,862.7056276621823,1,1,1,2.0,2.0
2021-09-23 15:14:47.631,826.0,86.0,4.0,830.4745631264091,1,1,1,2.0,2.0
2021-09-23 15:14:47.641,1155.0,291.0,27.0,1191.400436461226,1,1,1,2.0,2.0
2021-09-23 15:14:47.650,1066.0,63.0,-29.0,1068.253715181932,1,1,1,2.0,2.0
2021-09-23 15:14:47.660,959.0,-323.0,23.0,1012.1951392888626,1,1,1,2.0,2.0
2021-09-23 15:14:47.671,869.0,10.0,16.0,869.204809006485,1,1,1,2.0,2.0
2021-09-23 15:14:47.679,1168.0,10.0,16.0,1168.1523873193942,1,1,1,2.0,2.0
2021-09-23 15:14:47.680,1168.0,269.0,4.0,1198.582913277175,1,1,1,2.0,2.0
2021-09-23 15:14:47.689,1136.0,285.0,26.0,1171.4934912324525,1,1,1,2.0,2.0
2021-09-23 15:14:47.699,1081.0,79.0,-38.0,1084.548754090843,1,1,1,2.0,2.0
2021-09-23 15:14:47.709,956.0,-321.0,17.0,1008.5960539284298,1,1,1,2.0,2.0
2021-09-23 15:14:47.720,874.0,-10.0,21.0,874.3094417882035,1,1,1,2.0,2.0
2021-09-23 15:14:47.729,1154.0,284.0,10.0,1188.47465265356,1,1,1,2.0,2.0
2021-09-23 15:14:47.738,1111.0,63.0,-21.0,1112.9829288897472,1,1,1,2.0,2.0
2021-09-23 15:14:47.748,1068.0,92.0,-38.0,1072.6285470748949,1,1,1,2.0,2.0
2021-09-23 15:14:47.758,962.0,-326.0,38.0,1016.4467521715044,1,1,1,2.0,2.0
2021-09-23 15:14:47.768,847.0,-4.0,17.0,847.1800280932028,1,1,1,2.0,2.0
2021-09-23 15:14:47.778,1158.0,289.0,14.0,1193.600016756032,1,1,1,2.0,2.0
2021-09-23 15:14:47.787,1110.0,80.0,-20.0,1113.0588483993108,1,1,1,2.0,2.0
2021-09-23 15:14:47.797,955.0,-262.0,25.0,990.6028467554491,1,1,1,2.0,2.0
2021-09-23 15:14:47.806,954.0,-262.0,25.0,989.6388230056458,1,1,1,2.0,2.0
2021-09-23 15:14:47.807,954.0,-342.0,22.0,1013.6883150160112,1,1,1,2.0,2.0
2021-09-23 15:14:47.816,861.0,-22.0,22.0,861.561953663229,1,1,1,2.0,2.0
2021-09-23 15:14:47.817,861.0,-22.0,27.0,861.7041255558662,1,1,1,2.0,2.0
2021-09-23 15:14:47.827,1152.0,286.0,3.0,1186.9747259314329,1,1,1,2.0,2.0
2021-09-23 15:14:47.836,1117.0,69.0,-28.0,1119.479343266324,1,1,1,2.0,2.0
2021-09-23 15:14:47.846,960.0,-257.0,27.0,994.172017308876,1,1,1,2.0,2.0
2021-09-23 15:14:47.855,851.0,78.0,6.0,854.588204926794,1,1,1,2.0,2.0
2021-09-23 15:14:47.865,858.0,-27.0,13.0,858.5231505323546,1,1,1,2.0,2.0
2021-09-23 15:14:47.876,1160.0,310.0,8.0,1200.7347750440144,1,1,1,2.0,2.0
2021-09-23 15:14:47.885,1114.0,310.0,8.0,1156.3563464607266,1,1,1,2.0,2.0
2021-09-23 15:14:47.886,1114.0,107.0,-17.0,1119.2560028876326,1,1,1,2.0,2.0
2021-09-23 15:14:47.894,964.0,-235.0,18.0,992.3935711198455,1,1,1,2.0,2.0
2021-09-23 15:14:47.913,845.0,71.0,4.0,847.9870282026725,1,1,1,2.0,2.0
2021-09-23 15:14:47.915,1139.0,310.0,29.0,1180.7887194583118,1,1,1,2.0,2.0
2021-09-23 15:14:47.924,1138.0,297.0,7.0,1176.138597274998,1,1,1,2.0,2.0
2021-09-23 15:14:47.935,1103.0,101.0,-24.0,1107.8745416336635,1,1,1,2.0,2.0
2021-09-23 15:14:47.943,962.0,-251.0,24.0,994.4953494109462,1,1,1,2.0,2.0
2021-09-23 15:14:47.953,838.0,56.0,14.0,839.9857141642351,1,1,1,2.0,2.0
2021-09-23 15:14:47.963,1128.0,317.0,15.0,1171.7926437727797,1,1,1,2.0,2.0
2021-09-23 15:14:47.975,1087.0,98.0,-21.0,1091.6107364807292,1,1,1,2.0,2.0
2021-09-23 15:14:47.982,1124.0,122.0,-30.0,1130.9995579132649,1,1,1,2.0,2.0
2021-09-23 15:14:47.992,961.0,-223.0,20.0,986.7370470393822,1,1,1,2.0,2.0
2021-09-23 15:14:48.002,834.0,-223.0,20.0,863.5305437562704,1,1,1,2.0,2.0
2021-09-23 15:14:48.003,834.0,20.0,14.0,834.3572376386508,1,1,1,2.0,2.0
2021-09-23 15:14:48.012,1127.0,310.0,23.0,1169.0842570148654,1,1,1,2.0,2.0
2021-09-23 15:14:48.022,1110.0,117.0,-27.0,1116.475705064826,1,1,1,2.0,2.0
2021-09-23 15:14:48.032,959.0,-311.0,21.0,1008.3863346951902,1,1,1,2.0,2.0
2021-09-23 15:14:48.041,992.0,-215.0,9.0,1015.0714260582848,1,1,1,2.0,2.0
2021-09-23 15:14:48.051,840.0,-18.0,15.0,840.326722174179,1,1,1,2.0,2.0
2021-09-23 15:14:48.060,1112.0,303.0,15.0,1152.6395794002565,1,1,1,2.0,2.0
2021-09-23 15:14:48.061,1112.0,303.0,28.0,1152.8820408003587,1,1,1,2.0,2.0
2021-09-23 15:14:48.070,1098.0,138.0,-36.0,1107.2235546627428,1,1,1,2.0,2.0
2021-09-23 15:14:48.081,962.0,138.0,-36.0,972.51426724753,1,1,1,2.0,2.0
2021-09-23 15:14:48.082,962.0,-313.0,21.0,1011.8567092231982,1,1,1,2.0,2.0
2021-09-23 15:14:48.090,859.0,-73.0,24.0,862.4302870377408,1,1,1,2.0,2.0
2021-09-23 15:14:48.100,836.0,-50.0,9.0,837.5422377408795,1,1,1,2.0,2.0
2021-09-23 15:14:48.109,1102.0,308.0,9.0,1144.267888214993,1,1,1,2.0,2.0
2021-09-23 15:14:48.110,1102.0,308.0,33.0,1144.7082597762628,1,1,1,2.0,2.0
2021-09-23 15:14:48.119,1108.0,148.0,-38.0,1118.4864773433785,1,1,1,2.0,2.0
2021-09-23 15:14:48.130,965.0,-314.0,-38.0,1015.5121860420976,1,1,1,2.0,2.0
2021-09-23 15:14:48.131,965.0,-314.0,15.0,1014.9118188295968,1,1,1,2.0,2.0
2021-09-23 15:14:48.138,867.0,-98.0,15.0,872.6499871082334,1,1,1,2.0,2.0
2021-09-23 15:14:48.139,867.0,-98.0,35.0,873.2227665378406,1,1,1,2.0,2.0
2021-09-23 15:14:48.148,1092.0,299.0,9.0,1132.2305418950682,1,1,1,2.0,2.0
2021-09-23 15:14:48.158,1079.0,303.0,28.0,1121.086080548679,1,1,1,2.0,2.0
2021-09-23 15:14:48.168,1137.0,142.0,-27.0,1146.1509499189017,1,1,1,2.0,2.0
2021-09-23 15:14:48.189,982.0,-300.0,-27.0,1027.1577288810126,1,1,1,2.0,2.0
2021-09-23 15:14:48.190,854.0,-125.0,20.0,863.3313384790338,1,1,1,2.0,2.0
2021-09-23 15:14:48.198,1076.0,294.0,20.0,1115.6217997152978,1,1,1,2.0,2.0
2021-09-23 15:14:48.199,1076.0,294.0,20.0,1115.6217997152978,1,1,1,2.0,2.0
2021-09-23 15:14:48.207,1139.0,180.0,-24.0,1153.3850181097378,1,1,1,2.0,2.0
2021-09-23 15:14:48.217,1145.0,142.0,-38.0,1154.3972453189583,1,1,1,2.0,2.0
2021-09-23 15:14:48.226,996.0,-273.0,-38.0,1033.4355325805282,1,1,1,2.0,2.0
2021-09-23 15:14:48.227,996.0,-273.0,10.0,1032.7850696054818,1,1,1,2.0,2.0
2021-09-23 15:14:48.236,884.0,-273.0,10.0,925.2486152380884,1,1,1,2.0,2.0
2021-09-23 15:14:48.237,884.0,-129.0,13.0,893.4573297029915,1,1,1,2.0,2.0
2021-09-23 15:14:48.247,1065.0,282.0,16.0,1101.8189506447964,1,1,1,2.0,2.0
2021-09-23 15:14:48.256,1148.0,184.0,-28.0,1162.9892518849863,1,1,1,2.0,2.0
2021-09-23 15:14:48.266,993.0,-187.0,9.0,1010.4944334334554,1,1,1,2.0,2.0
2021-09-23 15:14:48.275,1005.0,-284.0,14.0,1044.45057326807,1,1,1,2.0,2.0
2021-09-23 15:14:48.285,866.0,-141.0,23.0,877.7049618180359,1,1,1,2.0,2.0
2021-09-23 15:14:48.295,1057.0,299.0,28.0,1098.8330173415795,1,1,1,2.0,2.0
2021-09-23 15:14:48.304,1153.0,299.0,28.0,1191.4671627871244,1,1,1,2.0,2.0
2021-09-23 15:14:48.305,1153.0,196.0,-20.0,1169.7115028929145,1,1,1,2.0,2.0
2021-09-23 15:14:48.314,974.0,-185.0,-4.0,991.4217064397976,1,1,1,2.0,2.0
2021-09-23 15:14:48.324,836.0,-106.0,21.0,842.9549216891731,1,1,1,2.0,2.0
2021-09-23 15:14:48.334,866.0,-143.0,35.0,878.4247264279393,1,1,1,2.0,2.0
2021-09-23 15:14:48.344,1037.0,280.0,23.0,1074.3826134110698,1,1,1,2.0,2.0
2021-09-23 15:14:48.354,1159.0,280.0,23.0,1192.56446366643,1,1,1,2.0,2.0
2021-09-23 15:14:48.355,1159.0,210.0,-21.0,1178.0585723978245,1,1,1,2.0,2.0
2021-09-23 15:14:48.363,986.0,-191.0,10.0,1004.3789125623856,1,1,1,2.0,2.0
2021-09-23 15:14:48.373,839.0,-150.0,14.0,852.418324533207,1,1,1,2.0,2.0
2021-09-23 15:14:48.382,1059.0,-150.0,14.0,1069.6620961780409,1,1,1,2.0,2.0
2021-09-23 15:14:48.383,1059.0,292.0,27.0,1098.8512183184764,1,1,1,2.0,2.0
2021-09-23 15:14:48.392,1031.0,286.0,27.0,1070.273796745487,1,1,1,2.0,2.0
2021-09-23 15:14:48.393,1031.0,286.0,20.0,1070.1200867192429,1,1,1,2.0,2.0
2021-09-23 15:14:48.403,1155.0,204.0,-21.0,1173.0652155784007,1,1,1,2.0,2.0
2021-09-23 15:14:48.412,1000.0,-179.0,-7.0,1015.918303802033,1,1,1,2.0,2.0
2021-09-23 15:14:48.422,832.0,-140.0,32.0,844.3032630518492,1,1,1,2.0,2.0
2021-09-23 15:14:48.431,1046.0,-140.0,32.0,1055.812483351092,1,1,1,2.0,2.0
2021-09-23 15:14:48.432,1046.0,302.0,33.0,1089.2240357245153,1,1,1,2.0,2.0
2021-09-23 15:14:48.441,1163.0,165.0,-24.0,1174.891484350789,1,1,1,2.0,2.0
2021-09-23 15:14:48.451,1168.0,227.0,-24.0,1190.0962145977946,1,1,1,2.0,2.0
2021-09-23 15:14:48.452,1168.0,227.0,-21.0,1190.0394951429132,1,1,1,2.0,2.0
2021-09-23 15:14:48.461,1001.0,-185.0,-4.0,1017.9597241541534,1,1,1,2.0,2.0
2021-09-23 15:14:48.470,830.0,-185.0,-4.0,850.3769752292216,1,1,1,2.0,2.0
2021-09-23 15:14:48.471,830.0,-154.0,22.0,844.4524853418338,1,1,1,2.0,2.0
2021-09-23 15:14:48.488,1034.0,266.0,24.0,1067.9363276899985,1,1,1,2.0,2.0
2021-09-23 15:14:48.490,1168.0,167.0,-13.0,1179.9499989406331,1,1,1,2.0,2.0
2021-09-23 15:14:48.500,1011.0,-230.0,-2.0,1036.8341236668475,1,1,1,2.0,2.0
2021-09-23 15:14:48.510,1011.0,-157.0,-2.0,1023.1197388380308,1,1,1,2.0,2.0
2021-09-23 15:14:48.520,826.0,-130.0,-2.0,836.1698392073228,1,1,1,2.0,2.0
2021-09-23 15:14:48.521,826.0,-130.0,37.0,836.9856629596471,1,1,1,2.0,2.0
2021-09-23 15:14:48.529,1016.0,-130.0,37.0,1024.9512183513907,1,1,1,2.0,2.0
2021-09-23 15:14:48.530,1016.0,280.0,17.0,1054.0137570259697,1,1,1,2.0,2.0
2021-09-23 15:14:48.539,1167.0,163.0,-21.0,1178.515591750911,1,1,1,2.0,2.0
2021-09-23 15:14:48.549,1013.0,-209.0,-6.0,1034.3529378311837,1,1,1,2.0,2.0
2021-09-23 15:14:48.558,886.0,-144.0,-6.0,897.6458098827176,1,1,1,2.0,2.0
2021-09-23 15:14:48.559,886.0,-144.0,21.0,897.8713716340443,1,1,1,2.0,2.0
2021-09-23 15:14:48.588,844.0,-142.0,50.0,857.3214099741124,1,1,1,2.0,2.0
2021-09-23 15:14:48.589,1003.0,249.0,19.0,1033.6203364872424,1,1,1,2.0,2.0
2021-09-23 15:14:48.591,1162.0,162.0,-5.0,1173.2489079474994,1,1,1,2.0,2.0
2021-09-23 15:14:48.598,1012.0,-203.0,-15.0,1032.268375956563,1,1,1,2.0,2.0
2021-09-23 15:14:48.609,894.0,-137.0,21.0,904.6800539417236,1,1,1,2.0,2.0
2021-09-23 15:14:48.617,1016.0,253.0,16.0,1047.14898653439,1,1,1,2.0,2.0
2021-09-23 15:14:48.627,989.0,240.0,15.0,1017.8143249139304,1,1,1,2.0,2.0
2021-09-23 15:14:48.636,1157.0,240.0,15.0,1181.725010313313,1,1,1,2.0,2.0
2021-09-23 15:14:48.637,1157.0,167.0,2.0,1168.9918733678178,1,1,1,2.0,2.0
2021-09-23 15:14:48.648,1024.0,-222.0,-20.0,1047.9790074233358,1,1,1,2.0,2.0
2021-09-23 15:14:48.658,874.0,-151.0,28.0,887.3899931822535,1,1,1,2.0,2.0
2021-09-23 15:14:48.666,1007.0,237.0,-3.0,1034.5177620514787,1,1,1,2.0,2.0
2021-09-23 15:14:48.676,1163.0,242.0,-5.0,1187.921714592338,1,1,1,2.0,2.0
2021-09-23 15:14:48.685,1010.0,-135.0,-5.0,1018.9946025372265,1,1,1,2.0,2.0
2021-09-23 15:14:48.686,1010.0,-135.0,-9.0,1019.022080231827,1,1,1,2.0,2.0
2021-09-23 15:14:48.696,1044.0,-196.0,-36.0,1062.8490015049174,1,1,1,2.0,2.0
2021-09-23 15:14:48.706,896.0,-114.0,41.0,904.1531949841244,1,1,1,2.0,2.0
2021-09-23 15:14:48.715,988.0,224.0,-10.0,1013.1238818624304,1,1,1,2.0,2.0
2021-09-23 15:14:48.724,1172.0,220.0,-10.0,1192.511635163364,1,1,1,2.0,2.0
2021-09-23 15:14:48.725,1172.0,220.0,-4.0,1192.4764148611075,1,1,1,2.0,2.0
2021-09-23 15:14:48.734,1006.0,-121.0,-15.0,1013.3617320582024,1,1,1,2.0,2.0
2021-09-23 15:14:48.744,854.0,-95.0,72.0,862.278957182651,1,1,1,2.0,2.0
2021-09-23 15:14:48.755,911.0,-96.0,58.0,917.87853226884,1,1,1,2.0,2.0
2021-09-23 15:14:48.765,968.0,-96.0,58.0,974.4762695930568,1,1,1,2.0,2.0
2021-09-23 15:14:48.766,968.0,225.0,-19.0,993.9869214431344,1,1,1,2.0,2.0
2021-09-23 15:14:48.773,1161.0,254.0,-1.0,1188.4603485181997,1,1,1,2.0,2.0
2021-09-23 15:14:48.783,1030.0,-153.0,-15.0,1041.409621618698,1,1,1,2.0,2.0
2021-09-23 15:14:48.793,849.0,-107.0,59.0,857.7476318824786,1,1,1,2.0,2.0
2021-09-23 15:14:48.803,989.0,-107.0,59.0,996.519442861001,1,1,1,2.0,2.0
2021-09-23 15:14:48.804,989.0,160.0,13.0,1001.9431121575716,1,1,1,2.0,2.0
2021-09-23 15:14:48.813,965.0,211.0,3.0,987.803118035168,1,1,1,2.0,2.0
2021-09-23 15:14:48.822,1155.0,234.0,-17.0,1178.5881384096822,1,1,1,2.0,2.0
2021-09-23 15:14:48.832,1038.0,-155.0,-18.0,1049.6632793424756,1,1,1,2.0,2.0
2021-09-23 15:14:48.841,842.0,-155.0,-18.0,856.3369663864804,1,1,1,2.0,2.0
2021-09-23 15:14:48.842,842.0,-95.0,45.0,848.5363869628692,1,1,1,2.0,2.0
2021-09-23 15:14:48.851,992.0,108.0,45.0,998.8758681638076,1,1,1,2.0,2.0
2021-09-23 15:14:48.852,992.0,108.0,-2.0,997.8637181499286,1,1,1,2.0,2.0
2021-09-23 15:14:48.863,1143.0,177.0,8.0,1156.6512006650926,1,1,1,2.0,2.0
2021-09-23 15:14:48.871,1185.0,80.0,-16.0,1187.8051186958237,1,1,1,2.0,2.0
2021-09-23 15:14:48.880,1071.0,80.0,-16.0,1074.102881478306,1,1,1,2.0,2.0
2021-09-23 15:14:48.881,1071.0,232.0,5.0,1095.8512672803731,1,1,1,2.0,2.0
2021-09-23 15:14:48.890,932.0,151.0,5.0,944.1662989113728,1,1,1,2.0,2.0
2021-09-23 15:14:48.891,932.0,151.0,-37.0,944.877769872908,1,1,1,2.0,2.0
2021-09-23 15:14:48.900,1077.0,-11.0,29.0,1077.4465183943007,1,1,1,2.0,2.0
2021-09-23 15:14:48.911,913.0,20.0,-20.0,913.438011033042,1,1,1,2.0,2.0
2021-09-23 15:14:48.930,1037.0,-3.0,27.0,1037.3557731077608,1,1,1,2.0,2.0
2021-09-23 15:14:48.932,1021.0,-6.0,24.0,1021.2996621951856,1,1,1,2.0,2.0
2021-09-23 15:14:48.940,1003.0,30.0,-9.0,1003.4889137404558,1,1,1,2.0,2.0
2021-09-23 15:14:48.949,1027.0,26.0,16.0,1027.4536485895603,1,1,1,2.0,2.0
2021-09-23 15:14:48.959,1014.0,4.0,-6.0,1014.0256407014568,1,1,1,2.0,2.0
2021-09-23 15:14:48.968,1017.0,4.0,-6.0,1017.0255650670734,1,1,1,2.0,2.0
2021-09-23 15:14:48.969,1017.0,41.0,6.0,1017.8437994112847,1,1,1,2.0,2.0
2021-09-23 15:14:48.978,1019.0,50.0,6.0,1020.2435983626656,1,1,1,2.0,2.0
2021-09-23 15:14:48.979,1019.0,50.0,0.0,1020.2259553647908,1,1,1,2.0,2.0
2021-09-23 15:14:48.991,1011.0,50.0,0.0,1012.2356445018128,1,1,1,2.0,2.0
2021-09-23 15:14:48.992,1011.0,38.0,12.0,1011.785056224888,1,1,1,2.0,2.0
2021-09-23 15:14:48.998,1024.0,18.0,3.0,1024.1625847491207,1,1,1,2.0,2.0
2021-09-23 15:14:49.008,994.0,18.0,3.0,994.1674909189096,1,1,1,2.0,2.0
2021-09-23 15:14:49.009,994.0,8.0,-1.0,994.0326956393336,1,1,1,2.0,2.0
