time_stamp,Acceleration_X,Acceleration_Y,Acceleration_Z,magnitude,STD_Status_right,STD_Status_left,STD_Status_both,KMeans,KMeans_convert
2021-09-23 17:24:16.933,826.0,361.0,-8.0,901.4771211739096,1,1,1,0.0,2.0
2021-09-23 17:24:16.937,1374.0,530.0,112.0,1476.9292467819844,1,1,1,0.0,2.0
2021-09-23 17:24:16.946,1002.0,21.0,-109.0,1008.1299519407208,1,1,1,0.0,2.0
2021-09-23 17:24:16.956,1058.0,21.0,-109.0,1063.8073133796363,1,1,1,0.0,2.0
2021-09-23 17:24:16.957,1058.0,53.0,-95.0,1063.577923802483,1,1,1,0.0,2.0
2021-09-23 17:24:16.966,1002.0,-472.0,91.0,1111.336582678713,1,1,1,0.0,2.0
2021-09-23 17:24:16.975,698.0,130.0,91.0,715.8107291735714,1,1,1,0.0,2.0
2021-09-23 17:24:16.976,698.0,130.0,-25.0,710.4428196554596,1,1,1,0.0,2.0
2021-09-23 17:24:16.985,1306.0,130.0,-25.0,1312.6922716310933,1,1,1,0.0,2.0
2021-09-23 17:24:16.986,1306.0,364.0,66.0,1357.3827757858137,1,1,1,0.0,2.0
2021-09-23 17:24:16.995,1122.0,364.0,66.0,1181.4127136610643,1,1,1,0.0,2.0
2021-09-23 17:24:16.996,1122.0,-8.0,-49.0,1123.0979476430362,1,1,1,0.0,2.0
2021-09-23 17:24:17.005,916.0,-8.0,-49.0,917.3445372377818,1,1,1,0.0,2.0
2021-09-23 17:24:17.006,916.0,-494.0,36.0,1041.3395219619777,1,1,1,0.0,2.0
2021-09-23 17:24:17.015,937.0,-561.0,54.0,1093.4376982709166,1,1,1,0.0,2.0
2021-09-23 17:24:17.024,702.0,90.0,6.0,707.7711494543981,1,1,1,0.0,2.0
2021-09-23 17:24:17.034,1318.0,422.0,29.0,1384.2142175255967,1,1,1,0.0,2.0
2021-09-23 17:24:17.044,1181.0,422.0,29.0,1254.4664204353976,1,1,1,0.0,2.0
2021-09-23 17:24:17.045,1181.0,73.0,-48.0,1184.227174151987,1,1,1,0.0,2.0
2021-09-23 17:24:17.055,932.0,-433.0,40.0,1028.4517489897132,1,1,1,0.0,2.0
2021-09-23 17:24:17.063,642.0,214.0,-27.0,677.2658266884577,1,1,1,0.0,2.0
2021-09-23 17:24:17.073,1295.0,450.0,-27.0,1371.2235412214889,1,1,1,0.0,2.0
2021-09-23 17:24:17.074,1295.0,450.0,69.0,1372.6929736834818,1,1,1,0.0,2.0
2021-09-23 17:24:17.083,1293.0,416.0,4.0,1358.2786901074462,1,1,1,0.0,2.0
2021-09-23 17:24:17.093,1203.0,107.0,-33.0,1208.1999006786914,1,1,1,0.0,2.0
2021-09-23 17:24:17.103,943.0,-447.0,35.0,1044.1661745143826,1,1,1,0.0,2.0
2021-09-23 17:24:17.111,612.0,126.0,0.0,624.8359784775521,1,1,1,0.0,2.0
2021-09-23 17:24:17.122,1231.0,378.0,7.0,1287.7476460859868,1,1,1,0.0,2.0
2021-09-23 17:24:17.132,1235.0,363.0,0.0,1287.2427898419164,1,1,1,0.0,2.0
2021-09-23 17:24:17.141,1201.0,152.0,-47.0,1211.492467991444,1,1,1,0.0,2.0
2021-09-23 17:24:17.152,960.0,-461.0,-17.0,1065.0868509187408,1,1,1,0.0,2.0
2021-09-23 17:24:17.161,622.0,142.0,0.0,638.003134788537,1,1,1,0.0,2.0
2021-09-23 17:24:17.171,1235.0,142.0,0.0,1243.1367583657077,1,1,1,0.0,2.0
2021-09-23 17:24:17.172,1235.0,468.0,57.0,1321.9296501705376,1,1,1,0.0,2.0
2021-09-23 17:24:17.180,1146.0,104.0,-16.0,1150.820576805959,1,1,1,0.0,2.0
2021-09-23 17:24:17.190,931.0,-590.0,5.0,1102.218671589263,1,1,1,0.0,2.0
2021-09-23 17:24:17.200,958.0,-590.0,5.0,1125.1173272152553,1,1,1,0.0,2.0
2021-09-23 17:24:17.201,958.0,-330.0,25.0,1013.552662667313,1,1,1,0.0,2.0
2021-09-23 17:24:17.210,623.0,33.0,19.0,624.1626390613267,1,1,1,0.0,2.0
2021-09-23 17:24:17.219,1209.0,353.0,19.0,1259.623356404604,1,1,1,0.0,2.0
2021-09-23 17:24:17.220,1209.0,353.0,42.0,1260.180145852171,1,1,1,0.0,2.0
2021-09-23 17:24:17.229,1131.0,353.0,42.0,1185.5521920185547,1,1,1,0.0,2.0
2021-09-23 17:24:17.230,1131.0,152.0,-44.0,1142.0161995348403,1,1,1,0.0,2.0
2021-09-23 17:24:17.239,993.0,-546.0,24.0,1133.4641591157613,1,1,1,0.0,2.0
2021-09-23 17:24:17.250,746.0,-17.0,51.0,747.9344891098417,1,1,1,0.0,2.0
2021-09-23 17:24:17.271,646.0,-17.0,51.0,648.232982807879,1,1,1,0.0,2.0
2021-09-23 17:24:17.272,646.0,40.0,18.0,647.4874516158595,1,1,1,0.0,2.0
2021-09-23 17:24:17.274,1185.0,408.0,21.0,1253.4472465963615,1,1,1,0.0,2.0
2021-09-23 17:24:17.278,1194.0,152.0,-36.0,1204.1744059728226,1,1,1,0.0,2.0
2021-09-23 17:24:17.288,1020.0,-552.0,-36.0,1160.344776348823,1,1,1,0.0,2.0
2021-09-23 17:24:17.289,1020.0,-552.0,-2.0,1159.787911645918,1,1,1,0.0,2.0
2021-09-23 17:24:17.300,705.0,-552.0,-2.0,895.3954433656673,1,1,1,0.0,2.0
2021-09-23 17:24:17.301,705.0,-40.0,32.0,706.8585431329242,1,1,1,0.0,2.0
2021-09-23 17:24:17.308,1237.0,430.0,24.0,1309.8263243651809,1,1,1,0.0,2.0
2021-09-23 17:24:17.318,1167.0,409.0,43.0,1237.3435254608964,1,1,1,0.0,2.0
2021-09-23 17:24:17.327,1177.0,243.0,-54.0,1203.035327827076,1,1,1,0.0,2.0
2021-09-23 17:24:17.337,997.0,-571.0,1.0,1148.9347239943615,1,1,1,0.0,2.0
2021-09-23 17:24:17.346,711.0,-571.0,1.0,911.9007621446536,1,1,1,0.0,2.0
2021-09-23 17:24:17.347,711.0,-136.0,48.0,725.4798412085618,1,1,1,0.0,2.0
2021-09-23 17:24:17.356,1200.0,399.0,48.0,1265.5058277226542,1,1,1,0.0,2.0
2021-09-23 17:24:17.357,1200.0,399.0,37.0,1265.136356287337,1,1,1,0.0,2.0
2021-09-23 17:24:17.368,1203.0,170.0,-49.0,1215.9399656233034,1,1,1,0.0,2.0
2021-09-23 17:24:17.380,1188.0,173.0,-29.0,1200.8805102923438,1,1,1,0.0,2.0
2021-09-23 17:24:17.385,1005.0,-564.0,-29.0,1152.8061415519958,1,1,1,0.0,2.0
2021-09-23 17:24:17.386,1005.0,-564.0,-1.0,1152.441755578129,1,1,1,0.0,2.0
2021-09-23 17:24:17.395,718.0,-124.0,-1.0,728.6295354979785,1,1,1,0.0,2.0
2021-09-23 17:24:17.396,718.0,-124.0,29.0,729.2057322868492,1,1,1,0.0,2.0
2021-09-23 17:24:17.407,1192.0,414.0,38.0,1262.4198984490065,1,1,1,0.0,2.0
2021-09-23 17:24:17.416,1209.0,269.0,-43.0,1239.3106955077892,1,1,1,0.0,2.0
2021-09-23 17:24:17.428,925.0,-345.0,22.0,987.4887341129518,1,1,1,0.0,2.0
2021-09-23 17:24:17.434,983.0,-345.0,22.0,1042.0163146515508,1,1,1,0.0,2.0
2021-09-23 17:24:17.435,983.0,-543.0,10.0,1123.048529672694,1,1,1,0.0,2.0
2021-09-23 17:24:17.444,697.0,-156.0,34.0,715.0531448780573,1,1,1,0.0,2.0
2021-09-23 17:24:17.454,1166.0,351.0,31.0,1218.0796361486389,1,1,1,0.0,2.0
2021-09-23 17:24:17.469,1208.0,351.0,31.0,1258.3425606725698,1,1,1,0.0,2.0
2021-09-23 17:24:17.470,1208.0,267.0,-29.0,1237.4950504951526,1,1,1,0.0,2.0
2021-09-23 17:24:17.480,1001.0,-391.0,10.0,1074.7008886197127,1,1,1,0.0,2.0
2021-09-23 17:24:17.483,1037.0,-524.0,10.0,1161.9143686175844,1,1,1,0.0,2.0
2021-09-23 17:24:17.484,1037.0,-524.0,-14.0,1161.9556790170614,1,1,1,0.0,2.0
2021-09-23 17:24:17.493,708.0,-85.0,-14.0,713.2215644524498,1,1,1,0.0,2.0
2021-09-23 17:24:17.494,708.0,-85.0,48.0,714.6978382505434,1,1,1,0.0,2.0
2021-09-23 17:24:17.503,1152.0,385.0,16.0,1214.7365969624857,1,1,1,0.0,2.0
2021-09-23 17:24:17.512,1225.0,288.0,-35.0,1258.8860154914742,1,1,1,0.0,2.0
2021-09-23 17:24:17.523,990.0,-321.0,18.0,1040.8962484320905,1,1,1,0.0,2.0
2021-09-23 17:24:17.532,642.0,-17.0,4.0,642.2374950125537,1,1,1,0.0,2.0
2021-09-23 17:24:17.544,697.0,-215.0,37.0,730.3444392887509,1,1,1,0.0,2.0
2021-09-23 17:24:17.551,1082.0,319.0,37.0,1128.651407654285,1,1,1,0.0,2.0
2021-09-23 17:24:17.552,1082.0,319.0,50.0,1129.1523369324443,1,1,1,0.0,2.0
2021-09-23 17:24:17.561,1184.0,350.0,-22.0,1234.8441197171408,1,1,1,0.0,2.0
2021-09-23 17:24:17.572,1030.0,-336.0,-9.0,1083.45604433221,1,1,1,0.0,2.0
2021-09-23 17:24:17.581,661.0,-111.0,19.0,670.5244216283252,1,1,1,0.0,2.0
2021-09-23 17:24:17.591,1095.0,308.0,60.0,1139.0737465151235,1,1,1,0.0,2.0
2021-09-23 17:24:17.601,1039.0,412.0,38.0,1118.351018240695,1,1,1,0.0,2.0
2021-09-23 17:24:17.610,1234.0,361.0,-33.0,1286.1438488753893,1,1,1,0.0,2.0
2021-09-23 17:24:17.621,1022.0,-334.0,-7.0,1075.2157922947374,1,1,1,0.0,2.0
2021-09-23 17:24:17.630,652.0,-118.0,-12.0,662.7005356871232,1,1,1,0.0,2.0
2021-09-23 17:24:17.639,1109.0,-118.0,-12.0,1115.324616423398,1,1,1,0.0,2.0
2021-09-23 17:24:17.640,1109.0,360.0,59.0,1167.4596352765263,1,1,1,0.0,2.0
2021-09-23 17:24:17.650,1219.0,285.0,-39.0,1252.4803391670466,1,1,1,0.0,2.0
2021-09-23 17:24:17.659,1222.0,334.0,-58.0,1268.1498334187486,1,1,1,0.0,2.0
2021-09-23 17:24:17.669,1040.0,-286.0,-3.0,1078.6125346944564,1,1,1,0.0,2.0
2021-09-23 17:24:17.679,659.0,-89.0,15.0,665.151862359266,1,1,1,0.0,2.0
2021-09-23 17:24:17.688,1106.0,263.0,46.0,1137.7701876916972,1,1,1,0.0,2.0
2021-09-23 17:24:17.703,1244.0,174.0,46.0,1256.9518686091365,1,1,1,0.0,2.0
2021-09-23 17:24:17.704,1244.0,174.0,-51.0,1257.144780842684,1,1,1,0.0,2.0
2021-09-23 17:24:17.708,1026.0,-495.0,7.0,1139.1883075242654,1,1,1,0.0,2.0
2021-09-23 17:24:17.718,1038.0,-213.0,6.0,1059.6456955039264,1,1,1,0.0,2.0
2021-09-23 17:24:17.728,692.0,-145.0,18.0,707.2573788939922,1,1,1,0.0,2.0
2021-09-23 17:24:17.737,1063.0,404.0,57.0,1138.6105567752304,1,1,1,0.0,2.0
2021-09-23 17:24:17.748,1238.0,260.0,-36.0,1265.5196561096948,1,1,1,0.0,2.0
2021-09-23 17:24:17.757,1039.0,-451.0,17.0,1132.7890359638902,1,1,1,0.0,2.0
2021-09-23 17:24:17.766,713.0,-186.0,17.0,737.0576639585264,1,1,1,0.0,2.0
2021-09-23 17:24:17.767,713.0,-186.0,25.0,737.2855620449922,1,1,1,0.0,2.0
2021-09-23 17:24:17.776,681.0,-149.0,50.0,698.9005651736161,1,1,1,0.0,2.0
2021-09-23 17:24:17.786,1031.0,312.0,38.0,1077.8446084663597,1,1,1,0.0,2.0
2021-09-23 17:24:17.795,1260.0,312.0,38.0,1298.6100261433376,1,1,1,0.0,2.0
2021-09-23 17:24:17.796,1260.0,261.0,-27.0,1287.0314681467582,1,1,1,0.0,2.0
2021-09-23 17:24:17.806,1043.0,-490.0,2.0,1152.3684306679006,1,1,1,0.0,2.0
2021-09-23 17:24:17.815,710.0,-230.0,43.0,747.5620375594256,1,1,1,0.0,2.0
2021-09-23 17:24:17.825,1022.0,396.0,42.0,1096.8427416908953,1,1,1,0.0,2.0
2021-09-23 17:24:17.835,1009.0,353.0,38.0,1069.6419961837698,1,1,1,0.0,2.0
2021-09-23 17:24:17.844,1257.0,353.0,38.0,1306.178395166602,1,1,1,0.0,2.0
2021-09-23 17:24:17.845,1257.0,319.0,-42.0,1297.526107637145,1,1,1,0.0,2.0
2021-09-23 17:24:17.855,1050.0,-503.0,-18.0,1164.4024218456436,1,1,1,0.0,2.0
2021-09-23 17:24:17.866,718.0,-274.0,50.0,770.1298591796061,1,1,1,0.0,2.0
2021-09-23 17:24:17.874,973.0,446.0,17.0,1070.4830685256072,1,1,1,0.0,2.0
2021-09-23 17:24:17.885,1290.0,429.0,-29.0,1359.7727751356106,1,1,1,0.0,2.0
2021-09-23 17:24:17.893,1087.0,-299.0,-20.0,1127.5504423306302,1,1,1,0.0,2.0
2021-09-23 17:24:17.903,1072.0,-299.0,-20.0,1113.0970308108813,1,1,1,0.0,2.0
2021-09-23 17:24:17.904,1072.0,-434.0,-50.0,1157.6009675186006,1,1,1,0.0,2.0
2021-09-23 17:24:17.913,738.0,-434.0,-50.0,857.6129663198896,1,1,1,0.0,2.0
2021-09-23 17:24:17.914,738.0,-220.0,86.0,774.8806359691795,1,1,1,0.0,2.0
2021-09-23 17:24:17.923,950.0,372.0,12.0,1020.3077966966634,1,1,1,0.0,2.0
2021-09-23 17:24:17.933,1298.0,421.0,-31.0,1364.9197778624207,1,1,1,0.0,2.0
2021-09-23 17:24:17.943,1078.0,-323.0,-46.0,1126.2899271501988,1,1,1,0.0,2.0
2021-09-23 17:24:17.952,702.0,-322.0,74.0,775.8633900371894,1,1,1,0.0,2.0
2021-09-23 17:24:17.967,732.0,-322.0,74.0,803.1089589837733,1,1,1,0.0,2.0
2021-09-23 17:24:17.968,732.0,-247.0,91.0,777.8907378289061,1,1,1,0.0,2.0
2021-09-23 17:24:17.971,945.0,364.0,41.0,1013.5097434164112,1,1,1,0.0,2.0
2021-09-23 17:24:17.981,1291.0,364.0,41.0,1341.9605061252737,1,1,1,0.0,2.0
2021-09-23 17:24:17.982,1291.0,444.0,-27.0,1365.4837970477715,1,1,1,0.0,2.0
2021-09-23 17:24:17.992,1047.0,-275.0,-29.0,1082.9011958623005,1,1,1,0.0,2.0
2021-09-23 17:24:18.001,734.0,-275.0,-29.0,784.3608863272059,1,1,1,0.0,2.0
2021-09-23 17:24:18.002,734.0,-275.0,66.0,786.5983727417697,1,1,1,0.0,2.0
2021-09-23 17:24:18.010,966.0,-275.0,66.0,1006.547067950625,1,1,1,0.0,2.0
2021-09-23 17:24:18.011,966.0,317.0,24.0,1016.9665677887352,1,1,1,0.0,2.0
2021-09-23 17:24:18.021,898.0,292.0,5.0,944.2949751004714,1,1,1,0.0,2.0
2021-09-23 17:24:18.030,1238.0,292.0,5.0,1271.9799526722109,1,1,1,0.0,2.0
2021-09-23 17:24:18.031,1238.0,414.0,-23.0,1305.591436859173,1,1,1,0.0,2.0
2021-09-23 17:24:18.041,1126.0,-275.0,-30.0,1159.4830744775882,1,1,1,0.0,2.0
2021-09-23 17:24:18.051,723.0,-203.0,86.0,755.8663903098219,1,1,1,0.0,2.0
2021-09-23 17:24:18.059,994.0,282.0,86.0,1036.8008487650848,1,1,1,0.0,2.0
2021-09-23 17:24:18.060,994.0,282.0,36.0,1033.8549221239894,1,1,1,0.0,2.0
2021-09-23 17:24:18.069,1278.0,395.0,-8.0,1337.6744746013508,1,1,1,0.0,2.0
2021-09-23 17:24:18.079,1279.0,483.0,0.0,1367.1612926059602,1,1,1,0.0,2.0
2021-09-23 17:24:18.089,1084.0,-276.0,-51.0,1119.7468463898435,1,1,1,0.0,2.0
2021-09-23 17:24:18.099,755.0,-258.0,94.0,803.3834700813802,1,1,1,0.0,2.0
2021-09-23 17:24:18.109,904.0,258.0,-3.0,940.1005265395823,1,1,1,0.0,2.0
2021-09-23 17:24:18.119,1347.0,345.0,-5.0,1390.488762989475,1,1,1,0.0,2.0
2021-09-23 17:24:18.129,1150.0,-336.0,-79.0,1200.6818895944089,1,1,1,0.0,2.0
2021-09-23 17:24:18.137,1076.0,-284.0,-79.0,1115.649138394325,1,1,1,0.0,2.0
2021-09-23 17:24:18.138,1076.0,-284.0,-60.0,1114.4648940186496,1,1,1,0.0,2.0
2021-09-23 17:24:18.147,686.0,-284.0,-60.0,744.8838835684392,1,1,1,0.0,2.0
2021-09-23 17:24:18.148,686.0,-280.0,77.0,744.9328828827466,1,1,1,0.0,2.0
2021-09-23 17:24:18.158,942.0,269.0,48.0,980.830770316674,1,1,1,0.0,2.0
2021-09-23 17:24:18.167,1281.0,366.0,-38.0,1332.801935772904,1,1,1,0.0,2.0
2021-09-23 17:24:18.177,1199.0,-336.0,-50.0,1246.1930027086494,1,1,1,0.0,2.0
2021-09-23 17:24:18.187,748.0,-190.0,95.0,777.5789348998595,1,1,1,0.0,2.0
2021-09-23 17:24:18.197,730.0,-230.0,69.0,768.4796679158142,1,1,1,0.0,2.0
2021-09-23 17:24:18.207,905.0,195.0,50.0,927.1191940629856,1,1,1,0.0,2.0
2021-09-23 17:24:18.215,1237.0,195.0,50.0,1253.2733141657488,1,1,1,0.0,2.0
2021-09-23 17:24:18.216,1237.0,372.0,-16.0,1291.8239044080274,1,1,1,0.0,2.0
2021-09-23 17:24:18.225,1181.0,-305.0,-59.0,1221.1744347143858,1,1,1,0.0,2.0
2021-09-23 17:24:18.236,773.0,-282.0,59.0,824.944846641277,1,1,1,0.0,2.0
2021-09-23 17:24:18.245,830.0,295.0,22.0,881.1407379074014,1,1,1,0.0,2.0
2021-09-23 17:24:18.255,862.0,121.0,-8.0,870.4877942854799,1,1,1,0.0,2.0
2021-09-23 17:24:18.265,1238.0,354.0,-21.0,1287.7891908227837,1,1,1,0.0,2.0
2021-09-23 17:24:18.282,1195.0,-308.0,-52.0,1235.1489788685412,1,1,1,0.0,2.0
2021-09-23 17:24:18.286,820.0,-277.0,66.0,868.035137537646,1,1,1,0.0,2.0
2021-09-23 17:24:18.294,873.0,296.0,44.0,922.8656456928062,1,1,1,0.0,2.0
2021-09-23 17:24:18.306,1239.0,472.0,7.0,1325.878576642673,1,1,1,0.0,2.0
2021-09-23 17:24:18.313,1224.0,395.0,-32.0,1286.5554787882254,1,1,1,0.0,2.0
2021-09-23 17:24:18.323,1229.0,-213.0,-37.0,1247.8697848734057,1,1,1,0.0,2.0
2021-09-23 17:24:18.333,788.0,-254.0,36.0,828.7074272624809,1,1,1,0.0,2.0
2021-09-23 17:24:18.344,829.0,235.0,20.0,861.896745555986,1,1,1,0.0,2.0
2021-09-23 17:24:18.352,1249.0,421.0,14.0,1318.1191144961065,1,1,1,0.0,2.0
2021-09-23 17:24:18.362,1138.0,-185.0,-54.0,1154.2031883511672,1,1,1,0.0,2.0
2021-09-23 17:24:18.372,1220.0,-208.0,-41.0,1238.283085566463,1,1,1,0.0,2.0
2021-09-23 17:24:18.381,793.0,-208.0,-41.0,820.8495599072951,1,1,1,0.0,2.0
2021-09-23 17:24:18.382,793.0,-323.0,37.0,857.0571742888569,1,1,1,0.0,2.0
2021-09-23 17:24:18.397,793.0,262.0,29.0,835.6638079993653,1,1,1,0.0,2.0
2021-09-23 17:24:18.401,1253.0,514.0,29.0,1354.6386972178227,1,1,1,0.0,2.0
2021-09-23 17:24:18.402,1253.0,514.0,17.0,1354.4349375293004,1,1,1,0.0,2.0
2021-09-23 17:24:18.411,1187.0,-153.0,-50.0,1197.8639321725989,1,1,1,0.0,2.0
2021-09-23 17:24:18.420,756.0,-153.0,-50.0,772.9456643257662,1,1,1,0.0,2.0
2021-09-23 17:24:18.421,756.0,-324.0,52.0,824.1456182010555,1,1,1,0.0,2.0
2021-09-23 17:24:18.433,816.0,-326.0,35.0,879.4071866888512,1,1,1,0.0,2.0
2021-09-23 17:24:18.440,761.0,229.0,21.0,794.9861634016029,1,1,1,0.0,2.0
2021-09-23 17:24:18.450,1287.0,444.0,16.0,1361.5289200013344,1,1,1,0.0,2.0
2021-09-23 17:24:18.459,1157.0,444.0,16.0,1239.371211542369,1,1,1,0.0,2.0
2021-09-23 17:24:18.460,1157.0,-80.0,-43.0,1160.55934790083,1,1,1,0.0,2.0
2021-09-23 17:24:18.470,811.0,-373.0,-43.0,893.6996139643342,1,1,1,0.0,2.0
2021-09-23 17:24:18.471,811.0,-373.0,37.0,893.4310269964884,1,1,1,0.0,2.0
2021-09-23 17:24:18.488,789.0,105.0,40.0,796.9604758079287,1,1,1,0.0,2.0
2021-09-23 17:24:18.491,730.0,226.0,16.0,764.3507048469309,1,1,1,0.0,2.0
2021-09-23 17:24:18.500,1236.0,461.0,22.0,1319.3562824347334,1,1,1,0.0,2.0
2021-09-23 17:24:18.510,1196.0,-90.0,-67.0,1201.2514308003963,1,1,1,0.0,2.0
2021-09-23 17:24:18.518,827.0,-382.0,51.0,912.3891713517868,1,1,1,0.0,2.0
2021-09-23 17:24:18.530,782.0,82.0,51.0,787.9397185064349,1,1,1,0.0,2.0
2021-09-23 17:24:18.538,1216.0,82.0,51.0,1219.8282666014918,1,1,1,0.0,2.0
2021-09-23 17:24:18.539,1216.0,414.0,38.0,1285.105443144647,1,1,1,0.0,2.0
2021-09-23 17:24:18.548,1246.0,462.0,9.0,1328.9247533250332,1,1,1,0.0,2.0
2021-09-23 17:24:18.557,1185.0,462.0,9.0,1271.9080155420045,1,1,1,0.0,2.0
2021-09-23 17:24:18.558,1185.0,-66.0,-73.0,1189.079475897217,1,1,1,0.0,2.0
2021-09-23 17:24:18.567,834.0,-513.0,21.0,979.3702057955408,1,1,1,0.0,2.0
2021-09-23 17:24:18.578,731.0,81.0,34.0,736.2594651344049,1,1,1,0.0,2.0
2021-09-23 17:24:18.588,1264.0,427.0,33.0,1334.5838302632023,1,1,1,0.0,2.0
2021-09-23 17:24:18.596,1175.0,427.0,33.0,1250.6170477008538,1,1,1,0.0,2.0
2021-09-23 17:24:18.597,1175.0,-31.0,-45.0,1176.2699520093165,1,1,1,0.0,2.0
2021-09-23 17:24:18.606,1178.0,50.0,-78.0,1181.6378463810306,1,1,1,0.0,2.0
2021-09-23 17:24:18.616,897.0,-516.0,59.0,1036.5066328779571,1,1,1,0.0,2.0
2021-09-23 17:24:18.626,671.0,9.0,59.0,673.6490184064696,1,1,1,0.0,2.0
2021-09-23 17:24:18.627,671.0,9.0,81.0,675.931209517655,1,1,1,0.0,2.0
2021-09-23 17:24:18.636,1209.0,9.0,81.0,1211.7437847994104,1,1,1,0.0,2.0
2021-09-23 17:24:18.637,1209.0,442.0,86.0,1290.1321637723788,1,1,1,0.0,2.0
2021-09-23 17:24:18.645,1219.0,-6.0,-59.0,1220.441723311687,1,1,1,0.0,2.0
2021-09-23 17:24:18.655,875.0,-425.0,-14.0,972.854562614577,1,1,1,0.0,2.0
2021-09-23 17:24:18.665,906.0,-543.0,-14.0,1056.3526873161254,1,1,1,0.0,2.0
2021-09-23 17:24:18.666,906.0,-543.0,-11.0,1056.3171872122502,1,1,1,0.0,2.0
2021-09-23 17:24:18.675,730.0,-2.0,42.0,731.2099561685412,1,1,1,0.0,2.0
2021-09-23 17:24:18.686,1187.0,460.0,49.0,1273.958398064866,1,1,1,0.0,2.0
2021-09-23 17:24:18.694,1199.0,137.0,49.0,1207.7959264710244,1,1,1,0.0,2.0
2021-09-23 17:24:18.695,1199.0,137.0,-47.0,1207.716440229245,1,1,1,0.0,2.0
2021-09-23 17:24:18.704,885.0,-360.0,18.0,955.5883004725414,1,1,1,0.0,2.0
2021-09-23 17:24:18.713,717.0,-360.0,18.0,802.5042055964567,1,1,1,0.0,2.0
2021-09-23 17:24:18.714,717.0,80.0,14.0,721.5850608209679,1,1,1,0.0,2.0
2021-09-23 17:24:18.724,749.0,-81.0,37.0,754.275148735526,1,1,1,0.0,2.0
2021-09-23 17:24:18.737,1181.0,446.0,24.0,1262.6373192647206,1,1,1,0.0,2.0
2021-09-23 17:24:18.744,1269.0,119.0,-28.0,1274.8748958231156,1,1,1,0.0,2.0
2021-09-23 17:24:18.752,940.0,119.0,-28.0,947.9161355309868,1,1,1,0.0,2.0
2021-09-23 17:24:18.753,940.0,-452.0,-9.0,1043.0651945108705,1,1,1,0.0,2.0
2021-09-23 17:24:18.762,687.0,44.0,-9.0,688.4664116716225,1,1,1,0.0,2.0
2021-09-23 17:24:18.763,687.0,44.0,26.0,688.8983959917457,1,1,1,0.0,2.0
2021-09-23 17:24:18.773,1168.0,479.0,10.0,1262.4440581665392,1,1,1,0.0,2.0
2021-09-23 17:24:18.782,1220.0,169.0,-40.0,1232.2990708427883,1,1,1,0.0,2.0
2021-09-23 17:24:18.793,1222.0,166.0,-49.0,1234.1964997519642,1,1,1,0.0,2.0
2021-09-23 17:24:18.802,968.0,-363.0,18.0,1033.9811410272432,1,1,1,0.0,2.0
2021-09-23 17:24:18.811,693.0,-39.0,19.0,694.3565366582214,1,1,1,0.0,2.0
2021-09-23 17:24:18.821,1111.0,-39.0,19.0,1111.8466620896966,1,1,1,0.0,2.0
2021-09-23 17:24:18.822,1111.0,421.0,48.0,1189.060974046327,1,1,1,0.0,2.0
2021-09-23 17:24:18.831,1193.0,171.0,-42.0,1205.924541586247,1,1,1,0.0,2.0
2021-09-23 17:24:18.841,960.0,-483.0,-42.0,1075.478033248471,1,1,1,0.0,2.0
2021-09-23 17:24:18.842,960.0,-483.0,18.0,1074.8083550103247,1,1,1,0.0,2.0
2021-09-23 17:24:18.851,928.0,-483.0,18.0,1046.3254751749091,1,1,1,0.0,2.0
2021-09-23 17:24:18.852,928.0,-313.0,24.0,979.6575932436804,1,1,1,0.0,2.0
2021-09-23 17:24:18.860,701.0,-37.0,62.0,704.7084503537616,1,1,1,0.0,2.0
2021-09-23 17:24:18.870,1119.0,442.0,62.0,1204.7277700791992,1,1,1,0.0,2.0
2021-09-23 17:24:18.871,1119.0,442.0,36.0,1203.6698052206843,1,1,1,0.0,2.0
2021-09-23 17:24:18.880,1211.0,106.0,-49.0,1216.61744192659,1,1,1,0.0,2.0
2021-09-23 17:24:18.890,948.0,-518.0,-1.0,1080.291164455213,1,1,1,0.0,2.0
2021-09-23 17:24:18.900,787.0,-89.0,49.0,793.5307177419157,1,1,1,0.0,2.0
2021-09-23 17:24:18.909,717.0,-74.0,55.0,722.9038663612196,1,1,1,0.0,2.0
2021-09-23 17:24:18.918,1095.0,-74.0,55.0,1098.874879137748,1,1,1,0.0,2.0
2021-09-23 17:24:18.919,1095.0,508.0,40.0,1207.7619798619262,1,1,1,0.0,2.0
2021-09-23 17:24:18.929,1267.0,177.0,-55.0,1280.4854548178205,1,1,1,0.0,2.0
2021-09-23 17:24:18.938,968.0,-468.0,-33.0,1075.7030259323435,1,1,1,0.0,2.0
2021-09-23 17:24:18.950,763.0,-139.0,21.0,775.8421231152637,1,1,1,0.0,2.0
2021-09-23 17:24:18.958,1145.0,472.0,23.0,1238.6839790681076,1,1,1,0.0,2.0
2021-09-23 17:24:18.968,1082.0,472.0,23.0,1180.6934403137843,1,1,1,0.0,2.0
2021-09-23 17:24:18.969,1082.0,497.0,20.0,1190.8538953204966,1,1,1,0.0,2.0
2021-09-23 17:24:18.984,1257.0,203.0,-38.0,1273.853209753777,1,1,1,0.0,2.0
2021-09-23 17:24:18.988,1008.0,-488.0,22.0,1120.130349557586,1,1,1,0.0,2.0
2021-09-23 17:24:18.998,795.0,-136.0,22.0,806.848808637653,1,1,1,0.0,2.0
2021-09-23 17:24:18.999,795.0,-136.0,58.0,808.6315601063318,1,1,1,0.0,2.0
2021-09-23 17:24:19.008,1079.0,461.0,0.0,1173.3550187390003,1,1,1,0.0,2.0
2021-09-23 17:24:19.017,1271.0,160.0,-35.0,1281.5092664510858,1,1,1,0.0,2.0
2021-09-23 17:24:19.026,1251.0,176.0,-35.0,1263.804573500191,1,1,1,0.0,2.0
2021-09-23 17:24:19.027,1251.0,176.0,-75.0,1265.5441517386898,1,1,1,0.0,2.0
2021-09-23 17:24:19.036,1007.0,-544.0,-15.0,1144.6440494756437,1,1,1,0.0,2.0
2021-09-23 17:24:19.046,756.0,-203.0,16.0,782.9438038582335,1,1,1,0.0,2.0
2021-09-23 17:24:19.056,1097.0,476.0,20.0,1195.9870400635618,1,1,1,0.0,2.0
2021-09-23 17:24:19.066,1303.0,197.0,-46.0,1318.6106324461364,1,1,1,0.0,2.0
2021-09-23 17:24:19.075,1248.0,215.0,-49.0,1267.3318428888308,1,1,1,0.0,2.0
2021-09-23 17:24:19.084,969.0,215.0,-49.0,993.774119204158,1,1,1,0.0,2.0
2021-09-23 17:24:19.085,969.0,-443.0,-4.0,1065.4698494091704,1,1,1,0.0,2.0
2021-09-23 17:24:19.095,791.0,-227.0,19.0,823.1470099563018,1,1,1,0.0,2.0
2021-09-23 17:24:19.105,1090.0,460.0,21.0,1183.275538494733,1,1,1,0.0,2.0
2021-09-23 17:24:19.115,1274.0,204.0,-25.0,1290.471619215239,1,1,1,0.0,2.0
2021-09-23 17:24:19.124,944.0,-373.0,7.0,1015.0438414176996,1,1,1,0.0,2.0
2021-09-23 17:24:19.134,1025.0,-440.0,6.0,1115.4644772470344,1,1,1,0.0,2.0
2021-09-23 17:24:19.143,761.0,-200.0,34.0,787.5766629351075,1,1,1,0.0,2.0
2021-09-23 17:24:19.154,1025.0,498.0,34.0,1140.0811374634702,1,1,1,0.0,2.0
2021-09-23 17:24:19.155,1025.0,498.0,36.0,1140.14253494903,1,1,1,0.0,2.0
2021-09-23 17:24:19.163,1259.0,498.0,36.0,1354.3932220740032,1,1,1,0.0,2.0
2021-09-23 17:24:19.164,1259.0,180.0,-37.0,1272.3403632676282,1,1,1,0.0,2.0
2021-09-23 17:24:19.173,994.0,-318.0,27.0,1043.977490178787,1,1,1,0.0,2.0
2021-09-23 17:24:19.182,732.0,-143.0,27.0,746.3256661806561,1,1,1,0.0,2.0
2021-09-23 17:24:19.183,732.0,-143.0,3.0,745.8431470490293,1,1,1,0.0,2.0
2021-09-23 17:24:19.192,767.0,-212.0,45.0,797.030739683232,1,1,1,0.0,2.0
2021-09-23 17:24:19.203,1070.0,434.0,26.0,1154.9597395580506,1,1,1,0.0,2.0
2021-09-23 17:24:19.212,1282.0,267.0,26.0,1309.7667731317665,1,1,1,0.0,2.0
2021-09-23 17:24:19.213,1282.0,267.0,-42.0,1310.1820484192262,1,1,1,0.0,2.0
2021-09-23 17:24:19.222,965.0,-241.0,2.0,994.6406386228144,1,1,1,0.0,2.0
2021-09-23 17:24:19.231,787.0,-177.0,17.0,806.8376540543952,1,1,1,0.0,2.0
2021-09-23 17:24:19.241,1029.0,486.0,36.0,1138.5662036087317,1,1,1,0.0,2.0
2021-09-23 17:24:19.252,1015.0,431.0,29.0,1103.0988169697218,1,1,1,0.0,2.0
2021-09-23 17:24:19.262,1246.0,215.0,-46.0,1265.2497777118951,1,1,1,0.0,2.0
2021-09-23 17:24:19.271,918.0,-280.0,8.0,959.7853926790092,1,1,1,0.0,2.0
2021-09-23 17:24:19.280,736.0,-215.0,-4.0,766.7705002150252,1,1,1,0.0,2.0
2021-09-23 17:24:19.297,1088.0,453.0,34.0,1179.0288376456278,1,1,1,0.0,2.0
2021-09-23 17:24:19.301,1252.0,453.0,34.0,1331.8667350752478,1,1,1,0.0,2.0
2021-09-23 17:24:19.302,1252.0,212.0,-48.0,1270.7289246727644,1,1,1,0.0,2.0
2021-09-23 17:24:19.309,1297.0,257.0,-40.0,1322.8219834883305,1,1,1,0.0,2.0
2021-09-23 17:24:19.320,1016.0,-249.0,19.0,1046.2399342407075,1,1,1,0.0,2.0
2021-09-23 17:24:19.330,702.0,-257.0,-7.0,747.5974852820199,1,1,1,0.0,2.0
2021-09-23 17:24:19.339,1006.0,471.0,56.0,1112.2108613028377,1,1,1,0.0,2.0
2021-09-23 17:24:19.348,1252.0,124.0,56.0,1259.37127170664,1,1,1,0.0,2.0
2021-09-23 17:24:19.349,1252.0,124.0,-52.0,1259.1997458703684,1,1,1,0.0,2.0
2021-09-23 17:24:19.361,999.0,124.0,-52.0,1008.0084325044112,1,1,1,0.0,2.0
2021-09-23 17:24:19.362,999.0,-378.0,11.0,1068.1788239803295,1,1,1,0.0,2.0
2021-09-23 17:24:19.368,962.0,-213.0,11.0,985.3598327514676,1,1,1,0.0,2.0
2021-09-23 17:24:19.369,962.0,-213.0,19.0,985.4816081490308,1,1,1,0.0,2.0
2021-09-23 17:24:19.378,727.0,-213.0,19.0,757.7987859583835,1,1,1,0.0,2.0
2021-09-23 17:24:19.379,727.0,-236.0,34.0,765.101953990447,1,1,1,0.0,2.0
2021-09-23 17:24:19.387,1014.0,461.0,34.0,1114.3935570524443,1,1,1,0.0,2.0
2021-09-23 17:24:19.388,1014.0,461.0,55.0,1115.231814467288,1,1,1,0.0,2.0
2021-09-23 17:24:19.398,1234.0,183.0,-73.0,1249.6295451052683,1,1,1,0.0,2.0
2021-09-23 17:24:19.412,997.0,-413.0,-17.0,1079.290044427354,1,1,1,0.0,2.0
2021-09-23 17:24:19.417,738.0,-229.0,19.0,772.9463112014961,1,1,1,0.0,2.0
2021-09-23 17:24:19.427,670.0,-131.0,-56.0,684.9795617388887,1,1,1,0.0,2.0
2021-09-23 17:24:19.437,1217.0,-260.0,115.0,1249.765578018534,1,1,1,0.0,2.0
2021-09-23 17:24:19.446,885.0,-260.0,115.0,929.542898418357,1,1,1,0.0,2.0
2021-09-23 17:24:19.447,885.0,37.0,-76.0,889.0275586279652,1,1,1,0.0,2.0
2021-09-23 17:24:19.456,1067.0,97.0,63.0,1073.2506696946432,1,1,1,0.0,2.0
2021-09-23 17:24:19.466,1091.0,10.0,-31.0,1091.4861428346217,1,1,1,0.0,2.0
2021-09-23 17:24:19.475,984.0,10.0,-31.0,984.5389784056292,1,1,1,0.0,2.0
2021-09-23 17:24:19.476,984.0,26.0,14.0,984.442989715504,1,1,1,0.0,2.0
2021-09-23 17:24:19.486,989.0,33.0,24.0,989.8414014376242,1,1,1,0.0,2.0
2021-09-23 17:24:19.503,1060.0,33.0,24.0,1060.7850866221677,1,1,1,0.0,2.0
2021-09-23 17:24:19.504,1060.0,-20.0,10.0,1060.2358228243374,1,1,1,0.0,2.0
2021-09-23 17:24:19.507,1010.0,60.0,0.0,1011.7806086301516,1,1,1,0.0,2.0
2021-09-23 17:24:19.515,1045.0,24.0,14.0,1045.3693127311517,1,1,1,0.0,2.0
2021-09-23 17:24:19.526,1007.0,-10.0,2.0,1007.0516372063548,1,1,1,0.0,2.0
2021-09-23 17:24:19.534,984.0,12.0,20.0,984.2763839491428,1,1,1,0.0,2.0
2021-09-23 17:24:19.544,996.0,-22.0,10.0,996.2931295557548,1,1,1,0.0,2.0
2021-09-23 17:24:19.558,1015.0,44.0,9.0,1015.9931102128596,1,1,1,0.0,2.0
2021-09-23 17:24:19.564,1034.0,57.0,2.0,1035.571822714388,1,1,1,0.0,2.0
2021-09-23 17:24:19.575,999.0,44.0,14.0,1000.066497789022,1,1,1,0.0,2.0
2021-09-23 17:24:19.710,1010.0,30.0,1.0,1010.4459411566756,1,1,1,0.0,2.0
2021-09-23 17:24:19.720,1014.0,23.0,-5.0,1014.2731387550396,1,1,1,0.0,2.0
2021-09-23 17:24:19.730,1011.0,33.0,11.0,1011.5982404096994,1,1,1,0.0,2.0
2021-09-23 17:24:19.739,1015.0,33.0,11.0,1015.5958841980406,1,1,1,0.0,2.0
2021-09-23 17:24:19.740,1015.0,21.0,9.0,1015.2571102927574,1,1,1,0.0,2.0
2021-09-23 17:24:19.749,1003.0,34.0,10.0,1003.625926329128,1,1,1,0.0,2.0
2021-09-23 17:24:19.759,1021.0,26.0,6.0,1021.3486182494204,1,1,1,0.0,2.0
