time_stamp,Acceleration_X,Acceleration_Y,Acceleration_Z,magnitude,STD_Status_right,STD_Status_left,STD_Status_both,KMeans,KMeans_convert
2021-09-24 12:48:01.618,933.0,158.0,4.0,946.292238159016,1,1,1,2.0,2.0
2021-09-24 12:48:01.619,933.0,158.0,20.0,946.4951135637205,1,1,1,2.0,2.0
2021-09-24 12:48:01.623,1031.0,302.0,-34.0,1074.858595351035,1,1,1,2.0,2.0
2021-09-24 12:48:01.634,1101.0,-40.0,40.0,1102.4522665403704,1,1,1,2.0,2.0
2021-09-24 12:48:01.641,1138.0,198.0,9.0,1155.1315942350464,1,1,1,2.0,2.0
2021-09-24 12:48:01.651,1016.0,-259.0,-9.0,1048.5313538468938,1,1,1,2.0,2.0
2021-09-24 12:48:01.661,656.0,90.0,26.0,662.6552648247805,1,1,1,2.0,2.0
2021-09-24 12:48:01.673,1231.0,266.0,42.0,1260.1115030028095,1,1,1,2.0,2.0
2021-09-24 12:48:01.681,988.0,56.0,-74.0,992.3487290262432,1,1,1,2.0,2.0
2021-09-24 12:48:01.690,1043.0,190.0,-80.0,1063.178724392094,1,1,1,2.0,2.0
2021-09-24 12:48:01.700,997.0,-289.0,31.0,1038.5042127983882,1,1,1,2.0,2.0
2021-09-24 12:48:01.710,645.0,138.0,-4.0,659.6097330998081,1,1,1,2.0,2.0
2021-09-24 12:48:01.720,1259.0,289.0,58.0,1293.045242827953,1,1,1,2.0,2.0
2021-09-24 12:48:01.731,1079.0,40.0,-36.0,1080.341149822592,1,1,1,2.0,2.0
2021-09-24 12:48:01.739,1003.0,-443.0,24.0,1096.7378902910211,1,1,1,2.0,2.0
2021-09-24 12:48:01.748,997.0,-443.0,24.0,1091.2534077839116,1,1,1,2.0,2.0
2021-09-24 12:48:01.749,997.0,-322.0,29.0,1048.1097270801374,1,1,1,2.0,2.0
2021-09-24 12:48:01.758,666.0,-322.0,29.0,740.3249286630837,1,1,1,2.0,2.0
2021-09-24 12:48:01.759,666.0,146.0,4.0,681.8269575192815,1,1,1,2.0,2.0
2021-09-24 12:48:01.769,1240.0,325.0,4.0,1281.8896208332449,1,1,1,2.0,2.0
2021-09-24 12:48:01.770,1240.0,325.0,77.0,1284.1939105913873,1,1,1,2.0,2.0
2021-09-24 12:48:01.779,1094.0,325.0,77.0,1143.848766227424,1,1,1,2.0,2.0
2021-09-24 12:48:01.780,1094.0,6.0,-21.0,1094.217985595192,1,1,1,2.0,2.0
2021-09-24 12:48:01.787,1011.0,6.0,-21.0,1011.2358775280868,1,1,1,2.0,2.0
2021-09-24 12:48:01.788,1011.0,-465.0,0.0,1112.8099568210198,1,1,1,2.0,2.0
2021-09-24 12:48:01.799,743.0,79.0,23.0,747.541972065783,1,1,1,2.0,2.0
2021-09-24 12:48:01.807,683.0,161.0,42.0,702.9751062448797,1,1,1,2.0,2.0
2021-09-24 12:48:01.838,1216.0,161.0,42.0,1227.3308437418168,1,1,1,2.0,2.0
2021-09-24 12:48:01.839,1216.0,305.0,53.0,1254.7868344862404,1,1,1,2.0,2.0
2021-09-24 12:48:01.841,950.0,-542.0,53.0,1095.0219175888672,1,1,1,2.0,2.0
2021-09-24 12:48:01.842,950.0,-542.0,68.0,1095.8503547473988,1,1,1,2.0,2.0
2021-09-24 12:48:01.846,751.0,79.0,9.0,755.1973252071276,1,1,1,2.0,2.0
2021-09-24 12:48:01.856,655.0,117.0,38.0,666.4517987071533,1,1,1,2.0,2.0
2021-09-24 12:48:01.867,1251.0,290.0,22.0,1284.3617091769747,1,1,1,2.0,2.0
2021-09-24 12:48:01.876,1058.0,-2.0,-31.0,1058.4559509020676,1,1,1,2.0,2.0
2021-09-24 12:48:01.886,898.0,-2.0,-31.0,898.5371444742839,1,1,1,2.0,2.0
2021-09-24 12:48:01.887,898.0,-473.0,41.0,1015.782457025125,1,1,1,2.0,2.0
2021-09-24 12:48:01.895,833.0,99.0,15.0,838.9964243070408,1,1,1,2.0,2.0
2021-09-24 12:48:01.905,1231.0,232.0,26.0,1252.9409403479478,1,1,1,2.0,2.0
2021-09-24 12:48:01.915,1210.0,280.0,25.0,1242.2258248804844,1,1,1,2.0,2.0
2021-09-24 12:48:01.925,1050.0,280.0,25.0,1086.979760621144,1,1,1,2.0,2.0
2021-09-24 12:48:01.926,1050.0,-70.0,-14.0,1052.4238689805547,1,1,1,2.0,2.0
2021-09-24 12:48:01.936,961.0,-470.0,63.0,1071.6296001884234,1,1,1,2.0,2.0
2021-09-24 12:48:01.944,829.0,143.0,-1.0,841.2437221162486,1,1,1,2.0,2.0
2021-09-24 12:48:01.967,1222.0,254.0,7.0,1248.138213500412,1,1,1,2.0,2.0
2021-09-24 12:48:01.968,1234.0,329.0,7.0,1277.1241129976363,1,1,1,2.0,2.0
2021-09-24 12:48:01.969,1234.0,329.0,19.0,1277.2462566005038,1,1,1,2.0,2.0
2021-09-24 12:48:01.974,1033.0,-63.0,-40.0,1035.6920391699457,1,1,1,2.0,2.0
2021-09-24 12:48:01.983,971.0,-449.0,41.0,1070.571342788513,1,1,1,2.0,2.0
2021-09-24 12:48:01.994,811.0,178.0,26.0,830.7111411315007,1,1,1,2.0,2.0
2021-09-24 12:48:02.003,1255.0,259.0,47.0,1282.308465229798,1,1,1,2.0,2.0
2021-09-24 12:48:02.016,1182.0,-26.0,-43.0,1183.0676227502804,1,1,1,2.0,2.0
2021-09-24 12:48:02.023,1141.0,-68.0,-12.0,1143.0874857157696,1,1,1,2.0,2.0
2021-09-24 12:48:02.032,916.0,-387.0,45.0,995.4144865331224,1,1,1,2.0,2.0
2021-09-24 12:48:02.042,864.0,150.0,16.0,877.0701226241833,1,1,1,2.0,2.0
2021-09-24 12:48:02.052,1261.0,264.0,28.0,1288.6430847988904,1,1,1,2.0,2.0
2021-09-24 12:48:02.062,1131.0,264.0,28.0,1161.740504587836,1,1,1,2.0,2.0
2021-09-24 12:48:02.063,1131.0,-82.0,-45.0,1134.8612249962548,1,1,1,2.0,2.0
2021-09-24 12:48:02.071,1110.0,-82.0,-45.0,1113.9340195900295,1,1,1,2.0,2.0
2021-09-24 12:48:02.072,1110.0,-61.0,-43.0,1112.506179758117,1,1,1,2.0,2.0
2021-09-24 12:48:02.081,910.0,-375.0,51.0,985.5587247850837,1,1,1,2.0,2.0
2021-09-24 12:48:02.090,854.0,145.0,9.0,866.2690113353934,1,1,1,2.0,2.0
2021-09-24 12:48:02.101,1261.0,284.0,54.0,1293.7128738634397,1,1,1,2.0,2.0
2021-09-24 12:48:02.111,1162.0,-116.0,-23.0,1168.0021404089978,1,1,1,2.0,2.0
2021-09-24 12:48:02.120,853.0,-276.0,28.0,896.9777031788472,1,1,1,2.0,2.0
2021-09-24 12:48:02.130,893.0,-276.0,28.0,935.0983905450804,1,1,1,2.0,2.0
2021-09-24 12:48:02.131,893.0,-334.0,54.0,954.9455481858638,1,1,1,2.0,2.0
2021-09-24 12:48:02.139,876.0,125.0,11.0,884.941805996304,1,1,1,2.0,2.0
2021-09-24 12:48:02.149,1229.0,289.0,11.0,1262.5699980595136,1,1,1,2.0,2.0
2021-09-24 12:48:02.150,1229.0,289.0,46.0,1263.3598062309882,1,1,1,2.0,2.0
2021-09-24 12:48:02.160,1138.0,-141.0,-10.0,1146.7453945841685,1,1,1,2.0,2.0
2021-09-24 12:48:02.169,815.0,-141.0,-10.0,827.1674558395054,1,1,1,2.0,2.0
2021-09-24 12:48:02.170,815.0,-173.0,57.0,835.1065800243703,1,1,1,2.0,2.0
2021-09-24 12:48:02.179,817.0,289.0,-17.0,866.7750573245632,1,1,1,2.0,2.0
2021-09-24 12:48:02.188,855.0,152.0,14.0,868.5188541419236,1,1,1,2.0,2.0
2021-09-24 12:48:02.198,1237.0,263.0,40.0,1265.2817867969177,1,1,1,2.0,2.0
2021-09-24 12:48:02.208,1124.0,-194.0,-44.0,1141.4674765406153,1,1,1,2.0,2.0
2021-09-24 12:48:02.218,844.0,-194.0,-44.0,867.1262883801875,1,1,1,2.0,2.0
2021-09-24 12:48:02.219,844.0,-165.0,57.0,861.8642584537312,1,1,1,2.0,2.0
2021-09-24 12:48:02.229,828.0,234.0,-5.0,860.4446524907921,1,1,1,2.0,2.0
2021-09-24 12:48:02.242,1214.0,382.0,8.0,1272.7073504934274,1,1,1,2.0,2.0
2021-09-24 12:48:02.247,1253.0,303.0,54.0,1290.2457130329865,1,1,1,2.0,2.0
2021-09-24 12:48:02.257,1138.0,-243.0,-39.0,1164.3083783946588,1,1,1,2.0,2.0
2021-09-24 12:48:02.267,778.0,-243.0,-39.0,815.9987745088837,1,1,1,2.0,2.0
2021-09-24 12:48:02.268,778.0,-188.0,51.0,802.0155858834664,1,1,1,2.0,2.0
2021-09-24 12:48:02.276,835.0,229.0,0.0,865.8325473207854,1,1,1,2.0,2.0
2021-09-24 12:48:02.286,1205.0,229.0,0.0,1226.5667531773393,1,1,1,2.0,2.0
2021-09-24 12:48:02.287,1205.0,343.0,-31.0,1253.249775583463,1,1,1,2.0,2.0
2021-09-24 12:48:02.295,1258.0,343.0,-31.0,1304.2906117886455,1,1,1,2.0,2.0
2021-09-24 12:48:02.296,1258.0,249.0,38.0,1282.9688226921182,1,1,1,2.0,2.0
2021-09-24 12:48:02.305,1139.0,249.0,38.0,1166.5187525282224,1,1,1,2.0,2.0
2021-09-24 12:48:02.306,1139.0,-263.0,-37.0,1169.5550435956402,1,1,1,2.0,2.0
2021-09-24 12:48:02.316,806.0,-193.0,74.0,832.0823276575461,1,1,1,2.0,2.0
2021-09-24 12:48:02.324,886.0,222.0,-28.0,913.818362695782,1,1,1,2.0,2.0
2021-09-24 12:48:02.335,1231.0,222.0,-28.0,1251.1710514553956,1,1,1,2.0,2.0
2021-09-24 12:48:02.336,1231.0,359.0,9.0,1282.3115846002484,1,1,1,2.0,2.0
2021-09-24 12:48:02.345,1084.0,-223.0,-44.0,1107.5743767350343,1,1,1,2.0,2.0
2021-09-24 12:48:02.354,1124.0,-313.0,14.0,1166.850890216912,1,1,1,2.0,2.0
2021-09-24 12:48:02.364,830.0,-159.0,55.0,846.8801568108678,1,1,1,2.0,2.0
2021-09-24 12:48:02.374,904.0,232.0,14.0,933.4002356974204,1,1,1,2.0,2.0
2021-09-24 12:48:02.384,1221.0,232.0,14.0,1242.9243742078595,1,1,1,2.0,2.0
2021-09-24 12:48:02.385,1221.0,314.0,-20.0,1260.8873859310354,1,1,1,2.0,2.0
2021-09-24 12:48:02.393,1080.0,-210.0,-20.0,1100.4090148667449,1,1,1,2.0,2.0
2021-09-24 12:48:02.394,1080.0,-210.0,-64.0,1102.0871108945971,1,1,1,2.0,2.0
2021-09-24 12:48:02.403,1167.0,-294.0,-45.0,1204.3047787001428,1,1,1,2.0,2.0
2021-09-24 12:48:02.413,788.0,-154.0,49.0,804.4010193926907,1,1,1,2.0,2.0
2021-09-24 12:48:02.423,900.0,-154.0,49.0,914.3943350655668,1,1,1,2.0,2.0
2021-09-24 12:48:02.424,900.0,203.0,-8.0,922.64456861784,1,1,1,2.0,2.0
2021-09-24 12:48:02.432,1200.0,331.0,-26.0,1245.0851376512371,1,1,1,2.0,2.0
2021-09-24 12:48:02.443,1053.0,331.0,-26.0,1104.1041617528665,1,1,1,2.0,2.0
2021-09-24 12:48:02.444,1053.0,-262.0,-33.0,1085.606742794093,1,1,1,2.0,2.0
2021-09-24 12:48:02.452,741.0,-131.0,86.0,757.388935752299,1,1,1,2.0,2.0
2021-09-24 12:48:02.461,793.0,-138.0,61.0,807.2261145428832,1,1,1,2.0,2.0
2021-09-24 12:48:02.472,924.0,209.0,-5.0,947.3552659905364,1,1,1,2.0,2.0
2021-09-24 12:48:02.482,1241.0,289.0,-4.0,1274.2126981002818,1,1,1,2.0,2.0
2021-09-24 12:48:02.491,1019.0,289.0,-4.0,1059.1968655542746,1,1,1,2.0,2.0
2021-09-24 12:48:02.492,1019.0,-197.0,-37.0,1038.5273227026817,1,1,1,2.0,2.0
2021-09-24 12:48:02.501,731.0,-100.0,45.0,739.1792746012296,1,1,1,2.0,2.0
2021-09-24 12:48:02.510,771.0,-100.0,45.0,778.7592696077525,1,1,1,2.0,2.0
2021-09-24 12:48:02.511,771.0,-168.0,5.0,789.1070903242475,1,1,1,2.0,2.0
2021-09-24 12:48:02.521,934.0,225.0,0.0,960.719001581628,1,1,1,2.0,2.0
2021-09-24 12:48:02.530,1209.0,225.0,0.0,1229.758512879663,1,1,1,2.0,2.0
2021-09-24 12:48:02.531,1209.0,311.0,-9.0,1248.3921659478642,1,1,1,2.0,2.0
2021-09-24 12:48:02.540,1072.0,-201.0,-9.0,1090.7181120711257,1,1,1,2.0,2.0
2021-09-24 12:48:02.541,1072.0,-201.0,-51.0,1091.8727032030797,1,1,1,2.0,2.0
2021-09-24 12:48:02.550,732.0,-81.0,93.0,742.3166440273316,1,1,1,2.0,2.0
2021-09-24 12:48:02.559,988.0,195.0,34.0,1007.6333658628024,1,1,1,2.0,2.0
2021-09-24 12:48:02.569,947.0,202.0,34.0,968.9009237274986,1,1,1,2.0,2.0
2021-09-24 12:48:02.570,947.0,202.0,24.0,968.6015692739712,1,1,1,2.0,2.0
2021-09-24 12:48:02.579,1209.0,307.0,24.0,1247.600096184671,1,1,1,2.0,2.0
2021-09-24 12:48:02.580,1209.0,307.0,-39.0,1247.9787658449964,1,1,1,2.0,2.0
2021-09-24 12:48:02.590,972.0,-199.0,-45.0,993.1817557728292,1,1,1,2.0,2.0
2021-09-24 12:48:02.599,737.0,-69.0,71.0,743.6201987574033,1,1,1,2.0,2.0
2021-09-24 12:48:02.608,1021.0,209.0,35.0,1042.759320265228,1,1,1,2.0,2.0
2021-09-24 12:48:02.626,1206.0,170.0,-16.0,1218.0279142942495,1,1,1,2.0,2.0
2021-09-24 12:48:02.630,1216.0,330.0,3.0,1259.986111034562,1,1,1,2.0,2.0
2021-09-24 12:48:02.642,1058.0,-173.0,-14.0,1072.142248024953,1,1,1,2.0,2.0
2021-09-24 12:48:02.649,722.0,-133.0,45.0,735.5256623667185,1,1,1,2.0,2.0
2021-09-24 12:48:02.657,1021.0,-133.0,45.0,1030.6090432360857,1,1,1,2.0,2.0
2021-09-24 12:48:02.658,1021.0,244.0,49.0,1050.89390520642,1,1,1,2.0,2.0
2021-09-24 12:48:02.667,1255.0,192.0,-13.0,1269.6684606620738,1,1,1,2.0,2.0
2021-09-24 12:48:02.676,1127.0,-335.0,-13.0,1175.8073821846842,1,1,1,2.0,2.0
2021-09-24 12:48:02.677,1127.0,-335.0,-43.0,1176.5215680130984,1,1,1,2.0,2.0
2021-09-24 12:48:02.686,1075.0,-193.0,-43.0,1093.0338512598776,1,1,1,2.0,2.0
2021-09-24 12:48:02.687,1075.0,-193.0,-26.0,1092.497139584356,1,1,1,2.0,2.0
2021-09-24 12:48:02.696,702.0,-54.0,85.0,709.1861532771209,1,1,1,2.0,2.0
2021-09-24 12:48:02.707,980.0,179.0,22.0,996.4562208145423,1,1,1,2.0,2.0
2021-09-24 12:48:02.715,1224.0,190.0,22.0,1238.8543094327113,1,1,1,2.0,2.0
2021-09-24 12:48:02.716,1224.0,190.0,-8.0,1238.6847863762596,1,1,1,2.0,2.0
2021-09-24 12:48:02.725,1122.0,-293.0,11.0,1159.6784036964732,1,1,1,2.0,2.0
2021-09-24 12:48:02.735,1035.0,-178.0,-27.0,1050.5417649955664,1,1,1,2.0,2.0
2021-09-24 12:48:02.745,753.0,-80.0,-27.0,757.718945256089,1,1,1,2.0,2.0
2021-09-24 12:48:02.746,753.0,-80.0,71.0,760.5590049430748,1,1,1,2.0,2.0
2021-09-24 12:48:02.756,1036.0,256.0,27.0,1067.5022248220375,1,1,1,2.0,2.0
2021-09-24 12:48:02.764,1219.0,201.0,27.0,1235.7552346642112,1,1,1,2.0,2.0
2021-09-24 12:48:02.765,1219.0,201.0,18.0,1235.5913563957947,1,1,1,2.0,2.0
2021-09-24 12:48:02.774,1113.0,-291.0,-16.0,1150.5242283411503,1,1,1,2.0,2.0
2021-09-24 12:48:02.784,788.0,-102.0,9.0,794.6250688217683,1,1,1,2.0,2.0
2021-09-24 12:48:02.795,729.0,-42.0,49.0,731.8510777473789,1,1,1,2.0,2.0
2021-09-24 12:48:02.805,1015.0,230.0,38.0,1041.4264256297706,1,1,1,2.0,2.0
2021-09-24 12:48:02.813,1230.0,230.0,38.0,1251.8961618281287,1,1,1,2.0,2.0
2021-09-24 12:48:02.814,1230.0,187.0,5.0,1244.1438823544486,1,1,1,2.0,2.0
2021-09-24 12:48:02.823,1095.0,-306.0,5.0,1136.9634998538872,1,1,1,2.0,2.0
2021-09-24 12:48:02.824,1095.0,-306.0,-6.0,1136.9683372900056,1,1,1,2.0,2.0
2021-09-24 12:48:02.833,790.0,-101.0,17.0,796.6115741062265,1,1,1,2.0,2.0
2021-09-24 12:48:02.843,733.0,-64.0,56.0,737.9166619612272,1,1,1,2.0,2.0
2021-09-24 12:48:02.891,1019.0,-64.0,56.0,1022.5424196579816,1,1,1,2.0,2.0
2021-09-24 12:48:02.892,1019.0,229.0,31.0,1044.8746336283602,1,1,1,2.0,2.0
2021-09-24 12:48:02.905,1244.0,229.0,31.0,1265.2817867969177,1,1,1,2.0,2.0
2021-09-24 12:48:02.906,1244.0,129.0,-5.0,1250.680614705449,1,1,1,2.0,2.0
2021-09-24 12:48:02.922,1098.0,129.0,-5.0,1105.5632048869934,1,1,1,2.0,2.0
2021-09-24 12:48:02.923,1098.0,-348.0,0.0,1151.8281121764653,1,1,1,2.0,2.0
2021-09-24 12:48:02.928,1063.0,281.0,43.0,1100.3540339363508,1,1,1,2.0,2.0
2021-09-24 12:48:02.931,1068.0,-391.0,37.0,1137.9253051057435,1,1,1,2.0,2.0
2021-09-24 12:48:02.935,783.0,-106.0,-12.0,790.2335097931497,1,1,1,2.0,2.0
2021-09-24 12:48:02.939,1050.0,-106.0,-12.0,1055.4051354811572,1,1,1,2.0,2.0
2021-09-24 12:48:02.940,1050.0,286.0,52.0,1089.495295997188,1,1,1,2.0,2.0
2021-09-24 12:48:02.950,1105.0,282.0,68.0,1142.441683413206,1,1,1,2.0,2.0
2021-09-24 12:48:02.960,1218.0,120.0,-26.0,1224.1731903615598,1,1,1,2.0,2.0
2021-09-24 12:48:02.983,1025.0,-351.0,7.0,1083.4551213594405,1,1,1,2.0,2.0
2021-09-24 12:48:02.984,814.0,-86.0,7.0,818.5603215402027,1,1,1,2.0,2.0
2021-09-24 12:48:02.985,814.0,-86.0,0.0,818.5303903948833,1,1,1,2.0,2.0
2021-09-24 12:48:02.989,1067.0,316.0,58.0,1114.319972000861,1,1,1,2.0,2.0
2021-09-24 12:48:02.999,1163.0,198.0,-58.0,1181.1591764025711,1,1,1,2.0,2.0
2021-09-24 12:48:03.009,1199.0,81.0,-35.0,1202.242488019784,1,1,1,2.0,2.0
2021-09-24 12:48:03.018,1029.0,81.0,-35.0,1032.7763552676834,1,1,1,2.0,2.0
2021-09-24 12:48:03.019,1029.0,-414.0,19.0,1109.32321710131,1,1,1,2.0,2.0
2021-09-24 12:48:03.029,744.0,-67.0,28.0,747.5352834482129,1,1,1,2.0,2.0
2021-09-24 12:48:03.038,1120.0,291.0,27.0,1157.501619869277,1,1,1,2.0,2.0
2021-09-24 12:48:03.047,1169.0,291.0,27.0,1204.9775931526694,1,1,1,2.0,2.0
2021-09-24 12:48:03.048,1169.0,170.0,-28.0,1181.6281140866613,1,1,1,2.0,2.0
2021-09-24 12:48:03.058,961.0,-213.0,8.0,984.354610899954,1,1,1,2.0,2.0
2021-09-24 12:48:03.067,1015.0,-438.0,19.0,1105.6355638274304,1,1,1,2.0,2.0
2021-09-24 12:48:03.077,767.0,-92.0,8.0,772.539319387693,1,1,1,2.0,2.0
2021-09-24 12:48:03.088,1138.0,277.0,18.0,1171.3654425498476,1,1,1,2.0,2.0
2021-09-24 12:48:03.097,1214.0,187.0,2.0,1228.3195838217348,1,1,1,2.0,2.0
2021-09-24 12:48:03.107,985.0,-282.0,17.0,1024.713618529587,1,1,1,2.0,2.0
2021-09-24 12:48:03.118,1016.0,-414.0,18.0,1097.2584016538674,1,1,1,2.0,2.0
2021-09-24 12:48:03.126,797.0,-414.0,18.0,898.2922686965529,1,1,1,2.0,2.0
2021-09-24 12:48:03.127,797.0,-27.0,42.0,798.562458421381,1,1,1,2.0,2.0
2021-09-24 12:48:03.137,1143.0,286.0,14.0,1178.3212634931103,1,1,1,2.0,2.0
2021-09-24 12:48:03.145,1140.0,142.0,-32.0,1149.2554111249597,1,1,1,2.0,2.0
2021-09-24 12:48:03.156,1020.0,-265.0,46.0,1054.8653942565377,1,1,1,2.0,2.0
2021-09-24 12:48:03.164,676.0,-265.0,46.0,727.5417513792594,1,1,1,2.0,2.0
2021-09-24 12:48:03.165,676.0,115.0,16.0,685.898680564411,1,1,1,2.0,2.0
2021-09-24 12:48:03.174,776.0,115.0,16.0,784.638133154386,1,1,1,2.0,2.0
2021-09-24 12:48:03.175,776.0,-30.0,5.0,776.5957764500139,1,1,1,2.0,2.0
2021-09-24 12:48:03.185,1162.0,266.0,18.0,1192.192937405687,1,1,1,2.0,2.0
2021-09-24 12:48:03.194,1161.0,106.0,-54.0,1167.0788319560936,1,1,1,2.0,2.0
2021-09-24 12:48:03.204,977.0,-239.0,6.0,1005.8260286948235,1,1,1,2.0,2.0
2021-09-24 12:48:03.214,726.0,90.0,9.0,731.6126024064922,1,1,1,2.0,2.0
2021-09-24 12:48:03.223,752.0,-49.0,41.0,754.7092155260859,1,1,1,2.0,2.0
2021-09-24 12:48:03.233,1187.0,279.0,16.0,1219.4531561318786,1,1,1,2.0,2.0
2021-09-24 12:48:03.244,1161.0,109.0,-53.0,1167.309299200516,1,1,1,2.0,2.0
2021-09-24 12:48:03.252,945.0,-210.0,0.0,968.0521680157532,1,1,1,2.0,2.0
2021-09-24 12:48:03.263,758.0,194.0,19.0,782.6627626251296,1,1,1,2.0,2.0
2021-09-24 12:48:03.273,1221.0,341.0,40.0,1268.354051517162,1,1,1,2.0,2.0
2021-09-24 12:48:03.282,1199.0,314.0,21.0,1239.6120360822574,1,1,1,2.0,2.0
2021-09-24 12:48:03.293,1166.0,103.0,-32.0,1170.977796544409,1,1,1,2.0,2.0
2021-09-24 12:48:03.302,931.0,-228.0,0.0,958.5118674278372,1,1,1,2.0,2.0
2021-09-24 12:48:03.311,756.0,-228.0,0.0,789.6328260653809,1,1,1,2.0,2.0
2021-09-24 12:48:03.312,756.0,194.0,18.0,780.7022479793433,1,1,1,2.0,2.0
2021-09-24 12:48:03.321,1202.0,287.0,52.0,1236.881966882855,1,1,1,2.0,2.0
2021-09-24 12:48:03.331,1154.0,10.0,-28.0,1154.382952057072,1,1,1,2.0,2.0
2021-09-24 12:48:03.340,1203.0,50.0,-28.0,1204.364147589922,1,1,1,2.0,2.0
2021-09-24 12:48:03.341,1203.0,50.0,-42.0,1204.7709325842818,1,1,1,2.0,2.0
2021-09-24 12:48:03.351,947.0,-299.0,10.0,993.1314112442524,1,1,1,2.0,2.0
2021-09-24 12:48:03.360,704.0,189.0,10.0,728.9972565106127,1,1,1,2.0,2.0
2021-09-24 12:48:03.361,704.0,189.0,-14.0,729.0630974065276,1,1,1,2.0,2.0
2021-09-24 12:48:03.370,1176.0,322.0,27.0,1219.585585352664,1,1,1,2.0,2.0
2021-09-24 12:48:03.380,1116.0,-2.0,-40.0,1116.7184067615256,1,1,1,2.0,2.0
2021-09-24 12:48:03.390,1177.0,34.0,-40.0,1178.170191440948,1,1,1,2.0,2.0
2021-09-24 12:48:03.391,1177.0,34.0,-37.0,1178.072153987183,1,1,1,2.0,2.0
2021-09-24 12:48:03.399,913.0,-256.0,-37.0,948.933085101368,1,1,1,2.0,2.0
2021-09-24 12:48:03.400,913.0,-256.0,3.0,948.216220067976,1,1,1,2.0,2.0
2021-09-24 12:48:03.409,755.0,268.0,-18.0,801.3569741382425,1,1,1,2.0,2.0
2021-09-24 12:48:03.419,1187.0,334.0,52.0,1234.1916382798904,1,1,1,2.0,2.0
2021-09-24 12:48:03.428,1150.0,-13.0,-45.0,1150.9535177408338,1,1,1,2.0,2.0
2021-09-24 12:48:03.439,927.0,-304.0,15.0,975.689499789764,1,1,1,2.0,2.0
2021-09-24 12:48:03.448,907.0,-210.0,15.0,931.114386098722,1,1,1,2.0,2.0
2021-09-24 12:48:03.449,907.0,-210.0,20.0,931.2083547735168,1,1,1,2.0,2.0
2021-09-24 12:48:03.457,750.0,-210.0,20.0,779.1020472312982,1,1,1,2.0,2.0
2021-09-24 12:48:03.458,750.0,293.0,-10.0,805.2633109734977,1,1,1,2.0,2.0
2021-09-24 12:48:03.468,1179.0,307.0,33.0,1218.7612563582743,1,1,1,2.0,2.0
2021-09-24 12:48:03.478,1148.0,-40.0,-36.0,1149.2606318846913,1,1,1,2.0,2.0
2021-09-24 12:48:03.487,905.0,-40.0,-36.0,906.5985881303808,1,1,1,2.0,2.0
2021-09-24 12:48:03.488,905.0,-262.0,40.0,943.0106043942454,1,1,1,2.0,2.0
2021-09-24 12:48:03.498,847.0,97.0,15.0,852.6681652319382,1,1,1,2.0,2.0
2021-09-24 12:48:03.507,771.0,290.0,-9.0,823.7851661689473,1,1,1,2.0,2.0
2021-09-24 12:48:03.516,1180.0,324.0,-9.0,1223.7062556022177,1,1,1,2.0,2.0
2021-09-24 12:48:03.517,1180.0,324.0,28.0,1223.9934640348372,1,1,1,2.0,2.0
2021-09-24 12:48:03.527,1187.0,-42.0,-39.0,1188.3829349161826,1,1,1,2.0,2.0
2021-09-24 12:48:03.537,892.0,-261.0,43.0,930.394539966782,1,1,1,2.0,2.0
2021-09-24 12:48:03.547,874.0,97.0,28.0,879.8119117174989,1,1,1,2.0,2.0
2021-09-24 12:48:03.556,803.0,270.0,28.0,847.6396640082388,1,1,1,2.0,2.0
2021-09-24 12:48:03.557,803.0,270.0,-20.0,847.4131223907262,1,1,1,2.0,2.0
2021-09-24 12:48:03.565,1181.0,302.0,30.0,1219.3707393569848,1,1,1,2.0,2.0
2021-09-24 12:48:03.575,1149.0,-76.0,-41.0,1152.2404262999976,1,1,1,2.0,2.0
2021-09-24 12:48:03.585,915.0,-76.0,-41.0,919.0658300687716,1,1,1,2.0,2.0
2021-09-24 12:48:03.586,915.0,-280.0,37.0,957.5980367565504,1,1,1,2.0,2.0
2021-09-24 12:48:03.595,896.0,99.0,26.0,901.8275888438988,1,1,1,2.0,2.0
2021-09-24 12:48:03.605,1234.0,240.0,15.0,1257.2115971466378,1,1,1,2.0,2.0
2021-09-24 12:48:03.614,1234.0,338.0,17.0,1279.5659420287802,1,1,1,2.0,2.0
2021-09-24 12:48:03.623,1170.0,-26.0,-51.0,1171.3995902338363,1,1,1,2.0,2.0
2021-09-24 12:48:03.642,845.0,-208.0,53.0,871.8359937511183,1,1,1,2.0,2.0
2021-09-24 12:48:03.647,856.0,104.0,9.0,862.3415796539095,1,1,1,2.0,2.0
2021-09-24 12:48:03.654,1206.0,259.0,46.0,1234.3552973111105,1,1,1,2.0,2.0
2021-09-24 12:48:03.663,1191.0,259.0,46.0,1219.7040624676135,1,1,1,2.0,2.0
2021-09-24 12:48:03.664,1191.0,320.0,31.0,1233.6296040546367,1,1,1,2.0,2.0
2021-09-24 12:48:03.674,1172.0,-89.0,-56.0,1176.7076952242642,1,1,1,2.0,2.0
2021-09-24 12:48:03.682,880.0,-89.0,-56.0,886.2601198293873,1,1,1,2.0,2.0
2021-09-24 12:48:03.683,880.0,-212.0,15.0,905.3005025956852,1,1,1,2.0,2.0
2021-09-24 12:48:03.692,912.0,-212.0,15.0,936.4363299231828,1,1,1,2.0,2.0
2021-09-24 12:48:03.693,912.0,99.0,19.0,917.55435806278,1,1,1,2.0,2.0
2021-09-24 12:48:03.702,1252.0,219.0,28.0,1271.317820216487,1,1,1,2.0,2.0
2021-09-24 12:48:03.713,1142.0,-211.0,-15.0,1161.4258478267134,1,1,1,2.0,2.0
2021-09-24 12:48:03.722,1122.0,-96.0,-51.0,1127.253742508757,1,1,1,2.0,2.0
2021-09-24 12:48:03.731,787.0,-213.0,-51.0,816.9081955764675,1,1,1,2.0,2.0
2021-09-24 12:48:03.732,787.0,-213.0,36.0,816.1090613392306,1,1,1,2.0,2.0
2021-09-24 12:48:03.741,877.0,135.0,9.0,887.375343358153,1,1,1,2.0,2.0
2021-09-24 12:48:03.751,1221.0,237.0,40.0,1244.4315971559065,1,1,1,2.0,2.0
2021-09-24 12:48:03.761,1161.0,-248.0,9.0,1187.226178956647,1,1,1,2.0,2.0
2021-09-24 12:48:03.771,818.0,-248.0,9.0,854.8151847036879,1,1,1,2.0,2.0
2021-09-24 12:48:03.772,818.0,-140.0,20.0,830.1349287916995,1,1,1,2.0,2.0
2021-09-24 12:48:03.780,842.0,-239.0,15.0,875.3913410583863,1,1,1,2.0,2.0
2021-09-24 12:48:03.790,892.0,87.0,0.0,896.2326706832328,1,1,1,2.0,2.0
2021-09-24 12:48:03.801,1261.0,244.0,53.0,1285.4827886829137,1,1,1,2.0,2.0
2021-09-24 12:48:03.810,1163.0,-255.0,-43.0,1191.4037938499273,1,1,1,2.0,2.0
2021-09-24 12:48:03.820,809.0,-165.0,46.0,826.9353058129759,1,1,1,2.0,2.0
2021-09-24 12:48:03.830,801.0,-153.0,46.0,816.7778155655307,1,1,1,2.0,2.0
2021-09-24 12:48:03.831,801.0,-153.0,32.0,816.1090613392306,1,1,1,2.0,2.0
2021-09-24 12:48:03.838,868.0,-153.0,32.0,881.9620173227416,1,1,1,2.0,2.0
2021-09-24 12:48:03.839,868.0,126.0,0.0,877.0974860299167,1,1,1,2.0,2.0
2021-09-24 12:48:03.849,1253.0,126.0,0.0,1259.3192605530974,1,1,1,2.0,2.0
2021-09-24 12:48:03.850,1253.0,210.0,-3.0,1270.4794370630325,1,1,1,2.0,2.0
2021-09-24 12:48:03.859,1157.0,-263.0,-2.0,1186.516750829924,1,1,1,2.0,2.0
2021-09-24 12:48:03.868,804.0,-140.0,51.0,817.6900390734866,1,1,1,2.0,2.0
2021-09-24 12:48:03.878,886.0,255.0,39.0,922.7903337161698,1,1,1,2.0,2.0
2021-09-24 12:48:03.887,926.0,86.0,25.0,930.3209123737894,1,1,1,2.0,2.0
2021-09-24 12:48:03.897,1263.0,247.0,-5.0,1286.935507319617,1,1,1,2.0,2.0
2021-09-24 12:48:03.907,1182.0,247.0,-5.0,1207.5421317701507,1,1,1,2.0,2.0
2021-09-24 12:48:03.908,1182.0,-277.0,-56.0,1215.3143626239262,1,1,1,2.0,2.0
2021-09-24 12:48:03.918,791.0,-128.0,51.0,802.9109539668767,1,1,1,2.0,2.0
2021-09-24 12:48:03.927,880.0,-128.0,51.0,890.7216175663416,1,1,1,2.0,2.0
2021-09-24 12:48:03.928,880.0,236.0,0.0,911.096043235838,1,1,1,2.0,2.0
2021-09-24 12:48:03.943,1266.0,296.0,-15.0,1300.229595110033,1,1,1,2.0,2.0
2021-09-24 12:48:03.962,1255.0,202.0,-7.0,1271.171900255823,1,1,1,2.0,2.0
2021-09-24 12:48:03.966,1140.0,-301.0,-7.0,1179.0886311045492,1,1,1,2.0,2.0
2021-09-24 12:48:03.967,1140.0,-301.0,-5.0,1179.078453708658,1,1,1,2.0,2.0
2021-09-24 12:48:03.969,811.0,-103.0,-5.0,817.5298159700354,1,1,1,2.0,2.0
2021-09-24 12:48:03.970,811.0,-103.0,46.0,818.807669724704,1,1,1,2.0,2.0
2021-09-24 12:48:03.976,937.0,295.0,46.0,983.4175105213452,1,1,1,2.0,2.0
2021-09-24 12:48:03.977,937.0,295.0,-2.0,982.3431172457005,1,1,1,2.0,2.0
2021-09-24 12:48:03.997,1260.0,295.0,-2.0,1294.0745728125562,1,1,1,2.0,2.0
2021-09-24 12:48:03.998,1260.0,271.0,9.0,1288.845219566725,1,1,1,2.0,2.0
2021-09-24 12:48:04.002,1269.0,235.0,24.0,1290.798977377965,1,1,1,2.0,2.0
2021-09-24 12:48:04.007,1161.0,-339.0,24.0,1209.718148991739,1,1,1,2.0,2.0
2021-09-24 12:48:04.008,1161.0,-339.0,-54.0,1210.6849301118768,1,1,1,2.0,2.0
2021-09-24 12:48:04.014,783.0,-146.0,-54.0,798.3238691157869,1,1,1,2.0,2.0
2021-09-24 12:48:04.015,783.0,-146.0,48.0,797.9404739703332,1,1,1,2.0,2.0
2021-09-24 12:48:04.024,909.0,267.0,13.0,947.4908970538978,1,1,1,2.0,2.0
2021-09-24 12:48:04.035,1218.0,281.0,-44.0,1250.7681639696464,1,1,1,2.0,2.0
2021-09-24 12:48:04.043,1059.0,281.0,-44.0,1096.5299813502593,1,1,1,2.0,2.0
2021-09-24 12:48:04.044,1059.0,-262.0,-32.0,1091.397727686841,1,1,1,2.0,2.0
2021-09-24 12:48:04.054,1195.0,-273.0,-50.0,1226.806423198053,1,1,1,2.0,2.0
2021-09-24 12:48:04.064,792.0,-106.0,22.0,799.3647477841389,1,1,1,2.0,2.0
2021-09-24 12:48:04.074,952.0,323.0,-21.0,1005.5217551102512,1,1,1,2.0,2.0
2021-09-24 12:48:04.083,1272.0,254.0,3.0,1297.1156463476957,1,1,1,2.0,2.0
2021-09-24 12:48:04.093,1047.0,-184.0,-15.0,1063.1509770488856,1,1,1,2.0,2.0
2021-09-24 12:48:04.102,1144.0,-276.0,-15.0,1176.9184338772166,1,1,1,2.0,2.0
2021-09-24 12:48:04.103,1144.0,-276.0,-10.0,1176.8653278944028,1,1,1,2.0,2.0
2021-09-24 12:48:04.112,831.0,-74.0,36.0,835.0646681545088,1,1,1,2.0,2.0
2021-09-24 12:48:04.122,960.0,309.0,-41.0,1009.3374064206675,1,1,1,2.0,2.0
2021-09-24 12:48:04.131,1216.0,309.0,-41.0,1255.31589649777,1,1,1,2.0,2.0
2021-09-24 12:48:04.132,1216.0,279.0,-5.0,1247.6065084793363,1,1,1,2.0,2.0
2021-09-24 12:48:04.143,1040.0,-214.0,-15.0,1061.8950042259355,1,1,1,2.0,2.0
2021-09-24 12:48:04.151,710.0,-134.0,76.0,726.5204745910469,1,1,1,2.0,2.0
2021-09-24 12:48:04.161,817.0,-128.0,26.0,827.374763937117,1,1,1,2.0,2.0
2021-09-24 12:48:04.170,943.0,331.0,26.0,999.74296696701,1,1,1,2.0,2.0
2021-09-24 12:48:04.171,943.0,331.0,-1.0,999.4053231797398,1,1,1,2.0,2.0
2021-09-24 12:48:04.181,1247.0,277.0,-51.0,1278.412687671708,1,1,1,2.0,2.0
2021-09-24 12:48:04.191,1019.0,-197.0,-13.0,1037.9494207330142,1,1,1,2.0,2.0
2021-09-24 12:48:04.200,753.0,-122.0,75.0,766.4972276531729,1,1,1,2.0,2.0
2021-09-24 12:48:04.209,1011.0,234.0,39.0,1038.4594358953077,1,1,1,2.0,2.0
2021-09-24 12:48:04.220,998.0,315.0,17.0,1046.6699575319817,1,1,1,2.0,2.0
2021-09-24 12:48:04.230,1237.0,205.0,-30.0,1254.2304413464058,1,1,1,2.0,2.0
2021-09-24 12:48:04.240,1027.0,-202.0,-30.0,1047.106966837677,1,1,1,2.0,2.0
2021-09-24 12:48:04.241,1027.0,-202.0,-15.0,1046.7846005745405,1,1,1,2.0,2.0
2021-09-24 12:48:04.249,721.0,-99.0,32.0,728.4682560002186,1,1,1,2.0,2.0
2021-09-24 12:48:04.259,1001.0,264.0,47.0,1036.2943597260385,1,1,1,2.0,2.0
2021-09-24 12:48:04.269,964.0,333.0,4.0,1019.9024463153328,1,1,1,2.0,2.0
2021-09-24 12:48:04.278,1231.0,333.0,4.0,1275.251347774234,1,1,1,2.0,2.0
2021-09-24 12:48:04.279,1231.0,208.0,-14.0,1248.5275327360623,1,1,1,2.0,2.0
2021-09-24 12:48:04.289,1091.0,-220.0,-15.0,1113.061543671328,1,1,1,2.0,2.0
2021-09-24 12:48:04.299,749.0,-119.0,61.0,760.8436107374498,1,1,1,2.0,2.0
2021-09-24 12:48:04.307,969.0,264.0,31.0,1004.7974920350866,1,1,1,2.0,2.0
2021-09-24 12:48:04.317,1247.0,264.0,31.0,1275.016078329995,1,1,1,2.0,2.0
2021-09-24 12:48:04.318,1247.0,87.0,-20.0,1250.1911853792603,1,1,1,2.0,2.0
2021-09-24 12:48:04.327,1240.0,242.0,-28.0,1263.7040792843868,1,1,1,2.0,2.0
2021-09-24 12:48:04.337,1037.0,-210.0,-4.0,1058.057181819584,1,1,1,2.0,2.0
2021-09-24 12:48:04.348,734.0,-154.0,62.0,752.5396999494445,1,1,1,2.0,2.0
2021-09-24 12:48:04.356,1002.0,253.0,62.0,1035.3052689907456,1,1,1,2.0,2.0
2021-09-24 12:48:04.357,1002.0,253.0,38.0,1034.1455410144165,1,1,1,2.0,2.0
2021-09-24 12:48:04.366,1228.0,193.0,3.0,1243.0776323303385,1,1,1,2.0,2.0
2021-09-24 12:48:04.376,1088.0,-312.0,-28.0,1132.1978625664333,1,1,1,2.0,2.0
2021-09-24 12:48:04.386,1081.0,-312.0,-28.0,1125.4727895422438,1,1,1,2.0,2.0
2021-09-24 12:48:04.387,1081.0,-223.0,-2.0,1103.7635616380892,1,1,1,2.0,2.0
2021-09-24 12:48:04.396,731.0,-146.0,67.0,748.4423825519236,1,1,1,2.0,2.0
2021-09-24 12:48:04.405,933.0,-146.0,67.0,946.7280496531198,1,1,1,2.0,2.0
2021-09-24 12:48:04.406,933.0,226.0,46.0,961.0832430127996,1,1,1,2.0,2.0
2021-09-24 12:48:04.415,1233.0,103.0,-23.0,1237.5083838099845,1,1,1,2.0,2.0
2021-09-24 12:48:04.425,1092.0,-359.0,12.0,1149.560350742839,1,1,1,2.0,2.0
2021-09-24 12:48:04.434,802.0,-162.0,12.0,818.2860135673834,1,1,1,2.0,2.0
2021-09-24 12:48:04.445,719.0,-117.0,67.0,731.531954189289,1,1,1,2.0,2.0
2021-09-24 12:48:04.455,1016.0,241.0,43.0,1045.0770306537215,1,1,1,2.0,2.0
2021-09-24 12:48:04.463,1220.0,118.0,43.0,1226.447308285195,1,1,1,2.0,2.0
2021-09-24 12:48:04.464,1220.0,118.0,5.0,1225.7034714807655,1,1,1,2.0,2.0
2021-09-24 12:48:04.473,997.0,118.0,5.0,1003.9711151223426,1,1,1,2.0,2.0
2021-09-24 12:48:04.474,997.0,-295.0,22.0,1039.960576175847,1,1,1,2.0,2.0
2021-09-24 12:48:04.483,781.0,-295.0,22.0,835.1466937011725,1,1,1,2.0,2.0
2021-09-24 12:48:04.484,781.0,-159.0,36.0,797.8333159250747,1,1,1,2.0,2.0
2021-09-24 12:48:04.493,978.0,391.0,6.0,1053.281064103974,1,1,1,2.0,2.0
2021-09-24 12:48:04.504,949.0,243.0,33.0,980.1729439236732,1,1,1,2.0,2.0
2021-09-24 12:48:04.512,1293.0,243.0,33.0,1316.0497710953032,1,1,1,2.0,2.0
2021-09-24 12:48:04.513,1293.0,91.0,-1.0,1296.198673043604,1,1,1,2.0,2.0
2021-09-24 12:48:04.523,1129.0,-285.0,-2.0,1164.4183097151986,1,1,1,2.0,2.0
2021-09-24 12:48:04.532,766.0,-155.0,27.0,781.9910485421173,1,1,1,2.0,2.0
2021-09-24 12:48:04.543,981.0,353.0,-1.0,1042.5790137922402,1,1,1,2.0,2.0
2021-09-24 12:48:04.552,1237.0,214.0,-1.0,1255.3748444189887,1,1,1,2.0,2.0
2021-09-24 12:48:04.553,1237.0,214.0,-25.0,1255.6233511686537,1,1,1,2.0,2.0
2021-09-24 12:48:04.562,1219.0,214.0,-25.0,1237.8941796454171,1,1,1,2.0,2.0
2021-09-24 12:48:04.563,1219.0,84.0,-31.0,1222.2839277352869,1,1,1,2.0,2.0
2021-09-24 12:48:04.571,1033.0,-275.0,-31.0,1069.427416891862,1,1,1,2.0,2.0
2021-09-24 12:48:04.572,1033.0,-275.0,2.0,1068.9798875563563,1,1,1,2.0,2.0
2021-09-24 12:48:04.581,797.0,-146.0,41.0,811.2989584610596,1,1,1,2.0,2.0
2021-09-24 12:48:04.590,962.0,369.0,23.0,1030.5988550352654,1,1,1,2.0,2.0
2021-09-24 12:48:04.601,1243.0,261.0,-24.0,1270.3330272019225,1,1,1,2.0,2.0
2021-09-24 12:48:04.611,1036.0,-165.0,8.0,1049.0876989079609,1,1,1,2.0,2.0
2021-09-24 12:48:04.620,1110.0,-305.0,3.0,1151.144647731118,1,1,1,2.0,2.0
2021-09-24 12:48:04.630,827.0,-89.0,35.0,832.5112611850965,1,1,1,2.0,2.0
2021-09-24 12:48:04.639,970.0,375.0,17.0,1040.1028795268282,1,1,1,2.0,2.0
2021-09-24 12:48:04.657,1254.0,242.0,-50.0,1278.1158007003903,1,1,1,2.0,2.0
2021-09-24 12:48:04.661,1015.0,-195.0,14.0,1033.6566160964676,1,1,1,2.0,2.0
2021-09-24 12:48:04.668,1048.0,-319.0,26.0,1095.7832814931974,1,1,1,2.0,2.0
2021-09-24 12:48:04.679,770.0,-122.0,26.0,780.0384605902456,1,1,1,2.0,2.0
2021-09-24 12:48:04.680,770.0,-122.0,53.0,781.4045047221061,1,1,1,2.0,2.0
2021-09-24 12:48:04.690,973.0,324.0,31.0,1025.995126694079,1,1,1,2.0,2.0
2021-09-24 12:48:04.697,1251.0,228.0,-33.0,1272.0353768665398,1,1,1,2.0,2.0
2021-09-24 12:48:04.707,1025.0,228.0,-33.0,1050.5703213017205,1,1,1,2.0,2.0
2021-09-24 12:48:04.708,1025.0,-240.0,-12.0,1052.7910523935886,1,1,1,2.0,2.0
2021-09-24 12:48:04.717,747.0,-78.0,-29.0,751.620915089515,1,1,1,2.0,2.0
2021-09-24 12:48:04.728,791.0,-146.0,6.0,804.3836149499814,1,1,1,2.0,2.0
2021-09-24 12:48:04.738,999.0,-146.0,6.0,1009.6301302952484,1,1,1,2.0,2.0
2021-09-24 12:48:04.739,999.0,392.0,9.0,1073.1942974131011,1,1,1,2.0,2.0
2021-09-24 12:48:04.747,1187.0,167.0,0.0,1198.690118420937,1,1,1,2.0,2.0
2021-09-24 12:48:04.756,971.0,-178.0,0.0,987.18032800497,1,1,1,2.0,2.0
2021-09-24 12:48:04.757,971.0,-178.0,19.0,987.3631550751728,1,1,1,2.0,2.0
2021-09-24 12:48:04.767,765.0,-96.0,-21.0,771.2859391950562,1,1,1,2.0,2.0
2021-09-24 12:48:04.776,763.0,-96.0,-21.0,769.302281291301,1,1,1,2.0,2.0
2021-09-24 12:48:04.777,763.0,-127.0,9.0,773.549610561598,1,1,1,2.0,2.0
2021-09-24 12:48:04.788,975.0,365.0,51.0,1042.329602381128,1,1,1,2.0,2.0
2021-09-24 12:48:04.798,1223.0,222.0,-53.0,1244.1149464579228,1,1,1,2.0,2.0
2021-09-24 12:48:04.805,998.0,-134.0,29.0,1007.37331709749,1,1,1,2.0,2.0
2021-09-24 12:48:04.815,774.0,-112.0,10.0,782.1253096531271,1,1,1,2.0,2.0
2021-09-24 12:48:04.825,1075.0,449.0,15.0,1165.0969916706506,1,1,1,2.0,2.0
2021-09-24 12:48:04.834,1010.0,449.0,15.0,1105.407617125918,1,1,1,2.0,2.0
2021-09-24 12:48:04.835,1010.0,374.0,54.0,1078.3747029673868,1,1,1,2.0,2.0
2021-09-24 12:48:04.845,1213.0,374.0,54.0,1270.49635969569,1,1,1,2.0,2.0
2021-09-24 12:48:04.846,1213.0,203.0,-28.0,1230.1877905425658,1,1,1,2.0,2.0
2021-09-24 12:48:04.854,943.0,-190.0,10.0,962.0025987490886,1,1,1,2.0,2.0
2021-09-24 12:48:04.864,778.0,-77.0,-17.0,781.9859333773211,1,1,1,2.0,2.0
2021-09-24 12:48:04.874,1104.0,377.0,84.0,1169.6157488679776,1,1,1,2.0,2.0
2021-09-24 12:48:04.884,1030.0,380.0,4.0,1097.868844625805,1,1,1,2.0,2.0
2021-09-24 12:48:04.894,1177.0,122.0,4.0,1183.312722825205,1,1,1,2.0,2.0
2021-09-24 12:48:04.895,1177.0,122.0,-8.0,1183.33300469479,1,1,1,2.0,2.0
2021-09-24 12:48:04.903,1012.0,-173.0,21.0,1026.8953208579733,1,1,1,2.0,2.0
2021-09-24 12:48:04.912,755.0,-173.0,21.0,774.8515986948727,1,1,1,2.0,2.0
2021-09-24 12:48:04.913,755.0,-56.0,6.0,757.0977479823857,1,1,1,2.0,2.0
2021-09-24 12:48:04.922,1028.0,-56.0,6.0,1029.5416455879772,1,1,1,2.0,2.0
2021-09-24 12:48:04.923,1028.0,350.0,21.0,1086.1514627343647,1,1,1,2.0,2.0
2021-09-24 12:48:04.933,1180.0,46.0,-42.0,1181.642924068011,1,1,1,2.0,2.0
2021-09-24 12:48:04.943,1199.0,131.0,-42.0,1206.8661897658749,1,1,1,2.0,2.0
2021-09-24 12:48:04.944,1199.0,131.0,-73.0,1208.342252840643,1,1,1,2.0,2.0
2021-09-24 12:48:04.952,919.0,-175.0,23.0,935.796452226658,1,1,1,2.0,2.0
2021-09-24 12:48:04.977,789.0,-76.0,33.0,793.3385153892378,1,1,1,2.0,2.0
2021-09-24 12:48:04.987,1125.0,308.0,33.0,1166.8667447485168,1,1,1,2.0,2.0
2021-09-24 12:48:04.988,1125.0,308.0,63.0,1168.10016693775,1,1,1,2.0,2.0
2021-09-24 12:48:04.989,1197.0,53.0,-66.0,1199.9891666177657,1,1,1,2.0,2.0
2021-09-24 12:48:04.992,992.0,53.0,-66.0,995.6048412899568,1,1,1,2.0,2.0
2021-09-24 12:48:04.993,992.0,-316.0,23.0,1041.3688107486223,1,1,1,2.0,2.0
2021-09-24 12:48:05.015,1006.0,-141.0,22.0,1016.0713557619858,1,1,1,2.0,2.0
2021-09-24 12:48:05.016,808.0,-141.0,22.0,820.5053320972387,1,1,1,2.0,2.0
2021-09-24 12:48:05.017,808.0,-67.0,-2.0,810.7755546388902,1,1,1,2.0,2.0
2021-09-24 12:48:05.021,1091.0,336.0,38.0,1142.200070040271,1,1,1,2.0,2.0
2021-09-24 12:48:05.030,1199.0,73.0,-37.0,1201.7899150849953,1,1,1,2.0,2.0
2021-09-24 12:48:05.041,1016.0,-393.0,0.0,1089.3599037967203,1,1,1,2.0,2.0
2021-09-24 12:48:05.050,817.0,-393.0,0.0,906.6079637858912,1,1,1,2.0,2.0
2021-09-24 12:48:05.051,817.0,-51.0,30.0,819.1397927094007,1,1,1,2.0,2.0
2021-09-24 12:48:05.061,794.0,57.0,2.0,796.0458529506953,1,1,1,2.0,2.0
2021-09-24 12:48:05.069,1085.0,307.0,46.0,1128.5344478570426,1,1,1,2.0,2.0
2021-09-24 12:48:05.079,1158.0,54.0,-9.0,1159.2933192251216,1,1,1,2.0,2.0
2021-09-24 12:48:05.089,957.0,-371.0,5.0,1026.4087879592614,1,1,1,2.0,2.0
2021-09-24 12:48:05.099,842.0,-22.0,15.0,842.4209161695833,1,1,1,2.0,2.0
2021-09-24 12:48:05.109,761.0,-22.0,15.0,761.4656919389081,1,1,1,2.0,2.0
2021-09-24 12:48:05.110,761.0,19.0,21.0,761.5267559317925,1,1,1,2.0,2.0
2021-09-24 12:48:05.119,1106.0,309.0,30.0,1148.7458378597069,1,1,1,2.0,2.0
2021-09-24 12:48:05.127,1152.0,33.0,30.0,1152.8629580310055,1,1,1,2.0,2.0
2021-09-24 12:48:05.128,1152.0,33.0,-36.0,1153.0346915856437,1,1,1,2.0,2.0
2021-09-24 12:48:05.137,961.0,-360.0,-36.0,1026.8480900308475,1,1,1,2.0,2.0
2021-09-24 12:48:05.138,961.0,-360.0,42.0,1027.075946558968,1,1,1,2.0,2.0
2021-09-24 12:48:05.148,847.0,-29.0,20.0,847.7322690566875,1,1,1,2.0,2.0
2021-09-24 12:48:05.157,1146.0,332.0,20.0,1193.289570892162,1,1,1,2.0,2.0
2021-09-24 12:48:05.168,1147.0,351.0,73.0,1201.7233458662606,1,1,1,2.0,2.0
2021-09-24 12:48:05.176,1144.0,51.0,73.0,1147.4606747074167,1,1,1,2.0,2.0
2021-09-24 12:48:05.177,1144.0,51.0,-26.0,1145.4313597942044,1,1,1,2.0,2.0
2021-09-24 12:48:05.186,951.0,-334.0,-8.0,1007.9786704092504,1,1,1,2.0,2.0
2021-09-24 12:48:05.195,849.0,37.0,-8.0,849.8435150073218,1,1,1,2.0,2.0
2021-09-24 12:48:05.196,849.0,37.0,38.0,850.6550417178516,1,1,1,2.0,2.0
2021-09-24 12:48:05.206,1175.0,286.0,23.0,1209.5247000371676,1,1,1,2.0,2.0
2021-09-24 12:48:05.216,1118.0,286.0,23.0,1154.230912772657,1,1,1,2.0,2.0
2021-09-24 12:48:05.217,1118.0,301.0,32.0,1158.2525631312024,1,1,1,2.0,2.0
2021-09-24 12:48:05.225,1190.0,301.0,32.0,1227.8945394454688,1,1,1,2.0,2.0
2021-09-24 12:48:05.226,1190.0,-4.0,-30.0,1190.3848117310638,1,1,1,2.0,2.0
2021-09-24 12:48:05.235,979.0,-314.0,15.0,1028.2324639885671,1,1,1,2.0,2.0
2021-09-24 12:48:05.245,869.0,21.0,32.0,869.8425144817883,1,1,1,2.0,2.0
2021-09-24 12:48:05.255,1172.0,305.0,1.0,1211.0367459330043,1,1,1,2.0,2.0
2021-09-24 12:48:05.267,1170.0,-26.0,-48.0,1171.2728119443395,1,1,1,2.0,2.0
2021-09-24 12:48:05.275,1139.0,21.0,-38.0,1139.8271798829855,1,1,1,2.0,2.0
2021-09-24 12:48:05.284,907.0,-377.0,28.0,982.630144052176,1,1,1,2.0,2.0
2021-09-24 12:48:05.293,821.0,-377.0,28.0,903.8550768790316,1,1,1,2.0,2.0
2021-09-24 12:48:05.294,821.0,31.0,36.0,822.3733945112767,1,1,1,2.0,2.0
2021-09-24 12:48:05.304,1145.0,300.0,12.0,1183.7098462038743,1,1,1,2.0,2.0
2021-09-24 12:48:05.314,1191.0,300.0,12.0,1228.2609657560563,1,1,1,2.0,2.0
2021-09-24 12:48:05.315,1191.0,-1.0,-28.0,1191.3295094137477,1,1,1,2.0,2.0
2021-09-24 12:48:05.324,909.0,-94.0,14.0,913.9545940581512,1,1,1,2.0,2.0
2021-09-24 12:48:05.332,915.0,-94.0,14.0,919.9222793258136,1,1,1,2.0,2.0
2021-09-24 12:48:05.333,915.0,-313.0,10.0,967.1059921228904,1,1,1,2.0,2.0
2021-09-24 12:48:05.342,886.0,51.0,48.0,888.7637481355773,1,1,1,2.0,2.0
2021-09-24 12:48:05.353,1182.0,276.0,39.0,1214.422084779423,1,1,1,2.0,2.0
2021-09-24 12:48:05.365,1125.0,36.0,-36.0,1126.1514107792077,1,1,1,2.0,2.0
2021-09-24 12:48:05.372,986.0,-52.0,41.0,988.2211291001624,1,1,1,2.0,2.0
2021-09-24 12:48:05.382,1061.0,157.0,64.0,1074.460795003708,1,1,1,2.0,2.0
2021-09-24 12:48:05.391,1036.0,8.0,-4.0,1036.03860931917,1,1,1,2.0,2.0
2021-09-24 12:48:05.401,954.0,-62.0,0.0,956.0125522188504,1,1,1,2.0,2.0
2021-09-24 12:48:05.412,1032.0,-34.0,40.0,1033.3344086015911,1,1,1,2.0,2.0
2021-09-24 12:48:05.421,961.0,-34.0,40.0,962.4328548007908,1,1,1,2.0,2.0
2021-09-24 12:48:05.422,961.0,18.0,-36.0,961.8425026998964,1,1,1,2.0,2.0
2021-09-24 12:48:05.431,1069.0,18.0,-36.0,1069.7574491444311,1,1,1,2.0,2.0
2021-09-24 12:48:05.432,1069.0,63.0,39.0,1071.5647437276014,1,1,1,2.0,2.0
2021-09-24 12:48:05.440,1043.0,17.0,43.0,1044.0244250016376,1,1,1,2.0,2.0
2021-09-24 12:48:05.450,952.0,11.0,-29.0,952.5051180964856,1,1,1,2.0,2.0
2021-09-24 12:48:05.459,1065.0,11.0,-29.0,1065.451547467082,1,1,1,2.0,2.0
2021-09-24 12:48:05.460,1065.0,36.0,29.0,1066.0028142551969,1,1,1,2.0,2.0
2021-09-24 12:48:05.470,998.0,77.0,-1.0,1000.9665329070698,1,1,1,2.0,2.0
2021-09-24 12:48:05.480,1037.0,42.0,-1.0,1037.850663631334,1,1,1,2.0,2.0
2021-09-24 12:48:05.481,1037.0,42.0,18.0,1038.0062620235003,1,1,1,2.0,2.0
2021-09-24 12:48:05.489,989.0,-10.0,18.0,989.2143347121493,1,1,1,2.0,2.0
2021-09-24 12:48:05.490,989.0,-10.0,-11.0,989.1117227088153,1,1,1,2.0,2.0
2021-09-24 12:48:05.499,994.0,-3.0,-4.0,994.012575373169,1,1,1,2.0,2.0
2021-09-24 12:48:05.509,1007.0,40.0,-4.0,1007.8020638994544,1,1,1,2.0,2.0
2021-09-24 12:48:05.510,1007.0,40.0,17.0,1007.9374980622558,1,1,1,2.0,2.0
2021-09-24 12:48:05.518,1037.0,40.0,17.0,1037.9104007572137,1,1,1,2.0,2.0
2021-09-24 12:48:05.519,1037.0,104.0,-4.0,1042.2096718031355,1,1,1,2.0,2.0
2021-09-24 12:48:05.529,1009.0,60.0,-2.0,1010.7843489093012,1,1,1,2.0,2.0
2021-09-24 12:48:05.539,995.0,-10.0,21.0,995.2718221671906,1,1,1,2.0,2.0
2021-09-24 12:48:05.547,995.0,-22.0,21.0,995.4647155976952,1,1,1,2.0,2.0
2021-09-24 12:48:05.548,995.0,-22.0,10.0,995.2934240715148,1,1,1,2.0,2.0
2021-09-24 12:48:05.557,997.0,23.0,10.0,997.3153964518948,1,1,1,2.0,2.0
2021-09-24 12:48:05.558,997.0,23.0,3.0,997.2697729300734,1,1,1,2.0,2.0
2021-09-24 12:48:05.568,1026.0,91.0,3.0,1030.0320383366725,1,1,1,2.0,2.0
2021-09-24 12:48:05.578,1023.0,52.0,4.0,1024.3285605702888,1,1,1,2.0,2.0
2021-09-24 12:48:05.587,992.0,-28.0,0.0,992.3950826157896,1,1,1,2.0,2.0
2021-09-24 12:48:05.596,1004.0,-12.0,2.0,1004.0737024740764,1,1,1,2.0,2.0
2021-09-24 12:48:05.606,1005.0,14.0,2.0,1005.099497562306,1,1,1,2.0,2.0
2021-09-24 12:48:05.607,1005.0,14.0,25.0,1005.4083747413288,1,1,1,2.0,2.0
2021-09-24 12:48:05.616,1016.0,75.0,1.0,1018.7649385407803,1,1,1,2.0,2.0
2021-09-24 12:48:05.626,1021.0,75.0,1.0,1023.7514346754294,1,1,1,2.0,2.0
2021-09-24 12:48:05.627,1021.0,48.0,12.0,1022.198121696572,1,1,1,2.0,2.0
2021-09-24 12:48:05.636,993.0,48.0,12.0,994.2318643053038,1,1,1,2.0,2.0
2021-09-24 12:48:05.637,993.0,-4.0,-6.0,993.0261829377914,1,1,1,2.0,2.0
2021-09-24 12:48:05.645,1021.0,14.0,-6.0,1021.1136077831889,1,1,1,2.0,2.0
2021-09-24 12:48:05.646,1021.0,14.0,3.0,1021.1003868376508,1,1,1,2.0,2.0
2021-09-24 12:48:05.655,1027.0,36.0,7.0,1027.6546112386204,1,1,1,2.0,2.0
2021-09-24 12:48:05.804,1013.0,30.0,5.0,1013.4564618176748,1,1,1,2.0,2.0
2021-09-24 12:48:05.811,1018.0,30.0,5.0,1018.4542208661125,1,1,1,2.0,2.0
2021-09-24 12:48:05.812,1018.0,26.0,9.0,1018.3717395921786,1,1,1,2.0,2.0
2021-09-24 12:48:05.830,1018.0,25.0,2.0,1018.3088922326074,1,1,1,2.0,2.0
