time_stamp,Acceleration_X,Acceleration_Y,Acceleration_Z,magnitude,STD_Status_right,STD_Status_left,STD_Status_both,KMeans,KMeans_convert
2021-09-24 12:48:20.998,1004.0,33.0,13.0,1004.6262986802606,1,1,1,3.0,2.0
2021-09-24 12:48:22.065,931.0,-492.0,-116.0,1059.3776474893173,1,1,1,3.0,2.0
2021-09-24 12:48:22.087,915.0,-492.0,-116.0,1045.3444408423477,1,1,1,3.0,2.0
2021-09-24 12:48:22.088,915.0,-46.0,175.0,932.7196792177164,1,1,1,3.0,2.0
2021-09-24 12:48:22.090,1004.0,355.0,-4.0,1064.9211238396954,1,1,1,3.0,2.0
2021-09-24 12:48:22.094,1284.0,363.0,20.0,1334.475552417503,1,1,1,3.0,2.0
2021-09-24 12:48:22.100,1070.0,-295.0,-27.0,1110.2495215040626,1,1,1,3.0,2.0
2021-09-24 12:48:22.109,563.0,25.0,15.0,563.7543791404196,1,1,1,3.0,2.0
2021-09-24 12:48:22.120,1156.0,284.0,22.0,1190.5780108837891,1,1,1,3.0,2.0
2021-09-24 12:48:22.131,1222.0,271.0,-7.0,1251.7084325033527,1,1,1,3.0,2.0
2021-09-24 12:48:22.139,1247.0,455.0,-53.0,1328.473936515128,1,1,1,3.0,2.0
2021-09-24 12:48:22.149,1059.0,-344.0,-28.0,1113.8226968418269,1,1,1,3.0,2.0
2021-09-24 12:48:22.158,588.0,-25.0,28.0,589.196911057755,1,1,1,3.0,2.0
2021-09-24 12:48:22.169,1153.0,302.0,50.0,1192.9429994765048,1,1,1,3.0,2.0
2021-09-24 12:48:22.180,1251.0,187.0,-19.0,1265.0418965393992,1,1,1,3.0,2.0
2021-09-24 12:48:22.188,1071.0,-597.0,24.0,1226.3873776258465,1,1,1,3.0,2.0
2021-09-24 12:48:22.198,1069.0,-377.0,-17.0,1133.6573556414655,1,1,1,3.0,2.0
2021-09-24 12:48:22.208,569.0,34.0,3.0,570.0228065612814,1,1,1,3.0,2.0
2021-09-24 12:48:22.218,1173.0,227.0,89.0,1198.0730361710007,1,1,1,3.0,2.0
2021-09-24 12:48:22.227,1227.0,143.0,-52.0,1236.3988029758036,1,1,1,3.0,2.0
2021-09-24 12:48:22.240,590.0,161.0,-52.0,613.7792762874941,1,1,1,3.0,2.0
2021-09-24 12:48:22.241,590.0,161.0,-20.0,611.8995015523383,1,1,1,3.0,2.0
2021-09-24 12:48:22.247,1082.0,-247.0,8.0,1109.863505121238,1,1,1,3.0,2.0
2021-09-24 12:48:22.257,647.0,102.0,1.0,654.991602999611,1,1,1,3.0,2.0
2021-09-24 12:48:22.267,1189.0,338.0,58.0,1237.4687874851631,1,1,1,3.0,2.0
2021-09-24 12:48:22.278,1209.0,110.0,-49.0,1214.982304397887,1,1,1,3.0,2.0
2021-09-24 12:48:22.290,1052.0,-590.0,20.0,1206.3183659382792,1,1,1,3.0,2.0
2021-09-24 12:48:22.295,1027.0,-286.0,-4.0,1066.0867694517178,1,1,1,3.0,2.0
2021-09-24 12:48:22.305,568.0,88.0,-17.0,575.0278254136924,1,1,1,3.0,2.0
2021-09-24 12:48:22.315,1216.0,357.0,-17.0,1267.435994439167,1,1,1,3.0,2.0
2021-09-24 12:48:22.316,1216.0,357.0,58.0,1268.648493476424,1,1,1,3.0,2.0
2021-09-24 12:48:22.326,1204.0,136.0,-60.0,1213.141376757054,1,1,1,3.0,2.0
2021-09-24 12:48:22.346,1057.0,136.0,-60.0,1067.4010492781051,1,1,1,3.0,2.0
2021-09-24 12:48:22.347,1057.0,-603.0,24.0,1217.1417337352293,1,1,1,3.0,2.0
2021-09-24 12:48:22.348,711.0,-33.0,44.0,713.1241126199562,1,1,1,3.0,2.0
2021-09-24 12:48:22.356,601.0,189.0,7.0,630.0563466865483,1,1,1,3.0,2.0
2021-09-24 12:48:22.364,1252.0,381.0,57.0,1309.9290057098517,1,1,1,3.0,2.0
2021-09-24 12:48:22.374,1207.0,93.0,57.0,1211.9187266479548,1,1,1,3.0,2.0
2021-09-24 12:48:22.375,1207.0,93.0,-62.0,1212.164180299022,1,1,1,3.0,2.0
2021-09-24 12:48:22.383,1026.0,-630.0,-62.0,1205.5786992146136,1,1,1,3.0,2.0
2021-09-24 12:48:22.384,1026.0,-630.0,17.0,1204.1034008755228,1,1,1,3.0,2.0
2021-09-24 12:48:22.393,663.0,-23.0,4.0,663.4108832390376,1,1,1,3.0,2.0
2021-09-24 12:48:22.405,1264.0,409.0,48.0,1329.3912140525076,1,1,1,3.0,2.0
2021-09-24 12:48:22.413,1259.0,387.0,61.0,1318.5488235177338,1,1,1,3.0,2.0
2021-09-24 12:48:22.422,1191.0,109.0,61.0,1197.5320455002447,1,1,1,3.0,2.0
2021-09-24 12:48:22.423,1191.0,109.0,-53.0,1197.1512018120352,1,1,1,3.0,2.0
2021-09-24 12:48:22.436,999.0,-601.0,17.0,1165.9721265965152,1,1,1,3.0,2.0
2021-09-24 12:48:22.449,679.0,-38.0,18.0,680.3006688222495,1,1,1,3.0,2.0
2021-09-24 12:48:22.453,1280.0,-38.0,18.0,1280.6904387868287,1,1,1,3.0,2.0
2021-09-24 12:48:22.454,1280.0,347.0,45.0,1326.9642044908371,1,1,1,3.0,2.0
2021-09-24 12:48:22.461,1209.0,359.0,45.0,1261.977416596668,1,1,1,3.0,2.0
2021-09-24 12:48:22.462,1209.0,359.0,59.0,1262.5541572542545,1,1,1,3.0,2.0
2021-09-24 12:48:22.475,1171.0,359.0,59.0,1226.214907754754,1,1,1,3.0,2.0
2021-09-24 12:48:22.476,1171.0,54.0,-42.0,1172.9965899353672,1,1,1,3.0,2.0
2021-09-24 12:48:22.480,1002.0,-620.0,-42.0,1179.0538579725694,1,1,1,3.0,2.0
2021-09-24 12:48:22.481,1002.0,-620.0,16.0,1178.414188645062,1,1,1,3.0,2.0
2021-09-24 12:48:22.491,705.0,30.0,5.0,705.6557234232569,1,1,1,3.0,2.0
2021-09-24 12:48:22.500,1285.0,30.0,5.0,1285.359871786886,1,1,1,3.0,2.0
2021-09-24 12:48:22.501,1285.0,417.0,13.0,1351.0303475496023,1,1,1,3.0,2.0
2021-09-24 12:48:22.511,1187.0,112.0,-64.0,1193.9886934138028,1,1,1,3.0,2.0
2021-09-24 12:48:22.521,1123.0,26.0,-37.0,1123.9101387566534,1,1,1,3.0,2.0
2021-09-24 12:48:22.530,979.0,-649.0,43.0,1175.3684528691415,1,1,1,3.0,2.0
2021-09-24 12:48:22.539,678.0,-649.0,43.0,939.5392487810182,1,1,1,3.0,2.0
2021-09-24 12:48:22.540,678.0,30.0,23.0,679.0530170759865,1,1,1,3.0,2.0
2021-09-24 12:48:22.549,1275.0,30.0,23.0,1275.5602690582675,1,1,1,3.0,2.0
2021-09-24 12:48:22.550,1275.0,304.0,23.0,1310.942409108806,1,1,1,3.0,2.0
2021-09-24 12:48:22.561,1183.0,122.0,-69.0,1191.274107835808,1,1,1,3.0,2.0
2021-09-24 12:48:22.570,964.0,-228.0,19.0,990.7779771472516,1,1,1,3.0,2.0
2021-09-24 12:48:22.578,993.0,-228.0,19.0,1019.0161922167872,1,1,1,3.0,2.0
2021-09-24 12:48:22.579,993.0,-558.0,8.0,1139.0684790652404,1,1,1,3.0,2.0
2021-09-24 12:48:22.588,761.0,42.0,8.0,762.200104959321,1,1,1,3.0,2.0
2021-09-24 12:48:22.589,761.0,42.0,16.0,762.3260457310901,1,1,1,3.0,2.0
2021-09-24 12:48:22.598,1321.0,369.0,29.0,1371.8757232344335,1,1,1,3.0,2.0
2021-09-24 12:48:22.608,1217.0,80.0,-65.0,1221.357441537898,1,1,1,3.0,2.0
2021-09-24 12:48:22.619,911.0,-303.0,29.0,960.5055960274256,1,1,1,3.0,2.0
2021-09-24 12:48:22.628,945.0,-603.0,20.0,1121.1752762168812,1,1,1,3.0,2.0
2021-09-24 12:48:22.637,739.0,78.0,0.0,743.1049723962288,1,1,1,3.0,2.0
2021-09-24 12:48:22.647,1345.0,344.0,8.0,1388.3173268385003,1,1,1,3.0,2.0
2021-09-24 12:48:22.658,1198.0,24.0,-61.0,1199.7920653179867,1,1,1,3.0,2.0
2021-09-24 12:48:22.669,935.0,-240.0,76.0,968.2979913229192,1,1,1,3.0,2.0
2021-09-24 12:48:22.679,618.0,346.0,76.0,712.3313835568387,1,1,1,3.0,2.0
2021-09-24 12:48:22.680,618.0,346.0,-58.0,710.6363345622007,1,1,1,3.0,2.0
2021-09-24 12:48:22.686,744.0,108.0,15.0,751.947471569657,1,1,1,3.0,2.0
2021-09-24 12:48:22.696,1323.0,342.0,36.0,1366.9634230658844,1,1,1,3.0,2.0
2021-09-24 12:48:22.706,1206.0,9.0,-73.0,1208.2408700255094,1,1,1,3.0,2.0
2021-09-24 12:48:22.716,854.0,-215.0,44.0,881.7465622274917,1,1,1,3.0,2.0
2021-09-24 12:48:22.726,666.0,346.0,44.0,751.8031657289027,1,1,1,3.0,2.0
2021-09-24 12:48:22.727,666.0,346.0,-43.0,751.7453026125271,1,1,1,3.0,2.0
2021-09-24 12:48:22.735,757.0,96.0,9.0,763.1159807001817,1,1,1,3.0,2.0
2021-09-24 12:48:22.744,1339.0,96.0,9.0,1342.467131813662,1,1,1,3.0,2.0
2021-09-24 12:48:22.745,1339.0,329.0,33.0,1379.2211570303002,1,1,1,3.0,2.0
2021-09-24 12:48:22.755,1236.0,-73.0,-60.0,1239.6067924951042,1,1,1,3.0,2.0
2021-09-24 12:48:22.764,856.0,-295.0,33.0,906.0077262363716,1,1,1,3.0,2.0
2021-09-24 12:48:22.775,664.0,-295.0,33.0,727.3307363228919,1,1,1,3.0,2.0
2021-09-24 12:48:22.776,664.0,371.0,-36.0,761.4676618215642,1,1,1,3.0,2.0
2021-09-24 12:48:22.784,1271.0,362.0,49.0,1322.4545360805414,1,1,1,3.0,2.0
2021-09-24 12:48:22.793,1317.0,333.0,49.0,1359.330349841421,1,1,1,3.0,2.0
2021-09-24 12:48:22.794,1317.0,333.0,38.0,1358.9782926890334,1,1,1,3.0,2.0
2021-09-24 12:48:22.805,1202.0,-56.0,-62.0,1204.899995850278,1,1,1,3.0,2.0
2021-09-24 12:48:22.814,843.0,-285.0,39.0,890.7272309747805,1,1,1,3.0,2.0
2021-09-24 12:48:22.823,632.0,-285.0,39.0,694.3846196453375,1,1,1,3.0,2.0
2021-09-24 12:48:22.824,632.0,368.0,-41.0,732.4813990812327,1,1,1,3.0,2.0
2021-09-24 12:48:22.835,1286.0,378.0,42.0,1341.060774163498,1,1,1,3.0,2.0
2021-09-24 12:48:22.842,1315.0,282.0,43.0,1345.584631303435,1,1,1,3.0,2.0
2021-09-24 12:48:22.852,1233.0,-158.0,-51.0,1244.127806939464,1,1,1,3.0,2.0
2021-09-24 12:48:22.861,822.0,-329.0,44.0,886.4880145833896,1,1,1,3.0,2.0
2021-09-24 12:48:22.874,701.0,373.0,-44.0,795.2773101252167,1,1,1,3.0,2.0
2021-09-24 12:48:22.883,1285.0,405.0,24.0,1347.5258810130513,1,1,1,3.0,2.0
2021-09-24 12:48:22.891,1185.0,-139.0,24.0,1193.3658282354158,1,1,1,3.0,2.0
2021-09-24 12:48:22.892,1185.0,-139.0,-46.0,1194.0108877225534,1,1,1,3.0,2.0
2021-09-24 12:48:22.901,1202.0,-142.0,-40.0,1211.0194052945642,1,1,1,3.0,2.0
2021-09-24 12:48:22.911,794.0,-242.0,39.0,830.9759322627822,1,1,1,3.0,2.0
2021-09-24 12:48:22.921,709.0,-242.0,39.0,750.1773123735481,1,1,1,3.0,2.0
2021-09-24 12:48:22.922,709.0,359.0,-38.0,795.616741905297,1,1,1,3.0,2.0
2021-09-24 12:48:22.932,1277.0,386.0,20.0,1334.2132513207923,1,1,1,3.0,2.0
2021-09-24 12:48:22.949,1190.0,-170.0,-52.0,1203.2057180715192,1,1,1,3.0,2.0
2021-09-24 12:48:22.952,762.0,-281.0,42.0,813.2459652528256,1,1,1,3.0,2.0
2021-09-24 12:48:22.960,764.0,-342.0,57.0,838.9928485988423,1,1,1,3.0,2.0
2021-09-24 12:48:22.971,734.0,401.0,-15.0,836.5297364708562,1,1,1,3.0,2.0
2021-09-24 12:48:22.979,1301.0,452.0,11.0,1377.325669549508,1,1,1,3.0,2.0
2021-09-24 12:48:22.989,1207.0,-164.0,-81.0,1220.7808976225012,1,1,1,3.0,2.0
2021-09-24 12:48:22.998,780.0,-164.0,-81.0,801.1597843127175,1,1,1,3.0,2.0
2021-09-24 12:48:22.999,780.0,-224.0,66.0,814.2063620483445,1,1,1,3.0,2.0
2021-09-24 12:48:23.008,835.0,181.0,17.0,854.5612909557746,1,1,1,3.0,2.0
2021-09-24 12:48:23.020,763.0,368.0,-6.0,847.1298601749321,1,1,1,3.0,2.0
2021-09-24 12:48:23.028,1259.0,417.0,0.0,1326.2616634736903,1,1,1,3.0,2.0
2021-09-24 12:48:23.037,1148.0,417.0,0.0,1221.3897821743883,1,1,1,3.0,2.0
2021-09-24 12:48:23.038,1148.0,-278.0,-54.0,1182.4144789370605,1,1,1,3.0,2.0
2021-09-24 12:48:23.047,716.0,-234.0,-54.0,755.2006355929528,1,1,1,3.0,2.0
2021-09-24 12:48:23.048,716.0,-234.0,40.0,754.3288407584586,1,1,1,3.0,2.0
2021-09-24 12:48:23.058,881.0,77.0,30.0,884.8672216779194,1,1,1,3.0,2.0
2021-09-24 12:48:23.067,751.0,77.0,30.0,755.5329244976688,1,1,1,3.0,2.0
2021-09-24 12:48:23.068,751.0,315.0,4.0,814.3967092271432,1,1,1,3.0,2.0
2021-09-24 12:48:23.078,1283.0,396.0,-7.0,1342.7412260000062,1,1,1,3.0,2.0
2021-09-24 12:48:23.091,1094.0,-243.0,-7.0,1120.6846121902452,1,1,1,3.0,2.0
2021-09-24 12:48:23.092,1094.0,-243.0,-81.0,1123.5862227706425,1,1,1,3.0,2.0
2021-09-24 12:48:23.096,762.0,-158.0,107.0,785.5297575521885,1,1,1,3.0,2.0
2021-09-24 12:48:23.106,963.0,199.0,10.0,983.3971730689487,1,1,1,3.0,2.0
2021-09-24 12:48:23.117,806.0,356.0,-3.0,881.124849269387,1,1,1,3.0,2.0
2021-09-24 12:48:23.127,1309.0,438.0,4.0,1380.340899922914,1,1,1,3.0,2.0
2021-09-24 12:48:23.135,1151.0,-304.0,-41.0,1191.1750501080855,1,1,1,3.0,2.0
2021-09-24 12:48:23.145,674.0,-203.0,-41.0,705.0999929088073,1,1,1,3.0,2.0
2021-09-24 12:48:23.146,674.0,-203.0,76.0,707.9978813527622,1,1,1,3.0,2.0
2021-09-24 12:48:23.155,851.0,178.0,27.0,869.8356166540894,1,1,1,3.0,2.0
2021-09-24 12:48:23.165,1314.0,292.0,-1.0,1346.0538622209738,1,1,1,3.0,2.0
2021-09-24 12:48:23.176,1318.0,426.0,0.0,1385.135372445596,1,1,1,3.0,2.0
2021-09-24 12:48:23.184,1115.0,-245.0,-85.0,1144.7598001327617,1,1,1,3.0,2.0
2021-09-24 12:48:23.194,702.0,-106.0,92.0,715.8938468795496,1,1,1,3.0,2.0
2021-09-24 12:48:23.203,955.0,-106.0,92.0,965.2590325917702,1,1,1,3.0,2.0
2021-09-24 12:48:23.204,955.0,199.0,48.0,976.6934012268129,1,1,1,3.0,2.0
2021-09-24 12:48:23.213,1340.0,199.0,48.0,1355.5460154491252,1,1,1,3.0,2.0
2021-09-24 12:48:23.214,1340.0,212.0,-24.0,1356.8787712983058,1,1,1,3.0,2.0
2021-09-24 12:48:23.224,1187.0,-420.0,-51.0,1260.1468168431804,1,1,1,3.0,2.0
2021-09-24 12:48:23.234,1089.0,-420.0,-51.0,1168.2987631594924,1,1,1,3.0,2.0
2021-09-24 12:48:23.235,1089.0,-302.0,-43.0,1130.9173267750389,1,1,1,3.0,2.0
2021-09-24 12:48:23.244,672.0,-135.0,81.0,690.1956244428097,1,1,1,3.0,2.0
2021-09-24 12:48:23.253,930.0,228.0,34.0,958.1440392759326,1,1,1,3.0,2.0
2021-09-24 12:48:23.262,1326.0,228.0,34.0,1345.88855407868,1,1,1,3.0,2.0
2021-09-24 12:48:23.263,1326.0,306.0,-20.0,1360.996693603625,1,1,1,3.0,2.0
2021-09-24 12:48:23.273,1214.0,-455.0,-60.0,1297.8524569457038,1,1,1,3.0,2.0
2021-09-24 12:48:23.283,1086.0,-244.0,-67.0,1115.0878889127978,1,1,1,3.0,2.0
2021-09-24 12:48:23.291,612.0,-70.0,-67.0,619.623272642337,1,1,1,3.0,2.0
2021-09-24 12:48:23.292,612.0,-70.0,153.0,634.7070190253138,1,1,1,3.0,2.0
2021-09-24 12:48:23.301,898.0,231.0,153.0,939.7733769372272,1,1,1,3.0,2.0
2021-09-24 12:48:23.302,898.0,231.0,14.0,927.3408219203984,1,1,1,3.0,2.0
2021-09-24 12:48:23.310,1290.0,231.0,14.0,1310.5941400754086,1,1,1,3.0,2.0
2021-09-24 12:48:23.311,1290.0,243.0,-43.0,1313.3917922691614,1,1,1,3.0,2.0
2021-09-24 12:48:23.321,1176.0,-414.0,-43.0,1247.485871663483,1,1,1,3.0,2.0
2021-09-24 12:48:23.322,1176.0,-414.0,-17.0,1246.8604573086757,1,1,1,3.0,2.0
2021-09-24 12:48:23.332,681.0,-192.0,33.0,708.317725318236,1,1,1,3.0,2.0
2021-09-24 12:48:23.340,613.0,-161.0,33.0,634.6487217351029,1,1,1,3.0,2.0
2021-09-24 12:48:23.341,613.0,-161.0,96.0,641.0195004834096,1,1,1,3.0,2.0
2021-09-24 12:48:23.363,908.0,248.0,46.0,942.3820881150066,1,1,1,3.0,2.0
2021-09-24 12:48:23.364,1307.0,236.0,0.0,1328.1359117198813,1,1,1,3.0,2.0
2021-09-24 12:48:23.371,1188.0,-475.0,-46.0,1280.2675501628555,1,1,1,3.0,2.0
2021-09-24 12:48:23.379,721.0,-173.0,-46.0,742.8903014577589,1,1,1,3.0,2.0
2021-09-24 12:48:23.380,721.0,-173.0,33.0,742.1987604408943,1,1,1,3.0,2.0
2021-09-24 12:48:23.390,957.0,437.0,6.0,1052.0712903601163,1,1,1,3.0,2.0
2021-09-24 12:48:23.399,934.0,267.0,33.0,971.9742794950904,1,1,1,3.0,2.0
2021-09-24 12:48:23.409,1338.0,168.0,-7.0,1348.5240079434998,1,1,1,3.0,2.0
2021-09-24 12:48:23.421,1164.0,-501.0,-38.0,1267.8095282809638,1,1,1,3.0,2.0
2021-09-24 12:48:23.428,727.0,-501.0,-38.0,883.7273335141332,1,1,1,3.0,2.0
2021-09-24 12:48:23.429,727.0,-153.0,52.0,744.7429086604316,1,1,1,3.0,2.0
2021-09-24 12:48:23.438,950.0,417.0,-11.0,1037.5499987952387,1,1,1,3.0,2.0
2021-09-24 12:48:23.448,1033.0,263.0,59.0,1067.5855937581773,1,1,1,3.0,2.0
2021-09-24 12:48:23.468,1321.0,212.0,-21.0,1338.0680102296744,1,1,1,3.0,2.0
2021-09-24 12:48:23.479,1154.0,212.0,-21.0,1173.4994674050772,1,1,1,3.0,2.0
2021-09-24 12:48:23.480,1154.0,-444.0,-34.0,1236.9349214894048,1,1,1,3.0,2.0
2021-09-24 12:48:23.482,725.0,-117.0,37.0,735.3114986181026,1,1,1,3.0,2.0
2021-09-24 12:48:23.488,946.0,431.0,-11.0,1039.6143515746596,1,1,1,3.0,2.0
2021-09-24 12:48:23.497,1348.0,364.0,-11.0,1396.3241027784345,1,1,1,3.0,2.0
2021-09-24 12:48:23.498,1348.0,364.0,-12.0,1396.3323386644026,1,1,1,3.0,2.0
2021-09-24 12:48:23.506,1316.0,231.0,20.0,1336.2698080851785,1,1,1,3.0,2.0
2021-09-24 12:48:23.516,1090.0,-441.0,-31.0,1176.2406216416775,1,1,1,3.0,2.0
2021-09-24 12:48:23.527,729.0,-187.0,45.0,753.9462845587874,1,1,1,3.0,2.0
2021-09-24 12:48:23.536,964.0,414.0,45.0,1050.1033282491776,1,1,1,3.0,2.0
2021-09-24 12:48:23.537,964.0,414.0,3.0,1049.1429835823142,1,1,1,3.0,2.0
2021-09-24 12:48:23.545,1299.0,318.0,-45.0,1338.1143448898529,1,1,1,3.0,2.0
2021-09-24 12:48:23.556,1323.0,158.0,-36.0,1332.887467117911,1,1,1,3.0,2.0
2021-09-24 12:48:23.565,1066.0,-473.0,12.0,1166.2885577763334,1,1,1,3.0,2.0
2021-09-24 12:48:23.575,697.0,-155.0,30.0,714.6565608738229,1,1,1,3.0,2.0
2021-09-24 12:48:23.586,997.0,364.0,13.0,1061.4490096090344,1,1,1,3.0,2.0
2021-09-24 12:48:23.594,1325.0,248.0,-49.0,1348.8995514863218,1,1,1,3.0,2.0
2021-09-24 12:48:23.605,985.0,-261.0,7.0,1019.0166828860064,1,1,1,3.0,2.0
2021-09-24 12:48:23.614,1003.0,-463.0,13.0,1104.7836892351372,1,1,1,3.0,2.0
2021-09-24 12:48:23.623,685.0,-463.0,13.0,826.899631152415,1,1,1,3.0,2.0
2021-09-24 12:48:23.624,685.0,-208.0,36.0,716.7879742294788,1,1,1,3.0,2.0
2021-09-24 12:48:23.633,978.0,-208.0,36.0,1000.521863829072,1,1,1,3.0,2.0
2021-09-24 12:48:23.634,978.0,459.0,10.0,1080.4003887448391,1,1,1,3.0,2.0
2021-09-24 12:48:23.644,1278.0,287.0,-54.0,1310.9420277037425,1,1,1,3.0,2.0
2021-09-24 12:48:23.654,1029.0,-226.0,-2.0,1053.527882877335,1,1,1,3.0,2.0
2021-09-24 12:48:23.662,1073.0,-226.0,-2.0,1096.5441167595584,1,1,1,3.0,2.0
2021-09-24 12:48:23.663,1073.0,-447.0,29.0,1162.7463179903,1,1,1,3.0,2.0
2021-09-24 12:48:23.672,719.0,-133.0,27.0,731.695975115348,1,1,1,3.0,2.0
2021-09-24 12:48:23.684,1037.0,408.0,38.0,1115.0233181418223,1,1,1,3.0,2.0
2021-09-24 12:48:23.693,1266.0,229.0,-67.0,1288.2880112769817,1,1,1,3.0,2.0
2021-09-24 12:48:23.701,1023.0,-284.0,-67.0,1063.801673245535,1,1,1,3.0,2.0
2021-09-24 12:48:23.702,1023.0,-284.0,10.0,1061.7367847070195,1,1,1,3.0,2.0
2021-09-24 12:48:23.712,622.0,-32.0,-9.0,622.8876303154526,1,1,1,3.0,2.0
2021-09-24 12:48:23.721,751.0,-149.0,-9.0,765.6911910163261,1,1,1,3.0,2.0
2021-09-24 12:48:23.722,751.0,-149.0,3.0,765.6441732293141,1,1,1,3.0,2.0
2021-09-24 12:48:23.731,977.0,420.0,3.0,1063.4556878403537,1,1,1,3.0,2.0
2021-09-24 12:48:23.732,977.0,420.0,21.0,1063.658779872568,1,1,1,3.0,2.0
2021-09-24 12:48:23.741,1289.0,233.0,-50.0,1310.8432400558047,1,1,1,3.0,2.0
2021-09-24 12:48:23.750,990.0,233.0,-50.0,1018.2774670982363,1,1,1,3.0,2.0
2021-09-24 12:48:23.751,990.0,-259.0,39.0,1024.0615215894013,1,1,1,3.0,2.0
2021-09-24 12:48:23.761,636.0,-70.0,-13.0,639.9726556658495,1,1,1,3.0,2.0
2021-09-24 12:48:23.770,1092.0,388.0,47.0,1159.8349020442522,1,1,1,3.0,2.0
2021-09-24 12:48:23.780,1050.0,388.0,47.0,1120.380738856216,1,1,1,3.0,2.0
2021-09-24 12:48:23.781,1050.0,422.0,34.0,1132.1395673679108,1,1,1,3.0,2.0
2021-09-24 12:48:23.790,1256.0,204.0,-58.0,1273.780200819592,1,1,1,3.0,2.0
2021-09-24 12:48:23.801,961.0,-281.0,15.0,1001.3525852565618,1,1,1,3.0,2.0
2021-09-24 12:48:23.810,671.0,-281.0,15.0,727.6173444881588,1,1,1,3.0,2.0
2021-09-24 12:48:23.811,671.0,-36.0,-2.0,671.9680051907234,1,1,1,3.0,2.0
2021-09-24 12:48:23.819,1215.0,433.0,39.0,1290.4398474938691,1,1,1,3.0,2.0
2021-09-24 12:48:23.829,1253.0,102.0,-85.0,1260.0150792748475,1,1,1,3.0,2.0
2021-09-24 12:48:23.839,1261.0,245.0,-46.0,1285.4034386137296,1,1,1,3.0,2.0
2021-09-24 12:48:23.849,937.0,-268.0,19.0,974.758431612674,1,1,1,3.0,2.0
2021-09-24 12:48:23.858,619.0,10.0,-19.0,619.3722628597442,1,1,1,3.0,2.0
2021-09-24 12:48:23.868,1179.0,10.0,-19.0,1179.1954884581266,1,1,1,3.0,2.0
2021-09-24 12:48:23.869,1179.0,459.0,74.0,1267.358670621699,1,1,1,3.0,2.0
2021-09-24 12:48:23.877,1300.0,459.0,74.0,1380.6364474400928,1,1,1,3.0,2.0
2021-09-24 12:48:23.878,1300.0,60.0,-59.0,1302.7206147136844,1,1,1,3.0,2.0
2021-09-24 12:48:23.888,1290.0,205.0,-23.0,1306.3896815269172,1,1,1,3.0,2.0
2021-09-24 12:48:23.899,971.0,-284.0,12.0,1011.7514516915704,1,1,1,3.0,2.0
2021-09-24 12:48:23.908,654.0,43.0,9.0,655.4738743840215,1,1,1,3.0,2.0
2021-09-24 12:48:23.917,1153.0,495.0,44.0,1255.5357422232153,1,1,1,3.0,2.0
2021-09-24 12:48:23.926,1269.0,8.0,-55.0,1270.2165169765349,1,1,1,3.0,2.0
2021-09-24 12:48:23.936,915.0,-535.0,7.0,1059.9523574198984,1,1,1,3.0,2.0
2021-09-24 12:48:23.946,868.0,-280.0,7.0,912.0707209421864,1,1,1,3.0,2.0
2021-09-24 12:48:23.947,868.0,-280.0,52.0,913.5250407076971,1,1,1,3.0,2.0
2021-09-24 12:48:23.964,579.0,8.0,18.0,579.3349635573534,1,1,1,3.0,2.0
2021-09-24 12:48:23.968,1151.0,420.0,51.0,1226.2960490843964,1,1,1,3.0,2.0
2021-09-24 12:48:23.975,1202.0,103.0,-37.0,1206.9722449170072,1,1,1,3.0,2.0
2021-09-24 12:48:23.986,937.0,-526.0,-37.0,1075.1809150091904,1,1,1,3.0,2.0
2021-09-24 12:48:23.987,937.0,-526.0,17.0,1074.6785565926214,1,1,1,3.0,2.0
2021-09-24 12:48:23.997,962.0,-357.0,5.0,1026.117926946021,1,1,1,3.0,2.0
2021-09-24 12:48:24.004,644.0,47.0,5.0,645.7321426102312,1,1,1,3.0,2.0
2021-09-24 12:48:24.005,644.0,47.0,13.0,645.8436343264522,1,1,1,3.0,2.0
2021-09-24 12:48:24.014,1143.0,465.0,38.0,1234.5517405115106,1,1,1,3.0,2.0
2021-09-24 12:48:24.024,1176.0,40.0,38.0,1177.29350631013,1,1,1,3.0,2.0
2021-09-24 12:48:24.025,1176.0,40.0,-23.0,1176.904838973823,1,1,1,3.0,2.0
2021-09-24 12:48:24.034,925.0,-528.0,19.0,1065.2558378154986,1,1,1,3.0,2.0
2021-09-24 12:48:24.045,731.0,17.0,60.0,733.655232380987,1,1,1,3.0,2.0
2021-09-24 12:48:24.053,628.0,165.0,60.0,652.0805165008383,1,1,1,3.0,2.0
2021-09-24 12:48:24.054,628.0,165.0,51.0,651.3140563506978,1,1,1,3.0,2.0
2021-09-24 12:48:24.063,1180.0,372.0,51.0,1238.299236856746,1,1,1,3.0,2.0
2021-09-24 12:48:24.064,1180.0,372.0,52.0,1238.3408254596147,1,1,1,3.0,2.0
2021-09-24 12:48:24.073,1223.0,-26.0,-42.0,1223.9971405195356,1,1,1,3.0,2.0
2021-09-24 12:48:24.083,901.0,-548.0,6.0,1054.580959433651,1,1,1,3.0,2.0
2021-09-24 12:48:24.096,707.0,-548.0,6.0,894.5328389723878,1,1,1,3.0,2.0
2021-09-24 12:48:24.097,707.0,96.0,46.0,714.9692301071425,1,1,1,3.0,2.0
2021-09-24 12:48:24.102,650.0,207.0,12.0,682.2704742255816,1,1,1,3.0,2.0
2021-09-24 12:48:24.112,1188.0,442.0,43.0,1268.28900491962,1,1,1,3.0,2.0
2021-09-24 12:48:24.122,1187.0,0.0,-25.0,1187.2632395555756,1,1,1,3.0,2.0
2021-09-24 12:48:24.132,845.0,-476.0,-9.0,969.8876223563224,1,1,1,3.0,2.0
2021-09-24 12:48:24.142,759.0,40.0,37.0,760.9533494242601,1,1,1,3.0,2.0
2021-09-24 12:48:24.151,1267.0,335.0,32.0,1310.9302040917355,1,1,1,3.0,2.0
2021-09-24 12:48:24.161,1212.0,399.0,48.0,1276.8903633436976,1,1,1,3.0,2.0
2021-09-24 12:48:24.171,1207.0,-28.0,-40.0,1207.9871688060266,1,1,1,3.0,2.0
2021-09-24 12:48:24.180,894.0,-28.0,-40.0,895.3323405305987,1,1,1,3.0,2.0
2021-09-24 12:48:24.181,894.0,-475.0,29.0,1012.7694703139506,1,1,1,3.0,2.0
2021-09-24 12:48:24.190,767.0,23.0,46.0,768.7223165747174,1,1,1,3.0,2.0
2021-09-24 12:48:24.201,1262.0,288.0,54.0,1295.5709166232468,1,1,1,3.0,2.0
2021-09-24 12:48:24.209,1224.0,-159.0,54.0,1235.4646899041672,1,1,1,3.0,2.0
2021-09-24 12:48:24.210,1224.0,-159.0,-62.0,1235.840200025877,1,1,1,3.0,2.0
2021-09-24 12:48:24.219,1215.0,-91.0,-55.0,1219.64380045979,1,1,1,3.0,2.0
2021-09-24 12:48:24.229,863.0,-451.0,-55.0,975.2922638881126,1,1,1,3.0,2.0
2021-09-24 12:48:24.230,863.0,-451.0,12.0,973.8141506468264,1,1,1,3.0,2.0
2021-09-24 12:48:24.241,823.0,48.0,42.0,825.4677461900011,1,1,1,3.0,2.0
2021-09-24 12:48:24.250,1302.0,269.0,17.0,1329.6067087676715,1,1,1,3.0,2.0
2021-09-24 12:48:24.258,1233.0,-148.0,17.0,1241.9669882891412,1,1,1,3.0,2.0
2021-09-24 12:48:24.259,1233.0,-148.0,-41.0,1242.5272632823796,1,1,1,3.0,2.0
2021-09-24 12:48:24.268,1241.0,-77.0,-70.0,1245.3553709684638,1,1,1,3.0,2.0
2021-09-24 12:48:24.279,858.0,-352.0,23.0,927.6836745356684,1,1,1,3.0,2.0
2021-09-24 12:48:24.289,832.0,65.0,55.0,836.3456223356466,1,1,1,3.0,2.0
2021-09-24 12:48:24.298,1229.0,65.0,55.0,1231.9460215447752,1,1,1,3.0,2.0
2021-09-24 12:48:24.299,1229.0,256.0,71.0,1257.3853824504245,1,1,1,3.0,2.0
2021-09-24 12:48:24.308,1186.0,-249.0,-36.0,1212.3914384389227,1,1,1,3.0,2.0
2021-09-24 12:48:24.317,788.0,-235.0,34.0,822.9975698627549,1,1,1,3.0,2.0
2021-09-24 12:48:24.327,867.0,-362.0,50.0,940.8682160642904,1,1,1,3.0,2.0
2021-09-24 12:48:24.337,818.0,84.0,41.0,823.3231443364142,1,1,1,3.0,2.0
2021-09-24 12:48:24.346,1279.0,205.0,47.0,1296.1770712367968,1,1,1,3.0,2.0
2021-09-24 12:48:24.357,1172.0,-203.0,-48.0,1190.4188338563868,1,1,1,3.0,2.0
2021-09-24 12:48:24.379,775.0,-196.0,7.0,799.4310476832883,1,1,1,3.0,2.0
2021-09-24 12:48:24.380,826.0,-298.0,7.0,878.1395105562669,1,1,1,3.0,2.0
2021-09-24 12:48:24.381,826.0,-298.0,35.0,878.8088529367465,1,1,1,3.0,2.0
2021-09-24 12:48:24.386,814.0,105.0,36.0,821.5333225134572,1,1,1,3.0,2.0
2021-09-24 12:48:24.395,1247.0,227.0,46.0,1268.3272448386497,1,1,1,3.0,2.0
2021-09-24 12:48:24.405,1249.0,227.0,46.0,1270.293666834563,1,1,1,3.0,2.0
2021-09-24 12:48:24.406,1249.0,-272.0,-44.0,1279.031274050795,1,1,1,3.0,2.0
2021-09-24 12:48:24.415,750.0,-111.0,-44.0,759.4451922291694,1,1,1,3.0,2.0
2021-09-24 12:48:24.416,750.0,-111.0,40.0,759.2239458815824,1,1,1,3.0,2.0
2021-09-24 12:48:24.426,803.0,369.0,40.0,884.6298661022021,1,1,1,3.0,2.0
2021-09-24 12:48:24.434,842.0,110.0,34.0,849.8352781568908,1,1,1,3.0,2.0
2021-09-24 12:48:24.444,1283.0,234.0,40.0,1304.7777588539743,1,1,1,3.0,2.0
2021-09-24 12:48:24.453,1229.0,234.0,40.0,1251.717619912734,1,1,1,3.0,2.0
2021-09-24 12:48:24.454,1229.0,-280.0,-22.0,1260.6843379688669,1,1,1,3.0,2.0
2021-09-24 12:48:24.463,764.0,-215.0,40.0,794.68295564961,1,1,1,3.0,2.0
2021-09-24 12:48:24.474,791.0,386.0,24.0,880.4845257016161,1,1,1,3.0,2.0
2021-09-24 12:48:24.484,1309.0,319.0,-21.0,1347.472819762981,1,1,1,3.0,2.0
2021-09-24 12:48:24.511,1248.0,319.0,-21.0,1288.2957734930285,1,1,1,3.0,2.0
2021-09-24 12:48:24.512,1248.0,232.0,49.0,1270.3263360255112,1,1,1,3.0,2.0
2021-09-24 12:48:24.518,1228.0,-370.0,-56.0,1283.7523125587738,1,1,1,3.0,2.0
2021-09-24 12:48:24.519,752.0,-191.0,66.0,778.6790096053701,1,1,1,3.0,2.0
2021-09-24 12:48:24.523,750.0,361.0,40.0,833.319266547942,1,1,1,3.0,2.0
2021-09-24 12:48:24.532,1275.0,293.0,-6.0,1308.246918589912,1,1,1,3.0,2.0
2021-09-24 12:48:24.542,1278.0,193.0,31.0,1292.8627150629725,1,1,1,3.0,2.0
2021-09-24 12:48:24.552,1105.0,176.0,-51.0,1120.0901749412858,1,1,1,3.0,2.0
2021-09-24 12:48:24.563,841.0,312.0,56.0,898.7552503323694,1,1,1,3.0,2.0
2021-09-24 12:48:24.571,1103.0,312.0,56.0,1147.6449799480674,1,1,1,3.0,2.0
2021-09-24 12:48:24.572,1103.0,-53.0,39.0,1104.9610852876222,1,1,1,3.0,2.0
2021-09-24 12:48:24.580,852.0,-110.0,39.0,859.956394243336,1,1,1,3.0,2.0
2021-09-24 12:48:24.581,852.0,-110.0,-30.0,859.5952535932246,1,1,1,3.0,2.0
2021-09-24 12:48:24.590,1067.0,-17.0,86.0,1070.5951615806975,1,1,1,3.0,2.0
2021-09-24 12:48:24.601,1080.0,-10.0,35.0,1080.613251815838,1,1,1,3.0,2.0
2021-09-24 12:48:24.612,1026.0,-8.0,-7.0,1026.055066748369,1,1,1,3.0,2.0
2021-09-24 12:48:24.622,1017.0,44.0,10.0,1018.0004911590172,1,1,1,3.0,2.0
2021-09-24 12:48:24.629,976.0,-20.0,7.0,976.2299933929504,1,1,1,3.0,2.0
2021-09-24 12:48:24.639,997.0,32.0,7.0,997.5379692021752,1,1,1,3.0,2.0
2021-09-24 12:48:24.648,1029.0,79.0,7.0,1032.0518397832543,1,1,1,3.0,2.0
2021-09-24 12:48:24.649,1029.0,79.0,13.0,1032.109974760442,1,1,1,3.0,2.0
2021-09-24 12:48:24.659,1057.0,104.0,13.0,1062.1835999487091,1,1,1,3.0,2.0
2021-09-24 12:48:24.660,1057.0,104.0,4.0,1062.1115760596906,1,1,1,3.0,2.0
2021-09-24 12:48:24.670,1016.0,46.0,4.0,1017.048671401718,1,1,1,3.0,2.0
2021-09-24 12:48:24.671,1016.0,46.0,-10.0,1017.089966522136,1,1,1,3.0,2.0
2021-09-24 12:48:24.679,930.0,-57.0,24.0,932.054182974359,1,1,1,3.0,2.0
2021-09-24 12:48:24.688,1027.0,44.0,20.0,1028.1366640675742,1,1,1,3.0,2.0
2021-09-24 12:48:24.698,1045.0,104.0,-23.0,1050.414204016682,1,1,1,3.0,2.0
2021-09-24 12:48:24.708,1044.0,104.0,-23.0,1049.4193632671354,1,1,1,3.0,2.0
2021-09-24 12:48:24.709,1044.0,138.0,2.0,1053.083092637993,1,1,1,3.0,2.0
2021-09-24 12:48:24.717,1036.0,138.0,2.0,1045.1526204339727,1,1,1,3.0,2.0
2021-09-24 12:48:24.718,1036.0,27.0,9.0,1036.3908529121627,1,1,1,3.0,2.0
2021-09-24 12:48:24.728,956.0,-20.0,7.0,956.2348038008238,1,1,1,3.0,2.0
2021-09-24 12:48:24.737,995.0,-9.0,4.0,995.0487425247068,1,1,1,3.0,2.0
2021-09-24 12:48:24.747,1021.0,40.0,17.0,1021.9246547568956,1,1,1,3.0,2.0
2021-09-24 12:48:24.757,1024.0,48.0,4.0,1025.132186598392,1,1,1,3.0,2.0
