time_stamp,Acceleration_X,Acceleration_Y,Acceleration_Z,magnitude,STD_Status_right,STD_Status_left,STD_Status_both,KMeans,KMeans_convert
2021-09-24 11:47:13.234,964.0,8.0,-30.0,964.499870399162,1,1,1,2.0,3.0
2021-09-24 11:47:13.242,1075.0,-183.0,2.0,1090.466872490861,1,1,1,2.0,3.0
2021-09-24 11:47:13.253,879.0,72.0,2.0,881.9461434804282,1,1,1,2.0,3.0
2021-09-24 11:47:13.254,879.0,72.0,-8.0,881.9801585069814,1,1,1,2.0,3.0
2021-09-24 11:47:13.262,932.0,-188.0,12.0,950.8480425388695,1,1,1,2.0,3.0
2021-09-24 11:47:13.271,974.0,-188.0,12.0,992.050401945385,1,1,1,2.0,3.0
2021-09-24 11:47:13.272,974.0,174.0,16.0,989.5493924003996,1,1,1,2.0,3.0
2021-09-24 11:47:13.282,1162.0,249.0,16.0,1188.4868531035588,1,1,1,2.0,3.0
2021-09-24 11:47:13.283,1162.0,249.0,18.0,1188.5154605641442,1,1,1,2.0,3.0
2021-09-24 11:47:13.291,1027.0,-8.0,-11.0,1027.0900642105346,1,1,1,2.0,3.0
2021-09-24 11:47:13.301,1004.0,-178.0,60.0,1021.420579389313,1,1,1,2.0,3.0
2021-09-24 11:47:13.310,947.0,-178.0,60.0,965.4496361799512,1,1,1,2.0,3.0
2021-09-24 11:47:13.311,947.0,77.0,30.0,950.5987586779188,1,1,1,2.0,3.0
2021-09-24 11:47:13.320,969.0,-32.0,30.0,969.9922680104208,1,1,1,2.0,3.0
2021-09-24 11:47:13.321,969.0,-32.0,-18.0,969.6953129720696,1,1,1,2.0,3.0
2021-09-24 11:47:13.331,1064.0,20.0,-4.0,1064.1954707665318,1,1,1,2.0,3.0
2021-09-24 11:47:13.340,1024.0,57.0,-29.0,1025.995126694079,1,1,1,2.0,3.0
2021-09-24 11:47:13.350,1019.0,-18.0,12.0,1019.229611029821,1,1,1,2.0,3.0
2021-09-24 11:47:13.359,964.0,64.0,12.0,966.1966673509074,1,1,1,2.0,3.0
2021-09-24 11:47:13.360,964.0,64.0,19.0,966.308956804189,1,1,1,2.0,3.0
2021-09-24 11:47:13.374,1019.0,64.0,19.0,1021.1846062294516,1,1,1,2.0,3.0
2021-09-24 11:47:13.375,1019.0,106.0,18.0,1024.6565278179803,1,1,1,2.0,3.0
2021-09-24 11:47:13.379,1058.0,14.0,18.0,1058.2457181581224,1,1,1,2.0,3.0
2021-09-24 11:47:13.380,1058.0,14.0,63.0,1059.9665089048804,1,1,1,2.0,3.0
2021-09-24 11:47:13.389,1015.0,91.0,35.0,1019.6720060882324,1,1,1,2.0,3.0
2021-09-24 11:47:13.398,1083.0,91.0,35.0,1087.3798784233595,1,1,1,2.0,3.0
2021-09-24 11:47:13.399,1083.0,-13.0,22.0,1083.3014354278314,1,1,1,2.0,3.0
2021-09-24 11:47:13.409,934.0,112.0,16.0,940.8272955224036,1,1,1,2.0,3.0
2021-09-24 11:47:13.418,1030.0,-39.0,30.0,1031.17457299916,1,1,1,2.0,3.0
2021-09-24 11:47:13.428,998.0,12.0,7.0,998.0966887030536,1,1,1,2.0,3.0
2021-09-24 11:47:13.437,1006.0,12.0,7.0,1006.095919880406,1,1,1,2.0,3.0
2021-09-24 11:47:13.438,1006.0,70.0,23.0,1008.6947010865082,1,1,1,2.0,3.0
2021-09-24 11:47:13.447,1057.0,144.0,57.0,1068.2855423527924,1,1,1,2.0,3.0
2021-09-24 11:47:13.457,995.0,102.0,-17.0,1000.3589355826238,1,1,1,2.0,3.0
2021-09-24 11:47:13.467,993.0,19.0,-17.0,993.3272371177588,1,1,1,2.0,3.0
2021-09-24 11:47:13.477,947.0,-18.0,-17.0,947.32359835486,1,1,1,2.0,3.0
2021-09-24 11:47:13.478,947.0,-18.0,-8.0,947.2048352917124,1,1,1,2.0,3.0
2021-09-24 11:47:13.486,954.0,66.0,-18.0,956.449685033144,1,1,1,2.0,3.0
2021-09-24 11:47:13.496,1051.0,20.0,10.0,1051.2378417846269,1,1,1,2.0,3.0
2021-09-24 11:47:13.506,985.0,131.0,1.0,993.6734876205564,1,1,1,2.0,3.0
2021-09-24 11:47:13.517,1041.0,30.0,37.0,1042.0892476174963,1,1,1,2.0,3.0
2021-09-24 11:47:13.525,984.0,30.0,37.0,985.1522724939532,1,1,1,2.0,3.0
2021-09-24 11:47:13.526,984.0,4.0,1.0,984.0086381734664,1,1,1,2.0,3.0
2021-09-24 11:47:13.535,1012.0,41.0,22.0,1013.0690993214628,1,1,1,2.0,3.0
2021-09-24 11:47:13.545,1065.0,75.0,35.0,1068.2111214549304,1,1,1,2.0,3.0
2021-09-24 11:47:13.555,1018.0,112.0,-29.0,1024.553073295864,1,1,1,2.0,3.0
2021-09-24 11:47:13.565,1035.0,34.0,3.0,1035.5626489981182,1,1,1,2.0,3.0
2021-09-24 11:47:13.574,940.0,25.0,-7.0,940.358442297404,1,1,1,2.0,3.0
2021-09-24 11:47:13.588,1018.0,23.0,31.0,1018.7315642503672,1,1,1,2.0,3.0
2021-09-24 11:47:13.594,1010.0,28.0,-8.0,1010.4197147720348,1,1,1,2.0,3.0
2021-09-24 11:47:13.603,977.0,28.0,-8.0,977.433885232142,1,1,1,2.0,3.0
2021-09-24 11:47:13.604,977.0,60.0,-18.0,979.0061286835748,1,1,1,2.0,3.0
2021-09-24 11:47:13.614,1012.0,-2.0,25.0,1012.3107230490052,1,1,1,2.0,3.0
2021-09-24 11:47:13.624,959.0,-2.0,25.0,959.3278897227996,1,1,1,2.0,3.0
2021-09-24 11:47:13.625,959.0,12.0,11.0,959.1381548035716,1,1,1,2.0,3.0
2021-09-24 11:47:13.633,1024.0,59.0,28.0,1026.0804062060631,1,1,1,2.0,3.0
2021-09-24 11:47:13.642,1029.0,59.0,28.0,1031.070317679643,1,1,1,2.0,3.0
2021-09-24 11:47:13.643,1029.0,20.0,1.0,1029.194830923669,1,1,1,2.0,3.0
2021-09-24 11:47:13.653,996.0,79.0,-4.0,999.1361268616004,1,1,1,2.0,3.0
2021-09-24 11:47:13.662,1028.0,23.0,-12.0,1028.3272825321712,1,1,1,2.0,3.0
2021-09-24 11:47:13.673,957.0,27.0,-9.0,957.4231039618796,1,1,1,2.0,3.0
2021-09-24 11:47:13.691,991.0,32.0,12.0,991.5891286213256,1,1,1,2.0,3.0
2021-09-24 11:47:13.693,1028.0,32.0,12.0,1028.5679365020087,1,1,1,2.0,3.0
2021-09-24 11:47:13.694,1028.0,35.0,0.0,1028.5956445562076,1,1,1,2.0,3.0
2021-09-24 11:47:13.701,1080.0,20.0,0.0,1080.185169311262,1,1,1,2.0,3.0
2021-09-24 11:47:13.702,1080.0,20.0,21.0,1080.3892816943344,1,1,1,2.0,3.0
2021-09-24 11:47:13.712,1014.0,-6.0,52.0,1015.350185896472,1,1,1,2.0,3.0
2021-09-24 11:47:13.721,967.0,-6.0,52.0,968.4157165184796,1,1,1,2.0,3.0
2021-09-24 11:47:13.722,967.0,23.0,19.0,967.4600766956744,1,1,1,2.0,3.0
2021-09-24 11:47:13.730,1010.0,23.0,19.0,1010.4404980007482,1,1,1,2.0,3.0
2021-09-24 11:47:13.731,1010.0,54.0,3.0,1011.4469832868156,1,1,1,2.0,3.0
2021-09-24 11:47:13.744,1028.0,54.0,3.0,1029.421682305167,1,1,1,2.0,3.0
2021-09-24 11:47:13.745,1028.0,-10.0,-21.0,1028.2630986279728,1,1,1,2.0,3.0
2021-09-24 11:47:13.750,1045.0,-1.0,13.0,1045.0813365475435,1,1,1,2.0,3.0
2021-09-24 11:47:13.760,986.0,52.0,1.0,987.3707510352938,1,1,1,2.0,3.0
2021-09-24 11:47:13.773,955.0,28.0,-20.0,955.6196942298752,1,1,1,2.0,3.0
2021-09-24 11:47:13.779,996.0,49.0,-20.0,997.4051333334916,1,1,1,2.0,3.0
2021-09-24 11:47:13.780,996.0,49.0,6.0,997.2226431444484,1,1,1,2.0,3.0
2021-09-24 11:47:13.790,1019.0,55.0,-7.0,1020.5072268239946,1,1,1,2.0,3.0
2021-09-24 11:47:13.799,1084.0,60.0,-7.0,1085.6818134241726,1,1,1,2.0,3.0
2021-09-24 11:47:13.800,1084.0,60.0,9.0,1085.6965506070285,1,1,1,2.0,3.0
2021-09-24 11:47:13.809,937.0,27.0,-2.0,937.3910603371464,1,1,1,2.0,3.0
2021-09-24 11:47:13.818,1069.0,29.0,-2.0,1069.3951561513638,1,1,1,2.0,3.0
2021-09-24 11:47:13.819,1069.0,29.0,33.0,1069.9023319911028,1,1,1,2.0,3.0
2021-09-24 11:47:13.828,1018.0,78.0,17.0,1021.125359591074,1,1,1,2.0,3.0
2021-09-24 11:47:13.839,1086.0,-34.0,2.0,1086.5339387244192,1,1,1,2.0,3.0
2021-09-24 11:47:13.848,1028.0,-34.0,2.0,1028.5640475925647,1,1,1,2.0,3.0
2021-09-24 11:47:13.849,1028.0,61.0,15.0,1029.9174724219413,1,1,1,2.0,3.0
2021-09-24 11:47:13.857,955.0,61.0,15.0,957.06373873426,1,1,1,2.0,3.0
2021-09-24 11:47:13.858,955.0,19.0,-25.0,955.5160909163174,1,1,1,2.0,3.0
2021-09-24 11:47:13.867,1053.0,17.0,31.0,1053.5933750740842,1,1,1,2.0,3.0
2021-09-24 11:47:13.877,986.0,56.0,-14.0,987.6882099124196,1,1,1,2.0,3.0
2021-09-24 11:47:13.887,1027.0,27.0,1.0,1027.3553426152023,1,1,1,2.0,3.0
2021-09-24 11:47:13.897,1045.0,27.0,1.0,1045.3492239438456,1,1,1,2.0,3.0
2021-09-24 11:47:13.898,1045.0,19.0,26.0,1045.496054511924,1,1,1,2.0,3.0
2021-09-24 11:47:13.906,935.0,-18.0,-21.0,935.4090014533748,1,1,1,2.0,3.0
2021-09-24 11:47:13.927,1059.0,20.0,16.0,1059.3096808771268,1,1,1,2.0,3.0
2021-09-24 11:47:13.929,1025.0,28.0,-29.0,1025.7923766532874,1,1,1,2.0,3.0
2021-09-24 11:47:13.937,1023.0,28.0,-29.0,1023.7939245766212,1,1,1,2.0,3.0
2021-09-24 11:47:13.938,1023.0,3.0,27.0,1023.3606402437022,1,1,1,2.0,3.0
2021-09-24 11:47:13.945,1054.0,16.0,27.0,1054.4671640217157,1,1,1,2.0,3.0
2021-09-24 11:47:13.946,1054.0,16.0,13.0,1054.2015936242935,1,1,1,2.0,3.0
2021-09-24 11:47:13.955,982.0,5.0,5.0,982.0254579184798,1,1,1,2.0,3.0
2021-09-24 11:47:13.966,1057.0,84.0,62.0,1062.1435872799873,1,1,1,2.0,3.0
2021-09-24 11:47:13.975,993.0,46.0,-18.0,994.2278410907631,1,1,1,2.0,3.0
2021-09-24 11:47:13.984,1002.0,46.0,-18.0,1003.216826015194,1,1,1,2.0,3.0
2021-09-24 11:47:13.985,1002.0,-29.0,-34.0,1002.9960119561792,1,1,1,2.0,3.0
2021-09-24 11:47:13.994,961.0,32.0,-21.0,961.761924802599,1,1,1,2.0,3.0
2021-09-24 11:47:14.004,956.0,15.0,13.0,956.206044741404,1,1,1,2.0,3.0
2021-09-24 11:47:14.014,1074.0,69.0,49.0,1077.32910477718,1,1,1,2.0,3.0
2021-09-24 11:47:14.025,1024.0,44.0,-10.0,1024.9936585169685,1,1,1,2.0,3.0
2021-09-24 11:47:14.033,931.0,44.0,-10.0,932.0928065380614,1,1,1,2.0,3.0
2021-09-24 11:47:14.034,931.0,-61.0,-21.0,933.2325540828502,1,1,1,2.0,3.0
2021-09-24 11:47:14.043,1012.0,-4.0,-21.0,1012.2257653310352,1,1,1,2.0,3.0
2021-09-24 11:47:14.044,1012.0,-4.0,0.0,1012.007905107465,1,1,1,2.0,3.0
2021-09-24 11:47:14.053,1016.0,115.0,24.0,1022.7692799453844,1,1,1,2.0,3.0
2021-09-24 11:47:14.063,1081.0,40.0,24.0,1082.0060073770385,1,1,1,2.0,3.0
2021-09-24 11:47:14.073,1019.0,74.0,-18.0,1021.8419642978068,1,1,1,2.0,3.0
2021-09-24 11:47:14.082,1001.0,-25.0,-19.0,1001.4923863914294,1,1,1,2.0,3.0
2021-09-24 11:47:14.092,965.0,18.0,-18.0,965.3356929068768,1,1,1,2.0,3.0
2021-09-24 11:47:14.102,1000.0,44.0,0.0,1000.9675319409716,1,1,1,2.0,3.0
2021-09-24 11:47:14.111,1039.0,51.0,0.0,1040.2509312661057,1,1,1,2.0,3.0
2021-09-24 11:47:14.112,1039.0,51.0,-1.0,1040.251411919253,1,1,1,2.0,3.0
2021-09-24 11:47:14.121,1044.0,19.0,-9.0,1044.211664366952,1,1,1,2.0,3.0
2021-09-24 11:47:14.132,993.0,-12.0,19.0,993.254247411004,1,1,1,2.0,3.0
2021-09-24 11:47:14.141,1004.0,9.0,-14.0,1004.137938731527,1,1,1,2.0,3.0
2021-09-24 11:47:14.150,1029.0,73.0,-14.0,1031.6811522946418,1,1,1,2.0,3.0
2021-09-24 11:47:14.151,1029.0,73.0,36.0,1032.214125072894,1,1,1,2.0,3.0
2021-09-24 11:47:14.160,1017.0,-58.0,-4.0,1018.6603948323504,1,1,1,2.0,3.0
2021-09-24 11:47:14.170,1039.0,16.0,-4.0,1039.130886847273,1,1,1,2.0,3.0
2021-09-24 11:47:14.171,1039.0,16.0,19.0,1039.2968777014582,1,1,1,2.0,3.0
2021-09-24 11:47:14.181,990.0,-49.0,-19.0,991.3939681075328,1,1,1,2.0,3.0
2021-09-24 11:47:14.189,938.0,-49.0,-19.0,939.4711278160707,1,1,1,2.0,3.0
2021-09-24 11:47:14.190,938.0,31.0,-38.0,939.2811080821332,1,1,1,2.0,3.0
2021-09-24 11:47:14.200,1012.0,47.0,0.0,1013.0908152776829,1,1,1,2.0,3.0
2021-09-24 11:47:14.209,996.0,19.0,0.0,996.1812084154168,1,1,1,2.0,3.0
2021-09-24 11:47:14.219,1044.0,-34.0,25.0,1044.8526211863566,1,1,1,2.0,3.0
2021-09-24 11:47:14.229,996.0,114.0,17.0,1002.646996704224,1,1,1,2.0,3.0
2021-09-24 11:47:14.238,1033.0,-1.0,17.0,1033.1403583250435,1,1,1,2.0,3.0
2021-09-24 11:47:14.239,1033.0,-1.0,17.0,1033.1403583250435,1,1,1,2.0,3.0
2021-09-24 11:47:14.248,1024.0,209.0,59.0,1046.7750474672196,1,1,1,2.0,3.0
2021-09-24 11:47:14.258,1024.0,-16.0,-14.0,1024.2206793460089,1,1,1,2.0,3.0
2021-09-24 11:47:14.267,1051.0,-16.0,-14.0,1051.215011308343,1,1,1,2.0,3.0
2021-09-24 11:47:14.268,1051.0,22.0,43.0,1052.1093099103343,1,1,1,2.0,3.0
2021-09-24 11:47:14.278,959.0,1.0,-2.0,959.0026068786258,1,1,1,2.0,3.0
2021-09-24 11:47:14.289,991.0,31.0,0.0,991.4847452179988,1,1,1,2.0,3.0
2021-09-24 11:47:14.297,1023.0,76.0,-20.0,1026.0141324562735,1,1,1,2.0,3.0
2021-09-24 11:47:14.307,1022.0,28.0,-21.0,1022.5991394481026,1,1,1,2.0,3.0
2021-09-24 11:47:14.316,1079.0,28.0,-21.0,1079.5675059948776,1,1,1,2.0,3.0
2021-09-24 11:47:14.317,1079.0,-24.0,6.0,1079.2835586628753,1,1,1,2.0,3.0
2021-09-24 11:47:14.326,931.0,-12.0,-16.0,931.214797992386,1,1,1,2.0,3.0
2021-09-24 11:47:14.337,1034.0,-25.0,-16.0,1034.4259277493,1,1,1,2.0,3.0
2021-09-24 11:47:14.338,1034.0,-25.0,21.0,1034.5153454637586,1,1,1,2.0,3.0
2021-09-24 11:47:14.346,1007.0,70.0,10.0,1009.4795688868596,1,1,1,2.0,3.0
2021-09-24 11:47:14.356,1043.0,-70.0,17.0,1045.4845766437686,1,1,1,2.0,3.0
2021-09-24 11:47:14.365,1008.0,36.0,17.0,1008.7859039459264,1,1,1,2.0,3.0
2021-09-24 11:47:14.366,1008.0,36.0,22.0,1008.8825501514038,1,1,1,2.0,3.0
2021-09-24 11:47:14.376,974.0,-20.0,-2.0,974.207370121988,1,1,1,2.0,3.0
2021-09-24 11:47:14.385,1020.0,31.0,22.0,1020.7080875549092,1,1,1,2.0,3.0
2021-09-24 11:47:14.399,1032.0,70.0,7.0,1034.394992253926,1,1,1,2.0,3.0
2021-09-24 11:47:14.404,999.0,-6.0,7.0,999.0425416367414,1,1,1,2.0,3.0
2021-09-24 11:47:14.405,999.0,-6.0,8.0,999.0500487963552,1,1,1,2.0,3.0
2021-09-24 11:47:14.414,1025.0,37.0,30.0,1026.1062323171027,1,1,1,2.0,3.0
2021-09-24 11:47:14.424,1000.0,68.0,1.0,1002.3098323372868,1,1,1,2.0,3.0
2021-09-24 11:47:14.434,1052.0,27.0,0.0,1052.346425850347,1,1,1,2.0,3.0
2021-09-24 11:47:14.443,1008.0,54.0,0.0,1009.4453922823166,1,1,1,2.0,3.0
2021-09-24 11:47:14.444,1008.0,54.0,6.0,1009.463223698615,1,1,1,2.0,3.0
2021-09-24 11:47:14.454,1005.0,-18.0,12.0,1005.2328088557396,1,1,1,2.0,3.0
2021-09-24 11:47:14.463,1020.0,-16.0,27.0,1020.482728908236,1,1,1,2.0,3.0
2021-09-24 11:47:14.473,972.0,70.0,13.0,974.604022154639,1,1,1,2.0,3.0
2021-09-24 11:47:14.483,1041.0,63.0,18.0,1043.0599215768957,1,1,1,2.0,3.0
2021-09-24 11:47:14.493,1059.0,68.0,7.0,1061.204033162332,1,1,1,2.0,3.0
2021-09-24 11:47:14.502,997.0,-29.0,-6.0,997.4397224895348,1,1,1,2.0,3.0
2021-09-24 11:47:14.512,989.0,50.0,25.0,990.5786187880294,1,1,1,2.0,3.0
2021-09-24 11:47:14.521,998.0,50.0,25.0,999.564405128554,1,1,1,2.0,3.0
2021-09-24 11:47:14.522,998.0,10.0,2.0,998.0521028483432,1,1,1,2.0,3.0
2021-09-24 11:47:14.531,1029.0,103.0,4.0,1034.149892423724,1,1,1,2.0,3.0
2021-09-24 11:47:14.541,1039.0,103.0,4.0,1044.100569868631,1,1,1,2.0,3.0
2021-09-24 11:47:14.542,1039.0,51.0,6.0,1040.2682346395088,1,1,1,2.0,3.0
2021-09-24 11:47:14.551,989.0,-57.0,21.0,990.8637646013703,1,1,1,2.0,3.0
2021-09-24 11:47:14.560,1033.0,-57.0,21.0,1034.7845186317777,1,1,1,2.0,3.0
2021-09-24 11:47:14.561,1033.0,14.0,34.0,1033.654197495468,1,1,1,2.0,3.0
2021-09-24 11:47:14.570,997.0,26.0,6.0,997.35700729478,1,1,1,2.0,3.0
2021-09-24 11:47:14.580,993.0,15.0,-3.0,993.1178177839728,1,1,1,2.0,3.0
2021-09-24 11:47:14.590,1054.0,77.0,-3.0,1056.813133907788,1,1,1,2.0,3.0
2021-09-24 11:47:14.591,1054.0,77.0,11.0,1056.8661220798026,1,1,1,2.0,3.0
2021-09-24 11:47:14.600,989.0,-29.0,-17.0,989.5711192228682,1,1,1,2.0,3.0
2021-09-24 11:47:14.609,1010.0,-29.0,-17.0,1010.5592511080188,1,1,1,2.0,3.0
2021-09-24 11:47:14.610,1010.0,38.0,3.0,1010.719050973118,1,1,1,2.0,3.0
2021-09-24 11:47:14.619,986.0,72.0,-20.0,988.8275886118872,1,1,1,2.0,3.0
2021-09-24 11:47:14.629,1025.0,40.0,19.0,1025.9561394133766,1,1,1,2.0,3.0
2021-09-24 11:47:14.639,1042.0,29.0,19.0,1042.5766158896909,1,1,1,2.0,3.0
2021-09-24 11:47:14.640,1042.0,29.0,9.0,1042.442324543665,1,1,1,2.0,3.0
2021-09-24 11:47:14.650,970.0,29.0,9.0,970.4751413611788,1,1,1,2.0,3.0
2021-09-24 11:47:14.651,970.0,-7.0,13.0,970.1123646258716,1,1,1,2.0,3.0
2021-09-24 11:47:14.659,1040.0,-16.0,-2.0,1040.1249924888834,1,1,1,2.0,3.0
2021-09-24 11:47:14.668,977.0,128.0,14.0,985.4486287980718,1,1,1,2.0,3.0
2021-09-24 11:47:14.678,1061.0,-12.0,19.0,1061.2379563509778,1,1,1,2.0,3.0
2021-09-24 11:47:14.687,1038.0,-12.0,19.0,1038.243227765055,1,1,1,2.0,3.0
2021-09-24 11:47:14.688,1038.0,69.0,0.0,1040.2908247216255,1,1,1,2.0,3.0
2021-09-24 11:47:14.706,990.0,-10.0,15.0,990.1641278091224,1,1,1,2.0,3.0
2021-09-24 11:47:14.708,1004.0,-10.0,15.0,1004.1618395457976,1,1,1,2.0,3.0
2021-09-24 11:47:14.709,1004.0,18.0,25.0,1004.4724983791244,1,1,1,2.0,3.0
2021-09-24 11:47:14.717,974.0,66.0,-16.0,976.3646859652392,1,1,1,2.0,3.0
2021-09-24 11:47:14.727,1082.0,66.0,-16.0,1084.1291435986766,1,1,1,2.0,3.0
2021-09-24 11:47:14.728,1082.0,-33.0,5.0,1082.5146650276845,1,1,1,2.0,3.0
2021-09-24 11:47:14.736,954.0,2.0,5.0,954.0151990403508,1,1,1,2.0,3.0
2021-09-24 11:47:14.737,954.0,2.0,10.0,954.0545057804612,1,1,1,2.0,3.0
2021-09-24 11:47:14.746,959.0,7.0,12.0,959.100620373066,1,1,1,2.0,3.0
2021-09-24 11:47:14.760,1061.0,12.0,33.0,1061.580896587726,1,1,1,2.0,3.0
2021-09-24 11:47:14.771,981.0,123.0,5.0,988.6935824612194,1,1,1,2.0,3.0
2021-09-24 11:47:14.775,1085.0,-41.0,5.0,1085.7858904959116,1,1,1,2.0,3.0
2021-09-24 11:47:14.776,1085.0,-41.0,24.0,1086.0395941216875,1,1,1,2.0,3.0
2021-09-24 11:47:14.785,964.0,67.0,-2.0,966.3275842073432,1,1,1,2.0,3.0
2021-09-24 11:47:14.795,1036.0,-15.0,-9.0,1036.1476728729356,1,1,1,2.0,3.0
2021-09-24 11:47:14.805,1017.0,83.0,34.0,1020.9475990470812,1,1,1,2.0,3.0
2021-09-24 11:47:14.817,950.0,73.0,-25.0,953.128532780338,1,1,1,2.0,3.0
2021-09-24 11:47:14.824,1052.0,-17.0,8.0,1052.1677622888851,1,1,1,2.0,3.0
2021-09-24 11:47:14.834,956.0,-15.0,-11.0,956.180945219052,1,1,1,2.0,3.0
2021-09-24 11:47:14.844,1029.0,24.0,9.0,1029.3191924762698,1,1,1,2.0,3.0
2021-09-24 11:47:14.853,1019.0,24.0,9.0,1019.3223238995604,1,1,1,2.0,3.0
2021-09-24 11:47:14.854,1019.0,31.0,18.0,1019.6303251669204,1,1,1,2.0,3.0
2021-09-24 11:47:14.864,977.0,137.0,7.0,986.583498747065,1,1,1,2.0,3.0
2021-09-24 11:47:14.873,1063.0,137.0,7.0,1071.8148160946462,1,1,1,2.0,3.0
2021-09-24 11:47:14.874,1063.0,-18.0,10.0,1063.199416854618,1,1,1,2.0,3.0
2021-09-24 11:47:14.883,976.0,-20.0,0.0,976.2048965253146,1,1,1,2.0,3.0
2021-09-24 11:47:14.893,1003.0,28.0,-2.0,1003.3927446418976,1,1,1,2.0,3.0
2021-09-24 11:47:14.902,970.0,37.0,-2.0,970.7074739590709,1,1,1,2.0,3.0
2021-09-24 11:47:14.903,970.0,37.0,-33.0,971.266183906348,1,1,1,2.0,3.0
2021-09-24 11:47:14.913,974.0,132.0,-16.0,983.0340787582088,1,1,1,2.0,3.0
2021-09-24 11:47:14.922,1037.0,132.0,-16.0,1045.4898373489816,1,1,1,2.0,3.0
2021-09-24 11:47:14.923,1037.0,7.0,17.0,1037.162957302275,1,1,1,2.0,3.0
2021-09-24 11:47:14.942,973.0,-26.0,17.0,973.4957627026428,1,1,1,2.0,3.0
2021-09-24 11:47:14.943,973.0,-26.0,-15.0,973.4628909208608,1,1,1,2.0,3.0
2021-09-24 11:47:14.944,1018.0,47.0,-15.0,1019.1947802064136,1,1,1,2.0,3.0
2021-09-24 11:47:14.945,1018.0,47.0,29.0,1019.4969347673392,1,1,1,2.0,3.0
2021-09-24 11:47:14.956,969.0,67.0,0.0,971.3135436098892,1,1,1,2.0,3.0
2021-09-24 11:47:14.961,1083.0,20.0,26.0,1083.4966543557025,1,1,1,2.0,3.0
2021-09-24 11:47:14.971,1049.0,0.0,17.0,1049.1377411951207,1,1,1,2.0,3.0
2021-09-24 11:47:14.980,993.0,0.0,17.0,993.145507969502,1,1,1,2.0,3.0
2021-09-24 11:47:14.981,993.0,-54.0,8.0,994.4993715432906,1,1,1,2.0,3.0
2021-09-24 11:47:14.991,1027.0,-20.0,8.0,1027.2258758423095,1,1,1,2.0,3.0
2021-09-24 11:47:14.992,1027.0,-20.0,2.0,1027.1966705553518,1,1,1,2.0,3.0
2021-09-24 11:47:15.000,948.0,79.0,0.0,951.2859717245914,1,1,1,2.0,3.0
2021-09-24 11:47:15.010,1072.0,29.0,40.0,1073.1379221703053,1,1,1,2.0,3.0
2021-09-24 11:47:15.019,999.0,29.0,40.0,1000.2209755848954,1,1,1,2.0,3.0
2021-09-24 11:47:15.020,999.0,17.0,0.0,999.1446341746524,1,1,1,2.0,3.0
2021-09-24 11:47:15.029,962.0,-2.0,16.0,962.1351256450416,1,1,1,2.0,3.0
2021-09-24 11:47:15.039,1043.0,36.0,55.0,1045.0693756875664,1,1,1,2.0,3.0
2021-09-24 11:47:15.050,1030.0,23.0,-15.0,1030.3659544064917,1,1,1,2.0,3.0
2021-09-24 11:47:15.059,1037.0,-6.0,-2.0,1037.0192862237425,1,1,1,2.0,3.0
2021-09-24 11:47:15.068,942.0,0.0,-4.0,942.0084925307202,1,1,1,2.0,3.0
2021-09-24 11:47:15.078,1092.0,3.0,37.0,1092.6307702055622,1,1,1,2.0,3.0
2021-09-24 11:47:15.088,1047.0,12.0,0.0,1047.0687656500886,1,1,1,2.0,3.0
2021-09-24 11:47:15.099,993.0,44.0,-22.0,994.2177829831852,1,1,1,2.0,3.0
2021-09-24 11:47:15.107,1071.0,21.0,-22.0,1071.4317523762304,1,1,1,2.0,3.0
2021-09-24 11:47:15.108,1071.0,21.0,8.0,1071.235735027543,1,1,1,2.0,3.0
2021-09-24 11:47:15.117,990.0,5.0,-5.0,990.0252522031952,1,1,1,2.0,3.0
2021-09-24 11:47:15.127,1038.0,69.0,21.0,1040.5027630909972,1,1,1,2.0,3.0
2021-09-24 11:47:15.137,958.0,122.0,-17.0,965.88663931126,1,1,1,2.0,3.0
2021-09-24 11:47:15.147,1015.0,14.0,0.0,1015.0965471323406,1,1,1,2.0,3.0
2021-09-24 11:47:15.160,1052.0,12.0,9.0,1052.1069337286965,1,1,1,2.0,3.0
2021-09-24 11:47:15.166,962.0,0.0,9.0,962.0420988709382,1,1,1,2.0,3.0
2021-09-24 11:47:15.167,962.0,0.0,-7.0,962.0254674383626,1,1,1,2.0,3.0
2021-09-24 11:47:15.176,1094.0,32.0,40.0,1095.1986121247598,1,1,1,2.0,3.0
2021-09-24 11:47:15.186,981.0,114.0,-13.0,987.687197446641,1,1,1,2.0,3.0
2021-09-24 11:47:15.196,1037.0,23.0,-13.0,1037.3364931400033,1,1,1,2.0,3.0
2021-09-24 11:47:15.197,1037.0,23.0,28.0,1037.6328830564305,1,1,1,2.0,3.0
2021-09-24 11:47:15.205,1059.0,28.0,16.0,1059.4909154872448,1,1,1,2.0,3.0
2021-09-24 11:47:15.215,986.0,-33.0,-28.0,986.9493401385909,1,1,1,2.0,3.0
2021-09-24 11:47:15.225,1032.0,-22.0,4.0,1032.242219636457,1,1,1,2.0,3.0
2021-09-24 11:47:15.234,966.0,105.0,4.0,971.6979983513396,1,1,1,2.0,3.0
2021-09-24 11:47:15.235,966.0,105.0,-11.0,971.7520259819374,1,1,1,2.0,3.0
2021-09-24 11:47:15.244,1037.0,65.0,27.0,1039.3858763712349,1,1,1,2.0,3.0
2021-09-24 11:47:15.255,960.0,-25.0,35.0,960.963058603191,1,1,1,2.0,3.0
2021-09-24 11:47:15.264,969.0,64.0,-9.0,971.1529230764844,1,1,1,2.0,3.0
2021-09-24 11:47:15.273,1068.0,-11.0,-9.0,1068.0945651017985,1,1,1,2.0,3.0
2021-09-24 11:47:15.274,1068.0,-11.0,31.0,1068.506434234254,1,1,1,2.0,3.0
2021-09-24 11:47:15.283,985.0,119.0,6.0,992.1804271401448,1,1,1,2.0,3.0
2021-09-24 11:47:15.293,1030.0,53.0,6.0,1031.3801433031372,1,1,1,2.0,3.0
2021-09-24 11:47:15.294,1030.0,53.0,59.0,1033.0488855809292,1,1,1,2.0,3.0
2021-09-24 11:47:15.304,973.0,-69.0,-6.0,975.4619418511415,1,1,1,2.0,3.0
2021-09-24 11:47:15.312,936.0,-69.0,-6.0,938.5590018746824,1,1,1,2.0,3.0
2021-09-24 11:47:15.313,936.0,78.0,0.0,939.244377145799,1,1,1,2.0,3.0
2021-09-24 11:47:15.322,1071.0,-19.0,20.0,1071.3552165365136,1,1,1,2.0,3.0
2021-09-24 11:47:15.332,964.0,109.0,-26.0,970.4911127877472,1,1,1,2.0,3.0
2021-09-24 11:47:15.342,989.0,39.0,23.0,990.0358579364688,1,1,1,2.0,3.0
2021-09-24 11:47:15.352,966.0,-25.0,9.0,966.3653553392734,1,1,1,2.0,3.0
2021-09-24 11:47:15.361,1035.0,40.0,9.0,1035.8117589600922,1,1,1,2.0,3.0
2021-09-24 11:47:15.362,1035.0,40.0,53.0,1037.1277645497685,1,1,1,2.0,3.0
2021-09-24 11:47:15.371,1075.0,40.0,53.0,1077.0487454149882,1,1,1,2.0,3.0
2021-09-24 11:47:15.372,1075.0,-36.0,35.0,1076.1719193511788,1,1,1,2.0,3.0
2021-09-24 11:47:15.381,996.0,103.0,-7.0,1001.3361074084964,1,1,1,2.0,3.0
2021-09-24 11:47:15.391,1027.0,41.0,47.0,1028.892122625108,1,1,1,2.0,3.0
2021-09-24 11:47:15.405,961.0,8.0,-8.0,961.0665949870488,1,1,1,2.0,3.0
2021-09-24 11:47:15.415,1006.0,96.0,43.0,1011.4845525266315,1,1,1,2.0,3.0
2021-09-24 11:47:15.420,1032.0,18.0,43.0,1033.0522736047774,1,1,1,2.0,3.0
2021-09-24 11:47:15.421,1032.0,18.0,-37.0,1032.8199262214107,1,1,1,2.0,3.0
2021-09-24 11:47:15.430,1008.0,110.0,-43.0,1014.8955611293212,1,1,1,2.0,3.0
2021-09-24 11:47:15.439,1041.0,110.0,-43.0,1047.6783857654027,1,1,1,2.0,3.0
2021-09-24 11:47:15.440,1041.0,25.0,14.0,1041.3942577141474,1,1,1,2.0,3.0
2021-09-24 11:47:15.450,930.0,-27.0,-37.0,931.127273792364,1,1,1,2.0,3.0
2021-09-24 11:47:15.460,984.0,2.0,35.0,984.6242938298852,1,1,1,2.0,3.0
2021-09-24 11:47:15.469,1038.0,40.0,12.0,1038.839737399374,1,1,1,2.0,3.0
2021-09-24 11:47:15.478,1076.0,40.0,12.0,1076.8101039644828,1,1,1,2.0,3.0
2021-09-24 11:47:15.479,1076.0,35.0,49.0,1077.683627044598,1,1,1,2.0,3.0
2021-09-24 11:47:15.488,994.0,-8.0,49.0,995.2391672356952,1,1,1,2.0,3.0
2021-09-24 11:47:15.489,994.0,-8.0,13.0,994.1171963103748,1,1,1,2.0,3.0
2021-09-24 11:47:15.498,955.0,-29.0,9.0,955.482600574181,1,1,1,2.0,3.0
2021-09-24 11:47:15.508,1017.0,-29.0,9.0,1017.4531930265885,1,1,1,2.0,3.0
2021-09-24 11:47:15.509,1017.0,53.0,44.0,1019.3301722209542,1,1,1,2.0,3.0
2021-09-24 11:47:15.517,1061.0,53.0,44.0,1063.2337466427596,1,1,1,2.0,3.0
2021-09-24 11:47:15.518,1061.0,17.0,-2.0,1061.1380683021414,1,1,1,2.0,3.0
2021-09-24 11:47:15.527,1052.0,75.0,-2.0,1054.6719869229485,1,1,1,2.0,3.0
2021-09-24 11:47:15.528,1052.0,75.0,12.0,1054.738356181285,1,1,1,2.0,3.0
2021-09-24 11:47:15.537,1014.0,9.0,2.0,1014.0419123487944,1,1,1,2.0,3.0
2021-09-24 11:47:15.547,921.0,18.0,-3.0,921.1807640197444,1,1,1,2.0,3.0
2021-09-24 11:47:15.557,1041.0,28.0,49.0,1042.528656680477,1,1,1,2.0,3.0
2021-09-24 11:47:15.566,1005.0,98.0,49.0,1010.9549940526532,1,1,1,2.0,3.0
2021-09-24 11:47:15.567,1005.0,98.0,9.0,1009.8069122361958,1,1,1,2.0,3.0
2021-09-24 11:47:15.577,1058.0,13.0,16.0,1058.200831600505,1,1,1,2.0,3.0
2021-09-24 11:47:15.586,967.0,5.0,-1.0,967.0134435466758,1,1,1,2.0,3.0
2021-09-24 11:47:15.596,980.0,-11.0,14.0,980.1617213501046,1,1,1,2.0,3.0
2021-09-24 11:47:15.606,1017.0,12.0,14.0,1017.1671445735948,1,1,1,2.0,3.0
2021-09-24 11:47:15.616,993.0,13.0,-18.0,993.2482066432336,1,1,1,2.0,3.0
2021-09-24 11:47:15.625,1037.0,61.0,20.0,1038.9850817023312,1,1,1,2.0,3.0
2021-09-24 11:47:15.635,1028.0,-29.0,-7.0,1028.432788275442,1,1,1,2.0,3.0
2021-09-24 11:47:15.645,1040.0,-29.0,-7.0,1040.427796629829,1,1,1,2.0,3.0
2021-09-24 11:47:15.646,1040.0,58.0,7.0,1041.6395729809808,1,1,1,2.0,3.0
2021-09-24 11:47:15.655,1033.0,23.0,17.0,1033.395858323421,1,1,1,2.0,3.0
2021-09-24 11:47:15.665,1021.0,64.0,-13.0,1023.0865066063571,1,1,1,2.0,3.0
2021-09-24 11:47:15.674,1060.0,42.0,46.0,1061.8286114058144,1,1,1,2.0,3.0
2021-09-24 11:47:15.684,951.0,7.0,2.0,951.0278649966046,1,1,1,2.0,3.0
2021-09-24 11:47:15.693,1090.0,29.0,2.0,1090.3875457836082,1,1,1,2.0,3.0
2021-09-24 11:47:15.694,1090.0,29.0,29.0,1090.771286750802,1,1,1,2.0,3.0
2021-09-24 11:47:15.703,1036.0,27.0,-17.0,1036.4911962964277,1,1,1,2.0,3.0
2021-09-24 11:47:15.721,1070.0,46.0,5.0,1071.0,1,1,1,2.0,3.0
2021-09-24 11:47:15.723,1036.0,51.0,11.0,1037.3128746911416,1,1,1,2.0,3.0
2021-09-24 11:47:15.732,946.0,51.0,11.0,947.4375968896315,1,1,1,2.0,3.0
2021-09-24 11:47:15.733,946.0,-3.0,0.0,946.0047568590762,1,1,1,2.0,3.0
2021-09-24 11:47:15.742,1016.0,52.0,-5.0,1017.3421253442718,1,1,1,2.0,3.0
2021-09-24 11:47:15.753,979.0,52.0,-5.0,980.3927784311757,1,1,1,2.0,3.0
2021-09-24 11:47:15.754,979.0,89.0,-40.0,983.8505984142104,1,1,1,2.0,3.0
2021-09-24 11:47:15.762,1019.0,23.0,-10.0,1019.3085891917128,1,1,1,2.0,3.0
2021-09-24 11:47:15.771,1072.0,23.0,-10.0,1072.2933367320716,1,1,1,2.0,3.0
2021-09-24 11:47:15.772,1072.0,22.0,20.0,1072.4122341711698,1,1,1,2.0,3.0
2021-09-24 11:47:15.789,935.0,13.0,-7.0,935.1165702734606,1,1,1,2.0,3.0
2021-09-24 11:47:15.791,1048.0,13.0,-7.0,1048.104002473037,1,1,1,2.0,3.0
2021-09-24 11:47:15.792,1048.0,61.0,19.0,1049.9457128823376,1,1,1,2.0,3.0
2021-09-24 11:47:15.801,994.0,-5.0,-16.0,994.1413380400194,1,1,1,2.0,3.0
2021-09-24 11:47:15.811,994.0,-5.0,-16.0,994.1413380400194,1,1,1,2.0,3.0
2021-09-24 11:47:15.812,994.0,4.0,30.0,994.4606578442408,1,1,1,2.0,3.0
2021-09-24 11:47:15.821,1003.0,26.0,30.0,1003.7853356171328,1,1,1,2.0,3.0
2021-09-24 11:47:15.822,1003.0,26.0,14.0,1003.434601755391,1,1,1,2.0,3.0
2021-09-24 11:47:15.830,987.0,22.0,-12.0,987.318084509749,1,1,1,2.0,3.0
2021-09-24 11:47:15.840,1067.0,22.0,-12.0,1067.2942424654975,1,1,1,2.0,3.0
2021-09-24 11:47:15.841,1067.0,90.0,42.0,1071.6123366217842,1,1,1,2.0,3.0
2021-09-24 11:47:15.850,973.0,58.0,-13.0,974.8138283795528,1,1,1,2.0,3.0
2021-09-24 11:47:15.859,999.0,34.0,-13.0,999.6629431963556,1,1,1,2.0,3.0
2021-09-24 11:47:15.860,999.0,34.0,-7.0,999.6029211641992,1,1,1,2.0,3.0
2021-09-24 11:47:15.870,969.0,-70.0,-23.0,971.797303968271,1,1,1,2.0,3.0
2021-09-24 11:47:15.879,978.0,29.0,1.0,978.4303756527596,1,1,1,2.0,3.0
2021-09-24 11:47:15.889,1017.0,34.0,17.0,1017.7101748533322,1,1,1,2.0,3.0
2021-09-24 11:47:15.899,995.0,21.0,-19.0,995.40293348975,1,1,1,2.0,3.0
2021-09-24 11:47:15.908,1025.0,-49.0,-19.0,1026.3464327409142,1,1,1,2.0,3.0
2021-09-24 11:47:15.909,1025.0,-49.0,18.0,1026.3284074797891,1,1,1,2.0,3.0
2021-09-24 11:47:15.918,996.0,11.0,12.0,996.1330232453896,1,1,1,2.0,3.0
2021-09-24 11:47:15.929,997.0,64.0,18.0,999.214191252306,1,1,1,2.0,3.0
2021-09-24 11:47:15.938,1036.0,-47.0,2.0,1037.0675002139446,1,1,1,2.0,3.0
2021-09-24 11:47:15.957,1006.0,63.0,-12.0,1008.0421618166572,1,1,1,2.0,3.0
2021-09-24 11:47:15.960,1021.0,-44.0,-39.0,1022.69154685076,1,1,1,2.0,3.0
2021-09-24 11:47:15.967,971.0,-44.0,-39.0,972.7784948280878,1,1,1,2.0,3.0
2021-09-24 11:47:15.968,971.0,17.0,-39.0,971.9315819542032,1,1,1,2.0,3.0
2021-09-24 11:47:15.977,1003.0,20.0,-14.0,1003.2970646822406,1,1,1,2.0,3.0
2021-09-24 11:47:15.986,1006.0,8.0,-14.0,1006.1292163534464,1,1,1,2.0,3.0
2021-09-24 11:47:15.987,1006.0,8.0,-4.0,1006.0397606456715,1,1,1,2.0,3.0
2021-09-24 11:47:15.996,1024.0,25.0,-25.0,1024.610169771899,1,1,1,2.0,3.0
2021-09-24 11:47:16.006,985.0,-1.0,29.0,985.4273184766088,1,1,1,2.0,3.0
2021-09-24 11:47:16.017,1014.0,-8.0,17.0,1014.174048179108,1,1,1,2.0,3.0
2021-09-24 11:47:16.027,1015.0,112.0,38.0,1021.86740822868,1,1,1,2.0,3.0
2021-09-24 11:47:16.035,1094.0,-18.0,20.0,1094.330845768317,1,1,1,2.0,3.0
2021-09-24 11:47:16.045,1036.0,30.0,22.0,1036.667738477474,1,1,1,2.0,3.0
2021-09-24 11:47:16.055,1029.0,8.0,-14.0,1029.1263284942231,1,1,1,2.0,3.0
2021-09-24 11:47:16.065,961.0,-7.0,-22.0,961.2772752957392,1,1,1,2.0,3.0
2021-09-24 11:47:16.076,1005.0,70.0,12.0,1007.5063275235544,1,1,1,2.0,3.0
2021-09-24 11:47:16.084,1011.0,31.0,0.0,1011.4751603474996,1,1,1,2.0,3.0
2021-09-24 11:47:16.094,1040.0,28.0,40.0,1041.145522969772,1,1,1,2.0,3.0
2021-09-24 11:47:16.104,970.0,51.0,12.0,971.4139179567072,1,1,1,2.0,3.0
2021-09-24 11:47:16.113,991.0,1.0,12.0,991.0731557256508,1,1,1,2.0,3.0
2021-09-24 11:47:16.114,991.0,1.0,12.0,991.0731557256508,1,1,1,2.0,3.0
2021-09-24 11:47:16.124,1011.0,91.0,12.0,1015.158115763254,1,1,1,2.0,3.0
2021-09-24 11:47:16.125,1011.0,91.0,20.0,1015.2841966661356,1,1,1,2.0,3.0
2021-09-24 11:47:16.134,1044.0,-6.0,17.0,1044.1556397395937,1,1,1,2.0,3.0
2021-09-24 11:47:16.142,1028.0,-6.0,17.0,1028.1580617784407,1,1,1,2.0,3.0
2021-09-24 11:47:16.143,1028.0,46.0,12.0,1029.0986347284695,1,1,1,2.0,3.0
2021-09-24 11:47:16.152,973.0,46.0,12.0,974.1606643670232,1,1,1,2.0,3.0
2021-09-24 11:47:16.153,973.0,10.0,-11.0,973.1135596630024,1,1,1,2.0,3.0
2021-09-24 11:47:16.162,1051.0,47.0,26.0,1052.3716073707044,1,1,1,2.0,3.0
2021-09-24 11:47:16.172,1025.0,56.0,26.0,1026.8578285235012,1,1,1,2.0,3.0
2021-09-24 11:47:16.173,1025.0,56.0,19.0,1026.7044365346826,1,1,1,2.0,3.0
2021-09-24 11:47:16.183,1046.0,56.0,19.0,1047.670272557163,1,1,1,2.0,3.0
2021-09-24 11:47:16.184,1046.0,-17.0,5.0,1046.1500848348674,1,1,1,2.0,3.0
2021-09-24 11:47:16.191,1021.0,-17.0,5.0,1021.1537592351116,1,1,1,2.0,3.0
2021-09-24 11:47:16.192,1021.0,46.0,24.0,1022.3174653697354,1,1,1,2.0,3.0
2021-09-24 11:47:16.201,984.0,94.0,-4.0,988.4877338642094,1,1,1,2.0,3.0
2021-09-24 11:47:16.211,1059.0,38.0,10.0,1059.728738876133,1,1,1,2.0,3.0
2021-09-24 11:47:16.221,1053.0,-1.0,-23.0,1053.2516318525218,1,1,1,2.0,3.0
2021-09-24 11:47:16.232,1042.0,-27.0,7.0,1042.3732536860298,1,1,1,2.0,3.0
2021-09-24 11:47:16.240,984.0,29.0,8.0,984.4597503199408,1,1,1,2.0,3.0
2021-09-24 11:47:16.251,981.0,29.0,8.0,981.4611556246126,1,1,1,2.0,3.0
2021-09-24 11:47:16.252,981.0,51.0,-3.0,982.3293744971694,1,1,1,2.0,3.0
2021-09-24 11:47:16.260,1013.0,59.0,8.0,1014.748244640019,1,1,1,2.0,3.0
2021-09-24 11:47:16.270,1048.0,100.0,5.0,1052.7720551002485,1,1,1,2.0,3.0
2021-09-24 11:47:16.280,1012.0,-11.0,-1.0,1012.060274884851,1,1,1,2.0,3.0
2021-09-24 11:47:16.290,968.0,41.0,-1.0,968.8684121179716,1,1,1,2.0,3.0
2021-09-24 11:47:16.291,968.0,41.0,3.0,968.872540636796,1,1,1,2.0,3.0
2021-09-24 11:47:16.299,1013.0,53.0,33.0,1014.9221645032688,1,1,1,2.0,3.0
2021-09-24 11:47:16.309,1073.0,103.0,43.0,1078.7895995049266,1,1,1,2.0,3.0
2021-09-24 11:47:16.318,1021.0,44.0,43.0,1022.8518954374578,1,1,1,2.0,3.0
2021-09-24 11:47:16.319,1021.0,44.0,-11.0,1022.0068492921172,1,1,1,2.0,3.0
2021-09-24 11:47:16.328,973.0,-6.0,0.0,973.0184993102648,1,1,1,2.0,3.0
2021-09-24 11:47:16.340,1026.0,-15.0,23.0,1026.3673806196298,1,1,1,2.0,3.0
2021-09-24 11:47:16.348,1001.0,33.0,-14.0,1001.6416524885534,1,1,1,2.0,3.0
2021-09-24 11:47:16.357,1032.0,33.0,-14.0,1032.6223898405458,1,1,1,2.0,3.0
2021-09-24 11:47:16.358,1032.0,21.0,-5.0,1032.2257505022824,1,1,1,2.0,3.0
2021-09-24 11:47:16.367,1019.0,64.0,8.0,1021.0391765255632,1,1,1,2.0,3.0
2021-09-24 11:47:16.377,993.0,-29.0,6.0,993.441492992919,1,1,1,2.0,3.0
2021-09-24 11:47:16.388,991.0,48.0,4.0,992.1698443311004,1,1,1,2.0,3.0
2021-09-24 11:47:16.399,982.0,86.0,-14.0,985.8580019455136,1,1,1,2.0,3.0
2021-09-24 11:47:16.406,1031.0,42.0,-14.0,1031.9500956926163,1,1,1,2.0,3.0
2021-09-24 11:47:16.407,1031.0,42.0,0.0,1031.8551254900078,1,1,1,2.0,3.0
2021-09-24 11:47:16.424,1083.0,42.0,0.0,1083.8140984504676,1,1,1,2.0,3.0
2021-09-24 11:47:16.425,1083.0,-4.0,-41.0,1083.7831886498332,1,1,1,2.0,3.0
2021-09-24 11:47:16.428,967.0,6.0,7.0,967.0439493632128,1,1,1,2.0,3.0
2021-09-24 11:47:16.437,1020.0,32.0,36.0,1021.1366216133864,1,1,1,2.0,3.0
2021-09-24 11:47:16.446,1016.0,124.0,14.0,1023.6347004669196,1,1,1,2.0,3.0
2021-09-24 11:47:16.455,1079.0,-30.0,14.0,1079.5077581935204,1,1,1,2.0,3.0
2021-09-24 11:47:16.456,1079.0,-30.0,11.0,1079.4730195794614,1,1,1,2.0,3.0
2021-09-24 11:47:16.465,1061.0,119.0,23.0,1067.9002762430582,1,1,1,2.0,3.0
2021-09-24 11:47:16.475,1002.0,-27.0,-2.0,1002.365701727668,1,1,1,2.0,3.0
2021-09-24 11:47:16.485,1000.0,34.0,6.0,1000.5958224977755,1,1,1,2.0,3.0
2021-09-24 11:47:16.494,952.0,34.0,6.0,952.6258447050448,1,1,1,2.0,3.0
2021-09-24 11:47:16.495,952.0,101.0,-21.0,957.5729737205412,1,1,1,2.0,3.0
2021-09-24 11:47:16.504,1089.0,-8.0,-7.0,1089.0518812251323,1,1,1,2.0,3.0
2021-09-24 11:47:16.514,1085.0,65.0,23.0,1087.1885760989212,1,1,1,2.0,3.0
2021-09-24 11:47:16.523,999.0,0.0,23.0,999.2647296887848,1,1,1,2.0,3.0
2021-09-24 11:47:16.524,999.0,0.0,8.0,999.0320315185094,1,1,1,2.0,3.0
2021-09-24 11:47:16.533,1017.0,37.0,8.0,1017.7042792481516,1,1,1,2.0,3.0
2021-09-24 11:47:16.543,970.0,37.0,8.0,970.7383787612396,1,1,1,2.0,3.0
2021-09-24 11:47:16.544,970.0,130.0,6.0,978.6909624595498,1,1,1,2.0,3.0
2021-09-24 11:47:16.554,1072.0,-2.0,20.0,1072.1884162776614,1,1,1,2.0,3.0
2021-09-24 11:47:16.562,998.0,-37.0,20.0,998.8858793676084,1,1,1,2.0,3.0
2021-09-24 11:47:16.563,998.0,-37.0,17.0,998.830315919576,1,1,1,2.0,3.0
2021-09-24 11:47:16.572,1005.0,-43.0,17.0,1006.063119292224,1,1,1,2.0,3.0
2021-09-24 11:47:16.573,1005.0,-43.0,-13.0,1006.0034791192325,1,1,1,2.0,3.0
2021-09-24 11:47:16.582,974.0,65.0,3.0,976.1710915613104,1,1,1,2.0,3.0
2021-09-24 11:47:16.595,987.0,66.0,-22.0,989.4488364741252,1,1,1,2.0,3.0
2021-09-24 11:47:16.603,1061.0,4.0,3.0,1061.0117812729509,1,1,1,2.0,3.0
2021-09-24 11:47:16.611,979.0,24.0,3.0,979.2987286829284,1,1,1,2.0,3.0
2021-09-24 11:47:16.612,979.0,24.0,26.0,979.6392193047398,1,1,1,2.0,3.0
2021-09-24 11:47:16.621,1056.0,45.0,33.0,1057.473403920874,1,1,1,2.0,3.0
2021-09-24 11:47:16.631,1035.0,24.0,49.0,1036.437166450528,1,1,1,2.0,3.0
2021-09-24 11:47:16.641,1015.0,98.0,49.0,1020.8966647021626,1,1,1,2.0,3.0
2021-09-24 11:47:16.642,1015.0,98.0,5.0,1019.7323178167886,1,1,1,2.0,3.0
2021-09-24 11:47:16.650,1079.0,-26.0,5.0,1079.324788930561,1,1,1,2.0,3.0
2021-09-24 11:47:16.651,1079.0,-26.0,23.0,1079.5582429864542,1,1,1,2.0,3.0
2021-09-24 11:47:16.660,986.0,-2.0,23.0,986.270246940462,1,1,1,2.0,3.0
2021-09-24 11:47:16.661,986.0,-2.0,-4.0,986.01014193567,1,1,1,2.0,3.0
2021-09-24 11:47:16.670,1060.0,35.0,0.0,1060.5776727802636,1,1,1,2.0,3.0
2021-09-24 11:47:16.680,996.0,75.0,3.0,998.8243088751896,1,1,1,2.0,3.0
2021-09-24 11:47:16.689,971.0,75.0,3.0,973.8968117824392,1,1,1,2.0,3.0
2021-09-24 11:47:16.690,971.0,115.0,0.0,977.7862752156014,1,1,1,2.0,3.0
2021-09-24 11:47:16.700,1087.0,115.0,0.0,1093.0663291859282,1,1,1,2.0,3.0
2021-09-24 11:47:16.701,1087.0,-8.0,-2.0,1087.031278298835,1,1,1,2.0,3.0
2021-09-24 11:47:16.710,1023.0,-24.0,-1.0,1023.281974824144,1,1,1,2.0,3.0
2021-09-24 11:47:16.719,1020.0,38.0,16.0,1020.8329931972222,1,1,1,2.0,3.0
2021-09-24 11:47:16.737,994.0,48.0,10.0,995.208520863844,1,1,1,2.0,3.0
2021-09-24 11:47:16.739,913.0,48.0,10.0,914.3155910297056,1,1,1,2.0,3.0
2021-09-24 11:47:16.740,913.0,139.0,23.0,923.8067979832148,1,1,1,2.0,3.0
2021-09-24 11:47:16.748,1109.0,11.0,49.0,1110.1364780962745,1,1,1,2.0,3.0
2021-09-24 11:47:16.758,1004.0,-40.0,1.0,1004.7969944222564,1,1,1,2.0,3.0
2021-09-24 11:47:16.769,1016.0,13.0,8.0,1016.1146588845178,1,1,1,2.0,3.0
2021-09-24 11:47:16.777,998.0,-32.0,8.0,998.5449414022386,1,1,1,2.0,3.0
2021-09-24 11:47:16.778,998.0,-32.0,-14.0,998.6110353886542,1,1,1,2.0,3.0
2021-09-24 11:47:16.789,1032.0,-32.0,-14.0,1032.5909160940746,1,1,1,2.0,3.0
2021-09-24 11:47:16.790,1032.0,57.0,-3.0,1033.5772830320914,1,1,1,2.0,3.0
2021-09-24 11:47:16.797,1026.0,49.0,0.0,1027.1694115383305,1,1,1,2.0,3.0
2021-09-24 11:47:16.810,966.0,-49.0,-34.0,967.8393461727004,1,1,1,2.0,3.0
2021-09-24 11:47:16.817,998.0,13.0,27.0,998.449798437558,1,1,1,2.0,3.0
2021-09-24 11:47:16.826,972.0,29.0,21.0,972.6592414612632,1,1,1,2.0,3.0
2021-09-24 11:47:16.836,1051.0,-8.0,-1.0,1051.0309224756425,1,1,1,2.0,3.0
2021-09-24 11:47:16.846,968.0,25.0,17.0,968.471992367358,1,1,1,2.0,3.0
2021-09-24 11:47:16.856,971.0,-45.0,17.0,972.1908248898465,1,1,1,2.0,3.0
2021-09-24 11:47:16.857,971.0,-45.0,2.0,972.0442376764548,1,1,1,2.0,3.0
2021-09-24 11:47:16.866,1031.0,-32.0,-15.0,1031.6055447698989,1,1,1,2.0,3.0
2021-09-24 11:47:16.875,1002.0,-40.0,6.0,1002.816034973514,1,1,1,2.0,3.0
2021-09-24 11:47:16.885,1056.0,88.0,9.0,1059.698542039197,1,1,1,2.0,3.0
2021-09-24 11:47:16.894,984.0,88.0,9.0,987.9681168944674,1,1,1,2.0,3.0
2021-09-24 11:47:16.895,984.0,-8.0,-4.0,984.0406495668764,1,1,1,2.0,3.0
2021-09-24 11:47:16.905,1041.0,23.0,21.0,1041.4657939654091,1,1,1,2.0,3.0
2021-09-24 11:47:16.915,995.0,29.0,8.0,995.4546699875388,1,1,1,2.0,3.0
2021-09-24 11:47:16.924,985.0,31.0,-25.0,985.8047474018372,1,1,1,2.0,3.0
2021-09-24 11:47:16.933,1037.0,31.0,-25.0,1037.7644241348803,1,1,1,2.0,3.0
2021-09-24 11:47:16.934,1037.0,35.0,25.0,1037.8916128382575,1,1,1,2.0,3.0
2021-09-24 11:47:16.943,981.0,35.0,25.0,981.942462672839,1,1,1,2.0,3.0
2021-09-24 11:47:16.944,981.0,-14.0,4.0,981.1080470569996,1,1,1,2.0,3.0
2021-09-24 11:47:16.953,1045.0,48.0,33.0,1046.622185891356,1,1,1,2.0,3.0
2021-09-24 11:47:16.975,991.0,154.0,8.0,1002.9262186222873,1,1,1,2.0,3.0
2021-09-24 11:47:16.977,1002.0,154.0,8.0,1013.796823826155,1,1,1,2.0,3.0
2021-09-24 11:47:16.978,1002.0,40.0,9.0,1002.8384715396592,1,1,1,2.0,3.0
2021-09-24 11:47:16.983,1053.0,65.0,26.0,1055.324594615325,1,1,1,2.0,3.0
2021-09-24 11:47:16.994,957.0,49.0,1.0,958.2541416555422,1,1,1,2.0,3.0
2021-09-24 11:47:17.002,1078.0,31.0,40.0,1079.1871941419615,1,1,1,2.0,3.0
2021-09-24 11:47:17.012,962.0,139.0,-32.0,972.5168379005064,1,1,1,2.0,3.0
2021-09-24 11:47:17.021,996.0,139.0,-32.0,1006.1615178488988,1,1,1,2.0,3.0
2021-09-24 11:47:17.022,996.0,85.0,1.0,999.6209281522672,1,1,1,2.0,3.0
2021-09-24 11:47:17.031,1056.0,41.0,7.0,1056.8188113390108,1,1,1,2.0,3.0
2021-09-24 11:47:17.043,967.0,11.0,9.0,967.1044411024076,1,1,1,2.0,3.0
2021-09-24 11:47:17.051,1085.0,55.0,45.0,1087.3246985146618,1,1,1,2.0,3.0
2021-09-24 11:47:17.060,986.0,55.0,45.0,988.5575349973312,1,1,1,2.0,3.0
2021-09-24 11:47:17.061,986.0,150.0,6.0,997.362521854516,1,1,1,2.0,3.0
2021-09-24 11:47:17.070,1069.0,-14.0,22.0,1069.3180069558357,1,1,1,2.0,3.0
2021-09-24 11:47:17.080,1069.0,82.0,21.0,1072.346026243395,1,1,1,2.0,3.0
2021-09-24 11:47:17.090,1005.0,-41.0,21.0,1006.0551674734344,1,1,1,2.0,3.0
2021-09-24 11:47:17.091,1005.0,-41.0,-11.0,1005.8961178968732,1,1,1,2.0,3.0
2021-09-24 11:47:17.099,1057.0,-41.0,-11.0,1057.8520690531357,1,1,1,2.0,3.0
2021-09-24 11:47:17.100,1057.0,18.0,37.0,1057.8005483076663,1,1,1,2.0,3.0
2021-09-24 11:47:17.109,980.0,78.0,37.0,983.7952022651868,1,1,1,2.0,3.0
2021-09-24 11:47:17.110,980.0,78.0,-38.0,983.8333192162175,1,1,1,2.0,3.0
2021-09-24 11:47:17.119,1009.0,61.0,5.0,1010.85458894937,1,1,1,2.0,3.0
2021-09-24 11:47:17.129,953.0,-9.0,-8.0,953.076072514676,1,1,1,2.0,3.0
2021-09-24 11:47:17.139,1002.0,33.0,0.0,1002.5432658992828,1,1,1,2.0,3.0
2021-09-24 11:47:17.150,1070.0,39.0,45.0,1071.6557283008383,1,1,1,2.0,3.0
2021-09-24 11:47:17.158,976.0,93.0,45.0,981.453004478564,1,1,1,2.0,3.0
2021-09-24 11:47:17.159,976.0,93.0,3.0,980.4254178671624,1,1,1,2.0,3.0
2021-09-24 11:47:17.168,1006.0,36.0,37.0,1007.3236818421376,1,1,1,2.0,3.0
2021-09-24 11:47:17.179,972.0,36.0,37.0,973.3699194037176,1,1,1,2.0,3.0
2021-09-24 11:47:17.180,972.0,-10.0,-4.0,972.05966895042,1,1,1,2.0,3.0
2021-09-24 11:47:17.188,1028.0,14.0,18.0,1028.2528871829147,1,1,1,2.0,3.0
2021-09-24 11:47:17.198,1065.0,62.0,18.0,1066.9550131097374,1,1,1,2.0,3.0
2021-09-24 11:47:17.199,1065.0,62.0,33.0,1067.313449741921,1,1,1,2.0,3.0
2021-09-24 11:47:17.208,980.0,92.0,-24.0,984.6014422089784,1,1,1,2.0,3.0
2021-09-24 11:47:17.217,1016.0,56.0,21.0,1017.7588122929716,1,1,1,2.0,3.0
2021-09-24 11:47:17.226,977.0,56.0,21.0,978.8288920950382,1,1,1,2.0,3.0
2021-09-24 11:47:17.227,977.0,-9.0,8.0,977.0742039374492,1,1,1,2.0,3.0
2021-09-24 11:47:17.236,1013.0,27.0,8.0,1013.3913360592738,1,1,1,2.0,3.0
2021-09-24 11:47:17.237,1013.0,27.0,27.0,1013.7193891802602,1,1,1,2.0,3.0
2021-09-24 11:47:17.249,982.0,50.0,-1.0,983.2725969943432,1,1,1,2.0,3.0
2021-09-24 11:47:17.257,958.0,142.0,7.0,968.492126968516,1,1,1,2.0,3.0
2021-09-24 11:47:17.266,1045.0,47.0,46.0,1047.0673330784416,1,1,1,2.0,3.0
2021-09-24 11:47:17.275,1003.0,-45.0,46.0,1005.0621871307268,1,1,1,2.0,3.0
2021-09-24 11:47:17.276,1003.0,-45.0,10.0,1004.0587632205596,1,1,1,2.0,3.0
2021-09-24 11:47:17.285,1033.0,-18.0,7.0,1033.180526336032,1,1,1,2.0,3.0
2021-09-24 11:47:17.295,990.0,40.0,-41.0,991.655686213718,1,1,1,2.0,3.0
2021-09-24 11:47:17.306,1062.0,40.0,-41.0,1063.5436051239271,1,1,1,2.0,3.0
2021-09-24 11:47:17.307,1062.0,40.0,13.0,1062.8325361974953,1,1,1,2.0,3.0
2021-09-24 11:47:17.314,998.0,75.0,13.0,1000.8985962623786,1,1,1,2.0,3.0
2021-09-24 11:47:17.315,998.0,75.0,3.0,1000.8186648938956,1,1,1,2.0,3.0
2021-09-24 11:47:17.324,990.0,-20.0,2.0,990.2040193818646,1,1,1,2.0,3.0
2021-09-24 11:47:17.334,1006.0,84.0,47.0,1010.5943795608604,1,1,1,2.0,3.0
2021-09-24 11:47:17.344,1044.0,-35.0,-9.0,1044.625291671612,1,1,1,2.0,3.0
2021-09-24 11:47:17.354,992.0,3.0,-9.0,992.0453618660792,1,1,1,2.0,3.0
2021-09-24 11:47:17.355,992.0,3.0,8.0,992.0367936724928,1,1,1,2.0,3.0
2021-09-24 11:47:17.363,938.0,19.0,-14.0,938.296861339736,1,1,1,2.0,3.0
2021-09-24 11:47:17.373,1004.0,-19.0,11.0,1004.2400111527124,1,1,1,2.0,3.0
2021-09-24 11:47:17.385,986.0,28.0,20.0,986.6002229880144,1,1,1,2.0,3.0
2021-09-24 11:47:17.393,1006.0,-33.0,-17.0,1006.6846576758782,1,1,1,2.0,3.0
2021-09-24 11:47:17.403,1023.0,44.0,11.0,1024.0048828008585,1,1,1,2.0,3.0
2021-09-24 11:47:17.413,987.0,44.0,11.0,988.041497104246,1,1,1,2.0,3.0
2021-09-24 11:47:17.414,987.0,-11.0,-14.0,987.1605745774089,1,1,1,2.0,3.0
2021-09-24 11:47:17.422,963.0,-13.0,-7.0,963.1131813032152,1,1,1,2.0,3.0
2021-09-24 11:47:17.432,996.0,-2.0,23.0,996.267534350086,1,1,1,2.0,3.0
2021-09-24 11:47:17.447,1025.0,-16.0,23.0,1025.3828553277065,1,1,1,2.0,3.0
2021-09-24 11:47:17.448,1025.0,-16.0,-26.0,1025.4545333655706,1,1,1,2.0,3.0
2021-09-24 11:47:17.452,1026.0,-16.0,-26.0,1026.4540905466745,1,1,1,2.0,3.0
2021-09-24 11:47:17.453,1026.0,36.0,28.0,1027.013144998641,1,1,1,2.0,3.0
2021-09-24 11:47:17.462,970.0,50.0,37.0,971.9922839199908,1,1,1,2.0,3.0
2021-09-24 11:47:17.471,1086.0,50.0,43.0,1088.0004595587266,1,1,1,2.0,3.0
2021-09-24 11:47:17.480,994.0,50.0,43.0,996.185223741047,1,1,1,2.0,3.0
2021-09-24 11:47:17.481,994.0,61.0,61.0,997.7364381438616,1,1,1,2.0,3.0
2021-09-24 11:47:17.490,1046.0,-53.0,-7.0,1047.365265797945,1,1,1,2.0,3.0
2021-09-24 11:47:17.500,1043.0,25.0,15.0,1043.4073988620169,1,1,1,2.0,3.0
2021-09-24 11:47:17.511,1006.0,-6.0,-3.0,1006.0223655565516,1,1,1,2.0,3.0
2021-09-24 11:47:17.519,1047.0,-6.0,-3.0,1047.0214897508074,1,1,1,2.0,3.0
2021-09-24 11:47:17.520,1047.0,78.0,42.0,1050.7411669864275,1,1,1,2.0,3.0
2021-09-24 11:47:17.529,999.0,45.0,42.0,1000.8945998455582,1,1,1,2.0,3.0
2021-09-24 11:47:17.530,999.0,45.0,21.0,1000.2334727452386,1,1,1,2.0,3.0
2021-09-24 11:47:17.539,1037.0,31.0,8.0,1037.4940963687457,1,1,1,2.0,3.0
2021-09-24 11:47:17.549,1056.0,15.0,38.0,1056.7899507470725,1,1,1,2.0,3.0
2021-09-24 11:47:17.559,966.0,7.0,8.0,966.0584868422824,1,1,1,2.0,3.0
2021-09-24 11:47:17.569,1060.0,66.0,33.0,1062.565292111501,1,1,1,2.0,3.0
2021-09-24 11:47:17.578,1040.0,25.0,6.0,1040.3177399237215,1,1,1,2.0,3.0
2021-09-24 11:47:17.588,1067.0,-15.0,19.0,1067.274566360503,1,1,1,2.0,3.0
2021-09-24 11:47:17.598,1033.0,54.0,31.0,1034.8748716632365,1,1,1,2.0,3.0
2021-09-24 11:47:17.607,1005.0,54.0,31.0,1006.9270082781572,1,1,1,2.0,3.0
2021-09-24 11:47:17.608,1005.0,-10.0,0.0,1005.049750012406,1,1,1,2.0,3.0
2021-09-24 11:47:17.618,1043.0,76.0,31.0,1046.2246412697418,1,1,1,2.0,3.0
2021-09-24 11:47:17.627,990.0,17.0,-35.0,990.764351397445,1,1,1,2.0,3.0
2021-09-24 11:47:17.637,977.0,11.0,-17.0,977.2098034710868,1,1,1,2.0,3.0
2021-09-24 11:47:17.646,1026.0,11.0,-17.0,1026.1997856168164,1,1,1,2.0,3.0
2021-09-24 11:47:17.647,1026.0,30.0,33.0,1026.968840812612,1,1,1,2.0,3.0
2021-09-24 11:47:17.656,958.0,-6.0,-8.0,958.0521906451652,1,1,1,2.0,3.0
2021-09-24 11:47:17.667,1058.0,60.0,34.0,1060.2452546463012,1,1,1,2.0,3.0
2021-09-24 11:47:17.676,1037.0,36.0,-29.0,1038.0298646956169,1,1,1,2.0,3.0
2021-09-24 11:47:17.685,993.0,36.0,-29.0,994.0754498527764,1,1,1,2.0,3.0
2021-09-24 11:47:17.686,993.0,-20.0,14.0,993.300055370984,1,1,1,2.0,3.0
2021-09-24 11:47:17.695,982.0,27.0,14.0,982.4708647079566,1,1,1,2.0,3.0
2021-09-24 11:47:17.696,982.0,27.0,-3.0,982.3756918816752,1,1,1,2.0,3.0
2021-09-24 11:47:17.705,1016.0,27.0,-3.0,1016.363124085088,1,1,1,2.0,3.0
2021-09-24 11:47:17.706,1016.0,-15.0,5.0,1016.1230240477774,1,1,1,2.0,3.0
2021-09-24 11:47:17.715,1046.0,45.0,26.0,1047.2903131414898,1,1,1,2.0,3.0
2021-09-24 11:47:17.726,996.0,47.0,-20.0,997.3088789337032,1,1,1,2.0,3.0
2021-09-24 11:47:17.734,992.0,47.0,-20.0,993.3141497029025,1,1,1,2.0,3.0
2021-09-24 11:47:17.735,992.0,-45.0,-16.0,993.1490321195504,1,1,1,2.0,3.0
2021-09-24 11:47:17.752,995.0,31.0,6.0,995.5008789549108,1,1,1,2.0,3.0
2021-09-24 11:47:17.754,1007.0,31.0,6.0,1007.494913138523,1,1,1,2.0,3.0
2021-09-24 11:47:17.755,1007.0,68.0,2.0,1009.2952987109372,1,1,1,2.0,3.0
2021-09-24 11:47:17.764,1037.0,63.0,24.0,1039.1891069482974,1,1,1,2.0,3.0
2021-09-24 11:47:17.773,1037.0,63.0,24.0,1039.1891069482974,1,1,1,2.0,3.0
2021-09-24 11:47:17.774,1037.0,6.0,-17.0,1037.1566901871674,1,1,1,2.0,3.0
2021-09-24 11:47:17.784,998.0,21.0,27.0,998.5860003024276,1,1,1,2.0,3.0
2021-09-24 11:47:17.793,979.0,46.0,19.0,980.2642500876996,1,1,1,2.0,3.0
2021-09-24 11:47:17.803,990.0,102.0,-14.0,995.339138183564,1,1,1,2.0,3.0
2021-09-24 11:47:17.814,1030.0,90.0,19.0,1034.0991248424882,1,1,1,2.0,3.0
2021-09-24 11:47:17.832,1037.0,-1.0,-11.0,1037.0588218611324,1,1,1,2.0,3.0
2021-09-24 11:47:17.838,959.0,58.0,-4.0,960.7606361628268,1,1,1,2.0,3.0
2021-09-24 11:47:17.842,966.0,2.0,1.0,966.0025879882515,1,1,1,2.0,3.0
2021-09-24 11:47:17.852,1001.0,99.0,-6.0,1005.9015856434464,1,1,1,2.0,3.0
2021-09-24 11:47:17.862,1041.0,12.0,18.0,1041.2247595980418,1,1,1,2.0,3.0
2021-09-24 11:47:17.871,1041.0,53.0,7.0,1042.3718146611602,1,1,1,2.0,3.0
2021-09-24 11:47:17.881,1043.0,53.0,7.0,1044.369187596034,1,1,1,2.0,3.0
2021-09-24 11:47:17.882,1043.0,8.0,43.0,1043.9166633405175,1,1,1,2.0,3.0
2021-09-24 11:47:17.891,1027.0,37.0,48.0,1028.7866639882147,1,1,1,2.0,3.0
2021-09-24 11:47:17.900,974.0,120.0,48.0,982.5375310897798,1,1,1,2.0,3.0
2021-09-24 11:47:17.901,974.0,120.0,-19.0,981.548266770412,1,1,1,2.0,3.0
2021-09-24 11:47:17.910,1040.0,-23.0,6.0,1040.271599150914,1,1,1,2.0,3.0
2021-09-24 11:47:17.920,1017.0,-7.0,5.0,1017.0363808635362,1,1,1,2.0,3.0
2021-09-24 11:47:17.931,981.0,-15.0,-18.0,981.279776618269,1,1,1,2.0,3.0
2021-09-24 11:47:17.939,1008.0,-15.0,-18.0,1008.2722846533072,1,1,1,2.0,3.0
2021-09-24 11:47:17.940,1008.0,40.0,27.0,1009.154596679815,1,1,1,2.0,3.0
2021-09-24 11:47:17.949,1013.0,140.0,2.0,1022.6304317787536,1,1,1,2.0,3.0
2021-09-24 11:47:17.959,1036.0,140.0,2.0,1045.41857645634,1,1,1,2.0,3.0
2021-09-24 11:47:17.960,1036.0,43.0,19.0,1037.0660538268523,1,1,1,2.0,3.0
2021-09-24 11:47:17.969,1029.0,-43.0,4.0,1029.9058209370407,1,1,1,2.0,3.0
2021-09-24 11:47:17.993,974.0,-43.0,4.0,974.9569221252804,1,1,1,2.0,3.0
2021-09-24 11:47:17.994,974.0,35.0,-11.0,974.6907201774314,1,1,1,2.0,3.0
2021-09-24 11:47:17.995,993.0,35.0,-11.0,993.6775130795704,1,1,1,2.0,3.0
2021-09-24 11:47:17.996,993.0,-6.0,9.0,993.058910639243,1,1,1,2.0,3.0
2021-09-24 11:47:17.999,988.0,81.0,-6.0,991.3329410445313,1,1,1,2.0,3.0
2021-09-24 11:47:18.008,1060.0,-43.0,2.0,1060.8736965350777,1,1,1,2.0,3.0
2021-09-24 11:47:18.017,1000.0,-43.0,2.0,1000.92607119607,1,1,1,2.0,3.0
2021-09-24 11:47:18.018,1000.0,21.0,0.0,1000.220475695234,1,1,1,2.0,3.0
2021-09-24 11:47:18.028,1012.0,19.0,8.0,1012.2099584572364,1,1,1,2.0,3.0
2021-09-24 11:47:18.037,1035.0,39.0,27.0,1036.0863863597476,1,1,1,2.0,3.0
2021-09-24 11:47:18.047,995.0,120.0,27.0,1002.5736880648724,1,1,1,2.0,3.0
2021-09-24 11:47:18.048,995.0,120.0,5.0,1002.2225301798,1,1,1,2.0,3.0
2021-09-24 11:47:18.057,1019.0,3.0,15.0,1019.1148119814568,1,1,1,2.0,3.0
2021-09-24 11:47:18.066,989.0,3.0,15.0,989.118294239875,1,1,1,2.0,3.0
2021-09-24 11:47:18.067,989.0,26.0,-1.0,989.3422057104408,1,1,1,2.0,3.0
2021-09-24 11:47:18.076,964.0,50.0,-20.0,965.5029777271534,1,1,1,2.0,3.0
2021-09-24 11:47:18.087,1029.0,5.0,14.0,1029.1073802086933,1,1,1,2.0,3.0
2021-09-24 11:47:18.096,1051.0,74.0,18.0,1053.7556642789636,1,1,1,2.0,3.0
2021-09-24 11:47:18.106,1080.0,-45.0,18.0,1081.0869530245936,1,1,1,2.0,3.0
2021-09-24 11:47:18.107,1080.0,-45.0,21.0,1081.1410638764953,1,1,1,2.0,3.0
2021-09-24 11:47:18.115,963.0,1.0,21.0,963.229463835072,1,1,1,2.0,3.0
2021-09-24 11:47:18.116,963.0,1.0,15.0,963.117334492532,1,1,1,2.0,3.0
2021-09-24 11:47:18.125,1013.0,30.0,19.0,1013.622217593912,1,1,1,2.0,3.0
2021-09-24 11:47:18.136,1008.0,3.0,20.0,1008.2028565720292,1,1,1,2.0,3.0
2021-09-24 11:47:18.144,1047.0,3.0,20.0,1047.195301746527,1,1,1,2.0,3.0
2021-09-24 11:47:18.145,1047.0,51.0,11.0,1048.2990985401066,1,1,1,2.0,3.0
2021-09-24 11:47:18.154,1010.0,21.0,11.0,1010.2781795129498,1,1,1,2.0,3.0
2021-09-24 11:47:18.155,1010.0,21.0,3.0,1010.222747714582,1,1,1,2.0,3.0
2021-09-24 11:47:18.164,1016.0,21.0,3.0,1016.2214325628051,1,1,1,2.0,3.0
2021-09-24 11:47:18.165,1016.0,0.0,22.0,1016.2381610626516,1,1,1,2.0,3.0
2021-09-24 11:47:18.176,1032.0,24.0,9.0,1032.318264877649,1,1,1,2.0,3.0
2021-09-24 11:47:18.184,987.0,26.0,-1.0,987.3428988958192,1,1,1,2.0,3.0
2021-09-24 11:47:18.193,1037.0,8.0,-1.0,1037.031339931441,1,1,1,2.0,3.0
2021-09-24 11:47:18.194,1037.0,8.0,22.0,1037.2641900692415,1,1,1,2.0,3.0
2021-09-24 11:47:18.203,1014.0,-72.0,19.0,1016.730544441348,1,1,1,2.0,3.0
2021-09-24 11:47:18.214,975.0,-59.0,3.0,976.7881039406652,1,1,1,2.0,3.0
2021-09-24 11:47:18.223,1034.0,48.0,4.0,1035.1212489365678,1,1,1,2.0,3.0
2021-09-24 11:47:18.232,988.0,32.0,4.0,988.5261756777106,1,1,1,2.0,3.0
2021-09-24 11:47:18.233,988.0,32.0,2.0,988.5201060170704,1,1,1,2.0,3.0
2021-09-24 11:47:18.243,1077.0,11.0,2.0,1077.0580300058118,1,1,1,2.0,3.0
2021-09-24 11:47:18.244,1077.0,11.0,30.0,1077.473897595668,1,1,1,2.0,3.0
2021-09-24 11:47:18.273,996.0,11.0,30.0,996.5124183872472,1,1,1,2.0,3.0
2021-09-24 11:47:18.274,996.0,-74.0,0.0,998.7452127544842,1,1,1,2.0,3.0
2021-09-24 11:47:18.315,1001.0,53.0,24.0,1002.6893836079048,1,1,1,2.0,3.0
2021-09-24 11:47:18.318,970.0,-13.0,-2.0,970.0891711590228,1,1,1,2.0,3.0
2021-09-24 11:47:18.319,1065.0,49.0,30.0,1066.548639303431,1,1,1,2.0,3.0
2021-09-24 11:47:18.321,999.0,42.0,-4.0,999.8904940042185,1,1,1,2.0,3.0
2021-09-24 11:47:18.330,1035.0,-29.0,-9.0,1035.4453148283592,1,1,1,2.0,3.0
2021-09-24 11:47:18.340,1034.0,67.0,0.0,1036.1684226031982,1,1,1,2.0,3.0
2021-09-24 11:47:18.350,977.0,-14.0,29.0,977.5305621820733,1,1,1,2.0,3.0
2021-09-24 11:47:18.359,1061.0,25.0,29.0,1061.6906329058386,1,1,1,2.0,3.0
2021-09-24 11:47:18.360,1061.0,25.0,26.0,1061.6129238098038,1,1,1,2.0,3.0
2021-09-24 11:47:18.369,952.0,175.0,-3.0,967.9555774930996,1,1,1,2.0,3.0
2021-09-24 11:47:18.379,1004.0,63.0,-28.0,1006.3642481725988,1,1,1,2.0,3.0
2021-09-24 11:47:18.389,1002.0,110.0,28.0,1008.4086473250812,1,1,1,2.0,3.0
2021-09-24 11:47:18.400,1027.0,28.0,40.0,1028.1600070028012,1,1,1,2.0,3.0
2021-09-24 11:47:18.409,1050.0,14.0,45.0,1051.0570869367657,1,1,1,2.0,3.0
2021-09-24 11:47:18.418,950.0,189.0,13.0,968.705321550367,1,1,1,2.0,3.0
2021-09-24 11:47:18.428,1077.0,-8.0,10.0,1077.076134727717,1,1,1,2.0,3.0
2021-09-24 11:47:18.438,1015.0,113.0,11.0,1021.3300152252452,1,1,1,2.0,3.0
2021-09-24 11:47:18.448,1001.0,-31.0,5.0,1001.4923863914294,1,1,1,2.0,3.0
2021-09-24 11:47:18.464,1034.0,-31.0,5.0,1034.4766792924818,1,1,1,2.0,3.0
2021-09-24 11:47:18.465,1034.0,22.0,18.0,1034.390641875689,1,1,1,2.0,3.0
2021-09-24 11:47:18.468,942.0,95.0,-33.0,947.353154847758,1,1,1,2.0,3.0
2021-09-24 11:47:18.477,1043.0,24.0,19.0,1043.4490883603282,1,1,1,2.0,3.0
2021-09-24 11:47:18.487,960.0,-1.0,-8.0,960.0338535697582,1,1,1,2.0,3.0
2021-09-24 11:47:18.497,1009.0,-17.0,35.0,1009.749969051745,1,1,1,2.0,3.0
2021-09-24 11:47:18.509,1056.0,57.0,35.0,1058.1162507021618,1,1,1,2.0,3.0
2021-09-24 11:47:18.510,1056.0,57.0,24.0,1057.8095291686495,1,1,1,2.0,3.0
2021-09-24 11:47:18.516,1009.0,138.0,14.0,1018.4895679387196,1,1,1,2.0,3.0
2021-09-24 11:47:18.525,1023.0,138.0,14.0,1032.360886512076,1,1,1,2.0,3.0
2021-09-24 11:47:18.526,1023.0,28.0,19.0,1023.5594755557686,1,1,1,2.0,3.0
2021-09-24 11:47:18.535,977.0,28.0,19.0,977.5858018608905,1,1,1,2.0,3.0
2021-09-24 11:47:18.536,977.0,-52.0,-10.0,978.4339528041736,1,1,1,2.0,3.0
2021-09-24 11:47:18.546,1010.0,48.0,14.0,1011.236866416568,1,1,1,2.0,3.0
2021-09-24 11:47:18.555,1065.0,28.0,19.0,1065.5374230875234,1,1,1,2.0,3.0
2021-09-24 11:47:18.564,915.0,28.0,19.0,915.6254692831562,1,1,1,2.0,3.0
2021-09-24 11:47:18.565,915.0,125.0,-52.0,924.9616208254264,1,1,1,2.0,3.0
2021-09-24 11:47:18.574,1051.0,-1.0,-6.0,1051.0176021361392,1,1,1,2.0,3.0
2021-09-24 11:47:18.584,934.0,-37.0,-20.0,934.9465225348451,1,1,1,2.0,3.0
2021-09-24 11:47:18.595,1033.0,21.0,31.0,1033.6783832508058,1,1,1,2.0,3.0
2021-09-24 11:47:18.603,1037.0,21.0,31.0,1037.6757682436262,1,1,1,2.0,3.0
2021-09-24 11:47:18.604,1037.0,-35.0,-14.0,1037.684923278738,1,1,1,2.0,3.0
2021-09-24 11:47:18.613,996.0,85.0,-14.0,999.7184603677176,1,1,1,2.0,3.0
2021-09-24 11:47:18.614,996.0,85.0,0.0,999.6204279625342,1,1,1,2.0,3.0
2021-09-24 11:47:18.623,1014.0,24.0,25.0,1014.592036239197,1,1,1,2.0,3.0
2021-09-24 11:47:18.633,991.0,-8.0,10.0,991.0827412481764,1,1,1,2.0,3.0
2021-09-24 11:47:18.643,1029.0,30.0,10.0,1029.4857939767794,1,1,1,2.0,3.0
2021-09-24 11:47:18.644,1029.0,30.0,-1.0,1029.4377105973922,1,1,1,2.0,3.0
2021-09-24 11:47:18.653,1043.0,30.0,-1.0,1043.4318377354602,1,1,1,2.0,3.0
2021-09-24 11:47:18.654,1043.0,-7.0,-4.0,1043.0311596496051,1,1,1,2.0,3.0
2021-09-24 11:47:18.662,1071.0,40.0,10.0,1071.793356948997,1,1,1,2.0,3.0
2021-09-24 11:47:18.672,1019.0,54.0,-3.0,1020.4342212999328,1,1,1,2.0,3.0
2021-09-24 11:47:18.682,976.0,-20.0,0.0,976.2048965253146,1,1,1,2.0,3.0
2021-09-24 11:47:18.692,1022.0,11.0,20.0,1022.2548605900586,1,1,1,2.0,3.0
2021-09-24 11:47:18.702,1005.0,73.0,-14.0,1007.745007429955,1,1,1,2.0,3.0
2021-09-24 11:47:18.717,1090.0,73.0,-14.0,1092.5314640778086,1,1,1,2.0,3.0
2021-09-24 11:47:18.718,1090.0,-7.0,23.0,1090.2651053757522,1,1,1,2.0,3.0
2021-09-24 11:47:18.721,954.0,48.0,11.0,955.2701188669098,1,1,1,2.0,3.0
2021-09-24 11:47:18.731,961.0,20.0,-1.0,961.20861419361,1,1,1,2.0,3.0
2021-09-24 11:47:18.741,1037.0,32.0,12.0,1037.5630101348063,1,1,1,2.0,3.0
2021-09-24 11:47:18.751,976.0,-50.0,-18.0,977.445650662992,1,1,1,2.0,3.0
2021-09-24 11:47:18.767,1020.0,-50.0,-18.0,1021.3833756234728,1,1,1,2.0,3.0
2021-09-24 11:47:18.768,1020.0,29.0,-4.0,1020.4200115638658,1,1,1,2.0,3.0
2021-09-24 11:47:18.771,992.0,29.0,-4.0,992.4318616408888,1,1,1,2.0,3.0
2021-09-24 11:47:18.772,992.0,6.0,4.0,992.026209331185,1,1,1,2.0,3.0
2021-09-24 11:47:18.779,968.0,10.0,4.0,968.0599155011016,1,1,1,2.0,3.0
2021-09-24 11:47:18.780,968.0,10.0,-22.0,968.3016059059285,1,1,1,2.0,3.0
2021-09-24 11:47:18.789,1009.0,0.0,6.0,1009.0178392872942,1,1,1,2.0,3.0
2021-09-24 11:47:18.799,1018.0,4.0,-10.0,1018.056972865468,1,1,1,2.0,3.0
2021-09-24 11:47:18.808,1075.0,4.0,-10.0,1075.0539521344965,1,1,1,2.0,3.0
2021-09-24 11:47:18.809,1075.0,30.0,22.0,1075.6435283122378,1,1,1,2.0,3.0
2021-09-24 11:47:18.818,963.0,30.0,22.0,963.7183198424734,1,1,1,2.0,3.0
2021-09-24 11:47:18.819,963.0,36.0,-18.0,963.8407544817763,1,1,1,2.0,3.0
2021-09-24 11:47:18.828,1055.0,56.0,29.0,1056.883153428041,1,1,1,2.0,3.0
2021-09-24 11:47:18.838,1019.0,59.0,29.0,1021.118504386244,1,1,1,2.0,3.0
2021-09-24 11:47:18.839,1019.0,59.0,23.0,1020.9657193069706,1,1,1,2.0,3.0
2021-09-24 11:47:18.849,1028.0,-3.0,-16.0,1028.1288829713908,1,1,1,2.0,3.0
2021-09-24 11:47:18.857,1032.0,-3.0,-16.0,1032.128383487248,1,1,1,2.0,3.0
2021-09-24 11:47:18.858,1032.0,27.0,18.0,1032.5100483772542,1,1,1,2.0,3.0
2021-09-24 11:47:18.871,1006.0,-6.0,18.0,1006.1789105323168,1,1,1,2.0,3.0
2021-09-24 11:47:18.872,1006.0,-6.0,5.0,1006.0303176346129,1,1,1,2.0,3.0
2021-09-24 11:47:18.877,1033.0,101.0,50.0,1039.129443332254,1,1,1,2.0,3.0
2021-09-24 11:47:18.887,986.0,76.0,15.0,989.0384219028095,1,1,1,2.0,3.0
2021-09-24 11:47:18.896,1014.0,76.0,15.0,1016.9547679223496,1,1,1,2.0,3.0
2021-09-24 11:47:18.897,1014.0,54.0,-10.0,1015.486090500505,1,1,1,2.0,3.0
2021-09-24 11:47:18.908,1051.0,65.0,32.0,1053.4941860304689,1,1,1,2.0,3.0
2021-09-24 11:47:18.916,956.0,21.0,-11.0,956.2938878817536,1,1,1,2.0,3.0
2021-09-24 11:47:18.926,1067.0,-30.0,35.0,1067.9953183417988,1,1,1,2.0,3.0
2021-09-24 11:47:18.936,1003.0,96.0,6.0,1007.6016077795828,1,1,1,2.0,3.0
2021-09-24 11:47:18.945,998.0,57.0,6.0,999.6444367874008,1,1,1,2.0,3.0
2021-09-24 11:47:18.946,998.0,57.0,31.0,1000.1069942761123,1,1,1,2.0,3.0
2021-09-24 11:47:18.955,1053.0,59.0,45.0,1055.611197363878,1,1,1,2.0,3.0
2021-09-24 11:47:18.965,998.0,14.0,-2.0,998.100195371186,1,1,1,2.0,3.0
2021-09-24 11:47:18.975,1070.0,49.0,30.0,1071.5414131054386,1,1,1,2.0,3.0
2021-09-24 11:47:18.984,1018.0,120.0,30.0,1025.487201285321,1,1,1,2.0,3.0
2021-09-24 11:47:18.985,1018.0,120.0,0.0,1025.04829154533,1,1,1,2.0,3.0
2021-09-24 11:47:18.994,1004.0,51.0,0.0,1005.2944842184304,1,1,1,2.0,3.0
2021-09-24 11:47:18.995,1004.0,51.0,-8.0,1005.326315183284,1,1,1,2.0,3.0
2021-09-24 11:47:19.009,976.0,23.0,-15.0,976.3861940851068,1,1,1,2.0,3.0
2021-09-24 11:47:19.014,1014.0,29.0,-15.0,1014.5255048543628,1,1,1,2.0,3.0
2021-09-24 11:47:19.023,1087.0,29.0,-15.0,1087.4902298411696,1,1,1,2.0,3.0
2021-09-24 11:47:19.024,1087.0,-16.0,21.0,1087.3205599086225,1,1,1,2.0,3.0
2021-09-24 11:47:19.034,1007.0,-194.0,-13.0,1025.5993369732646,1,1,1,2.0,3.0
2021-09-24 11:47:19.043,936.0,-82.0,4.0,939.5935291390634,1,1,1,2.0,3.0
2021-09-24 11:47:19.054,1073.0,224.0,36.0,1096.7228455722077,1,1,1,2.0,3.0
2021-09-24 11:47:19.062,1131.0,224.0,36.0,1153.530667125933,1,1,1,2.0,3.0
2021-09-24 11:47:19.063,1131.0,183.0,25.0,1145.9821115532302,1,1,1,2.0,3.0
2021-09-24 11:47:19.073,1117.0,272.0,33.0,1150.113907402219,1,1,1,2.0,3.0
2021-09-24 11:47:19.082,1011.0,124.0,7.0,1018.6000196347928,1,1,1,2.0,3.0
2021-09-24 11:47:19.092,926.0,-47.0,1.0,927.1925366395052,1,1,1,2.0,3.0
2021-09-24 11:47:19.102,1028.0,13.0,1.0,1028.082681499888,1,1,1,2.0,3.0
2021-09-24 11:47:19.103,1028.0,13.0,51.0,1029.3463945630742,1,1,1,2.0,3.0
2021-09-24 11:47:19.111,1063.0,62.0,51.0,1066.0272041556914,1,1,1,2.0,3.0
2021-09-24 11:47:19.112,1063.0,62.0,2.0,1064.8084334752425,1,1,1,2.0,3.0
2021-09-24 11:47:19.122,1061.0,10.0,-2.0,1061.0490092356715,1,1,1,2.0,3.0
2021-09-24 11:47:19.131,1079.0,73.0,25.0,1081.7555176656138,1,1,1,2.0,3.0
2021-09-24 11:47:19.141,946.0,-15.0,37.0,946.8421198911676,1,1,1,2.0,3.0
2021-09-24 11:47:19.150,1037.0,-153.0,37.0,1048.878925329325,1,1,1,2.0,3.0
2021-09-24 11:47:19.151,1037.0,-153.0,37.0,1048.878925329325,1,1,1,2.0,3.0
2021-09-24 11:47:19.161,964.0,69.0,5.0,966.4791772200786,1,1,1,2.0,3.0
2021-09-24 11:47:19.170,1095.0,-26.0,2.0,1095.3104582719916,1,1,1,2.0,3.0
2021-09-24 11:47:19.180,1088.0,72.0,33.0,1090.879003372968,1,1,1,2.0,3.0
2021-09-24 11:47:19.189,1003.0,72.0,33.0,1006.1222589725364,1,1,1,2.0,3.0
2021-09-24 11:47:19.190,1003.0,19.0,7.0,1003.2043660192074,1,1,1,2.0,3.0
2021-09-24 11:47:19.199,1004.0,5.0,-5.0,1004.0249000896342,1,1,1,2.0,3.0
2021-09-24 11:47:19.210,987.0,4.0,4.0,987.0162106064926,1,1,1,2.0,3.0
2021-09-24 11:47:19.219,993.0,16.0,-7.0,993.153563151238,1,1,1,2.0,3.0
2021-09-24 11:47:19.228,961.0,16.0,-7.0,961.1586757658696,1,1,1,2.0,3.0
2021-09-24 11:47:19.229,961.0,70.0,2.0,963.5481306089488,1,1,1,2.0,3.0
2021-09-24 11:47:19.238,964.0,21.0,2.0,964.2307815040962,1,1,1,2.0,3.0
2021-09-24 11:47:19.239,964.0,21.0,-20.0,964.4361046746436,1,1,1,2.0,3.0
2021-09-24 11:47:19.249,1007.0,19.0,-21.0,1007.3981338080788,1,1,1,2.0,3.0
2021-09-24 11:47:19.258,1015.0,1.0,-21.0,1015.217710641417,1,1,1,2.0,3.0
2021-09-24 11:47:19.259,1015.0,1.0,3.0,1015.0049260964204,1,1,1,2.0,3.0
2021-09-24 11:47:19.267,1012.0,1.0,3.0,1012.004940699402,1,1,1,2.0,3.0
2021-09-24 11:47:19.268,1012.0,41.0,23.0,1013.0913088167324,1,1,1,2.0,3.0
2021-09-24 11:47:19.278,1022.0,33.0,19.0,1022.7091473141326,1,1,1,2.0,3.0
2021-09-24 11:47:19.287,1032.0,11.0,5.0,1032.070734010029,1,1,1,2.0,3.0
2021-09-24 11:47:19.297,999.0,56.0,19.0,1000.7487197093984,1,1,1,2.0,3.0
2021-09-24 11:47:19.307,1014.0,6.0,0.0,1014.0177513239104,1,1,1,2.0,3.0
2021-09-24 11:47:19.317,999.0,27.0,0.0,999.3647982593744,1,1,1,2.0,3.0
2021-09-24 11:47:19.318,999.0,27.0,7.0,999.3893135310184,1,1,1,2.0,3.0
2021-09-24 11:47:19.326,1021.0,20.0,15.0,1021.3060266149416,1,1,1,2.0,3.0
2021-09-24 11:47:19.336,1002.0,27.0,1.0,1002.3642052667284,1,1,1,2.0,3.0
2021-09-24 11:47:19.346,1020.0,9.0,16.0,1020.165182703272,1,1,1,2.0,3.0
2021-09-24 11:47:19.355,1012.0,9.0,16.0,1012.1664882814488,1,1,1,2.0,3.0
2021-09-24 11:47:19.356,1012.0,15.0,16.0,1012.237620324398,1,1,1,2.0,3.0
2021-09-24 11:47:19.366,1023.0,13.0,15.0,1023.192552748504,1,1,1,2.0,3.0
2021-09-24 11:47:19.376,1015.0,31.0,12.0,1015.5441890927248,1,1,1,2.0,3.0
2021-09-24 11:47:19.385,1012.0,36.0,12.0,1012.711212537908,1,1,1,2.0,3.0
2021-09-24 11:47:19.394,1007.0,36.0,12.0,1007.714741382699,1,1,1,2.0,3.0
2021-09-24 11:47:19.395,1007.0,8.0,3.0,1007.036245623761,1,1,1,2.0,3.0
2021-09-24 11:47:19.405,1002.0,33.0,1.0,1002.5437646307516,1,1,1,2.0,3.0
2021-09-24 11:47:19.414,1006.0,33.0,1.0,1006.5416037104476,1,1,1,2.0,3.0
2021-09-24 11:47:19.415,1006.0,20.0,-6.0,1006.2166764668532,1,1,1,2.0,3.0
