time_stamp,Acceleration_X,Acceleration_Y,Acceleration_Z,magnitude,STD_Status_right,STD_Status_left,STD_Status_both,KMeans,KMeans_convert
2021-08-12 09:15:53.265,1040.0,175.0,19.0,1054.7919226084357,1,1,1,1.0,3.0
2021-08-12 09:15:53.274,1223.0,-118.0,-18.0,1228.8112141415377,1,1,1,1.0,3.0
2021-08-12 09:15:53.284,994.0,-69.0,21.0,996.6132650130642,1,1,1,1.0,3.0
2021-08-12 09:15:53.293,956.0,-102.0,-1.0,961.426544255982,1,1,1,1.0,3.0
2021-08-12 09:15:53.304,950.0,139.0,-16.0,960.2484053618626,1,1,1,1.0,3.0
2021-08-12 09:15:53.315,1057.0,61.0,-16.0,1058.8795965547736,1,1,1,1.0,3.0
2021-08-12 09:15:53.316,1057.0,61.0,0.0,1058.758707166085,1,1,1,1.0,3.0
2021-08-12 09:15:53.323,1045.0,152.0,17.0,1056.1335142869011,1,1,1,1.0,3.0
2021-08-12 09:15:53.332,1017.0,152.0,17.0,1028.436677681227,1,1,1,1.0,3.0
2021-08-12 09:15:53.333,1017.0,37.0,11.0,1017.7322830685878,1,1,1,1.0,3.0
2021-08-12 09:15:53.342,1036.0,-8.0,36.0,1036.6561628621132,1,1,1,1.0,3.0
2021-08-12 09:15:53.353,947.0,103.0,2.0,952.5870039004312,1,1,1,1.0,3.0
2021-08-12 09:15:53.362,1071.0,-68.0,27.0,1073.4961574220931,1,1,1,1.0,3.0
2021-08-12 09:15:53.372,1104.0,-29.0,32.0,1104.8443329265892,1,1,1,1.0,3.0
2021-08-12 09:15:53.381,959.0,55.0,32.0,961.1087347433692,1,1,1,1.0,3.0
2021-08-12 09:15:53.382,959.0,55.0,3.0,960.5805536236928,1,1,1,1.0,3.0
2021-08-12 09:15:53.391,1011.0,13.0,30.0,1011.5285463099892,1,1,1,1.0,3.0
2021-08-12 09:15:53.401,994.0,111.0,-8.0,1000.2104778495376,1,1,1,1.0,3.0
2021-08-12 09:15:53.412,978.0,20.0,-25.0,978.5238883134126,1,1,1,1.0,3.0
2021-08-12 09:15:53.422,1049.0,-18.0,2.0,1049.156327722423,1,1,1,1.0,3.0
2021-08-12 09:15:53.430,995.0,84.0,26.0,998.8778704125946,1,1,1,1.0,3.0
2021-08-12 09:15:53.440,1005.0,62.0,32.0,1007.418979372535,1,1,1,1.0,3.0
2021-08-12 09:15:53.449,1076.0,101.0,32.0,1081.203496109775,1,1,1,1.0,3.0
2021-08-12 09:15:53.450,1076.0,101.0,31.0,1081.1743615162172,1,1,1,1.0,3.0
2021-08-12 09:15:53.460,1110.0,-11.0,12.0,1110.11936295157,1,1,1,1.0,3.0
2021-08-12 09:15:53.470,957.0,52.0,62.0,960.4150144598948,1,1,1,1.0,3.0
2021-08-12 09:15:53.479,958.0,47.0,37.0,959.865615594183,1,1,1,1.0,3.0
2021-08-12 09:15:53.488,940.0,47.0,37.0,941.901268711323,1,1,1,1.0,3.0
2021-08-12 09:15:53.489,940.0,106.0,1.0,945.958244321598,1,1,1,1.0,3.0
2021-08-12 09:15:53.498,1076.0,113.0,-13.0,1081.9953789180431,1,1,1,1.0,3.0
2021-08-12 09:15:53.509,1034.0,-7.0,-31.0,1034.488279295614,1,1,1,1.0,3.0
2021-08-12 09:15:53.522,1069.0,-101.0,11.0,1073.8170235193704,1,1,1,1.0,3.0
2021-08-12 09:15:53.528,859.0,228.0,-15.0,888.8700692452188,1,1,1,1.0,3.0
2021-08-12 09:15:53.537,980.0,140.0,30.0,990.4039579888604,1,1,1,1.0,3.0
2021-08-12 09:15:53.547,1125.0,84.0,62.0,1129.8340586121485,1,1,1,1.0,3.0
2021-08-12 09:15:53.558,1020.0,-106.0,-5.0,1025.5052413322908,1,1,1,1.0,3.0
2021-08-12 09:15:53.582,979.0,93.0,107.0,989.2113019977076,1,1,1,1.0,3.0
2021-08-12 09:15:53.584,988.0,26.0,12.0,988.4148926437724,1,1,1,1.0,3.0
2021-08-12 09:15:53.587,1070.0,59.0,7.0,1071.648263190866,1,1,1,1.0,3.0
2021-08-12 09:15:53.596,1049.0,61.0,-10.0,1050.8196800593337,1,1,1,1.0,3.0
2021-08-12 09:15:53.606,976.0,-9.0,-22.0,976.2894038142584,1,1,1,1.0,3.0
2021-08-12 09:15:53.616,1047.0,-55.0,-22.0,1048.6744013276953,1,1,1,1.0,3.0
2021-08-12 09:15:53.617,1047.0,-55.0,17.0,1048.581422684953,1,1,1,1.0,3.0
2021-08-12 09:15:53.625,918.0,199.0,5.0,939.334871065692,1,1,1,1.0,3.0
2021-08-12 09:15:53.635,1117.0,12.0,-27.0,1117.390710539514,1,1,1,1.0,3.0
2021-08-12 09:15:53.646,1149.0,74.0,59.0,1152.8911483743814,1,1,1,1.0,3.0
2021-08-12 09:15:53.654,1022.0,74.0,59.0,1026.372739310627,1,1,1,1.0,3.0
2021-08-12 09:15:53.655,1022.0,-32.0,36.0,1023.1343997735586,1,1,1,1.0,3.0
2021-08-12 09:15:53.665,982.0,86.0,89.0,989.7681546705774,1,1,1,1.0,3.0
2021-08-12 09:15:53.674,948.0,86.0,89.0,956.044455033342,1,1,1,1.0,3.0
2021-08-12 09:15:53.675,948.0,86.0,-21.0,952.1244666533888,1,1,1,1.0,3.0
2021-08-12 09:15:53.684,1061.0,36.0,22.0,1061.83849996127,1,1,1,1.0,3.0
2021-08-12 09:15:53.693,1013.0,-87.0,-12.0,1016.799881982684,1,1,1,1.0,3.0
2021-08-12 09:15:53.703,992.0,12.0,-12.0,992.1451506710094,1,1,1,1.0,3.0
2021-08-12 09:15:53.715,961.0,-39.0,10.0,961.8430225353824,1,1,1,1.0,3.0
2021-08-12 09:15:53.724,978.0,182.0,0.0,994.7904301912037,1,1,1,1.0,3.0
2021-08-12 09:15:53.733,1140.0,93.0,12.0,1143.8500775888422,1,1,1,1.0,3.0
2021-08-12 09:15:53.743,962.0,61.0,-15.0,964.0487539538652,1,1,1,1.0,3.0
2021-08-12 09:15:53.753,1053.0,1.0,51.0,1054.23479358253,1,1,1,1.0,3.0
2021-08-12 09:15:53.762,1028.0,42.0,70.0,1031.2361514221657,1,1,1,1.0,3.0
2021-08-12 09:15:53.772,998.0,93.0,70.0,1004.7651466885184,1,1,1,1.0,3.0
2021-08-12 09:15:53.773,998.0,93.0,0.0,1002.3237999768338,1,1,1,1.0,3.0
2021-08-12 09:15:53.782,977.0,97.0,-5.0,981.8161742403718,1,1,1,1.0,3.0
2021-08-12 09:15:53.791,985.0,-45.0,16.0,986.1571882818682,1,1,1,1.0,3.0
2021-08-12 09:15:53.802,1039.0,9.0,16.0,1039.162162513628,1,1,1,1.0,3.0
2021-08-12 09:15:53.803,1039.0,9.0,54.0,1040.441252546245,1,1,1,1.0,3.0
2021-08-12 09:15:53.822,997.0,40.0,39.0,998.5639689073504,1,1,1,1.0,3.0
2021-08-12 09:15:53.825,993.0,187.0,0.0,1010.4543532490718,1,1,1,1.0,3.0
2021-08-12 09:15:53.830,1068.0,17.0,0.0,1068.1352910563344,1,1,1,1.0,3.0
2021-08-12 09:15:53.831,1068.0,17.0,-2.0,1068.1371634766765,1,1,1,1.0,3.0
2021-08-12 09:15:53.852,980.0,-17.0,40.0,980.9633020658824,1,1,1,1.0,3.0
2021-08-12 09:15:53.854,836.0,91.0,17.0,841.1099809180723,1,1,1,1.0,3.0
2021-08-12 09:15:53.859,1003.0,155.0,-11.0,1014.9655166556151,1,1,1,1.0,3.0
2021-08-12 09:15:53.870,1077.0,54.0,27.0,1078.6908732347742,1,1,1,1.0,3.0
2021-08-12 09:15:53.880,998.0,62.0,8.0,999.9559990319574,1,1,1,1.0,3.0
2021-08-12 09:15:53.895,956.0,-100.0,9.0,961.2580298754336,1,1,1,1.0,3.0
2021-08-12 09:15:53.902,975.0,-25.0,55.0,976.8700015867004,1,1,1,1.0,3.0
2021-08-12 09:15:53.909,1102.0,56.0,20.0,1103.6031895568262,1,1,1,1.0,3.0
2021-08-12 09:15:53.918,999.0,219.0,20.0,1022.918374065106,1,1,1,1.0,3.0
2021-08-12 09:15:53.919,999.0,219.0,-9.0,1022.7624357591552,1,1,1,1.0,3.0
2021-08-12 09:15:53.928,1077.0,-4.0,-5.0,1077.0190341864902,1,1,1,1.0,3.0
2021-08-12 09:15:53.938,962.0,-20.0,7.0,962.2333396842992,1,1,1,1.0,3.0
2021-08-12 09:15:53.948,935.0,82.0,20.0,938.80189603558,1,1,1,1.0,3.0
2021-08-12 09:15:53.960,1002.0,71.0,3.0,1004.5167992622124,1,1,1,1.0,3.0
2021-08-12 09:15:53.967,1033.0,180.0,55.0,1050.0066666455027,1,1,1,1.0,3.0
2021-08-12 09:15:53.977,984.0,-1.0,-4.0,984.0086381734664,1,1,1,1.0,3.0
2021-08-12 09:15:53.987,998.0,-158.0,-13.0,1010.5132359350866,1,1,1,1.0,3.0
2021-08-12 09:15:53.997,936.0,8.0,24.0,936.34181792762,1,1,1,1.0,3.0
2021-08-12 09:15:54.008,1084.0,60.0,18.0,1085.8084545627742,1,1,1,1.0,3.0
2021-08-12 09:15:54.017,1109.0,-69.0,18.0,1111.2902411161542,1,1,1,1.0,3.0
2021-08-12 09:15:54.018,1109.0,-69.0,-6.0,1111.1606544510114,1,1,1,1.0,3.0
2021-08-12 09:15:54.026,1076.0,-84.0,-19.0,1079.4410590671453,1,1,1,1.0,3.0
2021-08-12 09:15:54.035,1014.0,-84.0,-19.0,1017.6507259369494,1,1,1,1.0,3.0
2021-08-12 09:15:54.036,1014.0,-13.0,46.0,1015.1261005412086,1,1,1,1.0,3.0
2021-08-12 09:15:54.046,1008.0,158.0,22.0,1020.5449524641234,1,1,1,1.0,3.0
2021-08-12 09:15:54.055,1055.0,84.0,-7.0,1058.3619418705491,1,1,1,1.0,3.0
2021-08-12 09:15:54.066,977.0,34.0,-11.0,977.6533127852632,1,1,1,1.0,3.0
2021-08-12 09:15:54.074,1011.0,-13.0,-11.0,1011.1434121824658,1,1,1,1.0,3.0
2021-08-12 09:15:54.075,1011.0,-13.0,0.0,1011.0835771586836,1,1,1,1.0,3.0
2021-08-12 09:15:54.084,938.0,-82.0,-19.0,941.7690799766152,1,1,1,1.0,3.0
2021-08-12 09:15:54.094,953.0,-82.0,-19.0,956.7099874047516,1,1,1,1.0,3.0
2021-08-12 09:15:54.097,953.0,66.0,19.0,955.4716112998858,1,1,1,1.0,3.0
2021-08-12 09:15:54.105,1094.0,81.0,46.0,1097.9585602380446,1,1,1,1.0,3.0
2021-08-12 09:15:54.114,1084.0,-92.0,-4.0,1087.904407565297,1,1,1,1.0,3.0
2021-08-12 09:15:54.124,975.0,95.0,19.0,979.8015105111853,1,1,1,1.0,3.0
2021-08-12 09:15:54.133,1031.0,-61.0,-22.0,1033.0372694148068,1,1,1,1.0,3.0
2021-08-12 09:15:54.143,999.0,175.0,32.0,1014.7167092346514,1,1,1,1.0,3.0
2021-08-12 09:15:54.153,1050.0,68.0,32.0,1052.6860880623435,1,1,1,1.0,3.0
2021-08-12 09:15:54.154,1050.0,68.0,2.0,1052.2015016145908,1,1,1,1.0,3.0
2021-08-12 09:15:54.163,938.0,44.0,-27.0,939.4195016072424,1,1,1,1.0,3.0
2021-08-12 09:15:54.173,934.0,67.0,49.0,937.6811824922156,1,1,1,1.0,3.0
2021-08-12 09:15:54.182,1015.0,93.0,14.0,1019.347830723154,1,1,1,1.0,3.0
2021-08-12 09:15:54.191,920.0,93.0,14.0,924.7945717833773,1,1,1,1.0,3.0
2021-08-12 09:15:54.192,920.0,48.0,-20.0,921.4683933809124,1,1,1,1.0,3.0
2021-08-12 09:15:54.201,1064.0,48.0,-20.0,1065.269918846862,1,1,1,1.0,3.0
2021-08-12 09:15:54.202,1064.0,87.0,39.0,1068.263076212971,1,1,1,1.0,3.0
2021-08-12 09:15:54.213,1106.0,-77.0,16.0,1108.7925865553034,1,1,1,1.0,3.0
2021-08-12 09:15:54.222,1015.0,-77.0,16.0,1018.0422388093727,1,1,1,1.0,3.0
2021-08-12 09:15:54.223,1015.0,41.0,52.0,1017.1578048660888,1,1,1,1.0,3.0
2021-08-12 09:15:54.231,963.0,50.0,-33.0,964.8616481133448,1,1,1,1.0,3.0
2021-08-12 09:15:54.241,920.0,205.0,8.0,942.5969446163084,1,1,1,1.0,3.0
2021-08-12 09:15:54.250,1083.0,-7.0,-20.0,1083.2072747170782,1,1,1,1.0,3.0
2021-08-12 09:15:54.261,925.0,39.0,-12.0,925.8995625876493,1,1,1,1.0,3.0
2021-08-12 09:15:54.270,953.0,98.0,34.0,958.6287081034033,1,1,1,1.0,3.0
2021-08-12 09:15:54.280,976.0,4.0,-41.0,976.8689779085012,1,1,1,1.0,3.0
2021-08-12 09:15:54.289,929.0,100.0,-17.0,934.5212678157732,1,1,1,1.0,3.0
2021-08-12 09:15:54.299,1064.0,77.0,14.0,1066.8744068539652,1,1,1,1.0,3.0
2021-08-12 09:15:54.310,1045.0,-73.0,0.0,1047.5466576721058,1,1,1,1.0,3.0
2021-08-12 09:15:54.319,992.0,8.0,25.0,992.3472174596956,1,1,1,1.0,3.0
2021-08-12 09:15:54.329,1050.0,28.0,13.0,1050.4537114980365,1,1,1,1.0,3.0
2021-08-12 09:15:54.338,1100.0,20.0,31.0,1100.618462501879,1,1,1,1.0,3.0
2021-08-12 09:15:54.348,1120.0,83.0,16.0,1123.185202893984,1,1,1,1.0,3.0
2021-08-12 09:15:54.358,980.0,3.0,-42.0,980.904174728602,1,1,1,1.0,3.0
2021-08-12 09:15:54.368,908.0,58.0,-42.0,910.8194112995176,1,1,1,1.0,3.0
2021-08-12 09:15:54.369,908.0,58.0,10.0,909.9054895976834,1,1,1,1.0,3.0
2021-08-12 09:15:54.379,982.0,114.0,9.0,988.635928944523,1,1,1,1.0,3.0
2021-08-12 09:15:54.387,1081.0,101.0,58.0,1087.2561795639515,1,1,1,1.0,3.0
2021-08-12 09:15:54.397,1061.0,27.0,10.0,1061.3905972826403,1,1,1,1.0,3.0
2021-08-12 09:15:54.406,979.0,-49.0,10.0,980.2764916083624,1,1,1,1.0,3.0
2021-08-12 09:15:54.407,979.0,-49.0,-2.0,980.2275246084452,1,1,1,1.0,3.0
2021-08-12 09:15:54.417,992.0,-49.0,-2.0,993.2114578477234,1,1,1,1.0,3.0
2021-08-12 09:15:54.418,992.0,-4.0,34.0,992.590550025538,1,1,1,1.0,3.0
2021-08-12 09:15:54.426,1055.0,0.0,-2.0,1055.001895732894,1,1,1,1.0,3.0
2021-08-12 09:15:54.436,1095.0,51.0,-1.0,1096.187483964308,1,1,1,1.0,3.0
2021-08-12 09:15:54.446,1004.0,41.0,-29.0,1005.2551914812476,1,1,1,1.0,3.0
2021-08-12 09:15:54.455,997.0,22.0,-29.0,997.6642721877936,1,1,1,1.0,3.0
2021-08-12 09:15:54.456,997.0,22.0,5.0,997.2552331274076,1,1,1,1.0,3.0
2021-08-12 09:15:54.466,875.0,119.0,19.0,883.2593050741101,1,1,1,1.0,3.0
2021-08-12 09:15:54.475,1007.0,38.0,-6.0,1007.7345880736652,1,1,1,1.0,3.0
2021-08-12 09:15:54.485,1074.0,78.0,29.0,1077.2191049178434,1,1,1,1.0,3.0
2021-08-12 09:15:54.494,1026.0,78.0,29.0,1029.369224331095,1,1,1,1.0,3.0
2021-08-12 09:15:54.495,1026.0,-72.0,3.0,1028.5275883514255,1,1,1,1.0,3.0
2021-08-12 09:15:54.504,1009.0,69.0,55.0,1012.8509268396806,1,1,1,1.0,3.0
2021-08-12 09:15:54.517,981.0,16.0,44.0,982.116591856588,1,1,1,1.0,3.0
2021-08-12 09:15:54.525,1074.0,44.0,0.0,1074.9009256671054,1,1,1,1.0,3.0
2021-08-12 09:15:54.533,1096.0,-13.0,-15.0,1096.17972978887,1,1,1,1.0,3.0
2021-08-12 09:15:54.543,1016.0,29.0,1.0,1016.4142856138928,1,1,1,1.0,3.0
2021-08-12 09:15:54.553,919.0,157.0,25.0,932.6494518306436,1,1,1,1.0,3.0
2021-08-12 09:15:54.563,908.0,82.0,28.0,912.124991434836,1,1,1,1.0,3.0
2021-08-12 09:15:54.573,1048.0,25.0,7.0,1048.32151556667,1,1,1,1.0,3.0
2021-08-12 09:15:54.582,1055.0,61.0,8.0,1056.792316399017,1,1,1,1.0,3.0
2021-08-12 09:15:54.606,1055.0,-10.0,18.0,1055.2009287334806,1,1,1,1.0,3.0
2021-08-12 09:15:54.608,991.0,-10.0,18.0,991.2139022431032,1,1,1,1.0,3.0
2021-08-12 09:15:54.609,991.0,100.0,35.0,996.6473799694654,1,1,1,1.0,3.0
2021-08-12 09:15:54.612,1045.0,142.0,38.0,1055.288112318148,1,1,1,1.0,3.0
2021-08-12 09:15:54.621,1089.0,73.0,26.0,1091.7536352126335,1,1,1,1.0,3.0
2021-08-12 09:15:54.631,1056.0,-69.0,-22.0,1058.4805147001998,1,1,1,1.0,3.0
2021-08-12 09:15:54.640,989.0,-69.0,-22.0,991.6481230759224,1,1,1,1.0,3.0
2021-08-12 09:15:54.641,989.0,6.0,-23.0,989.285600825161,1,1,1,1.0,3.0
2021-08-12 09:15:54.651,983.0,27.0,7.0,983.3956477430638,1,1,1,1.0,3.0
2021-08-12 09:15:54.661,1043.0,125.0,4.0,1050.471322788014,1,1,1,1.0,3.0
2021-08-12 09:15:54.671,1089.0,137.0,31.0,1098.0214023415026,1,1,1,1.0,3.0
2021-08-12 09:15:54.682,1019.0,84.0,16.0,1022.5815370912972,1,1,1,1.0,3.0
2021-08-12 09:15:54.689,1016.0,-42.0,29.0,1017.2811804019576,1,1,1,1.0,3.0
2021-08-12 09:15:54.700,963.0,180.0,75.0,982.5446554737348,1,1,1,1.0,3.0
2021-08-12 09:15:54.713,1088.0,108.0,44.0,1094.232150871103,1,1,1,1.0,3.0
2021-08-12 09:15:54.720,1053.0,-61.0,-4.0,1054.7729613523472,1,1,1,1.0,3.0
2021-08-12 09:15:54.729,1099.0,-62.0,3.0,1100.7515614342774,1,1,1,1.0,3.0
2021-08-12 09:15:54.739,959.0,71.0,10.0,961.6766608377268,1,1,1,1.0,3.0
2021-08-12 09:15:54.748,994.0,17.0,-2.0,994.1473733808284,1,1,1,1.0,3.0
2021-08-12 09:15:54.758,1020.0,131.0,-14.0,1028.4731401451377,1,1,1,1.0,3.0
2021-08-12 09:15:54.769,996.0,-82.0,-52.0,1000.721739546014,1,1,1,1.0,3.0
2021-08-12 09:15:54.778,971.0,87.0,9.0,974.9312796294928,1,1,1,1.0,3.0
2021-08-12 09:15:54.787,943.0,87.0,9.0,947.0475172872796,1,1,1,1.0,3.0
2021-08-12 09:15:54.788,943.0,29.0,32.0,943.988347385708,1,1,1,1.0,3.0
2021-08-12 09:15:54.798,966.0,114.0,-1.0,972.703963187156,1,1,1,1.0,3.0
2021-08-12 09:15:54.807,1148.0,106.0,41.0,1153.612153195345,1,1,1,1.0,3.0
2021-08-12 09:15:54.827,1066.0,-69.0,11.0,1068.2874145097844,1,1,1,1.0,3.0
2021-08-12 09:15:54.831,987.0,77.0,93.0,994.3575815570574,1,1,1,1.0,3.0
2021-08-12 09:15:54.836,1016.0,63.0,93.0,1022.1907845407334,1,1,1,1.0,3.0
2021-08-12 09:15:54.837,1016.0,63.0,44.0,1018.9018598471592,1,1,1,1.0,3.0
2021-08-12 09:15:54.846,1004.0,-9.0,44.0,1005.0039800916212,1,1,1,1.0,3.0
2021-08-12 09:15:54.847,1004.0,-9.0,-23.0,1004.3037389156729,1,1,1,1.0,3.0
2021-08-12 09:15:54.873,1064.0,114.0,-3.0,1070.0939211116004,1,1,1,1.0,3.0
2021-08-12 09:15:54.874,937.0,-63.0,-70.0,941.7207654076658,1,1,1,1.0,3.0
2021-08-12 09:15:54.876,1018.0,-63.0,-70.0,1022.3468100405069,1,1,1,1.0,3.0
2021-08-12 09:15:54.877,1018.0,-18.0,31.0,1018.630943963514,1,1,1,1.0,3.0
2021-08-12 09:15:54.888,961.0,56.0,31.0,963.1292748120576,1,1,1,1.0,3.0
2021-08-12 09:15:54.889,961.0,56.0,33.0,963.1957225818644,1,1,1,1.0,3.0
2021-08-12 09:15:54.894,930.0,97.0,33.0,935.6270624559768,1,1,1,1.0,3.0
2021-08-12 09:15:54.895,930.0,97.0,0.0,935.0449187071176,1,1,1,1.0,3.0
2021-08-12 09:15:54.906,1164.0,62.0,63.0,1167.3512753237562,1,1,1,1.0,3.0
2021-08-12 09:15:54.914,1030.0,62.0,63.0,1033.7857611710465,1,1,1,1.0,3.0
2021-08-12 09:15:54.915,1030.0,-67.0,14.0,1032.2717665421253,1,1,1,1.0,3.0
2021-08-12 09:15:54.924,961.0,89.0,90.0,969.2997472402436,1,1,1,1.0,3.0
2021-08-12 09:15:54.934,956.0,86.0,-8.0,959.8937441196292,1,1,1,1.0,3.0
2021-08-12 09:15:54.943,995.0,24.0,-33.0,995.8363319341186,1,1,1,1.0,3.0
2021-08-12 09:15:54.954,1048.0,68.0,-33.0,1050.722132630697,1,1,1,1.0,3.0
2021-08-12 09:15:54.955,1048.0,68.0,-14.0,1050.2971008243337,1,1,1,1.0,3.0
2021-08-12 09:15:54.963,941.0,-50.0,-35.0,942.9772001485508,1,1,1,1.0,3.0
2021-08-12 09:15:54.973,1021.0,7.0,23.0,1021.2830166021562,1,1,1,1.0,3.0
2021-08-12 09:15:54.983,937.0,222.0,-10.0,962.9916925913744,1,1,1,1.0,3.0
2021-08-12 09:15:55.007,972.0,-9.0,-57.0,973.7114562333136,1,1,1,1.0,3.0
2021-08-12 09:15:55.037,1018.0,-63.0,29.0,1020.3597404837178,1,1,1,1.0,3.0
2021-08-12 09:15:55.039,1010.0,-63.0,29.0,1012.3783877582532,1,1,1,1.0,3.0
2021-08-12 09:15:55.040,1010.0,84.0,87.0,1017.2143333634264,1,1,1,1.0,3.0
2021-08-12 09:15:55.043,955.0,71.0,-18.0,957.8047817796694,1,1,1,1.0,3.0
2021-08-12 09:15:55.045,1046.0,80.0,5.0,1049.066728096931,1,1,1,1.0,3.0
2021-08-12 09:15:55.051,1054.0,42.0,4.0,1054.844064305241,1,1,1,1.0,3.0
2021-08-12 09:15:55.060,952.0,-10.0,4.0,952.0609224204088,1,1,1,1.0,3.0
2021-08-12 09:15:55.061,952.0,-10.0,-17.0,952.204284804474,1,1,1,1.0,3.0
2021-08-12 09:15:55.072,1015.0,-15.0,29.0,1015.5249873833732,1,1,1,1.0,3.0
2021-08-12 09:15:55.080,973.0,217.0,-17.0,997.0491462310172,1,1,1,1.0,3.0
2021-08-12 09:15:55.090,1093.0,61.0,-17.0,1094.832863956869,1,1,1,1.0,3.0
2021-08-12 09:15:55.091,1093.0,61.0,19.0,1094.8657451943595,1,1,1,1.0,3.0
2021-08-12 09:15:55.100,1093.0,77.0,56.0,1097.139006689672,1,1,1,1.0,3.0
2021-08-12 09:15:55.110,1016.0,-62.0,17.0,1018.031924843224,1,1,1,1.0,3.0
2021-08-12 09:15:55.121,1043.0,75.0,71.0,1048.100663104456,1,1,1,1.0,3.0
2021-08-12 09:15:55.129,984.0,151.0,-6.0,995.5365387568656,1,1,1,1.0,3.0
2021-08-12 09:15:55.139,994.0,107.0,8.0,999.77447456914,1,1,1,1.0,3.0
2021-08-12 09:15:55.149,987.0,-92.0,3.0,991.2830070166642,1,1,1,1.0,3.0
2021-08-12 09:15:55.158,950.0,7.0,3.0,950.0305258253547,1,1,1,1.0,3.0
2021-08-12 09:15:55.159,950.0,7.0,-35.0,950.6702898481682,1,1,1,1.0,3.0
2021-08-12 09:15:55.169,996.0,13.0,18.0,996.2474592188428,1,1,1,1.0,3.0
2021-08-12 09:15:55.179,991.0,229.0,-4.0,1017.1224115120068,1,1,1,1.0,3.0
2021-08-12 09:15:55.188,1068.0,0.0,-24.0,1068.2696288858913,1,1,1,1.0,3.0
2021-08-12 09:15:55.198,961.0,0.0,12.0,961.074919035972,1,1,1,1.0,3.0
2021-08-12 09:15:55.207,1067.0,0.0,12.0,1067.0674767792334,1,1,1,1.0,3.0
2021-08-12 09:15:55.208,1067.0,-108.0,10.0,1072.4984848474146,1,1,1,1.0,3.0
2021-08-12 09:15:55.218,1021.0,87.0,41.0,1025.519868164435,1,1,1,1.0,3.0
2021-08-12 09:15:55.229,1046.0,89.0,11.0,1049.837130225446,1,1,1,1.0,3.0
2021-08-12 09:15:55.237,978.0,51.0,-1.0,979.3293623699844,1,1,1,1.0,3.0
2021-08-12 09:15:55.246,965.0,51.0,-1.0,966.3472460766884,1,1,1,1.0,3.0
2021-08-12 09:15:55.247,965.0,-154.0,-20.0,977.4154694908405,1,1,1,1.0,3.0
2021-08-12 09:15:55.256,960.0,40.0,37.0,961.5451107462404,1,1,1,1.0,3.0
2021-08-12 09:15:55.267,970.0,13.0,-4.0,970.0953561377356,1,1,1,1.0,3.0
2021-08-12 09:15:55.275,996.0,143.0,-4.0,1006.221148654708,1,1,1,1.0,3.0
2021-08-12 09:15:55.276,996.0,143.0,-21.0,1006.4323126768138,1,1,1,1.0,3.0
2021-08-12 09:15:55.286,1039.0,-40.0,0.0,1039.7696860362876,1,1,1,1.0,3.0
2021-08-12 09:15:55.295,999.0,16.0,23.0,999.3928156635908,1,1,1,1.0,3.0
2021-08-12 09:15:55.305,942.0,144.0,0.0,952.9428104561156,1,1,1,1.0,3.0
2021-08-12 09:15:55.315,978.0,196.0,80.0,1000.649788887201,1,1,1,1.0,3.0
2021-08-12 09:15:55.325,1056.0,114.0,25.0,1062.4297623843188,1,1,1,1.0,3.0
2021-08-12 09:15:55.335,986.0,8.0,9.0,986.0735266702984,1,1,1,1.0,3.0
2021-08-12 09:15:55.344,995.0,-138.0,-9.0,1004.5645822942396,1,1,1,1.0,3.0
2021-08-12 09:15:55.354,950.0,53.0,26.0,951.8324432377792,1,1,1,1.0,3.0
2021-08-12 09:15:55.363,1108.0,112.0,31.0,1114.0776454089723,1,1,1,1.0,3.0
2021-08-12 09:15:55.374,1052.0,131.0,19.0,1060.2952419019905,1,1,1,1.0,3.0
2021-08-12 09:15:55.385,1019.0,-23.0,-46.0,1020.2970155792872,1,1,1,1.0,3.0
2021-08-12 09:15:55.393,1012.0,19.0,21.0,1012.3961675154644,1,1,1,1.0,3.0
2021-08-12 09:15:55.402,929.0,19.0,21.0,929.431546699379,1,1,1,1.0,3.0
2021-08-12 09:15:55.403,929.0,172.0,-2.0,944.7904529576916,1,1,1,1.0,3.0
2021-08-12 09:15:55.412,1092.0,17.0,-12.0,1092.1982420787904,1,1,1,1.0,3.0
2021-08-12 09:15:55.424,1098.0,122.0,61.0,1106.4397859802402,1,1,1,1.0,3.0
2021-08-12 09:15:55.434,1061.0,-32.0,-2.0,1061.4843380851175,1,1,1,1.0,3.0
2021-08-12 09:15:55.441,961.0,-32.0,-2.0,961.5347107619152,1,1,1,1.0,3.0
2021-08-12 09:15:55.442,961.0,-79.0,-18.0,964.4096639913972,1,1,1,1.0,3.0
2021-08-12 09:15:55.451,914.0,63.0,-18.0,916.3454588745448,1,1,1,1.0,3.0
2021-08-12 09:15:55.452,914.0,63.0,18.0,916.3454588745448,1,1,1,1.0,3.0
2021-08-12 09:15:55.461,1074.0,78.0,31.0,1077.2748024529303,1,1,1,1.0,3.0
2021-08-12 09:15:55.472,1075.0,-41.0,0.0,1075.7815763434508,1,1,1,1.0,3.0
2021-08-12 09:15:55.482,996.0,-79.0,-42.0,1000.0104999448756,1,1,1,1.0,3.0
2021-08-12 09:15:55.490,1053.0,24.0,-42.0,1054.110525514284,1,1,1,1.0,3.0
2021-08-12 09:15:55.491,1053.0,24.0,25.0,1053.570121064564,1,1,1,1.0,3.0
2021-08-12 09:15:55.500,916.0,206.0,0.0,938.8780538493804,1,1,1,1.0,3.0
2021-08-12 09:15:55.510,1099.0,63.0,6.0,1100.8206030048675,1,1,1,1.0,3.0
2021-08-12 09:15:55.520,960.0,34.0,6.0,960.6206327161624,1,1,1,1.0,3.0
2021-08-12 09:15:55.521,960.0,34.0,-8.0,960.6352065170212,1,1,1,1.0,3.0
2021-08-12 09:15:55.531,962.0,17.0,6.0,962.1689040911684,1,1,1,1.0,3.0
2021-08-12 09:15:55.540,984.0,38.0,64.0,986.811025475496,1,1,1,1.0,3.0
2021-08-12 09:15:55.549,957.0,43.0,12.0,958.040708947172,1,1,1,1.0,3.0
2021-08-12 09:15:55.559,1045.0,67.0,26.0,1047.46837661096,1,1,1,1.0,3.0
2021-08-12 09:15:55.569,1077.0,-82.0,-8.0,1080.146749289188,1,1,1,1.0,3.0
2021-08-12 09:15:55.579,1017.0,-82.0,-8.0,1020.3318087759492,1,1,1,1.0,3.0
2021-08-12 09:15:55.580,1017.0,57.0,43.0,1019.5033104409224,1,1,1,1.0,3.0
2021-08-12 09:15:55.589,1040.0,18.0,22.0,1040.388389016333,1,1,1,1.0,3.0
2021-08-12 09:15:55.598,909.0,217.0,2.0,934.5448089845664,1,1,1,1.0,3.0
2021-08-12 09:15:55.607,1130.0,217.0,2.0,1150.648947333634,1,1,1,1.0,3.0
2021-08-12 09:15:55.608,1130.0,57.0,7.0,1131.458350978948,1,1,1,1.0,3.0
2021-08-12 09:15:55.617,997.0,57.0,7.0,998.6525922461724,1,1,1,1.0,3.0
2021-08-12 09:15:55.618,997.0,65.0,-12.0,999.1886708725234,1,1,1,1.0,3.0
2021-08-12 09:15:55.646,969.0,50.0,5.0,970.3020148386788,1,1,1,1.0,3.0
2021-08-12 09:15:55.648,960.0,16.0,-59.0,961.9443850867888,1,1,1,1.0,3.0
2021-08-12 09:15:55.651,953.0,74.0,1.0,955.8692379190784,1,1,1,1.0,3.0
2021-08-12 09:15:55.656,1043.0,82.0,1.0,1046.2189063479975,1,1,1,1.0,3.0
2021-08-12 09:15:55.657,1043.0,82.0,14.0,1046.3120949315266,1,1,1,1.0,3.0
2021-08-12 09:15:55.666,1050.0,-64.0,-21.0,1052.1582580581687,1,1,1,1.0,3.0
2021-08-12 09:15:55.679,963.0,95.0,0.0,967.6745320612712,1,1,1,1.0,3.0
2021-08-12 09:15:55.687,1010.0,19.0,-5.0,1010.191071035574,1,1,1,1.0,3.0
2021-08-12 09:15:55.696,923.0,205.0,-3.0,945.496166041936,1,1,1,1.0,3.0
2021-08-12 09:15:55.705,1141.0,205.0,-3.0,1159.2734793826692,1,1,1,1.0,3.0
2021-08-12 09:15:55.706,1141.0,64.0,16.0,1142.9055079051811,1,1,1,1.0,3.0
2021-08-12 09:15:55.715,957.0,62.0,-24.0,959.306520357284,1,1,1,1.0,3.0
2021-08-12 09:15:55.725,950.0,48.0,21.0,951.443639949314,1,1,1,1.0,3.0
2021-08-12 09:15:55.735,969.0,48.0,21.0,970.41537498125,1,1,1,1.0,3.0
2021-08-12 09:15:55.736,969.0,42.0,-9.0,969.9515451815106,1,1,1,1.0,3.0
2021-08-12 09:15:55.744,1083.0,102.0,40.0,1088.527905016679,1,1,1,1.0,3.0
2021-08-12 09:15:55.754,1038.0,106.0,-8.0,1043.4289626035882,1,1,1,1.0,3.0
2021-08-12 09:15:55.764,1012.0,-86.0,-14.0,1015.744062251904,1,1,1,1.0,3.0
2021-08-12 09:15:55.775,1003.0,61.0,34.0,1005.4282669589114,1,1,1,1.0,3.0
2021-08-12 09:15:55.784,1027.0,23.0,0.0,1027.2575139661917,1,1,1,1.0,3.0
2021-08-12 09:15:55.794,1074.0,45.0,17.0,1075.0767414468603,1,1,1,1.0,3.0
2021-08-12 09:15:55.803,968.0,-20.0,-31.0,968.702740782744,1,1,1,1.0,3.0
2021-08-12 09:15:55.813,983.0,20.0,-22.0,983.449541156027,1,1,1,1.0,3.0
2021-08-12 09:15:55.822,910.0,43.0,-22.0,911.2809665520288,1,1,1,1.0,3.0
2021-08-12 09:15:55.823,910.0,43.0,18.0,911.19317381113,1,1,1,1.0,3.0
2021-08-12 09:15:55.845,976.0,67.0,3.0,978.3015894906846,1,1,1,1.0,3.0
2021-08-12 09:15:55.847,1068.0,66.0,28.0,1070.403662176097,1,1,1,1.0,3.0
2021-08-12 09:15:55.852,1071.0,-48.0,24.0,1072.3436949038307,1,1,1,1.0,3.0
2021-08-12 09:15:55.861,1002.0,-48.0,24.0,1003.4360966200088,1,1,1,1.0,3.0
2021-08-12 09:15:55.862,1002.0,-138.0,-16.0,1011.5848951027294,1,1,1,1.0,3.0
2021-08-12 09:15:55.872,976.0,62.0,59.0,979.7453750847716,1,1,1,1.0,3.0
2021-08-12 09:15:55.894,1058.0,38.0,17.0,1058.81868136145,1,1,1,1.0,3.0
2021-08-12 09:15:55.895,1097.0,38.0,17.0,1097.789597327284,1,1,1,1.0,3.0
2021-08-12 09:15:55.896,1097.0,-1.0,0.0,1097.0004557884197,1,1,1,1.0,3.0
2021-08-12 09:15:55.901,982.0,-1.0,0.0,982.0005091648376,1,1,1,1.0,3.0
2021-08-12 09:15:55.902,982.0,3.0,-28.0,982.4036848465096,1,1,1,1.0,3.0
2021-08-12 09:15:55.910,993.0,0.0,-28.0,993.3946849062562,1,1,1,1.0,3.0
2021-08-12 09:15:55.911,993.0,0.0,15.0,993.1132865891988,1,1,1,1.0,3.0
2021-08-12 09:15:55.920,896.0,64.0,20.0,898.505425693134,1,1,1,1.0,3.0
2021-08-12 09:15:55.930,1009.0,83.0,6.0,1012.425799750283,1,1,1,1.0,3.0
2021-08-12 09:15:55.941,1057.0,57.0,19.0,1058.7062859924845,1,1,1,1.0,3.0
2021-08-12 09:15:55.951,1083.0,-97.0,24.0,1087.6001103346762,1,1,1,1.0,3.0
2021-08-12 09:15:55.959,975.0,196.0,69.0,996.8961831605136,1,1,1,1.0,3.0
2021-08-12 09:15:55.969,936.0,54.0,56.0,939.2273420210892,1,1,1,1.0,3.0
2021-08-12 09:15:55.979,1118.0,36.0,19.0,1118.7408100181203,1,1,1,1.0,3.0
2021-08-12 09:15:55.988,1084.0,31.0,6.0,1084.4597733433914,1,1,1,1.0,3.0
2021-08-12 09:15:56.000,953.0,11.0,-25.0,953.3913152530812,1,1,1,1.0,3.0
2021-08-12 09:15:56.010,987.0,0.0,0.0,987.0,1,1,1,1.0,3.0
2021-08-12 09:15:56.018,982.0,175.0,-4.0,997.4793230939677,1,1,1,1.0,3.0
2021-08-12 09:15:56.028,1038.0,87.0,12.0,1041.708692485572,1,1,1,1.0,3.0
2021-08-12 09:15:56.038,1033.0,69.0,9.0,1035.3410066253534,1,1,1,1.0,3.0
2021-08-12 09:15:56.048,1032.0,69.0,9.0,1034.343269906079,1,1,1,1.0,3.0
2021-08-12 09:15:56.049,1032.0,-134.0,8.0,1040.693999213986,1,1,1,1.0,3.0
2021-08-12 09:15:56.058,993.0,174.0,57.0,1009.739570384364,1,1,1,1.0,3.0
2021-08-12 09:15:56.066,1080.0,174.0,57.0,1095.4108818155862,1,1,1,1.0,3.0
2021-08-12 09:15:56.067,1080.0,90.0,28.0,1084.1051609507265,1,1,1,1.0,3.0
2021-08-12 09:15:56.076,1095.0,90.0,28.0,1099.0491344794373,1,1,1,1.0,3.0
2021-08-12 09:15:56.077,1095.0,33.0,22.0,1095.7180294218033,1,1,1,1.0,3.0
2021-08-12 09:15:56.086,1101.0,-40.0,14.0,1101.8153202783124,1,1,1,1.0,3.0
2021-08-12 09:15:56.097,974.0,60.0,0.0,975.8462993730108,1,1,1,1.0,3.0
2021-08-12 09:15:56.107,967.0,-21.0,-21.0,967.4559421493052,1,1,1,1.0,3.0
2021-08-12 09:15:56.115,1033.0,-21.0,-21.0,1033.4268237277374,1,1,1,1.0,3.0
2021-08-12 09:15:56.116,1033.0,160.0,7.0,1045.3410926582767,1,1,1,1.0,3.0
2021-08-12 09:15:56.125,1027.0,-24.0,7.0,1027.3042392592372,1,1,1,1.0,3.0
2021-08-12 09:15:56.126,1027.0,-24.0,-34.0,1027.8428868265812,1,1,1,1.0,3.0
2021-08-12 09:15:56.135,1016.0,67.0,18.0,1018.3658478169816,1,1,1,1.0,3.0
2021-08-12 09:15:56.145,988.0,67.0,18.0,990.4327337078475,1,1,1,1.0,3.0
2021-08-12 09:15:56.146,988.0,-31.0,42.0,989.3780874872862,1,1,1,1.0,3.0
2021-08-12 09:15:56.155,940.0,248.0,71.0,974.753815073324,1,1,1,1.0,3.0
2021-08-12 09:15:56.164,1130.0,82.0,30.0,1133.3684308290929,1,1,1,1.0,3.0
2021-08-12 09:15:56.174,1029.0,-26.0,0.0,1029.3284218362962,1,1,1,1.0,3.0
2021-08-12 09:15:56.184,990.0,-8.0,44.0,991.0095862301232,1,1,1,1.0,3.0
2021-08-12 09:15:56.194,979.0,78.0,24.0,982.3955415208276,1,1,1,1.0,3.0
2021-08-12 09:15:56.204,1011.0,48.0,-8.0,1012.1704401927572,1,1,1,1.0,3.0
2021-08-12 09:15:56.214,1037.0,101.0,-27.0,1042.25668623425,1,1,1,1.0,3.0
2021-08-12 09:15:56.223,1009.0,-4.0,-25.0,1009.31759124668,1,1,1,1.0,3.0
2021-08-12 09:15:56.233,1002.0,15.0,20.0,1002.311827726282,1,1,1,1.0,3.0
2021-08-12 09:15:56.243,981.0,0.0,40.0,981.8151557192424,1,1,1,1.0,3.0
2021-08-12 09:15:56.253,976.0,101.0,18.0,981.3770936801,1,1,1,1.0,3.0
2021-08-12 09:15:56.263,1128.0,99.0,18.0,1132.4791388807123,1,1,1,1.0,3.0
2021-08-12 09:15:56.264,1128.0,99.0,45.0,1133.229897240626,1,1,1,1.0,3.0
2021-08-12 09:15:56.272,1148.0,-46.0,20.0,1149.0952963092311,1,1,1,1.0,3.0
2021-08-12 09:15:56.281,887.0,-46.0,20.0,888.4171317573745,1,1,1,1.0,3.0
2021-08-12 09:15:56.282,887.0,59.0,56.0,890.7221789087773,1,1,1,1.0,3.0
2021-08-12 09:15:56.292,915.0,58.0,-13.0,916.928568646435,1,1,1,1.0,3.0
2021-08-12 09:15:56.301,971.0,3.0,-46.0,972.0936168908836,1,1,1,1.0,3.0
2021-08-12 09:15:56.312,1025.0,81.0,-22.0,1028.4308435670334,1,1,1,1.0,3.0
2021-08-12 09:15:56.321,988.0,-64.0,-36.0,990.7249870675514,1,1,1,1.0,3.0
2021-08-12 09:15:56.330,1000.0,23.0,26.0,1000.6023186061484,1,1,1,1.0,3.0
2021-08-12 09:15:56.340,922.0,193.0,6.0,942.0026539240748,1,1,1,1.0,3.0
2021-08-12 09:15:56.350,1115.0,36.0,-6.0,1115.5971495123138,1,1,1,1.0,3.0
2021-08-12 09:15:56.360,1129.0,98.0,36.0,1133.8170046352277,1,1,1,1.0,3.0
2021-08-12 09:15:56.370,1074.0,98.0,36.0,1079.062556110627,1,1,1,1.0,3.0
2021-08-12 09:15:56.371,1074.0,-101.0,14.0,1078.8294582555668,1,1,1,1.0,3.0
2021-08-12 09:15:56.379,1002.0,8.0,70.0,1004.473991699138,1,1,1,1.0,3.0
2021-08-12 09:15:56.389,935.0,56.0,-8.0,936.7096668658864,1,1,1,1.0,3.0
2021-08-12 09:15:56.399,1098.0,40.0,32.0,1099.1942503488635,1,1,1,1.0,3.0
2021-08-12 09:15:56.409,1063.0,38.0,-11.0,1063.7358694713646,1,1,1,1.0,3.0
2021-08-12 09:15:56.420,949.0,-28.0,-14.0,949.5161925949446,1,1,1,1.0,3.0
2021-08-12 09:15:56.428,1009.0,-27.0,19.0,1009.5399942548092,1,1,1,1.0,3.0
2021-08-12 09:15:56.438,1003.0,162.0,-14.0,1016.094975875779,1,1,1,1.0,3.0
2021-08-12 09:15:56.448,1107.0,85.0,12.0,1110.323376318809,1,1,1,1.0,3.0
2021-08-12 09:15:56.458,968.0,70.0,-29.0,970.9608642988655,1,1,1,1.0,3.0
2021-08-12 09:15:56.468,1036.0,-87.0,30.0,1040.079323897942,1,1,1,1.0,3.0
2021-08-12 09:15:56.477,1004.0,59.0,91.0,1009.8405814780866,1,1,1,1.0,3.0
2021-08-12 09:15:56.487,963.0,119.0,-10.0,970.3762157019308,1,1,1,1.0,3.0
2021-08-12 09:15:56.497,1003.0,143.0,23.0,1013.4036708044824,1,1,1,1.0,3.0
2021-08-12 09:15:56.506,1040.0,-96.0,1.0,1044.4218496373962,1,1,1,1.0,3.0
2021-08-12 09:15:56.516,968.0,-32.0,-40.0,969.3544243464308,1,1,1,1.0,3.0
2021-08-12 09:15:56.527,974.0,86.0,69.0,980.2208934724866,1,1,1,1.0,3.0
2021-08-12 09:15:56.536,1012.0,216.0,0.0,1034.7946656221222,1,1,1,1.0,3.0
2021-08-12 09:15:56.545,1082.0,67.0,-16.0,1084.1904814192014,1,1,1,1.0,3.0
2021-08-12 09:15:56.555,975.0,9.0,-25.0,975.3619840859084,1,1,1,1.0,3.0
2021-08-12 09:15:56.565,854.0,9.0,-25.0,854.4132489609462,1,1,1,1.0,3.0
2021-08-12 09:15:56.566,854.0,75.0,8.0,857.3243260283707,1,1,1,1.0,3.0
2021-08-12 09:15:56.575,975.0,76.0,70.0,980.4595861125536,1,1,1,1.0,3.0
2021-08-12 09:15:56.584,984.0,87.0,1.0,987.8390557170736,1,1,1,1.0,3.0
2021-08-12 09:15:56.594,1011.0,116.0,-1.0,1017.633529321828,1,1,1,1.0,3.0
2021-08-12 09:15:56.604,1000.0,-115.0,0.0,1006.5907808041956,1,1,1,1.0,3.0
2021-08-12 09:15:56.613,952.0,65.0,38.0,954.972774481032,1,1,1,1.0,3.0
2021-08-12 09:15:56.624,995.0,-5.0,16.0,995.1411960119026,1,1,1,1.0,3.0
2021-08-12 09:15:56.634,992.0,204.0,7.0,1012.7828000119276,1,1,1,1.0,3.0
2021-08-12 09:15:56.646,1090.0,14.0,11.0,1090.1454031458372,1,1,1,1.0,3.0
2021-08-12 09:15:56.652,964.0,2.0,11.0,964.0648318448298,1,1,1,1.0,3.0
2021-08-12 09:15:56.653,964.0,2.0,6.0,964.0207466647178,1,1,1,1.0,3.0
2021-08-12 09:15:56.677,885.0,131.0,18.0,894.8240050423324,1,1,1,1.0,3.0
2021-08-12 09:15:56.679,1013.0,70.0,-3.0,1015.4201101022178,1,1,1,1.0,3.0
2021-08-12 09:15:56.683,1039.0,70.0,-3.0,1041.35968810013,1,1,1,1.0,3.0
2021-08-12 09:15:56.684,1039.0,111.0,-1.0,1044.9129150316787,1,1,1,1.0,3.0
2021-08-12 09:15:56.692,958.0,72.0,15.0,960.818921545574,1,1,1,1.0,3.0
2021-08-12 09:15:56.701,997.0,72.0,15.0,999.7089576471744,1,1,1,1.0,3.0
2021-08-12 09:15:56.702,997.0,-132.0,-10.0,1005.7499689286598,1,1,1,1.0,3.0
2021-08-12 09:15:56.712,952.0,67.0,69.0,956.8458601049596,1,1,1,1.0,3.0
2021-08-12 09:15:56.723,1083.0,67.0,69.0,1087.2621578993726,1,1,1,1.0,3.0
2021-08-12 09:15:56.724,1083.0,36.0,10.0,1083.64431433935,1,1,1,1.0,3.0
2021-08-12 09:15:56.731,1103.0,-24.0,0.0,1103.261075176678,1,1,1,1.0,3.0
2021-08-12 09:15:56.741,1082.0,-1.0,-5.0,1082.012014720724,1,1,1,1.0,3.0
2021-08-12 09:15:56.750,968.0,8.0,14.0,968.1342882059286,1,1,1,1.0,3.0
2021-08-12 09:15:56.761,925.0,130.0,8.0,934.1247240063824,1,1,1,1.0,3.0
2021-08-12 09:15:56.771,1058.0,57.0,-4.0,1059.5418821358596,1,1,1,1.0,3.0
2021-08-12 09:15:56.780,1025.0,60.0,25.0,1027.0589077555387,1,1,1,1.0,3.0
2021-08-12 09:15:56.789,967.0,60.0,25.0,969.1821294266624,1,1,1,1.0,3.0
2021-08-12 09:15:56.790,967.0,84.0,6.0,970.6600846846438,1,1,1,1.0,3.0
2021-08-12 09:15:56.799,991.0,-109.0,-21.0,997.197573202021,1,1,1,1.0,3.0
2021-08-12 09:15:56.809,940.0,75.0,25.0,943.3186100146652,1,1,1,1.0,3.0
2021-08-12 09:15:56.820,1090.0,75.0,24.0,1092.8407935284993,1,1,1,1.0,3.0
2021-08-12 09:15:56.829,1084.0,-47.0,13.0,1085.0963090896587,1,1,1,1.0,3.0
2021-08-12 09:15:56.840,1052.0,-55.0,-31.0,1053.8927839206417,1,1,1,1.0,3.0
2021-08-12 09:15:56.860,1008.0,48.0,-31.0,1009.6182446845936,1,1,1,1.0,3.0
2021-08-12 09:15:56.861,896.0,137.0,-21.0,906.656495040983,1,1,1,1.0,3.0
2021-08-12 09:15:56.868,1072.0,21.0,10.0,1072.2523023990202,1,1,1,1.0,3.0
2021-08-12 09:15:56.877,999.0,49.0,2.0,1000.2029793996816,1,1,1,1.0,3.0
2021-08-12 09:15:56.887,963.0,-36.0,31.0,964.1711466332106,1,1,1,1.0,3.0
2021-08-12 09:15:56.914,981.0,-96.0,-8.0,985.718519659644,1,1,1,1.0,3.0
2021-08-12 09:15:56.915,948.0,57.0,-8.0,949.745755452479,1,1,1,1.0,3.0
2021-08-12 09:15:56.916,948.0,57.0,24.0,950.015263035284,1,1,1,1.0,3.0
2021-08-12 09:15:56.918,1089.0,64.0,44.0,1091.7660005697192,1,1,1,1.0,3.0
2021-08-12 09:15:56.926,1082.0,-55.0,17.0,1083.5303410611075,1,1,1,1.0,3.0
2021-08-12 09:15:56.936,980.0,39.0,22.0,981.0224258394912,1,1,1,1.0,3.0
2021-08-12 09:15:56.947,962.0,6.0,-22.0,962.2702323152264,1,1,1,1.0,3.0
2021-08-12 09:15:56.955,873.0,213.0,-14.0,898.7179757855075,1,1,1,1.0,3.0
2021-08-12 09:15:56.965,1116.0,49.0,26.0,1117.3777338035693,1,1,1,1.0,3.0
2021-08-12 09:15:56.975,942.0,21.0,-13.0,942.3237235684984,1,1,1,1.0,3.0
2021-08-12 09:15:56.984,1007.0,91.0,52.0,1012.4396278297288,1,1,1,1.0,3.0
2021-08-12 09:15:56.995,960.0,126.0,52.0,969.6287949519652,1,1,1,1.0,3.0
2021-08-12 09:15:56.996,960.0,126.0,-42.0,969.1439521557156,1,1,1,1.0,3.0
2021-08-12 09:15:57.004,935.0,30.0,17.0,935.6356128322608,1,1,1,1.0,3.0
2021-08-12 09:15:57.016,1045.0,90.0,37.0,1049.5208430517232,1,1,1,1.0,3.0
2021-08-12 09:15:57.024,1067.0,-42.0,-15.0,1067.931645752667,1,1,1,1.0,3.0
2021-08-12 09:15:57.033,1002.0,66.0,-15.0,1004.283326556804,1,1,1,1.0,3.0
2021-08-12 09:15:57.034,1002.0,66.0,40.0,1004.967661171244,1,1,1,1.0,3.0
2021-08-12 09:15:57.045,1002.0,21.0,-9.0,1002.260445193763,1,1,1,1.0,3.0
2021-08-12 09:15:57.052,1057.0,21.0,-9.0,1057.2468964248606,1,1,1,1.0,3.0
2021-08-12 09:15:57.053,1057.0,74.0,-18.0,1059.7400624681509,1,1,1,1.0,3.0
2021-08-12 09:15:57.063,1138.0,50.0,15.0,1139.1966467647278,1,1,1,1.0,3.0
2021-08-12 09:15:57.073,974.0,35.0,-1.0,974.6291602450648,1,1,1,1.0,3.0
2021-08-12 09:15:57.082,933.0,56.0,-1.0,934.6796242563544,1,1,1,1.0,3.0
2021-08-12 09:15:57.083,933.0,56.0,17.0,934.8336750459944,1,1,1,1.0,3.0
2021-08-12 09:15:57.093,972.0,24.0,-40.0,973.118697795906,1,1,1,1.0,3.0
2021-08-12 09:15:57.103,1100.0,106.0,45.0,1106.0113019314042,1,1,1,1.0,3.0
2021-08-12 09:15:57.112,1017.0,-76.0,35.0,1020.4361812479996,1,1,1,1.0,3.0
2021-08-12 09:15:57.121,1088.0,-64.0,35.0,1090.4425707023731,1,1,1,1.0,3.0
2021-08-12 09:15:57.122,1088.0,-64.0,-11.0,1089.9362366670814,1,1,1,1.0,3.0
2021-08-12 09:15:57.131,1007.0,74.0,34.0,1010.2875828198622,1,1,1,1.0,3.0
2021-08-12 09:15:57.142,1013.0,27.0,-23.0,1013.6207377515516,1,1,1,1.0,3.0
2021-08-12 09:15:57.152,1052.0,43.0,10.0,1052.9259233203445,1,1,1,1.0,3.0
2021-08-12 09:15:57.160,958.0,-43.0,10.0,959.0166839007546,1,1,1,1.0,3.0
2021-08-12 09:15:57.161,958.0,-43.0,-20.0,959.1730813570614,1,1,1,1.0,3.0
2021-08-12 09:15:57.170,987.0,29.0,-7.0,987.4507582659502,1,1,1,1.0,3.0
2021-08-12 09:15:57.180,927.0,80.0,20.0,930.6605181267764,1,1,1,1.0,3.0
2021-08-12 09:15:57.190,985.0,20.0,20.0,985.4060076942905,1,1,1,1.0,3.0
2021-08-12 09:15:57.191,985.0,20.0,-33.0,985.7555477906276,1,1,1,1.0,3.0
2021-08-12 09:15:57.202,1063.0,89.0,43.0,1067.5855937581773,1,1,1,1.0,3.0
2021-08-12 09:15:57.209,1030.0,-124.0,20.0,1037.629991856442,1,1,1,1.0,3.0
2021-08-12 09:15:57.230,1008.0,-131.0,20.0,1016.6734972448136,1,1,1,1.0,3.0
2021-08-12 09:15:57.231,1008.0,-131.0,-18.0,1016.6361197596708,1,1,1,1.0,3.0
2021-08-12 09:15:57.238,1036.0,-131.0,-18.0,1044.4046150798072,1,1,1,1.0,3.0
2021-08-12 09:15:57.239,1036.0,55.0,4.0,1037.4666259692406,1,1,1,1.0,3.0
2021-08-12 09:15:57.248,1074.0,56.0,9.0,1075.4966294693816,1,1,1,1.0,3.0
2021-08-12 09:15:57.258,971.0,-22.0,-15.0,971.3650189295474,1,1,1,1.0,3.0
2021-08-12 09:15:57.268,974.0,8.0,41.0,974.8953790022804,1,1,1,1.0,3.0
2021-08-12 09:15:57.279,901.0,121.0,20.0,909.308528498441,1,1,1,1.0,3.0
2021-08-12 09:15:57.287,991.0,57.0,0.0,992.63789973988,1,1,1,1.0,3.0
2021-08-12 09:15:57.297,1071.0,78.0,23.0,1074.082864587272,1,1,1,1.0,3.0
2021-08-12 09:15:57.307,1083.0,-94.0,17.0,1087.2046725433072,1,1,1,1.0,3.0
2021-08-12 09:15:57.316,998.0,139.0,44.0,1008.5935752323628,1,1,1,1.0,3.0
2021-08-12 09:15:57.327,959.0,87.0,48.0,964.133808140758,1,1,1,1.0,3.0
2021-08-12 09:15:57.337,1092.0,11.0,6.0,1092.071884080897,1,1,1,1.0,3.0
2021-08-12 09:15:57.346,1085.0,47.0,10.0,1086.063534053142,1,1,1,1.0,3.0
2021-08-12 09:15:57.356,979.0,-10.0,-33.0,979.6070640823287,1,1,1,1.0,3.0
2021-08-12 09:15:57.365,980.0,-20.0,-33.0,980.759399649068,1,1,1,1.0,3.0
2021-08-12 09:15:57.366,980.0,-20.0,9.0,980.2453774438316,1,1,1,1.0,3.0
2021-08-12 09:15:57.377,1015.0,206.0,-19.0,1035.8677521768886,1,1,1,1.0,3.0
2021-08-12 09:15:57.386,997.0,40.0,-17.0,997.9468923745392,1,1,1,1.0,3.0
2021-08-12 09:15:57.395,1052.0,79.0,36.0,1055.5761459980042,1,1,1,1.0,3.0
2021-08-12 09:15:57.404,1061.0,79.0,36.0,1064.545912584328,1,1,1,1.0,3.0
2021-08-12 09:15:57.405,1061.0,-99.0,20.0,1065.7964158318416,1,1,1,1.0,3.0
2021-08-12 09:15:57.414,954.0,190.0,59.0,974.5239863646252,1,1,1,1.0,3.0
2021-08-12 09:15:57.424,1101.0,49.0,59.0,1103.6679754346412,1,1,1,1.0,3.0
2021-08-12 09:15:57.425,1101.0,49.0,31.0,1102.525736661054,1,1,1,1.0,3.0
2021-08-12 09:15:57.439,978.0,50.0,19.0,979.4615867914372,1,1,1,1.0,3.0
2021-08-12 09:15:57.444,1113.0,-9.0,4.0,1113.0435750679303,1,1,1,1.0,3.0
2021-08-12 09:15:57.454,953.0,6.0,-22.0,953.272783624918,1,1,1,1.0,3.0
2021-08-12 09:15:57.465,941.0,119.0,6.0,948.5135739671836,1,1,1,1.0,3.0
2021-08-12 09:15:57.473,1020.0,174.0,6.0,1034.7521442355169,1,1,1,1.0,3.0
2021-08-12 09:15:57.483,1087.0,-25.0,6.0,1087.3040053269372,1,1,1,1.0,3.0
2021-08-12 09:15:57.484,1087.0,-25.0,-13.0,1087.3651640548358,1,1,1,1.0,3.0
2021-08-12 09:15:57.493,983.0,-18.0,25.0,983.4825875428604,1,1,1,1.0,3.0
2021-08-12 09:15:57.502,1005.0,-155.0,25.0,1017.1897561418912,1,1,1,1.0,3.0
2021-08-12 09:15:57.503,1005.0,-155.0,34.0,1017.4507359081324,1,1,1,1.0,3.0
2021-08-12 09:15:57.512,953.0,142.0,71.0,966.1335311435992,1,1,1,1.0,3.0
2021-08-12 09:15:57.522,1075.0,87.0,37.0,1079.149201917881,1,1,1,1.0,3.0
2021-08-12 09:15:57.532,1037.0,-51.0,-13.0,1038.3347244506465,1,1,1,1.0,3.0
2021-08-12 09:15:57.542,1008.0,-69.0,19.0,1010.5374807497246,1,1,1,1.0,3.0
2021-08-12 09:15:57.551,963.0,18.0,34.0,963.7681256401872,1,1,1,1.0,3.0
2021-08-12 09:15:57.561,993.0,5.0,-18.0,993.175714564145,1,1,1,1.0,3.0
2021-08-12 09:15:57.571,1047.0,140.0,-30.0,1056.7445292027776,1,1,1,1.0,3.0
2021-08-12 09:15:57.581,995.0,-58.0,-48.0,997.8441762118972,1,1,1,1.0,3.0
2021-08-12 09:15:57.591,1014.0,29.0,23.0,1014.6753175277302,1,1,1,1.0,3.0
2021-08-12 09:15:57.600,997.0,-43.0,32.0,998.43978286124,1,1,1,1.0,3.0
2021-08-12 09:15:57.609,950.0,-43.0,32.0,951.510903773572,1,1,1,1.0,3.0
2021-08-12 09:15:57.610,950.0,203.0,41.0,972.3116784241564,1,1,1,1.0,3.0
2021-08-12 09:15:57.620,1115.0,87.0,35.0,1118.9365486925522,1,1,1,1.0,3.0
2021-08-12 09:15:57.630,1037.0,-96.0,-16.0,1041.557007561276,1,1,1,1.0,3.0
2021-08-12 09:15:57.639,976.0,-96.0,-16.0,980.8404559356226,1,1,1,1.0,3.0
2021-08-12 09:15:57.640,976.0,7.0,60.0,977.8675779470348,1,1,1,1.0,3.0
2021-08-12 09:15:57.650,983.0,36.0,14.0,983.7586086027404,1,1,1,1.0,3.0
2021-08-12 09:15:57.658,1015.0,36.0,14.0,1015.7347094591186,1,1,1,1.0,3.0
2021-08-12 09:15:57.659,1015.0,42.0,0.0,1015.8685938643836,1,1,1,1.0,3.0
2021-08-12 09:15:57.668,1047.0,64.0,0.0,1048.9542411373338,1,1,1,1.0,3.0
2021-08-12 09:15:57.669,1047.0,64.0,-27.0,1049.3016725422676,1,1,1,1.0,3.0
2021-08-12 09:15:57.679,952.0,-24.0,-40.0,953.142171976458,1,1,1,1.0,3.0
2021-08-12 09:15:57.688,1004.0,12.0,19.0,1004.2514625331644,1,1,1,1.0,3.0
2021-08-12 09:15:57.704,935.0,201.0,4.0,956.3691755802254,1,1,1,1.0,3.0
2021-08-12 09:15:57.707,944.0,125.0,4.0,952.2483919650376,1,1,1,1.0,3.0
2021-08-12 09:15:57.708,944.0,125.0,4.0,952.2483919650376,1,1,1,1.0,3.0
2021-08-12 09:15:57.723,1153.0,99.0,54.0,1158.5016184710316,1,1,1,1.0,3.0
2021-08-12 09:15:57.727,1042.0,-85.0,13.0,1045.5419647245155,1,1,1,1.0,3.0
2021-08-12 09:15:57.737,965.0,59.0,73.0,969.554021187061,1,1,1,1.0,3.0
2021-08-12 09:15:57.746,1049.0,77.0,17.0,1051.9595999847145,1,1,1,1.0,3.0
2021-08-12 09:15:57.756,1055.0,69.0,11.0,1057.31121246301,1,1,1,1.0,3.0
2021-08-12 09:15:57.767,1081.0,96.0,11.0,1085.3100939362907,1,1,1,1.0,3.0
2021-08-12 09:15:57.768,1081.0,96.0,-7.0,1085.2769231859672,1,1,1,1.0,3.0
2021-08-12 09:15:57.776,967.0,15.0,-8.0,967.1494196865344,1,1,1,1.0,3.0
2021-08-12 09:15:57.786,987.0,-4.0,23.0,987.276050555264,1,1,1,1.0,3.0
2021-08-12 09:15:57.795,963.0,173.0,-2.0,978.4181110343368,1,1,1,1.0,3.0
2021-08-12 09:15:57.805,1107.0,72.0,17.0,1109.469242475879,1,1,1,1.0,3.0
2021-08-12 09:15:57.815,1106.0,89.0,44.0,1110.44720720978,1,1,1,1.0,3.0
2021-08-12 09:15:57.825,1042.0,-104.0,21.0,1047.3877028111417,1,1,1,1.0,3.0
2021-08-12 09:15:57.835,1014.0,70.0,81.0,1019.6357192644832,1,1,1,1.0,3.0
2021-08-12 09:15:57.848,963.0,106.0,-13.0,968.9035039672424,1,1,1,1.0,3.0
2021-08-12 09:15:57.854,1001.0,127.0,1.0,1009.0247767027328,1,1,1,1.0,3.0
2021-08-12 09:15:57.873,1022.0,-103.0,2.0,1027.1791469845948,1,1,1,1.0,3.0
2021-08-12 09:15:57.876,1010.0,12.0,-3.0,1010.0757397344024,1,1,1,1.0,3.0
2021-08-12 09:15:57.883,984.0,12.0,-3.0,984.0777408314854,1,1,1,1.0,3.0
2021-08-12 09:15:57.884,984.0,69.0,19.0,986.5992094057242,1,1,1,1.0,3.0
2021-08-12 09:15:57.894,999.0,232.0,7.0,1025.6090873232354,1,1,1,1.0,3.0
2021-08-12 09:15:57.903,1116.0,65.0,-2.0,1117.89310759124,1,1,1,1.0,3.0
2021-08-12 09:15:57.912,966.0,23.0,-2.0,966.2758405341614,1,1,1,1.0,3.0
2021-08-12 09:15:57.913,966.0,23.0,-31.0,966.7709139191146,1,1,1,1.0,3.0
2021-08-12 09:15:57.933,1072.0,-138.0,-31.0,1081.2904327700303,1,1,1,1.0,3.0
2021-08-12 09:15:57.934,1072.0,-138.0,3.0,1080.8501283711817,1,1,1,1.0,3.0
2021-08-12 09:15:57.935,1020.0,122.0,58.0,1028.9062153568711,1,1,1,1.0,3.0
2021-08-12 09:15:57.942,1025.0,79.0,2.0,1028.041827942813,1,1,1,1.0,3.0
2021-08-12 09:15:57.952,958.0,65.0,3.0,960.2072692913756,1,1,1,1.0,3.0
2021-08-12 09:15:57.961,1021.0,-169.0,-8.0,1034.923185555334,1,1,1,1.0,3.0
2021-08-12 09:15:57.971,915.0,74.0,49.0,919.294294554252,1,1,1,1.0,3.0
2021-08-12 09:15:57.981,1001.0,-18.0,-7.0,1001.1862963504844,1,1,1,1.0,3.0
2021-08-12 09:15:57.993,1024.0,232.0,10.0,1050.0,1,1,1,1.0,3.0
2021-08-12 09:15:58.001,1042.0,6.0,-7.0,1042.0407861499473,1,1,1,1.0,3.0
2021-08-12 09:15:58.010,983.0,27.0,12.0,983.4439485807007,1,1,1,1.0,3.0
2021-08-12 09:15:58.020,874.0,27.0,12.0,874.499285305597,1,1,1,1.0,3.0
2021-08-12 09:15:58.021,874.0,126.0,15.0,883.1630653509011,1,1,1,1.0,3.0
2021-08-12 09:15:58.031,973.0,126.0,15.0,981.2390126773396,1,1,1,1.0,3.0
2021-08-12 09:15:58.032,973.0,172.0,42.0,988.9777550582218,1,1,1,1.0,3.0
2021-08-12 09:15:58.040,1068.0,110.0,6.0,1073.6666149229006,1,1,1,1.0,3.0
2021-08-12 09:15:58.050,974.0,110.0,6.0,980.2101815427138,1,1,1,1.0,3.0
2021-08-12 09:15:58.051,974.0,98.0,27.0,979.290048964044,1,1,1,1.0,3.0
2021-08-12 09:15:58.059,980.0,-123.0,-11.0,987.7499683624394,1,1,1,1.0,3.0
2021-08-12 09:15:58.069,925.0,72.0,36.0,928.4960958453192,1,1,1,1.0,3.0
2021-08-12 09:15:58.079,1086.0,32.0,26.0,1086.7824069242197,1,1,1,1.0,3.0
2021-08-12 09:15:58.089,1036.0,191.0,-3.0,1053.463810484252,1,1,1,1.0,3.0
2021-08-12 09:15:58.098,1027.0,-7.0,-42.0,1027.882288980601,1,1,1,1.0,3.0
2021-08-12 09:15:58.108,1010.0,7.0,12.0,1010.0955400356938,1,1,1,1.0,3.0
2021-08-12 09:15:58.117,889.0,150.0,12.0,901.645717563168,1,1,1,1.0,3.0
2021-08-12 09:15:58.118,889.0,150.0,-22.0,901.8342419757636,1,1,1,1.0,3.0
2021-08-12 09:15:58.128,1119.0,6.0,18.0,1119.1608463487275,1,1,1,1.0,3.0
2021-08-12 09:15:58.139,1109.0,74.0,24.0,1111.7252358384242,1,1,1,1.0,3.0
2021-08-12 09:15:58.147,1011.0,29.0,4.0,1011.4237489796252,1,1,1,1.0,3.0
2021-08-12 09:15:58.157,990.0,-108.0,-6.0,995.89156036187,1,1,1,1.0,3.0
2021-08-12 09:15:58.166,950.0,61.0,-6.0,951.975314806009,1,1,1,1.0,3.0
2021-08-12 09:15:58.167,950.0,61.0,19.0,952.1459972084114,1,1,1,1.0,3.0
2021-08-12 09:15:58.176,1060.0,59.0,27.0,1061.9839923464008,1,1,1,1.0,3.0
2021-08-12 09:15:58.187,1069.0,116.0,15.0,1075.37993286094,1,1,1,1.0,3.0
2021-08-12 09:15:58.196,991.0,-12.0,-62.0,993.01007044239,1,1,1,1.0,3.0
2021-08-12 09:15:58.206,1005.0,8.0,26.0,1005.3680917952388,1,1,1,1.0,3.0
2021-08-12 09:15:58.215,883.0,175.0,-2.0,900.1766493305634,1,1,1,1.0,3.0
2021-08-12 09:15:58.225,1132.0,23.0,25.0,1132.5096026082958,1,1,1,1.0,3.0
2021-08-12 09:15:58.236,974.0,40.0,0.0,974.8210092114348,1,1,1,1.0,3.0
2021-08-12 09:15:58.244,1025.0,-32.0,-2.0,1025.5013408084849,1,1,1,1.0,3.0
2021-08-12 09:15:58.254,1005.0,-98.0,21.0,1009.9851484056584,1,1,1,1.0,3.0
2021-08-12 09:15:58.264,994.0,-22.0,-4.0,994.2514772430565,1,1,1,1.0,3.0
2021-08-12 09:15:58.274,998.0,-82.0,4.0,1001.3710600971052,1,1,1,1.0,3.0
2021-08-12 09:15:58.284,938.0,224.0,10.0,964.4272911941056,1,1,1,1.0,3.0
2021-08-12 09:15:58.294,1074.0,121.0,10.0,1080.840876355072,1,1,1,1.0,3.0
2021-08-12 09:15:58.303,1086.0,87.0,29.0,1089.8651292705902,1,1,1,1.0,3.0
2021-08-12 09:15:58.314,1033.0,55.0,-20.0,1034.656464726336,1,1,1,1.0,3.0
2021-08-12 09:15:58.322,997.0,-62.0,-20.0,999.1261181652694,1,1,1,1.0,3.0
2021-08-12 09:15:58.323,997.0,-62.0,-20.0,999.1261181652694,1,1,1,1.0,3.0
2021-08-12 09:15:58.333,990.0,18.0,33.0,990.7133793383432,1,1,1,1.0,3.0
2021-08-12 09:15:58.343,1019.0,7.0,-2.0,1019.026005556286,1,1,1,1.0,3.0
2021-08-12 09:15:58.352,1013.0,116.0,46.0,1020.6571412575332,1,1,1,1.0,3.0
2021-08-12 09:15:58.361,1050.0,116.0,46.0,1057.3892376982092,1,1,1,1.0,3.0
2021-08-12 09:15:58.362,1050.0,42.0,2.0,1050.8415675067292,1,1,1,1.0,3.0
2021-08-12 09:15:58.371,996.0,56.0,0.0,997.573054968908,1,1,1,1.0,3.0
2021-08-12 09:15:58.381,988.0,20.0,-11.0,988.2636287954748,1,1,1,1.0,3.0
2021-08-12 09:15:58.391,1012.0,54.0,10.0,1013.4890231275324,1,1,1,1.0,3.0
2021-08-12 09:15:58.401,1039.0,51.0,-6.0,1040.2682346395088,1,1,1,1.0,3.0
2021-08-12 09:15:58.410,1036.0,40.0,10.0,1036.820138693303,1,1,1,1.0,3.0
2021-08-12 09:15:58.420,1026.0,40.0,10.0,1026.8281258321667,1,1,1,1.0,3.0
2021-08-12 09:15:58.421,1026.0,63.0,18.0,1028.089976607106,1,1,1,1.0,3.0
2021-08-12 09:15:58.430,1000.0,48.0,5.0,1001.1638227582936,1,1,1,1.0,3.0
2021-08-12 09:15:58.443,1011.0,51.0,23.0,1012.5467890423632,1,1,1,1.0,3.0
2021-08-12 09:15:58.450,1006.0,41.0,20.0,1007.033763088408,1,1,1,1.0,3.0
2021-08-12 09:15:58.459,1016.0,41.0,20.0,1017.0235985462676,1,1,1,1.0,3.0
2021-08-12 09:15:58.460,1016.0,27.0,4.0,1016.3665677303636,1,1,1,1.0,3.0
2021-08-12 09:15:58.470,1011.0,49.0,14.0,1012.283557112334,1,1,1,1.0,3.0
2021-08-12 09:15:58.479,1020.0,44.0,1.0,1020.9490682693236,1,1,1,1.0,3.0
2021-08-12 09:15:58.489,1017.0,50.0,4.0,1018.2362201375474,1,1,1,1.0,3.0
2021-08-12 09:15:58.499,1010.0,52.0,4.0,1011.345638246391,1,1,1,1.0,3.0
2021-08-12 09:15:58.508,995.0,39.0,4.0,995.772062271281,1,1,1,1.0,3.0
2021-08-12 09:15:58.509,995.0,39.0,-2.0,995.7660367777162,1,1,1,1.0,3.0
2021-08-12 09:15:58.518,1005.0,29.0,12.0,1005.4899303324725,1,1,1,1.0,3.0
2021-08-12 09:15:58.528,1023.0,37.0,12.0,1023.7392246075168,1,1,1,1.0,3.0
2021-08-12 09:15:58.529,1023.0,37.0,17.0,1023.8100409743988,1,1,1,1.0,3.0
2021-08-12 09:15:58.538,1002.0,43.0,12.0,1002.9940179283224,1,1,1,1.0,3.0
2021-08-12 09:15:58.548,1013.0,55.0,10.0,1014.5412756512176,1,1,1,1.0,3.0
2021-08-12 09:15:58.557,1016.0,28.0,9.0,1016.4255998350296,1,1,1,1.0,3.0
2021-08-12 09:15:58.567,1031.0,26.0,0.0,1031.3277849452131,1,1,1,1.0,3.0
2021-08-12 09:15:58.577,997.0,41.0,0.0,997.8426729700428,1,1,1,1.0,3.0
2021-08-12 09:15:58.587,1012.0,34.0,9.0,1012.6109815718968,1,1,1,1.0,3.0
2021-08-12 09:15:58.597,999.0,34.0,9.0,999.6189273918336,1,1,1,1.0,3.0
2021-08-12 09:15:58.598,999.0,28.0,9.0,999.4328391642932,1,1,1,1.0,3.0
