time_stamp,Acceleration_X,Acceleration_Y,Acceleration_Z,magnitude,STD_Status_right,STD_Status_left,STD_Status_both,KMeans,KMeans_convert
2021-08-12 09:20:32.853,950.0,25.0,14.0,950.4320070368,1,1,1,3.0,3.0
2021-08-12 09:20:32.863,973.0,62.0,13.0,975.0599981539598,1,1,1,3.0,3.0
2021-08-12 09:20:32.872,999.0,235.0,27.0,1026.6231051364468,1,1,1,3.0,3.0
2021-08-12 09:20:32.883,1049.0,137.0,5.0,1057.920129310337,1,1,1,3.0,3.0
2021-08-12 09:20:32.892,1056.0,-223.0,-18.0,1079.4392062548034,1,1,1,3.0,3.0
2021-08-12 09:20:32.902,910.0,-12.0,50.0,911.4515894988608,1,1,1,3.0,3.0
2021-08-12 09:20:32.911,1041.0,69.0,35.0,1043.871160632384,1,1,1,3.0,3.0
2021-08-12 09:20:32.921,950.0,130.0,15.0,958.970802475237,1,1,1,3.0,3.0
2021-08-12 09:20:32.931,1078.0,78.0,-14.0,1080.9088768254242,1,1,1,3.0,3.0
2021-08-12 09:20:32.941,1016.0,8.0,-14.0,1016.1279446998788,1,1,1,3.0,3.0
2021-08-12 09:20:32.942,1016.0,8.0,-11.0,1016.091039228277,1,1,1,3.0,3.0
2021-08-12 09:20:32.951,937.0,75.0,19.0,940.1888108247194,1,1,1,3.0,3.0
2021-08-12 09:20:32.960,941.0,118.0,-23.0,948.6485123585026,1,1,1,3.0,3.0
2021-08-12 09:20:32.970,1060.0,134.0,17.0,1068.571476317799,1,1,1,3.0,3.0
2021-08-12 09:20:32.980,1044.0,19.0,14.0,1044.2667283792969,1,1,1,3.0,3.0
2021-08-12 09:20:32.991,965.0,13.0,16.0,965.2201821346256,1,1,1,3.0,3.0
2021-08-12 09:20:32.999,1053.0,13.0,16.0,1053.2017850345678,1,1,1,3.0,3.0
2021-08-12 09:20:33.000,1053.0,-14.0,56.0,1054.580959433651,1,1,1,3.0,3.0
2021-08-12 09:20:33.009,1000.0,48.0,17.0,1001.2956606317636,1,1,1,3.0,3.0
2021-08-12 09:20:33.020,1115.0,-71.0,20.0,1117.4372465601816,1,1,1,3.0,3.0
2021-08-12 09:20:33.030,934.0,61.0,-18.0,936.162913172702,1,1,1,3.0,3.0
2021-08-12 09:20:33.038,1000.0,-10.0,-21.0,1000.270463424768,1,1,1,3.0,3.0
2021-08-12 09:20:33.048,1002.0,199.0,26.0,1021.9006801054592,1,1,1,3.0,3.0
2021-08-12 09:20:33.065,1008.0,71.0,-11.0,1010.5572720039175,1,1,1,3.0,3.0
2021-08-12 09:20:33.069,1022.0,62.0,7.0,1023.9028274206494,1,1,1,3.0,3.0
2021-08-12 09:20:33.077,922.0,47.0,7.0,923.2236998691054,1,1,1,3.0,3.0
2021-08-12 09:20:33.088,959.0,19.0,42.0,960.1072856717628,1,1,1,3.0,3.0
2021-08-12 09:20:33.098,976.0,51.0,12.0,977.4052383735212,1,1,1,3.0,3.0
2021-08-12 09:20:33.107,1026.0,75.0,24.0,1029.0174925626873,1,1,1,3.0,3.0
2021-08-12 09:20:33.116,1106.0,-56.0,12.0,1107.4818282933586,1,1,1,3.0,3.0
2021-08-12 09:20:33.126,971.0,62.0,5.0,972.9902363333356,1,1,1,3.0,3.0
2021-08-12 09:20:33.136,1022.0,12.0,17.0,1022.2118175798988,1,1,1,3.0,3.0
2021-08-12 09:20:33.160,951.0,194.0,17.0,970.7347732516848,1,1,1,3.0,3.0
2021-08-12 09:20:33.161,1057.0,46.0,17.0,1058.137042164199,1,1,1,3.0,3.0
2021-08-12 09:20:33.162,1057.0,46.0,-11.0,1058.0576543837296,1,1,1,3.0,3.0
2021-08-12 09:20:33.165,991.0,30.0,8.0,991.4862580994252,1,1,1,3.0,3.0
2021-08-12 09:20:33.175,932.0,30.0,8.0,932.5170239732892,1,1,1,3.0,3.0
2021-08-12 09:20:33.176,932.0,45.0,9.0,933.1291443310512,1,1,1,3.0,3.0
2021-08-12 09:20:33.185,1009.0,96.0,28.0,1013.9432922999194,1,1,1,3.0,3.0
2021-08-12 09:20:33.195,941.0,79.0,0.0,944.310330346968,1,1,1,3.0,3.0
2021-08-12 09:20:33.205,1064.0,57.0,0.0,1065.5256918535565,1,1,1,3.0,3.0
2021-08-12 09:20:33.206,1064.0,57.0,20.0,1065.7133761007226,1,1,1,3.0,3.0
2021-08-12 09:20:33.214,1072.0,-77.0,-9.0,1074.7995161889496,1,1,1,3.0,3.0
2021-08-12 09:20:33.224,993.0,38.0,21.0,993.9486908286564,1,1,1,3.0,3.0
2021-08-12 09:20:33.233,995.0,38.0,21.0,995.9467857270288,1,1,1,3.0,3.0
2021-08-12 09:20:33.234,995.0,8.0,-7.0,995.056782299382,1,1,1,3.0,3.0
2021-08-12 09:20:33.243,899.0,220.0,3.0,925.5322792858173,1,1,1,3.0,3.0
2021-08-12 09:20:33.254,1087.0,50.0,3.0,1088.1534818213836,1,1,1,3.0,3.0
2021-08-12 09:20:33.255,1087.0,50.0,2.0,1088.1511843489395,1,1,1,3.0,3.0
2021-08-12 09:20:33.263,994.0,60.0,16.0,995.9377490586448,1,1,1,3.0,3.0
2021-08-12 09:20:33.273,970.0,58.0,1.0,971.73298801677,1,1,1,3.0,3.0
2021-08-12 09:20:33.282,977.0,57.0,30.0,979.1210343976888,1,1,1,3.0,3.0
2021-08-12 09:20:33.292,1079.0,27.0,45.0,1080.275427842363,1,1,1,3.0,3.0
2021-08-12 09:20:33.303,1039.0,75.0,5.0,1041.7154121927929,1,1,1,3.0,3.0
2021-08-12 09:20:33.312,1059.0,-46.0,-9.0,1060.036791814322,1,1,1,3.0,3.0
2021-08-12 09:20:33.321,997.0,69.0,10.0,999.4348402972552,1,1,1,3.0,3.0
2021-08-12 09:20:33.331,1024.0,24.0,10.0,1024.3300249431334,1,1,1,3.0,3.0
2021-08-12 09:20:33.332,1024.0,24.0,1.0,1024.2816995338733,1,1,1,3.0,3.0
2021-08-12 09:20:33.341,1050.0,54.0,3.0,1051.3919345325037,1,1,1,3.0,3.0
2021-08-12 09:20:33.351,960.0,8.0,-20.0,960.2416362562082,1,1,1,3.0,3.0
2021-08-12 09:20:33.361,974.0,32.0,-13.0,974.6122305819888,1,1,1,3.0,3.0
2021-08-12 09:20:33.370,967.0,32.0,15.0,967.6455962799604,1,1,1,3.0,3.0
2021-08-12 09:20:33.381,986.0,56.0,12.0,987.6618854648588,1,1,1,3.0,3.0
2021-08-12 09:20:33.390,1067.0,73.0,45.0,1070.440563506447,1,1,1,3.0,3.0
2021-08-12 09:20:33.400,1048.0,-48.0,45.0,1050.0633314233955,1,1,1,3.0,3.0
2021-08-12 09:20:33.401,1048.0,-48.0,27.0,1049.4460443491128,1,1,1,3.0,3.0
2021-08-12 09:20:33.415,1016.0,-29.0,7.0,1016.4378977586384,1,1,1,3.0,3.0
2021-08-12 09:20:33.419,1010.0,26.0,14.0,1010.431590955073,1,1,1,3.0,3.0
2021-08-12 09:20:33.429,1027.0,17.0,-2.0,1027.1426385853135,1,1,1,3.0,3.0
2021-08-12 09:20:33.439,1061.0,46.0,0.0,1061.9967043263364,1,1,1,3.0,3.0
2021-08-12 09:20:33.448,953.0,9.0,0.0,953.0424964291992,1,1,1,3.0,3.0
2021-08-12 09:20:33.449,953.0,9.0,-34.0,953.6487823092943,1,1,1,3.0,3.0
2021-08-12 09:20:33.459,989.0,8.0,-13.0,989.117788739036,1,1,1,3.0,3.0
2021-08-12 09:20:33.468,952.0,25.0,21.0,952.5597094145858,1,1,1,3.0,3.0
2021-08-12 09:20:33.477,1003.0,25.0,21.0,1003.5312650834552,1,1,1,3.0,3.0
2021-08-12 09:20:33.478,1003.0,40.0,14.0,1003.8949148192752,1,1,1,3.0,3.0
2021-08-12 09:20:33.488,1054.0,44.0,30.0,1055.3444935185855,1,1,1,3.0,3.0
2021-08-12 09:20:33.497,1060.0,-34.0,19.0,1060.7153246748155,1,1,1,3.0,3.0
2021-08-12 09:20:33.508,1027.0,75.0,54.0,1031.1498436211878,1,1,1,3.0,3.0
2021-08-12 09:20:33.517,991.0,1.0,12.0,991.0731557256508,1,1,1,3.0,3.0
2021-08-12 09:20:33.526,1058.0,65.0,15.0,1060.1009385902837,1,1,1,3.0,3.0
2021-08-12 09:20:33.537,1073.0,42.0,9.0,1073.8593948930186,1,1,1,3.0,3.0
2021-08-12 09:20:33.546,923.0,0.0,-37.0,923.7413057777594,1,1,1,3.0,3.0
2021-08-12 09:20:33.556,995.0,9.0,13.0,995.1256202108356,1,1,1,3.0,3.0
2021-08-12 09:20:33.572,950.0,175.0,-16.0,966.1164526080694,1,1,1,3.0,3.0
2021-08-12 09:20:33.575,990.0,175.0,-16.0,1005.475509398414,1,1,1,3.0,3.0
2021-08-12 09:20:33.576,990.0,42.0,0.0,990.8905085830625,1,1,1,3.0,3.0
2021-08-12 09:20:33.585,1057.0,65.0,24.0,1059.2686156022935,1,1,1,3.0,3.0
2021-08-12 09:20:33.596,1078.0,-63.0,19.0,1080.0064814620328,1,1,1,3.0,3.0
2021-08-12 09:20:33.605,1027.0,95.0,40.0,1032.1598713377691,1,1,1,3.0,3.0
2021-08-12 09:20:33.617,1038.0,95.0,40.0,1043.105459673182,1,1,1,3.0,3.0
2021-08-12 09:20:33.618,1038.0,83.0,13.0,1041.3942577141474,1,1,1,3.0,3.0
2021-08-12 09:20:33.624,1065.0,25.0,12.0,1065.3609716898775,1,1,1,3.0,3.0
2021-08-12 09:20:33.634,1098.0,-24.0,4.0,1098.2695479708066,1,1,1,3.0,3.0
2021-08-12 09:20:33.652,991.0,54.0,-22.0,992.7139567871502,1,1,1,3.0,3.0
2021-08-12 09:20:33.656,976.0,17.0,13.0,976.2346029515652,1,1,1,3.0,3.0
2021-08-12 09:20:33.663,973.0,141.0,-11.0,983.224796269907,1,1,1,3.0,3.0
2021-08-12 09:20:33.674,1032.0,44.0,-27.0,1033.2903754511603,1,1,1,3.0,3.0
2021-08-12 09:20:33.683,1020.0,57.0,17.0,1021.7328417937832,1,1,1,3.0,3.0
2021-08-12 09:20:33.692,1014.0,-16.0,17.0,1014.26870207061,1,1,1,3.0,3.0
2021-08-12 09:20:33.693,1014.0,-16.0,19.0,1014.3041950026628,1,1,1,3.0,3.0
2021-08-12 09:20:33.703,1021.0,77.0,40.0,1024.6804379903033,1,1,1,3.0,3.0
2021-08-12 09:20:33.713,1054.0,81.0,36.0,1057.720662556991,1,1,1,3.0,3.0
2021-08-12 09:20:33.722,1024.0,-13.0,13.0,1024.165025764891,1,1,1,3.0,3.0
2021-08-12 09:20:33.732,968.0,-31.0,13.0,968.5835018210872,1,1,1,3.0,3.0
2021-08-12 09:20:33.741,988.0,86.0,0.0,991.7358519283248,1,1,1,3.0,3.0
2021-08-12 09:20:33.751,1019.0,-1.0,-12.0,1019.0711457008288,1,1,1,3.0,3.0
2021-08-12 09:20:33.762,989.0,112.0,-24.0,995.610867759086,1,1,1,3.0,3.0
2021-08-12 09:20:33.771,997.0,36.0,-8.0,997.681813004527,1,1,1,3.0,3.0
2021-08-12 09:20:33.780,1017.0,2.0,-8.0,1017.0334311122716,1,1,1,3.0,3.0
2021-08-12 09:20:33.781,1017.0,2.0,-6.0,1017.0196654932488,1,1,1,3.0,3.0
2021-08-12 09:20:33.790,943.0,2.0,-6.0,943.021208669243,1,1,1,3.0,3.0
2021-08-12 09:20:33.791,943.0,32.0,22.0,943.7992371262015,1,1,1,3.0,3.0
2021-08-12 09:20:33.800,1010.0,146.0,29.0,1020.9098882859348,1,1,1,3.0,3.0
2021-08-12 09:20:33.811,1098.0,72.0,29.0,1100.7402054981003,1,1,1,3.0,3.0
2021-08-12 09:20:33.821,1028.0,-89.0,1.0,1031.845918730117,1,1,1,3.0,3.0
2021-08-12 09:20:33.829,980.0,-6.0,23.0,980.288222922218,1,1,1,3.0,3.0
2021-08-12 09:20:33.840,968.0,60.0,12.0,969.9319563763224,1,1,1,3.0,3.0
2021-08-12 09:20:33.849,996.0,6.0,-29.0,996.4401637830542,1,1,1,3.0,3.0
2021-08-12 09:20:33.859,1021.0,79.0,-21.0,1024.2670550203204,1,1,1,3.0,3.0
2021-08-12 09:20:33.869,987.0,-23.0,-21.0,987.4912657841588,1,1,1,3.0,3.0
2021-08-12 09:20:33.878,1023.0,-23.0,-21.0,1023.4739859908508,1,1,1,3.0,3.0
2021-08-12 09:20:33.879,1023.0,0.0,20.0,1023.1954847437512,1,1,1,3.0,3.0
2021-08-12 09:20:33.888,941.0,168.0,5.0,955.8922533423944,1,1,1,3.0,3.0
2021-08-12 09:20:33.898,996.0,107.0,28.0,1002.122248031646,1,1,1,3.0,3.0
2021-08-12 09:20:33.907,1087.0,56.0,23.0,1088.684527308072,1,1,1,3.0,3.0
2021-08-12 09:20:33.918,1062.0,-74.0,29.0,1064.9699526277725,1,1,1,3.0,3.0
2021-08-12 09:20:33.928,993.0,-3.0,29.0,993.4279037756088,1,1,1,3.0,3.0
2021-08-12 09:20:33.929,993.0,-3.0,31.0,993.4882988742244,1,1,1,3.0,3.0
2021-08-12 09:20:33.936,945.0,-3.0,31.0,945.513088222474,1,1,1,3.0,3.0
2021-08-12 09:20:33.937,945.0,77.0,6.0,948.150831882776,1,1,1,3.0,3.0
2021-08-12 09:20:33.947,1051.0,53.0,15.0,1052.4423974736098,1,1,1,3.0,3.0
2021-08-12 09:20:33.956,1024.0,61.0,-9.0,1025.854765549198,1,1,1,3.0,3.0
2021-08-12 09:20:33.966,989.0,-28.0,-17.0,989.5423184482814,1,1,1,3.0,3.0
2021-08-12 09:20:33.976,1022.0,17.0,16.0,1022.26659927829,1,1,1,3.0,3.0
2021-08-12 09:20:33.986,928.0,196.0,1.0,948.4729832736408,1,1,1,3.0,3.0
2021-08-12 09:20:33.996,1097.0,29.0,-10.0,1097.4288131810647,1,1,1,3.0,3.0
2021-08-12 09:20:34.005,1094.0,42.0,60.0,1096.4488132147346,1,1,1,3.0,3.0
2021-08-12 09:20:34.015,1055.0,-43.0,32.0,1056.360733840481,1,1,1,3.0,3.0
2021-08-12 09:20:34.025,1017.0,20.0,37.0,1017.8693432852764,1,1,1,3.0,3.0
2021-08-12 09:20:34.035,956.0,85.0,10.0,959.82342126039,1,1,1,3.0,3.0
2021-08-12 09:20:34.044,1039.0,57.0,16.0,1040.68535110282,1,1,1,3.0,3.0
2021-08-12 09:20:34.054,1057.0,-45.0,-1.0,1057.957938672422,1,1,1,3.0,3.0
2021-08-12 09:20:34.064,965.0,-17.0,-29.0,965.5853147184872,1,1,1,3.0,3.0
2021-08-12 09:20:34.079,1025.0,36.0,48.0,1026.7545958017429,1,1,1,3.0,3.0
2021-08-12 09:20:34.083,967.0,181.0,48.0,984.9639587314856,1,1,1,3.0,3.0
2021-08-12 09:20:34.084,967.0,181.0,5.0,983.8063833905532,1,1,1,3.0,3.0
2021-08-12 09:20:34.093,1075.0,51.0,-13.0,1076.2876009691834,1,1,1,3.0,3.0
2021-08-12 09:20:34.103,976.0,55.0,-3.0,977.5530676132116,1,1,1,3.0,3.0
2021-08-12 09:20:34.113,961.0,55.0,-3.0,962.5772696256648,1,1,1,3.0,3.0
2021-08-12 09:20:34.114,961.0,48.0,5.0,962.210995572177,1,1,1,3.0,3.0
2021-08-12 09:20:34.122,1025.0,31.0,35.0,1026.0657873645334,1,1,1,3.0,3.0
2021-08-12 09:20:34.133,973.0,80.0,6.0,976.3016951741917,1,1,1,3.0,3.0
2021-08-12 09:20:34.142,1028.0,78.0,2.0,1030.95683711783,1,1,1,3.0,3.0
2021-08-12 09:20:34.152,1019.0,-51.0,-18.0,1020.4342212999328,1,1,1,3.0,3.0
2021-08-12 09:20:34.178,1027.0,5.0,21.0,1027.2268493375743,1,1,1,3.0,3.0
2021-08-12 09:20:34.183,971.0,192.0,0.0,989.800484946335,1,1,1,3.0,3.0
2021-08-12 09:20:34.191,1038.0,74.0,-16.0,1040.757416500118,1,1,1,3.0,3.0
2021-08-12 09:20:34.201,1009.0,74.0,-16.0,1011.8364492347564,1,1,1,3.0,3.0
2021-08-12 09:20:34.205,1009.0,28.0,-3.0,1009.3928868384204,1,1,1,3.0,3.0
2021-08-12 09:20:34.210,934.0,26.0,19.0,934.5549743059528,1,1,1,3.0,3.0
2021-08-12 09:20:34.220,993.0,66.0,20.0,995.391882627139,1,1,1,3.0,3.0
2021-08-12 09:20:34.230,1006.0,110.0,17.0,1012.1388244702404,1,1,1,3.0,3.0
2021-08-12 09:20:34.239,1013.0,96.0,8.0,1017.5701450022992,1,1,1,3.0,3.0
2021-08-12 09:20:34.250,988.0,-122.0,-2.0,995.5059015395136,1,1,1,3.0,3.0
2021-08-12 09:20:34.259,988.0,-18.0,21.0,988.3870699275664,1,1,1,3.0,3.0
2021-08-12 09:20:34.269,1024.0,17.0,0.0,1024.1411035594656,1,1,1,3.0,3.0
2021-08-12 09:20:34.279,1081.0,33.0,14.0,1081.5941937713978,1,1,1,3.0,3.0
2021-08-12 09:20:34.288,1052.0,73.0,-4.0,1054.5373393104674,1,1,1,3.0,3.0
2021-08-12 09:20:34.299,978.0,34.0,-16.0,978.7216151695028,1,1,1,3.0,3.0
2021-08-12 09:20:34.308,945.0,39.0,-16.0,945.939744381216,1,1,1,3.0,3.0
2021-08-12 09:20:34.309,945.0,39.0,40.0,946.649882480318,1,1,1,3.0,3.0
2021-08-12 09:20:34.317,1010.0,39.0,40.0,1011.5438695380444,1,1,1,3.0,3.0
2021-08-12 09:20:34.318,1010.0,57.0,9.0,1011.6471716957448,1,1,1,3.0,3.0
2021-08-12 09:20:34.328,1065.0,91.0,38.0,1069.5559826395252,1,1,1,3.0,3.0
2021-08-12 09:20:34.337,1024.0,83.0,15.0,1027.4677610514111,1,1,1,3.0,3.0
2021-08-12 09:20:34.347,1009.0,-50.0,-9.0,1010.2781795129498,1,1,1,3.0,3.0
2021-08-12 09:20:34.358,978.0,23.0,33.0,978.8268488348692,1,1,1,3.0,3.0
2021-08-12 09:20:34.366,1057.0,37.0,6.0,1057.6644080236415,1,1,1,3.0,3.0
2021-08-12 09:20:34.376,1075.0,-6.0,7.0,1075.0395341567676,1,1,1,3.0,3.0
2021-08-12 09:20:34.386,975.0,-8.0,-20.0,975.2379196893444,1,1,1,3.0,3.0
2021-08-12 09:20:34.396,955.0,3.0,-4.0,955.0130889155396,1,1,1,3.0,3.0
2021-08-12 09:20:34.410,932.0,57.0,28.0,934.1611210064352,1,1,1,3.0,3.0
2021-08-12 09:20:34.415,1015.0,44.0,3.0,1015.9576762838104,1,1,1,3.0,3.0
2021-08-12 09:20:34.425,1066.0,67.0,24.0,1068.373062183805,1,1,1,3.0,3.0
2021-08-12 09:20:34.435,1041.0,-27.0,25.0,1041.6501332021228,1,1,1,3.0,3.0
2021-08-12 09:20:34.446,1004.0,144.0,75.0,1017.0432635832163,1,1,1,3.0,3.0
2021-08-12 09:20:34.454,985.0,-8.0,35.0,985.654097541323,1,1,1,3.0,3.0
2021-08-12 09:20:34.464,1028.0,50.0,8.0,1029.2463262018475,1,1,1,3.0,3.0
2021-08-12 09:20:34.474,1099.0,20.0,2.0,1099.1837880900537,1,1,1,3.0,3.0
2021-08-12 09:20:34.484,977.0,51.0,-9.0,978.3716062928236,1,1,1,3.0,3.0
2021-08-12 09:20:34.495,1007.0,11.0,-6.0,1007.0779513026783,1,1,1,3.0,3.0
2021-08-12 09:20:34.503,979.0,93.0,26.0,983.7509847517308,1,1,1,3.0,3.0
2021-08-12 09:20:34.513,976.0,92.0,7.0,980.3514675870078,1,1,1,3.0,3.0
2021-08-12 09:20:34.522,1036.0,92.0,7.0,1040.1004759156683,1,1,1,3.0,3.0
2021-08-12 09:20:34.523,1036.0,64.0,13.0,1038.0563568515922,1,1,1,3.0,3.0
2021-08-12 09:20:34.532,984.0,-30.0,11.0,984.5186641196804,1,1,1,3.0,3.0
2021-08-12 09:20:34.543,1029.0,62.0,11.0,1030.9248275213863,1,1,1,3.0,3.0
2021-08-12 09:20:34.544,1029.0,62.0,50.0,1032.0780009282244,1,1,1,3.0,3.0
2021-08-12 09:20:34.553,1055.0,77.0,21.0,1058.014650182123,1,1,1,3.0,3.0
2021-08-12 09:20:34.561,1040.0,77.0,21.0,1043.058004139751,1,1,1,3.0,3.0
2021-08-12 09:20:34.562,1040.0,60.0,20.0,1041.9213022104884,1,1,1,3.0,3.0
2021-08-12 09:20:34.571,1084.0,-24.0,3.0,1084.2698003725825,1,1,1,3.0,3.0
2021-08-12 09:20:34.581,977.0,75.0,-4.0,979.8826460347178,1,1,1,3.0,3.0
2021-08-12 09:20:34.596,967.0,-4.0,-9.0,967.0501538183012,1,1,1,3.0,3.0
2021-08-12 09:20:34.601,1020.0,134.0,-24.0,1029.0442167370652,1,1,1,3.0,3.0
2021-08-12 09:20:34.612,1011.0,21.0,-24.0,1011.5028423094024,1,1,1,3.0,3.0
2021-08-12 09:20:34.613,1011.0,21.0,-20.0,1011.4158393064644,1,1,1,3.0,3.0
2021-08-12 09:20:34.620,1009.0,83.0,19.0,1012.5862926190538,1,1,1,3.0,3.0
2021-08-12 09:20:34.631,954.0,11.0,19.0,954.2525871067892,1,1,1,3.0,3.0
2021-08-12 09:20:34.632,954.0,11.0,21.0,954.2945038089656,1,1,1,3.0,3.0
2021-08-12 09:20:34.640,1001.0,207.0,56.0,1023.7118735269216,1,1,1,3.0,3.0
2021-08-12 09:20:34.649,1097.0,207.0,56.0,1117.7629444564711,1,1,1,3.0,3.0
2021-08-12 09:20:34.650,1097.0,79.0,42.0,1100.642539610386,1,1,1,3.0,3.0
2021-08-12 09:20:34.668,1065.0,-13.0,19.0,1065.248797230018,1,1,1,3.0,3.0
2021-08-12 09:20:34.671,973.0,5.0,19.0,973.1983353869856,1,1,1,3.0,3.0
2021-08-12 09:20:34.672,973.0,5.0,20.0,973.2183722063616,1,1,1,3.0,3.0
2021-08-12 09:20:34.680,977.0,71.0,5.0,979.5891996137972,1,1,1,3.0,3.0
2021-08-12 09:20:34.689,991.0,33.0,-21.0,991.771647104312,1,1,1,3.0,3.0
2021-08-12 09:20:34.698,1024.0,108.0,-21.0,1029.8936838334334,1,1,1,3.0,3.0
2021-08-12 09:20:34.699,1024.0,108.0,-9.0,1029.718893679241,1,1,1,3.0,3.0
2021-08-12 09:20:34.708,1019.0,0.0,-11.0,1019.0593702037188,1,1,1,3.0,3.0
2021-08-12 09:20:34.718,1000.0,4.0,8.0,1000.039999200032,1,1,1,3.0,3.0
2021-08-12 09:20:34.728,959.0,45.0,8.0,960.0885375839044,1,1,1,3.0,3.0
2021-08-12 09:20:34.729,959.0,45.0,21.0,960.2848535721056,1,1,1,3.0,3.0
2021-08-12 09:20:34.739,1012.0,62.0,28.0,1014.2839839019445,1,1,1,3.0,3.0
2021-08-12 09:20:34.747,1091.0,58.0,40.0,1093.2726101023477,1,1,1,3.0,3.0
2021-08-12 09:20:34.757,1054.0,-58.0,36.0,1056.208312786829,1,1,1,3.0,3.0
2021-08-12 09:20:34.767,964.0,-9.0,25.0,964.3661130504328,1,1,1,3.0,3.0
2021-08-12 09:20:34.777,965.0,86.0,12.0,968.8988595307562,1,1,1,3.0,3.0
2021-08-12 09:20:34.788,995.0,12.0,-18.0,995.2351480931528,1,1,1,3.0,3.0
2021-08-12 09:20:34.796,1037.0,63.0,2.0,1038.9138559091414,1,1,1,3.0,3.0
2021-08-12 09:20:34.808,996.0,20.0,-21.0,996.4220993133382,1,1,1,3.0,3.0
2021-08-12 09:20:34.815,1013.0,20.0,-21.0,1013.415018637478,1,1,1,3.0,3.0
2021-08-12 09:20:34.816,1013.0,9.0,12.0,1013.1110501815682,1,1,1,3.0,3.0
2021-08-12 09:20:34.826,934.0,213.0,13.0,958.0678472843142,1,1,1,3.0,3.0
2021-08-12 09:20:34.836,970.0,136.0,13.0,979.5738869528934,1,1,1,3.0,3.0
2021-08-12 09:20:34.837,970.0,136.0,51.0,980.8144574790892,1,1,1,3.0,3.0
2021-08-12 09:20:34.846,1093.0,56.0,56.0,1095.8654114443068,1,1,1,3.0,3.0
2021-08-12 09:20:34.854,1063.0,56.0,56.0,1065.946058672764,1,1,1,3.0,3.0
2021-08-12 09:20:34.855,1063.0,-32.0,41.0,1064.2715818812414,1,1,1,3.0,3.0
2021-08-12 09:20:34.864,1016.0,22.0,39.0,1016.9862339284638,1,1,1,3.0,3.0
2021-08-12 09:20:34.874,961.0,81.0,11.0,964.4703209534237,1,1,1,3.0,3.0
2021-08-12 09:20:34.884,1030.0,59.0,3.0,1031.6927837297303,1,1,1,3.0,3.0
2021-08-12 09:20:34.895,1016.0,58.0,-13.0,1017.7371959400914,1,1,1,3.0,3.0
2021-08-12 09:20:34.904,968.0,0.0,-20.0,968.20658952519,1,1,1,3.0,3.0
2021-08-12 09:20:34.913,1016.0,24.0,17.0,1016.4255998350296,1,1,1,3.0,3.0
2021-08-12 09:20:34.923,971.0,184.0,2.0,988.2818423911268,1,1,1,3.0,3.0
2021-08-12 09:20:34.933,1066.0,86.0,1.0,1069.4638843831988,1,1,1,3.0,3.0
2021-08-12 09:20:34.944,1101.0,63.0,67.0,1104.8343767280237,1,1,1,3.0,3.0
2021-08-12 09:20:34.953,1023.0,-62.0,35.0,1025.474524305699,1,1,1,3.0,3.0
2021-08-12 09:20:34.962,1011.0,42.0,44.0,1012.8282184062606,1,1,1,3.0,3.0
2021-08-12 09:20:34.972,992.0,97.0,29.0,997.1529471450204,1,1,1,3.0,3.0
2021-08-12 09:20:34.982,1030.0,70.0,13.0,1032.457747319473,1,1,1,3.0,3.0
2021-08-12 09:20:34.992,1004.0,70.0,13.0,1006.5212367357184,1,1,1,3.0,3.0
2021-08-12 09:20:34.993,1004.0,-34.0,9.0,1004.6158469783364,1,1,1,3.0,3.0
2021-08-12 09:20:35.002,977.0,29.0,-23.0,977.7008745009896,1,1,1,3.0,3.0
2021-08-12 09:20:35.012,1014.0,29.0,-23.0,1014.6753175277302,1,1,1,3.0,3.0
2021-08-12 09:20:35.013,1014.0,14.0,11.0,1014.1562995909457,1,1,1,3.0,3.0
2021-08-12 09:20:35.021,989.0,156.0,-17.0,1001.3720587274242,1,1,1,3.0,3.0
2021-08-12 09:20:35.030,1069.0,89.0,-17.0,1072.8331650354587,1,1,1,3.0,3.0
2021-08-12 09:20:35.031,1069.0,89.0,2.0,1072.700330940566,1,1,1,3.0,3.0
2021-08-12 09:20:35.041,967.0,22.0,-5.0,967.2631493032286,1,1,1,3.0,3.0
2021-08-12 09:20:35.051,934.0,48.0,23.0,935.5153659881807,1,1,1,3.0,3.0
2021-08-12 09:20:35.060,993.0,52.0,31.0,994.8437063177312,1,1,1,3.0,3.0
2021-08-12 09:20:35.069,1022.0,96.0,31.0,1026.96689333201,1,1,1,3.0,3.0
2021-08-12 09:20:35.070,1022.0,96.0,18.0,1026.6567099084289,1,1,1,3.0,3.0
2021-08-12 09:20:35.079,1013.0,98.0,17.0,1017.8713081721088,1,1,1,3.0,3.0
2021-08-12 09:20:35.095,1004.0,-37.0,5.0,1004.6939832605748,1,1,1,3.0,3.0
2021-08-12 09:20:35.099,1007.0,-9.0,35.0,1007.6482521197564,1,1,1,3.0,3.0
2021-08-12 09:20:35.108,1003.0,-9.0,35.0,1003.650835699348,1,1,1,3.0,3.0
2021-08-12 09:20:35.109,1003.0,18.0,0.0,1003.1615024511258,1,1,1,3.0,3.0
2021-08-12 09:20:35.118,967.0,177.0,-26.0,983.4093755908574,1,1,1,3.0,3.0
2021-08-12 09:20:35.129,1030.0,61.0,-26.0,1032.132258966844,1,1,1,3.0,3.0
2021-08-12 09:20:35.130,1030.0,61.0,-18.0,1031.961724096393,1,1,1,3.0,3.0
2021-08-12 09:20:35.139,983.0,61.0,-18.0,985.055328395314,1,1,1,3.0,3.0
2021-08-12 09:20:35.140,983.0,26.0,-6.0,983.362089975,1,1,1,3.0,3.0
2021-08-12 09:20:35.147,946.0,26.0,-6.0,946.3762465320016,1,1,1,3.0,3.0
2021-08-12 09:20:35.148,946.0,75.0,29.0,949.4113966031796,1,1,1,3.0,3.0
2021-08-12 09:20:35.157,1004.0,60.0,42.0,1006.667770418821,1,1,1,3.0,3.0
2021-08-12 09:20:35.168,1030.0,92.0,28.0,1034.4795793054593,1,1,1,3.0,3.0
2021-08-12 09:20:35.177,1005.0,40.0,25.0,1006.106356206937,1,1,1,3.0,3.0
2021-08-12 09:20:35.201,997.0,-22.0,3.0,997.2472110765716,1,1,1,3.0,3.0
2021-08-12 09:20:35.202,992.0,13.0,29.0,992.5089420252092,1,1,1,3.0,3.0
2021-08-12 09:20:35.206,1041.0,33.0,23.0,1041.776847506221,1,1,1,3.0,3.0
2021-08-12 09:20:35.216,962.0,184.0,-4.0,979.446782627826,1,1,1,3.0,3.0
2021-08-12 09:20:35.226,1038.0,68.0,-19.0,1040.3984813522172,1,1,1,3.0,3.0
2021-08-12 09:20:35.236,1000.0,17.0,2.0,1000.1464892704468,1,1,1,3.0,3.0
2021-08-12 09:20:35.247,989.0,97.0,17.0,993.8908390764047,1,1,1,3.0,3.0
2021-08-12 09:20:35.255,1003.0,47.0,0.0,1004.1005925702864,1,1,1,3.0,3.0
2021-08-12 09:20:35.265,1034.0,91.0,11.0,1038.054911842336,1,1,1,3.0,3.0
2021-08-12 09:20:35.274,1026.0,91.0,11.0,1030.0864041428758,1,1,1,3.0,3.0
2021-08-12 09:20:35.275,1026.0,0.0,20.0,1026.1949132596594,1,1,1,3.0,3.0
2021-08-12 09:20:35.285,984.0,0.0,20.0,984.203231045296,1,1,1,3.0,3.0
2021-08-12 09:20:35.286,984.0,-31.0,21.0,984.7121406786858,1,1,1,3.0,3.0
2021-08-12 09:20:35.295,996.0,17.0,26.0,996.4843199970584,1,1,1,3.0,3.0
2021-08-12 09:20:35.304,1029.0,55.0,16.0,1030.5930331610048,1,1,1,3.0,3.0
2021-08-12 09:20:35.313,1094.0,55.0,16.0,1095.4985166580557,1,1,1,3.0,3.0
2021-08-12 09:20:35.314,1094.0,-25.0,19.0,1094.4505470783045,1,1,1,3.0,3.0
2021-08-12 09:20:35.323,1014.0,33.0,-22.0,1014.7753445960342,1,1,1,3.0,3.0
2021-08-12 09:20:35.333,1003.0,10.0,2.0,1003.0518431267648,1,1,1,3.0,3.0
2021-08-12 09:20:35.344,982.0,145.0,2.0,992.6494849643552,1,1,1,3.0,3.0
2021-08-12 09:20:35.345,982.0,145.0,19.0,992.8292904623636,1,1,1,3.0,3.0
2021-08-12 09:20:35.353,1098.0,0.0,19.0,1098.164377495464,1,1,1,3.0,3.0
2021-08-12 09:20:35.362,969.0,96.0,5.0,973.7566431095604,1,1,1,3.0,3.0
2021-08-12 09:20:35.372,940.0,21.0,12.0,940.3111187261374,1,1,1,3.0,3.0
2021-08-12 09:20:35.382,976.0,-18.0,29.0,976.5966414031948,1,1,1,3.0,3.0
2021-08-12 09:20:35.392,971.0,31.0,19.0,971.6805030461402,1,1,1,3.0,3.0
2021-08-12 09:20:35.403,1018.0,59.0,25.0,1020.0147057763432,1,1,1,3.0,3.0
2021-08-12 09:20:35.411,1071.0,-78.0,4.0,1073.844029643039,1,1,1,3.0,3.0
2021-08-12 09:20:35.421,964.0,106.0,13.0,969.8974172560723,1,1,1,3.0,3.0
2021-08-12 09:20:35.431,1002.0,57.0,-5.0,1003.632402824859,1,1,1,3.0,3.0
2021-08-12 09:20:35.441,955.0,179.0,4.0,971.6388217851322,1,1,1,3.0,3.0
2021-08-12 09:20:35.451,1091.0,15.0,-3.0,1091.1072357930727,1,1,1,3.0,3.0
2021-08-12 09:20:35.460,998.0,51.0,-3.0,999.3067597089496,1,1,1,3.0,3.0
2021-08-12 09:20:35.461,998.0,51.0,20.0,999.5023761852696,1,1,1,3.0,3.0
2021-08-12 09:20:35.470,945.0,40.0,26.0,946.2034664912192,1,1,1,3.0,3.0
2021-08-12 09:20:35.479,1010.0,40.0,26.0,1011.1261048949336,1,1,1,3.0,3.0
2021-08-12 09:20:35.480,1010.0,91.0,22.0,1014.3298280145368,1,1,1,3.0,3.0
2021-08-12 09:20:35.490,966.0,36.0,20.0,966.8774482839074,1,1,1,3.0,3.0
2021-08-12 09:20:35.501,1047.0,58.0,24.0,1048.8798787277788,1,1,1,3.0,3.0
2021-08-12 09:20:35.509,1076.0,-96.0,-19.0,1080.441113619803,1,1,1,3.0,3.0
2021-08-12 09:20:35.519,999.0,28.0,9.0,999.4328391642932,1,1,1,3.0,3.0
2021-08-12 09:20:35.528,1000.0,62.0,9.0,1001.960578066822,1,1,1,3.0,3.0
2021-08-12 09:20:35.529,1000.0,62.0,-14.0,1002.0179639108272,1,1,1,3.0,3.0
2021-08-12 09:20:35.539,1031.0,83.0,-13.0,1034.4172272347362,1,1,1,3.0,3.0
2021-08-12 09:20:35.549,1074.0,49.0,9.0,1075.1548725648784,1,1,1,3.0,3.0
2021-08-12 09:20:35.558,971.0,86.0,0.0,974.8010053339092,1,1,1,3.0,3.0
2021-08-12 09:20:35.567,969.0,32.0,16.0,969.6602497782408,1,1,1,3.0,3.0
2021-08-12 09:20:35.577,987.0,74.0,26.0,990.1116098703216,1,1,1,3.0,3.0
2021-08-12 09:20:35.587,1083.0,62.0,39.0,1085.4740899717506,1,1,1,3.0,3.0
2021-08-12 09:20:35.597,1040.0,62.0,39.0,1042.5761363085192,1,1,1,3.0,3.0
2021-08-12 09:20:35.598,1040.0,68.0,15.0,1042.3286429912594,1,1,1,3.0,3.0
2021-08-12 09:20:35.610,1067.0,-48.0,-4.0,1068.0866069752958,1,1,1,3.0,3.0
2021-08-12 09:20:35.623,996.0,37.0,10.0,996.7371769930126,1,1,1,3.0,3.0
2021-08-12 09:20:35.627,990.0,24.0,-9.0,990.3317625927182,1,1,1,3.0,3.0
2021-08-12 09:20:35.636,1047.0,63.0,-11.0,1048.9513811421386,1,1,1,3.0,3.0
2021-08-12 09:20:35.647,977.0,7.0,-7.0,977.050152243988,1,1,1,3.0,3.0
2021-08-12 09:20:35.655,999.0,53.0,-5.0,1000.4174128832424,1,1,1,3.0,3.0
2021-08-12 09:20:35.665,977.0,30.0,0.0,977.4604851348212,1,1,1,3.0,3.0
2021-08-12 09:20:35.685,1074.0,30.0,0.0,1074.4189127151476,1,1,1,3.0,3.0
2021-08-12 09:20:35.686,1074.0,60.0,-5.0,1075.686292559313,1,1,1,3.0,3.0
2021-08-12 09:20:35.689,1068.0,71.0,40.0,1071.1045700584048,1,1,1,3.0,3.0
2021-08-12 09:20:35.694,1046.0,-19.0,44.0,1047.0974166714384,1,1,1,3.0,3.0
2021-08-12 09:20:35.704,1037.0,41.0,44.0,1038.7425089982598,1,1,1,3.0,3.0
2021-08-12 09:20:35.705,1037.0,41.0,43.0,1038.700630595746,1,1,1,3.0,3.0
2021-08-12 09:20:35.714,1010.0,41.0,5.0,1010.8442016453376,1,1,1,3.0,3.0
2021-08-12 09:20:35.724,1006.0,31.0,-14.0,1006.5748854407208,1,1,1,3.0,3.0
2021-08-12 09:20:35.735,1035.0,63.0,13.0,1036.9971070355018,1,1,1,3.0,3.0
2021-08-12 09:20:35.744,982.0,-7.0,-31.0,982.5141220359124,1,1,1,3.0,3.0
2021-08-12 09:20:35.753,980.0,-28.0,12.0,980.4733550688668,1,1,1,3.0,3.0
2021-08-12 09:20:35.763,940.0,33.0,7.0,940.6051243747291,1,1,1,3.0,3.0
2021-08-12 09:20:35.772,981.0,33.0,7.0,981.579849018917,1,1,1,3.0,3.0
2021-08-12 09:20:35.773,981.0,37.0,17.0,981.8446924030296,1,1,1,3.0,3.0
2021-08-12 09:20:35.783,1063.0,53.0,38.0,1064.9985915483644,1,1,1,3.0,3.0
2021-08-12 09:20:35.794,1045.0,-43.0,36.0,1046.5037028123695,1,1,1,3.0,3.0
2021-08-12 09:20:35.802,1015.0,98.0,58.0,1021.3682000140792,1,1,1,3.0,3.0
2021-08-12 09:20:35.812,980.0,69.0,13.0,982.5120864396528,1,1,1,3.0,3.0
2021-08-12 09:20:35.821,1017.0,45.0,7.0,1018.0191550260732,1,1,1,3.0,3.0
2021-08-12 09:20:35.831,1083.0,45.0,7.0,1083.9571024722334,1,1,1,3.0,3.0
2021-08-12 09:20:35.832,1083.0,53.0,12.0,1084.3624855185649,1,1,1,3.0,3.0
2021-08-12 09:20:35.842,981.0,33.0,-21.0,981.77950681403,1,1,1,3.0,3.0
2021-08-12 09:20:35.851,1001.0,10.0,10.0,1001.0998951153676,1,1,1,3.0,3.0
2021-08-12 09:20:35.861,963.0,176.0,-19.0,979.135332831984,1,1,1,3.0,3.0
2021-08-12 09:20:35.870,1065.0,60.0,-4.0,1066.696301671661,1,1,1,3.0,3.0
2021-08-12 09:20:35.880,1055.0,76.0,34.0,1058.280208640415,1,1,1,3.0,3.0
2021-08-12 09:20:35.890,1051.0,-38.0,34.0,1052.236190215866,1,1,1,3.0,3.0
2021-08-12 09:20:35.891,1051.0,-38.0,13.0,1051.767084482111,1,1,1,3.0,3.0
2021-08-12 09:20:35.900,1018.0,63.0,13.0,1020.0303917040904,1,1,1,3.0,3.0
2021-08-12 09:20:35.901,1018.0,63.0,26.0,1020.2788834431497,1,1,1,3.0,3.0
2021-08-12 09:20:35.910,1032.0,114.0,9.0,1038.316425758545,1,1,1,3.0,3.0
2021-08-12 09:20:35.919,1011.0,107.0,18.0,1016.8057828317068,1,1,1,3.0,3.0
2021-08-12 09:20:35.929,1090.0,35.0,0.0,1090.5617818353987,1,1,1,3.0,3.0
2021-08-12 09:20:35.939,963.0,47.0,-17.0,964.2961163460112,1,1,1,3.0,3.0
2021-08-12 09:20:35.950,1005.0,8.0,9.0,1005.0721367145744,1,1,1,3.0,3.0
2021-08-12 09:20:35.958,955.0,162.0,-11.0,968.705321550367,1,1,1,3.0,3.0
2021-08-12 09:20:35.968,1047.0,55.0,-14.0,1048.5370761208208,1,1,1,3.0,3.0
2021-08-12 09:20:35.977,992.0,55.0,-14.0,993.622161588599,1,1,1,3.0,3.0
2021-08-12 09:20:35.978,992.0,40.0,-3.0,992.8106566712509,1,1,1,3.0,3.0
2021-08-12 09:20:35.987,1028.0,40.0,-3.0,1028.7822898942225,1,1,1,3.0,3.0
2021-08-12 09:20:35.988,1028.0,-44.0,14.0,1029.036442503374,1,1,1,3.0,3.0
2021-08-12 09:20:35.998,1017.0,-44.0,14.0,1018.0476413213676,1,1,1,3.0,3.0
2021-08-12 09:20:35.999,1017.0,71.0,44.0,1020.4244215031312,1,1,1,3.0,3.0
2021-08-12 09:20:36.008,1036.0,85.0,33.0,1040.0048076811952,1,1,1,3.0,3.0
2021-08-12 09:20:36.018,1024.0,54.0,19.0,1025.5988494533328,1,1,1,3.0,3.0
2021-08-12 09:20:36.026,976.0,-43.0,19.0,977.1315162249144,1,1,1,3.0,3.0
2021-08-12 09:20:36.027,976.0,-43.0,-1.0,976.9472861930678,1,1,1,3.0,3.0
2021-08-12 09:20:36.036,986.0,14.0,-28.0,986.4968322300888,1,1,1,3.0,3.0
2021-08-12 09:20:36.046,979.0,-4.0,-28.0,979.4084949600958,1,1,1,3.0,3.0
2021-08-12 09:20:36.047,979.0,-4.0,-6.0,979.02655735174,1,1,1,3.0,3.0
2021-08-12 09:20:36.057,953.0,163.0,-17.0,966.9886245452942,1,1,1,3.0,3.0
2021-08-12 09:20:36.066,1037.0,29.0,-7.0,1037.4290337174875,1,1,1,3.0,3.0
2021-08-12 09:20:36.075,992.0,17.0,-1.0,992.146158587534,1,1,1,3.0,3.0
2021-08-12 09:20:36.085,967.0,141.0,17.0,977.3735212292175,1,1,1,3.0,3.0
2021-08-12 09:20:36.095,1039.0,75.0,46.0,1042.71856222089,1,1,1,3.0,3.0
2021-08-12 09:20:36.110,1042.0,80.0,32.0,1045.5563112525313,1,1,1,3.0,3.0
2021-08-12 09:20:36.114,1033.0,4.0,23.0,1033.2637610987815,1,1,1,3.0,3.0
2021-08-12 09:20:36.124,985.0,-27.0,10.0,985.42072233133,1,1,1,3.0,3.0
2021-08-12 09:20:36.134,966.0,54.0,15.0,967.6244106056854,1,1,1,3.0,3.0
2021-08-12 09:20:36.145,961.0,49.0,-6.0,962.2671146828204,1,1,1,3.0,3.0
2021-08-12 09:20:36.153,1005.0,150.0,-7.0,1016.156484012182,1,1,1,3.0,3.0
2021-08-12 09:20:36.163,1033.0,18.0,-21.0,1033.370214395596,1,1,1,3.0,3.0
2021-08-12 09:20:36.173,997.0,16.0,-3.0,997.1328898396642,1,1,1,3.0,3.0
2021-08-12 09:20:36.183,950.0,170.0,13.0,965.1782218844352,1,1,1,3.0,3.0
2021-08-12 09:20:36.194,1050.0,48.0,4.0,1051.104181325524,1,1,1,3.0,3.0
2021-08-12 09:20:36.221,1065.0,58.0,29.0,1066.972352031673,1,1,1,3.0,3.0
2021-08-12 09:20:36.222,1061.0,-45.0,18.0,1062.106397683396,1,1,1,3.0,3.0
2021-08-12 09:20:36.225,956.0,-8.0,24.0,956.3346694541614,1,1,1,3.0,3.0
2021-08-12 09:20:36.232,968.0,64.0,11.0,970.1757572728768,1,1,1,3.0,3.0
2021-08-12 09:20:36.241,1037.0,66.0,19.0,1039.271860486947,1,1,1,3.0,3.0
2021-08-12 09:20:36.252,1070.0,-60.0,7.0,1071.703783701448,1,1,1,3.0,3.0
2021-08-12 09:20:36.261,1000.0,17.0,-17.0,1000.2889582515644,1,1,1,3.0,3.0
2021-08-12 09:20:36.270,1002.0,17.0,-17.0,1002.2883816547012,1,1,1,3.0,3.0
2021-08-12 09:20:36.271,1002.0,1.0,3.0,1002.0049900075348,1,1,1,3.0,3.0
2021-08-12 09:20:36.282,938.0,177.0,21.0,954.78479250562,1,1,1,3.0,3.0
2021-08-12 09:20:36.291,1106.0,5.0,5.0,1106.0226037473194,1,1,1,3.0,3.0
2021-08-12 09:20:36.300,975.0,64.0,2.0,977.10030191378,1,1,1,3.0,3.0
2021-08-12 09:20:36.310,1075.0,-31.0,40.0,1076.1905035819634,1,1,1,3.0,3.0
2021-08-12 09:20:36.320,988.0,15.0,27.0,988.482675619558,1,1,1,3.0,3.0
2021-08-12 09:20:36.330,961.0,62.0,1.0,962.9984423663416,1,1,1,3.0,3.0
2021-08-12 09:20:36.340,1051.0,67.0,1.0,1053.133894621192,1,1,1,3.0,3.0
2021-08-12 09:20:36.341,1051.0,67.0,9.0,1053.1718758113511,1,1,1,3.0,3.0
2021-08-12 09:20:36.348,1066.0,67.0,9.0,1068.141376410445,1,1,1,3.0,3.0
2021-08-12 09:20:36.349,1066.0,-37.0,2.0,1066.6438018382707,1,1,1,3.0,3.0
2021-08-12 09:20:36.358,997.0,-37.0,2.0,997.688328086482,1,1,1,3.0,3.0
2021-08-12 09:20:36.359,997.0,36.0,10.0,997.6998546657206,1,1,1,3.0,3.0
2021-08-12 09:20:36.368,1019.0,8.0,10.0,1019.080467872876,1,1,1,3.0,3.0
2021-08-12 09:20:36.369,1019.0,8.0,14.0,1019.1275680698664,1,1,1,3.0,3.0
2021-08-12 09:20:36.378,946.0,194.0,15.0,965.803810305178,1,1,1,3.0,3.0
2021-08-12 09:20:36.392,1084.0,194.0,15.0,1101.3251109459004,1,1,1,3.0,3.0
2021-08-12 09:20:36.393,1084.0,63.0,-17.0,1085.9622461209228,1,1,1,3.0,3.0
2021-08-12 09:20:36.398,987.0,36.0,-14.0,987.7555365575026,1,1,1,3.0,3.0
2021-08-12 09:20:36.407,970.0,35.0,7.0,970.6564788842652,1,1,1,3.0,3.0
2021-08-12 09:20:36.417,1003.0,33.0,36.0,1004.1882293673832,1,1,1,3.0,3.0
2021-08-12 09:20:36.427,965.0,62.0,8.0,967.0227505079702,1,1,1,3.0,3.0
2021-08-12 09:20:36.437,1028.0,70.0,14.0,1030.475618343297,1,1,1,3.0,3.0
2021-08-12 09:20:36.447,1046.0,-61.0,-6.0,1047.7943500515737,1,1,1,3.0,3.0
2021-08-12 09:20:36.456,1006.0,41.0,22.0,1007.075468870134,1,1,1,3.0,3.0
2021-08-12 09:20:36.466,1010.0,26.0,-1.0,1010.335092927094,1,1,1,3.0,3.0
2021-08-12 09:20:36.476,956.0,191.0,0.0,974.8933274979372,1,1,1,3.0,3.0
2021-08-12 09:20:36.486,1078.0,51.0,-2.0,1079.2075796620406,1,1,1,3.0,3.0
2021-08-12 09:20:36.497,987.0,9.0,-18.0,987.2051458536872,1,1,1,3.0,3.0
2021-08-12 09:20:36.505,965.0,34.0,4.0,965.6070629402004,1,1,1,3.0,3.0
2021-08-12 09:20:36.515,984.0,47.0,12.0,985.1949045747242,1,1,1,3.0,3.0
2021-08-12 09:20:36.525,1055.0,57.0,40.0,1057.2956067250068,1,1,1,3.0,3.0
2021-08-12 09:20:36.535,1021.0,69.0,3.0,1023.3332790445154,1,1,1,3.0,3.0
2021-08-12 09:20:36.546,1025.0,-41.0,2.0,1025.8216219206925,1,1,1,3.0,3.0
2021-08-12 09:20:36.554,1015.0,18.0,22.0,1015.3979515441224,1,1,1,3.0,3.0
2021-08-12 09:20:36.563,1023.0,18.0,22.0,1023.3948407139836,1,1,1,3.0,3.0
2021-08-12 09:20:36.564,1023.0,18.0,0.0,1023.15834551647,1,1,1,3.0,3.0
2021-08-12 09:20:36.574,1057.0,54.0,2.0,1058.380366408977,1,1,1,3.0,3.0
2021-08-12 09:20:36.583,969.0,34.0,-23.0,969.8690633276226,1,1,1,3.0,3.0
2021-08-12 09:20:36.593,984.0,18.0,-23.0,984.4333395410785,1,1,1,3.0,3.0
2021-08-12 09:20:36.594,984.0,18.0,-28.0,984.562847156036,1,1,1,3.0,3.0
2021-08-12 09:20:36.604,953.0,49.0,15.0,954.3767599852796,1,1,1,3.0,3.0
2021-08-12 09:20:36.612,997.0,53.0,15.0,998.5204053999096,1,1,1,3.0,3.0
2021-08-12 09:20:36.613,997.0,53.0,23.0,998.67261902988,1,1,1,3.0,3.0
2021-08-12 09:20:36.623,1069.0,83.0,48.0,1073.2912000011927,1,1,1,3.0,3.0
2021-08-12 09:20:36.632,1052.0,-60.0,16.0,1053.8311060127237,1,1,1,3.0,3.0
2021-08-12 09:20:36.647,1032.0,-24.0,2.0,1032.2809695039427,1,1,1,3.0,3.0
2021-08-12 09:20:36.653,988.0,30.0,26.0,988.797249187112,1,1,1,3.0,3.0
2021-08-12 09:20:36.661,1015.0,3.0,-5.0,1015.0167486302872,1,1,1,3.0,3.0
2021-08-12 09:20:36.671,1074.0,39.0,6.0,1074.7246158900427,1,1,1,3.0,3.0
2021-08-12 09:20:36.681,1010.0,39.0,6.0,1010.7704981844296,1,1,1,3.0,3.0
2021-08-12 09:20:36.682,1010.0,39.0,-16.0,1010.879320196036,1,1,1,3.0,3.0
2021-08-12 09:20:36.692,1000.0,23.0,2.0,1000.2664644983356,1,1,1,3.0,3.0
2021-08-12 09:20:36.708,946.0,23.0,2.0,946.2816705400144,1,1,1,3.0,3.0
2021-08-12 09:20:36.709,946.0,40.0,23.0,947.1245958162,1,1,1,3.0,3.0
2021-08-12 09:20:36.711,1015.0,34.0,9.0,1015.609176799816,1,1,1,3.0,3.0
2021-08-12 09:20:36.720,1060.0,71.0,30.0,1062.7986639058215,1,1,1,3.0,3.0
2021-08-12 09:20:36.731,1037.0,-55.0,8.0,1038.4883244408672,1,1,1,3.0,3.0
2021-08-12 09:20:36.740,1045.0,79.0,70.0,1050.31709497656,1,1,1,3.0,3.0
2021-08-12 09:20:36.749,1016.0,77.0,21.0,1019.1300211454866,1,1,1,3.0,3.0
2021-08-12 09:20:36.759,1036.0,6.0,14.0,1036.1119630619078,1,1,1,3.0,3.0
2021-08-12 09:20:36.769,1101.0,13.0,19.0,1101.2406639785877,1,1,1,3.0,3.0
2021-08-12 09:20:36.779,987.0,32.0,-26.0,987.860820156362,1,1,1,3.0,3.0
2021-08-12 09:20:36.788,1003.0,-11.0,0.0,1003.0603172292282,1,1,1,3.0,3.0
2021-08-12 09:20:36.798,956.0,181.0,0.0,972.9835558733764,1,1,1,3.0,3.0
2021-08-12 09:20:36.799,956.0,181.0,-16.0,973.1151011057224,1,1,1,3.0,3.0
2021-08-12 09:20:36.808,1019.0,20.0,-2.0,1019.19821428415,1,1,1,3.0,3.0
2021-08-12 09:20:36.818,1036.0,20.0,-2.0,1036.1949623502326,1,1,1,3.0,3.0
2021-08-12 09:20:36.819,1036.0,66.0,39.0,1038.8325177813797,1,1,1,3.0,3.0
2021-08-12 09:20:36.827,1062.0,-28.0,19.0,1062.5389404628895,1,1,1,3.0,3.0
2021-08-12 09:20:36.837,994.0,71.0,33.0,997.078733099849,1,1,1,3.0,3.0
2021-08-12 09:20:36.847,1025.0,81.0,19.0,1028.3710419882505,1,1,1,3.0,3.0
2021-08-12 09:20:36.856,1019.0,81.0,19.0,1022.3908254674432,1,1,1,3.0,3.0
2021-08-12 09:20:36.857,1019.0,65.0,15.0,1021.1811788316508,1,1,1,3.0,3.0
2021-08-12 09:20:36.868,1094.0,22.0,9.0,1094.2581962224456,1,1,1,3.0,3.0
2021-08-12 09:20:36.876,994.0,16.0,-15.0,994.24192227043,1,1,1,3.0,3.0
2021-08-12 09:20:36.886,1003.0,27.0,2.0,1003.365337252588,1,1,1,3.0,3.0
2021-08-12 09:20:36.896,988.0,144.0,-5.0,998.4513007653404,1,1,1,3.0,3.0
2021-08-12 09:20:36.905,1040.0,32.0,-23.0,1040.7463667964448,1,1,1,3.0,3.0
2021-08-12 09:20:36.916,1044.0,68.0,13.0,1046.2929800012996,1,1,1,3.0,3.0
2021-08-12 09:20:36.925,1016.0,-23.0,17.0,1016.4024793358192,1,1,1,3.0,3.0
2021-08-12 09:20:36.934,1022.0,-23.0,17.0,1022.4001173708853,1,1,1,3.0,3.0
2021-08-12 09:20:36.935,1022.0,84.0,40.0,1026.2260959457228,1,1,1,3.0,3.0
2021-08-12 09:20:36.944,1043.0,88.0,27.0,1047.053962315219,1,1,1,3.0,3.0
2021-08-12 09:20:36.955,1031.0,3.0,25.0,1031.3074226437045,1,1,1,3.0,3.0
2021-08-12 09:20:36.964,980.0,-15.0,5.0,980.127542720844,1,1,1,3.0,3.0
2021-08-12 09:20:36.975,987.0,34.0,-5.0,987.5980963934672,1,1,1,3.0,3.0
2021-08-12 09:20:36.983,984.0,23.0,0.0,984.2687641086656,1,1,1,3.0,3.0
2021-08-12 09:20:36.994,1017.0,118.0,-16.0,1023.947752573343,1,1,1,3.0,3.0
2021-08-12 09:20:37.004,1017.0,0.0,-29.0,1017.4133869769948,1,1,1,3.0,3.0
2021-08-12 09:20:37.013,1012.0,15.0,0.0,1012.1111599029032,1,1,1,3.0,3.0
2021-08-12 09:20:37.023,992.0,15.0,0.0,992.1134007763428,1,1,1,3.0,3.0
2021-08-12 09:20:37.024,992.0,-14.0,18.0,992.2620621589842,1,1,1,3.0,3.0
2021-08-12 09:20:37.032,992.0,72.0,24.0,994.8989898477132,1,1,1,3.0,3.0
2021-08-12 09:20:37.042,1059.0,77.0,20.0,1061.9839923464008,1,1,1,3.0,3.0
2021-08-12 09:20:37.052,1057.0,-22.0,19.0,1057.3996406278943,1,1,1,3.0,3.0
2021-08-12 09:20:37.062,981.0,2.0,23.0,981.2716239655564,1,1,1,3.0,3.0
2021-08-12 09:20:37.073,977.0,81.0,18.0,980.517210455788,1,1,1,3.0,3.0
2021-08-12 09:20:37.081,1003.0,2.0,-9.0,1003.0423719863484,1,1,1,3.0,3.0
2021-08-12 09:20:37.091,1034.0,92.0,-21.0,1038.2971636289874,1,1,1,3.0,3.0
2021-08-12 09:20:37.101,1000.0,6.0,-24.0,1000.3059531963208,1,1,1,3.0,3.0
2021-08-12 09:20:37.116,1025.0,4.0,-24.0,1025.288739819179,1,1,1,3.0,3.0
2021-08-12 09:20:37.117,1025.0,4.0,19.0,1025.1838859443706,1,1,1,3.0,3.0
2021-08-12 09:20:37.125,933.0,4.0,19.0,933.202014571336,1,1,1,3.0,3.0
2021-08-12 09:20:37.126,933.0,200.0,1.0,954.1959966380072,1,1,1,3.0,3.0
2021-08-12 09:20:37.130,1064.0,62.0,-1.0,1065.8053293167566,1,1,1,3.0,3.0
2021-08-12 09:20:37.140,1077.0,74.0,31.0,1079.9842591445488,1,1,1,3.0,3.0
2021-08-12 09:20:37.150,1048.0,-18.0,29.0,1048.5556732954144,1,1,1,3.0,3.0
2021-08-12 09:20:37.161,998.0,15.0,29.0,998.5339253125052,1,1,1,3.0,3.0
2021-08-12 09:20:37.162,998.0,15.0,34.0,998.6916441024226,1,1,1,3.0,3.0
2021-08-12 09:20:37.169,972.0,67.0,5.0,974.3192495275867,1,1,1,3.0,3.0
2021-08-12 09:20:37.179,1038.0,81.0,17.0,1041.294386809033,1,1,1,3.0,3.0
2021-08-12 09:20:37.188,1036.0,81.0,17.0,1039.3007264502417,1,1,1,3.0,3.0
2021-08-12 09:20:37.189,1036.0,74.0,-12.0,1038.708813864598,1,1,1,3.0,3.0
2021-08-12 09:20:37.200,996.0,0.0,-21.0,996.22136094344,1,1,1,3.0,3.0
2021-08-12 09:20:37.208,1009.0,1.0,9.0,1009.0406334732016,1,1,1,3.0,3.0
2021-08-12 09:20:37.218,937.0,200.0,0.0,958.1069877628488,1,1,1,3.0,3.0
2021-08-12 09:20:37.240,1081.0,65.0,-11.0,1083.008310217424,1,1,1,3.0,3.0
2021-08-12 09:20:37.242,1104.0,61.0,38.0,1106.336748011201,1,1,1,3.0,3.0
2021-08-12 09:20:37.247,1035.0,-43.0,33.0,1036.418351825169,1,1,1,3.0,3.0
2021-08-12 09:20:37.258,1024.0,39.0,43.0,1025.644187815638,1,1,1,3.0,3.0
2021-08-12 09:20:37.267,998.0,67.0,20.0,1000.4464003633578,1,1,1,3.0,3.0
2021-08-12 09:20:37.276,1021.0,67.0,20.0,1023.3914207183876,1,1,1,3.0,3.0
2021-08-12 09:20:37.277,1021.0,97.0,5.0,1025.609574838301,1,1,1,3.0,3.0
2021-08-12 09:20:37.287,1045.0,-77.0,0.0,1047.8330019616676,1,1,1,3.0,3.0
2021-08-12 09:20:37.297,997.0,34.0,-13.0,997.6642721877936,1,1,1,3.0,3.0
2021-08-12 09:20:37.306,1002.0,2.0,3.0,1002.0064870049496,1,1,1,3.0,3.0
2021-08-12 09:20:37.316,976.0,182.0,7.0,992.8489311068428,1,1,1,3.0,3.0
2021-08-12 09:20:37.325,1034.0,73.0,-13.0,1036.6551982216652,1,1,1,3.0,3.0
2021-08-12 09:20:37.335,1011.0,31.0,-13.0,1011.5586982474126,1,1,1,3.0,3.0
2021-08-12 09:20:37.345,1039.0,31.0,-13.0,1039.5436498771949,1,1,1,3.0,3.0
2021-08-12 09:20:37.346,1039.0,-53.0,33.0,1040.8741518550646,1,1,1,3.0,3.0
2021-08-12 09:20:37.354,997.0,-53.0,33.0,998.9529518450806,1,1,1,3.0,3.0
2021-08-12 09:20:37.355,997.0,63.0,41.0,999.8294854623962,1,1,1,3.0,3.0
2021-08-12 09:20:37.365,1032.0,63.0,41.0,1034.7337821874764,1,1,1,3.0,3.0
2021-08-12 09:20:37.366,1032.0,84.0,12.0,1035.482496230622,1,1,1,3.0,3.0
2021-08-12 09:20:37.374,1000.0,119.0,23.0,1007.3182218147352,1,1,1,3.0,3.0
2021-08-12 09:20:37.387,995.0,-50.0,-4.0,996.2635193561993,1,1,1,3.0,3.0
2021-08-12 09:20:37.395,976.0,12.0,37.0,976.7747949246028,1,1,1,3.0,3.0
2021-08-12 09:20:37.404,1005.0,0.0,4.0,1005.0079601674804,1,1,1,3.0,3.0
2021-08-12 09:20:37.414,973.0,163.0,-23.0,986.8267325118428,1,1,1,3.0,3.0
2021-08-12 09:20:37.423,1048.0,51.0,-15.0,1049.3474162545024,1,1,1,3.0,3.0
2021-08-12 09:20:37.433,991.0,16.0,-11.0,991.1901936560914,1,1,1,3.0,3.0
2021-08-12 09:20:37.443,940.0,63.0,22.0,942.3656402904342,1,1,1,3.0,3.0
2021-08-12 09:20:37.453,995.0,74.0,50.0,999.0,1,1,1,3.0,3.0
2021-08-12 09:20:37.462,1030.0,87.0,17.0,1033.8075256061934,1,1,1,3.0,3.0
2021-08-12 09:20:37.472,1005.0,87.0,17.0,1008.9018782815303,1,1,1,3.0,3.0
2021-08-12 09:20:37.473,1005.0,79.0,16.0,1008.2271569443068,1,1,1,3.0,3.0
2021-08-12 09:20:37.481,978.0,79.0,16.0,981.3159531975418,1,1,1,3.0,3.0
2021-08-12 09:20:37.482,978.0,-45.0,-3.0,979.0393250528806,1,1,1,3.0,3.0
2021-08-12 09:20:37.491,991.0,19.0,34.0,991.765093154624,1,1,1,3.0,3.0
2021-08-12 09:20:37.502,1035.0,50.0,15.0,1036.3155889978689,1,1,1,3.0,3.0
2021-08-12 09:20:37.511,954.0,150.0,-11.0,965.7831019437024,1,1,1,3.0,3.0
2021-08-12 09:20:37.522,1057.0,34.0,-8.0,1057.5769475551176,1,1,1,3.0,3.0
2021-08-12 09:20:37.530,997.0,5.0,5.0,997.0250749103556,1,1,1,3.0,3.0
2021-08-12 09:20:37.540,971.0,103.0,13.0,976.5341775892946,1,1,1,3.0,3.0
2021-08-12 09:20:37.551,1019.0,65.0,2.0,1021.0729650715468,1,1,1,3.0,3.0
2021-08-12 09:20:37.560,1048.0,93.0,25.0,1052.415317258353,1,1,1,3.0,3.0
2021-08-12 09:20:37.571,1036.0,15.0,22.0,1036.3421249761104,1,1,1,3.0,3.0
2021-08-12 09:20:37.580,976.0,-8.0,23.0,976.3037437191358,1,1,1,3.0,3.0
2021-08-12 09:20:37.592,988.0,-8.0,23.0,988.3000556511164,1,1,1,3.0,3.0
2021-08-12 09:20:37.593,988.0,35.0,22.0,988.864500323477,1,1,1,3.0,3.0
2021-08-12 09:20:37.599,1040.0,41.0,8.0,1040.8386042033603,1,1,1,3.0,3.0
2021-08-12 09:20:37.609,1087.0,-21.0,8.0,1087.2322658935393,1,1,1,3.0,3.0
2021-08-12 09:20:37.610,1087.0,-21.0,19.0,1087.3688426656338,1,1,1,3.0,3.0
2021-08-12 09:20:37.618,1017.0,29.0,-19.0,1017.5907821909552,1,1,1,3.0,3.0
2021-08-12 09:20:37.629,1007.0,-21.0,-10.0,1007.268583844448,1,1,1,3.0,3.0
2021-08-12 09:20:37.638,956.0,166.0,18.0,970.4720500869666,1,1,1,3.0,3.0
2021-08-12 09:20:37.647,1035.0,166.0,18.0,1048.3820868366647,1,1,1,3.0,3.0
2021-08-12 09:20:37.648,1035.0,71.0,0.0,1037.4324074367448,1,1,1,3.0,3.0
2021-08-12 09:20:37.664,1012.0,79.0,19.0,1015.2566178065524,1,1,1,3.0,3.0
2021-08-12 09:20:37.668,1084.0,-46.0,19.0,1085.141926201361,1,1,1,3.0,3.0
2021-08-12 09:20:37.669,1084.0,-46.0,23.0,1085.219332669668,1,1,1,3.0,3.0
2021-08-12 09:20:37.678,970.0,-34.0,18.0,970.7625868357308,1,1,1,3.0,3.0
2021-08-12 09:20:37.687,966.0,38.0,18.0,966.9146808276312,1,1,1,3.0,3.0
2021-08-12 09:20:37.688,966.0,38.0,19.0,966.93381366048,1,1,1,3.0,3.0
2021-08-12 09:20:37.697,1060.0,71.0,19.0,1062.5450578681357,1,1,1,3.0,3.0
2021-08-12 09:20:37.698,1060.0,71.0,18.0,1062.527646699134,1,1,1,3.0,3.0
2021-08-12 09:20:37.706,1069.0,-49.0,4.0,1070.1298986571676,1,1,1,3.0,3.0
2021-08-12 09:20:37.716,996.0,29.0,7.0,996.4466869833028,1,1,1,3.0,3.0
2021-08-12 09:20:37.734,1015.0,13.0,4.0,1015.0911289140498,1,1,1,3.0,3.0
2021-08-12 09:20:37.737,933.0,189.0,15.0,952.0688000349554,1,1,1,3.0,3.0
2021-08-12 09:20:37.746,1062.0,70.0,-2.0,1064.306346875748,1,1,1,3.0,3.0
2021-08-12 09:20:37.755,992.0,38.0,-2.0,992.7295704269112,1,1,1,3.0,3.0
2021-08-12 09:20:37.756,992.0,38.0,4.0,992.7356143505682,1,1,1,3.0,3.0
2021-08-12 09:20:37.765,965.0,38.0,4.0,965.7561804099416,1,1,1,3.0,3.0
2021-08-12 09:20:37.766,965.0,-8.0,7.0,965.058547446734,1,1,1,3.0,3.0
2021-08-12 09:20:37.775,976.0,-14.0,23.0,976.3713432910656,1,1,1,3.0,3.0
2021-08-12 09:20:37.786,957.0,68.0,1.0,959.4133624251854,1,1,1,3.0,3.0
2021-08-12 09:20:37.796,1044.0,91.0,23.0,1048.210856650512,1,1,1,3.0,3.0
2021-08-12 09:20:37.804,1051.0,-66.0,-7.0,1053.0935381057088,1,1,1,3.0,3.0
2021-08-12 09:20:37.813,991.0,-66.0,-7.0,993.2200159078552,1,1,1,3.0,3.0
2021-08-12 09:20:37.814,991.0,23.0,13.0,991.3521069730976,1,1,1,3.0,3.0
2021-08-12 09:20:37.823,1013.0,23.0,13.0,1013.3444626581822,1,1,1,3.0,3.0
2021-08-12 09:20:37.824,1013.0,17.0,-3.0,1013.147077180801,1,1,1,3.0,3.0
2021-08-12 09:20:37.834,959.0,156.0,-7.0,971.6305882381432,1,1,1,3.0,3.0
2021-08-12 09:20:37.843,1066.0,69.0,-14.0,1068.3225168459196,1,1,1,3.0,3.0
2021-08-12 09:20:37.853,992.0,42.0,-14.0,992.9874118033924,1,1,1,3.0,3.0
2021-08-12 09:20:37.854,992.0,42.0,-9.0,992.9295040434644,1,1,1,3.0,3.0
2021-08-12 09:20:37.862,966.0,24.0,4.0,966.3063696364628,1,1,1,3.0,3.0
2021-08-12 09:20:37.872,1007.0,41.0,4.0,1007.842249560912,1,1,1,3.0,3.0
2021-08-12 09:20:37.873,1007.0,41.0,26.0,1008.1696285843964,1,1,1,3.0,3.0
2021-08-12 09:20:37.882,997.0,61.0,20.0,999.0645624783216,1,1,1,3.0,3.0
2021-08-12 09:20:37.892,1019.0,101.0,19.0,1024.1694195786165,1,1,1,3.0,3.0
2021-08-12 09:20:37.902,1028.0,-81.0,-10.0,1031.234696856152,1,1,1,3.0,3.0
2021-08-12 09:20:37.912,992.0,38.0,8.0,992.7597896772412,1,1,1,3.0,3.0
2021-08-12 09:20:37.921,1026.0,19.0,-2.0,1026.1778598274277,1,1,1,3.0,3.0
2021-08-12 09:20:37.931,1074.0,38.0,0.0,1074.6720429973043,1,1,1,3.0,3.0
2021-08-12 09:20:37.941,1071.0,31.0,-1.0,1071.4490188525072,1,1,1,3.0,3.0
2021-08-12 09:20:37.951,984.0,26.0,-7.0,984.3683253741964,1,1,1,3.0,3.0
2021-08-12 09:20:37.961,931.0,58.0,-7.0,932.8311744361891,1,1,1,3.0,3.0
2021-08-12 09:20:37.962,931.0,58.0,20.0,933.0192924050392,1,1,1,3.0,3.0
2021-08-12 09:20:37.970,998.0,47.0,9.0,999.1466358848436,1,1,1,3.0,3.0
2021-08-12 09:20:37.980,1056.0,92.0,44.0,1060.912814513992,1,1,1,3.0,3.0
2021-08-12 09:20:37.992,1016.0,90.0,12.0,1020.0490184299967,1,1,1,3.0,3.0
2021-08-12 09:20:37.999,998.0,-49.0,-3.0,999.206685325914,1,1,1,3.0,3.0
2021-08-12 09:20:38.010,981.0,53.0,18.0,982.5955424283178,1,1,1,3.0,3.0
2021-08-12 09:20:38.019,1031.0,31.0,-4.0,1031.4737030094368,1,1,1,3.0,3.0
2021-08-12 09:20:38.029,1099.0,43.0,15.0,1099.9431803506943,1,1,1,3.0,3.0
2021-08-12 09:20:38.039,969.0,27.0,-28.0,969.780387510492,1,1,1,3.0,3.0
2021-08-12 09:20:38.048,993.0,33.0,0.0,993.5481870548604,1,1,1,3.0,3.0
2021-08-12 09:20:38.058,938.0,78.0,28.0,941.6538642197568,1,1,1,3.0,3.0
2021-08-12 09:20:38.068,995.0,51.0,8.0,996.3382959617682,1,1,1,3.0,3.0
2021-08-12 09:20:38.077,1040.0,99.0,32.0,1045.1913700370856,1,1,1,3.0,3.0
2021-08-12 09:20:38.087,1066.0,-111.0,6.0,1071.780294649981,1,1,1,3.0,3.0
2021-08-12 09:20:38.097,980.0,68.0,37.0,983.0528978646064,1,1,1,3.0,3.0
2021-08-12 09:20:38.107,935.0,31.0,27.0,935.9033069713986,1,1,1,3.0,3.0
2021-08-12 09:20:38.118,1050.0,23.0,20.0,1050.442287800715,1,1,1,3.0,3.0
2021-08-12 09:20:38.126,1092.0,29.0,11.0,1092.440387389628,1,1,1,3.0,3.0
2021-08-12 09:20:38.142,990.0,30.0,-18.0,990.6179889341804,1,1,1,3.0,3.0
2021-08-12 09:20:38.146,999.0,5.0,-4.0,999.0205203097682,1,1,1,3.0,3.0
2021-08-12 09:20:38.155,943.0,105.0,16.0,948.9625914650168,1,1,1,3.0,3.0
2021-08-12 09:20:38.165,1021.0,51.0,9.0,1022.3125745093816,1,1,1,3.0,3.0
2021-08-12 09:20:38.176,1048.0,56.0,35.0,1050.078568489044,1,1,1,3.0,3.0
2021-08-12 09:20:38.184,1026.0,56.0,35.0,1028.123047110607,1,1,1,3.0,3.0
2021-08-12 09:20:38.185,1026.0,-52.0,17.0,1027.4575417018457,1,1,1,3.0,3.0
2021-08-12 09:20:38.194,1016.0,-52.0,17.0,1017.4718669329388,1,1,1,3.0,3.0
2021-08-12 09:20:38.195,1016.0,81.0,34.0,1019.7906647935154,1,1,1,3.0,3.0
2021-08-12 09:20:38.205,1039.0,74.0,33.0,1042.1544991027,1,1,1,3.0,3.0
2021-08-12 09:20:38.214,1047.0,54.0,10.0,1048.4393163173536,1,1,1,3.0,3.0
2021-08-12 09:20:38.224,1101.0,2.0,10.0,1101.04722877813,1,1,1,3.0,3.0
2021-08-12 09:20:38.233,971.0,39.0,-9.0,971.8245726467304,1,1,1,3.0,3.0
2021-08-12 09:20:38.260,997.0,2.0,-3.0,997.0065195373598,1,1,1,3.0,3.0
2021-08-12 09:20:38.263,1023.0,64.0,4.0,1025.0078048483338,1,1,1,3.0,3.0
2021-08-12 09:20:38.272,1037.0,64.0,4.0,1038.9807505435317,1,1,1,3.0,3.0
2021-08-12 09:20:38.273,1037.0,33.0,25.0,1037.8260933316333,1,1,1,3.0,3.0
2021-08-12 09:20:38.283,976.0,-27.0,19.0,976.5582419907172,1,1,1,3.0,3.0
2021-08-12 09:20:38.294,1028.0,89.0,48.0,1032.961277105778,1,1,1,3.0,3.0
2021-08-12 09:20:38.302,1069.0,81.0,22.0,1072.2900726948842,1,1,1,3.0,3.0
2021-08-12 09:20:38.311,1044.0,81.0,22.0,1047.368607511224,1,1,1,3.0,3.0
2021-08-12 09:20:38.312,1044.0,-15.0,24.0,1044.3835502342995,1,1,1,3.0,3.0
2021-08-12 09:20:38.321,1086.0,-19.0,19.0,1086.3323616646978,1,1,1,3.0,3.0
2021-08-12 09:20:38.331,996.0,26.0,-1.0,996.3398014733727,1,1,1,3.0,3.0
2021-08-12 09:20:38.342,996.0,9.0,-4.0,996.0486935888224,1,1,1,3.0,3.0
2021-08-12 09:20:38.351,1028.0,93.0,-31.0,1032.6635463692903,1,1,1,3.0,3.0
2021-08-12 09:20:38.360,981.0,36.0,-28.0,982.0595704945804,1,1,1,3.0,3.0
2021-08-12 09:20:38.370,1013.0,87.0,26.0,1017.0614534038738,1,1,1,3.0,3.0
2021-08-12 09:20:38.382,961.0,10.0,6.0,961.0707570205224,1,1,1,3.0,3.0
2021-08-12 09:20:38.391,1008.0,68.0,29.0,1010.7071781678412,1,1,1,3.0,3.0
2021-08-12 09:20:38.399,1071.0,67.0,32.0,1073.570677691972,1,1,1,3.0,3.0
2021-08-12 09:20:38.409,1077.0,-29.0,24.0,1077.6576450802918,1,1,1,3.0,3.0
2021-08-12 09:20:38.419,1015.0,33.0,52.0,1016.8667562665228,1,1,1,3.0,3.0
2021-08-12 09:20:38.429,1002.0,66.0,18.0,1004.33261422698,1,1,1,3.0,3.0
2021-08-12 09:20:38.439,992.0,-13.0,-16.0,992.2141905858836,1,1,1,3.0,3.0
2021-08-12 09:20:38.449,1032.0,84.0,-19.0,1035.5872730002045,1,1,1,3.0,3.0
2021-08-12 09:20:38.458,976.0,19.0,-19.0,976.3698069891346,1,1,1,3.0,3.0
2021-08-12 09:20:38.468,1032.0,17.0,28.0,1032.519733467598,1,1,1,3.0,3.0
2021-08-12 09:20:38.477,936.0,180.0,28.0,953.5617441990844,1,1,1,3.0,3.0
2021-08-12 09:20:38.478,936.0,180.0,-2.0,953.1526635329726,1,1,1,3.0,3.0
2021-08-12 09:20:38.488,980.0,180.0,-2.0,996.395503803585,1,1,1,3.0,3.0
2021-08-12 09:20:38.489,980.0,92.0,29.0,984.736005231859,1,1,1,3.0,3.0
2021-08-12 09:20:38.499,1085.0,64.0,35.0,1087.4493091634204,1,1,1,3.0,3.0
2021-08-12 09:20:38.507,1047.0,-62.0,32.0,1049.3221621599346,1,1,1,3.0,3.0
2021-08-12 09:20:38.517,1012.0,111.0,47.0,1019.1535703710211,1,1,1,3.0,3.0
2021-08-12 09:20:38.526,942.0,94.0,10.0,946.7312184564316,1,1,1,3.0,3.0
2021-08-12 09:20:38.537,1007.0,43.0,4.0,1007.9255924918268,1,1,1,3.0,3.0
2021-08-12 09:20:38.547,1053.0,43.0,4.0,1053.8851929883065,1,1,1,3.0,3.0
2021-08-12 09:20:38.548,1053.0,69.0,-1.0,1055.258736045336,1,1,1,3.0,3.0
2021-08-12 09:20:38.556,982.0,23.0,-16.0,982.3996131921062,1,1,1,3.0,3.0
2021-08-12 09:20:38.565,984.0,20.0,-16.0,984.3332768935528,1,1,1,3.0,3.0
2021-08-12 09:20:38.566,984.0,20.0,8.0,984.2357441182472,1,1,1,3.0,3.0
2021-08-12 09:20:38.575,977.0,172.0,-11.0,992.0856817835846,1,1,1,3.0,3.0
2021-08-12 09:20:38.588,1054.0,61.0,-13.0,1055.843738438601,1,1,1,3.0,3.0
2021-08-12 09:20:38.595,1065.0,61.0,-13.0,1066.8247278723904,1,1,1,3.0,3.0
2021-08-12 09:20:38.596,1065.0,69.0,31.0,1067.683005390645,1,1,1,3.0,3.0
2021-08-12 09:20:38.605,1041.0,-59.0,28.0,1043.046499442858,1,1,1,3.0,3.0
2021-08-12 09:20:38.614,1033.0,44.0,56.0,1035.4520751826228,1,1,1,3.0,3.0
2021-08-12 09:20:38.624,989.0,56.0,17.0,990.730033863918,1,1,1,3.0,3.0
2021-08-12 09:20:38.634,1011.0,99.0,21.0,1016.0526561158138,1,1,1,3.0,3.0
2021-08-12 09:20:38.644,1057.0,55.0,0.0,1058.4299693413825,1,1,1,3.0,3.0
2021-08-12 09:20:38.656,979.0,29.0,-19.0,979.6136993733804,1,1,1,3.0,3.0
2021-08-12 09:20:38.663,1000.0,-7.0,3.0,1000.0289995795122,1,1,1,3.0,3.0
2021-08-12 09:20:38.681,981.0,169.0,-12.0,995.522978137622,1,1,1,3.0,3.0
2021-08-12 09:20:38.684,1045.0,85.0,-12.0,1048.5199092053522,1,1,1,3.0,3.0
2021-08-12 09:20:38.685,1045.0,85.0,-8.0,1048.4817594979895,1,1,1,3.0,3.0
2021-08-12 09:20:38.694,992.0,50.0,7.0,993.2839473181876,1,1,1,3.0,3.0
2021-08-12 09:20:38.704,1034.0,-90.0,24.0,1038.1868810575484,1,1,1,3.0,3.0
2021-08-12 09:20:38.712,1004.0,84.0,54.0,1008.9539137145958,1,1,1,3.0,3.0
2021-08-12 09:20:38.722,1024.0,53.0,21.0,1025.5856863275735,1,1,1,3.0,3.0
2021-08-12 09:20:38.731,1021.0,103.0,21.0,1026.3970966443735,1,1,1,3.0,3.0
2021-08-12 09:20:38.732,1021.0,103.0,15.0,1026.2918688170537,1,1,1,3.0,3.0
2021-08-12 09:20:38.742,997.0,-74.0,15.0,999.8549894859756,1,1,1,3.0,3.0
2021-08-12 09:20:38.743,997.0,-74.0,-6.0,999.760471313004,1,1,1,3.0,3.0
2021-08-12 09:20:38.758,989.0,18.0,28.0,989.5600032337604,1,1,1,3.0,3.0
2021-08-12 09:20:38.762,998.0,-1.0,-1.0,998.001002003505,1,1,1,3.0,3.0
2021-08-12 09:20:38.771,985.0,231.0,6.0,1011.7420619901102,1,1,1,3.0,3.0
2021-08-12 09:20:38.785,1057.0,231.0,6.0,1081.96395503732,1,1,1,3.0,3.0
2021-08-12 09:20:38.786,1057.0,-19.0,-6.0,1057.1877789683344,1,1,1,3.0,3.0
2021-08-12 09:20:38.790,994.0,38.0,-13.0,994.8110373332214,1,1,1,3.0,3.0
2021-08-12 09:20:38.800,928.0,96.0,27.0,933.342916617467,1,1,1,3.0,3.0
2021-08-12 09:20:38.810,1036.0,45.0,9.0,1037.0159111604798,1,1,1,3.0,3.0
2021-08-12 09:20:38.820,1063.0,40.0,12.0,1063.8200035720329,1,1,1,3.0,3.0
2021-08-12 09:20:38.830,1017.0,131.0,17.0,1025.5432706619454,1,1,1,3.0,3.0
2021-08-12 09:20:38.840,995.0,-42.0,-7.0,995.9106385615128,1,1,1,3.0,3.0
2021-08-12 09:20:38.849,979.0,25.0,27.0,979.6912779034016,1,1,1,3.0,3.0
2021-08-12 09:20:38.858,1046.0,25.0,27.0,1046.6470274165977,1,1,1,3.0,3.0
2021-08-12 09:20:38.859,1046.0,20.0,7.0,1046.2146051360592,1,1,1,3.0,3.0
2021-08-12 09:20:38.869,975.0,189.0,-15.0,993.2628051024562,1,1,1,3.0,3.0
2021-08-12 09:20:38.878,1038.0,61.0,-10.0,1039.8389298348086,1,1,1,3.0,3.0
2021-08-12 09:20:38.889,993.0,19.0,-8.0,993.2139749318876,1,1,1,3.0,3.0
2021-08-12 09:20:38.897,933.0,19.0,-8.0,933.227732121158,1,1,1,3.0,3.0
2021-08-12 09:20:38.898,933.0,98.0,31.0,938.6447677369752,1,1,1,3.0,3.0
2021-08-12 09:20:38.907,1025.0,36.0,3.0,1025.636387810027,1,1,1,3.0,3.0
2021-08-12 09:20:38.918,1033.0,87.0,3.0,1036.6614683685316,1,1,1,3.0,3.0
2021-08-12 09:20:38.919,1033.0,87.0,22.0,1036.8905438859013,1,1,1,3.0,3.0
2021-08-12 09:20:38.927,1021.0,97.0,24.0,1025.8781604069754,1,1,1,3.0,3.0
2021-08-12 09:20:38.937,993.0,-50.0,0.0,994.2580148029988,1,1,1,3.0,3.0
2021-08-12 09:20:38.946,970.0,28.0,28.0,970.8079109690032,1,1,1,3.0,3.0
2021-08-12 09:20:38.956,1040.0,30.0,7.0,1040.4561499650044,1,1,1,3.0,3.0
2021-08-12 09:20:38.966,1093.0,-43.0,0.0,1093.845510115574,1,1,1,3.0,3.0
2021-08-12 09:20:38.976,993.0,21.0,0.0,993.222029558346,1,1,1,3.0,3.0
2021-08-12 09:20:38.977,993.0,21.0,2.0,993.2240432047544,1,1,1,3.0,3.0
2021-08-12 09:20:38.988,978.0,21.0,5.0,978.2382122980068,1,1,1,3.0,3.0
2021-08-12 09:20:38.996,967.0,133.0,9.0,976.144968741836,1,1,1,3.0,3.0
2021-08-12 09:20:39.005,1026.0,27.0,9.0,1026.39466093701,1,1,1,3.0,3.0
2021-08-12 09:20:39.015,1027.0,81.0,25.0,1030.4926006527169,1,1,1,3.0,3.0
2021-08-12 09:20:39.025,1025.0,-37.0,20.0,1025.862563894404,1,1,1,3.0,3.0
2021-08-12 09:20:39.036,994.0,-20.0,9.0,994.24192227043,1,1,1,3.0,3.0
2021-08-12 09:20:39.044,982.0,34.0,25.0,982.9064044963792,1,1,1,3.0,3.0
2021-08-12 09:20:39.054,1033.0,51.0,16.0,1034.3819410643246,1,1,1,3.0,3.0
2021-08-12 09:20:39.063,1101.0,51.0,16.0,1102.2966932727322,1,1,1,3.0,3.0
2021-08-12 09:20:39.064,1101.0,-77.0,10.0,1103.734569541065,1,1,1,3.0,3.0
2021-08-12 09:20:39.074,991.0,5.0,0.0,991.0126134414234,1,1,1,3.0,3.0
2021-08-12 09:20:39.084,968.0,5.0,0.0,968.0129131370096,1,1,1,3.0,3.0
2021-08-12 09:20:39.085,968.0,19.0,0.0,968.186448985938,1,1,1,3.0,3.0
2021-08-12 09:20:39.094,966.0,153.0,21.0,978.2668347644216,1,1,1,3.0,3.0
2021-08-12 09:20:39.102,1040.0,153.0,21.0,1051.4038234665118,1,1,1,3.0,3.0
2021-08-12 09:20:39.103,1040.0,54.0,3.0,1041.4053005434532,1,1,1,3.0,3.0
2021-08-12 09:20:39.112,1010.0,62.0,3.0,1011.905628010834,1,1,1,3.0,3.0
2021-08-12 09:20:39.113,1010.0,62.0,21.0,1012.1190641421592,1,1,1,3.0,3.0
2021-08-12 09:20:39.122,987.0,0.0,25.0,987.3165652413616,1,1,1,3.0,3.0
2021-08-12 09:20:39.133,995.0,70.0,19.0,997.64021570905,1,1,1,3.0,3.0
2021-08-12 09:20:39.148,995.0,36.0,25.0,995.96485881782,1,1,1,3.0,3.0
2021-08-12 09:20:39.157,1033.0,63.0,13.0,1035.000966183124,1,1,1,3.0,3.0
2021-08-12 09:20:39.161,1089.0,-45.0,13.0,1090.0068807122277,1,1,1,3.0,3.0
2021-08-12 09:20:39.162,1089.0,-45.0,20.0,1090.11283819612,1,1,1,3.0,3.0
2021-08-12 09:20:39.171,982.0,18.0,3.0,982.1695372999512,1,1,1,3.0,3.0
2021-08-12 09:20:39.184,994.0,48.0,-14.0,995.2567507934824,1,1,1,3.0,3.0
2021-08-12 09:20:39.192,937.0,158.0,6.0,950.2468100446324,1,1,1,3.0,3.0
2021-08-12 09:20:39.200,1063.0,60.0,0.0,1064.6919742348018,1,1,1,3.0,3.0
2021-08-12 09:20:39.211,984.0,50.0,11.0,985.330908882899,1,1,1,3.0,3.0
2021-08-12 09:20:39.220,949.0,7.0,5.0,949.0389876079907,1,1,1,3.0,3.0
2021-08-12 09:20:39.230,999.0,42.0,30.0,1000.3324447402472,1,1,1,3.0,3.0
2021-08-12 09:20:39.241,1079.0,88.0,23.0,1082.82685596544,1,1,1,3.0,3.0
2021-08-12 09:20:39.250,1022.0,90.0,8.0,1025.9863546850904,1,1,1,3.0,3.0
2021-08-12 09:20:39.259,1085.0,-58.0,3.0,1086.553266066602,1,1,1,3.0,3.0
2021-08-12 09:20:39.278,998.0,14.0,4.0,998.1062067736078,1,1,1,3.0,3.0
2021-08-12 09:20:39.281,1028.0,77.0,-4.0,1030.887481736004,1,1,1,3.0,3.0
2021-08-12 09:20:39.290,976.0,78.0,-12.0,979.185375707787,1,1,1,3.0,3.0
2021-08-12 09:20:39.298,995.0,19.0,-19.0,995.362747946697,1,1,1,3.0,3.0
2021-08-12 09:20:39.308,1015.0,23.0,0.0,1015.2605576895028,1,1,1,3.0,3.0
2021-08-12 09:20:39.318,940.0,37.0,-1.0,940.7284411561076,1,1,1,3.0,3.0
2021-08-12 09:20:39.327,983.0,106.0,16.0,988.8280942610804,1,1,1,3.0,3.0
2021-08-12 09:20:39.338,1075.0,93.0,16.0,1079.1339119868303,1,1,1,3.0,3.0
2021-08-12 09:20:39.339,1075.0,93.0,47.0,1080.0384252423614,1,1,1,3.0,3.0
2021-08-12 09:20:39.347,1060.0,-52.0,35.0,1061.8516845586298,1,1,1,3.0,3.0
2021-08-12 09:20:39.356,1051.0,-130.0,35.0,1059.5876556472333,1,1,1,3.0,3.0
2021-08-12 09:20:39.357,1051.0,-130.0,-22.0,1059.237933610763,1,1,1,3.0,3.0
2021-08-12 09:20:39.367,1026.0,90.0,26.0,1030.267926318198,1,1,1,3.0,3.0
2021-08-12 09:20:39.376,1018.0,90.0,26.0,1022.30132544177,1,1,1,3.0,3.0
2021-08-12 09:20:39.377,1018.0,42.0,-14.0,1018.962217160185,1,1,1,3.0,3.0
2021-08-12 09:20:39.386,1046.0,77.0,0.0,1048.8303008590094,1,1,1,3.0,3.0
2021-08-12 09:20:39.396,967.0,0.0,0.0,967.0,1,1,1,3.0,3.0
2021-08-12 09:20:39.397,967.0,0.0,-30.0,967.465244853788,1,1,1,3.0,3.0
2021-08-12 09:20:39.405,989.0,0.0,23.0,989.267405709902,1,1,1,3.0,3.0
2021-08-12 09:20:39.416,914.0,80.0,8.0,917.5292910855762,1,1,1,3.0,3.0
2021-08-12 09:20:39.425,1040.0,33.0,7.0,1040.5469715490983,1,1,1,3.0,3.0
2021-08-12 09:20:39.435,1050.0,64.0,55.0,1053.3854944890784,1,1,1,3.0,3.0
2021-08-12 09:20:39.446,1044.0,-70.0,31.0,1046.80322888306,1,1,1,3.0,3.0
2021-08-12 09:20:39.454,1013.0,66.0,35.0,1015.750953728324,1,1,1,3.0,3.0
2021-08-12 09:20:39.464,1008.0,13.0,24.0,1008.369475936276,1,1,1,3.0,3.0
2021-08-12 09:20:39.474,1029.0,15.0,-2.0,1029.111267064937,1,1,1,3.0,3.0
2021-08-12 09:20:39.484,1068.0,37.0,5.0,1068.6524224461384,1,1,1,3.0,3.0
2021-08-12 09:20:39.494,973.0,12.0,-14.0,973.17470168516,1,1,1,3.0,3.0
2021-08-12 09:20:39.504,994.0,17.0,-4.0,994.1534086849975,1,1,1,3.0,3.0
2021-08-12 09:20:39.512,982.0,17.0,-4.0,982.155283038278,1,1,1,3.0,3.0
2021-08-12 09:20:39.513,982.0,198.0,0.0,1001.7624468904792,1,1,1,3.0,3.0
2021-08-12 09:20:39.523,1019.0,21.0,-4.0,1019.2242147829888,1,1,1,3.0,3.0
2021-08-12 09:20:39.533,1013.0,78.0,41.0,1016.8254520811328,1,1,1,3.0,3.0
2021-08-12 09:20:39.542,1064.0,-94.0,17.0,1068.2794578199096,1,1,1,3.0,3.0
2021-08-12 09:20:39.553,1001.0,77.0,46.0,1005.0104477068884,1,1,1,3.0,3.0
2021-08-12 09:20:39.561,1049.0,77.0,46.0,1052.8276212182125,1,1,1,3.0,3.0
2021-08-12 09:20:39.562,1049.0,77.0,19.0,1051.9938212746308,1,1,1,3.0,3.0
2021-08-12 09:20:39.572,1039.0,20.0,3.0,1039.1968052298853,1,1,1,3.0,3.0
2021-08-12 09:20:39.583,1094.0,17.0,3.0,1094.1361889636958,1,1,1,3.0,3.0
2021-08-12 09:20:39.584,1094.0,17.0,4.0,1094.1393878295398,1,1,1,3.0,3.0
2021-08-12 09:20:39.591,987.0,32.0,-18.0,987.6826413377933,1,1,1,3.0,3.0
2021-08-12 09:20:39.601,1003.0,0.0,-18.0,1003.1615024511258,1,1,1,3.0,3.0
2021-08-12 09:20:39.602,1003.0,0.0,2.0,1003.001994015964,1,1,1,3.0,3.0
2021-08-12 09:20:39.610,970.0,145.0,-14.0,980.877668213524,1,1,1,3.0,3.0
2021-08-12 09:20:39.620,1049.0,50.0,-23.0,1050.4427637905835,1,1,1,3.0,3.0
2021-08-12 09:20:39.631,1040.0,53.0,36.0,1041.971688674889,1,1,1,3.0,3.0
2021-08-12 09:20:39.640,1061.0,-96.0,17.0,1065.4698494091704,1,1,1,3.0,3.0
2021-08-12 09:20:39.650,994.0,77.0,47.0,998.0851667067296,1,1,1,3.0,3.0
2021-08-12 09:20:39.660,1038.0,87.0,20.0,1041.8315602821792,1,1,1,3.0,3.0
2021-08-12 09:20:39.669,1010.0,95.0,17.0,1014.6004139561544,1,1,1,3.0,3.0
2021-08-12 09:20:39.679,979.0,-62.0,17.0,981.108556684733,1,1,1,3.0,3.0
2021-08-12 09:20:39.680,979.0,-62.0,-24.0,981.2548089054136,1,1,1,3.0,3.0
2021-08-12 09:20:39.689,1004.0,5.0,-15.0,1004.124494273494,1,1,1,3.0,3.0
2021-08-12 09:20:39.705,993.0,20.0,-10.0,993.251730428898,1,1,1,3.0,3.0
2021-08-12 09:20:39.709,973.0,163.0,-23.0,986.8267325118428,1,1,1,3.0,3.0
2021-08-12 09:20:39.718,1027.0,49.0,-16.0,1028.292759869484,1,1,1,3.0,3.0
2021-08-12 09:20:39.728,994.0,28.0,4.0,994.402333062428,1,1,1,3.0,3.0
2021-08-12 09:20:39.737,952.0,127.0,12.0,960.5087193773932,1,1,1,3.0,3.0
2021-08-12 09:20:39.747,1014.0,127.0,12.0,1021.9926614217932,1,1,1,3.0,3.0
2021-08-12 09:20:39.748,1014.0,79.0,47.0,1018.1581409584662,1,1,1,3.0,3.0
2021-08-12 09:20:39.757,1041.0,77.0,33.0,1044.3653575258038,1,1,1,3.0,3.0
2021-08-12 09:20:39.773,1041.0,1.0,14.0,1041.0946162573314,1,1,1,3.0,3.0
2021-08-12 09:20:39.780,957.0,-40.0,-15.0,957.9530259882266,1,1,1,3.0,3.0
2021-08-12 09:20:39.786,988.0,57.0,27.0,990.01111104876,1,1,1,3.0,3.0
2021-08-12 09:20:39.797,991.0,46.0,17.0,992.212678814376,1,1,1,3.0,3.0
2021-08-12 09:20:39.806,969.0,109.0,-33.0,975.6695137186568,1,1,1,3.0,3.0
2021-08-12 09:20:39.815,1038.0,109.0,-33.0,1044.2289021091112,1,1,1,3.0,3.0
2021-08-12 09:20:39.816,1038.0,40.0,-18.0,1038.9263689020506,1,1,1,3.0,3.0
2021-08-12 09:20:39.826,1016.0,17.0,0.0,1016.1422144562248,1,1,1,3.0,3.0
2021-08-12 09:20:39.835,940.0,144.0,1.0,950.9663506139426,1,1,1,3.0,3.0
2021-08-12 09:20:39.846,1004.0,61.0,40.0,1006.6464125997768,1,1,1,3.0,3.0
2021-08-12 09:20:39.855,1067.0,74.0,28.0,1069.929436925632,1,1,1,3.0,3.0
2021-08-12 09:20:39.864,1069.0,-12.0,28.0,1069.4339624305935,1,1,1,3.0,3.0
2021-08-12 09:20:39.875,984.0,-23.0,22.0,984.5146012121912,1,1,1,3.0,3.0
2021-08-12 09:20:39.884,959.0,50.0,4.0,960.3108871610276,1,1,1,3.0,3.0
2021-08-12 09:20:39.894,1049.0,76.0,12.0,1051.817950027475,1,1,1,3.0,3.0
2021-08-12 09:20:39.904,1022.0,94.0,-22.0,1026.5495604207329,1,1,1,3.0,3.0
2021-08-12 09:20:39.913,998.0,22.0,-22.0,998.4848521635168,1,1,1,3.0,3.0
2021-08-12 09:20:39.923,1021.0,19.0,16.0,1021.3021100536316,1,1,1,3.0,3.0
2021-08-12 09:20:39.933,926.0,161.0,16.0,940.0281910666296,1,1,1,3.0,3.0
2021-08-12 09:20:39.934,926.0,161.0,-10.0,939.9452111692468,1,1,1,3.0,3.0
2021-08-12 09:20:39.942,1052.0,44.0,-10.0,1052.9672359575106,1,1,1,3.0,3.0
2021-08-12 09:20:39.943,1052.0,44.0,-6.0,1052.936845209626,1,1,1,3.0,3.0
2021-08-12 09:20:39.953,1073.0,44.0,-6.0,1073.91852577372,1,1,1,3.0,3.0
2021-08-12 09:20:39.954,1073.0,88.0,28.0,1076.966573297426,1,1,1,3.0,3.0
2021-08-12 09:20:39.962,1061.0,-28.0,21.0,1061.5771286157214,1,1,1,3.0,3.0
2021-08-12 09:20:39.972,1012.0,24.0,30.0,1012.728986451953,1,1,1,3.0,3.0
2021-08-12 09:20:39.985,966.0,75.0,16.0,969.039214892772,1,1,1,3.0,3.0
2021-08-12 09:20:39.991,1037.0,78.0,8.0,1039.9600953882798,1,1,1,3.0,3.0
2021-08-12 09:20:40.002,1065.0,-63.0,6.0,1066.8786247741589,1,1,1,3.0,3.0
2021-08-12 09:20:40.011,1045.0,36.0,-6.0,1045.6371263492897,1,1,1,3.0,3.0
2021-08-12 09:20:40.021,982.0,7.0,0.0,982.024948766578,1,1,1,3.0,3.0
2021-08-12 09:20:40.030,943.0,177.0,-9.0,959.5097706641658,1,1,1,3.0,3.0
2021-08-12 09:20:40.040,1037.0,78.0,-22.0,1040.1620066124317,1,1,1,3.0,3.0
2021-08-12 09:20:40.050,994.0,40.0,-2.0,994.8065138508092,1,1,1,3.0,3.0
2021-08-12 09:20:40.060,967.0,69.0,-2.0,969.4606748084216,1,1,1,3.0,3.0
2021-08-12 09:20:40.061,967.0,69.0,16.0,969.5906352683074,1,1,1,3.0,3.0
2021-08-12 09:20:40.071,1017.0,37.0,51.0,1018.9499497031244,1,1,1,3.0,3.0
2021-08-12 09:20:40.080,1026.0,49.0,21.0,1027.3840567188106,1,1,1,3.0,3.0
2021-08-12 09:20:40.089,1019.0,103.0,15.0,1024.3022015011,1,1,1,3.0,3.0
2021-08-12 09:20:40.099,1017.0,-139.0,-21.0,1026.6698593023953,1,1,1,3.0,3.0
2021-08-12 09:20:40.109,1002.0,42.0,29.0,1003.2990581078006,1,1,1,3.0,3.0
2021-08-12 09:20:40.118,998.0,7.0,14.0,998.1227379435858,1,1,1,3.0,3.0
2021-08-12 09:20:40.129,951.0,180.0,-16.0,968.017045304472,1,1,1,3.0,3.0
2021-08-12 09:20:40.138,1056.0,77.0,-11.0,1058.8607084975813,1,1,1,3.0,3.0
2021-08-12 09:20:40.147,1018.0,28.0,-21.0,1018.6014922431638,1,1,1,3.0,3.0
2021-08-12 09:20:40.158,933.0,81.0,20.0,936.7230113539434,1,1,1,3.0,3.0
2021-08-12 09:20:40.173,1006.0,66.0,43.0,1009.0792833073128,1,1,1,3.0,3.0
2021-08-12 09:20:40.177,1011.0,66.0,43.0,1014.064100538028,1,1,1,3.0,3.0
2021-08-12 09:20:40.180,1011.0,99.0,11.0,1015.8951717574014,1,1,1,3.0,3.0
2021-08-12 09:20:40.186,1004.0,99.0,11.0,1008.9291352716502,1,1,1,3.0,3.0
2021-08-12 09:20:40.187,1004.0,129.0,26.0,1012.5872801887252,1,1,1,3.0,3.0
2021-08-12 09:20:40.197,1020.0,-48.0,0.0,1021.1287871762308,1,1,1,3.0,3.0
2021-08-12 09:20:40.208,970.0,18.0,27.0,970.542631727221,1,1,1,3.0,3.0
2021-08-12 09:20:40.216,1056.0,9.0,7.0,1056.0615512364798,1,1,1,3.0,3.0
2021-08-12 09:20:40.225,1003.0,9.0,7.0,1003.0648034897844,1,1,1,3.0,3.0
2021-08-12 09:20:40.226,1003.0,176.0,7.0,1018.348663277956,1,1,1,3.0,3.0
2021-08-12 09:20:40.235,1076.0,176.0,7.0,1090.3215122155482,1,1,1,3.0,3.0
2021-08-12 09:20:40.236,1076.0,41.0,-1.0,1076.7813148453124,1,1,1,3.0,3.0
2021-08-12 09:20:40.245,986.0,45.0,-6.0,987.0445785272316,1,1,1,3.0,3.0
2021-08-12 09:20:40.256,952.0,90.0,26.0,956.5981392413432,1,1,1,3.0,3.0
2021-08-12 09:20:40.265,1010.0,38.0,-11.0,1010.77445555376,1,1,1,3.0,3.0
2021-08-12 09:20:40.274,1030.0,77.0,-11.0,1032.932718041209,1,1,1,3.0,3.0
2021-08-12 09:20:40.275,1030.0,77.0,36.0,1033.5013304297197,1,1,1,3.0,3.0
2021-08-12 09:20:40.298,1015.0,108.0,23.0,1020.9887364706822,1,1,1,3.0,3.0
2021-08-12 09:20:40.299,992.0,-23.0,2.0,992.2686128261844,1,1,1,3.0,3.0
2021-08-12 09:20:40.303,969.0,-23.0,2.0,969.2749867813573,1,1,1,3.0,3.0
2021-08-12 09:20:40.304,969.0,32.0,26.0,969.8767962994062,1,1,1,3.0,3.0
2021-08-12 09:20:40.313,1045.0,32.0,26.0,1045.8130808132016,1,1,1,3.0,3.0
2021-08-12 09:20:40.314,1045.0,18.0,10.0,1045.202851125082,1,1,1,3.0,3.0
2021-08-12 09:20:40.323,1086.0,9.0,19.0,1086.2034800165206,1,1,1,3.0,3.0
2021-08-12 09:20:40.333,1053.0,25.0,-15.0,1053.4035314161426,1,1,1,3.0,3.0
2021-08-12 09:20:40.344,999.0,51.0,-15.0,1000.4134145442072,1,1,1,3.0,3.0
2021-08-12 09:20:40.345,999.0,51.0,9.0,1000.3414417087796,1,1,1,3.0,3.0
2021-08-12 09:20:40.353,951.0,84.0,10.0,954.7549423805044,1,1,1,3.0,3.0
2021-08-12 09:20:40.362,1040.0,-45.0,4.0,1040.98078752684,1,1,1,3.0,3.0
2021-08-12 09:20:40.372,987.0,53.0,20.0,988.624296687068,1,1,1,3.0,3.0
2021-08-12 09:20:40.383,1002.0,173.0,38.0,1017.5347659908236,1,1,1,3.0,3.0
2021-08-12 09:20:40.392,987.0,181.0,31.0,1003.9377470739906,1,1,1,3.0,3.0
2021-08-12 09:20:40.402,1040.0,40.0,31.0,1041.2305220267028,1,1,1,3.0,3.0
2021-08-12 09:20:40.403,1040.0,40.0,4.0,1040.7766330966506,1,1,1,3.0,3.0
2021-08-12 09:20:40.411,1032.0,-16.0,27.0,1032.477118390524,1,1,1,3.0,3.0
2021-08-12 09:20:40.421,1013.0,-19.0,25.0,1013.4865563982582,1,1,1,3.0,3.0
2021-08-12 09:20:40.431,972.0,116.0,-8.0,978.930028142972,1,1,1,3.0,3.0
2021-08-12 09:20:40.441,1000.0,95.0,2.0,1004.5043553912546,1,1,1,3.0,3.0
2021-08-12 09:20:40.452,1038.0,52.0,0.0,1039.3016886352104,1,1,1,3.0,3.0
2021-08-12 09:20:40.460,1051.0,-50.0,17.0,1052.3259951174823,1,1,1,3.0,3.0
2021-08-12 09:20:40.470,999.0,31.0,32.0,999.9929999755,1,1,1,3.0,3.0
2021-08-12 09:20:40.479,984.0,31.0,32.0,985.0081217939272,1,1,1,3.0,3.0
2021-08-12 09:20:40.480,984.0,7.0,15.0,984.1392177939056,1,1,1,3.0,3.0
2021-08-12 09:20:40.490,1016.0,58.0,10.0,1017.703296643968,1,1,1,3.0,3.0
2021-08-12 09:20:40.500,993.0,61.0,-23.0,995.137678916842,1,1,1,3.0,3.0
2021-08-12 09:20:40.509,1026.0,63.0,-1.0,1027.9328771860544,1,1,1,3.0,3.0
2021-08-12 09:20:40.518,984.0,63.0,-1.0,986.0152128643858,1,1,1,3.0,3.0
2021-08-12 09:20:40.519,984.0,39.0,-20.0,984.9756342164004,1,1,1,3.0,3.0
2021-08-12 09:20:40.528,1012.0,90.0,22.0,1016.2322569176793,1,1,1,3.0,3.0
2021-08-12 09:20:40.538,991.0,90.0,22.0,995.3215560812496,1,1,1,3.0,3.0
2021-08-12 09:20:40.539,991.0,41.0,-22.0,992.0917296298766,1,1,1,3.0,3.0
2021-08-12 09:20:40.549,1001.0,36.0,7.0,1001.6716028719192,1,1,1,3.0,3.0
2021-08-12 09:20:40.559,1061.0,54.0,32.0,1062.8551171255658,1,1,1,3.0,3.0
2021-08-12 09:20:40.567,996.0,51.0,32.0,997.8181196991763,1,1,1,3.0,3.0
2021-08-12 09:20:40.568,996.0,51.0,13.0,997.3895928873532,1,1,1,3.0,3.0
2021-08-12 09:20:40.577,1011.0,59.0,20.0,1012.9175682156964,1,1,1,3.0,3.0
2021-08-12 09:20:40.587,1013.0,59.0,-6.0,1014.7344480207618,1,1,1,3.0,3.0
2021-08-12 09:20:40.597,1020.0,40.0,10.0,1020.8329931972222,1,1,1,3.0,3.0
2021-08-12 09:20:40.607,1033.0,41.0,7.0,1033.8370277756549,1,1,1,3.0,3.0
2021-08-12 09:20:40.616,1012.0,56.0,1.0,1013.5487161454056,1,1,1,3.0,3.0
2021-08-12 09:20:40.626,1004.0,45.0,3.0,1005.0124377339816,1,1,1,3.0,3.0
2021-08-12 09:20:40.636,1025.0,41.0,-5.0,1025.831857567311,1,1,1,3.0,3.0
2021-08-12 09:20:40.646,996.0,50.0,5.0,997.2667647124314,1,1,1,3.0,3.0
2021-08-12 09:20:40.656,1022.0,45.0,20.0,1023.1857113935866,1,1,1,3.0,3.0
2021-08-12 09:20:40.665,1014.0,37.0,16.0,1014.800965707069,1,1,1,3.0,3.0
2021-08-12 09:20:40.679,1020.0,38.0,16.0,1020.8329931972222,1,1,1,3.0,3.0
2021-08-12 09:20:40.680,1020.0,38.0,22.0,1020.9446605962538,1,1,1,3.0,3.0
2021-08-12 09:20:40.684,1009.0,40.0,22.0,1010.0321777052452,1,1,1,3.0,3.0
2021-08-12 09:20:40.685,1009.0,40.0,4.0,1009.80047534154,1,1,1,3.0,3.0
2021-08-12 09:20:40.696,1015.0,42.0,3.0,1015.873023561508,1,1,1,3.0,3.0
2021-08-12 09:20:40.706,1016.0,36.0,7.0,1016.66169397691,1,1,1,3.0,3.0
2021-08-12 09:20:40.721,1008.0,36.0,7.0,1008.6669420576844,1,1,1,3.0,3.0
2021-08-12 09:20:40.722,1008.0,48.0,11.0,1009.2021601245214,1,1,1,3.0,3.0
2021-08-12 09:20:40.725,1014.0,48.0,11.0,1015.195055149502,1,1,1,3.0,3.0
2021-08-12 09:20:40.726,1014.0,47.0,11.0,1015.1482650332414,1,1,1,3.0,3.0
2021-08-12 09:20:40.733,1009.0,38.0,11.0,1009.7752225124163,1,1,1,3.0,3.0
2021-08-12 09:20:40.734,1009.0,38.0,12.0,1009.7866111213796,1,1,1,3.0,3.0
2021-08-12 09:20:40.745,1008.0,35.0,12.0,1008.678838877866,1,1,1,3.0,3.0
2021-08-12 09:20:40.753,1029.0,40.0,14.0,1029.8723221836774,1,1,1,3.0,3.0
2021-08-12 09:20:40.763,1022.0,34.0,11.0,1022.6245645396946,1,1,1,3.0,3.0
2021-08-12 09:20:40.772,1021.0,46.0,11.0,1022.094907530607,1,1,1,3.0,3.0
2021-08-12 09:20:40.773,1021.0,46.0,12.0,1022.106158870007,1,1,1,3.0,3.0
2021-08-12 09:20:40.821,1015.0,42.0,10.0,1015.9178116363548,1,1,1,3.0,3.0
2021-08-12 09:20:40.833,1016.0,44.0,12.0,1017.0231069154722,1,1,1,3.0,3.0
2021-08-12 09:20:40.841,1012.0,41.0,13.0,1012.9136192193292,1,1,1,3.0,3.0
2021-08-12 09:20:40.850,1010.0,41.0,13.0,1010.9154267296548,1,1,1,3.0,3.0
2021-08-12 09:20:40.851,1010.0,46.0,9.0,1011.0870387854844,1,1,1,3.0,3.0
2021-08-12 09:20:40.860,1005.0,40.0,9.0,1005.8359707228608,1,1,1,3.0,3.0
2021-08-12 09:20:40.861,1005.0,40.0,10.0,1005.8454155584744,1,1,1,3.0,3.0
2021-08-12 09:20:40.870,1019.0,44.0,7.0,1019.9735290682792,1,1,1,3.0,3.0
2021-08-12 09:20:40.881,1005.0,48.0,7.0,1006.1699657612525,1,1,1,3.0,3.0
2021-08-12 09:20:40.882,1005.0,48.0,1.0,1006.1461126496488,1,1,1,3.0,3.0
2021-08-12 09:20:40.890,1011.0,46.0,10.0,1012.0953512392002,1,1,1,3.0,3.0
2021-08-12 09:20:40.899,1010.0,46.0,10.0,1011.0964345699176,1,1,1,3.0,3.0
2021-08-12 09:20:40.900,1010.0,45.0,9.0,1011.0420367126186,1,1,1,3.0,3.0
2021-08-12 09:20:40.909,1007.0,47.0,11.0,1008.1562378917268,1,1,1,3.0,3.0
2021-08-12 09:20:40.919,1013.0,43.0,3.0,1013.9166632421028,1,1,1,3.0,3.0
2021-08-12 09:20:40.930,1012.0,46.0,2.0,1013.0468893392842,1,1,1,3.0,3.0
2021-08-12 09:20:40.939,1013.0,45.0,9.0,1014.038953886881,1,1,1,3.0,3.0
2021-08-12 09:20:40.948,1009.0,40.0,16.0,1009.9193037069844,1,1,1,3.0,3.0
