time_stamp,Acceleration_X,Acceleration_Y,Acceleration_Z,magnitude,STD_Status_right,STD_Status_left,STD_Status_both,KMeans,KMeans_convert
2021-09-24 07:25:41.705,1025.0,40.0,9.0,1025.8196722621378,1,1,1,1.0,3.0
2021-09-24 07:25:41.713,1009.0,37.0,3.0,1009.6826234020272,1,1,1,1.0,3.0
2021-09-24 07:25:41.723,1021.0,28.0,11.0,1021.4430967998168,1,1,1,1.0,3.0
2021-09-24 07:25:41.732,1016.0,25.0,11.0,1016.3670596787364,1,1,1,1.0,3.0
2021-09-24 07:25:41.733,1016.0,25.0,-1.0,1016.3080241737738,1,1,1,1.0,3.0
2021-09-24 07:25:41.743,998.0,41.0,-1.0,998.8423298999696,1,1,1,1.0,3.0
2021-09-24 07:25:41.744,998.0,41.0,11.0,998.9023976345236,1,1,1,1.0,3.0
2021-09-24 07:25:41.753,1108.0,-322.0,11.0,1153.8929759730752,1,1,1,1.0,3.0
2021-09-24 07:25:41.754,1108.0,-322.0,47.0,1154.7973848255806,1,1,1,1.0,3.0
2021-09-24 07:25:41.762,1134.0,-509.0,11.0,1243.0438447617205,1,1,1,1.0,3.0
2021-09-24 07:25:41.771,863.0,-113.0,11.0,870.4360975970608,1,1,1,1.0,3.0
2021-09-24 07:25:41.772,863.0,-113.0,-37.0,871.1526846655528,1,1,1,1.0,3.0
2021-09-24 07:25:41.781,975.0,39.0,-13.0,975.8662818234884,1,1,1,1.0,3.0
2021-09-24 07:25:41.791,1160.0,306.0,37.0,1200.252056861391,1,1,1,1.0,3.0
2021-09-24 07:25:41.801,1021.0,306.0,37.0,1066.5111344941506,1,1,1,1.0,3.0
2021-09-24 07:25:41.802,1021.0,-25.0,14.0,1021.4019776757826,1,1,1,1.0,3.0
2021-09-24 07:25:41.811,957.0,-25.0,14.0,957.4288485313152,1,1,1,1.0,3.0
2021-09-24 07:25:41.812,957.0,-232.0,26.0,985.062942151414,1,1,1,1.0,3.0
2021-09-24 07:25:41.823,986.0,-326.0,28.0,1038.8724657050066,1,1,1,1.0,3.0
2021-09-24 07:25:41.830,823.0,146.0,-7.0,835.8791778720175,1,1,1,1.0,3.0
2021-09-24 07:25:41.840,1095.0,244.0,34.0,1122.3711507340165,1,1,1,1.0,3.0
2021-09-24 07:25:41.850,1036.0,218.0,-43.0,1059.5607580502403,1,1,1,1.0,3.0
2021-09-24 07:25:41.859,981.0,218.0,-43.0,1005.8498893970212,1,1,1,1.0,3.0
2021-09-24 07:25:41.860,981.0,-74.0,-25.0,984.1046692298538,1,1,1,1.0,3.0
2021-09-24 07:25:41.869,895.0,2.0,-35.0,895.6863290237269,1,1,1,1.0,3.0
2021-09-24 07:25:41.879,918.0,-14.0,-30.0,918.5967559272132,1,1,1,1.0,3.0
2021-09-24 07:25:41.891,1007.0,9.0,12.0,1007.1117117777948,1,1,1,1.0,3.0
2021-09-24 07:25:41.899,970.0,59.0,34.0,972.3872685303936,1,1,1,1.0,3.0
2021-09-24 07:25:41.909,1065.0,-62.0,18.0,1066.9550131097374,1,1,1,1.0,3.0
2021-09-24 07:25:41.918,996.0,26.0,18.0,996.5018815837732,1,1,1,1.0,3.0
2021-09-24 07:25:41.919,996.0,26.0,-13.0,996.4241064928126,1,1,1,1.0,3.0
2021-09-24 07:25:41.928,924.0,229.0,-20.0,952.1643765653072,1,1,1,1.0,3.0
2021-09-24 07:25:41.946,984.0,229.0,-20.0,1010.4934438184148,1,1,1,1.0,3.0
2021-09-24 07:25:41.947,984.0,70.0,-7.0,986.5115305965764,1,1,1,1.0,3.0
2021-09-24 07:25:41.948,939.0,-69.0,-28.0,941.9479815786008,1,1,1,1.0,3.0
2021-09-24 07:25:41.957,930.0,55.0,30.0,932.1078263806178,1,1,1,1.0,3.0
2021-09-24 07:25:41.968,1054.0,133.0,31.0,1062.8104252405506,1,1,1,1.0,3.0
2021-09-24 07:25:41.978,1060.0,179.0,31.0,1075.4543226004537,1,1,1,1.0,3.0
2021-09-24 07:25:41.986,1082.0,44.0,31.0,1083.3378974262832,1,1,1,1.0,3.0
2021-09-24 07:25:41.987,1082.0,44.0,64.0,1084.7838494372968,1,1,1,1.0,3.0
2021-09-24 07:25:41.996,974.0,-7.0,64.0,976.1255042257628,1,1,1,1.0,3.0
2021-09-24 07:25:41.997,974.0,-7.0,18.0,974.1914596217728,1,1,1,1.0,3.0
2021-09-24 07:25:42.006,976.0,-49.0,10.0,977.280410117792,1,1,1,1.0,3.0
2021-09-24 07:25:42.018,994.0,12.0,-23.0,994.33847355918,1,1,1,1.0,3.0
2021-09-24 07:25:42.026,1081.0,-1.0,12.0,1081.067065449688,1,1,1,1.0,3.0
2021-09-24 07:25:42.035,965.0,-3.0,-29.0,965.4403140536448,1,1,1,1.0,3.0
2021-09-24 07:25:42.045,966.0,-27.0,-13.0,966.464691543359,1,1,1,1.0,3.0
2021-09-24 07:25:42.055,970.0,16.0,29.0,970.5652991942376,1,1,1,1.0,3.0
2021-09-24 07:25:42.065,1026.0,42.0,12.0,1026.929403610589,1,1,1,1.0,3.0
2021-09-24 07:25:42.074,1109.0,77.0,44.0,1112.5403363474063,1,1,1,1.0,3.0
2021-09-24 07:25:42.085,1019.0,-25.0,23.0,1019.566084175028,1,1,1,1.0,3.0
2021-09-24 07:25:42.094,965.0,2.0,17.0,965.151801531759,1,1,1,1.0,3.0
2021-09-24 07:25:42.103,1057.0,2.0,17.0,1057.1385907249814,1,1,1,1.0,3.0
2021-09-24 07:25:42.104,1057.0,-98.0,12.0,1061.6011492081195,1,1,1,1.0,3.0
2021-09-24 07:25:42.113,1029.0,7.0,-23.0,1029.2808168813797,1,1,1,1.0,3.0
2021-09-24 07:25:42.123,1083.0,85.0,24.0,1086.5956009482093,1,1,1,1.0,3.0
2021-09-24 07:25:42.134,998.0,-4.0,-15.0,998.1207341799887,1,1,1,1.0,3.0
2021-09-24 07:25:42.142,1051.0,-4.0,-15.0,1051.114646458701,1,1,1,1.0,3.0
2021-09-24 07:25:42.143,1051.0,15.0,27.0,1051.4537555213733,1,1,1,1.0,3.0
2021-09-24 07:25:42.152,948.0,15.0,27.0,948.5030310968964,1,1,1,1.0,3.0
2021-09-24 07:25:42.153,948.0,42.0,14.0,949.033192254096,1,1,1,1.0,3.0
2021-09-24 07:25:42.162,1025.0,103.0,20.0,1030.3562490711647,1,1,1,1.0,3.0
2021-09-24 07:25:42.172,1057.0,82.0,20.0,1060.3645599509632,1,1,1,1.0,3.0
2021-09-24 07:25:42.173,1057.0,82.0,55.0,1061.6016201946943,1,1,1,1.0,3.0
2021-09-24 07:25:42.182,982.0,-24.0,18.0,982.4581416019718,1,1,1,1.0,3.0
2021-09-24 07:25:42.191,1077.0,-7.0,18.0,1077.1731522833272,1,1,1,1.0,3.0
2021-09-24 07:25:42.192,1077.0,-7.0,41.0,1077.8028576692493,1,1,1,1.0,3.0
2021-09-24 07:25:42.201,988.0,6.0,-21.0,988.2413672782576,1,1,1,1.0,3.0
2021-09-24 07:25:42.211,1010.0,48.0,-9.0,1011.1800037579856,1,1,1,1.0,3.0
2021-09-24 07:25:42.221,1095.0,-9.0,17.0,1095.1689367398983,1,1,1,1.0,3.0
2021-09-24 07:25:42.231,936.0,-11.0,-24.0,936.3722550353572,1,1,1,1.0,3.0
2021-09-24 07:25:42.241,1047.0,29.0,27.0,1047.7494929609843,1,1,1,1.0,3.0
2021-09-24 07:25:42.250,1016.0,106.0,-31.0,1021.9848335469565,1,1,1,1.0,3.0
2021-09-24 07:25:42.260,1036.0,57.0,-19.0,1037.7408154255088,1,1,1,1.0,3.0
2021-09-24 07:25:42.269,1117.0,57.0,-19.0,1118.6147683630857,1,1,1,1.0,3.0
2021-09-24 07:25:42.270,1117.0,61.0,52.0,1119.8723141501446,1,1,1,1.0,3.0
2021-09-24 07:25:42.279,956.0,22.0,52.0,957.6659125185568,1,1,1,1.0,3.0
2021-09-24 07:25:42.280,956.0,22.0,4.0,956.2614705194392,1,1,1,1.0,3.0
2021-09-24 07:25:42.292,1044.0,6.0,0.0,1044.0172412369443,1,1,1,1.0,3.0
2021-09-24 07:25:42.299,954.0,54.0,-30.0,955.9979079475016,1,1,1,1.0,3.0
2021-09-24 07:25:42.309,1028.0,-70.0,13.0,1030.4625175133738,1,1,1,1.0,3.0
2021-09-24 07:25:42.318,1117.0,5.0,13.0,1117.0868363739678,1,1,1,1.0,3.0
2021-09-24 07:25:42.319,1117.0,5.0,16.0,1117.125776266934,1,1,1,1.0,3.0
2021-09-24 07:25:42.328,923.0,1.0,-13.0,923.092086413918,1,1,1,1.0,3.0
2021-09-24 07:25:42.338,1027.0,61.0,-13.0,1028.892122625108,1,1,1,1.0,3.0
2021-09-24 07:25:42.339,1027.0,61.0,14.0,1028.905243450533,1,1,1,1.0,3.0
2021-09-24 07:25:42.348,995.0,90.0,-24.0,999.3502889377678,1,1,1,1.0,3.0
2021-09-24 07:25:42.357,1015.0,-12.0,-24.0,1015.3546178552594,1,1,1,1.0,3.0
2021-09-24 07:25:42.358,1015.0,-12.0,-35.0,1015.674160348682,1,1,1,1.0,3.0
2021-09-24 07:25:42.367,1005.0,-56.0,4.0,1006.566937664853,1,1,1,1.0,3.0
2021-09-24 07:25:42.378,937.0,-79.0,9.0,940.3674813603456,1,1,1,1.0,3.0
2021-09-24 07:25:42.387,1063.0,-25.0,50.0,1064.4688816494356,1,1,1,1.0,3.0
2021-09-24 07:25:42.397,998.0,81.0,50.0,1002.5293013174228,1,1,1,1.0,3.0
2021-09-24 07:25:42.398,998.0,81.0,31.0,1001.761448649328,1,1,1,1.0,3.0
2021-09-24 07:25:42.406,1042.0,-56.0,30.0,1043.9348638684312,1,1,1,1.0,3.0
2021-09-24 07:25:42.416,933.0,9.0,0.0,933.043407350376,1,1,1,1.0,3.0
2021-09-24 07:25:42.426,977.0,59.0,5.0,978.7926235929652,1,1,1,1.0,3.0
2021-09-24 07:25:42.436,1015.0,30.0,6.0,1015.4609790632036,1,1,1,1.0,3.0
2021-09-24 07:25:42.445,1008.0,55.0,-41.0,1010.3316287239552,1,1,1,1.0,3.0
2021-09-24 07:25:42.455,999.0,55.0,-41.0,1001.3525852565618,1,1,1,1.0,3.0
2021-09-24 07:25:42.456,999.0,20.0,-34.0,999.7784754634398,1,1,1,1.0,3.0
2021-09-24 07:25:42.465,1028.0,1.0,8.0,1028.0316142998715,1,1,1,1.0,3.0
2021-09-24 07:25:42.478,989.0,184.0,16.0,1006.0979077604724,1,1,1,1.0,3.0
2021-09-24 07:25:42.486,986.0,51.0,-15.0,987.4320229767718,1,1,1,1.0,3.0
2021-09-24 07:25:42.494,1017.0,104.0,26.0,1022.6343432527582,1,1,1,1.0,3.0
2021-09-24 07:25:42.504,1024.0,-81.0,12.0,1027.2687087612471,1,1,1,1.0,3.0
2021-09-24 07:25:42.514,963.0,-8.0,10.0,963.0851468068646,1,1,1,1.0,3.0
2021-09-24 07:25:42.523,958.0,62.0,10.0,960.0562483521472,1,1,1,1.0,3.0
2021-09-24 07:25:42.524,958.0,62.0,9.0,960.0463530476017,1,1,1,1.0,3.0
2021-09-24 07:25:42.535,1077.0,-6.0,3.0,1077.0208911622838,1,1,1,1.0,3.0
2021-09-24 07:25:42.551,1034.0,108.0,-1.0,1039.6254133100056,1,1,1,1.0,3.0
2021-09-24 07:25:42.553,946.0,19.0,-1.0,946.1913125790154,1,1,1,1.0,3.0
2021-09-24 07:25:42.554,946.0,19.0,-44.0,947.2132811568893,1,1,1,1.0,3.0
2021-09-24 07:25:42.562,1005.0,19.0,-44.0,1006.1421370760694,1,1,1,1.0,3.0
2021-09-24 07:25:42.563,1005.0,1.0,6.0,1005.0184077916184,1,1,1,1.0,3.0
2021-09-24 07:25:42.573,969.0,178.0,0.0,985.2131749017568,1,1,1,1.0,3.0
2021-09-24 07:25:42.583,1097.0,20.0,7.0,1097.2046299574204,1,1,1,1.0,3.0
2021-09-24 07:25:42.592,994.0,49.0,19.0,995.388366417852,1,1,1,1.0,3.0
2021-09-24 07:25:42.602,1022.0,-55.0,42.0,1024.3402754944275,1,1,1,1.0,3.0
2021-09-24 07:25:42.611,985.0,54.0,42.0,987.37277661479,1,1,1,1.0,3.0
2021-09-24 07:25:42.612,985.0,54.0,51.0,987.7965377546128,1,1,1,1.0,3.0
2021-09-24 07:25:42.624,955.0,65.0,13.0,957.297759320474,1,1,1,1.0,3.0
2021-09-24 07:25:42.632,1087.0,65.0,13.0,1089.0192835758237,1,1,1,1.0,3.0
2021-09-24 07:25:42.633,1087.0,8.0,32.0,1087.5003448275315,1,1,1,1.0,3.0
2021-09-24 07:25:42.641,1043.0,-4.0,24.0,1043.2837581406125,1,1,1,1.0,3.0
2021-09-24 07:25:42.650,982.0,-13.0,24.0,982.379254666954,1,1,1,1.0,3.0
2021-09-24 07:25:42.651,982.0,-13.0,-29.0,982.5141220359124,1,1,1,1.0,3.0
2021-09-24 07:25:42.660,989.0,45.0,2.0,990.0252522031952,1,1,1,1.0,3.0
2021-09-24 07:25:42.670,966.0,145.0,-23.0,977.092626110749,1,1,1,1.0,3.0
2021-09-24 07:25:42.686,1066.0,41.0,-23.0,1067.0360818641514,1,1,1,1.0,3.0
2021-09-24 07:25:42.687,1066.0,41.0,-25.0,1067.08106533665,1,1,1,1.0,3.0
2021-09-24 07:25:42.689,982.0,41.0,-25.0,983.1734333269995,1,1,1,1.0,3.0
2021-09-24 07:25:42.690,982.0,0.0,20.0,982.2036448720804,1,1,1,1.0,3.0
2021-09-24 07:25:42.699,904.0,67.0,20.0,906.7000606595326,1,1,1,1.0,3.0
2021-09-24 07:25:42.700,904.0,67.0,45.0,907.5957249789136,1,1,1,1.0,3.0
2021-09-24 07:25:42.709,958.0,2.0,9.0,958.0443622296413,1,1,1,1.0,3.0
2021-09-24 07:25:42.721,988.0,66.0,-20.0,990.4039579888604,1,1,1,1.0,3.0
2021-09-24 07:25:42.728,1079.0,66.0,-20.0,1081.2016463176517,1,1,1,1.0,3.0
2021-09-24 07:25:42.729,1079.0,-40.0,-2.0,1079.7430249832596,1,1,1,1.0,3.0
2021-09-24 07:25:42.738,991.0,-23.0,20.0,991.468607672477,1,1,1,1.0,3.0
2021-09-24 07:25:42.748,1046.0,-43.0,-3.0,1046.8877685788482,1,1,1,1.0,3.0
2021-09-24 07:25:42.758,957.0,72.0,-14.0,959.806751382798,1,1,1,1.0,3.0
2021-09-24 07:25:42.768,952.0,72.0,-14.0,954.821449277298,1,1,1,1.0,3.0
2021-09-24 07:25:42.769,952.0,199.0,1.0,972.5769892404404,1,1,1,1.0,3.0
2021-09-24 07:25:42.777,1086.0,29.0,1.0,1086.3875919762706,1,1,1,1.0,3.0
2021-09-24 07:25:42.778,1086.0,29.0,-13.0,1086.4649096956607,1,1,1,1.0,3.0
2021-09-24 07:25:42.787,1018.0,1.0,9.0,1018.0402742524482,1,1,1,1.0,3.0
2021-09-24 07:25:42.797,970.0,72.0,11.0,972.7306924323916,1,1,1,1.0,3.0
2021-09-24 07:25:42.807,986.0,35.0,7.0,986.6458331133822,1,1,1,1.0,3.0
2021-09-24 07:25:42.816,956.0,35.0,7.0,956.6660859463976,1,1,1,1.0,3.0
2021-09-24 07:25:42.817,956.0,168.0,19.0,970.83520743739,1,1,1,1.0,3.0
2021-09-24 07:25:42.828,1071.0,50.0,19.0,1072.3348357672617,1,1,1,1.0,3.0
2021-09-24 07:25:42.836,988.0,-57.0,12.0,989.7156157199904,1,1,1,1.0,3.0
2021-09-24 07:25:42.846,1032.0,1.0,33.0,1032.5279657229628,1,1,1,1.0,3.0
2021-09-24 07:25:42.855,983.0,1.0,33.0,983.5542689653682,1,1,1,1.0,3.0
2021-09-24 07:25:42.856,983.0,5.0,-26.0,983.3564969023188,1,1,1,1.0,3.0
2021-09-24 07:25:42.865,1058.0,24.0,-26.0,1058.5915170640656,1,1,1,1.0,3.0
2021-09-24 07:25:42.866,1058.0,24.0,-8.0,1058.302414246514,1,1,1,1.0,3.0
2021-09-24 07:25:42.876,1064.0,24.0,-8.0,1064.3007093862147,1,1,1,1.0,3.0
2021-09-24 07:25:42.877,1064.0,19.0,-1.0,1064.1700991852758,1,1,1,1.0,3.0
2021-09-24 07:25:42.885,985.0,-24.0,4.0,985.3004617881796,1,1,1,1.0,3.0
2021-09-24 07:25:42.894,960.0,-24.0,4.0,960.3082838338946,1,1,1,1.0,3.0
2021-09-24 07:25:42.895,960.0,-11.0,2.0,960.0651019592368,1,1,1,1.0,3.0
2021-09-24 07:25:42.904,989.0,63.0,2.0,991.006559009576,1,1,1,1.0,3.0
2021-09-24 07:25:42.905,989.0,63.0,4.0,991.0126134414234,1,1,1,1.0,3.0
2021-09-24 07:25:42.914,1053.0,55.0,29.0,1054.834110180364,1,1,1,1.0,3.0
2021-09-24 07:25:42.925,1027.0,38.0,27.0,1028.0573913940798,1,1,1,1.0,3.0
2021-09-24 07:25:42.933,950.0,38.0,27.0,951.1429966098684,1,1,1,1.0,3.0
2021-09-24 07:25:42.934,950.0,-7.0,22.0,950.2804849095872,1,1,1,1.0,3.0
2021-09-24 07:25:42.943,1022.0,-7.0,22.0,1022.2607299510238,1,1,1,1.0,3.0
2021-09-24 07:25:42.944,1022.0,-54.0,23.0,1023.684033283708,1,1,1,1.0,3.0
2021-09-24 07:25:42.962,1015.0,-54.0,23.0,1016.695628002796,1,1,1,1.0,3.0
2021-09-24 07:25:42.963,1015.0,59.0,-16.0,1016.8392203293498,1,1,1,1.0,3.0
2021-09-24 07:25:42.967,1098.0,8.0,-6.0,1098.0455363963738,1,1,1,1.0,3.0
2021-09-24 07:25:42.973,917.0,-25.0,-58.0,919.1724538953504,1,1,1,1.0,3.0
2021-09-24 07:25:42.982,1037.0,-25.0,-58.0,1038.9215562303057,1,1,1,1.0,3.0
2021-09-24 07:25:42.983,1037.0,-19.0,3.0,1037.1783838858194,1,1,1,1.0,3.0
2021-09-24 07:25:42.992,973.0,-24.0,37.0,973.9989733054138,1,1,1,1.0,3.0
2021-09-24 07:25:43.002,1014.0,56.0,37.0,1016.2189724660724,1,1,1,1.0,3.0
2021-09-24 07:25:43.003,1014.0,56.0,-12.0,1015.6160691915032,1,1,1,1.0,3.0
2021-09-24 07:25:43.012,1060.0,49.0,26.0,1061.450422770654,1,1,1,1.0,3.0
2021-09-24 07:25:43.021,967.0,49.0,26.0,968.589696414328,1,1,1,1.0,3.0
2021-09-24 07:25:43.022,967.0,-63.0,-7.0,969.07533246905,1,1,1,1.0,3.0
2021-09-24 07:25:43.032,1076.0,-69.0,40.0,1078.9518061526196,1,1,1,1.0,3.0
2021-09-24 07:25:43.041,988.0,-22.0,29.0,988.670319166101,1,1,1,1.0,3.0
2021-09-24 07:25:43.051,998.0,9.0,-26.0,998.3791864817696,1,1,1,1.0,3.0
2021-09-24 07:25:43.060,1102.0,9.0,-26.0,1102.3434129163195,1,1,1,1.0,3.0
2021-09-24 07:25:43.061,1102.0,-24.0,-4.0,1102.2685698140904,1,1,1,1.0,3.0
2021-09-24 07:25:43.070,976.0,20.0,-4.0,976.2130914918116,1,1,1,1.0,3.0
2021-09-24 07:25:43.071,976.0,20.0,-9.0,976.2463828358084,1,1,1,1.0,3.0
2021-09-24 07:25:43.081,1074.0,10.0,43.0,1074.906972719035,1,1,1,1.0,3.0
2021-09-24 07:25:43.090,963.0,109.0,-37.0,969.8551438230352,1,1,1,1.0,3.0
2021-09-24 07:25:43.100,1048.0,109.0,-37.0,1054.302613104985,1,1,1,1.0,3.0
2021-09-24 07:25:43.101,1048.0,101.0,15.0,1052.962487460973,1,1,1,1.0,3.0
2021-09-24 07:25:43.109,1061.0,56.0,15.0,1062.5827026636562,1,1,1,1.0,3.0
2021-09-24 07:25:43.110,1061.0,56.0,29.0,1062.872522930196,1,1,1,1.0,3.0
2021-09-24 07:25:43.119,993.0,-41.0,12.0,993.9185077258596,1,1,1,1.0,3.0
2021-09-24 07:25:43.129,1081.0,39.0,73.0,1084.1637330219085,1,1,1,1.0,3.0
2021-09-24 07:25:43.139,999.0,150.0,-8.0,1010.2301717925476,1,1,1,1.0,3.0
2021-09-24 07:25:43.149,1036.0,48.0,9.0,1037.1504230341905,1,1,1,1.0,3.0
2021-09-24 07:25:43.158,1103.0,4.0,15.0,1103.1092420970826,1,1,1,1.0,3.0
2021-09-24 07:25:43.168,979.0,-64.0,-35.0,981.7138075834524,1,1,1,1.0,3.0
2021-09-24 07:25:43.178,1016.0,-4.0,16.0,1016.1338494509472,1,1,1,1.0,3.0
2021-09-24 07:25:43.188,951.0,-4.0,16.0,951.1429966098684,1,1,1,1.0,3.0
2021-09-24 07:25:43.189,951.0,91.0,-23.0,955.620740670691,1,1,1,1.0,3.0
2021-09-24 07:25:43.197,1030.0,78.0,-11.0,1033.0077444046583,1,1,1,1.0,3.0
2021-09-24 07:25:43.207,1092.0,49.0,-11.0,1093.1541519840648,1,1,1,1.0,3.0
2021-09-24 07:25:43.208,1092.0,49.0,48.0,1094.152183199394,1,1,1,1.0,3.0
2021-09-24 07:25:43.217,1001.0,7.0,23.0,1001.288669665247,1,1,1,1.0,3.0
2021-09-24 07:25:43.226,1053.0,7.0,23.0,1053.2744181835994,1,1,1,1.0,3.0
2021-09-24 07:25:43.227,1053.0,1.0,59.0,1054.652075331007,1,1,1,1.0,3.0
2021-09-24 07:25:43.236,1000.0,66.0,-20.0,1002.3751792617372,1,1,1,1.0,3.0
2021-09-24 07:25:43.247,1016.0,3.0,24.0,1016.28785292357,1,1,1,1.0,3.0
2021-09-24 07:25:43.256,964.0,-70.0,3.0,966.54280815699,1,1,1,1.0,3.0
2021-09-24 07:25:43.265,916.0,-70.0,3.0,918.6756772659218,1,1,1,1.0,3.0
2021-09-24 07:25:43.266,916.0,0.0,-27.0,916.3978393689064,1,1,1,1.0,3.0
2021-09-24 07:25:43.275,1060.0,0.0,-27.0,1060.343812166601,1,1,1,1.0,3.0
2021-09-24 07:25:43.276,1060.0,18.0,41.0,1060.9453331816867,1,1,1,1.0,3.0
2021-09-24 07:25:43.286,974.0,118.0,-35.0,981.7458938034832,1,1,1,1.0,3.0
2021-09-24 07:25:43.297,994.0,54.0,-36.0,996.1164590548638,1,1,1,1.0,3.0
2021-09-24 07:25:43.305,981.0,-59.0,-9.0,982.8138175666844,1,1,1,1.0,3.0
2021-09-24 07:25:43.314,963.0,-59.0,-9.0,964.8476563686104,1,1,1,1.0,3.0
2021-09-24 07:25:43.315,963.0,163.0,41.0,977.5576709330248,1,1,1,1.0,3.0
2021-09-24 07:25:43.325,1104.0,-53.0,55.0,1106.639055880462,1,1,1,1.0,3.0
2021-09-24 07:25:43.334,1047.0,103.0,14.0,1052.1473280867085,1,1,1,1.0,3.0
2021-09-24 07:25:43.344,1088.0,-47.0,36.0,1089.6095631004714,1,1,1,1.0,3.0
2021-09-24 07:25:43.354,955.0,-47.0,36.0,956.8333188178598,1,1,1,1.0,3.0
2021-09-24 07:25:43.355,955.0,-41.0,-17.0,956.0308572425891,1,1,1,1.0,3.0
2021-09-24 07:25:43.363,993.0,44.0,-17.0,994.1197111012336,1,1,1,1.0,3.0
2021-09-24 07:25:43.364,993.0,44.0,1.0,993.974848776366,1,1,1,1.0,3.0
2021-09-24 07:25:43.373,1050.0,34.0,13.0,1050.6307629229211,1,1,1,1.0,3.0
2021-09-24 07:25:43.383,996.0,76.0,-44.0,999.863990750742,1,1,1,1.0,3.0
2021-09-24 07:25:43.393,993.0,45.0,-29.0,994.4420546215852,1,1,1,1.0,3.0
2021-09-24 07:25:43.403,1010.0,-14.0,-17.0,1010.2400704782996,1,1,1,1.0,3.0
2021-09-24 07:25:43.412,945.0,152.0,29.0,957.5855053205432,1,1,1,1.0,3.0
2021-09-24 07:25:43.422,1063.0,28.0,14.0,1063.4608596464657,1,1,1,1.0,3.0
2021-09-24 07:25:43.432,1064.0,121.0,14.0,1070.9495786450452,1,1,1,1.0,3.0
2021-09-24 07:25:43.433,1064.0,121.0,33.0,1071.366417244819,1,1,1,1.0,3.0
2021-09-24 07:25:43.444,1042.0,-35.0,36.0,1043.2089915256674,1,1,1,1.0,3.0
2021-09-24 07:25:43.451,968.0,23.0,36.0,968.9422067388746,1,1,1,1.0,3.0
2021-09-24 07:25:43.452,968.0,23.0,0.0,968.273205247362,1,1,1,1.0,3.0
2021-09-24 07:25:43.462,997.0,11.0,-10.0,997.1108263377748,1,1,1,1.0,3.0
2021-09-24 07:25:43.471,1038.0,-3.0,-18.0,1038.160392232337,1,1,1,1.0,3.0
2021-09-24 07:25:43.480,1054.0,-3.0,-18.0,1054.1579578032886,1,1,1,1.0,3.0
2021-09-24 07:25:43.481,1054.0,29.0,13.0,1054.4790182834363,1,1,1,1.0,3.0
2021-09-24 07:25:43.501,1009.0,11.0,-33.0,1009.599425514892,1,1,1,1.0,3.0
2021-09-24 07:25:43.502,954.0,-30.0,-33.0,955.0418838982928,1,1,1,1.0,3.0
2021-09-24 07:25:43.503,954.0,-30.0,-24.0,954.7732715152848,1,1,1,1.0,3.0
2021-09-24 07:25:43.510,962.0,149.0,16.0,973.6020747718238,1,1,1,1.0,3.0
2021-09-24 07:25:43.519,1082.0,149.0,16.0,1092.3282473688942,1,1,1,1.0,3.0
2021-09-24 07:25:43.520,1082.0,26.0,31.0,1082.756205246592,1,1,1,1.0,3.0
2021-09-24 07:25:43.529,1034.0,25.0,31.0,1034.7666403590715,1,1,1,1.0,3.0
2021-09-24 07:25:43.530,1034.0,25.0,31.0,1034.7666403590715,1,1,1,1.0,3.0
2021-09-24 07:25:43.539,959.0,-23.0,11.0,959.338834823234,1,1,1,1.0,3.0
2021-09-24 07:25:43.549,929.0,-37.0,-17.0,929.8919292046792,1,1,1,1.0,3.0
2021-09-24 07:25:43.566,980.0,30.0,-17.0,980.6064450124728,1,1,1,1.0,3.0
2021-09-24 07:25:43.567,980.0,30.0,-4.0,980.4672355565992,1,1,1,1.0,3.0
2021-09-24 07:25:43.568,1056.0,41.0,-4.0,1056.803198329755,1,1,1,1.0,3.0
2021-09-24 07:25:43.569,1056.0,41.0,9.0,1056.8339510064957,1,1,1,1.0,3.0
2021-09-24 07:25:43.578,1100.0,-4.0,18.0,1100.1545345995717,1,1,1,1.0,3.0
2021-09-24 07:25:43.588,1018.0,47.0,-7.0,1019.1084338773768,1,1,1,1.0,3.0
2021-09-24 07:25:43.599,1013.0,85.0,-14.0,1016.6562840999902,1,1,1,1.0,3.0
2021-09-24 07:25:43.609,966.0,141.0,4.0,976.2443341704984,1,1,1,1.0,3.0
2021-09-24 07:25:43.617,1079.0,31.0,22.0,1079.6693938423928,1,1,1,1.0,3.0
2021-09-24 07:25:43.627,1022.0,31.0,39.0,1023.2135651954582,1,1,1,1.0,3.0
2021-09-24 07:25:43.637,927.0,20.0,24.0,927.5262799511396,1,1,1,1.0,3.0
2021-09-24 07:25:43.648,1048.0,41.0,38.0,1049.489876082661,1,1,1,1.0,3.0
2021-09-24 07:25:43.658,1057.0,120.0,59.0,1065.424797909266,1,1,1,1.0,3.0
2021-09-24 07:25:43.666,1061.0,0.0,2.0,1061.0018850124632,1,1,1,1.0,3.0
2021-09-24 07:25:43.676,1103.0,-65.0,3.0,1104.917643989813,1,1,1,1.0,3.0
2021-09-24 07:25:43.686,1001.0,8.0,0.0,1001.0319675215172,1,1,1,1.0,3.0
2021-09-24 07:25:43.701,969.0,169.0,2.0,983.62899509927,1,1,1,1.0,3.0
2021-09-24 07:25:43.705,1088.0,82.0,-11.0,1091.1411457735428,1,1,1,1.0,3.0
2021-09-24 07:25:43.715,972.0,10.0,-52.0,973.4413182108104,1,1,1,1.0,3.0
2021-09-24 07:25:43.725,1027.0,21.0,20.0,1027.40936339903,1,1,1,1.0,3.0
2021-09-24 07:25:43.735,958.0,21.0,20.0,958.4388347724648,1,1,1,1.0,3.0
2021-09-24 07:25:43.736,958.0,28.0,9.0,958.4513550514704,1,1,1,1.0,3.0
2021-09-24 07:25:43.744,1013.0,9.0,20.0,1013.2373858084788,1,1,1,1.0,3.0
2021-09-24 07:25:43.754,1070.0,102.0,52.0,1076.107801291302,1,1,1,1.0,3.0
2021-09-24 07:25:43.764,1042.0,-75.0,24.0,1044.9712914716845,1,1,1,1.0,3.0
2021-09-24 07:25:43.773,1050.0,-75.0,24.0,1052.948716699916,1,1,1,1.0,3.0
2021-09-24 07:25:43.774,1050.0,-48.0,10.0,1051.1441385461844,1,1,1,1.0,3.0
2021-09-24 07:25:43.784,989.0,94.0,6.0,993.4752135810938,1,1,1,1.0,3.0
2021-09-24 07:25:43.794,984.0,-3.0,-16.0,984.1346452594788,1,1,1,1.0,3.0
2021-09-24 07:25:43.803,1034.0,97.0,-48.0,1039.6484982916102,1,1,1,1.0,3.0
2021-09-24 07:25:43.812,965.0,97.0,-48.0,971.0499472220778,1,1,1,1.0,3.0
2021-09-24 07:25:43.813,965.0,-63.0,-48.0,968.2448037557444,1,1,1,1.0,3.0
2021-09-24 07:25:43.822,1028.0,-6.0,-48.0,1029.1375029606102,1,1,1,1.0,3.0
2021-09-24 07:25:43.823,1028.0,-6.0,40.0,1028.795412120408,1,1,1,1.0,3.0
2021-09-24 07:25:43.833,902.0,15.0,20.0,902.3463858186612,1,1,1,1.0,3.0
2021-09-24 07:25:43.843,1027.0,19.0,49.0,1028.343814101101,1,1,1,1.0,3.0
2021-09-24 07:25:43.851,1092.0,19.0,49.0,1093.2639205608132,1,1,1,1.0,3.0
2021-09-24 07:25:43.852,1092.0,91.0,45.0,1096.7087124665327,1,1,1,1.0,3.0
2021-09-24 07:25:43.864,1010.0,-16.0,48.0,1011.266532621346,1,1,1,1.0,3.0
2021-09-24 07:25:43.871,1044.0,43.0,99.0,1049.5646716615418,1,1,1,1.0,3.0
2021-09-24 07:25:43.882,948.0,247.0,25.0,979.9683668363996,1,1,1,1.0,3.0
2021-09-24 07:25:43.891,979.0,14.0,-3.0,979.1046930742392,1,1,1,1.0,3.0
2021-09-24 07:25:43.901,1097.0,14.0,-3.0,1097.0934326665165,1,1,1,1.0,3.0
2021-09-24 07:25:43.902,1097.0,127.0,12.0,1104.3921405008275,1,1,1,1.0,3.0
2021-09-24 07:25:43.910,952.0,35.0,-29.0,953.0844663512254,1,1,1,1.0,3.0
2021-09-24 07:25:43.920,1049.0,-20.0,-29.0,1049.5913490497146,1,1,1,1.0,3.0
2021-09-24 07:25:43.921,1049.0,-20.0,9.0,1049.2292409192569,1,1,1,1.0,3.0
2021-09-24 07:25:43.931,915.0,173.0,-34.0,931.831529837878,1,1,1,1.0,3.0
2021-09-24 07:25:43.939,975.0,91.0,-34.0,979.8275358449569,1,1,1,1.0,3.0
2021-09-24 07:25:43.940,975.0,91.0,1.0,979.2379690351064,1,1,1,1.0,3.0
2021-09-24 07:25:43.950,1089.0,90.0,61.0,1094.4139984484848,1,1,1,1.0,3.0
2021-09-24 07:25:43.959,1046.0,-132.0,38.0,1054.9805685414306,1,1,1,1.0,3.0
2021-09-24 07:25:43.978,1022.0,51.0,47.0,1024.350525943146,1,1,1,1.0,3.0
2021-09-24 07:25:43.982,975.0,145.0,8.0,985.7555477906276,1,1,1,1.0,3.0
2021-09-24 07:25:43.989,1077.0,-34.0,14.0,1077.6274866576111,1,1,1,1.0,3.0
2021-09-24 07:25:43.998,1056.0,-34.0,14.0,1056.6399576014528,1,1,1,1.0,3.0
2021-09-24 07:25:43.999,1056.0,140.0,-10.0,1065.2868158388144,1,1,1,1.0,3.0
2021-09-24 07:25:44.008,958.0,54.0,-11.0,959.5837639310078,1,1,1,1.0,3.0
2021-09-24 07:25:44.017,1057.0,54.0,-11.0,1058.4356380999272,1,1,1,1.0,3.0
2021-09-24 07:25:44.018,1057.0,26.0,47.0,1058.3638315815597,1,1,1,1.0,3.0
2021-09-24 07:25:44.027,928.0,313.0,0.0,979.3635688547946,1,1,1,1.0,3.0
2021-09-24 07:25:44.038,1071.0,96.0,0.0,1075.2939133092868,1,1,1,1.0,3.0
2021-09-24 07:25:44.039,1071.0,96.0,-23.0,1075.5398644401796,1,1,1,1.0,3.0
2021-09-24 07:25:44.047,991.0,-55.0,-23.0,992.7915189001164,1,1,1,1.0,3.0
2021-09-24 07:25:44.048,991.0,-55.0,-31.0,993.0090634027466,1,1,1,1.0,3.0
2021-09-24 07:25:44.059,1032.0,-55.0,-31.0,1033.9293979764768,1,1,1,1.0,3.0
2021-09-24 07:25:44.060,1032.0,12.0,60.0,1033.812362085113,1,1,1,1.0,3.0
2021-09-24 07:25:44.066,1102.0,-19.0,60.0,1103.7957238547358,1,1,1,1.0,3.0
2021-09-24 07:25:44.067,1102.0,-19.0,51.0,1103.343101668742,1,1,1,1.0,3.0
2021-09-24 07:25:44.076,980.0,187.0,-9.0,997.7224062834312,1,1,1,1.0,3.0
2021-09-24 07:25:44.087,1075.0,-58.0,-17.0,1076.6977291700769,1,1,1,1.0,3.0
2021-09-24 07:25:44.096,950.0,-81.0,-8.0,953.480466501543,1,1,1,1.0,3.0
2021-09-24 07:25:44.105,1007.0,-81.0,-8.0,1010.284118453814,1,1,1,1.0,3.0
2021-09-24 07:25:44.106,1007.0,-49.0,72.0,1010.759120661298,1,1,1,1.0,3.0
2021-09-24 07:25:44.115,1003.0,77.0,-3.0,1005.9557644349974,1,1,1,1.0,3.0
2021-09-24 07:25:44.125,937.0,77.0,-3.0,940.1632836906576,1,1,1,1.0,3.0
2021-09-24 07:25:44.126,937.0,176.0,-35.0,954.0283014669952,1,1,1,1.0,3.0
2021-09-24 07:25:44.135,1080.0,176.0,-35.0,1094.8063755751516,1,1,1,1.0,3.0
2021-09-24 07:25:44.136,1080.0,78.0,7.0,1082.8356292623548,1,1,1,1.0,3.0
2021-09-24 07:25:44.147,965.0,-2.0,-4.0,965.010362638661,1,1,1,1.0,3.0
2021-09-24 07:25:44.154,989.0,14.0,20.0,989.3012685729256,1,1,1,1.0,3.0
2021-09-24 07:25:44.164,1061.0,41.0,99.0,1066.3972055477266,1,1,1,1.0,3.0
2021-09-24 07:25:44.174,1041.0,104.0,21.0,1046.3928516575406,1,1,1,1.0,3.0
2021-09-24 07:25:44.185,1004.0,9.0,21.0,1004.2599265130516,1,1,1,1.0,3.0
2021-09-24 07:25:44.186,1004.0,9.0,20.0,1004.2395132636436,1,1,1,1.0,3.0
2021-09-24 07:25:44.195,970.0,-69.0,-3.0,972.455654515927,1,1,1,1.0,3.0
2021-09-24 07:25:44.203,1029.0,-67.0,32.0,1031.6753365279214,1,1,1,1.0,3.0
2021-09-24 07:25:44.213,972.0,94.0,-9.0,976.5761619044364,1,1,1,1.0,3.0
2021-09-24 07:25:44.222,938.0,94.0,-9.0,942.7412158169388,1,1,1,1.0,3.0
2021-09-24 07:25:44.223,938.0,220.0,-15.0,963.5709626176996,1,1,1,1.0,3.0
2021-09-24 07:25:44.232,1058.0,70.0,-15.0,1060.419256709345,1,1,1,1.0,3.0
2021-09-24 07:25:44.233,1058.0,70.0,9.0,1060.3513568624317,1,1,1,1.0,3.0
2021-09-24 07:25:44.243,980.0,-49.0,-9.0,981.2655094315708,1,1,1,1.0,3.0
2021-09-24 07:25:44.252,968.0,8.0,-9.0,968.0748937969624,1,1,1,1.0,3.0
2021-09-24 07:25:44.253,968.0,8.0,8.0,968.0661134447378,1,1,1,1.0,3.0
2021-09-24 07:25:44.262,1011.0,25.0,-7.0,1011.33327840035,1,1,1,1.0,3.0
2021-09-24 07:25:44.272,1094.0,79.0,49.0,1097.9426214515947,1,1,1,1.0,3.0
2021-09-24 07:25:44.281,1051.0,21.0,45.0,1052.1725143720491,1,1,1,1.0,3.0
2021-09-24 07:25:44.292,949.0,-48.0,8.0,950.2468100446324,1,1,1,1.0,3.0
2021-09-24 07:25:44.302,1002.0,-92.0,28.0,1006.6041923218878,1,1,1,1.0,3.0
2021-09-24 07:25:44.310,999.0,-92.0,28.0,1003.6179552000852,1,1,1,1.0,3.0
2021-09-24 07:25:44.311,999.0,101.0,-45.0,1005.1004924881888,1,1,1,1.0,3.0
2021-09-24 07:25:44.320,1107.0,6.0,14.0,1107.1047827554537,1,1,1,1.0,3.0
2021-09-24 07:25:44.330,910.0,-45.0,-28.0,911.5420999602816,1,1,1,1.0,3.0
2021-09-24 07:25:44.340,955.0,-73.0,-30.0,958.2557070010072,1,1,1,1.0,3.0
2021-09-24 07:25:44.351,925.0,41.0,14.0,926.0140387704712,1,1,1,1.0,3.0
2021-09-24 07:25:44.359,1000.0,34.0,14.0,1000.6757716663276,1,1,1,1.0,3.0
2021-09-24 07:25:44.360,1000.0,34.0,-19.0,1000.7582125568592,1,1,1,1.0,3.0
2021-09-24 07:25:44.370,1050.0,49.0,25.0,1051.4399650003795,1,1,1,1.0,3.0
2021-09-24 07:25:44.379,967.0,6.0,25.0,967.3417183188162,1,1,1,1.0,3.0
2021-09-24 07:25:44.390,1076.0,-4.0,69.0,1078.2175105237347,1,1,1,1.0,3.0
2021-09-24 07:25:44.399,995.0,-49.0,29.0,996.6278141814024,1,1,1,1.0,3.0
2021-09-24 07:25:44.409,987.0,65.0,-26.0,989.4796612361469,1,1,1,1.0,3.0
2021-09-24 07:25:44.418,1092.0,10.0,27.0,1092.37951280679,1,1,1,1.0,3.0
2021-09-24 07:25:44.428,969.0,-9.0,-15.0,969.1578818747748,1,1,1,1.0,3.0
2021-09-24 07:25:44.437,1009.0,-9.0,-15.0,1009.1516238900872,1,1,1,1.0,3.0
2021-09-24 07:25:44.439,1009.0,68.0,40.0,1012.0795423285662,1,1,1,1.0,3.0
2021-09-24 07:25:44.447,1010.0,125.0,-40.0,1018.4915316290068,1,1,1,1.0,3.0
2021-09-24 07:25:44.458,1032.0,55.0,7.0,1033.4882679546972,1,1,1,1.0,3.0
2021-09-24 07:25:44.467,1095.0,68.0,51.0,1098.2941318244398,1,1,1,1.0,3.0
2021-09-24 07:25:44.476,986.0,68.0,51.0,989.657011292296,1,1,1,1.0,3.0
2021-09-24 07:25:44.477,986.0,-43.0,29.0,987.3631550751728,1,1,1,1.0,3.0
2021-09-24 07:25:44.487,1065.0,-3.0,79.0,1067.930241167465,1,1,1,1.0,3.0
2021-09-24 07:25:44.496,1034.0,-3.0,79.0,1037.0178397694033,1,1,1,1.0,3.0
2021-09-24 07:25:44.497,1034.0,150.0,10.0,1044.87128393884,1,1,1,1.0,3.0
2021-09-24 07:25:44.506,1019.0,92.0,11.0,1023.2037920179928,1,1,1,1.0,3.0
2021-09-24 07:25:44.520,1094.0,41.0,27.0,1095.1009085924456,1,1,1,1.0,3.0
2021-09-24 07:25:44.525,992.0,6.0,27.0,992.385509769263,1,1,1,1.0,3.0
2021-09-24 07:25:44.526,992.0,6.0,-11.0,992.0791299084968,1,1,1,1.0,3.0
2021-09-24 07:25:44.535,1020.0,89.0,14.0,1023.9711910009968,1,1,1,1.0,3.0
2021-09-24 07:25:44.545,992.0,54.0,-40.0,994.2736041955452,1,1,1,1.0,3.0
2021-09-24 07:25:44.555,967.0,85.0,-44.0,971.7252698165258,1,1,1,1.0,3.0
2021-09-24 07:25:44.565,1068.0,-17.0,38.0,1068.8110216497582,1,1,1,1.0,3.0
2021-09-24 07:25:44.583,913.0,-73.0,38.0,916.7016963003832,1,1,1,1.0,3.0
2021-09-24 07:25:44.584,913.0,-73.0,0.0,915.9137513980232,1,1,1,1.0,3.0
2021-09-24 07:25:44.586,1034.0,12.0,54.0,1035.4786332899391,1,1,1,1.0,3.0
2021-09-24 07:25:44.594,1024.0,125.0,10.0,1031.6496498327326,1,1,1,1.0,3.0
2021-09-24 07:25:44.604,1024.0,42.0,15.0,1024.9707312894354,1,1,1,1.0,3.0
2021-09-24 07:25:44.614,1009.0,42.0,15.0,1009.9851484056584,1,1,1,1.0,3.0
2021-09-24 07:25:44.615,1009.0,-72.0,36.0,1012.2060067002172,1,1,1,1.0,3.0
2021-09-24 07:25:44.623,986.0,-96.0,-5.0,990.6750223963456,1,1,1,1.0,3.0
2021-09-24 07:25:44.633,1005.0,112.0,24.0,1011.5063025013734,1,1,1,1.0,3.0
2021-09-24 07:25:44.643,1012.0,126.0,-45.0,1020.8060540572828,1,1,1,1.0,3.0
2021-09-24 07:25:44.652,959.0,2.0,-45.0,960.0572899572192,1,1,1,1.0,3.0
2021-09-24 07:25:44.653,959.0,2.0,-54.0,960.5212126757012,1,1,1,1.0,3.0
2021-09-24 07:25:44.662,1000.0,-61.0,-8.0,1001.8907126029266,1,1,1,1.0,3.0
2021-09-24 07:25:44.672,957.0,143.0,21.0,967.8527780607958,1,1,1,1.0,3.0
2021-09-24 07:25:44.683,1110.0,-20.0,65.0,1112.0813819141115,1,1,1,1.0,3.0
2021-09-24 07:25:44.691,1060.0,97.0,65.0,1066.4117403704818,1,1,1,1.0,3.0
2021-09-24 07:25:44.693,1060.0,97.0,25.0,1064.7224990578532,1,1,1,1.0,3.0
2021-09-24 07:25:44.701,1048.0,0.0,35.0,1048.5842836892034,1,1,1,1.0,3.0
2021-09-24 07:25:44.711,975.0,6.0,14.0,975.118967100938,1,1,1,1.0,3.0
2021-09-24 07:25:44.722,996.0,38.0,14.0,996.8229531867732,1,1,1,1.0,3.0
2021-09-24 07:25:44.730,989.0,47.0,14.0,990.215128141355,1,1,1,1.0,3.0
2021-09-24 07:25:44.731,989.0,47.0,14.0,990.215128141355,1,1,1,1.0,3.0
2021-09-24 07:25:44.740,1003.0,101.0,-56.0,1009.626663673261,1,1,1,1.0,3.0
2021-09-24 07:25:44.759,1001.0,15.0,-26.0,1001.4499488242036,1,1,1,1.0,3.0
2021-09-24 07:25:44.761,929.0,-76.0,-22.0,932.363126684019,1,1,1,1.0,3.0
2021-09-24 07:25:44.771,968.0,117.0,39.0,975.8247793533428,1,1,1,1.0,3.0
2021-09-24 07:25:44.779,1080.0,73.0,39.0,1083.1666538441812,1,1,1,1.0,3.0
2021-09-24 07:25:44.780,1080.0,73.0,24.0,1082.7303450074724,1,1,1,1.0,3.0
2021-09-24 07:25:44.789,1020.0,129.0,11.0,1028.183835702546,1,1,1,1.0,3.0
2021-09-24 07:25:44.799,1062.0,-2.0,13.0,1062.0814469709935,1,1,1,1.0,3.0
2021-09-24 07:25:44.809,962.0,11.0,8.0,962.0961490412484,1,1,1,1.0,3.0
2021-09-24 07:25:44.819,982.0,97.0,0.0,986.7791039538688,1,1,1,1.0,3.0
2021-09-24 07:25:44.828,1050.0,14.0,28.0,1050.4665630090278,1,1,1,1.0,3.0
2021-09-24 07:25:44.839,1122.0,-51.0,38.0,1123.8011389921262,1,1,1,1.0,3.0
2021-09-24 07:25:44.848,972.0,132.0,-11.0,980.983689976546,1,1,1,1.0,3.0
2021-09-24 07:25:44.858,1008.0,-49.0,4.0,1009.198196589748,1,1,1,1.0,3.0
2021-09-24 07:25:44.867,945.0,181.0,32.0,962.7097174122632,1,1,1,1.0,3.0
2021-09-24 07:25:44.877,1026.0,181.0,32.0,1042.3343993172248,1,1,1,1.0,3.0
2021-09-24 07:25:44.878,1026.0,52.0,-22.0,1027.5524317522684,1,1,1,1.0,3.0
2021-09-24 07:25:44.888,1029.0,0.0,14.0,1029.0952336883113,1,1,1,1.0,3.0
2021-09-24 07:25:44.897,947.0,0.0,17.0,947.1525748262526,1,1,1,1.0,3.0
2021-09-24 07:25:44.907,910.0,40.0,-33.0,911.4762750615072,1,1,1,1.0,3.0
2021-09-24 07:25:44.916,990.0,110.0,7.0,996.116961004078,1,1,1,1.0,3.0
2021-09-24 07:25:44.927,1086.0,-4.0,2.0,1086.0092080640936,1,1,1,1.0,3.0
2021-09-24 07:25:44.936,1050.0,-71.0,12.0,1052.466151474716,1,1,1,1.0,3.0
2021-09-24 07:25:44.945,998.0,11.0,12.0,998.1327567012316,1,1,1,1.0,3.0
2021-09-24 07:25:44.946,998.0,11.0,0.0,998.060619401447,1,1,1,1.0,3.0
2021-09-24 07:25:44.955,1033.0,-10.0,33.0,1033.575348003231,1,1,1,1.0,3.0
2021-09-24 07:25:44.965,969.0,149.0,17.0,980.5360778676122,1,1,1,1.0,3.0
2021-09-24 07:25:44.976,1040.0,23.0,-4.0,1040.2619862323145,1,1,1,1.0,3.0
2021-09-24 07:25:44.993,992.0,18.0,25.0,992.4782113477352,1,1,1,1.0,3.0
2021-09-24 07:25:44.996,938.0,-10.0,0.0,938.0533033895248,1,1,1,1.0,3.0
2021-09-24 07:25:45.004,1057.0,-10.0,0.0,1057.0473026312493,1,1,1,1.0,3.0
2021-09-24 07:25:45.005,1057.0,-1.0,55.0,1058.4304417390877,1,1,1,1.0,3.0
2021-09-24 07:25:45.015,978.0,-1.0,55.0,979.5458131195294,1,1,1,1.0,3.0
2021-09-24 07:25:45.016,978.0,111.0,10.0,984.3297211808652,1,1,1,1.0,3.0
2021-09-24 07:25:45.023,1124.0,111.0,10.0,1129.511841460726,1,1,1,1.0,3.0
2021-09-24 07:25:45.024,1124.0,-61.0,28.0,1126.0022202464788,1,1,1,1.0,3.0
2021-09-24 07:25:45.033,1089.0,-49.0,41.0,1090.8725865104504,1,1,1,1.0,3.0
2021-09-24 07:25:45.043,1004.0,-9.0,-6.0,1004.0582652416144,1,1,1,1.0,3.0
2021-09-24 07:25:45.053,1001.0,24.0,-10.0,1001.3376054058892,1,1,1,1.0,3.0
2021-09-24 07:25:45.064,1059.0,42.0,-5.0,1059.8443281916452,1,1,1,1.0,3.0
2021-09-24 07:25:45.072,1064.0,41.0,11.0,1064.8464678065095,1,1,1,1.0,3.0
2021-09-24 07:25:45.082,1071.0,-22.0,59.0,1072.8494768605706,1,1,1,1.0,3.0
2021-09-24 07:25:45.092,947.0,42.0,14.0,948.0342820805586,1,1,1,1.0,3.0
2021-09-24 07:25:45.102,989.0,22.0,21.0,989.4675335755084,1,1,1,1.0,3.0
2021-09-24 07:25:45.111,1102.0,78.0,37.0,1105.3764064788068,1,1,1,1.0,3.0
2021-09-24 07:25:45.122,1033.0,-82.0,40.0,1037.0212148263893,1,1,1,1.0,3.0
2021-09-24 07:25:45.131,1016.0,-129.0,-19.0,1024.3329536825415,1,1,1,1.0,3.0
2021-09-24 07:25:45.140,1034.0,-129.0,-19.0,1042.1890423526818,1,1,1,1.0,3.0
2021-09-24 07:25:45.141,1034.0,29.0,0.0,1034.40659317311,1,1,1,1.0,3.0
2021-09-24 07:25:45.151,992.0,163.0,12.0,1005.3740597409504,1,1,1,1.0,3.0
2021-09-24 07:25:45.160,1114.0,163.0,12.0,1125.9258412524334,1,1,1,1.0,3.0
2021-09-24 07:25:45.161,1114.0,126.0,-18.0,1121.2475195067325,1,1,1,1.0,3.0
2021-09-24 07:25:45.171,923.0,32.0,-43.0,924.5550281081164,1,1,1,1.0,3.0
2021-09-24 07:25:45.180,1005.0,-15.0,-16.0,1005.2392749987438,1,1,1,1.0,3.0
2021-09-24 07:25:45.189,919.0,63.0,-16.0,921.2958265399882,1,1,1,1.0,3.0
2021-09-24 07:25:45.190,919.0,63.0,21.0,921.3962231309612,1,1,1,1.0,3.0
2021-09-24 07:25:45.199,1040.0,-19.0,20.0,1040.3658010526874,1,1,1,1.0,3.0
2021-09-24 07:25:45.209,1130.0,-19.0,20.0,1130.3366755086734,1,1,1,1.0,3.0
2021-09-24 07:25:45.210,1130.0,94.0,57.0,1135.3347523968428,1,1,1,1.0,3.0
2021-09-24 07:25:45.219,1039.0,-36.0,40.0,1040.3927143151282,1,1,1,1.0,3.0
2021-09-24 07:25:45.228,1011.0,-36.0,40.0,1012.4312322325898,1,1,1,1.0,3.0
2021-09-24 07:25:45.229,1011.0,24.0,25.0,1011.5937919936046,1,1,1,1.0,3.0
2021-09-24 07:25:45.238,1009.0,37.0,25.0,1009.987623686548,1,1,1,1.0,3.0
2021-09-24 07:25:45.239,1009.0,37.0,34.0,1010.2504639939544,1,1,1,1.0,3.0
2021-09-24 07:25:45.248,1011.0,51.0,-15.0,1012.3966613931518,1,1,1,1.0,3.0
2021-09-24 07:25:45.258,1037.0,-33.0,-60.0,1039.2583894296934,1,1,1,1.0,3.0
2021-09-24 07:25:45.268,912.0,-53.0,-62.0,915.640213184196,1,1,1,1.0,3.0
2021-09-24 07:25:45.278,972.0,3.0,-3.0,972.0092592151578,1,1,1,1.0,3.0
2021-09-24 07:25:45.288,997.0,167.0,6.0,1010.9075130792132,1,1,1,1.0,3.0
2021-09-24 07:25:45.297,954.0,25.0,-5.0,954.3406100549216,1,1,1,1.0,3.0
2021-09-24 07:25:45.307,1081.0,95.0,39.0,1085.8669347576615,1,1,1,1.0,3.0
2021-09-24 07:25:45.316,1064.0,-40.0,39.0,1065.4656259119763,1,1,1,1.0,3.0
2021-09-24 07:25:45.317,1064.0,-40.0,64.0,1066.6733333125,1,1,1,1.0,3.0
2021-09-24 07:25:45.327,1036.0,45.0,48.0,1038.0871832365526,1,1,1,1.0,3.0
2021-09-24 07:25:45.336,994.0,94.0,13.0,998.5194039176204,1,1,1,1.0,3.0
2021-09-24 07:25:45.346,1064.0,-8.0,9.0,1064.068136916053,1,1,1,1.0,3.0
2021-09-24 07:25:45.355,1091.0,-8.0,9.0,1091.066450771904,1,1,1,1.0,3.0
2021-09-24 07:25:45.356,1091.0,64.0,-9.0,1092.9126223079318,1,1,1,1.0,3.0
2021-09-24 07:25:45.366,930.0,14.0,-39.0,930.9226605900192,1,1,1,1.0,3.0
2021-09-24 07:25:45.375,1040.0,-26.0,12.0,1040.3941560773974,1,1,1,1.0,3.0
2021-09-24 07:25:45.385,947.0,213.0,-9.0,970.7002626969872,1,1,1,1.0,3.0
2021-09-24 07:25:45.394,1067.0,213.0,-9.0,1088.08961028033,1,1,1,1.0,3.0
2021-09-24 07:25:45.395,1067.0,61.0,-3.0,1068.746461982448,1,1,1,1.0,3.0
2021-09-24 07:25:45.405,1047.0,81.0,31.0,1050.5860269392508,1,1,1,1.0,3.0
2021-09-24 07:25:45.414,1057.0,-72.0,29.0,1059.8462152595537,1,1,1,1.0,3.0
2021-09-24 07:25:45.424,1046.0,0.0,78.0,1048.9041900955492,1,1,1,1.0,3.0
2021-09-24 07:25:45.435,991.0,98.0,20.0,996.034637951914,1,1,1,1.0,3.0
2021-09-24 07:25:45.443,1010.0,56.0,20.0,1011.7489807259508,1,1,1,1.0,3.0
2021-09-24 07:25:45.444,1010.0,56.0,19.0,1011.7297069869996,1,1,1,1.0,3.0
2021-09-24 07:25:45.453,933.0,56.0,19.0,934.8721837770124,1,1,1,1.0,3.0
2021-09-24 07:25:45.454,933.0,-22.0,-14.0,933.3643447228956,1,1,1,1.0,3.0
2021-09-24 07:25:45.463,938.0,-16.0,-44.0,939.1677166512912,1,1,1,1.0,3.0
2021-09-24 07:25:45.473,1053.0,-32.0,11.0,1053.5435444251937,1,1,1,1.0,3.0
2021-09-24 07:25:45.483,957.0,-32.0,11.0,957.5980367565504,1,1,1,1.0,3.0
2021-09-24 07:25:45.484,957.0,173.0,-33.0,973.0709121127812,1,1,1,1.0,3.0
2021-09-24 07:25:45.492,1047.0,68.0,10.0,1049.253544192251,1,1,1,1.0,3.0
2021-09-24 07:25:45.502,984.0,-64.0,6.0,986.0973582765548,1,1,1,1.0,3.0
2021-09-24 07:25:45.512,951.0,34.0,66.0,953.8935999365968,1,1,1,1.0,3.0
2021-09-24 07:25:45.522,1084.0,37.0,81.0,1087.6515986288991,1,1,1,1.0,3.0
2021-09-24 07:25:45.540,1034.0,37.0,81.0,1037.8275386594826,1,1,1,1.0,3.0
2021-09-24 07:25:45.541,1034.0,129.0,21.0,1042.2274223987777,1,1,1,1.0,3.0
2021-09-24 07:25:45.544,1035.0,30.0,25.0,1035.736452964749,1,1,1,1.0,3.0
2021-09-24 07:25:45.551,962.0,-52.0,-11.0,963.467176399902,1,1,1,1.0,3.0
2021-09-24 07:25:45.561,975.0,-61.0,23.0,977.1770566279174,1,1,1,1.0,3.0
2021-09-24 07:25:45.570,1009.0,31.0,-9.0,1009.5162207711176,1,1,1,1.0,3.0
2021-09-24 07:25:45.580,975.0,150.0,-18.0,986.6351909393868,1,1,1,1.0,3.0
2021-09-24 07:25:45.596,1003.0,150.0,-18.0,1014.314053930044,1,1,1,1.0,3.0
2021-09-24 07:25:45.597,1003.0,103.0,2.0,1008.2767477235602,1,1,1,1.0,3.0
2021-09-24 07:25:45.599,1003.0,103.0,2.0,1008.2767477235602,1,1,1,1.0,3.0
2021-09-24 07:25:45.600,1003.0,-34.0,-36.0,1004.221589092766,1,1,1,1.0,3.0
2021-09-24 07:25:45.609,916.0,-34.0,-36.0,917.3374515411437,1,1,1,1.0,3.0
2021-09-24 07:25:45.610,916.0,52.0,36.0,918.1808100804546,1,1,1,1.0,3.0
2021-09-24 07:25:45.619,1016.0,37.0,-33.0,1017.2089264256384,1,1,1,1.0,3.0
2021-09-24 07:25:45.629,1009.0,125.0,14.0,1016.8097167120306,1,1,1,1.0,3.0
2021-09-24 07:25:45.639,981.0,65.0,38.0,983.8851558998132,1,1,1,1.0,3.0
2021-09-24 07:25:45.649,946.0,65.0,38.0,948.9915700363202,1,1,1,1.0,3.0
2021-09-24 07:25:45.650,946.0,-60.0,-1.0,947.9013661768824,1,1,1,1.0,3.0
2021-09-24 07:25:45.659,988.0,-106.0,36.0,994.321879473644,1,1,1,1.0,3.0
2021-09-24 07:25:45.668,1011.0,-1.0,31.0,1011.4756546748912,1,1,1,1.0,3.0
2021-09-24 07:25:45.678,1100.0,-1.0,31.0,1100.4371858493332,1,1,1,1.0,3.0
2021-09-24 07:25:45.679,1100.0,72.0,39.0,1103.0435168206193,1,1,1,1.0,3.0
2021-09-24 07:25:45.687,1001.0,72.0,39.0,1004.3435667141,1,1,1,1.0,3.0
2021-09-24 07:25:45.688,1001.0,137.0,-13.0,1010.4152611674074,1,1,1,1.0,3.0
2021-09-24 07:25:45.698,970.0,16.0,-13.0,970.2190474320736,1,1,1,1.0,3.0
2021-09-24 07:25:45.699,970.0,16.0,-4.0,970.140196054158,1,1,1,1.0,3.0
2021-09-24 07:25:45.707,953.0,96.0,41.0,958.7001616772576,1,1,1,1.0,3.0
2021-09-24 07:25:45.717,1004.0,62.0,7.0,1005.936876747244,1,1,1,1.0,3.0
2021-09-24 07:25:45.726,1048.0,62.0,7.0,1049.8557043708436,1,1,1,1.0,3.0
2021-09-24 07:25:45.727,1048.0,110.0,69.0,1056.0137309713357,1,1,1,1.0,3.0
2021-09-24 07:25:45.736,979.0,-50.0,69.0,982.70137885321,1,1,1,1.0,3.0
2021-09-24 07:25:45.737,979.0,-50.0,8.0,980.3086248728,1,1,1,1.0,3.0
2021-09-24 07:25:45.747,960.0,-18.0,0.0,960.1687351710636,1,1,1,1.0,3.0
2021-09-24 07:25:45.756,982.0,-64.0,23.0,984.3520711615332,1,1,1,1.0,3.0
2021-09-24 07:25:45.774,1059.0,3.0,20.0,1059.1930891013214,1,1,1,1.0,3.0
2021-09-24 07:25:45.776,1099.0,-11.0,45.0,1099.975908827098,1,1,1,1.0,3.0
2021-09-24 07:25:45.786,954.0,-49.0,-31.0,955.7604302334346,1,1,1,1.0,3.0
2021-09-24 07:25:45.795,973.0,-34.0,-31.0,974.087265084602,1,1,1,1.0,3.0
2021-09-24 07:25:45.796,973.0,-34.0,-4.0,973.6020747718238,1,1,1,1.0,3.0
2021-09-24 07:25:45.804,885.0,-34.0,-4.0,885.6618993724411,1,1,1,1.0,3.0
2021-09-24 07:25:45.805,885.0,84.0,14.0,889.0877347033869,1,1,1,1.0,3.0
2021-09-24 07:25:45.814,1078.0,84.0,14.0,1081.358404970341,1,1,1,1.0,3.0
2021-09-24 07:25:45.815,1078.0,19.0,6.0,1078.1841215673694,1,1,1,1.0,3.0
2021-09-24 07:25:45.824,1047.0,80.0,50.0,1051.2416468158024,1,1,1,1.0,3.0
2021-09-24 07:25:45.834,990.0,80.0,50.0,994.4847912361456,1,1,1,1.0,3.0
2021-09-24 07:25:45.835,990.0,-60.0,-6.0,991.8346636410728,1,1,1,1.0,3.0
2021-09-24 07:25:45.844,1056.0,89.0,48.0,1060.830335162037,1,1,1,1.0,3.0
2021-09-24 07:25:45.854,1005.0,89.0,48.0,1010.0742546961584,1,1,1,1.0,3.0
2021-09-24 07:25:45.855,1005.0,72.0,48.0,1008.7184939317808,1,1,1,1.0,3.0
2021-09-24 07:25:45.863,1047.0,61.0,48.0,1049.8733256921998,1,1,1,1.0,3.0
2021-09-24 07:25:45.864,1047.0,61.0,21.0,1048.985700569841,1,1,1,1.0,3.0
2021-09-24 07:25:45.873,1082.0,59.0,57.0,1085.1055248223556,1,1,1,1.0,3.0
2021-09-24 07:25:45.885,945.0,1.0,1.0,945.0010582004658,1,1,1,1.0,3.0
2021-09-24 07:25:45.892,1020.0,1.0,1.0,1020.0009803916856,1,1,1,1.0,3.0
2021-09-24 07:25:45.893,1020.0,120.0,-27.0,1027.3894101069957,1,1,1,1.0,3.0
2021-09-24 07:25:45.903,1023.0,102.0,-24.0,1028.352566000591,1,1,1,1.0,3.0
2021-09-24 07:25:45.912,1052.0,24.0,-24.0,1052.5473861066778,1,1,1,1.0,3.0
2021-09-24 07:25:45.913,1052.0,24.0,-15.0,1052.380634561469,1,1,1,1.0,3.0
2021-09-24 07:25:45.922,1040.0,69.0,18.0,1042.441844900712,1,1,1,1.0,3.0
2021-09-24 07:25:45.931,918.0,69.0,18.0,920.7654424444914,1,1,1,1.0,3.0
2021-09-24 07:25:45.932,918.0,-20.0,21.0,918.4579467781854,1,1,1,1.0,3.0
2021-09-24 07:25:45.942,1098.0,32.0,56.0,1099.8927220415635,1,1,1,1.0,3.0
2021-09-24 07:25:45.951,1008.0,85.0,-6.0,1011.595274801143,1,1,1,1.0,3.0
2021-09-24 07:25:45.961,1031.0,51.0,-6.0,1032.2780633143375,1,1,1,1.0,3.0
2021-09-24 07:25:45.962,1031.0,51.0,-8.0,1032.291625462495,1,1,1,1.0,3.0
2021-09-24 07:25:45.971,1035.0,64.0,25.0,1037.278169055919,1,1,1,1.0,3.0
2021-09-24 07:25:45.980,950.0,64.0,25.0,952.4814958832534,1,1,1,1.0,3.0
2021-09-24 07:25:45.981,950.0,-33.0,2.0,950.5750890908092,1,1,1,1.0,3.0
2021-09-24 07:25:45.991,1039.0,1.0,23.0,1039.2550216380962,1,1,1,1.0,3.0
2021-09-24 07:25:46.007,1058.0,55.0,-45.0,1060.383892748282,1,1,1,1.0,3.0
2021-09-24 07:25:46.010,1002.0,-48.0,-23.0,1003.4126768184664,1,1,1,1.0,3.0
2021-09-24 07:25:46.019,1096.0,-48.0,-23.0,1097.2916658755776,1,1,1,1.0,3.0
2021-09-24 07:25:46.020,1096.0,94.0,39.0,1100.7147677759212,1,1,1,1.0,3.0
2021-09-24 07:25:46.030,943.0,-45.0,2.0,944.075208868446,1,1,1,1.0,3.0
2021-09-24 07:25:46.041,1082.0,13.0,36.0,1082.6767754043678,1,1,1,1.0,3.0
2021-09-24 07:25:46.049,1058.0,51.0,27.0,1059.5725553259672,1,1,1,1.0,3.0
2021-09-24 07:25:46.058,1008.0,51.0,27.0,1009.650434556436,1,1,1,1.0,3.0
2021-09-24 07:25:46.059,1008.0,-75.0,27.0,1011.1468736044236,1,1,1,1.0,3.0
2021-09-24 07:25:46.068,899.0,20.0,-11.0,899.2897197232936,1,1,1,1.0,3.0
2021-09-24 07:25:46.079,993.0,5.0,-1.0,993.013091555192,1,1,1,1.0,3.0
2021-09-24 07:25:46.089,1003.0,2.0,7.0,1003.026420389812,1,1,1,1.0,3.0
2021-09-24 07:25:46.098,1044.0,40.0,-23.0,1045.0191385807248,1,1,1,1.0,3.0
2021-09-24 07:25:46.107,978.0,51.0,-23.0,979.598897508567,1,1,1,1.0,3.0
2021-09-24 07:25:46.108,978.0,51.0,-15.0,979.4437196694868,1,1,1,1.0,3.0
2021-09-24 07:25:46.117,972.0,119.0,-2.0,979.2594140471666,1,1,1,1.0,3.0
2021-09-24 07:25:46.127,942.0,28.0,6.0,942.4351436571112,1,1,1,1.0,3.0
2021-09-24 07:25:46.138,1016.0,28.0,6.0,1016.403463197563,1,1,1,1.0,3.0
2021-09-24 07:25:46.139,1016.0,100.0,27.0,1021.2663707378208,1,1,1,1.0,3.0
2021-09-24 07:25:46.146,1075.0,100.0,27.0,1079.978703493731,1,1,1,1.0,3.0
2021-09-24 07:25:46.147,1075.0,158.0,30.0,1086.9632008490444,1,1,1,1.0,3.0
2021-09-24 07:25:46.156,1015.0,-61.0,30.0,1017.2738077823492,1,1,1,1.0,3.0
2021-09-24 07:25:46.166,953.0,-14.0,36.0,953.7824699584282,1,1,1,1.0,3.0
2021-09-24 07:25:46.176,960.0,119.0,-4.0,967.3556739896655,1,1,1,1.0,3.0
2021-09-24 07:25:46.186,958.0,-40.0,-4.0,958.8430528506738,1,1,1,1.0,3.0
2021-09-24 07:25:46.187,958.0,-40.0,-24.0,959.135026990465,1,1,1,1.0,3.0
2021-09-24 07:25:46.196,1053.0,120.0,-35.0,1060.3933232532163,1,1,1,1.0,3.0
2021-09-24 07:25:46.205,960.0,-33.0,11.0,960.6300016135244,1,1,1,1.0,3.0
2021-09-24 07:25:46.215,1057.0,-76.0,-8.0,1059.758934852639,1,1,1,1.0,3.0
2021-09-24 07:25:46.224,928.0,-76.0,-8.0,931.1412352591846,1,1,1,1.0,3.0
2021-09-24 07:25:46.225,928.0,156.0,-35.0,941.6713864188504,1,1,1,1.0,3.0
2021-09-24 07:25:46.234,1037.0,72.0,-35.0,1040.0855734024965,1,1,1,1.0,3.0
2021-09-24 07:25:46.235,1037.0,72.0,-21.0,1039.7086130257842,1,1,1,1.0,3.0
2021-09-24 07:25:46.245,1070.0,62.0,17.0,1071.929568581817,1,1,1,1.0,3.0
2021-09-24 07:25:46.254,1040.0,-91.0,24.0,1044.249491261547,1,1,1,1.0,3.0
2021-09-24 07:25:46.264,1026.0,-8.0,24.0,1026.3118434472049,1,1,1,1.0,3.0
2021-09-24 07:25:46.273,972.0,-8.0,24.0,972.3291623724962,1,1,1,1.0,3.0
2021-09-24 07:25:46.274,972.0,82.0,7.0,975.477831629197,1,1,1,1.0,3.0
2021-09-24 07:25:46.284,1133.0,-58.0,20.0,1134.659860927494,1,1,1,1.0,3.0
2021-09-24 07:25:46.295,963.0,-34.0,20.0,963.807553404724,1,1,1,1.0,3.0
2021-09-24 07:25:46.296,963.0,-34.0,-19.0,963.7873209375604,1,1,1,1.0,3.0
2021-09-24 07:25:46.303,969.0,-57.0,-18.0,970.8419026803488,1,1,1,1.0,3.0
2021-09-24 07:25:46.312,997.0,-61.0,-18.0,999.0265261743554,1,1,1,1.0,3.0
2021-09-24 07:25:46.313,997.0,-61.0,14.0,998.9624617571974,1,1,1,1.0,3.0
2021-09-24 07:25:46.322,956.0,132.0,14.0,965.1714873534132,1,1,1,1.0,3.0
2021-09-24 07:25:46.323,956.0,132.0,-35.0,965.7044061202164,1,1,1,1.0,3.0
2021-09-24 07:25:46.332,1064.0,110.0,0.0,1069.670977450543,1,1,1,1.0,3.0
2021-09-24 07:25:46.343,976.0,-29.0,4.0,976.4389381830284,1,1,1,1.0,3.0
2021-09-24 07:25:46.352,1036.0,-76.0,61.0,1040.573399621574,1,1,1,1.0,3.0
2021-09-24 07:25:46.361,1044.0,-1.0,60.0,1045.7231947317607,1,1,1,1.0,3.0
2021-09-24 07:25:46.371,983.0,191.0,7.0,1001.408508052533,1,1,1,1.0,3.0
2021-09-24 07:25:46.381,1106.0,-3.0,7.0,1106.0262203040215,1,1,1,1.0,3.0
2021-09-24 07:25:46.391,968.0,-80.0,7.0,971.3253831749688,1,1,1,1.0,3.0
2021-09-24 07:25:46.392,968.0,-80.0,10.0,971.351635608856,1,1,1,1.0,3.0
2021-09-24 07:25:46.401,1007.0,-8.0,12.0,1007.1032717651154,1,1,1,1.0,3.0
2021-09-24 07:25:46.410,1048.0,-67.0,11.0,1050.1971243533285,1,1,1,1.0,3.0
2021-09-24 07:25:46.420,908.0,271.0,3.0,947.5832417260236,1,1,1,1.0,3.0
2021-09-24 07:25:46.430,1061.0,66.0,9.0,1063.088895624444,1,1,1,1.0,3.0
2021-09-24 07:25:46.439,978.0,66.0,9.0,980.2657802861426,1,1,1,1.0,3.0
2021-09-24 07:25:46.440,978.0,-53.0,8.0,979.4677125867906,1,1,1,1.0,3.0
2021-09-24 07:25:46.450,969.0,-13.0,1.0,969.0877153281843,1,1,1,1.0,3.0
2021-09-24 07:25:46.459,978.0,-39.0,-38.0,979.5146757450856,1,1,1,1.0,3.0
2021-09-24 07:25:46.469,953.0,166.0,3.0,967.3541233695136,1,1,1,1.0,3.0
2021-09-24 07:25:46.478,1073.0,166.0,3.0,1085.7688520122504,1,1,1,1.0,3.0
2021-09-24 07:25:46.479,1073.0,49.0,21.0,1074.3235080738018,1,1,1,1.0,3.0
2021-09-24 07:25:46.489,947.0,-26.0,-14.0,947.4602894053132,1,1,1,1.0,3.0
2021-09-24 07:25:46.498,1011.0,-81.0,8.0,1014.2711668976892,1,1,1,1.0,3.0
2021-09-24 07:25:46.508,977.0,0.0,-18.0,977.1657996471224,1,1,1,1.0,3.0
2021-09-24 07:25:46.517,1145.0,0.0,-18.0,1145.1414759757852,1,1,1,1.0,3.0
2021-09-24 07:25:46.518,1145.0,45.0,15.0,1145.9821115532302,1,1,1,1.0,3.0
2021-09-24 07:25:46.527,1063.0,46.0,15.0,1064.1005591578269,1,1,1,1.0,3.0
2021-09-24 07:25:46.528,1063.0,46.0,-4.0,1064.0023496214658,1,1,1,1.0,3.0
2021-09-24 07:25:46.537,955.0,-25.0,-19.0,955.5160909163174,1,1,1,1.0,3.0
2021-09-24 07:25:46.547,980.0,17.0,29.0,980.576361126455,1,1,1,1.0,3.0
2021-09-24 07:25:46.566,994.0,-33.0,-43.0,995.4767701960704,1,1,1,1.0,3.0
2021-09-24 07:25:46.569,1041.0,133.0,50.0,1050.6521784111048,1,1,1,1.0,3.0
2021-09-24 07:25:46.577,1022.0,40.0,4.0,1022.7903010881556,1,1,1,1.0,3.0
2021-09-24 07:25:46.586,981.0,-106.0,4.0,986.7182981986298,1,1,1,1.0,3.0
2021-09-24 07:25:46.609,1025.0,-81.0,24.0,1028.4755709301023,1,1,1,1.0,3.0
2021-09-24 07:25:46.612,1005.0,25.0,-23.0,1005.5739654545556,1,1,1,1.0,3.0
2021-09-24 07:25:46.615,1083.0,48.0,0.0,1084.063190040138,1,1,1,1.0,3.0
2021-09-24 07:25:46.625,948.0,-26.0,-35.0,949.0021074792196,1,1,1,1.0,3.0
2021-09-24 07:25:46.635,962.0,-55.0,-8.0,963.6041718465108,1,1,1,1.0,3.0
2021-09-24 07:25:46.645,934.0,-55.0,-8.0,935.6521789639568,1,1,1,1.0,3.0
2021-09-24 07:25:46.646,934.0,70.0,40.0,937.4731996169276,1,1,1,1.0,3.0
2021-09-24 07:25:46.655,1031.0,70.0,40.0,1034.147474976369,1,1,1,1.0,3.0
2021-09-24 07:25:46.656,1031.0,59.0,0.0,1032.6867869785108,1,1,1,1.0,3.0
2021-09-24 07:25:46.664,1096.0,36.0,32.0,1097.0578836141692,1,1,1,1.0,3.0
2021-09-24 07:25:46.681,1017.0,-64.0,32.0,1019.5140999515406,1,1,1,1.0,3.0
2021-09-24 07:25:46.682,1017.0,-64.0,-4.0,1019.0196268963616,1,1,1,1.0,3.0
2021-09-24 07:25:46.684,1101.0,12.0,60.0,1102.698961639123,1,1,1,1.0,3.0
2021-09-24 07:25:46.693,993.0,-58.0,60.0,996.5003763170388,1,1,1,1.0,3.0
2021-09-24 07:25:46.694,993.0,-58.0,32.0,995.2070136408806,1,1,1,1.0,3.0
2021-09-24 07:25:46.705,993.0,20.0,-20.0,993.402738067497,1,1,1,1.0,3.0
2021-09-24 07:25:46.713,1078.0,65.0,43.0,1080.8135824461126,1,1,1,1.0,3.0
2021-09-24 07:25:46.722,967.0,65.0,43.0,970.1355575382236,1,1,1,1.0,3.0
2021-09-24 07:25:46.723,967.0,-24.0,-37.0,968.0051652754752,1,1,1,1.0,3.0
2021-09-24 07:25:46.732,1050.0,59.0,-37.0,1052.3069894284652,1,1,1,1.0,3.0
2021-09-24 07:25:46.733,1050.0,59.0,21.0,1051.8659610425657,1,1,1,1.0,3.0
2021-09-24 07:25:46.742,964.0,59.0,21.0,966.0320905642836,1,1,1,1.0,3.0
2021-09-24 07:25:46.743,964.0,173.0,-19.0,979.5846058406594,1,1,1,1.0,3.0
2021-09-24 07:25:46.753,1008.0,173.0,-19.0,1022.9144636771932,1,1,1,1.0,3.0
2021-09-24 07:25:46.754,1008.0,28.0,-38.0,1009.1045535523066,1,1,1,1.0,3.0
2021-09-24 07:25:46.762,1080.0,82.0,50.0,1084.261960966998,1,1,1,1.0,3.0
2021-09-24 07:25:46.771,1012.0,82.0,50.0,1016.5470967938476,1,1,1,1.0,3.0
2021-09-24 07:25:46.772,1012.0,-19.0,0.0,1012.1783439690852,1,1,1,1.0,3.0
2021-09-24 07:25:46.787,1074.0,49.0,60.0,1076.7901373991126,1,1,1,1.0,3.0
2021-09-24 07:25:46.793,1028.0,123.0,11.0,1035.3907474958428,1,1,1,1.0,3.0
2021-09-24 07:25:46.802,1046.0,123.0,11.0,1053.26444922441,1,1,1,1.0,3.0
2021-09-24 07:25:46.803,1046.0,13.0,1.0,1046.081258793981,1,1,1,1.0,3.0
2021-09-24 07:25:46.810,1098.0,13.0,1.0,1098.0774107502623,1,1,1,1.0,3.0
2021-09-24 07:25:46.811,1098.0,2.0,33.0,1098.4976103751887,1,1,1,1.0,3.0
2021-09-24 07:25:46.820,935.0,35.0,33.0,936.2366153916432,1,1,1,1.0,3.0
2021-09-24 07:25:46.821,935.0,35.0,-35.0,936.3092437864748,1,1,1,1.0,3.0
2021-09-24 07:25:46.830,952.0,-26.0,-20.0,952.5649584149104,1,1,1,1.0,3.0
2021-09-24 07:25:46.840,967.0,132.0,-39.0,976.7466406392192,1,1,1,1.0,3.0
2021-09-24 07:25:46.851,991.0,166.0,-32.0,1005.3163681150328,1,1,1,1.0,3.0
2021-09-24 07:25:46.859,1095.0,8.0,-32.0,1095.4966910036744,1,1,1,1.0,3.0
2021-09-24 07:25:46.860,1095.0,8.0,44.0,1095.9128614994895,1,1,1,1.0,3.0
2021-09-24 07:25:46.869,953.0,-76.0,-6.0,956.044455033342,1,1,1,1.0,3.0
2021-09-24 07:25:46.879,1077.0,1.0,66.0,1079.0208524398404,1,1,1,1.0,3.0
2021-09-24 07:25:46.891,1015.0,106.0,0.0,1020.5199655077796,1,1,1,1.0,3.0
2021-09-24 07:25:46.898,1042.0,130.0,0.0,1050.0780923340892,1,1,1,1.0,3.0
2021-09-24 07:25:46.899,1042.0,130.0,39.0,1050.8020746077732,1,1,1,1.0,3.0
2021-09-24 07:25:46.908,957.0,68.0,13.0,959.5009119328652,1,1,1,1.0,3.0
2021-09-24 07:25:46.918,974.0,32.0,-24.0,974.8210092114348,1,1,1,1.0,3.0
2021-09-24 07:25:46.928,1076.0,-12.0,8.0,1076.096649934382,1,1,1,1.0,3.0
2021-09-24 07:25:46.938,983.0,111.0,-47.0,990.3630647393916,1,1,1,1.0,3.0
2021-09-24 07:25:46.948,998.0,111.0,-47.0,1005.2532019347166,1,1,1,1.0,3.0
2021-09-24 07:25:46.949,998.0,68.0,-43.0,1001.2377340072636,1,1,1,1.0,3.0
2021-09-24 07:25:46.957,977.0,-85.0,-16.0,980.8210846020796,1,1,1,1.0,3.0
2021-09-24 07:25:46.967,938.0,148.0,-6.0,949.6230831229832,1,1,1,1.0,3.0
2021-09-24 07:25:46.976,1053.0,148.0,-6.0,1063.366822879104,1,1,1,1.0,3.0
2021-09-24 07:25:46.977,1053.0,32.0,40.0,1054.2452276391864,1,1,1,1.0,3.0
2021-09-24 07:25:46.986,1022.0,85.0,-14.0,1025.6242001825035,1,1,1,1.0,3.0
2021-09-24 07:25:46.997,995.0,85.0,-14.0,998.7221835926146,1,1,1,1.0,3.0
2021-09-24 07:25:46.998,995.0,49.0,1.0,996.2063039350836,1,1,1,1.0,3.0
