time_stamp,Acceleration_X,Acceleration_Y,Acceleration_Z,magnitude,STD_Status_right,STD_Status_left,STD_Status_both,KMeans,KMeans_convert
2021-09-27 11:11:24.368,1040.0,34.0,0.0,1040.5556208103435,1,1,1,0.0,3.0
2021-09-27 11:11:24.382,982.0,178.0,14.0,998.100195371186,1,1,1,0.0,3.0
2021-09-27 11:11:24.387,1078.0,-110.0,14.0,1083.6881470238566,1,1,1,0.0,3.0
2021-09-27 11:11:24.388,1078.0,-110.0,-20.0,1083.7822659556668,1,1,1,0.0,3.0
2021-09-27 11:11:24.398,1003.0,-70.0,4.0,1005.4476614921336,1,1,1,0.0,3.0
2021-09-27 11:11:24.408,1091.0,-23.0,19.0,1091.4078064591622,1,1,1,0.0,3.0
2021-09-27 11:11:24.416,1032.0,18.0,-2.0,1032.1589024951536,1,1,1,0.0,3.0
2021-09-27 11:11:24.426,924.0,18.0,-2.0,924.1774721340053,1,1,1,0.0,3.0
2021-09-27 11:11:24.427,924.0,-14.0,-29.0,924.5609768966024,1,1,1,0.0,3.0
2021-09-27 11:11:24.443,1001.0,-14.0,-29.0,1001.5178480686204,1,1,1,0.0,3.0
2021-09-27 11:11:24.444,1001.0,133.0,1.0,1009.7975044532444,1,1,1,0.0,3.0
2021-09-27 11:11:24.453,1020.0,122.0,1.0,1027.270655669673,1,1,1,0.0,3.0
2021-09-27 11:11:24.454,1020.0,122.0,0.0,1027.2701689429125,1,1,1,0.0,3.0
2021-09-27 11:11:24.458,1074.0,-15.0,0.0,1074.104743495717,1,1,1,0.0,3.0
2021-09-27 11:11:24.465,965.0,-35.0,-12.0,965.7090659199592,1,1,1,0.0,3.0
2021-09-27 11:11:24.475,1002.0,-51.0,-12.0,1003.3688255073504,1,1,1,0.0,3.0
2021-09-27 11:11:24.476,1002.0,-51.0,-25.0,1003.6084894021174,1,1,1,0.0,3.0
2021-09-27 11:11:24.485,1099.0,1.0,40.0,1099.728148225733,1,1,1,0.0,3.0
2021-09-27 11:11:24.494,1045.0,52.0,41.0,1047.09598413899,1,1,1,0.0,3.0
2021-09-27 11:11:24.505,960.0,20.0,-9.0,960.2504881540024,1,1,1,0.0,3.0
2021-09-27 11:11:24.513,1001.0,20.0,-9.0,1001.2402309136404,1,1,1,0.0,3.0
2021-09-27 11:11:24.514,1001.0,130.0,22.0,1009.6459775584708,1,1,1,0.0,3.0
2021-09-27 11:11:24.523,1072.0,130.0,22.0,1080.0777749773392,1,1,1,0.0,3.0
2021-09-27 11:11:24.524,1072.0,18.0,21.0,1072.3567503401096,1,1,1,0.0,3.0
2021-09-27 11:11:24.534,974.0,-4.0,26.0,974.3551713825918,1,1,1,0.0,3.0
2021-09-27 11:11:24.544,922.0,14.0,-21.0,922.3453799960188,1,1,1,0.0,3.0
2021-09-27 11:11:24.554,963.0,49.0,1.0,964.2463378203726,1,1,1,0.0,3.0
2021-09-27 11:11:24.563,1087.0,47.0,17.0,1088.148427375604,1,1,1,0.0,3.0
2021-09-27 11:11:24.573,990.0,10.0,11.0,990.1116098703216,1,1,1,0.0,3.0
2021-09-27 11:11:24.583,957.0,29.0,-8.0,957.4727150159424,1,1,1,0.0,3.0
2021-09-27 11:11:24.593,1015.0,52.0,9.0,1016.3709952571452,1,1,1,0.0,3.0
2021-09-27 11:11:24.601,1053.0,52.0,9.0,1054.3215828199668,1,1,1,0.0,3.0
2021-09-27 11:11:24.602,1053.0,13.0,13.0,1053.1604815981275,1,1,1,0.0,3.0
2021-09-27 11:11:24.612,1006.0,61.0,23.0,1008.1101130332936,1,1,1,0.0,3.0
2021-09-27 11:11:24.621,958.0,-22.0,-6.0,958.2713603150206,1,1,1,0.0,3.0
2021-09-27 11:11:24.631,1041.0,-20.0,20.0,1041.384175028601,1,1,1,0.0,3.0
2021-09-27 11:11:24.642,1090.0,-14.0,18.0,1090.2385060160002,1,1,1,0.0,3.0
2021-09-27 11:11:24.651,1057.0,-14.0,18.0,1057.2459505715783,1,1,1,0.0,3.0
2021-09-27 11:11:24.652,1057.0,-14.0,12.0,1057.1608203107037,1,1,1,0.0,3.0
2021-09-27 11:11:24.666,956.0,20.0,11.0,956.2724507168446,1,1,1,0.0,3.0
2021-09-27 11:11:24.670,982.0,84.0,-9.0,985.627211475008,1,1,1,0.0,3.0
2021-09-27 11:11:24.680,1091.0,84.0,-9.0,1094.2659640142335,1,1,1,0.0,3.0
2021-09-27 11:11:24.681,1091.0,81.0,15.0,1094.1055707745938,1,1,1,0.0,3.0
2021-09-27 11:11:24.690,980.0,-24.0,15.0,980.4085882936766,1,1,1,0.0,3.0
2021-09-27 11:11:24.691,980.0,-24.0,-18.0,980.4590761474954,1,1,1,0.0,3.0
2021-09-27 11:11:24.707,956.0,47.0,-20.0,957.3635673034564,1,1,1,0.0,3.0
2021-09-27 11:11:24.712,971.0,33.0,5.0,971.5734660847836,1,1,1,0.0,3.0
2021-09-27 11:11:24.719,1060.0,-7.0,34.0,1060.5682439145537,1,1,1,0.0,3.0
2021-09-27 11:11:24.730,1045.0,-7.0,34.0,1045.5763960610434,1,1,1,0.0,3.0
2021-09-27 11:11:24.731,1045.0,-28.0,15.0,1045.4826636534915,1,1,1,0.0,3.0
2021-09-27 11:11:24.739,929.0,-28.0,15.0,929.542898418357,1,1,1,0.0,3.0
2021-09-27 11:11:24.740,929.0,36.0,-19.0,929.891391507632,1,1,1,0.0,3.0
2021-09-27 11:11:24.748,1054.0,31.0,17.0,1054.5928124162424,1,1,1,0.0,3.0
2021-09-27 11:11:24.758,1064.0,37.0,17.0,1064.77885027831,1,1,1,0.0,3.0
2021-09-27 11:11:24.759,1064.0,37.0,28.0,1065.011267546029,1,1,1,0.0,3.0
2021-09-27 11:11:24.769,1018.0,26.0,0.0,1018.3319694480774,1,1,1,0.0,3.0
2021-09-27 11:11:24.779,925.0,53.0,-25.0,926.8543574909706,1,1,1,0.0,3.0
2021-09-27 11:11:24.788,1070.0,33.0,28.0,1070.8748759775813,1,1,1,0.0,3.0
2021-09-27 11:11:24.797,1048.0,40.0,12.0,1048.831731022665,1,1,1,0.0,3.0
2021-09-27 11:11:24.807,989.0,-23.0,1.0,989.2679111342892,1,1,1,0.0,3.0
2021-09-27 11:11:24.817,943.0,-23.0,1.0,943.2809761677588,1,1,1,0.0,3.0
2021-09-27 11:11:24.818,943.0,52.0,-19.0,944.623734616064,1,1,1,0.0,3.0
2021-09-27 11:11:24.828,1043.0,52.0,-19.0,1044.468285779899,1,1,1,0.0,3.0
2021-09-27 11:11:24.829,1043.0,13.0,0.0,1043.0810131528615,1,1,1,0.0,3.0
2021-09-27 11:11:24.837,1060.0,56.0,54.0,1062.8508832380955,1,1,1,0.0,3.0
2021-09-27 11:11:24.846,999.0,0.0,-14.0,999.098093282136,1,1,1,0.0,3.0
2021-09-27 11:11:24.855,979.0,0.0,-14.0,979.100097027878,1,1,1,0.0,3.0
2021-09-27 11:11:24.856,979.0,117.0,1.0,985.9670379885932,1,1,1,0.0,3.0
2021-09-27 11:11:24.866,1066.0,22.0,1.0,1066.2274616609725,1,1,1,0.0,3.0
2021-09-27 11:11:24.867,1066.0,22.0,7.0,1066.249970691676,1,1,1,0.0,3.0
2021-09-27 11:11:24.878,1066.0,2.0,30.0,1066.4239307142352,1,1,1,0.0,3.0
2021-09-27 11:11:24.885,996.0,-19.0,0.0,996.1812084154168,1,1,1,0.0,3.0
2021-09-27 11:11:24.895,971.0,31.0,-15.0,971.61051867505,1,1,1,0.0,3.0
2021-09-27 11:11:24.905,1089.0,18.0,29.0,1089.534763098452,1,1,1,0.0,3.0
2021-09-27 11:11:24.915,1044.0,57.0,26.0,1045.8780999715025,1,1,1,0.0,3.0
2021-09-27 11:11:24.926,955.0,58.0,-17.0,956.910654136529,1,1,1,0.0,3.0
2021-09-27 11:11:24.934,970.0,87.0,-12.0,973.9676586006334,1,1,1,0.0,3.0
2021-09-27 11:11:24.943,1090.0,6.0,-12.0,1090.0825656802333,1,1,1,0.0,3.0
2021-09-27 11:11:24.944,1090.0,6.0,15.0,1090.1197181961254,1,1,1,0.0,3.0
2021-09-27 11:11:24.953,1070.0,6.0,15.0,1070.121955666736,1,1,1,0.0,3.0
2021-09-27 11:11:24.954,1070.0,8.0,16.0,1070.1495222631274,1,1,1,0.0,3.0
2021-09-27 11:11:24.964,1013.0,-62.0,11.0,1014.9551714238418,1,1,1,0.0,3.0
2021-09-27 11:11:24.975,931.0,14.0,-20.0,931.3200309238496,1,1,1,0.0,3.0
2021-09-27 11:11:24.983,1065.0,11.0,23.0,1065.305120610992,1,1,1,0.0,3.0
2021-09-27 11:11:24.992,1008.0,68.0,26.0,1010.625548855757,1,1,1,0.0,3.0
2021-09-27 11:11:25.002,945.0,14.0,26.0,945.4612630880232,1,1,1,0.0,3.0
2021-09-27 11:11:25.003,945.0,14.0,-8.0,945.1375561260912,1,1,1,0.0,3.0
2021-09-27 11:11:25.012,1015.0,14.0,-8.0,1015.128070737875,1,1,1,0.0,3.0
2021-09-27 11:11:25.013,1015.0,35.0,0.0,1015.6032689982836,1,1,1,0.0,3.0
2021-09-27 11:11:25.023,1050.0,4.0,13.0,1050.0880915428,1,1,1,0.0,3.0
2021-09-27 11:11:25.033,1032.0,78.0,22.0,1035.1772795033708,1,1,1,0.0,3.0
2021-09-27 11:11:25.042,1001.0,19.0,11.0,1001.2407302941684,1,1,1,0.0,3.0
2021-09-27 11:11:25.051,1016.0,80.0,38.0,1019.8529305738156,1,1,1,0.0,3.0
2021-09-27 11:11:25.061,1119.0,-10.0,32.0,1119.5021214807946,1,1,1,0.0,3.0
2021-09-27 11:11:25.072,1022.0,130.0,34.0,1030.7958090718064,1,1,1,0.0,3.0
2021-09-27 11:11:25.082,1022.0,-4.0,34.0,1022.5732247619238,1,1,1,0.0,3.0
2021-09-27 11:11:25.087,1022.0,-4.0,17.0,1022.1492063294868,1,1,1,0.0,3.0
2021-09-27 11:11:25.091,951.0,109.0,-13.0,957.3144728875668,1,1,1,0.0,3.0
2021-09-27 11:11:25.099,1086.0,109.0,-13.0,1091.533783260967,1,1,1,0.0,3.0
2021-09-27 11:11:25.100,1086.0,91.0,33.0,1090.3054617858245,1,1,1,0.0,3.0
2021-09-27 11:11:25.109,1016.0,-35.0,33.0,1017.138142043646,1,1,1,0.0,3.0
2021-09-27 11:11:25.110,1016.0,-35.0,-6.0,1016.620381460061,1,1,1,0.0,3.0
2021-09-27 11:11:25.119,902.0,61.0,-6.0,904.080195557894,1,1,1,0.0,3.0
2021-09-27 11:11:25.120,902.0,61.0,-11.0,904.12720343987,1,1,1,0.0,3.0
2021-09-27 11:11:25.131,968.0,42.0,-7.0,968.9360143992998,1,1,1,0.0,3.0
2021-09-27 11:11:25.139,1065.0,26.0,35.0,1065.8921146157336,1,1,1,0.0,3.0
2021-09-27 11:11:25.148,997.0,26.0,35.0,997.9529047004172,1,1,1,0.0,3.0
2021-09-27 11:11:25.149,997.0,-2.0,-3.0,997.0065195373598,1,1,1,0.0,3.0
2021-09-27 11:11:25.159,943.0,44.0,-16.0,944.161532789808,1,1,1,0.0,3.0
2021-09-27 11:11:25.169,1022.0,13.0,0.0,1022.0826776733868,1,1,1,0.0,3.0
2021-09-27 11:11:25.179,1102.0,13.0,0.0,1102.0766760983556,1,1,1,0.0,3.0
2021-09-27 11:11:25.180,1102.0,22.0,17.0,1102.3506701590015,1,1,1,0.0,3.0
2021-09-27 11:11:25.190,1035.0,16.0,10.0,1035.1719663901258,1,1,1,0.0,3.0
2021-09-27 11:11:25.197,880.0,35.0,-5.0,880.7099408999537,1,1,1,0.0,3.0
2021-09-27 11:11:25.207,1074.0,-3.0,9.0,1074.041898624071,1,1,1,0.0,3.0
2021-09-27 11:11:25.217,1042.0,-3.0,9.0,1042.0431852855236,1,1,1,0.0,3.0
2021-09-27 11:11:25.218,1042.0,28.0,28.0,1042.7521277849305,1,1,1,0.0,3.0
2021-09-27 11:11:25.228,1030.0,18.0,16.0,1030.281514926867,1,1,1,0.0,3.0
2021-09-27 11:11:25.238,949.0,24.0,-25.0,949.6325605201204,1,1,1,0.0,3.0
2021-09-27 11:11:25.247,1009.0,25.0,-4.0,1009.31759124668,1,1,1,0.0,3.0
2021-09-27 11:11:25.256,993.0,200.0,33.0,1013.4781694738176,1,1,1,0.0,3.0
2021-09-27 11:11:25.266,1012.0,-40.0,33.0,1013.3276863877744,1,1,1,0.0,3.0
2021-09-27 11:11:25.267,1012.0,-40.0,-40.0,1013.579794589454,1,1,1,0.0,3.0
2021-09-27 11:11:25.277,978.0,123.0,-18.0,985.868652509045,1,1,1,0.0,3.0
2021-09-27 11:11:25.286,1046.0,-8.0,10.0,1046.0783909440056,1,1,1,0.0,3.0
2021-09-27 11:11:25.296,1066.0,-1.0,6.0,1066.017354455358,1,1,1,0.0,3.0
2021-09-27 11:11:25.307,1047.0,-116.0,-11.0,1053.463810484252,1,1,1,0.0,3.0
2021-09-27 11:11:25.315,928.0,16.0,-29.0,928.5908679283896,1,1,1,0.0,3.0
2021-09-27 11:11:25.325,1027.0,8.0,-29.0,1027.44050922669,1,1,1,0.0,3.0
2021-09-27 11:11:25.326,1027.0,8.0,32.0,1027.5295616185454,1,1,1,0.0,3.0
2021-09-27 11:11:25.335,1047.0,8.0,32.0,1047.519450893395,1,1,1,0.0,3.0
2021-09-27 11:11:25.336,1047.0,48.0,24.0,1048.374456003197,1,1,1,0.0,3.0
2021-09-27 11:11:25.356,1006.0,-41.0,3.0,1006.8396098684238,1,1,1,0.0,3.0
2021-09-27 11:11:25.357,927.0,-41.0,3.0,927.9110948792454,1,1,1,0.0,3.0
2021-09-27 11:11:25.358,927.0,63.0,-25.0,929.4745827616804,1,1,1,0.0,3.0
2021-09-27 11:11:25.365,1058.0,64.0,7.0,1059.957074602552,1,1,1,0.0,3.0
2021-09-27 11:11:25.374,1031.0,56.0,19.0,1032.6945337320228,1,1,1,0.0,3.0
2021-09-27 11:11:25.384,940.0,-50.0,-19.0,941.520578638619,1,1,1,0.0,3.0
2021-09-27 11:11:25.398,911.0,0.0,-27.0,911.4000219442612,1,1,1,0.0,3.0
2021-09-27 11:11:25.405,1066.0,2.0,11.0,1066.0586287817382,1,1,1,0.0,3.0
2021-09-27 11:11:25.414,1034.0,61.0,18.0,1035.954149564545,1,1,1,0.0,3.0
2021-09-27 11:11:25.422,949.0,54.0,-9.0,950.5777190740376,1,1,1,0.0,3.0
2021-09-27 11:11:25.432,999.0,113.0,-9.0,1005.41086129005,1,1,1,0.0,3.0
2021-09-27 11:11:25.433,999.0,113.0,2.0,1005.3725677578436,1,1,1,0.0,3.0
2021-09-27 11:11:25.442,1041.0,27.0,2.0,1041.3520058078343,1,1,1,0.0,3.0
2021-09-27 11:11:25.443,1041.0,27.0,33.0,1041.8728329311596,1,1,1,0.0,3.0
2021-09-27 11:11:25.458,1057.0,21.0,27.0,1057.5533083490402,1,1,1,0.0,3.0
2021-09-27 11:11:25.462,1004.0,-25.0,2.0,1004.3131981608128,1,1,1,0.0,3.0
2021-09-27 11:11:25.471,1004.0,69.0,5.0,1006.3806436930312,1,1,1,0.0,3.0
2021-09-27 11:11:25.481,1076.0,58.0,20.0,1077.7476513544343,1,1,1,0.0,3.0
2021-09-27 11:11:25.493,1057.0,69.0,23.0,1059.499410098939,1,1,1,0.0,3.0
2021-09-27 11:11:25.500,982.0,22.0,-2.0,982.248441077918,1,1,1,0.0,3.0
2021-09-27 11:11:25.510,965.0,86.0,-2.0,968.826609874027,1,1,1,0.0,3.0
2021-09-27 11:11:25.519,1089.0,86.0,-2.0,1092.392328790348,1,1,1,0.0,3.0
2021-09-27 11:11:25.520,1089.0,82.0,31.0,1092.5227686414594,1,1,1,0.0,3.0
2021-09-27 11:11:25.530,1028.0,12.0,21.0,1028.2844937078455,1,1,1,0.0,3.0
2021-09-27 11:11:25.541,910.0,-2.0,-33.0,910.6003514165806,1,1,1,0.0,3.0
2021-09-27 11:11:25.550,949.0,37.0,-18.0,949.8915727597544,1,1,1,0.0,3.0
2021-09-27 11:11:25.559,1078.0,62.0,30.0,1080.1981299743118,1,1,1,0.0,3.0
2021-09-27 11:11:25.569,1016.0,74.0,17.0,1018.8331561153672,1,1,1,0.0,3.0
2021-09-27 11:11:25.579,964.0,34.0,-7.0,964.6247975249236,1,1,1,0.0,3.0
2021-09-27 11:11:25.589,1016.0,58.0,0.0,1017.6541652251024,1,1,1,0.0,3.0
2021-09-27 11:11:25.598,1088.0,105.0,12.0,1093.1207618557064,1,1,1,0.0,3.0
2021-09-27 11:11:25.607,1061.0,59.0,32.0,1063.120877417051,1,1,1,0.0,3.0
2021-09-27 11:11:25.618,926.0,-10.0,-1.0,926.0545340313388,1,1,1,0.0,3.0
2021-09-27 11:11:25.628,1036.0,18.0,7.0,1036.1800036673164,1,1,1,0.0,3.0
2021-09-27 11:11:25.639,1035.0,40.0,27.0,1036.1245098925128,1,1,1,0.0,3.0
2021-09-27 11:11:25.647,1026.0,40.0,27.0,1027.1343631677405,1,1,1,0.0,3.0
2021-09-27 11:11:25.648,1026.0,118.0,29.0,1033.1703634928754,1,1,1,0.0,3.0
2021-09-27 11:11:25.656,941.0,72.0,0.0,943.7504966886112,1,1,1,0.0,3.0
2021-09-27 11:11:25.666,1022.0,72.0,0.0,1024.5330643761577,1,1,1,0.0,3.0
2021-09-27 11:11:25.667,1022.0,121.0,9.0,1029.1773413751391,1,1,1,0.0,3.0
2021-09-27 11:11:25.676,1058.0,116.0,9.0,1064.378222249967,1,1,1,0.0,3.0
2021-09-27 11:11:25.677,1058.0,116.0,37.0,1064.9830984574355,1,1,1,0.0,3.0
2021-09-27 11:11:25.688,1019.0,40.0,2.0,1019.7867424123536,1,1,1,0.0,3.0
2021-09-27 11:11:25.701,929.0,91.0,-34.0,934.065308209228,1,1,1,0.0,3.0
2021-09-27 11:11:25.705,1013.0,17.0,7.0,1013.1668174590006,1,1,1,0.0,3.0
2021-09-27 11:11:25.715,1069.0,-45.0,38.0,1070.6213149381997,1,1,1,0.0,3.0
2021-09-27 11:11:25.732,1022.0,-45.0,38.0,1023.6957555836598,1,1,1,0.0,3.0
2021-09-27 11:11:25.733,1022.0,-15.0,14.0,1022.2059479380856,1,1,1,0.0,3.0
2021-09-27 11:11:25.737,921.0,-15.0,14.0,921.2285275652292,1,1,1,0.0,3.0
2021-09-27 11:11:25.738,921.0,0.0,-36.0,921.7033145215438,1,1,1,0.0,3.0
2021-09-27 11:11:25.746,1071.0,57.0,5.0,1072.5273889276675,1,1,1,0.0,3.0
2021-09-27 11:11:25.755,1086.0,160.0,5.0,1097.7344852012257,1,1,1,0.0,3.0
2021-09-27 11:11:25.756,1086.0,160.0,25.0,1098.0077413206157,1,1,1,0.0,3.0
2021-09-27 11:11:25.764,1046.0,30.0,13.0,1046.510869508769,1,1,1,0.0,3.0
2021-09-27 11:11:25.774,879.0,2.0,-36.0,879.7391658895266,1,1,1,0.0,3.0
2021-09-27 11:11:25.783,1058.0,-37.0,7.0,1058.669920230097,1,1,1,0.0,3.0
2021-09-27 11:11:25.794,1054.0,29.0,24.0,1054.6719869229485,1,1,1,0.0,3.0
2021-09-27 11:11:25.804,1028.0,-36.0,17.0,1028.7706255526546,1,1,1,0.0,3.0
2021-09-27 11:11:25.813,910.0,23.0,-19.0,910.4888796685,1,1,1,0.0,3.0
2021-09-27 11:11:25.822,1026.0,23.0,-19.0,1026.4336315612422,1,1,1,0.0,3.0
2021-09-27 11:11:25.823,1026.0,42.0,2.0,1026.8612369741104,1,1,1,0.0,3.0
2021-09-27 11:11:25.833,1048.0,117.0,47.0,1055.557672512497,1,1,1,0.0,3.0
2021-09-27 11:11:25.843,1005.0,1.0,0.0,1005.0004975123148,1,1,1,0.0,3.0
2021-09-27 11:11:25.853,965.0,69.0,-20.0,967.6703984312014,1,1,1,0.0,3.0
2021-09-27 11:11:25.863,1043.0,-78.0,-2.0,1045.914432446555,1,1,1,0.0,3.0
2021-09-27 11:11:25.871,1067.0,0.0,-1.0,1067.0004686034586,1,1,1,0.0,3.0
2021-09-27 11:11:25.881,1031.0,-39.0,11.0,1031.7960069703702,1,1,1,0.0,3.0
2021-09-27 11:11:25.891,952.0,30.0,-26.0,952.8273715631808,1,1,1,0.0,3.0
2021-09-27 11:11:25.902,1088.0,42.0,-26.0,1089.1207462903276,1,1,1,0.0,3.0
2021-09-27 11:11:25.904,1088.0,42.0,28.0,1089.1703264411865,1,1,1,0.0,3.0
2021-09-27 11:11:25.912,1059.0,42.0,28.0,1060.202339178706,1,1,1,0.0,3.0
2021-09-27 11:11:25.913,1059.0,93.0,43.0,1063.945017376368,1,1,1,0.0,3.0
2021-09-27 11:11:25.921,996.0,-19.0,-28.0,996.5746334319372,1,1,1,0.0,3.0
2021-09-27 11:11:25.930,923.0,131.0,-14.0,932.3550825731578,1,1,1,0.0,3.0
2021-09-27 11:11:25.940,1048.0,-4.0,-1.0,1048.008110655638,1,1,1,0.0,3.0
2021-09-27 11:11:25.950,1059.0,61.0,32.0,1061.2379563509778,1,1,1,0.0,3.0
2021-09-27 11:11:25.960,1037.0,-84.0,-17.0,1040.5354390889336,1,1,1,0.0,3.0
2021-09-27 11:11:25.969,936.0,-84.0,-17.0,939.91542172687,1,1,1,0.0,3.0
2021-09-27 11:11:25.970,936.0,53.0,-37.0,938.2291830890788,1,1,1,0.0,3.0
2021-09-27 11:11:25.978,1016.0,53.0,-37.0,1018.0540260713084,1,1,1,0.0,3.0
2021-09-27 11:11:25.979,1016.0,36.0,25.0,1016.9449345957725,1,1,1,0.0,3.0
2021-09-27 11:11:25.990,1028.0,97.0,20.0,1032.7598946512203,1,1,1,0.0,3.0
2021-09-27 11:11:25.999,960.0,61.0,-13.0,962.0239082268174,1,1,1,0.0,3.0
2021-09-27 11:11:26.009,990.0,48.0,-13.0,991.248203024853,1,1,1,0.0,3.0
2021-09-27 11:11:26.010,990.0,48.0,16.0,991.292086117911,1,1,1,0.0,3.0
2021-09-27 11:11:26.018,1064.0,48.0,16.0,1065.2023281987324,1,1,1,0.0,3.0
2021-09-27 11:11:26.019,1064.0,-43.0,-7.0,1064.8915437733554,1,1,1,0.0,3.0
2021-09-27 11:11:26.027,1044.0,48.0,-7.0,1045.1263081561003,1,1,1,0.0,3.0
2021-09-27 11:11:26.028,1044.0,48.0,23.0,1045.3559202491751,1,1,1,0.0,3.0
2021-09-27 11:11:26.038,945.0,-67.0,23.0,947.6513071800196,1,1,1,0.0,3.0
2021-09-27 11:11:26.047,986.0,-67.0,23.0,988.5413496662646,1,1,1,0.0,3.0
2021-09-27 11:11:26.048,986.0,78.0,7.0,989.1051511340944,1,1,1,0.0,3.0
2021-09-27 11:11:26.057,1089.0,-30.0,7.0,1089.4356337113268,1,1,1,0.0,3.0
2021-09-27 11:11:26.058,1089.0,-30.0,20.0,1089.5967143856485,1,1,1,0.0,3.0
2021-09-27 11:11:26.068,1052.0,49.0,14.0,1053.233592324134,1,1,1,0.0,3.0
2021-09-27 11:11:26.076,980.0,49.0,14.0,981.3241054819758,1,1,1,0.0,3.0
2021-09-27 11:11:26.077,980.0,-4.0,-14.0,980.1081572969384,1,1,1,0.0,3.0
2021-09-27 11:11:26.086,1006.0,-4.0,-14.0,1006.105362275741,1,1,1,0.0,3.0
2021-09-27 11:11:26.087,1006.0,71.0,2.0,1008.5043381165992,1,1,1,0.0,3.0
2021-09-27 11:11:26.096,1027.0,59.0,29.0,1029.102035757388,1,1,1,0.0,3.0
2021-09-27 11:11:26.106,1032.0,-11.0,14.0,1032.1535738445127,1,1,1,0.0,3.0
2021-09-27 11:11:26.122,1011.0,-18.0,1.0,1011.1607191737622,1,1,1,0.0,3.0
2021-09-27 11:11:26.128,991.0,53.0,-16.0,992.5452130759586,1,1,1,0.0,3.0
2021-09-27 11:11:26.136,1093.0,61.0,34.0,1095.2287432312942,1,1,1,0.0,3.0
2021-09-27 11:11:26.145,982.0,28.0,20.0,982.60266639166,1,1,1,0.0,3.0
2021-09-27 11:11:26.154,966.0,-16.0,-14.0,966.2339261276226,1,1,1,0.0,3.0
2021-09-27 11:11:26.165,1008.0,-7.0,-6.0,1008.0421618166572,1,1,1,0.0,3.0
2021-09-27 11:11:26.175,1076.0,27.0,0.0,1076.338701338942,1,1,1,0.0,3.0
2021-09-27 11:11:26.184,1017.0,8.0,0.0,1017.0314646066756,1,1,1,0.0,3.0
2021-09-27 11:11:26.185,1017.0,8.0,23.0,1017.291501979644,1,1,1,0.0,3.0
2021-09-27 11:11:26.193,939.0,37.0,23.0,940.01010632865,1,1,1,0.0,3.0
2021-09-27 11:11:26.194,939.0,37.0,-20.0,939.9414875405809,1,1,1,0.0,3.0
2021-09-27 11:11:26.204,1038.0,1.0,21.0,1038.2128876102431,1,1,1,0.0,3.0
2021-09-27 11:11:26.214,1069.0,-58.0,1.0,1070.5727439086052,1,1,1,0.0,3.0
2021-09-27 11:11:26.223,1032.0,49.0,7.0,1033.186333630096,1,1,1,0.0,3.0
2021-09-27 11:11:26.234,983.0,19.0,-1.0,983.1841129717262,1,1,1,0.0,3.0
2021-09-27 11:11:26.243,996.0,22.0,-13.0,996.327757316838,1,1,1,0.0,3.0
2021-09-27 11:11:26.252,1070.0,6.0,30.0,1070.43729381968,1,1,1,0.0,3.0
2021-09-27 11:11:26.262,950.0,6.0,30.0,950.4925039157332,1,1,1,0.0,3.0
2021-09-27 11:11:26.263,950.0,26.0,0.0,950.3557228743352,1,1,1,0.0,3.0
2021-09-27 11:11:26.272,1002.0,74.0,-15.0,1004.8407834079984,1,1,1,0.0,3.0
2021-09-27 11:11:26.282,961.0,51.0,8.0,962.3855776142948,1,1,1,0.0,3.0
2021-09-27 11:11:26.293,1108.0,10.0,39.0,1108.7312568877996,1,1,1,0.0,3.0
2021-09-27 11:11:26.302,971.0,-46.0,-1.0,972.0895020521516,1,1,1,0.0,3.0
2021-09-27 11:11:26.311,935.0,38.0,-20.0,935.9855768119506,1,1,1,0.0,3.0
2021-09-27 11:11:26.320,1068.0,38.0,-20.0,1068.862947248149,1,1,1,0.0,3.0
2021-09-27 11:11:26.321,1068.0,38.0,11.0,1068.7324267561082,1,1,1,0.0,3.0
2021-09-27 11:11:26.331,1047.0,65.0,11.0,1049.0734006731846,1,1,1,0.0,3.0
2021-09-27 11:11:26.332,1047.0,65.0,21.0,1049.2259051319693,1,1,1,0.0,3.0
2021-09-27 11:11:26.342,1019.0,1.0,9.0,1019.0402347307,1,1,1,0.0,3.0
2021-09-27 11:11:26.351,916.0,67.0,-24.0,918.7605781703958,1,1,1,0.0,3.0
2021-09-27 11:11:26.372,1068.0,39.0,31.0,1069.161353585136,1,1,1,0.0,3.0
2021-09-27 11:11:26.374,1056.0,42.0,19.0,1057.0056764275205,1,1,1,0.0,3.0
2021-09-27 11:11:26.380,1026.0,3.0,19.0,1026.1802960493833,1,1,1,0.0,3.0
2021-09-27 11:11:26.381,1026.0,3.0,-4.0,1026.012183163533,1,1,1,0.0,3.0
2021-09-27 11:11:26.389,937.0,-31.0,-27.0,937.9013807431994,1,1,1,0.0,3.0
2021-09-27 11:11:26.399,1023.0,52.0,4.0,1024.3285605702888,1,1,1,0.0,3.0
2021-09-27 11:11:26.413,1064.0,50.0,36.0,1065.7823417565146,1,1,1,0.0,3.0
2021-09-27 11:11:26.419,954.0,75.0,36.0,957.6204885026218,1,1,1,0.0,3.0
2021-09-27 11:11:26.420,954.0,75.0,7.0,956.969174007188,1,1,1,0.0,3.0
2021-09-27 11:11:26.428,960.0,75.0,7.0,962.9506737107566,1,1,1,0.0,3.0
2021-09-27 11:11:26.429,960.0,132.0,-13.0,969.1197036486255,1,1,1,0.0,3.0
2021-09-27 11:11:26.438,1028.0,-8.0,16.0,1028.155630242815,1,1,1,0.0,3.0
2021-09-27 11:11:26.448,1054.0,17.0,9.0,1054.1755072093072,1,1,1,0.0,3.0
2021-09-27 11:11:26.464,1018.0,-108.0,6.0,1023.730433268446,1,1,1,0.0,3.0
2021-09-27 11:11:26.475,962.0,-108.0,6.0,968.0619814867227,1,1,1,0.0,3.0
2021-09-27 11:11:26.476,962.0,33.0,-27.0,962.9444428418496,1,1,1,0.0,3.0
2021-09-27 11:11:26.478,1079.0,58.0,-27.0,1080.8949995258558,1,1,1,0.0,3.0
2021-09-27 11:11:26.479,1079.0,58.0,32.0,1081.0314519013773,1,1,1,0.0,3.0
2021-09-27 11:11:26.486,1018.0,51.0,32.0,1019.77889760477,1,1,1,0.0,3.0
2021-09-27 11:11:26.487,1018.0,51.0,47.0,1020.3597404837178,1,1,1,0.0,3.0
2021-09-27 11:11:26.497,1019.0,51.0,47.0,1021.357430089976,1,1,1,0.0,3.0
2021-09-27 11:11:26.498,1019.0,-40.0,0.0,1019.7847812161152,1,1,1,0.0,3.0
2021-09-27 11:11:26.507,982.0,55.0,-37.0,984.2347281009748,1,1,1,0.0,3.0
2021-09-27 11:11:26.516,1090.0,65.0,35.0,1092.497139584356,1,1,1,0.0,3.0
2021-09-27 11:11:26.528,1004.0,60.0,14.0,1005.8886618309206,1,1,1,0.0,3.0
2021-09-27 11:11:26.535,984.0,-40.0,14.0,984.9121788261124,1,1,1,0.0,3.0
2021-09-27 11:11:26.536,984.0,-40.0,0.0,984.8126725423472,1,1,1,0.0,3.0
2021-09-27 11:11:26.548,1023.0,-29.0,25.0,1023.7162692855868,1,1,1,0.0,3.0
2021-09-27 11:11:26.557,1038.0,27.0,7.0,1038.3746915251738,1,1,1,0.0,3.0
2021-09-27 11:11:26.565,1016.0,92.0,15.0,1020.2671218852444,1,1,1,0.0,3.0
2021-09-27 11:11:26.575,983.0,19.0,-13.0,983.2695459537024,1,1,1,0.0,3.0
2021-09-27 11:11:26.584,930.0,64.0,-19.0,932.3931574180496,1,1,1,0.0,3.0
2021-09-27 11:11:26.595,1067.0,-3.0,12.0,1067.0716939362603,1,1,1,0.0,3.0
2021-09-27 11:11:26.605,1042.0,-3.0,12.0,1042.0734139205356,1,1,1,0.0,3.0
2021-09-27 11:11:26.606,1042.0,52.0,9.0,1043.335516504638,1,1,1,0.0,3.0
2021-09-27 11:11:26.614,947.0,20.0,-12.0,947.2871792650844,1,1,1,0.0,3.0
2021-09-27 11:11:26.623,1028.0,-2.0,4.0,1028.0097275804349,1,1,1,0.0,3.0
2021-09-27 11:11:26.633,1063.0,-3.0,27.0,1063.3470741013962,1,1,1,0.0,3.0
2021-09-27 11:11:26.644,1043.0,53.0,21.0,1044.5568438337857,1,1,1,0.0,3.0
2021-09-27 11:11:26.653,963.0,20.0,-5.0,963.2206393137556,1,1,1,0.0,3.0
2021-09-27 11:11:26.663,1022.0,4.0,-4.0,1022.0156554573908,1,1,1,0.0,3.0
2021-09-27 11:11:26.672,1064.0,21.0,33.0,1064.7187422037805,1,1,1,0.0,3.0
2021-09-27 11:11:26.682,995.0,-17.0,11.0,995.2060088243036,1,1,1,0.0,3.0
2021-09-27 11:11:26.692,979.0,3.0,11.0,979.066392028651,1,1,1,0.0,3.0
2021-09-27 11:11:26.693,979.0,3.0,0.0,979.0045965162778,1,1,1,0.0,3.0
2021-09-27 11:11:26.702,996.0,109.0,0.0,1001.9466053637788,1,1,1,0.0,3.0
2021-09-27 11:11:26.703,996.0,109.0,15.0,1002.058880505532,1,1,1,0.0,3.0
2021-09-27 11:11:26.712,1070.0,59.0,36.0,1072.2299193736387,1,1,1,0.0,3.0
2021-09-27 11:11:26.721,1002.0,8.0,-20.0,1002.2315101811556,1,1,1,0.0,3.0
2021-09-27 11:11:26.731,920.0,34.0,-33.0,921.2193007096628,1,1,1,0.0,3.0
2021-09-27 11:11:26.741,1049.0,16.0,-33.0,1049.6408909717647,1,1,1,0.0,3.0
2021-09-27 11:11:26.742,1049.0,16.0,7.0,1049.1453664769244,1,1,1,0.0,3.0
2021-09-27 11:11:26.759,1096.0,56.0,18.0,1097.577332127445,1,1,1,0.0,3.0
2021-09-27 11:11:26.762,1061.0,56.0,18.0,1062.6292862517953,1,1,1,0.0,3.0
2021-09-27 11:11:26.763,1061.0,-18.0,12.0,1061.220523736702,1,1,1,0.0,3.0
2021-09-27 11:11:26.771,917.0,20.0,-24.0,917.5320157901848,1,1,1,0.0,3.0
2021-09-27 11:11:26.782,1018.0,34.0,0.0,1018.5676217119805,1,1,1,0.0,3.0
2021-09-27 11:11:26.789,1046.0,25.0,36.0,1046.917857331701,1,1,1,0.0,3.0
2021-09-27 11:11:26.799,1031.0,25.0,36.0,1031.931199257005,1,1,1,0.0,3.0
2021-09-27 11:11:26.800,1031.0,25.0,17.0,1031.4431637274058,1,1,1,0.0,3.0
2021-09-27 11:11:26.808,942.0,25.0,17.0,942.4850131434451,1,1,1,0.0,3.0
2021-09-27 11:11:26.809,942.0,17.0,-5.0,942.1666519252312,1,1,1,0.0,3.0
2021-09-27 11:11:26.819,1032.0,-16.0,7.0,1032.1477607397112,1,1,1,0.0,3.0
2021-09-27 11:11:26.831,1025.0,32.0,26.0,1025.82893310727,1,1,1,0.0,3.0
2021-09-27 11:11:26.838,1012.0,-33.0,-1.0,1012.5383943337656,1,1,1,0.0,3.0
2021-09-27 11:11:26.848,920.0,16.0,-7.0,920.1657459392844,1,1,1,0.0,3.0
2021-09-27 11:11:26.858,1018.0,-18.0,45.0,1019.153079767706,1,1,1,0.0,3.0
2021-09-27 11:11:26.868,1050.0,57.0,45.0,1052.5084322702598,1,1,1,0.0,3.0
2021-09-27 11:11:26.869,1050.0,57.0,7.0,1051.5693034698188,1,1,1,0.0,3.0
2021-09-27 11:11:26.879,1036.0,-61.0,20.0,1037.9869941381733,1,1,1,0.0,3.0
2021-09-27 11:11:26.888,954.0,118.0,-14.0,961.3719363492988,1,1,1,0.0,3.0
2021-09-27 11:11:26.897,1040.0,89.0,17.0,1043.9396534283003,1,1,1,0.0,3.0
2021-09-27 11:11:26.906,1021.0,78.0,17.0,1024.1162043440188,1,1,1,0.0,3.0
2021-09-27 11:11:26.907,1021.0,78.0,19.0,1024.151356001641,1,1,1,0.0,3.0
2021-09-27 11:11:26.917,1025.0,-16.0,-15.0,1025.2346072972762,1,1,1,0.0,3.0
2021-09-27 11:11:26.927,959.0,-16.0,-15.0,959.2507492830016,1,1,1,0.0,3.0
2021-09-27 11:11:26.928,959.0,64.0,-25.0,961.458267425061,1,1,1,0.0,3.0
2021-09-27 11:11:26.936,1056.0,64.0,-25.0,1058.2329611196203,1,1,1,0.0,3.0
2021-09-27 11:11:26.937,1056.0,-10.0,5.0,1056.0591839475665,1,1,1,0.0,3.0
2021-09-27 11:11:26.947,1013.0,101.0,39.0,1018.769355644348,1,1,1,0.0,3.0
2021-09-27 11:11:26.956,1034.0,5.0,15.0,1034.120882682484,1,1,1,0.0,3.0
2021-09-27 11:11:26.965,934.0,84.0,-10.0,937.8230110207362,1,1,1,0.0,3.0
2021-09-27 11:11:26.975,1057.0,74.0,9.0,1059.6254055089469,1,1,1,0.0,3.0
2021-09-27 11:11:26.985,1031.0,61.0,26.0,1033.1301950867569,1,1,1,0.0,3.0
2021-09-27 11:11:26.995,979.0,42.0,-11.0,979.962244170662,1,1,1,0.0,3.0
2021-09-27 11:11:27.004,925.0,-10.0,-28.0,925.4777144804732,1,1,1,0.0,3.0
2021-09-27 11:11:27.014,1061.0,-10.0,-28.0,1061.4165063724984,1,1,1,0.0,3.0
2021-09-27 11:11:27.015,1061.0,-30.0,15.0,1061.530027837178,1,1,1,0.0,3.0
2021-09-27 11:11:27.024,1026.0,38.0,14.0,1026.798909231988,1,1,1,0.0,3.0
2021-09-27 11:11:27.034,1000.0,-76.0,-4.0,1002.8918186923254,1,1,1,0.0,3.0
2021-09-27 11:11:27.044,1004.0,29.0,-10.0,1004.4685161815676,1,1,1,0.0,3.0
2021-09-27 11:11:27.053,1045.0,17.0,24.0,1045.4137936721515,1,1,1,0.0,3.0
2021-09-27 11:11:27.064,996.0,65.0,6.0,998.1367641761324,1,1,1,0.0,3.0
2021-09-27 11:11:27.074,1006.0,15.0,15.0,1006.2236331949276,1,1,1,0.0,3.0
2021-09-27 11:11:27.083,982.0,95.0,-7.0,986.6093451817696,1,1,1,0.0,3.0
2021-09-27 11:11:27.092,1075.0,79.0,-7.0,1077.9216112500949,1,1,1,0.0,3.0
2021-09-27 11:11:27.093,1075.0,79.0,31.0,1078.344564598904,1,1,1,0.0,3.0
2021-09-27 11:11:27.102,1053.0,0.0,-6.0,1053.0170938783472,1,1,1,0.0,3.0
2021-09-27 11:11:27.112,1019.0,-75.0,14.0,1021.8522398076936,1,1,1,0.0,3.0
2021-09-27 11:11:27.122,955.0,76.0,0.0,958.0193108700888,1,1,1,0.0,3.0
2021-09-27 11:11:27.132,1057.0,67.0,0.0,1059.1213339367685,1,1,1,0.0,3.0
2021-09-27 11:11:27.133,1057.0,67.0,16.0,1059.2421819395222,1,1,1,0.0,3.0
2021-09-27 11:11:27.142,1048.0,-1.0,3.0,1048.0047709815065,1,1,1,0.0,3.0
2021-09-27 11:11:27.150,910.0,-1.0,3.0,910.005494488907,1,1,1,0.0,3.0
2021-09-27 11:11:27.151,910.0,107.0,14.0,916.376014526788,1,1,1,0.0,3.0
2021-09-27 11:11:27.161,941.0,118.0,0.0,948.3696536688634,1,1,1,0.0,3.0
2021-09-27 11:11:27.171,1037.0,-14.0,0.0,1037.0944990693954,1,1,1,0.0,3.0
2021-09-27 11:11:27.172,1037.0,-14.0,22.0,1037.3278170376036,1,1,1,0.0,3.0
2021-09-27 11:11:27.180,1052.0,4.0,25.0,1052.3046136932023,1,1,1,0.0,3.0
2021-09-27 11:11:27.190,956.0,-22.0,-14.0,956.3555824064604,1,1,1,0.0,3.0
2021-09-27 11:11:27.199,1020.0,0.0,-14.0,1020.0960739067668,1,1,1,0.0,3.0
2021-09-27 11:11:27.200,1020.0,0.0,33.0,1020.5336839124908,1,1,1,0.0,3.0
2021-09-27 11:11:27.209,1067.0,37.0,8.0,1067.6712977316568,1,1,1,0.0,3.0
2021-09-27 11:11:27.219,1014.0,37.0,8.0,1014.7063614662126,1,1,1,0.0,3.0
2021-09-27 11:11:27.220,1014.0,101.0,9.0,1019.0574076076382,1,1,1,0.0,3.0
2021-09-27 11:11:27.229,968.0,74.0,-14.0,970.925331835564,1,1,1,0.0,3.0
2021-09-27 11:11:27.239,1018.0,104.0,10.0,1023.3474483282793,1,1,1,0.0,3.0
2021-09-27 11:11:27.249,1021.0,89.0,20.0,1025.0668270898243,1,1,1,0.0,3.0
2021-09-27 11:11:27.258,1061.0,-79.0,-13.0,1064.016447241301,1,1,1,0.0,3.0
2021-09-27 11:11:27.269,1032.0,-81.0,8.0,1035.2048106534282,1,1,1,0.0,3.0
2021-09-27 11:11:27.278,1058.0,15.0,26.0,1058.4257177525496,1,1,1,0.0,3.0
2021-09-27 11:11:27.289,1038.0,-36.0,18.0,1038.780053716859,1,1,1,0.0,3.0
2021-09-27 11:11:27.297,1034.0,-36.0,18.0,1034.783069053606,1,1,1,0.0,3.0
2021-09-27 11:11:27.298,1034.0,0.0,9.0,1034.039167536704,1,1,1,0.0,3.0
2021-09-27 11:11:27.307,944.0,50.0,-17.0,945.4760705591656,1,1,1,0.0,3.0
2021-09-27 11:11:27.317,1002.0,169.0,-17.0,1016.2942487291758,1,1,1,0.0,3.0
2021-09-27 11:11:27.318,1002.0,169.0,10.0,1016.2012595937872,1,1,1,0.0,3.0
2021-09-27 11:11:27.328,1036.0,68.0,41.0,1039.038497843078,1,1,1,0.0,3.0
2021-09-27 11:11:27.337,1031.0,68.0,41.0,1034.053190121282,1,1,1,0.0,3.0
2021-09-27 11:11:27.338,1031.0,-63.0,9.0,1032.962245195825,1,1,1,0.0,3.0
2021-09-27 11:11:27.346,966.0,8.0,2.0,966.0351960461896,1,1,1,0.0,3.0
2021-09-27 11:11:27.356,1063.0,-90.0,-17.0,1066.9386111674842,1,1,1,0.0,3.0
2021-09-27 11:11:27.366,1009.0,8.0,28.0,1009.420130570022,1,1,1,0.0,3.0
2021-09-27 11:11:27.391,1023.0,52.0,-4.0,1024.3285605702888,1,1,1,0.0,3.0
2021-09-27 11:11:27.394,947.0,88.0,-4.0,951.0883239741722,1,1,1,0.0,3.0
2021-09-27 11:11:27.395,947.0,88.0,0.0,951.079912520499,1,1,1,0.0,3.0
2021-09-27 11:11:27.397,1026.0,32.0,0.0,1026.498904042279,1,1,1,0.0,3.0
2021-09-27 11:11:27.405,1023.0,40.0,14.0,1023.8774340710904,1,1,1,0.0,3.0
2021-09-27 11:11:27.416,1000.0,27.0,-5.0,1000.3769289622788,1,1,1,0.0,3.0
2021-09-27 11:11:27.431,978.0,-6.0,-7.0,978.0434550673094,1,1,1,0.0,3.0
2021-09-27 11:11:27.435,1016.0,-41.0,-7.0,1016.8510215365868,1,1,1,0.0,3.0
2021-09-27 11:11:27.436,1016.0,-41.0,26.0,1017.1592795624488,1,1,1,0.0,3.0
2021-09-27 11:11:27.444,1049.0,-20.0,6.0,1049.2077963873503,1,1,1,0.0,3.0
2021-09-27 11:11:27.455,1016.0,-79.0,6.0,1019.0843929724368,1,1,1,0.0,3.0
2021-09-27 11:11:27.456,1016.0,-79.0,7.0,1019.0907712269797,1,1,1,0.0,3.0
2021-09-27 11:11:27.465,964.0,54.0,2.0,965.5133349674668,1,1,1,0.0,3.0
2021-09-27 11:11:27.473,1041.0,84.0,35.0,1044.969856024565,1,1,1,0.0,3.0
2021-09-27 11:11:27.490,1027.0,57.0,41.0,1029.3973965383825,1,1,1,0.0,3.0
2021-09-27 11:11:27.494,1041.0,-59.0,-10.0,1042.71856222089,1,1,1,0.0,3.0
2021-09-27 11:11:27.504,962.0,86.0,-15.0,965.9528974023526,1,1,1,0.0,3.0
2021-09-27 11:11:27.513,1083.0,-49.0,-21.0,1084.3113021637282,1,1,1,0.0,3.0
2021-09-27 11:11:27.523,979.0,61.0,19.0,981.0825653328062,1,1,1,0.0,3.0
2021-09-27 11:11:27.532,966.0,-3.0,24.0,966.3027475900088,1,1,1,0.0,3.0
2021-09-27 11:11:27.541,955.0,51.0,24.0,956.6619047500532,1,1,1,0.0,3.0
2021-09-27 11:11:27.542,955.0,51.0,-4.0,956.3691755802254,1,1,1,0.0,3.0
2021-09-27 11:11:27.554,1045.0,37.0,11.0,1045.7126756427886,1,1,1,0.0,3.0
2021-09-27 11:11:27.564,1045.0,88.0,11.0,1048.7564064166663,1,1,1,0.0,3.0
2021-09-27 11:11:27.570,994.0,88.0,11.0,997.9483954594044,1,1,1,0.0,3.0
2021-09-27 11:11:27.571,994.0,23.0,-3.0,994.2705869128384,1,1,1,0.0,3.0
2021-09-27 11:11:27.580,1002.0,147.0,5.0,1012.7378732919984,1,1,1,0.0,3.0
2021-09-27 11:11:27.592,1029.0,-62.0,9.0,1030.905427282251,1,1,1,0.0,3.0
2021-09-27 11:11:27.600,1038.0,32.0,38.0,1039.1881446590892,1,1,1,0.0,3.0
2021-09-27 11:11:27.611,1009.0,-65.0,-4.0,1011.0994016415992,1,1,1,0.0,3.0
2021-09-27 11:11:27.621,994.0,37.0,0.0,994.6883934177578,1,1,1,0.0,3.0
2021-09-27 11:11:27.629,1092.0,6.0,17.0,1092.1487993858711,1,1,1,0.0,3.0
2021-09-27 11:11:27.640,1027.0,54.0,23.0,1028.6758478743438,1,1,1,0.0,3.0
2021-09-27 11:11:27.649,979.0,61.0,-14.0,980.9984709468206,1,1,1,0.0,3.0
2021-09-27 11:11:27.659,973.0,140.0,-22.0,983.2664949035944,1,1,1,0.0,3.0
2021-09-27 11:11:27.669,1013.0,140.0,-22.0,1022.8650937440382,1,1,1,0.0,3.0
2021-09-27 11:11:27.670,1013.0,129.0,34.0,1021.7465439139004,1,1,1,0.0,3.0
2021-09-27 11:11:27.679,1022.0,-16.0,23.0,1022.383978747711,1,1,1,0.0,3.0
2021-09-27 11:11:27.688,987.0,2.0,-14.0,987.1013119229456,1,1,1,0.0,3.0
2021-09-27 11:11:27.697,1011.0,0.0,-7.0,1011.0242331418174,1,1,1,0.0,3.0
2021-09-27 11:11:27.707,1059.0,0.0,-7.0,1059.0231347803503,1,1,1,0.0,3.0
2021-09-27 11:11:27.708,1059.0,50.0,34.0,1060.7247522331136,1,1,1,0.0,3.0
2021-09-27 11:11:27.717,1015.0,9.0,34.0,1015.609176799816,1,1,1,0.0,3.0
2021-09-27 11:11:27.718,1015.0,9.0,5.0,1015.0522154056904,1,1,1,0.0,3.0
2021-09-27 11:11:27.728,914.0,9.0,5.0,914.0579850315844,1,1,1,0.0,3.0
2021-09-27 11:11:27.729,914.0,80.0,-10.0,917.5489087781642,1,1,1,0.0,3.0
2021-09-27 11:11:27.737,1017.0,80.0,-10.0,1020.1906684536964,1,1,1,0.0,3.0
2021-09-27 11:11:27.738,1017.0,75.0,4.0,1019.7695818173828,1,1,1,0.0,3.0
2021-09-27 11:11:27.746,1099.0,75.0,4.0,1101.5634343967668,1,1,1,0.0,3.0
2021-09-27 11:11:27.747,1099.0,1.0,8.0,1099.029571940628,1,1,1,0.0,3.0
2021-09-27 11:11:27.756,992.0,34.0,28.0,992.9773411312062,1,1,1,0.0,3.0
2021-09-27 11:11:27.767,985.0,-46.0,-4.0,986.0816396221968,1,1,1,0.0,3.0
2021-09-27 11:11:27.791,1018.0,-47.0,-4.0,1019.092243126205,1,1,1,0.0,3.0
2021-09-27 11:11:27.792,1018.0,-47.0,28.0,1019.4689794201686,1,1,1,0.0,3.0
2021-09-27 11:11:27.793,1067.0,14.0,10.0,1067.1386976396273,1,1,1,0.0,3.0
2021-09-27 11:11:27.797,1002.0,14.0,10.0,1002.1476937058728,1,1,1,0.0,3.0
2021-09-27 11:11:27.798,1002.0,-19.0,-13.0,1002.2644361644286,1,1,1,0.0,3.0
2021-09-27 11:11:27.805,993.0,69.0,2.0,995.3964034493996,1,1,1,0.0,3.0
2021-09-27 11:11:27.815,1015.0,69.0,2.0,1017.344582725047,1,1,1,0.0,3.0
2021-09-27 11:11:27.816,1015.0,69.0,3.0,1017.3470400998864,1,1,1,0.0,3.0
2021-09-27 11:11:27.825,1020.0,60.0,3.0,1021.7675860977388,1,1,1,0.0,3.0
2021-09-27 11:11:27.826,1020.0,60.0,6.0,1021.7807984103048,1,1,1,0.0,3.0
2021-09-27 11:11:27.835,991.0,-49.0,0.0,992.2106631154496,1,1,1,0.0,3.0
2021-09-27 11:11:27.845,946.0,72.0,-8.0,948.7697297026292,1,1,1,0.0,3.0
2021-09-27 11:11:27.855,989.0,20.0,19.0,989.3846572491408,1,1,1,0.0,3.0
2021-09-27 11:11:27.863,1107.0,-12.0,19.0,1107.2280704534185,1,1,1,0.0,3.0
2021-09-27 11:11:27.864,1107.0,-12.0,26.0,1107.3703084334527,1,1,1,0.0,3.0
2021-09-27 11:11:27.874,998.0,-32.0,-4.0,998.5209061406777,1,1,1,0.0,3.0
2021-09-27 11:11:27.883,936.0,78.0,-13.0,939.3343387740064,1,1,1,0.0,3.0
2021-09-27 11:11:27.894,1044.0,65.0,11.0,1046.0793468948712,1,1,1,0.0,3.0
2021-09-27 11:11:27.904,1065.0,75.0,41.0,1068.4245410884196,1,1,1,0.0,3.0
2021-09-27 11:11:27.912,1028.0,75.0,41.0,1031.5473813645208,1,1,1,0.0,3.0
2021-09-27 11:11:27.913,1028.0,-41.0,5.0,1028.8294319273723,1,1,1,0.0,3.0
2021-09-27 11:11:27.923,923.0,3.0,-31.0,923.52531096879,1,1,1,0.0,3.0
2021-09-27 11:11:27.932,1037.0,-32.0,-31.0,1037.9566464934844,1,1,1,0.0,3.0
2021-09-27 11:11:27.933,1037.0,-32.0,19.0,1037.6675768279551,1,1,1,0.0,3.0
2021-09-27 11:11:27.942,1030.0,1.0,19.0,1030.1757131674187,1,1,1,0.0,3.0
2021-09-27 11:11:27.943,1030.0,1.0,24.0,1030.280059013082,1,1,1,0.0,3.0
2021-09-27 11:11:27.953,989.0,48.0,24.0,990.4549459717994,1,1,1,0.0,3.0
2021-09-27 11:11:27.954,989.0,48.0,-13.0,990.249463519168,1,1,1,0.0,3.0
2021-09-27 11:11:27.961,947.0,51.0,-25.0,948.7017444908596,1,1,1,0.0,3.0
2021-09-27 11:11:27.971,1050.0,54.0,-25.0,1051.6848387230843,1,1,1,0.0,3.0
2021-09-27 11:11:27.972,1050.0,54.0,10.0,1051.4352096063742,1,1,1,0.0,3.0
2021-09-27 11:11:27.981,1010.0,36.0,31.0,1011.1167093862113,1,1,1,0.0,3.0
2021-09-27 11:11:27.991,1016.0,14.0,31.0,1016.5692303035736,1,1,1,0.0,3.0
2021-09-27 11:11:27.992,1016.0,14.0,1.0,1016.0969441938108,1,1,1,0.0,3.0
2021-09-27 11:11:28.002,963.0,122.0,0.0,970.6971721396948,1,1,1,0.0,3.0
2021-09-27 11:11:28.011,1047.0,-81.0,18.0,1050.2828190539915,1,1,1,0.0,3.0
2021-09-27 11:11:28.020,1024.0,-2.0,23.0,1024.2602208423405,1,1,1,0.0,3.0
2021-09-27 11:11:28.030,997.0,-2.0,23.0,997.2672660826686,1,1,1,0.0,3.0
2021-09-27 11:11:28.031,997.0,-50.0,10.0,998.3030601976536,1,1,1,0.0,3.0
2021-09-27 11:11:28.039,972.0,36.0,-9.0,972.7080754265382,1,1,1,0.0,3.0
2021-09-27 11:11:28.049,1039.0,85.0,-9.0,1042.5099519908672,1,1,1,0.0,3.0
2021-09-27 11:11:28.050,1039.0,85.0,18.0,1042.6264911270955,1,1,1,0.0,3.0
2021-09-27 11:11:28.059,1004.0,102.0,14.0,1009.2650791541338,1,1,1,0.0,3.0
2021-09-27 11:11:28.068,1012.0,102.0,14.0,1017.2236725519124,1,1,1,0.0,3.0
2021-09-27 11:11:28.069,1012.0,-44.0,-12.0,1013.0271467241142,1,1,1,0.0,3.0
2021-09-27 11:11:28.079,967.0,51.0,1.0,968.344463504594,1,1,1,0.0,3.0
2021-09-27 11:11:28.088,1087.0,-35.0,17.0,1087.696189199907,1,1,1,0.0,3.0
2021-09-27 11:11:28.098,1005.0,-35.0,17.0,1005.752951772949,1,1,1,0.0,3.0
2021-09-27 11:11:28.099,1005.0,26.0,13.0,1005.4203101191064,1,1,1,0.0,3.0
2021-09-27 11:11:28.108,982.0,-57.0,8.0,983.685417193932,1,1,1,0.0,3.0
2021-09-27 11:11:28.117,939.0,-57.0,8.0,940.7624567338984,1,1,1,0.0,3.0
2021-09-27 11:11:28.118,939.0,38.0,-25.0,940.101058397447,1,1,1,0.0,3.0
2021-09-27 11:11:28.128,1035.0,62.0,6.0,1036.872701926326,1,1,1,0.0,3.0
2021-09-27 11:11:28.137,1006.0,122.0,13.0,1013.453995009147,1,1,1,0.0,3.0
2021-09-27 11:11:28.148,1006.0,65.0,-15.0,1008.2093036666544,1,1,1,0.0,3.0
2021-09-27 11:11:28.158,1011.0,83.0,-5.0,1014.4136237255492,1,1,1,0.0,3.0
2021-09-27 11:11:28.166,1062.0,-56.0,14.0,1063.5675813036048,1,1,1,0.0,3.0
2021-09-27 11:11:28.176,1043.0,-56.0,14.0,1044.5960941914343,1,1,1,0.0,3.0
2021-09-27 11:11:28.177,1043.0,29.0,26.0,1043.7269757939573,1,1,1,0.0,3.0
2021-09-27 11:11:28.186,982.0,-76.0,0.0,984.9365461794988,1,1,1,0.0,3.0
2021-09-27 11:11:28.195,1008.0,7.0,0.0,1008.0243052625268,1,1,1,0.0,3.0
2021-09-27 11:11:28.208,1070.0,-3.0,25.0,1070.2962206791165,1,1,1,0.0,3.0
2021-09-27 11:11:28.217,1029.0,42.0,18.0,1030.0140775737,1,1,1,0.0,3.0
2021-09-27 11:11:28.225,1026.0,-5.0,6.0,1026.029726664876,1,1,1,0.0,3.0
2021-09-27 11:11:28.235,991.0,140.0,-9.0,1000.8806122610227,1,1,1,0.0,3.0
2021-09-27 11:11:28.244,1079.0,38.0,19.0,1079.8360986742389,1,1,1,0.0,3.0
2021-09-27 11:11:28.256,1037.0,-43.0,10.0,1037.939304583847,1,1,1,0.0,3.0
2021-09-27 11:11:28.265,941.0,-43.0,10.0,942.0350311957618,1,1,1,0.0,3.0
2021-09-27 11:11:28.266,941.0,0.0,-17.0,941.1535475149632,1,1,1,0.0,3.0
2021-09-27 11:11:28.274,985.0,66.0,-1.0,987.209197688109,1,1,1,0.0,3.0
2021-09-27 11:11:28.283,1047.0,20.0,18.0,1047.3456926917684,1,1,1,0.0,3.0
2021-09-27 11:11:28.293,1047.0,37.0,5.0,1047.6655000523783,1,1,1,0.0,3.0
2021-09-27 11:11:28.303,925.0,37.0,5.0,925.7532068537488,1,1,1,0.0,3.0
2021-09-27 11:11:28.304,925.0,110.0,22.0,931.7773339162098,1,1,1,0.0,3.0
2021-09-27 11:11:28.314,1018.0,14.0,0.0,1018.0962626392458,1,1,1,0.0,3.0
2021-09-27 11:11:28.324,1019.0,81.0,15.0,1022.3243125349215,1,1,1,0.0,3.0
2021-09-27 11:11:28.332,1019.0,-31.0,12.0,1019.542054061528,1,1,1,0.0,3.0
2021-09-27 11:11:28.342,997.0,-23.0,-13.0,997.3499887201082,1,1,1,0.0,3.0
2021-09-27 11:11:28.352,1001.0,-19.0,22.0,1001.4219889736794,1,1,1,0.0,3.0
2021-09-27 11:11:28.363,1064.0,-70.0,6.0,1066.3170260293136,1,1,1,0.0,3.0
2021-09-27 11:11:28.372,1021.0,-105.0,6.0,1026.402455180228,1,1,1,0.0,3.0
2021-09-27 11:11:28.373,1021.0,-105.0,29.0,1026.7945266702584,1,1,1,0.0,3.0
2021-09-27 11:11:28.381,985.0,82.0,-5.0,988.4199512353036,1,1,1,0.0,3.0
2021-09-27 11:11:28.391,999.0,60.0,-17.0,1000.9445539089566,1,1,1,0.0,3.0
2021-09-27 11:11:28.458,980.0,106.0,-17.0,985.8625664868304,1,1,1,0.0,3.0
2021-09-27 11:11:28.459,980.0,106.0,28.0,986.1135837214696,1,1,1,0.0,3.0
2021-09-27 11:11:28.469,1063.0,106.0,28.0,1068.6388538697252,1,1,1,0.0,3.0
2021-09-27 11:11:28.470,1063.0,-57.0,-7.0,1064.5501397303933,1,1,1,0.0,3.0
2021-09-27 11:11:28.474,948.0,-57.0,-7.0,949.7378585694056,1,1,1,0.0,3.0
2021-09-27 11:11:28.475,948.0,64.0,-14.0,950.2610167738126,1,1,1,0.0,3.0
2021-09-27 11:11:28.478,1027.0,70.0,19.0,1029.5581576579343,1,1,1,0.0,3.0
2021-09-27 11:11:28.481,1027.0,142.0,16.0,1036.893919357231,1,1,1,0.0,3.0
2021-09-27 11:11:28.489,994.0,142.0,16.0,1004.2190995992856,1,1,1,0.0,3.0
2021-09-27 11:11:28.490,994.0,3.0,23.0,994.2705869128384,1,1,1,0.0,3.0
2021-09-27 11:11:28.509,978.0,-25.0,-17.0,978.4671685856404,1,1,1,0.0,3.0
2021-09-27 11:11:28.512,1060.0,-64.0,14.0,1062.0225986296148,1,1,1,0.0,3.0
2021-09-27 11:11:28.518,1019.0,57.0,26.0,1020.9240912036506,1,1,1,0.0,3.0
2021-09-27 11:11:28.530,1027.0,-59.0,26.0,1029.0218656568966,1,1,1,0.0,3.0
2021-09-27 11:11:28.531,1027.0,-59.0,14.0,1028.7886080240196,1,1,1,0.0,3.0
2021-09-27 11:11:28.538,915.0,62.0,9.0,917.1423008454032,1,1,1,0.0,3.0
2021-09-27 11:11:28.548,1028.0,58.0,7.0,1029.6586813114334,1,1,1,0.0,3.0
2021-09-27 11:11:28.557,1015.0,50.0,23.0,1016.4910230789056,1,1,1,0.0,3.0
2021-09-27 11:11:28.567,1011.0,20.0,23.0,1011.459341743404,1,1,1,0.0,3.0
2021-09-27 11:11:28.568,1011.0,20.0,-11.0,1011.2576328512928,1,1,1,0.0,3.0
2021-09-27 11:11:28.577,966.0,20.0,-11.0,966.269631107177,1,1,1,0.0,3.0
2021-09-27 11:11:28.578,966.0,141.0,-23.0,976.5070404252086,1,1,1,0.0,3.0
2021-09-27 11:11:28.588,1118.0,34.0,21.0,1118.7139938339917,1,1,1,0.0,3.0
2021-09-27 11:11:28.596,1082.0,-39.0,10.0,1082.7488166698683,1,1,1,0.0,3.0
2021-09-27 11:11:28.605,988.0,-39.0,10.0,988.8200038429644,1,1,1,0.0,3.0
2021-09-27 11:11:28.606,988.0,-33.0,15.0,988.664756123126,1,1,1,0.0,3.0
2021-09-27 11:11:28.616,998.0,23.0,-14.0,998.363160378026,1,1,1,0.0,3.0
2021-09-27 11:11:28.626,1031.0,71.0,25.0,1033.7441656425442,1,1,1,0.0,3.0
2021-09-27 11:11:28.637,1008.0,117.0,15.0,1014.8783178292854,1,1,1,0.0,3.0
2021-09-27 11:11:28.645,997.0,0.0,4.0,997.0080240399272,1,1,1,0.0,3.0
2021-09-27 11:11:28.654,970.0,112.0,-9.0,976.4860470073291,1,1,1,0.0,3.0
2021-09-27 11:11:28.667,1085.0,-2.0,-3.0,1085.0059907668713,1,1,1,0.0,3.0
2021-09-27 11:11:28.675,1026.0,-3.0,10.0,1026.0531175333956,1,1,1,0.0,3.0
2021-09-27 11:11:28.685,960.0,-59.0,-11.0,961.8742121504246,1,1,1,0.0,3.0
2021-09-27 11:11:28.694,1018.0,-32.0,-11.0,1018.5622219579913,1,1,1,0.0,3.0
2021-09-27 11:11:28.695,1018.0,-32.0,21.0,1018.7192940157756,1,1,1,0.0,3.0
2021-09-27 11:11:28.703,1010.0,-32.0,21.0,1010.7249873234558,1,1,1,0.0,3.0
2021-09-27 11:11:28.704,1010.0,67.0,18.0,1012.3798694166138,1,1,1,0.0,3.0
2021-09-27 11:11:28.713,1038.0,98.0,2.0,1042.6178590452016,1,1,1,0.0,3.0
2021-09-27 11:11:28.724,993.0,36.0,-19.0,993.8339901613348,1,1,1,0.0,3.0
2021-09-27 11:11:28.734,972.0,149.0,-6.0,983.3722591165564,1,1,1,0.0,3.0
2021-09-27 11:11:28.742,1069.0,149.0,-6.0,1079.3507307636382,1,1,1,0.0,3.0
2021-09-27 11:11:28.743,1069.0,36.0,45.0,1070.5521939634705,1,1,1,0.0,3.0
2021-09-27 11:11:28.752,1015.0,109.0,33.0,1021.3691790924572,1,1,1,0.0,3.0
2021-09-27 11:11:28.763,1015.0,-61.0,9.0,1016.8711816154492,1,1,1,0.0,3.0
2021-09-27 11:11:28.772,998.0,-61.0,9.0,999.9029952950436,1,1,1,0.0,3.0
2021-09-27 11:11:28.773,998.0,29.0,12.0,998.4933650255268,1,1,1,0.0,3.0
2021-09-27 11:11:28.783,1072.0,-12.0,21.0,1072.2728197618364,1,1,1,0.0,3.0
2021-09-27 11:11:28.792,996.0,-12.0,21.0,996.2936314159596,1,1,1,0.0,3.0
2021-09-27 11:11:28.793,996.0,-19.0,-25.0,996.4948569862264,1,1,1,0.0,3.0
2021-09-27 11:11:28.809,993.0,47.0,-22.0,994.3550673677888,1,1,1,0.0,3.0
2021-09-27 11:11:28.813,947.0,192.0,6.0,966.2861894904636,1,1,1,0.0,3.0
2021-09-27 11:11:28.821,1067.0,93.0,6.0,1071.062089703487,1,1,1,0.0,3.0
2021-09-27 11:11:28.822,1067.0,93.0,33.0,1071.553545092358,1,1,1,0.0,3.0
2021-09-27 11:11:28.832,1037.0,-27.0,12.0,1037.4208403536147,1,1,1,0.0,3.0
2021-09-27 11:11:28.840,960.0,-41.0,-13.0,960.963058603191,1,1,1,0.0,3.0
2021-09-27 11:11:28.850,1048.0,-45.0,4.0,1048.9733075726951,1,1,1,0.0,3.0
2021-09-27 11:11:28.859,1060.0,32.0,4.0,1060.4904525737136,1,1,1,0.0,3.0
2021-09-27 11:11:28.860,1060.0,32.0,20.0,1060.6714854279812,1,1,1,0.0,3.0
2021-09-27 11:11:28.872,1021.0,46.0,23.0,1022.29447812262,1,1,1,0.0,3.0
2021-09-27 11:11:28.881,948.0,70.0,-13.0,950.6697639033232,1,1,1,0.0,3.0
2021-09-27 11:11:28.889,1024.0,53.0,-5.0,1025.3828553277065,1,1,1,0.0,3.0
2021-09-27 11:11:28.898,1021.0,41.0,-5.0,1021.8351139004766,1,1,1,0.0,3.0
2021-09-27 11:11:28.899,1021.0,41.0,25.0,1022.1286611772512,1,1,1,0.0,3.0
2021-09-27 11:11:28.908,1018.0,19.0,5.0,1018.1895697756876,1,1,1,0.0,3.0
2021-09-27 11:11:28.919,975.0,-57.0,-10.0,976.7159259477652,1,1,1,0.0,3.0
2021-09-27 11:11:28.928,1089.0,-57.0,-10.0,1090.5365651824793,1,1,1,0.0,3.0
2021-09-27 11:11:28.929,1089.0,-86.0,14.0,1092.480205770338,1,1,1,0.0,3.0
2021-09-27 11:11:28.938,1050.0,-86.0,14.0,1053.609035648423,1,1,1,0.0,3.0
2021-09-27 11:11:28.939,1050.0,-37.0,20.0,1050.8420433157405,1,1,1,0.0,3.0
2021-09-27 11:11:28.948,1030.0,-88.0,27.0,1034.1049269779155,1,1,1,0.0,3.0
2021-09-27 11:11:28.957,976.0,-88.0,27.0,980.3310665280378,1,1,1,0.0,3.0
2021-09-27 11:11:28.958,976.0,50.0,-7.0,977.3049677557154,1,1,1,0.0,3.0
2021-09-27 11:11:28.967,1034.0,29.0,-7.0,1034.4302779791396,1,1,1,0.0,3.0
2021-09-27 11:11:28.968,1034.0,29.0,9.0,1034.4457453148525,1,1,1,0.0,3.0
2021-09-27 11:11:28.978,1006.0,78.0,39.0,1009.7727467108626,1,1,1,0.0,3.0
2021-09-27 11:11:28.989,1015.0,-127.0,-23.0,1023.1730058988068,1,1,1,0.0,3.0
2021-09-27 11:11:28.996,971.0,-42.0,12.0,971.9819957180276,1,1,1,0.0,3.0
