time_stamp,Acceleration_X,Acceleration_Y,Acceleration_Z,magnitude,STD_Status_right,STD_Status_left,STD_Status_both,KMeans,KMeans_convert
2021-08-31 07:25:55.170,1029.0,-8.0,12.0,1029.1010640359866,1,1,1,0.0,3.0
2021-08-31 07:25:55.181,974.0,67.0,7.0,976.3267895535796,1,1,1,0.0,3.0
2021-08-31 07:25:55.191,1012.0,25.0,-2.0,1012.3107230490052,1,1,1,0.0,3.0
2021-08-31 07:25:55.199,995.0,25.0,-2.0,995.3160302135196,1,1,1,0.0,3.0
2021-08-31 07:25:55.200,995.0,96.0,2.0,999.6224287199642,1,1,1,0.0,3.0
2021-08-31 07:25:55.210,1013.0,45.0,4.0,1014.0069033295582,1,1,1,0.0,3.0
2021-08-31 07:25:55.219,1004.0,64.0,5.0,1006.050197554774,1,1,1,0.0,3.0
2021-08-31 07:25:55.229,971.0,95.0,0.0,975.6362026903266,1,1,1,0.0,3.0
2021-08-31 07:25:55.239,997.0,55.0,9.0,998.556458093382,1,1,1,0.0,3.0
2021-08-31 07:25:55.249,1045.0,6.0,-3.0,1045.0215308786703,1,1,1,0.0,3.0
2021-08-31 07:25:55.258,1015.0,38.0,9.0,1015.750953728324,1,1,1,0.0,3.0
2021-08-31 07:25:55.268,987.0,51.0,5.0,988.329398530672,1,1,1,0.0,3.0
2021-08-31 07:25:55.277,1030.0,51.0,5.0,1031.2739694184083,1,1,1,0.0,3.0
2021-08-31 07:25:55.278,1030.0,42.0,11.0,1030.9146424413614,1,1,1,0.0,3.0
2021-08-31 07:25:55.288,1034.0,38.0,12.0,1034.767606760088,1,1,1,0.0,3.0
2021-08-31 07:25:55.298,1011.0,37.0,18.0,1011.8369433856426,1,1,1,0.0,3.0
2021-08-31 07:25:55.307,984.0,47.0,-9.0,985.1629306871022,1,1,1,0.0,3.0
2021-08-31 07:25:55.316,1027.0,47.0,-9.0,1028.1142932573207,1,1,1,0.0,3.0
2021-08-31 07:25:55.317,1027.0,49.0,17.0,1028.3088057582702,1,1,1,0.0,3.0
2021-08-31 07:25:55.327,1021.0,40.0,20.0,1021.9789626014814,1,1,1,0.0,3.0
2021-08-31 07:25:55.336,1013.0,40.0,20.0,1013.986686303129,1,1,1,0.0,3.0
2021-08-31 07:25:55.337,1013.0,16.0,8.0,1013.1579343814072,1,1,1,0.0,3.0
2021-08-31 07:25:55.347,984.0,49.0,-2.0,985.2212949383504,1,1,1,0.0,3.0
2021-08-31 07:25:55.356,1023.0,42.0,11.0,1023.9208953820604,1,1,1,0.0,3.0
2021-08-31 07:25:55.366,1028.0,45.0,14.0,1029.0796859330185,1,1,1,0.0,3.0
2021-08-31 07:25:55.375,988.0,32.0,2.0,988.5201060170704,1,1,1,0.0,3.0
2021-08-31 07:25:55.385,980.0,50.0,-4.0,981.2828338455738,1,1,1,0.0,3.0
2021-08-31 07:25:55.395,1019.0,49.0,13.0,1020.2602609138512,1,1,1,0.0,3.0
2021-08-31 07:25:55.405,1032.0,55.0,13.0,1033.5463221355876,1,1,1,0.0,3.0
2021-08-31 07:25:55.406,1032.0,55.0,9.0,1033.5037493884577,1,1,1,0.0,3.0
2021-08-31 07:25:55.414,997.0,34.0,11.0,997.64021570905,1,1,1,0.0,3.0
2021-08-31 07:25:55.424,994.0,58.0,3.0,995.695234496982,1,1,1,0.0,3.0
2021-08-31 07:25:55.434,1044.0,42.0,21.0,1045.0555009184918,1,1,1,0.0,3.0
2021-08-31 07:25:55.444,1025.0,61.0,18.0,1026.971275158171,1,1,1,0.0,3.0
2021-08-31 07:25:55.454,1014.0,40.0,9.0,1014.8285569493992,1,1,1,0.0,3.0
2021-08-31 07:25:55.464,982.0,56.0,-8.0,983.6279784552694,1,1,1,0.0,3.0
2021-08-31 07:25:55.473,1036.0,36.0,18.0,1036.781558477966,1,1,1,0.0,3.0
2021-08-31 07:25:55.483,1004.0,59.0,8.0,1005.763888792991,1,1,1,0.0,3.0
2021-08-31 07:25:55.493,997.0,29.0,5.0,997.4342083566214,1,1,1,0.0,3.0
2021-08-31 07:25:55.503,989.0,40.0,-9.0,989.8494835074674,1,1,1,0.0,3.0
2021-08-31 07:25:55.512,1035.0,40.0,-9.0,1035.8117589600922,1,1,1,0.0,3.0
2021-08-31 07:25:55.513,1035.0,48.0,18.0,1036.2687875257077,1,1,1,0.0,3.0
2021-08-31 07:25:55.522,1027.0,26.0,13.0,1027.4113100409202,1,1,1,0.0,3.0
2021-08-31 07:25:55.531,972.0,47.0,13.0,973.2224822721678,1,1,1,0.0,3.0
2021-08-31 07:25:55.532,972.0,47.0,-2.0,973.1377086517612,1,1,1,0.0,3.0
2021-08-31 07:25:55.541,984.0,71.0,-5.0,986.5708286788132,1,1,1,0.0,3.0
2021-08-31 07:25:55.552,1022.0,63.0,16.0,1024.06493934711,1,1,1,0.0,3.0
2021-08-31 07:25:55.564,998.0,49.0,16.0,999.3302757347044,1,1,1,0.0,3.0
2021-08-31 07:25:55.565,998.0,49.0,5.0,999.214691645394,1,1,1,0.0,3.0
2021-08-31 07:25:55.570,992.0,49.0,5.0,993.222029558346,1,1,1,0.0,3.0
2021-08-31 07:25:55.571,992.0,37.0,6.0,992.7079127316352,1,1,1,0.0,3.0
2021-08-31 07:25:55.580,1019.0,47.0,-2.0,1020.0852905517264,1,1,1,0.0,3.0
2021-08-31 07:25:55.590,1033.0,34.0,12.0,1033.6290437095893,1,1,1,0.0,3.0
2021-08-31 07:25:55.601,1022.0,27.0,15.0,1022.4666253721928,1,1,1,0.0,3.0
2021-08-31 07:25:55.610,998.0,32.0,0.0,998.5128942582564,1,1,1,0.0,3.0
2021-08-31 07:25:55.620,1003.0,61.0,7.0,1004.877604487233,1,1,1,0.0,3.0
2021-08-31 07:25:55.629,1030.0,40.0,15.0,1030.8855416582387,1,1,1,0.0,3.0
2021-08-31 07:25:55.639,1030.0,35.0,14.0,1030.6895749933633,1,1,1,0.0,3.0
2021-08-31 07:25:55.649,995.0,35.0,0.0,995.6153875869938,1,1,1,0.0,3.0
2021-08-31 07:25:55.660,1001.0,48.0,2.0,1002.1521840519034,1,1,1,0.0,3.0
2021-08-31 07:25:55.668,1039.0,48.0,13.0,1040.1894058295345,1,1,1,0.0,3.0
2021-08-31 07:25:55.678,1009.0,24.0,7.0,1009.3096650681592,1,1,1,0.0,3.0
2021-08-31 07:25:55.688,981.0,45.0,4.0,982.0397140645586,1,1,1,0.0,3.0
2021-08-31 07:25:55.712,996.0,45.0,4.0,997.0240719260494,1,1,1,0.0,3.0
2021-08-31 07:25:55.713,1030.0,42.0,18.0,1031.0130940002653,1,1,1,0.0,3.0
2021-08-31 07:25:55.718,1011.0,30.0,12.0,1011.5161886989254,1,1,1,0.0,3.0
2021-08-31 07:25:55.727,975.0,44.0,-3.0,975.996926224668,1,1,1,0.0,3.0
2021-08-31 07:25:55.736,1037.0,44.0,-3.0,1037.9373776871128,1,1,1,0.0,3.0
2021-08-31 07:25:55.737,1037.0,38.0,13.0,1037.7774327860477,1,1,1,0.0,3.0
2021-08-31 07:25:55.748,1034.0,36.0,20.0,1034.8197910747551,1,1,1,0.0,3.0
2021-08-31 07:25:55.756,1019.0,17.0,4.0,1019.1496455378866,1,1,1,0.0,3.0
2021-08-31 07:25:55.766,990.0,47.0,4.0,991.1231003260896,1,1,1,0.0,3.0
2021-08-31 07:25:55.786,1021.0,54.0,4.0,1022.4348389995324,1,1,1,0.0,3.0
2021-08-31 07:25:55.787,1021.0,54.0,17.0,1022.5683351248464,1,1,1,0.0,3.0
2021-08-31 07:25:55.789,1029.0,44.0,17.0,1030.080579372313,1,1,1,0.0,3.0
2021-08-31 07:25:55.796,1007.0,36.0,11.0,1007.703329358398,1,1,1,0.0,3.0
2021-08-31 07:25:55.805,988.0,34.0,-1.0,988.5853529159735,1,1,1,0.0,3.0
2021-08-31 07:25:55.816,1014.0,39.0,12.0,1014.8206738138516,1,1,1,0.0,3.0
2021-08-31 07:25:55.824,1022.0,41.0,12.0,1022.8924674666443,1,1,1,0.0,3.0
2021-08-31 07:25:55.825,1022.0,41.0,10.0,1022.8709596034096,1,1,1,0.0,3.0
2021-08-31 07:25:55.834,995.0,27.0,2.0,995.3682735550695,1,1,1,0.0,3.0
2021-08-31 07:25:55.845,981.0,36.0,0.0,981.6603282194916,1,1,1,0.0,3.0
2021-08-31 07:25:55.854,1013.0,50.0,4.0,1014.2410955980832,1,1,1,0.0,3.0
2021-08-31 07:25:55.863,1019.0,50.0,4.0,1020.2337967348464,1,1,1,0.0,3.0
2021-08-31 07:25:55.864,1019.0,61.0,19.0,1021.0009794314597,1,1,1,0.0,3.0
2021-08-31 07:25:55.873,1011.0,28.0,9.0,1011.4277037930096,1,1,1,0.0,3.0
2021-08-31 07:25:55.883,980.0,68.0,0.0,982.356350821839,1,1,1,0.0,3.0
2021-08-31 07:25:55.893,1045.0,35.0,0.0,1045.5859601199702,1,1,1,0.0,3.0
2021-08-31 07:25:55.894,1045.0,35.0,17.0,1045.7241510073295,1,1,1,0.0,3.0
2021-08-31 07:25:55.904,1045.0,38.0,19.0,1045.8632797837392,1,1,1,0.0,3.0
2021-08-31 07:25:55.913,1000.0,42.0,1.0,1000.8821109401448,1,1,1,0.0,3.0
2021-08-31 07:25:55.923,996.0,57.0,0.0,997.6296908171888,1,1,1,0.0,3.0
2021-08-31 07:25:55.932,1023.0,38.0,14.0,1023.801250243425,1,1,1,0.0,3.0
2021-08-31 07:25:55.942,1026.0,41.0,19.0,1026.9946445819471,1,1,1,0.0,3.0
2021-08-31 07:25:55.952,1007.0,31.0,9.0,1007.5172455099714,1,1,1,0.0,3.0
2021-08-31 07:25:55.961,972.0,66.0,-2.0,974.2402167843412,1,1,1,0.0,3.0
2021-08-31 07:25:55.971,1041.0,36.0,8.0,1041.6530132438536,1,1,1,0.0,3.0
2021-08-31 07:25:55.981,1001.0,53.0,6.0,1002.420071626661,1,1,1,0.0,3.0
2021-08-31 07:25:55.990,1013.0,-1.0,6.0,1013.0182624217592,1,1,1,0.0,3.0
2021-08-31 07:25:55.991,1013.0,-1.0,-2.0,1013.0024679140718,1,1,1,0.0,3.0
2021-08-31 07:25:56.001,974.0,57.0,6.0,975.6848876558456,1,1,1,0.0,3.0
2021-08-31 07:25:56.010,1036.0,57.0,6.0,1037.5842134496845,1,1,1,0.0,3.0
2021-08-31 07:25:56.011,1036.0,40.0,3.0,1036.776253586086,1,1,1,0.0,3.0
2021-08-31 07:25:56.020,1020.0,56.0,15.0,1021.64622056757,1,1,1,0.0,3.0
2021-08-31 07:25:56.029,994.0,36.0,15.0,994.7647963212208,1,1,1,0.0,3.0
2021-08-31 07:25:56.030,994.0,36.0,-1.0,994.6522005203628,1,1,1,0.0,3.0
2021-08-31 07:25:56.044,997.0,69.0,-1.0,999.3853110787652,1,1,1,0.0,3.0
2021-08-31 07:25:56.045,997.0,69.0,14.0,999.4828662863612,1,1,1,0.0,3.0
2021-08-31 07:25:56.049,1028.0,47.0,15.0,1029.1831712576727,1,1,1,0.0,3.0
2021-08-31 07:25:56.059,1025.0,47.0,0.0,1026.0769951616692,1,1,1,0.0,3.0
2021-08-31 07:25:56.069,1011.0,22.0,3.0,1011.2437886088596,1,1,1,0.0,3.0
2021-08-31 07:25:56.079,998.0,48.0,6.0,999.171656923874,1,1,1,0.0,3.0
2021-08-31 07:25:56.089,1033.0,54.0,6.0,1034.427861187043,1,1,1,0.0,3.0
2021-08-31 07:25:56.090,1033.0,54.0,15.0,1034.5192120014012,1,1,1,0.0,3.0
2021-08-31 07:25:56.106,999.0,54.0,15.0,1000.5708370725184,1,1,1,0.0,3.0
2021-08-31 07:25:56.107,999.0,28.0,2.0,999.3943165737936,1,1,1,0.0,3.0
2021-08-31 07:25:56.109,998.0,40.0,2.0,998.8032839353302,1,1,1,0.0,3.0
2021-08-31 07:25:56.119,979.0,82.0,3.0,982.432694895686,1,1,1,0.0,3.0
2021-08-31 07:25:56.129,1033.0,44.0,14.0,1034.0314308569154,1,1,1,0.0,3.0
2021-08-31 07:25:56.137,1018.0,32.0,3.0,1018.5072410150062,1,1,1,0.0,3.0
2021-08-31 07:25:56.147,981.0,38.0,4.0,981.7438566143412,1,1,1,0.0,3.0
2021-08-31 07:25:56.157,982.0,64.0,8.0,984.1158468391818,1,1,1,0.0,3.0
2021-08-31 07:25:56.166,1041.0,28.0,14.0,1041.4705948801436,1,1,1,0.0,3.0
2021-08-31 07:25:56.177,1012.0,33.0,4.0,1012.5458014331994,1,1,1,0.0,3.0
2021-08-31 07:25:56.186,991.0,24.0,3.0,991.2951124665146,1,1,1,0.0,3.0
2021-08-31 07:25:56.195,1015.0,24.0,3.0,1015.2881364420645,1,1,1,0.0,3.0
2021-08-31 07:25:56.196,1015.0,49.0,3.0,1016.1864986310336,1,1,1,0.0,3.0
2021-08-31 07:25:56.205,1049.0,29.0,3.0,1049.405069551315,1,1,1,0.0,3.0
2021-08-31 07:25:56.206,1049.0,29.0,10.0,1049.4484265555882,1,1,1,0.0,3.0
2021-08-31 07:25:56.216,1005.0,63.0,8.0,1007.004468709052,1,1,1,0.0,3.0
2021-08-31 07:25:56.228,996.0,31.0,-3.0,996.4868288141092,1,1,1,0.0,3.0
2021-08-31 07:25:56.235,1011.0,46.0,6.0,1012.0637331709896,1,1,1,0.0,3.0
2021-08-31 07:25:56.244,1024.0,48.0,6.0,1025.1419413915323,1,1,1,0.0,3.0
2021-08-31 07:25:56.245,1024.0,48.0,20.0,1025.319462411594,1,1,1,0.0,3.0
2021-08-31 07:25:56.254,995.0,45.0,9.0,996.0577292506696,1,1,1,0.0,3.0
2021-08-31 07:25:56.264,988.0,46.0,0.0,989.0702705066004,1,1,1,0.0,3.0
2021-08-31 07:25:56.274,1011.0,52.0,-6.0,1012.3541870313968,1,1,1,0.0,3.0
2021-08-31 07:25:56.284,1032.0,43.0,19.0,1033.0701815462492,1,1,1,0.0,3.0
2021-08-31 07:25:56.293,1006.0,37.0,9.0,1006.720417991013,1,1,1,0.0,3.0
2021-08-31 07:25:56.303,972.0,81.0,2.0,975.371211385696,1,1,1,0.0,3.0
2021-08-31 07:25:56.313,1002.0,52.0,0.0,1003.3483941283804,1,1,1,0.0,3.0
2021-08-31 07:25:56.324,1031.0,45.0,20.0,1032.175372695939,1,1,1,0.0,3.0
2021-08-31 07:25:56.333,1002.0,28.0,0.0,1002.3911412218288,1,1,1,0.0,3.0
2021-08-31 07:25:56.342,995.0,28.0,0.0,995.393891884012,1,1,1,0.0,3.0
2021-08-31 07:25:56.343,995.0,46.0,4.0,996.070780617522,1,1,1,0.0,3.0
2021-08-31 07:25:56.352,1016.0,52.0,7.0,1017.3539207178592,1,1,1,0.0,3.0
2021-08-31 07:25:56.362,1036.0,44.0,17.0,1037.0732857421408,1,1,1,0.0,3.0
2021-08-31 07:25:56.372,1022.0,34.0,6.0,1022.5830039659372,1,1,1,0.0,3.0
2021-08-31 07:25:56.382,983.0,47.0,-8.0,984.1554755220336,1,1,1,0.0,3.0
2021-08-31 07:25:56.391,1036.0,44.0,17.0,1037.0732857421408,1,1,1,0.0,3.0
2021-08-31 07:25:56.401,1027.0,30.0,11.0,1027.4969586329685,1,1,1,0.0,3.0
2021-08-31 07:25:56.410,994.0,34.0,11.0,994.6421467040294,1,1,1,0.0,3.0
2021-08-31 07:25:56.411,994.0,34.0,2.0,994.5833298422008,1,1,1,0.0,3.0
2021-08-31 07:25:56.420,988.0,34.0,0.0,988.5848471426214,1,1,1,0.0,3.0
2021-08-31 07:25:56.430,1024.0,34.0,0.0,1024.5642976407094,1,1,1,0.0,3.0
2021-08-31 07:25:56.431,1024.0,43.0,16.0,1025.0273167091696,1,1,1,0.0,3.0
2021-08-31 07:25:56.440,1024.0,56.0,14.0,1025.6256627054531,1,1,1,0.0,3.0
2021-08-31 07:25:56.449,995.0,20.0,14.0,995.2994524262534,1,1,1,0.0,3.0
2021-08-31 07:25:56.450,995.0,20.0,7.0,995.2256025645644,1,1,1,0.0,3.0
2021-08-31 07:25:56.459,994.0,51.0,7.0,995.3321053799078,1,1,1,0.0,3.0
2021-08-31 07:25:56.469,1013.0,51.0,7.0,1014.3071526909392,1,1,1,0.0,3.0
2021-08-31 07:25:56.470,1013.0,45.0,14.0,1014.0956562376156,1,1,1,0.0,3.0
2021-08-31 07:25:56.480,1034.0,42.0,12.0,1034.9222192995956,1,1,1,0.0,3.0
2021-08-31 07:25:56.488,1004.0,42.0,12.0,1004.9497499875304,1,1,1,0.0,3.0
2021-08-31 07:25:56.489,1004.0,26.0,0.0,1004.3365969633886,1,1,1,0.0,3.0
2021-08-31 07:25:56.499,996.0,55.0,0.0,997.5174183942856,1,1,1,0.0,3.0
2021-08-31 07:25:56.508,1038.0,44.0,24.0,1039.2093148158365,1,1,1,0.0,3.0
2021-08-31 07:25:56.518,1016.0,69.0,14.0,1018.4365468697596,1,1,1,0.0,3.0
2021-08-31 07:25:56.528,1004.0,35.0,9.0,1004.6501878763572,1,1,1,0.0,3.0
2021-08-31 07:25:56.538,985.0,72.0,0.0,987.6279663922038,1,1,1,0.0,3.0
2021-08-31 07:25:56.547,1047.0,38.0,16.0,1047.811528854307,1,1,1,0.0,3.0
2021-08-31 07:25:56.557,1012.0,61.0,17.0,1013.9792897293318,1,1,1,0.0,3.0
2021-08-31 07:25:56.569,993.0,33.0,-1.0,993.5486903015876,1,1,1,0.0,3.0
2021-08-31 07:25:56.576,982.0,45.0,-1.0,983.0310269772772,1,1,1,0.0,3.0
2021-08-31 07:25:56.577,982.0,45.0,-2.0,983.0325528689272,1,1,1,0.0,3.0
2021-08-31 07:25:56.587,1037.0,40.0,14.0,1037.8655982351472,1,1,1,0.0,3.0
2021-08-31 07:25:56.597,1029.0,41.0,12.0,1029.8864015026122,1,1,1,0.0,3.0
2021-08-31 07:25:56.606,979.0,36.0,2.0,979.6637178134138,1,1,1,0.0,3.0
2021-08-31 07:25:56.615,1008.0,36.0,2.0,1008.644635141634,1,1,1,0.0,3.0
2021-08-31 07:25:56.616,1008.0,65.0,9.0,1010.1336545230042,1,1,1,0.0,3.0
2021-08-31 07:25:56.626,1035.0,35.0,17.0,1035.731142719963,1,1,1,0.0,3.0
2021-08-31 07:25:56.635,1016.0,42.0,17.0,1017.0098327941574,1,1,1,0.0,3.0
2021-08-31 07:25:56.636,1016.0,42.0,8.0,1016.8992083780968,1,1,1,0.0,3.0
2021-08-31 07:25:56.645,1006.0,42.0,8.0,1006.9081388090972,1,1,1,0.0,3.0
2021-08-31 07:25:56.646,1006.0,13.0,-4.0,1006.0919441084897,1,1,1,0.0,3.0
2021-08-31 07:25:56.655,997.0,59.0,9.0,998.7847615978128,1,1,1,0.0,3.0
2021-08-31 07:25:56.664,1036.0,13.0,17.0,1036.2210188951003,1,1,1,0.0,3.0
2021-08-31 07:25:56.674,1016.0,51.0,1.0,1017.2797058823104,1,1,1,0.0,3.0
2021-08-31 07:25:56.684,996.0,46.0,-4.0,997.0697066905605,1,1,1,0.0,3.0
2021-08-31 07:25:56.694,992.0,69.0,-4.0,994.4048471321928,1,1,1,0.0,3.0
2021-08-31 07:25:56.695,992.0,69.0,11.0,994.457641129073,1,1,1,0.0,3.0
2021-08-31 07:25:56.703,1034.0,44.0,13.0,1035.0173911582356,1,1,1,0.0,3.0
2021-08-31 07:25:56.729,1018.0,48.0,9.0,1019.1707413382704,1,1,1,0.0,3.0
2021-08-31 07:25:56.735,987.0,52.0,2.0,988.3708818050034,1,1,1,0.0,3.0
2021-08-31 07:25:56.743,1031.0,42.0,12.0,1031.924900368239,1,1,1,0.0,3.0
2021-08-31 07:25:56.753,1017.0,42.0,12.0,1017.9376208786076,1,1,1,0.0,3.0
2021-08-31 07:25:56.754,1017.0,26.0,0.0,1017.3322957618124,1,1,1,0.0,3.0
2021-08-31 07:25:56.762,997.0,38.0,-4.0,997.7319279245304,1,1,1,0.0,3.0
2021-08-31 07:25:56.772,1021.0,61.0,15.0,1022.930593930986,1,1,1,0.0,3.0
2021-08-31 07:25:56.781,1049.0,43.0,15.0,1049.9880951706073,1,1,1,0.0,3.0
2021-08-31 07:25:56.782,1049.0,43.0,22.0,1050.1114226595196,1,1,1,0.0,3.0
2021-08-31 07:25:56.802,1009.0,34.0,-2.0,1009.5746629150318,1,1,1,0.0,3.0
2021-08-31 07:25:56.804,987.0,29.0,-2.0,987.4279720566964,1,1,1,0.0,3.0
2021-08-31 07:25:56.811,1012.0,42.0,10.0,1012.9205299528684,1,1,1,0.0,3.0
2021-08-31 07:25:56.821,1024.0,35.0,8.0,1024.6292012235451,1,1,1,0.0,3.0
2021-08-31 07:25:56.831,1016.0,35.0,8.0,1016.6341524855438,1,1,1,0.0,3.0
2021-08-31 07:25:56.832,1016.0,30.0,0.0,1016.4428168864198,1,1,1,0.0,3.0
2021-08-31 07:25:56.840,992.0,37.0,0.0,992.6897803442928,1,1,1,0.0,3.0
2021-08-31 07:25:56.850,1019.0,34.0,7.0,1019.5910945079896,1,1,1,0.0,3.0
2021-08-31 07:25:56.860,1015.0,53.0,13.0,1016.465936468114,1,1,1,0.0,3.0
2021-08-31 07:25:56.869,1000.0,31.0,4.0,1000.4883807421254,1,1,1,0.0,3.0
2021-08-31 07:25:56.880,1021.0,0.0,-2.0,1021.0019588619798,1,1,1,0.0,3.0
2021-08-31 07:25:56.889,1008.0,0.0,-2.0,1008.0019841250314,1,1,1,0.0,3.0
2021-08-31 07:25:56.890,1008.0,51.0,6.0,1009.3071881246066,1,1,1,0.0,3.0
2021-08-31 07:25:56.899,1036.0,18.0,2.0,1036.1582890659129,1,1,1,0.0,3.0
2021-08-31 07:25:56.909,1008.0,32.0,10.0,1008.5573855760514,1,1,1,0.0,3.0
2021-08-31 07:25:56.918,990.0,61.0,-1.0,991.8780166935852,1,1,1,0.0,3.0
2021-08-31 07:25:56.928,999.0,65.0,-1.0,1001.1128807482202,1,1,1,0.0,3.0
2021-08-31 07:25:56.929,999.0,65.0,3.0,1001.1168762936724,1,1,1,0.0,3.0
2021-08-31 07:25:56.939,1020.0,48.0,9.0,1021.1684483962478,1,1,1,0.0,3.0
2021-08-31 07:25:56.951,1013.0,19.0,6.0,1013.1959336673236,1,1,1,0.0,3.0
2021-08-31 07:25:56.958,969.0,73.0,0.0,971.7458515476152,1,1,1,0.0,3.0
2021-08-31 07:25:56.967,1032.0,33.0,9.0,1032.5667048670512,1,1,1,0.0,3.0
2021-08-31 07:25:56.977,1004.0,51.0,12.0,1005.3661024721292,1,1,1,0.0,3.0
2021-08-31 07:25:56.987,1008.0,31.0,8.0,1008.508304378303,1,1,1,0.0,3.0
2021-08-31 07:25:56.996,978.0,51.0,6.0,979.347231578259,1,1,1,0.0,3.0
2021-08-31 07:25:57.006,1033.0,40.0,6.0,1033.7915650652214,1,1,1,0.0,3.0
2021-08-31 07:25:57.007,1033.0,40.0,6.0,1033.7915650652214,1,1,1,0.0,3.0
2021-08-31 07:25:57.016,1018.0,40.0,6.0,1018.803219468804,1,1,1,0.0,3.0
2021-08-31 07:25:57.017,1018.0,53.0,12.0,1019.4493611749432,1,1,1,0.0,3.0
2021-08-31 07:25:57.026,1006.0,23.0,6.0,1006.2807759268782,1,1,1,0.0,3.0
2021-08-31 07:25:57.035,988.0,21.0,6.0,988.2413672782576,1,1,1,0.0,3.0
2021-08-31 07:25:57.036,988.0,21.0,-3.0,988.2277065535048,1,1,1,0.0,3.0
2021-08-31 07:25:57.046,1035.0,28.0,9.0,1035.4177900731663,1,1,1,0.0,3.0
2021-08-31 07:25:57.061,1012.0,32.0,8.0,1012.5374067164136,1,1,1,0.0,3.0
2021-08-31 07:25:57.065,1013.0,16.0,0.0,1013.1263494747336,1,1,1,0.0,3.0
2021-08-31 07:25:57.074,999.0,49.0,0.0,1000.2009798035592,1,1,1,0.0,3.0
2021-08-31 07:25:57.075,999.0,49.0,0.0,1000.2009798035592,1,1,1,0.0,3.0
2021-08-31 07:25:57.085,1006.0,61.0,0.0,1007.8477067493878,1,1,1,0.0,3.0
2021-08-31 07:25:57.095,1010.0,54.0,8.0,1011.4741716919914,1,1,1,0.0,3.0
2021-08-31 07:25:57.104,1005.0,23.0,-1.0,1005.2636470100766,1,1,1,0.0,3.0
2021-08-31 07:25:57.122,977.0,91.0,3.0,981.2334075030262,1,1,1,0.0,3.0
2021-08-31 07:25:57.125,1037.0,51.0,3.0,1038.2576751462038,1,1,1,0.0,3.0
2021-08-31 07:25:57.126,1037.0,51.0,9.0,1038.2923480407626,1,1,1,0.0,3.0
2021-08-31 07:25:57.136,1016.0,60.0,10.0,1017.8192373894296,1,1,1,0.0,3.0
2021-08-31 07:25:57.143,1001.0,60.0,10.0,1002.8464488644312,1,1,1,0.0,3.0
2021-08-31 07:25:57.144,1001.0,42.0,6.0,1001.8986974739512,1,1,1,0.0,3.0
2021-08-31 07:25:57.153,1008.0,43.0,14.0,1009.0138750284856,1,1,1,0.0,3.0
2021-08-31 07:25:57.162,1016.0,72.0,13.0,1018.630943963514,1,1,1,0.0,3.0
2021-08-31 07:25:57.172,1016.0,72.0,13.0,1018.630943963514,1,1,1,0.0,3.0
2021-08-31 07:25:57.173,1016.0,34.0,16.0,1016.6946444237816,1,1,1,0.0,3.0
2021-08-31 07:25:57.183,995.0,40.0,-4.0,995.8117291938272,1,1,1,0.0,3.0
2021-08-31 07:25:57.192,983.0,67.0,-3.0,985.2852378879936,1,1,1,0.0,3.0
2021-08-31 07:25:57.201,1036.0,30.0,-3.0,1036.438613715255,1,1,1,0.0,3.0
2021-08-31 07:25:57.202,1036.0,30.0,8.0,1036.4651465437707,1,1,1,0.0,3.0
2021-08-31 07:25:57.211,1009.0,60.0,14.0,1010.879320196036,1,1,1,0.0,3.0
2021-08-31 07:25:57.221,1008.0,15.0,5.0,1008.1240003094856,1,1,1,0.0,3.0
2021-08-31 07:25:57.233,993.0,52.0,4.0,994.368643914318,1,1,1,0.0,3.0
2021-08-31 07:25:57.241,1039.0,44.0,21.0,1040.1432593638244,1,1,1,0.0,3.0
2021-08-31 07:25:57.251,1022.0,41.0,11.0,1022.8812247763668,1,1,1,0.0,3.0
2021-08-31 07:25:57.260,992.0,44.0,3.0,992.979858808828,1,1,1,0.0,3.0
2021-08-31 07:25:57.270,1016.0,51.0,6.0,1017.2969084785424,1,1,1,0.0,3.0
2021-08-31 07:25:57.280,1032.0,37.0,7.0,1032.6867869785108,1,1,1,0.0,3.0
2021-08-31 07:25:57.290,1008.0,37.0,7.0,1008.7031277833928,1,1,1,0.0,3.0
2021-08-31 07:25:57.291,1008.0,37.0,6.0,1008.6966838450496,1,1,1,0.0,3.0
2021-08-31 07:25:57.299,1017.0,37.0,6.0,1017.690522703243,1,1,1,0.0,3.0
2021-08-31 07:25:57.300,1017.0,-2.0,5.0,1017.0142575205128,1,1,1,0.0,3.0
2021-08-31 07:25:57.309,998.0,49.0,0.0,999.2021817430144,1,1,1,0.0,3.0
2021-08-31 07:25:57.319,1032.0,51.0,20.0,1033.4529500659428,1,1,1,0.0,3.0
2021-08-31 07:25:57.329,1009.0,44.0,11.0,1010.0188117059998,1,1,1,0.0,3.0
2021-08-31 07:25:57.339,991.0,44.0,11.0,992.0372976859288,1,1,1,0.0,3.0
2021-08-31 07:25:57.340,991.0,39.0,-5.0,991.7797134444723,1,1,1,0.0,3.0
2021-08-31 07:25:57.348,990.0,84.0,9.0,993.5980072443784,1,1,1,0.0,3.0
2021-08-31 07:25:57.358,1035.0,55.0,18.0,1036.6166118676665,1,1,1,0.0,3.0
2021-08-31 07:25:57.367,1021.0,16.0,18.0,1021.2839957621974,1,1,1,0.0,3.0
2021-08-31 07:25:57.368,1021.0,16.0,15.0,1021.2355262132236,1,1,1,0.0,3.0
2021-08-31 07:25:57.377,984.0,35.0,-12.0,984.6953843702122,1,1,1,0.0,3.0
2021-08-31 07:25:57.387,1014.0,35.0,-12.0,1014.6748247591444,1,1,1,0.0,3.0
2021-08-31 07:25:57.388,1014.0,47.0,16.0,1015.214755605926,1,1,1,0.0,3.0
2021-08-31 07:25:57.397,1018.0,64.0,7.0,1020.0338229686308,1,1,1,0.0,3.0
2021-08-31 07:25:57.407,1015.0,24.0,3.0,1015.2881364420645,1,1,1,0.0,3.0
2021-08-31 07:25:57.416,987.0,38.0,2.0,987.7332635889104,1,1,1,0.0,3.0
2021-08-31 07:25:57.426,1010.0,68.0,12.0,1012.3576443135104,1,1,1,0.0,3.0
2021-08-31 07:25:57.436,1030.0,46.0,12.0,1031.0965037279489,1,1,1,0.0,3.0
2021-08-31 07:25:57.437,1030.0,46.0,12.0,1031.0965037279489,1,1,1,0.0,3.0
2021-08-31 07:25:57.447,1008.0,40.0,-2.0,1008.7953211628214,1,1,1,0.0,3.0
2021-08-31 07:25:57.456,1002.0,25.0,-12.0,1002.383659084684,1,1,1,0.0,3.0
2021-08-31 07:25:57.465,1021.0,40.0,10.0,1021.832178001848,1,1,1,0.0,3.0
2021-08-31 07:25:57.475,1023.0,48.0,15.0,1024.2353245226411,1,1,1,0.0,3.0
2021-08-31 07:25:57.485,1004.0,29.0,6.0,1004.4366580327502,1,1,1,0.0,3.0
2021-08-31 07:25:57.495,989.0,59.0,0.0,990.7582954484914,1,1,1,0.0,3.0
2021-08-31 07:25:57.504,1017.0,59.0,0.0,1018.7099685386416,1,1,1,0.0,3.0
2021-08-31 07:25:57.505,1017.0,45.0,1.0,1017.9955795581826,1,1,1,0.0,3.0
2021-08-31 07:25:57.515,1016.0,53.0,18.0,1017.5406625781596,1,1,1,0.0,3.0
2021-08-31 07:25:57.524,1011.0,23.0,0.0,1011.2615883143194,1,1,1,0.0,3.0
2021-08-31 07:25:57.534,988.0,75.0,-2.0,990.8445892267868,1,1,1,0.0,3.0
2021-08-31 07:25:57.544,1052.0,28.0,15.0,1052.4794534811597,1,1,1,0.0,3.0
2021-08-31 07:25:57.554,1040.0,40.0,16.0,1040.8919252256692,1,1,1,0.0,3.0
2021-08-31 07:25:57.564,999.0,37.0,0.0,999.684950371866,1,1,1,0.0,3.0
2021-08-31 07:25:57.572,988.0,54.0,0.0,989.4746080622788,1,1,1,0.0,3.0
2021-08-31 07:25:57.573,988.0,54.0,-2.0,989.4766293349228,1,1,1,0.0,3.0
2021-08-31 07:25:57.582,1027.0,47.0,12.0,1028.1449314177453,1,1,1,0.0,3.0
2021-08-31 07:25:57.593,1020.0,40.0,2.0,1020.785971690442,1,1,1,0.0,3.0
2021-08-31 07:25:57.603,1016.0,30.0,9.0,1016.4826609441008,1,1,1,0.0,3.0
2021-08-31 07:25:57.612,977.0,64.0,-6.0,979.1123531035648,1,1,1,0.0,3.0
2021-08-31 07:25:57.621,1036.0,47.0,2.0,1037.0675002139446,1,1,1,0.0,3.0
2021-08-31 07:25:57.631,1015.0,50.0,4.0,1016.2386530731844,1,1,1,0.0,3.0
2021-08-31 07:25:57.641,1012.0,4.0,7.0,1012.0321141149624,1,1,1,0.0,3.0
2021-08-31 07:25:57.652,1008.0,44.0,7.0,1008.9841425909528,1,1,1,0.0,3.0
2021-08-31 07:25:57.660,1033.0,48.0,7.0,1034.138288624882,1,1,1,0.0,3.0
2021-08-31 07:25:57.661,1033.0,48.0,5.0,1034.1266846958356,1,1,1,0.0,3.0
2021-08-31 07:25:57.671,1021.0,37.0,9.0,1021.709841393338,1,1,1,0.0,3.0
2021-08-31 07:25:57.680,1000.0,36.0,0.0,1000.6477901839388,1,1,1,0.0,3.0
2021-08-31 07:25:57.690,995.0,69.0,3.0,997.3941046547249,1,1,1,0.0,3.0
2021-08-31 07:25:57.699,1033.0,69.0,3.0,1035.306234888982,1,1,1,0.0,3.0
2021-08-31 07:25:57.700,1033.0,46.0,15.0,1034.1324866766347,1,1,1,0.0,3.0
2021-08-31 07:25:57.711,1016.0,50.0,13.0,1017.3126363119648,1,1,1,0.0,3.0
2021-08-31 07:25:57.719,1006.0,50.0,13.0,1007.32566729931,1,1,1,0.0,3.0
2021-08-31 07:25:57.720,1006.0,33.0,4.0,1006.5490549396984,1,1,1,0.0,3.0
2021-08-31 07:25:57.729,990.0,49.0,4.0,991.2199554084856,1,1,1,0.0,3.0
2021-08-31 07:25:57.753,1034.0,26.0,15.0,1034.4355949018768,1,1,1,0.0,3.0
2021-08-31 07:25:57.754,1017.0,19.0,7.0,1017.2015532823376,1,1,1,0.0,3.0
2021-08-31 07:25:57.759,1005.0,37.0,0.0,1005.6808638927162,1,1,1,0.0,3.0
2021-08-31 07:25:57.768,985.0,37.0,0.0,985.6946788940276,1,1,1,0.0,3.0
2021-08-31 07:25:57.769,985.0,72.0,0.0,987.6279663922038,1,1,1,0.0,3.0
2021-08-31 07:25:57.778,1038.0,52.0,18.0,1039.457550840822,1,1,1,0.0,3.0
2021-08-31 07:25:57.788,1016.0,29.0,14.0,1016.5102065400032,1,1,1,0.0,3.0
2021-08-31 07:25:57.798,986.0,39.0,-1.0,986.7715034393729,1,1,1,0.0,3.0
2021-08-31 07:25:57.814,1007.0,55.0,4.0,1008.5088001599192,1,1,1,0.0,3.0
2021-08-31 07:25:57.818,1027.0,41.0,4.0,1027.8258607371192,1,1,1,0.0,3.0
2021-08-31 07:25:57.819,1027.0,41.0,17.0,1027.9586567561946,1,1,1,0.0,3.0
2021-08-31 07:25:57.826,1011.0,41.0,0.0,1011.8310135590824,1,1,1,0.0,3.0
2021-08-31 07:25:57.837,997.0,33.0,-1.0,997.546490144695,1,1,1,0.0,3.0
2021-08-31 07:25:57.848,1018.0,56.0,2.0,1019.5410732285384,1,1,1,0.0,3.0
2021-08-31 07:25:57.856,1012.0,74.0,13.0,1014.7851989460628,1,1,1,0.0,3.0
2021-08-31 07:25:57.865,1014.0,46.0,13.0,1015.1261005412086,1,1,1,0.0,3.0
2021-08-31 07:25:57.866,1014.0,46.0,4.0,1015.0507376481236,1,1,1,0.0,3.0
2021-08-31 07:25:57.875,1005.0,14.0,4.0,1005.105467102831,1,1,1,0.0,3.0
2021-08-31 07:25:57.885,1025.0,42.0,1.0,1025.86061431366,1,1,1,0.0,3.0
2021-08-31 07:25:57.896,1024.0,44.0,14.0,1025.0404870052694,1,1,1,0.0,3.0
2021-08-31 07:25:57.904,1000.0,44.0,14.0,1001.065432426872,1,1,1,0.0,3.0
2021-08-31 07:25:57.905,1000.0,46.0,0.0,1001.0574409093616,1,1,1,0.0,3.0
2021-08-31 07:25:57.914,1000.0,21.0,2.0,1000.2224752523812,1,1,1,0.0,3.0
2021-08-31 07:25:57.924,996.0,91.0,2.0,1000.1504886765792,1,1,1,0.0,3.0
2021-08-31 07:25:57.925,996.0,91.0,6.0,1000.1664861411824,1,1,1,0.0,3.0
2021-08-31 07:25:57.934,1013.0,58.0,18.0,1014.8187030203968,1,1,1,0.0,3.0
2021-08-31 07:25:57.945,1018.0,19.0,3.0,1018.1817126623322,1,1,1,0.0,3.0
2021-08-31 07:25:57.953,973.0,89.0,3.0,977.0665279293934,1,1,1,0.0,3.0
2021-08-31 07:25:57.954,973.0,89.0,0.0,977.0619222956136,1,1,1,0.0,3.0
2021-08-31 07:25:57.963,1011.0,40.0,0.0,1011.7909863207916,1,1,1,0.0,3.0
2021-08-31 07:25:57.973,1024.0,47.0,19.0,1025.254114841779,1,1,1,0.0,3.0
2021-08-31 07:25:57.983,1010.0,41.0,7.0,1010.856072841233,1,1,1,0.0,3.0
2021-08-31 07:25:57.993,998.0,55.0,0.0,999.5143820876216,1,1,1,0.0,3.0
2021-08-31 07:25:58.003,1031.0,55.0,0.0,1032.4659800690772,1,1,1,0.0,3.0
2021-08-31 07:25:58.004,1031.0,42.0,5.0,1031.8672395226045,1,1,1,0.0,3.0
2021-08-31 07:25:58.012,1026.0,37.0,11.0,1026.7258640942089,1,1,1,0.0,3.0
2021-08-31 07:25:58.022,1004.0,55.0,15.0,1005.6172234006336,1,1,1,0.0,3.0
2021-08-31 07:25:58.031,986.0,55.0,15.0,987.6466979644088,1,1,1,0.0,3.0
2021-08-31 07:25:58.032,986.0,49.0,-3.0,987.2213530915952,1,1,1,0.0,3.0
2021-08-31 07:25:58.041,1040.0,40.0,17.0,1040.907776894764,1,1,1,0.0,3.0
2021-08-31 07:25:58.052,1016.0,36.0,0.0,1016.637595212768,1,1,1,0.0,3.0
2021-08-31 07:25:58.065,1013.0,8.0,0.0,1013.0315888460734,1,1,1,0.0,3.0
2021-08-31 07:25:58.066,1013.0,8.0,0.0,1013.0315888460734,1,1,1,0.0,3.0
2021-08-31 07:25:58.073,994.0,32.0,-11.0,994.5757889673366,1,1,1,0.0,3.0
2021-08-31 07:25:58.080,1036.0,48.0,0.0,1037.111372997134,1,1,1,0.0,3.0
2021-08-31 07:25:58.090,1016.0,49.0,5.0,1017.1931969886548,1,1,1,0.0,3.0
2021-08-31 07:25:58.100,995.0,48.0,1.0,996.157618050477,1,1,1,0.0,3.0
2021-08-31 07:25:58.110,1006.0,49.0,2.0,1007.1946187306602,1,1,1,0.0,3.0
2021-08-31 07:25:58.121,1025.0,55.0,17.0,1026.615312568442,1,1,1,0.0,3.0
2021-08-31 07:25:58.130,1022.0,55.0,17.0,1023.6200466970154,1,1,1,0.0,3.0
2021-08-31 07:25:58.131,1022.0,44.0,7.0,1022.970674066466,1,1,1,0.0,3.0
2021-08-31 07:25:58.139,994.0,37.0,5.0,994.7009600880056,1,1,1,0.0,3.0
2021-08-31 07:25:58.159,996.0,45.0,4.0,997.0240719260494,1,1,1,0.0,3.0
2021-08-31 07:25:58.161,1038.0,46.0,19.0,1039.1924749535092,1,1,1,0.0,3.0
2021-08-31 07:25:58.170,1012.0,56.0,11.0,1013.6079123605932,1,1,1,0.0,3.0
2021-08-31 07:25:58.178,999.0,28.0,6.0,999.4103261423708,1,1,1,0.0,3.0
2021-08-31 07:25:58.188,996.0,67.0,4.0,998.2589844323968,1,1,1,0.0,3.0
2021-08-31 07:25:58.197,1024.0,64.0,4.0,1026.0058479365505,1,1,1,0.0,3.0
2021-08-31 07:25:58.198,1024.0,64.0,7.0,1026.0219295902014,1,1,1,0.0,3.0
2021-08-31 07:25:58.208,1023.0,29.0,10.0,1023.4598184589368,1,1,1,0.0,3.0
2021-08-31 07:25:58.218,999.0,44.0,0.0,999.9684995038592,1,1,1,0.0,3.0
2021-08-31 07:25:58.228,1001.0,51.0,-3.0,1002.3028484445208,1,1,1,0.0,3.0
2021-08-31 07:25:58.236,1037.0,51.0,-3.0,1038.2576751462038,1,1,1,0.0,3.0
2021-08-31 07:25:58.237,1037.0,48.0,14.0,1038.204700432434,1,1,1,0.0,3.0
2021-08-31 07:25:58.246,1010.0,48.0,14.0,1011.236866416568,1,1,1,0.0,3.0
2021-08-31 07:25:58.247,1010.0,23.0,12.0,1010.3331133838976,1,1,1,0.0,3.0
2021-08-31 07:25:58.256,993.0,29.0,-4.0,993.4314269238718,1,1,1,0.0,3.0
2021-08-31 07:25:58.266,997.0,62.0,3.0,998.9304280078768,1,1,1,0.0,3.0
2021-08-31 07:25:58.277,1051.0,18.0,15.0,1051.2611473844163,1,1,1,0.0,3.0
2021-08-31 07:25:58.285,1001.0,54.0,15.0,1002.5677034494976,1,1,1,0.0,3.0
2021-08-31 07:25:58.286,1001.0,54.0,7.0,1002.4799249860318,1,1,1,0.0,3.0
2021-08-31 07:25:58.295,1014.0,1.0,5.0,1014.0128204317734,1,1,1,0.0,3.0
2021-08-31 07:25:58.307,1010.0,1.0,5.0,1010.0128712051148,1,1,1,0.0,3.0
2021-08-31 07:25:58.308,1010.0,39.0,7.0,1010.7769289017236,1,1,1,0.0,3.0
2021-08-31 07:25:58.315,1039.0,39.0,7.0,1039.755259664504,1,1,1,0.0,3.0
2021-08-31 07:25:58.316,1039.0,33.0,5.0,1039.5359541641649,1,1,1,0.0,3.0
2021-08-31 07:25:58.326,1020.0,32.0,10.0,1020.5508316590603,1,1,1,0.0,3.0
2021-08-31 07:25:58.334,989.0,34.0,-7.0,989.609013701876,1,1,1,0.0,3.0
2021-08-31 07:25:58.344,1003.0,75.0,3.0,1005.8046530017646,1,1,1,0.0,3.0
2021-08-31 07:25:58.354,1024.0,55.0,12.0,1025.5461959365848,1,1,1,0.0,3.0
2021-08-31 07:25:58.364,1015.0,36.0,2.0,1015.6401921940663,1,1,1,0.0,3.0
2021-08-31 07:25:58.375,1003.0,30.0,2.0,1003.4505468631726,1,1,1,0.0,3.0
2021-08-31 07:25:58.384,1005.0,53.0,2.0,1006.3985294106902,1,1,1,0.0,3.0
2021-08-31 07:25:58.385,1005.0,53.0,13.0,1006.4805015498312,1,1,1,0.0,3.0
2021-08-31 07:25:58.393,1038.0,39.0,24.0,1039.009624594498,1,1,1,0.0,3.0
2021-08-31 07:25:58.402,1001.0,39.0,24.0,1002.0469050897768,1,1,1,0.0,3.0
2021-08-31 07:25:58.403,1001.0,35.0,2.0,1001.6136979893996,1,1,1,0.0,3.0
2021-08-31 07:25:58.412,991.0,36.0,-8.0,991.685938188094,1,1,1,0.0,3.0
2021-08-31 07:25:58.422,995.0,66.0,13.0,997.2712770354916,1,1,1,0.0,3.0
2021-08-31 07:25:58.433,1033.0,54.0,19.0,1034.5849409304196,1,1,1,0.0,3.0
2021-08-31 07:25:58.442,1016.0,20.0,10.0,1016.2460332025902,1,1,1,0.0,3.0
2021-08-31 07:25:58.451,988.0,32.0,0.0,988.518082788575,1,1,1,0.0,3.0
2021-08-31 07:25:58.461,1032.0,32.0,14.0,1032.5909160940746,1,1,1,0.0,3.0
2021-08-31 07:25:58.471,1031.0,43.0,12.0,1031.9660847140278,1,1,1,0.0,3.0
2021-08-31 07:25:58.482,1012.0,27.0,3.0,1012.3645588423176,1,1,1,0.0,3.0
2021-08-31 07:25:58.490,988.0,44.0,3.0,988.9838219101464,1,1,1,0.0,3.0
2021-08-31 07:25:58.491,988.0,44.0,0.0,988.979271774692,1,1,1,0.0,3.0
2021-08-31 07:25:58.500,1025.0,40.0,14.0,1025.8757234675163,1,1,1,0.0,3.0
2021-08-31 07:25:58.511,1013.0,46.0,13.0,1014.127210955312,1,1,1,0.0,3.0
2021-08-31 07:25:58.520,999.0,34.0,-9.0,999.6189273918336,1,1,1,0.0,3.0
2021-08-31 07:25:58.530,995.0,27.0,0.0,995.3662642464832,1,1,1,0.0,3.0
2021-08-31 07:25:58.541,1016.0,38.0,16.0,1016.83627000614,1,1,1,0.0,3.0
2021-08-31 07:25:58.549,1023.0,56.0,15.0,1024.6414006861132,1,1,1,0.0,3.0
2021-08-31 07:25:58.559,1013.0,19.0,2.0,1013.180141929361,1,1,1,0.0,3.0
2021-08-31 07:25:58.569,989.0,58.0,3.0,990.7037902420684,1,1,1,0.0,3.0
2021-08-31 07:25:58.578,1015.0,58.0,3.0,1016.6602185587868,1,1,1,0.0,3.0
2021-08-31 07:25:58.579,1015.0,56.0,14.0,1016.6400542965048,1,1,1,0.0,3.0
2021-08-31 07:25:58.589,1024.0,56.0,14.0,1025.6256627054531,1,1,1,0.0,3.0
2021-08-31 07:25:58.590,1024.0,60.0,17.0,1025.8971683360862,1,1,1,0.0,3.0
2021-08-31 07:25:58.598,1009.0,31.0,4.0,1009.48402661954,1,1,1,0.0,3.0
2021-08-31 07:25:58.608,991.0,69.0,1.0,993.399718139682,1,1,1,0.0,3.0
2021-08-31 07:25:58.617,1031.0,69.0,1.0,1033.3068276170443,1,1,1,0.0,3.0
2021-08-31 07:25:58.618,1031.0,41.0,9.0,1031.8541563612564,1,1,1,0.0,3.0
2021-08-31 07:25:58.628,1035.0,28.0,11.0,1035.4371057674146,1,1,1,0.0,3.0
2021-08-31 07:25:58.638,996.0,33.0,6.0,996.564599010019,1,1,1,0.0,3.0
2021-08-31 07:25:58.647,982.0,33.0,6.0,982.5726436248874,1,1,1,0.0,3.0
2021-08-31 07:25:58.648,982.0,55.0,-5.0,983.5517271602952,1,1,1,0.0,3.0
2021-08-31 07:25:58.656,1034.0,55.0,-5.0,1035.4738045938198,1,1,1,0.0,3.0
2021-08-31 07:25:58.657,1034.0,29.0,7.0,1034.4302779791396,1,1,1,0.0,3.0
2021-08-31 07:25:58.666,1012.0,42.0,7.0,1012.8953549108614,1,1,1,0.0,3.0
2021-08-31 07:25:58.676,995.0,31.0,0.0,995.4827974405184,1,1,1,0.0,3.0
2021-08-31 07:25:58.686,980.0,72.0,0.0,982.6413384343242,1,1,1,0.0,3.0
2021-08-31 07:25:58.697,1040.0,31.0,15.0,1040.5700360859908,1,1,1,0.0,3.0
2021-08-31 07:25:58.705,1015.0,59.0,10.0,1016.7625091436051,1,1,1,0.0,3.0
2021-08-31 07:25:58.717,1002.0,8.0,1.0,1002.0324346047886,1,1,1,0.0,3.0
2021-08-31 07:25:58.725,992.0,52.0,-6.0,993.3800883851056,1,1,1,0.0,3.0
2021-08-31 07:25:58.735,1027.0,52.0,-6.0,1028.3331172339049,1,1,1,0.0,3.0
2021-08-31 07:25:58.736,1027.0,39.0,4.0,1027.748023593332,1,1,1,0.0,3.0
2021-08-31 07:25:58.746,1015.0,43.0,17.0,1016.0526561158138,1,1,1,0.0,3.0
2021-08-31 07:25:58.770,1003.0,40.0,-1.0,1003.7977884016284,1,1,1,0.0,3.0
2021-08-31 07:25:58.777,1028.0,53.0,19.0,1029.540674281497,1,1,1,0.0,3.0
2021-08-31 07:25:58.783,1018.0,35.0,19.0,1018.778680577877,1,1,1,0.0,3.0
2021-08-31 07:25:58.784,1018.0,35.0,15.0,1018.7119318040798,1,1,1,0.0,3.0
2021-08-31 07:25:58.795,1002.0,20.0,7.0,1002.2240268522802,1,1,1,0.0,3.0
2021-08-31 07:25:58.803,998.0,34.0,0.0,998.5789903658098,1,1,1,0.0,3.0
2021-08-31 07:25:58.813,1030.0,49.0,15.0,1031.2739694184083,1,1,1,0.0,3.0
2021-08-31 07:25:58.829,1011.0,29.0,2.0,1011.4178167305538,1,1,1,0.0,3.0
2021-08-31 07:25:58.833,996.0,42.0,-3.0,996.889662901567,1,1,1,0.0,3.0
2021-08-31 07:25:58.842,993.0,72.0,0.0,995.606850117053,1,1,1,0.0,3.0
2021-08-31 07:25:58.852,1034.0,36.0,24.0,1034.9048265420352,1,1,1,0.0,3.0
2021-08-31 07:25:58.864,997.0,46.0,7.0,998.0851667067296,1,1,1,0.0,3.0
2021-08-31 07:25:58.871,995.0,18.0,2.0,995.1648104711098,1,1,1,0.0,3.0
2021-08-31 07:25:58.881,1029.0,37.0,9.0,1029.7043264937756,1,1,1,0.0,3.0
2021-08-31 07:25:58.891,1060.0,17.0,21.0,1060.3442837116631,1,1,1,0.0,3.0
2021-08-31 07:25:58.903,1022.0,45.0,3.0,1022.9946236417863,1,1,1,0.0,3.0
2021-08-31 07:25:58.910,999.0,33.0,3.0,999.5493984791348,1,1,1,0.0,3.0
2021-08-31 07:25:58.911,999.0,33.0,-1.0,999.5453966679052,1,1,1,0.0,3.0
2021-08-31 07:25:58.921,1018.0,46.0,6.0,1019.0564263081804,1,1,1,0.0,3.0
2021-08-31 07:25:58.930,1022.0,46.0,17.0,1023.1759379500674,1,1,1,0.0,3.0
2021-08-31 07:25:58.940,1005.0,32.0,7.0,1005.5336891422386,1,1,1,0.0,3.0
2021-08-31 07:25:58.949,993.0,32.0,7.0,993.5401350725596,1,1,1,0.0,3.0
2021-08-31 07:25:58.950,993.0,20.0,-2.0,993.203403135531,1,1,1,0.0,3.0
2021-08-31 07:25:58.961,1004.0,55.0,7.0,1005.5297111473136,1,1,1,0.0,3.0
2021-08-31 07:25:58.969,1038.0,45.0,19.0,1039.148690034299,1,1,1,0.0,3.0
2021-08-31 07:25:58.979,994.0,51.0,12.0,995.3798270007284,1,1,1,0.0,3.0
2021-08-31 07:25:58.988,992.0,51.0,12.0,993.3826050419848,1,1,1,0.0,3.0
2021-08-31 07:25:58.989,992.0,48.0,-4.0,993.168666440902,1,1,1,0.0,3.0
2021-08-31 07:25:58.999,1001.0,56.0,0.0,1002.5652098492149,1,1,1,0.0,3.0
2021-08-31 07:25:59.009,1022.0,53.0,15.0,1023.4832680605972,1,1,1,0.0,3.0
2021-08-31 07:25:59.018,1007.0,33.0,8.0,1007.572329909868,1,1,1,0.0,3.0
2021-08-31 07:25:59.028,987.0,39.0,-7.0,987.7950192221056,1,1,1,0.0,3.0
2021-08-31 07:25:59.037,1031.0,48.0,13.0,1032.1986242967,1,1,1,0.0,3.0
2021-08-31 07:25:59.047,1034.0,29.0,16.0,1034.530328216626,1,1,1,0.0,3.0
2021-08-31 07:25:59.058,1012.0,32.0,1.0,1012.5062962767196,1,1,1,0.0,3.0
2021-08-31 07:25:59.067,984.0,36.0,-9.0,984.6994465317832,1,1,1,0.0,3.0
2021-08-31 07:25:59.077,1028.0,49.0,8.0,1029.198231634703,1,1,1,0.0,3.0
2021-08-31 07:25:59.094,1012.0,51.0,17.0,1013.4268597190426,1,1,1,0.0,3.0
2021-08-31 07:25:59.099,1005.0,37.0,0.0,1005.6808638927162,1,1,1,0.0,3.0
2021-08-31 07:25:59.106,987.0,27.0,-5.0,987.3818916711,1,1,1,0.0,3.0
2021-08-31 07:25:59.115,1033.0,27.0,-5.0,1033.3648919912075,1,1,1,0.0,3.0
2021-08-31 07:25:59.116,1033.0,38.0,12.0,1033.7683492930123,1,1,1,0.0,3.0
2021-08-31 07:25:59.127,1026.0,47.0,16.0,1027.2005646415894,1,1,1,0.0,3.0
2021-08-31 07:25:59.136,999.0,32.0,5.0,999.5248871338822,1,1,1,0.0,3.0
2021-08-31 07:25:59.145,988.0,54.0,2.0,989.4766293349228,1,1,1,0.0,3.0
2021-08-31 07:25:59.154,1017.0,54.0,2.0,1018.434583073454,1,1,1,0.0,3.0
2021-08-31 07:25:59.155,1017.0,56.0,6.0,1018.5582948462009,1,1,1,0.0,3.0
2021-08-31 07:25:59.174,1022.0,72.0,10.0,1024.581865933611,1,1,1,0.0,3.0
2021-08-31 07:25:59.176,1001.0,72.0,10.0,1003.6358901514036,1,1,1,0.0,3.0
2021-08-31 07:25:59.177,1001.0,-1.0,0.0,1001.0004995003748,1,1,1,0.0,3.0
2021-08-31 07:25:59.185,1047.0,-24.0,8.0,1047.3055905512963,1,1,1,0.0,3.0
2021-08-31 07:25:59.194,993.0,57.0,6.0,994.652703208512,1,1,1,0.0,3.0
2021-08-31 07:25:59.204,1016.0,63.0,9.0,1017.99115909717,1,1,1,0.0,3.0
2021-08-31 07:25:59.213,985.0,85.0,9.0,988.7016739138252,1,1,1,0.0,3.0
2021-08-31 07:25:59.225,1014.0,45.0,7.0,1015.0221672456224,1,1,1,0.0,3.0
2021-08-31 07:25:59.234,1011.0,54.0,12.0,1012.5122221484538,1,1,1,0.0,3.0
2021-08-31 07:25:59.242,1027.0,21.0,12.0,1027.2847706454136,1,1,1,0.0,3.0
2021-08-31 07:25:59.243,1027.0,21.0,6.0,1027.2322035450406,1,1,1,0.0,3.0
