time_stamp,Acceleration_X,Acceleration_Y,Acceleration_Z,magnitude,STD_Status_right,STD_Status_left,STD_Status_both,KMeans,KMeans_convert
2021-09-24 12:24:28.032,1029.0,-44.0,9.0,1029.9796114486926,1,1,1,0.0,3.0
2021-09-24 12:24:28.041,914.0,251.0,23.0,948.1170813776112,1,1,1,0.0,3.0
2021-09-24 12:24:28.051,1068.0,-91.0,-26.0,1072.1851519210663,1,1,1,0.0,3.0
2021-09-24 12:24:28.061,1052.0,-91.0,-26.0,1056.2485502948632,1,1,1,0.0,3.0
2021-09-24 12:24:28.062,1052.0,58.0,23.0,1053.8486608617009,1,1,1,0.0,3.0
2021-09-24 12:24:28.071,959.0,43.0,8.0,959.9968749949136,1,1,1,0.0,3.0
2021-09-24 12:24:28.080,1074.0,43.0,8.0,1074.8902269534317,1,1,1,0.0,3.0
2021-09-24 12:24:28.081,1074.0,-209.0,0.0,1094.146699487779,1,1,1,0.0,3.0
2021-09-24 12:24:28.091,1002.0,-79.0,-48.0,1006.2549378760832,1,1,1,0.0,3.0
2021-09-24 12:24:28.106,1011.0,162.0,-48.0,1025.0214631899178,1,1,1,0.0,3.0
2021-09-24 12:24:28.107,1011.0,162.0,26.0,1024.2270256149268,1,1,1,0.0,3.0
2021-09-24 12:24:28.132,1061.0,-33.0,20.0,1061.7014646311834,1,1,1,0.0,3.0
2021-09-24 12:24:28.135,950.0,62.0,20.0,952.231064395612,1,1,1,0.0,3.0
2021-09-24 12:24:28.136,950.0,62.0,-40.0,952.8609552290408,1,1,1,0.0,3.0
2021-09-24 12:24:28.142,1086.0,62.0,-40.0,1088.503559939057,1,1,1,0.0,3.0
2021-09-24 12:24:28.143,1086.0,134.0,18.0,1094.3838449100024,1,1,1,0.0,3.0
2021-09-24 12:24:28.174,1123.0,134.0,18.0,1131.109632175414,1,1,1,0.0,3.0
2021-09-24 12:24:28.175,1123.0,-68.0,42.0,1125.8405748595137,1,1,1,0.0,3.0
2021-09-24 12:24:28.176,953.0,27.0,-35.0,954.0246328056734,1,1,1,0.0,3.0
2021-09-24 12:24:28.180,1058.0,27.0,-35.0,1058.923037807753,1,1,1,0.0,3.0
2021-09-24 12:24:28.181,1058.0,70.0,25.0,1060.6078445872442,1,1,1,0.0,3.0
2021-09-24 12:24:28.187,1079.0,70.0,25.0,1081.5572106920652,1,1,1,0.0,3.0
2021-09-24 12:24:28.188,1079.0,-27.0,25.0,1079.627250489723,1,1,1,0.0,3.0
2021-09-24 12:24:28.197,1017.0,-27.0,25.0,1017.6654656614816,1,1,1,0.0,3.0
2021-09-24 12:24:28.198,1017.0,17.0,-15.0,1017.252672643331,1,1,1,0.0,3.0
2021-09-24 12:24:28.208,944.0,99.0,-21.0,949.4092900324918,1,1,1,0.0,3.0
2021-09-24 12:24:28.218,1038.0,67.0,19.0,1040.3336003417364,1,1,1,0.0,3.0
2021-09-24 12:24:28.234,1062.0,22.0,25.0,1062.52199977224,1,1,1,0.0,3.0
2021-09-24 12:24:28.237,931.0,22.0,25.0,931.595405742214,1,1,1,0.0,3.0
2021-09-24 12:24:28.238,931.0,-21.0,-18.0,931.410757936583,1,1,1,0.0,3.0
2021-09-24 12:24:28.246,993.0,-72.0,-15.0,995.7198401156824,1,1,1,0.0,3.0
2021-09-24 12:24:28.258,1043.0,24.0,5.0,1043.2880714356893,1,1,1,0.0,3.0
2021-09-24 12:24:28.266,1084.0,43.0,22.0,1085.0755734049126,1,1,1,0.0,3.0
2021-09-24 12:24:28.275,995.0,43.0,22.0,996.1716719521792,1,1,1,0.0,3.0
2021-09-24 12:24:28.276,995.0,10.0,-8.0,995.0824086476456,1,1,1,0.0,3.0
2021-09-24 12:24:28.299,977.0,68.0,-8.0,979.3962425903012,1,1,1,0.0,3.0
2021-09-24 12:24:28.301,1039.0,24.0,20.0,1039.469576274361,1,1,1,0.0,3.0
2021-09-24 12:24:28.305,1046.0,-12.0,10.0,1046.1166282972467,1,1,1,0.0,3.0
2021-09-24 12:24:28.315,995.0,-12.0,10.0,995.1226055115018,1,1,1,0.0,3.0
2021-09-24 12:24:28.316,995.0,-82.0,-9.0,998.4137418926084,1,1,1,0.0,3.0
2021-09-24 12:24:28.324,934.0,39.0,-17.0,934.9684486655152,1,1,1,0.0,3.0
2021-09-24 12:24:28.335,1089.0,64.0,34.0,1091.408722706576,1,1,1,0.0,3.0
2021-09-24 12:24:28.348,1063.0,-40.0,34.0,1064.2955416612435,1,1,1,0.0,3.0
2021-09-24 12:24:28.349,1063.0,-40.0,23.0,1064.0009398492089,1,1,1,0.0,3.0
2021-09-24 12:24:28.354,908.0,19.0,-37.0,908.9521439547848,1,1,1,0.0,3.0
2021-09-24 12:24:28.364,935.0,68.0,-27.0,937.8581982368124,1,1,1,0.0,3.0
2021-09-24 12:24:28.373,1038.0,68.0,-27.0,1040.575321637026,1,1,1,0.0,3.0
2021-09-24 12:24:28.374,1038.0,80.0,29.0,1041.4821169852123,1,1,1,0.0,3.0
2021-09-24 12:24:28.384,1051.0,37.0,31.0,1052.1078842019956,1,1,1,0.0,3.0
2021-09-24 12:24:28.393,941.0,37.0,31.0,942.2372312745872,1,1,1,0.0,3.0
2021-09-24 12:24:28.394,941.0,11.0,-19.0,941.2560756776022,1,1,1,0.0,3.0
2021-09-24 12:24:28.402,1018.0,11.0,-19.0,1018.2367111826208,1,1,1,0.0,3.0
2021-09-24 12:24:28.403,1018.0,57.0,14.0,1019.6906393607818,1,1,1,0.0,3.0
2021-09-24 12:24:28.412,1133.0,57.0,14.0,1134.5192814580105,1,1,1,0.0,3.0
2021-09-24 12:24:28.413,1133.0,-15.0,27.0,1133.42092798748,1,1,1,0.0,3.0
2021-09-24 12:24:28.422,1043.0,57.0,27.0,1044.905258863214,1,1,1,0.0,3.0
2021-09-24 12:24:28.423,1043.0,57.0,22.0,1044.788016776609,1,1,1,0.0,3.0
2021-09-24 12:24:28.432,968.0,25.0,-2.0,968.3248421888184,1,1,1,0.0,3.0
2021-09-24 12:24:28.443,989.0,86.0,0.0,992.7320887329068,1,1,1,0.0,3.0
2021-09-24 12:24:28.453,1067.0,84.0,36.0,1070.9066252479718,1,1,1,0.0,3.0
2021-09-24 12:24:28.461,1028.0,-19.0,36.0,1028.8056181806162,1,1,1,0.0,3.0
2021-09-24 12:24:28.462,1028.0,-19.0,8.0,1028.206691283421,1,1,1,0.0,3.0
2021-09-24 12:24:28.471,911.0,70.0,-35.0,914.3555107287318,1,1,1,0.0,3.0
2021-09-24 12:24:28.480,992.0,70.0,-35.0,995.0824086476456,1,1,1,0.0,3.0
2021-09-24 12:24:28.481,992.0,22.0,-5.0,992.25651925296,1,1,1,0.0,3.0
2021-09-24 12:24:28.491,1113.0,22.0,-5.0,1113.2286377918958,1,1,1,0.0,3.0
2021-09-24 12:24:28.492,1113.0,5.0,31.0,1113.442858884101,1,1,1,0.0,3.0
2021-09-24 12:24:28.500,1055.0,5.0,31.0,1055.4671951320893,1,1,1,0.0,3.0
2021-09-24 12:24:28.501,1055.0,-114.0,-2.0,1061.1432514038809,1,1,1,0.0,3.0
2021-09-24 12:24:28.510,882.0,-10.0,-14.0,882.167784494537,1,1,1,0.0,3.0
2021-09-24 12:24:28.520,1081.0,-36.0,-3.0,1081.603439343644,1,1,1,0.0,3.0
2021-09-24 12:24:28.529,1088.0,-36.0,-3.0,1088.5995590666018,1,1,1,0.0,3.0
2021-09-24 12:24:28.530,1088.0,48.0,32.0,1089.528338318926,1,1,1,0.0,3.0
2021-09-24 12:24:28.539,1075.0,-12.0,19.0,1075.2348580659018,1,1,1,0.0,3.0
2021-09-24 12:24:28.550,887.0,-12.0,19.0,887.2846217533582,1,1,1,0.0,3.0
2021-09-24 12:24:28.551,887.0,83.0,-12.0,890.9556666860591,1,1,1,0.0,3.0
2021-09-24 12:24:28.559,1031.0,3.0,20.0,1031.1983320389925,1,1,1,0.0,3.0
2021-09-24 12:24:28.573,1092.0,0.0,37.0,1092.6266516976418,1,1,1,0.0,3.0
2021-09-24 12:24:28.578,968.0,-63.0,-20.0,970.2540904319858,1,1,1,0.0,3.0
2021-09-24 12:24:28.589,939.0,11.0,-22.0,939.3220959819906,1,1,1,0.0,3.0
2021-09-24 12:24:28.599,995.0,42.0,-14.0,995.984437629424,1,1,1,0.0,3.0
2021-09-24 12:24:28.609,1092.0,21.0,28.0,1092.5607534595044,1,1,1,0.0,3.0
2021-09-24 12:24:28.617,985.0,52.0,7.0,986.3964720131556,1,1,1,0.0,3.0
2021-09-24 12:24:28.627,953.0,95.0,-21.0,957.9535479343454,1,1,1,0.0,3.0
2021-09-24 12:24:28.638,1064.0,75.0,21.0,1066.846755630817,1,1,1,0.0,3.0
2021-09-24 12:24:28.646,1122.0,75.0,21.0,1124.6999599893295,1,1,1,0.0,3.0
2021-09-24 12:24:28.647,1122.0,-11.0,29.0,1122.4286168839424,1,1,1,0.0,3.0
2021-09-24 12:24:28.657,972.0,19.0,18.0,972.3523024089571,1,1,1,0.0,3.0
2021-09-24 12:24:28.666,892.0,24.0,-28.0,892.7620063600377,1,1,1,0.0,3.0
2021-09-24 12:24:28.676,1062.0,1.0,3.0,1062.0047080874924,1,1,1,0.0,3.0
2021-09-24 12:24:28.687,1050.0,59.0,23.0,1051.9077906356622,1,1,1,0.0,3.0
2021-09-24 12:24:28.696,994.0,9.0,-7.0,994.0653902032803,1,1,1,0.0,3.0
2021-09-24 12:24:28.706,946.0,73.0,-26.0,949.1685835508885,1,1,1,0.0,3.0
2021-09-24 12:24:28.715,1068.0,-85.0,-40.0,1072.1235936215562,1,1,1,0.0,3.0
2021-09-24 12:24:28.725,1058.0,4.0,34.0,1058.553730332098,1,1,1,0.0,3.0
2021-09-24 12:24:28.734,1038.0,4.0,34.0,1038.5643937667032,1,1,1,0.0,3.0
2021-09-24 12:24:28.735,1038.0,-117.0,8.0,1044.6037526258465,1,1,1,0.0,3.0
2021-09-24 12:24:28.745,942.0,113.0,5.0,948.7665677077792,1,1,1,0.0,3.0
2021-09-24 12:24:28.754,1094.0,113.0,5.0,1099.8318053229775,1,1,1,0.0,3.0
2021-09-24 12:24:28.755,1094.0,52.0,40.0,1095.9653279187255,1,1,1,0.0,3.0
2021-09-24 12:24:28.764,1032.0,52.0,40.0,1034.0831688022004,1,1,1,0.0,3.0
2021-09-24 12:24:28.765,1032.0,65.0,38.0,1034.7429632522271,1,1,1,0.0,3.0
2021-09-24 12:24:28.773,971.0,65.0,38.0,973.9147806661524,1,1,1,0.0,3.0
2021-09-24 12:24:28.774,971.0,5.0,9.0,971.054581370172,1,1,1,0.0,3.0
2021-09-24 12:24:28.784,955.0,76.0,-35.0,958.6584376095586,1,1,1,0.0,3.0
2021-09-24 12:24:28.794,1092.0,54.0,17.0,1093.4665061171283,1,1,1,0.0,3.0
2021-09-24 12:24:28.808,1056.0,-24.0,28.0,1056.6437431793177,1,1,1,0.0,3.0
2021-09-24 12:24:28.813,943.0,40.0,-21.0,944.081564272918,1,1,1,0.0,3.0
2021-09-24 12:24:28.822,945.0,14.0,-21.0,945.3369769558366,1,1,1,0.0,3.0
2021-09-24 12:24:28.823,945.0,14.0,-58.0,946.881724398565,1,1,1,0.0,3.0
2021-09-24 12:24:28.832,1021.0,14.0,-58.0,1022.74190292566,1,1,1,0.0,3.0
2021-09-24 12:24:28.833,1021.0,37.0,26.0,1022.0009784731128,1,1,1,0.0,3.0
2021-09-24 12:24:28.842,1054.0,135.0,34.0,1063.1542691444172,1,1,1,0.0,3.0
2021-09-24 12:24:28.853,972.0,52.0,4.0,973.3981713564084,1,1,1,0.0,3.0
2021-09-24 12:24:28.862,976.0,77.0,-4.0,979.0408571658284,1,1,1,0.0,3.0
2021-09-24 12:24:28.871,1051.0,77.0,-4.0,1053.824463561176,1,1,1,0.0,3.0
2021-09-24 12:24:28.872,1051.0,115.0,31.0,1057.7272805406883,1,1,1,0.0,3.0
2021-09-24 12:24:28.881,1042.0,46.0,29.0,1043.4179411913522,1,1,1,0.0,3.0
2021-09-24 12:24:28.894,941.0,46.0,29.0,942.5698913078012,1,1,1,0.0,3.0
2021-09-24 12:24:28.895,941.0,16.0,-7.0,941.1620476836068,1,1,1,0.0,3.0
2021-09-24 12:24:28.901,1020.0,72.0,-3.0,1022.5424196579816,1,1,1,0.0,3.0
2021-09-24 12:24:28.911,1047.0,30.0,49.0,1048.5752238156306,1,1,1,0.0,3.0
2021-09-24 12:24:28.921,1043.0,-71.0,0.0,1045.4137936721515,1,1,1,0.0,3.0
2021-09-24 12:24:28.930,996.0,15.0,-14.0,996.2113229631552,1,1,1,0.0,3.0
2021-09-24 12:24:28.940,970.0,15.0,-14.0,970.216986039721,1,1,1,0.0,3.0
2021-09-24 12:24:28.941,970.0,99.0,-18.0,975.2051066314204,1,1,1,0.0,3.0
2021-09-24 12:24:28.949,1099.0,61.0,-18.0,1100.8387711195496,1,1,1,0.0,3.0
2021-09-24 12:24:28.950,1099.0,61.0,47.0,1101.6946037809207,1,1,1,0.0,3.0
2021-09-24 12:24:28.959,1015.0,61.0,47.0,1017.9169907217386,1,1,1,0.0,3.0
2021-09-24 12:24:28.960,1015.0,8.0,4.0,1015.0394081019712,1,1,1,0.0,3.0
2021-09-24 12:24:28.970,850.0,51.0,-44.0,852.6646468571334,1,1,1,0.0,3.0
2021-09-24 12:24:28.978,1050.0,51.0,-44.0,1052.1582580581687,1,1,1,0.0,3.0
2021-09-24 12:24:28.979,1050.0,-52.0,20.0,1051.477056335515,1,1,1,0.0,3.0
2021-09-24 12:24:28.990,1086.0,38.0,27.0,1087.0,1,1,1,0.0,3.0
2021-09-24 12:24:28.998,1072.0,-55.0,9.0,1073.4477164724883,1,1,1,0.0,3.0
2021-09-24 12:24:29.008,886.0,109.0,-1.0,892.6802339023756,1,1,1,0.0,3.0
2021-09-24 12:24:29.018,1013.0,17.0,-2.0,1013.1446096189824,1,1,1,0.0,3.0
2021-09-24 12:24:29.029,1055.0,85.0,43.0,1059.2917445161177,1,1,1,0.0,3.0
2021-09-24 12:24:29.039,1068.0,1.0,32.0,1068.479761156008,1,1,1,0.0,3.0
2021-09-24 12:24:29.047,926.0,1.0,32.0,926.553290426406,1,1,1,0.0,3.0
2021-09-24 12:24:29.048,926.0,24.0,-25.0,926.6482612081028,1,1,1,0.0,3.0
2021-09-24 12:24:29.057,1005.0,13.0,5.0,1005.096512778748,1,1,1,0.0,3.0
2021-09-24 12:24:29.067,1115.0,-15.0,31.0,1115.5317117859088,1,1,1,0.0,3.0
2021-09-24 12:24:29.078,1016.0,-111.0,-12.0,1022.1159425427236,1,1,1,0.0,3.0
2021-09-24 12:24:29.086,919.0,49.0,-10.0,920.3597122864516,1,1,1,0.0,3.0
2021-09-24 12:24:29.097,1016.0,54.0,-1.0,1017.4345187774984,1,1,1,0.0,3.0
2021-09-24 12:24:29.106,1058.0,82.0,31.0,1061.6256402329402,1,1,1,0.0,3.0
2021-09-24 12:24:29.115,1023.0,-31.0,31.0,1023.938963024652,1,1,1,0.0,3.0
2021-09-24 12:24:29.116,1023.0,-31.0,-1.0,1023.4700777257732,1,1,1,0.0,3.0
2021-09-24 12:24:29.126,884.0,56.0,-33.0,886.3864845540008,1,1,1,0.0,3.0
2021-09-24 12:24:29.136,1035.0,43.0,9.0,1035.931947571847,1,1,1,0.0,3.0
2021-09-24 12:24:29.145,1071.0,43.0,9.0,1071.9006483811827,1,1,1,0.0,3.0
2021-09-24 12:24:29.146,1071.0,48.0,48.0,1073.149104272095,1,1,1,0.0,3.0
2021-09-24 12:24:29.154,1036.0,-52.0,48.0,1038.4141755580958,1,1,1,0.0,3.0
2021-09-24 12:24:29.155,1036.0,-52.0,-3.0,1037.3085365502398,1,1,1,0.0,3.0
2021-09-24 12:24:29.164,918.0,-52.0,-3.0,919.4764814828056,1,1,1,0.0,3.0
2021-09-24 12:24:29.165,918.0,49.0,-36.0,920.011412972687,1,1,1,0.0,3.0
2021-09-24 12:24:29.174,1022.0,19.0,-36.0,1022.8103441009972,1,1,1,0.0,3.0
2021-09-24 12:24:29.175,1022.0,19.0,3.0,1022.1810015843572,1,1,1,0.0,3.0
2021-09-24 12:24:29.190,1058.0,61.0,3.0,1059.7612938770692,1,1,1,0.0,3.0
2021-09-24 12:24:29.191,1058.0,61.0,28.0,1060.1268791989005,1,1,1,0.0,3.0
2021-09-24 12:24:29.194,985.0,12.0,-4.0,985.0812149259572,1,1,1,0.0,3.0
2021-09-24 12:24:29.203,957.0,96.0,-13.0,961.8908461982576,1,1,1,0.0,3.0
2021-09-24 12:24:29.213,1022.0,96.0,-13.0,1026.5812193879256,1,1,1,0.0,3.0
2021-09-24 12:24:29.214,1022.0,0.0,15.0,1022.1100723503316,1,1,1,0.0,3.0
2021-09-24 12:24:29.225,1070.0,20.0,38.0,1070.8613355612388,1,1,1,0.0,3.0
2021-09-24 12:24:29.237,991.0,-80.0,3.0,994.2283439934712,1,1,1,0.0,3.0
2021-09-24 12:24:29.250,944.0,-80.0,3.0,947.388515868754,1,1,1,0.0,3.0
2021-09-24 12:24:29.251,944.0,106.0,0.0,949.9326291900916,1,1,1,0.0,3.0
2021-09-24 12:24:29.254,1093.0,28.0,28.0,1093.7170566467362,1,1,1,0.0,3.0
2021-09-24 12:24:29.263,1056.0,79.0,34.0,1059.496578569275,1,1,1,0.0,3.0
2021-09-24 12:24:29.273,1005.0,-25.0,-16.0,1005.4382129201176,1,1,1,0.0,3.0
2021-09-24 12:24:29.282,933.0,52.0,-34.0,935.0663078092376,1,1,1,0.0,3.0
2021-09-24 12:24:29.291,1081.0,36.0,17.0,1081.732869057791,1,1,1,0.0,3.0
2021-09-24 12:24:29.313,1044.0,63.0,17.0,1046.037284230347,1,1,1,0.0,3.0
2021-09-24 12:24:29.314,1044.0,63.0,34.0,1046.4516233443378,1,1,1,0.0,3.0
2021-09-24 12:24:29.316,921.0,30.0,-9.0,921.5324193971692,1,1,1,0.0,3.0
2021-09-24 12:24:29.321,879.0,46.0,-33.0,880.8212077374159,1,1,1,0.0,3.0
2021-09-24 12:24:29.330,1049.0,7.0,0.0,1049.023355316744,1,1,1,0.0,3.0
2021-09-24 12:24:29.340,1041.0,59.0,28.0,1043.046499442858,1,1,1,0.0,3.0
2021-09-24 12:24:29.350,959.0,6.0,1.0,959.019290734029,1,1,1,0.0,3.0
2021-09-24 12:24:29.360,985.0,81.0,-10.0,988.3754347412728,1,1,1,0.0,3.0
2021-09-24 12:24:29.371,1071.0,123.0,54.0,1079.3914952416478,1,1,1,0.0,3.0
2021-09-24 12:24:29.379,1105.0,-2.0,31.0,1105.4365653442082,1,1,1,0.0,3.0
2021-09-24 12:24:29.389,1003.0,-40.0,-6.0,1003.8152220403912,1,1,1,0.0,3.0
2021-09-24 12:24:29.399,975.0,39.0,-7.0,975.804796052981,1,1,1,0.0,3.0
2021-09-24 12:24:29.408,1115.0,19.0,38.0,1115.8091234615354,1,1,1,0.0,3.0
2021-09-24 12:24:29.420,1045.0,-83.0,5.0,1048.3029142380556,1,1,1,0.0,3.0
2021-09-24 12:24:29.428,894.0,-31.0,-44.0,895.6187805087609,1,1,1,0.0,3.0
2021-09-24 12:24:29.439,951.0,101.0,-13.0,956.4366157775434,1,1,1,0.0,3.0
2021-09-24 12:24:29.448,1119.0,69.0,20.0,1121.3037055142554,1,1,1,0.0,3.0
2021-09-24 12:24:29.457,1079.0,69.0,20.0,1081.3889217113333,1,1,1,0.0,3.0
2021-09-24 12:24:29.458,1079.0,19.0,21.0,1079.3715764276917,1,1,1,0.0,3.0
2021-09-24 12:24:29.468,888.0,70.0,-47.0,891.9938340594065,1,1,1,0.0,3.0
2021-09-24 12:24:29.477,1027.0,39.0,12.0,1027.8102937799367,1,1,1,0.0,3.0
2021-09-24 12:24:29.486,1099.0,27.0,12.0,1099.397107509384,1,1,1,0.0,3.0
2021-09-24 12:24:29.487,1099.0,27.0,43.0,1100.1722592394335,1,1,1,0.0,3.0
2021-09-24 12:24:29.496,1053.0,49.0,26.0,1054.4600514007157,1,1,1,0.0,3.0
2021-09-24 12:24:29.507,904.0,49.0,26.0,905.7002815501384,1,1,1,0.0,3.0
2021-09-24 12:24:29.508,904.0,3.0,-14.0,904.1133778459424,1,1,1,0.0,3.0
2021-09-24 12:24:29.517,999.0,3.0,-14.0,999.1025973342278,1,1,1,0.0,3.0
2021-09-24 12:24:29.518,999.0,52.0,-3.0,1000.3569362982396,1,1,1,0.0,3.0
2021-09-24 12:24:29.526,1076.0,52.0,-3.0,1077.2599500584806,1,1,1,0.0,3.0
2021-09-24 12:24:29.527,1076.0,131.0,38.0,1084.6109901711304,1,1,1,0.0,3.0
2021-09-24 12:24:29.535,1015.0,3.0,38.0,1015.7155113514808,1,1,1,0.0,3.0
2021-09-24 12:24:29.536,1015.0,3.0,-22.0,1015.2428280958206,1,1,1,0.0,3.0
2021-09-24 12:24:29.545,957.0,3.0,-22.0,957.2575411037512,1,1,1,0.0,3.0
2021-09-24 12:24:29.546,957.0,0.0,-9.0,957.0423188135412,1,1,1,0.0,3.0
2021-09-24 12:24:29.556,1011.0,66.0,-13.0,1013.2354119354496,1,1,1,0.0,3.0
2021-09-24 12:24:29.566,1096.0,-12.0,35.0,1096.6243659521706,1,1,1,0.0,3.0
2021-09-24 12:24:29.576,1050.0,-77.0,19.0,1052.990978118996,1,1,1,0.0,3.0
2021-09-24 12:24:29.584,875.0,41.0,-38.0,876.7838958375091,1,1,1,0.0,3.0
2021-09-24 12:24:29.594,1056.0,0.0,2.0,1056.0018939376955,1,1,1,0.0,3.0
2021-09-24 12:24:29.604,1048.0,104.0,29.0,1053.5468665417784,1,1,1,0.0,3.0
2021-09-24 12:24:29.614,1076.0,40.0,19.0,1076.9108598208118,1,1,1,0.0,3.0
2021-09-24 12:24:29.624,881.0,40.0,19.0,882.1122377566247,1,1,1,0.0,3.0
2021-09-24 12:24:29.625,881.0,85.0,-50.0,886.5021150566986,1,1,1,0.0,3.0
2021-09-24 12:24:29.633,1044.0,-49.0,-50.0,1046.344589511505,1,1,1,0.0,3.0
2021-09-24 12:24:29.634,1044.0,-49.0,0.0,1045.1492716353966,1,1,1,0.0,3.0
2021-09-24 12:24:29.643,1087.0,7.0,29.0,1087.4093065630807,1,1,1,0.0,3.0
2021-09-24 12:24:29.653,1085.0,-29.0,14.0,1085.4777749912707,1,1,1,0.0,3.0
2021-09-24 12:24:29.667,835.0,13.0,-23.0,835.4178595170204,1,1,1,0.0,3.0
2021-09-24 12:24:29.673,1020.0,17.0,23.0,1020.4009016068144,1,1,1,0.0,3.0
2021-09-24 12:24:29.682,1068.0,79.0,53.0,1072.2285204190382,1,1,1,0.0,3.0
2021-09-24 12:24:29.692,970.0,-16.0,-14.0,970.2329617158964,1,1,1,0.0,3.0
2021-09-24 12:24:29.701,949.0,101.0,6.0,954.3783316903208,1,1,1,0.0,3.0
2021-09-24 12:24:29.712,1009.0,9.0,6.0,1009.0579765305856,1,1,1,0.0,3.0
2021-09-24 12:24:29.713,1009.0,9.0,15.0,1009.1516238900872,1,1,1,0.0,3.0
2021-09-24 12:24:29.721,1110.0,-13.0,15.0,1110.1774632913423,1,1,1,0.0,3.0
2021-09-24 12:24:29.722,1110.0,-13.0,32.0,1110.5372573669017,1,1,1,0.0,3.0
2021-09-24 12:24:29.731,1002.0,-46.0,-19.0,1003.2352665252552,1,1,1,0.0,3.0
2021-09-24 12:24:29.740,937.0,58.0,-47.0,939.9691484298831,1,1,1,0.0,3.0
2021-09-24 12:24:29.750,1055.0,91.0,33.0,1059.4314512982896,1,1,1,0.0,3.0
2021-09-24 12:24:29.760,1050.0,74.0,33.0,1053.1215504394545,1,1,1,0.0,3.0
2021-09-24 12:24:29.761,1050.0,74.0,34.0,1053.153360152262,1,1,1,0.0,3.0
2021-09-24 12:24:29.770,1023.0,-15.0,20.0,1023.305428501188,1,1,1,0.0,3.0
2021-09-24 12:24:29.779,915.0,-15.0,20.0,915.3414663392016,1,1,1,0.0,3.0
2021-09-24 12:24:29.780,915.0,140.0,-33.0,926.2364708863498,1,1,1,0.0,3.0
2021-09-24 12:24:29.789,1045.0,36.0,-19.0,1045.792522444103,1,1,1,0.0,3.0
2021-09-24 12:24:29.799,1074.0,55.0,-19.0,1075.5751949538442,1,1,1,0.0,3.0
2021-09-24 12:24:29.800,1074.0,55.0,20.0,1075.5933246352918,1,1,1,0.0,3.0
2021-09-24 12:24:29.810,977.0,-50.0,4.0,978.286767773131,1,1,1,0.0,3.0
2021-09-24 12:24:29.820,995.0,61.0,17.0,997.013039032088,1,1,1,0.0,3.0
2021-09-24 12:24:29.829,990.0,-17.0,-6.0,990.1641278091224,1,1,1,0.0,3.0
2021-09-24 12:24:29.839,1014.0,91.0,-6.0,1018.092824844572,1,1,1,0.0,3.0
2021-09-24 12:24:29.840,1014.0,91.0,23.0,1018.3349154379416,1,1,1,0.0,3.0
2021-09-24 12:24:29.848,1031.0,11.0,0.0,1031.0586792224776,1,1,1,0.0,3.0
2021-09-24 12:24:29.858,955.0,202.0,4.0,976.1377976494916,1,1,1,0.0,3.0
2021-09-24 12:24:29.868,1093.0,155.0,50.0,1105.067418757788,1,1,1,0.0,3.0
2021-09-24 12:24:29.878,1076.0,33.0,15.0,1076.6104216474964,1,1,1,0.0,3.0
2021-09-24 12:24:29.888,1022.0,-115.0,-2.0,1028.4517489897132,1,1,1,0.0,3.0
2021-09-24 12:24:29.897,904.0,75.0,-10.0,907.1609559499352,1,1,1,0.0,3.0
2021-09-24 12:24:29.914,1098.0,-2.0,-10.0,1098.0473578129497,1,1,1,0.0,3.0
2021-09-24 12:24:29.915,1098.0,-2.0,38.0,1098.6591828224075,1,1,1,0.0,3.0
2021-09-24 12:24:29.918,1069.0,21.0,25.0,1069.498480597331,1,1,1,0.0,3.0
2021-09-24 12:24:29.926,915.0,40.0,25.0,916.2150402607458,1,1,1,0.0,3.0
2021-09-24 12:24:29.927,915.0,40.0,-26.0,916.2428717321624,1,1,1,0.0,3.0
2021-09-24 12:24:29.936,915.0,176.0,-26.0,932.1357197318424,1,1,1,0.0,3.0
2021-09-24 12:24:29.946,1055.0,123.0,8.0,1062.1760682674037,1,1,1,0.0,3.0
2021-09-24 12:24:29.955,1063.0,123.0,8.0,1070.1224229030995,1,1,1,0.0,3.0
2021-09-24 12:24:29.956,1063.0,48.0,48.0,1065.165245396225,1,1,1,0.0,3.0
2021-09-24 12:24:29.965,955.0,13.0,-29.0,955.5286494919972,1,1,1,0.0,3.0
2021-09-24 12:24:29.975,1015.0,-25.0,7.0,1015.3319654182076,1,1,1,0.0,3.0
2021-09-24 12:24:29.985,1076.0,-25.0,7.0,1076.3131514573256,1,1,1,0.0,3.0
2021-09-24 12:24:29.986,1076.0,-10.0,33.0,1076.5523675140007,1,1,1,0.0,3.0
2021-09-24 12:24:29.995,1027.0,75.0,30.0,1030.1718303273487,1,1,1,0.0,3.0
2021-09-24 12:24:30.004,965.0,38.0,-7.0,965.773265316451,1,1,1,0.0,3.0
2021-09-24 12:24:30.014,1021.0,75.0,-18.0,1023.9091756596384,1,1,1,0.0,3.0
2021-09-24 12:24:30.024,994.0,170.0,36.0,1009.0748237866208,1,1,1,0.0,3.0
2021-09-24 12:24:30.034,1060.0,28.0,28.0,1060.7393647828858,1,1,1,0.0,3.0
2021-09-24 12:24:30.044,896.0,75.0,-58.0,901.0022197530924,1,1,1,0.0,3.0
2021-09-24 12:24:30.053,999.0,20.0,8.0,999.2322052456076,1,1,1,0.0,3.0
2021-09-24 12:24:30.062,1093.0,20.0,8.0,1093.2122392289614,1,1,1,0.0,3.0
2021-09-24 12:24:30.063,1093.0,9.0,38.0,1093.6973987351346,1,1,1,0.0,3.0
2021-09-24 12:24:30.072,1085.0,-127.0,38.0,1093.0681588995262,1,1,1,0.0,3.0
2021-09-24 12:24:30.073,1085.0,-127.0,8.0,1092.436725856468,1,1,1,0.0,3.0
2021-09-24 12:24:30.083,895.0,-19.0,-30.0,895.7041922420593,1,1,1,0.0,3.0
2021-09-24 12:24:30.092,1011.0,40.0,13.0,1011.87449814688,1,1,1,0.0,3.0
2021-09-24 12:24:30.102,1087.0,40.0,13.0,1087.8134031165455,1,1,1,0.0,3.0
2021-09-24 12:24:30.103,1087.0,117.0,40.0,1094.010054798401,1,1,1,0.0,3.0
2021-09-24 12:24:30.112,1057.0,26.0,18.0,1057.472931095638,1,1,1,0.0,3.0
2021-09-24 12:24:30.122,915.0,39.0,-40.0,916.7038780325956,1,1,1,0.0,3.0
2021-09-24 12:24:30.132,1020.0,12.0,0.0,1020.0705857929636,1,1,1,0.0,3.0
2021-09-24 12:24:30.141,1080.0,38.0,32.0,1081.1419888247797,1,1,1,0.0,3.0
2021-09-24 12:24:30.151,997.0,-81.0,-4.0,1000.2929570880724,1,1,1,0.0,3.0
2021-09-24 12:24:30.161,872.0,57.0,-3.0,873.8661224695692,1,1,1,0.0,3.0
2021-09-24 12:24:30.171,1032.0,15.0,-16.0,1032.233016329162,1,1,1,0.0,3.0
2021-09-24 12:24:30.181,1089.0,120.0,62.0,1097.3445220166727,1,1,1,0.0,3.0
2021-09-24 12:24:30.190,994.0,120.0,62.0,1003.1350856190804,1,1,1,0.0,3.0
2021-09-24 12:24:30.191,994.0,26.0,-16.0,994.4687023732824,1,1,1,0.0,3.0
2021-09-24 12:24:30.207,915.0,123.0,-28.0,923.6546973842552,1,1,1,0.0,3.0
2021-09-24 12:24:30.210,1070.0,87.0,-28.0,1073.896177477134,1,1,1,0.0,3.0
2021-09-24 12:24:30.211,1070.0,87.0,9.0,1073.5688147482676,1,1,1,0.0,3.0
2021-09-24 12:24:30.219,1121.0,12.0,36.0,1121.642099780496,1,1,1,0.0,3.0
2021-09-24 12:24:30.229,1084.0,-126.0,27.0,1091.632264088965,1,1,1,0.0,3.0
2021-09-24 12:24:30.240,891.0,25.0,-52.0,892.8661713829234,1,1,1,0.0,3.0
2021-09-24 12:24:30.249,1038.0,26.0,0.0,1038.325575144906,1,1,1,0.0,3.0
2021-09-24 12:24:30.258,1059.0,-18.0,15.0,1059.2591750841718,1,1,1,0.0,3.0
2021-09-24 12:24:30.274,1002.0,-18.0,15.0,1002.2739146560684,1,1,1,0.0,3.0
2021-09-24 12:24:30.275,1002.0,-23.0,7.0,1002.2883816547012,1,1,1,0.0,3.0
2021-09-24 12:24:30.278,897.0,14.0,-45.0,898.2371624465334,1,1,1,0.0,3.0
2021-09-24 12:24:30.288,1001.0,-11.0,-1.0,1001.0609372061224,1,1,1,0.0,3.0
2021-09-24 12:24:30.298,1087.0,63.0,49.0,1089.9261442868503,1,1,1,0.0,3.0
2021-09-24 12:24:30.307,964.0,-47.0,-6.0,965.1637166823048,1,1,1,0.0,3.0
2021-09-24 12:24:30.330,955.0,64.0,-9.0,957.1844127439604,1,1,1,0.0,3.0
2021-09-24 12:24:30.334,983.0,63.0,11.0,985.0781694870716,1,1,1,0.0,3.0
2021-09-24 12:24:30.338,1061.0,78.0,53.0,1065.182613451797,1,1,1,0.0,3.0
2021-09-24 12:24:30.346,969.0,10.0,-10.0,969.1031936795998,1,1,1,0.0,3.0
2021-09-24 12:24:30.356,935.0,114.0,-13.0,942.0138003235407,1,1,1,0.0,3.0
2021-09-24 12:24:30.367,1086.0,114.0,-13.0,1092.0444130162473,1,1,1,0.0,3.0
2021-09-24 12:24:30.368,1086.0,126.0,24.0,1093.548352840422,1,1,1,0.0,3.0
2021-09-24 12:24:30.375,1071.0,25.0,41.0,1072.0760234237125,1,1,1,0.0,3.0
2021-09-24 12:24:30.385,1018.0,-42.0,17.0,1019.007850803908,1,1,1,0.0,3.0
2021-09-24 12:24:30.395,942.0,1.0,-36.0,942.6881775009168,1,1,1,0.0,3.0
2021-09-24 12:24:30.405,1085.0,65.0,31.0,1087.387235532954,1,1,1,0.0,3.0
2021-09-24 12:24:30.415,1047.0,23.0,20.0,1047.4435545651136,1,1,1,0.0,3.0
2021-09-24 12:24:30.424,911.0,38.0,-9.0,911.8366081705648,1,1,1,0.0,3.0
2021-09-24 12:24:30.434,1015.0,57.0,0.0,1016.5992327362834,1,1,1,0.0,3.0
2021-09-24 12:24:30.444,1069.0,21.0,-4.0,1069.2137298033542,1,1,1,0.0,3.0
2021-09-24 12:24:30.454,1060.0,21.0,-4.0,1060.2155441229863,1,1,1,0.0,3.0
2021-09-24 12:24:30.455,1060.0,84.0,24.0,1063.5939074665669,1,1,1,0.0,3.0
2021-09-24 12:24:30.463,952.0,-18.0,0.0,952.1701528613464,1,1,1,0.0,3.0
2021-09-24 12:24:30.473,1005.0,-18.0,0.0,1005.1611811048016,1,1,1,0.0,3.0
2021-09-24 12:24:30.474,1005.0,46.0,0.0,1006.0521855251844,1,1,1,0.0,3.0
2021-09-24 12:24:30.482,1096.0,46.0,0.0,1096.9649037229951,1,1,1,0.0,3.0
2021-09-24 12:24:30.483,1096.0,21.0,39.0,1096.8947078001606,1,1,1,0.0,3.0
2021-09-24 12:24:30.492,1057.0,21.0,39.0,1057.9276912908556,1,1,1,0.0,3.0
2021-09-24 12:24:30.493,1057.0,79.0,35.0,1060.5258129814663,1,1,1,0.0,3.0
2021-09-24 12:24:30.502,976.0,21.0,9.0,976.2673814073684,1,1,1,0.0,3.0
2021-09-24 12:24:30.513,950.0,80.0,9.0,953.4049506898943,1,1,1,0.0,3.0
2021-09-24 12:24:30.514,950.0,80.0,6.0,953.3813507720822,1,1,1,0.0,3.0
2021-09-24 12:24:30.522,1104.0,82.0,52.0,1108.2617019458896,1,1,1,0.0,3.0
2021-09-24 12:24:30.535,1074.0,1.0,52.0,1075.2585735533569,1,1,1,0.0,3.0
2021-09-24 12:24:30.536,1074.0,1.0,19.0,1074.1685156436115,1,1,1,0.0,3.0
2021-09-24 12:24:30.541,878.0,68.0,-40.0,881.5372935956822,1,1,1,0.0,3.0
2021-09-24 12:24:30.552,955.0,56.0,-8.0,956.6739256402884,1,1,1,0.0,3.0
2021-09-24 12:24:30.561,1121.0,30.0,21.0,1121.5979671878868,1,1,1,0.0,3.0
2021-09-24 12:24:30.571,1052.0,30.0,21.0,1052.6371644588653,1,1,1,0.0,3.0
2021-09-24 12:24:30.572,1052.0,-17.0,21.0,1052.34690097895,1,1,1,0.0,3.0
2021-09-24 12:24:30.580,881.0,-23.0,-35.0,881.9948979444268,1,1,1,0.0,3.0
2021-09-24 12:24:30.590,984.0,14.0,-4.0,984.107717681352,1,1,1,0.0,3.0
2021-09-24 12:24:30.600,1044.0,78.0,29.0,1047.311319522519,1,1,1,0.0,3.0
2021-09-24 12:24:30.610,1067.0,45.0,22.0,1068.175079282418,1,1,1,0.0,3.0
2021-09-24 12:24:30.621,940.0,29.0,-7.0,940.4732851070252,1,1,1,0.0,3.0
2021-09-24 12:24:30.629,998.0,22.0,-7.0,998.2669983526451,1,1,1,0.0,3.0
2021-09-24 12:24:30.630,998.0,22.0,3.0,998.2469634313944,1,1,1,0.0,3.0
2021-09-24 12:24:30.639,1083.0,14.0,45.0,1084.0249074629237,1,1,1,0.0,3.0
2021-09-24 12:24:30.649,1030.0,-156.0,10.0,1041.7946054765305,1,1,1,0.0,3.0
2021-09-24 12:24:30.659,912.0,-7.0,10.0,912.0816849383611,1,1,1,0.0,3.0
2021-09-24 12:24:30.660,912.0,-7.0,-33.0,912.6236902469714,1,1,1,0.0,3.0
2021-09-24 12:24:30.668,1006.0,27.0,-5.0,1006.3746817165066,1,1,1,0.0,3.0
2021-09-24 12:24:30.679,1020.0,168.0,49.0,1034.9033771323775,1,1,1,0.0,3.0
2021-09-24 12:24:30.688,1064.0,-10.0,-2.0,1064.048871058092,1,1,1,0.0,3.0
2021-09-24 12:24:30.697,898.0,41.0,-2.0,898.9377064068456,1,1,1,0.0,3.0
2021-09-24 12:24:30.698,898.0,41.0,-34.0,899.5782345077052,1,1,1,0.0,3.0
2021-09-24 12:24:30.708,1009.0,-29.0,-34.0,1009.9891088521698,1,1,1,0.0,3.0
2021-09-24 12:24:30.709,1009.0,-29.0,-1.0,1009.4171585623062,1,1,1,0.0,3.0
2021-09-24 12:24:30.718,1054.0,36.0,32.0,1055.0999952611128,1,1,1,0.0,3.0
2021-09-24 12:24:30.728,1058.0,-69.0,20.0,1060.4362309917556,1,1,1,0.0,3.0
2021-09-24 12:24:30.736,932.0,-69.0,20.0,934.7646762688456,1,1,1,0.0,3.0
2021-09-24 12:24:30.737,932.0,17.0,-26.0,932.5175601563758,1,1,1,0.0,3.0
2021-09-24 12:24:30.746,1008.0,17.0,-26.0,1008.4785570352996,1,1,1,0.0,3.0
2021-09-24 12:24:30.747,1008.0,53.0,10.0,1009.4419250259026,1,1,1,0.0,3.0
2021-09-24 12:24:30.759,1095.0,39.0,55.0,1097.073835254492,1,1,1,0.0,3.0
2021-09-24 12:24:30.767,1019.0,-18.0,55.0,1020.6419548499856,1,1,1,0.0,3.0
2021-09-24 12:24:30.768,1019.0,-18.0,-19.0,1019.336058422344,1,1,1,0.0,3.0
2021-09-24 12:24:30.776,924.0,-18.0,-19.0,924.3705966764628,1,1,1,0.0,3.0
2021-09-24 12:24:30.777,924.0,18.0,-41.0,925.0843204811116,1,1,1,0.0,3.0
2021-09-24 12:24:30.785,948.0,83.0,12.0,951.7021592914456,1,1,1,0.0,3.0
2021-09-24 12:24:30.795,1084.0,-8.0,27.0,1084.3657132167173,1,1,1,0.0,3.0
2021-09-24 12:24:30.805,1014.0,-57.0,16.0,1015.7268333562918,1,1,1,0.0,3.0
2021-09-24 12:24:30.815,934.0,-57.0,16.0,935.874457392657,1,1,1,0.0,3.0
2021-09-24 12:24:30.816,934.0,109.0,2.0,940.3408956330676,1,1,1,0.0,3.0
2021-09-24 12:24:30.825,1080.0,37.0,39.0,1081.3371352173197,1,1,1,0.0,3.0
2021-09-24 12:24:30.834,1077.0,6.0,40.0,1077.7592495543706,1,1,1,0.0,3.0
2021-09-24 12:24:30.844,1027.0,-39.0,7.0,1027.7640779867722,1,1,1,0.0,3.0
2021-09-24 12:24:30.854,916.0,125.0,-29.0,924.9443226486662,1,1,1,0.0,3.0
2021-09-24 12:24:30.864,1085.0,8.0,6.0,1085.0460819707152,1,1,1,0.0,3.0
2021-09-24 12:24:30.874,1029.0,68.0,24.0,1031.523630364327,1,1,1,0.0,3.0
2021-09-24 12:24:30.884,948.0,17.0,-20.0,948.3633270007862,1,1,1,0.0,3.0
2021-09-24 12:24:30.893,876.0,17.0,-26.0,876.5506260336592,1,1,1,0.0,3.0
2021-09-24 12:24:30.902,1016.0,17.0,-26.0,1016.4747906367378,1,1,1,0.0,3.0
2021-09-24 12:24:30.903,1016.0,26.0,-1.0,1016.333114682386,1,1,1,0.0,3.0
2021-09-24 12:24:30.913,1064.0,76.0,-1.0,1066.7113011494723,1,1,1,0.0,3.0
2021-09-24 12:24:30.914,1064.0,76.0,21.0,1066.917522585509,1,1,1,0.0,3.0
2021-09-24 12:24:30.929,1007.0,-18.0,21.0,1007.3797695010556,1,1,1,0.0,3.0
2021-09-24 12:24:30.930,1007.0,-18.0,18.0,1007.321696381052,1,1,1,0.0,3.0
2021-09-24 12:24:30.933,968.0,133.0,15.0,977.2092918101016,1,1,1,0.0,3.0
2021-09-24 12:24:30.942,1045.0,-56.0,-6.0,1046.5166028305523,1,1,1,0.0,3.0
2021-09-24 12:24:30.954,1075.0,45.0,48.0,1077.0116062512975,1,1,1,0.0,3.0
2021-09-24 12:24:30.961,1050.0,-111.0,1.0,1055.8513152901785,1,1,1,0.0,3.0
2021-09-24 12:24:30.971,955.0,15.0,-21.0,955.3486274653876,1,1,1,0.0,3.0
2021-09-24 12:24:30.983,1097.0,30.0,-21.0,1097.6110422185084,1,1,1,0.0,3.0
2021-09-24 12:24:30.984,1097.0,30.0,30.0,1097.8201127689365,1,1,1,0.0,3.0
2021-09-24 12:24:30.990,1073.0,30.0,30.0,1073.8384422249,1,1,1,0.0,3.0
2021-09-24 12:24:30.991,1073.0,-154.0,10.0,1084.041050883222,1,1,1,0.0,3.0
2021-09-24 12:24:31.000,934.0,53.0,-20.0,935.7163031603116,1,1,1,0.0,3.0
2021-09-24 12:24:31.011,902.0,181.0,-3.0,919.9858694567,1,1,1,0.0,3.0
2021-09-24 12:24:31.020,1127.0,181.0,-3.0,1141.4460127399807,1,1,1,0.0,3.0
2021-09-24 12:24:31.021,1127.0,55.0,17.0,1128.4693172612183,1,1,1,0.0,3.0
2021-09-24 12:24:31.029,1050.0,-14.0,17.0,1050.2309269870127,1,1,1,0.0,3.0
2021-09-24 12:24:31.030,1050.0,-14.0,28.0,1050.4665630090278,1,1,1,0.0,3.0
2021-09-24 12:24:31.039,926.0,-14.0,28.0,926.5290065615862,1,1,1,0.0,3.0
2021-09-24 12:24:31.040,926.0,-29.0,-20.0,926.6698441192526,1,1,1,0.0,3.0
2021-09-24 12:24:31.049,1003.0,51.0,-20.0,1004.4948979462264,1,1,1,0.0,3.0
2021-09-24 12:24:31.050,1003.0,51.0,24.0,1004.5825003452928,1,1,1,0.0,3.0
2021-09-24 12:24:31.060,1049.0,62.0,24.0,1051.104657015656,1,1,1,0.0,3.0
2021-09-24 12:24:31.069,1039.0,59.0,31.0,1041.1354378753997,1,1,1,0.0,3.0
2021-09-24 12:24:31.078,955.0,43.0,7.0,955.9932008126418,1,1,1,0.0,3.0
2021-09-24 12:24:31.088,980.0,63.0,-7.0,982.0478603408288,1,1,1,0.0,3.0
2021-09-24 12:24:31.098,1041.0,122.0,31.0,1048.582853188054,1,1,1,0.0,3.0
2021-09-24 12:24:31.109,1025.0,-57.0,-12.0,1026.6537877980093,1,1,1,0.0,3.0
2021-09-24 12:24:31.117,967.0,-35.0,-12.0,967.707600466174,1,1,1,0.0,3.0
2021-09-24 12:24:31.118,967.0,-35.0,1.0,967.6337116905344,1,1,1,0.0,3.0
2021-09-24 12:24:31.128,1030.0,36.0,10.0,1030.6774471191266,1,1,1,0.0,3.0
2021-09-24 12:24:31.137,1043.0,36.0,10.0,1043.669008833739,1,1,1,0.0,3.0
2021-09-24 12:24:31.138,1043.0,0.0,23.0,1043.253564575746,1,1,1,0.0,3.0
2021-09-24 12:24:31.147,1045.0,-68.0,11.0,1047.267874041785,1,1,1,0.0,3.0
2021-09-24 12:24:31.157,906.0,-68.0,11.0,908.6148799133769,1,1,1,0.0,3.0
2021-09-24 12:24:31.158,906.0,53.0,-27.0,907.9504391760598,1,1,1,0.0,3.0
2021-09-24 12:24:31.166,990.0,53.0,-27.0,991.785259015277,1,1,1,0.0,3.0
2021-09-24 12:24:31.167,990.0,186.0,5.0,1007.3336090888658,1,1,1,0.0,3.0
2021-09-24 12:24:31.177,1070.0,125.0,65.0,1079.2358407688284,1,1,1,0.0,3.0
2021-09-24 12:24:31.186,1023.0,125.0,65.0,1032.6562835716445,1,1,1,0.0,3.0
2021-09-24 12:24:31.187,1023.0,-18.0,26.0,1023.4886418519748,1,1,1,0.0,3.0
2021-09-24 12:24:31.196,910.0,26.0,-38.0,911.16409060059,1,1,1,0.0,3.0
2021-09-24 12:24:31.216,1051.0,-37.0,-38.0,1052.3373983661324,1,1,1,0.0,3.0
2021-09-24 12:24:31.217,1051.0,-37.0,9.0,1051.6895929883494,1,1,1,0.0,3.0
2021-09-24 12:24:31.220,1063.0,-2.0,22.0,1063.2295142630303,1,1,1,0.0,3.0
2021-09-24 12:24:31.226,1026.0,-60.0,15.0,1027.862344869195,1,1,1,0.0,3.0
2021-09-24 12:24:31.236,898.0,-60.0,15.0,900.1272132315521,1,1,1,0.0,3.0
2021-09-24 12:24:31.237,898.0,24.0,-28.0,898.7569193057709,1,1,1,0.0,3.0
2021-09-24 12:24:31.245,1008.0,62.0,2.0,1009.9069264046068,1,1,1,0.0,3.0
2021-09-24 12:24:31.255,1038.0,75.0,39.0,1041.436507906267,1,1,1,0.0,3.0
2021-09-24 12:24:31.264,975.0,47.0,-11.0,976.194140527385,1,1,1,0.0,3.0
2021-09-24 12:24:31.273,945.0,47.0,-11.0,946.2320011498238,1,1,1,0.0,3.0
2021-09-24 12:24:31.274,945.0,138.0,-12.0,955.09842424747,1,1,1,0.0,3.0
2021-09-24 12:24:31.284,1012.0,5.0,17.0,1012.1551264504864,1,1,1,0.0,3.0
2021-09-24 12:24:31.300,1083.0,-3.0,31.0,1083.4477375489785,1,1,1,0.0,3.0
2021-09-24 12:24:31.303,987.0,-68.0,31.0,989.825237099964,1,1,1,0.0,3.0
2021-09-24 12:24:31.304,987.0,-68.0,-9.0,989.3806143239316,1,1,1,0.0,3.0
2021-09-24 12:24:31.313,960.0,22.0,-28.0,960.6601896612558,1,1,1,0.0,3.0
2021-09-24 12:24:31.324,1065.0,93.0,37.0,1069.6929465972937,1,1,1,0.0,3.0
2021-09-24 12:24:31.333,1075.0,81.0,66.0,1080.0657387400083,1,1,1,0.0,3.0
2021-09-24 12:24:31.349,1033.0,-24.0,-11.0,1033.337311820298,1,1,1,0.0,3.0
2021-09-24 12:24:31.353,938.0,90.0,-31.0,942.8175857502872,1,1,1,0.0,3.0
2021-09-24 12:24:31.362,1081.0,16.0,9.0,1081.155862954089,1,1,1,0.0,3.0
2021-09-24 12:24:31.372,1003.0,64.0,9.0,1005.0800963107368,1,1,1,0.0,3.0
2021-09-24 12:24:31.373,1003.0,64.0,25.0,1005.3506850845628,1,1,1,0.0,3.0
2021-09-24 12:24:31.382,940.0,-34.0,25.0,940.9468635369376,1,1,1,0.0,3.0
2021-09-24 12:24:31.383,940.0,-34.0,-1.0,940.6152242016924,1,1,1,0.0,3.0
2021-09-24 12:24:31.391,884.0,70.0,-26.0,887.1482401492999,1,1,1,0.0,3.0
2021-09-24 12:24:31.402,1020.0,43.0,2.0,1020.9079292472952,1,1,1,0.0,3.0
2021-09-24 12:24:31.411,1077.0,51.0,33.0,1078.7117316503052,1,1,1,0.0,3.0
2021-09-24 12:24:31.420,985.0,39.0,33.0,986.3239832833834,1,1,1,0.0,3.0
2021-09-24 12:24:31.421,985.0,39.0,-2.0,985.7738077267016,1,1,1,0.0,3.0
2021-09-24 12:24:31.431,949.0,99.0,0.0,954.1498834040698,1,1,1,0.0,3.0
2021-09-24 12:24:31.440,1054.0,101.0,28.0,1059.1982817206606,1,1,1,0.0,3.0
2021-09-24 12:24:31.450,1059.0,40.0,37.0,1060.4008675967782,1,1,1,0.0,3.0
2021-09-24 12:24:31.459,995.0,-65.0,-14.0,997.21913339045,1,1,1,0.0,3.0
2021-09-24 12:24:31.469,992.0,28.0,-3.0,992.3996170898092,1,1,1,0.0,3.0
2021-09-24 12:24:31.480,1093.0,12.0,42.0,1093.8724788566535,1,1,1,0.0,3.0
2021-09-24 12:24:31.489,1046.0,-13.0,42.0,1046.923588424676,1,1,1,0.0,3.0
2021-09-24 12:24:31.490,1046.0,-13.0,9.0,1046.1194960423977,1,1,1,0.0,3.0
2021-09-24 12:24:31.498,982.0,-2.0,9.0,982.0432780687418,1,1,1,0.0,3.0
2021-09-24 12:24:31.499,982.0,-2.0,-6.0,982.0203663875816,1,1,1,0.0,3.0
2021-09-24 12:24:31.509,935.0,90.0,-13.0,939.4115179195963,1,1,1,0.0,3.0
2021-09-24 12:24:31.518,1108.0,47.0,23.0,1109.234871431655,1,1,1,0.0,3.0
2021-09-24 12:24:31.527,1033.0,47.0,23.0,1034.3244171922076,1,1,1,0.0,3.0
2021-09-24 12:24:31.528,1033.0,54.0,23.0,1034.6661297249466,1,1,1,0.0,3.0
2021-09-24 12:24:31.538,923.0,-16.0,-9.0,923.1825388296726,1,1,1,0.0,3.0
2021-09-24 12:24:31.547,986.0,-16.0,-9.0,986.1708776880404,1,1,1,0.0,3.0
2021-09-24 12:24:31.548,986.0,3.0,12.0,986.0775831545914,1,1,1,0.0,3.0
2021-09-24 12:24:31.558,1052.0,68.0,18.0,1054.3490883004547,1,1,1,0.0,3.0
2021-09-24 12:24:31.566,1066.0,68.0,18.0,1068.3183046264817,1,1,1,0.0,3.0
2021-09-24 12:24:31.567,1066.0,-4.0,6.0,1066.0243899648826,1,1,1,0.0,3.0
2021-09-24 12:24:31.576,942.0,-19.0,6.0,942.21069830479,1,1,1,0.0,3.0
2021-09-24 12:24:31.577,942.0,-19.0,1.0,942.1921247813526,1,1,1,0.0,3.0
2021-09-24 12:24:31.587,1034.0,53.0,24.0,1035.6355536577528,1,1,1,0.0,3.0
2021-09-24 12:24:31.597,1046.0,93.0,38.0,1050.8134943937482,1,1,1,0.0,3.0
2021-09-24 12:24:31.606,1060.0,43.0,38.0,1061.5521654633842,1,1,1,0.0,3.0
2021-09-24 12:24:31.616,978.0,-71.0,10.0,980.624800828533,1,1,1,0.0,3.0
2021-09-24 12:24:31.627,1016.0,57.0,4.0,1017.6055227837552,1,1,1,0.0,3.0
2021-09-24 12:24:31.635,1074.0,74.0,4.0,1076.5537608498703,1,1,1,0.0,3.0
2021-09-24 12:24:31.636,1074.0,74.0,40.0,1077.2891905147849,1,1,1,0.0,3.0
2021-09-24 12:24:31.645,1022.0,-40.0,10.0,1022.8313643998212,1,1,1,0.0,3.0
2021-09-24 12:24:31.655,915.0,48.0,-38.0,917.045800382947,1,1,1,0.0,3.0
2021-09-24 12:24:31.665,953.0,101.0,-13.0,958.4252709523054,1,1,1,0.0,3.0
2021-09-24 12:24:31.674,1087.0,98.0,44.0,1092.295289745406,1,1,1,0.0,3.0
2021-09-24 12:24:31.684,1104.0,-24.0,32.0,1104.724400020204,1,1,1,0.0,3.0
2021-09-24 12:24:31.694,893.0,43.0,-38.0,894.8418854747468,1,1,1,0.0,3.0
2021-09-24 12:24:31.703,1044.0,7.0,4.0,1044.031129804088,1,1,1,0.0,3.0
2021-09-24 12:24:31.714,1045.0,64.0,36.0,1047.5767275001865,1,1,1,0.0,3.0
2021-09-24 12:24:31.723,1062.0,-6.0,42.0,1062.8471197684078,1,1,1,0.0,3.0
2021-09-24 12:24:31.733,918.0,-9.0,-26.0,918.4122168176988,1,1,1,0.0,3.0
2021-09-24 12:24:31.743,1030.0,65.0,9.0,1032.0881745277386,1,1,1,0.0,3.0
2021-09-24 12:24:31.753,1071.0,38.0,42.0,1072.496620041294,1,1,1,0.0,3.0
2021-09-24 12:24:31.762,1021.0,-18.0,-16.0,1021.2839957621974,1,1,1,0.0,3.0
2021-09-24 12:24:31.772,894.0,122.0,-23.0,902.5790824077412,1,1,1,0.0,3.0
2021-09-24 12:24:31.782,978.0,0.0,-23.0,978.2704125138408,1,1,1,0.0,3.0
2021-09-24 12:24:31.783,978.0,0.0,19.0,978.1845429161104,1,1,1,0.0,3.0
2021-09-24 12:24:31.792,1097.0,-6.0,45.0,1097.9389782679182,1,1,1,0.0,3.0
2021-09-24 12:24:31.801,1025.0,-63.0,45.0,1027.9197439489135,1,1,1,0.0,3.0
2021-09-24 12:24:31.802,1025.0,-63.0,3.0,1026.9386544482586,1,1,1,0.0,3.0
2021-09-24 12:24:31.811,934.0,-63.0,3.0,936.1271281188256,1,1,1,0.0,3.0
2021-09-24 12:24:31.812,934.0,25.0,-53.0,935.8365241857148,1,1,1,0.0,3.0
2021-09-24 12:24:31.821,1077.0,56.0,-53.0,1079.7564540209985,1,1,1,0.0,3.0
2021-09-24 12:24:31.822,1077.0,56.0,17.0,1078.5888929522685,1,1,1,0.0,3.0
2021-09-24 12:24:31.831,1058.0,151.0,29.0,1069.1145869363115,1,1,1,0.0,3.0
2021-09-24 12:24:31.840,1046.0,-22.0,29.0,1046.6331735617784,1,1,1,0.0,3.0
2021-09-24 12:24:31.841,1046.0,-22.0,5.0,1046.2432795483085,1,1,1,0.0,3.0
2021-09-24 12:24:31.850,906.0,73.0,-40.0,909.8159154466358,1,1,1,0.0,3.0
2021-09-24 12:24:31.860,1077.0,73.0,-40.0,1080.2120162264443,1,1,1,0.0,3.0
2021-09-24 12:24:31.861,1077.0,-19.0,-4.0,1077.175008993432,1,1,1,0.0,3.0
2021-09-24 12:24:31.870,1037.0,68.0,-4.0,1039.2348146593242,1,1,1,0.0,3.0
2021-09-24 12:24:31.871,1037.0,68.0,23.0,1039.481601568782,1,1,1,0.0,3.0
2021-09-24 12:24:31.880,970.0,-30.0,11.0,970.5261459641364,1,1,1,0.0,3.0
2021-09-24 12:24:31.889,884.0,17.0,-39.0,885.0231635386726,1,1,1,0.0,3.0
2021-09-24 12:24:31.899,1024.0,15.0,-4.0,1024.1176690205086,1,1,1,0.0,3.0
2021-09-24 12:24:31.909,1075.0,64.0,-4.0,1076.9108598208118,1,1,1,0.0,3.0
2021-09-24 12:24:31.910,1075.0,64.0,31.0,1077.3495254558754,1,1,1,0.0,3.0
2021-09-24 12:24:31.919,988.0,25.0,-4.0,988.3243394756602,1,1,1,0.0,3.0
2021-09-24 12:24:31.928,963.0,122.0,-9.0,970.73889383294,1,1,1,0.0,3.0
2021-09-24 12:24:31.938,1041.0,7.0,6.0,1041.0408253281903,1,1,1,0.0,3.0
2021-09-24 12:24:31.955,1083.0,35.0,38.0,1084.231525090467,1,1,1,0.0,3.0
2021-09-24 12:24:31.959,974.0,-47.0,-12.0,975.2071574798864,1,1,1,0.0,3.0
2021-09-24 12:24:31.967,988.0,46.0,-9.0,989.1112172046174,1,1,1,0.0,3.0
2021-09-24 12:24:31.977,1120.0,35.0,44.0,1121.410272826141,1,1,1,0.0,3.0
2021-09-24 12:24:31.987,1064.0,-13.0,14.0,1064.1715087334371,1,1,1,0.0,3.0
2021-09-24 12:24:31.996,1011.0,46.0,-19.0,1012.2242834471024,1,1,1,0.0,3.0
2021-09-24 12:24:32.006,904.0,119.0,-19.0,911.9967105203834,1,1,1,0.0,3.0
2021-09-24 12:24:32.007,904.0,119.0,-13.0,911.8914409073044,1,1,1,0.0,3.0
2021-09-24 12:24:32.016,1138.0,99.0,30.0,1142.691996996566,1,1,1,0.0,3.0
2021-09-24 12:24:32.026,1033.0,99.0,30.0,1038.166653288382,1,1,1,0.0,3.0
2021-09-24 12:24:32.027,1033.0,46.0,18.0,1034.1803517762266,1,1,1,0.0,3.0
2021-09-24 12:24:32.036,901.0,-11.0,-22.0,901.3356755393633,1,1,1,0.0,3.0
2021-09-24 12:24:32.045,956.0,-55.0,-22.0,957.8334928368292,1,1,1,0.0,3.0
2021-09-24 12:24:32.046,956.0,-55.0,1.0,957.5813281387644,1,1,1,0.0,3.0
2021-09-24 12:24:32.055,1032.0,-3.0,2.0,1032.0062984303922,1,1,1,0.0,3.0
2021-09-24 12:24:32.065,1030.0,61.0,14.0,1031.8997044286814,1,1,1,0.0,3.0
2021-09-24 12:24:32.075,956.0,5.0,9.0,956.055437723148,1,1,1,0.0,3.0
2021-09-24 12:24:32.085,1008.0,41.0,10.0,1008.8830457491096,1,1,1,0.0,3.0
2021-09-24 12:24:32.094,1049.0,205.0,60.0,1070.5260389173166,1,1,1,0.0,3.0
2021-09-24 12:24:32.104,1054.0,94.0,24.0,1058.4554785157477,1,1,1,0.0,3.0
2021-09-24 12:24:32.114,974.0,-147.0,51.0,986.3498365184636,1,1,1,0.0,3.0
2021-09-24 12:24:32.124,972.0,-12.0,4.0,972.082301042458,1,1,1,0.0,3.0
2021-09-24 12:24:32.133,1136.0,-13.0,4.0,1136.0814231383242,1,1,1,0.0,3.0
2021-09-24 12:24:32.134,1136.0,-13.0,12.0,1136.1377557321118,1,1,1,0.0,3.0
2021-09-24 12:24:32.143,1057.0,-13.0,12.0,1057.1480501802953,1,1,1,0.0,3.0
2021-09-24 12:24:32.144,1057.0,-68.0,38.0,1059.8665010273698,1,1,1,0.0,3.0
2021-09-24 12:24:32.153,906.0,-38.0,-26.0,907.1692234638474,1,1,1,0.0,3.0
2021-09-24 12:24:32.163,946.0,184.0,-24.0,964.0269705770684,1,1,1,0.0,3.0
2021-09-24 12:24:32.172,1068.0,145.0,-24.0,1078.0653969031748,1,1,1,0.0,3.0
2021-09-24 12:24:32.173,1068.0,145.0,12.0,1077.865019378586,1,1,1,0.0,3.0
2021-09-24 12:24:32.182,1083.0,31.0,25.0,1083.731977935504,1,1,1,0.0,3.0
2021-09-24 12:24:32.192,932.0,3.0,-46.0,933.1393250742356,1,1,1,0.0,3.0
2021-09-24 12:24:32.201,1013.0,20.0,-46.0,1014.2410955980832,1,1,1,0.0,3.0
2021-09-24 12:24:32.202,1013.0,20.0,26.0,1013.5309566066544,1,1,1,0.0,3.0
2021-09-24 12:24:32.212,1082.0,-14.0,38.0,1082.7575905991146,1,1,1,0.0,3.0
2021-09-24 12:24:32.231,1028.0,-14.0,38.0,1028.797356139682,1,1,1,0.0,3.0
2021-09-24 12:24:32.232,1028.0,28.0,19.0,1028.556755847727,1,1,1,0.0,3.0
2021-09-24 12:24:32.234,919.0,8.0,19.0,919.231200514865,1,1,1,0.0,3.0
2021-09-24 12:24:32.235,919.0,8.0,-27.0,919.4313459959913,1,1,1,0.0,3.0
2021-09-24 12:24:32.245,1132.0,58.0,54.0,1134.770461370933,1,1,1,0.0,3.0
2021-09-24 12:24:32.250,1064.0,101.0,59.0,1070.4102017451066,1,1,1,0.0,3.0
2021-09-24 12:24:32.263,1003.0,54.0,3.0,1004.4570672756502,1,1,1,0.0,3.0
2021-09-24 12:24:32.270,918.0,112.0,-30.0,925.2934669606178,1,1,1,0.0,3.0
2021-09-24 12:24:32.280,983.0,47.0,20.0,984.3261654553332,1,1,1,0.0,3.0
2021-09-24 12:24:32.291,1110.0,-23.0,39.0,1110.9230396386602,1,1,1,0.0,3.0
2021-09-24 12:24:32.299,1020.0,-151.0,-1.0,1031.116870194645,1,1,1,0.0,3.0
2021-09-24 12:24:32.309,952.0,-29.0,-45.0,953.5040639661688,1,1,1,0.0,3.0
2021-09-24 12:24:32.327,1032.0,13.0,15.0,1032.1908738213103,1,1,1,0.0,3.0
2021-09-24 12:24:32.330,1073.0,128.0,40.0,1081.3477701461263,1,1,1,0.0,3.0
2021-09-24 12:24:32.339,1020.0,-8.0,40.0,1020.8153603860004,1,1,1,0.0,3.0
2021-09-24 12:24:32.340,1020.0,-8.0,14.0,1020.1274430187632,1,1,1,0.0,3.0
2021-09-24 12:24:32.360,927.0,58.0,-28.0,929.2346312961006,1,1,1,0.0,3.0
2021-09-24 12:24:32.362,1077.0,-25.0,0.0,1077.290118770241,1,1,1,0.0,3.0
2021-09-24 12:24:32.368,1069.0,53.0,19.0,1070.4816672881418,1,1,1,0.0,3.0
2021-09-24 12:24:32.377,994.0,-51.0,10.0,995.3577246397398,1,1,1,0.0,3.0
2021-09-24 12:24:32.387,909.0,-56.0,-34.0,911.3577782627414,1,1,1,0.0,3.0
2021-09-24 12:24:32.396,1019.0,-56.0,-34.0,1021.1038145066348,1,1,1,0.0,3.0
2021-09-24 12:24:32.397,1019.0,6.0,-14.0,1019.1138307372736,1,1,1,0.0,3.0
2021-09-24 12:24:32.406,1052.0,138.0,-14.0,1061.105084334252,1,1,1,0.0,3.0
2021-09-24 12:24:32.407,1052.0,138.0,48.0,1062.0979239222718,1,1,1,0.0,3.0
2021-09-24 12:24:32.418,969.0,38.0,-15.0,969.8608147564267,1,1,1,0.0,3.0
2021-09-24 12:24:32.426,988.0,38.0,-15.0,988.8442748987324,1,1,1,0.0,3.0
2021-09-24 12:24:32.427,988.0,104.0,0.0,993.4586050762256,1,1,1,0.0,3.0
2021-09-24 12:24:32.436,1016.0,-14.0,11.0,1016.155991961864,1,1,1,0.0,3.0
2021-09-24 12:24:32.446,1082.0,-30.0,37.0,1083.0480137094569,1,1,1,0.0,3.0
2021-09-24 12:24:32.456,985.0,-63.0,6.0,987.0309012386592,1,1,1,0.0,3.0
2021-09-24 12:24:32.466,950.0,-63.0,6.0,952.1055613743678,1,1,1,0.0,3.0
2021-09-24 12:24:32.467,950.0,-3.0,-22.0,950.2594382588368,1,1,1,0.0,3.0
2021-09-24 12:24:32.475,1085.0,45.0,36.0,1086.5293369256074,1,1,1,0.0,3.0
2021-09-24 12:24:32.485,1061.0,25.0,0.0,1061.294492589121,1,1,1,0.0,3.0
2021-09-24 12:24:32.494,1006.0,4.0,20.0,1006.2067382004554,1,1,1,0.0,3.0
2021-09-24 12:24:32.504,892.0,122.0,-46.0,901.4787851081134,1,1,1,0.0,3.0
2021-09-24 12:24:32.514,1060.0,-34.0,-25.0,1060.83976169825,1,1,1,0.0,3.0
2021-09-24 12:24:32.525,1030.0,44.0,20.0,1031.1333570397187,1,1,1,0.0,3.0
2021-09-24 12:24:32.534,939.0,31.0,-12.0,939.5882076739788,1,1,1,0.0,3.0
2021-09-24 12:24:32.543,1026.0,36.0,5.0,1026.6435603460434,1,1,1,0.0,3.0
2021-09-24 12:24:32.553,1052.0,68.0,5.0,1054.2072851199616,1,1,1,0.0,3.0
2021-09-24 12:24:32.554,1052.0,68.0,10.0,1054.2428562717416,1,1,1,0.0,3.0
2021-09-24 12:24:32.563,1100.0,81.0,30.0,1103.3861518072447,1,1,1,0.0,3.0
2021-09-24 12:24:32.573,918.0,65.0,-3.0,920.3032109038846,1,1,1,0.0,3.0
2021-09-24 12:24:32.583,988.0,84.0,-6.0,991.582573465266,1,1,1,0.0,3.0
2021-09-24 12:24:32.592,1096.0,126.0,38.0,1103.8731811218172,1,1,1,0.0,3.0
2021-09-24 12:24:32.602,1055.0,-38.0,9.0,1055.7225014178678,1,1,1,0.0,3.0
2021-09-24 12:24:32.611,971.0,-38.0,9.0,971.784955635762,1,1,1,0.0,3.0
2021-09-24 12:24:32.612,971.0,-51.0,-3.0,972.3430464604558,1,1,1,0.0,3.0
2021-09-24 12:24:32.622,964.0,73.0,-4.0,966.7683279876312,1,1,1,0.0,3.0
2021-09-24 12:24:32.632,1080.0,73.0,-4.0,1082.4717086372282,1,1,1,0.0,3.0
2021-09-24 12:24:32.633,1080.0,9.0,36.0,1080.6373119599375,1,1,1,0.0,3.0
2021-09-24 12:24:32.641,1049.0,-112.0,15.0,1055.0687181411456,1,1,1,0.0,3.0
2021-09-24 12:24:32.650,895.0,-112.0,15.0,902.105315359576,1,1,1,0.0,3.0
2021-09-24 12:24:32.651,895.0,76.0,-32.0,898.7908544261006,1,1,1,0.0,3.0
2021-09-24 12:24:32.660,983.0,78.0,-32.0,986.6088383954404,1,1,1,0.0,3.0
2021-09-24 12:24:32.661,983.0,78.0,0.0,986.0897525073466,1,1,1,0.0,3.0
2021-09-24 12:24:32.671,993.0,279.0,20.0,1031.6443185516994,1,1,1,0.0,3.0
2021-09-24 12:24:32.680,1162.0,279.0,20.0,1195.1924531220902,1,1,1,0.0,3.0
2021-09-24 12:24:32.681,1162.0,-163.0,14.0,1173.460267755155,1,1,1,0.0,3.0
2021-09-24 12:24:32.690,885.0,-163.0,14.0,899.9944444272976,1,1,1,0.0,3.0
2021-09-24 12:24:32.691,885.0,217.0,36.0,911.9265321285482,1,1,1,0.0,3.0
2021-09-24 12:24:32.700,1035.0,-101.0,21.0,1040.1283574636354,1,1,1,0.0,3.0
2021-09-24 12:24:32.709,958.0,-101.0,21.0,963.5382711651883,1,1,1,0.0,3.0
2021-09-24 12:24:32.710,958.0,237.0,6.0,986.8986776766905,1,1,1,0.0,3.0
2021-09-24 12:24:32.719,1119.0,237.0,6.0,1143.8382752819562,1,1,1,0.0,3.0
2021-09-24 12:24:32.720,1119.0,8.0,18.0,1119.1733556513932,1,1,1,0.0,3.0
2021-09-24 12:24:32.729,955.0,8.0,18.0,955.2031197603994,1,1,1,0.0,3.0
2021-09-24 12:24:32.730,955.0,95.0,2.0,959.7155828681746,1,1,1,0.0,3.0
2021-09-24 12:24:32.740,1028.0,-147.0,-20.0,1038.649604053263,1,1,1,0.0,3.0
2021-09-24 12:24:32.748,908.0,-147.0,-20.0,920.039673057635,1,1,1,0.0,3.0
2021-09-24 12:24:32.749,908.0,69.0,13.0,910.71071147758,1,1,1,0.0,3.0
2021-09-24 12:24:32.758,1132.0,-127.0,6.0,1139.1176409835816,1,1,1,0.0,3.0
2021-09-24 12:24:32.768,928.0,164.0,-1.0,942.3804964025944,1,1,1,0.0,3.0
2021-09-24 12:24:32.778,1009.0,17.0,-1.0,1009.1436964079992,1,1,1,0.0,3.0
2021-09-24 12:24:32.779,1009.0,17.0,27.0,1009.5043338193254,1,1,1,0.0,3.0
2021-09-24 12:24:32.788,1006.0,29.0,-10.0,1006.4675851710276,1,1,1,0.0,3.0
2021-09-24 12:24:32.797,1035.0,29.0,-10.0,1035.4544895841632,1,1,1,0.0,3.0
2021-09-24 12:24:32.798,1035.0,-29.0,5.0,1035.4182729699144,1,1,1,0.0,3.0
2021-09-24 12:24:32.807,980.0,-9.0,0.0,980.0413256592806,1,1,1,0.0,3.0
2021-09-24 12:24:32.817,999.0,5.0,13.0,999.097092378914,1,1,1,0.0,3.0
2021-09-24 12:24:32.828,1009.0,20.0,18.0,1009.3587072988472,1,1,1,0.0,3.0
2021-09-24 12:24:32.838,1026.0,2.0,10.0,1026.0506810094714,1,1,1,0.0,3.0
2021-09-24 12:24:32.846,1011.0,29.0,10.0,1011.465273748931,1,1,1,0.0,3.0
2021-09-24 12:24:32.847,1011.0,29.0,12.0,1011.487024138224,1,1,1,0.0,3.0
2021-09-24 12:24:32.856,1012.0,19.0,8.0,1012.2099584572364,1,1,1,0.0,3.0
2021-09-24 12:24:32.866,1016.0,35.0,11.0,1016.6621857824751,1,1,1,0.0,3.0
2021-09-24 12:24:32.876,1016.0,25.0,6.0,1016.3252432169536,1,1,1,0.0,3.0
2021-09-24 12:24:32.885,1030.0,30.0,21.0,1030.6507652934624,1,1,1,0.0,3.0
2021-09-24 12:24:32.895,1025.0,32.0,3.0,1025.5037786376022,1,1,1,0.0,3.0
2021-09-24 12:24:32.904,998.0,40.0,3.0,998.8057869275688,1,1,1,0.0,3.0
2021-09-24 12:24:32.905,998.0,40.0,-5.0,998.8137964605816,1,1,1,0.0,3.0
2021-09-24 12:24:32.915,1001.0,35.0,8.0,1001.6436492086394,1,1,1,0.0,3.0
2021-09-24 12:24:32.925,1043.0,18.0,5.0,1043.1672924320433,1,1,1,0.0,3.0
2021-09-24 12:24:32.935,1017.0,9.0,7.0,1017.063911462795,1,1,1,0.0,3.0
2021-09-24 12:24:32.945,1013.0,31.0,8.0,1013.5057967273792,1,1,1,0.0,3.0
2021-09-24 12:24:32.953,1016.0,-13.0,14.0,1016.1796101083704,1,1,1,0.0,3.0
2021-09-24 12:24:32.970,1015.0,-13.0,14.0,1015.1797870328191,1,1,1,0.0,3.0
2021-09-24 12:24:32.971,1015.0,14.0,20.0,1015.2935536090042,1,1,1,0.0,3.0
2021-09-24 12:24:32.975,1023.0,10.0,20.0,1023.2443500943456,1,1,1,0.0,3.0
2021-09-24 12:24:32.976,1023.0,10.0,2.0,1023.0508296267592,1,1,1,0.0,3.0
2021-09-24 12:24:32.982,1005.0,10.0,2.0,1005.0517399616798,1,1,1,0.0,3.0
2021-09-24 12:24:32.983,1005.0,41.0,7.0,1005.8603282762472,1,1,1,0.0,3.0
2021-09-24 12:24:32.993,991.0,74.0,13.0,993.8440521530528,1,1,1,0.0,3.0
2021-09-24 12:24:33.002,993.0,74.0,13.0,995.8383402942468,1,1,1,0.0,3.0
2021-09-24 12:24:33.003,993.0,77.0,11.0,996.0416657951614,1,1,1,0.0,3.0
2021-09-24 12:24:33.012,991.0,78.0,4.0,994.0729349499462,1,1,1,0.0,3.0
2021-09-24 12:24:33.023,1044.0,-6.0,-5.0,1044.0292141506386,1,1,1,0.0,3.0
