time_stamp,Acceleration_X,Acceleration_Y,Acceleration_Z,magnitude,STD_Status_right,STD_Status_left,STD_Status_both,KMeans,KMeans_convert
2021-09-02 08:16:41.890,1091.0,8.0,43.0,1091.876366627651,1,1,1,3.0,3.0
2021-09-02 08:16:41.893,918.0,106.0,-5.0,924.1130883176584,1,1,1,3.0,3.0
2021-09-02 08:16:41.902,1093.0,-74.0,-12.0,1095.5678892702176,1,1,1,3.0,3.0
2021-09-02 08:16:41.913,940.0,376.0,6.0,1012.428762926064,1,1,1,3.0,3.0
2021-09-02 08:16:41.921,1103.0,-33.0,32.0,1103.9574267153605,1,1,1,3.0,3.0
2021-09-02 08:16:41.931,929.0,71.0,25.0,932.0445268333482,1,1,1,3.0,3.0
2021-09-02 08:16:41.941,1147.0,-236.0,21.0,1171.2156078194996,1,1,1,3.0,3.0
2021-09-02 08:16:41.951,941.0,66.0,-13.0,943.4012931939408,1,1,1,3.0,3.0
2021-09-02 08:16:41.961,1130.0,-86.0,46.0,1134.201040380408,1,1,1,3.0,3.0
2021-09-02 08:16:41.971,1026.0,95.0,0.0,1030.388761584675,1,1,1,3.0,3.0
2021-09-02 08:16:41.980,992.0,39.0,-13.0,992.8514491100872,1,1,1,3.0,3.0
2021-09-02 08:16:41.990,921.0,230.0,-2.0,949.2865742229792,1,1,1,3.0,3.0
2021-09-02 08:16:41.999,1118.0,-21.0,-2.0,1118.1989983898216,1,1,1,3.0,3.0
2021-09-02 08:16:42.000,1118.0,-21.0,30.0,1118.5995708921043,1,1,1,3.0,3.0
2021-09-02 08:16:42.009,1003.0,27.0,4.0,1003.3713171104704,1,1,1,3.0,3.0
2021-09-02 08:16:42.020,996.0,27.0,4.0,996.3739257929224,1,1,1,3.0,3.0
2021-09-02 08:16:42.021,996.0,-17.0,-6.0,996.1631392497918,1,1,1,3.0,3.0
2021-09-02 08:16:42.029,941.0,78.0,-28.0,944.642260329274,1,1,1,3.0,3.0
2021-09-02 08:16:42.038,1093.0,78.0,-28.0,1096.13730891709,1,1,1,3.0,3.0
2021-09-02 08:16:42.039,1093.0,-29.0,27.0,1093.717970959607,1,1,1,3.0,3.0
2021-09-02 08:16:42.048,989.0,74.0,-9.0,991.805424465908,1,1,1,3.0,3.0
2021-09-02 08:16:42.058,994.0,48.0,-8.0,995.1904340376268,1,1,1,3.0,3.0
2021-09-02 08:16:42.069,991.0,156.0,3.0,1003.207854833683,1,1,1,3.0,3.0
2021-09-02 08:16:42.077,1037.0,156.0,3.0,1048.6724941563025,1,1,1,3.0,3.0
2021-09-02 08:16:42.078,1037.0,71.0,23.0,1039.6821629709725,1,1,1,3.0,3.0
2021-09-02 08:16:42.087,1021.0,30.0,14.0,1021.536587695223,1,1,1,3.0,3.0
2021-09-02 08:16:42.097,1027.0,-83.0,-1.0,1030.348970009676,1,1,1,3.0,3.0
2021-09-02 08:16:42.107,1024.0,3.0,30.0,1024.4437515061527,1,1,1,3.0,3.0
2021-09-02 08:16:42.117,1049.0,-39.0,8.0,1049.7552095607814,1,1,1,3.0,3.0
2021-09-02 08:16:42.131,1029.0,-39.0,8.0,1029.7698772055824,1,1,1,3.0,3.0
2021-09-02 08:16:42.132,1029.0,-75.0,-15.0,1031.8386501774394,1,1,1,3.0,3.0
2021-09-02 08:16:42.136,1000.0,46.0,7.0,1001.0819147302582,1,1,1,3.0,3.0
2021-09-02 08:16:42.146,981.0,160.0,-3.0,993.9668002503906,1,1,1,3.0,3.0
2021-09-02 08:16:42.156,1066.0,89.0,33.0,1070.2177348558564,1,1,1,3.0,3.0
2021-09-02 08:16:42.166,1008.0,61.0,6.0,1009.8618717428636,1,1,1,3.0,3.0
2021-09-02 08:16:42.176,959.0,117.0,-36.0,966.78125757588,1,1,1,3.0,3.0
2021-09-02 08:16:42.185,991.0,40.0,1.0,991.8074409884208,1,1,1,3.0,3.0
2021-09-02 08:16:42.195,1103.0,-26.0,25.0,1103.5895976312934,1,1,1,3.0,3.0
2021-09-02 08:16:42.204,1003.0,-26.0,25.0,1003.648344790146,1,1,1,3.0,3.0
2021-09-02 08:16:42.205,1003.0,53.0,3.0,1004.4038032584306,1,1,1,3.0,3.0
2021-09-02 08:16:42.214,914.0,88.0,-17.0,918.3839066534211,1,1,1,3.0,3.0
2021-09-02 08:16:42.224,1051.0,88.0,-17.0,1054.8146756658252,1,1,1,3.0,3.0
2021-09-02 08:16:42.225,1051.0,46.0,5.0,1052.0180606814697,1,1,1,3.0,3.0
2021-09-02 08:16:42.234,992.0,95.0,19.0,996.7196195520584,1,1,1,3.0,3.0
2021-09-02 08:16:42.243,1036.0,95.0,19.0,1040.5200622765522,1,1,1,3.0,3.0
2021-09-02 08:16:42.244,1036.0,54.0,14.0,1037.5008433731512,1,1,1,3.0,3.0
2021-09-02 08:16:42.253,935.0,62.0,-9.0,937.0965798678384,1,1,1,3.0,3.0
2021-09-02 08:16:42.263,1066.0,-2.0,31.0,1066.452530589149,1,1,1,3.0,3.0
2021-09-02 08:16:42.273,1016.0,17.0,22.0,1016.3803421947908,1,1,1,3.0,3.0
2021-09-02 08:16:42.284,1052.0,17.0,22.0,1052.367331305947,1,1,1,3.0,3.0
2021-09-02 08:16:42.285,1052.0,-121.0,-7.0,1058.9589227160798,1,1,1,3.0,3.0
2021-09-02 08:16:42.292,977.0,51.0,-23.0,978.6005313712026,1,1,1,3.0,3.0
2021-09-02 08:16:42.302,1027.0,134.0,-1.0,1035.705556613461,1,1,1,3.0,3.0
2021-09-02 08:16:42.312,1019.0,79.0,28.0,1022.4411963531204,1,1,1,3.0,3.0
2021-09-02 08:16:42.322,999.0,38.0,-3.0,999.7269627253232,1,1,1,3.0,3.0
2021-09-02 08:16:42.332,910.0,228.0,-3.0,938.1327198216678,1,1,1,3.0,3.0
2021-09-02 08:16:42.333,910.0,228.0,19.0,938.3203077840744,1,1,1,3.0,3.0
2021-09-02 08:16:42.341,1066.0,-2.0,23.0,1066.249970691676,1,1,1,3.0,3.0
2021-09-02 08:16:42.351,1038.0,-30.0,-7.0,1038.4570284802353,1,1,1,3.0,3.0
2021-09-02 08:16:42.361,1012.0,3.0,10.0,1012.0538523220984,1,1,1,3.0,3.0
2021-09-02 08:16:42.370,909.0,3.0,10.0,909.0599540184356,1,1,1,3.0,3.0
2021-09-02 08:16:42.371,909.0,85.0,-2.0,912.967688365804,1,1,1,3.0,3.0
2021-09-02 08:16:42.381,1098.0,-3.0,30.0,1098.4138564311722,1,1,1,3.0,3.0
2021-09-02 08:16:42.391,985.0,72.0,12.0,987.7008656470844,1,1,1,3.0,3.0
2021-09-02 08:16:42.400,1006.0,37.0,-22.0,1006.920552973272,1,1,1,3.0,3.0
2021-09-02 08:16:42.409,936.0,37.0,-22.0,936.9893275806294,1,1,1,3.0,3.0
2021-09-02 08:16:42.410,936.0,127.0,-30.0,945.05290857179,1,1,1,3.0,3.0
2021-09-02 08:16:42.419,1091.0,-37.0,20.0,1091.8104231046707,1,1,1,3.0,3.0
2021-09-02 08:16:42.433,1012.0,19.0,20.0,1012.3759183228332,1,1,1,3.0,3.0
2021-09-02 08:16:42.434,1012.0,19.0,3.0,1012.1827898161478,1,1,1,3.0,3.0
2021-09-02 08:16:42.440,1018.0,-98.0,16.0,1022.8313643998212,1,1,1,3.0,3.0
2021-09-02 08:16:42.449,922.0,135.0,-16.0,931.9683471019816,1,1,1,3.0,3.0
2021-09-02 08:16:42.458,1055.0,135.0,-16.0,1063.722708228042,1,1,1,3.0,3.0
2021-09-02 08:16:42.459,1055.0,38.0,13.0,1055.7641782140556,1,1,1,3.0,3.0
2021-09-02 08:16:42.468,985.0,104.0,35.0,991.0933356652138,1,1,1,3.0,3.0
2021-09-02 08:16:42.479,996.0,12.0,-7.0,996.0968828382108,1,1,1,3.0,3.0
2021-09-02 08:16:42.488,982.0,162.0,-12.0,995.3451662614332,1,1,1,3.0,3.0
2021-09-02 08:16:42.497,1081.0,57.0,-12.0,1082.5682426526284,1,1,1,3.0,3.0
2021-09-02 08:16:42.498,1081.0,57.0,27.0,1082.8383997624023,1,1,1,3.0,3.0
2021-09-02 08:16:42.507,1009.0,33.0,16.0,1009.666281500972,1,1,1,3.0,3.0
2021-09-02 08:16:42.517,1052.0,-142.0,14.0,1061.6327048466433,1,1,1,3.0,3.0
2021-09-02 08:16:42.527,940.0,-142.0,14.0,950.7681105295864,1,1,1,3.0,3.0
2021-09-02 08:16:42.528,940.0,69.0,4.0,942.5375324091874,1,1,1,3.0,3.0
2021-09-02 08:16:42.536,1093.0,69.0,4.0,1095.183089716053,1,1,1,3.0,3.0
2021-09-02 08:16:42.537,1093.0,-55.0,26.0,1094.6917374311363,1,1,1,3.0,3.0
2021-09-02 08:16:42.547,981.0,99.0,26.0,986.3255040806762,1,1,1,3.0,3.0
2021-09-02 08:16:42.548,981.0,99.0,7.0,986.0076064615324,1,1,1,3.0,3.0
2021-09-02 08:16:42.556,999.0,30.0,-1.0,999.4508492167088,1,1,1,3.0,3.0
2021-09-02 08:16:42.566,914.0,234.0,13.0,943.5682275278244,1,1,1,3.0,3.0
2021-09-02 08:16:42.576,1076.0,2.0,20.0,1076.1877159678045,1,1,1,3.0,3.0
2021-09-02 08:16:42.585,1024.0,69.0,35.0,1026.9186920102293,1,1,1,3.0,3.0
2021-09-02 08:16:42.596,980.0,-17.0,-29.0,980.576361126455,1,1,1,3.0,3.0
2021-09-02 08:16:42.613,1049.0,47.0,27.0,1050.3994478292532,1,1,1,3.0,3.0
2021-09-02 08:16:42.615,1112.0,-59.0,27.0,1113.8913771099944,1,1,1,3.0,3.0
2021-09-02 08:16:42.624,981.0,61.0,27.0,983.2654778847876,1,1,1,3.0,3.0
2021-09-02 08:16:42.625,981.0,61.0,4.0,982.9028436218912,1,1,1,3.0,3.0
2021-09-02 08:16:42.634,1001.0,36.0,-14.0,1001.7449775267156,1,1,1,3.0,3.0
2021-09-02 08:16:42.647,997.0,174.0,20.0,1012.2672572003896,1,1,1,3.0,3.0
2021-09-02 08:16:42.654,1038.0,68.0,21.0,1040.4369274492328,1,1,1,3.0,3.0
2021-09-02 08:16:42.663,990.0,68.0,21.0,992.5547843822022,1,1,1,3.0,3.0
2021-09-02 08:16:42.664,990.0,71.0,9.0,992.5834977471668,1,1,1,3.0,3.0
2021-09-02 08:16:42.673,1038.0,-85.0,11.0,1041.5325246961806,1,1,1,3.0,3.0
2021-09-02 08:16:42.683,1026.0,-16.0,17.0,1026.2655601743634,1,1,1,3.0,3.0
2021-09-02 08:16:42.694,1033.0,-55.0,17.0,1034.6028223429512,1,1,1,3.0,3.0
2021-09-02 08:16:42.702,1002.0,-55.0,17.0,1003.652330241902,1,1,1,3.0,3.0
2021-09-02 08:16:42.703,1002.0,34.0,-12.0,1002.6484927430948,1,1,1,3.0,3.0
2021-09-02 08:16:42.712,925.0,73.0,-22.0,928.1368433587796,1,1,1,3.0,3.0
2021-09-02 08:16:42.722,986.0,175.0,0.0,1001.409506645508,1,1,1,3.0,3.0
2021-09-02 08:16:42.732,1069.0,51.0,32.0,1070.6941673512565,1,1,1,3.0,3.0
2021-09-02 08:16:42.742,1017.0,57.0,-10.0,1018.6451786564348,1,1,1,3.0,3.0
2021-09-02 08:16:42.753,934.0,147.0,-28.0,945.9117294969968,1,1,1,3.0,3.0
2021-09-02 08:16:42.761,1111.0,-49.0,18.0,1112.22569652027,1,1,1,3.0,3.0
2021-09-02 08:16:42.771,1099.0,-1.0,45.0,1099.9213608254,1,1,1,3.0,3.0
2021-09-02 08:16:42.781,970.0,60.0,13.0,971.940841821147,1,1,1,3.0,3.0
2021-09-02 08:16:42.806,922.0,116.0,-13.0,929.3594568303484,1,1,1,3.0,3.0
2021-09-02 08:16:42.807,1050.0,31.0,-13.0,1050.5379574294304,1,1,1,3.0,3.0
2021-09-02 08:16:42.808,1050.0,31.0,22.0,1050.6878699214149,1,1,1,3.0,3.0
2021-09-02 08:16:42.811,998.0,110.0,20.0,1004.2429984819412,1,1,1,3.0,3.0
2021-09-02 08:16:42.823,1037.0,62.0,13.0,1038.9331066050404,1,1,1,3.0,3.0
2021-09-02 08:16:42.829,912.0,95.0,13.0,917.026717168044,1,1,1,3.0,3.0
2021-09-02 08:16:42.830,912.0,95.0,-5.0,916.9481991912083,1,1,1,3.0,3.0
2021-09-02 08:16:42.839,1078.0,-25.0,31.0,1078.73537070034,1,1,1,3.0,3.0
2021-09-02 08:16:42.849,1017.0,-25.0,31.0,1017.7794456560812,1,1,1,3.0,3.0
2021-09-02 08:16:42.850,1017.0,14.0,9.0,1017.1361757404954,1,1,1,3.0,3.0
2021-09-02 08:16:42.859,1068.0,-126.0,5.0,1075.4185231806266,1,1,1,3.0,3.0
2021-09-02 08:16:42.873,932.0,100.0,-6.0,937.3686574662074,1,1,1,3.0,3.0
2021-09-02 08:16:42.878,1036.0,128.0,12.0,1043.946358775201,1,1,1,3.0,3.0
2021-09-02 08:16:42.888,1014.0,61.0,3.0,1015.8375854436574,1,1,1,3.0,3.0
2021-09-02 08:16:42.907,996.0,46.0,3.0,997.066196398213,1,1,1,3.0,3.0
2021-09-02 08:16:42.908,996.0,46.0,15.0,997.1745082983218,1,1,1,3.0,3.0
2021-09-02 08:16:42.910,921.0,196.0,13.0,941.7143940707288,1,1,1,3.0,3.0
2021-09-02 08:16:42.917,1084.0,0.0,13.0,1084.0779492268994,1,1,1,3.0,3.0
2021-09-02 08:16:42.918,1084.0,0.0,8.0,1084.0295198932545,1,1,1,3.0,3.0
2021-09-02 08:16:42.927,1016.0,54.0,13.0,1017.5170760237884,1,1,1,3.0,3.0
2021-09-02 08:16:42.937,1011.0,-25.0,14.0,1011.4059521280266,1,1,1,3.0,3.0
2021-09-02 08:16:42.947,900.0,76.0,7.0,903.230313928845,1,1,1,3.0,3.0
2021-09-02 08:16:42.956,1122.0,-29.0,7.0,1122.3965431165582,1,1,1,3.0,3.0
2021-09-02 08:16:42.957,1122.0,-29.0,35.0,1122.9202999322792,1,1,1,3.0,3.0
2021-09-02 08:16:42.967,969.0,67.0,-1.0,971.3140583765892,1,1,1,3.0,3.0
2021-09-02 08:16:42.977,989.0,46.0,12.0,990.141909021126,1,1,1,3.0,3.0
2021-09-02 08:16:42.986,936.0,128.0,-34.0,945.32322514577,1,1,1,3.0,3.0
2021-09-02 08:16:42.995,1086.0,128.0,-34.0,1094.045702884482,1,1,1,3.0,3.0
2021-09-02 08:16:42.996,1086.0,-15.0,20.0,1086.2877151105042,1,1,1,3.0,3.0
2021-09-02 08:16:43.005,1007.0,24.0,2.0,1007.2879429438236,1,1,1,3.0,3.0
2021-09-02 08:16:43.016,1034.0,-116.0,1.0,1040.486905251575,1,1,1,3.0,3.0
2021-09-02 08:16:43.026,1003.0,31.0,26.0,1003.815720139907,1,1,1,3.0,3.0
2021-09-02 08:16:43.034,1054.0,31.0,26.0,1054.7762795967683,1,1,1,3.0,3.0
2021-09-02 08:16:43.035,1054.0,62.0,20.0,1056.011363575222,1,1,1,3.0,3.0
2021-09-02 08:16:43.044,995.0,105.0,23.0,1000.789188590684,1,1,1,3.0,3.0
2021-09-02 08:16:43.054,1016.0,45.0,6.0,1017.0137658852018,1,1,1,3.0,3.0
2021-09-02 08:16:43.064,979.0,170.0,-10.0,993.7006591524432,1,1,1,3.0,3.0
2021-09-02 08:16:43.074,1086.0,170.0,-10.0,1099.2706673062826,1,1,1,3.0,3.0
2021-09-02 08:16:43.075,1086.0,63.0,24.0,1088.0905293218943,1,1,1,3.0,3.0
2021-09-02 08:16:43.083,1019.0,45.0,25.0,1020.2994658432395,1,1,1,3.0,3.0
2021-09-02 08:16:43.093,1050.0,-153.0,-4.0,1061.0961313660512,1,1,1,3.0,3.0
2021-09-02 08:16:43.103,947.0,70.0,3.0,949.5883318575476,1,1,1,3.0,3.0
2021-09-02 08:16:43.113,1086.0,-41.0,22.0,1086.9963201409653,1,1,1,3.0,3.0
2021-09-02 08:16:43.123,994.0,109.0,9.0,999.9989999995,1,1,1,3.0,3.0
2021-09-02 08:16:43.134,937.0,63.0,-34.0,939.7308125202665,1,1,1,3.0,3.0
2021-09-02 08:16:43.142,920.0,209.0,-2.0,943.443162039982,1,1,1,3.0,3.0
2021-09-02 08:16:43.152,1061.0,13.0,30.0,1061.5036504883062,1,1,1,3.0,3.0
2021-09-02 08:16:43.162,1038.0,60.0,30.0,1040.1653714674412,1,1,1,3.0,3.0
2021-09-02 08:16:43.163,1038.0,60.0,26.0,1040.0576907075877,1,1,1,3.0,3.0
2021-09-02 08:16:43.172,1005.0,-42.0,-18.0,1006.038269649818,1,1,1,3.0,3.0
2021-09-02 08:16:43.182,1055.0,44.0,40.0,1056.674500496723,1,1,1,3.0,3.0
2021-09-02 08:16:43.191,1034.0,41.0,20.0,1035.0057970852145,1,1,1,3.0,3.0
2021-09-02 08:16:43.200,998.0,41.0,20.0,999.042041157428,1,1,1,3.0,3.0
2021-09-02 08:16:43.201,998.0,71.0,13.0,1000.6068158872396,1,1,1,3.0,3.0
2021-09-02 08:16:43.210,988.0,71.0,13.0,990.633130881458,1,1,1,3.0,3.0
2021-09-02 08:16:43.211,988.0,63.0,6.0,990.0247471654434,1,1,1,3.0,3.0
2021-09-02 08:16:43.222,997.0,150.0,33.0,1008.76062571851,1,1,1,3.0,3.0
2021-09-02 08:16:43.230,1034.0,85.0,29.0,1037.8930580748674,1,1,1,3.0,3.0
2021-09-02 08:16:43.239,1003.0,85.0,29.0,1007.012909549823,1,1,1,3.0,3.0
2021-09-02 08:16:43.240,1003.0,18.0,0.0,1003.1615024511258,1,1,1,3.0,3.0
2021-09-02 08:16:43.249,1035.0,-103.0,0.0,1040.1124939159226,1,1,1,3.0,3.0
2021-09-02 08:16:43.250,1035.0,-103.0,-10.0,1040.160564528381,1,1,1,3.0,3.0
2021-09-02 08:16:43.259,1042.0,12.0,26.0,1042.393399825613,1,1,1,3.0,3.0
2021-09-02 08:16:43.269,1038.0,12.0,26.0,1038.394915241788,1,1,1,3.0,3.0
2021-09-02 08:16:43.270,1038.0,-9.0,19.0,1038.2128876102431,1,1,1,3.0,3.0
2021-09-02 08:16:43.279,1001.0,2.0,2.0,1001.00399599602,1,1,1,3.0,3.0
2021-09-02 08:16:43.289,911.0,104.0,-11.0,916.9830968998284,1,1,1,3.0,3.0
2021-09-02 08:16:43.298,982.0,154.0,-19.0,994.1835846562748,1,1,1,3.0,3.0
2021-09-02 08:16:43.308,1067.0,103.0,34.0,1072.498951048438,1,1,1,3.0,3.0
2021-09-02 08:16:43.318,992.0,45.0,6.0,993.0382671377776,1,1,1,3.0,3.0
2021-09-02 08:16:43.329,921.0,142.0,-18.0,932.0563287698872,1,1,1,3.0,3.0
2021-09-02 08:16:43.337,1097.0,-61.0,18.0,1098.842117867713,1,1,1,3.0,3.0
2021-09-02 08:16:43.347,1003.0,58.0,17.0,1004.8193867556496,1,1,1,3.0,3.0
2021-09-02 08:16:43.357,980.0,83.0,-7.0,983.5334259698548,1,1,1,3.0,3.0
2021-09-02 08:16:43.367,913.0,112.0,-18.0,920.0201084758964,1,1,1,3.0,3.0
2021-09-02 08:16:43.377,1052.0,35.0,-18.0,1052.735959298437,1,1,1,3.0,3.0
2021-09-02 08:16:43.378,1052.0,35.0,25.0,1052.8789104165778,1,1,1,3.0,3.0
2021-09-02 08:16:43.386,996.0,135.0,19.0,1005.2870236902494,1,1,1,3.0,3.0
2021-09-02 08:16:43.396,1018.0,10.0,-6.0,1018.0667954510646,1,1,1,3.0,3.0
2021-09-02 08:16:43.405,945.0,10.0,-6.0,945.0719549325332,1,1,1,3.0,3.0
2021-09-02 08:16:43.406,945.0,39.0,-8.0,945.838252556958,1,1,1,3.0,3.0
2021-09-02 08:16:43.415,1061.0,6.0,-8.0,1061.0471243069271,1,1,1,3.0,3.0
2021-09-02 08:16:43.416,1061.0,6.0,32.0,1061.4994112103875,1,1,1,3.0,3.0
2021-09-02 08:16:43.429,1028.0,19.0,32.0,1028.673417562639,1,1,1,3.0,3.0
2021-09-02 08:16:43.430,1028.0,19.0,25.0,1028.479460174096,1,1,1,3.0,3.0
2021-09-02 08:16:43.435,1040.0,19.0,25.0,1040.4739304759155,1,1,1,3.0,3.0
2021-09-02 08:16:43.436,1040.0,-128.0,0.0,1047.8473171221085,1,1,1,3.0,3.0
2021-09-02 08:16:43.445,946.0,58.0,-12.0,947.8523091705796,1,1,1,3.0,3.0
2021-09-02 08:16:43.454,1067.0,58.0,-12.0,1068.6425969424952,1,1,1,3.0,3.0
2021-09-02 08:16:43.455,1067.0,-37.0,32.0,1068.120779687391,1,1,1,3.0,3.0
2021-09-02 08:16:43.464,1033.0,77.0,11.0,1035.9242250280663,1,1,1,3.0,3.0
2021-09-02 08:16:43.474,1016.0,48.0,-11.0,1017.1927054398296,1,1,1,3.0,3.0
2021-09-02 08:16:43.485,907.0,205.0,2.0,929.8806375013946,1,1,1,3.0,3.0
2021-09-02 08:16:43.493,1093.0,205.0,2.0,1112.0602501663298,1,1,1,3.0,3.0
2021-09-02 08:16:43.494,1093.0,25.0,20.0,1093.468792421622,1,1,1,3.0,3.0
2021-09-02 08:16:43.503,1020.0,22.0,17.0,1020.3788512116467,1,1,1,3.0,3.0
2021-09-02 08:16:43.513,1003.0,-2.0,1.0,1003.0024925193356,1,1,1,3.0,3.0
2021-09-02 08:16:43.523,918.0,99.0,-10.0,923.3769544449332,1,1,1,3.0,3.0
2021-09-02 08:16:43.533,1114.0,99.0,-10.0,1118.4350674044515,1,1,1,3.0,3.0
2021-09-02 08:16:43.534,1114.0,-4.0,35.0,1114.5568626140166,1,1,1,3.0,3.0
2021-09-02 08:16:43.542,969.0,72.0,35.0,972.3013936017988,1,1,1,3.0,3.0
2021-09-02 08:16:43.543,969.0,72.0,-7.0,971.6964546606106,1,1,1,3.0,3.0
2021-09-02 08:16:43.553,1022.0,32.0,11.0,1022.560022688155,1,1,1,3.0,3.0
2021-09-02 08:16:43.562,965.0,159.0,16.0,978.1421164636558,1,1,1,3.0,3.0
2021-09-02 08:16:43.572,1091.0,-41.0,17.0,1091.9024681719518,1,1,1,3.0,3.0
2021-09-02 08:16:43.582,1005.0,0.0,5.0,1005.0124377339816,1,1,1,3.0,3.0
2021-09-02 08:16:43.592,1042.0,-110.0,5.0,1047.801985109782,1,1,1,3.0,3.0
2021-09-02 08:16:43.601,985.0,30.0,2.0,985.458776408227,1,1,1,3.0,3.0
2021-09-02 08:16:43.611,1068.0,-1.0,42.0,1068.8259914504324,1,1,1,3.0,3.0
2021-09-02 08:16:43.631,984.0,106.0,42.0,990.5836663301086,1,1,1,3.0,3.0
2021-09-02 08:16:43.632,984.0,106.0,17.0,989.8388757772652,1,1,1,3.0,3.0
2021-09-02 08:16:43.633,1011.0,8.0,-3.0,1011.0361022238524,1,1,1,3.0,3.0
2021-09-02 08:16:43.640,945.0,229.0,13.0,972.43765867021,1,1,1,3.0,3.0
2021-09-02 08:16:43.650,1106.0,23.0,20.0,1106.419902207114,1,1,1,3.0,3.0
2021-09-02 08:16:43.662,1018.0,43.0,13.0,1018.9906770917976,1,1,1,3.0,3.0
2021-09-02 08:16:43.669,940.0,85.0,0.0,943.8352610493,1,1,1,3.0,3.0
2021-09-02 08:16:43.679,944.0,95.0,-16.0,948.9030508961388,1,1,1,3.0,3.0
2021-09-02 08:16:43.689,1093.0,-73.0,36.0,1096.0264595346227,1,1,1,3.0,3.0
2021-09-02 08:16:43.698,999.0,-73.0,36.0,1002.310331184908,1,1,1,3.0,3.0
2021-09-02 08:16:43.699,999.0,111.0,18.0,1005.3089077492548,1,1,1,3.0,3.0
2021-09-02 08:16:43.708,976.0,45.0,18.0,977.2026401929132,1,1,1,3.0,3.0
2021-09-02 08:16:43.709,976.0,45.0,-15.0,977.1519840843594,1,1,1,3.0,3.0
2021-09-02 08:16:43.720,1050.0,140.0,6.0,1059.3092088715173,1,1,1,3.0,3.0
2021-09-02 08:16:43.728,1085.0,25.0,21.0,1085.491133082164,1,1,1,3.0,3.0
2021-09-02 08:16:43.738,1021.0,36.0,15.0,1021.7445864794196,1,1,1,3.0,3.0
2021-09-02 08:16:43.747,1038.0,36.0,15.0,1038.732400572929,1,1,1,3.0,3.0
2021-09-02 08:16:43.748,1038.0,-80.0,0.0,1041.0782871619213,1,1,1,3.0,3.0
2021-09-02 08:16:43.757,1037.0,-5.0,15.0,1037.1205330143648,1,1,1,3.0,3.0
2021-09-02 08:16:43.768,1037.0,-17.0,9.0,1037.1783838858194,1,1,1,3.0,3.0
2021-09-02 08:16:43.777,1007.0,1.0,17.0,1007.14398176229,1,1,1,3.0,3.0
2021-09-02 08:16:43.786,992.0,1.0,17.0,992.146158587534,1,1,1,3.0,3.0
2021-09-02 08:16:43.787,992.0,46.0,15.0,993.17923860701,1,1,1,3.0,3.0
2021-09-02 08:16:43.796,966.0,166.0,11.0,980.2208934724866,1,1,1,3.0,3.0
2021-09-02 08:16:43.806,1024.0,123.0,39.0,1032.0978635768993,1,1,1,3.0,3.0
2021-09-02 08:16:43.831,942.0,156.0,39.0,955.625972857582,1,1,1,3.0,3.0
2021-09-02 08:16:43.832,942.0,156.0,-26.0,955.183751955612,1,1,1,3.0,3.0
2021-09-02 08:16:43.835,992.0,40.0,7.0,992.830801294964,1,1,1,3.0,3.0
2021-09-02 08:16:43.845,1093.0,-70.0,24.0,1095.5021679576903,1,1,1,3.0,3.0
2021-09-02 08:16:43.855,995.0,27.0,0.0,995.3662642464832,1,1,1,3.0,3.0
2021-09-02 08:16:43.865,902.0,191.0,1.0,922.0010845980604,1,1,1,3.0,3.0
2021-09-02 08:16:43.875,1073.0,24.0,11.0,1073.3247411664374,1,1,1,3.0,3.0
2021-09-02 08:16:43.889,969.0,134.0,19.0,978.4058462621736,1,1,1,3.0,3.0
2021-09-02 08:16:43.894,1015.0,80.0,14.0,1018.244076830305,1,1,1,3.0,3.0
2021-09-02 08:16:43.904,928.0,104.0,7.0,933.835638643118,1,1,1,3.0,3.0
2021-09-02 08:16:43.921,1084.0,-43.0,13.0,1084.9304125150147,1,1,1,3.0,3.0
2021-09-02 08:16:43.925,1020.0,74.0,18.0,1022.839185796086,1,1,1,3.0,3.0
2021-09-02 08:16:43.934,1070.0,-150.0,5.0,1080.4744328303193,1,1,1,3.0,3.0
2021-09-02 08:16:43.943,966.0,72.0,-30.0,969.1439521557156,1,1,1,3.0,3.0
2021-09-02 08:16:43.953,1037.0,97.0,-28.0,1041.9030665085884,1,1,1,3.0,3.0
2021-09-02 08:16:43.963,996.0,80.0,6.0,999.2257002299332,1,1,1,3.0,3.0
2021-09-02 08:16:43.972,1019.0,80.0,6.0,1022.1531196449972,1,1,1,3.0,3.0
2021-09-02 08:16:43.973,1019.0,17.0,1.0,1019.14228643502,1,1,1,3.0,3.0
2021-09-02 08:16:43.982,895.0,263.0,5.0,932.855294244504,1,1,1,3.0,3.0
2021-09-02 08:16:43.992,1071.0,-10.0,9.0,1071.0844971336296,1,1,1,3.0,3.0
2021-09-02 08:16:44.001,1035.0,-56.0,-7.0,1036.53750535135,1,1,1,3.0,3.0
2021-09-02 08:16:44.012,1009.0,1.0,32.0,1009.50780086139,1,1,1,3.0,3.0
2021-09-02 08:16:44.021,923.0,1.0,32.0,923.5550876910376,1,1,1,3.0,3.0
2021-09-02 08:16:44.022,923.0,67.0,-4.0,925.4371939791484,1,1,1,3.0,3.0
2021-09-02 08:16:44.031,1080.0,14.0,30.0,1080.5072882678764,1,1,1,3.0,3.0
2021-09-02 08:16:44.041,1006.0,78.0,30.0,1009.4652049476496,1,1,1,3.0,3.0
2021-09-02 08:16:44.042,1006.0,78.0,-9.0,1009.0594630644916,1,1,1,3.0,3.0
2021-09-02 08:16:44.050,1035.0,20.0,7.0,1035.2168854882536,1,1,1,3.0,3.0
2021-09-02 08:16:44.060,947.0,121.0,-21.0,954.9298403547772,1,1,1,3.0,3.0
2021-09-02 08:16:44.071,1077.0,2.0,24.0,1077.2692328290082,1,1,1,3.0,3.0
2021-09-02 08:16:44.079,1017.0,2.0,24.0,1017.2851124439007,1,1,1,3.0,3.0
2021-09-02 08:16:44.080,1017.0,34.0,0.0,1017.5681795339318,1,1,1,3.0,3.0
2021-09-02 08:16:44.090,1038.0,-92.0,-8.0,1042.099803281816,1,1,1,3.0,3.0
2021-09-02 08:16:44.099,1031.0,-22.0,17.0,1031.3748106289972,1,1,1,3.0,3.0
2021-09-02 08:16:44.109,1080.0,20.0,9.0,1080.22266223219,1,1,1,3.0,3.0
2021-09-02 08:16:44.119,968.0,99.0,16.0,973.1808670540128,1,1,1,3.0,3.0
2021-09-02 08:16:44.128,1032.0,41.0,2.0,1032.816053322178,1,1,1,3.0,3.0
2021-09-02 08:16:44.138,957.0,209.0,11.0,979.6177826070738,1,1,1,3.0,3.0
2021-09-02 08:16:44.148,1055.0,65.0,31.0,1057.45496358001,1,1,1,3.0,3.0
2021-09-02 08:16:44.158,995.0,89.0,13.0,999.0570554277668,1,1,1,3.0,3.0
2021-09-02 08:16:44.167,1067.0,-170.0,13.0,1080.535978114565,1,1,1,3.0,3.0
2021-09-02 08:16:44.168,1067.0,-170.0,-4.0,1080.465177597131,1,1,1,3.0,3.0
2021-09-02 08:16:44.178,951.0,93.0,5.0,955.5495800846757,1,1,1,3.0,3.0
2021-09-02 08:16:44.187,1100.0,-46.0,29.0,1101.3432707380564,1,1,1,3.0,3.0
2021-09-02 08:16:44.198,992.0,83.0,18.0,995.6289469476066,1,1,1,3.0,3.0
2021-09-02 08:16:44.206,925.0,79.0,18.0,928.5418676613348,1,1,1,3.0,3.0
2021-09-02 08:16:44.207,925.0,79.0,-27.0,928.7599259227328,1,1,1,3.0,3.0
2021-09-02 08:16:44.216,897.0,254.0,-13.0,932.359372774254,1,1,1,3.0,3.0
2021-09-02 08:16:44.226,1086.0,254.0,-13.0,1115.383790450623,1,1,1,3.0,3.0
2021-09-02 08:16:44.227,1086.0,-18.0,23.0,1086.3926546143434,1,1,1,3.0,3.0
2021-09-02 08:16:44.236,1018.0,48.0,22.0,1019.368431922433,1,1,1,3.0,3.0
2021-09-02 08:16:44.246,997.0,-34.0,-17.0,997.7244108470034,1,1,1,3.0,3.0
2021-09-02 08:16:44.255,1070.0,31.0,35.0,1071.0210081973182,1,1,1,3.0,3.0
2021-09-02 08:16:44.265,1100.0,-37.0,34.0,1101.1471291339772,1,1,1,3.0,3.0
2021-09-02 08:16:44.275,992.0,61.0,-2.0,993.8757467611332,1,1,1,3.0,3.0
2021-09-02 08:16:44.285,989.0,48.0,-9.0,990.2050292742408,1,1,1,3.0,3.0
2021-09-02 08:16:44.294,1000.0,148.0,0.0,1010.8926748176584,1,1,1,3.0,3.0
2021-09-02 08:16:44.305,1014.0,73.0,12.0,1016.695136213408,1,1,1,3.0,3.0
2021-09-02 08:16:44.314,1002.0,51.0,0.0,1003.2970646822406,1,1,1,3.0,3.0
2021-09-02 08:16:44.323,1025.0,51.0,0.0,1026.2679961881302,1,1,1,3.0,3.0
2021-09-02 08:16:44.324,1025.0,-124.0,3.0,1032.4776026626437,1,1,1,3.0,3.0
2021-09-02 08:16:44.334,1012.0,1.0,3.0,1012.004940699402,1,1,1,3.0,3.0
2021-09-02 08:16:44.335,1012.0,1.0,28.0,1012.3877715579144,1,1,1,3.0,3.0
2021-09-02 08:16:44.343,1031.0,15.0,26.0,1031.4368618582523,1,1,1,3.0,3.0
2021-09-02 08:16:44.354,1009.0,36.0,5.0,1009.654396315888,1,1,1,3.0,3.0
2021-09-02 08:16:44.363,921.0,102.0,-18.0,926.8058049019762,1,1,1,3.0,3.0
2021-09-02 08:16:44.372,967.0,203.0,-18.0,988.2418732273998,1,1,1,3.0,3.0
2021-09-02 08:16:44.373,967.0,203.0,2.0,988.0799562788428,1,1,1,3.0,3.0
2021-09-02 08:16:44.383,1062.0,85.0,30.0,1065.8184648428644,1,1,1,3.0,3.0
2021-09-02 08:16:44.392,987.0,54.0,-3.0,988.4806523144496,1,1,1,3.0,3.0
2021-09-02 08:16:44.402,916.0,168.0,3.0,931.283522886559,1,1,1,3.0,3.0
2021-09-02 08:16:44.411,1111.0,168.0,3.0,1123.6342821398785,1,1,1,3.0,3.0
2021-09-02 08:16:44.412,1111.0,-61.0,19.0,1112.8355673683332,1,1,1,3.0,3.0
2021-09-02 08:16:44.421,1006.0,42.0,19.0,1007.0556091894828,1,1,1,3.0,3.0
2021-09-02 08:16:44.422,1006.0,42.0,17.0,1007.0198607773334,1,1,1,3.0,3.0
2021-09-02 08:16:44.432,989.0,47.0,-4.0,990.12423462917,1,1,1,3.0,3.0
2021-09-02 08:16:44.441,920.0,112.0,-20.0,927.0080905795808,1,1,1,3.0,3.0
2021-09-02 08:16:44.451,1045.0,45.0,16.0,1046.0908182371163,1,1,1,3.0,3.0
2021-09-02 08:16:44.461,998.0,139.0,23.0,1007.8958279504882,1,1,1,3.0,3.0
2021-09-02 08:16:44.470,1012.0,-14.0,5.0,1012.109183833444,1,1,1,3.0,3.0
2021-09-02 08:16:44.480,955.0,20.0,-4.0,955.2177762165024,1,1,1,3.0,3.0
2021-09-02 08:16:44.491,1070.0,-16.0,35.0,1070.691832414911,1,1,1,3.0,3.0
2021-09-02 08:16:44.499,1006.0,23.0,35.0,1006.8713919860868,1,1,1,3.0,3.0
2021-09-02 08:16:44.500,1006.0,23.0,12.0,1006.3344374510892,1,1,1,3.0,3.0
2021-09-02 08:16:44.510,1046.0,-142.0,6.0,1055.611671023014,1,1,1,3.0,3.0
2021-09-02 08:16:44.519,922.0,101.0,-9.0,927.559162533582,1,1,1,3.0,3.0
2021-09-02 08:16:44.529,1016.0,151.0,4.0,1027.1674644380048,1,1,1,3.0,3.0
2021-09-02 08:16:44.539,1002.0,101.0,8.0,1007.1092294284668,1,1,1,3.0,3.0
2021-09-02 08:16:44.548,1015.0,45.0,-1.0,1015.9975393670992,1,1,1,3.0,3.0
2021-09-02 08:16:44.558,889.0,256.0,7.0,925.1518794230492,1,1,1,3.0,3.0
2021-09-02 08:16:44.568,1100.0,8.0,23.0,1100.269512437748,1,1,1,3.0,3.0
2021-09-02 08:16:44.578,1026.0,62.0,35.0,1028.4673062377822,1,1,1,3.0,3.0
2021-09-02 08:16:44.587,1024.0,-13.0,19.0,1024.2587563696975,1,1,1,3.0,3.0
2021-09-02 08:16:44.598,928.0,80.0,-17.0,931.5970158818672,1,1,1,3.0,3.0
2021-09-02 08:16:44.607,1089.0,14.0,48.0,1090.1472377619457,1,1,1,3.0,3.0
2021-09-02 08:16:44.618,975.0,79.0,-6.0,978.2136780887906,1,1,1,3.0,3.0
2021-09-02 08:16:44.626,984.0,23.0,15.0,984.3830555225948,1,1,1,3.0,3.0
2021-09-02 08:16:44.647,919.0,164.0,-20.0,933.7328311674598,1,1,1,3.0,3.0
2021-09-02 08:16:44.649,1102.0,-24.0,-20.0,1102.4427422773483,1,1,1,3.0,3.0
2021-09-02 08:16:44.650,1102.0,-24.0,23.0,1102.5012471648274,1,1,1,3.0,3.0
2021-09-02 08:16:44.657,1000.0,27.0,7.0,1000.3889243689176,1,1,1,3.0,3.0
2021-09-02 08:16:44.665,1041.0,-156.0,7.0,1052.6471393586742,1,1,1,3.0,3.0
2021-09-02 08:16:44.666,1041.0,-156.0,-11.0,1052.6813382975877,1,1,1,3.0,3.0
2021-09-02 08:16:44.675,998.0,10.0,17.0,998.194870754203,1,1,1,3.0,3.0
2021-09-02 08:16:44.685,1071.0,-41.0,8.0,1071.8143495960485,1,1,1,3.0,3.0
2021-09-02 08:16:44.695,971.0,124.0,23.0,979.1557588044916,1,1,1,3.0,3.0
2021-09-02 08:16:44.705,1014.0,5.0,-1.0,1014.0128204317734,1,1,1,3.0,3.0
2021-09-02 08:16:44.716,986.0,183.0,-4.0,1002.8464488644312,1,1,1,3.0,3.0
2021-09-02 08:16:44.724,1073.0,54.0,25.0,1074.6487798346025,1,1,1,3.0,3.0
2021-09-02 08:16:44.734,1000.0,37.0,-9.0,1000.7247373778664,1,1,1,3.0,3.0
2021-09-02 08:16:44.743,1081.0,37.0,-9.0,1081.6704673790443,1,1,1,3.0,3.0
2021-09-02 08:16:44.744,1081.0,-217.0,-22.0,1102.7846571293962,1,1,1,3.0,3.0
2021-09-02 08:16:44.753,922.0,73.0,11.0,924.9508095028622,1,1,1,3.0,3.0
2021-09-02 08:16:44.764,1101.0,-91.0,11.0,1104.8090332722666,1,1,1,3.0,3.0
2021-09-02 08:16:44.765,1101.0,-91.0,32.0,1105.2176256285456,1,1,1,3.0,3.0
2021-09-02 08:16:44.773,1003.0,109.0,10.0,1008.9549048396564,1,1,1,3.0,3.0
2021-09-02 08:16:44.783,920.0,97.0,-12.0,925.1772803090228,1,1,1,3.0,3.0
2021-09-02 08:16:44.792,881.0,294.0,12.0,928.8385220262992,1,1,1,3.0,3.0
2021-09-02 08:16:44.802,1088.0,-47.0,30.0,1089.4278314785242,1,1,1,3.0,3.0
2021-09-02 08:16:44.813,1012.0,87.0,31.0,1016.2056878408032,1,1,1,3.0,3.0
2021-09-02 08:16:44.822,1018.0,-49.0,-7.0,1019.2026295099516,1,1,1,3.0,3.0
2021-09-02 08:16:44.831,1071.0,-49.0,-7.0,1072.143180736603,1,1,1,3.0,3.0
2021-09-02 08:16:44.832,1071.0,-2.0,23.0,1071.2488039666605,1,1,1,3.0,3.0
2021-09-02 08:16:44.853,1012.0,9.0,4.0,1012.0479237664588,1,1,1,3.0,3.0
2021-09-02 08:16:44.855,984.0,90.0,-7.0,988.1320761922468,1,1,1,3.0,3.0
2021-09-02 08:16:44.862,982.0,34.0,4.0,982.5965601405288,1,1,1,3.0,3.0
2021-09-02 08:16:44.870,1008.0,34.0,4.0,1008.5811816606534,1,1,1,3.0,3.0
2021-09-02 08:16:44.871,1008.0,157.0,8.0,1020.1847871831848,1,1,1,3.0,3.0
2021-09-02 08:16:44.880,1020.0,114.0,19.0,1026.526667943897,1,1,1,3.0,3.0
2021-09-02 08:16:44.890,1005.0,63.0,-4.0,1006.9806353649508,1,1,1,3.0,3.0
2021-09-02 08:16:44.900,1039.0,-136.0,-1.0,1047.863540734193,1,1,1,3.0,3.0
2021-09-02 08:16:44.910,1027.0,10.0,23.0,1027.306186100327,1,1,1,3.0,3.0
2021-09-02 08:16:44.921,1049.0,-75.0,3.0,1051.6819861536092,1,1,1,3.0,3.0
2021-09-02 08:16:44.944,1031.0,34.0,-8.0,1031.5914889140954,1,1,1,3.0,3.0
2021-09-02 08:16:44.955,921.0,86.0,-9.0,925.0502689043444,1,1,1,3.0,3.0
2021-09-02 08:16:44.956,1069.0,64.0,45.0,1071.8591325356144,1,1,1,3.0,3.0
2021-09-02 08:16:44.958,1055.0,66.0,45.0,1058.0198485850822,1,1,1,3.0,3.0
2021-09-02 08:16:44.959,1055.0,66.0,25.0,1057.358028295052,1,1,1,3.0,3.0
2021-09-02 08:16:44.968,1011.0,35.0,-12.0,1011.6768258688148,1,1,1,3.0,3.0
2021-09-02 08:16:44.979,921.0,165.0,-10.0,935.716837510152,1,1,1,3.0,3.0
2021-09-02 08:16:44.989,1105.0,-61.0,16.0,1106.798084566467,1,1,1,3.0,3.0
2021-09-02 08:16:44.997,999.0,-61.0,16.0,1000.9885114225837,1,1,1,3.0,3.0
2021-09-02 08:16:44.998,999.0,44.0,16.0,1000.0964953443242,1,1,1,3.0,3.0
2021-09-02 08:16:45.007,984.0,55.0,16.0,985.6657648513516,1,1,1,3.0,3.0
2021-09-02 08:16:45.008,984.0,55.0,1.0,985.53640216889,1,1,1,3.0,3.0
2021-09-02 08:16:45.017,912.0,119.0,-36.0,920.4352231417485,1,1,1,3.0,3.0
2021-09-02 08:16:45.027,1058.0,6.0,13.0,1058.096876472093,1,1,1,3.0,3.0
2021-09-02 08:16:45.037,982.0,6.0,13.0,982.104373272006,1,1,1,3.0,3.0
2021-09-02 08:16:45.038,982.0,126.0,17.0,990.1964451562123,1,1,1,3.0,3.0
2021-09-02 08:16:45.047,1010.0,9.0,4.0,1010.0480186604992,1,1,1,3.0,3.0
2021-09-02 08:16:45.056,963.0,41.0,-11.0,963.935163794744,1,1,1,3.0,3.0
2021-09-02 08:16:45.066,1093.0,-26.0,34.0,1093.8377393379697,1,1,1,3.0,3.0
2021-09-02 08:16:45.076,1012.0,27.0,1.0,1012.360607688782,1,1,1,3.0,3.0
2021-09-02 08:16:45.085,1050.0,-140.0,2.0,1059.2941045809705,1,1,1,3.0,3.0
2021-09-02 08:16:45.096,938.0,99.0,-14.0,943.3138396101268,1,1,1,3.0,3.0
2021-09-02 08:16:45.105,1087.0,-99.0,33.0,1091.9977106203107,1,1,1,3.0,3.0
2021-09-02 08:16:45.115,994.0,84.0,15.0,997.6557522512462,1,1,1,3.0,3.0
2021-09-02 08:16:45.124,1017.0,47.0,15.0,1018.1959536356449,1,1,1,3.0,3.0
2021-09-02 08:16:45.125,1017.0,47.0,0.0,1018.0854581026094,1,1,1,3.0,3.0
2021-09-02 08:16:45.135,901.0,234.0,2.0,930.892582417542,1,1,1,3.0,3.0
2021-09-02 08:16:45.145,1063.0,-20.0,32.0,1063.669591555573,1,1,1,3.0,3.0
2021-09-02 08:16:45.154,1019.0,77.0,37.0,1022.5746916484878,1,1,1,3.0,3.0
2021-09-02 08:16:45.163,1012.0,-22.0,37.0,1012.915100094771,1,1,1,3.0,3.0
2021-09-02 08:16:45.164,1012.0,-22.0,20.0,1012.4366646857472,1,1,1,3.0,3.0
2021-09-02 08:16:45.173,922.0,89.0,-8.0,926.320139044812,1,1,1,3.0,3.0
2021-09-02 08:16:45.183,1096.0,-17.0,37.0,1096.7561260371424,1,1,1,3.0,3.0
2021-09-02 08:16:45.194,983.0,72.0,-4.0,985.6414155259508,1,1,1,3.0,3.0
2021-09-02 08:16:45.203,979.0,61.0,3.0,980.9031552604976,1,1,1,3.0,3.0
2021-09-02 08:16:45.215,990.0,162.0,22.0,1003.4081921132596,1,1,1,3.0,3.0
2021-09-02 08:16:45.222,1115.0,-36.0,19.0,1115.7428019037363,1,1,1,3.0,3.0
2021-09-02 08:16:45.232,996.0,14.0,-4.0,996.1064200174598,1,1,1,3.0,3.0
2021-09-02 08:16:45.242,1021.0,14.0,-4.0,1021.1038145066348,1,1,1,3.0,3.0
2021-09-02 08:16:45.243,1021.0,-123.0,-11.0,1028.4410532451532,1,1,1,3.0,3.0
2021-09-02 08:16:45.252,1015.0,-5.0,21.0,1015.229530697369,1,1,1,3.0,3.0
2021-09-02 08:16:45.261,1026.0,-15.0,28.0,1026.4915976275695,1,1,1,3.0,3.0
2021-09-02 08:16:45.271,980.0,117.0,13.0,987.0450850898352,1,1,1,3.0,3.0
2021-09-02 08:16:45.281,1015.0,30.0,5.0,1015.4555627894308,1,1,1,3.0,3.0
2021-09-02 08:16:45.291,971.0,219.0,5.0,995.40293348975,1,1,1,3.0,3.0
2021-09-02 08:16:45.301,1070.0,61.0,31.0,1072.1856182583313,1,1,1,3.0,3.0
2021-09-02 08:16:45.310,998.0,56.0,7.0,999.5944177515198,1,1,1,3.0,3.0
2021-09-02 08:16:45.320,915.0,155.0,1.0,928.0360984358311,1,1,1,3.0,3.0
2021-09-02 08:16:45.329,948.0,155.0,1.0,960.5883613702592,1,1,1,3.0,3.0
2021-09-02 08:16:45.330,948.0,99.0,11.0,953.2187576836704,1,1,1,3.0,3.0
2021-09-02 08:16:45.339,1091.0,-60.0,41.0,1093.4175780551543,1,1,1,3.0,3.0
2021-09-02 08:16:45.349,984.0,-60.0,41.0,986.6797859488152,1,1,1,3.0,3.0
2021-09-02 08:16:45.350,984.0,83.0,-4.0,987.5024050603624,1,1,1,3.0,3.0
2021-09-02 08:16:45.359,920.0,69.0,-26.0,922.95016116798,1,1,1,3.0,3.0
2021-09-02 08:16:45.368,1045.0,69.0,-26.0,1047.5982054203796,1,1,1,3.0,3.0
2021-09-02 08:16:45.369,1045.0,21.0,12.0,1045.2798668299315,1,1,1,3.0,3.0
2021-09-02 08:16:45.378,1075.0,1.0,33.0,1075.5068572538253,1,1,1,3.0,3.0
2021-09-02 08:16:45.388,1022.0,73.0,31.0,1025.0726803500324,1,1,1,3.0,3.0
2021-09-02 08:16:45.398,1024.0,73.0,31.0,1027.0666969578947,1,1,1,3.0,3.0
2021-09-02 08:16:45.399,1024.0,-34.0,-4.0,1024.5721058080785,1,1,1,3.0,3.0
2021-09-02 08:16:45.409,1074.0,25.0,25.0,1074.5817791122274,1,1,1,3.0,3.0
2021-09-02 08:16:45.417,1014.0,4.0,25.0,1014.316025704021,1,1,1,3.0,3.0
2021-09-02 08:16:45.418,1014.0,4.0,0.0,1014.0078895156586,1,1,1,3.0,3.0
2021-09-02 08:16:45.428,982.0,89.0,-1.0,986.0253546435812,1,1,1,3.0,3.0
2021-09-02 08:16:45.437,983.0,41.0,5.0,983.867369110288,1,1,1,3.0,3.0
2021-09-02 08:16:45.447,985.0,176.0,9.0,1000.640794691082,1,1,1,3.0,3.0
2021-09-02 08:16:45.457,1024.0,105.0,9.0,1029.4085680622636,1,1,1,3.0,3.0
2021-09-02 08:16:45.458,1024.0,105.0,13.0,1029.4513101647888,1,1,1,3.0,3.0
2021-09-02 08:16:45.466,998.0,21.0,5.0,998.2334396322336,1,1,1,3.0,3.0
2021-09-02 08:16:45.476,896.0,196.0,-5.0,917.2006323591364,1,1,1,3.0,3.0
2021-09-02 08:16:45.486,1012.0,2.0,26.0,1012.3359126297952,1,1,1,3.0,3.0
2021-09-02 08:16:45.495,1050.0,2.0,26.0,1050.3237596093882,1,1,1,3.0,3.0
2021-09-02 08:16:45.496,1050.0,-18.0,14.0,1050.2475898567918,1,1,1,3.0,3.0
2021-09-02 08:16:45.506,1026.0,0.0,3.0,1026.0043859555378,1,1,1,3.0,3.0
2021-09-02 08:16:45.516,934.0,102.0,-5.0,939.5663893520244,1,1,1,3.0,3.0
2021-09-02 08:16:45.525,1106.0,4.0,40.0,1106.7303194545634,1,1,1,3.0,3.0
2021-09-02 08:16:45.535,955.0,88.0,-4.0,959.0542216162754,1,1,1,3.0,3.0
2021-09-02 08:16:45.545,1014.0,-6.0,-8.0,1014.049308465816,1,1,1,3.0,3.0
2021-09-02 08:16:45.554,897.0,173.0,-4.0,913.539271186521,1,1,1,3.0,3.0
2021-09-02 08:16:45.564,1106.0,173.0,-4.0,1119.455671297439,1,1,1,3.0,3.0
2021-09-02 08:16:45.565,1106.0,-61.0,21.0,1107.879957396107,1,1,1,3.0,3.0
2021-09-02 08:16:45.573,1011.0,-61.0,21.0,1013.056266946708,1,1,1,3.0,3.0
2021-09-02 08:16:45.574,1011.0,8.0,8.0,1011.0633016779908,1,1,1,3.0,3.0
2021-09-02 08:16:45.583,1062.0,-201.0,8.0,1080.883434973448,1,1,1,3.0,3.0
2021-09-02 08:16:45.584,1062.0,-201.0,-10.0,1080.900087889718,1,1,1,3.0,3.0
2021-09-02 08:16:45.593,907.0,99.0,-24.0,912.702580252735,1,1,1,3.0,3.0
2021-09-02 08:16:45.603,1044.0,36.0,12.0,1044.6894275333698,1,1,1,3.0,3.0
2021-09-02 08:16:45.613,987.0,134.0,12.0,996.1269999352492,1,1,1,3.0,3.0
2021-09-02 08:16:45.614,987.0,134.0,20.0,996.2554893198832,1,1,1,3.0,3.0
2021-09-02 08:16:45.622,1010.0,134.0,20.0,1019.0466132616308,1,1,1,3.0,3.0
2021-09-02 08:16:45.623,1010.0,24.0,4.0,1010.2930267996508,1,1,1,3.0,3.0
2021-09-02 08:16:45.632,952.0,234.0,-6.0,980.3550377286792,1,1,1,3.0,3.0
2021-09-02 08:16:45.642,1089.0,-11.0,39.0,1089.7536418842562,1,1,1,3.0,3.0
2021-09-02 08:16:45.662,1016.0,0.0,26.0,1016.3326227175826,1,1,1,3.0,3.0
2021-09-02 08:16:45.664,1051.0,-145.0,2.0,1060.957115061679,1,1,1,3.0,3.0
2021-09-02 08:16:45.672,926.0,80.0,-5.0,929.4627480431908,1,1,1,3.0,3.0
2021-09-02 08:16:45.682,1092.0,-98.0,41.0,1097.1549571505386,1,1,1,3.0,3.0
2021-09-02 08:16:45.691,987.0,112.0,9.0,993.3750550522194,1,1,1,3.0,3.0
2021-09-02 08:16:45.701,1024.0,25.0,4.0,1024.3129404630208,1,1,1,3.0,3.0
2021-09-02 08:16:45.710,902.0,217.0,4.0,927.7440379759926,1,1,1,3.0,3.0
2021-09-02 08:16:45.711,902.0,217.0,-5.0,927.7488884391078,1,1,1,3.0,3.0
2021-09-02 08:16:45.720,1088.0,-11.0,24.0,1088.320265363096,1,1,1,3.0,3.0
2021-09-02 08:16:45.731,1008.0,75.0,24.0,1011.0712141090756,1,1,1,3.0,3.0
2021-09-02 08:16:45.732,1008.0,75.0,46.0,1011.8324960189804,1,1,1,3.0,3.0
2021-09-02 08:16:45.740,1037.0,-109.0,-15.0,1042.820694079284,1,1,1,3.0,3.0
2021-09-02 08:16:45.749,937.0,80.0,-15.0,940.528574791856,1,1,1,3.0,3.0
2021-09-02 08:16:45.750,937.0,80.0,-13.0,940.4988038269904,1,1,1,3.0,3.0
2021-09-02 08:16:45.759,1102.0,15.0,38.0,1102.756999524374,1,1,1,3.0,3.0
2021-09-02 08:16:45.769,980.0,78.0,0.0,983.0991811612904,1,1,1,3.0,3.0
2021-09-02 08:16:45.780,979.0,40.0,16.0,979.9474475705316,1,1,1,3.0,3.0
2021-09-02 08:16:45.788,974.0,40.0,16.0,974.9523065258117,1,1,1,3.0,3.0
2021-09-02 08:16:45.789,974.0,168.0,17.0,988.528704691978,1,1,1,3.0,3.0
2021-09-02 08:16:45.798,1019.0,107.0,17.0,1024.743382510958,1,1,1,3.0,3.0
2021-09-02 08:16:45.808,1004.0,31.0,-4.0,1004.48643594625,1,1,1,3.0,3.0
2021-09-02 08:16:45.818,1047.0,-179.0,-4.0,1062.1986631511074,1,1,1,3.0,3.0
2021-09-02 08:16:45.828,1013.0,0.0,8.0,1013.0315888460734,1,1,1,3.0,3.0
2021-09-02 08:16:45.839,1043.0,-38.0,29.0,1044.0948232799549,1,1,1,3.0,3.0
2021-09-02 08:16:45.847,1016.0,26.0,-2.0,1016.3345905753677,1,1,1,3.0,3.0
2021-09-02 08:16:45.874,1003.0,26.0,2.0,1003.3389257872934,1,1,1,3.0,3.0
2021-09-02 08:16:45.875,949.0,234.0,0.0,977.4236543075884,1,1,1,3.0,3.0
2021-09-02 08:16:45.877,1071.0,46.0,19.0,1072.1557722644598,1,1,1,3.0,3.0
2021-09-02 08:16:45.886,1000.0,40.0,8.0,1000.831654175666,1,1,1,3.0,3.0
2021-09-02 08:16:45.896,894.0,136.0,-3.0,904.2903294849503,1,1,1,3.0,3.0
2021-09-02 08:16:45.907,924.0,71.0,-2.0,926.7259573358244,1,1,1,3.0,3.0
2021-09-02 08:16:45.915,1102.0,-101.0,-2.0,1106.620531166849,1,1,1,3.0,3.0
2021-09-02 08:16:45.916,1102.0,-101.0,39.0,1107.305739170533,1,1,1,3.0,3.0
2021-09-02 08:16:45.925,989.0,83.0,12.0,992.5492431108896,1,1,1,3.0,3.0
2021-09-02 08:16:45.935,948.0,73.0,-40.0,951.6475187799316,1,1,1,3.0,3.0
2021-09-02 08:16:45.945,1042.0,65.0,-7.0,1044.0488494318645,1,1,1,3.0,3.0
2021-09-02 08:16:45.955,989.0,121.0,10.0,996.4246082870496,1,1,1,3.0,3.0
2021-09-02 08:16:45.972,1017.0,63.0,35.0,1019.5503911038434,1,1,1,3.0,3.0
2021-09-02 08:16:45.985,1038.0,-96.0,-15.0,1042.5377690999976,1,1,1,3.0,3.0
2021-09-02 08:16:45.989,1083.0,20.0,24.0,1083.4505064837988,1,1,1,3.0,3.0
2021-09-02 08:16:45.993,1017.0,20.0,24.0,1017.4797295278172,1,1,1,3.0,3.0
2021-09-02 08:16:45.994,1017.0,3.0,2.0,1017.0063913270162,1,1,1,3.0,3.0
2021-09-02 08:16:46.003,1026.0,-34.0,37.0,1027.2297698178338,1,1,1,3.0,3.0
2021-09-02 08:16:46.014,971.0,44.0,9.0,972.038065098276,1,1,1,3.0,3.0
2021-09-02 08:16:46.025,990.0,181.0,20.0,1006.6086627880768,1,1,1,3.0,3.0
2021-09-02 08:16:46.033,1022.0,114.0,7.0,1028.3622902460008,1,1,1,3.0,3.0
2021-09-02 08:16:46.042,1013.0,60.0,7.0,1014.7994875836308,1,1,1,3.0,3.0
2021-09-02 08:16:46.043,1013.0,60.0,0.0,1014.7753445960342,1,1,1,3.0,3.0
2021-09-02 08:16:46.052,929.0,127.0,-22.0,937.8987152139616,1,1,1,3.0,3.0
2021-09-02 08:16:46.062,1091.0,-18.0,17.0,1091.2808987607175,1,1,1,3.0,3.0
2021-09-02 08:16:46.072,1034.0,-18.0,17.0,1034.29637918732,1,1,1,3.0,3.0
2021-09-02 08:16:46.073,1034.0,-25.0,18.0,1034.458795699471,1,1,1,3.0,3.0
2021-09-02 08:16:46.081,1007.0,46.0,18.0,1008.210791451867,1,1,1,3.0,3.0
2021-09-02 08:16:46.082,1007.0,46.0,-2.0,1008.0520819878308,1,1,1,3.0,3.0
2021-09-02 08:16:46.092,920.0,122.0,-12.0,928.131456206501,1,1,1,3.0,3.0
2021-09-02 08:16:46.101,1114.0,-10.0,32.0,1114.5043741502318,1,1,1,3.0,3.0
2021-09-02 08:16:46.111,961.0,125.0,16.0,969.227527467106,1,1,1,3.0,3.0
2021-09-02 08:16:46.121,1002.0,59.0,5.0,1003.7479763366898,1,1,1,3.0,3.0
2021-09-02 08:16:46.133,903.0,163.0,4.0,917.6023103719824,1,1,1,3.0,3.0
2021-09-02 08:16:46.140,1114.0,-52.0,17.0,1115.3425482783305,1,1,1,3.0,3.0
2021-09-02 08:16:46.150,1035.0,10.0,5.0,1035.060384711926,1,1,1,3.0,3.0
2021-09-02 08:16:46.160,1055.0,-211.0,-4.0,1075.900553025232,1,1,1,3.0,3.0
2021-09-02 08:16:46.169,994.0,48.0,-4.0,995.1663177579916,1,1,1,3.0,3.0
2021-09-02 08:16:46.170,994.0,48.0,21.0,995.3798270007284,1,1,1,3.0,3.0
2021-09-02 08:16:46.180,1038.0,74.0,1.0,1040.6349023552882,1,1,1,3.0,3.0
2021-09-02 08:16:46.189,992.0,104.0,1.0,997.437216069262,1,1,1,3.0,3.0
2021-09-02 08:16:46.199,1025.0,26.0,-12.0,1025.3999219816628,1,1,1,3.0,3.0
2021-09-02 08:16:46.208,919.0,26.0,-12.0,919.4460288673828,1,1,1,3.0,3.0
2021-09-02 08:16:46.209,919.0,256.0,6.0,954.0089098116432,1,1,1,3.0,3.0
2021-09-02 08:16:46.219,1105.0,2.0,6.0,1105.0180993992813,1,1,1,3.0,3.0
2021-09-02 08:16:46.220,1105.0,2.0,22.0,1105.2207924211343,1,1,1,3.0,3.0
2021-09-02 08:16:46.228,1019.0,8.0,17.0,1019.173194309976,1,1,1,3.0,3.0
2021-09-02 08:16:46.238,1040.0,-95.0,14.0,1044.4237645706842,1,1,1,3.0,3.0
2021-09-02 08:16:46.248,948.0,69.0,-1.0,950.5082850769898,1,1,1,3.0,3.0
2021-09-02 08:16:46.257,1076.0,-65.0,36.0,1078.5624692153904,1,1,1,3.0,3.0
2021-09-02 08:16:46.267,996.0,69.0,-4.0,998.3952123282644,1,1,1,3.0,3.0
2021-09-02 08:16:46.277,1022.0,0.0,-8.0,1022.0313106749716,1,1,1,3.0,3.0
2021-09-02 08:16:46.287,883.0,229.0,-19.0,912.409447561784,1,1,1,3.0,3.0
2021-09-02 08:16:46.296,1092.0,1.0,14.0,1092.0901977400952,1,1,1,3.0,3.0
2021-09-02 08:16:46.306,1009.0,63.0,25.0,1011.2739490365606,1,1,1,3.0,3.0
2021-09-02 08:16:46.316,1035.0,-122.0,-1.0,1042.1660136465782,1,1,1,3.0,3.0
2021-09-02 08:16:46.326,1075.0,-122.0,-1.0,1081.9011045377483,1,1,1,3.0,3.0
2021-09-02 08:16:46.327,1075.0,22.0,8.0,1075.254853511483,1,1,1,3.0,3.0
2021-09-02 08:16:46.335,1113.0,0.0,8.0,1113.0287507517494,1,1,1,3.0,3.0
2021-09-02 08:16:46.336,1113.0,0.0,42.0,1113.792170918794,1,1,1,3.0,3.0
2021-09-02 08:16:46.345,970.0,80.0,-11.0,973.355536276442,1,1,1,3.0,3.0
2021-09-02 08:16:46.355,975.0,80.0,-11.0,978.3383872669008,1,1,1,3.0,3.0
2021-09-02 08:16:46.356,975.0,59.0,18.0,976.9493333842856,1,1,1,3.0,3.0
2021-09-02 08:16:46.365,972.0,157.0,24.0,984.8903492267552,1,1,1,3.0,3.0
2021-09-02 08:16:46.375,1035.0,105.0,21.0,1040.5243870280024,1,1,1,3.0,3.0
2021-09-02 08:16:46.384,1022.0,35.0,0.0,1022.5991394481026,1,1,1,3.0,3.0
2021-09-02 08:16:46.394,1044.0,35.0,0.0,1044.5865210694612,1,1,1,3.0,3.0
2021-09-02 08:16:46.395,1044.0,-178.0,-15.0,1059.1718463025725,1,1,1,3.0,3.0
2021-09-02 08:16:46.404,1007.0,6.0,22.0,1007.2581595599016,1,1,1,3.0,3.0
2021-09-02 08:16:46.413,1047.0,6.0,22.0,1047.2482991153531,1,1,1,3.0,3.0
2021-09-02 08:16:46.414,1047.0,-41.0,17.0,1047.9403608984626,1,1,1,3.0,3.0
2021-09-02 08:16:46.428,1006.0,18.0,0.0,1006.1610209106692,1,1,1,3.0,3.0
2021-09-02 08:16:46.433,929.0,18.0,0.0,929.1743646915792,1,1,1,3.0,3.0
2021-09-02 08:16:46.434,929.0,115.0,-17.0,936.2451602011088,1,1,1,3.0,3.0
2021-09-02 08:16:46.443,957.0,217.0,0.0,981.2940435975344,1,1,1,3.0,3.0
2021-09-02 08:16:46.452,1073.0,217.0,0.0,1094.722795962521,1,1,1,3.0,3.0
2021-09-02 08:16:46.453,1073.0,26.0,24.0,1073.583252477422,1,1,1,3.0,3.0
2021-09-02 08:16:46.462,988.0,57.0,24.0,989.933836172903,1,1,1,3.0,3.0
2021-09-02 08:16:46.463,988.0,57.0,2.0,989.6448858050044,1,1,1,3.0,3.0
2021-09-02 08:16:46.472,916.0,122.0,-4.0,924.0973974641416,1,1,1,3.0,3.0
2021-09-02 08:16:46.482,1110.0,122.0,-4.0,1116.6915420114904,1,1,1,3.0,3.0
2021-09-02 08:16:46.483,1110.0,-42.0,21.0,1110.992799256593,1,1,1,3.0,3.0
2021-09-02 08:16:46.492,1086.0,-71.0,33.0,1088.8186258509725,1,1,1,3.0,3.0
2021-09-02 08:16:46.501,1003.0,94.0,33.0,1007.9355138102834,1,1,1,3.0,3.0
2021-09-02 08:16:46.502,1003.0,94.0,7.0,1007.4194756902408,1,1,1,3.0,3.0
2021-09-02 08:16:46.512,970.0,153.0,-11.0,982.0539700036855,1,1,1,3.0,3.0
2021-09-02 08:16:46.521,1066.0,64.0,11.0,1067.976123328607,1,1,1,3.0,3.0
2021-09-02 08:16:46.531,1092.0,-5.0,25.0,1092.2975785013898,1,1,1,3.0,3.0
2021-09-02 08:16:46.540,978.0,-5.0,25.0,978.3322544003136,1,1,1,3.0,3.0
2021-09-02 08:16:46.541,978.0,53.0,17.0,979.5825641567944,1,1,1,3.0,3.0
2021-09-02 08:16:46.551,966.0,48.0,7.0,967.2171421144272,1,1,1,3.0,3.0
2021-09-02 08:16:46.560,1026.0,23.0,4.0,1026.2655601743634,1,1,1,3.0,3.0
2021-09-02 08:16:46.570,957.0,141.0,-2.0,967.3334481966392,1,1,1,3.0,3.0
2021-09-02 08:16:46.579,996.0,141.0,-2.0,1005.9329003467378,1,1,1,3.0,3.0
2021-09-02 08:16:46.580,996.0,86.0,13.0,999.7904780502764,1,1,1,3.0,3.0
2021-09-02 08:16:46.590,1004.0,21.0,-7.0,1004.243994256376,1,1,1,3.0,3.0
2021-09-02 08:16:46.599,1030.0,3.0,3.0,1030.0087378270148,1,1,1,3.0,3.0
2021-09-02 08:16:46.609,1005.0,54.0,11.0,1006.5098111792056,1,1,1,3.0,3.0
2021-09-02 08:16:46.619,1031.0,9.0,14.0,1031.1343268459254,1,1,1,3.0,3.0
