time_stamp,Acceleration_X,Acceleration_Y,Acceleration_Z,magnitude,STD_Status_right,STD_Status_left,STD_Status_both,KMeans,KMeans_convert
2021-09-02 08:17:42.508,924.0,86.0,6.0,928.0129309443917,1,1,1,0.0,3.0
2021-09-02 08:17:42.517,1092.0,86.0,6.0,1095.3976446934694,1,1,1,0.0,3.0
2021-09-02 08:17:42.518,1092.0,-63.0,35.0,1094.375621073496,1,1,1,0.0,3.0
2021-09-02 08:17:42.527,883.0,-63.0,35.0,885.9362279532314,1,1,1,0.0,3.0
2021-09-02 08:17:42.528,883.0,158.0,8.0,897.0601986488978,1,1,1,0.0,3.0
2021-09-02 08:17:42.538,1012.0,0.0,-4.0,1012.007905107465,1,1,1,0.0,3.0
2021-09-02 08:17:42.559,906.0,0.0,-4.0,906.008829979046,1,1,1,0.0,3.0
2021-09-02 08:17:42.560,906.0,131.0,-13.0,915.514063245344,1,1,1,0.0,3.0
2021-09-02 08:17:42.561,1136.0,-32.0,23.0,1136.6833332111455,1,1,1,0.0,3.0
2021-09-02 08:17:42.567,996.0,-2.0,57.0,997.6316955670565,1,1,1,0.0,3.0
2021-09-02 08:17:42.576,1113.0,-207.0,-17.0,1132.213319123212,1,1,1,0.0,3.0
2021-09-02 08:17:42.586,956.0,106.0,12.0,961.9334696329056,1,1,1,0.0,3.0
2021-09-02 08:17:42.596,1019.0,145.0,6.0,1029.2822742085866,1,1,1,0.0,3.0
2021-09-02 08:17:42.605,1013.0,65.0,12.0,1015.1541754827194,1,1,1,0.0,3.0
2021-09-02 08:17:42.616,1009.0,65.0,12.0,1011.1626970967628,1,1,1,0.0,3.0
2021-09-02 08:17:42.617,1009.0,3.0,-23.0,1009.2665653830012,1,1,1,0.0,3.0
2021-09-02 08:17:42.625,901.0,258.0,26.0,937.5718639123083,1,1,1,0.0,3.0
2021-09-02 08:17:42.635,1106.0,-27.0,33.0,1106.821575503477,1,1,1,0.0,3.0
2021-09-02 08:17:42.644,1044.0,-48.0,-9.0,1045.1416171983583,1,1,1,0.0,3.0
2021-09-02 08:17:42.654,1011.0,-30.0,4.0,1011.4529153648232,1,1,1,0.0,3.0
2021-09-02 08:17:42.665,902.0,61.0,-15.0,904.1847156416658,1,1,1,0.0,3.0
2021-09-02 08:17:42.674,1102.0,-17.0,33.0,1102.6250495975503,1,1,1,0.0,3.0
2021-09-02 08:17:42.683,996.0,71.0,33.0,999.0725699367388,1,1,1,0.0,3.0
2021-09-02 08:17:42.684,996.0,71.0,-2.0,998.5294186953132,1,1,1,0.0,3.0
2021-09-02 08:17:42.693,1005.0,39.0,-4.0,1005.7643859274398,1,1,1,0.0,3.0
2021-09-02 08:17:42.703,940.0,110.0,-42.0,947.3457658109842,1,1,1,0.0,3.0
2021-09-02 08:17:42.713,1072.0,1.0,24.0,1072.2690893614345,1,1,1,0.0,3.0
2021-09-02 08:17:42.724,1020.0,54.0,-6.0,1021.4460338167652,1,1,1,0.0,3.0
2021-09-02 08:17:42.732,1019.0,-85.0,-2.0,1022.540952725122,1,1,1,0.0,3.0
2021-09-02 08:17:42.745,1044.0,12.0,19.0,1044.2418302289943,1,1,1,0.0,3.0
2021-09-02 08:17:42.752,1075.0,40.0,29.0,1076.1347499267924,1,1,1,0.0,3.0
2021-09-02 08:17:42.762,993.0,69.0,17.0,995.539552202724,1,1,1,0.0,3.0
2021-09-02 08:17:42.773,1010.0,15.0,-6.0,1010.1291996571528,1,1,1,0.0,3.0
2021-09-02 08:17:42.781,969.0,187.0,0.0,986.8789186115996,1,1,1,0.0,3.0
2021-09-02 08:17:42.791,1081.0,43.0,20.0,1082.039740490154,1,1,1,0.0,3.0
2021-09-02 08:17:42.801,987.0,69.0,17.0,989.5549504701596,1,1,1,0.0,3.0
2021-09-02 08:17:42.810,1074.0,-140.0,17.0,1083.2197376340591,1,1,1,0.0,3.0
2021-09-02 08:17:42.811,1074.0,-140.0,3.0,1083.0904856012723,1,1,1,0.0,3.0
2021-09-02 08:17:42.821,955.0,78.0,3.0,958.1847421035257,1,1,1,0.0,3.0
2021-09-02 08:17:42.830,1125.0,-60.0,3.0,1126.6028581536618,1,1,1,0.0,3.0
2021-09-02 08:17:42.831,1125.0,-60.0,28.0,1126.9467600556825,1,1,1,0.0,3.0
2021-09-02 08:17:42.840,976.0,72.0,-7.0,978.6771684268516,1,1,1,0.0,3.0
2021-09-02 08:17:42.849,929.0,72.0,-7.0,931.8122128411926,1,1,1,0.0,3.0
2021-09-02 08:17:42.850,929.0,119.0,-11.0,936.6552193843796,1,1,1,0.0,3.0
2021-09-02 08:17:42.859,915.0,251.0,17.0,948.9546880647148,1,1,1,0.0,3.0
2021-09-02 08:17:42.869,1090.0,251.0,17.0,1118.6554429313792,1,1,1,0.0,3.0
2021-09-02 08:17:42.870,1090.0,-28.0,15.0,1090.4627458102364,1,1,1,0.0,3.0
2021-09-02 08:17:42.879,1028.0,-28.0,15.0,1028.4906416686542,1,1,1,0.0,3.0
2021-09-02 08:17:42.880,1028.0,76.0,24.0,1031.0848655663606,1,1,1,0.0,3.0
2021-09-02 08:17:42.888,945.0,76.0,24.0,948.3548913776953,1,1,1,0.0,3.0
2021-09-02 08:17:42.889,945.0,22.0,-33.0,945.831908956343,1,1,1,0.0,3.0
2021-09-02 08:17:42.898,1079.0,42.0,28.0,1080.1800775796598,1,1,1,0.0,3.0
2021-09-02 08:17:42.908,1113.0,-11.0,33.0,1113.5434432477252,1,1,1,0.0,3.0
2021-09-02 08:17:42.918,986.0,70.0,-8.0,988.5140363191612,1,1,1,0.0,3.0
2021-09-02 08:17:42.928,985.0,70.0,-8.0,987.516582139257,1,1,1,0.0,3.0
2021-09-02 08:17:42.929,985.0,40.0,-14.0,985.911253612616,1,1,1,0.0,3.0
2021-09-02 08:17:42.937,1001.0,146.0,-14.0,1011.6881930713632,1,1,1,0.0,3.0
2021-09-02 08:17:42.938,1001.0,146.0,-1.0,1011.5918149135056,1,1,1,0.0,3.0
2021-09-02 08:17:42.961,1038.0,61.0,21.0,1040.0028846113842,1,1,1,0.0,3.0
2021-09-02 08:17:42.962,993.0,34.0,-2.0,993.5839169390777,1,1,1,0.0,3.0
2021-09-02 08:17:42.967,1024.0,-101.0,-22.0,1029.2040613989043,1,1,1,0.0,3.0
2021-09-02 08:17:42.977,1063.0,27.0,19.0,1063.5125763243234,1,1,1,0.0,3.0
2021-09-02 08:17:42.996,1050.0,27.0,19.0,1050.5189193917452,1,1,1,0.0,3.0
2021-09-02 08:17:42.997,1050.0,-19.0,10.0,1050.2195008663666,1,1,1,0.0,3.0
2021-09-02 08:17:43.000,1004.0,14.0,7.0,1004.122004539289,1,1,1,0.0,3.0
2021-09-02 08:17:43.006,901.0,109.0,-14.0,907.677255416263,1,1,1,0.0,3.0
2021-09-02 08:17:43.015,976.0,109.0,-14.0,982.1675009895206,1,1,1,0.0,3.0
2021-09-02 08:17:43.016,976.0,151.0,0.0,987.611765827038,1,1,1,0.0,3.0
2021-09-02 08:17:43.025,1048.0,72.0,0.0,1050.470370833942,1,1,1,0.0,3.0
2021-09-02 08:17:43.026,1048.0,72.0,25.0,1050.7678145051837,1,1,1,0.0,3.0
2021-09-02 08:17:43.035,1019.0,52.0,-11.0,1020.3852213747512,1,1,1,0.0,3.0
2021-09-02 08:17:43.045,915.0,128.0,-32.0,924.4636282731732,1,1,1,0.0,3.0
2021-09-02 08:17:43.056,1092.0,-2.0,27.0,1092.3355711501847,1,1,1,0.0,3.0
2021-09-02 08:17:43.064,1008.0,32.0,21.0,1008.7264247554932,1,1,1,0.0,3.0
2021-09-02 08:17:43.074,976.0,47.0,4.0,977.1391917224486,1,1,1,0.0,3.0
2021-09-02 08:17:43.084,916.0,144.0,-18.0,927.4243904491622,1,1,1,0.0,3.0
2021-09-02 08:17:43.094,1060.0,31.0,23.0,1060.7025973381983,1,1,1,0.0,3.0
2021-09-02 08:17:43.105,1006.0,125.0,37.0,1014.4111592446131,1,1,1,0.0,3.0
2021-09-02 08:17:43.113,1000.0,-13.0,7.0,1000.1089940601474,1,1,1,0.0,3.0
2021-09-02 08:17:43.123,867.0,125.0,-5.0,875.9788810239662,1,1,1,0.0,3.0
2021-09-02 08:17:43.134,1077.0,-26.0,-5.0,1077.3253918849216,1,1,1,0.0,3.0
2021-09-02 08:17:43.135,1077.0,-26.0,35.0,1077.8821828010705,1,1,1,0.0,3.0
2021-09-02 08:17:43.144,1022.0,35.0,4.0,1022.6069626205368,1,1,1,0.0,3.0
2021-09-02 08:17:43.152,1081.0,-143.0,3.0,1090.4214781450337,1,1,1,0.0,3.0
2021-09-02 08:17:43.165,949.0,-143.0,3.0,959.7181878030656,1,1,1,0.0,3.0
2021-09-02 08:17:43.166,949.0,82.0,-26.0,952.8908646849334,1,1,1,0.0,3.0
2021-09-02 08:17:43.172,1132.0,82.0,-26.0,1135.263845984712,1,1,1,0.0,3.0
2021-09-02 08:17:43.173,1132.0,-55.0,39.0,1134.0061728227056,1,1,1,0.0,3.0
2021-09-02 08:17:43.181,1040.0,-55.0,39.0,1042.1832852238613,1,1,1,0.0,3.0
2021-09-02 08:17:43.182,1040.0,70.0,12.0,1042.422179349615,1,1,1,0.0,3.0
2021-09-02 08:17:43.191,1010.0,13.0,-31.0,1010.5592511080188,1,1,1,0.0,3.0
2021-09-02 08:17:43.201,906.0,248.0,29.0,939.7771012319888,1,1,1,0.0,3.0
2021-09-02 08:17:43.211,1077.0,-24.0,15.0,1077.3718021184702,1,1,1,0.0,3.0
2021-09-02 08:17:43.222,1014.0,68.0,50.0,1017.5067567343226,1,1,1,0.0,3.0
2021-09-02 08:17:43.230,989.0,-26.0,50.0,990.604360983738,1,1,1,0.0,3.0
2021-09-02 08:17:43.231,989.0,-26.0,11.0,989.4028502081444,1,1,1,0.0,3.0
2021-09-02 08:17:43.240,919.0,79.0,-6.0,922.4088030802828,1,1,1,0.0,3.0
2021-09-02 08:17:43.250,1096.0,-11.0,34.0,1096.5824182431525,1,1,1,0.0,3.0
2021-09-02 08:17:43.260,998.0,82.0,0.0,1001.363071018699,1,1,1,0.0,3.0
2021-09-02 08:17:43.270,997.0,82.0,0.0,1000.3664328634784,1,1,1,0.0,3.0
2021-09-02 08:17:43.271,997.0,40.0,-14.0,997.90029562076,1,1,1,0.0,3.0
2021-09-02 08:17:43.279,1002.0,157.0,19.0,1014.4032728653826,1,1,1,0.0,3.0
2021-09-02 08:17:43.289,1092.0,-18.0,21.0,1092.3502185654563,1,1,1,0.0,3.0
2021-09-02 08:17:43.299,1015.0,56.0,2.0,1016.5456212093976,1,1,1,0.0,3.0
2021-09-02 08:17:43.308,1030.0,56.0,2.0,1031.5231456443428,1,1,1,0.0,3.0
2021-09-02 08:17:43.309,1030.0,-98.0,2.0,1034.6535652091477,1,1,1,0.0,3.0
2021-09-02 08:17:43.319,1038.0,12.0,12.0,1038.138719054443,1,1,1,0.0,3.0
2021-09-02 08:17:43.329,1052.0,-36.0,42.0,1053.4533686879547,1,1,1,0.0,3.0
2021-09-02 08:17:43.338,985.0,99.0,11.0,990.023737089167,1,1,1,0.0,3.0
2021-09-02 08:17:43.348,1009.0,-3.0,-4.0,1009.0123884274168,1,1,1,0.0,3.0
2021-09-02 08:17:43.357,991.0,159.0,-4.0,1003.682220625632,1,1,1,0.0,3.0
2021-09-02 08:17:43.358,991.0,159.0,4.0,1003.682220625632,1,1,1,0.0,3.0
2021-09-02 08:17:43.367,1057.0,33.0,17.0,1057.6516439735722,1,1,1,0.0,3.0
2021-09-02 08:17:43.378,1000.0,33.0,17.0,1000.6887628029008,1,1,1,0.0,3.0
2021-09-02 08:17:43.379,1000.0,49.0,5.0,1001.2122652065344,1,1,1,0.0,3.0
2021-09-02 08:17:43.387,1079.0,-142.0,25.0,1088.5908322230166,1,1,1,0.0,3.0
2021-09-02 08:17:43.396,954.0,82.0,25.0,957.8439330078778,1,1,1,0.0,3.0
2021-09-02 08:17:43.397,954.0,82.0,2.0,957.5197125908164,1,1,1,0.0,3.0
2021-09-02 08:17:43.406,1114.0,-25.0,40.0,1114.998206276584,1,1,1,0.0,3.0
2021-09-02 08:17:43.416,982.0,98.0,-4.0,986.8860116548416,1,1,1,0.0,3.0
2021-09-02 08:17:43.429,938.0,101.0,-26.0,943.7801650808308,1,1,1,0.0,3.0
2021-09-02 08:17:43.435,1042.0,36.0,-26.0,1042.9458279316332,1,1,1,0.0,3.0
2021-09-02 08:17:43.436,1042.0,36.0,7.0,1042.6451937260344,1,1,1,0.0,3.0
2021-09-02 08:17:43.445,1074.0,-11.0,19.0,1074.224371348928,1,1,1,0.0,3.0
2021-09-02 08:17:43.455,1034.0,75.0,19.0,1036.8905438859013,1,1,1,0.0,3.0
2021-09-02 08:17:43.456,1034.0,75.0,31.0,1037.179830116263,1,1,1,0.0,3.0
2021-09-02 08:17:43.465,967.0,-37.0,-37.0,968.4146839035436,1,1,1,0.0,3.0
2021-09-02 08:17:43.475,1071.0,48.0,33.0,1072.5828639317338,1,1,1,0.0,3.0
2021-09-02 08:17:43.486,1030.0,22.0,23.0,1030.491630242575,1,1,1,0.0,3.0
2021-09-02 08:17:43.494,998.0,63.0,3.0,999.9909999594996,1,1,1,0.0,3.0
2021-09-02 08:17:43.504,1005.0,52.0,-17.0,1006.4879532314334,1,1,1,0.0,3.0
2021-09-02 08:17:43.513,1006.0,52.0,-17.0,1007.486476336035,1,1,1,0.0,3.0
2021-09-02 08:17:43.514,1006.0,123.0,20.0,1013.6888082641536,1,1,1,0.0,3.0
2021-09-02 08:17:43.523,1019.0,89.0,26.0,1023.2096559356738,1,1,1,0.0,3.0
2021-09-02 08:17:43.534,1003.0,34.0,1.0,1003.576603952085,1,1,1,0.0,3.0
2021-09-02 08:17:43.543,909.0,153.0,0.0,921.7863092929944,1,1,1,0.0,3.0
2021-09-02 08:17:43.553,1030.0,13.0,21.0,1030.2960739515609,1,1,1,0.0,3.0
2021-09-02 08:17:43.575,1055.0,-26.0,15.0,1055.4269278353663,1,1,1,0.0,3.0
2021-09-02 08:17:43.576,1005.0,16.0,0.0,1005.1273551147636,1,1,1,0.0,3.0
2021-09-02 08:17:43.584,915.0,91.0,-8.0,919.5488024025695,1,1,1,0.0,3.0
2021-09-02 08:17:43.592,1091.0,28.0,42.0,1092.1671117553394,1,1,1,0.0,3.0
2021-09-02 08:17:43.601,1066.0,79.0,42.0,1069.748101190182,1,1,1,0.0,3.0
2021-09-02 08:17:43.602,1066.0,79.0,33.0,1069.4325598185235,1,1,1,0.0,3.0
2021-09-02 08:17:43.611,997.0,79.0,9.0,1000.1654863071412,1,1,1,0.0,3.0
2021-09-02 08:17:43.621,915.0,121.0,-21.0,923.204744355227,1,1,1,0.0,3.0
2021-09-02 08:17:43.632,1118.0,-48.0,19.0,1119.1912258412322,1,1,1,0.0,3.0
2021-09-02 08:17:43.640,970.0,-48.0,19.0,971.3727399922236,1,1,1,0.0,3.0
2021-09-02 08:17:43.641,970.0,67.0,19.0,972.496786627082,1,1,1,0.0,3.0
2021-09-02 08:17:43.650,1054.0,-132.0,17.0,1062.3695214001575,1,1,1,0.0,3.0
2021-09-02 08:17:43.660,927.0,133.0,-25.0,936.8260244036776,1,1,1,0.0,3.0
2021-09-02 08:17:43.670,1048.0,8.0,12.0,1048.0992319432355,1,1,1,0.0,3.0
2021-09-02 08:17:43.680,1005.0,8.0,12.0,1005.1034772599288,1,1,1,0.0,3.0
2021-09-02 08:17:43.681,1005.0,114.0,31.0,1011.9199573088772,1,1,1,0.0,3.0
2021-09-02 08:17:43.689,1010.0,-3.0,9.0,1010.0445534727664,1,1,1,0.0,3.0
2021-09-02 08:17:43.699,980.0,191.0,0.0,998.4392820797868,1,1,1,0.0,3.0
2021-09-02 08:17:43.709,1061.0,11.0,37.0,1061.7019355732568,1,1,1,0.0,3.0
2021-09-02 08:17:43.719,1019.0,55.0,29.0,1020.895195404504,1,1,1,0.0,3.0
2021-09-02 08:17:43.729,1056.0,-154.0,-5.0,1067.1818026934304,1,1,1,0.0,3.0
2021-09-02 08:17:43.740,935.0,102.0,-9.0,940.5902402215324,1,1,1,0.0,3.0
2021-09-02 08:17:43.748,1101.0,-68.0,43.0,1103.935686532508,1,1,1,0.0,3.0
2021-09-02 08:17:43.758,1018.0,78.0,25.0,1021.2898707027304,1,1,1,0.0,3.0
2021-09-02 08:17:43.767,989.0,78.0,25.0,992.3860136055928,1,1,1,0.0,3.0
2021-09-02 08:17:43.768,989.0,47.0,2.0,990.1181747650126,1,1,1,0.0,3.0
2021-09-02 08:17:43.777,917.0,221.0,9.0,943.2979380874316,1,1,1,0.0,3.0
2021-09-02 08:17:43.788,1075.0,17.0,30.0,1075.5528810802375,1,1,1,0.0,3.0
2021-09-02 08:17:43.797,1039.0,47.0,27.0,1040.412898805085,1,1,1,0.0,3.0
2021-09-02 08:17:43.806,1001.0,47.0,27.0,1002.4664582917476,1,1,1,0.0,3.0
2021-09-02 08:17:43.807,1001.0,-35.0,-21.0,1001.8318222136888,1,1,1,0.0,3.0
2021-09-02 08:17:43.816,919.0,105.0,-14.0,925.0848609722244,1,1,1,0.0,3.0
2021-09-02 08:17:43.826,1103.0,-2.0,39.0,1103.6910799675786,1,1,1,0.0,3.0
2021-09-02 08:17:43.836,995.0,-2.0,39.0,995.7660367777162,1,1,1,0.0,3.0
2021-09-02 08:17:43.837,995.0,73.0,9.0,997.7148891341654,1,1,1,0.0,3.0
2021-09-02 08:17:43.845,998.0,73.0,9.0,1000.7067502520406,1,1,1,0.0,3.0
2021-09-02 08:17:43.846,998.0,13.0,14.0,998.1828489810872,1,1,1,0.0,3.0
2021-09-02 08:17:43.855,991.0,159.0,32.0,1004.1842460425278,1,1,1,0.0,3.0
2021-09-02 08:17:43.865,1121.0,-11.0,17.0,1121.182857521466,1,1,1,0.0,3.0
2021-09-02 08:17:43.875,997.0,36.0,9.0,997.6903327185244,1,1,1,0.0,3.0
2021-09-02 08:17:43.885,1034.0,-113.0,10.0,1040.2043068551486,1,1,1,0.0,3.0
2021-09-02 08:17:43.896,1000.0,17.0,21.0,1000.3649334118024,1,1,1,0.0,3.0
2021-09-02 08:17:43.904,1062.0,-18.0,33.0,1062.6650460046194,1,1,1,0.0,3.0
2021-09-02 08:17:43.914,1002.0,24.0,-12.0,1002.3592170474616,1,1,1,0.0,3.0
2021-09-02 08:17:43.924,1008.0,-29.0,0.0,1008.4170764123344,1,1,1,0.0,3.0
2021-09-02 08:17:43.934,994.0,185.0,-9.0,1011.109291817655,1,1,1,0.0,3.0
2021-09-02 08:17:43.944,1083.0,75.0,35.0,1086.1579074885935,1,1,1,0.0,3.0
2021-09-02 08:17:43.953,996.0,44.0,13.0,997.0561669234086,1,1,1,0.0,3.0
2021-09-02 08:17:43.980,890.0,133.0,-20.0,900.1049938757145,1,1,1,0.0,3.0
2021-09-02 08:17:43.983,1105.0,-84.0,33.0,1108.6793945952095,1,1,1,0.0,3.0
2021-09-02 08:17:43.992,988.0,97.0,5.0,992.7628115516818,1,1,1,0.0,3.0
2021-09-02 08:17:44.009,949.0,97.0,5.0,953.9575462251976,1,1,1,0.0,3.0
2021-09-02 08:17:44.010,949.0,61.0,-19.0,951.1482534284548,1,1,1,0.0,3.0
2021-09-02 08:17:44.015,1027.0,72.0,8.0,1029.5518442506914,1,1,1,0.0,3.0
2021-09-02 08:17:44.021,1014.0,89.0,20.0,1018.0947893000928,1,1,1,0.0,3.0
2021-09-02 08:17:44.031,1021.0,59.0,32.0,1023.2037920179928,1,1,1,0.0,3.0
2021-09-02 08:17:44.041,1012.0,-86.0,-21.0,1015.864656339613,1,1,1,0.0,3.0
2021-09-02 08:17:44.051,1071.0,25.0,20.0,1071.4784178881066,1,1,1,0.0,3.0
2021-09-02 08:17:44.061,1035.0,-8.0,20.0,1035.224130321545,1,1,1,0.0,3.0
2021-09-02 08:17:44.062,1035.0,-8.0,-2.0,1035.0328497202397,1,1,1,0.0,3.0
2021-09-02 08:17:44.070,1020.0,-45.0,5.0,1021.0044074341696,1,1,1,0.0,3.0
2021-09-02 08:17:44.080,983.0,43.0,12.0,984.0132112934256,1,1,1,0.0,3.0
2021-09-02 08:17:44.090,986.0,188.0,36.0,1004.4082835182116,1,1,1,0.0,3.0
2021-09-02 08:17:44.099,1029.0,188.0,36.0,1046.6522822790766,1,1,1,0.0,3.0
2021-09-02 08:17:44.100,1029.0,77.0,21.0,1032.090596798556,1,1,1,0.0,3.0
2021-09-02 08:17:44.109,1016.0,41.0,-9.0,1016.8667562665228,1,1,1,0.0,3.0
2021-09-02 08:17:44.119,910.0,41.0,-9.0,910.967617426657,1,1,1,0.0,3.0
2021-09-02 08:17:44.120,910.0,140.0,-21.0,920.9457095833608,1,1,1,0.0,3.0
2021-09-02 08:17:44.129,1104.0,-1.0,27.0,1104.3305664519116,1,1,1,0.0,3.0
2021-09-02 08:17:44.138,1072.0,-1.0,27.0,1072.3404310199255,1,1,1,0.0,3.0
2021-09-02 08:17:44.139,1072.0,-34.0,10.0,1072.5856609147822,1,1,1,0.0,3.0
2021-09-02 08:17:44.148,1003.0,-6.0,10.0,1003.0677943190082,1,1,1,0.0,3.0
2021-09-02 08:17:44.149,1003.0,-6.0,-9.0,1003.058323329207,1,1,1,0.0,3.0
2021-09-02 08:17:44.159,904.0,117.0,-20.0,911.7592884089528,1,1,1,0.0,3.0
2021-09-02 08:17:44.173,1082.0,19.0,35.0,1082.7326539825056,1,1,1,0.0,3.0
2021-09-02 08:17:44.181,981.0,65.0,-2.0,983.1530908256352,1,1,1,0.0,3.0
2021-09-02 08:17:44.187,1006.0,79.0,-2.0,1009.0991031608344,1,1,1,0.0,3.0
2021-09-02 08:17:44.188,1006.0,79.0,8.0,1009.1288322112296,1,1,1,0.0,3.0
2021-09-02 08:17:44.197,913.0,140.0,-2.0,923.6736436642544,1,1,1,0.0,3.0
2021-09-02 08:17:44.208,1114.0,-61.0,17.0,1115.7983688821205,1,1,1,0.0,3.0
2021-09-02 08:17:44.217,998.0,63.0,14.0,1000.0844964301766,1,1,1,0.0,3.0
2021-09-02 08:17:44.226,1061.0,-163.0,14.0,1073.5390072093328,1,1,1,0.0,3.0
2021-09-02 08:17:44.227,1061.0,-163.0,0.0,1073.4477164724883,1,1,1,0.0,3.0
2021-09-02 08:17:44.237,914.0,101.0,-10.0,919.6178554160418,1,1,1,0.0,3.0
2021-09-02 08:17:44.246,1038.0,28.0,0.0,1038.3775806516626,1,1,1,0.0,3.0
2021-09-02 08:17:44.256,1013.0,101.0,23.0,1018.2823773394095,1,1,1,0.0,3.0
2021-09-02 08:17:44.265,1006.0,101.0,23.0,1011.3189407896996,1,1,1,0.0,3.0
2021-09-02 08:17:44.266,1006.0,7.0,2.0,1006.0263416034392,1,1,1,0.0,3.0
2021-09-02 08:17:44.277,953.0,231.0,8.0,980.6293897288618,1,1,1,0.0,3.0
2021-09-02 08:17:44.285,1082.0,14.0,23.0,1082.3349758739205,1,1,1,0.0,3.0
2021-09-02 08:17:44.295,1013.0,17.0,14.0,1013.2393596776628,1,1,1,0.0,3.0
2021-09-02 08:17:44.304,1043.0,17.0,14.0,1043.2324764883424,1,1,1,0.0,3.0
2021-09-02 08:17:44.305,1043.0,-104.0,1.0,1048.1726956947505,1,1,1,0.0,3.0
2021-09-02 08:17:44.314,916.0,-104.0,1.0,921.8855677360395,1,1,1,0.0,3.0
2021-09-02 08:17:44.315,916.0,88.0,-7.0,920.2439893854238,1,1,1,0.0,3.0
2021-09-02 08:17:44.324,1108.0,88.0,-7.0,1111.5111335474785,1,1,1,0.0,3.0
2021-09-02 08:17:44.325,1108.0,-64.0,35.0,1110.3985770884256,1,1,1,0.0,3.0
2021-09-02 08:17:44.334,997.0,63.0,1.0,998.9889889283064,1,1,1,0.0,3.0
2021-09-02 08:17:44.344,1006.0,25.0,-2.0,1006.3125756940534,1,1,1,0.0,3.0
2021-09-02 08:17:44.353,906.0,214.0,-2.0,930.9328654634554,1,1,1,0.0,3.0
2021-09-02 08:17:44.354,906.0,214.0,-1.0,930.9312541750868,1,1,1,0.0,3.0
2021-09-02 08:17:44.363,1090.0,20.0,22.0,1090.4054291867774,1,1,1,0.0,3.0
2021-09-02 08:17:44.374,1019.0,71.0,27.0,1021.8272848187212,1,1,1,0.0,3.0
2021-09-02 08:17:44.383,1038.0,-91.0,5.0,1041.9932821280568,1,1,1,0.0,3.0
2021-09-02 08:17:44.392,1053.0,-91.0,5.0,1056.9366111550871,1,1,1,0.0,3.0
2021-09-02 08:17:44.393,1053.0,43.0,26.0,1054.1982735709637,1,1,1,0.0,3.0
2021-09-02 08:17:44.402,1082.0,23.0,48.0,1083.3083586864825,1,1,1,0.0,3.0
2021-09-02 08:17:44.412,962.0,97.0,11.0,966.9405359172816,1,1,1,0.0,3.0
2021-09-02 08:17:44.422,1012.0,11.0,11.0,1012.119558155063,1,1,1,0.0,3.0
2021-09-02 08:17:44.423,1012.0,11.0,-1.0,1012.060274884851,1,1,1,0.0,3.0
2021-09-02 08:17:44.432,953.0,11.0,-1.0,953.0640062451208,1,1,1,0.0,3.0
2021-09-02 08:17:44.433,953.0,171.0,9.0,968.2618447506852,1,1,1,0.0,3.0
2021-09-02 08:17:44.441,1043.0,63.0,18.0,1045.055979361871,1,1,1,0.0,3.0
2021-09-02 08:17:44.451,1027.0,49.0,1.0,1028.1687604668798,1,1,1,0.0,3.0
2021-09-02 08:17:44.461,1053.0,-157.0,8.0,1064.6699018944792,1,1,1,0.0,3.0
2021-09-02 08:17:44.471,976.0,21.0,2.0,976.2279446932464,1,1,1,0.0,3.0
2021-09-02 08:17:44.482,1072.0,-7.0,41.0,1072.8065995322736,1,1,1,0.0,3.0
2021-09-02 08:17:44.490,989.0,42.0,-2.0,989.8934286073426,1,1,1,0.0,3.0
2021-09-02 08:17:44.500,920.0,141.0,-14.0,930.8474633365016,1,1,1,0.0,3.0
2021-09-02 08:17:44.510,964.0,210.0,10.0,986.6590089792928,1,1,1,0.0,3.0
2021-09-02 08:17:44.519,1096.0,31.0,10.0,1096.4839260107738,1,1,1,0.0,3.0
2021-09-02 08:17:44.520,1096.0,31.0,18.0,1096.5860659337231,1,1,1,0.0,3.0
2021-09-02 08:17:44.530,1017.0,70.0,16.0,1019.531755268074,1,1,1,0.0,3.0
2021-09-02 08:17:44.540,915.0,117.0,-4.0,922.458671160936,1,1,1,0.0,3.0
2021-09-02 08:17:44.549,1109.0,-50.0,16.0,1110.241865541018,1,1,1,0.0,3.0
2021-09-02 08:17:44.558,1087.0,-84.0,16.0,1090.358198024851,1,1,1,0.0,3.0
2021-09-02 08:17:44.559,1087.0,-84.0,28.0,1090.6002934164285,1,1,1,0.0,3.0
2021-09-02 08:17:44.568,1016.0,77.0,-1.0,1018.9141278832088,1,1,1,0.0,3.0
2021-09-02 08:17:44.589,962.0,77.0,-1.0,965.07719898462,1,1,1,0.0,3.0
2021-09-02 08:17:44.590,962.0,43.0,-17.0,963.1105855507976,1,1,1,0.0,3.0
2021-09-02 08:17:44.591,1036.0,43.0,-17.0,1037.031339931441,1,1,1,0.0,3.0
2021-09-02 08:17:44.592,1036.0,60.0,-3.0,1037.740333609521,1,1,1,0.0,3.0
2021-09-02 08:17:44.598,1015.0,57.0,-3.0,1016.603659249759,1,1,1,0.0,3.0
2021-09-02 08:17:44.599,1015.0,57.0,6.0,1016.6169386745432,1,1,1,0.0,3.0
2021-09-02 08:17:44.607,1009.0,17.0,-7.0,1009.1674786674412,1,1,1,0.0,3.0
2021-09-02 08:17:44.617,1014.0,17.0,-7.0,1014.1666529717884,1,1,1,0.0,3.0
2021-09-02 08:17:44.618,1014.0,-77.0,-20.0,1017.1160209140352,1,1,1,0.0,3.0
2021-09-02 08:17:44.627,1058.0,36.0,20.0,1058.8012089150636,1,1,1,0.0,3.0
2021-09-02 08:17:44.637,1030.0,-12.0,3.0,1030.0742691670343,1,1,1,0.0,3.0
2021-09-02 08:17:44.647,1026.0,-12.0,3.0,1026.074558694445,1,1,1,0.0,3.0
2021-09-02 08:17:44.648,1026.0,1.0,6.0,1026.018031030644,1,1,1,0.0,3.0
2021-09-02 08:17:44.656,920.0,90.0,-15.0,924.5133855169432,1,1,1,0.0,3.0
2021-09-02 08:17:44.666,976.0,179.0,8.0,992.31093917179,1,1,1,0.0,3.0
2021-09-02 08:17:44.676,1021.0,98.0,19.0,1025.8684126144055,1,1,1,0.0,3.0
2021-09-02 08:17:44.685,1021.0,12.0,19.0,1021.2472766181558,1,1,1,0.0,3.0
2021-09-02 08:17:44.686,1021.0,12.0,0.0,1021.070516663761,1,1,1,0.0,3.0
2021-09-02 08:17:44.696,918.0,138.0,-27.0,928.7071659032248,1,1,1,0.0,3.0
2021-09-02 08:17:44.705,1104.0,-31.0,-27.0,1104.7651334107172,1,1,1,0.0,3.0
2021-09-02 08:17:44.706,1104.0,-31.0,27.0,1104.7651334107172,1,1,1,0.0,3.0
2021-09-02 08:17:44.715,1001.0,31.0,-4.0,1001.4878930870808,1,1,1,0.0,3.0
2021-09-02 08:17:44.724,1004.0,31.0,-4.0,1004.48643594625,1,1,1,0.0,3.0
2021-09-02 08:17:44.725,1004.0,22.0,-6.0,1004.2589307544146,1,1,1,0.0,3.0
2021-09-02 08:17:44.734,904.0,119.0,-27.0,912.1984433225042,1,1,1,0.0,3.0
2021-09-02 08:17:44.744,1079.0,17.0,23.0,1079.378988122337,1,1,1,0.0,3.0
2021-09-02 08:17:44.754,986.0,115.0,23.0,992.950149806122,1,1,1,0.0,3.0
2021-09-02 08:17:44.755,986.0,115.0,23.0,992.950149806122,1,1,1,0.0,3.0
2021-09-02 08:17:44.763,1021.0,115.0,23.0,1027.713481472341,1,1,1,0.0,3.0
2021-09-02 08:17:44.764,1021.0,25.0,5.0,1021.3182657722324,1,1,1,0.0,3.0
2021-09-02 08:17:44.774,894.0,118.0,-12.0,901.8336875499828,1,1,1,0.0,3.0
2021-09-02 08:17:44.783,1102.0,-23.0,15.0,1102.342052177998,1,1,1,0.0,3.0
2021-09-02 08:17:44.793,1015.0,49.0,15.0,1016.2927727776088,1,1,1,0.0,3.0
2021-09-02 08:17:44.794,1015.0,49.0,8.0,1016.2135602322968,1,1,1,0.0,3.0
2021-09-02 08:17:44.803,1063.0,-162.0,-9.0,1075.3111177701085,1,1,1,0.0,3.0
2021-09-02 08:17:44.812,952.0,82.0,22.0,955.7782169520292,1,1,1,0.0,3.0
2021-09-02 08:17:44.822,1040.0,42.0,12.0,1040.9169035038292,1,1,1,0.0,3.0
2021-09-02 08:17:44.832,1001.0,95.0,21.0,1005.7171570575896,1,1,1,0.0,3.0
2021-09-02 08:17:44.842,1014.0,4.0,-14.0,1014.1045311012076,1,1,1,0.0,3.0
2021-09-02 08:17:44.851,902.0,242.0,-14.0,934.0042826454276,1,1,1,0.0,3.0
2021-09-02 08:17:44.852,902.0,242.0,7.0,933.9255859007184,1,1,1,0.0,3.0
2021-09-02 08:17:44.862,1098.0,-22.0,23.0,1098.4611964015844,1,1,1,0.0,3.0
2021-09-02 08:17:44.871,1025.0,82.0,20.0,1028.4692508772443,1,1,1,0.0,3.0
2021-09-02 08:17:44.881,1038.0,-61.0,7.0,1039.8144065168551,1,1,1,0.0,3.0
2021-09-02 08:17:44.890,922.0,-61.0,7.0,924.042206828238,1,1,1,0.0,3.0
2021-09-02 08:17:44.891,922.0,78.0,-16.0,925.431791111587,1,1,1,0.0,3.0
2021-09-02 08:17:44.900,1104.0,-76.0,30.0,1107.019421690514,1,1,1,0.0,3.0
2021-09-02 08:17:44.914,998.0,95.0,-2.0,1002.5133415571088,1,1,1,0.0,3.0
2021-09-02 08:17:44.920,974.0,32.0,-14.0,974.6260821463788,1,1,1,0.0,3.0
2021-09-02 08:17:44.930,912.0,178.0,-18.0,929.38259075582,1,1,1,0.0,3.0
2021-09-02 08:17:44.939,1090.0,13.0,22.0,1090.2995001374622,1,1,1,0.0,3.0
2021-09-02 08:17:44.950,1020.0,72.0,6.0,1022.5556219590208,1,1,1,0.0,3.0
2021-09-02 08:17:44.959,1029.0,-100.0,-18.0,1034.0043520217891,1,1,1,0.0,3.0
2021-09-02 08:17:44.969,1054.0,26.0,20.0,1054.510312894094,1,1,1,0.0,3.0
2021-09-02 08:17:44.978,1041.0,26.0,20.0,1041.5166825356184,1,1,1,0.0,3.0
2021-09-02 08:17:44.979,1041.0,-29.0,9.0,1041.4427492666125,1,1,1,0.0,3.0
2021-09-02 08:17:44.998,980.0,-29.0,9.0,980.4702953175072,1,1,1,0.0,3.0
2021-09-02 08:17:44.999,980.0,73.0,-3.0,982.7196955388652,1,1,1,0.0,3.0
2021-09-02 08:17:45.000,989.0,37.0,-3.0,989.6964181000152,1,1,1,0.0,3.0
2021-09-02 08:17:45.001,989.0,37.0,5.0,989.7045013538132,1,1,1,0.0,3.0
2021-09-02 08:17:45.009,978.0,141.0,17.0,988.2580634631828,1,1,1,0.0,3.0
2021-09-02 08:17:45.029,1044.0,96.0,38.0,1049.0929415452188,1,1,1,0.0,3.0
2021-09-02 08:17:45.032,999.0,21.0,0.0,999.2206963429052,1,1,1,0.0,3.0
2021-09-02 08:17:45.038,1056.0,-154.0,-4.0,1067.1775859715196,1,1,1,0.0,3.0
2021-09-02 08:17:45.047,989.0,56.0,3.0,990.5887138464682,1,1,1,0.0,3.0
2021-09-02 08:17:45.056,1089.0,-30.0,3.0,1089.4172754275562,1,1,1,0.0,3.0
2021-09-02 08:17:45.057,1089.0,-30.0,40.0,1090.1472377619457,1,1,1,0.0,3.0
2021-09-02 08:17:45.066,985.0,52.0,-7.0,986.3964720131556,1,1,1,0.0,3.0
2021-09-02 08:17:45.076,910.0,132.0,-12.0,919.6020878619188,1,1,1,0.0,3.0
2021-09-02 08:17:45.086,943.0,214.0,0.0,966.9772489567684,1,1,1,0.0,3.0
2021-09-02 08:17:45.096,1077.0,14.0,19.0,1077.2585576360025,1,1,1,0.0,3.0
2021-09-02 08:17:45.105,1004.0,63.0,20.0,1006.173444292782,1,1,1,0.0,3.0
2021-09-02 08:17:45.115,912.0,117.0,-17.0,919.631447918132,1,1,1,0.0,3.0
2021-09-02 08:17:45.125,1101.0,-36.0,25.0,1101.872043387979,1,1,1,0.0,3.0
2021-09-02 08:17:45.135,1019.0,49.0,1.0,1020.1779256580688,1,1,1,0.0,3.0
2021-09-02 08:17:45.146,997.0,62.0,0.0,998.925923179492,1,1,1,0.0,3.0
2021-09-02 08:17:45.154,960.0,37.0,-37.0,961.4249840731204,1,1,1,0.0,3.0
2021-09-02 08:17:45.164,1043.0,77.0,-3.0,1045.8427224014135,1,1,1,0.0,3.0
2021-09-02 08:17:45.174,1010.0,95.0,19.0,1014.635895284609,1,1,1,0.0,3.0
2021-09-02 08:17:45.184,1003.0,23.0,-4.0,1003.2716481591614,1,1,1,0.0,3.0
2021-09-02 08:17:45.199,1032.0,-124.0,-6.0,1039.4402339721123,1,1,1,0.0,3.0
2021-09-02 08:17:45.207,1064.0,22.0,15.0,1064.3331245432512,1,1,1,0.0,3.0
2021-09-02 08:17:45.213,1029.0,40.0,21.0,1029.991262098859,1,1,1,0.0,3.0
2021-09-02 08:17:45.222,1031.0,40.0,21.0,1031.989341030226,1,1,1,0.0,3.0
2021-09-02 08:17:45.223,1031.0,-14.0,21.0,1031.3088771071448,1,1,1,0.0,3.0
2021-09-02 08:17:45.232,910.0,100.0,-6.0,915.4976788610662,1,1,1,0.0,3.0
2021-09-02 08:17:45.244,1120.0,-49.0,31.0,1121.4998885421255,1,1,1,0.0,3.0
2021-09-02 08:17:45.252,1030.0,97.0,23.0,1034.813026589828,1,1,1,0.0,3.0
2021-09-02 08:17:45.261,1021.0,97.0,23.0,1025.85525294751,1,1,1,0.0,3.0
2021-09-02 08:17:45.262,1021.0,41.0,-7.0,1021.8468574106396,1,1,1,0.0,3.0
2021-09-02 08:17:45.271,915.0,152.0,-7.0,927.5656311011096,1,1,1,0.0,3.0
2021-09-02 08:17:45.272,915.0,152.0,-37.0,928.276898344454,1,1,1,0.0,3.0
2021-09-02 08:17:45.281,1096.0,-3.0,33.0,1096.5007979933257,1,1,1,0.0,3.0
2021-09-02 08:17:45.293,984.0,66.0,33.0,986.7628894521724,1,1,1,0.0,3.0
2021-09-02 08:17:45.294,984.0,66.0,-3.0,986.2154936929352,1,1,1,0.0,3.0
2021-09-02 08:17:45.301,1001.0,27.0,1.0,1001.3645689757552,1,1,1,0.0,3.0
2021-09-02 08:17:45.311,921.0,114.0,-26.0,928.3926970845904,1,1,1,0.0,3.0
2021-09-02 08:17:45.320,1079.0,13.0,21.0,1079.2826321219109,1,1,1,0.0,3.0
2021-09-02 08:17:45.330,976.0,108.0,17.0,982.104373272006,1,1,1,0.0,3.0
2021-09-02 08:17:45.341,1020.0,36.0,4.0,1020.6429346250331,1,1,1,0.0,3.0
2021-09-02 08:17:45.350,886.0,138.0,-6.0,896.7028493319289,1,1,1,0.0,3.0
2021-09-02 08:17:45.359,1118.0,-54.0,14.0,1119.3909058054742,1,1,1,0.0,3.0
2021-09-02 08:17:45.369,1011.0,79.0,19.0,1014.2598286435286,1,1,1,0.0,3.0
2021-09-02 08:17:45.379,1058.0,-165.0,5.0,1070.800635039035,1,1,1,0.0,3.0
2021-09-02 08:17:45.389,960.0,-165.0,5.0,974.0893182865728,1,1,1,0.0,3.0
2021-09-02 08:17:45.390,960.0,74.0,13.0,962.9356157085476,1,1,1,0.0,3.0
2021-09-02 08:17:45.398,1107.0,-43.0,13.0,1107.9110975164026,1,1,1,0.0,3.0
2021-09-02 08:17:45.399,1107.0,-43.0,33.0,1108.3262155159914,1,1,1,0.0,3.0
2021-09-02 08:17:45.409,1019.0,96.0,16.0,1023.6371427415088,1,1,1,0.0,3.0
2021-09-02 08:17:45.418,1021.0,96.0,16.0,1025.628100239068,1,1,1,0.0,3.0
2021-09-02 08:17:45.419,1021.0,-2.0,-7.0,1021.025954616238,1,1,1,0.0,3.0
2021-09-02 08:17:45.428,938.0,226.0,1.0,964.84247418944,1,1,1,0.0,3.0
2021-09-02 08:17:45.437,1088.0,-15.0,1.0,1088.1038553373478,1,1,1,0.0,3.0
2021-09-02 08:17:45.438,1088.0,-15.0,19.0,1088.269268150121,1,1,1,0.0,3.0
2021-09-02 08:17:45.447,1007.0,73.0,18.0,1009.8029510751096,1,1,1,0.0,3.0
2021-09-02 08:17:45.457,1033.0,-67.0,14.0,1035.265183419205,1,1,1,0.0,3.0
2021-09-02 08:17:45.467,936.0,117.0,-6.0,943.3032386247808,1,1,1,0.0,3.0
2021-09-02 08:17:45.476,1112.0,117.0,-6.0,1118.154282735616,1,1,1,0.0,3.0
2021-09-02 08:17:45.477,1112.0,-51.0,31.0,1113.600466953925,1,1,1,0.0,3.0
2021-09-02 08:17:45.486,995.0,82.0,-7.0,998.397716343542,1,1,1,0.0,3.0
2021-09-02 08:17:45.497,958.0,41.0,-14.0,958.9791447158796,1,1,1,0.0,3.0
2021-09-02 08:17:45.506,1048.0,124.0,-14.0,1055.4032404725692,1,1,1,0.0,3.0
2021-09-02 08:17:45.507,1048.0,124.0,0.0,1055.3103808832736,1,1,1,0.0,3.0
2021-09-02 08:17:45.515,1106.0,124.0,0.0,1112.9294676663028,1,1,1,0.0,3.0
2021-09-02 08:17:45.516,1106.0,11.0,29.0,1106.4348150704586,1,1,1,0.0,3.0
2021-09-02 08:17:45.525,1017.0,42.0,14.0,1017.9631623983256,1,1,1,0.0,3.0
2021-09-02 08:17:45.535,1035.0,-114.0,-25.0,1041.5594078111917,1,1,1,0.0,3.0
2021-09-02 08:17:45.545,1042.0,43.0,-25.0,1043.1864646361166,1,1,1,0.0,3.0
2021-09-02 08:17:45.546,1042.0,43.0,14.0,1042.9808243683103,1,1,1,0.0,3.0
2021-09-02 08:17:45.555,1031.0,-15.0,-1.0,1031.1095965027191,1,1,1,0.0,3.0
2021-09-02 08:17:45.564,981.0,77.0,-1.0,984.0177843921318,1,1,1,0.0,3.0
2021-09-02 08:17:45.565,981.0,77.0,17.0,984.1641123308652,1,1,1,0.0,3.0
2021-09-02 08:17:45.575,993.0,20.0,0.0,993.201389447276,1,1,1,0.0,3.0
2021-09-02 08:17:45.584,988.0,107.0,8.0,993.8093378510788,1,1,1,0.0,3.0
2021-09-02 08:17:45.604,1039.0,79.0,40.0,1042.766512695915,1,1,1,0.0,3.0
2021-09-02 08:17:45.606,1014.0,13.0,-6.0,1014.1010797745952,1,1,1,0.0,3.0
2021-09-02 08:17:45.614,1040.0,13.0,-6.0,1040.0985530227413,1,1,1,0.0,3.0
2021-09-02 08:17:45.615,1040.0,-123.0,-7.0,1047.2716934969644,1,1,1,0.0,3.0
2021-09-02 08:17:45.623,987.0,37.0,26.0,988.0354244661472,1,1,1,0.0,3.0
2021-09-02 08:17:45.633,1075.0,-19.0,25.0,1075.458506870442,1,1,1,0.0,3.0
2021-09-02 08:17:45.642,1005.0,-19.0,25.0,1005.4904276023716,1,1,1,0.0,3.0
2021-09-02 08:17:45.643,1005.0,28.0,5.0,1005.4024069993068,1,1,1,0.0,3.0
2021-09-02 08:17:45.652,915.0,153.0,-17.0,927.8593643435412,1,1,1,0.0,3.0
2021-09-02 08:17:45.663,1074.0,17.0,26.0,1074.4491611984254,1,1,1,0.0,3.0
2021-09-02 08:17:45.672,1069.0,46.0,21.0,1070.1953092777037,1,1,1,0.0,3.0
2021-09-02 08:17:45.682,1020.0,58.0,3.0,1021.6520934251542,1,1,1,0.0,3.0
2021-09-02 08:17:45.691,901.0,130.0,-3.0,910.3351031351036,1,1,1,0.0,3.0
2021-09-02 08:17:45.701,1099.0,-27.0,31.0,1099.7686120270937,1,1,1,0.0,3.0
2021-09-02 08:17:45.711,1013.0,53.0,3.0,1014.3899644613998,1,1,1,0.0,3.0
2021-09-02 08:17:45.722,978.0,98.0,3.0,982.9023349244828,1,1,1,0.0,3.0
2021-09-02 08:17:45.730,944.0,46.0,3.0,945.1248594762492,1,1,1,0.0,3.0
2021-09-02 08:17:45.731,944.0,46.0,-36.0,945.8054768291416,1,1,1,0.0,3.0
2021-09-02 08:17:45.740,1053.0,60.0,6.0,1054.7250826637244,1,1,1,0.0,3.0
2021-09-02 08:17:45.750,1009.0,101.0,8.0,1014.0739617996312,1,1,1,0.0,3.0
2021-09-02 08:17:45.760,1016.0,-20.0,-4.0,1016.2047037875784,1,1,1,0.0,3.0
2021-09-02 08:17:45.771,894.0,258.0,-6.0,930.503089731571,1,1,1,0.0,3.0
2021-09-02 08:17:45.779,1062.0,31.0,28.0,1062.8212455535502,1,1,1,0.0,3.0
2021-09-02 08:17:45.789,1018.0,-9.0,2.0,1018.0417476704972,1,1,1,0.0,3.0
2021-09-02 08:17:45.799,1011.0,-10.0,17.0,1011.1923654775088,1,1,1,0.0,3.0
2021-09-02 08:17:45.808,926.0,-10.0,17.0,926.210019380054,1,1,1,0.0,3.0
2021-09-02 08:17:45.809,926.0,92.0,-14.0,930.6642788890094,1,1,1,0.0,3.0
2021-09-02 08:17:45.819,1112.0,-24.0,35.0,1112.8095075079111,1,1,1,0.0,3.0
2021-09-02 08:17:45.829,1030.0,93.0,27.0,1034.542410923786,1,1,1,0.0,3.0
2021-09-02 08:17:45.838,1022.0,15.0,-8.0,1022.1413796535194,1,1,1,0.0,3.0
2021-09-02 08:17:45.848,904.0,162.0,-6.0,918.4203830490698,1,1,1,0.0,3.0
2021-09-02 08:17:45.857,1111.0,1.0,-6.0,1111.0166515403807,1,1,1,0.0,3.0
2021-09-02 08:17:45.858,1111.0,1.0,15.0,1111.1017055157463,1,1,1,0.0,3.0
2021-09-02 08:17:45.867,1012.0,44.0,2.0,1012.9580445408388,1,1,1,0.0,3.0
2021-09-02 08:17:45.878,1010.0,28.0,-1.0,1010.3885391273992,1,1,1,0.0,3.0
2021-09-02 08:17:45.887,921.0,130.0,-21.0,930.3665944131916,1,1,1,0.0,3.0
2021-09-02 08:17:45.896,1098.0,9.0,26.0,1098.3446635733249,1,1,1,0.0,3.0
2021-09-02 08:17:45.906,973.0,95.0,16.0,977.7576386814884,1,1,1,0.0,3.0
2021-09-02 08:17:45.916,1002.0,95.0,16.0,1006.6205839341852,1,1,1,0.0,3.0
2021-09-02 08:17:45.917,1002.0,17.0,9.0,1002.1846137314222,1,1,1,0.0,3.0
2021-09-02 08:17:45.926,996.0,138.0,9.0,1005.5550705953405,1,1,1,0.0,3.0
2021-09-02 08:17:45.935,1129.0,-49.0,9.0,1130.0986682586613,1,1,1,0.0,3.0
2021-09-02 08:17:45.936,1129.0,-49.0,16.0,1130.1760924740888,1,1,1,0.0,3.0
2021-09-02 08:17:45.945,1013.0,29.0,7.0,1013.4391940318868,1,1,1,0.0,3.0
2021-09-02 08:17:45.955,1055.0,-151.0,-4.0,1065.7588845512853,1,1,1,0.0,3.0
2021-09-02 08:17:45.965,978.0,76.0,2.0,980.950559406538,1,1,1,0.0,3.0
2021-09-02 08:17:45.974,1093.0,76.0,2.0,1095.6409083271762,1,1,1,0.0,3.0
2021-09-02 08:17:45.975,1093.0,-41.0,33.0,1094.2664209414452,1,1,1,0.0,3.0
2021-09-02 08:17:45.986,1001.0,112.0,16.0,1007.37331709749,1,1,1,0.0,3.0
2021-09-02 08:17:45.994,1016.0,-18.0,-15.0,1016.2701412518228,1,1,1,0.0,3.0
2021-09-02 08:17:46.018,921.0,-18.0,-15.0,921.2979973928088,1,1,1,0.0,3.0
2021-09-02 08:17:46.019,921.0,252.0,-2.0,954.8554864480802,1,1,1,0.0,3.0
2021-09-02 08:17:46.020,1090.0,18.0,14.0,1090.2385060160002,1,1,1,0.0,3.0
2021-09-02 08:17:46.023,1023.0,75.0,21.0,1025.9605255564172,1,1,1,0.0,3.0
2021-09-02 08:17:46.033,929.0,82.0,-1.0,932.6124597066027,1,1,1,0.0,3.0
2021-09-02 08:17:46.046,934.0,82.0,-1.0,937.5931953677992,1,1,1,0.0,3.0
2021-09-02 08:17:46.047,934.0,129.0,-7.0,942.8923586497028,1,1,1,0.0,3.0
2021-09-02 08:17:46.053,1094.0,-74.0,33.0,1096.996353685827,1,1,1,0.0,3.0
2021-09-02 08:17:46.063,998.0,113.0,-1.0,1004.377419101007,1,1,1,0.0,3.0
2021-09-02 08:17:46.072,963.0,35.0,-24.0,963.9346450875184,1,1,1,0.0,3.0
2021-09-02 08:17:46.082,1042.0,118.0,-2.0,1048.6620046516418,1,1,1,0.0,3.0
2021-09-02 08:17:46.092,1104.0,8.0,19.0,1104.1924651074196,1,1,1,0.0,3.0
2021-09-02 08:17:46.102,994.0,8.0,19.0,994.2137597116628,1,1,1,0.0,3.0
2021-09-02 08:17:46.103,994.0,63.0,4.0,996.0025100369978,1,1,1,0.0,3.0
2021-09-02 08:17:46.111,1038.0,-104.0,-13.0,1043.27800705277,1,1,1,0.0,3.0
2021-09-02 08:17:46.121,1052.0,19.0,16.0,1052.2932100892792,1,1,1,0.0,3.0
2021-09-02 08:17:46.131,1029.0,2.0,3.0,1029.0063167930507,1,1,1,0.0,3.0
2021-09-02 08:17:46.140,978.0,2.0,3.0,978.006646194186,1,1,1,0.0,3.0
2021-09-02 08:17:46.141,978.0,67.0,-1.0,980.2928133981192,1,1,1,0.0,3.0
2021-09-02 08:17:46.151,989.0,47.0,11.0,990.177256858589,1,1,1,0.0,3.0
2021-09-02 08:17:46.160,980.0,162.0,17.0,993.4450160929894,1,1,1,0.0,3.0
2021-09-02 08:17:46.170,1016.0,94.0,16.0,1020.4646000719476,1,1,1,0.0,3.0
2021-09-02 08:17:46.180,1027.0,47.0,6.0,1028.0924082980089,1,1,1,0.0,3.0
2021-09-02 08:17:46.189,917.0,192.0,-28.0,937.3030459781936,1,1,1,0.0,3.0
2021-09-02 08:17:46.200,994.0,38.0,12.0,994.798472053511,1,1,1,0.0,3.0
2021-09-02 08:17:46.209,1078.0,38.0,12.0,1078.7362977113544,1,1,1,0.0,3.0
2021-09-02 08:17:46.210,1078.0,-50.0,38.0,1079.8277640438776,1,1,1,0.0,3.0
2021-09-02 08:17:46.219,996.0,10.0,-8.0,996.0823259148814,1,1,1,0.0,3.0
2021-09-02 08:17:46.233,920.0,112.0,-11.0,926.8575942398056,1,1,1,0.0,3.0
2021-09-02 08:17:46.238,1087.0,2.0,32.0,1087.472758279489,1,1,1,0.0,3.0
2021-09-02 08:17:46.248,1072.0,33.0,19.0,1072.6760927698538,1,1,1,0.0,3.0
2021-09-02 08:17:46.258,1011.0,61.0,12.0,1012.909670207566,1,1,1,0.0,3.0
2021-09-02 08:17:46.267,900.0,61.0,12.0,902.1446668910702,1,1,1,0.0,3.0
2021-09-02 08:17:46.268,900.0,125.0,5.0,908.652849002302,1,1,1,0.0,3.0
2021-09-02 08:17:46.277,1114.0,-32.0,24.0,1114.7179015338363,1,1,1,0.0,3.0
2021-09-02 08:17:46.288,1005.0,81.0,11.0,1008.3188979682964,1,1,1,0.0,3.0
2021-09-02 08:17:46.297,1081.0,-211.0,-10.0,1101.4454139901804,1,1,1,0.0,3.0
2021-09-02 08:17:46.306,956.0,-211.0,-10.0,979.0592423341908,1,1,1,0.0,3.0
2021-09-02 08:17:46.307,956.0,42.0,-28.0,957.3317084480176,1,1,1,0.0,3.0
2021-09-02 08:17:46.316,1058.0,62.0,4.0,1059.8226266691988,1,1,1,0.0,3.0
2021-09-02 08:17:46.327,994.0,107.0,14.0,999.8404872778456,1,1,1,0.0,3.0
2021-09-02 08:17:46.337,1031.0,-9.0,-11.0,1031.097958488911,1,1,1,0.0,3.0
2021-09-02 08:17:46.346,892.0,242.0,12.0,924.322454557932,1,1,1,0.0,3.0
2021-09-02 08:17:46.355,1074.0,33.0,25.0,1074.797655375187,1,1,1,0.0,3.0
2021-09-02 08:17:46.365,1013.0,24.0,6.0,1013.3020280252084,1,1,1,0.0,3.0
2021-09-02 08:17:46.375,1004.0,-8.0,25.0,1004.3430688763676,1,1,1,0.0,3.0
2021-09-02 08:17:46.385,934.0,101.0,-7.0,939.4711278160707,1,1,1,0.0,3.0
2021-09-02 08:17:46.394,1102.0,-43.0,-7.0,1102.860825308434,1,1,1,0.0,3.0
2021-09-02 08:17:46.395,1102.0,-43.0,32.0,1103.3027689623552,1,1,1,0.0,3.0
2021-09-02 08:17:46.404,984.0,76.0,-7.0,986.955419459258,1,1,1,0.0,3.0
2021-09-02 08:17:46.414,1011.0,50.0,-1.0,1012.2361384578204,1,1,1,0.0,3.0
2021-09-02 08:17:46.425,934.0,142.0,-8.0,944.7666378529674,1,1,1,0.0,3.0
2021-09-02 08:17:46.433,1084.0,142.0,-8.0,1093.2904463133298,1,1,1,0.0,3.0
2021-09-02 08:17:46.434,1084.0,0.0,16.0,1084.118074750163,1,1,1,0.0,3.0
2021-09-02 08:17:46.445,1007.0,39.0,0.0,1007.7549305262664,1,1,1,0.0,3.0
2021-09-02 08:17:46.453,1021.0,-96.0,-13.0,1025.5856863275735,1,1,1,0.0,3.0
2021-09-02 08:17:46.463,940.0,107.0,-11.0,946.1342399469538,1,1,1,0.0,3.0
2021-09-02 08:17:46.475,1093.0,18.0,28.0,1093.506744377921,1,1,1,0.0,3.0
2021-09-02 08:17:46.483,992.0,97.0,8.0,996.763261762792,1,1,1,0.0,3.0
2021-09-02 08:17:46.493,980.0,39.0,-3.0,980.780301596642,1,1,1,0.0,3.0
2021-09-02 08:17:46.502,1082.0,-86.0,15.0,1085.5160063306298,1,1,1,0.0,3.0
2021-09-02 08:17:46.512,1001.0,31.0,24.0,1001.7674380813144,1,1,1,0.0,3.0
2021-09-02 08:17:46.521,1104.0,-84.0,24.0,1107.4511275898365,1,1,1,0.0,3.0
2021-09-02 08:17:46.522,1104.0,-84.0,14.0,1107.279549165431,1,1,1,0.0,3.0
2021-09-02 08:17:46.531,931.0,128.0,2.0,939.7600757640218,1,1,1,0.0,3.0
2021-09-02 08:17:46.541,1016.0,86.0,10.0,1019.6823034651528,1,1,1,0.0,3.0
2021-09-02 08:17:46.551,979.0,162.0,20.0,992.5144835215252,1,1,1,0.0,3.0
2021-09-02 08:17:46.560,1030.0,93.0,20.0,1034.3833912046346,1,1,1,0.0,3.0
2021-09-02 08:17:46.561,1030.0,93.0,20.0,1034.3833912046346,1,1,1,0.0,3.0
2021-09-02 08:17:46.570,982.0,24.0,-14.0,982.3929967177088,1,1,1,0.0,3.0
2021-09-02 08:17:46.580,1034.0,-4.0,17.0,1034.147474976369,1,1,1,0.0,3.0
2021-09-02 08:17:46.590,1011.0,42.0,5.0,1011.8843807471286,1,1,1,0.0,3.0
2021-09-02 08:17:46.601,1040.0,17.0,9.0,1040.1778694050358,1,1,1,0.0,3.0
2021-09-02 08:17:46.619,995.0,52.0,2.0,996.3598747440606,1,1,1,0.0,3.0
