time_stamp,Acceleration_X,Acceleration_Y,Acceleration_Z,magnitude,STD_Status_right,STD_Status_left,STD_Status_both,KMeans,KMeans_convert
2021-09-02 13:24:46.049,976.0,22.0,17.0,976.395923793212,1,1,1,0.0,3.0
2021-09-02 13:24:46.058,936.0,397.0,1.0,1016.7133322623442,1,1,1,0.0,3.0
2021-09-02 13:24:46.069,1099.0,56.0,-23.0,1100.6661619219517,1,1,1,0.0,3.0
2021-09-02 13:24:46.078,925.0,56.0,-23.0,926.978964162618,1,1,1,0.0,3.0
2021-09-02 13:24:46.079,925.0,301.0,6.0,972.7599909535752,1,1,1,0.0,3.0
2021-09-02 13:24:46.088,1092.0,28.0,6.0,1092.3753933515711,1,1,1,0.0,3.0
2021-09-02 13:24:46.089,1092.0,28.0,6.0,1092.3753933515711,1,1,1,0.0,3.0
2021-09-02 13:24:46.097,985.0,-54.0,-1.0,986.479599383586,1,1,1,0.0,3.0
2021-09-02 13:24:46.107,1142.0,-311.0,13.0,1183.6612691137614,1,1,1,0.0,3.0
2021-09-02 13:24:46.116,833.0,180.0,13.0,852.3250553632693,1,1,1,0.0,3.0
2021-09-02 13:24:46.117,833.0,180.0,8.0,852.2634569192792,1,1,1,0.0,3.0
2021-09-02 13:24:46.130,1003.0,85.0,-9.0,1006.6354851682906,1,1,1,0.0,3.0
2021-09-02 13:24:46.137,951.0,353.0,30.0,1014.844815723074,1,1,1,0.0,3.0
2021-09-02 13:24:46.146,1037.0,169.0,3.0,1050.6850146452075,1,1,1,0.0,3.0
2021-09-02 13:24:46.163,972.0,9.0,-29.0,972.4741641812392,1,1,1,0.0,3.0
2021-09-02 13:24:46.166,1021.0,-125.0,-3.0,1028.6277266338875,1,1,1,0.0,3.0
2021-09-02 13:24:46.176,1066.0,-92.0,7.0,1069.9855139206325,1,1,1,0.0,3.0
2021-09-02 13:24:46.185,1114.0,-92.0,7.0,1117.8143853073282,1,1,1,0.0,3.0
2021-09-02 13:24:46.186,1114.0,-184.0,36.0,1129.667207632407,1,1,1,0.0,3.0
2021-09-02 13:24:46.196,944.0,-142.0,-9.0,954.6627676829132,1,1,1,0.0,3.0
2021-09-02 13:24:46.204,929.0,242.0,-33.0,960.5696226718812,1,1,1,0.0,3.0
2021-09-02 13:24:46.214,998.0,258.0,-33.0,1031.3374811379638,1,1,1,0.0,3.0
2021-09-02 13:24:46.215,998.0,258.0,1.0,1030.809875777294,1,1,1,0.0,3.0
2021-09-02 13:24:46.225,1089.0,118.0,44.0,1096.2577251723246,1,1,1,0.0,3.0
2021-09-02 13:24:46.235,929.0,111.0,-41.0,936.5057394378316,1,1,1,0.0,3.0
2021-09-02 13:24:46.244,1037.0,142.0,26.0,1047.0,1,1,1,0.0,3.0
2021-09-02 13:24:46.253,1106.0,142.0,26.0,1115.3815490674033,1,1,1,0.0,3.0
2021-09-02 13:24:46.254,1106.0,-81.0,-6.0,1108.978358670718,1,1,1,0.0,3.0
2021-09-02 13:24:46.263,1013.0,-140.0,-2.0,1022.6304317787536,1,1,1,0.0,3.0
2021-09-02 13:24:46.273,1013.0,-140.0,-2.0,1022.6304317787536,1,1,1,0.0,3.0
2021-09-02 13:24:46.274,1013.0,-53.0,19.0,1014.5634529195304,1,1,1,0.0,3.0
2021-09-02 13:24:46.283,869.0,-53.0,19.0,870.8220254449241,1,1,1,0.0,3.0
2021-09-02 13:24:46.284,869.0,153.0,-25.0,882.7202274786729,1,1,1,0.0,3.0
2021-09-02 13:24:46.292,1119.0,140.0,-25.0,1128.0008865244745,1,1,1,0.0,3.0
2021-09-02 13:24:46.293,1119.0,140.0,61.0,1129.37239208332,1,1,1,0.0,3.0
2021-09-02 13:24:46.302,955.0,187.0,-1.0,973.136681047426,1,1,1,0.0,3.0
2021-09-02 13:24:46.312,946.0,10.0,-14.0,946.1564352685024,1,1,1,0.0,3.0
2021-09-02 13:24:46.323,1016.0,91.0,19.0,1020.2440884415846,1,1,1,0.0,3.0
2021-09-02 13:24:46.332,1074.0,-105.0,16.0,1079.239083799322,1,1,1,0.0,3.0
2021-09-02 13:24:46.342,1101.0,-99.0,16.0,1105.5577777755443,1,1,1,0.0,3.0
2021-09-02 13:24:46.343,1101.0,-99.0,34.0,1105.9647372317077,1,1,1,0.0,3.0
2021-09-02 13:24:46.351,901.0,-167.0,-44.0,917.4017658583398,1,1,1,0.0,3.0
2021-09-02 13:24:46.362,876.0,201.0,-13.0,898.8581645621293,1,1,1,0.0,3.0
2021-09-02 13:24:46.371,1079.0,230.0,41.0,1104.00271738796,1,1,1,0.0,3.0
2021-09-02 13:24:46.381,997.0,186.0,17.0,1014.3441230667232,1,1,1,0.0,3.0
2021-09-02 13:24:46.391,974.0,158.0,-32.0,987.2507280321448,1,1,1,0.0,3.0
2021-09-02 13:24:46.400,981.0,289.0,24.0,1022.9652975541252,1,1,1,0.0,3.0
2021-09-02 13:24:46.410,1152.0,-45.0,23.0,1153.1079741290491,1,1,1,0.0,3.0
2021-09-02 13:24:46.428,1063.0,-192.0,-7.0,1080.223125099625,1,1,1,0.0,3.0
2021-09-02 13:24:46.430,970.0,-192.0,-7.0,988.8442748987324,1,1,1,0.0,3.0
2021-09-02 13:24:46.431,970.0,-157.0,-17.0,982.7705734300353,1,1,1,0.0,3.0
2021-09-02 13:24:46.439,973.0,-157.0,-17.0,985.731707920568,1,1,1,0.0,3.0
2021-09-02 13:24:46.440,973.0,46.0,-10.0,974.1380805614776,1,1,1,0.0,3.0
2021-09-02 13:24:46.450,1092.0,-21.0,61.0,1093.9040177273323,1,1,1,0.0,3.0
2021-09-02 13:24:46.459,927.0,151.0,-26.0,939.5775646533924,1,1,1,0.0,3.0
2021-09-02 13:24:46.468,926.0,73.0,-26.0,929.2367836025434,1,1,1,0.0,3.0
2021-09-02 13:24:46.469,926.0,73.0,-50.0,930.2177164513693,1,1,1,0.0,3.0
2021-09-02 13:24:46.478,1012.0,182.0,26.0,1028.5640475925647,1,1,1,0.0,3.0
2021-09-02 13:24:46.489,1121.0,-121.0,1.0,1127.5118624653137,1,1,1,0.0,3.0
2021-09-02 13:24:46.498,1055.0,-121.0,1.0,1061.9166633968975,1,1,1,0.0,3.0
2021-09-02 13:24:46.499,1055.0,-55.0,44.0,1057.348570718285,1,1,1,0.0,3.0
2021-09-02 13:24:46.507,925.0,-55.0,44.0,927.677745771666,1,1,1,0.0,3.0
2021-09-02 13:24:46.508,925.0,-101.0,-57.0,932.2419213916525,1,1,1,0.0,3.0
2021-09-02 13:24:46.518,1096.0,-80.0,52.0,1100.1454449298965,1,1,1,0.0,3.0
2021-09-02 13:24:46.527,1119.0,141.0,70.0,1130.0185839179817,1,1,1,0.0,3.0
2021-09-02 13:24:46.537,931.0,173.0,70.0,949.520931838788,1,1,1,0.0,3.0
2021-09-02 13:24:46.540,931.0,173.0,-22.0,947.192694228582,1,1,1,0.0,3.0
2021-09-02 13:24:46.547,975.0,188.0,-12.0,993.032225056166,1,1,1,0.0,3.0
2021-09-02 13:24:46.557,953.0,237.0,-21.0,982.2520043247556,1,1,1,0.0,3.0
2021-09-02 13:24:46.566,1121.0,64.0,36.0,1123.4024212186832,1,1,1,0.0,3.0
2021-09-02 13:24:46.576,1109.0,-104.0,32.0,1114.3253564376969,1,1,1,0.0,3.0
2021-09-02 13:24:46.585,893.0,-104.0,32.0,899.6049132813804,1,1,1,0.0,3.0
2021-09-02 13:24:46.586,893.0,-151.0,-53.0,907.2259916911552,1,1,1,0.0,3.0
2021-09-02 13:24:46.596,1071.0,-17.0,26.0,1071.450418824875,1,1,1,0.0,3.0
2021-09-02 13:24:46.606,1042.0,-115.0,-3.0,1048.331054581519,1,1,1,0.0,3.0
2021-09-02 13:24:46.614,996.0,-115.0,-3.0,1002.6215637018784,1,1,1,0.0,3.0
2021-09-02 13:24:46.615,996.0,5.0,26.0,996.3518454843148,1,1,1,0.0,3.0
2021-09-02 13:24:46.625,994.0,165.0,-32.0,1008.1096170556056,1,1,1,0.0,3.0
2021-09-02 13:24:46.634,950.0,235.0,-32.0,979.1572907352526,1,1,1,0.0,3.0
2021-09-02 13:24:46.635,950.0,235.0,5.0,978.6470252343285,1,1,1,0.0,3.0
2021-09-02 13:24:46.645,1163.0,-30.0,25.0,1163.6554472866958,1,1,1,0.0,3.0
2021-09-02 13:24:46.653,946.0,-30.0,25.0,946.8056822812166,1,1,1,0.0,3.0
2021-09-02 13:24:46.654,946.0,-15.0,7.0,946.1448092126278,1,1,1,0.0,3.0
2021-09-02 13:24:46.664,1010.0,20.0,5.0,1010.210374130062,1,1,1,0.0,3.0
2021-09-02 13:24:46.673,1090.0,-100.0,31.0,1095.0164382327782,1,1,1,0.0,3.0
2021-09-02 13:24:46.700,1060.0,-41.0,40.0,1061.5465133473897,1,1,1,0.0,3.0
2021-09-02 13:24:46.703,905.0,193.0,40.0,926.2148778766187,1,1,1,0.0,3.0
2021-09-02 13:24:46.704,905.0,193.0,-14.0,925.4566440411998,1,1,1,0.0,3.0
2021-09-02 13:24:46.712,1052.0,193.0,-14.0,1069.649007852576,1,1,1,0.0,3.0
2021-09-02 13:24:46.713,1052.0,198.0,17.0,1070.6059032155576,1,1,1,0.0,3.0
2021-09-02 13:24:46.723,1019.0,155.0,33.0,1031.2492424239642,1,1,1,0.0,3.0
2021-09-02 13:24:46.732,1046.0,-65.0,22.0,1048.2485392310357,1,1,1,0.0,3.0
2021-09-02 13:24:46.742,935.0,-85.0,-34.0,939.4711278160707,1,1,1,0.0,3.0
2021-09-02 13:24:46.751,1083.0,-85.0,-34.0,1086.8624567993872,1,1,1,0.0,3.0
2021-09-02 13:24:46.752,1083.0,-65.0,52.0,1086.194273599341,1,1,1,0.0,3.0
2021-09-02 13:24:46.762,1031.0,-181.0,-6.0,1046.7846005745405,1,1,1,0.0,3.0
2021-09-02 13:24:46.771,997.0,-144.0,-3.0,1007.349988832084,1,1,1,0.0,3.0
2021-09-02 13:24:46.782,915.0,77.0,-13.0,918.3261947695928,1,1,1,0.0,3.0
2021-09-02 13:24:46.790,987.0,252.0,-13.0,1018.7453067376556,1,1,1,0.0,3.0
2021-09-02 13:24:46.800,1105.0,111.0,48.0,1111.5979489005906,1,1,1,0.0,3.0
2021-09-02 13:24:46.810,927.0,93.0,48.0,932.8890609284686,1,1,1,0.0,3.0
2021-09-02 13:24:46.811,927.0,93.0,-46.0,932.7882932370024,1,1,1,0.0,3.0
2021-09-02 13:24:46.821,1019.0,144.0,24.0,1029.4041966108357,1,1,1,0.0,3.0
2021-09-02 13:24:46.830,1134.0,-114.0,6.0,1139.731547339109,1,1,1,0.0,3.0
2021-09-02 13:24:46.839,1022.0,-157.0,6.0,1034.0062862478158,1,1,1,0.0,3.0
2021-09-02 13:24:46.840,1022.0,-157.0,-21.0,1034.202107907347,1,1,1,0.0,3.0
2021-09-02 13:24:46.849,1012.0,-50.0,33.0,1013.7716705451973,1,1,1,0.0,3.0
2021-09-02 13:24:46.859,884.0,156.0,-26.0,898.0356340368683,1,1,1,0.0,3.0
2021-09-02 13:24:46.870,1111.0,139.0,66.0,1121.6050998457522,1,1,1,0.0,3.0
2021-09-02 13:24:46.878,947.0,207.0,7.0,969.3848564940552,1,1,1,0.0,3.0
2021-09-02 13:24:46.889,958.0,206.0,-22.0,980.1448872488188,1,1,1,0.0,3.0
2021-09-02 13:24:46.898,1004.0,104.0,28.0,1009.760367612039,1,1,1,0.0,3.0
2021-09-02 13:24:46.915,1091.0,-131.0,19.0,1099.0009099177307,1,1,1,0.0,3.0
2021-09-02 13:24:46.918,1098.0,-121.0,30.0,1105.0542973085078,1,1,1,0.0,3.0
2021-09-02 13:24:46.928,915.0,-135.0,-46.0,926.0485948372256,1,1,1,0.0,3.0
2021-09-02 13:24:46.937,1049.0,-2.0,28.0,1049.3755285883124,1,1,1,0.0,3.0
2021-09-02 13:24:46.948,1084.0,233.0,28.0,1109.1118068075914,1,1,1,0.0,3.0
2021-09-02 13:24:46.949,1084.0,233.0,51.0,1109.9306284628783,1,1,1,0.0,3.0
2021-09-02 13:24:46.956,986.0,233.0,51.0,1014.4387610891058,1,1,1,0.0,3.0
2021-09-02 13:24:46.957,986.0,185.0,-4.0,1003.213337231917,1,1,1,0.0,3.0
2021-09-02 13:24:46.966,987.0,187.0,-25.0,1004.869643287128,1,1,1,0.0,3.0
2021-09-02 13:24:46.976,987.0,273.0,14.0,1024.1552616669017,1,1,1,0.0,3.0
2021-09-02 13:24:46.986,1142.0,-39.0,25.0,1142.939193483188,1,1,1,0.0,3.0
2021-09-02 13:24:46.995,1074.0,-180.0,13.0,1089.0569314778727,1,1,1,0.0,3.0
2021-09-02 13:24:47.007,974.0,-186.0,-20.0,991.8023996744512,1,1,1,0.0,3.0
2021-09-02 13:24:47.015,985.0,31.0,-20.0,985.690620833941,1,1,1,0.0,3.0
2021-09-02 13:24:47.016,985.0,31.0,10.0,985.538431518528,1,1,1,0.0,3.0
2021-09-02 13:24:47.025,1060.0,-36.0,30.0,1061.03534342641,1,1,1,0.0,3.0
2021-09-02 13:24:47.035,947.0,146.0,-12.0,958.2635336899762,1,1,1,0.0,3.0
2021-09-02 13:24:47.045,907.0,221.0,-17.0,933.6910623969792,1,1,1,0.0,3.0
2021-09-02 13:24:47.055,992.0,221.0,-17.0,1016.4615093548796,1,1,1,0.0,3.0
2021-09-02 13:24:47.056,992.0,197.0,31.0,1011.8468263526846,1,1,1,0.0,3.0
2021-09-02 13:24:47.064,1128.0,-94.0,0.0,1131.9098904064758,1,1,1,0.0,3.0
2021-09-02 13:24:47.074,1043.0,-77.0,40.0,1046.6030766245626,1,1,1,0.0,3.0
2021-09-02 13:24:47.084,936.0,-76.0,-52.0,940.5190056559196,1,1,1,0.0,3.0
2021-09-02 13:24:47.094,1104.0,-64.0,41.0,1106.6133019261968,1,1,1,0.0,3.0
2021-09-02 13:24:47.105,1134.0,102.0,76.0,1141.111738612832,1,1,1,0.0,3.0
2021-09-02 13:24:47.113,918.0,183.0,76.0,939.1426941631394,1,1,1,0.0,3.0
2021-09-02 13:24:47.114,918.0,183.0,-11.0,936.1271281188256,1,1,1,0.0,3.0
2021-09-02 13:24:47.123,972.0,209.0,-7.0,994.2404135821477,1,1,1,0.0,3.0
2021-09-02 13:24:47.133,943.0,257.0,-23.0,977.6640527297708,1,1,1,0.0,3.0
2021-09-02 13:24:47.142,1127.0,103.0,44.0,1132.5519855618109,1,1,1,0.0,3.0
2021-09-02 13:24:47.154,1116.0,-106.0,43.0,1121.8471375370175,1,1,1,0.0,3.0
2021-09-02 13:24:47.162,886.0,-132.0,-56.0,897.5277154495008,1,1,1,0.0,3.0
2021-09-02 13:24:47.179,1089.0,-20.0,36.0,1089.7784178446552,1,1,1,0.0,3.0
2021-09-02 13:24:47.181,1020.0,-20.0,36.0,1020.831034011016,1,1,1,0.0,3.0
2021-09-02 13:24:47.182,1020.0,-161.0,-23.0,1032.8843110435942,1,1,1,0.0,3.0
2021-09-02 13:24:47.191,1024.0,-1.0,28.0,1024.3832290700586,1,1,1,0.0,3.0
2021-09-02 13:24:47.202,852.0,192.0,-15.0,873.4947051928821,1,1,1,0.0,3.0
2021-09-02 13:24:47.211,962.0,212.0,-8.0,985.1152216872908,1,1,1,0.0,3.0
2021-09-02 13:24:47.220,1168.0,-27.0,14.0,1168.3959089281338,1,1,1,0.0,3.0
2021-09-02 13:24:47.230,951.0,-21.0,4.0,951.2402430511444,1,1,1,0.0,3.0
2021-09-02 13:24:47.240,1001.0,80.0,16.0,1004.3191723749976,1,1,1,0.0,3.0
2021-09-02 13:24:47.250,1096.0,-147.0,23.0,1106.0533441023538,1,1,1,0.0,3.0
2021-09-02 13:24:47.260,1051.0,-64.0,34.0,1053.4956098627083,1,1,1,0.0,3.0
2021-09-02 13:24:47.269,955.0,157.0,0.0,967.8191979910296,1,1,1,0.0,3.0
2021-09-02 13:24:47.280,908.0,157.0,-7.0,921.4998643515906,1,1,1,0.0,3.0
2021-09-02 13:24:47.290,1034.0,-95.0,13.0,1038.4363244802255,1,1,1,0.0,3.0
2021-09-02 13:24:47.300,1007.0,179.0,22.0,1023.0219938984694,1,1,1,0.0,3.0
2021-09-02 13:24:47.309,969.0,117.0,-39.0,976.8167688978316,1,1,1,0.0,3.0
2021-09-02 13:24:47.318,935.0,-68.0,-31.0,937.98187615753,1,1,1,0.0,3.0
2021-09-02 13:24:47.328,1082.0,-65.0,48.0,1085.0129031490824,1,1,1,0.0,3.0
2021-09-02 13:24:47.338,1038.0,-182.0,-4.0,1053.8424929751125,1,1,1,0.0,3.0
2021-09-02 13:24:47.349,990.0,-171.0,-1.0,1004.6601415404116,1,1,1,0.0,3.0
2021-09-02 13:24:47.358,943.0,57.0,-6.0,944.7401759214011,1,1,1,0.0,3.0
2021-09-02 13:24:47.368,982.0,297.0,2.0,1025.932258972297,1,1,1,0.0,3.0
2021-09-02 13:24:47.376,1098.0,297.0,2.0,1137.460768554239,1,1,1,0.0,3.0
2021-09-02 13:24:47.377,1098.0,129.0,39.0,1106.2395762220767,1,1,1,0.0,3.0
2021-09-02 13:24:47.386,920.0,135.0,-35.0,930.5106125133664,1,1,1,0.0,3.0
2021-09-02 13:24:47.397,1019.0,196.0,26.0,1038.0043352510625,1,1,1,0.0,3.0
2021-09-02 13:24:47.406,1099.0,196.0,26.0,1116.6436316032075,1,1,1,0.0,3.0
2021-09-02 13:24:47.407,1099.0,-79.0,-7.0,1101.857976329073,1,1,1,0.0,3.0
2021-09-02 13:24:47.416,1026.0,-229.0,-7.0,1051.2687572642878,1,1,1,0.0,3.0
2021-09-02 13:24:47.417,1026.0,-229.0,-9.0,1051.2839768587744,1,1,1,0.0,3.0
2021-09-02 13:24:47.425,1022.0,-87.0,-9.0,1025.73583343861,1,1,1,0.0,3.0
2021-09-02 13:24:47.426,1022.0,-87.0,38.0,1026.4000194855803,1,1,1,0.0,3.0
2021-09-02 13:24:47.435,865.0,156.0,-26.0,879.3389562620321,1,1,1,0.0,3.0
2021-09-02 13:24:47.446,1134.0,119.0,81.0,1143.1001705887372,1,1,1,0.0,3.0
2021-09-02 13:24:47.463,924.0,201.0,-3.0,945.6140861894984,1,1,1,0.0,3.0
2021-09-02 13:24:47.467,989.0,212.0,-2.0,1011.4687340694225,1,1,1,0.0,3.0
2021-09-02 13:24:47.476,1044.0,89.0,32.0,1048.2752501132516,1,1,1,0.0,3.0
2021-09-02 13:24:47.485,1078.0,-129.0,13.0,1085.7688520122504,1,1,1,0.0,3.0
2021-09-02 13:24:47.493,1118.0,-123.0,13.0,1124.8208746284895,1,1,1,0.0,3.0
2021-09-02 13:24:47.494,1118.0,-123.0,32.0,1125.2008709559373,1,1,1,0.0,3.0
2021-09-02 13:24:47.504,904.0,-141.0,-44.0,915.9874453288102,1,1,1,0.0,3.0
2021-09-02 13:24:47.514,1070.0,-20.0,50.0,1071.354283138869,1,1,1,0.0,3.0
2021-09-02 13:24:47.524,1069.0,-20.0,50.0,1070.355548404361,1,1,1,0.0,3.0
2021-09-02 13:24:47.525,1069.0,201.0,48.0,1088.7910727040337,1,1,1,0.0,3.0
2021-09-02 13:24:47.533,955.0,196.0,19.0,975.090765006007,1,1,1,0.0,3.0
2021-09-02 13:24:47.546,994.0,148.0,-17.0,1005.101487413087,1,1,1,0.0,3.0
2021-09-02 13:24:47.552,968.0,243.0,11.0,998.0951858415108,1,1,1,0.0,3.0
2021-09-02 13:24:47.562,1153.0,-44.0,30.0,1154.2291800158234,1,1,1,0.0,3.0
2021-09-02 13:24:47.573,956.0,-15.0,2.0,956.1197623728945,1,1,1,0.0,3.0
2021-09-02 13:24:47.582,981.0,-183.0,-12.0,997.9949899673844,1,1,1,0.0,3.0
2021-09-02 13:24:47.591,968.0,39.0,-12.0,968.8596389570577,1,1,1,0.0,3.0
2021-09-02 13:24:47.592,968.0,39.0,1.0,968.7858380467792,1,1,1,0.0,3.0
2021-09-02 13:24:47.601,1091.0,39.0,1.0,1091.6973023691137,1,1,1,0.0,3.0
2021-09-02 13:24:47.602,1091.0,-72.0,25.0,1093.658996214085,1,1,1,0.0,3.0
2021-09-02 13:24:47.611,917.0,200.0,-6.0,938.5760491297442,1,1,1,0.0,3.0
2021-09-02 13:24:47.621,908.0,221.0,-6.0,934.5271531635664,1,1,1,0.0,3.0
2021-09-02 13:24:47.622,908.0,221.0,-11.0,934.5726296013596,1,1,1,0.0,3.0
2021-09-02 13:24:47.631,1017.0,184.0,24.0,1033.7896304374503,1,1,1,0.0,3.0
2021-09-02 13:24:47.640,1149.0,-102.0,9.0,1153.5536398451525,1,1,1,0.0,3.0
2021-09-02 13:24:47.650,1046.0,-29.0,43.0,1047.2850614803974,1,1,1,0.0,3.0
2021-09-02 13:24:47.660,926.0,-71.0,-47.0,929.9064469074297,1,1,1,0.0,3.0
2021-09-02 13:24:47.670,1082.0,-85.0,58.0,1086.8822383312738,1,1,1,0.0,3.0
2021-09-02 13:24:47.680,1029.0,-190.0,-24.0,1046.6694798263682,1,1,1,0.0,3.0
2021-09-02 13:24:47.690,924.0,240.0,-28.0,955.0706780128892,1,1,1,0.0,3.0
2021-09-02 13:24:47.699,996.0,165.0,-20.0,1009.7727467108626,1,1,1,0.0,3.0
2021-09-02 13:24:47.721,1112.0,106.0,40.0,1117.7566819303745,1,1,1,0.0,3.0
2021-09-02 13:24:47.729,938.0,33.0,-39.0,939.3902277541532,1,1,1,0.0,3.0
2021-09-02 13:24:47.743,886.0,-154.0,-50.0,900.673081645055,1,1,1,0.0,3.0
2021-09-02 13:24:47.748,1059.0,-27.0,34.0,1059.889616894137,1,1,1,0.0,3.0
2021-09-02 13:24:47.757,1037.0,-27.0,34.0,1037.9084738068188,1,1,1,0.0,3.0
2021-09-02 13:24:47.758,1037.0,-178.0,-16.0,1052.287508240975,1,1,1,0.0,3.0
2021-09-02 13:24:47.768,1043.0,-178.0,-16.0,1058.200831600505,1,1,1,0.0,3.0
2021-09-02 13:24:47.769,1043.0,-35.0,11.0,1043.645054604294,1,1,1,0.0,3.0
2021-09-02 13:24:47.778,862.0,157.0,-28.0,876.6281994095331,1,1,1,0.0,3.0
2021-09-02 13:24:47.786,955.0,299.0,-28.0,1001.104390161186,1,1,1,0.0,3.0
2021-09-02 13:24:47.787,955.0,299.0,11.0,1000.7732010800448,1,1,1,0.0,3.0
2021-09-02 13:24:47.796,1147.0,299.0,11.0,1185.3822168397835,1,1,1,0.0,3.0
2021-09-02 13:24:47.797,1147.0,52.0,28.0,1148.5194817677234,1,1,1,0.0,3.0
2021-09-02 13:24:47.806,951.0,-11.0,-2.0,951.0657180237336,1,1,1,0.0,3.0
2021-09-02 13:24:47.816,1009.0,-11.0,-2.0,1009.0619406161348,1,1,1,0.0,3.0
2021-09-02 13:24:47.817,1009.0,65.0,18.0,1011.2516996277436,1,1,1,0.0,3.0
2021-09-02 13:24:47.827,1106.0,-111.0,37.0,1112.1717493265148,1,1,1,0.0,3.0
2021-09-02 13:24:47.835,1101.0,-111.0,37.0,1107.199620664675,1,1,1,0.0,3.0
2021-09-02 13:24:47.836,1101.0,-156.0,2.0,1111.9986510783183,1,1,1,0.0,3.0
2021-09-02 13:24:47.846,933.0,125.0,-25.0,941.6682005887212,1,1,1,0.0,3.0
2021-09-02 13:24:47.855,918.0,220.0,0.0,943.9936440463993,1,1,1,0.0,3.0
2021-09-02 13:24:47.865,1035.0,243.0,24.0,1063.414312485966,1,1,1,0.0,3.0
2021-09-02 13:24:47.876,1000.0,221.0,34.0,1024.6936127448048,1,1,1,0.0,3.0
2021-09-02 13:24:47.884,948.0,157.0,-41.0,961.7868786794712,1,1,1,0.0,3.0
2021-09-02 13:24:47.895,934.0,-81.0,-43.0,938.4913425279958,1,1,1,0.0,3.0
2021-09-02 13:24:47.904,1102.0,-123.0,64.0,1110.6885251950705,1,1,1,0.0,3.0
2021-09-02 13:24:47.921,1067.0,-261.0,-20.0,1098.6400684482612,1,1,1,0.0,3.0
2021-09-02 13:24:47.924,984.0,-185.0,2.0,1001.2417290544776,1,1,1,0.0,3.0
2021-09-02 13:24:47.936,937.0,57.0,-23.0,939.0138444133823,1,1,1,0.0,3.0
2021-09-02 13:24:47.943,1090.0,32.0,68.0,1092.5877539127007,1,1,1,0.0,3.0
2021-09-02 13:24:47.954,1096.0,141.0,58.0,1106.5536588887137,1,1,1,0.0,3.0
2021-09-02 13:24:47.962,938.0,141.0,58.0,950.3099494375506,1,1,1,0.0,3.0
2021-09-02 13:24:47.963,938.0,26.0,-53.0,939.8558400095196,1,1,1,0.0,3.0
2021-09-02 13:24:47.972,1018.0,195.0,27.0,1036.8596819242223,1,1,1,0.0,3.0
2021-09-02 13:24:47.982,1138.0,-122.0,27.0,1144.8392900315746,1,1,1,0.0,3.0
2021-09-02 13:24:47.983,1138.0,-122.0,-6.0,1144.5365874448926,1,1,1,0.0,3.0
2021-09-02 13:24:47.992,1064.0,-56.0,50.0,1066.6452081174884,1,1,1,0.0,3.0
2021-09-02 13:24:48.003,1006.0,-61.0,24.0,1008.133423709382,1,1,1,0.0,3.0
2021-09-02 13:24:48.011,875.0,143.0,24.0,886.9329174182228,1,1,1,0.0,3.0
2021-09-02 13:24:48.012,875.0,143.0,-24.0,886.9329174182228,1,1,1,0.0,3.0
2021-09-02 13:24:48.021,1128.0,72.0,84.0,1133.412546251364,1,1,1,0.0,3.0
2021-09-02 13:24:48.032,917.0,269.0,-20.0,955.8504067059866,1,1,1,0.0,3.0
2021-09-02 13:24:48.041,994.0,172.0,-16.0,1008.8984091572352,1,1,1,0.0,3.0
2021-09-02 13:24:48.050,1012.0,70.0,19.0,1014.5959787028528,1,1,1,0.0,3.0
2021-09-02 13:24:48.062,1094.0,-136.0,11.0,1102.4758500756377,1,1,1,0.0,3.0
2021-09-02 13:24:48.070,1103.0,-126.0,41.0,1110.9302408342298,1,1,1,0.0,3.0
2021-09-02 13:24:48.080,926.0,-184.0,-40.0,944.9507923696344,1,1,1,0.0,3.0
2021-09-02 13:24:48.089,1096.0,-184.0,-40.0,1112.057552467497,1,1,1,0.0,3.0
2021-09-02 13:24:48.090,1096.0,-52.0,29.0,1097.6160530896038,1,1,1,0.0,3.0
2021-09-02 13:24:48.099,1024.0,-154.0,-21.0,1035.7282462113312,1,1,1,0.0,3.0
2021-09-02 13:24:48.110,983.0,-154.0,-21.0,995.2115353029224,1,1,1,0.0,3.0
2021-09-02 13:24:48.111,983.0,213.0,18.0,1005.9731606757708,1,1,1,0.0,3.0
2021-09-02 13:24:48.119,1002.0,219.0,-17.0,1025.794326363721,1,1,1,0.0,3.0
2021-09-02 13:24:48.128,949.0,219.0,-17.0,974.0898315863892,1,1,1,0.0,3.0
2021-09-02 13:24:48.129,949.0,284.0,12.0,990.6568528002016,1,1,1,0.0,3.0
2021-09-02 13:24:48.139,1158.0,-12.0,14.0,1158.1467955315509,1,1,1,0.0,3.0
2021-09-02 13:24:48.148,934.0,6.0,19.0,934.212502592424,1,1,1,0.0,3.0
2021-09-02 13:24:48.158,947.0,6.0,19.0,947.2095861001408,1,1,1,0.0,3.0
2021-09-02 13:24:48.159,947.0,-181.0,-9.0,964.1841110493368,1,1,1,0.0,3.0
2021-09-02 13:24:48.167,992.0,42.0,6.0,992.9068435659008,1,1,1,0.0,3.0
2021-09-02 13:24:48.177,1061.0,-52.0,34.0,1062.8174819789144,1,1,1,0.0,3.0
2021-09-02 13:24:48.195,952.0,167.0,-17.0,966.68609175885,1,1,1,0.0,3.0
2021-09-02 13:24:48.198,899.0,237.0,-14.0,929.820412767971,1,1,1,0.0,3.0
2021-09-02 13:24:48.207,1040.0,237.0,-14.0,1066.7544234733691,1,1,1,0.0,3.0
2021-09-02 13:24:48.208,1040.0,240.0,15.0,1067.4385228199328,1,1,1,0.0,3.0
2021-09-02 13:24:48.216,1131.0,-61.0,12.0,1132.70737615679,1,1,1,0.0,3.0
2021-09-02 13:24:48.226,1041.0,-31.0,12.0,1041.530604447128,1,1,1,0.0,3.0
2021-09-02 13:24:48.227,1041.0,-31.0,33.0,1041.9841649468576,1,1,1,0.0,3.0
2021-09-02 13:24:48.236,953.0,-84.0,-38.0,957.4492153634052,1,1,1,0.0,3.0
2021-09-02 13:24:48.246,1089.0,-83.0,40.0,1092.890662417792,1,1,1,0.0,3.0
2021-09-02 13:24:48.256,1063.0,-204.0,-18.0,1082.547458543966,1,1,1,0.0,3.0
2021-09-02 13:24:48.266,913.0,224.0,-21.0,940.3116504648872,1,1,1,0.0,3.0
2021-09-02 13:24:48.275,961.0,219.0,-21.0,985.861552146142,1,1,1,0.0,3.0
2021-09-02 13:24:48.276,961.0,219.0,-2.0,985.6398936731406,1,1,1,0.0,3.0
2021-09-02 13:24:48.285,967.0,246.0,-28.0,998.1928671354048,1,1,1,0.0,3.0
2021-09-02 13:24:48.296,1122.0,99.0,49.0,1127.4244985807254,1,1,1,0.0,3.0
2021-09-02 13:24:48.305,935.0,65.0,-54.0,938.810950085266,1,1,1,0.0,3.0
2021-09-02 13:24:48.316,883.0,-169.0,-65.0,901.373951254417,1,1,1,0.0,3.0
2021-09-02 13:24:48.324,1076.0,-26.0,-65.0,1078.2750113027753,1,1,1,0.0,3.0
2021-09-02 13:24:48.325,1076.0,-26.0,41.0,1077.0947033571374,1,1,1,0.0,3.0
2021-09-02 13:24:48.334,1028.0,-169.0,41.0,1042.6053903562938,1,1,1,0.0,3.0
2021-09-02 13:24:48.335,1028.0,-169.0,-25.0,1042.098843680387,1,1,1,0.0,3.0
2021-09-02 13:24:48.343,1019.0,-17.0,24.0,1019.4243473647272,1,1,1,0.0,3.0
2021-09-02 13:24:48.353,869.0,186.0,-19.0,888.8858194391448,1,1,1,0.0,3.0
2021-09-02 13:24:48.365,1133.0,170.0,75.0,1148.13500948277,1,1,1,0.0,3.0
2021-09-02 13:24:48.373,1166.0,-40.0,21.0,1166.8748861810336,1,1,1,0.0,3.0
2021-09-02 13:24:48.382,963.0,-18.0,21.0,963.397114382226,1,1,1,0.0,3.0
2021-09-02 13:24:48.383,963.0,-18.0,0.0,963.16820960827,1,1,1,0.0,3.0
2021-09-02 13:24:48.393,1008.0,42.0,-1.0,1008.8751161566034,1,1,1,0.0,3.0
2021-09-02 13:24:48.402,1098.0,-99.0,46.0,1103.4133405030047,1,1,1,0.0,3.0
2021-09-02 13:24:48.413,1101.0,-158.0,13.0,1112.3551591106143,1,1,1,0.0,3.0
2021-09-02 13:24:48.421,937.0,-158.0,13.0,950.316789286604,1,1,1,0.0,3.0
2021-09-02 13:24:48.422,937.0,-224.0,-46.0,964.50038880241,1,1,1,0.0,3.0
2021-09-02 13:24:48.431,894.0,-224.0,-46.0,922.7827479965152,1,1,1,0.0,3.0
2021-09-02 13:24:48.432,894.0,255.0,-8.0,929.6908088176413,1,1,1,0.0,3.0
2021-09-02 13:24:48.441,1073.0,229.0,18.0,1097.3121707153348,1,1,1,0.0,3.0
2021-09-02 13:24:48.451,1027.0,136.0,31.0,1036.4294476711862,1,1,1,0.0,3.0
2021-09-02 13:24:48.461,955.0,136.0,31.0,965.1331514355934,1,1,1,0.0,3.0
2021-09-02 13:24:48.462,955.0,112.0,-35.0,962.1818954854638,1,1,1,0.0,3.0
2021-09-02 13:24:48.470,980.0,112.0,-35.0,987.0,1,1,1,0.0,3.0
2021-09-02 13:24:48.471,980.0,271.0,40.0,1017.566214061768,1,1,1,0.0,3.0
2021-09-02 13:24:48.481,1087.0,-79.0,73.0,1092.3090222093747,1,1,1,0.0,3.0
2021-09-02 13:24:48.498,1036.0,-190.0,-19.0,1053.450046276519,1,1,1,0.0,3.0
2021-09-02 13:24:48.501,989.0,-157.0,1.0,1001.3845415223864,1,1,1,0.0,3.0
2021-09-02 13:24:48.510,923.0,103.0,1.0,928.7297777071648,1,1,1,0.0,3.0
2021-09-02 13:24:48.511,923.0,103.0,-15.0,928.8503646982113,1,1,1,0.0,3.0
2021-09-02 13:24:48.520,1112.0,56.0,65.0,1115.3048910499765,1,1,1,0.0,3.0
2021-09-02 13:24:48.529,1120.0,76.0,54.0,1123.873658379802,1,1,1,0.0,3.0
2021-09-02 13:24:48.539,938.0,12.0,54.0,939.6297143023947,1,1,1,0.0,3.0
2021-09-02 13:24:48.540,938.0,12.0,-50.0,939.4083244255396,1,1,1,0.0,3.0
2021-09-02 13:24:48.548,1025.0,122.0,33.0,1032.762315346566,1,1,1,0.0,3.0
2021-09-02 13:24:48.561,1086.0,-115.0,1.0,1092.07234192612,1,1,1,0.0,3.0
2021-09-02 13:24:48.569,1089.0,-66.0,58.0,1092.5387864968457,1,1,1,0.0,3.0
2021-09-02 13:24:48.578,909.0,-107.0,-65.0,917.5810590896044,1,1,1,0.0,3.0
2021-09-02 13:24:48.587,860.0,159.0,-29.0,875.0554268159246,1,1,1,0.0,3.0
2021-09-02 13:24:48.598,1123.0,135.0,70.0,1133.2493106108648,1,1,1,0.0,3.0
2021-09-02 13:24:48.607,921.0,223.0,70.0,950.194716887018,1,1,1,0.0,3.0
2021-09-02 13:24:48.608,921.0,223.0,12.0,947.688767475905,1,1,1,0.0,3.0
2021-09-02 13:24:48.618,990.0,175.0,-19.0,1005.5277221439496,1,1,1,0.0,3.0
2021-09-02 13:24:48.627,939.0,272.0,-33.0,978.158473868115,1,1,1,0.0,3.0
2021-09-02 13:24:48.636,1085.0,-89.0,-33.0,1089.1441594205976,1,1,1,0.0,3.0
2021-09-02 13:24:48.637,1085.0,-89.0,30.0,1089.057390590597,1,1,1,0.0,3.0
2021-09-02 13:24:48.646,1143.0,-172.0,33.0,1156.3399154227964,1,1,1,0.0,3.0
2021-09-02 13:24:48.656,912.0,-190.0,-45.0,932.6676792941846,1,1,1,0.0,3.0
2021-09-02 13:24:48.666,1051.0,15.0,32.0,1051.594028130628,1,1,1,0.0,3.0
2021-09-02 13:24:48.676,1022.0,-73.0,-10.0,1024.6526240633946,1,1,1,0.0,3.0
2021-09-02 13:24:48.685,996.0,83.0,35.0,1000.0649978876372,1,1,1,0.0,3.0
2021-09-02 13:24:48.695,997.0,110.0,-34.0,1003.625926329128,1,1,1,0.0,3.0
2021-09-02 13:24:48.705,956.0,275.0,22.0,995.0100502004992,1,1,1,0.0,3.0
2021-09-02 13:24:48.729,1156.0,-64.0,10.0,1157.8134564773377,1,1,1,0.0,3.0
2021-09-02 13:24:48.730,963.0,0.0,25.0,963.3244520928554,1,1,1,0.0,3.0
2021-09-02 13:24:48.734,964.0,-26.0,-12.0,964.4252174222736,1,1,1,0.0,3.0
2021-09-02 13:24:48.745,1079.0,-126.0,54.0,1087.673204597778,1,1,1,0.0,3.0
2021-09-02 13:24:48.753,1081.0,-126.0,54.0,1089.6572855719362,1,1,1,0.0,3.0
2021-09-02 13:24:48.754,1081.0,50.0,76.0,1084.821183421489,1,1,1,0.0,3.0
2021-09-02 13:24:48.763,909.0,203.0,-16.0,931.5288508682916,1,1,1,0.0,3.0
2021-09-02 13:24:48.774,943.0,277.0,0.0,982.8417980529724,1,1,1,0.0,3.0
2021-09-02 13:24:48.782,995.0,268.0,0.0,1030.460576635516,1,1,1,0.0,3.0
2021-09-02 13:24:48.783,995.0,268.0,-4.0,1030.4683401250134,1,1,1,0.0,3.0
2021-09-02 13:24:48.792,1073.0,268.0,-4.0,1105.969710254309,1,1,1,0.0,3.0
2021-09-02 13:24:48.793,1073.0,167.0,53.0,1087.210651161954,1,1,1,0.0,3.0
2021-09-02 13:24:48.802,1098.0,-78.0,55.0,1102.1401907198558,1,1,1,0.0,3.0
2021-09-02 13:24:48.812,893.0,-108.0,-82.0,903.2369567284102,1,1,1,0.0,3.0
2021-09-02 13:24:48.823,1111.0,-59.0,-82.0,1115.5832555215231,1,1,1,0.0,3.0
2021-09-02 13:24:48.824,1111.0,-59.0,43.0,1113.3961559121713,1,1,1,0.0,3.0
2021-09-02 13:24:48.832,1000.0,-151.0,-19.0,1011.5147057754524,1,1,1,0.0,3.0
2021-09-02 13:24:48.841,1012.0,-66.0,39.0,1014.899502413909,1,1,1,0.0,3.0
2021-09-02 13:24:48.851,999.0,-66.0,39.0,1001.9371237757388,1,1,1,0.0,3.0
2021-09-02 13:24:48.852,999.0,192.0,0.0,1017.2831464248288,1,1,1,0.0,3.0
2021-09-02 13:24:48.861,949.0,241.0,-31.0,979.6136993733804,1,1,1,0.0,3.0
2021-09-02 13:24:48.872,1149.0,49.0,41.0,1150.774956279463,1,1,1,0.0,3.0
2021-09-02 13:24:48.880,927.0,15.0,41.0,928.027478041464,1,1,1,0.0,3.0
2021-09-02 13:24:48.881,927.0,15.0,-33.0,927.7084671382491,1,1,1,0.0,3.0
2021-09-02 13:24:48.891,1026.0,89.0,36.0,1030.4819260908946,1,1,1,0.0,3.0
2021-09-02 13:24:48.900,1094.0,-154.0,36.0,1105.3723354598667,1,1,1,0.0,3.0
2021-09-02 13:24:48.901,1094.0,-154.0,29.0,1105.1665032926037,1,1,1,0.0,3.0
2021-09-02 13:24:48.910,1048.0,-78.0,10.0,1050.9462402996644,1,1,1,0.0,3.0
2021-09-02 13:24:48.926,984.0,98.0,10.0,988.9186013014418,1,1,1,0.0,3.0
2021-09-02 13:24:48.927,984.0,98.0,5.0,988.880680365432,1,1,1,0.0,3.0
2021-09-02 13:24:48.929,917.0,98.0,5.0,922.235327885459,1,1,1,0.0,3.0
2021-09-02 13:24:48.930,917.0,202.0,12.0,939.0617658067014,1,1,1,0.0,3.0
2021-09-02 13:24:48.939,1073.0,216.0,47.0,1095.533659911917,1,1,1,0.0,3.0
2021-09-02 13:24:48.949,986.0,214.0,16.0,1009.0827518097808,1,1,1,0.0,3.0
2021-09-02 13:24:48.960,984.0,-3.0,12.0,984.0777408314854,1,1,1,0.0,3.0
2021-09-02 13:24:48.968,958.0,-3.0,12.0,958.0798505343904,1,1,1,0.0,3.0
2021-09-02 13:24:48.969,958.0,-38.0,-2.0,958.755443270076,1,1,1,0.0,3.0
2021-09-02 13:24:48.978,1084.0,-120.0,-2.0,1090.6236747842952,1,1,1,0.0,3.0
2021-09-02 13:24:48.979,1084.0,-120.0,60.0,1092.2710286371237,1,1,1,0.0,3.0
2021-09-02 13:24:48.988,1096.0,-229.0,-6.0,1119.6843305146322,1,1,1,0.0,3.0
2021-09-02 13:24:48.998,970.0,-230.0,-16.0,997.023570433518,1,1,1,0.0,3.0
2021-09-02 13:24:49.008,980.0,-7.0,1.0,980.0255098720644,1,1,1,0.0,3.0
2021-09-02 13:24:49.017,1009.0,264.0,-6.0,1042.982741947344,1,1,1,0.0,3.0
2021-09-02 13:24:49.027,1079.0,165.0,40.0,1092.2756062459694,1,1,1,0.0,3.0
2021-09-02 13:24:49.037,913.0,123.0,-42.0,922.2049663713592,1,1,1,0.0,3.0
2021-09-02 13:24:49.046,992.0,123.0,-42.0,1000.4783855736216,1,1,1,0.0,3.0
2021-09-02 13:24:49.047,992.0,264.0,47.0,1027.603522765468,1,1,1,0.0,3.0
2021-09-02 13:24:49.057,1141.0,-126.0,-28.0,1148.27740550792,1,1,1,0.0,3.0
2021-09-02 13:24:49.067,1092.0,-126.0,-28.0,1099.6017460881008,1,1,1,0.0,3.0
2021-09-02 13:24:49.068,1092.0,-100.0,53.0,1097.849261055451,1,1,1,0.0,3.0
2021-09-02 13:24:49.075,1006.0,-61.0,53.0,1009.2403083507912,1,1,1,0.0,3.0
2021-09-02 13:24:49.076,1006.0,-61.0,35.0,1008.455254337048,1,1,1,0.0,3.0
2021-09-02 13:24:49.086,887.0,122.0,-37.0,896.1149479837952,1,1,1,0.0,3.0
2021-09-02 13:24:49.095,1158.0,104.0,90.0,1166.13892825855,1,1,1,0.0,3.0
2021-09-02 13:24:49.106,909.0,208.0,-29.0,932.944800081977,1,1,1,0.0,3.0
2021-09-02 13:24:49.115,1012.0,208.0,-29.0,1033.5613189356498,1,1,1,0.0,3.0
2021-09-02 13:24:49.116,1012.0,204.0,6.0,1032.3739632516892,1,1,1,0.0,3.0
2021-09-02 13:24:49.125,1030.0,145.0,38.0,1040.8501333045022,1,1,1,0.0,3.0
2021-09-02 13:24:49.134,1060.0,-145.0,-15.0,1069.97663525892,1,1,1,0.0,3.0
2021-09-02 13:24:49.144,1096.0,-145.0,-15.0,1105.6518439364174,1,1,1,0.0,3.0
2021-09-02 13:24:49.145,1096.0,-79.0,51.0,1100.0263633204434,1,1,1,0.0,3.0
2021-09-02 13:24:49.155,928.0,-211.0,51.0,953.050890561464,1,1,1,0.0,3.0
2021-09-02 13:24:49.156,928.0,-211.0,-76.0,954.7151407618924,1,1,1,0.0,3.0
2021-09-02 13:24:49.163,1068.0,-20.0,56.0,1069.654149713822,1,1,1,0.0,3.0
2021-09-02 13:24:49.175,1097.0,187.0,84.0,1115.9901433256478,1,1,1,0.0,3.0
2021-09-02 13:24:49.183,934.0,209.0,-4.0,957.1065771375723,1,1,1,0.0,3.0
2021-09-02 13:24:49.193,1006.0,240.0,-4.0,1034.239817450479,1,1,1,0.0,3.0
2021-09-02 13:24:49.194,1006.0,240.0,-2.0,1034.234016071798,1,1,1,0.0,3.0
2021-09-02 13:24:49.211,968.0,258.0,-5.0,1001.8048712199396,1,1,1,0.0,3.0
2021-09-02 13:24:49.214,1165.0,-6.0,20.0,1165.1871094377932,1,1,1,0.0,3.0
2021-09-02 13:24:49.223,965.0,0.0,-4.0,965.008290119831,1,1,1,0.0,3.0
2021-09-02 13:24:49.232,959.0,0.0,-4.0,959.0083419866586,1,1,1,0.0,3.0
2021-09-02 13:24:49.233,959.0,-218.0,-33.0,984.0193087536444,1,1,1,0.0,3.0
2021-09-02 13:24:49.242,1022.0,-30.0,-17.0,1022.5815370912972,1,1,1,0.0,3.0
2021-09-02 13:24:49.251,1048.0,-30.0,-17.0,1048.567117546607,1,1,1,0.0,3.0
2021-09-02 13:24:49.252,1048.0,-43.0,50.0,1050.0728546153357,1,1,1,0.0,3.0
2021-09-02 13:24:49.261,953.0,115.0,-20.0,960.121867264776,1,1,1,0.0,3.0
2021-09-02 13:24:49.271,895.0,200.0,-7.0,917.1008668625278,1,1,1,0.0,3.0
2021-09-02 13:24:49.281,990.0,325.0,39.0,1042.7108899402556,1,1,1,0.0,3.0
2021-09-02 13:24:49.291,1123.0,325.0,39.0,1169.7328754891007,1,1,1,0.0,3.0
2021-09-02 13:24:49.292,1123.0,22.0,10.0,1123.2599877143314,1,1,1,0.0,3.0
2021-09-02 13:24:49.301,1018.0,-48.0,43.0,1020.0377443996864,1,1,1,0.0,3.0
2021-09-02 13:24:49.310,949.0,-47.0,-32.0,950.7018460064122,1,1,1,0.0,3.0
2021-09-02 13:24:49.321,1105.0,-126.0,73.0,1114.5537223480974,1,1,1,0.0,3.0
2021-09-02 13:24:49.331,1048.0,-203.0,-18.0,1067.6314907307672,1,1,1,0.0,3.0
2021-09-02 13:24:49.340,914.0,186.0,-15.0,932.854222266266,1,1,1,0.0,3.0
2021-09-02 13:24:49.350,940.0,236.0,0.0,969.1728432018718,1,1,1,0.0,3.0
2021-09-02 13:24:49.362,981.0,288.0,-22.0,1022.6382547118018,1,1,1,0.0,3.0
2021-09-02 13:24:49.369,1093.0,135.0,45.0,1102.2245687699035,1,1,1,0.0,3.0
2021-09-02 13:24:49.379,934.0,70.0,-47.0,937.7979526529156,1,1,1,0.0,3.0
2021-09-02 13:24:49.388,897.0,-147.0,-47.0,910.1796525961234,1,1,1,0.0,3.0
2021-09-02 13:24:49.389,897.0,-147.0,-71.0,911.7340621036376,1,1,1,0.0,3.0
2021-09-02 13:24:49.398,1089.0,-73.0,40.0,1092.176725626398,1,1,1,0.0,3.0
2021-09-02 13:24:49.408,999.0,-127.0,-12.0,1007.1117117777948,1,1,1,0.0,3.0
2021-09-02 13:24:49.418,1023.0,-76.0,20.0,1026.0141324562735,1,1,1,0.0,3.0
2021-09-02 13:24:49.428,864.0,123.0,-23.0,873.0143183247341,1,1,1,0.0,3.0
2021-09-02 13:24:49.437,927.0,317.0,-17.0,979.85049880071,1,1,1,0.0,3.0
2021-09-02 13:24:49.447,1191.0,62.0,40.0,1193.283285728917,1,1,1,0.0,3.0
2021-09-02 13:24:49.457,910.0,12.0,-17.0,910.2378809959516,1,1,1,0.0,3.0
2021-09-02 13:24:49.466,1031.0,97.0,-17.0,1035.6925219388231,1,1,1,0.0,3.0
2021-09-02 13:24:49.467,1031.0,97.0,21.0,1035.7659001917373,1,1,1,0.0,3.0
2021-09-02 13:24:49.477,1074.0,-156.0,5.0,1085.2819910051028,1,1,1,0.0,3.0
2021-09-02 13:24:49.487,1105.0,-127.0,34.0,1112.7937814348172,1,1,1,0.0,3.0
2021-09-02 13:24:49.496,995.0,123.0,20.0,1002.7731548062104,1,1,1,0.0,3.0
2021-09-02 13:24:49.506,854.0,214.0,-2.0,880.4067241905868,1,1,1,0.0,3.0
2021-09-02 13:24:49.515,1085.0,201.0,55.0,1104.8307562699365,1,1,1,0.0,3.0
2021-09-02 13:24:49.527,967.0,188.0,21.0,985.3293865505078,1,1,1,0.0,3.0
2021-09-02 13:24:49.541,992.0,131.0,-27.0,1000.9765232012188,1,1,1,0.0,3.0
2021-09-02 13:24:49.545,944.0,25.0,-11.0,944.3950444596796,1,1,1,0.0,3.0
2021-09-02 13:24:49.555,1116.0,-141.0,44.0,1125.73220616628,1,1,1,0.0,3.0
2021-09-02 13:24:49.565,1062.0,-173.0,-8.0,1076.0283453515526,1,1,1,0.0,3.0
2021-09-02 13:24:49.574,982.0,-220.0,-22.0,1006.5823364236032,1,1,1,0.0,3.0
2021-09-02 13:24:49.584,980.0,44.0,-3.0,980.9918450221694,1,1,1,0.0,3.0
2021-09-02 13:24:49.594,1080.0,-19.0,54.0,1081.5160655302352,1,1,1,0.0,3.0
2021-09-02 13:24:49.603,1077.0,139.0,53.0,1087.225367621635,1,1,1,0.0,3.0
2021-09-02 13:24:49.613,939.0,68.0,53.0,942.9496274987332,1,1,1,0.0,3.0
2021-09-02 13:24:49.614,939.0,68.0,-50.0,942.785765696534,1,1,1,0.0,3.0
2021-09-02 13:24:49.624,986.0,208.0,37.0,1008.3793928874192,1,1,1,0.0,3.0
2021-09-02 13:24:49.633,1120.0,-104.0,7.0,1124.8399886206037,1,1,1,0.0,3.0
2021-09-02 13:24:49.642,1072.0,-37.0,51.0,1073.850082646549,1,1,1,0.0,3.0
2021-09-02 13:24:49.652,1012.0,-37.0,51.0,1013.9595652687536,1,1,1,0.0,3.0
2021-09-02 13:24:49.653,1012.0,-76.0,33.0,1015.3861334487486,1,1,1,0.0,3.0
2021-09-02 13:24:49.662,872.0,135.0,-31.0,882.932613510227,1,1,1,0.0,3.0
2021-09-02 13:24:49.672,1149.0,129.0,94.0,1160.0336202024491,1,1,1,0.0,3.0
2021-09-02 13:24:49.681,895.0,224.0,-13.0,922.6971334083572,1,1,1,0.0,3.0
2021-09-02 13:24:49.691,978.0,235.0,-1.0,1005.837959116676,1,1,1,0.0,3.0
2021-09-02 13:24:49.701,961.0,281.0,-35.0,1001.8517854453322,1,1,1,0.0,3.0
2021-09-02 13:24:49.711,1074.0,-137.0,15.0,1082.8065385838784,1,1,1,0.0,3.0
2021-09-02 13:24:49.721,1113.0,-111.0,37.0,1119.133146680948,1,1,1,0.0,3.0
2021-09-02 13:24:49.741,897.0,-170.0,-56.0,914.6830051990688,1,1,1,0.0,3.0
2021-09-02 13:24:49.750,1017.0,-134.0,-35.0,1026.3868666346038,1,1,1,0.0,3.0
2021-09-02 13:24:49.762,944.0,215.0,6.0,968.1926461195624,1,1,1,0.0,3.0
2021-09-02 13:24:49.770,1021.0,193.0,-6.0,1039.098647867468,1,1,1,0.0,3.0
2021-09-02 13:24:49.779,970.0,245.0,-7.0,1000.4868814732156,1,1,1,0.0,3.0
2021-09-02 13:24:49.789,1149.0,11.0,35.0,1149.585577501736,1,1,1,0.0,3.0
2021-09-02 13:24:49.799,934.0,22.0,-17.0,934.4137199335208,1,1,1,0.0,3.0
2021-09-02 13:24:49.809,1013.0,22.0,-17.0,1013.3814681550084,1,1,1,0.0,3.0
2021-09-02 13:24:49.810,1013.0,72.0,23.0,1015.815928207468,1,1,1,0.0,3.0
2021-09-02 13:24:49.819,1005.0,16.0,25.0,1005.4382129201176,1,1,1,0.0,3.0
2021-09-02 13:24:49.828,1053.0,-43.0,26.0,1054.1982735709637,1,1,1,0.0,3.0
2021-09-02 13:24:49.837,945.0,195.0,-4.0,964.9176130634158,1,1,1,0.0,3.0
2021-09-02 13:24:49.848,895.0,219.0,-20.0,921.6213973210474,1,1,1,0.0,3.0
2021-09-02 13:24:49.858,1074.0,222.0,18.0,1096.851858730248,1,1,1,0.0,3.0
2021-09-02 13:24:49.867,1126.0,222.0,18.0,1147.8170585942692,1,1,1,0.0,3.0
2021-09-02 13:24:49.868,1126.0,-88.0,2.0,1129.4352571086135,1,1,1,0.0,3.0
2021-09-02 13:24:49.877,1052.0,-35.0,35.0,1053.163804923052,1,1,1,0.0,3.0
2021-09-02 13:24:49.886,939.0,-59.0,-62.0,942.8923586497028,1,1,1,0.0,3.0
2021-09-02 13:24:49.896,1107.0,-84.0,53.0,1111.4468048449282,1,1,1,0.0,3.0
2021-09-02 13:24:49.906,1038.0,-218.0,-6.0,1060.6620573962284,1,1,1,0.0,3.0
2021-09-02 13:24:49.916,976.0,-218.0,-6.0,1000.0679976881572,1,1,1,0.0,3.0
2021-09-02 13:24:49.917,976.0,-148.0,0.0,987.1575355534698,1,1,1,0.0,3.0
2021-09-02 13:24:49.933,1001.0,198.0,0.0,1020.3945315415992,1,1,1,0.0,3.0
2021-09-02 13:24:49.935,955.0,246.0,-33.0,986.7269125751056,1,1,1,0.0,3.0
2021-09-02 13:24:49.945,1150.0,96.0,77.0,1156.5660378897524,1,1,1,0.0,3.0
2021-09-02 13:24:49.955,944.0,10.0,-65.0,946.2880111255768,1,1,1,0.0,3.0
2021-09-02 13:24:49.966,1010.0,143.0,46.0,1021.1096904838382,1,1,1,0.0,3.0
2021-09-02 13:24:49.974,1091.0,-18.0,52.0,1092.3868362443773,1,1,1,0.0,3.0
2021-09-02 13:24:49.984,988.0,-124.0,-51.0,997.0561669234086,1,1,1,0.0,3.0
2021-09-02 13:24:49.994,1030.0,47.0,49.0,1032.23543826009,1,1,1,0.0,3.0
2021-09-02 13:24:50.004,855.0,168.0,-30.0,871.865241880877,1,1,1,0.0,3.0
2021-09-02 13:24:50.015,1128.0,161.0,89.0,1142.902445530676,1,1,1,0.0,3.0
2021-09-02 13:24:50.023,916.0,240.0,-12.0,946.9952481401372,1,1,1,0.0,3.0
2021-09-02 13:24:50.033,955.0,-22.0,-8.0,955.2868679093208,1,1,1,0.0,3.0
2021-09-02 13:24:50.042,1011.0,85.0,26.0,1014.8999950734062,1,1,1,0.0,3.0
2021-09-02 13:24:50.053,1093.0,-157.0,23.0,1104.4577855219277,1,1,1,0.0,3.0
2021-09-02 13:24:50.063,1119.0,-168.0,19.0,1131.7004904125472,1,1,1,0.0,3.0
2021-09-02 13:24:50.071,958.0,-168.0,19.0,972.8047080478178,1,1,1,0.0,3.0
2021-09-02 13:24:50.072,958.0,-268.0,-36.0,995.4315646994525,1,1,1,0.0,3.0
2021-09-02 13:24:50.082,908.0,180.0,-28.0,926.0928679133644,1,1,1,0.0,3.0
2021-09-02 13:24:50.092,1042.0,250.0,50.0,1072.7366871697825,1,1,1,0.0,3.0
2021-09-02 13:24:50.101,990.0,174.0,32.0,1005.6838469419702,1,1,1,0.0,3.0
2021-09-02 13:24:50.112,1011.0,41.0,-44.0,1012.7872432056004,1,1,1,0.0,3.0
2021-09-02 13:24:50.122,952.0,227.0,24.0,978.9836566562284,1,1,1,0.0,3.0
2021-09-02 13:24:50.130,1142.0,227.0,24.0,1164.589627293666,1,1,1,0.0,3.0
2021-09-02 13:24:50.131,1142.0,-81.0,5.0,1144.8799063657289,1,1,1,0.0,3.0
2021-09-02 13:24:50.140,1039.0,-218.0,-23.0,1061.8728737471356,1,1,1,0.0,3.0
2021-09-02 13:24:50.150,994.0,-147.0,4.0,1004.8188891536624,1,1,1,0.0,3.0
2021-09-02 13:24:50.162,876.0,135.0,-9.0,886.3870486418447,1,1,1,0.0,3.0
2021-09-02 13:24:50.171,1141.0,34.0,63.0,1143.2436310778205,1,1,1,0.0,3.0
2021-09-02 13:24:50.179,891.0,180.0,-44.0,910.0642834437576,1,1,1,0.0,3.0
2021-09-02 13:24:50.189,895.0,152.0,-31.0,908.3446482475692,1,1,1,0.0,3.0
2021-09-02 13:24:50.199,1043.0,188.0,44.0,1060.7209812198494,1,1,1,0.0,3.0
2021-09-02 13:24:50.210,1065.0,-115.0,-5.0,1071.20259521717,1,1,1,0.0,3.0
2021-09-02 13:24:50.227,1118.0,-95.0,62.0,1123.7406284370072,1,1,1,0.0,3.0
2021-09-02 13:24:50.230,892.0,-187.0,62.0,913.497126432262,1,1,1,0.0,3.0
2021-09-02 13:24:50.231,892.0,-187.0,-80.0,914.8950759513356,1,1,1,0.0,3.0
2021-09-02 13:24:50.238,1125.0,-131.0,-80.0,1135.4232690939534,1,1,1,0.0,3.0
2021-09-02 13:24:50.239,1125.0,-131.0,51.0,1133.7490904075737,1,1,1,0.0,3.0
2021-09-02 13:24:50.247,1117.0,181.0,85.0,1134.7576833844307,1,1,1,0.0,3.0
2021-09-02 13:24:50.257,908.0,181.0,85.0,929.758033038704,1,1,1,0.0,3.0
2021-09-02 13:24:50.258,908.0,209.0,4.0,931.7515763335203,1,1,1,0.0,3.0
2021-09-02 13:24:50.267,1017.0,216.0,14.0,1039.7793035062778,1,1,1,0.0,3.0
2021-09-02 13:24:50.278,921.0,283.0,-17.0,963.6487949455444,1,1,1,0.0,3.0
2021-09-02 13:24:50.287,1165.0,41.0,36.0,1166.276982538882,1,1,1,0.0,3.0
2021-09-02 13:24:50.298,1123.0,-134.0,32.0,1131.4190205224588,1,1,1,0.0,3.0
2021-09-02 13:24:50.306,924.0,-270.0,-58.0,964.3858149101944,1,1,1,0.0,3.0
2021-09-02 13:24:50.316,1057.0,11.0,57.0,1058.5929340402758,1,1,1,0.0,3.0
2021-09-02 13:24:50.326,996.0,-89.0,9.0,1000.0089999595004,1,1,1,0.0,3.0
2021-09-02 13:24:50.336,1003.0,133.0,28.0,1012.166982271206,1,1,1,0.0,3.0
2021-09-02 13:24:50.346,882.0,156.0,28.0,896.1272231106474,1,1,1,0.0,3.0
2021-09-02 13:24:50.347,882.0,156.0,-25.0,896.038503636981,1,1,1,0.0,3.0
2021-09-02 13:24:50.355,976.0,227.0,-25.0,1002.3622099820004,1,1,1,0.0,3.0
2021-09-02 13:24:50.356,976.0,227.0,6.0,1002.068360941508,1,1,1,0.0,3.0
2021-09-02 13:24:50.364,1171.0,-58.0,6.0,1172.4508518483835,1,1,1,0.0,3.0
2021-09-02 13:24:50.365,1171.0,-58.0,14.0,1172.5190830003578,1,1,1,0.0,3.0
2021-09-02 13:24:50.375,984.0,-6.0,14.0,984.1178791181472,1,1,1,0.0,3.0
2021-09-02 13:24:50.376,984.0,-6.0,23.0,984.2870516267092,1,1,1,0.0,3.0
2021-09-02 13:24:50.384,939.0,34.0,23.0,939.8968028459294,1,1,1,0.0,3.0
2021-09-02 13:24:50.385,939.0,34.0,0.0,939.6153468308188,1,1,1,0.0,3.0
2021-09-02 13:24:50.394,1098.0,-137.0,35.0,1107.0672969607583,1,1,1,0.0,3.0
2021-09-02 13:24:50.404,1091.0,12.0,35.0,1091.6272257506223,1,1,1,0.0,3.0
2021-09-02 13:24:50.405,1091.0,12.0,58.0,1092.606516546556,1,1,1,0.0,3.0
2021-09-02 13:24:50.414,927.0,213.0,-10.0,951.2087047541144,1,1,1,0.0,3.0
2021-09-02 13:24:50.423,914.0,235.0,-10.0,943.7801650808308,1,1,1,0.0,3.0
2021-09-02 13:24:50.435,1021.0,297.0,8.0,1063.3503655898182,1,1,1,0.0,3.0
2021-09-02 13:24:50.443,1067.0,142.0,45.0,1077.3476690465338,1,1,1,0.0,3.0
2021-09-02 13:24:50.453,942.0,86.0,45.0,946.987328320712,1,1,1,0.0,3.0
2021-09-02 13:24:50.454,942.0,86.0,-37.0,946.6409034052988,1,1,1,0.0,3.0
2021-09-02 13:24:50.463,935.0,-94.0,-52.0,941.150891196518,1,1,1,0.0,3.0
2021-09-02 13:24:50.472,1088.0,-94.0,-52.0,1093.2904463133298,1,1,1,0.0,3.0
2021-09-02 13:24:50.473,1088.0,-101.0,59.0,1094.2696194265836,1,1,1,0.0,3.0
2021-09-02 13:24:50.483,1050.0,-220.0,-25.0,1073.0913288252775,1,1,1,0.0,3.0
2021-09-02 13:24:50.491,993.0,-136.0,-25.0,1002.5816674964688,1,1,1,0.0,3.0
2021-09-02 13:24:50.492,993.0,-136.0,28.0,1002.6609596468788,1,1,1,0.0,3.0
2021-09-02 13:24:50.501,892.0,-136.0,28.0,902.7424881991542,1,1,1,0.0,3.0
2021-09-02 13:24:50.502,892.0,93.0,-17.0,896.9960980963073,1,1,1,0.0,3.0
2021-09-02 13:24:50.511,951.0,341.0,-27.0,1010.6488015131666,1,1,1,0.0,3.0
2021-09-02 13:24:50.521,1157.0,106.0,38.0,1162.4667737187158,1,1,1,0.0,3.0
2021-09-02 13:24:50.531,939.0,6.0,-35.0,939.6712190974032,1,1,1,0.0,3.0
2021-09-02 13:24:50.541,1011.0,148.0,36.0,1022.4094091898804,1,1,1,0.0,3.0
2021-09-02 13:24:50.564,1082.0,-142.0,4.0,1091.2854805228558,1,1,1,0.0,3.0
2021-09-02 13:24:50.569,1098.0,-119.0,51.0,1105.606620819539,1,1,1,0.0,3.0
2021-09-02 13:24:50.571,1011.0,105.0,14.0,1016.5343083241214,1,1,1,0.0,3.0
2021-09-02 13:24:50.580,884.0,170.0,14.0,900.3066144375482,1,1,1,0.0,3.0
2021-09-02 13:24:50.581,884.0,170.0,-27.0,900.60257605672,1,1,1,0.0,3.0
2021-09-02 13:24:50.591,1099.0,183.0,57.0,1115.5890820548575,1,1,1,0.0,3.0
2021-09-02 13:24:50.599,954.0,213.0,15.0,977.6042143935348,1,1,1,0.0,3.0
2021-09-02 13:24:50.609,1003.0,221.0,-5.0,1027.0710783582604,1,1,1,0.0,3.0
2021-09-02 13:24:50.619,995.0,40.0,2.0,995.8057039402815,1,1,1,0.0,3.0
2021-09-02 13:24:50.629,1108.0,-145.0,42.0,1118.2365581575305,1,1,1,0.0,3.0
2021-09-02 13:24:50.639,1120.0,-187.0,42.0,1136.280335128616,1,1,1,0.0,3.0
2021-09-02 13:24:50.640,1120.0,-187.0,11.0,1135.55713198412,1,1,1,0.0,3.0
2021-09-02 13:24:50.648,942.0,-260.0,-43.0,978.1681859475904,1,1,1,0.0,3.0
2021-09-02 13:24:50.658,1016.0,28.0,31.0,1016.85839722156,1,1,1,0.0,3.0
2021-09-02 13:24:50.668,1043.0,280.0,19.0,1080.097217846616,1,1,1,0.0,3.0
2021-09-02 13:24:50.678,1027.0,157.0,39.0,1039.6629261448154,1,1,1,0.0,3.0
2021-09-02 13:24:50.688,949.0,81.0,-29.0,952.891914122478,1,1,1,0.0,3.0
2021-09-02 13:24:50.698,976.0,211.0,33.0,999.0925883020052,1,1,1,0.0,3.0
2021-09-02 13:24:50.707,1161.0,-89.0,0.0,1164.4062864825146,1,1,1,0.0,3.0
2021-09-02 13:24:50.716,1044.0,1.0,45.0,1044.969856024565,1,1,1,0.0,3.0
2021-09-02 13:24:50.727,1018.0,-106.0,25.0,1023.80906423024,1,1,1,0.0,3.0
2021-09-02 13:24:50.737,900.0,122.0,25.0,908.5752583028002,1,1,1,0.0,3.0
2021-09-02 13:24:50.738,900.0,122.0,-14.0,908.3391437123032,1,1,1,0.0,3.0
2021-09-02 13:24:50.746,1113.0,55.0,82.0,1117.3710216396344,1,1,1,0.0,3.0
2021-09-02 13:24:50.770,893.0,263.0,-15.0,931.0440376265776,1,1,1,0.0,3.0
2021-09-02 13:24:50.771,961.0,224.0,-11.0,986.8221724302712,1,1,1,0.0,3.0
2021-09-02 13:24:50.775,1006.0,119.0,33.0,1013.5511827233984,1,1,1,0.0,3.0
2021-09-02 13:24:50.785,1083.0,-155.0,0.0,1094.035648413707,1,1,1,0.0,3.0
2021-09-02 13:24:50.795,1103.0,-113.0,56.0,1110.186470823708,1,1,1,0.0,3.0
2021-09-02 13:24:50.804,897.0,-195.0,-73.0,920.8490647223356,1,1,1,0.0,3.0
2021-09-02 13:24:50.815,1095.0,-195.0,-73.0,1114.6205632411418,1,1,1,0.0,3.0
2021-09-02 13:24:50.816,1095.0,-34.0,53.0,1096.8090079863496,1,1,1,0.0,3.0
2021-09-02 13:24:50.824,1016.0,-34.0,53.0,1017.949409351958,1,1,1,0.0,3.0
2021-09-02 13:24:50.825,1016.0,-170.0,-34.0,1030.685208975078,1,1,1,0.0,3.0
2021-09-02 13:24:50.834,929.0,233.0,0.0,957.773459644816,1,1,1,0.0,3.0
2021-09-02 13:24:50.844,1024.0,168.0,-5.0,1037.7017876056686,1,1,1,0.0,3.0
2021-09-02 13:24:50.854,962.0,259.0,-11.0,996.316214863534,1,1,1,0.0,3.0
2021-09-02 13:24:50.863,1155.0,29.0,12.0,1155.4263282442546,1,1,1,0.0,3.0
2021-09-02 13:24:50.874,937.0,18.0,-6.0,937.192082766388,1,1,1,0.0,3.0
2021-09-02 13:24:50.882,952.0,-274.0,-37.0,991.336976007654,1,1,1,0.0,3.0
2021-09-02 13:24:50.892,1020.0,-274.0,-37.0,1056.808875814355,1,1,1,0.0,3.0
2021-09-02 13:24:50.893,1020.0,24.0,31.0,1020.7531533137676,1,1,1,0.0,3.0
2021-09-02 13:24:50.902,1024.0,-80.0,20.0,1027.3149468395757,1,1,1,0.0,3.0
2021-09-02 13:24:50.911,966.0,186.0,20.0,983.9471530524391,1,1,1,0.0,3.0
2021-09-02 13:24:50.912,966.0,186.0,4.0,983.7520012686124,1,1,1,0.0,3.0
2021-09-02 13:24:50.922,895.0,204.0,-20.0,918.1726417183208,1,1,1,0.0,3.0
2021-09-02 13:24:50.939,1113.0,220.0,44.0,1135.3875990163008,1,1,1,0.0,3.0
2021-09-02 13:24:50.941,1176.0,-68.0,11.0,1178.0157044793589,1,1,1,0.0,3.0
2021-09-02 13:24:50.955,1031.0,-12.0,34.0,1031.6302632241843,1,1,1,0.0,3.0
2021-09-02 13:24:50.961,976.0,-41.0,-29.0,977.2911541603148,1,1,1,0.0,3.0
2021-09-02 13:24:50.971,1096.0,-99.0,53.0,1101.737718334087,1,1,1,0.0,3.0
2021-09-02 13:24:50.980,1076.0,-210.0,0.0,1096.3010535432318,1,1,1,0.0,3.0
2021-09-02 13:24:50.991,913.0,211.0,-9.0,937.107784622452,1,1,1,0.0,3.0
2021-09-02 13:24:51.000,936.0,223.0,-14.0,962.2998493193272,1,1,1,0.0,3.0
2021-09-02 13:24:51.009,984.0,287.0,-1.0,1025.000487804762,1,1,1,0.0,3.0
2021-09-02 13:24:51.019,1078.0,152.0,48.0,1089.7210652272445,1,1,1,0.0,3.0
2021-09-02 13:24:51.029,949.0,49.0,-54.0,951.7972473168852,1,1,1,0.0,3.0
2021-09-02 13:24:51.039,994.0,175.0,-54.0,1010.7309236389276,1,1,1,0.0,3.0
2021-09-02 13:24:51.040,994.0,175.0,32.0,1009.7945335562082,1,1,1,0.0,3.0
2021-09-02 13:24:51.049,1079.0,-52.0,32.0,1080.7261447748915,1,1,1,0.0,3.0
2021-09-02 13:24:51.050,1079.0,-52.0,50.0,1081.4088033671633,1,1,1,0.0,3.0
2021-09-02 13:24:51.058,1047.0,-222.0,50.0,1071.4443522647362,1,1,1,0.0,3.0
2021-09-02 13:24:51.059,1047.0,-222.0,-40.0,1071.0242761020872,1,1,1,0.0,3.0
2021-09-02 13:24:51.068,998.0,-67.0,41.0,1001.0864098568117,1,1,1,0.0,3.0
2021-09-02 13:24:51.078,874.0,135.0,-18.0,884.5479071254423,1,1,1,0.0,3.0
2021-09-02 13:24:51.088,1099.0,142.0,90.0,1111.784601440405,1,1,1,0.0,3.0
2021-09-02 13:24:51.099,1181.0,48.0,40.0,1182.651681603675,1,1,1,0.0,3.0
2021-09-02 13:24:51.107,919.0,42.0,-45.0,921.0591729091024,1,1,1,0.0,3.0
2021-09-02 13:24:51.117,1028.0,103.0,33.0,1033.674029856608,1,1,1,0.0,3.0
2021-09-02 13:24:51.126,1055.0,103.0,33.0,1060.5295846887063,1,1,1,0.0,3.0
2021-09-02 13:24:51.127,1055.0,-141.0,20.0,1064.5684571693828,1,1,1,0.0,3.0
2021-09-02 13:24:51.136,1117.0,-153.0,27.0,1127.7530758104808,1,1,1,0.0,3.0
2021-09-02 13:24:51.148,912.0,-239.0,-58.0,944.5787420855924,1,1,1,0.0,3.0
2021-09-02 13:24:51.157,902.0,186.0,-11.0,921.0434300292252,1,1,1,0.0,3.0
2021-09-02 13:24:51.166,1093.0,187.0,49.0,1109.9635129138255,1,1,1,0.0,3.0
2021-09-02 13:24:51.175,955.0,201.0,13.0,976.0097335580216,1,1,1,0.0,3.0
2021-09-02 13:24:51.185,1009.0,173.0,-22.0,1023.9599601546928,1,1,1,0.0,3.0
2021-09-02 13:24:51.196,963.0,284.0,0.0,1004.0044820617088,1,1,1,0.0,3.0
2021-09-02 13:24:51.205,1092.0,284.0,0.0,1128.3261939705203,1,1,1,0.0,3.0
2021-09-02 13:24:51.206,1092.0,-118.0,48.0,1099.4052937838712,1,1,1,0.0,3.0
2021-09-02 13:24:51.214,1086.0,-244.0,48.0,1114.107714720619,1,1,1,0.0,3.0
2021-09-02 13:24:51.215,1086.0,-244.0,-14.0,1113.1612641481915,1,1,1,0.0,3.0
2021-09-02 13:24:51.224,966.0,-254.0,-21.0,999.0560544834308,1,1,1,0.0,3.0
2021-09-02 13:24:51.234,964.0,47.0,17.0,965.2947736313504,1,1,1,0.0,3.0
2021-09-02 13:24:51.252,1070.0,-10.0,42.0,1070.870673797728,1,1,1,0.0,3.0
2021-09-02 13:24:51.255,1077.0,145.0,42.0,1087.5283904340154,1,1,1,0.0,3.0
2021-09-02 13:24:51.256,1077.0,145.0,53.0,1088.0087315826102,1,1,1,0.0,3.0
2021-09-02 13:24:51.264,949.0,59.0,-59.0,952.6610100135304,1,1,1,0.0,3.0
2021-09-02 13:24:51.273,1008.0,197.0,31.0,1027.537833853333,1,1,1,0.0,3.0
2021-09-02 13:24:51.284,1132.0,-129.0,-9.0,1139.362102230893,1,1,1,0.0,3.0
2021-09-02 13:24:51.294,1052.0,-1.0,55.0,1053.4372311628254,1,1,1,0.0,3.0
2021-09-02 13:24:51.302,954.0,-81.0,55.0,959.0109488426084,1,1,1,0.0,3.0
2021-09-02 13:24:51.303,954.0,-81.0,-74.0,960.287977640041,1,1,1,0.0,3.0
2021-09-02 13:24:51.312,888.0,-81.0,-74.0,894.7519209255714,1,1,1,0.0,3.0
2021-09-02 13:24:51.313,888.0,140.0,-15.0,899.0934322972224,1,1,1,0.0,3.0
2021-09-02 13:24:51.323,1107.0,86.0,81.0,1113.2861267437047,1,1,1,0.0,3.0
2021-09-02 13:24:51.332,905.0,221.0,-5.0,931.6066766613473,1,1,1,0.0,3.0
2021-09-02 13:24:51.341,965.0,268.0,7.0,1001.5478021542456,1,1,1,0.0,3.0
2021-09-02 13:24:51.351,957.0,310.0,7.0,1005.9811131427866,1,1,1,0.0,3.0
2021-09-02 13:24:51.352,957.0,310.0,-28.0,1006.346361845662,1,1,1,0.0,3.0
2021-09-02 13:24:51.362,1061.0,-119.0,35.0,1068.2260996624263,1,1,1,0.0,3.0
2021-09-02 13:24:51.371,1103.0,-129.0,33.0,1111.008100780548,1,1,1,0.0,3.0
2021-09-02 13:24:51.381,941.0,-253.0,-55.0,975.9687494996958,1,1,1,0.0,3.0
2021-09-02 13:24:51.390,1061.0,-74.0,40.0,1064.32936631477,1,1,1,0.0,3.0
2021-09-02 13:24:51.400,1026.0,-92.0,11.0,1030.1752278132103,1,1,1,0.0,3.0
2021-09-02 13:24:51.410,1003.0,70.0,28.0,1005.829508415815,1,1,1,0.0,3.0
2021-09-02 13:24:51.419,1018.0,70.0,28.0,1020.787930963136,1,1,1,0.0,3.0
2021-09-02 13:24:51.420,1018.0,143.0,-23.0,1028.251914659049,1,1,1,0.0,3.0
2021-09-02 13:24:51.430,945.0,311.0,9.0,994.9004975373166,1,1,1,0.0,3.0
2021-09-02 13:24:51.440,1162.0,-18.0,19.0,1162.2947130568907,1,1,1,0.0,3.0
2021-09-02 13:24:51.449,929.0,51.0,0.0,930.3988392082184,1,1,1,0.0,3.0
2021-09-02 13:24:51.459,1027.0,60.0,21.0,1028.9654999075528,1,1,1,0.0,3.0
2021-09-02 13:24:51.469,1041.0,-109.0,21.0,1046.9016190645614,1,1,1,0.0,3.0
2021-09-02 13:24:51.470,1041.0,-109.0,18.0,1046.845738397019,1,1,1,0.0,3.0
2021-09-02 13:24:51.479,997.0,-47.0,36.0,998.7562265137576,1,1,1,0.0,3.0
2021-09-02 13:24:51.488,957.0,213.0,-10.0,980.4682554779628,1,1,1,0.0,3.0
2021-09-02 13:24:51.497,908.0,155.0,-24.0,921.4472312617798,1,1,1,0.0,3.0
2021-09-02 13:24:51.507,1075.0,286.0,22.0,1112.6117921359632,1,1,1,0.0,3.0
2021-09-02 13:24:51.518,949.0,189.0,32.0,968.1663080277066,1,1,1,0.0,3.0
2021-09-02 13:24:51.527,1068.0,-36.0,36.0,1069.212794536242,1,1,1,0.0,3.0
2021-09-02 13:24:51.537,947.0,-8.0,-49.0,948.3005852576492,1,1,1,0.0,3.0
2021-09-02 13:24:51.546,1096.0,-125.0,46.0,1104.0638568488691,1,1,1,0.0,3.0
2021-09-02 13:24:51.557,1053.0,-208.0,-17.0,1073.4812527473407,1,1,1,0.0,3.0
2021-09-02 13:24:51.567,980.0,-160.0,14.0,993.0740153684416,1,1,1,0.0,3.0
2021-09-02 13:24:51.579,977.0,219.0,4.0,1001.2522159775727,1,1,1,0.0,3.0
2021-09-02 13:24:51.585,972.0,219.0,4.0,996.3739257929224,1,1,1,0.0,3.0
2021-09-02 13:24:51.586,972.0,314.0,-34.0,1022.0254399964808,1,1,1,0.0,3.0
2021-09-02 13:24:51.595,1125.0,126.0,46.0,1132.9682255032574,1,1,1,0.0,3.0
2021-09-02 13:24:51.605,945.0,6.0,-50.0,946.3408476864984,1,1,1,0.0,3.0
2021-09-02 13:24:51.615,1001.0,162.0,24.0,1014.3081385851144,1,1,1,0.0,3.0
2021-09-02 13:24:51.626,1077.0,-124.0,20.0,1084.2993129205606,1,1,1,0.0,3.0
2021-09-02 13:24:51.635,1049.0,-124.0,20.0,1056.4927827486565,1,1,1,0.0,3.0
2021-09-02 13:24:51.636,1049.0,-164.0,-37.0,1062.3869351606315,1,1,1,0.0,3.0
2021-09-02 13:24:51.644,1011.0,-26.0,30.0,1011.779126094228,1,1,1,0.0,3.0
2021-09-02 13:24:51.654,867.0,124.0,-20.0,876.0507976139284,1,1,1,0.0,3.0
2021-09-02 13:24:51.664,1114.0,139.0,98.0,1126.9077158312475,1,1,1,0.0,3.0
2021-09-02 13:24:51.674,891.0,263.0,-6.0,929.0242192752564,1,1,1,0.0,3.0
2021-09-02 13:24:51.684,923.0,263.0,-6.0,959.7572609780036,1,1,1,0.0,3.0
2021-09-02 13:24:51.685,923.0,54.0,-22.0,924.839986159768,1,1,1,0.0,3.0
2021-09-02 13:24:51.693,1040.0,71.0,43.0,1043.3072414202827,1,1,1,0.0,3.0
2021-09-02 13:24:51.703,1070.0,-145.0,12.0,1079.8467483860848,1,1,1,0.0,3.0
2021-09-02 13:24:51.712,1120.0,-145.0,12.0,1129.4109083942833,1,1,1,0.0,3.0
2021-09-02 13:24:51.713,1120.0,-195.0,30.0,1137.2444767946777,1,1,1,0.0,3.0
2021-09-02 13:24:51.723,944.0,-314.0,-47.0,995.962348685933,1,1,1,0.0,3.0
2021-09-02 13:24:51.733,1057.0,-50.0,18.0,1058.3350131220266,1,1,1,0.0,3.0
2021-09-02 13:24:51.742,1091.0,249.0,42.0,1119.8419531344591,1,1,1,0.0,3.0
2021-09-02 13:24:51.751,957.0,217.0,26.0,981.638426305735,1,1,1,0.0,3.0
2021-09-02 13:24:51.783,977.0,132.0,26.0,986.219549593294,1,1,1,0.0,3.0
2021-09-02 13:24:51.784,977.0,132.0,-38.0,986.6088383954404,1,1,1,0.0,3.0
2021-09-02 13:24:51.785,1159.0,-22.0,8.0,1159.2363865924845,1,1,1,0.0,3.0
2021-09-02 13:24:51.792,1085.0,-22.0,8.0,1085.252505180246,1,1,1,0.0,3.0
2021-09-02 13:24:51.793,1085.0,-262.0,-24.0,1116.44301242831,1,1,1,0.0,3.0
2021-09-02 13:24:51.800,957.0,-262.0,-14.0,992.314970158165,1,1,1,0.0,3.0
2021-09-02 13:24:51.810,966.0,55.0,9.0,967.606324906984,1,1,1,0.0,3.0
2021-09-02 13:24:51.820,1061.0,-11.0,55.0,1062.4815292512149,1,1,1,0.0,3.0
2021-09-02 13:24:51.829,934.0,219.0,55.0,960.906863332758,1,1,1,0.0,3.0
2021-09-02 13:24:51.830,934.0,219.0,-17.0,959.482151996586,1,1,1,0.0,3.0
2021-09-02 13:24:51.841,948.0,57.0,-55.0,951.3033165084626,1,1,1,0.0,3.0
2021-09-02 13:24:51.849,1000.0,181.0,-55.0,1017.7357220811303,1,1,1,0.0,3.0
2021-09-02 13:24:51.850,1000.0,181.0,27.0,1016.607102080248,1,1,1,0.0,3.0
2021-09-02 13:24:51.859,1117.0,-126.0,5.0,1124.095191698639,1,1,1,0.0,3.0
2021-09-02 13:24:51.869,1058.0,-35.0,60.0,1060.2777937880242,1,1,1,0.0,3.0
2021-09-02 13:24:51.879,920.0,-122.0,60.0,929.9913978096788,1,1,1,0.0,3.0
2021-09-02 13:24:51.880,920.0,-122.0,-57.0,929.802667236441,1,1,1,0.0,3.0
2021-09-02 13:24:51.890,1104.0,-50.0,50.0,1106.2621750742453,1,1,1,0.0,3.0
2021-09-02 13:24:51.899,1112.0,134.0,85.0,1123.2653292966893,1,1,1,0.0,3.0
2021-09-02 13:24:51.909,889.0,216.0,-9.0,914.9087386182296,1,1,1,0.0,3.0
2021-09-02 13:24:51.918,1005.0,229.0,-1.0,1030.7603989288684,1,1,1,0.0,3.0
2021-09-02 13:24:51.927,955.0,310.0,-1.0,1004.0547793820812,1,1,1,0.0,3.0
2021-09-02 13:24:51.928,955.0,310.0,-28.0,1004.4446226646844,1,1,1,0.0,3.0
2021-09-02 13:24:51.954,1169.0,77.0,33.0,1171.9978668922568,1,1,1,0.0,3.0
2021-09-02 13:24:51.955,1123.0,-178.0,27.0,1137.339878840094,1,1,1,0.0,3.0
2021-09-02 13:24:51.958,938.0,-305.0,-68.0,988.6824566057596,1,1,1,0.0,3.0
2021-09-02 13:24:51.967,1069.0,-15.0,-68.0,1071.2656066541108,1,1,1,0.0,3.0
2021-09-02 13:24:51.968,1069.0,-15.0,32.0,1069.5840312944094,1,1,1,0.0,3.0
2021-09-02 13:24:51.976,999.0,-108.0,-12.0,1004.8925315674308,1,1,1,0.0,3.0
2021-09-02 13:24:51.988,1007.0,99.0,40.0,1012.6450513383256,1,1,1,0.0,3.0
2021-09-02 13:24:51.996,842.0,167.0,-22.0,858.6832943524638,1,1,1,0.0,3.0
2021-09-02 13:24:52.006,967.0,252.0,11.0,999.3567931424692,1,1,1,0.0,3.0
2021-09-02 13:24:52.015,1182.0,-26.0,16.0,1182.3941813117992,1,1,1,0.0,3.0
2021-09-02 13:24:52.025,946.0,43.0,16.0,947.1119258039148,1,1,1,0.0,3.0
2021-09-02 13:24:52.026,946.0,43.0,7.0,947.0026399118432,1,1,1,0.0,3.0
2021-09-02 13:24:52.035,996.0,43.0,7.0,996.9523559328198,1,1,1,0.0,3.0
2021-09-02 13:24:52.036,996.0,52.0,6.0,997.3745535153782,1,1,1,0.0,3.0
2021-09-02 13:24:52.045,1106.0,-144.0,42.0,1116.125440978746,1,1,1,0.0,3.0
2021-09-02 13:24:52.054,1050.0,-144.0,42.0,1060.6601717798212,1,1,1,0.0,3.0
2021-09-02 13:24:52.055,1050.0,130.0,27.0,1058.3614694422697,1,1,1,0.0,3.0
2021-09-02 13:24:52.064,974.0,256.0,-16.0,1007.2080222079252,1,1,1,0.0,3.0
2021-09-02 13:24:52.074,962.0,222.0,-16.0,987.4127809583994,1,1,1,0.0,3.0
2021-09-02 13:24:52.075,962.0,222.0,0.0,987.2831407453486,1,1,1,0.0,3.0
2021-09-02 13:24:52.084,1009.0,155.0,18.0,1020.9946131101768,1,1,1,0.0,3.0
2021-09-02 13:24:52.093,1109.0,-91.0,18.0,1112.8728588657375,1,1,1,0.0,3.0
2021-09-02 13:24:52.094,1109.0,-91.0,17.0,1112.857133687878,1,1,1,0.0,3.0
2021-09-02 13:24:52.103,1005.0,-15.0,14.0,1005.2094309147722,1,1,1,0.0,3.0
2021-09-02 13:24:52.113,924.0,142.0,25.0,935.1818005072596,1,1,1,0.0,3.0
2021-09-02 13:24:52.123,1025.0,39.0,33.0,1026.272380998339,1,1,1,0.0,3.0
2021-09-02 13:24:52.133,1013.0,167.0,-13.0,1026.7555697438413,1,1,1,0.0,3.0
2021-09-02 13:24:52.143,1030.0,68.0,10.0,1032.2906567435357,1,1,1,0.0,3.0
2021-09-02 13:24:52.152,953.0,68.0,-38.0,956.1783306475836,1,1,1,0.0,3.0
2021-09-02 13:24:52.162,1013.0,-80.0,-38.0,1016.8642977310196,1,1,1,0.0,3.0
2021-09-02 13:24:52.163,1013.0,-80.0,-63.0,1018.1051026293896,1,1,1,0.0,3.0
2021-09-02 13:24:52.172,1027.0,90.0,28.0,1031.3161493935795,1,1,1,0.0,3.0
2021-09-02 13:24:52.182,960.0,-46.0,-16.0,961.2346227638704,1,1,1,0.0,3.0
2021-09-02 13:24:52.192,1024.0,52.0,28.0,1025.7017110251888,1,1,1,0.0,3.0
2021-09-02 13:24:52.202,981.0,22.0,10.0,981.2976103099404,1,1,1,0.0,3.0
2021-09-02 13:24:52.210,980.0,72.0,33.0,983.1953010465418,1,1,1,0.0,3.0
2021-09-02 13:24:52.220,1029.0,28.0,33.0,1029.9097047799871,1,1,1,0.0,3.0
2021-09-02 13:24:52.221,1029.0,28.0,15.0,1029.4901650817262,1,1,1,0.0,3.0
2021-09-02 13:24:52.231,1013.0,54.0,17.0,1014.5807015708508,1,1,1,0.0,3.0
2021-09-02 13:24:52.240,1016.0,17.0,-19.0,1016.3198315491044,1,1,1,0.0,3.0
2021-09-02 13:24:52.250,1011.0,68.0,21.0,1013.5018500229784,1,1,1,0.0,3.0
2021-09-02 13:24:52.267,992.0,37.0,0.0,992.6897803442928,1,1,1,0.0,3.0
2021-09-02 13:24:52.270,991.0,33.0,0.0,991.5492927736876,1,1,1,0.0,3.0
2021-09-02 13:24:52.271,991.0,33.0,-10.0,991.5997176280356,1,1,1,0.0,3.0
2021-09-02 13:24:52.279,1019.0,37.0,-10.0,1019.7205499547412,1,1,1,0.0,3.0
2021-09-02 13:24:52.280,1019.0,37.0,13.0,1019.754382192104,1,1,1,0.0,3.0
