time_stamp,Acceleration_X,Acceleration_Y,Acceleration_Z,magnitude,STD_Status_right,STD_Status_left,STD_Status_both,KMeans,KMeans_convert
2021-09-23 13:31:31.328,990.0,-79.0,-49.0,994.3550673677888,1,1,1,2.0,3.0
2021-09-23 13:31:31.329,990.0,-20.0,58.0,991.8991884259208,1,1,1,2.0,3.0
2021-09-23 13:31:31.333,876.0,-103.0,-19.0,882.2391965901311,1,1,1,2.0,3.0
2021-09-23 13:31:31.340,767.0,-103.0,-19.0,774.1182080276888,1,1,1,2.0,3.0
2021-09-23 13:31:31.341,767.0,488.0,62.0,911.1953687327432,1,1,1,2.0,3.0
2021-09-23 13:31:31.359,995.0,488.0,62.0,1109.960810118988,1,1,1,2.0,3.0
2021-09-23 13:31:31.360,995.0,145.0,-22.0,1005.750466069989,1,1,1,2.0,3.0
2021-09-23 13:31:31.361,1090.0,287.0,38.0,1127.7912040799042,1,1,1,2.0,3.0
2021-09-23 13:31:31.369,772.0,287.0,38.0,824.498029106195,1,1,1,2.0,3.0
2021-09-23 13:31:31.370,772.0,279.0,-73.0,824.1080026307231,1,1,1,2.0,3.0
2021-09-23 13:31:31.379,1286.0,29.0,44.0,1287.079251639152,1,1,1,2.0,3.0
2021-09-23 13:31:31.388,845.0,108.0,24.0,852.2118281272561,1,1,1,2.0,3.0
2021-09-23 13:31:31.398,931.0,-21.0,28.0,931.657662449035,1,1,1,2.0,3.0
2021-09-23 13:31:31.407,961.0,-21.0,28.0,961.6371457051772,1,1,1,2.0,3.0
2021-09-23 13:31:31.408,961.0,-129.0,-51.0,970.959834390692,1,1,1,2.0,3.0
2021-09-23 13:31:31.417,1053.0,-129.0,-51.0,1062.097453155783,1,1,1,2.0,3.0
2021-09-23 13:31:31.418,1053.0,153.0,61.0,1065.804391058697,1,1,1,2.0,3.0
2021-09-23 13:31:31.429,979.0,49.0,-19.0,980.4096082760512,1,1,1,2.0,3.0
2021-09-23 13:31:31.437,993.0,129.0,20.0,1001.5438083279232,1,1,1,2.0,3.0
2021-09-23 13:31:31.447,899.0,364.0,12.0,969.969587152092,1,1,1,2.0,3.0
2021-09-23 13:31:31.456,1005.0,364.0,12.0,1068.9550972795817,1,1,1,2.0,3.0
2021-09-23 13:31:31.457,1005.0,41.0,24.0,1006.1222589725364,1,1,1,2.0,3.0
2021-09-23 13:31:31.467,1132.0,41.0,24.0,1132.996469544367,1,1,1,2.0,3.0
2021-09-23 13:31:31.468,1132.0,-163.0,3.0,1143.6791508111005,1,1,1,2.0,3.0
2021-09-23 13:31:31.478,1039.0,-239.0,-9.0,1066.1721249404338,1,1,1,2.0,3.0
2021-09-23 13:31:31.486,955.0,-59.0,0.0,956.820777366378,1,1,1,2.0,3.0
2021-09-23 13:31:31.495,1084.0,-96.0,0.0,1088.242620007138,1,1,1,2.0,3.0
2021-09-23 13:31:31.496,1084.0,-96.0,26.0,1088.5531682008004,1,1,1,2.0,3.0
2021-09-23 13:31:31.505,1004.0,39.0,22.0,1004.9980099482784,1,1,1,2.0,3.0
2021-09-23 13:31:31.515,983.0,202.0,5.0,1003.552689199725,1,1,1,2.0,3.0
2021-09-23 13:31:31.525,864.0,202.0,5.0,887.3133606567637,1,1,1,2.0,3.0
2021-09-23 13:31:31.526,864.0,225.0,-23.0,893.1125349025172,1,1,1,2.0,3.0
2021-09-23 13:31:31.534,1224.0,225.0,-23.0,1244.7208522395697,1,1,1,2.0,3.0
2021-09-23 13:31:31.535,1224.0,36.0,38.0,1225.1187697525493,1,1,1,2.0,3.0
2021-09-23 13:31:31.544,891.0,151.0,22.0,903.972344709726,1,1,1,2.0,3.0
2021-09-23 13:31:31.554,1098.0,-132.0,13.0,1105.982368756392,1,1,1,2.0,3.0
2021-09-23 13:31:31.564,950.0,-132.0,13.0,959.2147830387104,1,1,1,2.0,3.0
2021-09-23 13:31:31.565,950.0,-11.0,27.0,950.4472631345728,1,1,1,2.0,3.0
2021-09-23 13:31:31.574,1038.0,-23.0,21.0,1038.4671395860344,1,1,1,2.0,3.0
2021-09-23 13:31:31.584,1052.0,46.0,22.0,1053.2350165086614,1,1,1,2.0,3.0
2021-09-23 13:31:31.593,960.0,14.0,13.0,960.1900853476878,1,1,1,2.0,3.0
2021-09-23 13:31:31.603,946.0,314.0,25.0,997.0641905113232,1,1,1,2.0,3.0
2021-09-23 13:31:31.613,1014.0,150.0,43.0,1025.936157857788,1,1,1,2.0,3.0
2021-09-23 13:31:31.623,1047.0,168.0,10.0,1060.4400030176153,1,1,1,2.0,3.0
2021-09-23 13:31:31.632,1090.0,-285.0,-34.0,1127.1561559961424,1,1,1,2.0,3.0
2021-09-23 13:31:31.642,920.0,-32.0,32.0,921.1123709949834,1,1,1,2.0,3.0
2021-09-23 13:31:31.652,1097.0,-160.0,29.0,1108.9860233564714,1,1,1,2.0,3.0
2021-09-23 13:31:31.661,1051.0,-3.0,29.0,1051.404299021076,1,1,1,2.0,3.0
2021-09-23 13:31:31.662,1051.0,-3.0,33.0,1051.5222299124257,1,1,1,2.0,3.0
2021-09-23 13:31:31.675,913.0,-53.0,33.0,915.1322308825104,1,1,1,2.0,3.0
2021-09-23 13:31:31.676,913.0,-53.0,-74.0,917.5260214293652,1,1,1,2.0,3.0
2021-09-23 13:31:31.681,836.0,308.0,-40.0,891.8295801328861,1,1,1,2.0,3.0
2021-09-23 13:31:31.691,1181.0,79.0,40.0,1184.3149918834938,1,1,1,2.0,3.0
2021-09-23 13:31:31.701,977.0,67.0,-4.0,979.302813229902,1,1,1,2.0,3.0
2021-09-23 13:31:31.710,1080.0,-97.0,2.0,1084.3491135238687,1,1,1,2.0,3.0
2021-09-23 13:31:31.721,905.0,-97.0,2.0,910.1856953391434,1,1,1,2.0,3.0
2021-09-23 13:31:31.722,905.0,19.0,7.0,905.2264909954856,1,1,1,2.0,3.0
2021-09-23 13:31:31.732,1165.0,-74.0,66.0,1169.212127887835,1,1,1,2.0,3.0
2021-09-23 13:31:31.739,1052.0,-74.0,66.0,1056.6626708652104,1,1,1,2.0,3.0
2021-09-23 13:31:31.740,1052.0,61.0,40.0,1054.5259598511552,1,1,1,2.0,3.0
2021-09-23 13:31:31.749,946.0,-40.0,-26.0,947.2021959434004,1,1,1,2.0,3.0
2021-09-23 13:31:31.759,1021.0,-40.0,-26.0,1022.113985815672,1,1,1,2.0,3.0
2021-09-23 13:31:31.760,1021.0,270.0,16.0,1056.2182539607995,1,1,1,2.0,3.0
2021-09-23 13:31:31.769,1019.0,163.0,16.0,1032.0784853876182,1,1,1,2.0,3.0
2021-09-23 13:31:31.770,1019.0,163.0,18.0,1032.1114280929166,1,1,1,2.0,3.0
2021-09-23 13:31:31.778,1075.0,163.0,18.0,1087.4364349238997,1,1,1,2.0,3.0
2021-09-23 13:31:31.779,1075.0,139.0,13.0,1084.0272136805422,1,1,1,2.0,3.0
2021-09-23 13:31:31.788,864.0,201.0,13.0,887.1674024669752,1,1,1,2.0,3.0
2021-09-23 13:31:31.789,864.0,201.0,-25.0,887.4243629741072,1,1,1,2.0,3.0
2021-09-23 13:31:31.798,983.0,2.0,20.0,983.2054719131704,1,1,1,2.0,3.0
2021-09-23 13:31:31.808,1138.0,-236.0,0.0,1162.213405532736,1,1,1,2.0,3.0
2021-09-23 13:31:31.819,974.0,-30.0,17.0,974.6101784816328,1,1,1,2.0,3.0
2021-09-23 13:31:31.829,929.0,-46.0,-61.0,932.1362561342628,1,1,1,2.0,3.0
2021-09-23 13:31:31.837,1041.0,38.0,33.0,1042.215908533352,1,1,1,2.0,3.0
2021-09-23 13:31:31.847,1006.0,123.0,15.0,1013.6024861847962,1,1,1,2.0,3.0
2021-09-23 13:31:31.857,1012.0,72.0,-40.0,1015.346246361309,1,1,1,2.0,3.0
2021-09-23 13:31:31.867,1038.0,-27.0,-9.0,1038.3901001068914,1,1,1,2.0,3.0
2021-09-23 13:31:31.877,978.0,-27.0,-9.0,978.4140227940316,1,1,1,2.0,3.0
2021-09-23 13:31:31.878,978.0,-32.0,6.0,978.541772230496,1,1,1,2.0,3.0
2021-09-23 13:31:31.886,1092.0,-120.0,55.0,1099.9495442973737,1,1,1,2.0,3.0
2021-09-23 13:31:31.896,1008.0,-201.0,-15.0,1027.954279138912,1,1,1,2.0,3.0
2021-09-23 13:31:31.906,966.0,50.0,52.0,968.6898368414938,1,1,1,2.0,3.0
2021-09-23 13:31:31.920,1029.0,50.0,52.0,1031.5255692419844,1,1,1,2.0,3.0
2021-09-23 13:31:31.921,1029.0,225.0,42.0,1054.148945832609,1,1,1,2.0,3.0
2021-09-23 13:31:31.928,977.0,166.0,13.0,991.0872817264884,1,1,1,2.0,3.0
2021-09-23 13:31:31.935,1106.0,152.0,15.0,1116.4967532420326,1,1,1,2.0,3.0
2021-09-23 13:31:31.945,813.0,213.0,-62.0,842.7229675284755,1,1,1,2.0,3.0
2021-09-23 13:31:31.955,1148.0,-29.0,29.0,1148.7323448044806,1,1,1,2.0,3.0
2021-09-23 13:31:31.966,909.0,146.0,32.0,921.2062744032957,1,1,1,2.0,3.0
2021-09-23 13:31:31.974,986.0,-82.0,-21.0,989.6266972955004,1,1,1,2.0,3.0
2021-09-23 13:31:31.984,970.0,-24.0,-35.0,970.9279066954456,1,1,1,2.0,3.0
2021-09-23 13:31:31.993,1044.0,-24.0,-35.0,1044.8621918702963,1,1,1,2.0,3.0
2021-09-23 13:31:31.994,1044.0,-10.0,2.0,1044.0498072410148,1,1,1,2.0,3.0
2021-09-23 13:31:32.003,1032.0,97.0,48.0,1037.6593853476195,1,1,1,2.0,3.0
2021-09-23 13:31:32.014,984.0,97.0,48.0,989.933836172903,1,1,1,2.0,3.0
2021-09-23 13:31:32.015,984.0,41.0,44.0,985.8361932897373,1,1,1,2.0,3.0
2021-09-23 13:31:32.023,905.0,348.0,31.0,970.097933200561,1,1,1,2.0,3.0
2021-09-23 13:31:32.032,1035.0,348.0,31.0,1092.3781396567765,1,1,1,2.0,3.0
2021-09-23 13:31:32.033,1035.0,-22.0,-10.0,1035.2820871627212,1,1,1,2.0,3.0
2021-09-23 13:31:32.042,1151.0,-78.0,32.0,1154.0836191541755,1,1,1,2.0,3.0
2021-09-23 13:31:32.052,1035.0,-249.0,-42.0,1065.3590943902436,1,1,1,2.0,3.0
2021-09-23 13:31:32.062,977.0,-249.0,-42.0,1009.1055445294114,1,1,1,2.0,3.0
2021-09-23 13:31:32.063,977.0,-10.0,51.0,978.3813162566016,1,1,1,2.0,3.0
2021-09-23 13:31:32.071,1067.0,-10.0,51.0,1068.2649484093354,1,1,1,2.0,3.0
2021-09-23 13:31:32.072,1067.0,-126.0,34.0,1074.951626818621,1,1,1,2.0,3.0
2021-09-23 13:31:32.081,1034.0,8.0,34.0,1034.5897737750938,1,1,1,2.0,3.0
2021-09-23 13:31:32.082,1034.0,8.0,37.0,1034.6927080056184,1,1,1,2.0,3.0
2021-09-23 13:31:32.091,1045.0,118.0,13.0,1051.7214460112525,1,1,1,2.0,3.0
2021-09-23 13:31:32.101,787.0,309.0,-39.0,846.3870273107924,1,1,1,2.0,3.0
2021-09-23 13:31:32.111,1206.0,13.0,31.0,1206.4683999177105,1,1,1,2.0,3.0
2021-09-23 13:31:32.122,915.0,113.0,11.0,922.0168111265652,1,1,1,2.0,3.0
2021-09-23 13:31:32.135,1067.0,-120.0,14.0,1073.8179547763204,1,1,1,2.0,3.0
2021-09-23 13:31:32.140,940.0,-40.0,14.0,940.9548341976888,1,1,1,2.0,3.0
2021-09-23 13:31:32.150,1062.0,-40.0,6.0,1062.769965702833,1,1,1,2.0,3.0
2021-09-23 13:31:32.159,1036.0,-40.0,6.0,1036.7892746358827,1,1,1,2.0,3.0
2021-09-23 13:31:32.160,1036.0,74.0,19.0,1038.8132652214256,1,1,1,2.0,3.0
2021-09-23 13:31:32.170,955.0,4.0,4.0,955.016753779744,1,1,1,2.0,3.0
2021-09-23 13:31:32.179,964.0,4.0,4.0,964.0165973674934,1,1,1,2.0,3.0
2021-09-23 13:31:32.180,964.0,348.0,26.0,1025.21997639531,1,1,1,2.0,3.0
2021-09-23 13:31:32.189,1054.0,187.0,40.0,1071.2072628581268,1,1,1,2.0,3.0
2021-09-23 13:31:32.198,1011.0,187.0,40.0,1028.9266251779084,1,1,1,2.0,3.0
2021-09-23 13:31:32.199,1011.0,216.0,-9.0,1033.855889377238,1,1,1,2.0,3.0
2021-09-23 13:31:32.209,1099.0,-272.0,-28.0,1132.505629125083,1,1,1,2.0,3.0
2021-09-23 13:31:32.219,946.0,-28.0,22.0,946.6699530459388,1,1,1,2.0,3.0
2021-09-23 13:31:32.228,1100.0,-212.0,22.0,1120.458834585189,1,1,1,2.0,3.0
2021-09-23 13:31:32.238,1024.0,6.0,42.0,1024.878529387751,1,1,1,2.0,3.0
2021-09-23 13:31:32.247,902.0,-92.0,42.0,907.6519156593016,1,1,1,2.0,3.0
2021-09-23 13:31:32.248,902.0,-92.0,-82.0,910.380140380929,1,1,1,2.0,3.0
2021-09-23 13:31:32.257,1018.0,85.0,36.0,1022.1765992234416,1,1,1,2.0,3.0
2021-09-23 13:31:32.267,1200.0,85.0,36.0,1203.545179874856,1,1,1,2.0,3.0
2021-09-23 13:31:32.268,1200.0,103.0,56.0,1205.713481719434,1,1,1,2.0,3.0
2021-09-23 13:31:32.277,981.0,103.0,56.0,987.9807690436083,1,1,1,2.0,3.0
2021-09-23 13:31:32.278,981.0,26.0,-24.0,981.6379169530892,1,1,1,2.0,3.0
2021-09-23 13:31:32.286,1077.0,26.0,-24.0,1077.581087436115,1,1,1,2.0,3.0
2021-09-23 13:31:32.287,1077.0,-82.0,-8.0,1080.146749289188,1,1,1,2.0,3.0
2021-09-23 13:31:32.296,933.0,-33.0,1.0,933.583954446519,1,1,1,2.0,3.0
2021-09-23 13:31:32.306,1160.0,-117.0,50.0,1166.9571543120169,1,1,1,2.0,3.0
2021-09-23 13:31:32.316,969.0,-173.0,-24.0,984.6146454324148,1,1,1,2.0,3.0
2021-09-23 13:31:32.327,952.0,-40.0,-23.0,953.117516364063,1,1,1,2.0,3.0
2021-09-23 13:31:32.347,988.0,281.0,21.0,1027.3976834702326,1,1,1,2.0,3.0
2021-09-23 13:31:32.348,1011.0,163.0,26.0,1024.385669560054,1,1,1,2.0,3.0
2021-09-23 13:31:32.356,1077.0,163.0,26.0,1089.5751465594285,1,1,1,2.0,3.0
2021-09-23 13:31:32.357,1077.0,177.0,20.0,1091.630889998996,1,1,1,2.0,3.0
2021-09-23 13:31:32.373,847.0,199.0,-37.0,870.8495851753046,1,1,1,2.0,3.0
2021-09-23 13:31:32.376,1146.0,-66.0,5.0,1147.9098396651193,1,1,1,2.0,3.0
2021-09-23 13:31:32.384,1150.0,-274.0,-7.0,1182.2119099383156,1,1,1,2.0,3.0
2021-09-23 13:31:32.394,972.0,-96.0,-4.0,976.7374263331984,1,1,1,2.0,3.0
2021-09-23 13:31:32.405,942.0,-96.0,-4.0,946.8875329203568,1,1,1,2.0,3.0
2021-09-23 13:31:32.406,942.0,-54.0,-46.0,944.6671371440842,1,1,1,2.0,3.0
2021-09-23 13:31:32.413,1065.0,-54.0,-46.0,1067.359826862525,1,1,1,2.0,3.0
2021-09-23 13:31:32.414,1065.0,34.0,-3.0,1065.546807981705,1,1,1,2.0,3.0
2021-09-23 13:31:32.423,926.0,216.0,50.0,952.1722533239456,1,1,1,2.0,3.0
2021-09-23 13:31:32.433,1034.0,182.0,63.0,1051.7837230153357,1,1,1,2.0,3.0
2021-09-23 13:31:32.443,1069.0,-26.0,10.0,1069.362894437618,1,1,1,2.0,3.0
2021-09-23 13:31:32.454,995.0,-36.0,-20.0,995.8518966191708,1,1,1,2.0,3.0
2021-09-23 13:31:32.466,1013.0,117.0,-4.0,1019.7421242647574,1,1,1,2.0,3.0
2021-09-23 13:31:32.472,987.0,-153.0,2.0,998.7902682745764,1,1,1,2.0,3.0
2021-09-23 13:31:32.482,991.0,14.0,40.0,991.9057414895832,1,1,1,2.0,3.0
2021-09-23 13:31:32.491,1039.0,14.0,40.0,1039.863933406674,1,1,1,2.0,3.0
2021-09-23 13:31:32.492,1039.0,-90.0,-5.0,1042.9026800234046,1,1,1,2.0,3.0
2021-09-23 13:31:32.502,984.0,149.0,0.0,995.2170617508524,1,1,1,2.0,3.0
2021-09-23 13:31:32.512,1146.0,122.0,42.0,1153.2406513820088,1,1,1,2.0,3.0
2021-09-23 13:31:32.521,823.0,213.0,-65.0,852.5977949772097,1,1,1,2.0,3.0
2021-09-23 13:31:32.531,1134.0,-49.0,33.0,1135.5377580688366,1,1,1,2.0,3.0
2021-09-23 13:31:32.540,929.0,136.0,33.0,939.4817720424384,1,1,1,2.0,3.0
2021-09-23 13:31:32.541,929.0,136.0,40.0,939.753691134012,1,1,1,2.0,3.0
2021-09-23 13:31:32.551,1086.0,-188.0,-14.0,1102.2413528805748,1,1,1,2.0,3.0
2021-09-23 13:31:32.560,912.0,-60.0,-14.0,914.0787712226994,1,1,1,2.0,3.0
2021-09-23 13:31:32.561,912.0,-60.0,-51.0,915.3933580707258,1,1,1,2.0,3.0
2021-09-23 13:31:32.570,1064.0,11.0,4.0,1064.064377751647,1,1,1,2.0,3.0
2021-09-23 13:31:32.579,1002.0,137.0,4.0,1011.3303120148232,1,1,1,2.0,3.0
2021-09-23 13:31:32.580,1002.0,137.0,23.0,1011.5839065544686,1,1,1,2.0,3.0
2021-09-23 13:31:32.589,998.0,77.0,52.0,1002.3158184923552,1,1,1,2.0,3.0
2021-09-23 13:31:32.600,891.0,369.0,18.0,964.554819592956,1,1,1,2.0,3.0
2021-09-23 13:31:32.609,1061.0,150.0,36.0,1072.1553059142132,1,1,1,2.0,3.0
2021-09-23 13:31:32.618,1083.0,150.0,36.0,1093.9309850260208,1,1,1,2.0,3.0
2021-09-23 13:31:32.619,1083.0,-51.0,70.0,1086.457546340399,1,1,1,2.0,3.0
2021-09-23 13:31:32.628,1040.0,-237.0,-15.0,1066.7680160184782,1,1,1,2.0,3.0
2021-09-23 13:31:32.638,974.0,-15.0,64.0,976.2156524047338,1,1,1,2.0,3.0
2021-09-23 13:31:32.648,1053.0,-160.0,2.0,1065.088259253664,1,1,1,2.0,3.0
2021-09-23 13:31:32.657,1080.0,-160.0,2.0,1091.7893569732212,1,1,1,2.0,3.0
2021-09-23 13:31:32.658,1080.0,19.0,58.0,1081.723162366416,1,1,1,2.0,3.0
2021-09-23 13:31:32.678,873.0,-20.0,58.0,875.1531294579252,1,1,1,2.0,3.0
2021-09-23 13:31:32.679,873.0,-20.0,-82.0,877.0706927038435,1,1,1,2.0,3.0
2021-09-23 13:31:32.681,833.0,274.0,-82.0,880.7320818500937,1,1,1,2.0,3.0
2021-09-23 13:31:32.682,833.0,274.0,-47.0,878.1651325348781,1,1,1,2.0,3.0
2021-09-23 13:31:32.687,1157.0,46.0,11.0,1157.96632075376,1,1,1,2.0,3.0
2021-09-23 13:31:32.697,943.0,138.0,11.0,953.1075490205708,1,1,1,2.0,3.0
2021-09-23 13:31:32.698,943.0,138.0,11.0,953.1075490205708,1,1,1,2.0,3.0
2021-09-23 13:31:32.706,1044.0,-179.0,11.0,1059.2912725025162,1,1,1,2.0,3.0
2021-09-23 13:31:32.707,1044.0,-179.0,-1.0,1059.234629343282,1,1,1,2.0,3.0
2021-09-23 13:31:32.716,953.0,-179.0,-1.0,969.6654062097916,1,1,1,2.0,3.0
2021-09-23 13:31:32.717,953.0,-35.0,17.0,953.7940029167725,1,1,1,2.0,3.0
2021-09-23 13:31:32.726,1209.0,-35.0,17.0,1209.625975250201,1,1,1,2.0,3.0
2021-09-23 13:31:32.727,1209.0,-168.0,19.0,1220.7645145563497,1,1,1,2.0,3.0
2021-09-23 13:31:32.736,1046.0,82.0,31.0,1049.667090081422,1,1,1,2.0,3.0
2021-09-23 13:31:32.746,972.0,82.0,31.0,975.9451828868258,1,1,1,2.0,3.0
2021-09-23 13:31:32.747,972.0,-11.0,15.0,972.1779672467384,1,1,1,2.0,3.0
2021-09-23 13:31:32.755,965.0,280.0,11.0,1004.861184442906,1,1,1,2.0,3.0
2021-09-23 13:31:32.765,1014.0,148.0,40.0,1025.5242561733974,1,1,1,2.0,3.0
2021-09-23 13:31:32.775,1056.0,167.0,10.0,1069.170239017155,1,1,1,2.0,3.0
2021-09-23 13:31:32.786,862.0,223.0,-3.0,890.3830636304804,1,1,1,2.0,3.0
2021-09-23 13:31:32.794,972.0,-20.0,-8.0,972.238653829398,1,1,1,2.0,3.0
2021-09-23 13:31:32.804,1098.0,-235.0,22.0,1123.0819204314528,1,1,1,2.0,3.0
2021-09-23 13:31:32.814,1018.0,-28.0,-29.0,1018.797820963512,1,1,1,2.0,3.0
2021-09-23 13:31:32.823,948.0,-28.0,-29.0,948.856680431771,1,1,1,2.0,3.0
2021-09-23 13:31:32.824,948.0,-37.0,-53.0,950.2010313612589,1,1,1,2.0,3.0
2021-09-23 13:31:32.834,1038.0,51.0,25.0,1039.5527884624237,1,1,1,2.0,3.0
2021-09-23 13:31:32.843,999.0,111.0,-6.0,1005.1656579887716,1,1,1,2.0,3.0
2021-09-23 13:31:32.853,1003.0,44.0,-6.0,1003.9825695698108,1,1,1,2.0,3.0
2021-09-23 13:31:32.854,1003.0,44.0,-49.0,1005.159688805714,1,1,1,2.0,3.0
2021-09-23 13:31:32.863,1058.0,-78.0,-2.0,1060.873225225333,1,1,1,2.0,3.0
2021-09-23 13:31:32.872,963.0,-78.0,-2.0,966.1557845399468,1,1,1,2.0,3.0
2021-09-23 13:31:32.873,963.0,-29.0,8.0,963.4697711916032,1,1,1,2.0,3.0
2021-09-23 13:31:32.883,1087.0,-96.0,69.0,1093.4102615212644,1,1,1,2.0,3.0
2021-09-23 13:31:32.892,985.0,-162.0,69.0,1000.6148110037147,1,1,1,2.0,3.0
2021-09-23 13:31:32.893,985.0,-162.0,-14.0,998.3311073987428,1,1,1,2.0,3.0
2021-09-23 13:31:32.902,942.0,-2.0,25.0,942.3338049757104,1,1,1,2.0,3.0
2021-09-23 13:31:32.911,992.0,-2.0,25.0,992.316985645212,1,1,1,2.0,3.0
2021-09-23 13:31:32.912,992.0,234.0,29.0,1019.637680747431,1,1,1,2.0,3.0
2021-09-23 13:31:32.921,1017.0,134.0,29.0,1026.1997856168164,1,1,1,2.0,3.0
2021-09-23 13:31:32.922,1017.0,134.0,2.0,1025.7918892251,1,1,1,2.0,3.0
2021-09-23 13:31:32.932,1091.0,74.0,13.0,1093.5840159768247,1,1,1,2.0,3.0
2021-09-23 13:31:32.948,830.0,74.0,13.0,833.3936644827581,1,1,1,2.0,3.0
2021-09-23 13:31:32.949,830.0,241.0,-42.0,865.3005258290324,1,1,1,2.0,3.0
2021-09-23 13:31:32.951,1131.0,-26.0,-42.0,1132.0781775124897,1,1,1,2.0,3.0
2021-09-23 13:31:32.952,1131.0,-26.0,30.0,1131.6965140884724,1,1,1,2.0,3.0
2021-09-23 13:31:32.960,903.0,-26.0,30.0,903.872225483226,1,1,1,2.0,3.0
2021-09-23 13:31:32.961,903.0,158.0,31.0,917.242606947584,1,1,1,2.0,3.0
2021-09-23 13:31:32.971,991.0,-87.0,-11.0,994.8723536213076,1,1,1,2.0,3.0
2021-09-23 13:31:32.980,956.0,-51.0,-43.0,958.3245796701658,1,1,1,2.0,3.0
2021-09-23 13:31:32.989,1067.0,-51.0,-43.0,1069.083252137082,1,1,1,2.0,3.0
2021-09-23 13:31:32.990,1067.0,-37.0,4.0,1067.6488186665126,1,1,1,2.0,3.0
2021-09-23 13:31:32.999,999.0,128.0,4.0,1007.1747613994306,1,1,1,2.0,3.0
2021-09-23 13:31:33.000,999.0,128.0,32.0,1007.6750468280932,1,1,1,2.0,3.0
2021-09-23 13:31:33.009,996.0,88.0,37.0,1000.5643407597536,1,1,1,2.0,3.0
2021-09-23 13:31:33.020,964.0,47.0,-28.0,965.5511379517918,1,1,1,2.0,3.0
2021-09-23 13:31:33.030,1063.0,-32.0,-28.0,1063.8500834234117,1,1,1,2.0,3.0
2021-09-23 13:31:33.031,1063.0,-32.0,-7.0,1063.5045839111367,1,1,1,2.0,3.0
2021-09-23 13:31:33.038,1096.0,-77.0,-7.0,1098.7238051485006,1,1,1,2.0,3.0
2021-09-23 13:31:33.039,1096.0,-77.0,50.0,1099.838624526344,1,1,1,2.0,3.0
2021-09-23 13:31:33.048,1033.0,-218.0,50.0,1056.93566502413,1,1,1,2.0,3.0
2021-09-23 13:31:33.049,1033.0,-218.0,-13.0,1055.8323730592845,1,1,1,2.0,3.0
2021-09-23 13:31:33.058,939.0,-26.0,45.0,940.437132401736,1,1,1,2.0,3.0
2021-09-23 13:31:33.068,1102.0,-132.0,26.0,1110.1819670666607,1,1,1,2.0,3.0
2021-09-23 13:31:33.078,976.0,-132.0,26.0,985.2289074118764,1,1,1,2.0,3.0
2021-09-23 13:31:33.079,976.0,110.0,-14.0,982.2789827742422,1,1,1,2.0,3.0
2021-09-23 13:31:33.087,1069.0,117.0,18.0,1075.5342858319302,1,1,1,2.0,3.0
2021-09-23 13:31:33.097,801.0,297.0,-41.0,855.2724712043525,1,1,1,2.0,3.0
2021-09-23 13:31:33.107,1202.0,22.0,39.0,1202.8337374716425,1,1,1,2.0,3.0
2021-09-23 13:31:33.117,932.0,107.0,5.0,938.1353846860272,1,1,1,2.0,3.0
2021-09-23 13:31:33.129,1052.0,107.0,5.0,1057.4393599634925,1,1,1,2.0,3.0
2021-09-23 13:31:33.130,1052.0,-159.0,13.0,1064.0272552900135,1,1,1,2.0,3.0
2021-09-23 13:31:33.137,958.0,-2.0,-36.0,958.6782567681402,1,1,1,2.0,3.0
2021-09-23 13:31:33.146,1030.0,-15.0,-3.0,1030.1135859700132,1,1,1,2.0,3.0
2021-09-23 13:31:33.156,1013.0,133.0,43.0,1022.5981615473402,1,1,1,2.0,3.0
2021-09-23 13:31:33.166,978.0,1.0,7.0,978.02556203813,1,1,1,2.0,3.0
2021-09-23 13:31:33.178,979.0,391.0,54.0,1055.5747249721358,1,1,1,2.0,3.0
2021-09-23 13:31:33.185,1045.0,150.0,54.0,1057.0908191825336,1,1,1,2.0,3.0
2021-09-23 13:31:33.186,1045.0,150.0,42.0,1056.54578698701,1,1,1,2.0,3.0
2021-09-23 13:31:33.195,1118.0,-4.0,19.0,1118.168591939516,1,1,1,2.0,3.0
2021-09-23 13:31:33.204,1077.0,-4.0,19.0,1077.175008993432,1,1,1,2.0,3.0
2021-09-23 13:31:33.205,1077.0,-244.0,-21.0,1104.4935490984092,1,1,1,2.0,3.0
2021-09-23 13:31:33.214,969.0,20.0,16.0,969.3384341910725,1,1,1,2.0,3.0
2021-09-23 13:31:33.226,1063.0,-219.0,37.0,1085.9553397815216,1,1,1,2.0,3.0
2021-09-23 13:31:33.234,1021.0,-40.0,23.0,1022.0420734979554,1,1,1,2.0,3.0
2021-09-23 13:31:33.244,931.0,-96.0,-69.0,938.476424850406,1,1,1,2.0,3.0
2021-09-23 13:31:33.253,840.0,349.0,-36.0,910.3279628793132,1,1,1,2.0,3.0
2021-09-23 13:31:33.263,1185.0,80.0,44.0,1188.5120950162857,1,1,1,2.0,3.0
2021-09-23 13:31:33.274,1013.0,45.0,-52.0,1015.331472968311,1,1,1,2.0,3.0
2021-09-23 13:31:33.282,1022.0,45.0,-52.0,1024.310987932864,1,1,1,2.0,3.0
2021-09-23 13:31:33.283,1022.0,-95.0,-14.0,1026.501339502292,1,1,1,2.0,3.0
2021-09-23 13:31:33.293,1025.0,-35.0,11.0,1025.6563752056534,1,1,1,2.0,3.0
2021-09-23 13:31:33.302,1071.0,-91.0,38.0,1075.5305667436885,1,1,1,2.0,3.0
2021-09-23 13:31:33.312,1009.0,49.0,48.0,1011.3288288187972,1,1,1,2.0,3.0
2021-09-23 13:31:33.322,904.0,-40.0,-53.0,906.4353258782448,1,1,1,2.0,3.0
2021-09-23 13:31:33.332,1034.0,192.0,-53.0,1053.00949663334,1,1,1,2.0,3.0
2021-09-23 13:31:33.335,1034.0,192.0,28.0,1052.047527443509,1,1,1,2.0,3.0
2021-09-23 13:31:33.341,1008.0,166.0,-9.0,1021.6168557732396,1,1,1,2.0,3.0
2021-09-23 13:31:33.351,1044.0,90.0,-17.0,1048.0100190360777,1,1,1,2.0,3.0
2021-09-23 13:31:33.361,1055.0,-268.0,-25.0,1088.794746497245,1,1,1,2.0,3.0
2021-09-23 13:31:33.370,934.0,-268.0,-25.0,972.010802409109,1,1,1,2.0,3.0
2021-09-23 13:31:33.371,934.0,12.0,7.0,934.103313343872,1,1,1,2.0,3.0
2021-09-23 13:31:33.396,1174.0,-252.0,7.0,1200.761841498971,1,1,1,2.0,3.0
2021-09-23 13:31:33.397,976.0,-93.0,-27.0,980.7925366763352,1,1,1,2.0,3.0
2021-09-23 13:31:33.400,943.0,-17.0,-41.0,944.0439608408076,1,1,1,2.0,3.0
2021-09-23 13:31:33.409,1067.0,-17.0,-41.0,1067.9227500151871,1,1,1,2.0,3.0
2021-09-23 13:31:33.410,1067.0,-45.0,-20.0,1068.1357591617275,1,1,1,2.0,3.0
2021-09-23 13:31:33.419,1051.0,121.0,36.0,1058.5546750168364,1,1,1,2.0,3.0
2021-09-23 13:31:33.430,1006.0,232.0,35.0,1032.9980638897634,1,1,1,2.0,3.0
2021-09-23 13:31:33.439,930.0,81.0,-26.0,933.8827549537468,1,1,1,2.0,3.0
2021-09-23 13:31:33.449,1093.0,-47.0,-17.0,1094.1421297071054,1,1,1,2.0,3.0
2021-09-23 13:31:33.459,1096.0,-51.0,5.0,1097.1973386770494,1,1,1,2.0,3.0
2021-09-23 13:31:33.469,1093.0,-269.0,-10.0,1125.6598065134954,1,1,1,2.0,3.0
2021-09-23 13:31:33.478,913.0,-32.0,-59.0,915.4638168709891,1,1,1,2.0,3.0
2021-09-23 13:31:33.489,997.0,200.0,31.0,1017.3347531663312,1,1,1,2.0,3.0
2021-09-23 13:31:33.497,935.0,200.0,31.0,956.6535423025412,1,1,1,2.0,3.0
2021-09-23 13:31:33.498,935.0,160.0,-20.0,948.801876052108,1,1,1,2.0,3.0
2021-09-23 13:31:33.508,1058.0,98.0,-20.0,1062.7172719025507,1,1,1,2.0,3.0
2021-09-23 13:31:33.509,1058.0,98.0,9.0,1062.5671743471091,1,1,1,2.0,3.0
2021-09-23 13:31:33.517,816.0,311.0,-42.0,874.2659778351208,1,1,1,2.0,3.0
2021-09-23 13:31:33.528,1216.0,311.0,-42.0,1255.8427449326607,1,1,1,2.0,3.0
2021-09-23 13:31:33.529,1216.0,71.0,34.0,1218.5454443721003,1,1,1,2.0,3.0
2021-09-23 13:31:33.536,1119.0,-137.0,34.0,1127.867900066315,1,1,1,2.0,3.0
2021-09-23 13:31:33.537,1119.0,-137.0,41.0,1128.1006160799666,1,1,1,2.0,3.0
2021-09-23 13:31:33.546,1030.0,-134.0,-9.0,1038.718922519466,1,1,1,2.0,3.0
2021-09-23 13:31:33.556,977.0,-7.0,-35.0,977.6517784978452,1,1,1,2.0,3.0
2021-09-23 13:31:33.566,1030.0,-65.0,-4.0,1032.056684489762,1,1,1,2.0,3.0
2021-09-23 13:31:33.576,1008.0,276.0,70.0,1047.4445092700614,1,1,1,2.0,3.0
2021-09-23 13:31:33.585,1005.0,22.0,12.0,1005.3123892601742,1,1,1,2.0,3.0
2021-09-23 13:31:33.595,901.0,244.0,-3.0,933.4591581852952,1,1,1,2.0,3.0
2021-09-23 13:31:33.605,1098.0,-17.0,20.0,1098.31370746249,1,1,1,2.0,3.0
2021-09-23 13:31:33.616,1079.0,-50.0,2.0,1080.1597104132334,1,1,1,2.0,3.0
2021-09-23 13:31:33.624,1096.0,-293.0,2.0,1134.4906346021548,1,1,1,2.0,3.0
2021-09-23 13:31:33.625,1096.0,-293.0,-20.0,1134.6651488434816,1,1,1,2.0,3.0
2021-09-23 13:31:33.635,923.0,-15.0,0.0,923.121877110493,1,1,1,2.0,3.0
2021-09-23 13:31:33.644,1126.0,-287.0,19.0,1162.1557554820265,1,1,1,2.0,3.0
2021-09-23 13:31:33.654,960.0,148.0,-3.0,971.3459733792074,1,1,1,2.0,3.0
2021-09-23 13:31:33.664,1009.0,110.0,36.0,1015.6165615034053,1,1,1,2.0,3.0
2021-09-23 13:31:33.673,874.0,365.0,10.0,947.2069467650668,1,1,1,2.0,3.0
2021-09-23 13:31:33.693,1114.0,112.0,10.0,1119.660662879607,1,1,1,2.0,3.0
2021-09-23 13:31:33.695,1037.0,49.0,-40.0,1038.9273314337245,1,1,1,2.0,3.0
2021-09-23 13:31:33.703,1063.0,49.0,-40.0,1064.8802749605234,1,1,1,2.0,3.0
2021-09-23 13:31:33.704,1063.0,-107.0,-16.0,1068.4914599565127,1,1,1,2.0,3.0
2021-09-23 13:31:33.712,993.0,3.0,12.0,993.0770362867122,1,1,1,2.0,3.0
2021-09-23 13:31:33.724,1019.0,-99.0,27.0,1024.1537970441743,1,1,1,2.0,3.0
2021-09-23 13:31:33.732,1017.0,48.0,38.0,1018.8410082049112,1,1,1,2.0,3.0
2021-09-23 13:31:33.741,942.0,48.0,38.0,943.9872880500034,1,1,1,2.0,3.0
2021-09-23 13:31:33.742,942.0,55.0,-34.0,944.2166065050964,1,1,1,2.0,3.0
2021-09-23 13:31:33.752,949.0,255.0,-16.0,982.7929588677364,1,1,1,2.0,3.0
2021-09-23 13:31:33.762,1056.0,-24.0,-3.0,1056.2769523188508,1,1,1,2.0,3.0
2021-09-23 13:31:33.771,996.0,162.0,40.0,1009.8811811297406,1,1,1,2.0,3.0
2021-09-23 13:31:33.780,1086.0,162.0,40.0,1098.7447383264232,1,1,1,2.0,3.0
2021-09-23 13:31:33.781,1086.0,-264.0,-15.0,1117.728500128721,1,1,1,2.0,3.0
2021-09-23 13:31:33.790,953.0,-264.0,-15.0,989.0045500400896,1,1,1,2.0,3.0
2021-09-23 13:31:33.791,953.0,-12.0,5.0,953.0886632417784,1,1,1,2.0,3.0
2021-09-23 13:31:33.801,1092.0,-173.0,28.0,1105.973326983974,1,1,1,2.0,3.0
2021-09-23 13:31:33.811,1030.0,-106.0,-3.0,1035.4443490598617,1,1,1,2.0,3.0
2021-09-23 13:31:33.819,974.0,-106.0,-3.0,979.7555817651664,1,1,1,2.0,3.0
2021-09-23 13:31:33.820,974.0,136.0,-21.0,983.6732180963352,1,1,1,2.0,3.0
2021-09-23 13:31:33.829,881.0,403.0,-21.0,969.0257994501488,1,1,1,2.0,3.0
2021-09-23 13:31:33.830,881.0,403.0,8.0,968.8312546568676,1,1,1,2.0,3.0
2021-09-23 13:31:33.839,1095.0,83.0,56.0,1099.568097027192,1,1,1,2.0,3.0
2021-09-23 13:31:33.849,1056.0,165.0,-18.0,1068.964452168546,1,1,1,2.0,3.0
2021-09-23 13:31:33.859,943.0,24.0,-25.0,943.6365825888694,1,1,1,2.0,3.0
2021-09-23 13:31:33.869,1120.0,-52.0,-31.0,1121.634967357919,1,1,1,2.0,3.0
2021-09-23 13:31:33.878,1119.0,-157.0,20.0,1130.1371598173382,1,1,1,2.0,3.0
2021-09-23 13:31:33.888,1031.0,4.0,57.0,1032.5822001177437,1,1,1,2.0,3.0
2021-09-23 13:31:33.898,907.0,-2.0,-19.0,907.2011904754094,1,1,1,2.0,3.0
2021-09-23 13:31:33.908,955.0,218.0,-19.0,979.7499681041076,1,1,1,2.0,3.0
2021-09-23 13:31:33.909,955.0,218.0,1.0,979.5662305326782,1,1,1,2.0,3.0
2021-09-23 13:31:33.918,973.0,150.0,1.0,984.4947942980704,1,1,1,2.0,3.0
2021-09-23 13:31:33.928,1035.0,136.0,8.0,1043.927679487425,1,1,1,2.0,3.0
2021-09-23 13:31:33.937,1095.0,-188.0,0.0,1111.0216019502052,1,1,1,2.0,3.0
2021-09-23 13:31:33.947,936.0,1.0,22.0,936.2590453501638,1,1,1,2.0,3.0
2021-09-23 13:31:33.961,1157.0,-97.0,50.0,1162.135104021903,1,1,1,2.0,3.0
2021-09-23 13:31:33.966,1007.0,-117.0,-27.0,1014.1336203873728,1,1,1,2.0,3.0
2021-09-23 13:31:33.976,977.0,11.0,-30.0,977.5223782604672,1,1,1,2.0,3.0
2021-09-23 13:31:33.986,1044.0,-55.0,-5.0,1045.4597074971373,1,1,1,2.0,3.0
2021-09-23 13:31:33.996,1031.0,156.0,48.0,1043.839547056922,1,1,1,2.0,3.0
2021-09-23 13:31:34.006,1000.0,156.0,48.0,1013.2324511186956,1,1,1,2.0,3.0
2021-09-23 13:31:34.007,1000.0,238.0,27.0,1028.2864386930326,1,1,1,2.0,3.0
2021-09-23 13:31:34.015,874.0,137.0,-27.0,885.0841767877223,1,1,1,2.0,3.0
2021-09-23 13:31:34.025,1047.0,-26.0,8.0,1047.3533310206255,1,1,1,2.0,3.0
2021-09-23 13:31:34.034,1125.0,-26.0,8.0,1125.3288408283154,1,1,1,2.0,3.0
2021-09-23 13:31:34.035,1125.0,7.0,23.0,1125.2568595658504,1,1,1,2.0,3.0
2021-09-23 13:31:34.044,1100.0,-262.0,-32.0,1131.2241157259689,1,1,1,2.0,3.0
2021-09-23 13:31:34.055,918.0,-76.0,-60.0,923.0926280715278,1,1,1,2.0,3.0
2021-09-23 13:31:34.064,1009.0,159.0,24.0,1021.7328417937832,1,1,1,2.0,3.0
2021-09-23 13:31:34.073,971.0,159.0,24.0,984.2245678705648,1,1,1,2.0,3.0
2021-09-23 13:31:34.074,971.0,128.0,-6.0,979.4187051511728,1,1,1,2.0,3.0
2021-09-23 13:31:34.083,1016.0,110.0,-6.0,1021.9549892240852,1,1,1,2.0,3.0
2021-09-23 13:31:34.084,1016.0,110.0,19.0,1022.113985815672,1,1,1,2.0,3.0
2021-09-23 13:31:34.093,832.0,360.0,8.0,906.580388051716,1,1,1,2.0,3.0
2021-09-23 13:31:34.103,1178.0,360.0,8.0,1231.8068030336576,1,1,1,2.0,3.0
2021-09-23 13:31:34.104,1178.0,130.0,47.0,1186.0830493688036,1,1,1,2.0,3.0
2021-09-23 13:31:34.113,1144.0,130.0,47.0,1152.321569701791,1,1,1,2.0,3.0
2021-09-23 13:31:34.114,1144.0,-98.0,60.0,1149.7564959590356,1,1,1,2.0,3.0
2021-09-23 13:31:34.122,1000.0,-145.0,60.0,1012.237620324398,1,1,1,2.0,3.0
2021-09-23 13:31:34.123,1000.0,-145.0,-10.0,1010.5072983407888,1,1,1,2.0,3.0
2021-09-23 13:31:34.132,971.0,-9.0,-17.0,971.1905065433868,1,1,1,2.0,3.0
2021-09-23 13:31:34.142,1022.0,-45.0,37.0,1023.659122950604,1,1,1,2.0,3.0
2021-09-23 13:31:34.153,988.0,51.0,37.0,990.0070706818208,1,1,1,2.0,3.0
2021-09-23 13:31:34.154,988.0,51.0,28.0,989.7115741467308,1,1,1,2.0,3.0
2021-09-23 13:31:34.161,938.0,51.0,28.0,939.8026388556268,1,1,1,2.0,3.0
2021-09-23 13:31:34.162,938.0,-16.0,-29.0,938.584572641166,1,1,1,2.0,3.0
2021-09-23 13:31:34.171,838.0,240.0,3.0,871.6954743486971,1,1,1,2.0,3.0
2021-09-23 13:31:34.181,1107.0,-25.0,31.0,1107.7161188680068,1,1,1,2.0,3.0
2021-09-23 13:31:34.191,1005.0,116.0,31.0,1012.1472224928546,1,1,1,2.0,3.0
2021-09-23 13:31:34.201,1088.0,116.0,31.0,1094.6054083549925,1,1,1,2.0,3.0
2021-09-23 13:31:34.202,1088.0,-250.0,4.0,1116.360156938611,1,1,1,2.0,3.0
2021-09-23 13:31:34.210,970.0,-12.0,-5.0,970.0871094906888,1,1,1,2.0,3.0
2021-09-23 13:31:34.220,1127.0,-268.0,8.0,1158.4545739907112,1,1,1,2.0,3.0
2021-09-23 13:31:34.230,984.0,153.0,38.0,996.5485437247902,1,1,1,2.0,3.0
2021-09-23 13:31:34.239,993.0,153.0,38.0,1005.4362237357476,1,1,1,2.0,3.0
2021-09-23 13:31:34.240,993.0,127.0,11.0,1001.1488400832316,1,1,1,2.0,3.0
2021-09-23 13:31:34.250,862.0,407.0,-9.0,953.2963862304316,1,1,1,2.0,3.0
2021-09-23 13:31:34.260,1130.0,104.0,-9.0,1134.8114380812349,1,1,1,2.0,3.0
2021-09-23 13:31:34.261,1130.0,104.0,42.0,1135.5527288505805,1,1,1,2.0,3.0
2021-09-23 13:31:34.269,994.0,171.0,-9.0,1008.6416608488864,1,1,1,2.0,3.0
2021-09-23 13:31:34.279,1001.0,-109.0,-39.0,1007.6720696734628,1,1,1,2.0,3.0
2021-09-23 13:31:34.288,933.0,8.0,-39.0,933.849024200379,1,1,1,2.0,3.0
2021-09-23 13:31:34.289,933.0,8.0,3.0,933.0391202945352,1,1,1,2.0,3.0
2021-09-23 13:31:34.298,1037.0,-115.0,24.0,1043.6330772833908,1,1,1,2.0,3.0
2021-09-23 13:31:34.309,1028.0,-115.0,24.0,1034.690775062772,1,1,1,2.0,3.0
2021-09-23 13:31:34.310,1028.0,75.0,74.0,1033.385213751387,1,1,1,2.0,3.0
2021-09-23 13:31:34.318,922.0,-5.0,-48.0,923.2621512874878,1,1,1,2.0,3.0
2021-09-23 13:31:34.327,981.0,212.0,-48.0,1004.7930135107428,1,1,1,2.0,3.0
2021-09-23 13:31:34.328,981.0,212.0,26.0,1003.9825695698108,1,1,1,2.0,3.0
2021-09-23 13:31:34.337,1025.0,155.0,26.0,1036.9792669094209,1,1,1,2.0,3.0
2021-09-23 13:31:34.338,1025.0,155.0,-7.0,1036.6769024146338,1,1,1,2.0,3.0
2021-09-23 13:31:34.347,980.0,155.0,-7.0,992.2066317053116,1,1,1,2.0,3.0
2021-09-23 13:31:34.348,980.0,23.0,6.0,980.288222922218,1,1,1,2.0,3.0
2021-09-23 13:31:34.357,1057.0,-242.0,-5.0,1084.360641115307,1,1,1,2.0,3.0
2021-09-23 13:31:34.366,936.0,-242.0,-5.0,966.7910839473024,1,1,1,2.0,3.0
2021-09-23 13:31:34.367,936.0,14.0,2.0,936.1068315101649,1,1,1,2.0,3.0
2021-09-23 13:31:34.376,1136.0,-167.0,60.0,1149.7760651535584,1,1,1,2.0,3.0
2021-09-23 13:31:34.386,1029.0,-77.0,-7.0,1031.9006735146556,1,1,1,2.0,3.0
2021-09-23 13:31:34.417,932.0,-52.0,-38.0,934.222671529652,1,1,1,2.0,3.0
2021-09-23 13:31:34.420,902.0,366.0,29.0,973.858819336766,1,1,1,2.0,3.0
2021-09-23 13:31:34.422,1071.0,111.0,31.0,1077.1828999756726,1,1,1,2.0,3.0
2021-09-23 13:31:34.425,979.0,190.0,13.0,997.351492704553,1,1,1,2.0,3.0
2021-09-23 13:31:34.435,948.0,54.0,-21.0,949.7689192640491,1,1,1,2.0,3.0
2021-09-23 13:31:34.445,1105.0,-36.0,-9.0,1105.622901354707,1,1,1,2.0,3.0
2021-09-23 13:31:34.455,1116.0,-64.0,-9.0,1117.8698493116271,1,1,1,2.0,3.0
2021-09-23 13:31:34.456,1116.0,-64.0,25.0,1118.1131427543455,1,1,1,2.0,3.0
2021-09-23 13:31:34.467,1032.0,-3.0,32.0,1032.500363196062,1,1,1,2.0,3.0
2021-09-23 13:31:34.474,940.0,-6.0,-46.0,941.1439847334732,1,1,1,2.0,3.0
2021-09-23 13:31:34.484,976.0,189.0,16.0,994.260026351256,1,1,1,2.0,3.0
2021-09-23 13:31:34.493,981.0,189.0,16.0,999.1686544322736,1,1,1,2.0,3.0
2021-09-23 13:31:34.494,981.0,126.0,1.0,989.0591488884778,1,1,1,2.0,3.0
2021-09-23 13:31:34.503,1027.0,126.0,1.0,1034.7009229724308,1,1,1,2.0,3.0
2021-09-23 13:31:34.504,1027.0,132.0,-1.0,1035.4486950110083,1,1,1,2.0,3.0
2021-09-23 13:31:34.513,833.0,333.0,-24.0,897.4151770501767,1,1,1,2.0,3.0
2021-09-23 13:31:34.523,905.0,333.0,-24.0,964.6190958093252,1,1,1,2.0,3.0
2021-09-23 13:31:34.524,905.0,-17.0,18.0,905.3386106866316,1,1,1,2.0,3.0
2021-09-23 13:31:34.532,1127.0,-17.0,18.0,1127.2719281522095,1,1,1,2.0,3.0
2021-09-23 13:31:34.533,1127.0,-58.0,66.0,1130.4198335131953,1,1,1,2.0,3.0
2021-09-23 13:31:34.542,998.0,-100.0,66.0,1005.166652849168,1,1,1,2.0,3.0
2021-09-23 13:31:34.543,998.0,-100.0,0.0,1002.9975074744702,1,1,1,2.0,3.0
2021-09-23 13:31:34.552,959.0,20.0,-42.0,960.1275956871566,1,1,1,2.0,3.0
2021-09-23 13:31:34.562,1026.0,-60.0,34.0,1028.3151267972285,1,1,1,2.0,3.0
2021-09-23 13:31:34.572,1015.0,-60.0,34.0,1017.3401594353778,1,1,1,2.0,3.0
2021-09-23 13:31:34.573,1015.0,108.0,46.0,1021.7656287035692,1,1,1,2.0,3.0
2021-09-23 13:31:34.581,1057.0,168.0,46.0,1071.25580511846,1,1,1,2.0,3.0
2021-09-23 13:31:34.582,1057.0,168.0,52.0,1071.5302142263652,1,1,1,2.0,3.0
2021-09-23 13:31:34.591,838.0,210.0,-1.0,863.9126113213072,1,1,1,2.0,3.0
2021-09-23 13:31:34.601,1061.0,-23.0,15.0,1061.3552656862828,1,1,1,2.0,3.0
2021-09-23 13:31:34.611,1070.0,-23.0,15.0,1070.3522784578915,1,1,1,2.0,3.0
2021-09-23 13:31:34.612,1070.0,-35.0,-7.0,1070.5951615806975,1,1,1,2.0,3.0
2021-09-23 13:31:34.621,1079.0,-279.0,-34.0,1115.005829581173,1,1,1,2.0,3.0
2021-09-23 13:31:34.630,961.0,-31.0,0.0,961.499869994791,1,1,1,2.0,3.0
2021-09-23 13:31:34.640,1005.0,132.0,-2.0,1013.633562980232,1,1,1,2.0,3.0
2021-09-23 13:31:34.650,978.0,142.0,-21.0,988.4781231772406,1,1,1,2.0,3.0
2021-09-23 13:31:34.659,1011.0,142.0,-21.0,1021.139559511823,1,1,1,2.0,3.0
2021-09-23 13:31:34.660,1011.0,109.0,38.0,1017.5686709013796,1,1,1,2.0,3.0
2021-09-23 13:31:34.669,875.0,369.0,0.0,949.6241361717804,1,1,1,2.0,3.0
2021-09-23 13:31:34.679,1165.0,369.0,0.0,1222.0417341482246,1,1,1,2.0,3.0
2021-09-23 13:31:34.680,1165.0,33.0,-4.0,1165.474152437539,1,1,1,2.0,3.0
2021-09-23 13:31:34.689,1058.0,94.0,-78.0,1065.027699170308,1,1,1,2.0,3.0
2021-09-23 13:31:34.706,1004.0,94.0,-78.0,1011.4029859556476,1,1,1,2.0,3.0
2021-09-23 13:31:34.707,1004.0,-99.0,-8.0,1008.9008871043776,1,1,1,2.0,3.0
2021-09-23 13:31:34.709,960.0,31.0,-8.0,960.533705811514,1,1,1,2.0,3.0
2021-09-23 13:31:34.710,960.0,31.0,32.0,961.0332980703636,1,1,1,2.0,3.0
2021-09-23 13:31:34.723,1050.0,-81.0,29.0,1053.5188655168924,1,1,1,2.0,3.0
2021-09-23 13:31:34.728,989.0,65.0,40.0,991.940522410492,1,1,1,2.0,3.0
2021-09-23 13:31:34.738,979.0,1.0,0.0,979.0005107250968,1,1,1,2.0,3.0
2021-09-23 13:31:34.747,993.0,245.0,0.0,1022.7775906813758,1,1,1,2.0,3.0
2021-09-23 13:31:34.748,993.0,245.0,-1.0,1022.778079546096,1,1,1,2.0,3.0
2021-09-23 13:31:34.758,1155.0,-51.0,23.0,1156.3541844953909,1,1,1,2.0,3.0
2021-09-23 13:31:34.768,970.0,170.0,37.0,985.4790713150636,1,1,1,2.0,3.0
2021-09-23 13:31:34.777,1139.0,-238.0,3.0,1163.6038844899067,1,1,1,2.0,3.0
2021-09-23 13:31:34.786,934.0,-238.0,3.0,963.851129583817,1,1,1,2.0,3.0
2021-09-23 13:31:34.787,934.0,-62.0,-26.0,936.4165739669498,1,1,1,2.0,3.0
2021-09-23 13:31:34.796,1097.0,-249.0,0.0,1124.904440385938,1,1,1,2.0,3.0
2021-09-23 13:31:34.806,1046.0,-120.0,-4.0,1052.868462819549,1,1,1,2.0,3.0
2021-09-23 13:31:34.817,1019.0,-120.0,-4.0,1026.0492190923396,1,1,1,2.0,3.0
2021-09-23 13:31:34.818,1019.0,114.0,13.0,1025.439418005764,1,1,1,2.0,3.0
2021-09-23 13:31:34.825,825.0,114.0,13.0,832.9405741107826,1,1,1,2.0,3.0
2021-09-23 13:31:34.826,825.0,419.0,11.0,925.3685752174644,1,1,1,2.0,3.0
2021-09-23 13:31:34.835,1116.0,104.0,11.0,1120.889379020071,1,1,1,2.0,3.0
2021-09-23 13:31:34.836,1116.0,104.0,15.0,1120.9357697923642,1,1,1,2.0,3.0
2021-09-23 13:31:34.845,1018.0,119.0,37.0,1025.5993369732646,1,1,1,2.0,3.0
2021-09-23 13:31:34.855,995.0,-59.0,-16.0,996.8761206890252,1,1,1,2.0,3.0
2021-09-23 13:31:34.866,1094.0,-47.0,-24.0,1095.2721123081697,1,1,1,2.0,3.0
2021-09-23 13:31:34.874,1098.0,-82.0,-24.0,1101.319208948977,1,1,1,2.0,3.0
2021-09-23 13:31:34.875,1098.0,-82.0,48.0,1102.103443420807,1,1,1,2.0,3.0
2021-09-23 13:31:34.884,1012.0,40.0,53.0,1014.1760202252862,1,1,1,2.0,3.0
2021-09-23 13:31:34.894,918.0,-45.0,-59.0,920.994028210824,1,1,1,2.0,3.0
2021-09-23 13:31:34.904,1025.0,223.0,17.0,1049.115341609301,1,1,1,2.0,3.0
2021-09-23 13:31:34.914,1039.0,195.0,11.0,1057.197710932066,1,1,1,2.0,3.0
2021-09-23 13:31:34.931,1042.0,109.0,0.0,1047.68554442638,1,1,1,2.0,3.0
2021-09-23 13:31:34.952,1077.0,109.0,0.0,1082.5017321002308,1,1,1,2.0,3.0
2021-09-23 13:31:34.953,1077.0,-236.0,-6.0,1102.570179172283,1,1,1,2.0,3.0
2021-09-23 13:31:34.981,1105.0,-261.0,-5.0,1135.4166636085629,1,1,1,2.0,3.0
2021-09-23 13:31:34.990,1039.0,-117.0,-5.0,1045.5787870839767,1,1,1,2.0,3.0
2021-09-23 13:31:34.991,1039.0,-117.0,-4.0,1045.57448323876,1,1,1,2.0,3.0
2021-09-23 13:31:34.993,1072.0,-98.0,-4.0,1076.4775891768486,1,1,1,2.0,3.0
2021-09-23 13:31:34.994,1072.0,-98.0,-10.0,1076.5166046095155,1,1,1,2.0,3.0
2021-09-23 13:31:34.996,1046.0,115.0,38.0,1052.988603926937,1,1,1,2.0,3.0
2021-09-23 13:31:35.002,1007.0,115.0,38.0,1014.2573637888956,1,1,1,2.0,3.0
2021-09-23 13:31:35.003,1007.0,241.0,37.0,1036.097968340832,1,1,1,2.0,3.0
2021-09-23 13:31:35.011,923.0,120.0,-24.0,931.0773329858268,1,1,1,2.0,3.0
2021-09-23 13:31:35.021,1103.0,-38.0,12.0,1103.719620193462,1,1,1,2.0,3.0
2021-09-23 13:31:35.031,1096.0,-9.0,0.0,1096.0369519318224,1,1,1,2.0,3.0
2021-09-23 13:31:35.040,1011.0,-53.0,0.0,1012.3882654396978,1,1,1,2.0,3.0
2021-09-23 13:31:35.041,1011.0,-53.0,17.0,1012.5309871801456,1,1,1,2.0,3.0
2021-09-23 13:31:35.050,951.0,-53.0,-41.0,953.3577502700653,1,1,1,2.0,3.0
2021-09-23 13:31:35.061,963.0,194.0,14.0,982.4464361989412,1,1,1,2.0,3.0
2021-09-23 13:31:35.070,1002.0,194.0,14.0,1020.7036788412198,1,1,1,2.0,3.0
2021-09-23 13:31:35.071,1002.0,167.0,-2.0,1015.823311408042,1,1,1,2.0,3.0
2021-09-23 13:31:35.079,970.0,113.0,-2.0,976.5618259997674,1,1,1,2.0,3.0
2021-09-23 13:31:35.080,970.0,113.0,3.0,976.5643859981788,1,1,1,2.0,3.0
2021-09-23 13:31:35.089,874.0,327.0,-1.0,933.1698666373665,1,1,1,2.0,3.0
2021-09-23 13:31:35.099,960.0,-91.0,43.0,965.2616225666492,1,1,1,2.0,3.0
2021-09-23 13:31:35.110,1128.0,-151.0,19.0,1138.2205410200609,1,1,1,2.0,3.0
2021-09-23 13:31:35.119,984.0,-125.0,-1.0,991.9082618871564,1,1,1,2.0,3.0
2021-09-23 13:31:35.128,985.0,16.0,-13.0,985.2157124203816,1,1,1,2.0,3.0
2021-09-23 13:31:35.138,1059.0,-74.0,24.0,1061.8535680591744,1,1,1,2.0,3.0
2021-09-23 13:31:35.148,970.0,125.0,31.0,978.5121358470726,1,1,1,2.0,3.0
2021-09-23 13:31:35.158,1058.0,149.0,28.0,1068.807279166829,1,1,1,2.0,3.0
2021-09-23 13:31:35.167,869.0,199.0,28.0,891.9338540497272,1,1,1,2.0,3.0
2021-09-23 13:31:35.168,869.0,199.0,-17.0,891.6563239275545,1,1,1,2.0,3.0
2021-09-23 13:31:35.183,1071.0,-62.0,23.0,1073.0396078430656,1,1,1,2.0,3.0
2021-09-23 13:31:35.187,1050.0,-25.0,-14.0,1050.3908796252945,1,1,1,2.0,3.0
2021-09-23 13:31:35.197,1083.0,-235.0,0.0,1108.2030499867792,1,1,1,2.0,3.0
2021-09-23 13:31:35.207,975.0,17.0,5.0,975.1610123461664,1,1,1,2.0,3.0
2021-09-23 13:31:35.217,1037.0,93.0,14.0,1041.2559723718275,1,1,1,2.0,3.0
2021-09-23 13:31:35.227,961.0,156.0,14.0,973.680132281644,1,1,1,2.0,3.0
2021-09-23 13:31:35.228,961.0,156.0,8.0,973.6123458543448,1,1,1,2.0,3.0
2021-09-23 13:31:35.236,984.0,100.0,14.0,989.1673265934334,1,1,1,2.0,3.0
2021-09-23 13:31:35.245,859.0,100.0,14.0,864.9144466361977,1,1,1,2.0,3.0
2021-09-23 13:31:35.246,859.0,382.0,-8.0,940.1430742179618,1,1,1,2.0,3.0
2021-09-23 13:31:35.255,1136.0,142.0,38.0,1145.471082131714,1,1,1,2.0,3.0
2021-09-23 13:31:35.266,1022.0,124.0,-36.0,1030.1242643487242,1,1,1,2.0,3.0
2021-09-23 13:31:35.276,1020.0,-96.0,-11.0,1024.5667376994045,1,1,1,2.0,3.0
2021-09-23 13:31:35.284,963.0,-96.0,-11.0,967.8357298632862,1,1,1,2.0,3.0
2021-09-23 13:31:35.285,963.0,21.0,20.0,963.4365573300612,1,1,1,2.0,3.0
2021-09-23 13:31:35.294,1063.0,-121.0,17.0,1069.9995327101783,1,1,1,2.0,3.0
2021-09-23 13:31:35.304,987.0,77.0,60.0,991.8155070374733,1,1,1,2.0,3.0
2021-09-23 13:31:35.314,930.0,-11.0,-55.0,931.6898625615715,1,1,1,2.0,3.0
2021-09-23 13:31:35.324,1014.0,186.0,45.0,1031.8997044286814,1,1,1,2.0,3.0
2021-09-23 13:31:35.333,1100.0,28.0,45.0,1101.2760780113222,1,1,1,2.0,3.0
2021-09-23 13:31:35.334,1100.0,28.0,54.0,1101.6805344563368,1,1,1,2.0,3.0
2021-09-23 13:31:35.343,969.0,136.0,37.0,979.1966094712542,1,1,1,2.0,3.0
2021-09-23 13:31:35.353,1060.0,-238.0,-5.0,1086.401859350397,1,1,1,2.0,3.0
2021-09-23 13:31:35.363,969.0,-20.0,22.0,969.4560330412102,1,1,1,2.0,3.0
2021-09-23 13:31:35.373,1127.0,-328.0,22.0,1173.9663538619836,1,1,1,2.0,3.0
2021-09-23 13:31:35.374,1127.0,-328.0,-20.0,1173.9305771637437,1,1,1,2.0,3.0
2021-09-23 13:31:35.386,1020.0,-328.0,-20.0,1071.6268007100232,1,1,1,2.0,3.0
2021-09-23 13:31:35.387,1020.0,-137.0,-30.0,1029.5965229156516,1,1,1,2.0,3.0
2021-09-23 13:31:35.392,984.0,54.0,9.0,985.521689259044,1,1,1,2.0,3.0
2021-09-23 13:31:35.402,885.0,385.0,18.0,965.2844140459327,1,1,1,2.0,3.0
2021-09-23 13:31:35.412,1078.0,110.0,27.0,1083.9340385835294,1,1,1,2.0,3.0
2021-09-23 13:31:35.436,1011.0,190.0,27.0,1029.052962679764,1,1,1,2.0,3.0
2021-09-23 13:31:35.437,1011.0,190.0,13.0,1028.780831858759,1,1,1,2.0,3.0
2021-09-23 13:31:35.444,991.0,-2.0,13.0,991.0872817264884,1,1,1,2.0,3.0
2021-09-23 13:31:35.445,991.0,-2.0,-27.0,991.3697594742335,1,1,1,2.0,3.0
2021-09-23 13:31:35.446,1107.0,-22.0,-9.0,1107.2551648107133,1,1,1,2.0,3.0
2021-09-23 13:31:35.450,1131.0,-22.0,-9.0,1131.2497513811882,1,1,1,2.0,3.0
2021-09-23 13:31:35.451,1131.0,-135.0,43.0,1139.839901038738,1,1,1,2.0,3.0
2021-09-23 13:31:35.461,992.0,42.0,40.0,993.694117925632,1,1,1,2.0,3.0
2021-09-23 13:31:35.471,910.0,-17.0,-50.0,911.5311294739198,1,1,1,2.0,3.0
2021-09-23 13:31:35.480,970.0,206.0,26.0,991.973789976328,1,1,1,2.0,3.0
2021-09-23 13:31:35.490,1019.0,206.0,26.0,1039.9389405152592,1,1,1,2.0,3.0
2021-09-23 13:31:35.491,1019.0,150.0,-5.0,1029.993203861074,1,1,1,2.0,3.0
2021-09-23 13:31:35.499,1057.0,124.0,2.0,1064.250440450931,1,1,1,2.0,3.0
2021-09-23 13:31:35.509,1068.0,-240.0,10.0,1094.6798618774349,1,1,1,2.0,3.0
2021-09-23 13:31:35.519,992.0,-48.0,29.0,993.5839169390777,1,1,1,2.0,3.0
2021-09-23 13:31:35.529,1123.0,-194.0,35.0,1140.1710398006082,1,1,1,2.0,3.0
2021-09-23 13:31:35.539,1002.0,-116.0,-24.0,1008.977700447339,1,1,1,2.0,3.0
2021-09-23 13:31:35.549,992.0,-1.0,-35.0,992.6177512013372,1,1,1,2.0,3.0
2021-09-23 13:31:35.558,1042.0,-42.0,-24.0,1043.1222363654224,1,1,1,2.0,3.0
2021-09-23 13:31:35.568,1054.0,99.0,43.0,1059.5121518887831,1,1,1,2.0,3.0
2021-09-23 13:31:35.579,1007.0,205.0,34.0,1028.2169031872604,1,1,1,2.0,3.0
2021-09-23 13:31:35.587,905.0,122.0,34.0,913.8189098503052,1,1,1,2.0,3.0
2021-09-23 13:31:35.588,905.0,122.0,-30.0,913.6788275975316,1,1,1,2.0,3.0
2021-09-23 13:31:35.598,1077.0,-26.0,19.0,1077.481322343919,1,1,1,2.0,3.0
2021-09-23 13:31:35.607,1109.0,9.0,-7.0,1109.058609812845,1,1,1,2.0,3.0
2021-09-23 13:31:35.616,1029.0,9.0,-7.0,1029.0631661856332,1,1,1,2.0,3.0
2021-09-23 13:31:35.617,1029.0,-47.0,27.0,1030.4266106812263,1,1,1,2.0,3.0
2021-09-23 13:31:35.626,944.0,-68.0,27.0,946.831030332234,1,1,1,2.0,3.0
2021-09-23 13:31:35.627,944.0,-68.0,-23.0,946.725408975591,1,1,1,2.0,3.0
2021-09-23 13:31:35.637,997.0,137.0,-2.0,1006.370707045868,1,1,1,2.0,3.0
2021-09-23 13:31:35.646,972.0,171.0,15.0,987.041032581726,1,1,1,2.0,3.0
2021-09-23 13:31:35.656,983.0,107.0,16.0,988.935791646758,1,1,1,2.0,3.0
2021-09-23 13:31:35.665,889.0,355.0,16.0,957.3933360954628,1,1,1,2.0,3.0
2021-09-23 13:31:35.666,889.0,355.0,15.0,957.3771461655016,1,1,1,2.0,3.0
2021-09-23 13:31:35.675,1009.0,-62.0,37.0,1011.5799523517654,1,1,1,2.0,3.0
2021-09-23 13:31:35.686,1058.0,-140.0,57.0,1068.7436549519252,1,1,1,2.0,3.0
2021-09-23 13:31:35.695,1011.0,-126.0,-13.0,1018.904313466186,1,1,1,2.0,3.0
2021-09-23 13:31:35.706,949.0,6.0,5.0,949.0321385495856,1,1,1,2.0,3.0
2021-09-23 13:31:35.722,1074.0,-70.0,5.0,1076.290388324638,1,1,1,2.0,3.0
2021-09-23 13:31:35.723,1074.0,-70.0,46.0,1077.261342479159,1,1,1,2.0,3.0
2021-09-23 13:31:35.724,973.0,45.0,42.0,974.9451266609829,1,1,1,2.0,3.0
2021-09-23 13:31:35.734,996.0,171.0,19.0,1010.751205787062,1,1,1,2.0,3.0
2021-09-23 13:31:35.743,840.0,171.0,19.0,857.4392106732698,1,1,1,2.0,3.0
2021-09-23 13:31:35.744,840.0,223.0,-8.0,869.1334765155465,1,1,1,2.0,3.0
2021-09-23 13:31:35.754,1096.0,223.0,-8.0,1118.4851362445547,1,1,1,2.0,3.0
2021-09-23 13:31:35.755,1096.0,-8.0,36.0,1096.6202624427474,1,1,1,2.0,3.0
2021-09-23 13:31:35.763,1014.0,123.0,36.0,1022.0670232426052,1,1,1,2.0,3.0
2021-09-23 13:31:35.773,1085.0,-264.0,-26.0,1116.9588175040296,1,1,1,2.0,3.0
2021-09-23 13:31:35.783,968.0,-9.0,2.0,968.0439039630382,1,1,1,2.0,3.0
2021-09-23 13:31:35.792,1045.0,-6.0,-9.0,1045.055979361871,1,1,1,2.0,3.0
2021-09-23 13:31:35.802,981.0,-6.0,-9.0,981.0596312151469,1,1,1,2.0,3.0
2021-09-23 13:31:35.803,981.0,166.0,47.0,996.0552193528227,1,1,1,2.0,3.0
2021-09-23 13:31:35.812,1020.0,84.0,6.0,1023.470566259724,1,1,1,2.0,3.0
2021-09-23 13:31:35.821,858.0,84.0,6.0,862.1229610676194,1,1,1,2.0,3.0
2021-09-23 13:31:35.822,858.0,405.0,-10.0,948.8356021988212,1,1,1,2.0,3.0
2021-09-23 13:31:35.831,1092.0,57.0,-10.0,1093.532349772973,1,1,1,2.0,3.0
2021-09-23 13:31:35.832,1092.0,57.0,15.0,1093.5895025099685,1,1,1,2.0,3.0
2021-09-23 13:31:35.841,1016.0,176.0,23.0,1031.3878998708487,1,1,1,2.0,3.0
2021-09-23 13:31:35.851,1048.0,-90.0,0.0,1051.857404784508,1,1,1,2.0,3.0
2021-09-23 13:31:35.862,915.0,7.0,36.0,915.7346777314924,1,1,1,2.0,3.0
2021-09-23 13:31:35.870,1130.0,7.0,36.0,1130.594976107713,1,1,1,2.0,3.0
2021-09-23 13:31:35.871,1130.0,-112.0,47.0,1136.509128867868,1,1,1,2.0,3.0
2021-09-23 13:31:35.880,998.0,20.0,39.0,998.961961237764,1,1,1,2.0,3.0
2021-09-23 13:31:35.890,904.0,20.0,39.0,905.0618763377452,1,1,1,2.0,3.0
2021-09-23 13:31:35.891,904.0,-2.0,-55.0,905.6737823300396,1,1,1,2.0,3.0
2021-09-23 13:31:35.900,969.0,200.0,44.0,990.4024434541748,1,1,1,2.0,3.0
2021-09-23 13:31:35.910,1114.0,200.0,44.0,1132.6658818910366,1,1,1,2.0,3.0
2021-09-23 13:31:35.911,1114.0,15.0,23.0,1114.3383687193043,1,1,1,2.0,3.0
2021-09-23 13:31:35.919,971.0,84.0,23.0,974.8979433766388,1,1,1,2.0,3.0
2021-09-23 13:31:35.920,971.0,84.0,45.0,975.6649014902606,1,1,1,2.0,3.0
2021-09-23 13:31:35.929,1039.0,-277.0,-21.0,1075.4956996659726,1,1,1,2.0,3.0
2021-09-23 13:31:35.939,973.0,-22.0,-21.0,973.4752179691068,1,1,1,2.0,3.0
2021-09-23 13:31:35.940,973.0,-22.0,21.0,973.4752179691068,1,1,1,2.0,3.0
2021-09-23 13:31:35.949,1138.0,-185.0,18.0,1153.0797890866008,1,1,1,2.0,3.0
2021-09-23 13:31:35.958,993.0,-185.0,18.0,1010.2465045720276,1,1,1,2.0,3.0
2021-09-23 13:31:35.959,993.0,-110.0,-37.0,999.7589709524992,1,1,1,2.0,3.0
2021-09-23 13:31:35.970,986.0,46.0,4.0,987.0805438260852,1,1,1,2.0,3.0
2021-09-23 13:31:35.981,900.0,360.0,24.0,969.6267323047564,1,1,1,2.0,3.0
2021-09-23 13:31:35.988,1070.0,62.0,36.0,1072.3991794103538,1,1,1,2.0,3.0
2021-09-23 13:31:35.997,974.0,202.0,36.0,995.3773153935144,1,1,1,2.0,3.0
2021-09-23 13:31:35.998,974.0,202.0,36.0,995.3773153935144,1,1,1,2.0,3.0
2021-09-23 13:31:36.009,932.0,63.0,-31.0,934.6411075915718,1,1,1,2.0,3.0
2021-09-23 13:31:36.018,1103.0,-13.0,3.0,1103.0806860787654,1,1,1,2.0,3.0
2021-09-23 13:31:36.027,1137.0,-162.0,50.0,1149.5707894688348,1,1,1,2.0,3.0
2021-09-23 13:31:36.036,1016.0,-162.0,50.0,1030.0485425454472,1,1,1,2.0,3.0
2021-09-23 13:31:36.037,1016.0,0.0,46.0,1017.040805474392,1,1,1,2.0,3.0
2021-09-23 13:31:36.046,944.0,0.0,46.0,945.1200981885848,1,1,1,2.0,3.0
2021-09-23 13:31:36.047,944.0,-23.0,-28.0,944.695188936622,1,1,1,2.0,3.0
2021-09-23 13:31:36.056,972.0,193.0,18.0,991.1392434970982,1,1,1,2.0,3.0
2021-09-23 13:31:36.067,999.0,158.0,0.0,1011.4173223748938,1,1,1,2.0,3.0
2021-09-23 13:31:36.075,1005.0,158.0,0.0,1017.3440912493668,1,1,1,2.0,3.0
2021-09-23 13:31:36.076,1005.0,85.0,-3.0,1008.5925837522304,1,1,1,2.0,3.0
2021-09-23 13:31:36.085,1020.0,-241.0,-18.0,1048.2389994652938,1,1,1,2.0,3.0
2021-09-23 13:31:36.095,958.0,-42.0,19.0,959.1084401672211,1,1,1,2.0,3.0
2021-09-23 13:31:36.105,1119.0,-109.0,20.0,1124.4740993015355,1,1,1,2.0,3.0
2021-09-23 13:31:36.115,1026.0,-92.0,-17.0,1030.256764112714,1,1,1,2.0,3.0
2021-09-23 13:31:36.124,963.0,21.0,-17.0,963.3789493236812,1,1,1,2.0,3.0
2021-09-23 13:31:36.125,963.0,21.0,-49.0,964.4744682986689,1,1,1,2.0,3.0
2021-09-23 13:31:36.135,1077.0,-28.0,-5.0,1077.3755148507878,1,1,1,2.0,3.0
2021-09-23 13:31:36.144,1068.0,109.0,45.0,1074.4905769712454,1,1,1,2.0,3.0
2021-09-23 13:31:36.154,981.0,226.0,36.0,1007.3395653899432,1,1,1,2.0,3.0
2021-09-23 13:31:36.163,896.0,183.0,36.0,915.20544141739,1,1,1,2.0,3.0
2021-09-23 13:31:36.164,896.0,183.0,-9.0,914.54141513657,1,1,1,2.0,3.0
2021-09-23 13:31:36.175,1086.0,-39.0,30.0,1087.1140694517755,1,1,1,2.0,3.0
2021-09-23 13:31:36.183,1085.0,64.0,30.0,1087.2998666421329,1,1,1,2.0,3.0
2021-09-23 13:31:36.184,1085.0,64.0,15.0,1086.989420371698,1,1,1,2.0,3.0
2021-09-23 13:31:36.193,1101.0,-251.0,-17.0,1129.3763765901958,1,1,1,2.0,3.0
2021-09-23 13:31:36.202,956.0,-251.0,-17.0,988.5474191964691,1,1,1,2.0,3.0
2021-09-23 13:31:36.203,956.0,-60.0,-40.0,958.7158077344924,1,1,1,2.0,3.0
2021-09-23 13:31:36.212,1005.0,158.0,-40.0,1018.1301488513146,1,1,1,2.0,3.0
2021-09-23 13:31:36.213,1005.0,158.0,6.0,1017.3617842242749,1,1,1,2.0,3.0
2021-09-23 13:31:36.224,976.0,156.0,0.0,988.3885875504634,1,1,1,2.0,3.0
2021-09-23 13:31:36.232,996.0,81.0,15.0,999.4008204919586,1,1,1,2.0,3.0
2021-09-23 13:31:36.241,871.0,81.0,15.0,874.886849826879,1,1,1,2.0,3.0
2021-09-23 13:31:36.242,871.0,354.0,-16.0,940.3260072974692,1,1,1,2.0,3.0
2021-09-23 13:31:36.251,1122.0,97.0,7.0,1126.2069081656357,1,1,1,2.0,3.0
2021-09-23 13:31:36.261,1026.0,-114.0,56.0,1033.8317077745294,1,1,1,2.0,3.0
2021-09-23 13:31:36.271,1023.0,-113.0,2.0,1029.2239795107769,1,1,1,2.0,3.0
2021-09-23 13:31:36.280,970.0,-113.0,2.0,976.5618259997674,1,1,1,2.0,3.0
2021-09-23 13:31:36.281,970.0,3.0,1.0,970.0051546254792,1,1,1,2.0,3.0
2021-09-23 13:31:36.291,1069.0,-105.0,35.0,1074.7143806612062,1,1,1,2.0,3.0
2021-09-23 13:31:36.300,961.0,96.0,40.0,966.611090356406,1,1,1,2.0,3.0
2021-09-23 13:31:36.310,954.0,0.0,-14.0,954.1027198368108,1,1,1,2.0,3.0
2021-09-23 13:31:36.320,863.0,265.0,-12.0,902.8499321592708,1,1,1,2.0,3.0
2021-09-23 13:31:36.331,1119.0,5.0,34.0,1119.5275789367586,1,1,1,2.0,3.0
2021-09-23 13:31:36.339,972.0,109.0,32.0,978.6158592624583,1,1,1,2.0,3.0
2021-09-23 13:31:36.349,1054.0,-251.0,-2.0,1083.4763495342204,1,1,1,2.0,3.0
2021-09-23 13:31:36.359,942.0,-40.0,-4.0,942.8573593073344,1,1,1,2.0,3.0
2021-09-23 13:31:36.368,1113.0,-40.0,-4.0,1113.7257292529432,1,1,1,2.0,3.0
2021-09-23 13:31:36.369,1113.0,-163.0,-1.0,1124.8728817070842,1,1,1,2.0,3.0
2021-09-23 13:31:36.379,994.0,167.0,38.0,1008.647113712224,1,1,1,2.0,3.0
2021-09-23 13:31:36.388,1021.0,74.0,0.0,1023.6781720833944,1,1,1,2.0,3.0
2021-09-23 13:31:36.398,878.0,403.0,15.0,966.1873524322287,1,1,1,2.0,3.0
2021-09-23 13:31:36.407,1077.0,403.0,15.0,1150.0273909781454,1,1,1,2.0,3.0
2021-09-23 13:31:36.408,1077.0,112.0,30.0,1083.2234303226644,1,1,1,2.0,3.0
2021-09-23 13:31:36.417,986.0,243.0,30.0,1015.945372547166,1,1,1,2.0,3.0
2021-09-23 13:31:36.418,986.0,243.0,15.0,1015.613115315079,1,1,1,2.0,3.0
2021-09-23 13:31:36.428,1058.0,-148.0,29.0,1068.6949985847225,1,1,1,2.0,3.0
2021-09-23 13:31:36.437,919.0,23.0,44.0,920.3401545081036,1,1,1,2.0,3.0
2021-09-23 13:31:36.465,1128.0,23.0,44.0,1129.0921131599491,1,1,1,2.0,3.0
2021-09-23 13:31:36.466,1128.0,-123.0,53.0,1135.9234129112754,1,1,1,2.0,3.0
2021-09-23 13:31:36.470,1015.0,12.0,41.0,1015.8986169889198,1,1,1,2.0,3.0
2021-09-23 13:31:36.473,933.0,-56.0,-57.0,936.41550606555,1,1,1,2.0,3.0
2021-09-23 13:31:36.477,958.0,195.0,22.0,977.8921208395128,1,1,1,2.0,3.0
2021-09-23 13:31:36.486,1124.0,39.0,20.0,1124.854212776038,1,1,1,2.0,3.0
2021-09-23 13:31:36.495,977.0,39.0,20.0,977.9826174324368,1,1,1,2.0,3.0
2021-09-23 13:31:36.496,977.0,70.0,27.0,979.876522833362,1,1,1,2.0,3.0
2021-09-23 13:31:36.506,1047.0,-223.0,-11.0,1070.541451789701,1,1,1,2.0,3.0
2021-09-23 13:31:36.515,959.0,-223.0,-11.0,984.6476527164424,1,1,1,2.0,3.0
2021-09-23 13:31:36.516,959.0,-55.0,20.0,960.7840548218938,1,1,1,2.0,3.0
2021-09-23 13:31:36.525,1108.0,-123.0,40.0,1115.5236438552076,1,1,1,2.0,3.0
2021-09-23 13:31:36.535,1034.0,-123.0,40.0,1042.0580598028116,1,1,1,2.0,3.0
2021-09-23 13:31:36.536,1034.0,-117.0,-15.0,1040.7064908032428,1,1,1,2.0,3.0
2021-09-23 13:31:36.544,1003.0,18.0,5.0,1003.1739629795024,1,1,1,2.0,3.0
2021-09-23 13:31:36.554,928.0,324.0,19.0,983.1179990214806,1,1,1,2.0,3.0
2021-09-23 13:31:36.565,1067.0,324.0,19.0,1115.2694741630833,1,1,1,2.0,3.0
2021-09-23 13:31:36.566,1067.0,101.0,39.0,1072.4789042214304,1,1,1,2.0,3.0
2021-09-23 13:31:36.576,981.0,240.0,31.0,1010.406848749552,1,1,1,2.0,3.0
2021-09-23 13:31:36.583,895.0,146.0,-17.0,906.9895258491136,1,1,1,2.0,3.0
2021-09-23 13:31:36.593,1082.0,-27.0,42.0,1083.1514206240972,1,1,1,2.0,3.0
2021-09-23 13:31:36.603,1089.0,-253.0,42.0,1118.791312086396,1,1,1,2.0,3.0
2021-09-23 13:31:36.604,1089.0,-253.0,70.0,1120.1919478375123,1,1,1,2.0,3.0
2021-09-23 13:31:36.614,1018.0,-48.0,40.0,1019.9156827895138,1,1,1,2.0,3.0
2021-09-23 13:31:36.622,952.0,-80.0,40.0,956.1924492485808,1,1,1,2.0,3.0
2021-09-23 13:31:36.623,952.0,-80.0,-44.0,956.3681299583336,1,1,1,2.0,3.0
2021-09-23 13:31:36.632,1009.0,156.0,-2.0,1020.9902056337268,1,1,1,2.0,3.0
2021-09-23 13:31:36.642,988.0,159.0,0.0,1000.7122463525666,1,1,1,2.0,3.0
2021-09-23 13:31:36.652,980.0,143.0,4.0,990.3862882734192,1,1,1,2.0,3.0
2021-09-23 13:31:36.663,1040.0,-231.0,-41.0,1066.134137901981,1,1,1,2.0,3.0
2021-09-23 13:31:36.671,982.0,-96.0,29.0,987.1073903076604,1,1,1,2.0,3.0
2021-09-23 13:31:36.681,1097.0,-109.0,38.0,1103.0566621892096,1,1,1,2.0,3.0
2021-09-23 13:31:36.691,1028.0,-111.0,-10.0,1034.0236941192402,1,1,1,2.0,3.0
2021-09-23 13:31:36.700,971.0,-111.0,-10.0,977.3750559534452,1,1,1,2.0,3.0
2021-09-23 13:31:36.701,971.0,19.0,-38.0,971.9290097532844,1,1,1,2.0,3.0
2021-09-23 13:31:36.711,1061.0,-65.0,12.0,1063.0569128696732,1,1,1,2.0,3.0
2021-09-23 13:31:36.721,1072.0,104.0,29.0,1077.4233151366273,1,1,1,2.0,3.0
2021-09-23 13:31:36.737,1006.0,104.0,29.0,1011.7771493762845,1,1,1,2.0,3.0
2021-09-23 13:31:36.738,1006.0,190.0,37.0,1024.4535128545365,1,1,1,2.0,3.0
2021-09-23 13:31:36.740,879.0,230.0,4.0,908.6016729018278,1,1,1,2.0,3.0
2021-09-23 13:31:36.749,1084.0,-18.0,4.0,1084.1568152255466,1,1,1,2.0,3.0
2021-09-23 13:31:36.750,1084.0,-18.0,30.0,1084.5644286993745,1,1,1,2.0,3.0
2021-09-23 13:31:36.760,1001.0,147.0,50.0,1012.9708781598808,1,1,1,2.0,3.0
2021-09-23 13:31:36.772,1080.0,-264.0,-3.0,1111.802590390938,1,1,1,2.0,3.0
2021-09-23 13:31:36.779,930.0,-96.0,-57.0,936.6776393188854,1,1,1,2.0,3.0
2021-09-23 13:31:36.788,1037.0,109.0,-57.0,1044.269601204593,1,1,1,2.0,3.0
2021-09-23 13:31:36.789,1037.0,109.0,6.0,1042.7300705359944,1,1,1,2.0,3.0
2021-09-23 13:31:36.798,985.0,176.0,40.0,1001.3995206709458,1,1,1,2.0,3.0
2021-09-23 13:31:36.808,987.0,99.0,4.0,991.960684704792,1,1,1,2.0,3.0
2021-09-23 13:31:36.819,867.0,395.0,4.0,952.7486552076576,1,1,1,2.0,3.0
2021-09-23 13:31:36.820,867.0,395.0,-13.0,952.8289458239606,1,1,1,2.0,3.0
2021-09-23 13:31:36.827,1109.0,395.0,-13.0,1177.3168647394805,1,1,1,2.0,3.0
2021-09-23 13:31:36.828,1109.0,87.0,9.0,1112.4437064409146,1,1,1,2.0,3.0
2021-09-23 13:31:36.837,1057.0,-128.0,27.0,1065.0643173067062,1,1,1,2.0,3.0
2021-09-23 13:31:36.847,1034.0,-86.0,0.0,1037.5702385862849,1,1,1,2.0,3.0
2021-09-23 13:31:36.857,943.0,1.0,14.0,943.1044480862128,1,1,1,2.0,3.0
2021-09-23 13:31:36.867,1108.0,1.0,14.0,1108.08889535091,1,1,1,2.0,3.0
2021-09-23 13:31:36.868,1108.0,-138.0,39.0,1117.241692741548,1,1,1,2.0,3.0
2021-09-23 13:31:36.877,960.0,60.0,49.0,963.1204493727666,1,1,1,2.0,3.0
2021-09-23 13:31:36.887,962.0,18.0,-21.0,962.3975270126166,1,1,1,2.0,3.0
2021-09-23 13:31:36.896,863.0,300.0,-2.0,913.6591268082424,1,1,1,2.0,3.0
2021-09-23 13:31:36.905,1128.0,300.0,-2.0,1167.2137764779852,1,1,1,2.0,3.0
2021-09-23 13:31:36.906,1128.0,20.0,29.0,1128.5499545877444,1,1,1,2.0,3.0
2021-09-23 13:31:36.916,1001.0,113.0,25.0,1007.6681001202728,1,1,1,2.0,3.0
2021-09-23 13:31:36.926,1072.0,-280.0,-23.0,1108.2025988058322,1,1,1,2.0,3.0
2021-09-23 13:31:36.935,975.0,-10.0,16.0,975.1825470136348,1,1,1,2.0,3.0
2021-09-23 13:31:36.945,1106.0,-202.0,20.0,1124.4732099965745,1,1,1,2.0,3.0
2021-09-23 13:31:36.954,984.0,191.0,20.0,1002.5652098492149,1,1,1,2.0,3.0
2021-09-23 13:31:36.955,984.0,191.0,44.0,1003.3309523781272,1,1,1,2.0,3.0
2021-09-23 13:31:36.965,1011.0,46.0,-10.0,1012.0953512392002,1,1,1,2.0,3.0
2021-09-23 13:31:36.976,885.0,398.0,-10.0,970.4272255043136,1,1,1,2.0,3.0
2021-09-23 13:31:36.977,885.0,398.0,19.0,970.5616930417148,1,1,1,2.0,3.0
2021-09-23 13:31:36.984,1093.0,119.0,39.0,1100.1504442575117,1,1,1,2.0,3.0
2021-09-23 13:31:36.993,973.0,240.0,39.0,1002.9207346545388,1,1,1,2.0,3.0
2021-09-23 13:31:36.994,973.0,240.0,39.0,1002.9207346545388,1,1,1,2.0,3.0
2021-09-23 13:31:37.003,971.0,36.0,39.0,972.4494845491976,1,1,1,2.0,3.0
2021-09-23 13:31:37.004,971.0,36.0,-37.0,972.3713282486276,1,1,1,2.0,3.0
2021-09-23 13:31:37.013,928.0,-3.0,42.0,928.954788996752,1,1,1,2.0,3.0
2021-09-23 13:31:37.023,1145.0,-3.0,42.0,1145.7739742200465,1,1,1,2.0,3.0
2021-09-23 13:31:37.024,1145.0,-153.0,62.0,1156.839660454291,1,1,1,2.0,3.0
2021-09-23 13:31:37.041,987.0,4.0,39.0,987.7783152104524,1,1,1,2.0,3.0
2021-09-23 13:31:37.043,956.0,-26.0,-22.0,956.6065021731768,1,1,1,2.0,3.0
2021-09-23 13:31:37.052,964.0,228.0,10.0,990.64625371522,1,1,1,2.0,3.0
2021-09-23 13:31:37.064,1018.0,163.0,0.0,1030.9670217810074,1,1,1,2.0,3.0
2021-09-23 13:31:37.071,1008.0,163.0,0.0,1021.0940211361536,1,1,1,2.0,3.0
2021-09-23 13:31:37.072,1008.0,58.0,2.0,1009.6692527753828,1,1,1,2.0,3.0
2021-09-23 13:31:37.081,1046.0,-237.0,2.0,1072.5152679565915,1,1,1,2.0,3.0
2021-09-23 13:31:37.082,1046.0,-237.0,-23.0,1072.7599917968605,1,1,1,2.0,3.0
2021-09-23 13:31:37.091,982.0,-77.0,23.0,985.2827005484264,1,1,1,2.0,3.0
2021-09-23 13:31:37.101,1057.0,-133.0,51.0,1066.5547337103708,1,1,1,2.0,3.0
2021-09-23 13:31:37.112,1034.0,-108.0,-2.0,1039.6268561363736,1,1,1,2.0,3.0
2021-09-23 13:31:37.120,943.0,-6.0,-2.0,943.021208669243,1,1,1,2.0,3.0
2021-09-23 13:31:37.121,943.0,-6.0,-47.0,944.1895996038083,1,1,1,2.0,3.0
2021-09-23 13:31:37.130,938.0,318.0,28.0,990.8339921500472,1,1,1,2.0,3.0
2021-09-23 13:31:37.140,1091.0,118.0,25.0,1097.647484395605,1,1,1,2.0,3.0
2021-09-23 13:31:37.150,999.0,203.0,35.0,1020.0171567184544,1,1,1,2.0,3.0
2021-09-23 13:31:37.160,885.0,203.0,35.0,908.6578013751932,1,1,1,2.0,3.0
2021-09-23 13:31:37.161,885.0,174.0,-3.0,901.9478920647246,1,1,1,2.0,3.0
2021-09-23 13:31:37.170,1079.0,174.0,-3.0,1092.943731397001,1,1,1,2.0,3.0
2021-09-23 13:31:37.171,1079.0,-13.0,-3.0,1079.0824806287978,1,1,1,2.0,3.0
2021-09-23 13:31:37.173,1079.0,-13.0,45.0,1080.01620358215,1,1,1,2.0,3.0
2021-09-23 13:31:37.179,1085.0,-13.0,45.0,1086.010589266974,1,1,1,2.0,3.0
2021-09-23 13:31:37.180,1085.0,45.0,9.0,1085.9700732524814,1,1,1,2.0,3.0
2021-09-23 13:31:37.189,1020.0,-66.0,24.0,1022.4147886254384,1,1,1,2.0,3.0
2021-09-23 13:31:37.198,952.0,-66.0,24.0,954.5868216144617,1,1,1,2.0,3.0
2021-09-23 13:31:37.199,952.0,-86.0,-34.0,956.4810505179912,1,1,1,2.0,3.0
2021-09-23 13:31:37.208,1009.0,-86.0,-34.0,1013.2289968215478,1,1,1,2.0,3.0
2021-09-23 13:31:37.209,1009.0,145.0,0.0,1019.3654889194552,1,1,1,2.0,3.0
2021-09-23 13:31:37.219,991.0,174.0,8.0,1006.1913336935476,1,1,1,2.0,3.0
2021-09-23 13:31:37.228,973.0,123.0,-24.0,981.0372062261451,1,1,1,2.0,3.0
2021-09-23 13:31:37.238,860.0,371.0,-5.0,936.6247914720174,1,1,1,2.0,3.0
2021-09-23 13:31:37.247,987.0,-64.0,-5.0,989.08543614796,1,1,1,2.0,3.0
2021-09-23 13:31:37.248,987.0,-64.0,20.0,989.274987048596,1,1,1,2.0,3.0
2021-09-23 13:31:37.258,1068.0,-96.0,20.0,1072.4924242156678,1,1,1,2.0,3.0
2021-09-23 13:31:37.268,1049.0,-109.0,-2.0,1054.6497048783544,1,1,1,2.0,3.0
2021-09-23 13:31:37.277,947.0,38.0,-16.0,947.8971463191564,1,1,1,2.0,3.0
2021-09-23 13:31:37.286,1074.0,38.0,-16.0,1074.7911425016491,1,1,1,2.0,3.0
2021-09-23 13:31:37.287,1074.0,-58.0,9.0,1075.6026217892927,1,1,1,2.0,3.0
2021-09-23 13:31:37.296,959.0,108.0,20.0,965.2693924495896,1,1,1,2.0,3.0
2021-09-23 13:31:37.306,959.0,237.0,35.0,988.4710415586286,1,1,1,2.0,3.0
2021-09-23 13:31:37.316,912.0,165.0,14.0,926.9115383897214,1,1,1,2.0,3.0
2021-09-23 13:31:37.326,1055.0,165.0,14.0,1067.9166634152689,1,1,1,2.0,3.0
2021-09-23 13:31:37.327,1055.0,-16.0,12.0,1055.1895564305023,1,1,1,2.0,3.0
2021-09-23 13:31:37.335,1151.0,-179.0,12.0,1164.8974203765754,1,1,1,2.0,3.0
2021-09-23 13:31:37.336,1151.0,-179.0,51.0,1165.951542732373,1,1,1,2.0,3.0
2021-09-23 13:31:37.345,916.0,77.0,23.0,919.5183521822717,1,1,1,2.0,3.0
2021-09-23 13:31:37.355,1002.0,-11.0,0.0,1002.0603774224386,1,1,1,2.0,3.0
2021-09-23 13:31:37.365,1021.0,0.0,4.0,1021.0078354253704,1,1,1,2.0,3.0
2021-09-23 13:31:37.375,1019.0,45.0,24.0,1020.2754530027664,1,1,1,2.0,3.0
2021-09-23 13:31:37.384,993.0,-22.0,24.0,993.53359278889,1,1,1,2.0,3.0
2021-09-23 13:31:37.385,993.0,-22.0,-24.0,993.53359278889,1,1,1,2.0,3.0
2021-09-23 13:31:37.394,1028.0,-28.0,17.0,1028.5217547529076,1,1,1,2.0,3.0
2021-09-23 13:31:37.404,1009.0,-53.0,-11.0,1010.4508894548018,1,1,1,2.0,3.0
2021-09-23 13:31:37.413,1097.0,-53.0,-11.0,1098.334648456471,1,1,1,2.0,3.0
2021-09-23 13:31:37.414,1097.0,-16.0,42.0,1097.920306761834,1,1,1,2.0,3.0
2021-09-23 13:31:37.423,1087.0,35.0,37.0,1088.1925381107883,1,1,1,2.0,3.0
2021-09-23 13:31:37.434,960.0,84.0,18.0,963.836085649422,1,1,1,2.0,3.0
2021-09-23 13:31:37.443,1058.0,11.0,-4.0,1058.0647428205891,1,1,1,2.0,3.0
2021-09-23 13:31:37.452,1005.0,11.0,-4.0,1005.0681568928547,1,1,1,2.0,3.0
2021-09-23 13:31:37.453,1005.0,32.0,-7.0,1005.5336891422386,1,1,1,2.0,3.0
2021-09-23 13:31:37.464,997.0,80.0,13.0,1000.2889582515644,1,1,1,2.0,3.0
2021-09-23 13:31:37.495,1030.0,-4.0,7.0,1030.0315529147638,1,1,1,2.0,3.0
2021-09-23 13:31:37.497,1035.0,34.0,8.0,1035.589204269724,1,1,1,2.0,3.0
2021-09-23 13:31:37.499,1005.0,34.0,8.0,1005.6067819978144,1,1,1,2.0,3.0
2021-09-23 13:31:37.500,1005.0,44.0,0.0,1005.962722967407,1,1,1,2.0,3.0
2021-09-23 13:31:37.502,1014.0,44.0,0.0,1014.9541861581732,1,1,1,2.0,3.0
2021-09-23 13:31:37.503,1014.0,35.0,12.0,1014.6748247591444,1,1,1,2.0,3.0
2021-09-23 13:31:37.511,1011.0,35.0,12.0,1011.6768258688148,1,1,1,2.0,3.0
2021-09-23 13:31:37.512,1011.0,28.0,4.0,1011.395570486642,1,1,1,2.0,3.0
2021-09-23 13:31:37.521,1023.0,34.0,2.0,1023.566802900524,1,1,1,2.0,3.0
2021-09-23 13:31:37.531,1001.0,23.0,-1.0,1001.264700266618,1,1,1,2.0,3.0
2021-09-23 13:31:37.541,1021.0,20.0,2.0,1021.1978260846428,1,1,1,2.0,3.0
2021-09-23 13:31:37.550,1022.0,24.0,4.0,1022.2895871522902,1,1,1,2.0,3.0
2021-09-23 13:31:37.560,1000.0,24.0,4.0,1000.2959562049624,1,1,1,2.0,3.0
2021-09-23 13:31:37.563,1000.0,25.0,5.0,1000.3249472046572,1,1,1,2.0,3.0
2021-09-23 13:31:37.570,1011.0,32.0,12.0,1011.5774809672268,1,1,1,2.0,3.0
2021-09-23 13:31:37.579,1013.0,32.0,12.0,1013.5763414760628,1,1,1,2.0,3.0
2021-09-23 13:31:37.580,1013.0,33.0,2.0,1013.5393430942876,1,1,1,2.0,3.0
2021-09-23 13:31:37.589,1021.0,14.0,3.0,1021.1003868376508,1,1,1,2.0,3.0
2021-09-23 13:31:37.599,1009.0,14.0,3.0,1009.1015806151528,1,1,1,2.0,3.0
2021-09-23 13:31:37.600,1009.0,29.0,12.0,1009.4879890320638,1,1,1,2.0,3.0
2021-09-23 13:31:37.609,1010.0,-1.0,4.0,1010.0084158065218,1,1,1,2.0,3.0
2021-09-23 13:31:37.619,1021.0,20.0,4.0,1021.2037015209062,1,1,1,2.0,3.0
2021-09-23 13:31:37.620,1021.0,20.0,18.0,1021.354492818238,1,1,1,2.0,3.0
2021-09-23 13:31:37.628,1017.0,28.0,8.0,1017.4168270674512,1,1,1,2.0,3.0
2021-09-23 13:31:37.638,1013.0,39.0,12.0,1013.821483299698,1,1,1,2.0,3.0
2021-09-23 13:31:37.649,1007.0,36.0,1.0,1007.6437862657616,1,1,1,2.0,3.0
2021-09-23 13:31:37.658,1022.0,27.0,3.0,1022.360992996114,1,1,1,2.0,3.0
2021-09-23 13:31:37.667,1010.0,27.0,3.0,1010.3652804802824,1,1,1,2.0,3.0
2021-09-23 13:31:37.668,1010.0,24.0,6.0,1010.302924869566,1,1,1,2.0,3.0
2021-09-23 13:31:37.677,1011.0,32.0,3.0,1011.5107513022292,1,1,1,2.0,3.0
2021-09-23 13:31:37.687,1011.0,9.0,3.0,1011.0445094059904,1,1,1,2.0,3.0
2021-09-23 13:31:37.697,1027.0,10.0,3.0,1027.0530658150046,1,1,1,2.0,3.0
2021-09-23 13:31:37.706,1009.0,6.0,3.0,1009.0222990598376,1,1,1,2.0,3.0
2021-09-23 13:31:37.707,1009.0,6.0,4.0,1009.0257677581876,1,1,1,2.0,3.0
2021-09-23 13:31:37.716,1002.0,40.0,4.0,1002.8060630052054,1,1,1,2.0,3.0
2021-09-23 13:31:37.717,1002.0,40.0,16.0,1002.9257200810038,1,1,1,2.0,3.0
2021-09-23 13:31:37.823,1020.0,35.0,9.0,1020.6399952970684,1,1,1,2.0,3.0
2021-09-23 13:31:37.824,1020.0,31.0,0.0,1020.4709696997754,1,1,1,2.0,3.0
2021-09-23 13:31:37.833,1010.0,34.0,9.0,1010.6121907042284,1,1,1,2.0,3.0
2021-09-23 13:31:37.844,1012.0,31.0,10.0,1012.524073787878,1,1,1,2.0,3.0
2021-09-23 13:31:37.853,1011.0,24.0,4.0,1011.292737045016,1,1,1,2.0,3.0
2021-09-23 13:31:37.863,1013.0,29.0,8.0,1013.4465945475372,1,1,1,2.0,3.0
2021-09-23 13:31:37.872,1017.0,31.0,8.0,1017.5038083466814,1,1,1,2.0,3.0
2021-09-23 13:31:37.873,1017.0,31.0,5.0,1017.4846436187624,1,1,1,2.0,3.0
2021-09-23 13:31:37.882,1016.0,28.0,8.0,1016.4172371619836,1,1,1,2.0,3.0
2021-09-23 13:31:37.893,1016.0,33.0,2.0,1016.5377513894896,1,1,1,2.0,3.0
2021-09-23 13:31:37.902,1008.0,29.0,9.0,1008.457237566373,1,1,1,2.0,3.0
