time_stamp,Acceleration_X,Acceleration_Y,Acceleration_Z,magnitude,STD_Status_right,STD_Status_left,STD_Status_both,KMeans,KMeans_convert
2021-09-02 13:26:03.676,963.0,-30.0,31.0,963.9657670270246,1,1,1,2.0,3.0
2021-09-02 13:26:03.687,1036.0,-153.0,-45.0,1048.203224570503,1,1,1,2.0,3.0
2021-09-02 13:26:03.696,988.0,-137.0,-105.0,1002.964605556946,1,1,1,2.0,3.0
2021-09-02 13:26:03.707,1007.0,-7.0,7.0,1007.0486582087284,1,1,1,2.0,3.0
2021-09-02 13:26:03.717,1046.0,91.0,26.0,1050.2728216992002,1,1,1,2.0,3.0
2021-09-02 13:26:03.726,960.0,214.0,37.0,984.2586042295998,1,1,1,2.0,3.0
2021-09-02 13:26:03.735,1000.0,272.0,20.0,1036.524963519934,1,1,1,2.0,3.0
2021-09-02 13:26:03.745,1009.0,99.0,3.0,1013.849594367922,1,1,1,2.0,3.0
2021-09-02 13:26:03.755,994.0,95.0,23.0,998.794273111335,1,1,1,2.0,3.0
2021-09-02 13:26:03.765,958.0,-12.0,69.0,960.5566094718208,1,1,1,2.0,3.0
2021-09-02 13:26:03.782,1108.0,-130.0,55.0,1116.9552363456648,1,1,1,2.0,3.0
2021-09-02 13:26:03.785,1144.0,-48.0,19.0,1145.164180368911,1,1,1,2.0,3.0
2021-09-02 13:26:03.794,1042.0,54.0,-18.0,1043.5535443857204,1,1,1,2.0,3.0
2021-09-02 13:26:03.805,954.0,49.0,-18.0,955.4271296127192,1,1,1,2.0,3.0
2021-09-02 13:26:03.806,954.0,49.0,-52.0,956.6718350615324,1,1,1,2.0,3.0
2021-09-02 13:26:03.814,963.0,49.0,-52.0,965.646933407858,1,1,1,2.0,3.0
2021-09-02 13:26:03.815,963.0,203.0,-16.0,984.2936553691688,1,1,1,2.0,3.0
2021-09-02 13:26:03.823,894.0,195.0,-40.0,915.893552766914,1,1,1,2.0,3.0
2021-09-02 13:26:03.833,987.0,108.0,-3.0,992.895764921978,1,1,1,2.0,3.0
2021-09-02 13:26:03.843,1081.0,51.0,51.0,1083.403433629412,1,1,1,2.0,3.0
2021-09-02 13:26:03.854,1113.0,19.0,94.0,1117.123985956796,1,1,1,2.0,3.0
2021-09-02 13:26:03.863,1073.0,28.0,62.0,1075.1544075154973,1,1,1,2.0,3.0
2021-09-02 13:26:03.872,1103.0,-112.0,51.0,1109.8441332006942,1,1,1,2.0,3.0
2021-09-02 13:26:03.882,1059.0,-108.0,17.0,1064.628573728885,1,1,1,2.0,3.0
2021-09-02 13:26:03.892,988.0,-107.0,-30.0,994.2298527000686,1,1,1,2.0,3.0
2021-09-02 13:26:03.902,969.0,-75.0,-55.0,973.45313189696,1,1,1,2.0,3.0
2021-09-02 13:26:03.912,999.0,1.0,-53.0,1000.4054178181964,1,1,1,2.0,3.0
2021-09-02 13:26:03.921,1015.0,81.0,-36.0,1018.8630918823196,1,1,1,2.0,3.0
2021-09-02 13:26:03.931,935.0,208.0,-29.0,958.2953615665684,1,1,1,2.0,3.0
2021-09-02 13:26:03.942,992.0,154.0,26.0,1004.2190995992856,1,1,1,2.0,3.0
2021-09-02 13:26:03.952,1043.0,109.0,72.0,1051.1488952569946,1,1,1,2.0,3.0
2021-09-02 13:26:03.961,1017.0,81.0,73.0,1022.8289202012232,1,1,1,2.0,3.0
2021-09-02 13:26:03.970,968.0,-36.0,44.0,969.6679844152844,1,1,1,2.0,3.0
2021-09-02 13:26:03.979,1190.0,-36.0,44.0,1191.3572092365916,1,1,1,2.0,3.0
2021-09-02 13:26:03.980,1190.0,-138.0,61.0,1199.526990109018,1,1,1,2.0,3.0
2021-09-02 13:26:03.989,1111.0,-75.0,17.0,1113.6583856820723,1,1,1,2.0,3.0
2021-09-02 13:26:03.999,1007.0,22.0,-46.0,1008.2901368157876,1,1,1,2.0,3.0
2021-09-02 13:26:04.010,949.0,74.0,-61.0,953.8333187722056,1,1,1,2.0,3.0
2021-09-02 13:26:04.019,960.0,215.0,-33.0,984.3342928091046,1,1,1,2.0,3.0
2021-09-02 13:26:04.028,883.0,194.0,-42.0,905.0353584252938,1,1,1,2.0,3.0
2021-09-02 13:26:04.047,973.0,82.0,-1.0,976.4496914844104,1,1,1,2.0,3.0
2021-09-02 13:26:04.050,1080.0,34.0,61.0,1082.255515116463,1,1,1,2.0,3.0
2021-09-02 13:26:04.059,1104.0,43.0,103.0,1109.627865547725,1,1,1,2.0,3.0
2021-09-02 13:26:04.068,1117.0,47.0,89.0,1121.5253006508592,1,1,1,2.0,3.0
2021-09-02 13:26:04.076,992.0,47.0,89.0,997.0927740185464,1,1,1,2.0,3.0
2021-09-02 13:26:04.077,992.0,81.0,33.0,995.8483820341328,1,1,1,2.0,3.0
2021-09-02 13:26:04.087,1073.0,81.0,33.0,1076.558869732631,1,1,1,2.0,3.0
2021-09-02 13:26:04.088,1073.0,-139.0,12.0,1082.0323470211044,1,1,1,2.0,3.0
2021-09-02 13:26:04.097,993.0,-91.0,-26.0,997.499874686709,1,1,1,2.0,3.0
2021-09-02 13:26:04.107,978.0,-84.0,-55.0,983.1403765485376,1,1,1,2.0,3.0
2021-09-02 13:26:04.117,971.0,-84.0,-55.0,976.1772380054762,1,1,1,2.0,3.0
2021-09-02 13:26:04.118,971.0,-1.0,-54.0,972.5008997425144,1,1,1,2.0,3.0
2021-09-02 13:26:04.126,1006.0,84.0,-28.0,1009.8891028226813,1,1,1,2.0,3.0
2021-09-02 13:26:04.135,917.0,223.0,-24.0,944.0307198391374,1,1,1,2.0,3.0
2021-09-02 13:26:04.146,974.0,160.0,13.0,987.1398077273552,1,1,1,2.0,3.0
2021-09-02 13:26:04.156,1037.0,160.0,13.0,1049.3512281405117,1,1,1,2.0,3.0
2021-09-02 13:26:04.157,1037.0,134.0,68.0,1047.8306160825805,1,1,1,2.0,3.0
2021-09-02 13:26:04.165,1029.0,60.0,67.0,1032.9230368231702,1,1,1,2.0,3.0
2021-09-02 13:26:04.174,971.0,-39.0,67.0,974.0898315863892,1,1,1,2.0,3.0
2021-09-02 13:26:04.175,971.0,-39.0,44.0,972.7784948280878,1,1,1,2.0,3.0
2021-09-02 13:26:04.185,994.0,-112.0,27.0,1000.6542859549446,1,1,1,2.0,3.0
2021-09-02 13:26:04.194,1123.0,-94.0,19.0,1127.0873967887317,1,1,1,2.0,3.0
2021-09-02 13:26:04.205,1022.0,44.0,-51.0,1024.2172621079962,1,1,1,2.0,3.0
2021-09-02 13:26:04.225,928.0,82.0,-69.0,934.1675438592372,1,1,1,2.0,3.0
2021-09-02 13:26:04.235,942.0,260.0,-24.0,977.5172632746696,1,1,1,2.0,3.0
2021-09-02 13:26:04.243,981.0,113.0,-5.0,987.4993670884048,1,1,1,2.0,3.0
2021-09-02 13:26:04.253,1078.0,42.0,73.0,1081.2848838303437,1,1,1,2.0,3.0
2021-09-02 13:26:04.264,1094.0,51.0,100.0,1099.7440611342258,1,1,1,2.0,3.0
2021-09-02 13:26:04.274,1096.0,24.0,67.0,1098.3082445288298,1,1,1,2.0,3.0
2021-09-02 13:26:04.282,992.0,45.0,26.0,993.360458242626,1,1,1,2.0,3.0
2021-09-02 13:26:04.302,1001.0,-103.0,-34.0,1006.8594738095284,1,1,1,2.0,3.0
2021-09-02 13:26:04.311,965.0,-60.0,-57.0,968.5422035203216,1,1,1,2.0,3.0
2021-09-02 13:26:04.323,989.0,-60.0,-57.0,992.4565481672232,1,1,1,2.0,3.0
2021-09-02 13:26:04.324,989.0,7.0,-51.0,990.3388309058672,1,1,1,2.0,3.0
2021-09-02 13:26:04.331,1016.0,81.0,-29.0,1019.636209635574,1,1,1,2.0,3.0
2021-09-02 13:26:04.341,1020.0,180.0,-29.0,1036.1664924132608,1,1,1,2.0,3.0
2021-09-02 13:26:04.342,1020.0,180.0,5.0,1035.7726584535817,1,1,1,2.0,3.0
2021-09-02 13:26:04.351,993.0,151.0,37.0,1005.096512778748,1,1,1,2.0,3.0
2021-09-02 13:26:04.361,1044.0,151.0,37.0,1055.5121979399385,1,1,1,2.0,3.0
2021-09-02 13:26:04.362,1044.0,113.0,80.0,1053.1405414283508,1,1,1,2.0,3.0
2021-09-02 13:26:04.370,1020.0,49.0,80.0,1024.3051303200623,1,1,1,2.0,3.0
2021-09-02 13:26:04.371,1020.0,49.0,77.0,1024.075192551797,1,1,1,2.0,3.0
2021-09-02 13:26:04.380,968.0,-37.0,37.0,969.4132245848516,1,1,1,2.0,3.0
2021-09-02 13:26:04.391,995.0,-116.0,24.0,1002.026446756771,1,1,1,2.0,3.0
2021-09-02 13:26:04.399,1099.0,-80.0,12.0,1101.9732301648712,1,1,1,2.0,3.0
2021-09-02 13:26:04.409,1028.0,26.0,-54.0,1029.74559965071,1,1,1,2.0,3.0
2021-09-02 13:26:04.419,955.0,26.0,-54.0,956.8787802015468,1,1,1,2.0,3.0
2021-09-02 13:26:04.420,955.0,68.0,-60.0,959.2960961038046,1,1,1,2.0,3.0
2021-09-02 13:26:04.429,945.0,237.0,-22.0,974.5142379667934,1,1,1,2.0,3.0
2021-09-02 13:26:04.439,942.0,268.0,-37.0,980.0800987674426,1,1,1,2.0,3.0
2021-09-02 13:26:04.449,895.0,256.0,-33.0,931.477321248349,1,1,1,2.0,3.0
2021-09-02 13:26:04.458,1089.0,31.0,65.0,1091.3784861357676,1,1,1,2.0,3.0
2021-09-02 13:26:04.469,1097.0,44.0,97.0,1102.1587907375235,1,1,1,2.0,3.0
2021-09-02 13:26:04.478,1076.0,38.0,72.0,1079.075530257266,1,1,1,2.0,3.0
2021-09-02 13:26:04.487,970.0,67.0,24.0,972.6073205564514,1,1,1,2.0,3.0
2021-09-02 13:26:04.497,1012.0,67.0,24.0,1014.4993839327848,1,1,1,2.0,3.0
2021-09-02 13:26:04.498,1012.0,-44.0,24.0,1013.2403466108128,1,1,1,2.0,3.0
2021-09-02 13:26:04.507,982.0,-114.0,-45.0,989.618613406195,1,1,1,2.0,3.0
2021-09-02 13:26:04.518,954.0,-51.0,-47.0,956.5176422837166,1,1,1,2.0,3.0
2021-09-02 13:26:04.527,984.0,13.0,-48.0,985.2558043472771,1,1,1,2.0,3.0
2021-09-02 13:26:04.536,1016.0,92.0,-48.0,1021.285464500499,1,1,1,2.0,3.0
2021-09-02 13:26:04.537,1016.0,92.0,-34.0,1020.7232729785288,1,1,1,2.0,3.0
2021-09-02 13:26:04.551,1005.0,202.0,-10.0,1025.1482819572982,1,1,1,2.0,3.0
2021-09-02 13:26:04.561,989.0,150.0,41.0,1001.1503383608278,1,1,1,2.0,3.0
2021-09-02 13:26:04.574,1038.0,98.0,41.0,1043.421774739247,1,1,1,2.0,3.0
2021-09-02 13:26:04.575,1038.0,98.0,76.0,1045.3822267477096,1,1,1,2.0,3.0
2021-09-02 13:26:04.578,1031.0,57.0,64.0,1034.5559433882731,1,1,1,2.0,3.0
2021-09-02 13:26:04.586,979.0,57.0,64.0,982.7441172553516,1,1,1,2.0,3.0
2021-09-02 13:26:04.587,979.0,-49.0,47.0,981.351618941957,1,1,1,2.0,3.0
2021-09-02 13:26:04.608,1005.0,-108.0,24.0,1011.0712141090756,1,1,1,2.0,3.0
2021-09-02 13:26:04.609,1101.0,-108.0,24.0,1106.5446217844087,1,1,1,2.0,3.0
2021-09-02 13:26:04.610,1101.0,-60.0,11.0,1102.6885326328554,1,1,1,2.0,3.0
2021-09-02 13:26:04.615,1021.0,-60.0,11.0,1022.8206098823,1,1,1,2.0,3.0
2021-09-02 13:26:04.616,1021.0,46.0,-47.0,1023.1158292197418,1,1,1,2.0,3.0
2021-09-02 13:26:04.626,935.0,96.0,-67.0,942.300376737694,1,1,1,2.0,3.0
2021-09-02 13:26:04.634,958.0,237.0,-24.0,987.1722240825052,1,1,1,2.0,3.0
2021-09-02 13:26:04.644,915.0,249.0,-32.0,948.8150504708492,1,1,1,2.0,3.0
2021-09-02 13:26:04.654,905.0,274.0,-32.0,946.1104586674855,1,1,1,2.0,3.0
2021-09-02 13:26:04.663,1111.0,33.0,69.0,1113.6296511857072,1,1,1,2.0,3.0
2021-09-02 13:26:04.674,1108.0,12.0,69.0,1110.2112411608882,1,1,1,2.0,3.0
2021-09-02 13:26:04.675,1108.0,12.0,96.0,1112.2158063973015,1,1,1,2.0,3.0
2021-09-02 13:26:04.683,1066.0,24.0,77.0,1069.0467716615583,1,1,1,2.0,3.0
2021-09-02 13:26:04.692,992.0,46.0,15.0,993.17923860701,1,1,1,2.0,3.0
2021-09-02 13:26:04.702,1003.0,-55.0,15.0,1004.6188331899816,1,1,1,2.0,3.0
2021-09-02 13:26:04.703,1003.0,-55.0,29.0,1004.9253703633916,1,1,1,2.0,3.0
2021-09-02 13:26:04.712,1078.0,-55.0,29.0,1079.791646568911,1,1,1,2.0,3.0
2021-09-02 13:26:04.713,1078.0,-121.0,52.0,1086.015193263888,1,1,1,2.0,3.0
2021-09-02 13:26:04.723,959.0,-62.0,-49.0,962.2504871393936,1,1,1,2.0,3.0
2021-09-02 13:26:04.732,987.0,23.0,-40.0,988.0779321490792,1,1,1,2.0,3.0
2021-09-02 13:26:04.741,987.0,134.0,-31.0,996.537003828759,1,1,1,2.0,3.0
2021-09-02 13:26:04.751,1013.0,202.0,7.0,1032.9675696748664,1,1,1,2.0,3.0
2021-09-02 13:26:04.761,974.0,230.0,-10.0,1000.8376491719324,1,1,1,2.0,3.0
2021-09-02 13:26:04.772,1045.0,78.0,82.0,1051.1103652804495,1,1,1,2.0,3.0
2021-09-02 13:26:04.780,1036.0,17.0,56.0,1037.6516756599972,1,1,1,2.0,3.0
2021-09-02 13:26:04.797,976.0,-49.0,22.0,977.4768539459131,1,1,1,2.0,3.0
2021-09-02 13:26:04.800,980.0,-49.0,22.0,981.4708350226206,1,1,1,2.0,3.0
2021-09-02 13:26:04.801,980.0,-117.0,6.0,986.9777099813348,1,1,1,2.0,3.0
2021-09-02 13:26:04.810,1085.0,-236.0,22.0,1110.5876822655653,1,1,1,2.0,3.0
2021-09-02 13:26:04.820,1010.0,54.0,-65.0,1013.5289833053616,1,1,1,2.0,3.0
2021-09-02 13:26:04.832,941.0,127.0,-57.0,951.2407686805692,1,1,1,2.0,3.0
2021-09-02 13:26:04.838,948.0,264.0,-17.0,984.2199957326612,1,1,1,2.0,3.0
2021-09-02 13:26:04.849,938.0,255.0,-9.0,972.0853871960014,1,1,1,2.0,3.0
2021-09-02 13:26:04.859,928.0,258.0,-34.0,963.7966590521052,1,1,1,2.0,3.0
2021-09-02 13:26:04.869,1099.0,40.0,77.0,1102.420065129441,1,1,1,2.0,3.0
2021-09-02 13:26:04.879,1109.0,25.0,101.0,1113.8702797004685,1,1,1,2.0,3.0
2021-09-02 13:26:04.888,1066.0,24.0,83.0,1069.4956755405792,1,1,1,2.0,3.0
2021-09-02 13:26:04.898,986.0,67.0,13.0,988.3592464281396,1,1,1,2.0,3.0
2021-09-02 13:26:04.907,1016.0,67.0,13.0,1018.2897426567744,1,1,1,2.0,3.0
2021-09-02 13:26:04.908,1016.0,-30.0,12.0,1016.5136496870074,1,1,1,2.0,3.0
2021-09-02 13:26:04.918,1063.0,-106.0,58.0,1069.845315921886,1,1,1,2.0,3.0
2021-09-02 13:26:04.927,961.0,-72.0,-75.0,966.6074694517936,1,1,1,2.0,3.0
2021-09-02 13:26:04.937,997.0,-10.0,-58.0,998.7357007737332,1,1,1,2.0,3.0
2021-09-02 13:26:04.947,998.0,127.0,-37.0,1006.728364555206,1,1,1,2.0,3.0
2021-09-02 13:26:04.956,1015.0,183.0,11.0,1031.4237732377512,1,1,1,2.0,3.0
2021-09-02 13:26:04.966,989.0,195.0,-4.0,1008.0486099390248,1,1,1,2.0,3.0
2021-09-02 13:26:04.978,1032.0,114.0,80.0,1041.3548866740866,1,1,1,2.0,3.0
2021-09-02 13:26:04.986,1042.0,-1.0,65.0,1044.0258617486445,1,1,1,2.0,3.0
2021-09-02 13:26:04.995,967.0,-82.0,65.0,972.644847824734,1,1,1,2.0,3.0
2021-09-02 13:26:04.996,967.0,-82.0,29.0,970.9037027429652,1,1,1,2.0,3.0
2021-09-02 13:26:05.005,1018.0,-147.0,17.0,1028.6991785745724,1,1,1,2.0,3.0
2021-09-02 13:26:05.015,1077.0,-243.0,13.0,1104.1498992437575,1,1,1,2.0,3.0
2021-09-02 13:26:05.025,1176.0,-229.0,67.0,1199.9608326941343,1,1,1,2.0,3.0
2021-09-02 13:26:05.035,922.0,135.0,67.0,934.2365867380704,1,1,1,2.0,3.0
2021-09-02 13:26:05.036,922.0,135.0,-62.0,933.8913213002892,1,1,1,2.0,3.0
2021-09-02 13:26:05.044,968.0,251.0,-8.0,1000.044499009919,1,1,1,2.0,3.0
2021-09-02 13:26:05.067,922.0,266.0,-9.0,959.6462890044436,1,1,1,2.0,3.0
2021-09-02 13:26:05.068,893.0,268.0,-9.0,932.3915486532468,1,1,1,2.0,3.0
2021-09-02 13:26:05.069,893.0,268.0,-42.0,933.2936301079098,1,1,1,2.0,3.0
2021-09-02 13:26:05.075,844.0,208.0,-45.0,870.4165669379231,1,1,1,2.0,3.0
2021-09-02 13:26:05.083,1121.0,46.0,113.0,1127.6196167147857,1,1,1,2.0,3.0
2021-09-02 13:26:05.093,1050.0,35.0,71.0,1052.9795819482922,1,1,1,2.0,3.0
2021-09-02 13:26:05.102,981.0,35.0,71.0,984.1884982055012,1,1,1,2.0,3.0
2021-09-02 13:26:05.103,981.0,21.0,-5.0,981.2374839966112,1,1,1,2.0,3.0
2021-09-02 13:26:05.112,1023.0,21.0,-5.0,1023.2277361369756,1,1,1,2.0,3.0
2021-09-02 13:26:05.113,1023.0,-48.0,21.0,1024.3407636133593,1,1,1,2.0,3.0
2021-09-02 13:26:05.124,1066.0,-80.0,49.0,1070.1200867192429,1,1,1,2.0,3.0
2021-09-02 13:26:05.132,959.0,-62.0,-51.0,962.3544045724528,1,1,1,2.0,3.0
2021-09-02 13:26:05.141,994.0,14.0,-50.0,995.3552129767544,1,1,1,2.0,3.0
2021-09-02 13:26:05.152,1030.0,94.0,-50.0,1035.4882906146258,1,1,1,2.0,3.0
2021-09-02 13:26:05.153,1030.0,94.0,-44.0,1035.2159195066506,1,1,1,2.0,3.0
2021-09-02 13:26:05.161,1031.0,187.0,5.0,1047.8334791368331,1,1,1,2.0,3.0
2021-09-02 13:26:05.172,999.0,205.0,-13.0,1019.8995048532968,1,1,1,2.0,3.0
2021-09-02 13:26:05.181,951.0,200.0,-39.0,972.5852147755486,1,1,1,2.0,3.0
2021-09-02 13:26:05.190,1014.0,200.0,-39.0,1034.271241019492,1,1,1,2.0,3.0
2021-09-02 13:26:05.191,1014.0,23.0,51.0,1015.5422197033464,1,1,1,2.0,3.0
2021-09-02 13:26:05.200,978.0,23.0,51.0,979.598897508567,1,1,1,2.0,3.0
2021-09-02 13:26:05.201,978.0,-58.0,36.0,980.3795183499092,1,1,1,2.0,3.0
2021-09-02 13:26:05.210,1011.0,-134.0,23.0,1020.1009753941028,1,1,1,2.0,3.0
2021-09-02 13:26:05.221,1081.0,-245.0,9.0,1108.452524919313,1,1,1,2.0,3.0
2021-09-02 13:26:05.230,1150.0,-214.0,63.0,1171.437151536522,1,1,1,2.0,3.0
2021-09-02 13:26:05.252,927.0,120.0,-70.0,937.3521216703998,1,1,1,2.0,3.0
2021-09-02 13:26:05.253,946.0,247.0,-24.0,978.008691167926,1,1,1,2.0,3.0
2021-09-02 13:26:05.260,897.0,247.0,-24.0,930.695438905768,1,1,1,2.0,3.0
2021-09-02 13:26:05.261,897.0,297.0,-19.0,945.0814779689632,1,1,1,2.0,3.0
2021-09-02 13:26:05.273,908.0,297.0,-19.0,955.528126221306,1,1,1,2.0,3.0
2021-09-02 13:26:05.274,908.0,297.0,-21.0,955.569986971127,1,1,1,2.0,3.0
2021-09-02 13:26:05.278,866.0,297.0,-21.0,915.7543338690788,1,1,1,2.0,3.0
2021-09-02 13:26:05.279,866.0,190.0,-45.0,887.7392635227981,1,1,1,2.0,3.0
2021-09-02 13:26:05.289,1107.0,57.0,102.0,1113.149585635282,1,1,1,2.0,3.0
2021-09-02 13:26:05.299,1034.0,54.0,55.0,1036.8688441649697,1,1,1,2.0,3.0
2021-09-02 13:26:05.309,990.0,29.0,6.0,990.4428302532156,1,1,1,2.0,3.0
2021-09-02 13:26:05.323,1023.0,-46.0,32.0,1024.533552403239,1,1,1,2.0,3.0
2021-09-02 13:26:05.327,1071.0,-46.0,32.0,1072.4649178411385,1,1,1,2.0,3.0
2021-09-02 13:26:05.328,1071.0,-96.0,59.0,1076.9113241116931,1,1,1,2.0,3.0
2021-09-02 13:26:05.337,1114.0,-117.0,47.0,1121.1128399942622,1,1,1,2.0,3.0
2021-09-02 13:26:05.347,980.0,-117.0,47.0,988.0779321490792,1,1,1,2.0,3.0
2021-09-02 13:26:05.348,980.0,24.0,-38.0,981.0300708948732,1,1,1,2.0,3.0
2021-09-02 13:26:05.358,1026.0,133.0,-33.0,1035.1106221076084,1,1,1,2.0,3.0
2021-09-02 13:26:05.366,1010.0,236.0,-1.0,1037.2063439836838,1,1,1,2.0,3.0
2021-09-02 13:26:05.376,972.0,255.0,-19.0,1005.0721367145744,1,1,1,2.0,3.0
2021-09-02 13:26:05.386,919.0,232.0,-50.0,949.1496193962256,1,1,1,2.0,3.0
2021-09-02 13:26:05.396,1011.0,27.0,58.0,1013.0222110102028,1,1,1,2.0,3.0
2021-09-02 13:26:05.406,983.0,-56.0,38.0,985.3268493246288,1,1,1,2.0,3.0
2021-09-02 13:26:05.415,1020.0,-162.0,15.0,1032.8935085477108,1,1,1,2.0,3.0
2021-09-02 13:26:05.425,1104.0,-268.0,30.0,1136.4594141455295,1,1,1,2.0,3.0
2021-09-02 13:26:05.434,1196.0,-268.0,30.0,1226.0261008640884,1,1,1,2.0,3.0
2021-09-02 13:26:05.435,1196.0,-223.0,60.0,1218.0907191174226,1,1,1,2.0,3.0
2021-09-02 13:26:05.445,1170.0,-134.0,74.0,1179.9711860888808,1,1,1,2.0,3.0
2021-09-02 13:26:05.455,952.0,251.0,-21.0,984.7568227740288,1,1,1,2.0,3.0
2021-09-02 13:26:05.464,910.0,265.0,-4.0,947.8085249669366,1,1,1,2.0,3.0
2021-09-02 13:26:05.474,914.0,272.0,-33.0,954.1849925459948,1,1,1,2.0,3.0
2021-09-02 13:26:05.483,871.0,272.0,-33.0,913.0794050902692,1,1,1,2.0,3.0
2021-09-02 13:26:05.484,871.0,201.0,-48.0,895.179311646555,1,1,1,2.0,3.0
2021-09-02 13:26:05.493,884.0,201.0,-48.0,907.8331344470744,1,1,1,2.0,3.0
2021-09-02 13:26:05.494,884.0,163.0,-48.0,900.1827592217038,1,1,1,2.0,3.0
2021-09-02 13:26:05.497,884.0,163.0,-32.0,899.4715114999474,1,1,1,2.0,3.0
2021-09-02 13:26:05.503,1009.0,65.0,47.0,1012.1832837979492,1,1,1,2.0,3.0
2021-09-02 13:26:05.514,977.0,7.0,28.0,977.4262120487664,1,1,1,2.0,3.0
2021-09-02 13:26:05.523,1030.0,7.0,28.0,1030.4042895873445,1,1,1,2.0,3.0
2021-09-02 13:26:05.524,1030.0,-59.0,43.0,1032.5841370077308,1,1,1,2.0,3.0
2021-09-02 13:26:05.532,1069.0,-107.0,43.0,1075.2018415162802,1,1,1,2.0,3.0
2021-09-02 13:26:05.533,1069.0,-107.0,48.0,1075.4134088805104,1,1,1,2.0,3.0
2021-09-02 13:26:05.542,1099.0,-120.0,47.0,1106.5306141268754,1,1,1,2.0,3.0
2021-09-02 13:26:05.552,1004.0,28.0,-38.0,1005.1089493184307,1,1,1,2.0,3.0
2021-09-02 13:26:05.565,996.0,171.0,-11.0,1010.6324752351866,1,1,1,2.0,3.0
2021-09-02 13:26:05.572,1022.0,235.0,-3.0,1048.6744013276953,1,1,1,2.0,3.0
2021-09-02 13:26:05.581,951.0,287.0,-17.0,993.508429757896,1,1,1,2.0,3.0
2021-09-02 13:26:05.591,902.0,237.0,-43.0,933.606983692817,1,1,1,2.0,3.0
2021-09-02 13:26:05.600,934.0,177.0,-14.0,950.7265642654568,1,1,1,2.0,3.0
2021-09-02 13:26:05.611,983.0,-39.0,27.0,984.1437903070872,1,1,1,2.0,3.0
2021-09-02 13:26:05.621,1029.0,-39.0,27.0,1030.0927142738171,1,1,1,2.0,3.0
2021-09-02 13:26:05.622,1029.0,-163.0,23.0,1042.083969745241,1,1,1,2.0,3.0
2021-09-02 13:26:05.630,1090.0,-253.0,23.0,1119.2131164349353,1,1,1,2.0,3.0
2021-09-02 13:26:05.631,1090.0,-253.0,30.0,1119.378845610368,1,1,1,2.0,3.0
2021-09-02 13:26:05.640,1209.0,-186.0,62.0,1224.7942684385814,1,1,1,2.0,3.0
2021-09-02 13:26:05.649,1169.0,-129.0,56.0,1177.4285540957464,1,1,1,2.0,3.0
2021-09-02 13:26:05.659,953.0,246.0,56.0,985.8301070671356,1,1,1,2.0,3.0
2021-09-02 13:26:05.660,953.0,246.0,-25.0,984.5557373760004,1,1,1,2.0,3.0
2021-09-02 13:26:05.670,884.0,347.0,-13.0,949.75470517392,1,1,1,2.0,3.0
2021-09-02 13:26:05.680,907.0,259.0,-33.0,943.8320825231572,1,1,1,2.0,3.0
2021-09-02 13:26:05.688,886.0,179.0,-41.0,904.8303708430658,1,1,1,2.0,3.0
2021-09-02 13:26:05.698,908.0,133.0,-33.0,918.2820917343428,1,1,1,2.0,3.0
2021-09-02 13:26:05.708,1024.0,25.0,22.0,1024.5413608049214,1,1,1,2.0,3.0
2021-09-02 13:26:05.718,977.0,25.0,22.0,977.5673889814452,1,1,1,2.0,3.0
2021-09-02 13:26:05.719,977.0,9.0,20.0,977.2461307163104,1,1,1,2.0,3.0
2021-09-02 13:26:05.728,1041.0,-88.0,29.0,1045.1153046434638,1,1,1,2.0,3.0
2021-09-02 13:26:05.738,1096.0,-84.0,57.0,1100.6911465075025,1,1,1,2.0,3.0
2021-09-02 13:26:05.748,1095.0,-90.0,36.0,1099.2820384232612,1,1,1,2.0,3.0
2021-09-02 13:26:05.757,1042.0,-91.0,2.0,1045.9679727410396,1,1,1,2.0,3.0
2021-09-02 13:26:05.767,1022.0,159.0,11.0,1034.3529378311837,1,1,1,2.0,3.0
2021-09-02 13:26:05.777,1027.0,213.0,-15.0,1048.9628210761332,1,1,1,2.0,3.0
2021-09-02 13:26:05.786,947.0,213.0,-15.0,970.7744331202796,1,1,1,2.0,3.0
2021-09-02 13:26:05.787,947.0,223.0,-31.0,973.3956030309567,1,1,1,2.0,3.0
2021-09-02 13:26:05.796,935.0,203.0,-22.0,957.0360494777614,1,1,1,2.0,3.0
2021-09-02 13:26:05.806,955.0,192.0,6.0,974.1278150222382,1,1,1,2.0,3.0
2021-09-02 13:26:05.821,990.0,-76.0,25.0,993.227567076146,1,1,1,2.0,3.0
2021-09-02 13:26:05.825,1026.0,-174.0,25.0,1040.9500468322194,1,1,1,2.0,3.0
2021-09-02 13:26:05.826,1026.0,-174.0,9.0,1040.688714265702,1,1,1,2.0,3.0
2021-09-02 13:26:05.836,1103.0,-267.0,45.0,1135.7477712943137,1,1,1,2.0,3.0
2021-09-02 13:26:05.845,1256.0,-203.0,97.0,1275.9913792812238,1,1,1,2.0,3.0
2021-09-02 13:26:05.855,1157.0,-92.0,41.0,1161.3759081365515,1,1,1,2.0,3.0
2021-09-02 13:26:05.864,1089.0,13.0,0.0,1089.0775913588527,1,1,1,2.0,3.0
2021-09-02 13:26:05.874,891.0,326.0,-17.0,948.918331575484,1,1,1,2.0,3.0
2021-09-02 13:26:05.884,899.0,269.0,-26.0,938.7427762704756,1,1,1,2.0,3.0
2021-09-02 13:26:05.894,861.0,177.0,-47.0,880.2607568215227,1,1,1,2.0,3.0
2021-09-02 13:26:05.904,915.0,99.0,-38.0,921.1243130001508,1,1,1,2.0,3.0
2021-09-02 13:26:05.913,1037.0,18.0,-38.0,1037.8521089249662,1,1,1,2.0,3.0
2021-09-02 13:26:05.914,1037.0,18.0,29.0,1037.5615644384677,1,1,1,2.0,3.0
2021-09-02 13:26:05.923,989.0,-1.0,20.0,989.202709256298,1,1,1,2.0,3.0
2021-09-02 13:26:05.933,1032.0,-56.0,40.0,1034.2920283943022,1,1,1,2.0,3.0
2021-09-02 13:26:05.942,1049.0,-56.0,40.0,1051.254964316459,1,1,1,2.0,3.0
2021-09-02 13:26:05.943,1049.0,-90.0,62.0,1054.6776758801714,1,1,1,2.0,3.0
2021-09-02 13:26:05.953,1103.0,-105.0,33.0,1108.4777850728449,1,1,1,2.0,3.0
2021-09-02 13:26:05.961,1037.0,-107.0,33.0,1043.0278040397582,1,1,1,2.0,3.0
2021-09-02 13:26:05.962,1037.0,-107.0,12.0,1042.5746975636805,1,1,1,2.0,3.0
2021-09-02 13:26:05.973,988.0,-67.0,-30.0,990.7234730236283,1,1,1,2.0,3.0
2021-09-02 13:26:05.982,1015.0,208.0,1.0,1036.0936251130977,1,1,1,2.0,3.0
2021-09-02 13:26:05.991,954.0,227.0,-17.0,980.7823407871902,1,1,1,2.0,3.0
2021-09-02 13:26:06.001,958.0,215.0,-10.0,981.8803389415637,1,1,1,2.0,3.0
2021-09-02 13:26:06.011,974.0,151.0,21.0,985.8590162898548,1,1,1,2.0,3.0
2021-09-02 13:26:06.021,988.0,132.0,48.0,997.9338655442052,1,1,1,2.0,3.0
2021-09-02 13:26:06.030,1057.0,-182.0,18.0,1072.7054581757286,1,1,1,2.0,3.0
2021-09-02 13:26:06.041,1124.0,-258.0,58.0,1154.6878366034691,1,1,1,2.0,3.0
2021-09-02 13:26:06.050,1227.0,-194.0,86.0,1245.2152424380292,1,1,1,2.0,3.0
2021-09-02 13:26:06.061,1167.0,-98.0,49.0,1172.1322450986493,1,1,1,2.0,3.0
2021-09-02 13:26:06.081,1060.0,-13.0,1.0,1060.08018564635,1,1,1,2.0,3.0
2021-09-02 13:26:06.084,911.0,303.0,-28.0,960.4759236961644,1,1,1,2.0,3.0
2021-09-02 13:26:06.089,889.0,273.0,-25.0,930.3090884216922,1,1,1,2.0,3.0
2021-09-02 13:26:06.099,895.0,126.0,-52.0,905.3203852780516,1,1,1,2.0,3.0
2021-09-02 13:26:06.109,935.0,81.0,-27.0,938.890302431546,1,1,1,2.0,3.0
2021-09-02 13:26:06.119,1062.0,2.0,36.0,1062.6118764628975,1,1,1,2.0,3.0
2021-09-02 13:26:06.129,1124.0,36.0,80.0,1127.4182897221422,1,1,1,2.0,3.0
2021-09-02 13:26:06.138,1041.0,-98.0,38.0,1046.2929800012996,1,1,1,2.0,3.0
2021-09-02 13:26:06.148,1095.0,-118.0,59.0,1102.9188546760818,1,1,1,2.0,3.0
2021-09-02 13:26:06.157,1074.0,-127.0,59.0,1083.0909472431206,1,1,1,2.0,3.0
2021-09-02 13:26:06.158,1074.0,-127.0,34.0,1082.0170978316378,1,1,1,2.0,3.0
2021-09-02 13:26:06.167,1050.0,-118.0,7.0,1056.6328596064009,1,1,1,2.0,3.0
2021-09-02 13:26:06.179,969.0,-86.0,-39.0,973.5902628929688,1,1,1,2.0,3.0
2021-09-02 13:26:06.187,1029.0,173.0,-26.0,1043.7652992890692,1,1,1,2.0,3.0
2021-09-02 13:26:06.196,958.0,173.0,-26.0,973.8423897120108,1,1,1,2.0,3.0
2021-09-02 13:26:06.197,958.0,217.0,-26.0,982.613352239832,1,1,1,2.0,3.0
2021-09-02 13:26:06.200,958.0,217.0,-43.0,983.2100487688274,1,1,1,2.0,3.0
2021-09-02 13:26:06.206,917.0,217.0,-43.0,943.3064189328936,1,1,1,2.0,3.0
2021-09-02 13:26:06.207,917.0,216.0,-28.0,942.512068888245,1,1,1,2.0,3.0
2021-09-02 13:26:06.216,957.0,207.0,5.0,979.1440139223648,1,1,1,2.0,3.0
2021-09-02 13:26:06.227,1014.0,135.0,5.0,1022.959432235707,1,1,1,2.0,3.0
2021-09-02 13:26:06.228,1014.0,135.0,52.0,1024.268031327738,1,1,1,2.0,3.0
2021-09-02 13:26:06.236,1016.0,88.0,70.0,1022.2035022440492,1,1,1,2.0,3.0
2021-09-02 13:26:06.260,1140.0,-248.0,61.0,1168.2572490680295,1,1,1,2.0,3.0
2021-09-02 13:26:06.261,1210.0,-152.0,61.0,1221.0343975498806,1,1,1,2.0,3.0
2021-09-02 13:26:06.262,1210.0,-152.0,83.0,1222.3309699095414,1,1,1,2.0,3.0
2021-09-02 13:26:06.264,1147.0,-41.0,83.0,1150.7297684513076,1,1,1,2.0,3.0
2021-09-02 13:26:06.265,1147.0,-41.0,33.0,1148.2068628953582,1,1,1,2.0,3.0
2021-09-02 13:26:06.274,1080.0,-3.0,33.0,1080.5082137586924,1,1,1,2.0,3.0
2021-09-02 13:26:06.275,1080.0,-3.0,-24.0,1080.2707993831916,1,1,1,2.0,3.0
2021-09-02 13:26:06.284,952.0,61.0,-61.0,955.9006224498444,1,1,1,2.0,3.0
2021-09-02 13:26:06.294,871.0,61.0,-61.0,875.2616751577782,1,1,1,2.0,3.0
2021-09-02 13:26:06.295,871.0,217.0,-33.0,898.231039321176,1,1,1,2.0,3.0
2021-09-02 13:26:06.305,874.0,175.0,-50.0,892.7491248945585,1,1,1,2.0,3.0
2021-09-02 13:26:06.314,949.0,95.0,-20.0,953.9528290224836,1,1,1,2.0,3.0
2021-09-02 13:26:06.324,1049.0,95.0,-20.0,1053.482795303274,1,1,1,2.0,3.0
2021-09-02 13:26:06.325,1049.0,14.0,35.0,1049.6770932053344,1,1,1,2.0,3.0
2021-09-02 13:26:06.336,1109.0,36.0,35.0,1110.1360277011102,1,1,1,2.0,3.0
2021-09-02 13:26:06.337,1109.0,36.0,87.0,1112.9896675171788,1,1,1,2.0,3.0
2021-09-02 13:26:06.343,1061.0,-86.0,49.0,1065.606869347228,1,1,1,2.0,3.0
2021-09-02 13:26:06.354,1103.0,-115.0,49.0,1110.0608091451568,1,1,1,2.0,3.0
2021-09-02 13:26:06.364,1079.0,-117.0,33.0,1085.8264133829127,1,1,1,2.0,3.0
2021-09-02 13:26:06.372,1045.0,-94.0,-8.0,1049.2497319513595,1,1,1,2.0,3.0
2021-09-02 13:26:06.382,978.0,-86.0,-58.0,983.485637922588,1,1,1,2.0,3.0
2021-09-02 13:26:06.392,965.0,-16.0,-63.0,967.186641760524,1,1,1,2.0,3.0
2021-09-02 13:26:06.403,946.0,225.0,-50.0,973.6739700741722,1,1,1,2.0,3.0
2021-09-02 13:26:06.411,934.0,225.0,-50.0,962.0192305770192,1,1,1,2.0,3.0
2021-09-02 13:26:06.412,934.0,192.0,-27.0,953.9124697790674,1,1,1,2.0,3.0
2021-09-02 13:26:06.421,966.0,165.0,9.0,980.0316321425548,1,1,1,2.0,3.0
2021-09-02 13:26:06.430,1018.0,112.0,61.0,1025.9576014631405,1,1,1,2.0,3.0
2021-09-02 13:26:06.440,1021.0,112.0,61.0,1028.934400241337,1,1,1,2.0,3.0
2021-09-02 13:26:06.441,1021.0,60.0,85.0,1026.2874840901063,1,1,1,2.0,3.0
2021-09-02 13:26:06.451,1153.0,-243.0,80.0,1181.0410661784797,1,1,1,2.0,3.0
2021-09-02 13:26:06.460,1188.0,-139.0,70.0,1198.1506583063751,1,1,1,2.0,3.0
2021-09-02 13:26:06.470,1138.0,-94.0,18.0,1142.0175130005669,1,1,1,2.0,3.0
2021-09-02 13:26:06.479,1051.0,2.0,-35.0,1051.5845187144969,1,1,1,2.0,3.0
2021-09-02 13:26:06.489,953.0,61.0,-60.0,956.8333188178598,1,1,1,2.0,3.0
2021-09-02 13:26:06.499,948.0,61.0,-60.0,951.853455107455,1,1,1,2.0,3.0
2021-09-02 13:26:06.500,948.0,167.0,-43.0,963.5569521310092,1,1,1,2.0,3.0
2021-09-02 13:26:06.508,874.0,167.0,-43.0,890.8501557501127,1,1,1,2.0,3.0
2021-09-02 13:26:06.509,874.0,151.0,-40.0,887.8496494339568,1,1,1,2.0,3.0
2021-09-02 13:26:06.518,991.0,55.0,-8.0,992.557303131663,1,1,1,2.0,3.0
2021-09-02 13:26:06.528,1074.0,11.0,46.0,1075.040929453386,1,1,1,2.0,3.0
2021-09-02 13:26:06.538,1112.0,38.0,91.0,1116.3641878885223,1,1,1,2.0,3.0
2021-09-02 13:26:06.549,1096.0,71.0,89.0,1101.8974543940103,1,1,1,2.0,3.0
2021-09-02 13:26:06.558,1112.0,71.0,89.0,1117.8130434021602,1,1,1,2.0,3.0
2021-09-02 13:26:06.559,1112.0,-135.0,44.0,1121.028545577676,1,1,1,2.0,3.0
2021-09-02 13:26:06.567,1077.0,-101.0,44.0,1082.6199702573383,1,1,1,2.0,3.0
2021-09-02 13:26:06.568,1077.0,-101.0,22.0,1081.9491670129423,1,1,1,2.0,3.0
2021-09-02 13:26:06.577,1023.0,-114.0,-12.0,1029.4022537375756,1,1,1,2.0,3.0
2021-09-02 13:26:06.587,986.0,-75.0,-12.0,988.9211293121408,1,1,1,2.0,3.0
2021-09-02 13:26:06.588,986.0,-75.0,-53.0,990.2676405901587,1,1,1,2.0,3.0
2021-09-02 13:26:06.597,955.0,-13.0,-63.0,957.1640402773183,1,1,1,2.0,3.0
2021-09-02 13:26:06.607,936.0,212.0,-43.0,960.6711195825552,1,1,1,2.0,3.0
2021-09-02 13:26:06.616,926.0,191.0,-43.0,946.470284795038,1,1,1,2.0,3.0
2021-09-02 13:26:06.617,926.0,191.0,-18.0,945.6643167636178,1,1,1,2.0,3.0
2021-09-02 13:26:06.626,995.0,138.0,31.0,1005.0024875591104,1,1,1,2.0,3.0
2021-09-02 13:26:06.636,1037.0,138.0,31.0,1046.6011656786934,1,1,1,2.0,3.0
2021-09-02 13:26:06.637,1037.0,91.0,61.0,1042.770828130515,1,1,1,2.0,3.0
2021-09-02 13:26:06.647,1025.0,81.0,67.0,1030.3761449101974,1,1,1,2.0,3.0
2021-09-02 13:26:06.655,996.0,-31.0,31.0,996.9643925436856,1,1,1,2.0,3.0
2021-09-02 13:26:06.665,1180.0,-134.0,73.0,1189.8256174750989,1,1,1,2.0,3.0
2021-09-02 13:26:06.675,1138.0,-56.0,15.0,1139.475756653032,1,1,1,2.0,3.0
2021-09-02 13:26:06.684,1027.0,20.0,-56.0,1028.7200785442074,1,1,1,2.0,3.0
2021-09-02 13:26:06.695,953.0,64.0,-48.0,956.3519226728204,1,1,1,2.0,3.0
2021-09-02 13:26:06.705,935.0,214.0,-23.0,959.4529691443976,1,1,1,2.0,3.0
2021-09-02 13:26:06.714,879.0,134.0,-39.0,890.0101123021019,1,1,1,2.0,3.0
2021-09-02 13:26:06.724,984.0,57.0,-10.0,985.7002586993676,1,1,1,2.0,3.0
2021-09-02 13:26:06.733,1083.0,57.0,-10.0,1084.5450659147364,1,1,1,2.0,3.0
2021-09-02 13:26:06.734,1083.0,-2.0,40.0,1083.740282540056,1,1,1,2.0,3.0
2021-09-02 13:26:06.744,1108.0,39.0,95.0,1112.7488485727586,1,1,1,2.0,3.0
2021-09-02 13:26:06.754,1082.0,81.0,91.0,1088.8369942282454,1,1,1,2.0,3.0
2021-09-02 13:26:06.763,1002.0,59.0,24.0,1004.0224101084596,1,1,1,2.0,3.0
2021-09-02 13:26:06.773,1066.0,-81.0,36.0,1069.678923789751,1,1,1,2.0,3.0
2021-09-02 13:26:06.783,1033.0,-93.0,-21.0,1037.3904761467593,1,1,1,2.0,3.0
2021-09-02 13:26:06.793,956.0,-75.0,-79.0,962.186052694592,1,1,1,2.0,3.0
2021-09-02 13:26:06.803,962.0,-25.0,-51.0,963.6752565050116,1,1,1,2.0,3.0
2021-09-02 13:26:06.811,976.0,109.0,-36.0,982.7273273904618,1,1,1,2.0,3.0
2021-09-02 13:26:06.821,934.0,173.0,-36.0,950.5687771013731,1,1,1,2.0,3.0
2021-09-02 13:26:06.822,934.0,173.0,-11.0,949.950525027488,1,1,1,2.0,3.0
2021-09-02 13:26:06.836,971.0,173.0,-11.0,986.3523711128796,1,1,1,2.0,3.0
2021-09-02 13:26:06.837,971.0,157.0,17.0,983.7575920926862,1,1,1,2.0,3.0
2021-09-02 13:26:06.841,1035.0,98.0,61.0,1041.4173034859753,1,1,1,2.0,3.0
2021-09-02 13:26:06.851,1022.0,82.0,74.0,1027.9513607170331,1,1,1,2.0,3.0
2021-09-02 13:26:06.861,968.0,1.0,39.0,968.7858380467792,1,1,1,2.0,3.0
2021-09-02 13:26:06.870,1171.0,-124.0,68.0,1179.5087960672442,1,1,1,2.0,3.0
2021-09-02 13:26:06.881,1130.0,-62.0,10.0,1131.7437872592895,1,1,1,2.0,3.0
2021-09-02 13:26:06.890,1055.0,14.0,-45.0,1056.052082048987,1,1,1,2.0,3.0
2021-09-02 13:26:06.900,947.0,81.0,-56.0,952.1060865260762,1,1,1,2.0,3.0
2021-09-02 13:26:06.910,951.0,189.0,-25.0,969.9211308142534,1,1,1,2.0,3.0
2021-09-02 13:26:06.919,951.0,265.0,-18.0,987.3955640977936,1,1,1,2.0,3.0
2021-09-02 13:26:06.929,1024.0,265.0,-18.0,1057.8870450100048,1,1,1,2.0,3.0
2021-09-02 13:26:06.930,1024.0,1.0,8.0,1024.0317377894105,1,1,1,2.0,3.0
2021-09-02 13:26:06.939,1091.0,15.0,8.0,1091.13243925749,1,1,1,2.0,3.0
2021-09-02 13:26:06.940,1091.0,15.0,56.0,1092.539244146406,1,1,1,2.0,3.0
2021-09-02 13:26:06.949,1097.0,61.0,91.0,1102.4568018747946,1,1,1,2.0,3.0
2021-09-02 13:26:06.958,1051.0,97.0,86.0,1058.9645886430765,1,1,1,2.0,3.0
2021-09-02 13:26:06.968,1007.0,51.0,29.0,1008.7075889473618,1,1,1,2.0,3.0
2021-09-02 13:26:06.977,1061.0,51.0,29.0,1062.6208166603928,1,1,1,2.0,3.0
2021-09-02 13:26:06.978,1061.0,-107.0,12.0,1066.4492486752476,1,1,1,2.0,3.0
2021-09-02 13:26:06.988,1026.0,-98.0,-36.0,1031.2982109942789,1,1,1,2.0,3.0
2021-09-02 13:26:06.997,961.0,-80.0,-36.0,964.9958549133772,1,1,1,2.0,3.0
2021-09-02 13:26:06.998,961.0,-80.0,-44.0,965.327405598743,1,1,1,2.0,3.0
2021-09-02 13:26:07.007,968.0,-8.0,-65.0,970.2128632418764,1,1,1,2.0,3.0
2021-09-02 13:26:07.017,991.0,88.0,-28.0,995.2934240715148,1,1,1,2.0,3.0
2021-09-02 13:26:07.027,1012.0,191.0,-2.0,1029.8684381997537,1,1,1,2.0,3.0
2021-09-02 13:26:07.036,982.0,160.0,27.0,995.3155278603866,1,1,1,2.0,3.0
2021-09-02 13:26:07.046,1028.0,112.0,56.0,1035.5983777507572,1,1,1,2.0,3.0
2021-09-02 13:26:07.056,1016.0,112.0,56.0,1023.6874523017268,1,1,1,2.0,3.0
2021-09-02 13:26:07.057,1016.0,71.0,61.0,1020.3028962028874,1,1,1,2.0,3.0
2021-09-02 13:26:07.066,980.0,-40.0,31.0,981.3057627467598,1,1,1,2.0,3.0
2021-09-02 13:26:07.075,993.0,-72.0,33.0,996.1536026135728,1,1,1,2.0,3.0
2021-09-02 13:26:07.097,1127.0,-51.0,9.0,1128.1892571727494,1,1,1,2.0,3.0
2021-09-02 13:26:07.102,1036.0,19.0,-43.0,1037.0660538268523,1,1,1,2.0,3.0
2021-09-02 13:26:07.107,956.0,61.0,-58.0,959.6983901205627,1,1,1,2.0,3.0
2021-09-02 13:26:07.114,957.0,184.0,-58.0,976.2525288059436,1,1,1,2.0,3.0
2021-09-02 13:26:07.115,957.0,184.0,-16.0,974.6594276976958,1,1,1,2.0,3.0
2021-09-02 13:26:07.124,930.0,281.0,-32.0,972.0519533440588,1,1,1,2.0,3.0
2021-09-02 13:26:07.134,1023.0,2.0,0.0,1023.001955032345,1,1,1,2.0,3.0
2021-09-02 13:26:07.144,1072.0,37.0,62.0,1074.4286853951733,1,1,1,2.0,3.0
2021-09-02 13:26:07.155,1099.0,75.0,87.0,1104.9864252559848,1,1,1,2.0,3.0
2021-09-02 13:26:07.163,1061.0,51.0,71.0,1064.5952282440496,1,1,1,2.0,3.0
2021-09-02 13:26:07.173,991.0,69.0,29.0,993.8224187449184,1,1,1,2.0,3.0
2021-09-02 13:26:07.182,1075.0,-131.0,29.0,1083.3406666418464,1,1,1,2.0,3.0
2021-09-02 13:26:07.192,1028.0,-100.0,29.0,1033.259405957671,1,1,1,2.0,3.0
2021-09-02 13:26:07.193,1028.0,-100.0,-15.0,1032.961277105778,1,1,1,2.0,3.0
2021-09-02 13:26:07.203,965.0,-63.0,-49.0,968.2948930981718,1,1,1,2.0,3.0
2021-09-02 13:26:07.212,969.0,-37.0,-49.0,970.9433557113412,1,1,1,2.0,3.0
2021-09-02 13:26:07.213,969.0,-37.0,-59.0,971.499356664738,1,1,1,2.0,3.0
2021-09-02 13:26:07.222,980.0,124.0,-36.0,988.4695240623254,1,1,1,2.0,3.0
2021-09-02 13:26:07.232,1018.0,156.0,5.0,1029.8956257796224,1,1,1,2.0,3.0
2021-09-02 13:26:07.241,961.0,147.0,25.0,972.4993573262658,1,1,1,2.0,3.0
2021-09-02 13:26:07.252,1018.0,98.0,46.0,1023.7402014183092,1,1,1,2.0,3.0
2021-09-02 13:26:07.272,1011.0,98.0,46.0,1016.7797204901364,1,1,1,2.0,3.0
2021-09-02 13:26:07.273,1011.0,105.0,56.0,1017.9793711072932,1,1,1,2.0,3.0
2021-09-02 13:26:07.283,984.0,105.0,56.0,991.1695112340776,1,1,1,2.0,3.0
2021-09-02 13:26:07.284,984.0,-21.0,32.0,984.7441292031144,1,1,1,2.0,3.0
2021-09-02 13:26:07.286,1012.0,-96.0,28.0,1016.9287093990414,1,1,1,2.0,3.0
2021-09-02 13:26:07.294,1051.0,-208.0,23.0,1071.6314665032935,1,1,1,2.0,3.0
2021-09-02 13:26:07.304,1012.0,14.0,-54.0,1013.5363831653998,1,1,1,2.0,3.0
2021-09-02 13:26:07.311,950.0,120.0,-52.0,958.9598531742608,1,1,1,2.0,3.0
2021-09-02 13:26:07.320,945.0,224.0,-10.0,971.2368403226887,1,1,1,2.0,3.0
2021-09-02 13:26:07.329,923.0,292.0,-27.0,968.46373189707,1,1,1,2.0,3.0
2021-09-02 13:26:07.340,910.0,292.0,-27.0,956.0821094445812,1,1,1,2.0,3.0
2021-09-02 13:26:07.341,910.0,273.0,-49.0,951.3306470412904,1,1,1,2.0,3.0
2021-09-02 13:26:07.354,1076.0,23.0,43.0,1077.1044517594382,1,1,1,2.0,3.0
2021-09-02 13:26:07.358,1105.0,56.0,77.0,1109.0942250323008,1,1,1,2.0,3.0
2021-09-02 13:26:07.368,1054.0,89.0,77.0,1060.5498573853097,1,1,1,2.0,3.0
2021-09-02 13:26:07.378,995.0,20.0,27.0,995.5671750313988,1,1,1,2.0,3.0
2021-09-02 13:26:07.388,1000.0,-2.0,27.0,1000.3664328634784,1,1,1,2.0,3.0
2021-09-02 13:26:07.389,1000.0,-2.0,35.0,1000.6143113108068,1,1,1,2.0,3.0
2021-09-02 13:26:07.398,1013.0,-112.0,-48.0,1020.3024061522152,1,1,1,2.0,3.0
2021-09-02 13:26:07.407,958.0,-61.0,-48.0,961.139427970781,1,1,1,2.0,3.0
2021-09-02 13:26:07.408,958.0,-61.0,-57.0,961.6309063252908,1,1,1,2.0,3.0
2021-09-02 13:26:07.417,982.0,7.0,-45.0,983.0554409594608,1,1,1,2.0,3.0
2021-09-02 13:26:07.427,977.0,110.0,-33.0,983.7265880314508,1,1,1,2.0,3.0
2021-09-02 13:26:07.437,1003.0,197.0,-33.0,1022.695946995,1,1,1,2.0,3.0
2021-09-02 13:26:07.438,1003.0,197.0,-11.0,1022.2225785023534,1,1,1,2.0,3.0
2021-09-02 13:26:07.446,972.0,197.0,-11.0,991.823573020928,1,1,1,2.0,3.0
2021-09-02 13:26:07.447,972.0,132.0,37.0,981.6195800818156,1,1,1,2.0,3.0
2021-09-02 13:26:07.457,1026.0,93.0,61.0,1032.0106588596846,1,1,1,2.0,3.0
2021-09-02 13:26:07.466,1025.0,60.0,61.0,1028.5650198213043,1,1,1,2.0,3.0
2021-09-02 13:26:07.476,990.0,-35.0,43.0,991.5513098170968,1,1,1,2.0,3.0
2021-09-02 13:26:07.485,1005.0,-115.0,25.0,1011.8670861333518,1,1,1,2.0,3.0
2021-09-02 13:26:07.496,1061.0,-221.0,24.0,1084.0378222183947,1,1,1,2.0,3.0
2021-09-02 13:26:07.505,1008.0,30.0,-42.0,1009.3205635475778,1,1,1,2.0,3.0
2021-09-02 13:26:07.516,961.0,99.0,-34.0,966.6840228326938,1,1,1,2.0,3.0
2021-09-02 13:26:07.525,969.0,146.0,-19.0,980.1214210494536,1,1,1,2.0,3.0
2021-09-02 13:26:07.535,1055.0,-137.0,-22.0,1064.085522878683,1,1,1,2.0,3.0
2021-09-02 13:26:07.545,1009.0,33.0,-73.0,1012.1753800601948,1,1,1,2.0,3.0
2021-09-02 13:26:07.553,1026.0,83.0,14.0,1029.4469388948612,1,1,1,2.0,3.0
2021-09-02 13:26:07.563,1052.0,83.0,14.0,1055.362023193937,1,1,1,2.0,3.0
2021-09-02 13:26:07.564,1052.0,-8.0,61.0,1053.797418861899,1,1,1,2.0,3.0
2021-09-02 13:26:07.573,1058.0,27.0,49.0,1059.4781734420017,1,1,1,2.0,3.0
2021-09-02 13:26:07.584,970.0,9.0,-2.0,970.043813443496,1,1,1,2.0,3.0
2021-09-02 13:26:07.594,988.0,-4.0,-2.0,988.0101214056464,1,1,1,2.0,3.0
2021-09-02 13:26:07.603,1024.0,31.0,28.0,1024.8516965883405,1,1,1,2.0,3.0
2021-09-02 13:26:07.612,987.0,29.0,28.0,987.8228586138306,1,1,1,2.0,3.0
2021-09-02 13:26:07.613,987.0,29.0,-16.0,987.5555680568056,1,1,1,2.0,3.0
2021-09-02 13:26:07.622,1024.0,11.0,-15.0,1024.1689313780223,1,1,1,2.0,3.0
2021-09-02 13:26:07.632,1053.0,15.0,-17.0,1053.2440362992804,1,1,1,2.0,3.0
2021-09-02 13:26:07.643,1041.0,-15.0,10.0,1041.1560882019564,1,1,1,2.0,3.0
2021-09-02 13:26:07.652,1005.0,27.0,-29.0,1005.7807912263984,1,1,1,2.0,3.0
2021-09-02 13:26:07.661,1008.0,38.0,11.0,1008.7759909910624,1,1,1,2.0,3.0
2021-09-02 13:26:07.671,998.0,45.0,28.0,999.4063237742696,1,1,1,2.0,3.0
2021-09-02 13:26:07.680,1019.0,48.0,24.0,1020.4121716247804,1,1,1,2.0,3.0
2021-09-02 13:26:07.691,1022.0,39.0,21.0,1022.959432235707,1,1,1,2.0,3.0
2021-09-02 13:26:07.701,1019.0,27.0,7.0,1019.381675330688,1,1,1,2.0,3.0
2021-09-02 13:26:07.750,1012.0,52.0,2.0,1013.3370613966508,1,1,1,2.0,3.0
2021-09-02 13:26:07.759,999.0,38.0,2.0,999.7244620394162,1,1,1,2.0,3.0
2021-09-02 13:26:07.818,1011.0,43.0,10.0,1011.9634380747162,1,1,1,2.0,3.0
2021-09-02 13:26:07.827,1008.0,41.0,6.0,1008.8513270051242,1,1,1,2.0,3.0
2021-09-02 13:26:07.837,1014.0,40.0,15.0,1014.899502413909,1,1,1,2.0,3.0
2021-09-02 13:26:07.853,1011.0,40.0,9.0,1011.8310135590824,1,1,1,2.0,3.0
2021-09-02 13:26:07.857,1010.0,38.0,19.0,1010.893169429886,1,1,1,2.0,3.0
2021-09-02 13:26:07.866,1015.0,45.0,19.0,1016.17468970645,1,1,1,2.0,3.0
2021-09-02 13:26:07.867,1015.0,45.0,5.0,1016.0093503506748,1,1,1,2.0,3.0
2021-09-02 13:26:07.876,1014.0,35.0,9.0,1014.643779855768,1,1,1,2.0,3.0
2021-09-02 13:26:07.887,1015.0,40.0,13.0,1015.8710548096152,1,1,1,2.0,3.0
2021-09-02 13:26:07.896,1007.0,46.0,9.0,1008.0902737354428,1,1,1,2.0,3.0
2021-09-02 13:26:07.935,1016.0,41.0,8.0,1016.85839722156,1,1,1,2.0,3.0
2021-09-02 13:26:07.936,1016.0,41.0,8.0,1016.85839722156,1,1,1,2.0,3.0
