time_stamp,Acceleration_X,Acceleration_Y,Acceleration_Z,magnitude,STD_Status_right,STD_Status_left,STD_Status_both,KMeans,KMeans_convert
2021-09-23 13:32:48.966,1026.0,-20.0,-112.0,1032.2887193028896,1,1,1,0.0,3.0
2021-09-23 13:32:48.977,940.0,351.0,31.0,1003.8734980065964,1,1,1,0.0,3.0
2021-09-23 13:32:48.986,1031.0,372.0,95.0,1100.1681689632726,1,1,1,0.0,3.0
2021-09-23 13:32:48.995,835.0,-53.0,-153.0,850.5545250011901,1,1,1,0.0,3.0
2021-09-23 13:32:49.005,1201.0,-49.0,-20.0,1202.1655460043762,1,1,1,0.0,3.0
2021-09-23 13:32:49.015,932.0,17.0,-68.0,934.6320131474204,1,1,1,0.0,3.0
2021-09-23 13:32:49.025,1044.0,134.0,78.0,1055.4506146665508,1,1,1,0.0,3.0
2021-09-23 13:32:49.036,1173.0,73.0,94.0,1179.022476460903,1,1,1,0.0,3.0
2021-09-23 13:32:49.044,1019.0,-96.0,-55.0,1024.9887804264006,1,1,1,0.0,3.0
2021-09-23 13:32:49.054,907.0,-142.0,-41.0,918.963546611072,1,1,1,0.0,3.0
2021-09-23 13:32:49.063,901.0,-142.0,-41.0,913.0421677009228,1,1,1,0.0,3.0
2021-09-23 13:32:49.064,901.0,-134.0,-163.0,925.3788413401292,1,1,1,0.0,3.0
2021-09-23 13:32:49.074,942.0,40.0,-23.0,943.1293654637204,1,1,1,0.0,3.0
2021-09-23 13:32:49.085,1113.0,40.0,-23.0,1113.9560134942492,1,1,1,0.0,3.0
2021-09-23 13:32:49.086,1113.0,231.0,122.0,1143.2471298892467,1,1,1,0.0,3.0
2021-09-23 13:32:49.093,1079.0,134.0,-19.0,1087.454826647985,1,1,1,0.0,3.0
2021-09-23 13:32:49.103,918.0,-12.0,-123.0,926.2812747756484,1,1,1,0.0,3.0
2021-09-23 13:32:49.112,961.0,-28.0,-123.0,969.2440353182474,1,1,1,0.0,3.0
2021-09-23 13:32:49.113,961.0,-28.0,27.0,961.7868786794712,1,1,1,0.0,3.0
2021-09-23 13:32:49.122,911.0,-179.0,-81.0,931.9458138754636,1,1,1,0.0,3.0
2021-09-23 13:32:49.136,990.0,-179.0,-81.0,1009.3076835138036,1,1,1,0.0,3.0
2021-09-23 13:32:49.137,990.0,-201.0,62.0,1012.0993034282752,1,1,1,0.0,3.0
2021-09-23 13:32:49.142,1166.0,-114.0,113.0,1176.9966015244054,1,1,1,0.0,3.0
2021-09-23 13:32:49.151,1163.0,-114.0,113.0,1174.0247016140677,1,1,1,0.0,3.0
2021-09-23 13:32:49.152,1163.0,-82.0,112.0,1171.2544557012366,1,1,1,0.0,3.0
2021-09-23 13:32:49.161,1150.0,-106.0,112.0,1160.293066427616,1,1,1,0.0,3.0
2021-09-23 13:32:49.162,1150.0,-106.0,31.0,1155.290872464593,1,1,1,0.0,3.0
2021-09-23 13:32:49.171,1062.0,-43.0,-92.0,1066.8444122738797,1,1,1,0.0,3.0
2021-09-23 13:32:49.182,872.0,240.0,-41.0,905.3535221116666,1,1,1,0.0,3.0
2021-09-23 13:32:49.191,886.0,80.0,-41.0,890.5487072586204,1,1,1,0.0,3.0
2021-09-23 13:32:49.192,886.0,80.0,-123.0,898.0673694105582,1,1,1,0.0,3.0
2021-09-23 13:32:49.200,885.0,43.0,-50.0,887.4536607620704,1,1,1,0.0,3.0
2021-09-23 13:32:49.210,1030.0,-53.0,35.0,1031.956394427594,1,1,1,0.0,3.0
2021-09-23 13:32:49.220,1150.0,-11.0,171.0,1162.6960049815257,1,1,1,0.0,3.0
2021-09-23 13:32:49.230,1023.0,-82.0,28.0,1026.6630411191395,1,1,1,0.0,3.0
2021-09-23 13:32:49.240,1023.0,-47.0,103.0,1029.2458404093748,1,1,1,0.0,3.0
2021-09-23 13:32:49.249,1047.0,36.0,83.0,1050.9015177455974,1,1,1,0.0,3.0
2021-09-23 13:32:49.259,997.0,33.0,-7.0,997.5705488836364,1,1,1,0.0,3.0
2021-09-23 13:32:49.269,928.0,-82.0,-156.0,944.5866820996366,1,1,1,0.0,3.0
2021-09-23 13:32:49.278,898.0,-82.0,-156.0,915.130591773655,1,1,1,0.0,3.0
2021-09-23 13:32:49.279,898.0,-102.0,-114.0,910.9357825884324,1,1,1,0.0,3.0
2021-09-23 13:32:49.289,1008.0,105.0,-58.0,1015.1123090574756,1,1,1,0.0,3.0
2021-09-23 13:32:49.299,953.0,74.0,-50.0,957.175532491298,1,1,1,0.0,3.0
2021-09-23 13:32:49.311,985.0,40.0,40.0,986.6230283142596,1,1,1,0.0,3.0
2021-09-23 13:32:49.317,1100.0,238.0,40.0,1126.163398446247,1,1,1,0.0,3.0
2021-09-23 13:32:49.318,1100.0,238.0,183.0,1140.2337479657406,1,1,1,0.0,3.0
2021-09-23 13:32:49.327,1039.0,115.0,85.0,1048.7950228714856,1,1,1,0.0,3.0
2021-09-23 13:32:49.337,887.0,24.0,2.0,887.3268845245252,1,1,1,0.0,3.0
2021-09-23 13:32:49.347,1161.0,24.0,2.0,1161.2497578040652,1,1,1,0.0,3.0
2021-09-23 13:32:49.348,1161.0,-61.0,120.0,1168.7779943171415,1,1,1,0.0,3.0
2021-09-23 13:32:49.356,1105.0,-61.0,120.0,1113.1693492007405,1,1,1,0.0,3.0
2021-09-23 13:32:49.357,1105.0,-146.0,-49.0,1115.680061666426,1,1,1,0.0,3.0
2021-09-23 13:32:49.367,1015.0,-66.0,-49.0,1018.323131427348,1,1,1,0.0,3.0
2021-09-23 13:32:49.368,1015.0,-66.0,-104.0,1022.4465756214356,1,1,1,0.0,3.0
2021-09-23 13:32:49.376,977.0,145.0,-98.0,992.5512581222192,1,1,1,0.0,3.0
2021-09-23 13:32:49.386,944.0,313.0,-31.0,995.0206028017712,1,1,1,0.0,3.0
2021-09-23 13:32:49.396,898.0,302.0,5.0,947.4349581897428,1,1,1,0.0,3.0
2021-09-23 13:32:49.405,1032.0,-74.0,5.0,1034.6617804867444,1,1,1,0.0,3.0
2021-09-23 13:32:49.406,1032.0,-74.0,93.0,1038.8209662882243,1,1,1,0.0,3.0
2021-09-23 13:32:49.416,1163.0,-38.0,171.0,1176.118191339629,1,1,1,0.0,3.0
2021-09-23 13:32:49.425,1166.0,9.0,122.0,1172.399675878495,1,1,1,0.0,3.0
2021-09-23 13:32:49.435,1047.0,113.0,-8.0,1053.1106304657644,1,1,1,0.0,3.0
2021-09-23 13:32:49.444,1016.0,113.0,-8.0,1022.295945409156,1,1,1,0.0,3.0
2021-09-23 13:32:49.445,1016.0,-46.0,-34.0,1017.6089622246848,1,1,1,0.0,3.0
2021-09-23 13:32:49.455,1028.0,-62.0,61.0,1031.672913282112,1,1,1,0.0,3.0
2021-09-23 13:32:49.465,1047.0,21.0,134.0,1055.7490232057996,1,1,1,0.0,3.0
2021-09-23 13:32:49.474,939.0,-80.0,-61.0,944.373866643926,1,1,1,0.0,3.0
2021-09-23 13:32:49.484,1021.0,75.0,9.0,1023.790505914174,1,1,1,0.0,3.0
2021-09-23 13:32:49.493,1091.0,75.0,9.0,1093.611905567967,1,1,1,0.0,3.0
2021-09-23 13:32:49.494,1091.0,190.0,26.0,1107.7260491655868,1,1,1,0.0,3.0
2021-09-23 13:32:49.503,1047.0,190.0,26.0,1064.4176811759564,1,1,1,0.0,3.0
2021-09-23 13:32:49.504,1047.0,135.0,-39.0,1056.3877129160487,1,1,1,0.0,3.0
2021-09-23 13:32:49.513,961.0,30.0,-106.0,967.2936472447236,1,1,1,0.0,3.0
2021-09-23 13:32:49.524,911.0,15.0,-9.0,911.1679318325464,1,1,1,0.0,3.0
2021-09-23 13:32:49.532,874.0,-44.0,-9.0,875.1531294579252,1,1,1,0.0,3.0
2021-09-23 13:32:49.533,874.0,-44.0,-9.0,875.1531294579252,1,1,1,0.0,3.0
2021-09-23 13:32:49.542,998.0,-282.0,-32.0,1037.5702385862849,1,1,1,0.0,3.0
2021-09-23 13:32:49.552,1042.0,-86.0,106.0,1050.9024693091171,1,1,1,0.0,3.0
2021-09-23 13:32:49.561,1259.0,-86.0,106.0,1266.377905682186,1,1,1,0.0,3.0
2021-09-23 13:32:49.562,1259.0,-67.0,117.0,1266.1986416040731,1,1,1,0.0,3.0
2021-09-23 13:32:49.572,1163.0,0.0,119.0,1169.0722817687536,1,1,1,0.0,3.0
2021-09-23 13:32:49.581,980.0,348.0,4.0,1039.961537750315,1,1,1,0.0,3.0
2021-09-23 13:32:49.601,908.0,313.0,-8.0,960.4670738760389,1,1,1,0.0,3.0
2021-09-23 13:32:49.603,897.0,107.0,-104.0,909.3261241160952,1,1,1,0.0,3.0
2021-09-23 13:32:49.611,826.0,81.0,-63.0,832.3496861295738,1,1,1,0.0,3.0
2021-09-23 13:32:49.620,996.0,-52.0,-13.0,997.441226338675,1,1,1,0.0,3.0
2021-09-23 13:32:49.630,1061.0,-31.0,154.0,1072.5660818802728,1,1,1,0.0,3.0
2021-09-23 13:32:49.640,1217.0,-43.0,152.0,1227.2090286499688,1,1,1,0.0,3.0
2021-09-23 13:32:49.649,1065.0,-43.0,152.0,1076.6512898798755,1,1,1,0.0,3.0
2021-09-23 13:32:49.650,1065.0,-7.0,115.0,1071.2137975212977,1,1,1,0.0,3.0
2021-09-23 13:32:49.659,1070.0,40.0,115.0,1076.9052883146223,1,1,1,0.0,3.0
2021-09-23 13:32:49.660,1070.0,40.0,108.0,1076.1802822947463,1,1,1,0.0,3.0
2021-09-23 13:32:49.670,987.0,0.0,108.0,992.8912327138356,1,1,1,0.0,3.0
2021-09-23 13:32:49.671,987.0,0.0,-21.0,987.2233789776252,1,1,1,0.0,3.0
2021-09-23 13:32:49.679,942.0,-60.0,-136.0,953.6561225095764,1,1,1,0.0,3.0
2021-09-23 13:32:49.688,872.0,-60.0,-136.0,884.5789959070925,1,1,1,0.0,3.0
2021-09-23 13:32:49.689,872.0,-135.0,-130.0,891.913112360167,1,1,1,0.0,3.0
2021-09-23 13:32:49.698,980.0,-19.0,-130.0,988.7674145116232,1,1,1,0.0,3.0
2021-09-23 13:32:49.699,980.0,-19.0,-33.0,980.7395168952866,1,1,1,0.0,3.0
2021-09-23 13:32:49.708,925.0,-19.0,-33.0,925.7834520016006,1,1,1,0.0,3.0
2021-09-23 13:32:49.709,925.0,31.0,-81.0,929.057048840382,1,1,1,0.0,3.0
2021-09-23 13:32:49.719,969.0,32.0,35.0,970.1597806547126,1,1,1,0.0,3.0
2021-09-23 13:32:49.728,1073.0,195.0,160.0,1102.2495180311942,1,1,1,0.0,3.0
2021-09-23 13:32:49.737,1088.0,140.0,160.0,1108.577466846589,1,1,1,0.0,3.0
2021-09-23 13:32:49.738,1088.0,140.0,120.0,1103.5143859506318,1,1,1,0.0,3.0
2021-09-23 13:32:49.747,958.0,24.0,120.0,965.7846550862154,1,1,1,0.0,3.0
2021-09-23 13:32:49.748,958.0,24.0,4.0,958.3089272254538,1,1,1,0.0,3.0
2021-09-23 13:32:49.757,880.0,-100.0,-43.0,886.7068286643562,1,1,1,0.0,3.0
2021-09-23 13:32:49.768,1162.0,-113.0,0.0,1167.481477369127,1,1,1,0.0,3.0
2021-09-23 13:32:49.776,1034.0,-113.0,0.0,1040.156238264233,1,1,1,0.0,3.0
2021-09-23 13:32:49.777,1034.0,-143.0,-135.0,1052.53503504634,1,1,1,0.0,3.0
2021-09-23 13:32:49.786,961.0,85.0,-115.0,971.5817001158472,1,1,1,0.0,3.0
2021-09-23 13:32:49.796,937.0,279.0,-17.0,977.8031499233372,1,1,1,0.0,3.0
2021-09-23 13:32:49.806,985.0,348.0,22.0,1044.8985596697892,1,1,1,0.0,3.0
2021-09-23 13:32:49.816,880.0,248.0,22.0,914.5425085801096,1,1,1,0.0,3.0
2021-09-23 13:32:49.817,880.0,248.0,-45.0,915.3846186166776,1,1,1,0.0,3.0
2021-09-23 13:32:49.826,1210.0,-81.0,-45.0,1213.5427474959422,1,1,1,0.0,3.0
2021-09-23 13:32:49.827,1210.0,-81.0,229.0,1234.140186526636,1,1,1,0.0,3.0
2021-09-23 13:32:49.835,1195.0,-43.0,101.0,1200.0312495931096,1,1,1,0.0,3.0
2021-09-23 13:32:49.845,1012.0,73.0,-21.0,1014.8467864658192,1,1,1,0.0,3.0
2021-09-23 13:32:49.861,950.0,-13.0,-46.0,951.2018713185964,1,1,1,0.0,3.0
2021-09-23 13:32:49.864,1042.0,-32.0,-46.0,1043.5056300758515,1,1,1,0.0,3.0
2021-09-23 13:32:49.865,1042.0,-32.0,74.0,1045.1143478108029,1,1,1,0.0,3.0
2021-09-23 13:32:49.876,1052.0,40.0,74.0,1055.3577592456504,1,1,1,0.0,3.0
2021-09-23 13:32:49.877,1052.0,40.0,129.0,1060.6342442142814,1,1,1,0.0,3.0
2021-09-23 13:32:49.884,901.0,-101.0,-74.0,909.6581775590214,1,1,1,0.0,3.0
2021-09-23 13:32:49.894,1008.0,57.0,-6.0,1009.628149369856,1,1,1,0.0,3.0
2021-09-23 13:32:49.903,1081.0,162.0,-6.0,1093.0878281272735,1,1,1,0.0,3.0
2021-09-23 13:32:49.904,1081.0,162.0,43.0,1093.916815850273,1,1,1,0.0,3.0
2021-09-23 13:32:49.913,1077.0,161.0,-36.0,1089.5622974387468,1,1,1,0.0,3.0
2021-09-23 13:32:49.923,987.0,43.0,-86.0,991.6723249138296,1,1,1,0.0,3.0
2021-09-23 13:32:49.934,906.0,43.0,-86.0,911.0878113551952,1,1,1,0.0,3.0
2021-09-23 13:32:49.935,906.0,12.0,-75.0,909.178200354584,1,1,1,0.0,3.0
2021-09-23 13:32:49.942,852.0,12.0,-75.0,855.3788634283641,1,1,1,0.0,3.0
2021-09-23 13:32:49.943,852.0,-12.0,-9.0,852.1320320232071,1,1,1,0.0,3.0
2021-09-23 13:32:49.952,941.0,-280.0,-9.0,981.8156649799392,1,1,1,0.0,3.0
2021-09-23 13:32:49.953,941.0,-280.0,-94.0,986.2641633963996,1,1,1,0.0,3.0
2021-09-23 13:32:49.962,1013.0,-113.0,101.0,1024.274865453605,1,1,1,0.0,3.0
2021-09-23 13:32:49.972,1255.0,-83.0,110.0,1262.54267254616,1,1,1,0.0,3.0
2021-09-23 13:32:49.982,1153.0,-83.0,110.0,1161.2054081858214,1,1,1,0.0,3.0
2021-09-23 13:32:49.983,1153.0,-23.0,131.0,1160.6459408450107,1,1,1,0.0,3.0
2021-09-23 13:32:49.991,1086.0,-125.0,131.0,1100.991371446661,1,1,1,0.0,3.0
2021-09-23 13:32:49.992,1086.0,-125.0,-91.0,1096.951229544869,1,1,1,0.0,3.0
2021-09-23 13:32:50.001,910.0,326.0,-20.0,966.8381457100252,1,1,1,0.0,3.0
2021-09-23 13:32:50.011,871.0,112.0,-101.0,883.9604063531352,1,1,1,0.0,3.0
2021-09-23 13:32:50.021,846.0,68.0,-74.0,851.9483552422647,1,1,1,0.0,3.0
2021-09-23 13:32:50.031,970.0,-90.0,-20.0,974.3715923609432,1,1,1,0.0,3.0
2021-09-23 13:32:50.041,1052.0,-90.0,-20.0,1056.0321964788764,1,1,1,0.0,3.0
2021-09-23 13:32:50.042,1052.0,-61.0,160.0,1065.844735409431,1,1,1,0.0,3.0
2021-09-23 13:32:50.050,1224.0,-40.0,167.0,1235.9874594833072,1,1,1,0.0,3.0
2021-09-23 13:32:50.060,1050.0,-14.0,111.0,1055.943653799766,1,1,1,0.0,3.0
2021-09-23 13:32:50.070,1106.0,82.0,140.0,1117.837197448716,1,1,1,0.0,3.0
2021-09-23 13:32:50.079,1004.0,27.0,-11.0,1004.4232175731504,1,1,1,0.0,3.0
2021-09-23 13:32:50.090,932.0,-101.0,-11.0,937.521199760304,1,1,1,0.0,3.0
2021-09-23 13:32:50.091,932.0,-101.0,-160.0,951.0126182128184,1,1,1,0.0,3.0
2021-09-23 13:32:50.099,851.0,-122.0,-121.0,868.1739457044308,1,1,1,0.0,3.0
2021-09-23 13:32:50.108,957.0,-122.0,-121.0,972.3034505749736,1,1,1,0.0,3.0
2021-09-23 13:32:50.109,957.0,-40.0,-48.0,959.0375383685458,1,1,1,0.0,3.0
2021-09-23 13:32:50.118,1044.0,147.0,59.0,1055.9479153821935,1,1,1,0.0,3.0
2021-09-23 13:32:50.128,979.0,38.0,65.0,981.8910326507724,1,1,1,0.0,3.0
2021-09-23 13:32:50.138,1084.0,38.0,65.0,1086.61170617659,1,1,1,0.0,3.0
2021-09-23 13:32:50.139,1084.0,237.0,164.0,1121.6599306385158,1,1,1,0.0,3.0
2021-09-23 13:32:50.152,1047.0,122.0,105.0,1059.3007127345852,1,1,1,0.0,3.0
2021-09-23 13:32:50.157,920.0,48.0,105.0,927.2157246293874,1,1,1,0.0,3.0
2021-09-23 13:32:50.158,920.0,48.0,-15.0,921.3734313512628,1,1,1,0.0,3.0
2021-09-23 13:32:50.167,906.0,-136.0,-74.0,919.1343753771806,1,1,1,0.0,3.0
2021-09-23 13:32:50.177,984.0,-136.0,-74.0,996.1064200174598,1,1,1,0.0,3.0
2021-09-23 13:32:50.178,984.0,-189.0,42.0,1002.8663918987414,1,1,1,0.0,3.0
2021-09-23 13:32:50.187,1026.0,-73.0,-122.0,1035.8035528033297,1,1,1,0.0,3.0
2021-09-23 13:32:50.198,945.0,76.0,-110.0,954.4113368983,1,1,1,0.0,3.0
2021-09-23 13:32:50.206,951.0,273.0,9.0,989.4498471372868,1,1,1,0.0,3.0
2021-09-23 13:32:50.216,951.0,350.0,17.0,1013.5038233771,1,1,1,0.0,3.0
2021-09-23 13:32:50.226,896.0,268.0,-35.0,935.8765944289876,1,1,1,0.0,3.0
2021-09-23 13:32:50.235,887.0,268.0,-35.0,927.2637165337592,1,1,1,0.0,3.0
2021-09-23 13:32:50.236,887.0,52.0,-145.0,900.2766241550427,1,1,1,0.0,3.0
2021-09-23 13:32:50.246,1180.0,-4.0,119.0,1185.9919898549065,1,1,1,0.0,3.0
2021-09-23 13:32:50.255,1064.0,80.0,35.0,1067.5771634874925,1,1,1,0.0,3.0
2021-09-23 13:32:50.265,984.0,-31.0,-30.0,984.9451761392612,1,1,1,0.0,3.0
2021-09-23 13:32:50.280,1019.0,-74.0,42.0,1022.5463314686529,1,1,1,0.0,3.0
2021-09-23 13:32:50.285,1056.0,40.0,137.0,1065.6007695192416,1,1,1,0.0,3.0
2021-09-23 13:32:50.295,1086.0,63.0,74.0,1090.339855274492,1,1,1,0.0,3.0
2021-09-23 13:32:50.304,1022.0,86.0,-2.0,1025.6139624634602,1,1,1,0.0,3.0
2021-09-23 13:32:50.322,1099.0,178.0,37.0,1113.9362638858652,1,1,1,0.0,3.0
2021-09-23 13:32:50.325,1056.0,121.0,-46.0,1063.9046009863855,1,1,1,0.0,3.0
2021-09-23 13:32:50.335,985.0,22.0,-88.0,989.1678320689568,1,1,1,0.0,3.0
2021-09-23 13:32:50.343,893.0,-1.0,-88.0,897.3260277067639,1,1,1,0.0,3.0
2021-09-23 13:32:50.344,893.0,-1.0,-67.0,895.510468950531,1,1,1,0.0,3.0
2021-09-23 13:32:50.353,1023.0,130.0,106.0,1036.6605037330205,1,1,1,0.0,3.0
2021-09-23 13:32:50.362,967.0,-217.0,106.0,996.701560147269,1,1,1,0.0,3.0
2021-09-23 13:32:50.363,967.0,-217.0,-69.0,993.4480358831056,1,1,1,0.0,3.0
2021-09-23 13:32:50.372,1015.0,-93.0,102.0,1024.3427160867598,1,1,1,0.0,3.0
2021-09-23 13:32:50.382,1275.0,-93.0,102.0,1282.4499990253032,1,1,1,0.0,3.0
2021-09-23 13:32:50.383,1275.0,-78.0,129.0,1283.8808355918395,1,1,1,0.0,3.0
2021-09-23 13:32:50.392,1167.0,-16.0,147.0,1176.3307358051986,1,1,1,0.0,3.0
2021-09-23 13:32:50.401,1085.0,-16.0,147.0,1095.0296799630594,1,1,1,0.0,3.0
2021-09-23 13:32:50.402,1085.0,-115.0,-85.0,1094.3833880318175,1,1,1,0.0,3.0
2021-09-23 13:32:50.411,970.0,-29.0,-108.0,976.4246002636352,1,1,1,0.0,3.0
2021-09-23 13:32:50.421,892.0,177.0,-91.0,913.9332579570568,1,1,1,0.0,3.0
2021-09-23 13:32:50.431,835.0,51.0,-101.0,842.6309987177068,1,1,1,0.0,3.0
2021-09-23 13:32:50.442,947.0,-141.0,-38.0,958.1930911877836,1,1,1,0.0,3.0
2021-09-23 13:32:50.450,1076.0,-33.0,-38.0,1077.17640152391,1,1,1,0.0,3.0
2021-09-23 13:32:50.451,1076.0,-33.0,155.0,1087.6074659545145,1,1,1,0.0,3.0
2021-09-23 13:32:50.460,1201.0,-16.0,155.0,1211.0664721641006,1,1,1,0.0,3.0
2021-09-23 13:32:50.461,1201.0,-16.0,161.0,1211.8490004946989,1,1,1,0.0,3.0
2021-09-23 13:32:50.470,1137.0,64.0,98.0,1143.0087488729034,1,1,1,0.0,3.0
2021-09-23 13:32:50.481,1103.0,71.0,140.0,1114.1139977578596,1,1,1,0.0,3.0
2021-09-23 13:32:50.491,1037.0,40.0,34.0,1038.3279828647594,1,1,1,0.0,3.0
2021-09-23 13:32:50.499,949.0,-59.0,-93.0,955.369562002056,1,1,1,0.0,3.0
2021-09-23 13:32:50.509,870.0,-142.0,-146.0,893.521124540433,1,1,1,0.0,3.0
2021-09-23 13:32:50.519,931.0,-70.0,-93.0,938.2483679708696,1,1,1,0.0,3.0
2021-09-23 13:32:50.529,1020.0,112.0,-93.0,1030.3363528479426,1,1,1,0.0,3.0
2021-09-23 13:32:50.530,1020.0,112.0,48.0,1027.2526466259408,1,1,1,0.0,3.0
2021-09-23 13:32:50.539,1139.0,181.0,48.0,1154.2902581240128,1,1,1,0.0,3.0
2021-09-23 13:32:50.540,1139.0,181.0,29.0,1153.656361313888,1,1,1,0.0,3.0
2021-09-23 13:32:50.548,1037.0,191.0,141.0,1063.828463616198,1,1,1,0.0,3.0
2021-09-23 13:32:50.558,1081.0,185.0,128.0,1104.160314447137,1,1,1,0.0,3.0
2021-09-23 13:32:50.567,970.0,185.0,128.0,995.7454493995943,1,1,1,0.0,3.0
2021-09-23 13:32:50.568,970.0,64.0,0.0,972.1090473810024,1,1,1,0.0,3.0
2021-09-23 13:32:50.577,861.0,-78.0,-73.0,867.6024435189196,1,1,1,0.0,3.0
2021-09-23 13:32:50.587,1006.0,-78.0,-73.0,1011.6565622779304,1,1,1,0.0,3.0
2021-09-23 13:32:50.588,1006.0,-191.0,-1.0,1023.971679295868,1,1,1,0.0,3.0
2021-09-23 13:32:50.597,1094.0,-34.0,115.0,1100.5530427925771,1,1,1,0.0,3.0
2021-09-23 13:32:50.616,965.0,23.0,-93.0,969.7437805936164,1,1,1,0.0,3.0
2021-09-23 13:32:50.618,923.0,238.0,-23.0,953.4684053496476,1,1,1,0.0,3.0
2021-09-23 13:32:50.626,997.0,319.0,-4.0,1046.7979747783236,1,1,1,0.0,3.0
2021-09-23 13:32:50.637,919.0,313.0,-4.0,970.8480828636372,1,1,1,0.0,3.0
2021-09-23 13:32:50.638,919.0,313.0,-31.0,971.3346488208892,1,1,1,0.0,3.0
2021-09-23 13:32:50.646,880.0,115.0,-120.0,895.5584849690164,1,1,1,0.0,3.0
2021-09-23 13:32:50.655,832.0,7.0,-120.0,840.6384478478248,1,1,1,0.0,3.0
2021-09-23 13:32:50.656,832.0,7.0,-72.0,835.1389106011047,1,1,1,0.0,3.0
2021-09-23 13:32:50.665,1062.0,123.0,47.0,1070.1317675875248,1,1,1,0.0,3.0
2021-09-23 13:32:50.676,993.0,123.0,47.0,1001.6920684521766,1,1,1,0.0,3.0
2021-09-23 13:32:50.677,993.0,-7.0,-64.0,995.084920999208,1,1,1,0.0,3.0
2021-09-23 13:32:50.686,1008.0,-7.0,-64.0,1010.0539589546688,1,1,1,0.0,3.0
2021-09-23 13:32:50.687,1008.0,-80.0,2.0,1011.171597702388,1,1,1,0.0,3.0
2021-09-23 13:32:50.694,1028.0,-80.0,2.0,1031.1100814171105,1,1,1,0.0,3.0
2021-09-23 13:32:50.695,1028.0,52.0,130.0,1037.491204781997,1,1,1,0.0,3.0
2021-09-23 13:32:50.704,1121.0,93.0,99.0,1129.1992738219417,1,1,1,0.0,3.0
2021-09-23 13:32:50.714,951.0,-7.0,-11.0,951.0893754006509,1,1,1,0.0,3.0
2021-09-23 13:32:50.724,1061.0,159.0,84.0,1076.1310329137432,1,1,1,0.0,3.0
2021-09-23 13:32:50.735,1137.0,130.0,-1.0,1144.4081439766146,1,1,1,0.0,3.0
2021-09-23 13:32:50.743,1001.0,22.0,-81.0,1004.512817240278,1,1,1,0.0,3.0
2021-09-23 13:32:50.753,902.0,-6.0,-108.0,908.4624373082246,1,1,1,0.0,3.0
2021-09-23 13:32:50.763,982.0,151.0,68.0,995.865954835288,1,1,1,0.0,3.0
2021-09-23 13:32:50.773,1043.0,231.0,158.0,1079.8953653016574,1,1,1,0.0,3.0
2021-09-23 13:32:50.782,974.0,-161.0,158.0,999.7804759045856,1,1,1,0.0,3.0
2021-09-23 13:32:50.783,974.0,-161.0,79.0,990.3726571346768,1,1,1,0.0,3.0
2021-09-23 13:32:50.793,1185.0,-90.0,116.0,1194.060718724136,1,1,1,0.0,3.0
2021-09-23 13:32:50.802,1198.0,-89.0,145.0,1210.0206609806296,1,1,1,0.0,3.0
2021-09-23 13:32:50.811,1144.0,-89.0,145.0,1156.582033407056,1,1,1,0.0,3.0
2021-09-23 13:32:50.812,1144.0,-95.0,-59.0,1149.452913346171,1,1,1,0.0,3.0
2021-09-23 13:32:50.821,1005.0,-54.0,-59.0,1008.1775637257556,1,1,1,0.0,3.0
2021-09-23 13:32:50.822,1005.0,-54.0,-148.0,1017.2733162724757,1,1,1,0.0,3.0
2021-09-23 13:32:50.831,948.0,151.0,-106.0,965.7851727998312,1,1,1,0.0,3.0
2021-09-23 13:32:50.842,847.0,53.0,-106.0,855.2508403971317,1,1,1,0.0,3.0
2021-09-23 13:32:50.843,847.0,53.0,-106.0,855.2508403971317,1,1,1,0.0,3.0
2021-09-23 13:32:50.851,904.0,-118.0,-23.0,911.9588806519732,1,1,1,0.0,3.0
2021-09-23 13:32:50.860,1052.0,-118.0,-23.0,1058.8470144454295,1,1,1,0.0,3.0
2021-09-23 13:32:50.861,1052.0,-88.0,147.0,1065.8597468710411,1,1,1,0.0,3.0
2021-09-23 13:32:50.879,1213.0,16.0,179.0,1226.2405962942182,1,1,1,0.0,3.0
2021-09-23 13:32:50.882,1140.0,67.0,106.0,1146.876192097473,1,1,1,0.0,3.0
2021-09-23 13:32:50.890,1015.0,34.0,-48.0,1016.7030048150738,1,1,1,0.0,3.0
2021-09-23 13:32:50.901,1041.0,41.0,33.0,1042.329602381128,1,1,1,0.0,3.0
2021-09-23 13:32:50.909,935.0,-78.0,33.0,938.827992765448,1,1,1,0.0,3.0
2021-09-23 13:32:50.910,935.0,-78.0,-116.0,945.3914533144458,1,1,1,0.0,3.0
2021-09-23 13:32:50.919,887.0,-151.0,-157.0,913.355899964521,1,1,1,0.0,3.0
2021-09-23 13:32:50.929,892.0,-89.0,-85.0,900.4498875562149,1,1,1,0.0,3.0
2021-09-23 13:32:50.939,1018.0,96.0,17.0,1022.6578117826118,1,1,1,0.0,3.0
2021-09-23 13:32:50.949,1117.0,160.0,63.0,1130.1583959781922,1,1,1,0.0,3.0
2021-09-23 13:32:50.959,1041.0,191.0,126.0,1065.850833841209,1,1,1,0.0,3.0
2021-09-23 13:32:50.968,1065.0,187.0,161.0,1093.2131539640382,1,1,1,0.0,3.0
2021-09-23 13:32:50.978,1007.0,36.0,35.0,1008.2509608227508,1,1,1,0.0,3.0
2021-09-23 13:32:50.987,856.0,-34.0,35.0,857.3896430445145,1,1,1,0.0,3.0
2021-09-23 13:32:50.988,856.0,-34.0,-55.0,858.4386990344739,1,1,1,0.0,3.0
2021-09-23 13:32:50.997,949.0,-214.0,-55.0,974.38288162303,1,1,1,0.0,3.0
2021-09-23 13:32:50.998,949.0,-214.0,-35.0,973.4587818700904,1,1,1,0.0,3.0
2021-09-23 13:32:51.008,1075.0,-160.0,-35.0,1087.405168279055,1,1,1,0.0,3.0
2021-09-23 13:32:51.009,1075.0,-160.0,87.0,1090.3183021485056,1,1,1,0.0,3.0
2021-09-23 13:32:51.017,969.0,-6.0,-103.0,974.477295784771,1,1,1,0.0,3.0
2021-09-23 13:32:51.026,928.0,-6.0,-103.0,933.7178374648308,1,1,1,0.0,3.0
2021-09-23 13:32:51.027,928.0,170.0,-60.0,945.348612946568,1,1,1,0.0,3.0
2021-09-23 13:32:51.036,927.0,313.0,-9.0,978.4574594738392,1,1,1,0.0,3.0
2021-09-23 13:32:51.046,929.0,377.0,-7.0,1002.6061041106822,1,1,1,0.0,3.0
2021-09-23 13:32:51.057,902.0,135.0,-113.0,919.0201303562396,1,1,1,0.0,3.0
2021-09-23 13:32:51.065,832.0,135.0,-113.0,850.4222480626903,1,1,1,0.0,3.0
2021-09-23 13:32:51.066,832.0,23.0,-71.0,835.3406490767703,1,1,1,0.0,3.0
2021-09-23 13:32:51.075,1070.0,97.0,66.0,1076.4130248190052,1,1,1,0.0,3.0
2021-09-23 13:32:51.085,987.0,-17.0,-42.0,988.0394728956936,1,1,1,0.0,3.0
2021-09-23 13:32:51.095,989.0,-61.0,20.0,991.0812277507832,1,1,1,0.0,3.0
2021-09-23 13:32:51.105,1072.0,40.0,122.0,1079.6610579251249,1,1,1,0.0,3.0
2021-09-23 13:32:51.115,1120.0,84.0,143.0,1132.2124358970802,1,1,1,0.0,3.0
2021-09-23 13:32:51.124,998.0,15.0,11.0,998.1733316413538,1,1,1,0.0,3.0
2021-09-23 13:32:51.134,1051.0,167.0,71.0,1066.5509833102212,1,1,1,0.0,3.0
2021-09-23 13:32:51.143,1123.0,167.0,71.0,1137.5671408756496,1,1,1,0.0,3.0
2021-09-23 13:32:51.144,1123.0,156.0,-5.0,1133.7945140103652,1,1,1,0.0,3.0
2021-09-23 13:32:51.154,1032.0,81.0,-60.0,1036.9112787505014,1,1,1,0.0,3.0
2021-09-23 13:32:51.164,913.0,30.0,-118.0,921.082515304682,1,1,1,0.0,3.0
2021-09-23 13:32:51.179,982.0,81.0,46.0,986.4081305423229,1,1,1,0.0,3.0
2021-09-23 13:32:51.183,1050.0,229.0,161.0,1086.6747443462557,1,1,1,0.0,3.0
2021-09-23 13:32:51.192,977.0,229.0,161.0,1016.312451955598,1,1,1,0.0,3.0
2021-09-23 13:32:51.193,977.0,-147.0,65.0,990.1328193732394,1,1,1,0.0,3.0
2021-09-23 13:32:51.202,1133.0,-140.0,120.0,1147.9063550656035,1,1,1,0.0,3.0
2021-09-23 13:32:51.213,1204.0,-126.0,148.0,1219.5884551765812,1,1,1,0.0,3.0
2021-09-23 13:32:51.222,1181.0,-26.0,35.0,1181.804552368961,1,1,1,0.0,3.0
2021-09-23 13:32:51.231,1065.0,-26.0,35.0,1065.8921146157336,1,1,1,0.0,3.0
2021-09-23 13:32:51.232,1065.0,-74.0,-136.0,1076.1956141891678,1,1,1,0.0,3.0
2021-09-23 13:32:51.242,930.0,80.0,-124.0,941.6347487216048,1,1,1,0.0,3.0
2021-09-23 13:32:51.251,890.0,81.0,-126.0,902.5170358502936,1,1,1,0.0,3.0
2021-09-23 13:32:51.262,869.0,-89.0,-64.0,875.8869790104201,1,1,1,0.0,3.0
2021-09-23 13:32:51.273,1046.0,-150.0,57.0,1058.2367409989129,1,1,1,0.0,3.0
2021-09-23 13:32:51.280,1155.0,19.0,57.0,1156.561714738993,1,1,1,0.0,3.0
2021-09-23 13:32:51.281,1155.0,19.0,190.0,1170.6775815740216,1,1,1,0.0,3.0
2021-09-23 13:32:51.290,1206.0,68.0,121.0,1213.960872516079,1,1,1,0.0,3.0
2021-09-23 13:32:51.300,1027.0,122.0,33.0,1034.747312149203,1,1,1,0.0,3.0
2021-09-23 13:32:51.310,964.0,-81.0,-52.0,968.7935796649356,1,1,1,0.0,3.0
2021-09-23 13:32:51.320,914.0,-81.0,-52.0,919.0544053536764,1,1,1,0.0,3.0
2021-09-23 13:32:51.321,914.0,-57.0,-48.0,917.032714792662,1,1,1,0.0,3.0
2021-09-23 13:32:51.329,896.0,-143.0,-156.0,920.6524860119588,1,1,1,0.0,3.0
2021-09-23 13:32:51.347,894.0,-94.0,-81.0,902.5702188749638,1,1,1,0.0,3.0
2021-09-23 13:32:51.350,1022.0,99.0,-17.0,1026.9245347151857,1,1,1,0.0,3.0
2021-09-23 13:32:51.359,1079.0,192.0,44.0,1096.8322570019538,1,1,1,0.0,3.0
2021-09-23 13:32:51.369,1057.0,96.0,-40.0,1062.104043867643,1,1,1,0.0,3.0
2021-09-23 13:32:51.378,1052.0,96.0,-40.0,1057.1281852263708,1,1,1,0.0,3.0
2021-09-23 13:32:51.379,1052.0,198.0,153.0,1081.3496196882857,1,1,1,0.0,3.0
2021-09-23 13:32:51.388,1065.0,9.0,60.0,1066.7267691400643,1,1,1,0.0,3.0
2021-09-23 13:32:51.397,877.0,9.0,60.0,879.0961267119768,1,1,1,0.0,3.0
2021-09-23 13:32:51.398,877.0,-22.0,-38.0,878.0985138354353,1,1,1,0.0,3.0
2021-09-23 13:32:51.407,906.0,-174.0,-38.0,923.3395908331884,1,1,1,0.0,3.0
2021-09-23 13:32:51.408,906.0,-174.0,-70.0,925.2091655404198,1,1,1,0.0,3.0
2021-09-23 13:32:51.418,1017.0,-78.0,122.0,1027.257027233204,1,1,1,0.0,3.0
2021-09-23 13:32:51.427,1236.0,-128.0,122.0,1248.5847988823186,1,1,1,0.0,3.0
2021-09-23 13:32:51.428,1236.0,-128.0,137.0,1250.1395922056065,1,1,1,0.0,3.0
2021-09-23 13:32:51.436,920.0,-128.0,137.0,938.9105388693856,1,1,1,0.0,3.0
2021-09-23 13:32:51.437,920.0,126.0,-74.0,931.5320713748936,1,1,1,0.0,3.0
2021-09-23 13:32:51.446,970.0,315.0,-74.0,1022.5463314686529,1,1,1,0.0,3.0
2021-09-23 13:32:51.447,970.0,315.0,-1.0,1019.8656774301212,1,1,1,0.0,3.0
2021-09-23 13:32:51.456,966.0,434.0,27.0,1059.3587683122275,1,1,1,0.0,3.0
2021-09-23 13:32:51.469,896.0,222.0,-81.0,926.6396279028866,1,1,1,0.0,3.0
2021-09-23 13:32:51.476,843.0,30.0,-119.0,851.8861426270532,1,1,1,0.0,3.0
2021-09-23 13:32:51.485,895.0,30.0,-119.0,903.3747837968468,1,1,1,0.0,3.0
2021-09-23 13:32:51.486,895.0,-167.0,-52.0,911.9309184362596,1,1,1,0.0,3.0
2021-09-23 13:32:51.495,1016.0,29.0,-51.0,1017.6924879353292,1,1,1,0.0,3.0
2021-09-23 13:32:51.506,955.0,-81.0,-5.0,958.4419648575496,1,1,1,0.0,3.0
2021-09-23 13:32:51.515,1047.0,-14.0,91.0,1051.040436900503,1,1,1,0.0,3.0
2021-09-23 13:32:51.524,1085.0,-14.0,91.0,1088.899444393283,1,1,1,0.0,3.0
2021-09-23 13:32:51.525,1085.0,101.0,158.0,1101.0858277173493,1,1,1,0.0,3.0
2021-09-23 13:32:51.535,1037.0,81.0,28.0,1040.5354390889336,1,1,1,0.0,3.0
2021-09-23 13:32:51.544,942.0,-117.0,-106.0,955.138209894254,1,1,1,0.0,3.0
2021-09-23 13:32:51.554,1115.0,137.0,45.0,1124.2859956434572,1,1,1,0.0,3.0
2021-09-23 13:32:51.564,1072.0,74.0,-42.0,1075.3715636932195,1,1,1,0.0,3.0
2021-09-23 13:32:51.573,994.0,53.0,-42.0,996.2976462884976,1,1,1,0.0,3.0
2021-09-23 13:32:51.574,994.0,53.0,-98.0,1000.2244748055308,1,1,1,0.0,3.0
2021-09-23 13:32:51.583,913.0,57.0,-38.0,915.5664913047004,1,1,1,0.0,3.0
2021-09-23 13:32:51.593,1049.0,119.0,111.0,1061.547455368812,1,1,1,0.0,3.0
2021-09-23 13:32:51.603,1056.0,191.0,169.0,1086.3599771714714,1,1,1,0.0,3.0
2021-09-23 13:32:51.613,1010.0,-90.0,169.0,1027.9888131687037,1,1,1,0.0,3.0
2021-09-23 13:32:51.614,1010.0,-90.0,130.0,1022.30132544177,1,1,1,0.0,3.0
2021-09-23 13:32:51.630,1291.0,-115.0,130.0,1302.6150620962435,1,1,1,0.0,3.0
2021-09-23 13:32:51.631,1291.0,-115.0,160.0,1305.9502287606522,1,1,1,0.0,3.0
2021-09-23 13:32:51.632,1220.0,-11.0,160.0,1230.496241359558,1,1,1,0.0,3.0
2021-09-23 13:32:51.633,1220.0,-11.0,74.0,1222.2917000454515,1,1,1,0.0,3.0
2021-09-23 13:32:51.642,1071.0,-121.0,-150.0,1088.2012681484985,1,1,1,0.0,3.0
2021-09-23 13:32:51.653,921.0,-8.0,-133.0,930.5879861678852,1,1,1,0.0,3.0
2021-09-23 13:32:51.662,939.0,194.0,-4.0,958.8394026113028,1,1,1,0.0,3.0
2021-09-23 13:32:51.671,799.0,-33.0,-57.0,801.7100473363172,1,1,1,0.0,3.0
2021-09-23 13:32:51.681,999.0,-180.0,11.0,1015.146294875768,1,1,1,0.0,3.0
2021-09-23 13:32:51.691,1098.0,-29.0,176.0,1112.3942646382172,1,1,1,0.0,3.0
2021-09-23 13:32:51.701,1253.0,42.0,172.0,1265.4473517298145,1,1,1,0.0,3.0
2021-09-23 13:32:51.711,1057.0,42.0,172.0,1071.7261777151848,1,1,1,0.0,3.0
2021-09-23 13:32:51.712,1057.0,82.0,87.0,1063.7396297966905,1,1,1,0.0,3.0
2021-09-23 13:32:51.720,994.0,-49.0,-72.0,997.808097782334,1,1,1,0.0,3.0
2021-09-23 13:32:51.729,954.0,-49.0,-72.0,957.967118433613,1,1,1,0.0,3.0
2021-09-23 13:32:51.730,954.0,-12.0,-27.0,954.457437500489,1,1,1,0.0,3.0
2021-09-23 13:32:51.739,936.0,-120.0,-27.0,944.0471386535738,1,1,1,0.0,3.0
2021-09-23 13:32:51.740,936.0,-120.0,-150.0,955.508241722697,1,1,1,0.0,3.0
2021-09-23 13:32:51.749,853.0,-123.0,-114.0,869.3296267814643,1,1,1,0.0,3.0
2021-09-23 13:32:51.760,963.0,-123.0,-114.0,977.493733995262,1,1,1,0.0,3.0
2021-09-23 13:32:51.761,963.0,22.0,-52.0,964.6538239181972,1,1,1,0.0,3.0
2021-09-23 13:32:51.769,1020.0,183.0,75.0,1038.9966313708626,1,1,1,0.0,3.0
2021-09-23 13:32:51.778,1186.0,149.0,75.0,1197.6735782340695,1,1,1,0.0,3.0
2021-09-23 13:32:51.779,1186.0,149.0,11.0,1195.3735817726608,1,1,1,0.0,3.0
2021-09-23 13:32:51.788,1069.0,231.0,221.0,1115.7791000014297,1,1,1,0.0,3.0
2021-09-23 13:32:51.798,1086.0,75.0,127.0,1095.9698900973513,1,1,1,0.0,3.0
2021-09-23 13:32:51.809,936.0,-25.0,-28.0,936.7523685585214,1,1,1,0.0,3.0
2021-09-23 13:32:51.817,905.0,-25.0,-28.0,905.7781185257236,1,1,1,0.0,3.0
2021-09-23 13:32:51.818,905.0,-65.0,-79.0,910.7639650315552,1,1,1,0.0,3.0
2021-09-23 13:32:51.827,944.0,-202.0,21.0,965.5987779611156,1,1,1,0.0,3.0
2021-09-23 13:32:51.837,1071.0,-75.0,145.0,1083.3702045007517,1,1,1,0.0,3.0
2021-09-23 13:32:51.847,937.0,29.0,-122.0,945.3539019859176,1,1,1,0.0,3.0
2021-09-23 13:32:51.857,922.0,184.0,0.0,940.1808336697786,1,1,1,0.0,3.0
2021-09-23 13:32:51.870,987.0,184.0,0.0,1004.0044820617088,1,1,1,0.0,3.0
2021-09-23 13:32:51.871,987.0,368.0,38.0,1054.057398816592,1,1,1,0.0,3.0
2021-09-23 13:32:51.876,941.0,345.0,-34.0,1002.8270040241238,1,1,1,0.0,3.0
2021-09-23 13:32:51.894,890.0,119.0,-152.0,910.6947897072872,1,1,1,0.0,3.0
2021-09-23 13:32:51.897,796.0,-80.0,-69.0,802.9800744725861,1,1,1,0.0,3.0
2021-09-23 13:32:51.905,1061.0,-80.0,-69.0,1066.246688154294,1,1,1,0.0,3.0
2021-09-23 13:32:51.906,1061.0,64.0,32.0,1063.4100808248904,1,1,1,0.0,3.0
2021-09-23 13:32:51.916,929.0,-109.0,-43.0,936.3605074969788,1,1,1,0.0,3.0
2021-09-23 13:32:51.925,1025.0,-39.0,57.0,1027.3241942055097,1,1,1,0.0,3.0
2021-09-23 13:32:51.935,1107.0,88.0,140.0,1119.2823593713963,1,1,1,0.0,3.0
2021-09-23 13:32:51.944,1116.0,88.0,140.0,1128.1843820936365,1,1,1,0.0,3.0
2021-09-23 13:32:51.945,1116.0,82.0,107.0,1124.1125388500925,1,1,1,0.0,3.0
2021-09-23 13:32:51.954,967.0,-55.0,-18.0,968.7300965697308,1,1,1,0.0,3.0
2021-09-23 13:32:51.964,1044.0,-55.0,-18.0,1045.602697012589,1,1,1,0.0,3.0
2021-09-23 13:32:51.965,1044.0,161.0,53.0,1057.6700808853393,1,1,1,0.0,3.0
2021-09-23 13:32:51.974,1098.0,109.0,-5.0,1103.408355958935,1,1,1,0.0,3.0
2021-09-23 13:32:51.983,1009.0,109.0,-5.0,1014.882751848705,1,1,1,0.0,3.0
2021-09-23 13:32:51.984,1009.0,51.0,-73.0,1012.922010818207,1,1,1,0.0,3.0
2021-09-23 13:32:51.994,918.0,35.0,-135.0,928.53325196247,1,1,1,0.0,3.0
2021-09-23 13:32:52.003,979.0,122.0,69.0,988.9823052006542,1,1,1,0.0,3.0
2021-09-23 13:32:52.013,1067.0,193.0,168.0,1097.252022098843,1,1,1,0.0,3.0
2021-09-23 13:32:52.023,994.0,-125.0,168.0,1015.817404851876,1,1,1,0.0,3.0
2021-09-23 13:32:52.024,994.0,-125.0,106.0,1007.420964641892,1,1,1,0.0,3.0
2021-09-23 13:32:52.032,1192.0,-128.0,139.0,1206.884004368274,1,1,1,0.0,3.0
2021-09-23 13:32:52.042,1208.0,-113.0,166.0,1224.5770698490153,1,1,1,0.0,3.0
2021-09-23 13:32:52.052,1153.0,-55.0,-31.0,1154.7272405204617,1,1,1,0.0,3.0
2021-09-23 13:32:52.064,1022.0,-83.0,-144.0,1035.4269650728631,1,1,1,0.0,3.0
2021-09-23 13:32:52.072,938.0,60.0,-105.0,945.7637125624984,1,1,1,0.0,3.0
2021-09-23 13:32:52.081,860.0,61.0,-124.0,871.0321463643004,1,1,1,0.0,3.0
2021-09-23 13:32:52.091,905.0,-141.0,-67.0,918.3653956895372,1,1,1,0.0,3.0
2021-09-23 13:32:52.101,1034.0,-138.0,72.0,1045.6500370582885,1,1,1,0.0,3.0
2021-09-23 13:32:52.110,1165.0,-138.0,72.0,1175.3522876142283,1,1,1,0.0,3.0
2021-09-23 13:32:52.111,1165.0,37.0,161.0,1176.6541547965571,1,1,1,0.0,3.0
2021-09-23 13:32:52.121,1171.0,110.0,123.0,1182.569236873681,1,1,1,0.0,3.0
2021-09-23 13:32:52.130,1030.0,28.0,123.0,1037.6960055815962,1,1,1,0.0,3.0
2021-09-23 13:32:52.131,1030.0,28.0,-18.0,1030.5377237151486,1,1,1,0.0,3.0
2021-09-23 13:32:52.140,1094.0,52.0,52.0,1096.4688778073,1,1,1,0.0,3.0
2021-09-23 13:32:52.150,919.0,-113.0,-70.0,928.5634065587552,1,1,1,0.0,3.0
2021-09-23 13:32:52.159,889.0,-180.0,-150.0,919.3590158365772,1,1,1,0.0,3.0
2021-09-23 13:32:52.169,900.0,-45.0,-68.0,903.6863393899456,1,1,1,0.0,3.0
2021-09-23 13:32:52.180,1026.0,140.0,0.0,1035.507604993802,1,1,1,0.0,3.0
2021-09-23 13:32:52.189,1056.0,190.0,40.0,1073.7020070764513,1,1,1,0.0,3.0
2021-09-23 13:32:52.207,1022.0,129.0,109.0,1035.8600291545183,1,1,1,0.0,3.0
2021-09-23 13:32:52.212,1074.0,186.0,173.0,1103.630825955854,1,1,1,0.0,3.0
2021-09-23 13:32:52.219,1035.0,103.0,60.0,1041.8416386380418,1,1,1,0.0,3.0
2021-09-23 13:32:52.228,937.0,-18.0,-19.0,937.365457012365,1,1,1,0.0,3.0
2021-09-23 13:32:52.237,956.0,-153.0,-19.0,968.352208651377,1,1,1,0.0,3.0
2021-09-23 13:32:52.238,956.0,-153.0,-71.0,970.7656771847674,1,1,1,0.0,3.0
2021-09-23 13:32:52.247,1003.0,-146.0,89.0,1017.470392689635,1,1,1,0.0,3.0
2021-09-23 13:32:52.264,963.0,-28.0,89.0,967.509173083129,1,1,1,0.0,3.0
2021-09-23 13:32:52.265,963.0,-28.0,-107.0,969.3306969244294,1,1,1,0.0,3.0
2021-09-23 13:32:52.267,926.0,-28.0,-107.0,932.5818998886908,1,1,1,0.0,3.0
2021-09-23 13:32:52.268,926.0,126.0,-45.0,935.6158399685204,1,1,1,0.0,3.0
2021-09-23 13:32:52.276,948.0,126.0,-45.0,957.3949028483491,1,1,1,0.0,3.0
2021-09-23 13:32:52.277,948.0,307.0,13.0,996.5550662156106,1,1,1,0.0,3.0
2021-09-23 13:32:52.287,959.0,421.0,-24.0,1047.6153874394934,1,1,1,0.0,3.0
2021-09-23 13:32:52.296,906.0,176.0,-101.0,928.4465520427118,1,1,1,0.0,3.0
2021-09-23 13:32:52.306,832.0,3.0,-95.0,837.4114878600603,1,1,1,0.0,3.0
2021-09-23 13:32:52.315,1059.0,3.0,-95.0,1063.256789303506,1,1,1,0.0,3.0
2021-09-23 13:32:52.316,1059.0,112.0,77.0,1067.686283512156,1,1,1,0.0,3.0
2021-09-23 13:32:52.326,988.0,-27.0,-42.0,989.2608351693702,1,1,1,0.0,3.0
2021-09-23 13:32:52.335,974.0,-81.0,16.0,977.493222482898,1,1,1,0.0,3.0
2021-09-23 13:32:52.345,1091.0,27.0,99.0,1095.8152216500737,1,1,1,0.0,3.0
2021-09-23 13:32:52.382,1118.0,124.0,143.0,1133.908726485514,1,1,1,0.0,3.0
2021-09-23 13:32:52.410,1039.0,16.0,7.0,1039.1467653801362,1,1,1,0.0,3.0
2021-09-23 13:32:52.416,1118.0,98.0,-1.0,1122.2873963472994,1,1,1,0.0,3.0
2021-09-23 13:32:52.418,972.0,98.0,-1.0,976.9283494709324,1,1,1,0.0,3.0
2021-09-23 13:32:52.419,972.0,42.0,-95.0,977.5341426262308,1,1,1,0.0,3.0
2021-09-23 13:32:52.420,964.0,42.0,-95.0,969.5798058953168,1,1,1,0.0,3.0
2021-09-23 13:32:52.421,964.0,79.0,34.0,967.8290138242396,1,1,1,0.0,3.0
2021-09-23 13:32:52.426,1051.0,159.0,161.0,1075.0827875098737,1,1,1,0.0,3.0
2021-09-23 13:32:52.433,938.0,-197.0,-5.0,958.4769167799504,1,1,1,0.0,3.0
2021-09-23 13:32:52.445,1052.0,-117.0,143.0,1068.1020550490482,1,1,1,0.0,3.0
2021-09-23 13:32:52.452,1227.0,-147.0,178.0,1248.5279332077437,1,1,1,0.0,3.0
2021-09-23 13:32:52.463,904.0,-183.0,-61.0,924.351664681792,1,1,1,0.0,3.0
2021-09-23 13:32:52.473,1075.0,-45.0,-143.0,1085.4026902491075,1,1,1,0.0,3.0
2021-09-23 13:32:52.482,957.0,47.0,-124.0,966.143881624264,1,1,1,0.0,3.0
2021-09-23 13:32:52.492,875.0,114.0,-155.0,895.9051289059573,1,1,1,0.0,3.0
2021-09-23 13:32:52.501,829.0,-114.0,-68.0,839.5600038115203,1,1,1,0.0,3.0
2021-09-23 13:32:52.511,1012.0,-198.0,26.0,1031.5153900936234,1,1,1,0.0,3.0
2021-09-23 13:32:52.521,1108.0,-198.0,26.0,1125.85256583622,1,1,1,0.0,3.0
2021-09-23 13:32:52.522,1108.0,11.0,156.0,1118.9821267562766,1,1,1,0.0,3.0
2021-09-23 13:32:52.530,1231.0,11.0,156.0,1240.8940325426663,1,1,1,0.0,3.0
2021-09-23 13:32:52.531,1231.0,89.0,134.0,1241.4660688073598,1,1,1,0.0,3.0
2021-09-23 13:32:52.540,1056.0,117.0,55.0,1063.8843922156204,1,1,1,0.0,3.0
2021-09-23 13:32:52.550,1140.0,108.0,111.0,1150.471642414536,1,1,1,0.0,3.0
2021-09-23 13:32:52.560,961.0,-39.0,-13.0,961.8788905054524,1,1,1,0.0,3.0
2021-09-23 13:32:52.570,943.0,-177.0,-141.0,969.7726537699442,1,1,1,0.0,3.0
2021-09-23 13:32:52.580,859.0,-115.0,-117.0,874.5255856748846,1,1,1,0.0,3.0
2021-09-23 13:32:52.589,985.0,89.0,-50.0,990.2757191812792,1,1,1,0.0,3.0
2021-09-23 13:32:52.599,1031.0,185.0,65.0,1049.4813004527523,1,1,1,0.0,3.0
2021-09-23 13:32:52.608,999.0,185.0,65.0,1018.062375299274,1,1,1,0.0,3.0
2021-09-23 13:32:52.609,999.0,134.0,69.0,1010.305894271631,1,1,1,0.0,3.0
2021-09-23 13:32:52.618,1059.0,170.0,173.0,1086.420728815499,1,1,1,0.0,3.0
2021-09-23 13:32:52.636,1066.0,74.0,98.0,1073.0498590466334,1,1,1,0.0,3.0
2021-09-23 13:32:52.638,930.0,41.0,-23.0,931.1874140042916,1,1,1,0.0,3.0
2021-09-23 13:32:52.648,941.0,-71.0,-91.0,948.0522137519642,1,1,1,0.0,3.0
2021-09-23 13:32:52.658,968.0,-146.0,62.0,980.9097817842372,1,1,1,0.0,3.0
2021-09-23 13:32:52.668,1011.0,-37.0,-128.0,1019.7421242647574,1,1,1,0.0,3.0
2021-09-23 13:32:52.677,954.0,75.0,-88.0,960.981269328388,1,1,1,0.0,3.0
2021-09-23 13:32:52.687,954.0,222.0,0.0,979.4896630388704,1,1,1,0.0,3.0
2021-09-23 13:32:52.696,969.0,422.0,0.0,1056.90349606764,1,1,1,0.0,3.0
2021-09-23 13:32:52.697,969.0,422.0,6.0,1056.9205268136295,1,1,1,0.0,3.0
2021-09-23 13:32:52.706,915.0,295.0,-63.0,963.441228098528,1,1,1,0.0,3.0
2021-09-23 13:32:52.718,881.0,75.0,-127.0,893.2608801464442,1,1,1,0.0,3.0
2021-09-23 13:32:52.726,1153.0,127.0,108.0,1164.990128713544,1,1,1,0.0,3.0
2021-09-23 13:32:52.735,1032.0,127.0,108.0,1045.3788786846617,1,1,1,0.0,3.0
2021-09-23 13:32:52.736,1032.0,26.0,-5.0,1032.3395759148243,1,1,1,0.0,3.0
2021-09-23 13:32:52.745,937.0,-85.0,-28.0,941.264043719933,1,1,1,0.0,3.0
2021-09-23 13:32:52.755,1029.0,-17.0,62.0,1031.006304539405,1,1,1,0.0,3.0
2021-09-23 13:32:52.766,1103.0,105.0,149.0,1117.9601960713985,1,1,1,0.0,3.0
2021-09-23 13:32:52.774,1138.0,105.0,149.0,1152.5059652774037,1,1,1,0.0,3.0
2021-09-23 13:32:52.775,1138.0,76.0,101.0,1144.9982532737768,1,1,1,0.0,3.0
2021-09-23 13:32:52.784,1029.0,132.0,3.0,1037.4362631024617,1,1,1,0.0,3.0
2021-09-23 13:32:52.794,1078.0,174.0,45.0,1092.879224800252,1,1,1,0.0,3.0
2021-09-23 13:32:52.804,1043.0,56.0,-34.0,1045.0555009184918,1,1,1,0.0,3.0
2021-09-23 13:32:52.816,1038.0,104.0,-54.0,1044.593700919166,1,1,1,0.0,3.0
2021-09-23 13:32:52.823,1003.0,142.0,-54.0,1014.4402397381524,1,1,1,0.0,3.0
2021-09-23 13:32:52.824,1003.0,142.0,-27.0,1013.3617320582024,1,1,1,0.0,3.0
2021-09-23 13:32:52.833,979.0,53.0,-22.0,980.680376065515,1,1,1,0.0,3.0
2021-09-23 13:32:52.843,1138.0,61.0,108.0,1144.739708405365,1,1,1,0.0,3.0
2021-09-23 13:32:52.853,972.0,-100.0,-30.0,977.5909164880778,1,1,1,0.0,3.0
2021-09-23 13:32:52.863,950.0,106.0,-5.0,955.9084684215323,1,1,1,0.0,3.0
2021-09-23 13:32:52.872,1103.0,193.0,155.0,1130.434872073575,1,1,1,0.0,3.0
2021-09-23 13:32:52.882,1108.0,10.0,43.0,1108.8791638406774,1,1,1,0.0,3.0
2021-09-23 13:32:52.892,946.0,-82.0,-121.0,957.2256787194962,1,1,1,0.0,3.0
2021-09-23 13:32:52.909,1045.0,66.0,-121.0,1054.0502834305391,1,1,1,0.0,3.0
2021-09-23 13:32:52.910,1045.0,66.0,-12.0,1047.1508964805407,1,1,1,0.0,3.0
2021-09-23 13:32:52.912,955.0,-25.0,-93.0,959.843216364006,1,1,1,0.0,3.0
2021-09-23 13:32:52.921,964.0,-5.0,3.0,964.0176346934738,1,1,1,0.0,3.0
2021-09-23 13:32:52.931,1034.0,36.0,65.0,1036.6662915326224,1,1,1,0.0,3.0
2021-09-23 13:32:52.942,1040.0,54.0,65.0,1043.4275250346811,1,1,1,0.0,3.0
2021-09-23 13:32:52.943,1040.0,54.0,43.0,1042.2883478193546,1,1,1,0.0,3.0
2021-09-23 13:32:52.950,1002.0,20.0,3.0,1002.2040710354354,1,1,1,0.0,3.0
2021-09-23 13:32:52.960,1026.0,40.0,7.0,1026.8032917750118,1,1,1,0.0,3.0
2021-09-23 13:32:52.970,1007.0,26.0,-19.0,1007.5147641598112,1,1,1,0.0,3.0
2021-09-23 13:32:52.980,1004.0,32.0,-10.0,1004.5596050011168,1,1,1,0.0,3.0
2021-09-23 13:32:52.990,1011.0,30.0,-7.0,1011.4692283999548,1,1,1,0.0,3.0
2021-09-23 13:32:52.999,1011.0,30.0,-4.0,1011.4529153648232,1,1,1,0.0,3.0
2021-09-23 13:32:53.009,1014.0,31.0,2.0,1014.4757266687064,1,1,1,0.0,3.0
2021-09-23 13:32:53.019,1014.0,19.0,2.0,1014.1799643061383,1,1,1,0.0,3.0
2021-09-23 13:32:53.020,1014.0,19.0,23.0,1014.4387610891058,1,1,1,0.0,3.0
2021-09-23 13:32:53.028,1018.0,19.0,23.0,1018.4370378182444,1,1,1,0.0,3.0
