time_stamp,Acceleration_X,Acceleration_Y,Acceleration_Z,magnitude,STD_Status_right,STD_Status_left,STD_Status_both,KMeans,KMeans_convert
2021-08-12 06:18:35.844,1054.0,-96.0,9.0,1058.4011526826678,1,1,1,3.0,3.0
2021-08-12 06:18:35.852,983.0,38.0,7.0,983.7591168573738,1,1,1,3.0,3.0
2021-08-12 06:18:35.862,1023.0,13.0,7.0,1023.1065438164296,1,1,1,3.0,3.0
2021-08-12 06:18:35.863,1023.0,13.0,5.0,1023.0948147654742,1,1,1,3.0,3.0
2021-08-12 06:18:35.872,1005.0,110.0,6.0,1011.0197822001307,1,1,1,3.0,3.0
2021-08-12 06:18:35.882,1034.0,110.0,6.0,1039.851912533703,1,1,1,3.0,3.0
2021-08-12 06:18:35.883,1034.0,80.0,-10.0,1037.138370710485,1,1,1,3.0,3.0
2021-08-12 06:18:35.891,1012.0,80.0,1.0,1015.1576232290234,1,1,1,3.0,3.0
2021-08-12 06:18:35.902,963.0,49.0,20.0,964.4532129657716,1,1,1,3.0,3.0
2021-08-12 06:18:35.916,982.0,91.0,13.0,986.2930598964996,1,1,1,3.0,3.0
2021-08-12 06:18:35.922,991.0,56.0,18.0,992.744176512761,1,1,1,3.0,3.0
2021-08-12 06:18:35.930,1037.0,34.0,19.0,1037.7311790632486,1,1,1,3.0,3.0
2021-08-12 06:18:35.940,1010.0,34.0,19.0,1010.7507111053644,1,1,1,3.0,3.0
2021-08-12 06:18:35.941,1010.0,7.0,14.0,1010.121279847128,1,1,1,3.0,3.0
2021-08-12 06:18:35.950,1019.0,7.0,14.0,1019.1202088075772,1,1,1,3.0,3.0
2021-08-12 06:18:35.951,1019.0,1.0,26.0,1019.3321342918608,1,1,1,3.0,3.0
2021-08-12 06:18:35.961,1009.0,34.0,16.0,1009.6994602355692,1,1,1,3.0,3.0
2021-08-12 06:18:35.971,1032.0,15.0,-4.0,1032.1167569611491,1,1,1,3.0,3.0
2021-08-12 06:18:35.980,1011.0,81.0,-4.0,1014.2475043104616,1,1,1,3.0,3.0
2021-08-12 06:18:35.990,993.0,53.0,-11.0,994.4742329492504,1,1,1,3.0,3.0
2021-08-12 06:18:35.999,993.0,53.0,-11.0,994.4742329492504,1,1,1,3.0,3.0
2021-08-12 06:18:36.000,993.0,81.0,19.0,996.4793023440076,1,1,1,3.0,3.0
2021-08-12 06:18:36.009,1013.0,36.0,2.0,1013.6414553479945,1,1,1,3.0,3.0
2021-08-12 06:18:36.020,1025.0,73.0,18.0,1027.7538615835992,1,1,1,3.0,3.0
2021-08-12 06:18:36.029,1010.0,49.0,20.0,1011.3856831100586,1,1,1,3.0,3.0
2021-08-12 06:18:36.037,1022.0,28.0,20.0,1022.5790922955543,1,1,1,3.0,3.0
2021-08-12 06:18:36.038,1022.0,28.0,30.0,1022.8235429437476,1,1,1,3.0,3.0
2021-08-12 06:18:36.048,1019.0,28.0,30.0,1019.8259655451022,1,1,1,3.0,3.0
2021-08-12 06:18:36.049,1019.0,20.0,20.0,1019.3924661287232,1,1,1,3.0,3.0
2021-08-12 06:18:36.057,1016.0,20.0,20.0,1016.3936245372656,1,1,1,3.0,3.0
2021-08-12 06:18:36.058,1016.0,45.0,21.0,1017.21285874688,1,1,1,3.0,3.0
2021-08-12 06:18:36.068,1049.0,19.0,12.0,1049.2406778237298,1,1,1,3.0,3.0
2021-08-12 06:18:36.078,987.0,54.0,5.0,988.4887455100336,1,1,1,3.0,3.0
2021-08-12 06:18:36.087,1012.0,38.0,7.0,1012.7373795807084,1,1,1,3.0,3.0
2021-08-12 06:18:36.097,989.0,85.0,5.0,992.658551567456,1,1,1,3.0,3.0
2021-08-12 06:18:36.107,1003.0,83.0,16.0,1006.555512627098,1,1,1,3.0,3.0
2021-08-12 06:18:36.120,1004.0,46.0,4.0,1005.0611921669248,1,1,1,3.0,3.0
2021-08-12 06:18:36.127,1010.0,16.0,4.0,1010.1346444905254,1,1,1,3.0,3.0
2021-08-12 06:18:36.128,1010.0,16.0,8.0,1010.1584034199784,1,1,1,3.0,3.0
2021-08-12 06:18:36.136,1028.0,70.0,26.0,1030.708494192223,1,1,1,3.0,3.0
2021-08-12 06:18:36.145,1009.0,70.0,26.0,1011.7593587410004,1,1,1,3.0,3.0
2021-08-12 06:18:36.146,1009.0,28.0,19.0,1009.5672340166354,1,1,1,3.0,3.0
2021-08-12 06:18:36.156,1025.0,52.0,16.0,1026.4428868670675,1,1,1,3.0,3.0
2021-08-12 06:18:36.165,1038.0,-4.0,17.0,1038.146906752604,1,1,1,3.0,3.0
2021-08-12 06:18:36.176,1012.0,67.0,7.0,1014.2396166587064,1,1,1,3.0,3.0
2021-08-12 06:18:36.185,990.0,15.0,-10.0,990.1641278091224,1,1,1,3.0,3.0
2021-08-12 06:18:36.194,990.0,99.0,4.0,994.9457271630448,1,1,1,3.0,3.0
2021-08-12 06:18:36.205,1041.0,44.0,2.0,1041.9313796982983,1,1,1,3.0,3.0
2021-08-12 06:18:36.214,977.0,60.0,4.0,978.8488136581664,1,1,1,3.0,3.0
2021-08-12 06:18:36.224,981.0,42.0,20.0,982.1023368264632,1,1,1,3.0,3.0
2021-08-12 06:18:36.234,1002.0,42.0,20.0,1003.0792590817535,1,1,1,3.0,3.0
2021-08-12 06:18:36.235,1002.0,101.0,45.0,1008.0823379069788,1,1,1,3.0,3.0
2021-08-12 06:18:36.243,992.0,37.0,14.0,992.7884971130558,1,1,1,3.0,3.0
2021-08-12 06:18:36.253,1040.0,37.0,14.0,1040.7521318738677,1,1,1,3.0,3.0
2021-08-12 06:18:36.254,1040.0,59.0,18.0,1041.8277208828722,1,1,1,3.0,3.0
2021-08-12 06:18:36.264,1029.0,-13.0,9.0,1029.1214699927311,1,1,1,3.0,3.0
2021-08-12 06:18:36.272,1006.0,68.0,9.0,1008.3357575728434,1,1,1,3.0,3.0
2021-08-12 06:18:36.273,1006.0,68.0,23.0,1008.5578813335404,1,1,1,3.0,3.0
2021-08-12 06:18:36.282,1001.0,24.0,4.0,1001.2956606317636,1,1,1,3.0,3.0
2021-08-12 06:18:36.292,1023.0,50.0,5.0,1024.2333718445225,1,1,1,3.0,3.0
2021-08-12 06:18:36.302,1049.0,40.0,-4.0,1049.7699748040045,1,1,1,3.0,3.0
2021-08-12 06:18:36.312,972.0,44.0,9.0,973.0369982688222,1,1,1,3.0,3.0
2021-08-12 06:18:36.322,1009.0,37.0,19.0,1009.8569205585512,1,1,1,3.0,3.0
2021-08-12 06:18:36.344,997.0,49.0,3.0,998.207894178362,1,1,1,3.0,3.0
2021-08-12 06:18:36.345,1056.0,49.0,3.0,1057.140482622816,1,1,1,3.0,3.0
2021-08-12 06:18:36.346,1056.0,45.0,34.0,1057.505082730102,1,1,1,3.0,3.0
2021-08-12 06:18:36.350,1028.0,45.0,34.0,1029.546016455797,1,1,1,3.0,3.0
2021-08-12 06:18:36.351,1028.0,49.0,14.0,1029.2623572248235,1,1,1,3.0,3.0
2021-08-12 06:18:36.360,1025.0,49.0,14.0,1026.2660473775793,1,1,1,3.0,3.0
2021-08-12 06:18:36.361,1025.0,-4.0,-2.0,1025.0097560511315,1,1,1,3.0,3.0
2021-08-12 06:18:36.370,1004.0,51.0,28.0,1005.6843441159856,1,1,1,3.0,3.0
2021-08-12 06:18:36.382,1029.0,32.0,4.0,1029.5052209678202,1,1,1,3.0,3.0
2021-08-12 06:18:36.390,1012.0,47.0,4.0,1013.098711873626,1,1,1,3.0,3.0
2021-08-12 06:18:36.391,1012.0,47.0,2.0,1013.092789432439,1,1,1,3.0,3.0
2021-08-12 06:18:36.400,975.0,40.0,2.0,975.8222174146272,1,1,1,3.0,3.0
2021-08-12 06:18:36.401,975.0,40.0,-13.0,975.9067578411372,1,1,1,3.0,3.0
2021-08-12 06:18:36.415,978.0,66.0,-6.0,980.2428270586836,1,1,1,3.0,3.0
2021-08-12 06:18:36.424,1008.0,45.0,7.0,1009.028245392566,1,1,1,3.0,3.0
2021-08-12 06:18:36.429,997.0,44.0,3.0,997.9749495854091,1,1,1,3.0,3.0
2021-08-12 06:18:36.439,1056.0,45.0,36.0,1057.5712741938485,1,1,1,3.0,3.0
2021-08-12 06:18:36.448,1020.0,20.0,22.0,1020.4332413244877,1,1,1,3.0,3.0
2021-08-12 06:18:36.459,1008.0,0.0,1.0,1008.000496031624,1,1,1,3.0,3.0
2021-08-12 06:18:36.478,1021.0,43.0,30.0,1022.3453428269726,1,1,1,3.0,3.0
2021-08-12 06:18:36.481,1025.0,20.0,0.0,1025.195103382766,1,1,1,3.0,3.0
2021-08-12 06:18:36.488,1015.0,40.0,8.0,1015.8193737077472,1,1,1,3.0,3.0
2021-08-12 06:18:36.497,981.0,34.0,-10.0,981.6399543620868,1,1,1,3.0,3.0
2021-08-12 06:18:36.507,1004.0,40.0,6.0,1004.814410724687,1,1,1,3.0,3.0
2021-08-12 06:18:36.516,969.0,40.0,6.0,969.8438018567732,1,1,1,3.0,3.0
2021-08-12 06:18:36.517,969.0,48.0,12.0,970.2623356597946,1,1,1,3.0,3.0
2021-08-12 06:18:36.527,1016.0,48.0,12.0,1017.2040110027092,1,1,1,3.0,3.0
2021-08-12 06:18:36.528,1016.0,53.0,-3.0,1017.3858658345908,1,1,1,3.0,3.0
2021-08-12 06:18:36.536,1024.0,50.0,20.0,1025.4150379236692,1,1,1,3.0,3.0
2021-08-12 06:18:36.546,1032.0,9.0,19.0,1032.214125072894,1,1,1,3.0,3.0
2021-08-12 06:18:36.556,1017.0,49.0,35.0,1018.7811344935672,1,1,1,3.0,3.0
2021-08-12 06:18:36.565,1016.0,46.0,26.0,1017.3730879082658,1,1,1,3.0,3.0
2021-08-12 06:18:36.576,1024.0,42.0,21.0,1025.0760947363858,1,1,1,3.0,3.0
2021-08-12 06:18:36.585,1038.0,23.0,3.0,1038.2591198732616,1,1,1,3.0,3.0
2021-08-12 06:18:36.595,975.0,36.0,3.0,975.6690012499116,1,1,1,3.0,3.0
2021-08-12 06:18:36.596,975.0,36.0,-12.0,975.7381820959964,1,1,1,3.0,3.0
2021-08-12 06:18:36.604,996.0,24.0,1.0,996.2896165272424,1,1,1,3.0,3.0
2021-08-12 06:18:36.614,997.0,114.0,1.0,1003.4968858945203,1,1,1,3.0,3.0
2021-08-12 06:18:36.615,997.0,114.0,4.0,1003.5043597314364,1,1,1,3.0,3.0
2021-08-12 06:18:36.626,1016.0,64.0,-7.0,1018.0378185509612,1,1,1,3.0,3.0
2021-08-12 06:18:36.634,1031.0,56.0,22.0,1032.7540849592417,1,1,1,3.0,3.0
2021-08-12 06:18:36.643,1017.0,3.0,9.0,1017.0442468250828,1,1,1,3.0,3.0
2021-08-12 06:18:36.654,1020.0,82.0,42.0,1024.1523324193524,1,1,1,3.0,3.0
2021-08-12 06:18:36.663,1026.0,62.0,20.0,1028.0661457318786,1,1,1,3.0,3.0
2021-08-12 06:18:36.672,1036.0,62.0,20.0,1038.0462417445574,1,1,1,3.0,3.0
2021-08-12 06:18:36.673,1036.0,45.0,17.0,1037.1161940689192,1,1,1,3.0,3.0
2021-08-12 06:18:36.684,1052.0,10.0,10.0,1052.095052740008,1,1,1,3.0,3.0
2021-08-12 06:18:36.693,986.0,64.0,-1.0,988.0754019810432,1,1,1,3.0,3.0
2021-08-12 06:18:36.706,1003.0,21.0,-16.0,1003.3473974651054,1,1,1,3.0,3.0
2021-08-12 06:18:36.712,997.0,91.0,0.0,1001.1443452369892,1,1,1,3.0,3.0
2021-08-12 06:18:36.722,1015.0,25.0,-13.0,1015.3910576718706,1,1,1,3.0,3.0
2021-08-12 06:18:36.732,1009.0,65.0,-13.0,1011.175059027862,1,1,1,3.0,3.0
2021-08-12 06:18:36.733,1009.0,65.0,20.0,1011.289276122317,1,1,1,3.0,3.0
2021-08-12 06:18:36.742,1000.0,30.0,28.0,1000.84164581616,1,1,1,3.0,3.0
2021-08-12 06:18:36.751,1024.0,67.0,15.0,1026.2991766536695,1,1,1,3.0,3.0
2021-08-12 06:18:36.761,1049.0,46.0,18.0,1050.1623683983348,1,1,1,3.0,3.0
2021-08-12 06:18:36.771,1029.0,-2.0,14.0,1029.0971771412069,1,1,1,3.0,3.0
2021-08-12 06:18:36.781,990.0,24.0,18.0,990.4544411531508,1,1,1,3.0,3.0
2021-08-12 06:18:36.791,1005.0,71.0,12.0,1007.5762998403644,1,1,1,3.0,3.0
2021-08-12 06:18:36.800,990.0,26.0,-11.0,990.4024434541748,1,1,1,3.0,3.0
2021-08-12 06:18:36.810,1009.0,85.0,0.0,1012.5739479168916,1,1,1,3.0,3.0
2021-08-12 06:18:36.819,998.0,21.0,0.0,998.2209174326092,1,1,1,3.0,3.0
2021-08-12 06:18:36.820,998.0,21.0,-16.0,998.349137326216,1,1,1,3.0,3.0
2021-08-12 06:18:36.830,1019.0,36.0,10.0,1019.6847552062352,1,1,1,3.0,3.0
2021-08-12 06:18:36.840,976.0,40.0,32.0,977.3433378296492,1,1,1,3.0,3.0
2021-08-12 06:18:36.850,1040.0,64.0,14.0,1042.0614185353952,1,1,1,3.0,3.0
2021-08-12 06:18:36.858,1046.0,45.0,14.0,1047.061125245322,1,1,1,3.0,3.0
2021-08-12 06:18:36.859,1046.0,45.0,27.0,1047.31561623037,1,1,1,3.0,3.0
2021-08-12 06:18:36.868,1032.0,-2.0,13.0,1032.083814425941,1,1,1,3.0,3.0
2021-08-12 06:18:36.878,1002.0,-2.0,13.0,1002.086323626862,1,1,1,3.0,3.0
2021-08-12 06:18:36.879,1002.0,34.0,12.0,1002.6484927430948,1,1,1,3.0,3.0
2021-08-12 06:18:36.888,996.0,37.0,11.0,996.7477113091356,1,1,1,3.0,3.0
2021-08-12 06:18:36.897,994.0,20.0,-5.0,994.2137597116628,1,1,1,3.0,3.0
2021-08-12 06:18:36.907,1016.0,71.0,1.0,1018.4782766460952,1,1,1,3.0,3.0
2021-08-12 06:18:36.945,1003.0,9.0,-21.0,1003.2601855949432,1,1,1,3.0,3.0
2021-08-12 06:18:36.949,980.0,126.0,-5.0,988.0794502467908,1,1,1,3.0,3.0
2021-08-12 06:18:36.954,1015.0,126.0,-5.0,1022.8030113369828,1,1,1,3.0,3.0
2021-08-12 06:18:36.955,1015.0,69.0,9.0,1017.3824256394446,1,1,1,3.0,3.0
2021-08-12 06:18:36.969,1058.0,46.0,30.0,1059.4243720058548,1,1,1,3.0,3.0
2021-08-12 06:18:36.977,1023.0,0.0,25.0,1023.305428501188,1,1,1,3.0,3.0
2021-08-12 06:18:36.979,1005.0,0.0,25.0,1005.3108971855424,1,1,1,3.0,3.0
2021-08-12 06:18:36.980,1005.0,56.0,27.0,1006.9210495366556,1,1,1,3.0,3.0
2021-08-12 06:18:36.987,998.0,45.0,3.0,999.0185183468824,1,1,1,3.0,3.0
2021-08-12 06:18:36.996,1046.0,58.0,31.0,1048.0653605572506,1,1,1,3.0,3.0
2021-08-12 06:18:37.006,1027.0,44.0,11.0,1028.0009727621857,1,1,1,3.0,3.0
2021-08-12 06:18:37.015,994.0,4.0,-23.0,994.2741070751064,1,1,1,3.0,3.0
2021-08-12 06:18:37.025,1022.0,32.0,22.0,1022.7375029791368,1,1,1,3.0,3.0
2021-08-12 06:18:37.035,985.0,115.0,-2.0,991.6924926609056,1,1,1,3.0,3.0
2021-08-12 06:18:37.045,1057.0,28.0,-7.0,1057.3939663152992,1,1,1,3.0,3.0
2021-08-12 06:18:37.055,1071.0,35.0,20.0,1071.7583682901663,1,1,1,3.0,3.0
2021-08-12 06:18:37.063,1007.0,35.0,20.0,1007.8065290520796,1,1,1,3.0,3.0
2021-08-12 06:18:37.064,1007.0,17.0,13.0,1007.2273824713068,1,1,1,3.0,3.0
2021-08-12 06:18:37.073,1016.0,55.0,17.0,1017.6295986261406,1,1,1,3.0,3.0
2021-08-12 06:18:37.083,1027.0,36.0,0.0,1027.63077026722,1,1,1,3.0,3.0
2021-08-12 06:18:37.092,1022.0,36.0,0.0,1022.6338543193258,1,1,1,3.0,3.0
2021-08-12 06:18:37.093,1022.0,35.0,18.0,1022.7575470266646,1,1,1,3.0,3.0
2021-08-12 06:18:37.103,1006.0,10.0,16.0,1006.1769228122856,1,1,1,3.0,3.0
2021-08-12 06:18:37.113,966.0,28.0,-20.0,966.6126421685162,1,1,1,3.0,3.0
2021-08-12 06:18:37.122,970.0,23.0,-2.0,970.2747033701332,1,1,1,3.0,3.0
2021-08-12 06:18:37.132,1018.0,105.0,-2.0,1023.4026578038578,1,1,1,3.0,3.0
2021-08-12 06:18:37.142,1014.0,49.0,9.0,1015.2231281841446,1,1,1,3.0,3.0
2021-08-12 06:18:37.152,1013.0,48.0,7.0,1014.1607367671064,1,1,1,3.0,3.0
2021-08-12 06:18:37.162,1025.0,29.0,18.0,1025.5681352304196,1,1,1,3.0,3.0
2021-08-12 06:18:37.174,1014.0,74.0,18.0,1016.8559386658466,1,1,1,3.0,3.0
2021-08-12 06:18:37.175,1014.0,74.0,39.0,1017.444347372376,1,1,1,3.0,3.0
2021-08-12 06:18:37.181,1011.0,56.0,10.0,1012.5991309496568,1,1,1,3.0,3.0
2021-08-12 06:18:37.191,1004.0,56.0,13.0,1005.6445694180424,1,1,1,3.0,3.0
2021-08-12 06:18:37.200,992.0,-8.0,18.0,992.1955452429728,1,1,1,3.0,3.0
2021-08-12 06:18:37.212,1022.0,42.0,22.0,1023.09921317534,1,1,1,3.0,3.0
2021-08-12 06:18:37.220,1007.0,25.0,11.0,1007.3703390511356,1,1,1,3.0,3.0
2021-08-12 06:18:37.230,1014.0,98.0,-5.0,1018.7369631067678,1,1,1,3.0,3.0
2021-08-12 06:18:37.239,1030.0,52.0,0.0,1031.3117860278724,1,1,1,3.0,3.0
2021-08-12 06:18:37.249,1002.0,42.0,-6.0,1002.8978013735996,1,1,1,3.0,3.0
2021-08-12 06:18:37.260,976.0,82.0,19.0,979.6228866252565,1,1,1,3.0,3.0
2021-08-12 06:18:37.269,1025.0,90.0,43.0,1029.841735413748,1,1,1,3.0,3.0
2021-08-12 06:18:37.278,1033.0,57.0,21.0,1034.7845186317777,1,1,1,3.0,3.0
2021-08-12 06:18:37.289,995.0,56.0,16.0,996.703065110166,1,1,1,3.0,3.0
2021-08-12 06:18:37.298,997.0,56.0,16.0,998.6996545508564,1,1,1,3.0,3.0
2021-08-12 06:18:37.299,997.0,-5.0,5.0,997.0250749103556,1,1,1,3.0,3.0
2021-08-12 06:18:37.308,1012.0,35.0,23.0,1012.866230061996,1,1,1,3.0,3.0
2021-08-12 06:18:37.317,1030.0,56.0,23.0,1031.7775923133822,1,1,1,3.0,3.0
2021-08-12 06:18:37.318,1030.0,56.0,14.0,1031.6162077051715,1,1,1,3.0,3.0
2021-08-12 06:18:37.327,993.0,101.0,9.0,998.163814210874,1,1,1,3.0,3.0
2021-08-12 06:18:37.354,1032.0,5.0,2.0,1032.014050291952,1,1,1,3.0,3.0
2021-08-12 06:18:37.358,1005.0,95.0,14.0,1009.5771392023494,1,1,1,3.0,3.0
2021-08-12 06:18:37.369,1012.0,54.0,5.0,1013.4520215580015,1,1,1,3.0,3.0
2021-08-12 06:18:37.378,1042.0,55.0,16.0,1043.573188616879,1,1,1,3.0,3.0
2021-08-12 06:18:37.386,1002.0,18.0,13.0,1002.2459777918792,1,1,1,3.0,3.0
2021-08-12 06:18:37.396,1005.0,14.0,9.0,1005.1378014978842,1,1,1,3.0,3.0
2021-08-12 06:18:37.405,1009.0,37.0,12.0,1009.749473879536,1,1,1,3.0,3.0
2021-08-12 06:18:37.416,1040.0,40.0,14.0,1040.863103390643,1,1,1,3.0,3.0
2021-08-12 06:18:37.431,1017.0,2.0,8.0,1017.0334311122716,1,1,1,3.0,3.0
2021-08-12 06:18:37.440,1020.0,32.0,0.0,1020.501837332986,1,1,1,3.0,3.0
2021-08-12 06:18:37.444,1007.0,35.0,12.0,1007.6795125435468,1,1,1,3.0,3.0
2021-08-12 06:18:37.454,993.0,118.0,5.0,999.9989999995,1,1,1,3.0,3.0
2021-08-12 06:18:37.464,1029.0,29.0,3.0,1029.412939495128,1,1,1,3.0,3.0
2021-08-12 06:18:37.475,989.0,66.0,4.0,991.2078490407548,1,1,1,3.0,3.0
2021-08-12 06:18:37.492,1002.0,78.0,4.0,1005.039302714078,1,1,1,3.0,3.0
2021-08-12 06:18:37.493,1002.0,78.0,32.0,1005.5406505954892,1,1,1,3.0,3.0
2021-08-12 06:18:37.495,1012.0,11.0,24.0,1012.344309017441,1,1,1,3.0,3.0
2021-08-12 06:18:37.503,994.0,40.0,24.0,995.0939654123122,1,1,1,3.0,3.0
2021-08-12 06:18:37.504,994.0,40.0,12.0,994.8768768043612,1,1,1,3.0,3.0
2021-08-12 06:18:37.513,1059.0,45.0,23.0,1060.2051688234687,1,1,1,3.0,3.0
2021-08-12 06:18:37.523,1030.0,-15.0,6.0,1030.126691237539,1,1,1,3.0,3.0
2021-08-12 06:18:37.532,1011.0,68.0,6.0,1013.3020280252084,1,1,1,3.0,3.0
2021-08-12 06:18:37.533,1011.0,68.0,25.0,1013.592620336198,1,1,1,3.0,3.0
2021-08-12 06:18:37.542,1014.0,36.0,20.0,1014.8359473333608,1,1,1,3.0,3.0
2021-08-12 06:18:37.555,989.0,122.0,13.0,996.581155752004,1,1,1,3.0,3.0
2021-08-12 06:18:37.563,1040.0,35.0,-2.0,1040.5906976328397,1,1,1,3.0,3.0
2021-08-12 06:18:37.571,971.0,65.0,6.0,973.1916563555196,1,1,1,3.0,3.0
2021-08-12 06:18:37.581,1003.0,45.0,25.0,1004.3201680739066,1,1,1,3.0,3.0
2021-08-12 06:18:37.591,994.0,45.0,25.0,995.3321053799078,1,1,1,3.0,3.0
2021-08-12 06:18:37.592,994.0,46.0,27.0,995.4300578142092,1,1,1,3.0,3.0
2021-08-12 06:18:37.600,997.0,49.0,27.0,998.5684753686148,1,1,1,3.0,3.0
2021-08-12 06:18:37.601,997.0,49.0,5.0,998.2159085087754,1,1,1,3.0,3.0
2021-08-12 06:18:37.611,1043.0,55.0,25.0,1044.7482950452709,1,1,1,3.0,3.0
2021-08-12 06:18:37.620,1023.0,-15.0,12.0,1023.1803360112038,1,1,1,3.0,3.0
2021-08-12 06:18:37.630,1023.0,59.0,29.0,1025.1102379744336,1,1,1,3.0,3.0
2021-08-12 06:18:37.640,1019.0,12.0,-4.0,1019.0785053174264,1,1,1,3.0,3.0
2021-08-12 06:18:37.650,981.0,118.0,8.0,988.1037394929745,1,1,1,3.0,3.0
2021-08-12 06:18:37.660,1048.0,44.0,-8.0,1048.9537644720094,1,1,1,3.0,3.0
2021-08-12 06:18:37.670,979.0,69.0,4.0,981.4367019833728,1,1,1,3.0,3.0
2021-08-12 06:18:37.679,992.0,52.0,9.0,993.402738067497,1,1,1,3.0,3.0
2021-08-12 06:18:37.689,997.0,81.0,15.0,1000.3974210282632,1,1,1,3.0,3.0
2021-08-12 06:18:37.698,1055.0,52.0,15.0,1056.3872396048714,1,1,1,3.0,3.0
2021-08-12 06:18:37.699,1055.0,52.0,34.0,1056.8278005427374,1,1,1,3.0,3.0
2021-08-12 06:18:37.710,1030.0,60.0,19.0,1031.921024109888,1,1,1,3.0,3.0
2021-08-12 06:18:37.719,1032.0,-11.0,19.0,1032.2335007158022,1,1,1,3.0,3.0
2021-08-12 06:18:37.720,1032.0,-11.0,4.0,1032.066373834551,1,1,1,3.0,3.0
2021-08-12 06:18:37.728,1014.0,52.0,16.0,1015.4585171241612,1,1,1,3.0,3.0
2021-08-12 06:18:37.737,1006.0,35.0,16.0,1006.7358144021698,1,1,1,3.0,3.0
2021-08-12 06:18:37.738,1006.0,35.0,-4.0,1006.6166102345024,1,1,1,3.0,3.0
2021-08-12 06:18:37.747,1013.0,30.0,-4.0,1013.4520215580015,1,1,1,3.0,3.0
2021-08-12 06:18:37.748,1013.0,30.0,-3.0,1013.4485680092504,1,1,1,3.0,3.0
2021-08-12 06:18:37.759,1053.0,35.0,0.0,1053.581510847642,1,1,1,3.0,3.0
2021-08-12 06:18:37.767,975.0,67.0,-2.0,977.301386471952,1,1,1,3.0,3.0
2021-08-12 06:18:37.777,981.0,90.0,20.0,985.3227897496332,1,1,1,3.0,3.0
2021-08-12 06:18:37.786,1004.0,63.0,-11.0,1006.0347906509,1,1,1,3.0,3.0
2021-08-12 06:18:37.796,1050.0,63.0,-11.0,1051.9458160951067,1,1,1,3.0,3.0
2021-08-12 06:18:37.797,1050.0,57.0,20.0,1051.7361836506338,1,1,1,3.0,3.0
2021-08-12 06:18:37.806,1022.0,-5.0,27.0,1022.3688179908462,1,1,1,3.0,3.0
2021-08-12 06:18:37.816,1022.0,-5.0,27.0,1022.3688179908462,1,1,1,3.0,3.0
2021-08-12 06:18:37.817,1022.0,8.0,10.0,1022.080231684382,1,1,1,3.0,3.0
2021-08-12 06:18:37.826,1020.0,55.0,17.0,1021.6232182169706,1,1,1,3.0,3.0
2021-08-12 06:18:37.834,1026.0,55.0,17.0,1027.6137406632902,1,1,1,3.0,3.0
2021-08-12 06:18:37.835,1026.0,30.0,5.0,1026.450680744087,1,1,1,3.0,3.0
2021-08-12 06:18:37.844,1021.0,30.0,5.0,1021.4528868234696,1,1,1,3.0,3.0
2021-08-12 06:18:37.845,1021.0,46.0,4.0,1022.0435411468536,1,1,1,3.0,3.0
2021-08-12 06:18:37.855,973.0,48.0,-8.0,974.2160951246904,1,1,1,3.0,3.0
2021-08-12 06:18:37.864,1009.0,32.0,-8.0,1009.539003704166,1,1,1,3.0,3.0
2021-08-12 06:18:37.865,1009.0,32.0,12.0,1009.5786249718244,1,1,1,3.0,3.0
2021-08-12 06:18:37.875,992.0,49.0,12.0,993.2819337932208,1,1,1,3.0,3.0
2021-08-12 06:18:37.876,992.0,49.0,12.0,993.2819337932208,1,1,1,3.0,3.0
2021-08-12 06:18:37.884,1007.0,47.0,7.0,1008.1205285083724,1,1,1,3.0,3.0
2021-08-12 06:18:37.894,1027.0,51.0,24.0,1028.545575071907,1,1,1,3.0,3.0
2021-08-12 06:18:37.903,1020.0,-1.0,8.0,1020.0318622474496,1,1,1,3.0,3.0
2021-08-12 06:18:37.914,1017.0,82.0,35.0,1020.9005828189148,1,1,1,3.0,3.0
2021-08-12 06:18:37.924,1019.0,48.0,24.0,1020.4121716247804,1,1,1,3.0,3.0
2021-08-12 06:18:37.933,1035.0,23.0,6.0,1035.272910879059,1,1,1,3.0,3.0
2021-08-12 06:18:37.942,1035.0,32.0,11.0,1035.5529923668803,1,1,1,3.0,3.0
2021-08-12 06:18:37.952,977.0,49.0,-9.0,978.269390301056,1,1,1,3.0,3.0
2021-08-12 06:18:37.966,1010.0,41.0,-9.0,1010.8719008855672,1,1,1,3.0,3.0
2021-08-12 06:18:37.967,1010.0,41.0,8.0,1010.863492267873,1,1,1,3.0,3.0
2021-08-12 06:18:37.972,1005.0,108.0,1.0,1010.7868222330562,1,1,1,3.0,3.0
2021-08-12 06:18:37.981,1015.0,42.0,1.0,1015.8690860539068,1,1,1,3.0,3.0
2021-08-12 06:18:37.982,1015.0,42.0,6.0,1015.8863125369886,1,1,1,3.0,3.0
2021-08-12 06:18:37.991,1033.0,53.0,26.0,1034.6854594513252,1,1,1,3.0,3.0
2021-08-12 06:18:38.002,1021.0,-8.0,-2.0,1021.0333001425564,1,1,1,3.0,3.0
2021-08-12 06:18:38.012,1010.0,80.0,39.0,1013.9137044147298,1,1,1,3.0,3.0
2021-08-12 06:18:38.021,1038.0,46.0,12.0,1039.0880617156563,1,1,1,3.0,3.0
2021-08-12 06:18:38.030,1032.0,36.0,12.0,1032.6974387496075,1,1,1,3.0,3.0
2021-08-12 06:18:38.031,1032.0,36.0,7.0,1032.6514416781686,1,1,1,3.0,3.0
2021-08-12 06:18:38.040,1040.0,18.0,5.0,1040.167774928641,1,1,1,3.0,3.0
2021-08-12 06:18:38.050,976.0,51.0,-8.0,977.3643128332444,1,1,1,3.0,3.0
2021-08-12 06:18:38.061,1004.0,22.0,-1.0,1004.2415048184376,1,1,1,3.0,3.0
2021-08-12 06:18:38.069,999.0,104.0,3.0,1004.4033054505544,1,1,1,3.0,3.0
2021-08-12 06:18:38.079,1029.0,14.0,-15.0,1029.2045472110974,1,1,1,3.0,3.0
2021-08-12 06:18:38.089,999.0,63.0,30.0,1001.433971862349,1,1,1,3.0,3.0
2021-08-12 06:18:38.099,1016.0,-12.0,31.0,1016.5436537601324,1,1,1,3.0,3.0
2021-08-12 06:18:38.109,1011.0,-12.0,31.0,1011.5463410047016,1,1,1,3.0,3.0
2021-08-12 06:18:38.110,1011.0,80.0,28.0,1014.5466968060168,1,1,1,3.0,3.0
2021-08-12 06:18:38.120,1049.0,59.0,24.0,1050.9319673508842,1,1,1,3.0,3.0
2021-08-12 06:18:38.128,1000.0,24.0,10.0,1000.3379428972992,1,1,1,3.0,3.0
2021-08-12 06:18:38.138,1043.0,0.0,0.0,1043.0,1,1,1,3.0,3.0
2021-08-12 06:18:38.147,997.0,0.0,0.0,997.0,1,1,1,3.0,3.0
2021-08-12 06:18:38.148,997.0,65.0,0.0,999.1166098108868,1,1,1,3.0,3.0
2021-08-12 06:18:38.158,1007.0,21.0,-7.0,1007.2432675376888,1,1,1,3.0,3.0
2021-08-12 06:18:38.169,1008.0,79.0,-11.0,1011.1508295007228,1,1,1,3.0,3.0
2021-08-12 06:18:38.177,1010.0,11.0,-13.0,1010.1435541545568,1,1,1,3.0,3.0
2021-08-12 06:18:38.186,1015.0,34.0,-13.0,1015.6524996277024,1,1,1,3.0,3.0
2021-08-12 06:18:38.187,1015.0,34.0,18.0,1015.728802387724,1,1,1,3.0,3.0
2021-08-12 06:18:38.196,1017.0,25.0,19.0,1017.4846436187624,1,1,1,3.0,3.0
2021-08-12 06:18:38.206,1019.0,68.0,23.0,1021.5253300824214,1,1,1,3.0,3.0
2021-08-12 06:18:38.217,1055.0,42.0,23.0,1056.0861707266126,1,1,1,3.0,3.0
2021-08-12 06:18:38.218,1055.0,42.0,20.0,1056.0250943988026,1,1,1,3.0,3.0
2021-08-12 06:18:38.226,1009.0,10.0,16.0,1009.17639687024,1,1,1,3.0,3.0
2021-08-12 06:18:38.235,989.0,6.0,25.0,989.3341194965428,1,1,1,3.0,3.0
2021-08-12 06:18:38.245,999.0,17.0,0.0,999.1446341746524,1,1,1,3.0,3.0
2021-08-12 06:18:38.255,981.0,17.0,-15.0,981.2619426024836,1,1,1,3.0,3.0
2021-08-12 06:18:38.265,1020.0,91.0,-4.0,1024.0590803269115,1,1,1,3.0,3.0
2021-08-12 06:18:38.275,998.0,14.0,-5.0,998.1107153016644,1,1,1,3.0,3.0
2021-08-12 06:18:38.284,1009.0,28.0,21.0,1009.6068541764164,1,1,1,3.0,3.0
2021-08-12 06:18:38.294,981.0,104.0,6.0,986.5155852798272,1,1,1,3.0,3.0
2021-08-12 06:18:38.303,1054.0,104.0,6.0,1059.1354965253502,1,1,1,3.0,3.0
2021-08-12 06:18:38.304,1054.0,24.0,4.0,1054.280797510796,1,1,1,3.0,3.0
2021-08-12 06:18:38.315,1057.0,42.0,23.0,1058.0841176390468,1,1,1,3.0,3.0
2021-08-12 06:18:38.324,1028.0,2.0,12.0,1028.0719819156634,1,1,1,3.0,3.0
2021-08-12 06:18:38.333,992.0,40.0,28.0,993.2008860245746,1,1,1,3.0,3.0
2021-08-12 06:18:38.343,994.0,37.0,4.0,994.696436105006,1,1,1,3.0,3.0
2021-08-12 06:18:38.353,1037.0,35.0,15.0,1037.6988965976595,1,1,1,3.0,3.0
2021-08-12 06:18:38.375,1033.0,44.0,-7.0,1033.960347402162,1,1,1,3.0,3.0
2021-08-12 06:18:38.376,969.0,34.0,-20.0,969.802557224923,1,1,1,3.0,3.0
2021-08-12 06:18:38.382,1033.0,56.0,24.0,1034.795148809657,1,1,1,3.0,3.0
2021-08-12 06:18:38.392,976.0,122.0,-14.0,983.6950747055716,1,1,1,3.0,3.0
2021-08-12 06:18:38.401,1036.0,40.0,-14.0,1036.866433056833,1,1,1,3.0,3.0
2021-08-12 06:18:38.402,1036.0,40.0,-4.0,1036.7796294295138,1,1,1,3.0,3.0
2021-08-12 06:18:38.411,1047.0,45.0,33.0,1048.4860514093643,1,1,1,3.0,3.0
2021-08-12 06:18:38.421,1019.0,45.0,33.0,1020.5268247331866,1,1,1,3.0,3.0
2021-08-12 06:18:38.422,1019.0,0.0,22.0,1019.2374600651216,1,1,1,3.0,3.0
2021-08-12 06:18:38.433,1004.0,33.0,28.0,1004.9323360306404,1,1,1,3.0,3.0
2021-08-12 06:18:38.440,1006.0,33.0,28.0,1006.9304841944156,1,1,1,3.0,3.0
2021-08-12 06:18:38.441,1006.0,26.0,5.0,1006.3483492310204,1,1,1,3.0,3.0
2021-08-12 06:18:38.455,1034.0,63.0,14.0,1036.012065566806,1,1,1,3.0,3.0
2021-08-12 06:18:38.460,1048.0,-20.0,0.0,1048.1908223219664,1,1,1,3.0,3.0
2021-08-12 06:18:38.469,977.0,9.0,0.0,977.0414525494812,1,1,1,3.0,3.0
2021-08-12 06:18:38.470,977.0,9.0,-19.0,977.2261764811664,1,1,1,3.0,3.0
2021-08-12 06:18:38.480,1012.0,46.0,20.0,1013.2423204742288,1,1,1,3.0,3.0
2021-08-12 06:18:38.491,973.0,98.0,-3.0,977.9274001683356,1,1,1,3.0,3.0
2021-08-12 06:18:38.507,1042.0,36.0,5.0,1042.6336844740822,1,1,1,3.0,3.0
2021-08-12 06:18:38.510,983.0,36.0,5.0,983.671693198498,1,1,1,3.0,3.0
2021-08-12 06:18:38.511,983.0,53.0,0.0,984.427752554752,1,1,1,3.0,3.0
2021-08-12 06:18:38.519,992.0,52.0,4.0,993.3700216938298,1,1,1,3.0,3.0
2021-08-12 06:18:38.529,994.0,65.0,33.0,996.6694537307744,1,1,1,3.0,3.0
2021-08-12 06:18:38.543,1010.0,65.0,33.0,1012.6272759510284,1,1,1,3.0,3.0
2021-08-12 06:18:38.544,1010.0,24.0,-3.0,1010.2895624522704,1,1,1,3.0,3.0
2021-08-12 06:18:38.548,1015.0,52.0,22.0,1016.5692303035736,1,1,1,3.0,3.0
2021-08-12 06:18:38.558,1023.0,-7.0,3.0,1023.02834760333,1,1,1,3.0,3.0
2021-08-12 06:18:38.568,1023.0,-7.0,3.0,1023.02834760333,1,1,1,3.0,3.0
2021-08-12 06:18:38.569,1023.0,51.0,29.0,1024.6809259471945,1,1,1,3.0,3.0
2021-08-12 06:18:38.579,1014.0,38.0,16.0,1014.837918093328,1,1,1,3.0,3.0
2021-08-12 06:18:38.587,992.0,115.0,2.0,998.645582776993,1,1,1,3.0,3.0
2021-08-12 06:18:38.597,1057.0,15.0,-5.0,1057.118252609423,1,1,1,3.0,3.0
2021-08-12 06:18:38.606,983.0,15.0,-5.0,983.1271535259312,1,1,1,3.0,3.0
2021-08-12 06:18:38.607,983.0,59.0,-7.0,984.7938870646994,1,1,1,3.0,3.0
2021-08-12 06:18:38.617,974.0,58.0,19.0,975.9103442427486,1,1,1,3.0,3.0
2021-08-12 06:18:38.628,1013.0,67.0,20.0,1015.4102619138728,1,1,1,3.0,3.0
2021-08-12 06:18:38.636,1025.0,45.0,4.0,1025.995126694079,1,1,1,3.0,3.0
2021-08-12 06:18:38.646,1005.0,59.0,14.0,1006.8276913156492,1,1,1,3.0,3.0
2021-08-12 06:18:38.655,995.0,-8.0,16.0,995.160791028264,1,1,1,3.0,3.0
2021-08-12 06:18:38.666,1011.0,46.0,24.0,1012.3304796359736,1,1,1,3.0,3.0
2021-08-12 06:18:38.676,1020.0,40.0,10.0,1020.8329931972222,1,1,1,3.0,3.0
2021-08-12 06:18:38.684,1039.0,30.0,1.0,1039.4334995563688,1,1,1,3.0,3.0
2021-08-12 06:18:38.694,1022.0,38.0,-2.0,1022.7081695185582,1,1,1,3.0,3.0
2021-08-12 06:18:38.704,1012.0,24.0,4.0,1012.2924478627706,1,1,1,3.0,3.0
2021-08-12 06:18:38.715,968.0,81.0,9.0,971.4247268831488,1,1,1,3.0,3.0
2021-08-12 06:18:38.724,1018.0,45.0,-5.0,1019.0063787827828,1,1,1,3.0,3.0
2021-08-12 06:18:38.736,1031.0,45.0,14.0,1032.0765475486787,1,1,1,3.0,3.0
2021-08-12 06:18:38.747,991.0,61.0,14.0,992.974319909634,1,1,1,3.0,3.0
2021-08-12 06:18:38.748,991.0,61.0,8.0,992.9078507092188,1,1,1,3.0,3.0
2021-08-12 06:18:38.753,1010.0,-15.0,8.0,1010.1430591752834,1,1,1,3.0,3.0
2021-08-12 06:18:38.754,1010.0,-15.0,15.0,1010.222747714582,1,1,1,3.0,3.0
2021-08-12 06:18:38.763,1014.0,31.0,25.0,1014.781749934438,1,1,1,3.0,3.0
2021-08-12 06:18:38.774,1048.0,40.0,6.0,1048.7802439024106,1,1,1,3.0,3.0
2021-08-12 06:18:38.784,1028.0,25.0,2.0,1028.305888342569,1,1,1,3.0,3.0
2021-08-12 06:18:38.792,1032.0,25.0,-10.0,1032.3511999314962,1,1,1,3.0,3.0
2021-08-12 06:18:38.802,1000.0,60.0,11.0,1001.8587724824292,1,1,1,3.0,3.0
2021-08-12 06:18:38.812,974.0,81.0,11.0,977.4241658563594,1,1,1,3.0,3.0
2021-08-12 06:18:38.822,1020.0,49.0,-5.0,1021.1885232414238,1,1,1,3.0,3.0
2021-08-12 06:18:38.833,1014.0,57.0,12.0,1015.6716989263804,1,1,1,3.0,3.0
2021-08-12 06:18:38.841,1009.0,-3.0,19.0,1009.1833331957084,1,1,1,3.0,3.0
2021-08-12 06:18:38.851,1008.0,-9.0,7.0,1008.0644820645156,1,1,1,3.0,3.0
2021-08-12 06:18:38.860,995.0,-9.0,7.0,995.0653244887995,1,1,1,3.0,3.0
2021-08-12 06:18:38.861,995.0,33.0,21.0,995.7685474044658,1,1,1,3.0,3.0
2021-08-12 06:18:38.871,1043.0,42.0,23.0,1044.0986543425863,1,1,1,3.0,3.0
2021-08-12 06:18:38.880,1031.0,10.0,23.0,1031.3049985334117,1,1,1,3.0,3.0
2021-08-12 06:18:38.881,1031.0,10.0,1.0,1031.0489804078177,1,1,1,3.0,3.0
2021-08-12 06:18:38.890,991.0,70.0,9.0,993.509939557728,1,1,1,3.0,3.0
2021-08-12 06:18:38.899,1000.0,70.0,9.0,1002.487406404689,1,1,1,3.0,3.0
2021-08-12 06:18:38.900,1000.0,14.0,-2.0,1000.0999950005,1,1,1,3.0,3.0
2021-08-12 06:18:38.909,1003.0,87.0,0.0,1006.7661098785557,1,1,1,3.0,3.0
2021-08-12 06:18:38.919,1025.0,35.0,8.0,1025.628587745096,1,1,1,3.0,3.0
2021-08-12 06:18:38.929,993.0,65.0,-4.0,995.1331569192135,1,1,1,3.0,3.0
2021-08-12 06:18:38.940,994.0,8.0,-4.0,994.0402406341506,1,1,1,3.0,3.0
2021-08-12 06:18:38.941,994.0,8.0,16.0,994.160952763686,1,1,1,3.0,3.0
2021-08-12 06:18:38.948,1034.0,8.0,16.0,1034.1547273014808,1,1,1,3.0,3.0
2021-08-12 06:18:38.949,1034.0,108.0,46.0,1040.6421094689567,1,1,1,3.0,3.0
2021-08-12 06:18:38.958,1010.0,21.0,21.0,1010.4365393234748,1,1,1,3.0,3.0
2021-08-12 06:18:38.976,1026.0,33.0,18.0,1026.6883655715594,1,1,1,3.0,3.0
2021-08-12 06:18:38.980,1042.0,-22.0,19.0,1042.4053913905088,1,1,1,3.0,3.0
2021-08-12 06:18:38.987,1001.0,75.0,13.0,1003.8899342059368,1,1,1,3.0,3.0
2021-08-12 06:18:38.997,995.0,9.0,-7.0,995.0653244887995,1,1,1,3.0,3.0
2021-08-12 06:18:39.007,1028.0,64.0,-4.0,1029.9980582505968,1,1,1,3.0,3.0
2021-08-12 06:18:39.016,1036.0,64.0,-4.0,1037.9826588146836,1,1,1,3.0,3.0
2021-08-12 06:18:39.017,1036.0,34.0,13.0,1036.6392815246777,1,1,1,3.0,3.0
2021-08-12 06:18:39.027,972.0,72.0,4.0,974.67122661952,1,1,1,3.0,3.0
2021-08-12 06:18:39.039,1004.0,52.0,19.0,1005.525235884212,1,1,1,3.0,3.0
2021-08-12 06:18:39.046,1008.0,52.0,19.0,1009.5191924871958,1,1,1,3.0,3.0
2021-08-12 06:18:39.047,1008.0,60.0,4.0,1009.7920578020012,1,1,1,3.0,3.0
2021-08-12 06:18:39.056,1070.0,37.0,36.0,1071.2446032536172,1,1,1,3.0,3.0
2021-08-12 06:18:39.065,1013.0,37.0,36.0,1014.3145468738976,1,1,1,3.0,3.0
2021-08-12 06:18:39.066,1013.0,5.0,16.0,1013.1386874460968,1,1,1,3.0,3.0
2021-08-12 06:18:39.076,1030.0,-8.0,5.0,1030.0432029774286,1,1,1,3.0,3.0
2021-08-12 06:18:39.086,1009.0,63.0,17.0,1011.107808297414,1,1,1,3.0,3.0
2021-08-12 06:18:39.095,1010.0,63.0,17.0,1012.1057257026066,1,1,1,3.0,3.0
2021-08-12 06:18:39.096,1010.0,36.0,2.0,1010.6433594498112,1,1,1,3.0,3.0
2021-08-12 06:18:39.104,1020.0,58.0,2.0,1021.6496464052636,1,1,1,3.0,3.0
2021-08-12 06:18:39.105,1020.0,58.0,9.0,1021.6873298617342,1,1,1,3.0,3.0
2021-08-12 06:18:39.114,986.0,14.0,-17.0,986.2459125390584,1,1,1,3.0,3.0
2021-08-12 06:18:39.124,976.0,14.0,-17.0,976.2484314968192,1,1,1,3.0,3.0
2021-08-12 06:18:39.125,976.0,32.0,-16.0,976.6555175700386,1,1,1,3.0,3.0
2021-08-12 06:18:39.135,1004.0,48.0,20.0,1005.3457116832996,1,1,1,3.0,3.0
2021-08-12 06:18:39.143,1004.0,77.0,20.0,1007.1469604779631,1,1,1,3.0,3.0
2021-08-12 06:18:39.144,1004.0,77.0,12.0,1007.0198607773334,1,1,1,3.0,3.0
2021-08-12 06:18:39.155,1059.0,77.0,12.0,1061.8634563822225,1,1,1,3.0,3.0
2021-08-12 06:18:39.156,1059.0,41.0,33.0,1060.3070310056423,1,1,1,3.0,3.0
2021-08-12 06:18:39.163,1026.0,7.0,23.0,1026.281637758369,1,1,1,3.0,3.0
2021-08-12 06:18:39.173,1002.0,49.0,25.0,1003.5088440068678,1,1,1,3.0,3.0
2021-08-12 06:18:39.183,1006.0,57.0,12.0,1007.684970613336,1,1,1,3.0,3.0
2021-08-12 06:18:39.193,1003.0,57.0,12.0,1004.6900019408972,1,1,1,3.0,3.0
2021-08-12 06:18:39.194,1003.0,38.0,-4.0,1003.7275526755255,1,1,1,3.0,3.0
2021-08-12 06:18:39.203,1022.0,49.0,-6.0,1023.1915754148878,1,1,1,3.0,3.0
2021-08-12 06:18:39.212,969.0,34.0,-7.0,969.6215756675384,1,1,1,3.0,3.0
2021-08-12 06:18:39.222,1021.0,102.0,33.0,1026.6128773788105,1,1,1,3.0,3.0
2021-08-12 06:18:39.232,994.0,48.0,33.0,995.7052776800974,1,1,1,3.0,3.0
2021-08-12 06:18:39.233,994.0,48.0,16.0,995.286893312677,1,1,1,3.0,3.0
2021-08-12 06:18:39.242,996.0,29.0,7.0,996.4466869833028,1,1,1,3.0,3.0
2021-08-12 06:18:39.251,1044.0,29.0,7.0,1044.4261582323568,1,1,1,3.0,3.0
2021-08-12 06:18:39.252,1044.0,60.0,21.0,1045.933554294918,1,1,1,3.0,3.0
2021-08-12 06:18:39.261,1016.0,26.0,25.0,1016.6400542965048,1,1,1,3.0,3.0
2021-08-12 06:18:39.271,1007.0,77.0,37.0,1010.6171381883448,1,1,1,3.0,3.0
2021-08-12 06:18:39.281,1013.0,21.0,-6.0,1013.2354119354496,1,1,1,3.0,3.0
2021-08-12 06:18:39.291,1022.0,13.0,6.0,1022.1002886214249,1,1,1,3.0,3.0
2021-08-12 06:18:39.300,1008.0,49.0,1.0,1009.190764920092,1,1,1,3.0,3.0
2021-08-12 06:18:39.310,977.0,28.0,-18.0,977.5668775076208,1,1,1,3.0,3.0
2021-08-12 06:18:39.319,1020.0,26.0,11.0,1020.3906114817012,1,1,1,3.0,3.0
2021-08-12 06:18:39.330,996.0,122.0,-1.0,1003.4445674774466,1,1,1,3.0,3.0
2021-08-12 06:18:39.340,1006.0,33.0,10.0,1006.5907808041956,1,1,1,3.0,3.0
2021-08-12 06:18:39.350,1039.0,61.0,28.0,1041.1656928654536,1,1,1,3.0,3.0
2021-08-12 06:18:39.362,1013.0,2.0,21.0,1013.2196208127832,1,1,1,3.0,3.0
2021-08-12 06:18:39.368,1026.0,77.0,39.0,1029.6242032897246,1,1,1,3.0,3.0
2021-08-12 06:18:39.395,1004.0,44.0,1.0,1004.9641784660784,1,1,1,3.0,3.0
2021-08-12 06:18:39.399,1011.0,56.0,12.0,1012.6208569844886,1,1,1,3.0,3.0
2021-08-12 06:18:39.407,977.0,56.0,12.0,978.6771684268516,1,1,1,3.0,3.0
2021-08-12 06:18:39.408,977.0,62.0,-7.0,978.9902961725412,1,1,1,3.0,3.0
2021-08-12 06:18:39.419,1010.0,29.0,6.0,1010.4340651423032,1,1,1,3.0,3.0
2021-08-12 06:18:39.428,1004.0,104.0,0.0,1009.372082039126,1,1,1,3.0,3.0
2021-08-12 06:18:39.437,1037.0,33.0,11.0,1037.5832496720443,1,1,1,3.0,3.0
2021-08-12 06:18:39.447,992.0,25.0,-14.0,992.4137242098176,1,1,1,3.0,3.0
2021-08-12 06:18:39.467,1024.0,-2.0,0.0,1024.0019531231374,1,1,1,3.0,3.0
2021-08-12 06:18:39.469,1011.0,-2.0,0.0,1011.0019782374316,1,1,1,3.0,3.0
2021-08-12 06:18:39.470,1011.0,86.0,39.0,1015.4004136300124,1,1,1,3.0,3.0
2021-08-12 06:18:39.476,1015.0,46.0,14.0,1016.1382779917308,1,1,1,3.0,3.0
2021-08-12 06:18:39.485,990.0,59.0,14.0,991.855332193158,1,1,1,3.0,3.0
2021-08-12 06:18:39.486,990.0,59.0,18.0,991.9198556335084,1,1,1,3.0,3.0
2021-08-12 06:18:39.495,1014.0,-18.0,14.0,1014.2563778453653,1,1,1,3.0,3.0
2021-08-12 06:18:39.506,974.0,45.0,-6.0,975.057434205801,1,1,1,3.0,3.0
2021-08-12 06:18:39.523,1003.0,20.0,-3.0,1003.2038676161492,1,1,1,3.0,3.0
2021-08-12 06:18:39.526,999.0,89.0,3.0,1002.9611158963244,1,1,1,3.0,3.0
2021-08-12 06:18:39.535,1024.0,15.0,0.0,1024.1098573883569,1,1,1,3.0,3.0
2021-08-12 06:18:39.545,1008.0,47.0,0.0,1009.0951392212728,1,1,1,3.0,3.0
2021-08-12 06:18:39.546,1008.0,47.0,8.0,1009.1268503017844,1,1,1,3.0,3.0
2021-08-12 06:18:39.554,1018.0,15.0,31.0,1018.5823481682764,1,1,1,3.0,3.0
2021-08-12 06:18:39.564,1024.0,68.0,20.0,1026.4501936285071,1,1,1,3.0,3.0
2021-08-12 06:18:39.574,1056.0,39.0,23.0,1056.9701982553718,1,1,1,3.0,3.0
2021-08-12 06:18:39.584,997.0,31.0,21.0,997.702861577534,1,1,1,3.0,3.0
2021-08-12 06:18:39.593,1008.0,12.0,14.0,1008.1686366873352,1,1,1,3.0,3.0
2021-08-12 06:18:39.602,1013.0,30.0,13.0,1013.5275033268708,1,1,1,3.0,3.0
2021-08-12 06:18:39.612,1003.0,17.0,-5.0,1003.1565181964378,1,1,1,3.0,3.0
2021-08-12 06:18:39.622,1003.0,101.0,-3.0,1008.0768819886704,1,1,1,3.0,3.0
2021-08-12 06:18:39.632,1022.0,25.0,-3.0,1022.3101290704304,1,1,1,3.0,3.0
2021-08-12 06:18:39.633,1022.0,25.0,-7.0,1022.3296924182532,1,1,1,3.0,3.0
2021-08-12 06:18:39.642,1016.0,27.0,0.0,1016.3586965240175,1,1,1,3.0,3.0
2021-08-12 06:18:39.652,987.0,103.0,12.0,992.4323654536868,1,1,1,3.0,3.0
2021-08-12 06:18:39.662,1011.0,101.0,33.0,1016.5682466022632,1,1,1,3.0,3.0
2021-08-12 06:18:39.671,1058.0,45.0,20.0,1059.145410224677,1,1,1,3.0,3.0
2021-08-12 06:18:39.681,1021.0,13.0,18.0,1021.2414014325898,1,1,1,3.0,3.0
2021-08-12 06:18:39.692,991.0,20.0,23.0,991.468607672477,1,1,1,3.0,3.0
2021-08-12 06:18:39.701,997.0,33.0,15.0,997.6587592959828,1,1,1,3.0,3.0
2021-08-12 06:18:39.710,1033.0,46.0,15.0,1034.1324866766347,1,1,1,3.0,3.0
2021-08-12 06:18:39.720,1014.0,87.0,0.0,1017.72540500864,1,1,1,3.0,3.0
2021-08-12 06:18:39.732,1020.0,87.0,0.0,1023.7035703757216,1,1,1,3.0,3.0
2021-08-12 06:18:39.733,1020.0,10.0,-16.0,1020.1744948782048,1,1,1,3.0,3.0
2021-08-12 06:18:39.740,1045.0,10.0,-16.0,1045.1703210482012,1,1,1,3.0,3.0
2021-08-12 06:18:39.741,1045.0,61.0,15.0,1046.8863357595226,1,1,1,3.0,3.0
2021-08-12 06:18:39.750,969.0,61.0,15.0,971.0339849871372,1,1,1,3.0,3.0
2021-08-12 06:18:39.751,969.0,109.0,-4.0,975.1194798587504,1,1,1,3.0,3.0
2021-08-12 06:18:39.759,1038.0,37.0,8.0,1038.6900403874104,1,1,1,3.0,3.0
2021-08-12 06:18:39.768,988.0,37.0,8.0,988.7249364712108,1,1,1,3.0,3.0
2021-08-12 06:18:39.769,988.0,49.0,10.0,989.2648785840928,1,1,1,3.0,3.0
2021-08-12 06:18:39.779,1024.0,12.0,18.0,1024.228490132939,1,1,1,3.0,3.0
2021-08-12 06:18:39.789,984.0,37.0,27.0,985.0654800570368,1,1,1,3.0,3.0
2021-08-12 06:18:39.799,982.0,45.0,14.0,983.130205008472,1,1,1,3.0,3.0
2021-08-12 06:18:39.807,1029.0,45.0,14.0,1030.078637774806,1,1,1,3.0,3.0
2021-08-12 06:18:39.808,1029.0,41.0,15.0,1029.925725477328,1,1,1,3.0,3.0
2021-08-12 06:18:39.817,1020.0,11.0,1.0,1020.0598021684808,1,1,1,3.0,3.0
2021-08-12 06:18:39.827,982.0,29.0,-7.0,982.4530523134426,1,1,1,3.0,3.0
2021-08-12 06:18:39.837,1020.0,29.0,-7.0,1020.4361812479996,1,1,1,3.0,3.0
2021-08-12 06:18:39.838,1020.0,35.0,7.0,1020.6243187382906,1,1,1,3.0,3.0
2021-08-12 06:18:39.848,987.0,113.0,3.0,993.452062255648,1,1,1,3.0,3.0
2021-08-12 06:18:39.857,1054.0,35.0,6.0,1054.5980276863786,1,1,1,3.0,3.0
2021-08-12 06:18:39.866,980.0,60.0,1.0,981.8355259410814,1,1,1,3.0,3.0
2021-08-12 06:18:39.876,1006.0,52.0,10.0,1007.3926741842032,1,1,1,3.0,3.0
2021-08-12 06:18:39.886,1009.0,58.0,31.0,1011.1409397309556,1,1,1,3.0,3.0
2021-08-12 06:18:39.896,1000.0,32.0,0.0,1000.511868995066,1,1,1,3.0,3.0
2021-08-12 06:18:39.905,1019.0,76.0,17.0,1021.9716238722092,1,1,1,3.0,3.0
2021-08-12 06:18:39.915,1025.0,-6.0,5.0,1025.0297556656587,1,1,1,3.0,3.0
2021-08-12 06:18:39.925,1018.0,52.0,25.0,1019.633757777762,1,1,1,3.0,3.0
2021-08-12 06:18:39.934,1022.0,52.0,25.0,1023.6273736081896,1,1,1,3.0,3.0
2021-08-12 06:18:39.935,1022.0,32.0,28.0,1022.8841576640044,1,1,1,3.0,3.0
2021-08-12 06:18:39.945,995.0,104.0,6.0,1000.4384039010098,1,1,1,3.0,3.0
2021-08-12 06:18:39.956,1036.0,38.0,4.0,1036.7043937400863,1,1,1,3.0,3.0
2021-08-12 06:18:39.964,990.0,72.0,3.0,992.6192623559144,1,1,1,3.0,3.0
2021-08-12 06:18:39.974,998.0,62.0,2.0,999.9259972617974,1,1,1,3.0,3.0
2021-08-12 06:18:39.983,995.0,49.0,2.0,996.2078096461602,1,1,1,3.0,3.0
2021-08-12 06:18:39.984,995.0,49.0,0.0,996.2058020308856,1,1,1,3.0,3.0
2021-08-12 06:18:39.999,1022.0,40.0,5.0,1022.7947008075472,1,1,1,3.0,3.0
2021-08-12 06:18:40.003,1014.0,65.0,16.0,1016.2071639188536,1,1,1,3.0,3.0
2021-08-12 06:18:40.013,1013.0,-18.0,9.0,1013.1998815633568,1,1,1,3.0,3.0
2021-08-12 06:18:40.023,1020.0,-18.0,9.0,1020.1985100949717,1,1,1,3.0,3.0
2021-08-12 06:18:40.024,1020.0,57.0,25.0,1021.8972551093384,1,1,1,3.0,3.0
2021-08-12 06:18:40.033,1018.0,24.0,25.0,1018.589711316583,1,1,1,3.0,3.0
2021-08-12 06:18:40.034,1018.0,24.0,-2.0,1018.2848324511172,1,1,1,3.0,3.0
2021-08-12 06:18:40.043,994.0,114.0,-2.0,1000.517865907451,1,1,1,3.0,3.0
2021-08-12 06:18:40.052,1046.0,62.0,16.0,1047.9580144261506,1,1,1,3.0,3.0
2021-08-12 06:18:40.062,992.0,55.0,2.0,993.5255406883108,1,1,1,3.0,3.0
2021-08-12 06:18:40.072,970.0,75.0,19.0,973.0806749699636,1,1,1,3.0,3.0
2021-08-12 06:18:40.082,1000.0,47.0,19.0,1001.2841754467112,1,1,1,3.0,3.0
2021-08-12 06:18:40.083,1000.0,47.0,1.0,1001.104390161186,1,1,1,3.0,3.0
2021-08-12 06:18:40.091,1017.0,47.0,19.0,1018.2627362326484,1,1,1,3.0,3.0
2021-08-12 06:18:40.101,1003.0,67.0,17.0,1005.3790330019818,1,1,1,3.0,3.0
2021-08-12 06:18:40.110,1007.0,-22.0,17.0,1007.3837401904004,1,1,1,3.0,3.0
2021-08-12 06:18:40.111,1007.0,-22.0,3.0,1007.244756749818,1,1,1,3.0,3.0
2021-08-12 06:18:40.120,1012.0,-22.0,3.0,1012.243547769014,1,1,1,3.0,3.0
2021-08-12 06:18:40.121,1012.0,48.0,33.0,1013.674997225442,1,1,1,3.0,3.0
2021-08-12 06:18:40.131,1027.0,49.0,2.0,1028.1702193703145,1,1,1,3.0,3.0
2021-08-12 06:18:40.143,1037.0,34.0,4.0,1037.5649377267912,1,1,1,3.0,3.0
2021-08-12 06:18:40.150,974.0,34.0,-7.0,974.6183868571328,1,1,1,3.0,3.0
2021-08-12 06:18:40.159,1011.0,52.0,4.0,1012.344309017441,1,1,1,3.0,3.0
2021-08-12 06:18:40.170,962.0,70.0,24.0,964.841955969992,1,1,1,3.0,3.0
2021-08-12 06:18:40.179,1027.0,40.0,4.0,1027.7864564198148,1,1,1,3.0,3.0
2021-08-12 06:18:40.189,1008.0,63.0,18.0,1010.127219710468,1,1,1,3.0,3.0
2021-08-12 06:18:40.198,1038.0,-26.0,20.0,1038.5181750937245,1,1,1,3.0,3.0
2021-08-12 06:18:40.208,1007.0,-30.0,3.0,1007.4512395148462,1,1,1,3.0,3.0
2021-08-12 06:18:40.218,1002.0,42.0,19.0,1003.0598187545944,1,1,1,3.0,3.0
2021-08-12 06:18:40.229,1043.0,45.0,25.0,1044.269601204593,1,1,1,3.0,3.0
2021-08-12 06:18:40.236,1033.0,45.0,25.0,1034.2818764727535,1,1,1,3.0,3.0
2021-08-12 06:18:40.237,1033.0,19.0,-1.0,1033.175202954465,1,1,1,3.0,3.0
2021-08-12 06:18:40.247,1010.0,60.0,4.0,1011.7885154517222,1,1,1,3.0,3.0
2021-08-12 06:18:40.257,988.0,33.0,4.0,988.5590523585328,1,1,1,3.0,3.0
2021-08-12 06:18:40.258,988.0,33.0,1.0,988.551465529236,1,1,1,3.0,3.0
2021-08-12 06:18:40.267,995.0,66.0,10.0,997.2366820369176,1,1,1,3.0,3.0
2021-08-12 06:18:40.276,1017.0,40.0,-9.0,1017.826114815296,1,1,1,3.0,3.0
2021-08-12 06:18:40.286,1003.0,40.0,-9.0,1003.8376362739144,1,1,1,3.0,3.0
2021-08-12 06:18:40.287,1003.0,73.0,7.0,1005.6773836574032,1,1,1,3.0,3.0
2021-08-12 06:18:40.296,1011.0,0.0,16.0,1011.1265993929742,1,1,1,3.0,3.0
2021-08-12 06:18:40.306,1013.0,85.0,28.0,1016.9454262643596,1,1,1,3.0,3.0
2021-08-12 06:18:40.315,1010.0,85.0,28.0,1013.9570996842026,1,1,1,3.0,3.0
2021-08-12 06:18:40.316,1010.0,41.0,19.0,1011.010385703332,1,1,1,3.0,3.0
2021-08-12 06:18:40.325,1048.0,41.0,19.0,1048.9737842291388,1,1,1,3.0,3.0
2021-08-12 06:18:40.326,1048.0,51.0,21.0,1049.4503323168751,1,1,1,3.0,3.0
2021-08-12 06:18:40.336,1045.0,-4.0,16.0,1045.130135437688,1,1,1,3.0,3.0
2021-08-12 06:18:40.345,1003.0,67.0,5.0,1005.2477306614524,1,1,1,3.0,3.0
2021-08-12 06:18:40.355,989.0,40.0,-4.0,989.8166496882136,1,1,1,3.0,3.0
2021-08-12 06:18:40.366,1020.0,77.0,-14.0,1022.9980449639188,1,1,1,3.0,3.0
2021-08-12 06:18:40.374,1028.0,77.0,-14.0,1030.9747814568502,1,1,1,3.0,3.0
2021-08-12 06:18:40.375,1028.0,37.0,-1.0,1028.666126593075,1,1,1,3.0,3.0
2021-08-12 06:18:40.384,1004.0,64.0,7.0,1006.0621253183124,1,1,1,3.0,3.0
2021-08-12 06:18:40.393,982.0,24.0,20.0,982.496819333274,1,1,1,3.0,3.0
2021-08-12 06:18:40.415,1017.0,73.0,23.0,1019.8759728516012,1,1,1,3.0,3.0
2021-08-12 06:18:40.416,1045.0,38.0,21.0,1045.9015250012783,1,1,1,3.0,3.0
2021-08-12 06:18:40.425,1035.0,47.0,22.0,1036.3001495705769,1,1,1,3.0,3.0
2021-08-12 06:18:40.432,1036.0,47.0,22.0,1037.298896172169,1,1,1,3.0,3.0
2021-08-12 06:18:40.433,1036.0,0.0,18.0,1036.1563588570984,1,1,1,3.0,3.0
2021-08-12 06:18:40.442,1031.0,70.0,18.0,1033.5303575609184,1,1,1,3.0,3.0
2021-08-12 06:18:40.443,1031.0,70.0,18.0,1033.5303575609184,1,1,1,3.0,3.0
2021-08-12 06:18:40.452,998.0,37.0,2.0,998.6876388541114,1,1,1,3.0,3.0
2021-08-12 06:18:40.463,1030.0,53.0,3.0,1031.367053962846,1,1,1,3.0,3.0
2021-08-12 06:18:40.484,986.0,24.0,-17.0,986.4385434480954,1,1,1,3.0,3.0
2021-08-12 06:18:40.486,980.0,75.0,4.0,982.8738474494068,1,1,1,3.0,3.0
2021-08-12 06:18:40.492,988.0,37.0,14.0,988.7916868582583,1,1,1,3.0,3.0
2021-08-12 06:18:40.502,1008.0,81.0,5.0,1011.2615883143194,1,1,1,3.0,3.0
2021-08-12 06:18:40.511,1053.0,65.0,21.0,1055.213248590066,1,1,1,3.0,3.0
2021-08-12 06:18:40.521,1014.0,2.0,12.0,1014.0729756777862,1,1,1,3.0,3.0
2021-08-12 06:18:40.534,1004.0,53.0,12.0,1005.4695420548552,1,1,1,3.0,3.0
2021-08-12 06:18:40.535,1004.0,53.0,36.0,1006.04224563385,1,1,1,3.0,3.0
2021-08-12 06:18:40.540,1027.0,42.0,23.0,1028.1157522380445,1,1,1,3.0,3.0
2021-08-12 06:18:40.558,995.0,15.0,-7.0,995.137678916842,1,1,1,3.0,3.0
2021-08-12 06:18:40.562,1027.0,44.0,5.0,1027.954279138912,1,1,1,3.0,3.0
2021-08-12 06:18:40.571,966.0,46.0,-4.0,967.1028900794372,1,1,1,3.0,3.0
2021-08-12 06:18:40.580,1031.0,26.0,15.0,1031.4368618582523,1,1,1,3.0,3.0
2021-08-12 06:18:40.589,1006.0,53.0,11.0,1007.4552099225056,1,1,1,3.0,3.0
2021-08-12 06:18:40.599,999.0,67.0,16.0,1001.3720587274242,1,1,1,3.0,3.0
2021-08-12 06:18:40.609,1045.0,51.0,33.0,1046.764061286019,1,1,1,3.0,3.0
2021-08-12 06:18:40.619,1017.0,-14.0,24.0,1017.379476891489,1,1,1,3.0,3.0
2021-08-12 06:18:40.629,998.0,69.0,47.0,1001.4858960564547,1,1,1,3.0,3.0
2021-08-12 06:18:40.638,1009.0,49.0,20.0,1010.3870545488992,1,1,1,3.0,3.0
2021-08-12 06:18:40.647,1019.0,25.0,6.0,1019.324285985574,1,1,1,3.0,3.0
2021-08-12 06:18:40.658,1013.0,42.0,9.0,1013.910252438548,1,1,1,3.0,3.0
2021-08-12 06:18:40.668,991.0,39.0,-5.0,991.7797134444723,1,1,1,3.0,3.0
2021-08-12 06:18:40.678,1004.0,20.0,11.0,1004.2594286338564,1,1,1,3.0,3.0
2021-08-12 06:18:40.687,1010.0,111.0,13.0,1016.1643567848656,1,1,1,3.0,3.0
2021-08-12 06:18:40.696,996.0,29.0,0.0,996.4220993133382,1,1,1,3.0,3.0
2021-08-12 06:18:40.709,994.0,56.0,7.0,995.6008236236048,1,1,1,3.0,3.0
2021-08-12 06:18:40.716,1025.0,-20.0,19.0,1025.371152315102,1,1,1,3.0,3.0
2021-08-12 06:18:40.728,1032.0,58.0,33.0,1034.1552107880132,1,1,1,3.0,3.0
2021-08-12 06:18:40.736,973.0,69.0,5.0,975.4563034805814,1,1,1,3.0,3.0
2021-08-12 06:18:40.745,1015.0,53.0,25.0,1016.6902183064416,1,1,1,3.0,3.0
2021-08-12 06:18:40.755,1027.0,37.0,-1.0,1027.6667747864576,1,1,1,3.0,3.0
2021-08-12 06:18:40.765,977.0,53.0,-12.0,978.5100919254742,1,1,1,3.0,3.0
2021-08-12 06:18:40.775,1010.0,27.0,7.0,1010.3850751075056,1,1,1,3.0,3.0
2021-08-12 06:18:40.784,1002.0,113.0,2.0,1008.3536086115822,1,1,1,3.0,3.0
2021-08-12 06:18:40.801,1035.0,16.0,0.0,1035.1236641097526,1,1,1,3.0,3.0
2021-08-12 06:18:40.804,1021.0,61.0,24.0,1023.1021454380788,1,1,1,3.0,3.0
2021-08-12 06:18:40.813,1030.0,-21.0,2.0,1030.2159967696095,1,1,1,3.0,3.0
2021-08-12 06:18:40.824,1032.0,83.0,2.0,1035.3342455458526,1,1,1,3.0,3.0
2021-08-12 06:18:40.825,1032.0,83.0,36.0,1035.958010732095,1,1,1,3.0,3.0
2021-08-12 06:18:40.835,1031.0,52.0,9.0,1032.34974693657,1,1,1,3.0,3.0
2021-08-12 06:18:40.843,1000.0,69.0,22.0,1002.6190702355508,1,1,1,3.0,3.0
2021-08-12 06:18:40.853,1006.0,-6.0,10.0,1006.0675921626736,1,1,1,3.0,3.0
2021-08-12 06:18:40.862,967.0,53.0,-14.0,968.5525282605998,1,1,1,3.0,3.0
2021-08-12 06:18:40.873,1004.0,23.0,8.0,1004.295275305027,1,1,1,3.0,3.0
2021-08-12 06:18:40.883,986.0,106.0,6.0,991.699551275486,1,1,1,3.0,3.0
2021-08-12 06:18:40.892,1024.0,21.0,-13.0,1024.297808256954,1,1,1,3.0,3.0
2021-08-12 06:18:40.901,1003.0,21.0,-13.0,1003.3040416543732,1,1,1,3.0,3.0
2021-08-12 06:18:40.902,1003.0,47.0,7.0,1004.124992219594,1,1,1,3.0,3.0
2021-08-12 06:18:40.911,1027.0,-12.0,15.0,1027.179633754486,1,1,1,3.0,3.0
2021-08-12 06:18:40.922,1003.0,81.0,26.0,1006.6012120000652,1,1,1,3.0,3.0
2021-08-12 06:18:40.932,1048.0,48.0,19.0,1049.2706991048592,1,1,1,3.0,3.0
2021-08-12 06:18:40.941,1002.0,65.0,18.0,1004.2673946713594,1,1,1,3.0,3.0
2021-08-12 06:18:40.950,1002.0,6.0,18.0,1002.1796246182618,1,1,1,3.0,3.0
2021-08-12 06:18:40.960,998.0,31.0,15.0,998.5940115983072,1,1,1,3.0,3.0
2021-08-12 06:18:40.970,990.0,25.0,-11.0,990.3766960101595,1,1,1,3.0,3.0
2021-08-12 06:18:40.980,1007.0,97.0,-11.0,1011.7208112913364,1,1,1,3.0,3.0
2021-08-12 06:18:40.981,1007.0,97.0,3.0,1011.6654585385428,1,1,1,3.0,3.0
2021-08-12 06:18:40.989,1011.0,17.0,-13.0,1011.2264830392844,1,1,1,3.0,3.0
2021-08-12 06:18:40.999,1021.0,31.0,7.0,1021.4944933772282,1,1,1,3.0,3.0
2021-08-12 06:18:41.015,990.0,109.0,0.0,995.9824295638956,1,1,1,3.0,3.0
2021-08-12 06:18:41.019,1005.0,115.0,32.0,1012.064227210902,1,1,1,3.0,3.0
2021-08-12 06:18:41.029,1064.0,115.0,32.0,1070.6750207229084,1,1,1,3.0,3.0
2021-08-12 06:18:41.030,1064.0,49.0,27.0,1065.4698494091704,1,1,1,3.0,3.0
2021-08-12 06:18:41.041,997.0,25.0,19.0,997.494360886316,1,1,1,3.0,3.0
2021-08-12 06:18:41.048,1000.0,15.0,19.0,1000.2929570880724,1,1,1,3.0,3.0
2021-08-12 06:18:41.049,1000.0,15.0,23.0,1000.3769289622788,1,1,1,3.0,3.0
2021-08-12 06:18:41.058,996.0,44.0,13.0,997.0561669234086,1,1,1,3.0,3.0
2021-08-12 06:18:41.068,1034.0,64.0,17.0,1036.118236496202,1,1,1,3.0,3.0
2021-08-12 06:18:41.078,1027.0,71.0,-19.0,1029.626631357212,1,1,1,3.0,3.0
2021-08-12 06:18:41.087,996.0,71.0,-19.0,998.708165581918,1,1,1,3.0,3.0
2021-08-12 06:18:41.088,996.0,27.0,-14.0,996.4642492332578,1,1,1,3.0,3.0
2021-08-12 06:18:41.097,1021.0,31.0,6.0,1021.4881301317212,1,1,1,3.0,3.0
2021-08-12 06:18:41.106,976.0,109.0,6.0,982.0860451101012,1,1,1,3.0,3.0
2021-08-12 06:18:41.107,976.0,109.0,8.0,982.1003003766978,1,1,1,3.0,3.0
2021-08-12 06:18:41.116,1046.0,40.0,7.0,1046.7879441415057,1,1,1,3.0,3.0
2021-08-12 06:18:41.127,1069.0,62.0,28.0,1071.1624526653277,1,1,1,3.0,3.0
2021-08-12 06:18:41.139,1003.0,8.0,9.0,1003.072280546123,1,1,1,3.0,3.0
2021-08-12 06:18:41.145,994.0,33.0,27.0,994.9140666409336,1,1,1,3.0,3.0
2021-08-12 06:18:41.156,1011.0,17.0,-4.0,1011.1508295007228,1,1,1,3.0,3.0
2021-08-12 06:18:41.165,1025.0,57.0,24.0,1026.8641584941993,1,1,1,3.0,3.0
2021-08-12 06:18:41.175,1036.0,-22.0,18.0,1036.3898880247723,1,1,1,3.0,3.0
2021-08-12 06:18:41.184,984.0,31.0,-14.0,984.5877309818562,1,1,1,3.0,3.0
2021-08-12 06:18:41.196,1025.0,30.0,12.0,1025.5091418412612,1,1,1,3.0,3.0
2021-08-12 06:18:41.205,984.0,122.0,9.0,991.5750097698108,1,1,1,3.0,3.0
2021-08-12 06:18:41.214,1047.0,47.0,0.0,1048.0543879016966,1,1,1,3.0,3.0
2021-08-12 06:18:41.224,967.0,42.0,14.0,968.0129131370096,1,1,1,3.0,3.0
2021-08-12 06:18:41.234,1002.0,50.0,14.0,1003.3444074693396,1,1,1,3.0,3.0
2021-08-12 06:18:41.235,1002.0,50.0,31.0,1003.7255601009672,1,1,1,3.0,3.0
2021-08-12 06:18:41.243,1014.0,50.0,31.0,1015.705173758606,1,1,1,3.0,3.0
2021-08-12 06:18:41.244,1014.0,40.0,33.0,1015.325071097922,1,1,1,3.0,3.0
2021-08-12 06:18:41.254,993.0,25.0,0.0,993.3146530682008,1,1,1,3.0,3.0
2021-08-12 06:18:41.263,1023.0,62.0,21.0,1025.0921909760116,1,1,1,3.0,3.0
2021-08-12 06:18:41.273,1041.0,-15.0,6.0,1041.1253526833357,1,1,1,3.0,3.0
2021-08-12 06:18:41.283,1011.0,52.0,24.0,1012.6208569844886,1,1,1,3.0,3.0
2021-08-12 06:18:41.292,1012.0,30.0,9.0,1012.484567783628,1,1,1,3.0,3.0
2021-08-12 06:18:41.302,1009.0,109.0,5.0,1014.882751848705,1,1,1,3.0,3.0
2021-08-12 06:18:41.312,1045.0,29.0,11.0,1045.460185755536,1,1,1,3.0,3.0
2021-08-12 06:18:41.321,962.0,62.0,10.0,964.0477166613696,1,1,1,3.0,3.0
2021-08-12 06:18:41.331,985.0,62.0,10.0,987.0,1,1,1,3.0,3.0
2021-08-12 06:18:41.332,985.0,54.0,13.0,986.5647469882553,1,1,1,3.0,3.0
2021-08-12 06:18:41.344,1013.0,57.0,33.0,1015.1389067511894,1,1,1,3.0,3.0
2021-08-12 06:18:41.351,1008.0,57.0,33.0,1010.1494938869196,1,1,1,3.0,3.0
2021-08-12 06:18:41.352,1008.0,29.0,6.0,1008.4349260115896,1,1,1,3.0,3.0
2021-08-12 06:18:41.361,1018.0,70.0,12.0,1020.4743994829072,1,1,1,3.0,3.0
2021-08-12 06:18:41.370,1011.0,-19.0,4.0,1011.1864318709978,1,1,1,3.0,3.0
2021-08-12 06:18:41.380,1021.0,55.0,31.0,1022.9501454127663,1,1,1,3.0,3.0
2021-08-12 06:18:41.389,1028.0,55.0,31.0,1029.9368912705283,1,1,1,3.0,3.0
2021-08-12 06:18:41.390,1028.0,11.0,3.0,1028.063227627562,1,1,1,3.0,3.0
2021-08-12 06:18:41.399,1013.0,99.0,0.0,1017.826114815296,1,1,1,3.0,3.0
2021-08-12 06:18:41.409,1027.0,35.0,-16.0,1027.720779200265,1,1,1,3.0,3.0
2021-08-12 06:18:41.434,999.0,50.0,15.0,1000.3629341394052,1,1,1,3.0,3.0
2021-08-12 06:18:41.435,977.0,61.0,12.0,978.9759956199132,1,1,1,3.0,3.0
2021-08-12 06:18:41.439,1002.0,46.0,0.0,1003.0553324717436,1,1,1,3.0,3.0
2021-08-12 06:18:41.448,1028.0,46.0,0.0,1029.0286682109493,1,1,1,3.0,3.0
2021-08-12 06:18:41.449,1028.0,49.0,19.0,1029.3425085946851,1,1,1,3.0,3.0
2021-08-12 06:18:41.458,1008.0,77.0,13.0,1011.0202767501748,1,1,1,3.0,3.0
2021-08-12 06:18:41.468,1011.0,-24.0,-5.0,1011.2971867853682,1,1,1,3.0,3.0
2021-08-12 06:18:41.479,1016.0,46.0,-5.0,1017.0530959591048,1,1,1,3.0,3.0
2021-08-12 06:18:41.480,1016.0,46.0,25.0,1017.3480230481604,1,1,1,3.0,3.0
2021-08-12 06:18:41.499,1041.0,23.0,12.0,1041.323196706959,1,1,1,3.0,3.0
2021-08-12 06:18:41.501,1025.0,33.0,17.0,1025.671974853559,1,1,1,3.0,3.0
2021-08-12 06:18:41.507,1030.0,17.0,0.0,1030.1402817092437,1,1,1,3.0,3.0
2021-08-12 06:18:41.517,1008.0,56.0,6.0,1009.5721866216404,1,1,1,3.0,3.0
2021-08-12 06:18:41.530,968.0,58.0,19.0,969.9221618253704,1,1,1,3.0,3.0
2021-08-12 06:18:41.536,1019.0,54.0,-7.0,1020.4538206112024,1,1,1,3.0,3.0
2021-08-12 06:18:41.548,999.0,69.0,19.0,1001.5602827588564,1,1,1,3.0,3.0
2021-08-12 06:18:41.556,1037.0,-20.0,16.0,1037.316248788189,1,1,1,3.0,3.0
2021-08-12 06:18:41.575,1006.0,0.0,10.0,1006.0497005615578,1,1,1,3.0,3.0
2021-08-12 06:18:41.578,1007.0,39.0,17.0,1007.8983083625054,1,1,1,3.0,3.0
2021-08-12 06:18:41.586,1040.0,39.0,17.0,1040.8698285568662,1,1,1,3.0,3.0
2021-08-12 06:18:41.587,1040.0,32.0,18.0,1040.6478751239538,1,1,1,3.0,3.0
2021-08-12 06:18:41.595,1038.0,14.0,0.0,1038.094408038113,1,1,1,3.0,3.0
2021-08-12 06:18:41.605,983.0,50.0,6.0,984.2890835521848,1,1,1,3.0,3.0
2021-08-12 06:18:41.614,998.0,29.0,0.0,998.4212537801868,1,1,1,3.0,3.0
2021-08-12 06:18:41.624,977.0,93.0,17.0,981.5635486304492,1,1,1,3.0,3.0
2021-08-12 06:18:41.634,1005.0,70.0,19.0,1007.6140133999724,1,1,1,3.0,3.0
2021-08-12 06:18:41.645,1002.0,61.0,27.0,1004.2181038001656,1,1,1,3.0,3.0
2021-08-12 06:18:41.654,1026.0,-2.0,26.0,1026.3313305166123,1,1,1,3.0,3.0
2021-08-12 06:18:41.663,1005.0,97.0,29.0,1010.0866299481446,1,1,1,3.0,3.0
2021-08-12 06:18:41.673,1003.0,40.0,18.0,1003.9586644877368,1,1,1,3.0,3.0
2021-08-12 06:18:41.684,1043.0,24.0,19.0,1043.4490883603282,1,1,1,3.0,3.0
2021-08-12 06:18:41.693,1028.0,24.0,19.0,1028.4556383237928,1,1,1,3.0,3.0
2021-08-12 06:18:41.694,1028.0,25.0,13.0,1028.3861142586477,1,1,1,3.0,3.0
2021-08-12 06:18:41.702,1009.0,46.0,5.0,1010.060394233929,1,1,1,3.0,3.0
2021-08-12 06:18:41.713,968.0,51.0,0.0,969.3425607080296,1,1,1,3.0,3.0
2021-08-12 06:18:41.725,1012.0,101.0,1.0,1017.0280232127332,1,1,1,3.0,3.0
2021-08-12 06:18:41.732,1022.0,65.0,13.0,1024.1474503214856,1,1,1,3.0,3.0
2021-08-12 06:18:41.744,1016.0,51.0,7.0,1017.3032979401964,1,1,1,3.0,3.0
2021-08-12 06:18:41.751,1007.0,13.0,19.0,1007.2631235183784,1,1,1,3.0,3.0
2021-08-12 06:18:41.761,1007.0,95.0,28.0,1011.858685785718,1,1,1,3.0,3.0
2021-08-12 06:18:41.770,1054.0,47.0,17.0,1055.184344084009,1,1,1,3.0,3.0
2021-08-12 06:18:41.780,1037.0,49.0,18.0,1038.3130549116677,1,1,1,3.0,3.0
2021-08-12 06:18:41.790,1043.0,0.0,5.0,1043.0119845907811,1,1,1,3.0,3.0
2021-08-12 06:18:41.800,1011.0,28.0,5.0,1011.4000197745696,1,1,1,3.0,3.0
2021-08-12 06:18:41.801,1011.0,28.0,1.0,1011.3881549632664,1,1,1,3.0,3.0
2021-08-12 06:18:41.810,975.0,72.0,14.0,977.7550818073,1,1,1,3.0,3.0
2021-08-12 06:18:41.819,1035.0,64.0,3.0,1036.9811955864966,1,1,1,3.0,3.0
2021-08-12 06:18:41.829,1004.0,64.0,3.0,1006.04224563385,1,1,1,3.0,3.0
2021-08-12 06:18:41.830,1004.0,7.0,-26.0,1004.3609908792754,1,1,1,3.0,3.0
2021-08-12 06:18:41.839,996.0,54.0,5.0,997.4753129777198,1,1,1,3.0,3.0
2021-08-12 06:18:41.851,1000.0,12.0,10.0,1000.1219925589078,1,1,1,3.0,3.0
2021-08-12 06:18:41.858,1007.0,12.0,10.0,1007.1211446494408,1,1,1,3.0,3.0
2021-08-12 06:18:41.859,1007.0,82.0,31.0,1010.8085872211416,1,1,1,3.0,3.0
2021-08-12 06:18:41.868,1052.0,57.0,20.0,1053.7328883545392,1,1,1,3.0,3.0
2021-08-12 06:18:41.877,1023.0,57.0,20.0,1024.781928021762,1,1,1,3.0,3.0
2021-08-12 06:18:41.878,1023.0,21.0,20.0,1023.4109633964256,1,1,1,3.0,3.0
2021-08-12 06:18:41.889,1000.0,48.0,23.0,1001.4154981824478,1,1,1,3.0,3.0
2021-08-12 06:18:41.898,1028.0,22.0,23.0,1028.4925862639943,1,1,1,3.0,3.0
2021-08-12 06:18:41.907,997.0,36.0,-1.0,997.6502393123554,1,1,1,3.0,3.0
2021-08-12 06:18:41.917,1043.0,47.0,-4.0,1044.066089862131,1,1,1,3.0,3.0
2021-08-12 06:18:41.927,974.0,40.0,-19.0,975.0061538267336,1,1,1,3.0,3.0
2021-08-12 06:18:41.936,1015.0,40.0,-19.0,1015.9655505970662,1,1,1,3.0,3.0
2021-08-12 06:18:41.937,1015.0,49.0,17.0,1016.324259279488,1,1,1,3.0,3.0
2021-08-12 06:18:41.948,981.0,103.0,2.0,986.3944444287996,1,1,1,3.0,3.0
2021-08-12 06:18:41.957,1002.0,79.0,23.0,1005.3725677578436,1,1,1,3.0,3.0
2021-08-12 06:18:41.966,1051.0,49.0,17.0,1052.2789554105889,1,1,1,3.0,3.0
2021-08-12 06:18:41.976,1027.0,25.0,15.0,1027.4137433380963,1,1,1,3.0,3.0
2021-08-12 06:18:41.985,1003.0,18.0,15.0,1003.273641635222,1,1,1,3.0,3.0
2021-08-12 06:18:41.986,1003.0,18.0,17.0,1003.3055367135178,1,1,1,3.0,3.0
2021-08-12 06:18:41.996,995.0,48.0,17.0,996.3021630007636,1,1,1,3.0,3.0
2021-08-12 06:18:41.997,995.0,48.0,15.0,996.2700437130488,1,1,1,3.0,3.0
2021-08-12 06:18:42.005,1001.0,47.0,7.0,1002.1272374304572,1,1,1,3.0,3.0
2021-08-12 06:18:42.015,1040.0,58.0,-10.0,1041.6640533300551,1,1,1,3.0,3.0
2021-08-12 06:18:42.029,980.0,45.0,-17.0,981.1799019547842,1,1,1,3.0,3.0
2021-08-12 06:18:42.035,1023.0,46.0,20.0,1024.2289783051444,1,1,1,3.0,3.0
2021-08-12 06:18:42.046,990.0,95.0,7.0,994.5722698728332,1,1,1,3.0,3.0
2021-08-12 06:18:42.054,1045.0,31.0,3.0,1045.4640118148495,1,1,1,3.0,3.0
2021-08-12 06:18:42.063,1045.0,58.0,20.0,1046.7994077185945,1,1,1,3.0,3.0
2021-08-12 06:18:42.073,1010.0,-1.0,20.0,1010.1984953463352,1,1,1,3.0,3.0
2021-08-12 06:18:42.074,1010.0,-1.0,19.0,1010.1791920248604,1,1,1,3.0,3.0
2021-08-12 06:18:42.083,1009.0,36.0,31.0,1010.1178149107162,1,1,1,3.0,3.0
2021-08-12 06:18:42.094,1005.0,40.0,9.0,1005.8359707228608,1,1,1,3.0,3.0
2021-08-12 06:18:42.103,1023.0,40.0,9.0,1023.8212734652468,1,1,1,3.0,3.0
2021-08-12 06:18:42.104,1023.0,70.0,20.0,1025.5871489054452,1,1,1,3.0,3.0
2021-08-12 06:18:42.113,1029.0,-2.0,7.0,1029.0257528361474,1,1,1,3.0,3.0
2021-08-12 06:18:42.122,994.0,38.0,-13.0,994.8110373332214,1,1,1,3.0,3.0
2021-08-12 06:18:42.132,1010.0,30.0,8.0,1010.4771150303208,1,1,1,3.0,3.0
2021-08-12 06:18:42.141,996.0,30.0,8.0,996.4838182328904,1,1,1,3.0,3.0
2021-08-12 06:18:42.142,996.0,98.0,2.0,1000.8116705954222,1,1,1,3.0,3.0
2021-08-12 06:18:42.153,1051.0,22.0,8.0,1051.2606717650956,1,1,1,3.0,3.0
2021-08-12 06:18:42.161,982.0,66.0,0.0,984.2154235735184,1,1,1,3.0,3.0
2021-08-12 06:18:42.170,1031.0,66.0,0.0,1033.1103522857566,1,1,1,3.0,3.0
2021-08-12 06:18:42.171,1031.0,-19.0,19.0,1031.350086052258,1,1,1,3.0,3.0
2021-08-12 06:18:42.181,1008.0,59.0,38.0,1010.4400031669372,1,1,1,3.0,3.0
2021-08-12 06:18:42.191,1016.0,32.0,7.0,1016.5279140289264,1,1,1,3.0,3.0
2021-08-12 06:18:42.201,1012.0,64.0,7.0,1014.0458569512524,1,1,1,3.0,3.0
2021-08-12 06:18:42.202,1012.0,64.0,8.0,1014.0532530395038,1,1,1,3.0,3.0
2021-08-12 06:18:42.210,1018.0,-12.0,8.0,1018.1021559745368,1,1,1,3.0,3.0
2021-08-12 06:18:42.211,1018.0,-12.0,4.0,1018.0785824286846,1,1,1,3.0,3.0
2021-08-12 06:18:42.220,1021.0,31.0,4.0,1021.478340445846,1,1,1,3.0,3.0
2021-08-12 06:18:42.221,1021.0,31.0,26.0,1021.8013505569464,1,1,1,3.0,3.0
2021-08-12 06:18:42.229,1018.0,16.0,26.0,1018.4576574408972,1,1,1,3.0,3.0
2021-08-12 06:18:42.230,1018.0,16.0,28.0,1018.5106774108948,1,1,1,3.0,3.0
2021-08-12 06:18:42.240,998.0,85.0,-6.0,1001.6311696427982,1,1,1,3.0,3.0
2021-08-12 06:18:42.250,1051.0,85.0,-6.0,1054.4486711073232,1,1,1,3.0,3.0
2021-08-12 06:18:42.251,1051.0,25.0,0.0,1051.2972938232078,1,1,1,3.0,3.0
2021-08-12 06:18:42.259,999.0,62.0,2.0,1000.9240730445042,1,1,1,3.0,3.0
2021-08-12 06:18:42.269,979.0,74.0,11.0,981.8543680200236,1,1,1,3.0,3.0
2021-08-12 06:18:42.278,1010.0,85.0,11.0,1013.6301100500124,1,1,1,3.0,3.0
2021-08-12 06:18:42.279,1010.0,85.0,32.0,1014.0754409806008,1,1,1,3.0,3.0
2021-08-12 06:18:42.288,1024.0,40.0,11.0,1024.8399875102457,1,1,1,3.0,3.0
2021-08-12 06:18:42.298,1002.0,73.0,11.0,1004.715880236796,1,1,1,3.0,3.0
2021-08-12 06:18:42.299,1002.0,73.0,21.0,1004.8751166189757,1,1,1,3.0,3.0
2021-08-12 06:18:42.309,1018.0,-23.0,8.0,1018.2912157138546,1,1,1,3.0,3.0
2021-08-12 06:18:42.317,1020.0,-23.0,8.0,1020.2906448654716,1,1,1,3.0,3.0
2021-08-12 06:18:42.318,1020.0,33.0,31.0,1021.0044074341696,1,1,1,3.0,3.0
2021-08-12 06:18:42.327,1041.0,27.0,9.0,1041.3889763196075,1,1,1,3.0,3.0
2021-08-12 06:18:42.337,1027.0,105.0,17.0,1032.4935835151714,1,1,1,3.0,3.0
2021-08-12 06:18:42.347,1025.0,12.0,0.0,1025.0702414956745,1,1,1,3.0,3.0
2021-08-12 06:18:42.357,997.0,51.0,2.0,998.3055644440734,1,1,1,3.0,3.0
2021-08-12 06:18:42.367,975.0,80.0,13.0,978.36291834881,1,1,1,3.0,3.0
2021-08-12 06:18:42.376,1027.0,43.0,13.0,1027.9820037335285,1,1,1,3.0,3.0
2021-08-12 06:18:42.377,1027.0,43.0,-5.0,1027.9119612106865,1,1,1,3.0,3.0
2021-08-12 06:18:42.386,1043.0,64.0,19.0,1045.134441112721,1,1,1,3.0,3.0
2021-08-12 06:18:42.395,1000.0,78.0,19.0,1003.2173244118146,1,1,1,3.0,3.0
2021-08-12 06:18:42.396,1000.0,78.0,18.0,1003.1988835719466,1,1,1,3.0,3.0
2021-08-12 06:18:42.406,1014.0,-20.0,4.0,1014.2051074610106,1,1,1,3.0,3.0
2021-08-12 06:18:42.416,1015.0,46.0,22.0,1016.2799811075686,1,1,1,3.0,3.0
2021-08-12 06:18:42.425,1043.0,46.0,22.0,1044.2456607522963,1,1,1,3.0,3.0
2021-08-12 06:18:42.426,1043.0,23.0,27.0,1043.602893825041,1,1,1,3.0,3.0
2021-08-12 06:18:42.434,1038.0,19.0,27.0,1038.524915444979,1,1,1,3.0,3.0
2021-08-12 06:18:42.435,1038.0,19.0,10.0,1038.22203790904,1,1,1,3.0,3.0
2021-08-12 06:18:42.456,999.0,75.0,18.0,1001.973053529884,1,1,1,3.0,3.0
2021-08-12 06:18:42.464,989.0,96.0,0.0,993.648328132242,1,1,1,3.0,3.0
2021-08-12 06:18:42.474,1045.0,31.0,0.0,1045.4597074971373,1,1,1,3.0,3.0
2021-08-12 06:18:42.475,1045.0,31.0,-9.0,1045.498445718596,1,1,1,3.0,3.0
2021-08-12 06:18:42.483,995.0,66.0,17.0,997.3314393921412,1,1,1,3.0,3.0
2021-08-12 06:18:42.493,994.0,55.0,20.0,995.7213465623804,1,1,1,3.0,3.0
2021-08-12 06:18:42.514,1007.0,-18.0,-2.0,1007.1628468127684,1,1,1,3.0,3.0
2021-08-12 06:18:42.516,996.0,41.0,-2.0,996.8455246426098,1,1,1,3.0,3.0
2021-08-12 06:18:42.517,996.0,41.0,19.0,997.0245734183284,1,1,1,3.0,3.0
2021-08-12 06:18:42.522,1036.0,51.0,17.0,1037.39384999141,1,1,1,3.0,3.0
2021-08-12 06:18:42.532,1031.0,-4.0,9.0,1031.0470406339373,1,1,1,3.0,3.0
2021-08-12 06:18:42.543,1016.0,76.0,27.0,1019.1962519554318,1,1,1,3.0,3.0
2021-08-12 06:18:42.553,1020.0,65.0,12.0,1022.1394229751634,1,1,1,3.0,3.0
2021-08-12 06:18:42.562,986.0,100.0,0.0,991.0580205013226,1,1,1,3.0,3.0
2021-08-12 06:18:42.571,1041.0,40.0,4.0,1041.7758876073108,1,1,1,3.0,3.0
2021-08-12 06:18:42.591,983.0,57.0,9.0,984.6923377380368,1,1,1,3.0,3.0
2021-08-12 06:18:42.593,995.0,19.0,16.0,995.3100019591886,1,1,1,3.0,3.0
2021-08-12 06:18:42.601,997.0,19.0,13.0,997.265761971201,1,1,1,3.0,3.0
2021-08-12 06:18:42.611,999.0,24.0,13.0,999.3728033121574,1,1,1,3.0,3.0
2021-08-12 06:18:42.612,999.0,24.0,15.0,999.4008204919586,1,1,1,3.0,3.0
2021-08-12 06:18:42.620,1042.0,51.0,27.0,1043.5966653837104,1,1,1,3.0,3.0
2021-08-12 06:18:42.630,1038.0,1.0,8.0,1038.03130973974,1,1,1,3.0,3.0
2021-08-12 06:18:42.639,995.0,1.0,8.0,995.0326627804736,1,1,1,3.0,3.0
2021-08-12 06:18:42.640,995.0,66.0,19.0,997.3675350641809,1,1,1,3.0,3.0
2021-08-12 06:18:42.650,1007.0,0.0,-6.0,1007.0178747172266,1,1,1,3.0,3.0
2021-08-12 06:18:42.661,986.0,106.0,-7.0,991.7061056583244,1,1,1,3.0,3.0
2021-08-12 06:18:42.669,1044.0,22.0,-1.0,1044.2322538592648,1,1,1,3.0,3.0
2021-08-12 06:18:42.679,964.0,54.0,5.0,965.5242099502218,1,1,1,3.0,3.0
2021-08-12 06:18:42.689,981.0,28.0,12.0,981.4728727784584,1,1,1,3.0,3.0
2021-08-12 06:18:42.699,1006.0,77.0,26.0,1009.2774643278228,1,1,1,3.0,3.0
2021-08-12 06:18:42.710,997.0,31.0,5.0,997.494360886316,1,1,1,3.0,3.0
2021-08-12 06:18:42.718,1036.0,50.0,11.0,1037.2641900692415,1,1,1,3.0,3.0
2021-08-12 06:18:42.728,1036.0,0.0,6.0,1036.017374371685,1,1,1,3.0,3.0
2021-08-12 06:18:42.737,1004.0,42.0,6.0,1004.8960145209056,1,1,1,3.0,3.0
2021-08-12 06:18:42.738,1004.0,42.0,22.0,1005.1188984393837,1,1,1,3.0,3.0
2021-08-12 06:18:42.747,1000.0,32.0,-7.0,1000.5363561610344,1,1,1,3.0,3.0
2021-08-12 06:18:42.758,1016.0,42.0,-7.0,1016.8918329891336,1,1,1,3.0,3.0
2021-08-12 06:18:42.759,1016.0,42.0,-1.0,1016.8682313849716,1,1,1,3.0,3.0
2021-08-12 06:18:42.767,1057.0,44.0,6.0,1057.9324175012316,1,1,1,3.0,3.0
2021-08-12 06:18:42.776,971.0,50.0,-2.0,972.2885374208626,1,1,1,3.0,3.0
2021-08-12 06:18:42.786,995.0,51.0,6.0,996.3242444104228,1,1,1,3.0,3.0
2021-08-12 06:18:42.796,1006.0,57.0,9.0,1007.6537103588712,1,1,1,3.0,3.0
2021-08-12 06:18:42.806,1046.0,56.0,31.0,1047.9565830701194,1,1,1,3.0,3.0
2021-08-12 06:18:42.817,1017.0,-13.0,16.0,1017.2089264256384,1,1,1,3.0,3.0
2021-08-12 06:18:42.825,1018.0,-12.0,2.0,1018.072688956933,1,1,1,3.0,3.0
2021-08-12 06:18:42.835,1019.0,43.0,29.0,1020.3190677430272,1,1,1,3.0,3.0
2021-08-12 06:18:42.844,1016.0,43.0,29.0,1017.3229575705052,1,1,1,3.0,3.0
2021-08-12 06:18:42.845,1016.0,30.0,2.0,1016.4447845308666,1,1,1,3.0,3.0
2021-08-12 06:18:42.855,1033.0,24.0,20.0,1033.4723024832354,1,1,1,3.0,3.0
2021-08-12 06:18:42.866,981.0,55.0,-4.0,982.5487265270868,1,1,1,3.0,3.0
2021-08-12 06:18:42.874,1007.0,15.0,27.0,1007.473572854395,1,1,1,3.0,3.0
2021-08-12 06:18:42.883,992.0,66.0,0.0,994.1931401895712,1,1,1,3.0,3.0
2021-08-12 06:18:42.894,1000.0,36.0,5.0,1000.6602820138312,1,1,1,3.0,3.0
2021-08-12 06:18:42.903,1034.0,36.0,5.0,1034.6385842408934,1,1,1,3.0,3.0
2021-08-12 06:18:42.904,1034.0,60.0,28.0,1036.117753925682,1,1,1,3.0,3.0
2021-08-12 06:18:42.915,1006.0,-15.0,21.0,1006.3309594760564,1,1,1,3.0,3.0
2021-08-12 06:18:42.924,1020.0,41.0,32.0,1021.3251196362498,1,1,1,3.0,3.0
2021-08-12 06:18:42.933,1018.0,39.0,29.0,1019.1594575923828,1,1,1,3.0,3.0
2021-08-12 06:18:42.942,1022.0,6.0,0.0,1022.0176123727028,1,1,1,3.0,3.0
2021-08-12 06:18:42.953,1022.0,42.0,13.0,1022.9452575773544,1,1,1,3.0,3.0
2021-08-12 06:18:42.963,988.0,34.0,-8.0,988.6172161155196,1,1,1,3.0,3.0
2021-08-12 06:18:42.972,1017.0,23.0,7.0,1017.28412943484,1,1,1,3.0,3.0
2021-08-12 06:18:42.981,1006.0,109.0,7.0,1011.9120515143596,1,1,1,3.0,3.0
2021-08-12 06:18:42.982,1006.0,109.0,9.0,1011.92786304163,1,1,1,3.0,3.0
2021-08-12 06:18:42.991,996.0,45.0,4.0,997.0240719260494,1,1,1,3.0,3.0
2021-08-12 06:18:43.001,1030.0,45.0,4.0,1030.990300633328,1,1,1,3.0,3.0
2021-08-12 06:18:43.002,1030.0,60.0,27.0,1032.0993169264284,1,1,1,3.0,3.0
2021-08-12 06:18:43.012,1032.0,-30.0,14.0,1032.5308712091858,1,1,1,3.0,3.0
2021-08-12 06:18:43.021,1012.0,79.0,30.0,1015.5220332420168,1,1,1,3.0,3.0
2021-08-12 06:18:43.031,1034.0,35.0,11.0,1034.6506656838335,1,1,1,3.0,3.0
2021-08-12 06:18:43.044,1031.0,35.0,11.0,1031.6525577925934,1,1,1,3.0,3.0
2021-08-12 06:18:43.045,1031.0,18.0,6.0,1031.17457299916,1,1,1,3.0,3.0
2021-08-12 06:18:43.050,1042.0,12.0,13.0,1042.1501811159465,1,1,1,3.0,3.0
2021-08-12 06:18:43.060,987.0,19.0,-1.0,987.1833669587428,1,1,1,3.0,3.0
2021-08-12 06:18:43.070,1008.0,24.0,7.0,1008.309972181174,1,1,1,3.0,3.0
2021-08-12 06:18:43.080,1017.0,107.0,0.0,1022.6133189040714,1,1,1,3.0,3.0
2021-08-12 06:18:43.089,1011.0,55.0,3.0,1012.4993827158612,1,1,1,3.0,3.0
2021-08-12 06:18:43.099,1018.0,52.0,3.0,1019.3316437744882,1,1,1,3.0,3.0
2021-08-12 06:18:43.100,1018.0,52.0,18.0,1019.4861450750568,1,1,1,3.0,3.0
2021-08-12 06:18:43.108,1047.0,52.0,18.0,1048.4450390936092,1,1,1,3.0,3.0
2021-08-12 06:18:43.109,1047.0,-33.0,20.0,1047.7108379700956,1,1,1,3.0,3.0
2021-08-12 06:18:43.118,997.0,104.0,38.0,1003.1296027931784,1,1,1,3.0,3.0
2021-08-12 06:18:43.129,1047.0,45.0,19.0,1048.1388266828017,1,1,1,3.0,3.0
2021-08-12 06:18:43.138,998.0,72.0,8.0,1000.6258041845612,1,1,1,3.0,3.0
2021-08-12 06:18:43.148,1035.0,4.0,25.0,1035.309615525713,1,1,1,3.0,3.0
2021-08-12 06:18:43.157,977.0,79.0,10.0,980.2397665877468,1,1,1,3.0,3.0
2021-08-12 06:18:43.167,1008.0,12.0,-8.0,1008.1031693234576,1,1,1,3.0,3.0
2021-08-12 06:18:43.177,999.0,102.0,-8.0,1004.2255722694975,1,1,1,3.0,3.0
2021-08-12 06:18:43.178,999.0,102.0,5.0,1004.2061541337016,1,1,1,3.0,3.0
2021-08-12 06:18:43.188,1006.0,10.0,-15.0,1006.1615178488988,1,1,1,3.0,3.0
2021-08-12 06:18:43.197,1012.0,49.0,7.0,1013.2097512361396,1,1,1,3.0,3.0
2021-08-12 06:18:43.207,1005.0,-17.0,17.0,1005.2875210605172,1,1,1,3.0,3.0
2021-08-12 06:18:43.216,1013.0,87.0,29.0,1017.1425662118364,1,1,1,3.0,3.0
2021-08-12 06:18:43.226,1053.0,53.0,16.0,1054.4543612693724,1,1,1,3.0,3.0
2021-08-12 06:18:43.236,995.0,48.0,15.0,996.2700437130488,1,1,1,3.0,3.0
2021-08-12 06:18:43.246,1000.0,2.0,15.0,1000.1144934456256,1,1,1,3.0,3.0
2021-08-12 06:18:43.256,1002.0,47.0,15.0,1003.2138356302708,1,1,1,3.0,3.0
2021-08-12 06:18:43.265,989.0,29.0,-10.0,989.4756186991168,1,1,1,3.0,3.0
2021-08-12 06:18:43.275,1017.0,78.0,-6.0,1020.0044117551648,1,1,1,3.0,3.0
2021-08-12 06:18:43.285,999.0,15.0,-1.0,999.1131067101462,1,1,1,3.0,3.0
2021-08-12 06:18:43.295,1016.0,35.0,17.0,1016.7448057403589,1,1,1,3.0,3.0
2021-08-12 06:18:43.304,992.0,22.0,17.0,992.3895404527398,1,1,1,3.0,3.0
2021-08-12 06:18:43.305,992.0,22.0,5.0,992.25651925296,1,1,1,3.0,3.0
2021-08-12 06:18:43.313,1025.0,71.0,5.0,1027.4682476845696,1,1,1,3.0,3.0
2021-08-12 06:18:43.314,1025.0,71.0,19.0,1027.6317433789206,1,1,1,3.0,3.0
2021-08-12 06:18:43.323,1050.0,60.0,24.0,1051.986691931034,1,1,1,3.0,3.0
2021-08-12 06:18:43.333,1014.0,12.0,14.0,1014.1676390025468,1,1,1,3.0,3.0
2021-08-12 06:18:43.343,996.0,49.0,14.0,997.3028627252606,1,1,1,3.0,3.0
2021-08-12 06:18:43.344,996.0,49.0,39.0,997.9669333199372,1,1,1,3.0,3.0
2021-08-12 06:18:43.353,1002.0,13.0,-6.0,1002.1022901879828,1,1,1,3.0,3.0
2021-08-12 06:18:43.363,1003.0,58.0,5.0,1004.688011275142,1,1,1,3.0,3.0
2021-08-12 06:18:43.373,1033.0,-61.0,4.0,1034.8072284246955,1,1,1,3.0,3.0
2021-08-12 06:18:43.381,947.0,-61.0,4.0,948.9710216861208,1,1,1,3.0,3.0
2021-08-12 06:18:43.382,947.0,90.0,6.0,951.2859717245914,1,1,1,3.0,3.0
2021-08-12 06:18:43.393,1046.0,50.0,1.0,1047.1948242805634,1,1,1,3.0,3.0
2021-08-12 06:18:43.402,1020.0,77.0,4.0,1022.9100644729232,1,1,1,3.0,3.0
2021-08-12 06:18:43.411,990.0,1.0,0.0,990.0005050503762,1,1,1,3.0,3.0
2021-08-12 06:18:43.421,1003.0,23.0,8.0,1003.2955696104711,1,1,1,3.0,3.0
2021-08-12 06:18:43.431,1013.0,33.0,22.0,1013.776109404833,1,1,1,3.0,3.0
2021-08-12 06:18:43.440,979.0,108.0,11.0,985.0005076140824,1,1,1,3.0,3.0
2021-08-12 06:18:43.462,1050.0,-7.0,11.0,1050.0809492605797,1,1,1,3.0,3.0
2021-08-12 06:18:43.463,1050.0,-7.0,10.0,1050.070949983857,1,1,1,3.0,3.0
2021-08-12 06:18:43.464,967.0,57.0,-1.0,968.6789973980028,1,1,1,3.0,3.0
2021-08-12 06:18:43.471,991.0,57.0,-1.0,992.6384034481036,1,1,1,3.0,3.0
2021-08-12 06:18:43.472,991.0,59.0,-1.0,992.7552568483331,1,1,1,3.0,3.0
2021-08-12 06:18:43.480,990.0,36.0,0.0,990.654329218825,1,1,1,3.0,3.0
2021-08-12 06:18:43.490,1014.0,30.0,-3.0,1014.4481258300002,1,1,1,3.0,3.0
2021-08-12 06:18:43.499,1010.0,49.0,6.0,1011.2057159648576,1,1,1,3.0,3.0
2021-08-12 06:18:43.509,1017.0,36.0,20.0,1017.8334834342992,1,1,1,3.0,3.0
2021-08-12 06:18:43.533,1015.0,53.0,20.0,1016.5795591098612,1,1,1,3.0,3.0
2021-08-12 06:18:43.534,1015.0,53.0,14.0,1016.4792176921276,1,1,1,3.0,3.0
2021-08-12 06:18:43.536,1002.0,50.0,6.0,1003.2646709617558,1,1,1,3.0,3.0
2021-08-12 06:18:43.540,1024.0,48.0,13.0,1025.2068084050163,1,1,1,3.0,3.0
2021-08-12 06:18:43.547,998.0,48.0,13.0,999.2382098378744,1,1,1,3.0,3.0
2021-08-12 06:18:43.548,998.0,75.0,1.0,1000.8146681578962,1,1,1,3.0,3.0
2021-08-12 06:18:43.558,1022.0,55.0,45.0,1024.467666644487,1,1,1,3.0,3.0
2021-08-12 06:18:43.569,1008.0,72.0,-4.0,1010.5760733363916,1,1,1,3.0,3.0
2021-08-12 06:18:43.577,1026.0,47.0,9.0,1027.1153781343164,1,1,1,3.0,3.0
2021-08-12 06:18:43.587,1027.0,25.0,21.0,1027.518856274667,1,1,1,3.0,3.0
2021-08-12 06:18:43.597,1018.0,49.0,14.0,1019.2747421573832,1,1,1,3.0,3.0
2021-08-12 06:18:43.606,1013.0,49.0,14.0,1014.2810261461073,1,1,1,3.0,3.0
2021-08-12 06:18:43.607,1013.0,38.0,10.0,1013.7618063430876,1,1,1,3.0,3.0
2021-08-12 06:18:43.623,999.0,42.0,9.0,999.9229970352716,1,1,1,3.0,3.0
2021-08-12 06:18:43.627,1009.0,32.0,10.0,1009.5568334670417,1,1,1,3.0,3.0
2021-08-12 06:18:43.636,1007.0,34.0,10.0,1007.6234415693197,1,1,1,3.0,3.0
2021-08-12 06:18:43.637,1007.0,34.0,11.0,1007.6338620749108,1,1,1,3.0,3.0
2021-08-12 06:18:43.646,993.0,64.0,10.0,995.1105466228364,1,1,1,3.0,3.0
2021-08-12 06:18:43.656,1008.0,48.0,10.0,1009.1917558125411,1,1,1,3.0,3.0
2021-08-12 06:18:43.657,1008.0,48.0,6.0,1009.1600467715712,1,1,1,3.0,3.0
2021-08-12 06:18:43.665,1032.0,39.0,9.0,1032.7758711356496,1,1,1,3.0,3.0
2021-08-12 06:18:43.674,1013.0,51.0,9.0,1014.3229268827556,1,1,1,3.0,3.0
2021-08-12 06:18:43.675,1013.0,51.0,4.0,1014.29088529869,1,1,1,3.0,3.0
2021-08-12 06:18:43.684,1012.0,41.0,8.0,1012.8617872148204,1,1,1,3.0,3.0
2021-08-12 06:18:43.695,1018.0,41.0,12.0,1018.8959711373876,1,1,1,3.0,3.0
2021-08-12 06:18:43.706,1016.0,45.0,14.0,1017.0924245121482,1,1,1,3.0,3.0
2021-08-12 06:18:43.715,1010.0,42.0,18.0,1011.0331349664066,1,1,1,3.0,3.0
2021-08-12 06:18:43.724,1016.0,40.0,18.0,1016.9464096008206,1,1,1,3.0,3.0
2021-08-12 06:18:43.733,1001.0,48.0,19.0,1002.3302848861746,1,1,1,3.0,3.0
2021-08-12 06:18:43.743,998.0,85.0,10.0,1001.6631170208874,1,1,1,3.0,3.0
2021-08-12 06:18:43.755,1033.0,25.0,18.0,1033.4592396413127,1,1,1,3.0,3.0
2021-08-12 06:18:43.763,999.0,62.0,11.0,1000.9825173298484,1,1,1,3.0,3.0
