time_stamp,Acceleration_X,Acceleration_Y,Acceleration_Z,magnitude,STD_Status_right,STD_Status_left,STD_Status_both,KMeans,KMeans_convert
2021-09-02 05:32:06.267,953.0,255.0,45.0,987.5520239460806,1,1,1,0.0,3.0
2021-09-02 05:32:06.278,1030.0,-10.0,36.0,1030.6774471191266,1,1,1,0.0,3.0
2021-09-02 05:32:06.287,943.0,101.0,-19.0,948.5836810740526,1,1,1,0.0,3.0
2021-09-02 05:32:06.298,1029.0,25.0,28.0,1029.684417673687,1,1,1,0.0,3.0
2021-09-02 05:32:06.306,970.0,172.0,16.0,985.261386638084,1,1,1,0.0,3.0
2021-09-02 05:32:06.316,1001.0,93.0,19.0,1005.4904276023716,1,1,1,0.0,3.0
2021-09-02 05:32:06.326,958.0,107.0,2.0,963.9590240253992,1,1,1,0.0,3.0
2021-09-02 05:32:06.335,1026.0,107.0,2.0,1031.5662848309846,1,1,1,0.0,3.0
2021-09-02 05:32:06.336,1026.0,9.0,20.0,1026.234378687442,1,1,1,0.0,3.0
2021-09-02 05:32:06.346,983.0,-25.0,-15.0,983.4322549113384,1,1,1,0.0,3.0
2021-09-02 05:32:06.359,1001.0,162.0,11.0,1014.0838229653403,1,1,1,0.0,3.0
2021-09-02 05:32:06.365,979.0,-57.0,20.0,980.8618659118112,1,1,1,0.0,3.0
2021-09-02 05:32:06.374,924.0,143.0,20.0,935.213879281098,1,1,1,0.0,3.0
2021-09-02 05:32:06.375,924.0,143.0,0.0,935.0,1,1,1,0.0,3.0
2021-09-02 05:32:06.384,1089.0,-165.0,-2.0,1101.4308875276745,1,1,1,0.0,3.0
2021-09-02 05:32:06.395,944.0,191.0,16.0,963.2616466983412,1,1,1,0.0,3.0
2021-09-02 05:32:06.404,1043.0,-3.0,2.0,1043.006232004392,1,1,1,0.0,3.0
2021-09-02 05:32:06.414,1019.0,32.0,4.0,1019.5101765063456,1,1,1,0.0,3.0
2021-09-02 05:32:06.423,1029.0,35.0,26.0,1029.9232981149617,1,1,1,0.0,3.0
2021-09-02 05:32:06.433,1016.0,-36.0,-2.0,1016.6395624802332,1,1,1,0.0,3.0
2021-09-02 05:32:06.443,998.0,136.0,15.0,1007.3355945264716,1,1,1,0.0,3.0
2021-09-02 05:32:06.453,1049.0,136.0,15.0,1057.8856270882973,1,1,1,0.0,3.0
2021-09-02 05:32:06.454,1049.0,-80.0,11.0,1052.103607065388,1,1,1,0.0,3.0
2021-09-02 05:32:06.462,988.0,153.0,11.0,999.8369867133342,1,1,1,0.0,3.0
2021-09-02 05:32:06.463,988.0,153.0,8.0,999.8084816603628,1,1,1,0.0,3.0
2021-09-02 05:32:06.472,1073.0,-50.0,21.0,1074.369582592508,1,1,1,0.0,3.0
2021-09-02 05:32:06.483,950.0,163.0,-21.0,964.1109894612756,1,1,1,0.0,3.0
2021-09-02 05:32:06.492,1055.0,-41.0,13.0,1055.8764132226838,1,1,1,0.0,3.0
2021-09-02 05:32:06.503,982.0,-8.0,-5.0,982.0453146367536,1,1,1,0.0,3.0
2021-09-02 05:32:06.512,1022.0,79.0,17.0,1025.189738536238,1,1,1,0.0,3.0
2021-09-02 05:32:06.521,1032.0,-70.0,1.0,1034.371790025231,1,1,1,0.0,3.0
2021-09-02 05:32:06.531,973.0,114.0,1.0,979.656062095264,1,1,1,0.0,3.0
2021-09-02 05:32:06.540,1081.0,114.0,1.0,1086.9949401906156,1,1,1,0.0,3.0
2021-09-02 05:32:06.541,1081.0,-25.0,35.0,1081.8553507747697,1,1,1,0.0,3.0
2021-09-02 05:32:06.551,949.0,170.0,-20.0,964.313745624317,1,1,1,0.0,3.0
2021-09-02 05:32:06.560,1075.0,-86.0,7.0,1078.4572314190304,1,1,1,0.0,3.0
2021-09-02 05:32:06.570,976.0,30.0,-4.0,976.469149538274,1,1,1,0.0,3.0
2021-09-02 05:32:06.580,983.0,-19.0,10.0,983.2344583058508,1,1,1,0.0,3.0
2021-09-02 05:32:06.589,1048.0,-19.0,10.0,1048.219919673348,1,1,1,0.0,3.0
2021-09-02 05:32:06.590,1048.0,109.0,18.0,1053.8069083091077,1,1,1,0.0,3.0
2021-09-02 05:32:06.599,948.0,91.0,12.0,952.4331997573372,1,1,1,0.0,3.0
2021-09-02 05:32:06.610,1100.0,-56.0,23.0,1101.6646495190812,1,1,1,0.0,3.0
2021-09-02 05:32:06.619,936.0,187.0,-3.0,954.5019643772348,1,1,1,0.0,3.0
2021-09-02 05:32:06.656,1002.0,28.0,7.0,1002.4155824806396,1,1,1,0.0,3.0
2021-09-02 05:32:06.658,994.0,151.0,-2.0,1005.4058881864578,1,1,1,0.0,3.0
2021-09-02 05:32:06.663,1007.0,-68.0,7.0,1009.31759124668,1,1,1,0.0,3.0
2021-09-02 05:32:06.666,1018.0,134.0,11.0,1026.8402991702264,1,1,1,0.0,3.0
2021-09-02 05:32:06.668,981.0,66.0,14.0,983.3173445027804,1,1,1,0.0,3.0
2021-09-02 05:32:06.678,964.0,142.0,-4.0,974.410591075446,1,1,1,0.0,3.0
2021-09-02 05:32:06.687,1047.0,2.0,7.0,1047.025310104775,1,1,1,0.0,3.0
2021-09-02 05:32:06.697,989.0,-8.0,-1.0,989.0328609303132,1,1,1,0.0,3.0
2021-09-02 05:32:06.706,995.0,-8.0,-1.0,995.0326627804736,1,1,1,0.0,3.0
2021-09-02 05:32:06.707,995.0,112.0,0.0,1001.2836760878508,1,1,1,0.0,3.0
2021-09-02 05:32:06.723,1014.0,-81.0,16.0,1017.3558866001612,1,1,1,0.0,3.0
2021-09-02 05:32:06.726,1012.0,162.0,11.0,1024.943413072156,1,1,1,0.0,3.0
2021-09-02 05:32:06.736,1054.0,-81.0,19.0,1057.278582020841,1,1,1,0.0,3.0
2021-09-02 05:32:06.746,965.0,199.0,-3.0,985.3095960153844,1,1,1,0.0,3.0
2021-09-02 05:32:06.756,1029.0,-7.0,7.0,1029.0476179458365,1,1,1,0.0,3.0
2021-09-02 05:32:06.765,1010.0,19.0,-13.0,1010.2623421666276,1,1,1,0.0,3.0
2021-09-02 05:32:06.775,1007.0,107.0,19.0,1012.8469775834848,1,1,1,0.0,3.0
2021-09-02 05:32:06.785,1006.0,-37.0,-13.0,1006.7641233178704,1,1,1,0.0,3.0
2021-09-02 05:32:06.794,1019.0,90.0,-13.0,1023.0493634228995,1,1,1,0.0,3.0
2021-09-02 05:32:06.795,1019.0,90.0,1.0,1022.9672526527914,1,1,1,0.0,3.0
2021-09-02 05:32:06.804,1040.0,-89.0,4.0,1043.808890554205,1,1,1,0.0,3.0
2021-09-02 05:32:06.816,965.0,154.0,-6.0,977.2292463900168,1,1,1,0.0,3.0
2021-09-02 05:32:06.824,993.0,-3.0,11.0,993.0654560501034,1,1,1,0.0,3.0
2021-09-02 05:32:06.833,1034.0,-3.0,11.0,1034.0628607584745,1,1,1,0.0,3.0
2021-09-02 05:32:06.834,1034.0,61.0,23.0,1036.0530874429166,1,1,1,0.0,3.0
2021-09-02 05:32:06.843,1059.0,-40.0,22.0,1059.983490437469,1,1,1,0.0,3.0
2021-09-02 05:32:06.853,991.0,2.0,-3.0,991.006559009576,1,1,1,0.0,3.0
2021-09-02 05:32:06.864,1018.0,68.0,12.0,1020.3391592994948,1,1,1,0.0,3.0
2021-09-02 05:32:06.873,1067.0,-28.0,6.0,1067.3841857550635,1,1,1,0.0,3.0
2021-09-02 05:32:06.882,963.0,72.0,0.0,965.6878377612508,1,1,1,0.0,3.0
2021-09-02 05:32:06.892,1070.0,-45.0,23.0,1071.1927931049574,1,1,1,0.0,3.0
2021-09-02 05:32:06.902,943.0,145.0,-17.0,954.2342479705914,1,1,1,0.0,3.0
2021-09-02 05:32:06.912,1081.0,-75.0,21.0,1083.8021037071298,1,1,1,0.0,3.0
2021-09-02 05:32:06.921,983.0,-75.0,21.0,986.08062550686,1,1,1,0.0,3.0
2021-09-02 05:32:06.922,983.0,47.0,-3.0,984.12753238592,1,1,1,0.0,3.0
2021-09-02 05:32:06.931,1028.0,70.0,16.0,1030.5047307023874,1,1,1,0.0,3.0
2021-09-02 05:32:06.951,1034.0,115.0,12.0,1040.4446164981584,1,1,1,0.0,3.0
2021-09-02 05:32:06.953,978.0,56.0,12.0,979.675456465048,1,1,1,0.0,3.0
2021-09-02 05:32:06.954,978.0,56.0,9.0,979.6433024320638,1,1,1,0.0,3.0
2021-09-02 05:32:06.960,1071.0,56.0,9.0,1072.5008158505054,1,1,1,0.0,3.0
2021-09-02 05:32:06.961,1071.0,-45.0,19.0,1072.1133335613358,1,1,1,0.0,3.0
2021-09-02 05:32:06.970,932.0,195.0,0.0,952.181180238299,1,1,1,0.0,3.0
2021-09-02 05:32:06.980,1087.0,-110.0,10.0,1092.5973640824875,1,1,1,0.0,3.0
2021-09-02 05:32:06.990,1001.0,132.0,1.0,1009.666281500972,1,1,1,0.0,3.0
2021-09-02 05:32:07.000,989.0,-16.0,28.0,989.5256439324854,1,1,1,0.0,3.0
2021-09-02 05:32:07.011,1034.0,124.0,13.0,1041.4897983177752,1,1,1,0.0,3.0
2021-09-02 05:32:07.019,995.0,55.0,11.0,996.579650605008,1,1,1,0.0,3.0
2021-09-02 05:32:07.029,1081.0,-77.0,5.0,1083.750432525865,1,1,1,0.0,3.0
2021-09-02 05:32:07.046,925.0,161.0,0.0,938.9068111372928,1,1,1,0.0,3.0
2021-09-02 05:32:07.052,988.0,25.0,6.0,988.3344575597878,1,1,1,0.0,3.0
2021-09-02 05:32:07.058,1017.0,147.0,5.0,1027.5811403485372,1,1,1,0.0,3.0
2021-09-02 05:32:07.068,1012.0,-41.0,17.0,1012.972852548379,1,1,1,0.0,3.0
2021-09-02 05:32:07.078,1009.0,164.0,22.0,1022.4778726212124,1,1,1,0.0,3.0
2021-09-02 05:32:07.087,1059.0,-141.0,22.0,1068.571944232114,1,1,1,0.0,3.0
2021-09-02 05:32:07.088,1059.0,-141.0,9.0,1068.3833581631643,1,1,1,0.0,3.0
2021-09-02 05:32:07.097,969.0,157.0,9.0,981.6776456658264,1,1,1,0.0,3.0
2021-09-02 05:32:07.098,969.0,157.0,9.0,981.6776456658264,1,1,1,0.0,3.0
2021-09-02 05:32:07.107,1039.0,157.0,9.0,1050.833478720582,1,1,1,0.0,3.0
2021-09-02 05:32:07.108,1039.0,24.0,11.0,1039.3353645479403,1,1,1,0.0,3.0
2021-09-02 05:32:07.117,1010.0,37.0,1.0,1010.6779902619824,1,1,1,0.0,3.0
2021-09-02 05:32:07.126,1002.0,59.0,1.0,1003.73602107327,1,1,1,0.0,3.0
2021-09-02 05:32:07.127,1002.0,59.0,15.0,1003.847597994835,1,1,1,0.0,3.0
2021-09-02 05:32:07.136,1013.0,-15.0,-9.0,1013.1510252672106,1,1,1,0.0,3.0
2021-09-02 05:32:07.146,1009.0,110.0,8.0,1015.0098521689334,1,1,1,0.0,3.0
2021-09-02 05:32:07.157,1061.0,-120.0,7.0,1067.787432029428,1,1,1,0.0,3.0
2021-09-02 05:32:07.166,985.0,139.0,9.0,994.7999798954562,1,1,1,0.0,3.0
2021-09-02 05:32:07.175,1000.0,0.0,12.0,1000.0719974081866,1,1,1,0.0,3.0
2021-09-02 05:32:07.185,1024.0,70.0,17.0,1026.530564571752,1,1,1,0.0,3.0
2021-09-02 05:32:07.195,1057.0,-10.0,25.0,1057.3428961316192,1,1,1,0.0,3.0
2021-09-02 05:32:07.205,990.0,-10.0,25.0,990.3660939268872,1,1,1,0.0,3.0
2021-09-02 05:32:07.206,990.0,8.0,1.0,990.0328277385554,1,1,1,0.0,3.0
2021-09-02 05:32:07.214,1027.0,55.0,1.0,1028.4721678295432,1,1,1,0.0,3.0
2021-09-02 05:32:07.215,1027.0,55.0,8.0,1028.5027953292106,1,1,1,0.0,3.0
2021-09-02 05:32:07.224,1035.0,-55.0,10.0,1036.5085624344838,1,1,1,0.0,3.0
2021-09-02 05:32:07.234,978.0,149.0,-8.0,989.317441471644,1,1,1,0.0,3.0
2021-09-02 05:32:07.246,1056.0,-43.0,33.0,1057.3901834233188,1,1,1,0.0,3.0
2021-09-02 05:32:07.253,952.0,155.0,33.0,965.0999948191898,1,1,1,0.0,3.0
2021-09-02 05:32:07.254,952.0,155.0,-17.0,964.6854409599016,1,1,1,0.0,3.0
2021-09-02 05:32:07.264,1064.0,-101.0,12.0,1068.850316929363,1,1,1,0.0,3.0
2021-09-02 05:32:07.273,979.0,-101.0,12.0,984.269272099866,1,1,1,0.0,3.0
2021-09-02 05:32:07.274,979.0,26.0,-7.0,979.3702057955408,1,1,1,0.0,3.0
2021-09-02 05:32:07.283,1042.0,47.0,6.0,1043.0766990015643,1,1,1,0.0,3.0
2021-09-02 05:32:07.292,1043.0,47.0,6.0,1044.0756677559343,1,1,1,0.0,3.0
2021-09-02 05:32:07.293,1043.0,141.0,28.0,1052.859914708505,1,1,1,0.0,3.0
2021-09-02 05:32:07.302,954.0,73.0,27.0,957.1697864015558,1,1,1,0.0,3.0
2021-09-02 05:32:07.313,1089.0,-53.0,23.0,1090.5315217819243,1,1,1,0.0,3.0
2021-09-02 05:32:07.322,927.0,163.0,-11.0,941.2858226914926,1,1,1,0.0,3.0
2021-09-02 05:32:07.331,1086.0,163.0,-11.0,1098.2194680481675,1,1,1,0.0,3.0
2021-09-02 05:32:07.332,1086.0,-109.0,23.0,1091.6986763754917,1,1,1,0.0,3.0
2021-09-02 05:32:07.341,991.0,161.0,10.0,1004.0428277718038,1,1,1,0.0,3.0
2021-09-02 05:32:07.351,999.0,-22.0,32.0,999.7544698574744,1,1,1,0.0,3.0
2021-09-02 05:32:07.364,1035.0,147.0,27.0,1045.7356262459457,1,1,1,0.0,3.0
2021-09-02 05:32:07.371,985.0,51.0,1.0,986.319927812472,1,1,1,0.0,3.0
2021-09-02 05:32:07.380,1057.0,-56.0,10.0,1058.5296405864126,1,1,1,0.0,3.0
2021-09-02 05:32:07.390,943.0,145.0,-11.0,954.1462152102266,1,1,1,0.0,3.0
2021-09-02 05:32:07.400,988.0,22.0,14.0,988.3440696437654,1,1,1,0.0,3.0
2021-09-02 05:32:07.410,998.0,153.0,4.0,1009.6677671392704,1,1,1,0.0,3.0
2021-09-02 05:32:07.419,1015.0,153.0,4.0,1026.4745491243316,1,1,1,0.0,3.0
2021-09-02 05:32:07.420,1015.0,-36.0,24.0,1015.9217489551052,1,1,1,0.0,3.0
2021-09-02 05:32:07.430,1014.0,166.0,3.0,1027.5023114329233,1,1,1,0.0,3.0
2021-09-02 05:32:07.439,995.0,58.0,9.0,996.7296524133312,1,1,1,0.0,3.0
2021-09-02 05:32:07.449,967.0,175.0,-22.0,982.9537120332778,1,1,1,0.0,3.0
2021-09-02 05:32:07.458,1032.0,175.0,-22.0,1046.9637051970808,1,1,1,0.0,3.0
2021-09-02 05:32:07.459,1032.0,29.0,8.0,1032.4383758849726,1,1,1,0.0,3.0
2021-09-02 05:32:07.470,1009.0,26.0,4.0,1009.3428555253164,1,1,1,0.0,3.0
2021-09-02 05:32:07.478,994.0,26.0,4.0,994.3480276040176,1,1,1,0.0,3.0
2021-09-02 05:32:07.479,994.0,114.0,12.0,1000.587827229574,1,1,1,0.0,3.0
2021-09-02 05:32:07.488,1024.0,-42.0,25.0,1025.165840242446,1,1,1,0.0,3.0
2021-09-02 05:32:07.498,998.0,125.0,12.0,1005.8692758007872,1,1,1,0.0,3.0
2021-09-02 05:32:07.507,1059.0,-93.0,12.0,1063.1434522208183,1,1,1,0.0,3.0
2021-09-02 05:32:07.508,1059.0,-93.0,17.0,1063.2116440295413,1,1,1,0.0,3.0
2021-09-02 05:32:07.518,967.0,139.0,-1.0,976.9396091877942,1,1,1,0.0,3.0
2021-09-02 05:32:07.527,1035.0,1.0,10.0,1035.048791120496,1,1,1,0.0,3.0
2021-09-02 05:32:07.536,1022.0,1.0,10.0,1022.0494117213708,1,1,1,0.0,3.0
2021-09-02 05:32:07.537,1022.0,35.0,8.0,1022.6304317787536,1,1,1,0.0,3.0
2021-09-02 05:32:07.546,1057.0,-24.0,12.0,1057.34053171152,1,1,1,0.0,3.0
2021-09-02 05:32:07.556,1003.0,-17.0,-5.0,1003.1565181964378,1,1,1,0.0,3.0
2021-09-02 05:32:07.566,1016.0,97.0,4.0,1020.6277480060984,1,1,1,0.0,3.0
2021-09-02 05:32:07.576,1058.0,97.0,4.0,1062.4448220966583,1,1,1,0.0,3.0
2021-09-02 05:32:07.577,1058.0,-71.0,15.0,1060.4857377635967,1,1,1,0.0,3.0
2021-09-02 05:32:07.585,974.0,144.0,15.0,984.7014776062844,1,1,1,0.0,3.0
2021-09-02 05:32:07.586,974.0,144.0,4.0,984.59534835383,1,1,1,0.0,3.0
2021-09-02 05:32:07.595,998.0,-9.0,5.0,998.0531047995393,1,1,1,0.0,3.0
2021-09-02 05:32:07.605,951.0,138.0,-20.0,961.1685596189672,1,1,1,0.0,3.0
2021-09-02 05:32:07.615,1043.0,-32.0,18.0,1043.6460127840282,1,1,1,0.0,3.0
2021-09-02 05:32:07.626,996.0,-6.0,-6.0,996.0361439224984,1,1,1,0.0,3.0
2021-09-02 05:32:07.635,1012.0,65.0,4.0,1014.0931909839452,1,1,1,0.0,3.0
2021-09-02 05:32:07.644,1014.0,101.0,5.0,1019.0299308656248,1,1,1,0.0,3.0
2021-09-02 05:32:07.654,975.0,79.0,-4.0,978.2034553200064,1,1,1,0.0,3.0
2021-09-02 05:32:07.689,1070.0,-73.0,21.0,1072.692873100218,1,1,1,0.0,3.0
2021-09-02 05:32:07.690,1045.0,-75.0,21.0,1047.8983729350855,1,1,1,0.0,3.0
2021-09-02 05:32:07.691,1045.0,-75.0,38.0,1048.3768406446225,1,1,1,0.0,3.0
2021-09-02 05:32:07.693,984.0,65.0,-7.0,986.1693566522944,1,1,1,0.0,3.0
2021-09-02 05:32:07.703,1003.0,-47.0,4.0,1004.108559867906,1,1,1,0.0,3.0
2021-09-02 05:32:07.713,1020.0,125.0,20.0,1027.825374273276,1,1,1,0.0,3.0
2021-09-02 05:32:07.722,996.0,125.0,20.0,1004.0124501220092,1,1,1,0.0,3.0
2021-09-02 05:32:07.723,996.0,61.0,5.0,997.878750149536,1,1,1,0.0,3.0
2021-09-02 05:32:07.739,1073.0,61.0,5.0,1074.7441556016947,1,1,1,0.0,3.0
2021-09-02 05:32:07.740,1073.0,-61.0,5.0,1074.7441556016947,1,1,1,0.0,3.0
2021-09-02 05:32:07.742,942.0,183.0,5.0,959.6238846548162,1,1,1,0.0,3.0
2021-09-02 05:32:07.743,942.0,183.0,0.0,959.6108586296843,1,1,1,0.0,3.0
2021-09-02 05:32:07.751,1003.0,183.0,0.0,1019.5577472610368,1,1,1,0.0,3.0
2021-09-02 05:32:07.752,1003.0,7.0,1.0,1003.0249249146304,1,1,1,0.0,3.0
2021-09-02 05:32:07.762,1002.0,137.0,0.0,1011.322401610881,1,1,1,0.0,3.0
2021-09-02 05:32:07.771,1015.0,137.0,0.0,1024.2040812260025,1,1,1,0.0,3.0
2021-09-02 05:32:07.772,1015.0,-52.0,11.0,1016.3906729206049,1,1,1,0.0,3.0
2021-09-02 05:32:07.781,1023.0,141.0,5.0,1032.6833977555757,1,1,1,0.0,3.0
2021-09-02 05:32:07.790,994.0,141.0,5.0,1003.9631467339824,1,1,1,0.0,3.0
2021-09-02 05:32:07.791,994.0,52.0,2.0,995.3612409572718,1,1,1,0.0,3.0
2021-09-02 05:32:07.800,1064.0,-97.0,2.0,1068.4142455059273,1,1,1,0.0,3.0
2021-09-02 05:32:07.801,1064.0,-97.0,-1.0,1068.4128415551734,1,1,1,0.0,3.0
2021-09-02 05:32:07.810,1037.0,-13.0,-3.0,1037.08582094251,1,1,1,0.0,3.0
2021-09-02 05:32:07.821,991.0,21.0,16.0,991.3516026113036,1,1,1,0.0,3.0
2021-09-02 05:32:07.830,999.0,101.0,-6.0,1004.110551682433,1,1,1,0.0,3.0
2021-09-02 05:32:07.839,1031.0,-60.0,20.0,1032.9380426724538,1,1,1,0.0,3.0
2021-09-02 05:32:07.849,989.0,162.0,-1.0,1002.1806224428808,1,1,1,0.0,3.0
2021-09-02 05:32:07.859,1042.0,-82.0,-1.0,1045.2219859914926,1,1,1,0.0,3.0
2021-09-02 05:32:07.860,1042.0,-82.0,14.0,1045.315263449262,1,1,1,0.0,3.0
2021-09-02 05:32:07.869,983.0,-82.0,14.0,986.513557940285,1,1,1,0.0,3.0
2021-09-02 05:32:07.870,983.0,139.0,4.0,992.7869862160763,1,1,1,0.0,3.0
2021-09-02 05:32:07.878,1011.0,22.0,4.0,1011.2472496872364,1,1,1,0.0,3.0
2021-09-02 05:32:07.879,1011.0,22.0,13.0,1011.32289601294,1,1,1,0.0,3.0
2021-09-02 05:32:07.888,1009.0,38.0,4.0,1009.7232294049692,1,1,1,0.0,3.0
2021-09-02 05:32:07.898,991.0,128.0,18.0,999.3943165737936,1,1,1,0.0,3.0
2021-09-02 05:32:07.908,1002.0,-23.0,-12.0,1002.3357720843848,1,1,1,0.0,3.0
2021-09-02 05:32:07.917,1025.0,-23.0,-12.0,1025.3282401260583,1,1,1,0.0,3.0
2021-09-02 05:32:07.918,1025.0,64.0,0.0,1026.9961051532766,1,1,1,0.0,3.0
2021-09-02 05:32:07.929,1051.0,-73.0,6.0,1053.5492394757823,1,1,1,0.0,3.0
2021-09-02 05:32:07.937,987.0,145.0,6.0,997.6121490840014,1,1,1,0.0,3.0
2021-09-02 05:32:07.947,1008.0,9.0,5.0,1008.0525779938266,1,1,1,0.0,3.0
2021-09-02 05:32:07.956,954.0,9.0,5.0,954.0555539380292,1,1,1,0.0,3.0
2021-09-02 05:32:07.957,954.0,145.0,-14.0,965.0580293433136,1,1,1,0.0,3.0
2021-09-02 05:32:07.969,1054.0,-58.0,7.0,1055.6178285724432,1,1,1,0.0,3.0
2021-09-02 05:32:07.977,994.0,-58.0,7.0,995.7153207619134,1,1,1,0.0,3.0
2021-09-02 05:32:07.978,994.0,-3.0,0.0,994.0045271526684,1,1,1,0.0,3.0
2021-09-02 05:32:07.986,1018.0,52.0,6.0,1019.3448876606976,1,1,1,0.0,3.0
2021-09-02 05:32:07.995,1030.0,52.0,6.0,1031.3292393799372,1,1,1,0.0,3.0
2021-09-02 05:32:07.996,1030.0,-35.0,19.0,1030.7696153845436,1,1,1,0.0,3.0
2021-09-02 05:32:08.005,993.0,56.0,19.0,994.7592673607016,1,1,1,0.0,3.0
2021-09-02 05:32:08.006,993.0,56.0,-1.0,994.578302598644,1,1,1,0.0,3.0
2021-09-02 05:32:08.016,1057.0,-46.0,20.0,1058.1894915373143,1,1,1,0.0,3.0
2021-09-02 05:32:08.030,965.0,168.0,-10.0,979.565720102536,1,1,1,0.0,3.0
2021-09-02 05:32:08.035,1056.0,-77.0,9.0,1058.8418201034565,1,1,1,0.0,3.0
2021-09-02 05:32:08.044,997.0,53.0,0.0,998.4077323418524,1,1,1,0.0,3.0
2021-09-02 05:32:08.054,999.0,-27.0,16.0,999.4928714102967,1,1,1,0.0,3.0
2021-09-02 05:32:08.064,1028.0,-27.0,16.0,1028.4789740194012,1,1,1,0.0,3.0
2021-09-02 05:32:08.065,1028.0,125.0,16.0,1035.6954185473642,1,1,1,0.0,3.0
2021-09-02 05:32:08.074,993.0,46.0,11.0,994.1257465733396,1,1,1,0.0,3.0
2021-09-02 05:32:08.083,1060.0,46.0,11.0,1061.0546640018129,1,1,1,0.0,3.0
2021-09-02 05:32:08.084,1060.0,-51.0,7.0,1061.2492638395563,1,1,1,0.0,3.0
2021-09-02 05:32:08.093,959.0,171.0,3.0,974.130894695369,1,1,1,0.0,3.0
2021-09-02 05:32:08.103,1070.0,-75.0,7.0,1072.6481249692276,1,1,1,0.0,3.0
2021-09-02 05:32:08.113,982.0,134.0,7.0,991.125118236845,1,1,1,0.0,3.0
2021-09-02 05:32:08.114,982.0,134.0,0.0,991.1003985469888,1,1,1,0.0,3.0
2021-09-02 05:32:08.123,1007.0,-24.0,15.0,1007.3976374798584,1,1,1,0.0,3.0
2021-09-02 05:32:08.133,1016.0,135.0,13.0,1025.0121950494054,1,1,1,0.0,3.0
2021-09-02 05:32:08.142,996.0,56.0,14.0,997.6712885514949,1,1,1,0.0,3.0
2021-09-02 05:32:08.152,1060.0,-67.0,3.0,1062.1195789552137,1,1,1,0.0,3.0
2021-09-02 05:32:08.162,1040.0,8.0,7.0,1040.0543255042016,1,1,1,0.0,3.0
2021-09-02 05:32:08.171,1002.0,26.0,7.0,1002.3617111601978,1,1,1,0.0,3.0
2021-09-02 05:32:08.172,1002.0,26.0,18.0,1002.4988778048582,1,1,1,0.0,3.0
2021-09-02 05:32:08.181,990.0,96.0,0.0,994.643654782958,1,1,1,0.0,3.0
2021-09-02 05:32:08.191,1023.0,-27.0,30.0,1023.795878092894,1,1,1,0.0,3.0
2021-09-02 05:32:08.201,993.0,154.0,-12.0,1004.9422869000986,1,1,1,0.0,3.0
2021-09-02 05:32:08.210,1052.0,154.0,-12.0,1063.2798314648876,1,1,1,0.0,3.0
2021-09-02 05:32:08.211,1052.0,-79.0,-4.0,1054.9696678104067,1,1,1,0.0,3.0
2021-09-02 05:32:08.221,1009.0,116.0,-3.0,1015.6505304483428,1,1,1,0.0,3.0
2021-09-02 05:32:08.230,1014.0,32.0,9.0,1014.5447254803506,1,1,1,0.0,3.0
2021-09-02 05:32:08.240,1032.0,32.0,9.0,1032.5352294231902,1,1,1,0.0,3.0
2021-09-02 05:32:08.241,1032.0,30.0,3.0,1032.4403130447783,1,1,1,0.0,3.0
2021-09-02 05:32:08.250,982.0,83.0,-2.0,985.5034246515838,1,1,1,0.0,3.0
2021-09-02 05:32:08.260,1002.0,-9.0,-1.0,1002.0409173282296,1,1,1,0.0,3.0
2021-09-02 05:32:08.269,1029.0,51.0,9.0,1030.3023827983704,1,1,1,0.0,3.0
2021-09-02 05:32:08.279,1044.0,-46.0,0.0,1045.0129185804356,1,1,1,0.0,3.0
2021-09-02 05:32:08.289,995.0,115.0,0.0,1001.6236818286596,1,1,1,0.0,3.0
2021-09-02 05:32:08.290,995.0,115.0,6.0,1001.6416524885534,1,1,1,0.0,3.0
2021-09-02 05:32:08.298,999.0,16.0,6.0,999.1461354576716,1,1,1,0.0,3.0
2021-09-02 05:32:08.299,999.0,16.0,9.0,999.1686544322736,1,1,1,0.0,3.0
2021-09-02 05:32:08.308,1014.0,89.0,26.0,1018.2303275781958,1,1,1,0.0,3.0
2021-09-02 05:32:08.318,1042.0,89.0,26.0,1046.1171062553178,1,1,1,0.0,3.0
2021-09-02 05:32:08.319,1042.0,-58.0,16.0,1043.7355987030433,1,1,1,0.0,3.0
2021-09-02 05:32:08.328,984.0,36.0,-4.0,984.6664409839508,1,1,1,0.0,3.0
2021-09-02 05:32:08.337,1008.0,55.0,-4.0,1009.5073055703956,1,1,1,0.0,3.0
2021-09-02 05:32:08.338,1008.0,55.0,2.0,1009.5013620595072,1,1,1,0.0,3.0
2021-09-02 05:32:08.347,1047.0,-47.0,15.0,1048.1617241628317,1,1,1,0.0,3.0
2021-09-02 05:32:08.357,975.0,149.0,15.0,986.4334746955824,1,1,1,0.0,3.0
2021-09-02 05:32:08.358,975.0,149.0,6.0,986.3376703746036,1,1,1,0.0,3.0
2021-09-02 05:32:08.367,1061.0,149.0,6.0,1071.4280190474767,1,1,1,0.0,3.0
2021-09-02 05:32:08.368,1061.0,-43.0,17.0,1062.0070621234115,1,1,1,0.0,3.0
2021-09-02 05:32:08.376,974.0,133.0,17.0,983.1856386257888,1,1,1,0.0,3.0
2021-09-02 05:32:08.377,974.0,133.0,-22.0,983.2848010622356,1,1,1,0.0,3.0
2021-09-02 05:32:08.386,1046.0,-84.0,11.0,1049.425080698951,1,1,1,0.0,3.0
2021-09-02 05:32:08.397,996.0,30.0,-6.0,996.4697687336028,1,1,1,0.0,3.0
2021-09-02 05:32:08.406,1009.0,53.0,14.0,1010.488000918368,1,1,1,0.0,3.0
2021-09-02 05:32:08.416,1033.0,114.0,9.0,1039.310348259845,1,1,1,0.0,3.0
2021-09-02 05:32:08.425,1007.0,40.0,0.0,1007.7941258014952,1,1,1,0.0,3.0
2021-09-02 05:32:08.435,1043.0,-36.0,17.0,1043.759550854506,1,1,1,0.0,3.0
2021-09-02 05:32:08.445,955.0,-36.0,17.0,955.8294827007588,1,1,1,0.0,3.0
2021-09-02 05:32:08.446,955.0,147.0,-2.0,966.2494501938928,1,1,1,0.0,3.0
2021-09-02 05:32:08.455,1045.0,-66.0,6.0,1047.0993267116544,1,1,1,0.0,3.0
2021-09-02 05:32:08.464,983.0,157.0,6.0,995.4767701960704,1,1,1,0.0,3.0
2021-09-02 05:32:08.465,983.0,157.0,7.0,995.4832997092416,1,1,1,0.0,3.0
2021-09-02 05:32:08.475,1018.0,-41.0,7.0,1018.8493509837458,1,1,1,0.0,3.0
2021-09-02 05:32:08.484,1019.0,123.0,1.0,1026.3970966443735,1,1,1,0.0,3.0
2021-09-02 05:32:08.494,996.0,33.0,2.0,996.5485437247902,1,1,1,0.0,3.0
2021-09-02 05:32:08.503,1058.0,33.0,2.0,1058.5164146105624,1,1,1,0.0,3.0
2021-09-02 05:32:08.504,1058.0,-65.0,0.0,1059.9948113080554,1,1,1,0.0,3.0
2021-09-02 05:32:08.513,1040.0,39.0,0.0,1040.7309931005225,1,1,1,0.0,3.0
2021-09-02 05:32:08.523,1014.0,0.0,0.0,1014.0,1,1,1,0.0,3.0
2021-09-02 05:32:08.524,1014.0,0.0,22.0,1014.238630697924,1,1,1,0.0,3.0
2021-09-02 05:32:08.533,994.0,118.0,4.0,1000.9875124096204,1,1,1,0.0,3.0
2021-09-02 05:32:08.542,1010.0,118.0,4.0,1016.8775737521208,1,1,1,0.0,3.0
2021-09-02 05:32:08.543,1010.0,-35.0,29.0,1011.0222549479314,1,1,1,0.0,3.0
2021-09-02 05:32:08.553,1018.0,186.0,-14.0,1034.9473416556032,1,1,1,0.0,3.0
2021-09-02 05:32:08.562,1027.0,24.0,27.0,1027.6351492626166,1,1,1,0.0,3.0
2021-09-02 05:32:08.572,985.0,130.0,-14.0,993.6402769614364,1,1,1,0.0,3.0
2021-09-02 05:32:08.581,1016.0,130.0,-14.0,1024.3788361734148,1,1,1,0.0,3.0
2021-09-02 05:32:08.582,1016.0,34.0,16.0,1016.6946444237816,1,1,1,0.0,3.0
2021-09-02 05:32:08.591,1017.0,-4.0,16.0,1017.133717856212,1,1,1,0.0,3.0
2021-09-02 05:32:08.592,1017.0,-4.0,-4.0,1017.01573242502,1,1,1,0.0,3.0
2021-09-02 05:32:08.601,991.0,106.0,13.0,996.7376786296384,1,1,1,0.0,3.0
2021-09-02 05:32:08.611,1040.0,-43.0,16.0,1041.011527313699,1,1,1,0.0,3.0
2021-09-02 05:32:08.621,1012.0,93.0,-3.0,1016.2686652652436,1,1,1,0.0,3.0
2021-09-02 05:32:08.631,1069.0,-96.0,-3.0,1073.3061073151498,1,1,1,0.0,3.0
2021-09-02 05:32:08.632,1069.0,-96.0,-1.0,1073.3023805060716,1,1,1,0.0,3.0
2021-09-02 05:32:08.640,975.0,136.0,0.0,984.43943439909,1,1,1,0.0,3.0
2021-09-02 05:32:08.651,1019.0,13.0,18.0,1019.2418751209156,1,1,1,0.0,3.0
2021-09-02 05:32:08.660,1017.0,56.0,7.0,1018.5646763951712,1,1,1,0.0,3.0
2021-09-02 05:32:08.669,1040.0,56.0,7.0,1041.530124384312,1,1,1,0.0,3.0
2021-09-02 05:32:08.670,1040.0,-43.0,7.0,1040.9121000353489,1,1,1,0.0,3.0
2021-09-02 05:32:08.689,1012.0,-29.0,9.0,1012.4554311178345,1,1,1,0.0,3.0
2021-09-02 05:32:08.707,1010.0,71.0,6.0,1012.5102468617292,1,1,1,0.0,3.0
2021-09-02 05:32:08.712,964.0,155.0,6.0,976.4000204834082,1,1,1,0.0,3.0
2021-09-02 05:32:08.713,964.0,155.0,6.0,976.4000204834082,1,1,1,0.0,3.0
2021-09-02 05:32:08.719,1053.0,-40.0,6.0,1053.7765417772405,1,1,1,0.0,3.0
2021-09-02 05:32:08.720,1053.0,-40.0,20.0,1053.9492397644206,1,1,1,0.0,3.0
2021-09-02 05:32:08.728,938.0,172.0,-2.0,953.6414420525148,1,1,1,0.0,3.0
2021-09-02 05:32:08.738,1039.0,-70.0,3.0,1041.35968810013,1,1,1,0.0,3.0
2021-09-02 05:32:08.755,1009.0,12.0,0.0,1009.0713552569016,1,1,1,0.0,3.0
2021-09-02 05:32:08.759,1025.0,59.0,7.0,1026.7205072462516,1,1,1,0.0,3.0
2021-09-02 05:32:08.767,1049.0,-36.0,13.0,1049.698051822523,1,1,1,0.0,3.0
2021-09-02 05:32:08.777,985.0,59.0,0.0,986.7654229856252,1,1,1,0.0,3.0
2021-09-02 05:32:08.787,1068.0,59.0,0.0,1069.628440160414,1,1,1,0.0,3.0
2021-09-02 05:32:08.788,1068.0,-57.0,6.0,1069.5368156356285,1,1,1,0.0,3.0
2021-09-02 05:32:08.796,959.0,169.0,6.0,973.7956664516432,1,1,1,0.0,3.0
2021-09-02 05:32:08.797,959.0,169.0,1.0,973.7776953699442,1,1,1,0.0,3.0
2021-09-02 05:32:08.807,1052.0,-90.0,16.0,1055.9640145383744,1,1,1,0.0,3.0
2021-09-02 05:32:08.816,1001.0,39.0,0.0,1001.7594521640412,1,1,1,0.0,3.0
2021-09-02 05:32:08.826,998.0,-6.0,19.0,998.198877979734,1,1,1,0.0,3.0
2021-09-02 05:32:08.836,1020.0,137.0,19.0,1029.334736613897,1,1,1,0.0,3.0
2021-09-02 05:32:08.837,1020.0,137.0,14.0,1029.2545846388057,1,1,1,0.0,3.0
2021-09-02 05:32:08.845,1008.0,65.0,14.0,1010.1905760795833,1,1,1,0.0,3.0
2021-09-02 05:32:08.855,1041.0,-61.0,6.0,1042.802953582315,1,1,1,0.0,3.0
2021-09-02 05:32:08.865,949.0,190.0,17.0,967.9824378572164,1,1,1,0.0,3.0
2021-09-02 05:32:08.874,1013.0,190.0,17.0,1030.8045401529816,1,1,1,0.0,3.0
2021-09-02 05:32:08.875,1013.0,-24.0,0.0,1013.2842641628262,1,1,1,0.0,3.0
2021-09-02 05:32:08.885,991.0,121.0,6.0,998.3776840454718,1,1,1,0.0,3.0
2021-09-02 05:32:08.894,1026.0,-30.0,7.0,1026.4623714486568,1,1,1,0.0,3.0
2021-09-02 05:32:08.904,998.0,189.0,0.0,1015.73864748763,1,1,1,0.0,3.0
2021-09-02 05:32:08.914,1030.0,189.0,0.0,1047.1967341431125,1,1,1,0.0,3.0
2021-09-02 05:32:08.915,1030.0,32.0,14.0,1030.5920628454303,1,1,1,0.0,3.0
2021-09-02 05:32:08.923,1039.0,-70.0,14.0,1041.449470689769,1,1,1,0.0,3.0
2021-09-02 05:32:08.924,1039.0,-70.0,0.0,1041.3553668176874,1,1,1,0.0,3.0
2021-09-02 05:32:08.933,1025.0,42.0,8.0,1025.8913197800243,1,1,1,0.0,3.0
2021-09-02 05:32:08.943,1012.0,36.0,8.0,1012.6717138342516,1,1,1,0.0,3.0
2021-09-02 05:32:08.944,1012.0,36.0,12.0,1012.711212537908,1,1,1,0.0,3.0
2021-09-02 05:32:08.953,974.0,102.0,0.0,979.3262990443992,1,1,1,0.0,3.0
2021-09-02 05:32:08.963,1048.0,-28.0,25.0,1048.672017362912,1,1,1,0.0,3.0
2021-09-02 05:32:08.972,985.0,173.0,2.0,1000.0789968797465,1,1,1,0.0,3.0
2021-09-02 05:32:08.986,1061.0,-74.0,14.0,1063.669591555573,1,1,1,0.0,3.0
2021-09-02 05:32:08.992,977.0,153.0,1.0,988.9079835859352,1,1,1,0.0,3.0
2021-09-02 05:32:09.002,971.0,44.0,23.0,972.2684814391548,1,1,1,0.0,3.0
2021-09-02 05:32:09.011,1000.0,89.0,18.0,1004.1140373483482,1,1,1,0.0,3.0
2021-09-02 05:32:09.021,984.0,120.0,-1.0,991.2905729401446,1,1,1,0.0,3.0
2021-09-02 05:32:09.031,1060.0,-48.0,22.0,1061.31427956096,1,1,1,0.0,3.0
2021-09-02 05:32:09.040,1027.0,-48.0,22.0,1028.356455709789,1,1,1,0.0,3.0
2021-09-02 05:32:09.041,1027.0,45.0,4.0,1027.9931906389263,1,1,1,0.0,3.0
2021-09-02 05:32:09.050,1057.0,-45.0,17.0,1058.0940411891563,1,1,1,0.0,3.0
2021-09-02 05:32:09.060,968.0,160.0,4.0,981.1421915298516,1,1,1,0.0,3.0
2021-09-02 05:32:09.070,991.0,11.0,0.0,991.0610475646796,1,1,1,0.0,3.0
2021-09-02 05:32:09.080,998.0,101.0,24.0,1003.3847716604034,1,1,1,0.0,3.0
2021-09-02 05:32:09.091,1045.0,-96.0,6.0,1049.417457449608,1,1,1,0.0,3.0
2021-09-02 05:32:09.099,999.0,53.0,17.0,1000.5493491077788,1,1,1,0.0,3.0
2021-09-02 05:32:09.109,1035.0,53.0,17.0,1036.4955378582197,1,1,1,0.0,3.0
2021-09-02 05:32:09.110,1035.0,34.0,6.0,1035.5756853074529,1,1,1,0.0,3.0
2021-09-02 05:32:09.119,1030.0,-15.0,18.0,1030.2664703852106,1,1,1,0.0,3.0
2021-09-02 05:32:09.128,956.0,-15.0,18.0,956.287090783934,1,1,1,0.0,3.0
2021-09-02 05:32:09.129,956.0,181.0,20.0,973.189087485058,1,1,1,0.0,3.0
2021-09-02 05:32:09.139,1057.0,-71.0,13.0,1059.4616557478614,1,1,1,0.0,3.0
2021-09-02 05:32:09.148,952.0,191.0,22.0,971.2203663432928,1,1,1,0.0,3.0
2021-09-02 05:32:09.158,1064.0,-113.0,11.0,1070.0401861612488,1,1,1,0.0,3.0
2021-09-02 05:32:09.167,977.0,-113.0,11.0,983.57460316948,1,1,1,0.0,3.0
2021-09-02 05:32:09.168,977.0,110.0,10.0,983.2237792079684,1,1,1,0.0,3.0
2021-09-02 05:32:09.177,1045.0,44.0,14.0,1046.0195982867624,1,1,1,0.0,3.0
2021-09-02 05:32:09.187,987.0,178.0,-1.0,1002.9227288280988,1,1,1,0.0,3.0
2021-09-02 05:32:09.198,1026.0,62.0,22.0,1028.1069983226455,1,1,1,0.0,3.0
2021-09-02 05:32:09.207,1043.0,-58.0,-9.0,1044.6501806825097,1,1,1,0.0,3.0
2021-09-02 05:32:09.219,977.0,122.0,16.0,984.7177260514812,1,1,1,0.0,3.0
2021-09-02 05:32:09.226,1059.0,-98.0,23.0,1063.7734721264674,1,1,1,0.0,3.0
2021-09-02 05:32:09.236,976.0,144.0,3.0,986.5703218726984,1,1,1,0.0,3.0
2021-09-02 05:32:09.247,1034.0,-35.0,31.0,1035.056520195878,1,1,1,0.0,3.0
2021-09-02 05:32:09.255,965.0,211.0,31.0,988.2848779577678,1,1,1,0.0,3.0
2021-09-02 05:32:09.256,965.0,211.0,6.0,987.8167846316442,1,1,1,0.0,3.0
2021-09-02 05:32:09.265,1020.0,43.0,27.0,1021.2629436144248,1,1,1,0.0,3.0
2021-09-02 05:32:09.275,1046.0,-102.0,-40.0,1051.7223968329286,1,1,1,0.0,3.0
2021-09-02 05:32:09.285,1014.0,81.0,8.0,1017.2615199642617,1,1,1,0.0,3.0
2021-09-02 05:32:09.295,1010.0,63.0,17.0,1012.1057257026066,1,1,1,0.0,3.0
2021-09-02 05:32:09.304,989.0,89.0,9.0,993.0372601267286,1,1,1,0.0,3.0
2021-09-02 05:32:09.315,1049.0,-25.0,27.0,1049.6451781435478,1,1,1,0.0,3.0
2021-09-02 05:32:09.324,969.0,166.0,-6.0,983.1342736371264,1,1,1,0.0,3.0
2021-09-02 05:32:09.333,1028.0,166.0,-6.0,1041.3337601364897,1,1,1,0.0,3.0
2021-09-02 05:32:09.334,1028.0,7.0,17.0,1028.164383744156,1,1,1,0.0,3.0
2021-09-02 05:32:09.343,973.0,165.0,5.0,986.903744039914,1,1,1,0.0,3.0
2021-09-02 05:32:09.354,995.0,13.0,12.0,995.1572740024563,1,1,1,0.0,3.0
2021-09-02 05:32:09.363,1014.0,91.0,20.0,1018.2715747775736,1,1,1,0.0,3.0
2021-09-02 05:32:09.373,991.0,67.0,-10.0,993.3126396054768,1,1,1,0.0,3.0
2021-09-02 05:32:09.382,1057.0,-26.0,-10.0,1057.3670129146265,1,1,1,0.0,3.0
2021-09-02 05:32:09.383,1057.0,-26.0,6.0,1057.336748628364,1,1,1,0.0,3.0
2021-09-02 05:32:09.392,972.0,121.0,-7.0,979.5274370838216,1,1,1,0.0,3.0
2021-09-02 05:32:09.403,1041.0,-20.0,1.0,1041.1925854518945,1,1,1,0.0,3.0
2021-09-02 05:32:09.412,944.0,159.0,4.0,957.3050715419824,1,1,1,0.0,3.0
2021-09-02 05:32:09.421,1009.0,-12.0,7.0,1009.0956347145697,1,1,1,0.0,3.0
2021-09-02 05:32:09.431,1004.0,131.0,15.0,1012.62135075259,1,1,1,0.0,3.0
2021-09-02 05:32:09.441,989.0,95.0,4.0,993.5602649059592,1,1,1,0.0,3.0
2021-09-02 05:32:09.451,994.0,84.0,15.0,997.6557522512462,1,1,1,0.0,3.0
2021-09-02 05:32:09.460,1043.0,84.0,15.0,1046.4845913820232,1,1,1,0.0,3.0
2021-09-02 05:32:09.461,1043.0,21.0,8.0,1043.2420620354608,1,1,1,0.0,3.0
2021-09-02 05:32:09.471,1030.0,-14.0,7.0,1030.1189251732055,1,1,1,0.0,3.0
2021-09-02 05:32:09.480,967.0,182.0,9.0,984.0193087536444,1,1,1,0.0,3.0
2021-09-02 05:32:09.490,1019.0,-30.0,9.0,1019.4812406317244,1,1,1,0.0,3.0
2021-09-02 05:32:09.500,1010.0,120.0,35.0,1017.7057531526488,1,1,1,0.0,3.0
2021-09-02 05:32:09.510,1056.0,120.0,35.0,1063.3724653196546,1,1,1,0.0,3.0
2021-09-02 05:32:09.511,1056.0,-110.0,6.0,1061.730662644722,1,1,1,0.0,3.0
2021-09-02 05:32:09.519,978.0,118.0,10.0,985.1436443483764,1,1,1,0.0,3.0
2021-09-02 05:32:09.529,1029.0,40.0,7.0,1029.8009516406555,1,1,1,0.0,3.0
2021-09-02 05:32:09.539,1023.0,-12.0,8.0,1023.101656728206,1,1,1,0.0,3.0
2021-09-02 05:32:09.548,978.0,146.0,8.0,988.87006224276,1,1,1,0.0,3.0
2021-09-02 05:32:09.549,978.0,146.0,2.0,988.839724121154,1,1,1,0.0,3.0
2021-09-02 05:32:09.559,1030.0,-41.0,-3.0,1030.820061892472,1,1,1,0.0,3.0
2021-09-02 05:32:09.568,1003.0,103.0,6.0,1008.2926162578004,1,1,1,0.0,3.0
2021-09-02 05:32:09.578,1044.0,-89.0,11.0,1047.8444541056654,1,1,1,0.0,3.0
2021-09-02 05:32:09.587,977.0,146.0,11.0,987.909914921396,1,1,1,0.0,3.0
2021-09-02 05:32:09.588,977.0,146.0,-9.0,987.8896699530771,1,1,1,0.0,3.0
2021-09-02 05:32:09.597,1025.0,43.0,6.0,1025.9191001243714,1,1,1,0.0,3.0
2021-09-02 05:32:09.607,964.0,189.0,-12.0,982.426078644088,1,1,1,0.0,3.0
2021-09-02 05:32:09.617,1029.0,189.0,-12.0,1046.281988758289,1,1,1,0.0,3.0
2021-09-02 05:32:09.618,1029.0,-2.0,15.0,1029.111267064937,1,1,1,0.0,3.0
2021-09-02 05:32:09.627,1023.0,-37.0,13.0,1023.7514346754294,1,1,1,0.0,3.0
2021-09-02 05:32:09.636,1007.0,59.0,-3.0,1008.7313814886498,1,1,1,0.0,3.0
2021-09-02 05:32:09.646,1068.0,-68.0,16.0,1070.2822057756543,1,1,1,0.0,3.0
2021-09-02 05:32:09.656,995.0,107.0,16.0,1000.8646262107578,1,1,1,0.0,3.0
2021-09-02 05:32:09.657,995.0,107.0,9.0,1000.7771979816488,1,1,1,0.0,3.0
2021-09-02 05:32:09.666,1058.0,-64.0,15.0,1060.0400935813702,1,1,1,0.0,3.0
2021-09-02 05:32:09.675,963.0,159.0,-10.0,976.089135274028,1,1,1,0.0,3.0
2021-09-02 05:32:09.685,1020.0,-57.0,5.0,1021.6036413404172,1,1,1,0.0,3.0
2021-09-02 05:32:09.695,1007.0,20.0,-1.0,1007.199086576234,1,1,1,0.0,3.0
2021-09-02 05:32:09.731,1000.0,50.0,-1.0,1001.2497191010842,1,1,1,0.0,3.0
2021-09-02 05:32:09.732,1000.0,50.0,3.0,1001.2537141004772,1,1,1,0.0,3.0
2021-09-02 05:32:09.733,1012.0,123.0,19.0,1019.6244406643066,1,1,1,0.0,3.0
2021-09-02 05:32:09.734,1005.0,123.0,19.0,1012.677144997358,1,1,1,0.0,3.0
2021-09-02 05:32:09.735,1005.0,93.0,5.0,1009.3061973454836,1,1,1,0.0,3.0
2021-09-02 05:32:09.736,1036.0,93.0,5.0,1040.1778694050358,1,1,1,0.0,3.0
2021-09-02 05:32:09.737,1036.0,-50.0,3.0,1037.210200489756,1,1,1,0.0,3.0
2021-09-02 05:32:09.744,945.0,157.0,14.0,958.055321993464,1,1,1,0.0,3.0
2021-09-02 05:32:09.754,1044.0,-102.0,-9.0,1049.00953284515,1,1,1,0.0,3.0
2021-09-02 05:32:09.765,940.0,203.0,6.0,961.6886190446468,1,1,1,0.0,3.0
2021-09-02 05:32:09.781,1027.0,-56.0,18.0,1028.683138775007,1,1,1,0.0,3.0
2021-09-02 05:32:09.784,1004.0,146.0,14.0,1014.6565921532268,1,1,1,0.0,3.0
2021-09-02 05:32:09.793,1020.0,73.0,12.0,1022.6793241285365,1,1,1,0.0,3.0
2021-09-02 05:32:09.806,1045.0,-33.0,10.0,1045.568744750913,1,1,1,0.0,3.0
2021-09-02 05:32:09.812,1041.0,-33.0,10.0,1041.5709289337908,1,1,1,0.0,3.0
2021-09-02 05:32:09.813,1041.0,40.0,13.0,1041.849317319928,1,1,1,0.0,3.0
2021-09-02 05:32:09.822,1000.0,-18.0,-12.0,1000.2339726284046,1,1,1,0.0,3.0
2021-09-02 05:32:09.831,961.0,-18.0,-12.0,961.2434655174516,1,1,1,0.0,3.0
2021-09-02 05:32:09.832,961.0,151.0,-2.0,972.7928864871494,1,1,1,0.0,3.0
2021-09-02 05:32:09.842,1028.0,-47.0,18.0,1029.231266528568,1,1,1,0.0,3.0
2021-09-02 05:32:09.852,987.0,179.0,-2.0,1003.102188214142,1,1,1,0.0,3.0
2021-09-02 05:32:09.861,1032.0,49.0,18.0,1033.3194085083276,1,1,1,0.0,3.0
2021-09-02 05:32:09.871,983.0,142.0,-3.0,993.2079339191768,1,1,1,0.0,3.0
2021-09-02 05:32:09.880,1016.0,45.0,-3.0,1017.0004916419656,1,1,1,0.0,3.0
2021-09-02 05:32:09.881,1016.0,45.0,19.0,1017.1735348503717,1,1,1,0.0,3.0
2021-09-02 05:32:09.890,1018.0,0.0,-1.0,1018.0004911590172,1,1,1,0.0,3.0
2021-09-02 05:32:09.900,976.0,105.0,-1.0,981.6323140565412,1,1,1,0.0,3.0
2021-09-02 05:32:09.901,976.0,105.0,4.0,981.6399543620868,1,1,1,0.0,3.0
2021-09-02 05:32:09.910,1037.0,-28.0,20.0,1037.5707204812595,1,1,1,0.0,3.0
2021-09-02 05:32:09.919,1024.0,51.0,20.0,1025.4642850923674,1,1,1,0.0,3.0
2021-09-02 05:32:09.920,1024.0,51.0,0.0,1025.2692329334768,1,1,1,0.0,3.0
2021-09-02 05:32:09.929,1067.0,-50.0,22.0,1068.3973979751167,1,1,1,0.0,3.0
2021-09-02 05:32:09.939,970.0,139.0,-12.0,979.9821426944472,1,1,1,0.0,3.0
2021-09-02 05:32:09.949,999.0,41.0,9.0,999.8814929780428,1,1,1,0.0,3.0
2021-09-02 05:32:09.958,1021.0,41.0,9.0,1021.8625152142532,1,1,1,0.0,3.0
2021-09-02 05:32:09.959,1021.0,15.0,12.0,1021.1806892024543,1,1,1,0.0,3.0
2021-09-02 05:32:09.969,989.0,77.0,0.0,991.9929435232892,1,1,1,0.0,3.0
2021-09-02 05:32:09.978,1022.0,2.0,10.0,1022.0508793597312,1,1,1,0.0,3.0
2021-09-02 05:32:09.988,1005.0,32.0,8.0,1005.541147840306,1,1,1,0.0,3.0
2021-09-02 05:32:10.006,1079.0,-49.0,8.0,1080.1416573764757,1,1,1,0.0,3.0
2021-09-02 05:32:10.008,947.0,178.0,2.0,963.5854917961352,1,1,1,0.0,3.0
2021-09-02 05:32:10.017,998.0,-1.0,10.0,998.0505999196632,1,1,1,0.0,3.0
2021-09-02 05:32:10.027,982.0,154.0,15.0,994.1151844731072,1,1,1,0.0,3.0
2021-09-02 05:32:10.038,1032.0,-97.0,15.0,1036.6571275016634,1,1,1,0.0,3.0
2021-09-02 05:32:10.039,1032.0,-97.0,-3.0,1036.5529412432345,1,1,1,0.0,3.0
2021-09-02 05:32:10.046,1012.0,52.0,-3.0,1013.3395284898344,1,1,1,0.0,3.0
2021-09-02 05:32:10.047,1012.0,52.0,13.0,1013.4184723005596,1,1,1,0.0,3.0
2021-09-02 05:32:10.056,1009.0,48.0,7.0,1010.1653330024744,1,1,1,0.0,3.0
2021-09-02 05:32:10.066,1065.0,-38.0,11.0,1065.7344885101545,1,1,1,0.0,3.0
2021-09-02 05:32:10.076,1019.0,53.0,8.0,1020.4087416324892,1,1,1,0.0,3.0
2021-09-02 05:32:10.086,1038.0,53.0,8.0,1039.382990047461,1,1,1,0.0,3.0
2021-09-02 05:32:10.087,1038.0,-64.0,0.0,1039.9711534460944,1,1,1,0.0,3.0
2021-09-02 05:32:10.095,965.0,159.0,16.0,978.1421164636558,1,1,1,0.0,3.0
2021-09-02 05:32:10.105,1054.0,-99.0,9.0,1058.6774768549674,1,1,1,0.0,3.0
2021-09-02 05:32:10.115,1000.0,86.0,11.0,1003.751463261698,1,1,1,0.0,3.0
2021-09-02 05:32:10.124,1023.0,86.0,11.0,1026.6674242421448,1,1,1,0.0,3.0
2021-09-02 05:32:10.125,1023.0,-41.0,24.0,1024.1025339290984,1,1,1,0.0,3.0
2021-09-02 05:32:10.134,993.0,171.0,24.0,1007.9017809290744,1,1,1,0.0,3.0
2021-09-02 05:32:10.135,993.0,171.0,9.0,1007.6561913668768,1,1,1,0.0,3.0
2021-09-02 05:32:10.146,1032.0,40.0,20.0,1032.9685377590165,1,1,1,0.0,3.0
2021-09-02 05:32:10.154,1022.0,-59.0,-9.0,1023.7411782281692,1,1,1,0.0,3.0
2021-09-02 05:32:10.163,971.0,-59.0,-9.0,972.8324624517832,1,1,1,0.0,3.0
2021-09-02 05:32:10.164,971.0,173.0,12.0,986.3640301633064,1,1,1,0.0,3.0
2021-09-02 05:32:10.173,1060.0,-128.0,12.0,1067.7677650125986,1,1,1,0.0,3.0
2021-09-02 05:32:10.174,1060.0,-128.0,19.0,1067.8693740341091,1,1,1,0.0,3.0
2021-09-02 05:32:10.183,980.0,110.0,6.0,986.1723987214406,1,1,1,0.0,3.0
2021-09-02 05:32:10.194,1031.0,-16.0,29.0,1031.5318705692034,1,1,1,0.0,3.0
2021-09-02 05:32:10.203,968.0,-16.0,29.0,968.566466485393,1,1,1,0.0,3.0
2021-09-02 05:32:10.204,968.0,164.0,15.0,981.908855240648,1,1,1,0.0,3.0
2021-09-02 05:32:10.212,1047.0,31.0,15.0,1047.5662270233802,1,1,1,0.0,3.0
2021-09-02 05:32:10.213,1047.0,31.0,13.0,1047.5394980620065,1,1,1,0.0,3.0
2021-09-02 05:32:10.222,1027.0,-61.0,3.0,1028.8143661516397,1,1,1,0.0,3.0
2021-09-02 05:32:10.232,1007.0,27.0,15.0,1007.473572854395,1,1,1,0.0,3.0
2021-09-02 05:32:10.242,997.0,27.0,15.0,997.4783205664172,1,1,1,0.0,3.0
2021-09-02 05:32:10.243,997.0,54.0,4.0,998.469328522414,1,1,1,0.0,3.0
2021-09-02 05:32:10.251,997.0,54.0,4.0,998.469328522414,1,1,1,0.0,3.0
2021-09-02 05:32:10.252,997.0,81.0,8.0,1000.3169497714212,1,1,1,0.0,3.0
2021-09-02 05:32:10.261,1056.0,-24.0,27.0,1056.6177170575932,1,1,1,0.0,3.0
2021-09-02 05:32:10.271,975.0,160.0,-15.0,988.1548461653164,1,1,1,0.0,3.0
2021-09-02 05:32:10.281,1022.0,-14.0,17.0,1022.2372523049628,1,1,1,0.0,3.0
2021-09-02 05:32:10.291,934.0,181.0,0.0,951.3763713693966,1,1,1,0.0,3.0
2021-09-02 05:32:10.302,1003.0,12.0,15.0,1003.183931290768,1,1,1,0.0,3.0
2021-09-02 05:32:10.310,1001.0,89.0,14.0,1005.0462675916964,1,1,1,0.0,3.0
2021-09-02 05:32:10.320,1013.0,91.0,12.0,1017.1499397827243,1,1,1,0.0,3.0
2021-09-02 05:32:10.330,1040.0,-32.0,12.0,1040.5613869445665,1,1,1,0.0,3.0
2021-09-02 05:32:10.339,1010.0,29.0,12.0,1010.4875061078192,1,1,1,0.0,3.0
2021-09-02 05:32:10.340,1010.0,29.0,4.0,1010.4241683570322,1,1,1,0.0,3.0
2021-09-02 05:32:10.350,1073.0,-50.0,15.0,1074.269053822179,1,1,1,0.0,3.0
2021-09-02 05:32:10.361,935.0,197.0,7.0,955.5537661481952,1,1,1,0.0,3.0
2021-09-02 05:32:10.369,1026.0,-15.0,8.0,1026.1408285415798,1,1,1,0.0,3.0
2021-09-02 05:32:10.378,1011.0,-15.0,8.0,1011.1429176926474,1,1,1,0.0,3.0
2021-09-02 05:32:10.379,1011.0,135.0,15.0,1020.0838200853888,1,1,1,0.0,3.0
2021-09-02 05:32:10.388,1051.0,-117.0,5.0,1057.5041371077468,1,1,1,0.0,3.0
2021-09-02 05:32:10.399,997.0,99.0,6.0,1001.921154582535,1,1,1,0.0,3.0
2021-09-02 05:32:10.412,1020.0,68.0,11.0,1022.3233343712742,1,1,1,0.0,3.0
2021-09-02 05:32:10.417,1017.0,68.0,11.0,1019.3301722209542,1,1,1,0.0,3.0
2021-09-02 05:32:10.418,1017.0,-27.0,-1.0,1017.3588354164916,1,1,1,0.0,3.0
2021-09-02 05:32:10.427,966.0,162.0,0.0,979.4896630388704,1,1,1,0.0,3.0
2021-09-02 05:32:10.437,1027.0,-28.0,13.0,1027.4638679778477,1,1,1,0.0,3.0
2021-09-02 05:32:10.447,996.0,123.0,13.0,1003.6503375180024,1,1,1,0.0,3.0
2021-09-02 05:32:10.448,996.0,123.0,10.0,1003.6159624079322,1,1,1,0.0,3.0
2021-09-02 05:32:10.457,1044.0,-115.0,22.0,1050.545096604615,1,1,1,0.0,3.0
2021-09-02 05:32:10.466,974.0,124.0,-13.0,981.9475546076786,1,1,1,0.0,3.0
2021-09-02 05:32:10.476,1009.0,63.0,15.0,1011.0761593470592,1,1,1,0.0,3.0
2021-09-02 05:32:10.486,1034.0,-26.0,6.0,1034.344236702656,1,1,1,0.0,3.0
2021-09-02 05:32:10.496,1030.0,25.0,13.0,1030.3853648028974,1,1,1,0.0,3.0
2021-09-02 05:32:10.507,1018.0,-61.0,9.0,1019.8656774301212,1,1,1,0.0,3.0
2021-09-02 05:32:10.515,1007.0,75.0,-4.0,1009.7970093043452,1,1,1,0.0,3.0
2021-09-02 05:32:10.525,1064.0,-81.0,25.0,1067.3715379379385,1,1,1,0.0,3.0
2021-09-02 05:32:10.535,979.0,119.0,-13.0,986.29153904918,1,1,1,0.0,3.0
2021-09-02 05:32:10.544,1010.0,119.0,-13.0,1017.0693191715104,1,1,1,0.0,3.0
2021-09-02 05:32:10.545,1010.0,62.0,19.0,1012.0795423285662,1,1,1,0.0,3.0
2021-09-02 05:32:10.555,1031.0,-33.0,-16.0,1031.6520731331857,1,1,1,0.0,3.0
2021-09-02 05:32:10.564,1060.0,23.0,-16.0,1060.3702183671512,1,1,1,0.0,3.0
2021-09-02 05:32:10.565,1060.0,23.0,18.0,1060.4022821552203,1,1,1,0.0,3.0
2021-09-02 05:32:10.574,986.0,102.0,-8.0,991.2941036846734,1,1,1,0.0,3.0
2021-09-02 05:32:10.583,1002.0,102.0,-8.0,1007.2100078930908,1,1,1,0.0,3.0
2021-09-02 05:32:10.584,1002.0,62.0,4.0,1003.92429993501,1,1,1,0.0,3.0
2021-09-02 05:32:10.593,963.0,106.0,-3.0,968.8209328869808,1,1,1,0.0,3.0
2021-09-02 05:32:10.603,1032.0,29.0,16.0,1032.5313554560946,1,1,1,0.0,3.0
2021-09-02 05:32:11.444,1000.0,41.0,6.0,1000.8581318049028,1,1,1,0.0,3.0
2021-09-02 05:32:11.472,1017.0,39.0,3.0,1017.7519344123106,1,1,1,0.0,3.0
2021-09-02 05:32:11.482,1010.0,46.0,8.0,1011.0786319569808,1,1,1,0.0,3.0
2021-09-02 05:32:11.492,1006.0,42.0,8.0,1006.9081388090972,1,1,1,0.0,3.0
