time_stamp,Acceleration_X,Acceleration_Y,Acceleration_Z,magnitude,STD_Status_right,STD_Status_left,STD_Status_both,KMeans,KMeans_convert
2021-09-24 12:07:17.175,926.0,182.0,-5.0,943.7293044088436,1,1,1,0.0,3.0
2021-09-24 12:07:17.185,1091.0,38.0,20.0,1091.844769186536,1,1,1,0.0,3.0
2021-09-24 12:07:17.195,1039.0,-63.0,2.0,1040.91017864175,1,1,1,0.0,3.0
2021-09-24 12:07:17.204,1072.0,-63.0,2.0,1073.8514794886676,1,1,1,0.0,3.0
2021-09-24 12:07:17.205,1072.0,-143.0,6.0,1081.5123670120468,1,1,1,0.0,3.0
2021-09-24 12:07:17.214,917.0,-122.0,11.0,925.1453939786978,1,1,1,0.0,3.0
2021-09-24 12:07:17.223,967.0,-122.0,11.0,974.7276542706686,1,1,1,0.0,3.0
2021-09-24 12:07:17.224,967.0,19.0,46.0,968.2799182054742,1,1,1,0.0,3.0
2021-09-24 12:07:17.234,1070.0,126.0,10.0,1077.4395574694663,1,1,1,0.0,3.0
2021-09-24 12:07:17.248,1047.0,126.0,10.0,1054.601820593915,1,1,1,0.0,3.0
2021-09-24 12:07:17.249,1047.0,-166.0,67.0,1062.1930144752412,1,1,1,0.0,3.0
2021-09-24 12:07:17.253,970.0,-60.0,9.0,971.895570521854,1,1,1,0.0,3.0
2021-09-24 12:07:17.262,1019.0,-60.0,9.0,1020.8045846292032,1,1,1,0.0,3.0
2021-09-24 12:07:17.263,1019.0,-50.0,-12.0,1020.2965255257903,1,1,1,0.0,3.0
2021-09-24 12:07:17.272,878.0,16.0,-12.0,878.2277608912167,1,1,1,0.0,3.0
2021-09-24 12:07:17.273,878.0,16.0,2.0,878.1480512988684,1,1,1,0.0,3.0
2021-09-24 12:07:17.283,992.0,80.0,0.0,995.2205785653751,1,1,1,0.0,3.0
2021-09-24 12:07:17.292,1047.0,-20.0,-20.0,1047.3819742577205,1,1,1,0.0,3.0
2021-09-24 12:07:17.302,960.0,-4.0,-33.0,960.5753484240578,1,1,1,0.0,3.0
2021-09-24 12:07:17.311,1006.0,-31.0,-33.0,1007.0183712326206,1,1,1,0.0,3.0
2021-09-24 12:07:17.312,1006.0,-31.0,24.0,1006.7636266770864,1,1,1,0.0,3.0
2021-09-24 12:07:17.321,984.0,47.0,42.0,986.0167341379153,1,1,1,0.0,3.0
2021-09-24 12:07:17.331,959.0,-28.0,11.0,959.4717296512702,1,1,1,0.0,3.0
2021-09-24 12:07:17.341,1022.0,-13.0,25.0,1022.3883802156596,1,1,1,0.0,3.0
2021-09-24 12:07:17.351,1005.0,10.0,-21.0,1005.2691181967144,1,1,1,0.0,3.0
2021-09-24 12:07:17.361,990.0,40.0,12.0,990.8804165992988,1,1,1,0.0,3.0
2021-09-24 12:07:17.370,952.0,32.0,-22.0,952.7916876211716,1,1,1,0.0,3.0
2021-09-24 12:07:17.380,1004.0,-15.0,4.0,1004.1200127474802,1,1,1,0.0,3.0
2021-09-24 12:07:17.402,993.0,-4.0,26.0,993.3483779621326,1,1,1,0.0,3.0
2021-09-24 12:07:17.403,1028.0,52.0,14.0,1029.4095394933934,1,1,1,0.0,3.0
2021-09-24 12:07:17.410,990.0,54.0,-13.0,991.556856665315,1,1,1,0.0,3.0
2021-09-24 12:07:17.419,1031.0,15.0,2.0,1031.111051245209,1,1,1,0.0,3.0
2021-09-24 12:07:17.429,1061.0,-7.0,19.0,1061.193196359645,1,1,1,0.0,3.0
2021-09-24 12:07:17.438,986.0,3.0,19.0,986.1876089264152,1,1,1,0.0,3.0
2021-09-24 12:07:17.439,986.0,3.0,8.0,986.0370175607,1,1,1,0.0,3.0
2021-09-24 12:07:17.448,1005.0,8.0,1.0,1005.0323377881928,1,1,1,0.0,3.0
2021-09-24 12:07:17.459,1013.0,28.0,1.0,1013.3873889090984,1,1,1,0.0,3.0
2021-09-24 12:07:17.460,1013.0,28.0,-15.0,1013.4979033032088,1,1,1,0.0,3.0
2021-09-24 12:07:17.468,1028.0,21.0,7.0,1028.238299228345,1,1,1,0.0,3.0
2021-09-24 12:07:17.477,977.0,21.0,7.0,977.2507354819436,1,1,1,0.0,3.0
2021-09-24 12:07:17.478,977.0,-20.0,7.0,977.2297580405542,1,1,1,0.0,3.0
2021-09-24 12:07:17.481,977.0,-20.0,0.0,977.204686849178,1,1,1,0.0,3.0
2021-09-24 12:07:17.487,977.0,-9.0,-31.0,977.533119643524,1,1,1,0.0,3.0
2021-09-24 12:07:17.497,1013.0,24.0,26.0,1013.6177780603496,1,1,1,0.0,3.0
2021-09-24 12:07:17.508,988.0,69.0,2.0,990.40850157902,1,1,1,0.0,3.0
2021-09-24 12:07:17.516,1054.0,69.0,2.0,1056.258017721049,1,1,1,0.0,3.0
2021-09-24 12:07:17.517,1054.0,10.0,17.0,1054.1845189529204,1,1,1,0.0,3.0
2021-09-24 12:07:17.526,959.0,6.0,-18.0,959.18767715187,1,1,1,0.0,3.0
2021-09-24 12:07:17.536,1058.0,-4.0,25.0,1058.302886701156,1,1,1,0.0,3.0
2021-09-24 12:07:17.552,995.0,3.0,12.0,995.0768814518806,1,1,1,0.0,3.0
2021-09-24 12:07:17.556,1027.0,0.0,-19.0,1027.1757395888983,1,1,1,0.0,3.0
2021-09-24 12:07:17.567,1033.0,38.0,12.0,1033.7683492930123,1,1,1,0.0,3.0
2021-09-24 12:07:17.575,1019.0,37.0,-1.0,1019.6720060882324,1,1,1,0.0,3.0
2021-09-24 12:07:17.585,1075.0,37.0,-1.0,1075.6370205603748,1,1,1,0.0,3.0
2021-09-24 12:07:17.586,1075.0,8.0,26.0,1075.344130964595,1,1,1,0.0,3.0
2021-09-24 12:07:17.595,1003.0,34.0,23.0,1003.8396286260072,1,1,1,0.0,3.0
2021-09-24 12:07:17.604,1027.0,27.0,23.0,1027.6122809698218,1,1,1,0.0,3.0
2021-09-24 12:07:17.605,1027.0,27.0,9.0,1027.394276799321,1,1,1,0.0,3.0
2021-09-24 12:07:17.615,1047.0,48.0,15.0,1048.2070406174537,1,1,1,0.0,3.0
2021-09-24 12:07:17.624,974.0,11.0,-16.0,974.1935126041436,1,1,1,0.0,3.0
2021-09-24 12:07:17.634,1059.0,10.0,17.0,1059.183647910031,1,1,1,0.0,3.0
2021-09-24 12:07:17.643,1007.0,44.0,17.0,1008.104161284934,1,1,1,0.0,3.0
2021-09-24 12:07:17.644,1007.0,44.0,11.0,1008.0208331180462,1,1,1,0.0,3.0
2021-09-24 12:07:17.653,1035.0,-4.0,2.0,1035.009661790652,1,1,1,0.0,3.0
2021-09-24 12:07:17.664,1054.0,11.0,8.0,1054.087757257431,1,1,1,0.0,3.0
2021-09-24 12:07:17.673,982.0,14.0,0.0,982.0997912635966,1,1,1,0.0,3.0
2021-09-24 12:07:17.682,1040.0,14.0,0.0,1040.094226500657,1,1,1,0.0,3.0
2021-09-24 12:07:17.683,1040.0,26.0,20.0,1040.5171790989325,1,1,1,0.0,3.0
2021-09-24 12:07:17.692,984.0,90.0,20.0,988.3096680696794,1,1,1,0.0,3.0
2021-09-24 12:07:17.693,984.0,90.0,1.0,988.1077876426236,1,1,1,0.0,3.0
2021-09-24 12:07:17.702,1033.0,8.0,-6.0,1033.048401576615,1,1,1,0.0,3.0
2021-09-24 12:07:17.712,1039.0,44.0,-6.0,1039.94855641998,1,1,1,0.0,3.0
2021-09-24 12:07:17.713,1039.0,44.0,10.0,1039.9793267176035,1,1,1,0.0,3.0
2021-09-24 12:07:17.722,972.0,-4.0,10.0,972.05966895042,1,1,1,0.0,3.0
2021-09-24 12:07:17.723,972.0,-4.0,-14.0,972.1090473810024,1,1,1,0.0,3.0
2021-09-24 12:07:17.731,1024.0,25.0,-14.0,1024.400800468254,1,1,1,0.0,3.0
2021-09-24 12:07:17.732,1024.0,25.0,10.0,1024.3539427365913,1,1,1,0.0,3.0
2021-09-24 12:07:17.742,1023.0,51.0,-21.0,1024.4857246443212,1,1,1,0.0,3.0
2021-09-24 12:07:17.751,1003.0,8.0,16.0,1003.1595087522225,1,1,1,0.0,3.0
2021-09-24 12:07:17.761,1041.0,17.0,11.0,1041.1969074099288,1,1,1,0.0,3.0
2021-09-24 12:07:17.771,983.0,40.0,0.0,983.8134985859872,1,1,1,0.0,3.0
2021-09-24 12:07:17.780,1047.0,67.0,31.0,1049.5994474083911,1,1,1,0.0,3.0
2021-09-24 12:07:17.790,1019.0,34.0,31.0,1020.0382345775084,1,1,1,0.0,3.0
2021-09-24 12:07:17.791,1019.0,34.0,-5.0,1019.5793250159596,1,1,1,0.0,3.0
2021-09-24 12:07:17.800,984.0,-12.0,-13.0,984.1590318642612,1,1,1,0.0,3.0
2021-09-24 12:07:17.809,978.0,-12.0,-13.0,978.160007360759,1,1,1,0.0,3.0
2021-09-24 12:07:17.810,978.0,29.0,-2.0,978.4319087192526,1,1,1,0.0,3.0
2021-09-24 12:07:17.820,980.0,17.0,10.0,980.1984492948354,1,1,1,0.0,3.0
2021-09-24 12:07:17.829,1038.0,17.0,10.0,1038.1873626662964,1,1,1,0.0,3.0
2021-09-24 12:07:17.830,1038.0,88.0,27.0,1042.0734139205356,1,1,1,0.0,3.0
2021-09-24 12:07:17.839,1001.0,31.0,-8.0,1001.511857143988,1,1,1,0.0,3.0
2021-09-24 12:07:17.848,1005.0,31.0,-8.0,1005.5098209366232,1,1,1,0.0,3.0
2021-09-24 12:07:17.849,1005.0,-14.0,20.0,1005.2964736832612,1,1,1,0.0,3.0
2021-09-24 12:07:17.858,1011.0,42.0,17.0,1012.0148220258436,1,1,1,0.0,3.0
2021-09-24 12:07:17.868,1013.0,42.0,17.0,1014.0128204317734,1,1,1,0.0,3.0
2021-09-24 12:07:17.869,1013.0,25.0,11.0,1013.3681463318254,1,1,1,0.0,3.0
2021-09-24 12:07:17.878,1030.0,46.0,11.0,1031.0853504923828,1,1,1,0.0,3.0
2021-09-24 12:07:17.879,1030.0,46.0,26.0,1031.3544492559288,1,1,1,0.0,3.0
2021-09-24 12:07:17.887,1002.0,46.0,26.0,1003.39224633241,1,1,1,0.0,3.0
2021-09-24 12:07:17.888,1002.0,58.0,-3.0,1003.6817224598644,1,1,1,0.0,3.0
2021-09-24 12:07:17.898,1008.0,1.0,-14.0,1008.0977135178912,1,1,1,0.0,3.0
2021-09-24 12:07:17.907,986.0,18.0,-24.0,986.4562838767868,1,1,1,0.0,3.0
2021-09-24 12:07:17.918,1017.0,72.0,-5.0,1019.5577472610368,1,1,1,0.0,3.0
2021-09-24 12:07:17.933,1036.0,43.0,16.0,1037.0154290076885,1,1,1,0.0,3.0
2021-09-24 12:07:17.936,1016.0,30.0,16.0,1016.5687384530374,1,1,1,0.0,3.0
2021-09-24 12:07:17.937,1016.0,30.0,7.0,1016.4669202684364,1,1,1,0.0,3.0
2021-09-24 12:07:17.946,984.0,-12.0,14.0,984.1727490639028,1,1,1,0.0,3.0
2021-09-24 12:07:17.956,1016.0,46.0,41.0,1017.866887171402,1,1,1,0.0,3.0
2021-09-24 12:07:17.967,1005.0,88.0,12.0,1008.9167458219732,1,1,1,0.0,3.0
2021-09-24 12:07:17.976,1037.0,-35.0,12.0,1037.6598672011942,1,1,1,0.0,3.0
2021-09-24 12:07:17.977,1037.0,-35.0,-6.0,1037.6078257222234,1,1,1,0.0,3.0
2021-09-24 12:07:17.985,1014.0,60.0,-9.0,1015.813467128685,1,1,1,0.0,3.0
2021-09-24 12:07:17.995,1018.0,-57.0,-11.0,1019.653862837777,1,1,1,0.0,3.0
2021-09-24 12:07:18.005,970.0,32.0,5.0,970.5405710221496,1,1,1,0.0,3.0
2021-09-24 12:07:18.022,1008.0,32.0,5.0,1008.5202030698244,1,1,1,0.0,3.0
2021-09-24 12:07:18.023,1008.0,48.0,-7.0,1009.166487751154,1,1,1,0.0,3.0
2021-09-24 12:07:18.025,1022.0,48.0,-7.0,1023.1505265599974,1,1,1,0.0,3.0
2021-09-24 12:07:18.026,1022.0,12.0,18.0,1022.2289371760124,1,1,1,0.0,3.0
2021-09-24 12:07:18.034,1075.0,-13.0,-36.0,1075.6811795323,1,1,1,0.0,3.0
2021-09-24 12:07:18.044,946.0,-13.0,-36.0,946.7739962630998,1,1,1,0.0,3.0
2021-09-24 12:07:18.045,946.0,38.0,19.0,946.953536346953,1,1,1,0.0,3.0
2021-09-24 12:07:18.054,1036.0,36.0,39.0,1037.3586650720183,1,1,1,0.0,3.0
2021-09-24 12:07:18.063,1003.0,118.0,39.0,1010.6700747523892,1,1,1,0.0,3.0
2021-09-24 12:07:18.064,1003.0,118.0,19.0,1010.0960350382531,1,1,1,0.0,3.0
2021-09-24 12:07:18.073,1031.0,-18.0,1.0,1031.1576019212582,1,1,1,0.0,3.0
2021-09-24 12:07:18.087,1016.0,-14.0,23.0,1016.356728712906,1,1,1,0.0,3.0
2021-09-24 12:07:18.093,986.0,-17.0,-2.0,986.1485689286376,1,1,1,0.0,3.0
2021-09-24 12:07:18.103,1020.0,-8.0,14.0,1020.1274430187632,1,1,1,0.0,3.0
2021-09-24 12:07:18.112,937.0,-8.0,14.0,937.1387303916108,1,1,1,0.0,3.0
2021-09-24 12:07:18.113,937.0,129.0,-14.0,945.9418586784284,1,1,1,0.0,3.0
2021-09-24 12:07:18.123,1071.0,17.0,10.0,1071.1815905811677,1,1,1,0.0,3.0
2021-09-24 12:07:18.132,997.0,20.0,22.0,997.4432314673352,1,1,1,0.0,3.0
2021-09-24 12:07:18.141,986.0,4.0,22.0,986.2535171039948,1,1,1,0.0,3.0
2021-09-24 12:07:18.142,986.0,4.0,13.0,986.0938089248912,1,1,1,0.0,3.0
2021-09-24 12:07:18.151,1019.0,19.0,33.0,1019.7112336343068,1,1,1,0.0,3.0
2021-09-24 12:07:18.162,1003.0,113.0,3.0,1009.3497907068688,1,1,1,0.0,3.0
2021-09-24 12:07:18.171,1059.0,-17.0,3.0,1059.1406894270467,1,1,1,0.0,3.0
2021-09-24 12:07:18.172,1059.0,-17.0,10.0,1059.183647910031,1,1,1,0.0,3.0
2021-09-24 12:07:18.180,974.0,-17.0,10.0,974.1996715252988,1,1,1,0.0,3.0
2021-09-24 12:07:18.181,974.0,17.0,-7.0,974.1734958414748,1,1,1,0.0,3.0
2021-09-24 12:07:18.190,1028.0,5.0,2.0,1028.0141049616002,1,1,1,0.0,3.0
2021-09-24 12:07:18.200,1066.0,7.0,27.0,1066.3648531342358,1,1,1,0.0,3.0
2021-09-24 12:07:18.211,955.0,152.0,4.0,967.0289550990703,1,1,1,0.0,3.0
2021-09-24 12:07:18.220,1038.0,-41.0,0.0,1038.8094146666174,1,1,1,0.0,3.0
2021-09-24 12:07:18.230,1002.0,16.0,-4.0,1002.135719351426,1,1,1,0.0,3.0
2021-09-24 12:07:18.239,1013.0,64.0,26.0,1015.3526480981866,1,1,1,0.0,3.0
2021-09-24 12:07:18.249,987.0,41.0,-2.0,987.8532279645596,1,1,1,0.0,3.0
2021-09-24 12:07:18.259,946.0,153.0,-4.0,958.3011009072252,1,1,1,0.0,3.0
2021-09-24 12:07:18.269,1040.0,-27.0,7.0,1040.3739712238096,1,1,1,0.0,3.0
2021-09-24 12:07:18.279,980.0,-27.0,7.0,980.3968584200992,1,1,1,0.0,3.0
2021-09-24 12:07:18.280,980.0,15.0,30.0,980.573811602166,1,1,1,0.0,3.0
2021-09-24 12:07:18.288,990.0,3.0,22.0,990.2489585957665,1,1,1,0.0,3.0
2021-09-24 12:07:18.298,1023.0,-22.0,1.0,1023.2370204405232,1,1,1,0.0,3.0
2021-09-24 12:07:18.307,988.0,-22.0,1.0,988.245414864142,1,1,1,0.0,3.0
2021-09-24 12:07:18.308,988.0,26.0,-22.0,988.5868702344776,1,1,1,0.0,3.0
2021-09-24 12:07:18.317,1047.0,-24.0,7.0,1047.298429293198,1,1,1,0.0,3.0
2021-09-24 12:07:18.327,985.0,-1.0,33.0,985.5531441784354,1,1,1,0.0,3.0
2021-09-24 12:07:18.337,1007.0,79.0,43.0,1011.0089020379592,1,1,1,0.0,3.0
2021-09-24 12:07:18.346,993.0,79.0,43.0,997.0651934552724,1,1,1,0.0,3.0
2021-09-24 12:07:18.347,993.0,19.0,0.0,993.1817557728292,1,1,1,0.0,3.0
2021-09-24 12:07:18.356,1022.0,12.0,0.0,1022.0704476698268,1,1,1,0.0,3.0
2021-09-24 12:07:18.357,1022.0,12.0,9.0,1022.1100723503316,1,1,1,0.0,3.0
2021-09-24 12:07:18.367,1044.0,-6.0,34.0,1044.5707252263965,1,1,1,0.0,3.0
2021-09-24 12:07:18.376,976.0,13.0,0.0,976.0865740291688,1,1,1,0.0,3.0
2021-09-24 12:07:18.386,1019.0,13.0,0.0,1019.0829210618732,1,1,1,0.0,3.0
2021-09-24 12:07:18.387,1019.0,5.0,-3.0,1019.0166828860064,1,1,1,0.0,3.0
2021-09-24 12:07:18.395,994.0,-2.0,-3.0,994.0065392139028,1,1,1,0.0,3.0
2021-09-24 12:07:18.396,994.0,-2.0,-9.0,994.0427556196968,1,1,1,0.0,3.0
2021-09-24 12:07:18.416,1036.0,-30.0,-9.0,1036.473347462442,1,1,1,0.0,3.0
2021-09-24 12:07:18.417,1036.0,-30.0,34.0,1036.9918032462938,1,1,1,0.0,3.0
2021-09-24 12:07:18.418,986.0,3.0,4.0,986.0126774032876,1,1,1,0.0,3.0
2021-09-24 12:07:18.425,979.0,3.0,4.0,979.0127680474856,1,1,1,0.0,3.0
2021-09-24 12:07:18.426,979.0,-7.0,-3.0,979.0296216151992,1,1,1,0.0,3.0
2021-09-24 12:07:18.434,1037.0,67.0,-3.0,1039.166492916318,1,1,1,0.0,3.0
2021-09-24 12:07:18.435,1037.0,67.0,42.0,1040.0105768692931,1,1,1,0.0,3.0
2021-09-24 12:07:18.444,995.0,65.0,12.0,997.1930605454492,1,1,1,0.0,3.0
2021-09-24 12:07:18.454,1043.0,-14.0,12.0,1043.1629786375663,1,1,1,0.0,3.0
2021-09-24 12:07:18.464,958.0,16.0,-26.0,958.486306631451,1,1,1,0.0,3.0
2021-09-24 12:07:18.475,1068.0,-17.0,-26.0,1068.4516835121744,1,1,1,0.0,3.0
2021-09-24 12:07:18.476,1068.0,-17.0,10.0,1068.1821005802335,1,1,1,0.0,3.0
2021-09-24 12:07:18.483,1009.0,24.0,11.0,1009.3453323813412,1,1,1,0.0,3.0
2021-09-24 12:07:18.496,1000.0,-8.0,0.0,1000.0319994880164,1,1,1,0.0,3.0
2021-09-24 12:07:18.503,1050.0,33.0,17.0,1050.6559855633052,1,1,1,0.0,3.0
2021-09-24 12:07:18.512,1002.0,33.0,17.0,1002.6873889702612,1,1,1,0.0,3.0
2021-09-24 12:07:18.513,1002.0,54.0,-3.0,1003.4585193220496,1,1,1,0.0,3.0
2021-09-24 12:07:18.524,1073.0,35.0,18.0,1073.721565397659,1,1,1,0.0,3.0
2021-09-24 12:07:18.533,995.0,10.0,-26.0,995.3898733662102,1,1,1,0.0,3.0
2021-09-24 12:07:18.542,1026.0,51.0,10.0,1027.315433545121,1,1,1,0.0,3.0
2021-09-24 12:07:18.552,1026.0,13.0,19.0,1026.2582520983692,1,1,1,0.0,3.0
2021-09-24 12:07:18.570,998.0,11.0,-12.0,998.1327567012316,1,1,1,0.0,3.0
2021-09-24 12:07:18.575,1016.0,30.0,6.0,1016.46052554932,1,1,1,0.0,3.0
2021-09-24 12:07:18.581,995.0,13.0,4.0,995.0929604815824,1,1,1,0.0,3.0
2021-09-24 12:07:18.591,1006.0,35.0,-19.0,1006.7879617873864,1,1,1,0.0,3.0
2021-09-24 12:07:18.600,1038.0,-40.0,-19.0,1038.9441755936648,1,1,1,0.0,3.0
2021-09-24 12:07:18.601,1038.0,-40.0,7.0,1038.7940123046533,1,1,1,0.0,3.0
2021-09-24 12:07:18.610,980.0,26.0,-24.0,980.6385674650984,1,1,1,0.0,3.0
2021-09-24 12:07:18.620,1086.0,26.0,-24.0,1086.576274359053,1,1,1,0.0,3.0
2021-09-24 12:07:18.621,1086.0,-69.0,37.0,1088.8186258509725,1,1,1,0.0,3.0
2021-09-24 12:07:18.630,981.0,39.0,-32.0,982.2962893139728,1,1,1,0.0,3.0
2021-09-24 12:07:18.639,1008.0,39.0,-32.0,1009.2616112782651,1,1,1,0.0,3.0
2021-09-24 12:07:18.640,1008.0,44.0,1.0,1008.9603560100862,1,1,1,0.0,3.0
2021-09-24 12:07:18.649,1062.0,25.0,26.0,1062.612347001483,1,1,1,0.0,3.0
2021-09-24 12:07:18.659,980.0,73.0,-6.0,982.7334328290658,1,1,1,0.0,3.0
2021-09-24 12:07:18.669,1046.0,35.0,-6.0,1046.6025988884223,1,1,1,0.0,3.0
2021-09-24 12:07:18.670,1046.0,35.0,16.0,1046.7076955864995,1,1,1,0.0,3.0
2021-09-24 12:07:18.679,973.0,59.0,16.0,974.9184581286786,1,1,1,0.0,3.0
2021-09-24 12:07:18.680,973.0,59.0,-8.0,974.8199833815472,1,1,1,0.0,3.0
2021-09-24 12:07:18.689,1020.0,-20.0,38.0,1020.9035213966108,1,1,1,0.0,3.0
2021-09-24 12:07:18.698,1012.0,-8.0,26.0,1012.3655466282918,1,1,1,0.0,3.0
2021-09-24 12:07:18.708,987.0,8.0,-4.0,987.0405260170426,1,1,1,0.0,3.0
2021-09-24 12:07:18.718,1061.0,29.0,24.0,1061.6675562528978,1,1,1,0.0,3.0
2021-09-24 12:07:18.727,977.0,54.0,24.0,978.78547189872,1,1,1,0.0,3.0
2021-09-24 12:07:18.728,977.0,54.0,-22.0,978.7384737507768,1,1,1,0.0,3.0
2021-09-24 12:07:18.737,975.0,7.0,-16.0,975.1563977126953,1,1,1,0.0,3.0
2021-09-24 12:07:18.747,980.0,-4.0,-10.0,980.0591818864818,1,1,1,0.0,3.0
2021-09-24 12:07:18.757,1026.0,22.0,14.0,1026.3313305166123,1,1,1,0.0,3.0
2021-09-24 12:07:18.767,1020.0,13.0,31.0,1020.5537712438282,1,1,1,0.0,3.0
2021-09-24 12:07:18.776,979.0,36.0,31.0,980.1520290240692,1,1,1,0.0,3.0
2021-09-24 12:07:18.777,979.0,36.0,-13.0,979.7479267648388,1,1,1,0.0,3.0
2021-09-24 12:07:18.787,1006.0,-25.0,13.0,1006.394554834236,1,1,1,0.0,3.0
2021-09-24 12:07:18.796,1003.0,1.0,15.0,1003.1126556872862,1,1,1,0.0,3.0
2021-09-24 12:07:18.806,1009.0,58.0,15.0,1010.7769289017236,1,1,1,0.0,3.0
2021-09-24 12:07:18.807,1009.0,58.0,12.0,1010.736859919534,1,1,1,0.0,3.0
2021-09-24 12:07:18.815,1053.0,73.0,12.0,1055.5955664931528,1,1,1,0.0,3.0
2021-09-24 12:07:18.816,1053.0,73.0,40.0,1056.2849994201376,1,1,1,0.0,3.0
2021-09-24 12:07:18.825,987.0,49.0,-22.0,988.4604190355828,1,1,1,0.0,3.0
2021-09-24 12:07:18.835,992.0,49.0,-22.0,993.453068846234,1,1,1,0.0,3.0
2021-09-24 12:07:18.836,992.0,-22.0,-45.0,993.2638118848386,1,1,1,0.0,3.0
2021-09-24 12:07:18.845,1001.0,-15.0,-3.0,1001.1168762936724,1,1,1,0.0,3.0
2021-09-24 12:07:18.854,1021.0,40.0,-3.0,1021.7876491717836,1,1,1,0.0,3.0
2021-09-24 12:07:18.855,1021.0,40.0,6.0,1021.8008612249256,1,1,1,0.0,3.0
2021-09-24 12:07:18.864,1042.0,15.0,2.0,1042.109879043472,1,1,1,0.0,3.0
2021-09-24 12:07:18.874,1022.0,12.0,2.0,1022.0724044802306,1,1,1,0.0,3.0
2021-09-24 12:07:18.875,1022.0,12.0,3.0,1022.074850487967,1,1,1,0.0,3.0
2021-09-24 12:07:18.884,1011.0,-58.0,17.0,1012.8050157853684,1,1,1,0.0,3.0
2021-09-24 12:07:18.893,994.0,33.0,17.0,994.6929174373364,1,1,1,0.0,3.0
2021-09-24 12:07:18.894,994.0,33.0,0.0,994.5476358626568,1,1,1,0.0,3.0
2021-09-24 12:07:18.904,1018.0,38.0,-3.0,1018.7134042506754,1,1,1,0.0,3.0
2021-09-24 12:07:18.913,1016.0,-26.0,-14.0,1016.4290432686386,1,1,1,0.0,3.0
2021-09-24 12:07:18.928,1002.0,-26.0,-14.0,1002.43503530154,1,1,1,0.0,3.0
2021-09-24 12:07:18.929,1002.0,45.0,-8.0,1003.0418735027964,1,1,1,0.0,3.0
2021-09-24 12:07:18.939,979.0,-31.0,0.0,979.490683978158,1,1,1,0.0,3.0
2021-09-24 12:07:18.942,996.0,-8.0,-21.0,996.2534818006912,1,1,1,0.0,3.0
2021-09-24 12:07:18.952,1008.0,54.0,15.0,1009.5568334670417,1,1,1,0.0,3.0
2021-09-24 12:07:18.962,1043.0,23.0,24.0,1043.529587505788,1,1,1,0.0,3.0
2021-09-24 12:07:18.972,1026.0,34.0,32.0,1027.0618287133448,1,1,1,0.0,3.0
2021-09-24 12:07:18.982,1019.0,34.0,32.0,1020.0691153054288,1,1,1,0.0,3.0
2021-09-24 12:07:18.983,1019.0,8.0,37.0,1019.7028979070324,1,1,1,0.0,3.0
2021-09-24 12:07:18.991,998.0,25.0,20.0,998.5133950027912,1,1,1,0.0,3.0
2021-09-24 12:07:19.001,983.0,39.0,-3.0,983.7779220942092,1,1,1,0.0,3.0
2021-09-24 12:07:19.011,1051.0,-11.0,30.0,1051.4856156885835,1,1,1,0.0,3.0
2021-09-24 12:07:19.020,982.0,-11.0,30.0,982.5197199038806,1,1,1,0.0,3.0
2021-09-24 12:07:19.021,982.0,14.0,19.0,982.2835639467862,1,1,1,0.0,3.0
2021-09-24 12:07:19.039,962.0,68.0,0.0,964.4003318124688,1,1,1,0.0,3.0
2021-09-24 12:07:19.041,1007.0,20.0,-7.0,1007.222914751248,1,1,1,0.0,3.0
2021-09-24 12:07:19.050,1006.0,59.0,-3.0,1007.7330995854012,1,1,1,0.0,3.0
2021-09-24 12:07:19.061,1048.0,-19.0,13.0,1048.2528320972951,1,1,1,0.0,3.0
2021-09-24 12:07:19.069,1019.0,30.0,6.0,1019.459170344747,1,1,1,0.0,3.0
2021-09-24 12:07:19.079,984.0,42.0,9.0,984.937053826284,1,1,1,0.0,3.0
2021-09-24 12:07:19.089,1018.0,42.0,4.0,1018.8738881726237,1,1,1,0.0,3.0
2021-09-24 12:07:19.098,1005.0,42.0,4.0,1005.885182314562,1,1,1,0.0,3.0
2021-09-24 12:07:19.099,1005.0,80.0,1.0,1008.1795475013369,1,1,1,0.0,3.0
2021-09-24 12:07:19.110,1043.0,-25.0,-9.0,1043.33839189402,1,1,1,0.0,3.0
2021-09-24 12:07:19.118,965.0,-25.0,-9.0,965.3657338024796,1,1,1,0.0,3.0
2021-09-24 12:07:19.119,965.0,-13.0,-7.0,965.1129467580464,1,1,1,0.0,3.0
2021-09-24 12:07:19.128,988.0,23.0,10.0,988.3182685754624,1,1,1,0.0,3.0
2021-09-24 12:07:19.138,1003.0,45.0,3.0,1004.0134461251004,1,1,1,0.0,3.0
2021-09-24 12:07:19.147,1068.0,54.0,3.0,1069.3685052403591,1,1,1,0.0,3.0
2021-09-24 12:07:19.148,1068.0,54.0,0.0,1069.3642971410632,1,1,1,0.0,3.0
2021-09-24 12:07:19.158,1036.0,-48.0,16.0,1037.2347853788938,1,1,1,0.0,3.0
2021-09-24 12:07:19.167,1010.0,-14.0,16.0,1010.2237375947964,1,1,1,0.0,3.0
2021-09-24 12:07:19.168,1010.0,-14.0,-1.0,1010.0975200444756,1,1,1,0.0,3.0
2021-09-24 12:07:19.176,996.0,-14.0,-1.0,996.0988906730096,1,1,1,0.0,3.0
2021-09-24 12:07:19.177,996.0,31.0,-8.0,996.5144253848008,1,1,1,0.0,3.0
2021-09-24 12:07:19.186,1016.0,61.0,-8.0,1017.8609924739231,1,1,1,0.0,3.0
2021-09-24 12:07:19.187,1016.0,61.0,-4.0,1017.8374133426222,1,1,1,0.0,3.0
2021-09-24 12:07:19.196,1045.0,58.0,7.0,1046.6317403939172,1,1,1,0.0,3.0
2021-09-24 12:07:19.206,1053.0,-37.0,-2.0,1053.6517451226473,1,1,1,0.0,3.0
2021-09-24 12:07:19.216,1011.0,3.0,0.0,1011.0044510287776,1,1,1,0.0,3.0
2021-09-24 12:07:19.225,1014.0,3.0,0.0,1014.0044378601112,1,1,1,0.0,3.0
2021-09-24 12:07:19.226,1014.0,2.0,-6.0,1014.0197236740516,1,1,1,0.0,3.0
2021-09-24 12:07:19.235,989.0,62.0,10.0,990.991927313235,1,1,1,0.0,3.0
2021-09-24 12:07:19.245,1063.0,84.0,25.0,1066.6067691515932,1,1,1,0.0,3.0
2021-09-24 12:07:19.255,1079.0,-12.0,27.0,1079.4044654345284,1,1,1,0.0,3.0
2021-09-24 12:07:19.265,999.0,44.0,27.0,1000.3329445739554,1,1,1,0.0,3.0
2021-09-24 12:07:19.266,999.0,44.0,-3.0,999.9729996354902,1,1,1,0.0,3.0
2021-09-24 12:07:19.275,1026.0,13.0,8.0,1026.113541475796,1,1,1,0.0,3.0
2021-09-24 12:07:19.284,994.0,-21.0,-2.0,994.2238178599424,1,1,1,0.0,3.0
2021-09-24 12:07:19.294,1047.0,71.0,12.0,1049.4732011823835,1,1,1,0.0,3.0
2021-09-24 12:07:19.305,976.0,-18.0,3.0,976.1705793558828,1,1,1,0.0,3.0
2021-09-24 12:07:19.313,991.0,15.0,3.0,991.1180555312268,1,1,1,0.0,3.0
2021-09-24 12:07:19.314,991.0,15.0,6.0,991.1316764184262,1,1,1,0.0,3.0
2021-09-24 12:07:19.323,1051.0,2.0,6.0,1051.0190293234466,1,1,1,0.0,3.0
2021-09-24 12:07:19.333,954.0,48.0,-25.0,955.533882183149,1,1,1,0.0,3.0
2021-09-24 12:07:19.343,1055.0,52.0,17.0,1056.417531092702,1,1,1,0.0,3.0
2021-09-24 12:07:19.353,995.0,25.0,5.0,995.3265795707456,1,1,1,0.0,3.0
2021-09-24 12:07:19.362,1040.0,49.0,12.0,1041.2228387814014,1,1,1,0.0,3.0
2021-09-24 12:07:19.373,1037.0,34.0,28.0,1037.9349690611643,1,1,1,0.0,3.0
2021-09-24 12:07:19.382,997.0,56.0,-12.0,998.6435800624764,1,1,1,0.0,3.0
2021-09-24 12:07:19.391,1057.0,56.0,-12.0,1058.5504239288746,1,1,1,0.0,3.0
2021-09-24 12:07:19.392,1057.0,25.0,18.0,1057.4488167282614,1,1,1,0.0,3.0
2021-09-24 12:07:19.401,946.0,-6.0,16.0,946.1543214507874,1,1,1,0.0,3.0
2021-09-24 12:07:19.411,1055.0,37.0,16.0,1055.7698612860663,1,1,1,0.0,3.0
2021-09-24 12:07:19.412,1055.0,37.0,45.0,1056.6073064294037,1,1,1,0.0,3.0
2021-09-24 12:07:19.431,1037.0,87.0,5.0,1040.6550821477788,1,1,1,0.0,3.0
2021-09-24 12:07:19.434,1011.0,14.0,-5.0,1011.109291817655,1,1,1,0.0,3.0
2021-09-24 12:07:19.440,1023.0,14.0,-5.0,1023.1080099383448,1,1,1,0.0,3.0
2021-09-24 12:07:19.441,1023.0,11.0,18.0,1023.2174744403068,1,1,1,0.0,3.0
2021-09-24 12:07:19.451,1014.0,-8.0,-3.0,1014.0359954163364,1,1,1,0.0,3.0
2021-09-24 12:07:19.460,1031.0,81.0,17.0,1034.316682646084,1,1,1,0.0,3.0
2021-09-24 12:07:19.470,964.0,115.0,-16.0,970.967043724966,1,1,1,0.0,3.0
2021-09-24 12:07:19.479,984.0,69.0,-16.0,986.5459948730216,1,1,1,0.0,3.0
2021-09-24 12:07:19.480,984.0,69.0,0.0,986.4162407422132,1,1,1,0.0,3.0
2021-09-24 12:07:19.489,1064.0,-20.0,-7.0,1064.2109753239722,1,1,1,0.0,3.0
2021-09-24 12:07:19.503,937.0,14.0,-7.0,937.1307272734152,1,1,1,0.0,3.0
2021-09-24 12:07:19.504,937.0,14.0,-14.0,937.2091548848634,1,1,1,0.0,3.0
2021-09-24 12:07:19.509,1080.0,-2.0,27.0,1080.3392985539313,1,1,1,0.0,3.0
2021-09-24 12:07:19.518,1008.0,49.0,27.0,1009.5513855173494,1,1,1,0.0,3.0
2021-09-24 12:07:19.519,1008.0,49.0,12.0,1009.2616112782651,1,1,1,0.0,3.0
2021-09-24 12:07:19.528,1015.0,6.0,37.0,1015.6918824131656,1,1,1,0.0,3.0
2021-09-24 12:07:19.538,1046.0,35.0,20.0,1046.7764804388758,1,1,1,0.0,3.0
2021-09-24 12:07:19.549,995.0,42.0,-20.0,996.0868436035084,1,1,1,0.0,3.0
2021-09-24 12:07:19.557,1056.0,42.0,-20.0,1057.024124606435,1,1,1,0.0,3.0
2021-09-24 12:07:19.558,1056.0,39.0,-3.0,1056.7241835029613,1,1,1,0.0,3.0
2021-09-24 12:07:19.567,985.0,42.0,-5.0,985.9077035909598,1,1,1,0.0,3.0
2021-09-24 12:07:19.582,997.0,58.0,1.0,998.6861368818534,1,1,1,0.0,3.0
2021-09-24 12:07:19.587,986.0,34.0,5.0,986.5987026141884,1,1,1,0.0,3.0
2021-09-24 12:07:19.597,976.0,34.0,5.0,976.60483308245,1,1,1,0.0,3.0
2021-09-24 12:07:19.598,976.0,-12.0,7.0,976.0988679432018,1,1,1,0.0,3.0
2021-09-24 12:07:19.606,1092.0,-25.0,7.0,1092.308564463357,1,1,1,0.0,3.0
2021-09-24 12:07:19.607,1092.0,-25.0,47.0,1093.2968489847576,1,1,1,0.0,3.0
2021-09-24 12:07:19.616,989.0,82.0,11.0,992.4545329636012,1,1,1,0.0,3.0
2021-09-24 12:07:19.626,1042.0,6.0,38.0,1042.7099309012071,1,1,1,0.0,3.0
2021-09-24 12:07:19.636,989.0,19.0,5.0,989.1951273636562,1,1,1,0.0,3.0
2021-09-24 12:07:19.646,1004.0,32.0,-1.0,1004.5103284685528,1,1,1,0.0,3.0
2021-09-24 12:07:19.656,1069.0,72.0,-1.0,1071.4224190299549,1,1,1,0.0,3.0
2021-09-24 12:07:19.657,1069.0,72.0,38.0,1072.095611407863,1,1,1,0.0,3.0
2021-09-24 12:07:19.665,984.0,28.0,-27.0,984.768500714762,1,1,1,0.0,3.0
2021-09-24 12:07:19.675,1004.0,-2.0,-23.0,1004.2654031679076,1,1,1,0.0,3.0
2021-09-24 12:07:19.684,1013.0,-2.0,-23.0,1013.2630458079482,1,1,1,0.0,3.0
2021-09-24 12:07:19.685,1013.0,8.0,-11.0,1013.0913088167324,1,1,1,0.0,3.0
2021-09-24 12:07:19.694,1015.0,73.0,23.0,1017.88162376575,1,1,1,0.0,3.0
2021-09-24 12:07:19.708,1034.0,68.0,23.0,1036.4887843097963,1,1,1,0.0,3.0
2021-09-24 12:07:19.709,1034.0,68.0,35.0,1036.824478877693,1,1,1,0.0,3.0
2021-09-24 12:07:19.714,1014.0,54.0,-4.0,1015.4447301552162,1,1,1,0.0,3.0
2021-09-24 12:07:19.723,1034.0,54.0,-4.0,1035.4168242789954,1,1,1,0.0,3.0
2021-09-24 12:07:19.724,1034.0,-65.0,32.0,1036.5350934724786,1,1,1,0.0,3.0
2021-09-24 12:07:19.733,1008.0,-65.0,32.0,1010.6003166435283,1,1,1,0.0,3.0
2021-09-24 12:07:19.734,1008.0,24.0,20.0,1008.484010780538,1,1,1,0.0,3.0
2021-09-24 12:07:19.744,1006.0,31.0,4.0,1006.485469343696,1,1,1,0.0,3.0
2021-09-24 12:07:19.753,1035.0,63.0,42.0,1037.7658695486184,1,1,1,0.0,3.0
2021-09-24 12:07:19.762,997.0,63.0,42.0,999.8709916784264,1,1,1,0.0,3.0
2021-09-24 12:07:19.763,997.0,54.0,8.0,998.4933650255268,1,1,1,0.0,3.0
2021-09-24 12:07:19.772,1016.0,-11.0,8.0,1016.091039228277,1,1,1,0.0,3.0
2021-09-24 12:07:19.773,1016.0,-11.0,-35.0,1016.6621857824751,1,1,1,0.0,3.0
2021-09-24 12:07:19.782,1009.0,26.0,-17.0,1009.4780829715918,1,1,1,0.0,3.0
2021-09-24 12:07:19.792,980.0,21.0,-17.0,980.3723782318636,1,1,1,0.0,3.0
2021-09-24 12:07:19.793,980.0,21.0,-4.0,980.2331355346032,1,1,1,0.0,3.0
2021-09-24 12:07:19.803,1014.0,-11.0,0.0,1014.0596629390204,1,1,1,0.0,3.0
2021-09-24 12:07:19.811,1015.0,0.0,0.0,1015.0,1,1,1,0.0,3.0
2021-09-24 12:07:19.812,1015.0,0.0,8.0,1015.031526603977,1,1,1,0.0,3.0
2021-09-24 12:07:19.821,1039.0,-34.0,25.0,1039.856720899567,1,1,1,0.0,3.0
2021-09-24 12:07:19.831,1043.0,8.0,4.0,1043.0383502057823,1,1,1,0.0,3.0
2021-09-24 12:07:19.841,1020.0,99.0,19.0,1024.9692678319675,1,1,1,0.0,3.0
2021-09-24 12:07:19.852,1036.0,-39.0,-11.0,1036.7921681802964,1,1,1,0.0,3.0
2021-09-24 12:07:19.860,1005.0,-7.0,6.0,1005.0422876675387,1,1,1,0.0,3.0
2021-09-24 12:07:19.870,1005.0,7.0,-24.0,1005.3108971855424,1,1,1,0.0,3.0
2021-09-24 12:07:19.880,998.0,23.0,-5.0,998.2775165253396,1,1,1,0.0,3.0
2021-09-24 12:07:19.889,1015.0,23.0,-5.0,1015.2728697251788,1,1,1,0.0,3.0
2021-09-24 12:07:19.890,1015.0,55.0,-9.0,1016.5288977692666,1,1,1,0.0,3.0
2021-09-24 12:07:19.900,1034.0,21.0,19.0,1034.3877416133662,1,1,1,0.0,3.0
2021-09-24 12:07:19.909,993.0,21.0,19.0,993.4037447080618,1,1,1,0.0,3.0
2021-09-24 12:07:19.910,993.0,6.0,21.0,993.2401522290568,1,1,1,0.0,3.0
2021-09-24 12:07:19.919,944.0,-17.0,1.0,944.1535892004013,1,1,1,0.0,3.0
2021-09-24 12:07:19.928,1013.0,-17.0,1.0,1013.1431290790064,1,1,1,0.0,3.0
2021-09-24 12:07:19.929,1013.0,-3.0,19.0,1013.1826094046424,1,1,1,0.0,3.0
2021-09-24 12:07:19.947,1043.0,42.0,19.0,1044.0181990750928,1,1,1,0.0,3.0
2021-09-24 12:07:19.948,1043.0,42.0,21.0,1044.0565118804634,1,1,1,0.0,3.0
2021-09-24 12:07:19.950,1014.0,28.0,21.0,1014.6038635842068,1,1,1,0.0,3.0
2021-09-24 12:07:19.951,1014.0,28.0,17.0,1014.5289547371232,1,1,1,0.0,3.0
2021-09-24 12:07:19.958,1002.0,0.0,17.0,1002.1442012006056,1,1,1,0.0,3.0
2021-09-24 12:07:19.959,1002.0,0.0,11.0,1002.0603774224386,1,1,1,0.0,3.0
2021-09-24 12:07:19.968,996.0,25.0,-8.0,996.3458234970426,1,1,1,0.0,3.0
2021-09-24 12:07:19.977,1021.0,25.0,-8.0,1021.3373585647398,1,1,1,0.0,3.0
2021-09-24 12:07:19.978,1021.0,13.0,17.0,1021.2242652816276,1,1,1,0.0,3.0
2021-09-24 12:07:19.988,993.0,77.0,8.0,996.0130521233144,1,1,1,0.0,3.0
2021-09-24 12:07:19.997,1035.0,-24.0,-22.0,1035.5119506794697,1,1,1,0.0,3.0
2021-09-24 12:07:20.007,1018.0,-18.0,-11.0,1018.2185423571896,1,1,1,0.0,3.0
2021-09-24 12:07:20.016,999.0,-18.0,-11.0,999.2226979007232,1,1,1,0.0,3.0
2021-09-24 12:07:20.017,999.0,54.0,-1.0,1000.4588947078236,1,1,1,0.0,3.0
2021-09-24 12:07:20.026,992.0,45.0,8.0,993.0523651852404,1,1,1,0.0,3.0
2021-09-24 12:07:20.037,1003.0,81.0,7.0,1006.2897197129662,1,1,1,0.0,3.0
2021-09-24 12:07:20.053,1044.0,-44.0,10.0,1044.9746408406284,1,1,1,0.0,3.0
2021-09-24 12:07:20.056,1008.0,-1.0,4.0,1008.0084325044112,1,1,1,0.0,3.0
2021-09-24 12:07:20.066,1017.0,40.0,-6.0,1017.8040086382052,1,1,1,0.0,3.0
2021-09-24 12:07:20.075,1012.0,28.0,-23.0,1012.6485076273998,1,1,1,0.0,3.0
2021-09-24 12:07:20.085,1057.0,58.0,29.0,1058.9872520479178,1,1,1,0.0,3.0
2021-09-24 12:07:20.094,1065.0,58.0,29.0,1066.972352031673,1,1,1,0.0,3.0
2021-09-24 12:07:20.095,1065.0,-36.0,-7.0,1065.6312683100098,1,1,1,0.0,3.0
2021-09-24 12:07:20.106,987.0,21.0,10.0,987.2740247773158,1,1,1,0.0,3.0
2021-09-24 12:07:20.114,1039.0,61.0,25.0,1041.0893333427252,1,1,1,0.0,3.0
2021-09-24 12:07:20.124,1008.0,70.0,25.0,1010.736859919534,1,1,1,0.0,3.0
2021-09-24 12:07:20.125,1008.0,70.0,0.0,1010.4276322429034,1,1,1,0.0,3.0
2021-09-24 12:07:20.134,1044.0,41.0,0.0,1044.8047664516084,1,1,1,0.0,3.0
2021-09-24 12:07:20.135,1044.0,41.0,17.0,1044.9430606497178,1,1,1,0.0,3.0
2021-09-24 12:07:20.143,1072.0,41.0,17.0,1072.9184498367058,1,1,1,0.0,3.0
2021-09-24 12:07:20.144,1072.0,0.0,24.0,1072.2686230604718,1,1,1,0.0,3.0
2021-09-24 12:07:20.153,990.0,10.0,-6.0,990.0686844860816,1,1,1,0.0,3.0
2021-09-24 12:07:20.163,1027.0,6.0,-6.0,1027.0350529558375,1,1,1,0.0,3.0
2021-09-24 12:07:20.174,998.0,35.0,-10.0,998.6636070269108,1,1,1,0.0,3.0
2021-09-24 12:07:20.182,1018.0,63.0,-10.0,1019.9965686216792,1,1,1,0.0,3.0
2021-09-24 12:07:20.183,1018.0,63.0,17.0,1020.08921178493,1,1,1,0.0,3.0
2021-09-24 12:07:20.192,955.0,31.0,11.0,955.5663242287268,1,1,1,0.0,3.0
2021-09-24 12:07:20.202,977.0,-6.0,-9.0,977.0598753402988,1,1,1,0.0,3.0
2021-09-24 12:07:20.212,1037.0,51.0,37.0,1038.912412092569,1,1,1,0.0,3.0
2021-09-24 12:07:20.222,1028.0,49.0,-4.0,1029.1749122476704,1,1,1,0.0,3.0
2021-09-24 12:07:20.231,1036.0,33.0,11.0,1036.58381233743,1,1,1,0.0,3.0
2021-09-24 12:07:20.242,950.0,1.0,-20.0,950.2110291929894,1,1,1,0.0,3.0
2021-09-24 12:07:20.251,998.0,13.0,8.0,998.1167266407272,1,1,1,0.0,3.0
2021-09-24 12:07:20.261,997.0,-5.0,-3.0,997.0170510076546,1,1,1,0.0,3.0
2021-09-24 12:07:20.271,986.0,-29.0,-23.0,986.6944815899196,1,1,1,0.0,3.0
2021-09-24 12:07:20.281,1033.0,30.0,27.0,1033.788179464246,1,1,1,0.0,3.0
2021-09-24 12:07:20.290,982.0,30.0,27.0,982.8290797488646,1,1,1,0.0,3.0
2021-09-24 12:07:20.291,982.0,32.0,0.0,982.5212465896094,1,1,1,0.0,3.0
2021-09-24 12:07:20.300,1053.0,46.0,28.0,1054.376118849436,1,1,1,0.0,3.0
2021-09-24 12:07:20.309,1047.0,20.0,28.0,1047.5652724293604,1,1,1,0.0,3.0
2021-09-24 12:07:20.310,1047.0,20.0,39.0,1047.9169814446182,1,1,1,0.0,3.0
2021-09-24 12:07:20.319,1007.0,37.0,0.0,1007.6795125435468,1,1,1,0.0,3.0
2021-09-24 12:07:20.329,1046.0,29.0,12.0,1046.470735376771,1,1,1,0.0,3.0
2021-09-24 12:07:20.339,967.0,29.0,12.0,967.509173083129,1,1,1,0.0,3.0
2021-09-24 12:07:20.340,967.0,28.0,-35.0,968.0382223858726,1,1,1,0.0,3.0
2021-09-24 12:07:20.348,1071.0,28.0,-35.0,1071.9374981779488,1,1,1,0.0,3.0
2021-09-24 12:07:20.349,1071.0,26.0,27.0,1071.6557283008383,1,1,1,0.0,3.0
2021-09-24 12:07:20.358,1003.0,94.0,10.0,1007.444787569026,1,1,1,0.0,3.0
2021-09-24 12:07:20.368,974.0,38.0,-29.0,975.1722924693872,1,1,1,0.0,3.0
2021-09-24 12:07:20.378,1068.0,48.0,21.0,1069.284340107906,1,1,1,0.0,3.0
2021-09-24 12:07:20.387,998.0,48.0,21.0,999.3743042524158,1,1,1,0.0,3.0
2021-09-24 12:07:20.388,998.0,18.0,-15.0,998.2750122085596,1,1,1,0.0,3.0
2021-09-24 12:07:20.397,1039.0,8.0,20.0,1039.2232676379028,1,1,1,0.0,3.0
2021-09-24 12:07:20.407,983.0,81.0,-19.0,986.5145716105768,1,1,1,0.0,3.0
2021-09-24 12:07:20.417,1015.0,20.0,-17.0,1015.3393521379932,1,1,1,0.0,3.0
2021-09-24 12:07:20.427,1044.0,30.0,22.0,1044.6626249655917,1,1,1,0.0,3.0
2021-09-24 12:07:20.445,974.0,-3.0,-25.0,974.3254076539316,1,1,1,0.0,3.0
2021-09-24 12:07:20.448,1053.0,44.0,35.0,1054.4998814604012,1,1,1,0.0,3.0
2021-09-24 12:07:20.456,1027.0,38.0,8.0,1027.7339149799427,1,1,1,0.0,3.0
2021-09-24 12:07:20.468,993.0,13.0,7.0,993.1097623123036,1,1,1,0.0,3.0
2021-09-24 12:07:20.475,1058.0,13.0,7.0,1058.1030195590597,1,1,1,0.0,3.0
2021-09-24 12:07:20.476,1058.0,82.0,10.0,1061.2200525809903,1,1,1,0.0,3.0
2021-09-24 12:07:20.485,979.0,43.0,6.0,979.962244170662,1,1,1,0.0,3.0
2021-09-24 12:07:20.495,1028.0,23.0,25.0,1028.5611309008327,1,1,1,0.0,3.0
2021-09-24 12:07:20.505,982.0,10.0,-23.0,982.3202125580028,1,1,1,0.0,3.0
2021-09-24 12:07:20.518,985.0,3.0,-38.0,985.7372875163036,1,1,1,0.0,3.0
2021-09-24 12:07:20.524,957.0,-7.0,-10.0,957.0778442739128,1,1,1,0.0,3.0
2021-09-24 12:07:20.534,961.0,9.0,-16.0,961.1753221967364,1,1,1,0.0,3.0
2021-09-24 12:07:20.544,1029.0,40.0,19.0,1029.9524260857877,1,1,1,0.0,3.0
2021-09-24 12:07:20.553,1011.0,40.0,19.0,1011.9693671253098,1,1,1,0.0,3.0
2021-09-24 12:07:20.554,1011.0,57.0,6.0,1012.6233258225884,1,1,1,0.0,3.0
2021-09-24 12:07:20.565,1032.0,21.0,42.0,1033.0677615722989,1,1,1,0.0,3.0
2021-09-24 12:07:20.573,1003.0,28.0,2.0,1003.3927446418976,1,1,1,0.0,3.0
2021-09-24 12:07:20.587,992.0,28.0,2.0,992.397097940134,1,1,1,0.0,3.0
2021-09-24 12:07:20.588,992.0,46.0,10.0,993.1163073880118,1,1,1,0.0,3.0
2021-09-24 12:07:20.592,1067.0,46.0,10.0,1068.037920675104,1,1,1,0.0,3.0
2021-09-24 12:07:20.593,1067.0,67.0,24.0,1069.370843066146,1,1,1,0.0,3.0
2021-09-24 12:07:20.603,1015.0,57.0,-21.0,1016.8161092350966,1,1,1,0.0,3.0
2021-09-24 12:07:20.612,969.0,57.0,-21.0,970.9021577893418,1,1,1,0.0,3.0
2021-09-24 12:07:20.613,969.0,49.0,-18.0,970.4050700609514,1,1,1,0.0,3.0
2021-09-24 12:07:20.622,1035.0,-16.0,-16.0,1035.2473134473714,1,1,1,0.0,3.0
2021-09-24 12:07:20.632,1009.0,57.0,9.0,1010.6488015131666,1,1,1,0.0,3.0
2021-09-24 12:07:20.642,1053.0,65.0,16.0,1055.12558494238,1,1,1,0.0,3.0
2021-09-24 12:07:20.651,1026.0,59.0,16.0,1027.8195366891991,1,1,1,0.0,3.0
2021-09-24 12:07:20.652,1026.0,59.0,5.0,1027.7071567328896,1,1,1,0.0,3.0
2021-09-24 12:07:20.661,992.0,59.0,5.0,993.765565915825,1,1,1,0.0,3.0
2021-09-24 12:07:20.662,992.0,16.0,20.0,992.3305900757066,1,1,1,0.0,3.0
2021-09-24 12:07:20.671,998.0,15.0,15.0,998.22542544257,1,1,1,0.0,3.0
2021-09-24 12:07:20.680,1003.0,15.0,15.0,1003.2243019385048,1,1,1,0.0,3.0
2021-09-24 12:07:20.681,1003.0,30.0,-2.0,1003.4505468631726,1,1,1,0.0,3.0
2021-09-24 12:07:20.690,1017.0,113.0,19.0,1023.43490266846,1,1,1,0.0,3.0
2021-09-24 12:07:20.700,1021.0,85.0,-20.0,1024.727280792309,1,1,1,0.0,3.0
2021-09-24 12:07:20.711,995.0,-28.0,-27.0,995.7600112476902,1,1,1,0.0,3.0
2021-09-24 12:07:20.719,996.0,-28.0,-27.0,996.7592487657188,1,1,1,0.0,3.0
2021-09-24 12:07:20.720,996.0,28.0,-6.0,996.4115615547624,1,1,1,0.0,3.0
2021-09-24 12:07:20.729,1012.0,42.0,-6.0,1012.8889376432148,1,1,1,0.0,3.0
2021-09-24 12:07:20.730,1012.0,42.0,-10.0,1012.9205299528684,1,1,1,0.0,3.0
2021-09-24 12:07:20.739,1009.0,28.0,13.0,1009.4721392886482,1,1,1,0.0,3.0
2021-09-24 12:07:20.749,1029.0,33.0,10.0,1029.5775832835525,1,1,1,0.0,3.0
2021-09-24 12:07:20.759,993.0,-13.0,28.0,993.4797431251428,1,1,1,0.0,3.0
2021-09-24 12:07:20.769,1017.0,-17.0,25.0,1017.4492616342104,1,1,1,0.0,3.0
2021-09-24 12:07:20.778,1001.0,-17.0,25.0,1001.4564393921484,1,1,1,0.0,3.0
2021-09-24 12:07:20.779,1001.0,61.0,18.0,1003.018444496411,1,1,1,0.0,3.0
2021-09-24 12:07:20.788,1060.0,-34.0,8.0,1060.5753155716948,1,1,1,0.0,3.0
2021-09-24 12:07:20.798,1023.0,35.0,-13.0,1023.6811026877464,1,1,1,0.0,3.0
2021-09-24 12:07:20.811,960.0,0.0,-20.0,960.2083107326245,1,1,1,0.0,3.0
2021-09-24 12:07:20.817,1015.0,11.0,-20.0,1015.2566178065524,1,1,1,0.0,3.0
2021-09-24 12:07:20.827,976.0,19.0,-10.0,976.2361394662666,1,1,1,0.0,3.0
2021-09-24 12:07:20.837,1016.0,29.0,7.0,1016.4378977586384,1,1,1,0.0,3.0
2021-09-24 12:07:20.846,994.0,29.0,7.0,994.4475853457536,1,1,1,0.0,3.0
2021-09-24 12:07:20.847,994.0,19.0,9.0,994.2223091441872,1,1,1,0.0,3.0
2021-09-24 12:07:20.856,985.0,-17.0,9.0,985.1877993560416,1,1,1,0.0,3.0
2021-09-24 12:07:20.857,985.0,-17.0,31.0,985.6343135260664,1,1,1,0.0,3.0
2021-09-24 12:07:20.866,1003.0,-17.0,31.0,1003.622937163156,1,1,1,0.0,3.0
2021-09-24 12:07:20.867,1003.0,53.0,17.0,1004.5431797588394,1,1,1,0.0,3.0
2021-09-24 12:07:20.876,1004.0,29.0,17.0,1004.5625913799498,1,1,1,0.0,3.0
2021-09-24 12:07:20.877,1004.0,29.0,6.0,1004.4366580327502,1,1,1,0.0,3.0
2021-09-24 12:07:20.886,1053.0,-29.0,14.0,1053.492287584489,1,1,1,0.0,3.0
2021-09-24 12:07:20.895,1001.0,9.0,14.0,1001.138352077274,1,1,1,0.0,3.0
2021-09-24 12:07:20.896,1001.0,9.0,22.0,1001.2821780097756,1,1,1,0.0,3.0
2021-09-24 12:07:20.905,995.0,35.0,12.0,995.6877020431656,1,1,1,0.0,3.0
2021-09-24 12:07:20.916,989.0,52.0,-25.0,990.681583557502,1,1,1,0.0,3.0
2021-09-24 12:07:20.925,964.0,57.0,-12.0,965.758251323798,1,1,1,0.0,3.0
2021-09-24 12:07:20.935,1026.0,11.0,17.0,1026.1997856168164,1,1,1,0.0,3.0
2021-09-24 12:07:20.944,1011.0,25.0,17.0,1011.4519266875712,1,1,1,0.0,3.0
2021-09-24 12:07:20.945,1011.0,25.0,26.0,1011.6432177403256,1,1,1,0.0,3.0
2021-09-24 12:07:20.961,1032.0,66.0,21.0,1034.3215167441892,1,1,1,0.0,3.0
2021-09-24 12:07:20.964,1002.0,102.0,12.0,1007.249720774347,1,1,1,0.0,3.0
2021-09-24 12:07:20.973,1006.0,102.0,12.0,1011.2289552816414,1,1,1,0.0,3.0
2021-09-24 12:07:20.974,1006.0,91.0,11.0,1010.1673128744565,1,1,1,0.0,3.0
2021-09-24 12:07:20.984,1089.0,2.0,34.0,1089.5324685386847,1,1,1,0.0,3.0
2021-09-24 12:07:20.994,998.0,-18.0,2.0,998.16431513053,1,1,1,0.0,3.0
2021-09-24 12:07:21.003,1012.0,0.0,-4.0,1012.007905107465,1,1,1,0.0,3.0
2021-09-24 12:07:21.012,996.0,0.0,-4.0,996.0080320961272,1,1,1,0.0,3.0
2021-09-24 12:07:21.013,996.0,35.0,8.0,996.6468782873902,1,1,1,0.0,3.0
2021-09-24 12:07:21.022,1034.0,44.0,19.0,1035.110139067336,1,1,1,0.0,3.0
2021-09-24 12:07:21.032,1035.0,-32.0,-10.0,1035.542852807164,1,1,1,0.0,3.0
2021-09-24 12:07:21.043,991.0,-12.0,-3.0,991.077191746435,1,1,1,0.0,3.0
2021-09-24 12:07:21.052,1032.0,35.0,19.0,1032.7681249922462,1,1,1,0.0,3.0
2021-09-24 12:07:21.069,978.0,38.0,-17.0,978.8855908634064,1,1,1,0.0,3.0
2021-09-24 12:07:21.072,1048.0,-43.0,1.0,1048.8822622201217,1,1,1,0.0,3.0
2021-09-24 12:07:21.081,1055.0,-1.0,20.0,1055.1900302789068,1,1,1,0.0,3.0
2021-09-24 12:07:21.093,960.0,-8.0,-3.0,960.0380200804548,1,1,1,0.0,3.0
2021-09-24 12:07:21.101,1012.0,-6.0,-4.0,1012.0256913734949,1,1,1,0.0,3.0
2021-09-24 12:07:21.110,995.0,3.0,12.0,995.0768814518806,1,1,1,0.0,3.0
2021-09-24 12:07:21.122,1064.0,28.0,24.0,1064.638905920688,1,1,1,0.0,3.0
2021-09-24 12:07:21.130,992.0,-17.0,-15.0,992.2590387595368,1,1,1,0.0,3.0
2021-09-24 12:07:21.139,993.0,-17.0,-15.0,993.258777962722,1,1,1,0.0,3.0
2021-09-24 12:07:21.140,993.0,-10.0,9.0,993.0911337838032,1,1,1,0.0,3.0
2021-09-24 12:07:21.150,1035.0,34.0,18.0,1035.7147290639446,1,1,1,0.0,3.0
2021-09-24 12:07:21.159,996.0,63.0,-11.0,998.0511008961416,1,1,1,0.0,3.0
2021-09-24 12:07:21.169,1049.0,14.0,23.0,1049.3455103063052,1,1,1,0.0,3.0
2021-09-24 12:07:21.178,968.0,14.0,23.0,968.3744110621676,1,1,1,0.0,3.0
2021-09-24 12:07:21.179,968.0,22.0,-8.0,968.2830164781368,1,1,1,0.0,3.0
2021-09-24 12:07:21.188,973.0,50.0,-8.0,974.3166836301224,1,1,1,0.0,3.0
2021-09-24 12:07:21.189,973.0,50.0,-9.0,974.3254076539316,1,1,1,0.0,3.0
2021-09-24 12:07:21.199,1028.0,-14.0,-2.0,1028.0972716625602,1,1,1,0.0,3.0
2021-09-24 12:07:21.208,999.0,-23.0,-31.0,999.7454676066304,1,1,1,0.0,3.0
2021-09-24 12:07:21.217,1027.0,-23.0,-31.0,1027.725157812146,1,1,1,0.0,3.0
2021-09-24 12:07:21.218,1027.0,27.0,14.0,1027.45024210421,1,1,1,0.0,3.0
2021-09-24 12:07:21.227,979.0,41.0,14.0,979.9581623722516,1,1,1,0.0,3.0
2021-09-24 12:07:21.228,979.0,41.0,-14.0,979.9581623722516,1,1,1,0.0,3.0
2021-09-24 12:07:21.237,1065.0,0.0,12.0,1065.0676034881542,1,1,1,0.0,3.0
2021-09-24 12:07:21.248,1014.0,40.0,29.0,1015.202935377947,1,1,1,0.0,3.0
2021-09-24 12:07:21.257,1019.0,40.0,29.0,1020.1970397918236,1,1,1,0.0,3.0
2021-09-24 12:07:21.258,1019.0,3.0,-10.0,1019.0534824041376,1,1,1,0.0,3.0
2021-09-24 12:07:21.266,1023.0,3.0,-10.0,1023.0532732951888,1,1,1,0.0,3.0
2021-09-24 12:07:21.267,1023.0,-13.0,13.0,1023.165187054368,1,1,1,0.0,3.0
2021-09-24 12:07:21.276,983.0,-13.0,13.0,983.1719076539972,1,1,1,0.0,3.0
2021-09-24 12:07:21.277,983.0,6.0,-12.0,983.0915521964372,1,1,1,0.0,3.0
2021-09-24 12:07:21.286,1061.0,6.0,29.0,1061.413208887095,1,1,1,0.0,3.0
2021-09-24 12:07:21.296,1025.0,-25.0,6.0,1025.322388324765,1,1,1,0.0,3.0
2021-09-24 12:07:21.307,1031.0,-46.0,-38.0,1032.7250360091016,1,1,1,0.0,3.0
2021-09-24 12:07:21.315,1010.0,-7.0,20.0,1010.2222527741112,1,1,1,0.0,3.0
2021-09-24 12:07:21.325,1009.0,-10.0,-22.0,1009.2893539515812,1,1,1,0.0,3.0
2021-09-24 12:07:21.335,1084.0,57.0,17.0,1085.6306922706267,1,1,1,0.0,3.0
2021-09-24 12:07:21.345,966.0,79.0,-13.0,969.3121272325028,1,1,1,0.0,3.0
2021-09-24 12:07:21.354,991.0,49.0,-13.0,992.2958228270438,1,1,1,0.0,3.0
2021-09-24 12:07:21.355,991.0,49.0,4.0,992.218725886586,1,1,1,0.0,3.0
2021-09-24 12:07:21.364,1032.0,49.0,4.0,1033.1703634928754,1,1,1,0.0,3.0
2021-09-24 12:07:21.365,1032.0,25.0,35.0,1032.895928929919,1,1,1,0.0,3.0
2021-09-24 12:07:21.374,982.0,-1.0,-21.0,982.2250251342612,1,1,1,0.0,3.0
2021-09-24 12:07:21.384,1073.0,-1.0,32.0,1073.4775265463177,1,1,1,0.0,3.0
2021-09-24 12:07:21.393,996.0,72.0,32.0,999.1116053774972,1,1,1,0.0,3.0
2021-09-24 12:07:21.394,996.0,72.0,-7.0,998.6235526964102,1,1,1,0.0,3.0
2021-09-24 12:07:21.403,1009.0,28.0,19.0,1009.5672340166354,1,1,1,0.0,3.0
2021-09-24 12:07:21.414,1027.0,55.0,20.0,1028.666126593075,1,1,1,0.0,3.0
2021-09-24 12:07:21.423,993.0,-20.0,-22.0,993.4450160929894,1,1,1,0.0,3.0
2021-09-24 12:07:21.433,1043.0,71.0,29.0,1045.8159493907135,1,1,1,0.0,3.0
2021-09-24 12:07:21.442,1011.0,41.0,-20.0,1012.0286557207756,1,1,1,0.0,3.0
2021-09-24 12:07:21.461,1006.0,14.0,-25.0,1006.40796896686,1,1,1,0.0,3.0
2021-09-24 12:07:21.464,983.0,43.0,-18.0,984.1046692298538,1,1,1,0.0,3.0
2021-09-24 12:07:21.471,982.0,43.0,-18.0,983.105792882943,1,1,1,0.0,3.0
2021-09-24 12:07:21.472,982.0,24.0,-19.0,982.476971740305,1,1,1,0.0,3.0
2021-09-24 12:07:21.482,1038.0,51.0,-19.0,1039.4258030278063,1,1,1,0.0,3.0
2021-09-24 12:07:21.483,1038.0,51.0,20.0,1039.4445632163363,1,1,1,0.0,3.0
2021-09-24 12:07:21.491,1025.0,43.0,4.0,1025.9093527207947,1,1,1,0.0,3.0
2021-09-24 12:07:21.501,1007.0,30.0,31.0,1007.9236082164164,1,1,1,0.0,3.0
2021-09-24 12:07:21.510,983.0,30.0,31.0,983.9461367371692,1,1,1,0.0,3.0
2021-09-24 12:07:21.511,983.0,29.0,-3.0,983.4322549113384,1,1,1,0.0,3.0
2021-09-24 12:07:21.520,988.0,21.0,-3.0,988.2277065535048,1,1,1,0.0,3.0
2021-09-24 12:07:21.521,988.0,21.0,0.0,988.2231529366228,1,1,1,0.0,3.0
2021-09-24 12:07:21.553,1042.0,47.0,0.0,1043.05944221794,1,1,1,0.0,3.0
2021-09-24 12:07:21.554,1042.0,47.0,22.0,1043.2914262084205,1,1,1,0.0,3.0
2021-09-24 12:07:21.577,1015.0,47.0,22.0,1016.3257351853292,1,1,1,0.0,3.0
2021-09-24 12:07:21.578,1015.0,1.0,-17.0,1015.1428470909894,1,1,1,0.0,3.0
2021-09-24 12:07:21.593,1016.0,90.0,-17.0,1020.1200909696856,1,1,1,0.0,3.0
2021-09-24 12:07:21.594,1016.0,90.0,0.0,1019.9784311445022,1,1,1,0.0,3.0
2021-09-24 12:07:21.608,1046.0,31.0,0.0,1046.4592681991976,1,1,1,0.0,3.0
2021-09-24 12:07:21.609,1046.0,31.0,18.0,1046.6140644956,1,1,1,0.0,3.0
2021-09-24 12:07:21.611,1030.0,17.0,13.0,1030.2223061067937,1,1,1,0.0,3.0
2021-09-24 12:07:21.615,992.0,46.0,13.0,993.1510459139636,1,1,1,0.0,3.0
2021-09-24 12:07:21.616,992.0,46.0,13.0,993.1510459139636,1,1,1,0.0,3.0
2021-09-24 12:07:21.620,1008.0,73.0,3.0,1010.6443489180554,1,1,1,0.0,3.0
2021-09-24 12:07:21.628,1031.0,-33.0,-3.0,1031.5323552850875,1,1,1,0.0,3.0
2021-09-24 12:07:21.638,1012.0,13.0,-27.0,1012.443578674881,1,1,1,0.0,3.0
2021-09-24 12:07:21.647,991.0,0.0,-27.0,991.367742061441,1,1,1,0.0,3.0
2021-09-24 12:07:21.648,991.0,0.0,-10.0,991.0504528024796,1,1,1,0.0,3.0
2021-09-24 12:07:21.657,987.0,-22.0,-10.0,987.2958016724268,1,1,1,0.0,3.0
2021-09-24 12:07:21.658,987.0,-22.0,-26.0,987.5874644809948,1,1,1,0.0,3.0
2021-09-24 12:07:21.667,1005.0,35.0,-26.0,1005.94532654613,1,1,1,0.0,3.0
2021-09-24 12:07:21.668,1005.0,35.0,1.0,1005.6097652668255,1,1,1,0.0,3.0
2021-09-24 12:07:21.677,1050.0,35.0,1.0,1050.583647312293,1,1,1,0.0,3.0
2021-09-24 12:07:21.678,1050.0,12.0,17.0,1050.206170235159,1,1,1,0.0,3.0
2021-09-24 12:07:21.686,1010.0,-20.0,17.0,1010.3410315334124,1,1,1,0.0,3.0
2021-09-24 12:07:21.687,1010.0,-20.0,-3.0,1010.202454956431,1,1,1,0.0,3.0
2021-09-24 12:07:21.696,1005.0,-31.0,40.0,1006.2733227110812,1,1,1,0.0,3.0
2021-09-24 12:07:21.706,1024.0,-31.0,40.0,1025.2497256766276,1,1,1,0.0,3.0
2021-09-24 12:07:21.707,1024.0,73.0,34.0,1027.1616231148826,1,1,1,0.0,3.0
2021-09-24 12:07:21.716,1008.0,77.0,1.0,1010.9371889489476,1,1,1,0.0,3.0
2021-09-24 12:07:21.726,1028.0,-53.0,-31.0,1029.8320251380806,1,1,1,0.0,3.0
2021-09-24 12:07:21.735,969.0,20.0,-31.0,969.702016085354,1,1,1,0.0,3.0
2021-09-24 12:07:21.736,969.0,20.0,-18.0,969.373509025288,1,1,1,0.0,3.0
2021-09-24 12:07:21.745,974.0,8.0,-11.0,974.0949645696768,1,1,1,0.0,3.0
2021-09-24 12:07:21.755,1027.0,12.0,-11.0,1027.129008450253,1,1,1,0.0,3.0
2021-09-24 12:07:21.756,1027.0,12.0,7.0,1027.0939587009557,1,1,1,0.0,3.0
2021-09-24 12:07:21.764,973.0,12.0,7.0,973.0991727465396,1,1,1,0.0,3.0
2021-09-24 12:07:21.765,973.0,93.0,-15.0,977.54948723837,1,1,1,0.0,3.0
2021-09-24 12:07:21.775,1029.0,15.0,14.0,1029.2045472110974,1,1,1,0.0,3.0
2021-09-24 12:07:21.785,1008.0,13.0,8.0,1008.1155687717554,1,1,1,0.0,3.0
2021-09-24 12:07:21.794,968.0,27.0,-9.0,968.4182980510024,1,1,1,0.0,3.0
2021-09-24 12:07:21.804,987.0,15.0,6.0,987.132209990131,1,1,1,0.0,3.0
2021-09-24 12:07:21.814,1007.0,36.0,-3.0,1007.6477559147344,1,1,1,0.0,3.0
2021-09-24 12:07:21.824,1052.0,-1.0,22.0,1052.2304880585812,1,1,1,0.0,3.0
2021-09-24 12:07:21.833,984.0,-1.0,22.0,984.2464122362854,1,1,1,0.0,3.0
2021-09-24 12:07:21.834,984.0,-16.0,12.0,984.203231045296,1,1,1,0.0,3.0
2021-09-24 12:07:21.843,1018.0,39.0,11.0,1018.8061640959972,1,1,1,0.0,3.0
2021-09-24 12:07:21.852,999.0,39.0,11.0,999.8214840660306,1,1,1,0.0,3.0
2021-09-24 12:07:21.853,999.0,35.0,8.0,999.6449369651208,1,1,1,0.0,3.0
2021-09-24 12:07:21.863,967.0,84.0,-6.0,970.6600846846438,1,1,1,0.0,3.0
2021-09-24 12:07:21.872,1058.0,31.0,-6.0,1058.471067152995,1,1,1,0.0,3.0
2021-09-24 12:07:21.873,1058.0,31.0,17.0,1058.5905724122051,1,1,1,0.0,3.0
2021-09-24 12:07:21.883,1017.0,-5.0,27.0,1017.3706305963428,1,1,1,0.0,3.0
2021-09-24 12:07:21.891,989.0,-5.0,27.0,989.381119690486,1,1,1,0.0,3.0
2021-09-24 12:07:21.892,989.0,0.0,-12.0,989.0727981296424,1,1,1,0.0,3.0
2021-09-24 12:07:21.901,983.0,-6.0,-12.0,983.0915521964372,1,1,1,0.0,3.0
2021-09-24 12:07:21.902,983.0,-6.0,0.0,983.0183111214156,1,1,1,0.0,3.0
2021-09-24 12:07:21.912,1003.0,49.0,-6.0,1004.2141205938104,1,1,1,0.0,3.0
2021-09-24 12:07:21.921,1017.0,-28.0,-16.0,1017.5111792997656,1,1,1,0.0,3.0
2021-09-24 12:07:21.931,982.0,-55.0,-16.0,983.6691516968498,1,1,1,0.0,3.0
2021-09-24 12:07:21.932,982.0,-55.0,7.0,983.5639277647388,1,1,1,0.0,3.0
2021-09-24 12:07:21.940,1030.0,26.0,7.0,1030.3518816404423,1,1,1,0.0,3.0
2021-09-24 12:07:21.941,1030.0,26.0,21.0,1030.5420903582735,1,1,1,0.0,3.0
2021-09-24 12:07:21.950,1029.0,82.0,11.0,1032.3206866085752,1,1,1,0.0,3.0
2021-09-24 12:07:21.960,1086.0,57.0,2.0,1087.496666661558,1,1,1,0.0,3.0
2021-09-24 12:07:21.977,1068.0,47.0,30.0,1069.4545338629407,1,1,1,0.0,3.0
2021-09-24 12:07:21.979,1009.0,53.0,30.0,1010.8362874372882,1,1,1,0.0,3.0
2021-09-24 12:07:21.980,1009.0,53.0,19.0,1010.5696413409618,1,1,1,0.0,3.0
2021-09-24 12:07:21.989,1025.0,51.0,45.0,1027.2541068304376,1,1,1,0.0,3.0
2021-09-24 12:07:21.999,951.0,34.0,-1.0,951.608112617794,1,1,1,0.0,3.0
2021-09-24 12:07:22.009,1048.0,-42.0,4.0,1048.8488928344254,1,1,1,0.0,3.0
2021-09-24 12:07:22.020,979.0,24.0,0.0,979.29413354722,1,1,1,0.0,3.0
2021-09-24 12:07:22.028,962.0,32.0,0.0,962.5320773875538,1,1,1,0.0,3.0
2021-09-24 12:07:22.029,962.0,32.0,-9.0,962.5741529877062,1,1,1,0.0,3.0
2021-09-24 12:07:22.038,1040.0,46.0,4.0,1041.0244953890374,1,1,1,0.0,3.0
2021-09-24 12:07:22.048,979.0,72.0,2.0,981.646066563708,1,1,1,0.0,3.0
2021-09-24 12:07:22.058,1080.0,6.0,46.0,1080.9958371797738,1,1,1,0.0,3.0
2021-09-24 12:07:22.068,988.0,6.0,46.0,989.0884692483276,1,1,1,0.0,3.0
2021-09-24 12:07:22.069,988.0,7.0,-14.0,988.1239800753748,1,1,1,0.0,3.0
2021-09-24 12:07:22.083,1008.0,3.0,15.0,1008.1160647465152,1,1,1,0.0,3.0
2021-09-24 12:07:22.087,1026.0,58.0,33.0,1028.16778786344,1,1,1,0.0,3.0
2021-09-24 12:07:22.096,1008.0,58.0,33.0,1010.2064145510064,1,1,1,0.0,3.0
2021-09-24 12:07:22.097,1008.0,40.0,-23.0,1009.0554989692092,1,1,1,0.0,3.0
2021-09-24 12:07:22.106,1021.0,40.0,-23.0,1022.0420734979554,1,1,1,0.0,3.0
2021-09-24 12:07:22.107,1021.0,20.0,2.0,1021.1978260846428,1,1,1,0.0,3.0
2021-09-24 12:07:22.116,963.0,20.0,2.0,963.209738322864,1,1,1,0.0,3.0
2021-09-24 12:07:22.117,963.0,1.0,1.0,963.0010384210392,1,1,1,0.0,3.0
2021-09-24 12:07:22.126,1075.0,1.0,1.0,1075.0009302321555,1,1,1,0.0,3.0
2021-09-24 12:07:22.127,1075.0,42.0,48.0,1076.8904308238605,1,1,1,0.0,3.0
2021-09-24 12:07:22.136,1006.0,31.0,10.0,1006.5271978441516,1,1,1,0.0,3.0
2021-09-24 12:07:22.145,1019.0,31.0,10.0,1019.52047551778,1,1,1,0.0,3.0
2021-09-24 12:07:22.146,1019.0,39.0,-20.0,1019.94215522254,1,1,1,0.0,3.0
2021-09-24 12:07:22.155,1044.0,33.0,35.0,1045.107649957649,1,1,1,0.0,3.0
2021-09-24 12:07:22.166,976.0,11.0,-15.0,976.1772380054762,1,1,1,0.0,3.0
2021-09-24 12:07:22.176,1064.0,-14.0,-15.0,1064.1978199564214,1,1,1,0.0,3.0
2021-09-24 12:07:22.184,1028.0,64.0,-15.0,1030.0995097562177,1,1,1,0.0,3.0
2021-09-24 12:07:22.185,1028.0,64.0,32.0,1030.4872633856278,1,1,1,0.0,3.0
2021-09-24 12:07:22.194,979.0,46.0,-19.0,980.2642500876996,1,1,1,0.0,3.0
2021-09-24 12:07:22.204,1051.0,-34.0,20.0,1051.7399868788864,1,1,1,0.0,3.0
2021-09-24 12:07:22.214,986.0,16.0,5.0,986.1424846339396,1,1,1,0.0,3.0
2021-09-24 12:07:22.224,1077.0,50.0,57.0,1079.6656889982196,1,1,1,0.0,3.0
2021-09-24 12:07:22.233,1011.0,82.0,18.0,1014.4796695843638,1,1,1,0.0,3.0
2021-09-24 12:07:22.244,1015.0,22.0,15.0,1015.3492010141142,1,1,1,0.0,3.0
2021-09-24 12:07:22.253,1066.0,52.0,32.0,1067.7471610826226,1,1,1,0.0,3.0
2021-09-24 12:07:22.264,1006.0,-2.0,-12.0,1006.0735559590064,1,1,1,0.0,3.0
2021-09-24 12:07:22.272,1044.0,3.0,-12.0,1044.0732732907206,1,1,1,0.0,3.0
2021-09-24 12:07:22.273,1044.0,3.0,-21.0,1044.215495000912,1,1,1,0.0,3.0
2021-09-24 12:07:22.283,1018.0,38.0,-43.0,1019.6161042274686,1,1,1,0.0,3.0
2021-09-24 12:07:22.292,1031.0,62.0,9.0,1032.9017378240778,1,1,1,0.0,3.0
2021-09-24 12:07:22.302,1068.0,-7.0,26.0,1068.3393655575928,1,1,1,0.0,3.0
2021-09-24 12:07:22.312,991.0,-13.0,-2.0,991.0872817264884,1,1,1,0.0,3.0
2021-09-24 12:07:22.321,1058.0,69.0,45.0,1061.2021485089444,1,1,1,0.0,3.0
2021-09-24 12:07:22.331,1026.0,69.0,45.0,1029.3017050408496,1,1,1,0.0,3.0
2021-09-24 12:07:22.332,1026.0,65.0,1.0,1028.0573913940798,1,1,1,0.0,3.0
2021-09-24 12:07:22.341,1016.0,38.0,25.0,1017.0176989610358,1,1,1,0.0,3.0
2021-09-24 12:07:22.350,1030.0,38.0,25.0,1031.0038797211191,1,1,1,0.0,3.0
2021-09-24 12:07:22.351,1030.0,28.0,28.0,1030.7608840075377,1,1,1,0.0,3.0
2021-09-24 12:07:22.360,1003.0,19.0,-20.0,1003.379290198876,1,1,1,0.0,3.0
2021-09-24 12:07:22.371,1045.0,60.0,12.0,1046.7898547464051,1,1,1,0.0,3.0
2021-09-24 12:07:22.380,983.0,32.0,-23.0,983.7896116548498,1,1,1,0.0,3.0
2021-09-24 12:07:22.389,990.0,32.0,-23.0,990.7840329759052,1,1,1,0.0,3.0
2021-09-24 12:07:22.390,990.0,54.0,8.0,991.5039082121664,1,1,1,0.0,3.0
2021-09-24 12:07:22.399,999.0,44.0,8.0,1000.000499999875,1,1,1,0.0,3.0
2021-09-24 12:07:22.400,999.0,44.0,4.0,999.9764997238684,1,1,1,0.0,3.0
2021-09-24 12:07:22.409,967.0,8.0,-7.0,967.0584263631644,1,1,1,0.0,3.0
2021-09-24 12:07:22.420,1078.0,20.0,-7.0,1078.2082359173482,1,1,1,0.0,3.0
2021-09-24 12:07:22.421,1078.0,20.0,40.0,1078.927244998475,1,1,1,0.0,3.0
2021-09-24 12:07:22.428,1024.0,20.0,40.0,1024.9760972822733,1,1,1,0.0,3.0
2021-09-24 12:07:22.429,1024.0,94.0,9.0,1028.344786538056,1,1,1,0.0,3.0
2021-09-24 12:07:22.439,1011.0,6.0,38.0,1011.7316837976362,1,1,1,0.0,3.0
2021-09-24 12:07:22.448,975.0,6.0,38.0,975.758679182512,1,1,1,0.0,3.0
2021-09-24 12:07:22.449,975.0,-25.0,-9.0,975.3619840859084,1,1,1,0.0,3.0
2021-09-24 12:07:22.458,992.0,16.0,-9.0,992.1698443311004,1,1,1,0.0,3.0
2021-09-24 12:07:22.459,992.0,16.0,13.0,992.2141905858836,1,1,1,0.0,3.0
2021-09-24 12:07:22.476,1066.0,94.0,26.0,1070.452240877658,1,1,1,0.0,3.0
2021-09-24 12:07:22.479,1016.0,58.0,-38.0,1018.3633929005892,1,1,1,0.0,3.0
2021-09-24 12:07:22.487,964.0,-3.0,-40.0,964.834182644873,1,1,1,0.0,3.0
2021-09-24 12:07:22.498,985.0,-3.0,-40.0,985.8164129288982,1,1,1,0.0,3.0
2021-09-24 12:07:22.499,985.0,0.0,-12.0,985.0730937346732,1,1,1,0.0,3.0
2021-09-24 12:07:22.507,1012.0,99.0,24.0,1017.1140545681196,1,1,1,0.0,3.0
2021-09-24 12:07:22.516,1034.0,99.0,24.0,1039.0057747673975,1,1,1,0.0,3.0
2021-09-24 12:07:22.517,1034.0,26.0,14.0,1034.4215775011655,1,1,1,0.0,3.0
2021-09-24 12:07:22.526,1028.0,58.0,-1.0,1029.6353723527568,1,1,1,0.0,3.0
2021-09-24 12:07:22.536,973.0,47.0,0.0,974.1344876350493,1,1,1,0.0,3.0
2021-09-24 12:07:22.547,984.0,-7.0,-3.0,984.0294711033812,1,1,1,0.0,3.0
2021-09-24 12:07:22.555,1032.0,-7.0,-3.0,1032.0281003926202,1,1,1,0.0,3.0
2021-09-24 12:07:22.556,1032.0,27.0,-4.0,1032.360886512076,1,1,1,0.0,3.0
2021-09-24 12:07:22.565,1043.0,47.0,23.0,1044.3117350676473,1,1,1,0.0,3.0
2021-09-24 12:07:22.575,999.0,0.0,-40.0,999.800480095904,1,1,1,0.0,3.0
2021-09-24 12:07:22.585,999.0,39.0,-10.0,999.8109821361236,1,1,1,0.0,3.0
2021-09-24 12:07:22.595,986.0,-7.0,11.0,986.0862031283066,1,1,1,0.0,3.0
2021-09-24 12:07:22.609,997.0,58.0,16.0,998.8137964605816,1,1,1,0.0,3.0
2021-09-24 12:07:22.617,1048.0,58.0,16.0,1049.72567845128,1,1,1,0.0,3.0
2021-09-24 12:07:22.618,1048.0,30.0,11.0,1048.4870051650616,1,1,1,0.0,3.0
2021-09-24 12:07:22.624,1028.0,30.0,11.0,1028.4964754436448,1,1,1,0.0,3.0
2021-09-24 12:07:22.625,1028.0,59.0,24.0,1029.9713588250888,1,1,1,0.0,3.0
2021-09-24 12:07:22.633,994.0,59.0,24.0,996.0386538684128,1,1,1,0.0,3.0
2021-09-24 12:07:22.634,994.0,44.0,39.0,995.7374151853488,1,1,1,0.0,3.0
2021-09-24 12:07:22.645,1037.0,8.0,39.0,1037.7639423298538,1,1,1,0.0,3.0
2021-09-24 12:07:22.646,1037.0,8.0,33.0,1037.5557816329683,1,1,1,0.0,3.0
2021-09-24 12:07:22.653,995.0,8.0,33.0,995.5792283891824,1,1,1,0.0,3.0
2021-09-24 12:07:22.654,995.0,34.0,9.0,995.6214139922864,1,1,1,0.0,3.0
2021-09-24 12:07:22.663,1049.0,-32.0,11.0,1049.5456159691205,1,1,1,0.0,3.0
2021-09-24 12:07:22.673,1010.0,13.0,-13.0,1010.1673128744565,1,1,1,0.0,3.0
2021-09-24 12:07:22.682,975.0,42.0,-13.0,975.9907786449623,1,1,1,0.0,3.0
2021-09-24 12:07:22.683,975.0,42.0,-5.0,975.9170046679176,1,1,1,0.0,3.0
2021-09-24 12:07:22.693,1030.0,-29.0,17.0,1030.5483976990115,1,1,1,0.0,3.0
2021-09-24 12:07:22.702,984.0,109.0,12.0,990.0914099213264,1,1,1,0.0,3.0
2021-09-24 12:07:22.712,1046.0,6.0,8.0,1046.0478000550452,1,1,1,0.0,3.0
2021-09-24 12:07:22.722,966.0,-48.0,-40.0,968.0185948627228,1,1,1,0.0,3.0
2021-09-24 12:07:22.732,969.0,15.0,-9.0,969.1578818747748,1,1,1,0.0,3.0
2021-09-24 12:07:22.741,1026.0,-44.0,13.0,1027.0253161436674,1,1,1,0.0,3.0
2021-09-24 12:07:22.751,960.0,51.0,8.0,961.387018843088,1,1,1,0.0,3.0
2021-09-24 12:07:22.761,1057.0,-58.0,8.0,1058.6203285408797,1,1,1,0.0,3.0
2021-09-24 12:07:22.762,1057.0,-58.0,2.0,1058.5919893896798,1,1,1,0.0,3.0
2021-09-24 12:07:22.770,994.0,13.0,2.0,994.0870183238488,1,1,1,0.0,3.0
2021-09-24 12:07:22.771,994.0,13.0,8.0,994.1171963103748,1,1,1,0.0,3.0
2021-09-24 12:07:22.780,1017.0,5.0,-14.0,1017.1086470972508,1,1,1,0.0,3.0
2021-09-24 12:07:22.790,1035.0,61.0,3.0,1036.8003665122808,1,1,1,0.0,3.0
2021-09-24 12:07:22.800,984.0,76.0,-20.0,987.1332230251396,1,1,1,0.0,3.0
2021-09-24 12:07:22.809,1011.0,13.0,-20.0,1011.2813653973852,1,1,1,0.0,3.0
2021-09-24 12:07:22.810,1011.0,13.0,20.0,1011.2813653973852,1,1,1,0.0,3.0
2021-09-24 12:07:22.819,1001.0,37.0,20.0,1001.8832267285444,1,1,1,0.0,3.0
2021-09-24 12:07:22.829,1031.0,63.0,0.0,1032.9230368231702,1,1,1,0.0,3.0
2021-09-24 12:07:22.839,1019.0,63.0,0.0,1020.9456400808028,1,1,1,0.0,3.0
2021-09-24 12:07:22.840,1019.0,38.0,-2.0,1019.7102529640466,1,1,1,0.0,3.0
2021-09-24 12:07:22.848,995.0,38.0,-2.0,995.7273723263812,1,1,1,0.0,3.0
2021-09-24 12:07:22.849,995.0,60.0,-7.0,996.8319818304386,1,1,1,0.0,3.0
2021-09-24 12:07:22.858,1083.0,-20.0,29.0,1083.5727940475435,1,1,1,0.0,3.0
2021-09-24 12:07:22.869,968.0,54.0,-11.0,969.5674293209318,1,1,1,0.0,3.0
2021-09-24 12:07:22.878,992.0,52.0,-11.0,993.4228706849868,1,1,1,0.0,3.0
2021-09-24 12:07:22.879,992.0,52.0,17.0,993.5074232234,1,1,1,0.0,3.0
2021-09-24 12:07:22.888,994.0,-4.0,-38.0,994.7341353346632,1,1,1,0.0,3.0
2021-09-24 12:07:22.898,1051.0,68.0,19.0,1053.3688812567038,1,1,1,0.0,3.0
2021-09-24 12:07:22.907,1053.0,-14.0,5.0,1053.1049330432368,1,1,1,0.0,3.0
2021-09-24 12:07:22.917,964.0,-14.0,5.0,964.1146197418644,1,1,1,0.0,3.0
2021-09-24 12:07:22.918,964.0,3.0,2.0,964.0067427150082,1,1,1,0.0,3.0
2021-09-24 12:07:22.926,1023.0,3.0,2.0,1023.0063538414609,1,1,1,0.0,3.0
2021-09-24 12:07:22.927,1023.0,20.0,14.0,1023.2912586355852,1,1,1,0.0,3.0
2021-09-24 12:07:22.936,992.0,49.0,14.0,993.3081092994258,1,1,1,0.0,3.0
2021-09-24 12:07:22.937,992.0,49.0,-18.0,993.3725383762126,1,1,1,0.0,3.0
2021-09-24 12:07:22.946,1016.0,37.0,36.0,1017.3106703460846,1,1,1,0.0,3.0
2021-09-24 12:07:22.956,974.0,6.0,26.0,974.3654345264922,1,1,1,0.0,3.0
2021-09-24 12:07:22.966,905.0,131.0,-2.0,914.434251327016,1,1,1,0.0,3.0
2021-09-24 12:07:22.975,1083.0,131.0,-2.0,1090.8959620422106,1,1,1,0.0,3.0
2021-09-24 12:07:22.976,1083.0,72.0,9.0,1085.428026172164,1,1,1,0.0,3.0
2021-09-24 12:07:22.992,1020.0,-37.0,7.0,1020.6948613567132,1,1,1,0.0,3.0
2021-09-24 12:07:22.995,900.0,-201.0,21.0,922.4109713137632,1,1,1,0.0,3.0
