time_stamp,Acceleration_X,Acceleration_Y,Acceleration_Z,magnitude,STD_Status_right,STD_Status_left,STD_Status_both,KMeans,KMeans_convert
2021-09-23 17:23:13.987,990.0,114.0,7.0,996.5666059024855,1,1,1,0.0,3.0
2021-09-23 17:23:13.988,990.0,114.0,-26.0,996.88113634475,1,1,1,0.0,3.0
2021-09-23 17:23:13.997,1131.0,-585.0,-26.0,1273.6019786416791,1,1,1,0.0,3.0
2021-09-23 17:23:13.998,1131.0,-585.0,4.0,1273.3428446416149,1,1,1,0.0,3.0
2021-09-23 17:23:14.015,925.0,708.0,61.0,1166.451884991404,1,1,1,0.0,3.0
2021-09-23 17:23:14.018,1115.0,-425.0,61.0,1194.810026740653,1,1,1,0.0,3.0
2021-09-23 17:23:14.019,1115.0,-425.0,20.0,1193.4194568549651,1,1,1,0.0,3.0
2021-09-23 17:23:14.027,1180.0,-89.0,20.0,1183.520595511544,1,1,1,0.0,3.0
2021-09-23 17:23:14.028,1180.0,-89.0,22.0,1183.5560823214082,1,1,1,0.0,3.0
2021-09-23 17:23:14.036,967.0,-89.0,22.0,971.3361930866162,1,1,1,0.0,3.0
2021-09-23 17:23:14.037,967.0,429.0,-43.0,1058.7629574177593,1,1,1,0.0,3.0
2021-09-23 17:23:14.047,1030.0,558.0,34.0,1171.9300320411623,1,1,1,0.0,3.0
2021-09-23 17:23:14.057,798.0,38.0,-21.0,799.1802049600578,1,1,1,0.0,3.0
2021-09-23 17:23:14.066,1225.0,-508.0,52.0,1327.1748189292923,1,1,1,0.0,3.0
2021-09-23 17:23:14.075,847.0,656.0,-30.0,1071.7485712610023,1,1,1,0.0,3.0
2021-09-23 17:23:14.086,1203.0,-511.0,28.0,1307.33086860213,1,1,1,0.0,3.0
2021-09-23 17:23:14.095,926.0,223.0,1.0,952.4736216819864,1,1,1,0.0,3.0
2021-09-23 17:23:14.105,1031.0,223.0,1.0,1054.8416942840286,1,1,1,0.0,3.0
2021-09-23 17:23:14.106,1031.0,-347.0,43.0,1088.6776382382436,1,1,1,0.0,3.0
2021-09-23 17:23:14.114,958.0,-347.0,43.0,1019.8146890489468,1,1,1,0.0,3.0
2021-09-23 17:23:14.115,958.0,534.0,42.0,1097.5809765115282,1,1,1,0.0,3.0
2021-09-23 17:23:14.125,976.0,-80.0,40.0,980.0897918048122,1,1,1,0.0,3.0
2021-09-23 17:23:14.134,1159.0,-80.0,40.0,1162.4461277839932,1,1,1,0.0,3.0
2021-09-23 17:23:14.135,1159.0,-298.0,40.0,1197.3658588752228,1,1,1,0.0,3.0
2021-09-23 17:23:14.139,1159.0,-298.0,-7.0,1196.7180118975398,1,1,1,0.0,3.0
2021-09-23 17:23:14.144,897.0,-298.0,-7.0,945.23118865175,1,1,1,0.0,3.0
2021-09-23 17:23:14.145,897.0,535.0,-54.0,1045.8250331675945,1,1,1,0.0,3.0
2021-09-23 17:23:14.154,1204.0,-577.0,13.0,1335.1831335064117,1,1,1,0.0,3.0
2021-09-23 17:23:14.163,926.0,502.0,-42.0,1054.1555862395269,1,1,1,0.0,3.0
2021-09-23 17:23:14.173,1075.0,-412.0,56.0,1152.6079125183896,1,1,1,0.0,3.0
2021-09-23 17:23:14.183,933.0,529.0,33.0,1073.041937670658,1,1,1,0.0,3.0
2021-09-23 17:23:14.193,1118.0,-219.0,33.0,1139.7254055253836,1,1,1,0.0,3.0
2021-09-23 17:23:14.194,1118.0,-219.0,80.0,1142.0529760041782,1,1,1,0.0,3.0
2021-09-23 17:23:14.203,1067.0,-63.0,-55.0,1070.2723952340357,1,1,1,0.0,3.0
2021-09-23 17:23:14.213,993.0,249.0,-4.0,1023.7509462755088,1,1,1,0.0,3.0
2021-09-23 17:23:14.222,988.0,261.0,32.0,1022.393759761864,1,1,1,0.0,3.0
2021-09-23 17:23:14.233,854.0,305.0,-20.0,907.0507152304108,1,1,1,0.0,3.0
2021-09-23 17:23:14.242,1170.0,-473.0,57.0,1263.280649737025,1,1,1,0.0,3.0
2021-09-23 17:23:14.251,895.0,512.0,-19.0,1031.2759087654476,1,1,1,0.0,3.0
2021-09-23 17:23:14.262,1184.0,-398.0,6.0,1249.11808889312,1,1,1,0.0,3.0
2021-09-23 17:23:14.271,941.0,144.0,-25.0,952.2825211039,1,1,1,0.0,3.0
2021-09-23 17:23:14.281,962.0,-256.0,-10.0,995.53000959288,1,1,1,0.0,3.0
2021-09-23 17:23:14.291,1019.0,444.0,37.0,1112.144774748324,1,1,1,0.0,3.0
2021-09-23 17:23:14.300,972.0,-79.0,5.0,975.2179243635752,1,1,1,0.0,3.0
2021-09-23 17:23:14.311,1130.0,-304.0,-6.0,1170.193146450619,1,1,1,0.0,3.0
2021-09-23 17:23:14.321,860.0,620.0,-26.0,1060.5074257165766,1,1,1,0.0,3.0
2021-09-23 17:23:14.330,1250.0,-560.0,8.0,1369.7313605229313,1,1,1,0.0,3.0
2021-09-23 17:23:14.339,927.0,-560.0,8.0,1083.0480137094569,1,1,1,0.0,3.0
2021-09-23 17:23:14.340,927.0,596.0,-46.0,1103.0235718242834,1,1,1,0.0,3.0
2021-09-23 17:23:14.350,1025.0,596.0,-46.0,1186.573638675662,1,1,1,0.0,3.0
2021-09-23 17:23:14.353,1025.0,-368.0,28.0,1089.41865230957,1,1,1,0.0,3.0
2021-09-23 17:23:14.358,958.0,-368.0,28.0,1026.6313846751425,1,1,1,0.0,3.0
2021-09-23 17:23:14.359,958.0,486.0,44.0,1075.1260391228557,1,1,1,0.0,3.0
2021-09-23 17:23:14.368,1086.0,-186.0,68.0,1103.9094165736608,1,1,1,0.0,3.0
2021-09-23 17:23:14.379,1098.0,-179.0,-58.0,1114.0058348141629,1,1,1,0.0,3.0
2021-09-23 17:23:14.388,1038.0,-139.0,26.0,1047.588182445755,1,1,1,0.0,3.0
2021-09-23 17:23:14.398,994.0,266.0,12.0,1029.046160286311,1,1,1,0.0,3.0
2021-09-23 17:23:14.408,836.0,340.0,-26.0,902.868761227234,1,1,1,0.0,3.0
2021-09-23 17:23:14.419,1156.0,-479.0,54.0,1252.474750244491,1,1,1,0.0,3.0
2021-09-23 17:23:14.427,861.0,507.0,-7.0,999.2091873076428,1,1,1,0.0,3.0
2021-09-23 17:23:14.437,1182.0,-286.0,51.0,1217.1774726801348,1,1,1,0.0,3.0
2021-09-23 17:23:14.446,993.0,-286.0,51.0,1034.62360305572,1,1,1,0.0,3.0
2021-09-23 17:23:14.447,993.0,589.0,48.0,1155.5405661420978,1,1,1,0.0,3.0
2021-09-23 17:23:14.469,1018.0,-266.0,-55.0,1053.6152049016755,1,1,1,0.0,3.0
2021-09-23 17:23:14.471,952.0,-266.0,-55.0,989.992424213438,1,1,1,0.0,3.0
2021-09-23 17:23:14.472,952.0,493.0,63.0,1073.9283030072352,1,1,1,0.0,3.0
2021-09-23 17:23:14.476,927.0,72.0,0.0,929.7919122040156,1,1,1,0.0,3.0
2021-09-23 17:23:14.486,1128.0,-364.0,36.0,1185.8229210130828,1,1,1,0.0,3.0
2021-09-23 17:23:14.495,881.0,552.0,36.0,1040.2696765743003,1,1,1,0.0,3.0
2021-09-23 17:23:14.496,881.0,552.0,-51.0,1040.896728787251,1,1,1,0.0,3.0
2021-09-23 17:23:14.506,990.0,-218.0,-51.0,1015.0,1,1,1,0.0,3.0
2021-09-23 17:23:14.507,990.0,-218.0,-62.0,1015.6121306876952,1,1,1,0.0,3.0
2021-09-23 17:23:14.516,953.0,-218.0,-62.0,979.5800120459788,1,1,1,0.0,3.0
2021-09-23 17:23:14.517,953.0,524.0,-27.0,1087.894296335816,1,1,1,0.0,3.0
2021-09-23 17:23:14.524,997.0,524.0,-27.0,1126.6383625636045,1,1,1,0.0,3.0
2021-09-23 17:23:14.525,997.0,-260.0,22.0,1030.5789634957623,1,1,1,0.0,3.0
2021-09-23 17:23:14.534,970.0,516.0,22.0,1098.926749151189,1,1,1,0.0,3.0
2021-09-23 17:23:14.535,970.0,516.0,43.0,1099.5476342569248,1,1,1,0.0,3.0
2021-09-23 17:23:14.544,1022.0,-74.0,67.0,1026.8636715747616,1,1,1,0.0,3.0
2021-09-23 17:23:14.569,1090.0,-310.0,-20.0,1133.4019587066189,1,1,1,0.0,3.0
2021-09-23 17:23:14.570,1051.0,-209.0,43.0,1072.441606801974,1,1,1,0.0,3.0
2021-09-23 17:23:14.574,1020.0,20.0,-26.0,1020.5273146760944,1,1,1,0.0,3.0
2021-09-23 17:23:14.583,934.0,455.0,-21.0,1039.1448407224086,1,1,1,0.0,3.0
2021-09-23 17:23:14.593,1003.0,-377.0,47.0,1072.542306857869,1,1,1,0.0,3.0
2021-09-23 17:23:14.604,959.0,598.0,62.0,1131.8696921465828,1,1,1,0.0,3.0
2021-09-23 17:23:14.612,1096.0,-213.0,65.0,1118.3961730978876,1,1,1,0.0,3.0
2021-09-23 17:23:14.622,927.0,-213.0,65.0,953.3745329092864,1,1,1,0.0,3.0
2021-09-23 17:23:14.623,927.0,477.0,52.0,1043.820865857739,1,1,1,0.0,3.0
2021-09-23 17:23:14.632,1020.0,-161.0,-25.0,1032.9307818048603,1,1,1,0.0,3.0
2021-09-23 17:23:14.642,958.0,330.0,77.0,1016.1658329229537,1,1,1,0.0,3.0
2021-09-23 17:23:14.652,843.0,330.0,77.0,908.5581984661192,1,1,1,0.0,3.0
2021-09-23 17:23:14.653,843.0,349.0,-13.0,912.4795888128128,1,1,1,0.0,3.0
2021-09-23 17:23:14.661,1084.0,349.0,-13.0,1138.8704930763638,1,1,1,0.0,3.0
2021-09-23 17:23:14.662,1084.0,-474.0,-2.0,1183.104390998529,1,1,1,0.0,3.0
2021-09-23 17:23:14.671,920.0,596.0,-2.0,1096.1842910751825,1,1,1,0.0,3.0
2021-09-23 17:23:14.672,920.0,596.0,32.0,1096.6494426205668,1,1,1,0.0,3.0
2021-09-23 17:23:14.680,1039.0,596.0,32.0,1198.2324482336471,1,1,1,0.0,3.0
2021-09-23 17:23:14.681,1039.0,-388.0,2.0,1109.0847578070848,1,1,1,0.0,3.0
2021-09-23 17:23:14.696,1003.0,552.0,-7.0,1144.8851470780814,1,1,1,0.0,3.0
2021-09-23 17:23:14.701,991.0,-325.0,-11.0,1042.9894534461985,1,1,1,0.0,3.0
2021-09-23 17:23:14.711,1004.0,416.0,13.0,1086.8491155629654,1,1,1,0.0,3.0
2021-09-23 17:23:14.720,938.0,13.0,49.0,939.368937106183,1,1,1,0.0,3.0
2021-09-23 17:23:14.729,1163.0,-410.0,49.0,1234.127221967006,1,1,1,0.0,3.0
2021-09-23 17:23:14.730,1163.0,-410.0,-28.0,1233.4719291495855,1,1,1,0.0,3.0
2021-09-23 17:23:14.739,1120.0,-171.0,43.0,1133.7945140103652,1,1,1,0.0,3.0
2021-09-23 17:23:14.749,1007.0,-162.0,-21.0,1020.163712352091,1,1,1,0.0,3.0
2021-09-23 17:23:14.760,897.0,563.0,-25.0,1059.3408327823486,1,1,1,0.0,3.0
2021-09-23 17:23:14.768,1033.0,563.0,-25.0,1176.7255414921526,1,1,1,0.0,3.0
2021-09-23 17:23:14.769,1033.0,-320.0,50.0,1082.584407794607,1,1,1,0.0,3.0
2021-09-23 17:23:14.779,923.0,531.0,67.0,1066.948452363093,1,1,1,0.0,3.0
2021-09-23 17:23:14.788,1138.0,-547.0,60.0,1264.0621029047584,1,1,1,0.0,3.0
2021-09-23 17:23:14.798,994.0,391.0,48.0,1069.2151327024883,1,1,1,0.0,3.0
2021-09-23 17:23:14.808,1020.0,391.0,48.0,1093.42809548685,1,1,1,0.0,3.0
2021-09-23 17:23:14.809,1020.0,-132.0,28.0,1028.886777055668,1,1,1,0.0,3.0
2021-09-23 17:23:14.817,993.0,-132.0,28.0,1002.1262395526824,1,1,1,0.0,3.0
2021-09-23 17:23:14.818,993.0,199.0,-7.0,1012.767989225568,1,1,1,0.0,3.0
2021-09-23 17:23:14.828,903.0,338.0,8.0,964.2183362703698,1,1,1,0.0,3.0
2021-09-23 17:23:14.838,1089.0,-415.0,26.0,1165.6852062199298,1,1,1,0.0,3.0
2021-09-23 17:23:14.847,968.0,155.0,-10.0,980.382068379466,1,1,1,0.0,3.0
2021-09-23 17:23:14.856,1103.0,155.0,-10.0,1113.8823995377609,1,1,1,0.0,3.0
2021-09-23 17:23:14.857,1103.0,-521.0,-11.0,1219.9061439307534,1,1,1,0.0,3.0
2021-09-23 17:23:14.867,945.0,549.0,16.0,1093.0150959616249,1,1,1,0.0,3.0
2021-09-23 17:23:14.876,1013.0,-245.0,16.0,1042.329122686304,1,1,1,0.0,3.0
2021-09-23 17:23:14.877,1013.0,-245.0,-18.0,1042.3617414314476,1,1,1,0.0,3.0
2021-09-23 17:23:14.886,930.0,391.0,67.0,1011.0736867310908,1,1,1,0.0,3.0
2021-09-23 17:23:14.895,903.0,184.0,67.0,923.988095161404,1,1,1,0.0,3.0
2021-09-23 17:23:14.896,903.0,184.0,7.0,921.5823349001432,1,1,1,0.0,3.0
2021-09-23 17:23:14.905,936.0,268.0,-1.0,973.6123458543448,1,1,1,0.0,3.0
2021-09-23 17:23:14.916,1068.0,-110.0,62.0,1075.4385152113532,1,1,1,0.0,3.0
2021-09-23 17:23:14.925,1046.0,-343.0,62.0,1102.5465976547205,1,1,1,0.0,3.0
2021-09-23 17:23:14.926,1046.0,-343.0,-43.0,1101.6415024861765,1,1,1,0.0,3.0
2021-09-23 17:23:14.934,973.0,-343.0,-43.0,1032.582684340581,1,1,1,0.0,3.0
2021-09-23 17:23:14.935,973.0,537.0,-21.0,1111.5480196554713,1,1,1,0.0,3.0
2021-09-23 17:23:14.944,1030.0,537.0,-21.0,1161.7702010294463,1,1,1,0.0,3.0
2021-09-23 17:23:14.945,1030.0,-284.0,-21.0,1068.6425969424952,1,1,1,0.0,3.0
2021-09-23 17:23:14.957,946.0,527.0,49.0,1083.995387444061,1,1,1,0.0,3.0
2021-09-23 17:23:14.965,1119.0,527.0,49.0,1237.85742313079,1,1,1,0.0,3.0
2021-09-23 17:23:14.966,1119.0,-513.0,60.0,1232.448781897244,1,1,1,0.0,3.0
2021-09-23 17:23:14.973,946.0,-513.0,60.0,1077.8149191767573,1,1,1,0.0,3.0
2021-09-23 17:23:14.974,946.0,375.0,-30.0,1018.0574639969984,1,1,1,0.0,3.0
2021-09-23 17:23:14.984,1097.0,-187.0,65.0,1114.7210413372486,1,1,1,0.0,3.0
2021-09-23 17:23:14.993,1007.0,61.0,65.0,1010.937683539396,1,1,1,0.0,3.0
2021-09-23 17:23:14.994,1007.0,61.0,4.0,1008.8538050679098,1,1,1,0.0,3.0
2021-09-23 17:23:15.003,848.0,458.0,-40.0,964.607692277021,1,1,1,0.0,3.0
2021-09-23 17:23:15.013,1013.0,458.0,-40.0,1112.4446053624424,1,1,1,0.0,3.0
2021-09-23 17:23:15.014,1013.0,-70.0,-62.0,1017.3067384029264,1,1,1,0.0,3.0
2021-09-23 17:23:15.029,915.0,-70.0,-62.0,919.7657310424216,1,1,1,0.0,3.0
2021-09-23 17:23:15.030,915.0,178.0,-26.0,932.5154154221794,1,1,1,0.0,3.0
2021-09-23 17:23:15.033,1184.0,178.0,-26.0,1197.5875750858472,1,1,1,0.0,3.0
2021-09-23 17:23:15.034,1184.0,-569.0,11.0,1313.6734754116032,1,1,1,0.0,3.0
2021-09-23 17:23:15.042,914.0,520.0,67.0,1053.7006216188734,1,1,1,0.0,3.0
2021-09-23 17:23:15.053,1063.0,-114.0,-6.0,1069.11224855017,1,1,1,0.0,3.0
2021-09-23 17:23:15.062,892.0,-114.0,-6.0,899.2752637540966,1,1,1,0.0,3.0
2021-09-23 17:23:15.063,892.0,206.0,50.0,916.8424073961676,1,1,1,0.0,3.0
2021-09-23 17:23:15.071,1111.0,-437.0,6.0,1193.870177196834,1,1,1,0.0,3.0
2021-09-23 17:23:15.082,999.0,140.0,-4.0,1008.770043171386,1,1,1,0.0,3.0
2021-09-23 17:23:15.091,994.0,140.0,-4.0,1003.8187087318108,1,1,1,0.0,3.0
2021-09-23 17:23:15.092,994.0,13.0,-3.0,994.08953319105,1,1,1,0.0,3.0
2021-09-23 17:23:15.102,1050.0,-376.0,-3.0,1115.2959248558204,1,1,1,0.0,3.0
2021-09-23 17:23:15.103,1050.0,-376.0,-16.0,1115.4066523021995,1,1,1,0.0,3.0
2021-09-23 17:23:15.110,955.0,543.0,3.0,1098.5822681984266,1,1,1,0.0,3.0
2021-09-23 17:23:15.120,1054.0,-260.0,29.0,1085.982044050453,1,1,1,0.0,3.0
2021-09-23 17:23:15.131,893.0,579.0,-6.0,1064.2960114554596,1,1,1,0.0,3.0
2021-09-23 17:23:15.141,1213.0,579.0,-6.0,1344.1153224333098,1,1,1,0.0,3.0
2021-09-23 17:23:15.142,1213.0,-503.0,21.0,1313.323646326373,1,1,1,0.0,3.0
2021-09-23 17:23:15.152,934.0,330.0,-9.0,990.624550473084,1,1,1,0.0,3.0
2021-09-23 17:23:15.159,1085.0,-88.0,58.0,1090.106875494325,1,1,1,0.0,3.0
2021-09-23 17:23:15.169,1012.0,-233.0,-30.0,1038.9095244534049,1,1,1,0.0,3.0
2021-09-23 17:23:15.179,895.0,489.0,-34.0,1020.4420610696131,1,1,1,0.0,3.0
2021-09-23 17:23:15.190,1073.0,-215.0,-38.0,1094.9876711634702,1,1,1,0.0,3.0
2021-09-23 17:23:15.198,962.0,246.0,-38.0,993.682041701469,1,1,1,0.0,3.0
2021-09-23 17:23:15.199,962.0,246.0,-65.0,995.0803987618287,1,1,1,0.0,3.0
2021-09-23 17:23:15.208,1159.0,-549.0,63.0,1283.9980529580253,1,1,1,0.0,3.0
2021-09-23 17:23:15.218,926.0,421.0,-23.0,1017.470392689635,1,1,1,0.0,3.0
2021-09-23 17:23:15.227,1056.0,421.0,-23.0,1137.0602446660423,1,1,1,0.0,3.0
2021-09-23 17:23:15.228,1056.0,-134.0,83.0,1067.6989276008476,1,1,1,0.0,3.0
2021-09-23 17:23:15.238,1018.0,81.0,-14.0,1021.3133701269164,1,1,1,0.0,3.0
2021-09-23 17:23:15.247,1107.0,-323.0,15.0,1153.2575601313004,1,1,1,0.0,3.0
2021-09-23 17:23:15.257,1001.0,12.0,15.0,1001.184298718273,1,1,1,0.0,3.0
2021-09-23 17:23:15.258,1001.0,12.0,12.0,1001.1438458083832,1,1,1,0.0,3.0
2021-09-23 17:23:15.267,985.0,130.0,-34.0,994.1232317977484,1,1,1,0.0,3.0
2021-09-23 17:23:15.276,1097.0,-525.0,-23.0,1216.3728869059848,1,1,1,0.0,3.0
2021-09-23 17:23:15.287,971.0,541.0,33.0,1112.0301254912115,1,1,1,0.0,3.0
2021-09-23 17:23:15.296,1054.0,541.0,33.0,1185.1944988059977,1,1,1,0.0,3.0
2021-09-23 17:23:15.297,1054.0,-261.0,-61.0,1087.546780603023,1,1,1,0.0,3.0
2021-09-23 17:23:15.306,872.0,623.0,-12.0,1071.7541695743478,1,1,1,0.0,3.0
2021-09-23 17:23:15.316,1163.0,-474.0,39.0,1256.4895542741292,1,1,1,0.0,3.0
2021-09-23 17:23:15.325,962.0,264.0,-19.0,997.747964167304,1,1,1,0.0,3.0
2021-09-23 17:23:15.336,1004.0,-31.0,35.0,1005.0880558438648,1,1,1,0.0,3.0
2021-09-23 17:23:15.346,1060.0,-362.0,-46.0,1121.0530763527656,1,1,1,0.0,3.0
2021-09-23 17:23:15.354,1033.0,-362.0,-46.0,1095.5587615459062,1,1,1,0.0,3.0
2021-09-23 17:23:15.355,1033.0,-11.0,45.0,1034.0382004548962,1,1,1,0.0,3.0
2021-09-23 17:23:15.365,1068.0,-393.0,-20.0,1138.188472969218,1,1,1,0.0,3.0
2021-09-23 17:23:15.377,923.0,408.0,-42.0,1010.0282174276124,1,1,1,0.0,3.0
2021-09-23 17:23:15.384,1130.0,-461.0,61.0,1221.9418971456869,1,1,1,0.0,3.0
2021-09-23 17:23:15.395,894.0,-461.0,61.0,1007.7092834741576,1,1,1,0.0,3.0
2021-09-23 17:23:15.396,894.0,432.0,-33.0,993.453068846234,1,1,1,0.0,3.0
2021-09-23 17:23:15.404,1077.0,-130.0,55.0,1086.210845094082,1,1,1,0.0,3.0
2021-09-23 17:23:15.413,934.0,646.0,37.0,1136.239851439827,1,1,1,0.0,3.0
2021-09-23 17:23:15.423,1107.0,-274.0,51.0,1141.5454436858831,1,1,1,0.0,3.0
2021-09-23 17:23:15.433,1016.0,-100.0,-34.0,1021.4754035217882,1,1,1,0.0,3.0
2021-09-23 17:23:15.442,1041.0,142.0,6.0,1050.6574132418236,1,1,1,0.0,3.0
2021-09-23 17:23:15.453,1166.0,-500.0,0.0,1268.6827814706087,1,1,1,0.0,3.0
2021-09-23 17:23:15.462,902.0,453.0,49.0,1010.551334668358,1,1,1,0.0,3.0
2021-09-23 17:23:15.481,1111.0,-373.0,36.0,1172.4956289897204,1,1,1,0.0,3.0
2021-09-23 17:23:15.484,958.0,548.0,11.0,1103.7159960787014,1,1,1,0.0,3.0
2021-09-23 17:23:15.492,1121.0,-480.0,16.0,1219.5478670392563,1,1,1,0.0,3.0
2021-09-23 17:23:15.502,1012.0,74.0,-6.0,1014.7196657205378,1,1,1,0.0,3.0
2021-09-23 17:23:15.511,986.0,74.0,-6.0,988.7911811904472,1,1,1,0.0,3.0
2021-09-23 17:23:15.512,986.0,77.0,0.0,989.002022242624,1,1,1,0.0,3.0
2021-09-23 17:23:15.522,1087.0,-396.0,-9.0,1156.9209134595155,1,1,1,0.0,3.0
2021-09-23 17:23:15.530,967.0,95.0,-9.0,971.6969692244594,1,1,1,0.0,3.0
2021-09-23 17:23:15.531,967.0,95.0,39.0,972.43765867021,1,1,1,0.0,3.0
2021-09-23 17:23:15.541,1096.0,-398.0,-35.0,1166.5526134727058,1,1,1,0.0,3.0
2021-09-23 17:23:15.551,863.0,534.0,9.0,1014.8921124927516,1,1,1,0.0,3.0
2021-09-23 17:23:15.560,1224.0,-513.0,23.0,1327.356018557192,1,1,1,0.0,3.0
2021-09-23 17:23:15.570,935.0,291.0,-2.0,979.2395008372569,1,1,1,0.0,3.0
2021-09-23 17:23:15.587,1044.0,-42.0,39.0,1045.5720922059843,1,1,1,0.0,3.0
2021-09-23 17:23:15.591,908.0,602.0,24.0,1089.6990410200424,1,1,1,0.0,3.0
2021-09-23 17:23:15.599,1071.0,-92.0,48.0,1076.0153344632222,1,1,1,0.0,3.0
2021-09-23 17:23:15.609,1096.0,-92.0,48.0,1100.901448813653,1,1,1,0.0,3.0
2021-09-23 17:23:15.610,1096.0,-244.0,1.0,1122.8325787934727,1,1,1,0.0,3.0
2021-09-23 17:23:15.618,961.0,-244.0,1.0,991.4928138922642,1,1,1,0.0,3.0
2021-09-23 17:23:15.619,961.0,234.0,-69.0,991.4827280391728,1,1,1,0.0,3.0
2021-09-23 17:23:15.628,1191.0,-533.0,62.0,1306.2978220911186,1,1,1,0.0,3.0
2021-09-23 17:23:15.638,886.0,485.0,-14.0,1010.156918503259,1,1,1,0.0,3.0
2021-09-23 17:23:15.647,1116.0,-309.0,-14.0,1158.0729683400782,1,1,1,0.0,3.0
2021-09-23 17:23:15.648,1116.0,-309.0,19.0,1158.144205183448,1,1,1,0.0,3.0
2021-09-23 17:23:15.658,922.0,561.0,36.0,1079.8615652017622,1,1,1,0.0,3.0
2021-09-23 17:23:15.668,1093.0,561.0,36.0,1229.0915344269522,1,1,1,0.0,3.0
2021-09-23 17:23:15.669,1093.0,-365.0,17.0,1152.4595437584785,1,1,1,0.0,3.0
2021-09-23 17:23:15.677,1005.0,-31.0,24.0,1005.7643859274398,1,1,1,0.0,3.0
2021-09-23 17:23:15.687,915.0,136.0,-49.0,926.3487464232896,1,1,1,0.0,3.0
2021-09-23 17:23:15.696,1130.0,-485.0,-20.0,1229.847551528237,1,1,1,0.0,3.0
2021-09-23 17:23:15.713,918.0,178.0,27.0,935.4875734075788,1,1,1,0.0,3.0
2021-09-23 17:23:15.716,1147.0,178.0,27.0,1161.0434961705785,1,1,1,0.0,3.0
2021-09-23 17:23:15.717,1147.0,-407.0,-28.0,1217.3914736024726,1,1,1,0.0,3.0
2021-09-23 17:23:15.725,887.0,-407.0,-28.0,976.3206440509184,1,1,1,0.0,3.0
2021-09-23 17:23:15.726,887.0,565.0,10.0,1051.710036084091,1,1,1,0.0,3.0
2021-09-23 17:23:15.735,1163.0,565.0,10.0,1293.0174012750176,1,1,1,0.0,3.0
2021-09-23 17:23:15.736,1163.0,-560.0,13.0,1290.8671504070433,1,1,1,0.0,3.0
2021-09-23 17:23:15.746,915.0,316.0,-6.0,968.0480359982143,1,1,1,0.0,3.0
2021-09-23 17:23:15.756,1048.0,36.0,42.0,1049.45890819984,1,1,1,0.0,3.0
2021-09-23 17:23:15.768,942.0,587.0,33.0,1110.4152376476109,1,1,1,0.0,3.0
2021-09-23 17:23:15.775,1085.0,-7.0,55.0,1086.4156663082506,1,1,1,0.0,3.0
2021-09-23 17:23:15.784,1097.0,-386.0,-13.0,1163.002149611083,1,1,1,0.0,3.0
2021-09-23 17:23:15.795,927.0,322.0,-58.0,983.0447599168616,1,1,1,0.0,3.0
2021-09-23 17:23:15.805,1147.0,322.0,-58.0,1192.751860195573,1,1,1,0.0,3.0
2021-09-23 17:23:15.806,1147.0,-488.0,52.0,1247.5804583272377,1,1,1,0.0,3.0
2021-09-23 17:23:15.813,936.0,-488.0,52.0,1056.8557138985434,1,1,1,0.0,3.0
2021-09-23 17:23:15.814,936.0,306.0,-23.0,985.018273942164,1,1,1,0.0,3.0
2021-09-23 17:23:15.823,1083.0,306.0,-23.0,1125.6349319384149,1,1,1,0.0,3.0
2021-09-23 17:23:15.824,1083.0,-240.0,7.0,1109.2961732558172,1,1,1,0.0,3.0
2021-09-23 17:23:15.833,922.0,-240.0,7.0,952.7502295985028,1,1,1,0.0,3.0
2021-09-23 17:23:15.834,922.0,660.0,61.0,1135.5197048048087,1,1,1,0.0,3.0
2021-09-23 17:23:15.843,1072.0,-309.0,61.0,1117.3119528582874,1,1,1,0.0,3.0
2021-09-23 17:23:15.844,1072.0,-309.0,26.0,1115.9484755130943,1,1,1,0.0,3.0
2021-09-23 17:23:15.854,1003.0,-129.0,9.0,1011.3016365061416,1,1,1,0.0,3.0
2021-09-23 17:23:15.862,1010.0,-129.0,9.0,1018.2445678715897,1,1,1,0.0,3.0
2021-09-23 17:23:15.863,1010.0,86.0,-15.0,1013.7657520354492,1,1,1,0.0,3.0
2021-09-23 17:23:15.872,953.0,354.0,-15.0,1016.7349703831378,1,1,1,0.0,3.0
2021-09-23 17:23:15.873,953.0,354.0,112.0,1022.7751463542708,1,1,1,0.0,3.0
2021-09-23 17:23:15.882,914.0,296.0,-34.0,961.3365695738408,1,1,1,0.0,3.0
2021-09-23 17:23:15.892,1141.0,-392.0,43.0,1207.225745252312,1,1,1,0.0,3.0
2021-09-23 17:23:15.901,921.0,565.0,-27.0,1080.8306990458775,1,1,1,0.0,3.0
2021-09-23 17:23:15.912,1093.0,-466.0,28.0,1188.5238743920966,1,1,1,0.0,3.0
2021-09-23 17:23:15.922,1000.0,86.0,-12.0,1003.762920215725,1,1,1,0.0,3.0
2021-09-23 17:23:15.931,1063.0,-345.0,0.0,1117.5840013171269,1,1,1,0.0,3.0
2021-09-23 17:23:15.940,958.0,565.0,3.0,1112.2041179567714,1,1,1,0.0,3.0
2021-09-23 17:23:15.951,1008.0,139.0,48.0,1018.6702115994163,1,1,1,0.0,3.0
2021-09-23 17:23:15.961,1070.0,-428.0,-37.0,1153.0190805012726,1,1,1,0.0,3.0
2021-09-23 17:23:15.973,892.0,-428.0,-37.0,990.0590891456934,1,1,1,0.0,3.0
2021-09-23 17:23:15.974,892.0,448.0,14.0,998.2805216971832,1,1,1,0.0,3.0
2021-09-23 17:23:15.980,1210.0,-518.0,33.0,1316.629408755554,1,1,1,0.0,3.0
2021-09-23 17:23:15.990,879.0,467.0,-22.0,995.5973081522468,1,1,1,0.0,3.0
2021-09-23 17:23:16.000,1054.0,-338.0,46.0,1107.8248959109017,1,1,1,0.0,3.0
2021-09-23 17:23:16.010,899.0,675.0,20.0,1124.3780503015878,1,1,1,0.0,3.0
2021-09-23 17:23:16.018,1050.0,675.0,20.0,1248.4089874716535,1,1,1,0.0,3.0
2021-09-23 17:23:16.019,1050.0,-44.0,40.0,1051.6824615823923,1,1,1,0.0,3.0
2021-09-23 17:23:16.028,1082.0,-44.0,40.0,1083.6327791276894,1,1,1,0.0,3.0
2021-09-23 17:23:16.029,1082.0,-334.0,-1.0,1132.3784703004558,1,1,1,0.0,3.0
2021-09-23 17:23:16.038,1021.0,-142.0,50.0,1032.039243439899,1,1,1,0.0,3.0
2021-09-23 17:23:16.053,952.0,96.0,24.0,957.1290404120022,1,1,1,0.0,3.0
2021-09-23 17:23:16.059,914.0,410.0,4.0,1001.7544609334166,1,1,1,0.0,3.0
2021-09-23 17:23:16.067,1104.0,410.0,4.0,1177.6807716864532,1,1,1,0.0,3.0
2021-09-23 17:23:16.068,1104.0,-302.0,-21.0,1144.7536852965357,1,1,1,0.0,3.0
2021-09-23 17:23:16.077,930.0,608.0,-21.0,1111.3077881487195,1,1,1,0.0,3.0
2021-09-23 17:23:16.078,930.0,608.0,46.0,1112.0611493978197,1,1,1,0.0,3.0
2021-09-23 17:23:16.088,1076.0,-433.0,2.0,1159.8573188112407,1,1,1,0.0,3.0
2021-09-23 17:23:16.097,891.0,630.0,16.0,1091.3464161300938,1,1,1,0.0,3.0
2021-09-23 17:23:16.106,1026.0,630.0,16.0,1204.089697655453,1,1,1,0.0,3.0
2021-09-23 17:23:16.107,1026.0,-326.0,-17.0,1076.6805468661537,1,1,1,0.0,3.0
2021-09-23 17:23:16.117,975.0,409.0,17.0,1057.4473982189377,1,1,1,0.0,3.0
2021-09-23 17:23:16.126,934.0,207.0,17.0,956.814506578992,1,1,1,0.0,3.0
2021-09-23 17:23:16.127,934.0,207.0,11.0,956.7267112399444,1,1,1,0.0,3.0
2021-09-23 17:23:16.137,1070.0,-196.0,57.0,1089.2956439828445,1,1,1,0.0,3.0
2021-09-23 17:23:16.146,916.0,142.0,-41.0,927.8475090228998,1,1,1,0.0,3.0
2021-09-23 17:23:16.155,908.0,256.0,68.0,945.8456533705696,1,1,1,0.0,3.0
2021-09-23 17:23:16.166,964.0,-112.0,42.0,971.392814467968,1,1,1,0.0,3.0
2021-09-23 17:23:16.175,1017.0,134.0,-13.0,1025.8723117425482,1,1,1,0.0,3.0
2021-09-23 17:23:16.185,955.0,115.0,-35.0,962.5357136231362,1,1,1,0.0,3.0
2021-09-23 17:23:16.195,1013.0,-109.0,42.0,1019.7127046379288,1,1,1,0.0,3.0
2021-09-23 17:23:16.204,1036.0,-109.0,42.0,1042.5646262942169,1,1,1,0.0,3.0
2021-09-23 17:23:16.205,1036.0,20.0,-16.0,1036.3165539544373,1,1,1,0.0,3.0
2021-09-23 17:23:16.214,1007.0,15.0,-16.0,1007.23879988809,1,1,1,0.0,3.0
2021-09-23 17:23:16.215,1007.0,15.0,6.0,1007.1295845123408,1,1,1,0.0,3.0
2021-09-23 17:23:16.224,1020.0,63.0,6.0,1021.9613495626926,1,1,1,0.0,3.0
2021-09-23 17:23:16.225,1020.0,63.0,0.0,1021.943736220346,1,1,1,0.0,3.0
2021-09-23 17:23:16.233,1009.0,28.0,9.0,1009.4285512110304,1,1,1,0.0,3.0
2021-09-23 17:23:16.244,1012.0,28.0,7.0,1012.4114776117466,1,1,1,0.0,3.0
2021-09-23 17:23:16.254,1009.0,35.0,4.0,1009.6147780217958,1,1,1,0.0,3.0
2021-09-23 17:23:16.263,1020.0,35.0,2.0,1020.602273170112,1,1,1,0.0,3.0
2021-09-23 17:23:16.273,1015.0,38.0,10.0,1015.7603063715376,1,1,1,0.0,3.0
2021-09-23 17:23:16.283,1012.0,27.0,14.0,1012.4569126634476,1,1,1,0.0,3.0
2021-09-23 17:23:16.292,989.0,27.0,14.0,989.4675335755084,1,1,1,0.0,3.0
2021-09-23 17:23:16.293,989.0,33.0,5.0,989.5630348795372,1,1,1,0.0,3.0
2021-09-23 17:23:16.986,995.0,26.0,5.0,995.3521989728058,1,1,1,0.0,3.0
2021-09-23 17:23:16.995,1012.0,26.0,4.0,1012.3418394988918,1,1,1,0.0,3.0
