time_stamp,Acceleration_X,Acceleration_Y,Acceleration_Z,magnitude,STD_Status_right,STD_Status_left,STD_Status_both,KMeans,KMeans_convert
2021-09-24 12:46:16.535,1015.0,410.0,-33.0,1095.177611166335,1,1,1,3.0,3.0
2021-09-24 12:46:16.544,1005.0,-4.0,97.0,1009.6781665461524,1,1,1,3.0,3.0
2021-09-24 12:46:16.553,759.0,-4.0,97.0,765.1836380895766,1,1,1,3.0,3.0
2021-09-24 12:46:16.554,759.0,188.0,-17.0,782.1214739412286,1,1,1,3.0,3.0
2021-09-24 12:46:16.564,1139.0,284.0,18.0,1174.0106473111732,1,1,1,3.0,3.0
2021-09-24 12:46:16.574,1038.0,-501.0,18.0,1152.7224297288572,1,1,1,3.0,3.0
2021-09-24 12:46:16.575,1038.0,-501.0,-80.0,1155.3549238221128,1,1,1,3.0,3.0
2021-09-24 12:46:16.584,1005.0,287.0,29.0,1045.5787870839767,1,1,1,3.0,3.0
2021-09-24 12:46:16.594,896.0,-257.0,-57.0,933.870440692926,1,1,1,3.0,3.0
2021-09-24 12:46:16.602,1038.0,592.0,-29.0,1195.3028904842488,1,1,1,3.0,3.0
2021-09-24 12:46:16.612,1008.0,-260.0,-29.0,1041.395698089828,1,1,1,3.0,3.0
2021-09-24 12:46:16.613,1008.0,-260.0,49.0,1042.1444237724445,1,1,1,3.0,3.0
2021-09-24 12:46:16.623,894.0,385.0,107.0,979.2395008372569,1,1,1,3.0,3.0
2021-09-24 12:46:16.632,1057.0,385.0,107.0,1130.0101769453229,1,1,1,3.0,3.0
2021-09-24 12:46:16.633,1057.0,-220.0,8.0,1079.6818975976212,1,1,1,3.0,3.0
2021-09-24 12:46:16.643,975.0,416.0,26.0,1060.3570153490757,1,1,1,3.0,3.0
2021-09-24 12:46:16.651,1039.0,30.0,-6.0,1039.4503355139195,1,1,1,3.0,3.0
2021-09-24 12:46:16.661,975.0,242.0,-11.0,1004.6442156305884,1,1,1,3.0,3.0
2021-09-24 12:46:16.671,863.0,253.0,12.0,899.4009117184617,1,1,1,3.0,3.0
2021-09-24 12:46:16.681,1104.0,-332.0,59.0,1154.3487341353998,1,1,1,3.0,3.0
2021-09-24 12:46:16.690,973.0,-332.0,59.0,1029.773761561247,1,1,1,3.0,3.0
2021-09-24 12:46:16.691,973.0,458.0,-4.0,1075.4110841905992,1,1,1,3.0,3.0
2021-09-24 12:46:16.703,1031.0,-413.0,7.0,1110.6660164063724,1,1,1,3.0,3.0
2021-09-24 12:46:16.710,1011.0,552.0,26.0,1152.172296143246,1,1,1,3.0,3.0
2021-09-24 12:46:16.720,937.0,-134.0,-4.0,946.5415997197376,1,1,1,3.0,3.0
2021-09-24 12:46:16.730,1013.0,-134.0,-4.0,1021.832178001848,1,1,1,3.0,3.0
2021-09-24 12:46:16.731,1013.0,345.0,64.0,1072.0494391584746,1,1,1,3.0,3.0
2021-09-24 12:46:16.740,862.0,103.0,-17.0,868.2983358270359,1,1,1,3.0,3.0
2021-09-24 12:46:16.750,886.0,157.0,-26.0,900.1783156686236,1,1,1,3.0,3.0
2021-09-24 12:46:16.758,1115.0,157.0,-26.0,1126.299249755588,1,1,1,3.0,3.0
2021-09-24 12:46:16.759,1115.0,-97.0,60.0,1120.81845095448,1,1,1,3.0,3.0
2021-09-24 12:46:16.769,997.0,-192.0,-74.0,1018.0122789043362,1,1,1,3.0,3.0
2021-09-24 12:46:16.779,982.0,552.0,-74.0,1128.9393252075154,1,1,1,3.0,3.0
2021-09-24 12:46:16.780,982.0,552.0,20.0,1126.6889544146602,1,1,1,3.0,3.0
2021-09-24 12:46:16.789,1009.0,-260.0,1.0,1041.9606518482356,1,1,1,3.0,3.0
2021-09-24 12:46:16.800,973.0,463.0,1.0,1077.5430385836105,1,1,1,3.0,3.0
2021-09-24 12:46:16.801,973.0,463.0,55.0,1078.94531835492,1,1,1,3.0,3.0
2021-09-24 12:46:16.807,1179.0,-536.0,55.0,1296.28777669158,1,1,1,3.0,3.0
2021-09-24 12:46:16.808,1179.0,-536.0,42.0,1295.8012964957245,1,1,1,3.0,3.0
2021-09-24 12:46:16.817,881.0,257.0,-39.0,918.5483111954428,1,1,1,3.0,3.0
2021-09-24 12:46:16.828,1087.0,-105.0,25.0,1092.3456412692824,1,1,1,3.0,3.0
2021-09-24 12:46:16.838,957.0,-13.0,-16.0,957.2220223124832,1,1,1,3.0,3.0
2021-09-24 12:46:16.847,975.0,393.0,-16.0,1051.3467553571468,1,1,1,3.0,3.0
2021-09-24 12:46:16.848,975.0,393.0,-22.0,1051.45518211667,1,1,1,3.0,3.0
2021-09-24 12:46:16.857,1028.0,-265.0,56.0,1063.0827813486587,1,1,1,3.0,3.0
2021-09-24 12:46:16.866,988.0,111.0,56.0,995.7916448735648,1,1,1,3.0,3.0
2021-09-24 12:46:16.867,988.0,111.0,10.0,994.2660609716094,1,1,1,3.0,3.0
2021-09-24 12:46:16.876,1121.0,-485.0,10.0,1221.4606010838008,1,1,1,3.0,3.0
2021-09-24 12:46:16.877,1121.0,-485.0,7.0,1221.4397242598588,1,1,1,3.0,3.0
2021-09-24 12:46:16.886,999.0,-485.0,7.0,1110.5291531517755,1,1,1,3.0,3.0
2021-09-24 12:46:16.887,999.0,392.0,51.0,1074.3677210340973,1,1,1,3.0,3.0
2021-09-24 12:46:16.897,1059.0,-66.0,40.0,1061.808363123968,1,1,1,3.0,3.0
2021-09-24 12:46:16.907,945.0,243.0,-12.0,975.8165811257768,1,1,1,3.0,3.0
2021-09-24 12:46:16.915,853.0,269.0,-6.0,894.4305450955932,1,1,1,3.0,3.0
2021-09-24 12:46:16.925,959.0,-23.0,-29.0,959.7140199038462,1,1,1,3.0,3.0
2021-09-24 12:46:16.935,999.0,-92.0,-33.0,1003.7698939498036,1,1,1,3.0,3.0
2021-09-24 12:46:16.946,998.0,-347.0,-26.0,1056.9243113865818,1,1,1,3.0,3.0
2021-09-24 12:46:16.955,942.0,589.0,37.0,1111.5997481108027,1,1,1,3.0,3.0
2021-09-24 12:46:16.963,976.0,589.0,37.0,1140.555127996889,1,1,1,3.0,3.0
2021-09-24 12:46:16.964,976.0,-93.0,12.0,980.4942631142724,1,1,1,3.0,3.0
2021-09-24 12:46:16.979,934.0,460.0,3.0,1041.1363983647868,1,1,1,3.0,3.0
2021-09-24 12:46:16.984,1146.0,-519.0,31.0,1258.4267956460558,1,1,1,3.0,3.0
2021-09-24 12:46:16.993,908.0,141.0,-3.0,918.8873706826098,1,1,1,3.0,3.0
2021-09-24 12:46:17.003,1047.0,-88.0,-5.0,1050.7035738018596,1,1,1,3.0,3.0
2021-09-24 12:46:17.012,1056.0,-189.0,-5.0,1072.791685277249,1,1,1,3.0,3.0
2021-09-24 12:46:17.013,1056.0,-189.0,-37.0,1073.417905570799,1,1,1,3.0,3.0
2021-09-24 12:46:17.023,995.0,-189.0,-37.0,1013.4668223479248,1,1,1,3.0,3.0
2021-09-24 12:46:17.024,995.0,502.0,9.0,1114.499887842076,1,1,1,3.0,3.0
2021-09-24 12:46:17.032,1076.0,-234.0,0.0,1101.1503076328863,1,1,1,3.0,3.0
2021-09-24 12:46:17.042,960.0,391.0,0.0,1036.5717534256855,1,1,1,3.0,3.0
2021-09-24 12:46:17.043,960.0,391.0,-15.0,1036.6802785815885,1,1,1,3.0,3.0
2021-09-24 12:46:17.051,1113.0,391.0,-15.0,1179.7775213996918,1,1,1,3.0,3.0
2021-09-24 12:46:17.052,1113.0,-498.0,10.0,1219.374019733076,1,1,1,3.0,3.0
2021-09-24 12:46:17.062,888.0,312.0,-3.0,941.2210154899858,1,1,1,3.0,3.0
2021-09-24 12:46:17.072,1036.0,-82.0,78.0,1042.1631350225357,1,1,1,3.0,3.0
2021-09-24 12:46:17.082,966.0,9.0,5.0,966.0548638664368,1,1,1,3.0,3.0
2021-09-24 12:46:17.091,1075.0,-185.0,92.0,1094.6752943224762,1,1,1,3.0,3.0
2021-09-24 12:46:17.103,1047.0,-115.0,-25.0,1053.5933750740842,1,1,1,3.0,3.0
2021-09-24 12:46:17.110,974.0,95.0,-25.0,978.94126483666,1,1,1,3.0,3.0
2021-09-24 12:46:17.111,974.0,95.0,-25.0,978.94126483666,1,1,1,3.0,3.0
2021-09-24 12:46:17.121,1143.0,-447.0,-4.0,1227.3035484345346,1,1,1,3.0,3.0
2021-09-24 12:46:17.130,987.0,-447.0,-4.0,1083.5100368709095,1,1,1,3.0,3.0
2021-09-24 12:46:17.131,987.0,431.0,45.0,1077.940165315311,1,1,1,3.0,3.0
2021-09-24 12:46:17.139,1108.0,-338.0,77.0,1160.9638237257868,1,1,1,3.0,3.0
2021-09-24 12:46:17.150,948.0,503.0,22.0,1073.4043972334005,1,1,1,3.0,3.0
2021-09-24 12:46:17.159,1179.0,-347.0,-3.0,1229.007323005034,1,1,1,3.0,3.0
2021-09-24 12:46:17.169,945.0,-347.0,-3.0,1006.6990612889236,1,1,1,3.0,3.0
2021-09-24 12:46:17.170,945.0,-19.0,2.0,945.1931019638264,1,1,1,3.0,3.0
2021-09-24 12:46:17.180,966.0,-57.0,10.0,967.7318843564058,1,1,1,3.0,3.0
2021-09-24 12:46:17.188,1048.0,-57.0,10.0,1049.5965891712872,1,1,1,3.0,3.0
2021-09-24 12:46:17.189,1048.0,-352.0,-2.0,1105.5369736015164,1,1,1,3.0,3.0
2021-09-24 12:46:17.199,926.0,58.0,8.0,927.8491256664524,1,1,1,3.0,3.0
2021-09-24 12:46:17.208,1181.0,-364.0,-6.0,1235.8369633572222,1,1,1,3.0,3.0
2021-09-24 12:46:17.218,909.0,504.0,2.0,1039.3752931448776,1,1,1,3.0,3.0
2021-09-24 12:46:17.229,1164.0,-520.0,12.0,1274.927448916212,1,1,1,3.0,3.0
2021-09-24 12:46:17.241,1111.0,-318.0,12.0,1155.6768579494876,1,1,1,3.0,3.0
2021-09-24 12:46:17.242,1111.0,-318.0,10.0,1155.65782132948,1,1,1,3.0,3.0
2021-09-24 12:46:17.247,1009.0,-233.0,23.0,1035.80837996224,1,1,1,3.0,3.0
2021-09-24 12:46:17.257,950.0,451.0,37.0,1052.2689770206096,1,1,1,3.0,3.0
2021-09-24 12:46:17.267,1022.0,-66.0,-18.0,1024.2870691363823,1,1,1,3.0,3.0
2021-09-24 12:46:17.282,1114.0,-359.0,-11.0,1170.469136713993,1,1,1,3.0,3.0
2021-09-24 12:46:17.288,912.0,365.0,-11.0,982.3899429452644,1,1,1,3.0,3.0
2021-09-24 12:46:17.289,912.0,365.0,-39.0,983.1022327306556,1,1,1,3.0,3.0
2021-09-24 12:46:17.296,1185.0,-510.0,14.0,1290.163167975276,1,1,1,3.0,3.0
2021-09-24 12:46:17.305,941.0,410.0,14.0,1026.536409485801,1,1,1,3.0,3.0
2021-09-24 12:46:17.306,941.0,410.0,19.0,1026.6167736794484,1,1,1,3.0,3.0
2021-09-24 12:46:17.315,1009.0,-310.0,19.0,1055.7187125366302,1,1,1,3.0,3.0
2021-09-24 12:46:17.316,1009.0,-310.0,18.0,1055.701188784023,1,1,1,3.0,3.0
2021-09-24 12:46:17.326,972.0,532.0,6.0,1108.0812244596511,1,1,1,3.0,3.0
2021-09-24 12:46:17.336,1107.0,532.0,6.0,1228.213743613057,1,1,1,3.0,3.0
2021-09-24 12:46:17.337,1107.0,-146.0,84.0,1119.741488023017,1,1,1,3.0,3.0
2021-09-24 12:46:17.344,1061.0,-195.0,84.0,1082.0360437619445,1,1,1,3.0,3.0
2021-09-24 12:46:17.345,1061.0,-195.0,-48.0,1079.8379508055828,1,1,1,3.0,3.0
2021-09-24 12:46:17.354,985.0,111.0,6.0,991.2527427452598,1,1,1,3.0,3.0
2021-09-24 12:46:17.375,939.0,167.0,5.0,953.7478702466392,1,1,1,3.0,3.0
2021-09-24 12:46:17.377,880.0,264.0,23.0,919.0348197973784,1,1,1,3.0,3.0
2021-09-24 12:46:17.385,1109.0,-287.0,50.0,1146.6254837565752,1,1,1,3.0,3.0
2021-09-24 12:46:17.401,974.0,-287.0,50.0,1016.6341524855438,1,1,1,3.0,3.0
2021-09-24 12:46:17.402,974.0,482.0,0.0,1086.7382389517727,1,1,1,3.0,3.0
2021-09-24 12:46:17.406,1180.0,-315.0,-12.0,1221.3799572614575,1,1,1,3.0,3.0
2021-09-24 12:46:17.414,947.0,-65.0,-17.0,949.3803242115354,1,1,1,3.0,3.0
2021-09-24 12:46:17.426,975.0,-187.0,-13.0,992.8559814998348,1,1,1,3.0,3.0
2021-09-24 12:46:17.432,975.0,419.0,27.0,1061.56252759788,1,1,1,3.0,3.0
2021-09-24 12:46:17.442,924.0,133.0,28.0,933.942717729519,1,1,1,3.0,3.0
2021-09-24 12:46:17.452,1131.0,-336.0,-54.0,1181.0897510350346,1,1,1,3.0,3.0
2021-09-24 12:46:17.462,870.0,-336.0,-54.0,934.1905587191512,1,1,1,3.0,3.0
2021-09-24 12:46:17.463,870.0,491.0,-40.0,999.7904780502764,1,1,1,3.0,3.0
2021-09-24 12:46:17.472,1031.0,-85.0,-46.0,1035.520159147083,1,1,1,3.0,3.0
2021-09-24 12:46:17.482,928.0,464.0,15.0,1037.6439659150917,1,1,1,3.0,3.0
2021-09-24 12:46:17.491,976.0,-309.0,15.0,1023.8564352486144,1,1,1,3.0,3.0
2021-09-24 12:46:17.492,976.0,-309.0,12.0,1023.8168781574174,1,1,1,3.0,3.0
2021-09-24 12:46:17.501,935.0,462.0,68.0,1045.128221798646,1,1,1,3.0,3.0
2021-09-24 12:46:17.511,1030.0,-34.0,12.0,1030.6308747558458,1,1,1,3.0,3.0
2021-09-24 12:46:17.522,1087.0,-391.0,-30.0,1155.573450716137,1,1,1,3.0,3.0
2021-09-24 12:46:17.536,996.0,-391.0,-30.0,1070.4190768105732,1,1,1,3.0,3.0
2021-09-24 12:46:17.537,996.0,-97.0,27.0,1001.076420659282,1,1,1,3.0,3.0
2021-09-24 12:46:17.541,987.0,77.0,13.0,990.0843398418136,1,1,1,3.0,3.0
2021-09-24 12:46:17.549,925.0,77.0,13.0,928.2903640564195,1,1,1,3.0,3.0
2021-09-24 12:46:17.550,925.0,338.0,-3.0,984.823842115939,1,1,1,3.0,3.0
2021-09-24 12:46:17.560,1061.0,-244.0,32.0,1089.1652767142368,1,1,1,3.0,3.0
2021-09-24 12:46:17.571,968.0,573.0,5.0,1124.8902168656282,1,1,1,3.0,3.0
2021-09-24 12:46:17.579,1067.0,-179.0,82.0,1085.0133639729972,1,1,1,3.0,3.0
2021-09-24 12:46:17.588,925.0,-179.0,82.0,945.7219464514928,1,1,1,3.0,3.0
2021-09-24 12:46:17.589,925.0,410.0,33.0,1012.3309735457076,1,1,1,3.0,3.0
2021-09-24 12:46:17.599,987.0,-30.0,0.0,987.4558217966008,1,1,1,3.0,3.0
2021-09-24 12:46:17.609,942.0,241.0,78.0,975.4634795829108,1,1,1,3.0,3.0
2021-09-24 12:46:17.620,870.0,230.0,-36.0,900.608683058297,1,1,1,3.0,3.0
2021-09-24 12:46:17.628,1077.0,-306.0,23.0,1119.8633845250947,1,1,1,3.0,3.0
2021-09-24 12:46:17.637,1014.0,-47.0,23.0,1015.3492010141142,1,1,1,3.0,3.0
2021-09-24 12:46:17.638,1014.0,-47.0,-13.0,1015.171906624686,1,1,1,3.0,3.0
2021-09-24 12:46:17.647,1055.0,-264.0,0.0,1087.529769707478,1,1,1,3.0,3.0
2021-09-24 12:46:17.658,953.0,565.0,7.0,1107.918318288853,1,1,1,3.0,3.0
2021-09-24 12:46:17.668,988.0,-267.0,9.0,1023.481313947646,1,1,1,3.0,3.0
2021-09-24 12:46:17.677,969.0,332.0,9.0,1024.3368586553936,1,1,1,3.0,3.0
2021-09-24 12:46:17.678,969.0,332.0,-5.0,1024.309523532804,1,1,1,3.0,3.0
2021-09-24 12:46:17.694,932.0,136.0,85.0,945.6981548041636,1,1,1,3.0,3.0
2021-09-24 12:46:17.698,932.0,168.0,-1.0,947.0211190886928,1,1,1,3.0,3.0
2021-09-24 12:46:17.708,1098.0,-73.0,52.0,1101.651941404362,1,1,1,3.0,3.0
2021-09-24 12:46:17.716,1019.0,-90.0,-37.0,1023.6356773774544,1,1,1,3.0,3.0
2021-09-24 12:46:17.725,934.0,468.0,-37.0,1045.346354085573,1,1,1,3.0,3.0
2021-09-24 12:46:17.726,934.0,468.0,-15.0,1044.799023736144,1,1,1,3.0,3.0
2021-09-24 12:46:17.735,1032.0,-294.0,8.0,1073.0908628816107,1,1,1,3.0,3.0
2021-09-24 12:46:17.745,924.0,492.0,65.0,1048.8398352465451,1,1,1,3.0,3.0
2021-09-24 12:46:17.756,1108.0,-558.0,103.0,1244.8441669542417,1,1,1,3.0,3.0
2021-09-24 12:46:17.766,991.0,276.0,-76.0,1031.519752598078,1,1,1,3.0,3.0
2021-09-24 12:46:17.774,1057.0,-12.0,65.0,1059.064681688517,1,1,1,3.0,3.0
2021-09-24 12:46:17.784,997.0,47.0,-24.0,998.3957131318224,1,1,1,3.0,3.0
2021-09-24 12:46:17.794,906.0,280.0,-17.0,948.4329180284708,1,1,1,3.0,3.0
2021-09-24 12:46:17.806,1021.0,-142.0,-17.0,1030.9675067624585,1,1,1,3.0,3.0
2021-09-24 12:46:17.807,1021.0,-142.0,-3.0,1030.8317030437122,1,1,1,3.0,3.0
2021-09-24 12:46:17.814,977.0,-142.0,-3.0,987.2699732089496,1,1,1,3.0,3.0
2021-09-24 12:46:17.815,977.0,-65.0,-4.0,979.16801418347,1,1,1,3.0,3.0
2021-09-24 12:46:17.823,1146.0,-332.0,16.0,1193.2292319583862,1,1,1,3.0,3.0
2021-09-24 12:46:17.833,956.0,-332.0,16.0,1012.134378430058,1,1,1,3.0,3.0
2021-09-24 12:46:17.834,956.0,457.0,42.0,1060.4475470290834,1,1,1,3.0,3.0
2021-09-24 12:46:17.843,1038.0,-72.0,1.0,1040.494593931175,1,1,1,3.0,3.0
2021-09-24 12:46:17.853,926.0,186.0,74.0,947.3900991671804,1,1,1,3.0,3.0
2021-09-24 12:46:17.864,1178.0,-486.0,74.0,1276.4622986990255,1,1,1,3.0,3.0
2021-09-24 12:46:17.865,1178.0,-486.0,-2.0,1274.3170720036674,1,1,1,3.0,3.0
2021-09-24 12:46:17.872,930.0,37.0,15.0,930.8565947556046,1,1,1,3.0,3.0
2021-09-24 12:46:17.881,1035.0,37.0,15.0,1035.769762061048,1,1,1,3.0,3.0
2021-09-24 12:46:17.882,1035.0,-73.0,0.0,1037.5712023760104,1,1,1,3.0,3.0
2021-09-24 12:46:17.891,1037.0,-360.0,-31.0,1098.1484416962946,1,1,1,3.0,3.0
2021-09-24 12:46:17.902,976.0,588.0,13.0,1139.512615112268,1,1,1,3.0,3.0
2021-09-24 12:46:17.912,948.0,-240.0,-25.0,978.2274786571884,1,1,1,3.0,3.0
2021-09-24 12:46:17.922,893.0,462.0,35.0,1006.0407546416797,1,1,1,3.0,3.0
2021-09-24 12:46:17.930,1165.0,-556.0,35.0,1291.3504559181447,1,1,1,3.0,3.0
2021-09-24 12:46:17.931,1165.0,-556.0,5.0,1290.8857424264938,1,1,1,3.0,3.0
2021-09-24 12:46:17.940,937.0,198.0,12.0,957.7666730472512,1,1,1,3.0,3.0
2021-09-24 12:46:17.950,1096.0,-85.0,3.0,1099.295228771598,1,1,1,3.0,3.0
2021-09-24 12:46:17.960,1014.0,-153.0,-79.0,1028.5164072585328,1,1,1,3.0,3.0
2021-09-24 12:46:17.971,1098.0,1.0,27.0,1098.3323722808136,1,1,1,3.0,3.0
2021-09-24 12:46:17.991,1049.0,1.0,27.0,1049.3478927410108,1,1,1,3.0,3.0
2021-09-24 12:46:17.992,1049.0,-281.0,-38.0,1086.6489773611347,1,1,1,3.0,3.0
2021-09-24 12:46:17.993,1014.0,200.0,-36.0,1034.1624630588756,1,1,1,3.0,3.0
2021-09-24 12:46:17.999,1056.0,-489.0,40.0,1164.412727515463,1,1,1,3.0,3.0
2021-09-24 12:46:18.009,961.0,357.0,-36.0,1025.8001754727868,1,1,1,3.0,3.0
2021-09-24 12:46:18.019,1073.0,-77.0,67.0,1077.8436806884383,1,1,1,3.0,3.0
2021-09-24 12:46:18.028,978.0,574.0,8.0,1134.0299819669672,1,1,1,3.0,3.0
2021-09-24 12:46:18.038,1140.0,-209.0,8.0,1159.0276096797695,1,1,1,3.0,3.0
2021-09-24 12:46:18.039,1140.0,-209.0,64.0,1160.7656955647851,1,1,1,3.0,3.0
2021-09-24 12:46:18.049,1014.0,-175.0,-37.0,1029.6552821211574,1,1,1,3.0,3.0
2021-09-24 12:46:18.057,959.0,-71.0,-37.0,962.3362198317176,1,1,1,3.0,3.0
2021-09-24 12:46:18.058,959.0,-71.0,-8.0,961.6579433457616,1,1,1,3.0,3.0
2021-09-24 12:46:18.067,1182.0,-380.0,3.0,1241.5848742635358,1,1,1,3.0,3.0
2021-09-24 12:46:18.077,969.0,455.0,-12.0,1070.5746120658755,1,1,1,3.0,3.0
2021-09-24 12:46:18.087,1124.0,-258.0,-14.0,1153.3152214377474,1,1,1,3.0,3.0
2021-09-24 12:46:18.099,935.0,509.0,-35.0,1065.143652283578,1,1,1,3.0,3.0
2021-09-24 12:46:18.106,1160.0,-464.0,-20.0,1249.5183071888143,1,1,1,3.0,3.0
2021-09-24 12:46:18.117,967.0,53.0,-14.0,968.5525282605998,1,1,1,3.0,3.0
2021-09-24 12:46:18.126,1011.0,-67.0,-21.0,1013.4352470681094,1,1,1,3.0,3.0
2021-09-24 12:46:18.136,948.0,363.0,-19.0,1015.2999556781238,1,1,1,3.0,3.0
2021-09-24 12:46:18.147,922.0,26.0,-19.0,922.5621930254893,1,1,1,3.0,3.0
2021-09-24 12:46:18.148,922.0,26.0,30.0,922.8542680185208,1,1,1,3.0,3.0
2021-09-24 12:46:18.155,1137.0,26.0,30.0,1137.6928407966714,1,1,1,3.0,3.0
2021-09-24 12:46:18.156,1137.0,-287.0,-12.0,1172.7241789952143,1,1,1,3.0,3.0
2021-09-24 12:46:18.165,944.0,431.0,42.0,1038.5860580616322,1,1,1,3.0,3.0
2021-09-24 12:46:18.174,1180.0,431.0,42.0,1256.9506752454529,1,1,1,3.0,3.0
2021-09-24 12:46:18.175,1180.0,-583.0,-32.0,1316.5534550484458,1,1,1,3.0,3.0
2021-09-24 12:46:18.185,955.0,-583.0,-32.0,1119.3471311438643,1,1,1,3.0,3.0
2021-09-24 12:46:18.186,955.0,231.0,-25.0,982.8585859623958,1,1,1,3.0,3.0
2021-09-24 12:46:18.196,999.0,-308.0,39.0,1046.1290551361242,1,1,1,3.0,3.0
2021-09-24 12:46:18.205,935.0,552.0,39.0,1086.4851586653174,1,1,1,3.0,3.0
2021-09-24 12:46:18.206,935.0,552.0,0.0,1085.7849695036307,1,1,1,3.0,3.0
2021-09-24 12:46:18.214,1133.0,20.0,32.0,1133.628245943087,1,1,1,3.0,3.0
2021-09-24 12:46:18.223,1061.0,-291.0,32.0,1100.6479909580537,1,1,1,3.0,3.0
2021-09-24 12:46:18.224,1061.0,-291.0,-39.0,1100.8737438961837,1,1,1,3.0,3.0
2021-09-24 12:46:18.233,982.0,167.0,-39.0,996.8620767187404,1,1,1,3.0,3.0
2021-09-24 12:46:18.234,982.0,167.0,-70.0,998.555456647251,1,1,1,3.0,3.0
2021-09-24 12:46:18.245,1077.0,-531.0,-70.0,1202.8258394297986,1,1,1,3.0,3.0
2021-09-24 12:46:18.246,1077.0,-531.0,84.0,1203.721728639971,1,1,1,3.0,3.0
2021-09-24 12:46:18.254,881.0,271.0,16.0,921.8774322001814,1,1,1,3.0,3.0
2021-09-24 12:46:18.262,1037.0,-224.0,16.0,1061.037699612978,1,1,1,3.0,3.0
2021-09-24 12:46:18.263,1037.0,-224.0,30.0,1061.3411327184112,1,1,1,3.0,3.0
2021-09-24 12:46:18.272,1010.0,547.0,24.0,1148.862480891425,1,1,1,3.0,3.0
2021-09-24 12:46:18.282,1126.0,-203.0,38.0,1144.7833856236734,1,1,1,3.0,3.0
2021-09-24 12:46:18.293,996.0,-130.0,8.0,1004.479964956992,1,1,1,3.0,3.0
2021-09-24 12:46:18.307,1026.0,-128.0,11.0,1034.0120889041868,1,1,1,3.0,3.0
2021-09-24 12:46:18.311,859.0,-128.0,11.0,868.553970689214,1,1,1,3.0,3.0
2021-09-24 12:46:18.312,859.0,226.0,86.0,892.3861271893462,1,1,1,3.0,3.0
2021-09-24 12:46:18.321,915.0,249.0,-15.0,948.3939055055132,1,1,1,3.0,3.0
2021-09-24 12:46:18.331,1169.0,-401.0,-15.0,1235.9559053623232,1,1,1,3.0,3.0
2021-09-24 12:46:18.332,1169.0,-401.0,-35.0,1236.3603843540118,1,1,1,3.0,3.0
2021-09-24 12:46:18.342,863.0,587.0,12.0,1043.782544402808,1,1,1,3.0,3.0
2021-09-24 12:46:18.350,1151.0,-449.0,12.0,1235.5347020622287,1,1,1,3.0,3.0
2021-09-24 12:46:18.351,1151.0,-449.0,26.0,1235.749974711713,1,1,1,3.0,3.0
2021-09-24 12:46:18.360,905.0,525.0,53.0,1047.596773572733,1,1,1,3.0,3.0
2021-09-24 12:46:18.370,1019.0,-278.0,29.0,1056.6390112048675,1,1,1,3.0,3.0
2021-09-24 12:46:18.390,949.0,407.0,2.0,1032.5957582713577,1,1,1,3.0,3.0
2021-09-24 12:46:18.393,915.0,79.0,58.0,920.2336659783753,1,1,1,3.0,3.0
2021-09-24 12:46:18.400,1187.0,-254.0,-21.0,1214.0535408292335,1,1,1,3.0,3.0
2021-09-24 12:46:18.420,924.0,395.0,16.0,1005.0159202719128,1,1,1,3.0,3.0
2021-09-24 12:46:18.423,959.0,-82.0,4.0,962.5076623071632,1,1,1,3.0,3.0
2021-09-24 12:46:18.428,955.0,-82.0,4.0,958.522300210068,1,1,1,3.0,3.0
2021-09-24 12:46:18.429,955.0,386.0,20.0,1030.2528815781104,1,1,1,3.0,3.0
2021-09-24 12:46:18.439,1033.0,-256.0,77.0,1067.0304587967487,1,1,1,3.0,3.0
2021-09-24 12:46:18.448,923.0,584.0,77.0,1094.9493138953967,1,1,1,3.0,3.0
2021-09-24 12:46:18.449,923.0,584.0,-2.0,1092.2403581629824,1,1,1,3.0,3.0
2021-09-24 12:46:18.457,1096.0,584.0,-2.0,1241.884052558853,1,1,1,3.0,3.0
2021-09-24 12:46:18.458,1096.0,-105.0,4.0,1101.0254311322694,1,1,1,3.0,3.0
2021-09-24 12:46:18.469,1088.0,-228.0,-36.0,1112.2158063973015,1,1,1,3.0,3.0
2021-09-24 12:46:18.478,1051.0,48.0,81.0,1055.2089840406022,1,1,1,3.0,3.0
2021-09-24 12:46:18.488,961.0,101.0,-34.0,966.890893534529,1,1,1,3.0,3.0
2021-09-24 12:46:18.497,891.0,303.0,20.0,941.32353630407,1,1,1,3.0,3.0
2021-09-24 12:46:18.507,1067.0,-254.0,20.0,1096.9981768444286,1,1,1,3.0,3.0
2021-09-24 12:46:18.508,1067.0,-254.0,15.0,1096.9184108218806,1,1,1,3.0,3.0
2021-09-24 12:46:18.517,953.0,524.0,28.0,1087.919574233316,1,1,1,3.0,3.0
2021-09-24 12:46:18.527,1135.0,-312.0,24.0,1177.346592979315,1,1,1,3.0,3.0
2021-09-24 12:46:18.537,887.0,573.0,22.0,1056.211153131797,1,1,1,3.0,3.0
2021-09-24 12:46:18.553,1021.0,-187.0,0.0,1037.9836222214683,1,1,1,3.0,3.0
2021-09-24 12:46:18.557,879.0,227.0,0.0,907.8380912916136,1,1,1,3.0,3.0
2021-09-24 12:46:18.558,879.0,227.0,32.0,908.4018934370404,1,1,1,3.0,3.0
2021-09-24 12:46:18.565,938.0,178.0,8.0,954.7732715152848,1,1,1,3.0,3.0
2021-09-24 12:46:18.577,1135.0,-295.0,-16.0,1172.8196792346214,1,1,1,3.0,3.0
2021-09-24 12:46:18.586,1073.0,-61.0,9.0,1074.77020799797,1,1,1,3.0,3.0
2021-09-24 12:46:18.594,1124.0,-61.0,9.0,1125.6900106157111,1,1,1,3.0,3.0
2021-09-24 12:46:18.595,1124.0,-195.0,-80.0,1143.5912731391404,1,1,1,3.0,3.0
2021-09-24 12:46:18.604,934.0,513.0,18.0,1065.762168591098,1,1,1,3.0,3.0
2021-09-24 12:46:18.614,994.0,-266.0,18.0,1029.133616203455,1,1,1,3.0,3.0
2021-09-24 12:46:18.615,994.0,-266.0,10.0,1029.0247810427113,1,1,1,3.0,3.0
2021-09-24 12:46:18.624,964.0,486.0,28.0,1079.942591066766,1,1,1,3.0,3.0
2021-09-24 12:46:18.636,995.0,131.0,53.0,1004.9850745160348,1,1,1,3.0,3.0
2021-09-24 12:46:18.643,959.0,329.0,53.0,1015.2492304848106,1,1,1,3.0,3.0
2021-09-24 12:46:18.644,959.0,329.0,12.0,1013.9358954095668,1,1,1,3.0,3.0
2021-09-24 12:46:18.653,1069.0,20.0,34.0,1069.7275354032913,1,1,1,3.0,3.0
2021-09-24 12:46:18.663,1013.0,-47.0,28.0,1014.4762195340016,1,1,1,3.0,3.0
2021-09-24 12:46:18.673,923.0,347.0,-17.0,986.2185356197682,1,1,1,3.0,3.0
2021-09-24 12:46:18.684,1023.0,-302.0,50.0,1067.8169318754972,1,1,1,3.0,3.0
2021-09-24 12:46:18.693,956.0,-35.0,-37.0,957.3557332569748,1,1,1,3.0,3.0
2021-09-24 12:46:18.702,1198.0,-440.0,3.0,1276.249583741362,1,1,1,3.0,3.0
2021-09-24 12:46:18.712,924.0,438.0,-11.0,1022.6147857331224,1,1,1,3.0,3.0
2021-09-24 12:46:18.721,979.0,-18.0,27.0,979.5376460351076,1,1,1,3.0,3.0
2021-09-24 12:46:18.733,955.0,114.0,51.0,963.1313513742556,1,1,1,3.0,3.0
2021-09-24 12:46:18.742,897.0,243.0,15.0,929.4530649796149,1,1,1,3.0,3.0
2021-09-24 12:46:18.751,974.0,-90.0,-3.0,978.1538733757588,1,1,1,3.0,3.0
2021-09-24 12:46:18.760,999.0,-90.0,-3.0,1003.0503476894868,1,1,1,3.0,3.0
2021-09-24 12:46:18.761,999.0,2.0,-20.0,999.2021817430144,1,1,1,3.0,3.0
2021-09-24 12:46:18.771,1118.0,-330.0,3.0,1165.6899244653357,1,1,1,3.0,3.0
2021-09-24 12:46:18.780,922.0,581.0,22.0,1090.0133026711187,1,1,1,3.0,3.0
2021-09-24 12:46:18.791,990.0,-151.0,22.0,1001.6910701408892,1,1,1,3.0,3.0
2021-09-24 12:46:18.792,990.0,-151.0,30.0,1001.8986974739512,1,1,1,3.0,3.0
2021-09-24 12:46:18.800,939.0,275.0,58.0,980.1581505042948,1,1,1,3.0,3.0
2021-09-24 12:46:18.809,1124.0,-600.0,58.0,1275.437179950467,1,1,1,3.0,3.0
2021-09-24 12:46:18.810,1124.0,-600.0,44.0,1274.877248993016,1,1,1,3.0,3.0
2021-09-24 12:46:18.819,985.0,144.0,0.0,995.4702406400704,1,1,1,3.0,3.0
2021-09-24 12:46:18.830,996.0,28.0,26.0,996.7326622520204,1,1,1,3.0,3.0
2021-09-24 12:46:18.839,1039.0,-181.0,-45.0,1055.6074080831377,1,1,1,3.0,3.0
2021-09-24 12:46:18.849,931.0,469.0,49.0,1043.610559547957,1,1,1,3.0,3.0
2021-09-24 12:46:18.858,1057.0,-277.0,5.0,1092.7044431135073,1,1,1,3.0,3.0
2021-09-24 12:46:18.868,938.0,190.0,-71.0,959.6796340446118,1,1,1,3.0,3.0
2021-09-24 12:46:18.879,1161.0,-529.0,61.0,1277.2951890616357,1,1,1,3.0,3.0
2021-09-24 12:46:18.888,956.0,367.0,-31.0,1024.493045364389,1,1,1,3.0,3.0
2021-09-24 12:46:18.898,1104.0,15.0,38.0,1104.7556290872656,1,1,1,3.0,3.0
2021-09-24 12:46:18.907,966.0,-77.0,23.0,969.3368867426846,1,1,1,3.0,3.0
2021-09-24 12:46:18.917,1094.0,-105.0,75.0,1101.5834058299895,1,1,1,3.0,3.0
2021-09-24 12:46:18.927,1040.0,-199.0,-34.0,1059.4135169989102,1,1,1,3.0,3.0
2021-09-24 12:46:18.937,977.0,-199.0,-34.0,997.64021570905,1,1,1,3.0,3.0
2021-09-24 12:46:18.938,977.0,-96.0,-26.0,982.0493877601064,1,1,1,3.0,3.0
2021-09-24 12:46:18.948,1194.0,-450.0,23.0,1276.1916000350418,1,1,1,3.0,3.0
2021-09-24 12:46:18.956,980.0,447.0,30.0,1077.5476787595062,1,1,1,3.0,3.0
2021-09-24 12:46:18.965,1023.0,447.0,30.0,1116.7981017175844,1,1,1,3.0,3.0
2021-09-24 12:46:18.966,1023.0,49.0,60.0,1025.9288474353375,1,1,1,3.0,3.0
2021-09-24 12:46:18.975,985.0,49.0,60.0,988.041497104246,1,1,1,3.0,3.0
2021-09-24 12:46:18.976,985.0,540.0,67.0,1125.3061805570962,1,1,1,3.0,3.0
2021-09-24 12:46:18.986,1131.0,-412.0,-26.0,1203.9854650285442,1,1,1,3.0,3.0
2021-09-24 12:46:19.007,994.0,-115.0,2.0,1000.6323000982928,1,1,1,3.0,3.0
2021-09-24 12:46:19.010,951.0,-7.0,-47.0,952.1864313252946,1,1,1,3.0,3.0
2021-09-24 12:46:19.014,1102.0,-390.0,-27.0,1169.2873898233915,1,1,1,3.0,3.0
2021-09-24 12:46:19.024,937.0,638.0,64.0,1135.3893605279204,1,1,1,3.0,3.0
2021-09-24 12:46:19.035,1174.0,-320.0,-56.0,1218.11822086364,1,1,1,3.0,3.0
2021-09-24 12:46:19.045,927.0,459.0,0.0,1034.4128769500117,1,1,1,3.0,3.0
2021-09-24 12:46:19.055,1140.0,-632.0,28.0,1303.7668503225568,1,1,1,3.0,3.0
2021-09-24 12:46:19.063,943.0,149.0,30.0,955.1701419119004,1,1,1,3.0,3.0
2021-09-24 12:46:19.073,1043.0,1.0,57.0,1044.5568438337857,1,1,1,3.0,3.0
2021-09-24 12:46:19.083,902.0,519.0,99.0,1045.3544853302155,1,1,1,3.0,3.0
2021-09-24 12:46:19.094,1141.0,119.0,68.0,1149.202332054717,1,1,1,3.0,3.0
2021-09-24 12:46:19.103,1073.0,-263.0,-26.0,1105.067418757788,1,1,1,3.0,3.0
2021-09-24 12:46:19.112,898.0,-263.0,-26.0,936.0817272012096,1,1,1,3.0,3.0
2021-09-24 12:46:19.113,898.0,147.0,-118.0,917.5712506394258,1,1,1,3.0,3.0
2021-09-24 12:46:19.122,1127.0,-535.0,94.0,1251.075537287817,1,1,1,3.0,3.0
2021-09-24 12:46:19.132,1012.0,400.0,-34.0,1088.7148386974434,1,1,1,3.0,3.0
2021-09-24 12:46:19.142,1066.0,-176.0,40.0,1081.1715867520752,1,1,1,3.0,3.0
2021-09-24 12:46:19.153,1015.0,-176.0,40.0,1030.9224025114595,1,1,1,3.0,3.0
2021-09-24 12:46:19.154,1015.0,605.0,-26.0,1181.916240687131,1,1,1,3.0,3.0
2021-09-24 12:46:19.162,1078.0,-166.0,41.0,1091.4765228808176,1,1,1,3.0,3.0
2021-09-24 12:46:19.171,1003.0,-256.0,-25.0,1035.456421101342,1,1,1,3.0,3.0
2021-09-24 12:46:19.180,1044.0,-73.0,-25.0,1046.847648896438,1,1,1,3.0,3.0
2021-09-24 12:46:19.181,1044.0,-73.0,-8.0,1046.5796672972392,1,1,1,3.0,3.0
2021-09-24 12:46:19.190,921.0,-73.0,-8.0,923.923156977895,1,1,1,3.0,3.0
2021-09-24 12:46:19.191,921.0,146.0,98.0,937.6358568228926,1,1,1,3.0,3.0
2021-09-24 12:46:19.201,917.0,146.0,98.0,933.7071275298268,1,1,1,3.0,3.0
2021-09-24 12:46:19.202,917.0,236.0,-6.0,946.900733973736,1,1,1,3.0,3.0
2021-09-24 12:46:19.211,1147.0,236.0,-6.0,1171.0426977698123,1,1,1,3.0,3.0
2021-09-24 12:46:19.212,1147.0,-228.0,33.0,1169.906833897469,1,1,1,3.0,3.0
2021-09-24 12:46:19.219,953.0,531.0,33.0,1091.4481206177416,1,1,1,3.0,3.0
2021-09-24 12:46:19.220,953.0,531.0,4.0,1090.9564610927423,1,1,1,3.0,3.0
2021-09-24 12:46:19.229,1086.0,531.0,4.0,1208.8726152907925,1,1,1,3.0,3.0
2021-09-24 12:46:19.230,1086.0,-351.0,-35.0,1141.8502528790716,1,1,1,3.0,3.0
2021-09-24 12:46:19.240,991.0,-173.0,-5.0,1005.9995029819846,1,1,1,3.0,3.0
2021-09-24 12:46:19.249,1001.0,-173.0,-5.0,1015.851859278704,1,1,1,3.0,3.0
2021-09-24 12:46:19.250,1001.0,-317.0,-58.0,1051.5959300035352,1,1,1,3.0,3.0
2021-09-24 12:46:19.259,963.0,-317.0,-58.0,1015.4910142389248,1,1,1,3.0,3.0
2021-09-24 12:46:19.260,963.0,311.0,64.0,1013.9950690215412,1,1,1,3.0,3.0
2021-09-24 12:46:19.269,969.0,137.0,19.0,978.821229847412,1,1,1,3.0,3.0
2021-09-24 12:46:19.278,1173.0,-227.0,-40.0,1195.4321394374504,1,1,1,3.0,3.0
2021-09-24 12:46:19.291,920.0,531.0,2.0,1062.2452635808738,1,1,1,3.0,3.0
2021-09-24 12:46:19.298,1109.0,-581.0,9.0,1252.0075878364316,1,1,1,3.0,3.0
2021-09-24 12:46:19.308,902.0,-581.0,9.0,1072.961322695278,1,1,1,3.0,3.0
2021-09-24 12:46:19.309,902.0,416.0,17.0,993.453068846234,1,1,1,3.0,3.0
2021-09-24 12:46:19.318,1069.0,416.0,17.0,1147.216631678603,1,1,1,3.0,3.0
2021-09-24 12:46:19.319,1069.0,-326.0,18.0,1117.748182731692,1,1,1,3.0,3.0
2021-09-24 12:46:19.327,921.0,509.0,18.0,1052.4476233998537,1,1,1,3.0,3.0
2021-09-24 12:46:19.328,921.0,509.0,65.0,1054.2992933697717,1,1,1,3.0,3.0
2021-09-24 12:46:19.337,1039.0,148.0,-12.0,1049.5565730345363,1,1,1,3.0,3.0
2021-09-24 12:46:19.347,1032.0,-328.0,-11.0,1082.9261285978837,1,1,1,3.0,3.0
2021-09-24 12:46:19.357,1059.0,-328.0,-11.0,1108.6866103638124,1,1,1,3.0,3.0
2021-09-24 12:46:19.358,1059.0,29.0,30.0,1059.8216831146644,1,1,1,3.0,3.0
2021-09-24 12:46:19.368,990.0,-66.0,-8.0,992.229812089921,1,1,1,3.0,3.0
2021-09-24 12:46:19.376,941.0,279.0,53.0,982.9196304886784,1,1,1,3.0,3.0
2021-09-24 12:46:19.386,1109.0,-212.0,54.0,1130.3720626413235,1,1,1,3.0,3.0
2021-09-24 12:46:19.406,953.0,685.0,54.0,1174.8829728955986,1,1,1,3.0,3.0
2021-09-24 12:46:19.407,953.0,685.0,-65.0,1175.4399176478566,1,1,1,3.0,3.0
2021-09-24 12:46:19.409,1030.0,-70.0,41.0,1033.189721203226,1,1,1,3.0,3.0
2021-09-24 12:46:19.416,917.0,404.0,15.0,1002.1626614477312,1,1,1,3.0,3.0
2021-09-24 12:46:19.425,1072.0,-8.0,53.0,1073.339182178681,1,1,1,3.0,3.0
2021-09-24 12:46:19.443,914.0,155.0,40.0,927.9121725680724,1,1,1,3.0,3.0
2021-09-24 12:46:19.446,917.0,246.0,40.0,950.265752303007,1,1,1,3.0,3.0
2021-09-24 12:46:19.447,917.0,246.0,-14.0,949.5267242158064,1,1,1,3.0,3.0
2021-09-24 12:46:19.454,1089.0,-182.0,0.0,1104.1037088969497,1,1,1,3.0,3.0
2021-09-24 12:46:19.465,910.0,593.0,0.0,1086.162510861059,1,1,1,3.0,3.0
2021-09-24 12:46:19.466,910.0,593.0,71.0,1088.480592385551,1,1,1,3.0,3.0
2021-09-24 12:46:19.473,1069.0,-375.0,71.0,1135.0889832960231,1,1,1,3.0,3.0
2021-09-24 12:46:19.474,1069.0,-375.0,22.0,1133.079873618802,1,1,1,3.0,3.0
2021-09-24 12:46:19.483,913.0,607.0,31.0,1096.8039934281785,1,1,1,3.0,3.0
2021-09-24 12:46:19.493,998.0,-319.0,37.0,1048.395917580758,1,1,1,3.0,3.0
2021-09-24 12:46:19.504,980.0,400.0,30.0,1058.9145385724005,1,1,1,3.0,3.0
2021-09-24 12:46:19.514,1035.0,203.0,23.0,1054.9706157045323,1,1,1,3.0,3.0
2021-09-24 12:46:19.522,1101.0,203.0,23.0,1119.7941775165648,1,1,1,3.0,3.0
2021-09-24 12:46:19.523,1101.0,-230.0,-49.0,1125.8339131506032,1,1,1,3.0,3.0
2021-09-24 12:46:19.532,1097.0,21.0,-5.0,1097.212376889725,1,1,1,3.0,3.0
2021-09-24 12:46:19.541,1043.0,-169.0,-60.0,1058.3052489712031,1,1,1,3.0,3.0
2021-09-24 12:46:19.551,887.0,-169.0,-60.0,904.9475122900776,1,1,1,3.0,3.0
2021-09-24 12:46:19.552,887.0,408.0,26.0,976.6826506086816,1,1,1,3.0,3.0
2021-09-24 12:46:19.563,1033.0,-332.0,48.0,1086.1017447734812,1,1,1,3.0,3.0
2021-09-24 12:46:19.571,957.0,505.0,48.0,1083.1334174514236,1,1,1,3.0,3.0
2021-09-24 12:46:19.572,957.0,505.0,40.0,1082.808385634319,1,1,1,3.0,3.0
2021-09-24 12:46:19.588,1100.0,-493.0,84.0,1208.348045887442,1,1,1,3.0,3.0
2021-09-24 12:46:19.592,979.0,-493.0,84.0,1099.3388922438794,1,1,1,3.0,3.0
2021-09-24 12:46:19.593,979.0,456.0,-50.0,1081.146151082267,1,1,1,3.0,3.0
2021-09-24 12:46:19.600,1042.0,32.0,83.0,1045.7901319098398,1,1,1,3.0,3.0
2021-09-24 12:46:19.612,961.0,-126.0,-34.0,969.82111752632,1,1,1,3.0,3.0
2021-09-24 12:46:19.620,881.0,243.0,-17.0,914.0563439963644,1,1,1,3.0,3.0
2021-09-24 12:46:19.630,1042.0,-165.0,49.0,1056.120258303949,1,1,1,3.0,3.0
2021-09-24 12:46:19.640,934.0,-119.0,-32.0,942.0939443601152,1,1,1,3.0,3.0
2021-09-24 12:46:19.649,1185.0,-273.0,-4.0,1216.046874096554,1,1,1,3.0,3.0
2021-09-24 12:46:19.660,946.0,522.0,-4.0,1080.4702679851955,1,1,1,3.0,3.0
2021-09-24 12:46:19.661,946.0,522.0,47.0,1081.4846277224656,1,1,1,3.0,3.0
2021-09-24 12:46:19.673,1016.0,-42.0,18.0,1017.0270399551824,1,1,1,3.0,3.0
2021-09-24 12:46:19.678,893.0,121.0,18.0,901.340113386728,1,1,1,3.0,3.0
2021-09-24 12:46:19.679,893.0,121.0,96.0,906.259344779407,1,1,1,3.0,3.0
2021-09-24 12:46:19.688,1113.0,-526.0,-1.0,1231.034524292475,1,1,1,3.0,3.0
2021-09-24 12:46:19.699,983.0,-526.0,-1.0,1114.8838504525932,1,1,1,3.0,3.0
2021-09-24 12:46:19.700,983.0,-68.0,11.0,985.4105743292996,1,1,1,3.0,3.0
2021-09-24 12:46:19.708,995.0,-46.0,-44.0,997.0341017237072,1,1,1,3.0,3.0
2021-09-24 12:46:19.718,1098.0,-278.0,26.0,1132.9448353737264,1,1,1,3.0,3.0
2021-09-24 12:46:19.727,911.0,586.0,6.0,1083.214198577548,1,1,1,3.0,3.0
2021-09-24 12:46:19.738,1001.0,-224.0,41.0,1026.5758617851873,1,1,1,3.0,3.0
2021-09-24 12:46:19.748,952.0,-224.0,41.0,978.8569864898548,1,1,1,3.0,3.0
2021-09-24 12:46:19.749,952.0,390.0,55.0,1030.256764112714,1,1,1,3.0,3.0
2021-09-24 12:46:19.757,1125.0,390.0,55.0,1191.9521802488557,1,1,1,3.0,3.0
2021-09-24 12:46:19.758,1125.0,-618.0,13.0,1283.6346832335123,1,1,1,3.0,3.0
2021-09-24 12:46:19.767,965.0,166.0,7.0,979.1986519598564,1,1,1,3.0,3.0
2021-09-24 12:46:19.776,1078.0,166.0,7.0,1090.7286555326214,1,1,1,3.0,3.0
2021-09-24 12:46:19.777,1078.0,18.0,19.0,1078.3176711897102,1,1,1,3.0,3.0
2021-09-24 12:46:19.786,1085.0,-150.0,-43.0,1096.16330900099,1,1,1,3.0,3.0
2021-09-24 12:46:19.798,854.0,379.0,34.0,934.9401050334722,1,1,1,3.0,3.0
2021-09-24 12:46:19.807,1016.0,-319.0,-12.0,1064.9699526277725,1,1,1,3.0,3.0
2021-09-24 12:46:19.816,967.0,54.0,-90.0,972.6792893857668,1,1,1,3.0,3.0
2021-09-24 12:46:19.825,1075.0,-453.0,111.0,1171.8169652296383,1,1,1,3.0,3.0
2021-09-24 12:46:19.835,983.0,346.0,5.0,1042.127631338887,1,1,1,3.0,3.0
2021-09-24 12:46:19.844,1037.0,-99.0,16.0,1041.8377992758758,1,1,1,3.0,3.0
2021-09-24 12:46:19.856,1026.0,87.0,-41.0,1030.4979378921628,1,1,1,3.0,3.0
2021-09-24 12:46:19.864,1128.0,87.0,-41.0,1132.0927523838318,1,1,1,3.0,3.0
2021-09-24 12:46:19.865,1128.0,-137.0,72.0,1138.5679602026398,1,1,1,3.0,3.0
2021-09-24 12:46:19.877,993.0,-74.0,72.0,998.3531439325466,1,1,1,3.0,3.0
2021-09-24 12:46:19.878,993.0,-74.0,-44.0,996.7251376382558,1,1,1,3.0,3.0
2021-09-24 12:46:19.883,1042.0,-74.0,-44.0,1045.5505726649476,1,1,1,3.0,3.0
2021-09-24 12:46:19.884,1042.0,12.0,42.0,1042.9151451580326,1,1,1,3.0,3.0
2021-09-24 12:46:19.893,990.0,189.0,16.0,1008.0064483920726,1,1,1,3.0,3.0
2021-09-24 12:46:19.905,1044.0,32.0,11.0,1044.548227704207,1,1,1,3.0,3.0
2021-09-24 12:46:19.913,1015.0,36.0,26.0,1015.9709641520274,1,1,1,3.0,3.0
2021-09-24 12:46:19.923,1001.0,-30.0,8.0,1001.4814027229862,1,1,1,3.0,3.0
2021-09-24 12:46:19.933,999.0,35.0,-19.0,999.7934786744712,1,1,1,3.0,3.0
2021-09-24 12:46:19.942,1008.0,71.0,-19.0,1010.676011390396,1,1,1,3.0,3.0
2021-09-24 12:46:19.943,1008.0,71.0,0.0,1010.497402272762,1,1,1,3.0,3.0
2021-09-24 12:46:19.953,1011.0,14.0,7.0,1011.1211599012256,1,1,1,3.0,3.0
2021-09-24 12:46:19.962,1009.0,14.0,7.0,1009.1214000307396,1,1,1,3.0,3.0
2021-09-24 12:46:19.963,1009.0,19.0,6.0,1009.196710260195,1,1,1,3.0,3.0
2021-09-24 12:46:19.972,1013.0,25.0,10.0,1013.3577847927156,1,1,1,3.0,3.0
2021-09-24 12:46:19.982,1006.0,22.0,5.0,1006.252950306234,1,1,1,3.0,3.0
2021-09-24 12:46:19.991,1018.0,28.0,2.0,1018.3869598536696,1,1,1,3.0,3.0
