time_stamp,Acceleration_X,Acceleration_Y,Acceleration_Z,magnitude,STD_Status_right,STD_Status_left,STD_Status_both,KMeans,KMeans_convert
2021-08-31 13:41:39.199,1019.0,40.0,5.0,1019.7970386307268,1,1,1,1.0,3.0
2021-08-31 13:41:39.210,1000.0,44.0,5.0,1000.9800197806148,1,1,1,1.0,3.0
2021-08-31 13:41:39.218,1016.0,42.0,10.0,1016.9169090933634,1,1,1,1.0,3.0
2021-08-31 13:41:39.237,1010.0,41.0,10.0,1010.8812986696312,1,1,1,1.0,3.0
2021-08-31 13:41:39.242,1016.0,42.0,9.0,1016.9075670875892,1,1,1,1.0,3.0
2021-08-31 13:41:39.258,1013.0,37.0,4.0,1013.6833825213868,1,1,1,1.0,3.0
2021-08-31 13:41:39.260,1009.0,43.0,4.0,1009.923759498706,1,1,1,1.0,3.0
2021-08-31 13:41:39.261,1009.0,43.0,4.0,1009.923759498706,1,1,1,1.0,3.0
2021-08-31 13:41:39.268,1012.0,45.0,6.0,1013.0177688471216,1,1,1,1.0,3.0
2021-08-31 13:41:39.277,1013.0,42.0,0.0,1013.87030728787,1,1,1,1.0,3.0
2021-08-31 13:41:39.286,1019.0,40.0,0.0,1019.7847812161152,1,1,1,1.0,3.0
2021-08-31 13:41:39.287,1019.0,40.0,8.0,1019.8161599033426,1,1,1,1.0,3.0
2021-08-31 13:41:39.296,1016.0,38.0,4.0,1016.7182500575074,1,1,1,1.0,3.0
2021-08-31 13:41:39.306,1011.0,49.0,15.0,1012.2978810607084,1,1,1,1.0,3.0
2021-08-31 13:41:39.317,1037.0,-104.0,22.0,1042.4341705834474,1,1,1,1.0,3.0
2021-08-31 13:41:39.325,958.0,-104.0,22.0,963.8796605385965,1,1,1,1.0,3.0
2021-08-31 13:41:39.326,958.0,11.0,-4.0,958.0715004633004,1,1,1,1.0,3.0
2021-08-31 13:41:39.335,963.0,-1.0,8.0,963.0337481106257,1,1,1,1.0,3.0
2021-08-31 13:41:39.345,1026.0,117.0,12.0,1032.7192261210207,1,1,1,1.0,3.0
2021-08-31 13:41:39.355,1082.0,81.0,4.0,1085.0350224762333,1,1,1,1.0,3.0
2021-08-31 13:41:39.365,993.0,-31.0,0.0,993.483769369183,1,1,1,1.0,3.0
2021-08-31 13:41:39.375,962.0,-31.0,0.0,962.4993506491317,1,1,1,1.0,3.0
2021-08-31 13:41:39.376,962.0,6.0,16.0,962.1517551821022,1,1,1,1.0,3.0
2021-08-31 13:41:39.385,951.0,16.0,14.0,951.2376148996632,1,1,1,1.0,3.0
2021-08-31 13:41:39.394,1032.0,126.0,6.0,1039.6807202213572,1,1,1,1.0,3.0
2021-08-31 13:41:39.404,1073.0,77.0,13.0,1075.8378130554809,1,1,1,1.0,3.0
2021-08-31 13:41:39.413,984.0,77.0,13.0,987.093713889416,1,1,1,1.0,3.0
2021-08-31 13:41:39.414,984.0,-43.0,8.0,984.9715731938664,1,1,1,1.0,3.0
2021-08-31 13:41:39.425,966.0,19.0,20.0,966.3938120662818,1,1,1,1.0,3.0
2021-08-31 13:41:39.433,960.0,34.0,10.0,960.6539439361086,1,1,1,1.0,3.0
2021-08-31 13:41:39.443,1037.0,129.0,0.0,1044.9928229418613,1,1,1,1.0,3.0
2021-08-31 13:41:39.452,1055.0,129.0,0.0,1062.8574692779837,1,1,1,1.0,3.0
2021-08-31 13:41:39.453,1055.0,72.0,10.0,1057.5013002356072,1,1,1,1.0,3.0
2021-08-31 13:41:39.462,992.0,-57.0,-1.0,993.636754553695,1,1,1,1.0,3.0
2021-08-31 13:41:39.473,973.0,7.0,10.0,973.076564305194,1,1,1,1.0,3.0
2021-08-31 13:41:39.482,1048.0,131.0,-1.0,1056.1562384420215,1,1,1,1.0,3.0
2021-08-31 13:41:39.491,1048.0,131.0,-1.0,1056.1562384420215,1,1,1,1.0,3.0
2021-08-31 13:41:39.492,1048.0,133.0,11.0,1056.4629666959463,1,1,1,1.0,3.0
2021-08-31 13:41:39.501,1058.0,57.0,15.0,1059.6405050770757,1,1,1,1.0,3.0
2021-08-31 13:41:39.511,987.0,-49.0,5.0,988.2282125096408,1,1,1,1.0,3.0
2021-08-31 13:41:39.521,967.0,40.0,9.0,967.8687927606716,1,1,1,1.0,3.0
2021-08-31 13:41:39.532,1055.0,141.0,9.0,1064.4186206563656,1,1,1,1.0,3.0
2021-08-31 13:41:39.533,1055.0,141.0,15.0,1064.4862610668115,1,1,1,1.0,3.0
2021-08-31 13:41:39.540,1052.0,113.0,8.0,1058.0817548753023,1,1,1,1.0,3.0
2021-08-31 13:41:39.550,1056.0,36.0,7.0,1056.6366452096956,1,1,1,1.0,3.0
2021-08-31 13:41:39.560,964.0,-40.0,24.0,965.1279707893664,1,1,1,1.0,3.0
2021-08-31 13:41:39.570,981.0,56.0,7.0,982.6220026032393,1,1,1,1.0,3.0
2021-08-31 13:41:39.581,1046.0,118.0,9.0,1052.6732636483175,1,1,1,1.0,3.0
2021-08-31 13:41:39.589,1053.0,135.0,8.0,1061.6487177969934,1,1,1,1.0,3.0
2021-08-31 13:41:39.599,1046.0,18.0,0.0,1046.1548642528985,1,1,1,1.0,3.0
2021-08-31 13:41:39.609,969.0,-59.0,17.0,970.9433557113412,1,1,1,1.0,3.0
2021-08-31 13:41:39.618,986.0,-59.0,17.0,987.909914921396,1,1,1,1.0,3.0
2021-08-31 13:41:39.619,986.0,63.0,3.0,988.0151820695876,1,1,1,1.0,3.0
2021-08-31 13:41:39.629,1061.0,146.0,12.0,1071.065357482913,1,1,1,1.0,3.0
2021-08-31 13:41:39.638,1050.0,146.0,12.0,1060.1697977211008,1,1,1,1.0,3.0
2021-08-31 13:41:39.639,1050.0,134.0,4.0,1058.5234999753193,1,1,1,1.0,3.0
2021-08-31 13:41:39.648,1048.0,0.0,4.0,1048.0076335599852,1,1,1,1.0,3.0
2021-08-31 13:41:39.657,962.0,0.0,4.0,962.0083159723724,1,1,1,1.0,3.0
2021-08-31 13:41:39.658,962.0,-55.0,8.0,963.6041718465108,1,1,1,1.0,3.0
2021-08-31 13:41:39.667,982.0,74.0,8.0,984.8167342201288,1,1,1,1.0,3.0
2021-08-31 13:41:39.668,982.0,74.0,5.0,984.7969333827152,1,1,1,1.0,3.0
2021-08-31 13:41:39.677,1065.0,118.0,8.0,1071.5470125010847,1,1,1,1.0,3.0
2021-08-31 13:41:39.688,1075.0,116.0,8.0,1081.2700865186273,1,1,1,1.0,3.0
2021-08-31 13:41:39.689,1075.0,116.0,9.0,1081.2779476156904,1,1,1,1.0,3.0
2021-08-31 13:41:39.697,1023.0,-17.0,0.0,1023.1412414715772,1,1,1,1.0,3.0
2021-08-31 13:41:39.706,969.0,-50.0,0.0,970.2891321662836,1,1,1,1.0,3.0
2021-08-31 13:41:39.707,969.0,-50.0,18.0,970.456078346671,1,1,1,1.0,3.0
2021-08-31 13:41:39.716,1001.0,95.0,13.0,1005.5819210785364,1,1,1,1.0,3.0
2021-08-31 13:41:39.726,1069.0,115.0,0.0,1075.1678938658836,1,1,1,1.0,3.0
2021-08-31 13:41:39.737,1058.0,125.0,2.0,1065.3605023652792,1,1,1,1.0,3.0
2021-08-31 13:41:39.745,1032.0,125.0,2.0,1039.544611837318,1,1,1,1.0,3.0
2021-08-31 13:41:39.746,1032.0,-13.0,4.0,1032.0896278909115,1,1,1,1.0,3.0
2021-08-31 13:41:39.755,950.0,-25.0,1.0,950.3294165709068,1,1,1,1.0,3.0
2021-08-31 13:41:39.766,1010.0,104.0,5.0,1015.3526480981866,1,1,1,1.0,3.0
2021-08-31 13:41:39.775,1073.0,95.0,9.0,1077.2348861784974,1,1,1,1.0,3.0
2021-08-31 13:41:39.785,1060.0,96.0,7.0,1064.3613108338727,1,1,1,1.0,3.0
2021-08-31 13:41:39.797,1010.0,-25.0,11.0,1010.3692394367516,1,1,1,1.0,3.0
2021-08-31 13:41:39.804,958.0,-9.0,6.0,958.061062772097,1,1,1,1.0,3.0
2021-08-31 13:41:39.814,1023.0,120.0,9.0,1030.0533966741723,1,1,1,1.0,3.0
2021-08-31 13:41:39.823,1081.0,120.0,9.0,1087.6773418620064,1,1,1,1.0,3.0
2021-08-31 13:41:39.824,1081.0,84.0,14.0,1084.3491135238687,1,1,1,1.0,3.0
2021-08-31 13:41:39.833,1008.0,-47.0,2.0,1009.097121193,1,1,1,1.0,3.0
2021-08-31 13:41:39.844,1014.0,-37.0,2.0,1014.676795832052,1,1,1,1.0,3.0
2021-08-31 13:41:39.845,1014.0,-37.0,16.0,1014.800965707069,1,1,1,1.0,3.0
2021-08-31 13:41:39.853,932.0,20.0,5.0,932.2279764092044,1,1,1,1.0,3.0
2021-08-31 13:41:39.863,1045.0,139.0,15.0,1054.3106752755566,1,1,1,1.0,3.0
2021-08-31 13:41:39.872,1069.0,83.0,1.0,1072.217795039795,1,1,1,1.0,3.0
2021-08-31 13:41:39.882,1002.0,-55.0,5.0,1003.5208019767203,1,1,1,1.0,3.0
2021-08-31 13:41:39.893,1009.0,-49.0,5.0,1010.201465055362,1,1,1,1.0,3.0
2021-08-31 13:41:39.902,936.0,29.0,13.0,936.539374505952,1,1,1,1.0,3.0
2021-08-31 13:41:39.911,1033.0,29.0,13.0,1033.4887517530126,1,1,1,1.0,3.0
2021-08-31 13:41:39.912,1033.0,115.0,10.0,1039.4296512992114,1,1,1,1.0,3.0
2021-08-31 13:41:39.921,1060.0,91.0,23.0,1064.1475461607756,1,1,1,1.0,3.0
2021-08-31 13:41:39.931,998.0,-37.0,0.0,998.685636223932,1,1,1,1.0,3.0
2021-08-31 13:41:39.941,993.0,-43.0,4.0,993.9386298962326,1,1,1,1.0,3.0
2021-08-31 13:41:39.952,961.0,41.0,13.0,961.9620574638068,1,1,1,1.0,3.0
2021-08-31 13:41:39.960,1034.0,117.0,-2.0,1040.60030751485,1,1,1,1.0,3.0
2021-08-31 13:41:39.970,1053.0,51.0,11.0,1054.291705364317,1,1,1,1.0,3.0
2021-08-31 13:41:39.980,994.0,-61.0,11.0,995.9307204821026,1,1,1,1.0,3.0
2021-08-31 13:41:39.990,973.0,-65.0,4.0,975.1769070276428,1,1,1,1.0,3.0
2021-08-31 13:41:40.001,969.0,58.0,4.0,970.7424993271902,1,1,1,1.0,3.0
2021-08-31 13:41:40.009,1044.0,126.0,5.0,1051.5878470199243,1,1,1,1.0,3.0
2021-08-31 13:41:40.019,1044.0,48.0,9.0,1045.1416171983583,1,1,1,1.0,3.0
2021-08-31 13:41:40.029,975.0,-37.0,19.0,975.8867762194546,1,1,1,1.0,3.0
2021-08-31 13:41:40.038,998.0,-37.0,19.0,998.8663574272588,1,1,1,1.0,3.0
2021-08-31 13:41:40.039,998.0,38.0,8.0,998.7552252679332,1,1,1,1.0,3.0
2021-08-31 13:41:40.049,989.0,39.0,8.0,989.8009900985148,1,1,1,1.0,3.0
2021-08-31 13:41:40.058,1036.0,39.0,8.0,1036.7646791823108,1,1,1,1.0,3.0
2021-08-31 13:41:40.059,1036.0,134.0,-4.0,1044.6377362511848,1,1,1,1.0,3.0
2021-08-31 13:41:40.068,1061.0,40.0,10.0,1061.8008287809912,1,1,1,1.0,3.0
2021-08-31 13:41:40.077,975.0,40.0,10.0,975.8714054628304,1,1,1,1.0,3.0
2021-08-31 13:41:40.078,975.0,-40.0,8.0,975.852960235301,1,1,1,1.0,3.0
2021-08-31 13:41:40.105,994.0,50.0,17.0,995.401928870946,1,1,1,1.0,3.0
2021-08-31 13:41:40.113,1055.0,129.0,10.0,1062.9045112332528,1,1,1,1.0,3.0
2021-08-31 13:41:40.121,1020.0,7.0,2.0,1020.0259800612924,1,1,1,1.0,3.0
2021-08-31 13:41:40.126,995.0,-61.0,2.0,996.8701018688442,1,1,1,1.0,3.0
2021-08-31 13:41:40.127,995.0,-61.0,13.0,996.952857461174,1,1,1,1.0,3.0
2021-08-31 13:41:40.136,984.0,79.0,6.0,987.184379941255,1,1,1,1.0,3.0
2021-08-31 13:41:40.146,985.0,78.0,16.0,988.2130337128732,1,1,1,1.0,3.0
2021-08-31 13:41:40.156,1055.0,129.0,8.0,1062.8875763692038,1,1,1,1.0,3.0
2021-08-31 13:41:40.166,1022.0,26.0,1.0,1022.3311596542484,1,1,1,1.0,3.0
2021-08-31 13:41:40.175,973.0,-25.0,1.0,973.3216323497592,1,1,1,1.0,3.0
2021-08-31 13:41:40.185,1003.0,73.0,8.0,1005.6848412897552,1,1,1,1.0,3.0
2021-08-31 13:41:40.195,994.0,105.0,23.0,999.7949789831912,1,1,1,1.0,3.0
2021-08-31 13:41:40.204,1057.0,110.0,23.0,1062.9571957515504,1,1,1,1.0,3.0
2021-08-31 13:41:40.205,1057.0,110.0,9.0,1062.7464420076878,1,1,1,1.0,3.0
2021-08-31 13:41:40.214,1023.0,-40.0,-1.0,1023.7822034007038,1,1,1,1.0,3.0
2021-08-31 13:41:40.226,963.0,-34.0,1.0,963.6005396428544,1,1,1,1.0,3.0
2021-08-31 13:41:40.234,1016.0,115.0,12.0,1022.558066810878,1,1,1,1.0,3.0
2021-08-31 13:41:40.268,1003.0,133.0,8.0,1011.8112472195592,1,1,1,1.0,3.0
2021-08-31 13:41:40.271,1062.0,102.0,8.0,1066.9170539456195,1,1,1,1.0,3.0
2021-08-31 13:41:40.272,1021.0,102.0,8.0,1026.113541475796,1,1,1,1.0,3.0
2021-08-31 13:41:40.273,1021.0,-34.0,14.0,1021.6618814461074,1,1,1,1.0,3.0
2021-08-31 13:41:40.275,943.0,0.0,1.0,943.0005302225444,1,1,1,1.0,3.0
2021-08-31 13:41:40.283,1036.0,110.0,12.0,1041.892508851081,1,1,1,1.0,3.0
2021-08-31 13:41:40.292,1028.0,121.0,5.0,1035.108689945167,1,1,1,1.0,3.0
2021-08-31 13:41:40.303,1057.0,121.0,5.0,1063.9149402090377,1,1,1,1.0,3.0
2021-08-31 13:41:40.304,1057.0,89.0,2.0,1060.7421929950744,1,1,1,1.0,3.0
2021-08-31 13:41:40.313,1010.0,-38.0,12.0,1010.7858329042804,1,1,1,1.0,3.0
2021-08-31 13:41:40.322,944.0,-1.0,4.0,944.0090041943456,1,1,1,1.0,3.0
2021-08-31 13:41:40.331,1031.0,132.0,4.0,1039.423397850943,1,1,1,1.0,3.0
2021-08-31 13:41:40.332,1031.0,132.0,11.0,1039.4739053963788,1,1,1,1.0,3.0
2021-08-31 13:41:40.341,1060.0,84.0,11.0,1063.3799885271492,1,1,1,1.0,3.0
2021-08-31 13:41:40.352,1070.0,74.0,5.0,1072.5674803945903,1,1,1,1.0,3.0
2021-08-31 13:41:40.361,998.0,-55.0,3.0,999.5188842638242,1,1,1,1.0,3.0
2021-08-31 13:41:40.370,939.0,40.0,3.0,939.8563720058507,1,1,1,1.0,3.0
2021-08-31 13:41:40.371,939.0,40.0,12.0,939.9281887463532,1,1,1,1.0,3.0
2021-08-31 13:41:40.382,1042.0,125.0,11.0,1049.528465550125,1,1,1,1.0,3.0
2021-08-31 13:41:40.390,1057.0,65.0,17.0,1059.133136107071,1,1,1,1.0,3.0
2021-08-31 13:41:40.400,1055.0,67.0,0.0,1057.125347345337,1,1,1,1.0,3.0
2021-08-31 13:41:40.411,980.0,-62.0,0.0,981.9592659576058,1,1,1,1.0,3.0
2021-08-31 13:41:40.419,955.0,25.0,20.0,955.5364985179792,1,1,1,1.0,3.0
2021-08-31 13:41:40.429,1032.0,102.0,11.0,1037.0867851824166,1,1,1,1.0,3.0
2021-08-31 13:41:40.439,1044.0,97.0,13.0,1048.5771311639407,1,1,1,1.0,3.0
2021-08-31 13:41:40.449,1040.0,61.0,5.0,1041.7994048760058,1,1,1,1.0,3.0
2021-08-31 13:41:40.461,979.0,-48.0,6.0,980.194368480048,1,1,1,1.0,3.0
2021-08-31 13:41:40.468,972.0,68.0,21.0,974.6019700369992,1,1,1,1.0,3.0
2021-08-31 13:41:40.478,1040.0,117.0,9.0,1046.5992547293354,1,1,1,1.0,3.0
2021-08-31 13:41:40.488,1061.0,32.0,17.0,1061.618575572225,1,1,1,1.0,3.0
2021-08-31 13:41:40.497,1050.0,42.0,17.0,1050.9771643570568,1,1,1,1.0,3.0
2021-08-31 13:41:40.498,1050.0,42.0,1.0,1050.840140078404,1,1,1,1.0,3.0
2021-08-31 13:41:40.508,966.0,-71.0,7.0,968.6309926901988,1,1,1,1.0,3.0
2021-08-31 13:41:40.517,981.0,54.0,7.0,982.5100508391758,1,1,1,1.0,3.0
2021-08-31 13:41:40.518,981.0,54.0,10.0,982.5360044293542,1,1,1,1.0,3.0
2021-08-31 13:41:40.527,1053.0,121.0,1.0,1059.929714650929,1,1,1,1.0,3.0
2021-08-31 13:41:40.536,1036.0,121.0,1.0,1043.0426645156947,1,1,1,1.0,3.0
2021-08-31 13:41:40.537,1036.0,34.0,6.0,1036.5751299351148,1,1,1,1.0,3.0
2021-08-31 13:41:40.546,983.0,-48.0,14.0,984.270796071894,1,1,1,1.0,3.0
2021-08-31 13:41:40.556,989.0,-48.0,14.0,990.2630963536913,1,1,1,1.0,3.0
2021-08-31 13:41:40.557,989.0,-40.0,12.0,989.8813060160294,1,1,1,1.0,3.0
2021-08-31 13:41:40.566,988.0,16.0,12.0,988.2024084164134,1,1,1,1.0,3.0
2021-08-31 13:41:40.567,988.0,16.0,9.0,988.170531841544,1,1,1,1.0,3.0
2021-08-31 13:41:40.575,1027.0,16.0,9.0,1027.1640570035538,1,1,1,1.0,3.0
2021-08-31 13:41:40.576,1027.0,116.0,3.0,1033.5347115602842,1,1,1,1.0,3.0
2021-08-31 13:41:40.585,1046.0,23.0,15.0,1046.3603585763367,1,1,1,1.0,3.0
2021-08-31 13:41:40.595,991.0,-12.0,7.0,991.0973716038196,1,1,1,1.0,3.0
2021-08-31 13:41:40.605,992.0,-42.0,-3.0,992.8932470311196,1,1,1,1.0,3.0
2021-08-31 13:41:40.615,974.0,-42.0,-3.0,974.9097394118083,1,1,1,1.0,3.0
2021-08-31 13:41:40.616,974.0,91.0,15.0,978.3567856359967,1,1,1,1.0,3.0
2021-08-31 13:41:40.624,1062.0,131.0,0.0,1070.0490642956518,1,1,1,1.0,3.0
2021-08-31 13:41:40.634,1028.0,6.0,0.0,1028.0175095785091,1,1,1,1.0,3.0
2021-08-31 13:41:40.644,980.0,-70.0,10.0,982.5477087653302,1,1,1,1.0,3.0
2021-08-31 13:41:40.654,985.0,-48.0,19.0,986.3518641945176,1,1,1,1.0,3.0
2021-08-31 13:41:40.665,997.0,54.0,5.0,998.4738354108234,1,1,1,1.0,3.0
2021-08-31 13:41:40.673,1042.0,112.0,13.0,1048.082534917933,1,1,1,1.0,3.0
2021-08-31 13:41:40.683,1021.0,0.0,7.0,1021.0239958002946,1,1,1,1.0,3.0
2021-08-31 13:41:40.693,973.0,-1.0,15.0,973.1161287328456,1,1,1,1.0,3.0
2021-08-31 13:41:40.702,969.0,-1.0,15.0,969.1166080508578,1,1,1,1.0,3.0
2021-08-31 13:41:40.703,969.0,-26.0,10.0,969.4003301010372,1,1,1,1.0,3.0
2021-08-31 13:41:40.713,999.0,142.0,16.0,1009.168469582755,1,1,1,1.0,3.0
2021-08-31 13:41:40.723,1058.0,106.0,16.0,1063.4171335839949,1,1,1,1.0,3.0
2021-08-31 13:41:40.724,1058.0,106.0,10.0,1063.3437826027855,1,1,1,1.0,3.0
2021-08-31 13:41:40.732,1004.0,-24.0,6.0,1004.3047346298832,1,1,1,1.0,3.0
2021-08-31 13:41:40.741,950.0,-24.0,6.0,950.322050675454,1,1,1,1.0,3.0
2021-08-31 13:41:40.742,950.0,-9.0,4.0,950.0510512598784,1,1,1,1.0,3.0
2021-08-31 13:41:40.751,1030.0,119.0,4.0,1036.8591996987827,1,1,1,1.0,3.0
2021-08-31 13:41:40.762,1065.0,79.0,1.0,1067.9264955978947,1,1,1,1.0,3.0
2021-08-31 13:41:40.772,1067.0,89.0,5.0,1070.7170494579789,1,1,1,1.0,3.0
2021-08-31 13:41:40.780,999.0,89.0,5.0,1002.9690922456184,1,1,1,1.0,3.0
2021-08-31 13:41:40.781,999.0,-26.0,3.0,999.3427840335868,1,1,1,1.0,3.0
2021-08-31 13:41:40.790,948.0,-1.0,4.0,948.0089662023244,1,1,1,1.0,3.0
2021-08-31 13:41:40.800,1028.0,101.0,9.0,1032.9888673165844,1,1,1,1.0,3.0
2021-08-31 13:41:40.810,1025.0,91.0,4.0,1029.039357847891,1,1,1,1.0,3.0
2021-08-31 13:41:40.820,1040.0,73.0,4.0,1042.5665446387584,1,1,1,1.0,3.0
2021-08-31 13:41:40.821,1040.0,73.0,-2.0,1042.5607895945443,1,1,1,1.0,3.0
2021-08-31 13:41:40.829,1016.0,-40.0,-2.0,1016.7890636705334,1,1,1,1.0,3.0
2021-08-31 13:41:40.830,1016.0,-40.0,17.0,1016.9292010754732,1,1,1,1.0,3.0
2021-08-31 13:41:40.839,953.0,33.0,7.0,953.5968749948796,1,1,1,1.0,3.0
2021-08-31 13:41:40.849,1012.0,137.0,8.0,1021.2624540244296,1,1,1,1.0,3.0
2021-08-31 13:41:40.859,1021.0,158.0,0.0,1033.152941243454,1,1,1,1.0,3.0
2021-08-31 13:41:40.872,1067.0,64.0,11.0,1068.9742747138491,1,1,1,1.0,3.0
2021-08-31 13:41:40.879,989.0,-68.0,0.0,991.3349585281456,1,1,1,1.0,3.0
2021-08-31 13:41:40.888,952.0,36.0,9.0,952.722939788898,1,1,1,1.0,3.0
2021-08-31 13:41:40.898,1044.0,120.0,11.0,1050.9314915825864,1,1,1,1.0,3.0
2021-08-31 13:41:40.908,1042.0,121.0,11.0,1049.059578860991,1,1,1,1.0,3.0
2021-08-31 13:41:40.909,1042.0,121.0,7.0,1049.0252618502568,1,1,1,1.0,3.0
2021-08-31 13:41:40.917,1041.0,79.0,7.0,1044.0167623175405,1,1,1,1.0,3.0
2021-08-31 13:41:40.918,1041.0,79.0,2.0,1043.995210716984,1,1,1,1.0,3.0
2021-08-31 13:41:40.927,998.0,-38.0,3.0,998.7276906144136,1,1,1,1.0,3.0
2021-08-31 13:41:40.937,968.0,27.0,5.0,968.389384493655,1,1,1,1.0,3.0
2021-08-31 13:41:40.947,1037.0,79.0,16.0,1040.127876753623,1,1,1,1.0,3.0
2021-08-31 13:41:40.956,1030.0,83.0,16.0,1033.4626263198877,1,1,1,1.0,3.0
2021-08-31 13:41:40.957,1030.0,83.0,9.0,1033.3779560257708,1,1,1,1.0,3.0
2021-08-31 13:41:40.967,1031.0,61.0,4.0,1032.8107280620202,1,1,1,1.0,3.0
2021-08-31 13:41:40.976,984.0,-49.0,9.0,985.2603716784716,1,1,1,1.0,3.0
2021-08-31 13:41:40.986,963.0,75.0,0.0,965.916145428784,1,1,1,1.0,3.0
2021-08-31 13:41:40.995,1041.0,75.0,0.0,1043.6982322491497,1,1,1,1.0,3.0
2021-08-31 13:41:40.996,1041.0,129.0,4.0,1048.969970971524,1,1,1,1.0,3.0
2021-08-31 13:41:41.005,1037.0,39.0,4.0,1037.7408154255088,1,1,1,1.0,3.0
2021-08-31 13:41:41.016,1031.0,45.0,0.0,1031.9815889830593,1,1,1,1.0,3.0
2021-08-31 13:41:41.025,967.0,-69.0,17.0,969.6076526100647,1,1,1,1.0,3.0
2021-08-31 13:41:41.035,975.0,70.0,12.0,977.583244537262,1,1,1,1.0,3.0
2021-08-31 13:41:41.044,1058.0,119.0,-5.0,1064.6830514289218,1,1,1,1.0,3.0
2021-08-31 13:41:41.054,1039.0,47.0,1.0,1040.062978862338,1,1,1,1.0,3.0
2021-08-31 13:41:41.064,1037.0,15.0,4.0,1037.1161940689192,1,1,1,1.0,3.0
2021-08-31 13:41:41.074,976.0,-44.0,8.0,977.024052928074,1,1,1,1.0,3.0
2021-08-31 13:41:41.083,986.0,100.0,7.0,991.0827412481764,1,1,1,1.0,3.0
2021-08-31 13:41:41.093,1069.0,134.0,10.0,1077.4121773954478,1,1,1,1.0,3.0
2021-08-31 13:41:41.103,1018.0,0.0,4.0,1018.0078585158368,1,1,1,1.0,3.0
2021-08-31 13:41:41.124,1017.0,0.0,3.0,1017.0044247691354,1,1,1,1.0,3.0
2021-08-31 13:41:41.126,971.0,-60.0,15.0,972.9676253606796,1,1,1,1.0,3.0
2021-08-31 13:41:41.141,984.0,101.0,2.0,989.171875863846,1,1,1,1.0,3.0
2021-08-31 13:41:41.143,1069.0,101.0,2.0,1073.762543582146,1,1,1,1.0,3.0
2021-08-31 13:41:41.144,1069.0,127.0,11.0,1076.573731799174,1,1,1,1.0,3.0
2021-08-31 13:41:41.152,1012.0,-9.0,-2.0,1012.0419951760896,1,1,1,1.0,3.0
2021-08-31 13:41:41.163,963.0,-42.0,13.0,964.0031120281718,1,1,1,1.0,3.0
2021-08-31 13:41:41.172,969.0,-30.0,10.0,969.5158585603436,1,1,1,1.0,3.0
2021-08-31 13:41:41.181,1016.0,68.0,0.0,1018.273047860936,1,1,1,1.0,3.0
2021-08-31 13:41:41.191,1033.0,107.0,7.0,1038.550432092732,1,1,1,1.0,3.0
2021-08-31 13:41:41.200,1018.0,107.0,7.0,1023.6317697297208,1,1,1,1.0,3.0
2021-08-31 13:41:41.201,1018.0,88.0,-3.0,1021.8008612249256,1,1,1,1.0,3.0
2021-08-31 13:41:41.211,1008.0,88.0,-3.0,1011.8384258368528,1,1,1,1.0,3.0
2021-08-31 13:41:41.212,1008.0,55.0,11.0,1009.559309798092,1,1,1,1.0,3.0
2021-08-31 13:41:41.220,1022.0,55.0,11.0,1023.537981708544,1,1,1,1.0,3.0
2021-08-31 13:41:41.221,1022.0,54.0,8.0,1023.4568872209518,1,1,1,1.0,3.0
2021-08-31 13:41:41.230,1012.0,41.0,10.0,1012.8795584865952,1,1,1,1.0,3.0
2021-08-31 13:41:41.240,1028.0,37.0,7.0,1028.6894575137824,1,1,1,1.0,3.0
2021-08-31 13:41:41.249,1003.0,45.0,1.0,1004.0094621068072,1,1,1,1.0,3.0
2021-08-31 13:41:41.296,1013.0,40.0,12.0,1013.8604440454316,1,1,1,1.0,3.0
2021-08-31 13:41:41.297,1013.0,40.0,6.0,1013.8071808780998,1,1,1,1.0,3.0
2021-08-31 13:41:41.298,1022.0,34.0,9.0,1022.6050068330392,1,1,1,1.0,3.0
2021-08-31 13:41:41.300,1009.0,43.0,11.0,1009.975742282952,1,1,1,1.0,3.0
2021-08-31 13:41:41.308,1005.0,35.0,5.0,1005.6216982543684,1,1,1,1.0,3.0
2021-08-31 13:41:41.318,1021.0,22.0,8.0,1021.2683290888834,1,1,1,1.0,3.0
2021-08-31 13:41:43.837,1001.0,46.0,12.0,1002.1282353072384,1,1,1,1.0,3.0
2021-08-31 13:41:43.847,1014.0,40.0,3.0,1014.7930823571868,1,1,1,1.0,3.0
2021-08-31 13:41:43.859,1019.0,45.0,7.0,1020.0171567184544,1,1,1,1.0,3.0
2021-08-31 13:41:43.867,1013.0,44.0,2.0,1013.9570996842026,1,1,1,1.0,3.0
2021-08-31 13:41:43.876,1004.0,45.0,10.0,1005.057709785861,1,1,1,1.0,3.0
2021-08-31 13:41:43.886,1003.0,41.0,10.0,1003.887443890001,1,1,1,1.0,3.0
2021-08-31 13:41:43.896,1012.0,46.0,-1.0,1013.0454086564926,1,1,1,1.0,3.0
2021-08-31 13:41:43.907,1008.0,40.0,0.0,1008.7933385981491,1,1,1,1.0,3.0
2021-08-31 13:41:43.915,1010.0,42.0,0.0,1010.8728901301092,1,1,1,1.0,3.0
