time_stamp,Acceleration_X,Acceleration_Y,Acceleration_Z,magnitude,STD_Status_right,STD_Status_left,STD_Status_both,KMeans,KMeans_convert
2021-09-02 05:34:04.325,1001.0,42.0,7.0,1001.9051851348012,1,1,1,1.0,3.0
2021-09-02 05:34:04.452,1038.0,58.0,20.0,1039.8115213826013,1,1,1,1.0,3.0
2021-09-02 05:34:04.461,1033.0,58.0,20.0,1034.820274250558,1,1,1,1.0,3.0
2021-09-02 05:34:04.462,1033.0,219.0,35.0,1056.5391616026354,1,1,1,1.0,3.0
2021-09-02 05:34:04.472,1043.0,76.0,-58.0,1047.3724265990584,1,1,1,1.0,3.0
2021-09-02 05:34:04.481,973.0,-188.0,20.0,991.1977602880264,1,1,1,1.0,3.0
2021-09-02 05:34:04.492,939.0,-94.0,14.0,943.7971180290816,1,1,1,1.0,3.0
2021-09-02 05:34:04.500,918.0,-94.0,14.0,922.9062790988042,1,1,1,1.0,3.0
2021-09-02 05:34:04.501,918.0,-112.0,21.0,925.0454042910544,1,1,1,1.0,3.0
2021-09-02 05:34:04.510,1061.0,217.0,20.0,1083.1481893074465,1,1,1,1.0,3.0
2021-09-02 05:34:04.520,1107.0,168.0,-7.0,1119.697280518266,1,1,1,1.0,3.0
2021-09-02 05:34:04.530,1029.0,-125.0,2.0,1036.5664474600749,1,1,1,1.0,3.0
2021-09-02 05:34:04.540,902.0,-109.0,2.0,908.5642519932204,1,1,1,1.0,3.0
2021-09-02 05:34:04.541,902.0,-109.0,3.0,908.5670035831148,1,1,1,1.0,3.0
2021-09-02 05:34:04.549,1042.0,234.0,3.0,1067.9555234184616,1,1,1,1.0,3.0
2021-09-02 05:34:04.550,1042.0,234.0,34.0,1068.4923958550196,1,1,1,1.0,3.0
2021-09-02 05:34:04.559,1026.0,181.0,-1.0,1041.843558313819,1,1,1,1.0,3.0
2021-09-02 05:34:04.569,1114.0,117.0,-12.0,1120.191501485349,1,1,1,1.0,3.0
2021-09-02 05:34:04.579,1022.0,-136.0,17.0,1031.1493587254952,1,1,1,1.0,3.0
2021-09-02 05:34:04.588,915.0,-136.0,17.0,925.2080847031116,1,1,1,1.0,3.0
2021-09-02 05:34:04.589,915.0,-119.0,9.0,922.7496952045012,1,1,1,1.0,3.0
2021-09-02 05:34:04.599,1039.0,-119.0,9.0,1045.8312483378952,1,1,1,1.0,3.0
2021-09-02 05:34:04.600,1039.0,241.0,8.0,1066.6142695463998,1,1,1,1.0,3.0
2021-09-02 05:34:04.608,1037.0,252.0,18.0,1067.3317197572646,1,1,1,1.0,3.0
2021-09-02 05:34:04.618,1097.0,125.0,-9.0,1104.1354083625797,1,1,1,1.0,3.0
2021-09-02 05:34:04.628,1017.0,-145.0,15.0,1027.394276799321,1,1,1,1.0,3.0
2021-09-02 05:34:04.649,897.0,-88.0,5.0,901.3201429015108,1,1,1,1.0,3.0
2021-09-02 05:34:04.651,1061.0,-88.0,5.0,1064.6548736562474,1,1,1,1.0,3.0
2021-09-02 05:34:04.652,1061.0,211.0,-9.0,1081.8146791387146,1,1,1,1.0,3.0
2021-09-02 05:34:04.658,1048.0,245.0,22.0,1076.4817694694136,1,1,1,1.0,3.0
2021-09-02 05:34:04.667,1105.0,173.0,0.0,1118.4605491478007,1,1,1,1.0,3.0
2021-09-02 05:34:04.676,1017.0,-153.0,9.0,1028.4838355560091,1,1,1,1.0,3.0
2021-09-02 05:34:04.687,906.0,-84.0,2.0,909.8879051839298,1,1,1,1.0,3.0
2021-09-02 05:34:04.696,1044.0,185.0,-15.0,1060.3706899004706,1,1,1,1.0,3.0
2021-09-02 05:34:04.707,1098.0,81.0,-3.0,1100.9877383513406,1,1,1,1.0,3.0
2021-09-02 05:34:04.715,1095.0,175.0,-3.0,1108.899905311566,1,1,1,1.0,3.0
2021-09-02 05:34:04.716,1095.0,175.0,4.0,1108.9030615883428,1,1,1,1.0,3.0
2021-09-02 05:34:04.725,999.0,-147.0,14.0,1009.854444957292,1,1,1,1.0,3.0
2021-09-02 05:34:04.735,920.0,23.0,3.0,920.2923448556984,1,1,1,1.0,3.0
2021-09-02 05:34:04.745,1056.0,233.0,-4.0,1081.4069539262266,1,1,1,1.0,3.0
2021-09-02 05:34:04.754,1076.0,233.0,-4.0,1100.9455027384415,1,1,1,1.0,3.0
2021-09-02 05:34:04.755,1076.0,112.0,2.0,1081.8151413249864,1,1,1,1.0,3.0
2021-09-02 05:34:04.766,1095.0,131.0,15.0,1102.9102411347897,1,1,1,1.0,3.0
2021-09-02 05:34:04.774,976.0,-149.0,11.0,987.3692318479444,1,1,1,1.0,3.0
2021-09-02 05:34:04.784,935.0,56.0,9.0,936.7187411384486,1,1,1,1.0,3.0
2021-09-02 05:34:04.794,1049.0,282.0,1.0,1086.2439873251312,1,1,1,1.0,3.0
2021-09-02 05:34:04.804,1089.0,93.0,2.0,1092.9656902208778,1,1,1,1.0,3.0
2021-09-02 05:34:04.817,944.0,-203.0,2.0,965.5822077896836,1,1,1,1.0,3.0
2021-09-02 05:34:04.823,948.0,-166.0,9.0,962.466103299228,1,1,1,1.0,3.0
2021-09-02 05:34:04.851,963.0,53.0,15.0,964.5739992348954,1,1,1,1.0,3.0
2021-09-02 05:34:04.854,1070.0,76.0,7.0,1072.718509209196,1,1,1,1.0,3.0
2021-09-02 05:34:04.862,939.0,-159.0,7.0,952.392251123454,1,1,1,1.0,3.0
2021-09-02 05:34:04.872,932.0,-159.0,7.0,945.4914066240898,1,1,1,1.0,3.0
2021-09-02 05:34:04.873,932.0,-176.0,21.0,948.7049067017624,1,1,1,1.0,3.0
2021-09-02 05:34:04.883,976.0,60.0,21.0,978.0679935464608,1,1,1,1.0,3.0
2021-09-02 05:34:04.891,1050.0,301.0,12.0,1092.3575421994394,1,1,1,1.0,3.0
2021-09-02 05:34:04.901,1061.0,53.0,-6.0,1062.339870286341,1,1,1,1.0,3.0
2021-09-02 05:34:04.911,933.0,-135.0,6.0,942.73538174824,1,1,1,1.0,3.0
2021-09-02 05:34:04.921,928.0,-135.0,6.0,937.7872893145864,1,1,1,1.0,3.0
2021-09-02 05:34:04.922,928.0,-182.0,9.0,945.7214177547212,1,1,1,1.0,3.0
2021-09-02 05:34:04.931,987.0,52.0,23.0,988.6364346917424,1,1,1,1.0,3.0
2021-09-02 05:34:04.953,1068.0,291.0,5.0,1106.946249824263,1,1,1,1.0,3.0
2021-09-02 05:34:04.962,1056.0,-15.0,10.0,1056.1538713653422,1,1,1,1.0,3.0
2021-09-02 05:34:04.964,935.0,-108.0,10.0,941.2698869081069,1,1,1,1.0,3.0
2021-09-02 05:34:04.970,929.0,-187.0,-5.0,947.6470862087848,1,1,1,1.0,3.0
2021-09-02 05:34:04.979,989.0,71.0,12.0,991.6178699478947,1,1,1,1.0,3.0
2021-09-02 05:34:04.989,1089.0,71.0,12.0,1091.3780279994646,1,1,1,1.0,3.0
2021-09-02 05:34:04.990,1089.0,274.0,7.0,1122.9630448060168,1,1,1,1.0,3.0
2021-09-02 05:34:04.999,1038.0,-55.0,7.0,1039.4796775310233,1,1,1,1.0,3.0
2021-09-02 05:34:05.008,913.0,-55.0,7.0,914.681911923484,1,1,1,1.0,3.0
2021-09-02 05:34:05.009,913.0,-128.0,14.0,922.0352487839064,1,1,1,1.0,3.0
2021-09-02 05:34:05.018,986.0,201.0,47.0,1007.37579879606,1,1,1,1.0,3.0
2021-09-02 05:34:05.028,1009.0,201.0,47.0,1029.8985386920403,1,1,1,1.0,3.0
2021-09-02 05:34:05.029,1009.0,114.0,17.0,1015.5619134252722,1,1,1,1.0,3.0
2021-09-02 05:34:05.038,1079.0,196.0,-19.0,1096.8217722127874,1,1,1,1.0,3.0
2021-09-02 05:34:05.048,1032.0,-71.0,13.0,1034.5211452648032,1,1,1,1.0,3.0
2021-09-02 05:34:05.057,911.0,-128.0,13.0,920.0402165123,1,1,1,1.0,3.0
2021-09-02 05:34:05.058,911.0,-128.0,10.0,920.0027173872912,1,1,1,1.0,3.0
2021-09-02 05:34:05.069,1016.0,197.0,40.0,1035.6954185473642,1,1,1,1.0,3.0
2021-09-02 05:34:05.078,1023.0,167.0,23.0,1036.7965084817754,1,1,1,1.0,3.0
2021-09-02 05:34:05.086,1071.0,167.0,23.0,1084.185869673646,1,1,1,1.0,3.0
2021-09-02 05:34:05.087,1071.0,140.0,-25.0,1080.4008515361324,1,1,1,1.0,3.0
2021-09-02 05:34:05.096,1027.0,-113.0,15.0,1033.3068276170443,1,1,1,1.0,3.0
2021-09-02 05:34:05.106,907.0,-132.0,7.0,916.5816930312322,1,1,1,1.0,3.0
2021-09-02 05:34:05.116,1037.0,-132.0,7.0,1045.3908360034538,1,1,1,1.0,3.0
2021-09-02 05:34:05.117,1037.0,191.0,20.0,1054.6326374619744,1,1,1,1.0,3.0
2021-09-02 05:34:05.126,1031.0,194.0,20.0,1049.2840416207616,1,1,1,1.0,3.0
2021-09-02 05:34:05.135,1073.0,127.0,20.0,1080.674789194233,1,1,1,1.0,3.0
2021-09-02 05:34:05.136,1073.0,127.0,-11.0,1080.5456954705803,1,1,1,1.0,3.0
2021-09-02 05:34:05.145,1023.0,-112.0,16.0,1029.2370961056545,1,1,1,1.0,3.0
2021-09-02 05:34:05.155,913.0,-123.0,14.0,921.3544377708288,1,1,1,1.0,3.0
2021-09-02 05:34:05.165,1037.0,194.0,14.0,1055.0834090250871,1,1,1,1.0,3.0
2021-09-02 05:34:05.174,1048.0,194.0,14.0,1065.896805511678,1,1,1,1.0,3.0
2021-09-02 05:34:05.175,1048.0,212.0,18.0,1069.3792591966612,1,1,1,1.0,3.0
2021-09-02 05:34:05.185,1100.0,152.0,-20.0,1110.6322523679924,1,1,1,1.0,3.0
2021-09-02 05:34:05.194,1028.0,-102.0,13.0,1033.129711120535,1,1,1,1.0,3.0
2021-09-02 05:34:05.204,919.0,-81.0,1.0,922.5632769626158,1,1,1,1.0,3.0
2021-09-02 05:34:05.213,1042.0,-81.0,1.0,1045.1440092159548,1,1,1,1.0,3.0
2021-09-02 05:34:05.214,1042.0,200.0,4.0,1061.027803594232,1,1,1,1.0,3.0
2021-09-02 05:34:05.224,1091.0,111.0,-9.0,1096.669047616463,1,1,1,1.0,3.0
2021-09-02 05:34:05.234,1094.0,171.0,20.0,1107.46422064101,1,1,1,1.0,3.0
2021-09-02 05:34:05.243,1020.0,-113.0,7.0,1026.264098563328,1,1,1,1.0,3.0
2021-09-02 05:34:05.253,916.0,-12.0,5.0,916.092244263644,1,1,1,1.0,3.0
2021-09-02 05:34:05.263,1046.0,182.0,-7.0,1061.738668411394,1,1,1,1.0,3.0
2021-09-02 05:34:05.272,1061.0,117.0,-13.0,1067.5106556845228,1,1,1,1.0,3.0
2021-09-02 05:34:05.282,1071.0,149.0,21.0,1081.5188394105762,1,1,1,1.0,3.0
2021-09-02 05:34:05.292,1016.0,-146.0,20.0,1026.6313846751425,1,1,1,1.0,3.0
2021-09-02 05:34:05.301,934.0,24.0,20.0,934.5223378817652,1,1,1,1.0,3.0
2021-09-02 05:34:05.302,934.0,24.0,8.0,934.3425496037308,1,1,1,1.0,3.0
2021-09-02 05:34:05.311,1051.0,225.0,-1.0,1074.8148677795632,1,1,1,1.0,3.0
2021-09-02 05:34:05.321,1069.0,93.0,-9.0,1073.075486627106,1,1,1,1.0,3.0
2021-09-02 05:34:05.331,1083.0,148.0,20.0,1093.248828035045,1,1,1,1.0,3.0
2021-09-02 05:34:05.341,977.0,148.0,20.0,988.348622703548,1,1,1,1.0,3.0
2021-09-02 05:34:05.342,977.0,-152.0,16.0,988.8827028520624,1,1,1,1.0,3.0
2021-09-02 05:34:05.350,950.0,48.0,7.0,951.2376148996632,1,1,1,1.0,3.0
2021-09-02 05:34:05.360,1052.0,245.0,7.0,1080.1749858240562,1,1,1,1.0,3.0
2021-09-02 05:34:05.361,1052.0,245.0,3.0,1080.1564701468023,1,1,1,1.0,3.0
2021-09-02 05:34:05.370,1076.0,84.0,-3.0,1079.277999405158,1,1,1,1.0,3.0
2021-09-02 05:34:05.380,1071.0,98.0,17.0,1075.6086648962996,1,1,1,1.0,3.0
2021-09-02 05:34:05.390,952.0,-159.0,17.0,965.3362108612728,1,1,1,1.0,3.0
2021-09-02 05:34:05.399,953.0,70.0,10.0,955.6196942298752,1,1,1,1.0,3.0
2021-09-02 05:34:05.409,1059.0,285.0,17.0,1096.8112873233936,1,1,1,1.0,3.0
2021-09-02 05:34:05.419,1051.0,51.0,-6.0,1052.2537716729744,1,1,1,1.0,3.0
2021-09-02 05:34:05.428,951.0,51.0,-6.0,952.3854261799684,1,1,1,1.0,3.0
2021-09-02 05:34:05.429,951.0,-169.0,-2.0,965.901651308248,1,1,1,1.0,3.0
2021-09-02 05:34:05.439,939.0,-169.0,-2.0,954.0890943722184,1,1,1,1.0,3.0
2021-09-02 05:34:05.440,939.0,-178.0,14.0,955.8247747364576,1,1,1,1.0,3.0
2021-09-02 05:34:05.448,968.0,62.0,9.0,970.0252574031256,1,1,1,1.0,3.0
2021-09-02 05:34:05.458,1076.0,289.0,22.0,1114.3522782316193,1,1,1,1.0,3.0
2021-09-02 05:34:05.467,1060.0,32.0,22.0,1060.7110822462448,1,1,1,1.0,3.0
2021-09-02 05:34:05.468,1060.0,32.0,8.0,1060.5130833704975,1,1,1,1.0,3.0
2021-09-02 05:34:05.477,945.0,-137.0,6.0,954.8979003013884,1,1,1,1.0,3.0
2021-09-02 05:34:05.488,938.0,-168.0,9.0,952.968519941766,1,1,1,1.0,3.0
2021-09-02 05:34:05.497,968.0,50.0,17.0,969.4395288000176,1,1,1,1.0,3.0
2021-09-02 05:34:05.506,1072.0,265.0,17.0,1104.399384280886,1,1,1,1.0,3.0
2021-09-02 05:34:05.507,1072.0,265.0,18.0,1104.415229884123,1,1,1,1.0,3.0
2021-09-02 05:34:05.516,1046.0,6.0,-5.0,1046.0291582934003,1,1,1,1.0,3.0
2021-09-02 05:34:05.526,936.0,6.0,-5.0,936.0325849028976,1,1,1,1.0,3.0
2021-09-02 05:34:05.527,936.0,-127.0,20.0,944.7883360838024,1,1,1,1.0,3.0
2021-09-02 05:34:05.536,935.0,-181.0,6.0,952.3770261823832,1,1,1,1.0,3.0
2021-09-02 05:34:05.545,980.0,-181.0,6.0,996.5926951367844,1,1,1,1.0,3.0
2021-09-02 05:34:05.546,980.0,87.0,31.0,984.3424200957712,1,1,1,1.0,3.0
2021-09-02 05:34:05.555,1103.0,233.0,7.0,1127.362851969143,1,1,1,1.0,3.0
2021-09-02 05:34:05.565,1025.0,-20.0,-4.0,1025.2029067457818,1,1,1,1.0,3.0
2021-09-02 05:34:05.575,915.0,-107.0,22.0,921.4976939743256,1,1,1,1.0,3.0
2021-09-02 05:34:05.585,974.0,163.0,37.0,988.2378256270096,1,1,1,1.0,3.0
2021-09-02 05:34:05.596,1006.0,102.0,21.0,1011.3757956368148,1,1,1,1.0,3.0
2021-09-02 05:34:05.604,1078.0,219.0,-5.0,1100.0318177216511,1,1,1,1.0,3.0
2021-09-02 05:34:05.614,1020.0,-23.0,12.0,1020.3298486273936,1,1,1,1.0,3.0
2021-09-02 05:34:05.624,924.0,-103.0,12.0,929.8005162399083,1,1,1,1.0,3.0
2021-09-02 05:34:05.633,992.0,194.0,12.0,1010.8629976411244,1,1,1,1.0,3.0
2021-09-02 05:34:05.634,992.0,194.0,34.0,1011.3634361593264,1,1,1,1.0,3.0
2021-09-02 05:34:05.644,996.0,159.0,8.0,1008.6431479963566,1,1,1,1.0,3.0
2021-09-02 05:34:05.663,1095.0,159.0,8.0,1106.5125394680351,1,1,1,1.0,3.0
2021-09-02 05:34:05.664,1095.0,171.0,-1.0,1108.2720785078004,1,1,1,1.0,3.0
2021-09-02 05:34:05.666,998.0,-44.0,-1.0,998.9699695186036,1,1,1,1.0,3.0
2021-09-02 05:34:05.667,998.0,-44.0,6.0,998.9874874091266,1,1,1,1.0,3.0
2021-09-02 05:34:05.674,929.0,-124.0,9.0,937.2822413766304,1,1,1,1.0,3.0
2021-09-02 05:34:05.682,995.0,236.0,16.0,1022.7301696928668,1,1,1,1.0,3.0
2021-09-02 05:34:05.692,1077.0,154.0,-8.0,1087.9839153222808,1,1,1,1.0,3.0
2021-09-02 05:34:05.702,1094.0,161.0,-2.0,1105.7852413556625,1,1,1,1.0,3.0
2021-09-02 05:34:05.711,1017.0,161.0,-2.0,1029.6669364410998,1,1,1,1.0,3.0
2021-09-02 05:34:05.712,1017.0,-35.0,15.0,1017.7126313454108,1,1,1,1.0,3.0
2021-09-02 05:34:05.722,915.0,-99.0,0.0,920.3401545081036,1,1,1,1.0,3.0
2021-09-02 05:34:05.731,1008.0,-99.0,0.0,1012.8499395270752,1,1,1,1.0,3.0
2021-09-02 05:34:05.732,1008.0,185.0,6.0,1024.8536480883502,1,1,1,1.0,3.0
2021-09-02 05:34:05.741,1065.0,118.0,-24.0,1071.785892797624,1,1,1,1.0,3.0
2021-09-02 05:34:05.751,1077.0,147.0,-9.0,1087.0229988367312,1,1,1,1.0,3.0
2021-09-02 05:34:05.760,1029.0,-60.0,-9.0,1030.7870779166765,1,1,1,1.0,3.0
2021-09-02 05:34:05.761,1029.0,-60.0,21.0,1030.9616869699862,1,1,1,1.0,3.0
2021-09-02 05:34:05.770,937.0,-74.0,4.0,939.9260609218152,1,1,1,1.0,3.0
2021-09-02 05:34:05.781,1027.0,219.0,4.0,1050.0980906562968,1,1,1,1.0,3.0
2021-09-02 05:34:05.782,1027.0,219.0,5.0,1050.102375961506,1,1,1,1.0,3.0
2021-09-02 05:34:05.790,1077.0,89.0,-12.0,1080.7377110104003,1,1,1,1.0,3.0
2021-09-02 05:34:05.799,1098.0,131.0,-12.0,1105.8521601009784,1,1,1,1.0,3.0
2021-09-02 05:34:05.800,1098.0,131.0,-6.0,1105.8033279023898,1,1,1,1.0,3.0
2021-09-02 05:34:05.809,1010.0,-125.0,17.0,1017.847729279778,1,1,1,1.0,3.0
2021-09-02 05:34:05.819,922.0,-45.0,4.0,923.1061694084814,1,1,1,1.0,3.0
2021-09-02 05:34:05.830,1054.0,203.0,-1.0,1073.371324379406,1,1,1,1.0,3.0
2021-09-02 05:34:05.838,1073.0,203.0,-1.0,1092.0343401193938,1,1,1,1.0,3.0
2021-09-02 05:34:05.839,1073.0,121.0,-11.0,1079.8569349687025,1,1,1,1.0,3.0
2021-09-02 05:34:05.848,1090.0,130.0,12.0,1097.7905082482723,1,1,1,1.0,3.0
2021-09-02 05:34:05.870,1006.0,-114.0,9.0,1012.4786417500372,1,1,1,1.0,3.0
2021-09-02 05:34:05.871,923.0,-13.0,15.0,923.2134097812922,1,1,1,1.0,3.0
2021-09-02 05:34:05.878,1036.0,221.0,-7.0,1059.332808894353,1,1,1,1.0,3.0
2021-09-02 05:34:05.887,1069.0,221.0,-7.0,1091.6276837823416,1,1,1,1.0,3.0
2021-09-02 05:34:05.888,1069.0,111.0,-10.0,1074.793933737998,1,1,1,1.0,3.0
2021-09-02 05:34:05.897,989.0,-223.0,13.0,1013.91271813702,1,1,1,1.0,3.0
2021-09-02 05:34:05.907,992.0,-172.0,15.0,1006.9126079258318,1,1,1,1.0,3.0
2021-09-02 05:34:05.917,931.0,13.0,1.0,931.0912952014965,1,1,1,1.0,3.0
2021-09-02 05:34:05.926,1051.0,252.0,1.0,1080.789526226083,1,1,1,1.0,3.0
2021-09-02 05:34:05.927,1051.0,252.0,-4.0,1080.796465575272,1,1,1,1.0,3.0
2021-09-02 05:34:05.936,1077.0,108.0,0.0,1082.4014966730228,1,1,1,1.0,3.0
2021-09-02 05:34:05.952,961.0,-223.0,3.0,986.538899385118,1,1,1,1.0,3.0
2021-09-02 05:34:05.956,938.0,48.0,15.0,939.3471136912062,1,1,1,1.0,3.0
2021-09-02 05:34:05.974,933.0,28.0,2.0,933.4221981504404,1,1,1,1.0,3.0
2021-09-02 05:34:05.977,1039.0,231.0,3.0,1064.373524661338,1,1,1,1.0,3.0
2021-09-02 05:34:05.986,1070.0,98.0,7.0,1074.5012796641984,1,1,1,1.0,3.0
2021-09-02 05:34:05.995,955.0,-186.0,2.0,972.9465555722986,1,1,1,1.0,3.0
2021-09-02 05:34:06.004,959.0,-186.0,2.0,976.8730726148611,1,1,1,1.0,3.0
2021-09-02 05:34:06.005,959.0,73.0,18.0,961.9428257438173,1,1,1,1.0,3.0
2021-09-02 05:34:06.014,936.0,67.0,13.0,938.4849492666358,1,1,1,1.0,3.0
2021-09-02 05:34:06.024,1047.0,245.0,9.0,1075.3208823416385,1,1,1,1.0,3.0
2021-09-02 05:34:06.034,1040.0,83.0,5.0,1043.318743241968,1,1,1,1.0,3.0
2021-09-02 05:34:06.046,967.0,-208.0,14.0,989.2163565166117,1,1,1,1.0,3.0
2021-09-02 05:34:06.054,960.0,67.0,7.0,962.3606392616024,1,1,1,1.0,3.0
2021-09-02 05:34:06.063,942.0,38.0,1.0,942.76667314877,1,1,1,1.0,3.0
2021-09-02 05:34:06.073,1052.0,253.0,15.0,1082.098886423972,1,1,1,1.0,3.0
2021-09-02 05:34:06.083,1056.0,67.0,5.0,1058.1351520481685,1,1,1,1.0,3.0
2021-09-02 05:34:06.092,956.0,67.0,5.0,958.3579706977972,1,1,1,1.0,3.0
2021-09-02 05:34:06.093,956.0,-137.0,0.0,965.7665349348154,1,1,1,1.0,3.0
2021-09-02 05:34:06.103,980.0,68.0,18.0,982.5212465896094,1,1,1,1.0,3.0
2021-09-02 05:34:06.112,959.0,31.0,16.0,959.6343053476152,1,1,1,1.0,3.0
2021-09-02 05:34:06.122,1065.0,227.0,18.0,1089.0720820955792,1,1,1,1.0,3.0
2021-09-02 05:34:06.131,1006.0,227.0,18.0,1031.4499503126654,1,1,1,1.0,3.0
2021-09-02 05:34:06.132,1006.0,63.0,-1.0,1007.9712297481512,1,1,1,1.0,3.0
2021-09-02 05:34:06.142,962.0,-134.0,12.0,971.3619304872926,1,1,1,1.0,3.0
2021-09-02 05:34:06.152,965.0,116.0,12.0,972.0210903061724,1,1,1,1.0,3.0
2021-09-02 05:34:06.161,1090.0,242.0,0.0,1116.5410874661084,1,1,1,1.0,3.0
2021-09-02 05:34:06.170,1083.0,242.0,0.0,1109.708520288098,1,1,1,1.0,3.0
2021-09-02 05:34:06.171,1083.0,250.0,10.0,1111.525528271843,1,1,1,1.0,3.0
2021-09-02 05:34:06.180,1032.0,-22.0,-6.0,1032.2519072397008,1,1,1,1.0,3.0
2021-09-02 05:34:06.190,942.0,-142.0,13.0,952.731336736648,1,1,1,1.0,3.0
2021-09-02 05:34:06.200,971.0,131.0,24.0,980.0908121189588,1,1,1,1.0,3.0
2021-09-02 05:34:06.210,1092.0,131.0,24.0,1100.0913598424452,1,1,1,1.0,3.0
2021-09-02 05:34:06.211,1092.0,235.0,9.0,1117.0362572450367,1,1,1,1.0,3.0
2021-09-02 05:34:06.219,1088.0,238.0,9.0,1113.7634398740156,1,1,1,1.0,3.0
2021-09-02 05:34:06.220,1088.0,238.0,12.0,1113.791722001919,1,1,1,1.0,3.0
2021-09-02 05:34:06.229,1028.0,-23.0,9.0,1028.296649804909,1,1,1,1.0,3.0
2021-09-02 05:34:06.239,930.0,-112.0,17.0,936.8740577046628,1,1,1,1.0,3.0
2021-09-02 05:34:06.249,977.0,189.0,29.0,995.5355342728856,1,1,1,1.0,3.0
2021-09-02 05:34:06.259,1107.0,189.0,29.0,1123.3926294933574,1,1,1,1.0,3.0
2021-09-02 05:34:06.260,1107.0,222.0,-5.0,1129.0518145771698,1,1,1,1.0,3.0
2021-09-02 05:34:06.268,1011.0,-71.0,7.0,1013.514183423202,1,1,1,1.0,3.0
2021-09-02 05:34:06.278,1005.0,-59.0,2.0,1006.7323378137804,1,1,1,1.0,3.0
2021-09-02 05:34:06.288,926.0,-124.0,21.0,934.5014713739084,1,1,1,1.0,3.0
2021-09-02 05:34:06.298,992.0,195.0,22.0,1011.2235163404775,1,1,1,1.0,3.0
2021-09-02 05:34:06.308,1094.0,187.0,-14.0,1109.9554045095686,1,1,1,1.0,3.0
2021-09-02 05:34:06.317,1009.0,187.0,-14.0,1026.277740185375,1,1,1,1.0,3.0
2021-09-02 05:34:06.318,1009.0,-78.0,12.0,1012.0815184559,1,1,1,1.0,3.0
2021-09-02 05:34:06.327,1006.0,-67.0,2.0,1008.2306283782495,1,1,1,1.0,3.0
2021-09-02 05:34:06.337,933.0,-133.0,16.0,942.5677694468446,1,1,1,1.0,3.0
2021-09-02 05:34:06.346,1064.0,-124.0,0.0,1071.2011949209168,1,1,1,1.0,3.0
2021-09-02 05:34:06.359,968.0,84.0,-18.0,971.8045070897748,1,1,1,1.0,3.0
2021-09-02 05:34:06.366,1040.0,96.0,-18.0,1044.576469196966,1,1,1,1.0,3.0
2021-09-02 05:34:06.367,1040.0,96.0,15.0,1044.5290804951292,1,1,1,1.0,3.0
2021-09-02 05:34:06.375,1034.0,96.0,15.0,1038.5552464842683,1,1,1,1.0,3.0
2021-09-02 05:34:06.376,1034.0,70.0,5.0,1036.3787917552154,1,1,1,1.0,3.0
2021-09-02 05:34:07.177,1005.0,40.0,1.0,1005.7962020210656,1,1,1,1.0,3.0
2021-09-02 05:34:07.226,1008.0,47.0,0.0,1009.0951392212728,1,1,1,1.0,3.0
2021-09-02 05:34:07.236,1003.0,40.0,19.0,1003.9770913721088,1,1,1,1.0,3.0
2021-09-02 05:34:07.245,1009.0,41.0,13.0,1009.916333168248,1,1,1,1.0,3.0
2021-09-02 05:34:07.254,1004.0,41.0,13.0,1004.9208924089496,1,1,1,1.0,3.0
2021-09-02 05:34:07.831,1006.0,47.0,11.0,1007.157385913443,1,1,1,1.0,3.0
2021-09-02 05:34:07.840,1014.0,47.0,11.0,1015.1482650332414,1,1,1,1.0,3.0
2021-09-02 05:34:07.841,1014.0,36.0,5.0,1014.6511715855848,1,1,1,1.0,3.0
2021-09-02 05:34:07.860,1016.0,41.0,15.0,1016.9375595384408,1,1,1,1.0,3.0
2021-09-02 05:34:07.870,1012.0,42.0,6.0,1012.8889376432148,1,1,1,1.0,3.0
2021-09-02 05:34:07.879,1004.0,42.0,6.0,1004.8960145209056,1,1,1,1.0,3.0
2021-09-02 05:34:07.880,1004.0,53.0,11.0,1005.458104547375,1,1,1,1.0,3.0
2021-09-02 05:34:07.889,1022.0,47.0,7.0,1023.104100275236,1,1,1,1.0,3.0
2021-09-02 05:34:07.911,1005.0,40.0,4.0,1005.8036587724266,1,1,1,1.0,3.0
2021-09-02 05:34:07.912,1010.0,40.0,8.0,1010.8234267170504,1,1,1,1.0,3.0
2021-09-02 05:34:07.920,1010.0,44.0,8.0,1010.9896141899776,1,1,1,1.0,3.0
2021-09-02 05:34:07.928,1003.0,44.0,7.0,1003.9890437649208,1,1,1,1.0,3.0
2021-09-02 05:34:07.929,1003.0,44.0,6.0,1003.9825695698108,1,1,1,1.0,3.0
2021-09-02 05:34:07.938,1013.0,40.0,6.0,1013.8071808780998,1,1,1,1.0,3.0
2021-09-02 05:34:07.948,1008.0,47.0,9.0,1009.1352733900444,1,1,1,1.0,3.0
