time_stamp,Acceleration_X,Acceleration_Y,Acceleration_Z,magnitude,STD_Status_right,STD_Status_left,STD_Status_both,KMeans,KMeans_convert
2021-09-24 12:47:43.653,1039.0,116.0,33.0,1045.976099153322,1,1,1,2.0,3.0
2021-09-24 12:47:43.663,1074.0,-471.0,41.0,1173.4555807528463,1,1,1,2.0,3.0
2021-09-24 12:47:43.684,727.0,-471.0,41.0,867.2087407308577,1,1,1,2.0,3.0
2021-09-24 12:47:43.685,727.0,-418.0,-1.0,838.6024087730729,1,1,1,2.0,3.0
2021-09-24 12:47:43.686,605.0,-549.0,-63.0,819.3869659690713,1,1,1,2.0,3.0
2021-09-24 12:47:43.694,798.0,26.0,66.0,801.1466782056829,1,1,1,2.0,3.0
2021-09-24 12:47:43.701,1099.0,356.0,66.0,1157.105440312161,1,1,1,2.0,3.0
2021-09-24 12:47:43.702,1099.0,356.0,-40.0,1155.9139241310315,1,1,1,2.0,3.0
2021-09-24 12:47:43.712,1374.0,-6.0,58.0,1375.2367068981252,1,1,1,2.0,3.0
2021-09-24 12:47:43.722,830.0,-523.0,-17.0,981.1819403148428,1,1,1,2.0,3.0
2021-09-24 12:47:43.731,764.0,68.0,-17.0,767.2085765943965,1,1,1,2.0,3.0
2021-09-24 12:47:43.732,764.0,68.0,55.0,768.9895968086954,1,1,1,2.0,3.0
2021-09-24 12:47:43.743,693.0,-7.0,67.0,696.2664719775038,1,1,1,2.0,3.0
2021-09-24 12:47:43.750,1036.0,-7.0,67.0,1038.187844274821,1,1,1,2.0,3.0
2021-09-24 12:47:43.751,1036.0,487.0,76.0,1147.275468228969,1,1,1,2.0,3.0
2021-09-24 12:47:43.760,1396.0,40.0,-40.0,1397.145661697448,1,1,1,2.0,3.0
2021-09-24 12:47:43.771,903.0,40.0,-40.0,904.7701365540312,1,1,1,2.0,3.0
2021-09-24 12:47:43.773,903.0,-333.0,-40.0,963.2746233551468,1,1,1,2.0,3.0
2021-09-24 12:47:43.774,903.0,-333.0,-7.0,962.4692202870698,1,1,1,2.0,3.0
2021-09-24 12:47:43.779,828.0,-333.0,-7.0,892.4808121186696,1,1,1,2.0,3.0
2021-09-24 12:47:43.780,828.0,76.0,47.0,832.8079010191966,1,1,1,2.0,3.0
2021-09-24 12:47:43.791,1055.0,469.0,14.0,1154.6350072642003,1,1,1,2.0,3.0
2021-09-24 12:47:43.801,1046.0,469.0,14.0,1146.4174632305633,1,1,1,2.0,3.0
2021-09-24 12:47:43.802,1046.0,346.0,24.0,1102.0018148805382,1,1,1,2.0,3.0
2021-09-24 12:47:43.809,1353.0,346.0,24.0,1396.7465768706934,1,1,1,2.0,3.0
2021-09-24 12:47:43.810,1353.0,-19.0,-6.0,1353.1467030592064,1,1,1,2.0,3.0
2021-09-24 12:47:43.819,904.0,-459.0,-6.0,1013.87030728787,1,1,1,2.0,3.0
2021-09-24 12:47:43.820,904.0,-459.0,-1.0,1013.853046550633,1,1,1,2.0,3.0
2021-09-24 12:47:43.829,799.0,15.0,14.0,799.2634108978091,1,1,1,2.0,3.0
2021-09-24 12:47:43.840,1065.0,597.0,12.0,1220.974201201647,1,1,1,2.0,3.0
2021-09-24 12:47:43.849,1310.0,121.0,-48.0,1316.4516702104945,1,1,1,2.0,3.0
2021-09-24 12:47:43.858,1397.0,63.0,-19.0,1398.5488908150476,1,1,1,2.0,3.0
2021-09-24 12:47:43.869,929.0,-425.0,-9.0,1021.6393688577198,1,1,1,2.0,3.0
2021-09-24 12:47:43.878,776.0,31.0,31.0,777.2374154658279,1,1,1,2.0,3.0
2021-09-24 12:47:43.887,1036.0,447.0,31.0,1128.745321142019,1,1,1,2.0,3.0
2021-09-24 12:47:43.888,1036.0,447.0,10.0,1128.3638597544675,1,1,1,2.0,3.0
2021-09-24 12:47:43.898,1284.0,84.0,-30.0,1287.0944021321825,1,1,1,2.0,3.0
2021-09-24 12:47:43.907,1356.0,-44.0,-37.0,1357.2181106955506,1,1,1,2.0,3.0
2021-09-24 12:47:43.916,892.0,-421.0,-16.0,986.4892295407994,1,1,1,2.0,3.0
2021-09-24 12:47:43.927,805.0,79.0,19.0,809.0902298260683,1,1,1,2.0,3.0
2021-09-24 12:47:43.937,1067.0,555.0,-5.0,1202.7214972719162,1,1,1,2.0,3.0
2021-09-24 12:47:43.947,1318.0,82.0,-43.0,1321.2482734141984,1,1,1,2.0,3.0
2021-09-24 12:47:43.957,853.0,-425.0,-1.0,953.013641035636,1,1,1,2.0,3.0
2021-09-24 12:47:43.966,936.0,-450.0,-1.0,1038.5552464842683,1,1,1,2.0,3.0
2021-09-24 12:47:43.967,936.0,-450.0,-5.0,1038.566800932901,1,1,1,2.0,3.0
2021-09-24 12:47:43.976,757.0,9.0,41.0,758.1629112532478,1,1,1,2.0,3.0
2021-09-24 12:47:43.986,1043.0,536.0,2.0,1172.6674720482358,1,1,1,2.0,3.0
2021-09-24 12:47:43.996,1309.0,88.0,-42.0,1312.626755783989,1,1,1,2.0,3.0
2021-09-24 12:47:44.005,857.0,-419.0,5.0,953.9575462251976,1,1,1,2.0,3.0
2021-09-24 12:47:44.014,750.0,50.0,61.0,754.1359293920427,1,1,1,2.0,3.0
2021-09-24 12:47:44.024,773.0,50.0,61.0,777.0135133960026,1,1,1,2.0,3.0
2021-09-24 12:47:44.025,773.0,59.0,36.0,776.0837583663248,1,1,1,2.0,3.0
2021-09-24 12:47:44.033,1064.0,507.0,3.0,1178.623773729344,1,1,1,2.0,3.0
2021-09-24 12:47:44.045,1301.0,507.0,3.0,1396.3019014525476,1,1,1,2.0,3.0
2021-09-24 12:47:44.046,1301.0,74.0,-41.0,1303.7476749739576,1,1,1,2.0,3.0
2021-09-24 12:47:44.054,853.0,-405.0,2.0,944.265852395394,1,1,1,2.0,3.0
2021-09-24 12:47:44.063,754.0,24.0,60.0,756.7641640564119,1,1,1,2.0,3.0
2021-09-24 12:47:44.073,1057.0,424.0,10.0,1138.913956363693,1,1,1,2.0,3.0
2021-09-24 12:47:44.083,1054.0,537.0,6.0,1182.928991951757,1,1,1,2.0,3.0
2021-09-24 12:47:44.093,1297.0,537.0,6.0,1403.7855961648845,1,1,1,2.0,3.0
2021-09-24 12:47:44.094,1297.0,119.0,-49.0,1303.3690958435373,1,1,1,2.0,3.0
2021-09-24 12:47:44.103,872.0,-369.0,12.0,946.9366399078664,1,1,1,2.0,3.0
2021-09-24 12:47:44.112,751.0,33.0,65.0,754.5296548181523,1,1,1,2.0,3.0
2021-09-24 12:47:44.122,1066.0,358.0,-2.0,1124.5105601994142,1,1,1,2.0,3.0
2021-09-24 12:47:44.132,1378.0,-67.0,-23.0,1379.819553419939,1,1,1,2.0,3.0
2021-09-24 12:47:44.142,1283.0,81.0,-36.0,1286.0583190508896,1,1,1,2.0,3.0
2021-09-24 12:47:44.152,855.0,81.0,-36.0,859.5824567777079,1,1,1,2.0,3.0
2021-09-24 12:47:44.153,855.0,-414.0,-17.0,950.1105198870288,1,1,1,2.0,3.0
2021-09-24 12:47:44.160,772.0,-414.0,-17.0,876.1672214822921,1,1,1,2.0,3.0
2021-09-24 12:47:44.161,772.0,46.0,69.0,776.441240532727,1,1,1,2.0,3.0
2021-09-24 12:47:44.170,1051.0,365.0,69.0,1114.71386463074,1,1,1,2.0,3.0
2021-09-24 12:47:44.171,1051.0,365.0,2.0,1112.578087147145,1,1,1,2.0,3.0
2021-09-24 12:47:44.181,1370.0,-44.0,-33.0,1371.103570121528,1,1,1,2.0,3.0
2021-09-24 12:47:44.191,868.0,-44.0,-33.0,869.7407659757015,1,1,1,2.0,3.0
2021-09-24 12:47:44.192,868.0,-386.0,-3.0,949.9626308439716,1,1,1,2.0,3.0
2021-09-24 12:47:44.201,870.0,-429.0,21.0,970.248421797222,1,1,1,2.0,3.0
2021-09-24 12:47:44.213,757.0,-429.0,21.0,870.3625681289378,1,1,1,2.0,3.0
2021-09-24 12:47:44.214,757.0,37.0,41.0,759.011857614886,1,1,1,2.0,3.0
2021-09-24 12:47:44.219,1056.0,364.0,8.0,1117.0031333886222,1,1,1,2.0,3.0
2021-09-24 12:47:44.230,1385.0,-43.0,-19.0,1385.79760426983,1,1,1,2.0,3.0
2021-09-24 12:47:44.241,935.0,-413.0,5.0,1022.1638811853998,1,1,1,2.0,3.0
2021-09-24 12:47:44.248,897.0,-409.0,7.0,985.869666842428,1,1,1,2.0,3.0
2021-09-24 12:47:44.259,769.0,63.0,54.0,773.4636384472124,1,1,1,2.0,3.0
2021-09-24 12:47:44.268,1067.0,63.0,54.0,1070.2214724065295,1,1,1,2.0,3.0
2021-09-24 12:47:44.269,1067.0,379.0,0.0,1132.3117945159804,1,1,1,2.0,3.0
2021-09-24 12:47:44.278,1358.0,-43.0,-32.0,1359.057393931544,1,1,1,2.0,3.0
2021-09-24 12:47:44.287,889.0,-43.0,-32.0,890.6143946736994,1,1,1,2.0,3.0
2021-09-24 12:47:44.288,889.0,-427.0,-5.0,986.2428706966656,1,1,1,2.0,3.0
2021-09-24 12:47:44.298,817.0,-427.0,-5.0,921.8692965925268,1,1,1,2.0,3.0
2021-09-24 12:47:44.299,817.0,57.0,49.0,820.450486013629,1,1,1,2.0,3.0
2021-09-24 12:47:44.308,747.0,85.0,84.0,756.4985128868398,1,1,1,2.0,3.0
2021-09-24 12:47:44.317,1070.0,379.0,-7.0,1135.1607815635634,1,1,1,2.0,3.0
2021-09-24 12:47:44.336,1411.0,-42.0,-28.0,1411.9026170384416,1,1,1,2.0,3.0
2021-09-24 12:47:44.339,880.0,-42.0,-28.0,881.4465383674724,1,1,1,2.0,3.0
2021-09-24 12:47:44.340,880.0,-452.0,-10.0,989.3452380236132,1,1,1,2.0,3.0
2021-09-24 12:47:44.346,815.0,-452.0,-10.0,932.0026823995734,1,1,1,2.0,3.0
2021-09-24 12:47:44.347,815.0,98.0,49.0,822.3320497220086,1,1,1,2.0,3.0
2021-09-24 12:47:44.358,772.0,24.0,60.0,774.6999419129965,1,1,1,2.0,3.0
2021-09-24 12:47:44.368,1069.0,339.0,-13.0,1121.5395668455035,1,1,1,2.0,3.0
2021-09-24 12:47:44.377,1360.0,-80.0,-39.0,1362.9090211749278,1,1,1,2.0,3.0
2021-09-24 12:47:44.385,821.0,-403.0,-39.0,915.4075595056008,1,1,1,2.0,3.0
2021-09-24 12:47:44.386,821.0,-403.0,-7.0,914.6031926469532,1,1,1,2.0,3.0
2021-09-24 12:47:44.395,850.0,75.0,63.0,855.6249178232247,1,1,1,2.0,3.0
2021-09-24 12:47:44.406,1082.0,505.0,-24.0,1194.2884911109209,1,1,1,2.0,3.0
2021-09-24 12:47:44.435,1075.0,377.0,-9.0,1139.225614178333,1,1,1,2.0,3.0
2021-09-24 12:47:44.441,845.0,-386.0,-14.0,929.09472068245,1,1,1,2.0,3.0
2021-09-24 12:47:44.445,829.0,55.0,48.0,832.2079067156236,1,1,1,2.0,3.0
2021-09-24 12:47:44.455,1070.0,494.0,-25.0,1178.7964200827894,1,1,1,2.0,3.0
2021-09-24 12:47:44.464,1283.0,2.0,-22.0,1283.1901651742817,1,1,1,2.0,3.0
2021-09-24 12:47:44.478,1374.0,-75.0,-12.0,1376.0977436214332,1,1,1,2.0,3.0
2021-09-24 12:47:44.483,827.0,-402.0,-23.0,919.8162860049828,1,1,1,2.0,3.0
2021-09-24 12:47:44.493,855.0,91.0,53.0,861.4609683555025,1,1,1,2.0,3.0
2021-09-24 12:47:44.503,1080.0,493.0,-27.0,1187.5091578594247,1,1,1,2.0,3.0
2021-09-24 12:47:44.513,1293.0,40.0,-27.0,1293.900305278579,1,1,1,2.0,3.0
2021-09-24 12:47:44.514,1293.0,40.0,-14.0,1293.694322473435,1,1,1,2.0,3.0
2021-09-24 12:47:44.523,1381.0,-89.0,-14.0,1383.9356921475796,1,1,1,2.0,3.0
2021-09-24 12:47:44.524,1381.0,-89.0,6.0,1383.877884786082,1,1,1,2.0,3.0
2021-09-24 12:47:44.533,810.0,-412.0,-10.0,908.8146125585788,1,1,1,2.0,3.0
2021-09-24 12:47:44.542,840.0,86.0,74.0,847.6272765785678,1,1,1,2.0,3.0
2021-09-24 12:47:44.551,1086.0,448.0,74.0,1177.1049231058378,1,1,1,2.0,3.0
2021-09-24 12:47:44.552,1086.0,448.0,-17.0,1174.8995701761066,1,1,1,2.0,3.0
2021-09-24 12:47:44.562,1282.0,-5.0,-18.0,1282.1361082194044,1,1,1,2.0,3.0
2021-09-24 12:47:44.572,764.0,-349.0,-43.0,841.0386435830401,1,1,1,2.0,3.0
2021-09-24 12:47:44.582,845.0,-349.0,-43.0,915.245868605808,1,1,1,2.0,3.0
2021-09-24 12:47:44.583,845.0,-417.0,-17.0,942.445223872454,1,1,1,2.0,3.0
2021-09-24 12:47:44.590,863.0,126.0,-17.0,872.3153099653817,1,1,1,2.0,3.0
2021-09-24 12:47:44.591,863.0,126.0,81.0,875.9029626619606,1,1,1,2.0,3.0
2021-09-24 12:47:44.600,1085.0,126.0,81.0,1095.290828958227,1,1,1,2.0,3.0
2021-09-24 12:47:44.601,1085.0,491.0,-43.0,1191.7025635618982,1,1,1,2.0,3.0
2021-09-24 12:47:44.611,1271.0,-46.0,0.0,1271.8321430125911,1,1,1,2.0,3.0
2021-09-24 12:47:44.622,734.0,-338.0,-41.0,809.1235999524424,1,1,1,2.0,3.0
2021-09-24 12:47:44.632,857.0,185.0,109.0,883.4902376370663,1,1,1,2.0,3.0
2021-09-24 12:47:44.639,884.0,137.0,89.0,898.9694099356218,1,1,1,2.0,3.0
2021-09-24 12:47:44.649,1144.0,489.0,-59.0,1245.5271976155318,1,1,1,2.0,3.0
2021-09-24 12:47:44.660,1264.0,-39.0,-59.0,1265.9770929997114,1,1,1,2.0,3.0
2021-09-24 12:47:44.661,1264.0,-39.0,-37.0,1265.142679700594,1,1,1,2.0,3.0
2021-09-24 12:47:44.670,725.0,-343.0,-43.0,803.1954930152434,1,1,1,2.0,3.0
2021-09-24 12:47:44.679,870.0,219.0,128.0,906.2256893290986,1,1,1,2.0,3.0
2021-09-24 12:47:44.700,1122.0,363.0,-69.0,1181.2764282757869,1,1,1,2.0,3.0
2021-09-24 12:47:44.702,1131.0,487.0,-48.0,1232.328689920023,1,1,1,2.0,3.0
2021-09-24 12:47:44.709,1285.0,3.0,-48.0,1285.8996850454548,1,1,1,2.0,3.0
2021-09-24 12:47:44.710,1285.0,3.0,-15.0,1285.091047358124,1,1,1,2.0,3.0
2021-09-24 12:47:44.717,712.0,-331.0,-15.0,785.3215901781894,1,1,1,2.0,3.0
2021-09-24 12:47:44.718,712.0,-331.0,-63.0,787.7017201961667,1,1,1,2.0,3.0
2021-09-24 12:47:44.727,906.0,218.0,114.0,938.8056241842612,1,1,1,2.0,3.0
2021-09-24 12:47:44.738,1152.0,408.0,-20.0,1222.2798370258752,1,1,1,2.0,3.0
2021-09-24 12:47:44.746,1148.0,492.0,-60.0,1250.4271270250017,1,1,1,2.0,3.0
2021-09-24 12:47:44.757,1277.0,-63.0,-14.0,1278.6297353026011,1,1,1,2.0,3.0
2021-09-24 12:47:44.767,704.0,-311.0,-45.0,770.9487661317061,1,1,1,2.0,3.0
2021-09-24 12:47:44.776,921.0,315.0,135.0,982.6957820200512,1,1,1,2.0,3.0
2021-09-24 12:47:44.785,1144.0,399.0,-44.0,1212.3831902496834,1,1,1,2.0,3.0
2021-09-24 12:47:44.797,1287.0,-235.0,48.0,1309.1592722048758,1,1,1,2.0,3.0
2021-09-24 12:47:44.806,1265.0,-81.0,-15.0,1267.6793758675733,1,1,1,2.0,3.0
2021-09-24 12:47:44.817,685.0,-308.0,-67.0,754.0411129374843,1,1,1,2.0,3.0
2021-09-24 12:47:44.825,916.0,251.0,132.0,958.8957190435256,1,1,1,2.0,3.0
2021-09-24 12:47:44.836,1169.0,368.0,132.0,1232.6430951414932,1,1,1,2.0,3.0
2021-09-24 12:47:44.837,1169.0,368.0,-62.0,1227.1222432993382,1,1,1,2.0,3.0
2021-09-24 12:47:44.845,1286.0,-249.0,38.0,1310.4354238191213,1,1,1,2.0,3.0
2021-09-24 12:47:44.855,1274.0,-86.0,-31.0,1277.2756163021354,1,1,1,2.0,3.0
2021-09-24 12:47:44.865,678.0,-303.0,-65.0,745.4649555814143,1,1,1,2.0,3.0
2021-09-24 12:47:44.873,878.0,-303.0,-65.0,931.084314119833,1,1,1,2.0,3.0
2021-09-24 12:47:44.874,878.0,307.0,127.0,938.7555592378668,1,1,1,2.0,3.0
2021-09-24 12:47:44.885,1163.0,329.0,-43.0,1209.4043988674755,1,1,1,2.0,3.0
2021-09-24 12:47:44.893,1258.0,-246.0,55.0,1283.0062353706626,1,1,1,2.0,3.0
2021-09-24 12:47:44.903,643.0,-394.0,55.0,756.1150706076423,1,1,1,2.0,3.0
2021-09-24 12:47:44.904,643.0,-394.0,-35.0,754.9238372180336,1,1,1,2.0,3.0
2021-09-24 12:47:44.913,683.0,-336.0,-69.0,764.2944458780267,1,1,1,2.0,3.0
2021-09-24 12:47:44.924,902.0,212.0,107.0,932.7362971386927,1,1,1,2.0,3.0
2021-09-24 12:47:44.932,1137.0,368.0,-59.0,1196.5258041513357,1,1,1,2.0,3.0
2021-09-24 12:47:44.942,1274.0,-233.0,60.0,1296.5203430721788,1,1,1,2.0,3.0
2021-09-24 12:47:44.952,640.0,-447.0,60.0,782.9489127650667,1,1,1,2.0,3.0
2021-09-24 12:47:44.953,640.0,-447.0,-43.0,781.8299047746895,1,1,1,2.0,3.0
2021-09-24 12:47:44.964,1012.0,198.0,89.0,1035.0212558203816,1,1,1,2.0,3.0
2021-09-24 12:47:44.972,848.0,252.0,91.0,889.319402689495,1,1,1,2.0,3.0
2021-09-24 12:47:44.981,1138.0,342.0,-36.0,1188.8246296237303,1,1,1,2.0,3.0
2021-09-24 12:47:44.991,1273.0,-218.0,65.0,1293.1658826306857,1,1,1,2.0,3.0
2021-09-24 12:47:45.000,672.0,-387.0,-33.0,776.1713728294802,1,1,1,2.0,3.0
2021-09-24 12:47:45.012,989.0,234.0,115.0,1022.7912788052116,1,1,1,2.0,3.0
2021-09-24 12:47:45.021,1206.0,393.0,-68.0,1270.239741151252,1,1,1,2.0,3.0
2021-09-24 12:47:45.030,1156.0,352.0,-54.0,1209.609854457213,1,1,1,2.0,3.0
2021-09-24 12:47:45.040,1272.0,-228.0,53.0,1293.3588055910857,1,1,1,2.0,3.0
2021-09-24 12:47:45.052,673.0,-228.0,53.0,712.5461388569865,1,1,1,2.0,3.0
2021-09-24 12:47:45.053,673.0,-437.0,-24.0,802.7913801231301,1,1,1,2.0,3.0
2021-09-24 12:47:45.060,981.0,208.0,106.0,1008.3952598063916,1,1,1,2.0,3.0
2021-09-24 12:47:45.069,1183.0,319.0,-77.0,1227.6721875158694,1,1,1,2.0,3.0
2021-09-24 12:47:45.079,1149.0,332.0,-49.0,1197.0071010649854,1,1,1,2.0,3.0
2021-09-24 12:47:45.090,1255.0,-248.0,-49.0,1280.2070145097628,1,1,1,2.0,3.0
2021-09-24 12:47:45.091,1255.0,-248.0,62.0,1280.7704712398706,1,1,1,2.0,3.0
2021-09-24 12:47:45.098,666.0,-447.0,-24.0,802.4593447645806,1,1,1,2.0,3.0
2021-09-24 12:47:45.109,980.0,253.0,95.0,1016.5795591098612,1,1,1,2.0,3.0
2021-09-24 12:47:45.118,1184.0,253.0,95.0,1214.4504930214323,1,1,1,2.0,3.0
2021-09-24 12:47:45.119,1184.0,374.0,-82.0,1244.369719978753,1,1,1,2.0,3.0
2021-09-24 12:47:45.129,1225.0,-146.0,10.0,1233.7102577185617,1,1,1,2.0,3.0
2021-09-24 12:47:45.137,1271.0,-146.0,10.0,1279.3971236484783,1,1,1,2.0,3.0
2021-09-24 12:47:45.138,1271.0,-230.0,10.0,1291.681462280852,1,1,1,2.0,3.0
2021-09-24 12:47:45.139,1271.0,-230.0,36.0,1292.1443417822948,1,1,1,2.0,3.0
2021-09-24 12:47:45.147,652.0,-230.0,36.0,692.314957226839,1,1,1,2.0,3.0
2021-09-24 12:47:45.148,652.0,-386.0,-28.0,758.2110524121895,1,1,1,2.0,3.0
2021-09-24 12:47:45.157,1019.0,219.0,-28.0,1042.6437550764883,1,1,1,2.0,3.0
2021-09-24 12:47:45.158,1019.0,219.0,115.0,1048.592866655119,1,1,1,2.0,3.0
2021-09-24 12:47:45.167,1263.0,361.0,-78.0,1315.8928527809549,1,1,1,2.0,3.0
2021-09-24 12:47:45.177,1272.0,361.0,-78.0,1324.5335027850372,1,1,1,2.0,3.0
2021-09-24 12:47:45.178,1272.0,-184.0,-31.0,1285.6130833186164,1,1,1,2.0,3.0
2021-09-24 12:47:45.186,643.0,-251.0,-51.0,692.1351024185957,1,1,1,2.0,3.0
2021-09-24 12:47:45.196,686.0,-405.0,-41.0,797.6854016465388,1,1,1,2.0,3.0
2021-09-24 12:47:45.206,985.0,208.0,114.0,1013.1559603535874,1,1,1,2.0,3.0
2021-09-24 12:47:45.216,1220.0,340.0,-82.0,1269.1430179455742,1,1,1,2.0,3.0
2021-09-24 12:47:45.226,1206.0,340.0,-82.0,1255.6910448036174,1,1,1,2.0,3.0
2021-09-24 12:47:45.227,1206.0,-138.0,-8.0,1213.8962064361187,1,1,1,2.0,3.0
2021-09-24 12:47:45.235,653.0,-273.0,-40.0,708.8991465645871,1,1,1,2.0,3.0
2021-09-24 12:47:45.246,972.0,-273.0,-40.0,1010.4023950882143,1,1,1,2.0,3.0
2021-09-24 12:47:45.247,972.0,378.0,86.0,1046.453056758878,1,1,1,2.0,3.0
2021-09-24 12:47:45.255,998.0,222.0,105.0,1027.7708888658017,1,1,1,2.0,3.0
2021-09-24 12:47:45.265,1220.0,299.0,-69.0,1257.9992050871892,1,1,1,2.0,3.0
2021-09-24 12:47:45.277,1220.0,-178.0,-7.0,1232.9367380364656,1,1,1,2.0,3.0
2021-09-24 12:47:45.284,594.0,-235.0,-7.0,638.8348769439565,1,1,1,2.0,3.0
2021-09-24 12:47:45.285,594.0,-235.0,-53.0,640.9914195993579,1,1,1,2.0,3.0
2021-09-24 12:47:45.294,933.0,448.0,-53.0,1036.3406775766357,1,1,1,2.0,3.0
2021-09-24 12:47:45.295,933.0,448.0,102.0,1039.9985576913075,1,1,1,2.0,3.0
2021-09-24 12:47:45.303,1199.0,448.0,102.0,1284.0206384634166,1,1,1,2.0,3.0
2021-09-24 12:47:45.304,1199.0,344.0,-44.0,1248.1478277832318,1,1,1,2.0,3.0
2021-09-24 12:47:45.314,1240.0,355.0,-45.0,1290.6006353632404,1,1,1,2.0,3.0
2021-09-24 12:47:45.324,1220.0,-190.0,-8.0,1234.7323596634212,1,1,1,2.0,3.0
2021-09-24 12:47:45.332,574.0,-190.0,-8.0,604.6817344686376,1,1,1,2.0,3.0
2021-09-24 12:47:45.333,574.0,-257.0,-69.0,632.6815944849352,1,1,1,2.0,3.0
2021-09-24 12:47:45.354,933.0,409.0,84.0,1022.1673052881314,1,1,1,2.0,3.0
2021-09-24 12:47:45.356,1183.0,325.0,-74.0,1229.060616894057,1,1,1,2.0,3.0
2021-09-24 12:47:45.362,1245.0,330.0,-73.0,1290.0596885415807,1,1,1,2.0,3.0
2021-09-24 12:47:45.374,1209.0,-156.0,2.0,1219.0246100879178,1,1,1,2.0,3.0
2021-09-24 12:47:45.381,602.0,-276.0,2.0,662.2567477949923,1,1,1,2.0,3.0
2021-09-24 12:47:45.382,602.0,-276.0,-53.0,664.3711312210969,1,1,1,2.0,3.0
2021-09-24 12:47:45.391,963.0,-276.0,-53.0,1003.171969305363,1,1,1,2.0,3.0
2021-09-24 12:47:45.393,963.0,442.0,118.0,1066.141172640847,1,1,1,2.0,3.0
2021-09-24 12:47:45.401,1210.0,302.0,-36.0,1247.6377679438851,1,1,1,2.0,3.0
2021-09-24 12:47:45.411,1217.0,302.0,-36.0,1254.427757983695,1,1,1,2.0,3.0
2021-09-24 12:47:45.412,1217.0,-303.0,68.0,1255.9944267392273,1,1,1,2.0,3.0
2021-09-24 12:47:45.422,1176.0,-171.0,-2.0,1188.3690504216272,1,1,1,2.0,3.0
2021-09-24 12:47:45.430,611.0,-277.0,-60.0,673.535448213381,1,1,1,2.0,3.0
2021-09-24 12:47:45.458,958.0,-277.0,-60.0,999.0460449849146,1,1,1,2.0,3.0
2021-09-24 12:47:45.459,958.0,436.0,79.0,1055.5098294189402,1,1,1,2.0,3.0
2021-09-24 12:47:45.462,1204.0,305.0,-46.0,1242.882536686392,1,1,1,2.0,3.0
2021-09-24 12:47:45.474,1247.0,-305.0,65.0,1285.4022716644,1,1,1,2.0,3.0
2021-09-24 12:47:45.476,1204.0,-190.0,8.0,1218.925756557798,1,1,1,2.0,3.0
2021-09-24 12:47:45.479,636.0,-244.0,-25.0,681.6575386511911,1,1,1,2.0,3.0
2021-09-24 12:47:45.489,936.0,393.0,91.0,1019.2281393289728,1,1,1,2.0,3.0
2021-09-24 12:47:45.500,1178.0,293.0,-77.0,1216.3313693233436,1,1,1,2.0,3.0
2021-09-24 12:47:45.511,1244.0,-331.0,-77.0,1289.5836537425555,1,1,1,2.0,3.0
2021-09-24 12:47:45.512,1244.0,-331.0,64.0,1288.8727633090864,1,1,1,2.0,3.0
2021-09-24 12:47:45.518,663.0,-400.0,64.0,776.9588148673004,1,1,1,2.0,3.0
2021-09-24 12:47:45.519,663.0,-400.0,-38.0,775.2502821669915,1,1,1,2.0,3.0
2021-09-24 12:47:45.528,602.0,-243.0,-48.0,650.966204959981,1,1,1,2.0,3.0
2021-09-24 12:47:45.537,960.0,424.0,101.0,1054.3135207328037,1,1,1,2.0,3.0
2021-09-24 12:47:45.548,1177.0,272.0,101.0,1212.23512570788,1,1,1,2.0,3.0
2021-09-24 12:47:45.549,1177.0,272.0,-51.0,1209.0963567888211,1,1,1,2.0,3.0
2021-09-24 12:47:45.559,1220.0,-299.0,58.0,1257.4438357238864,1,1,1,2.0,3.0
2021-09-24 12:47:45.567,660.0,-325.0,1.0,735.6806372333039,1,1,1,2.0,3.0
2021-09-24 12:47:45.577,1046.0,-325.0,1.0,1095.3273483301691,1,1,1,2.0,3.0
2021-09-24 12:47:45.578,1046.0,343.0,100.0,1105.3347909117851,1,1,1,2.0,3.0
2021-09-24 12:47:45.586,980.0,343.0,100.0,1043.095872870754,1,1,1,2.0,3.0
2021-09-24 12:47:45.587,980.0,424.0,107.0,1073.1379221703053,1,1,1,2.0,3.0
2021-09-24 12:47:45.598,1198.0,269.0,-78.0,1230.3044338699265,1,1,1,2.0,3.0
2021-09-24 12:47:45.607,1224.0,269.0,-78.0,1255.6356955741585,1,1,1,2.0,3.0
2021-09-24 12:47:45.608,1224.0,-276.0,40.0,1255.3692683828133,1,1,1,2.0,3.0
2021-09-24 12:47:45.617,664.0,-385.0,-23.0,767.8867103941831,1,1,1,2.0,3.0
2021-09-24 12:47:45.625,1035.0,-385.0,-23.0,1104.5265954244833,1,1,1,2.0,3.0
2021-09-24 12:47:45.626,1035.0,311.0,88.0,1084.2923959892,1,1,1,2.0,3.0
2021-09-24 12:47:45.635,1253.0,275.0,88.0,1285.8374702893052,1,1,1,2.0,3.0
2021-09-24 12:47:45.636,1253.0,275.0,-70.0,1284.7311002696244,1,1,1,2.0,3.0
2021-09-24 12:47:45.647,1191.0,305.0,-51.0,1230.4905525846186,1,1,1,2.0,3.0
2021-09-24 12:47:45.655,1212.0,-286.0,50.0,1246.2904958315296,1,1,1,2.0,3.0
2021-09-24 12:47:45.666,671.0,-365.0,-32.0,764.5194569139493,1,1,1,2.0,3.0
2021-09-24 12:47:45.674,1041.0,313.0,-32.0,1087.5081608889195,1,1,1,2.0,3.0
2021-09-24 12:47:45.675,1041.0,313.0,106.0,1092.1932063513304,1,1,1,2.0,3.0
2021-09-24 12:47:45.686,1261.0,239.0,-62.0,1284.9459132586087,1,1,1,2.0,3.0
2021-09-24 12:47:45.694,1183.0,-233.0,32.0,1206.151731748539,1,1,1,2.0,3.0
2021-09-24 12:47:45.716,1220.0,-291.0,73.0,1256.3478817588702,1,1,1,2.0,3.0
2021-09-24 12:47:45.717,671.0,-377.0,-29.0,770.2019215764136,1,1,1,2.0,3.0
2021-09-24 12:47:45.724,1017.0,322.0,106.0,1072.0116603843449,1,1,1,2.0,3.0
2021-09-24 12:47:45.733,1235.0,231.0,-63.0,1257.996422888396,1,1,1,2.0,3.0
2021-09-24 12:47:45.744,1149.0,-276.0,39.0,1182.3273658340147,1,1,1,2.0,3.0
2021-09-24 12:47:45.753,1231.0,-357.0,61.0,1283.1722409715696,1,1,1,2.0,3.0
2021-09-24 12:47:45.763,665.0,-330.0,-16.0,742.550334994201,1,1,1,2.0,3.0
2021-09-24 12:47:45.773,999.0,328.0,101.0,1056.307720316386,1,1,1,2.0,3.0
2021-09-24 12:47:45.781,1290.0,243.0,-73.0,1314.7159389008714,1,1,1,2.0,3.0
2021-09-24 12:47:45.792,1129.0,-304.0,54.0,1170.4584571867556,1,1,1,2.0,3.0
2021-09-24 12:47:45.803,575.0,-304.0,54.0,652.6538132884845,1,1,1,2.0,3.0
2021-09-24 12:47:45.804,575.0,-197.0,-28.0,608.4554215388339,1,1,1,2.0,3.0
2021-09-24 12:47:45.812,671.0,-359.0,-32.0,761.6731582509652,1,1,1,2.0,3.0
2021-09-24 12:47:45.823,1063.0,373.0,114.0,1132.2958977228525,1,1,1,2.0,3.0
2021-09-24 12:47:45.830,1293.0,373.0,114.0,1350.5458155871647,1,1,1,2.0,3.0
2021-09-24 12:47:45.831,1293.0,228.0,-64.0,1314.507131970002,1,1,1,2.0,3.0
2021-09-24 12:47:45.840,1117.0,-221.0,50.0,1139.7499725817063,1,1,1,2.0,3.0
2021-09-24 12:47:45.852,583.0,-179.0,-48.0,611.7466795986718,1,1,1,2.0,3.0
2021-09-24 12:47:45.861,987.0,479.0,91.0,1100.859209890166,1,1,1,2.0,3.0
2021-09-24 12:47:45.869,1032.0,387.0,103.0,1106.9787712508312,1,1,1,2.0,3.0
2021-09-24 12:47:45.880,1269.0,244.0,-75.0,1294.4195610388465,1,1,1,2.0,3.0
2021-09-24 12:47:45.889,1126.0,244.0,-75.0,1154.5722151515686,1,1,1,2.0,3.0
2021-09-24 12:47:45.890,1126.0,-234.0,55.0,1151.3717905177284,1,1,1,2.0,3.0
2021-09-24 12:47:45.902,560.0,-159.0,-59.0,585.1170823006281,1,1,1,2.0,3.0
2021-09-24 12:47:45.910,967.0,398.0,72.0,1048.1779429085502,1,1,1,2.0,3.0
2021-09-24 12:47:45.918,1012.0,398.0,72.0,1089.8311795870038,1,1,1,2.0,3.0
2021-09-24 12:47:45.919,1012.0,336.0,91.0,1070.1967108901056,1,1,1,2.0,3.0
2021-09-24 12:47:45.928,1254.0,188.0,-88.0,1271.0641211205673,1,1,1,2.0,3.0
2021-09-24 12:47:45.938,1098.0,-262.0,59.0,1130.3667546420495,1,1,1,2.0,3.0
2021-09-24 12:47:45.948,589.0,-178.0,-56.0,617.8519240076865,1,1,1,2.0,3.0
2021-09-24 12:47:45.959,952.0,-178.0,-56.0,970.115457046222,1,1,1,2.0,3.0
2021-09-24 12:47:45.960,952.0,463.0,74.0,1061.2016773450746,1,1,1,2.0,3.0
2021-09-24 12:47:45.968,1261.0,213.0,-63.0,1280.413605051118,1,1,1,2.0,3.0
2021-09-24 12:47:45.977,1269.0,215.0,-58.0,1288.390468763255,1,1,1,2.0,3.0
2021-09-24 12:47:45.987,1101.0,-255.0,34.0,1130.6555620523873,1,1,1,2.0,3.0
2021-09-24 12:47:45.996,586.0,-213.0,-39.0,624.7287411349025,1,1,1,2.0,3.0
2021-09-24 12:47:46.008,977.0,492.0,-39.0,1094.583939220743,1,1,1,2.0,3.0
2021-09-24 12:47:46.009,977.0,492.0,80.0,1096.8103755891443,1,1,1,2.0,3.0
2021-09-24 12:47:46.017,1240.0,224.0,-64.0,1261.6940992173977,1,1,1,2.0,3.0
2021-09-24 12:47:46.026,1166.0,-368.0,-64.0,1224.3675918612023,1,1,1,2.0,3.0
2021-09-24 12:47:46.027,1166.0,-368.0,79.0,1225.2432411566283,1,1,1,2.0,3.0
2021-09-24 12:47:46.036,1122.0,-264.0,54.0,1153.904675439007,1,1,1,2.0,3.0
2021-09-24 12:47:46.046,605.0,-165.0,54.0,629.4171907407678,1,1,1,2.0,3.0
2021-09-24 12:47:46.047,605.0,-165.0,-47.0,628.8553092723317,1,1,1,2.0,3.0
2021-09-24 12:47:46.057,984.0,488.0,-47.0,1099.367545455113,1,1,1,2.0,3.0
2021-09-24 12:47:46.058,984.0,488.0,81.0,1101.3450867008032,1,1,1,2.0,3.0
2021-09-24 12:47:46.067,1279.0,252.0,-63.0,1305.1107232721674,1,1,1,2.0,3.0
2021-09-24 12:47:46.075,1132.0,-390.0,77.0,1199.772061685052,1,1,1,2.0,3.0
2021-09-24 12:47:46.084,1091.0,-390.0,77.0,1161.1675159080191,1,1,1,2.0,3.0
2021-09-24 12:47:46.085,1091.0,-289.0,53.0,1129.872116657456,1,1,1,2.0,3.0
2021-09-24 12:47:46.094,603.0,-289.0,53.0,670.7749249934735,1,1,1,2.0,3.0
2021-09-24 12:47:46.095,603.0,-121.0,-36.0,616.0730476169202,1,1,1,2.0,3.0
2021-09-24 12:47:46.107,981.0,501.0,70.0,1103.7490656847688,1,1,1,2.0,3.0
2021-09-24 12:47:46.120,1278.0,208.0,-88.0,1297.8027585114774,1,1,1,2.0,3.0
2021-09-24 12:47:46.124,1116.0,-410.0,55.0,1190.2020836815907,1,1,1,2.0,3.0
2021-09-24 12:47:46.134,651.0,-223.0,-18.0,688.3705397531187,1,1,1,2.0,3.0
2021-09-24 12:47:46.144,596.0,-181.0,-34.0,623.805258073383,1,1,1,2.0,3.0
2021-09-24 12:47:46.156,985.0,459.0,61.0,1088.4057147957285,1,1,1,2.0,3.0
2021-09-24 12:47:46.163,1264.0,199.0,-77.0,1281.8837700821398,1,1,1,2.0,3.0
2021-09-24 12:47:46.172,1124.0,199.0,-77.0,1144.0742982866104,1,1,1,2.0,3.0
2021-09-24 12:47:46.173,1124.0,-393.0,88.0,1193.9719427189234,1,1,1,2.0,3.0
2021-09-24 12:47:46.182,678.0,-393.0,88.0,788.5917828636055,1,1,1,2.0,3.0
2021-09-24 12:47:46.183,678.0,-204.0,-35.0,708.8899773589693,1,1,1,2.0,3.0
2021-09-24 12:47:46.192,1039.0,-204.0,-35.0,1059.4158767924898,1,1,1,2.0,3.0
2021-09-24 12:47:46.193,1039.0,425.0,80.0,1125.4092588920707,1,1,1,2.0,3.0
2021-09-24 12:47:46.203,1003.0,527.0,80.0,1135.842418647939,1,1,1,2.0,3.0
2021-09-24 12:47:46.211,1288.0,527.0,80.0,1393.941533924576,1,1,1,2.0,3.0
2021-09-24 12:47:46.212,1288.0,197.0,-91.0,1306.152364772196,1,1,1,2.0,3.0
2021-09-24 12:47:46.221,1085.0,-411.0,44.0,1161.069334708311,1,1,1,2.0,3.0
2021-09-24 12:47:46.232,653.0,-206.0,-33.0,685.51732290293,1,1,1,2.0,3.0
2021-09-24 12:47:46.241,1052.0,417.0,99.0,1135.955104746662,1,1,1,2.0,3.0
2021-09-24 12:47:46.253,1015.0,526.0,71.0,1145.400366684069,1,1,1,2.0,3.0
2021-09-24 12:47:46.260,1292.0,245.0,71.0,1316.9396341518468,1,1,1,2.0,3.0
2021-09-24 12:47:46.261,1292.0,245.0,-94.0,1318.379687343521,1,1,1,2.0,3.0
2021-09-24 12:47:46.270,1096.0,245.0,-94.0,1126.9769296662644,1,1,1,2.0,3.0
2021-09-24 12:47:46.271,1096.0,-391.0,67.0,1165.583973808837,1,1,1,2.0,3.0
2021-09-24 12:47:46.280,660.0,-182.0,-18.0,684.8707907335514,1,1,1,2.0,3.0
2021-09-24 12:47:46.291,1037.0,394.0,100.0,1113.8244924583046,1,1,1,2.0,3.0
2021-09-24 12:47:46.301,1333.0,176.0,-53.0,1345.6128715198886,1,1,1,2.0,3.0
2021-09-24 12:47:46.310,1280.0,222.0,-53.0,1300.1896015581729,1,1,1,2.0,3.0
2021-09-24 12:47:46.311,1280.0,222.0,-68.0,1300.8873894384556,1,1,1,2.0,3.0
2021-09-24 12:47:46.319,1082.0,-468.0,56.0,1180.2050669269304,1,1,1,2.0,3.0
2021-09-24 12:47:46.328,664.0,-468.0,56.0,814.2825062593448,1,1,1,2.0,3.0
2021-09-24 12:47:46.329,664.0,-157.0,-30.0,682.9677884058661,1,1,1,2.0,3.0
2021-09-24 12:47:46.340,1048.0,385.0,53.0,1117.737894141556,1,1,1,2.0,3.0
2021-09-24 12:47:46.348,1342.0,143.0,-54.0,1350.6772375367848,1,1,1,2.0,3.0
2021-09-24 12:47:46.369,1040.0,-349.0,55.0,1098.3742531578205,1,1,1,2.0,3.0
2021-09-24 12:47:46.372,1051.0,-423.0,64.0,1134.7360926664842,1,1,1,2.0,3.0
2021-09-24 12:47:46.380,662.0,-155.0,-20.0,680.1977653594578,1,1,1,2.0,3.0
2021-09-24 12:47:46.387,1046.0,-155.0,-20.0,1057.610987083625,1,1,1,2.0,3.0
2021-09-24 12:47:46.388,1046.0,418.0,68.0,1128.4786218621955,1,1,1,2.0,3.0
2021-09-24 12:47:46.397,1331.0,418.0,68.0,1396.7494406657197,1,1,1,2.0,3.0
2021-09-24 12:47:46.398,1331.0,117.0,-40.0,1336.7310873919257,1,1,1,2.0,3.0
2021-09-24 12:47:46.407,991.0,-390.0,33.0,1065.4904973766777,1,1,1,2.0,3.0
2021-09-24 12:47:46.416,660.0,-390.0,33.0,767.3258760135748,1,1,1,2.0,3.0
2021-09-24 12:47:46.417,660.0,-100.0,0.0,667.5327707311454,1,1,1,2.0,3.0
2021-09-24 12:47:46.428,680.0,-172.0,10.0,701.4869920390541,1,1,1,2.0,3.0
2021-09-24 12:47:46.437,1054.0,399.0,64.0,1128.8104358128517,1,1,1,2.0,3.0
2021-09-24 12:47:46.446,1349.0,157.0,-35.0,1358.556218932437,1,1,1,2.0,3.0
2021-09-24 12:47:46.456,999.0,-351.0,24.0,1059.1402173461263,1,1,1,2.0,3.0
2021-09-24 12:47:46.471,674.0,-351.0,24.0,760.2979679046894,1,1,1,2.0,3.0
2021-09-24 12:47:46.472,674.0,-71.0,-22.0,678.0862776962825,1,1,1,2.0,3.0
2021-09-24 12:47:46.475,1027.0,528.0,13.0,1154.8515056058072,1,1,1,2.0,3.0
2021-09-24 12:47:46.489,1019.0,371.0,50.0,1085.588319760304,1,1,1,2.0,3.0
2021-09-24 12:47:46.497,1365.0,153.0,-32.0,1373.9206672875985,1,1,1,2.0,3.0
2021-09-24 12:47:46.506,987.0,-410.0,5.0,1068.7815492419393,1,1,1,2.0,3.0
2021-09-24 12:47:46.517,694.0,-74.0,-4.0,697.945556615987,1,1,1,2.0,3.0
2021-09-24 12:47:46.523,1054.0,543.0,-4.0,1185.6563583096074,1,1,1,2.0,3.0
2021-09-24 12:47:46.524,1054.0,543.0,33.0,1186.108763984147,1,1,1,2.0,3.0
2021-09-24 12:47:46.533,1049.0,543.0,33.0,1181.6678890449718,1,1,1,2.0,3.0
2021-09-24 12:47:46.534,1049.0,402.0,62.0,1125.0995511509193,1,1,1,2.0,3.0
2021-09-24 12:47:46.544,1297.0,310.0,-20.0,1333.6824959487171,1,1,1,2.0,3.0
2021-09-24 12:47:46.553,1108.0,310.0,-20.0,1150.7232508296684,1,1,1,2.0,3.0
2021-09-24 12:47:46.554,1108.0,30.0,-8.0,1108.4349326866236,1,1,1,2.0,3.0
2021-09-24 12:47:46.564,766.0,-302.0,-42.0,824.4537585577496,1,1,1,2.0,3.0
2021-09-24 12:47:46.573,1018.0,-343.0,50.0,1075.394346274891,1,1,1,2.0,3.0
2021-09-24 12:47:46.582,976.0,-343.0,50.0,1035.724384187222,1,1,1,2.0,3.0
2021-09-24 12:47:46.583,976.0,-145.0,83.0,990.1969501063916,1,1,1,2.0,3.0
2021-09-24 12:47:46.592,909.0,47.0,-18.0,910.3922231653784,1,1,1,2.0,3.0
2021-09-24 12:47:46.602,1140.0,-3.0,33.0,1140.4814772717705,1,1,1,2.0,3.0
2021-09-24 12:47:46.614,955.0,-3.0,33.0,955.5746961907269,1,1,1,2.0,3.0
2021-09-24 12:47:46.615,955.0,62.0,-17.0,957.1614283912614,1,1,1,2.0,3.0
2021-09-24 12:47:46.621,1025.0,62.0,-17.0,1027.0141186955514,1,1,1,2.0,3.0
2021-09-24 12:47:46.622,1025.0,-13.0,5.0,1025.0946297781488,1,1,1,2.0,3.0
2021-09-24 12:47:46.631,981.0,36.0,5.0,981.6730616656444,1,1,1,2.0,3.0
2021-09-24 12:47:46.632,981.0,36.0,0.0,981.6603282194916,1,1,1,2.0,3.0
2021-09-24 12:47:46.641,998.0,36.0,0.0,998.6490875177326,1,1,1,2.0,3.0
2021-09-24 12:47:46.642,998.0,23.0,6.0,998.283026000142,1,1,1,2.0,3.0
2021-09-24 12:47:46.738,1010.0,25.0,-2.0,1010.3113381527498,1,1,1,2.0,3.0
2021-09-24 12:47:46.739,1010.0,25.0,3.0,1010.3138126344704,1,1,1,2.0,3.0
2021-09-24 12:47:46.748,1015.0,22.0,12.0,1015.3093124757596,1,1,1,2.0,3.0
2021-09-24 12:47:46.749,1015.0,26.0,2.0,1015.3349201125706,1,1,1,2.0,3.0
2021-09-24 12:47:46.759,1010.0,29.0,8.0,1010.447920478834,1,1,1,2.0,3.0
2021-09-24 12:47:46.769,1009.0,29.0,8.0,1009.4483642069068,1,1,1,2.0,3.0
2021-09-24 12:47:46.770,1009.0,24.0,14.0,1009.3824844923752,1,1,1,2.0,3.0
2021-09-24 12:47:46.780,1012.0,24.0,14.0,1012.381351072806,1,1,1,2.0,3.0
2021-09-24 12:47:46.781,1012.0,29.0,5.0,1012.4277752017672,1,1,1,2.0,3.0
2021-09-24 12:47:46.788,1020.0,26.0,5.0,1020.3435695882048,1,1,1,2.0,3.0
2021-09-24 12:47:46.789,1020.0,26.0,10.0,1020.380321252816,1,1,1,2.0,3.0
2021-09-24 12:47:46.887,1023.0,30.0,8.0,1023.4710547934416,1,1,1,2.0,3.0
2021-09-24 12:47:46.895,1012.0,28.0,8.0,1012.4188856397336,1,1,1,2.0,3.0
2021-09-24 12:47:46.905,1007.0,27.0,12.0,1007.4333724867367,1,1,1,2.0,3.0
2021-09-24 12:47:46.914,1015.0,25.0,6.0,1015.3255635509232,1,1,1,2.0,3.0
2021-09-24 12:47:46.925,1009.0,33.0,9.0,1009.5796154835932,1,1,1,2.0,3.0
2021-09-24 12:47:46.936,1016.0,33.0,9.0,1016.575624338888,1,1,1,2.0,3.0
2021-09-24 12:47:46.937,1016.0,21.0,10.0,1016.266205282848,1,1,1,2.0,3.0
2021-09-24 12:47:46.951,1010.0,22.0,3.0,1010.2440299254432,1,1,1,2.0,3.0
2021-09-24 12:47:46.954,1016.0,22.0,3.0,1016.2425891488704,1,1,1,2.0,3.0
2021-09-24 12:47:46.955,1016.0,31.0,7.0,1016.49692572088,1,1,1,2.0,3.0
2021-09-24 12:47:46.964,1016.0,27.0,9.0,1016.398543879319,1,1,1,2.0,3.0
2021-09-24 12:47:46.983,1022.0,34.0,7.0,1022.5893603983956,1,1,1,2.0,3.0
2021-09-24 12:47:46.984,1022.0,25.0,7.0,1022.3296924182532,1,1,1,2.0,3.0
2021-09-24 12:47:46.993,1011.0,29.0,4.0,1011.4237489796252,1,1,1,2.0,3.0
