,Acceleration_X,Acceleration_Y,Acceleration_Z,magnitude,time_stamp
0,-200.0,1040.0,-83.0,1062.3036289121862,2021-08-12 06:22:29.833
1,-200.0,1040.0,-14.0,1059.148714770499,2021-08-12 06:22:29.834
2,-473.0,833.0,120.0,965.4107933931544,2021-08-12 06:22:29.844
3,-13.0,1124.0,-216.0,1144.6401181157337,2021-08-12 06:22:29.853
4,-117.0,1096.0,-145.0,1111.723886583355,2021-08-12 06:22:29.863
5,-187.0,1096.0,-194.0,1128.6367883424675,2021-08-12 06:22:29.887
6,-187.0,1089.0,-122.0,1111.6537230630768,2021-08-12 06:22:29.888
7,-312.0,1094.0,-163.0,1149.238443492037,2021-08-12 06:22:29.892
8,-273.0,846.0,126.0,897.8424137898588,2021-08-12 06:22:29.902
9,-321.0,846.0,126.0,913.5825085891256,2021-08-12 06:22:29.911
10,-321.0,1155.0,-109.0,1203.7221440182946,2021-08-12 06:22:29.912
11,-188.0,1065.0,-24.0,1081.732406836367,2021-08-12 06:22:29.921
12,-259.0,1027.0,-4.0,1059.162876992958,2021-08-12 06:22:29.932
13,-180.0,1262.0,-39.0,1275.3685741776767,2021-08-12 06:22:29.941
14,-305.0,1262.0,-39.0,1298.918781140684,2021-08-12 06:22:29.950
15,-305.0,932.0,136.0,990.02272701186,2021-08-12 06:22:29.951
16,-215.0,1065.0,136.0,1094.9639263464344,2021-08-12 06:22:29.960
17,-215.0,1065.0,-41.0,1087.258478927619,2021-08-12 06:22:29.961
18,-198.0,953.0,102.0,978.6812555679198,2021-08-12 06:22:29.970
19,-67.0,1015.0,102.0,1022.3101290704304,2021-08-12 06:22:29.980
20,-67.0,1015.0,-56.0,1018.7492331285456,2021-08-12 06:22:29.981
21,-60.0,1046.0,-121.0,1054.683364806708,2021-08-12 06:22:29.990
22,-244.0,863.0,-121.0,904.9563525386184,2021-08-12 06:22:29.999
23,-244.0,863.0,38.0,897.6352265814884,2021-08-12 06:22:30.000
24,-28.0,1153.0,-123.0,1159.8801662240803,2021-08-12 06:22:30.009
25,-131.0,1036.0,-86.0,1047.7848061505758,2021-08-12 06:22:30.019
26,-339.0,947.0,-116.0,1012.5146912514406,2021-08-12 06:22:30.029
27,0.0,1093.0,-281.0,1128.5433088721052,2021-08-12 06:22:30.041
28,-59.0,1101.0,-131.0,1110.3346342432087,2021-08-12 06:22:30.048
29,-253.0,1072.0,-142.0,1110.5660718750596,2021-08-12 06:22:30.058
30,-18.0,1072.0,-142.0,1081.5137539578495,2021-08-12 06:22:30.070
31,-18.0,1192.0,-88.0,1195.3794376682242,2021-08-12 06:22:30.071
32,-213.0,1135.0,-160.0,1165.8447581046114,2021-08-12 06:22:30.078
33,-269.0,1117.0,-195.0,1165.3647497672134,2021-08-12 06:22:30.088
34,-284.0,913.0,44.0,957.1629955237509,2021-08-12 06:22:30.097
35,-187.0,907.0,70.0,928.718471874012,2021-08-12 06:22:30.107
36,-132.0,862.0,170.0,888.4638428208544,2021-08-12 06:22:30.117
37,-266.0,719.0,170.0,785.2496418337292,2021-08-12 06:22:30.126
38,-266.0,719.0,144.0,780.0339736190982,2021-08-12 06:22:30.127
39,26.0,938.0,-51.0,939.7451782265232,2021-08-12 06:22:30.137
40,-19.0,815.0,-18.0,815.4201371072461,2021-08-12 06:22:30.147
41,-161.0,886.0,-39.0,901.353426797724,2021-08-12 06:22:30.156
42,-274.0,936.0,-39.0,976.0599366842182,2021-08-12 06:22:30.165
43,-274.0,936.0,109.0,981.3526379441796,2021-08-12 06:22:30.166
44,-51.0,1034.0,21.0,1035.4699416207116,2021-08-12 06:22:30.184
45,-123.0,1034.0,21.0,1041.5018002864902,2021-08-12 06:22:30.187
46,-123.0,1052.0,-104.0,1064.2598366940283,2021-08-12 06:22:30.188
47,-281.0,830.0,4.0,876.285912245541,2021-08-12 06:22:30.195
48,6.0,830.0,4.0,830.0313247100979,2021-08-12 06:22:30.204
49,6.0,1106.0,-126.0,1113.1702475362877,2021-08-12 06:22:30.205
50,-139.0,966.0,-70.0,978.4564374564663,2021-08-12 06:22:30.214
51,-344.0,892.0,87.0,959.9838540308896,2021-08-12 06:22:30.224
52,-359.0,1031.0,-40.0,1092.4477104191303,2021-08-12 06:22:30.234
53,-209.0,974.0,52.0,997.5274432315132,2021-08-12 06:22:30.244
54,-224.0,909.0,-45.0,937.2737060218856,2021-08-12 06:22:30.254
55,-200.0,1181.0,-17.0,1197.9357244860844,2021-08-12 06:22:30.267
56,-334.0,895.0,150.0,966.995863486499,2021-08-12 06:22:30.282
57,-183.0,979.0,20.0,996.157618050477,2021-08-12 06:22:30.284
58,-201.0,939.0,42.0,961.189887587255,2021-08-12 06:22:30.293
59,-241.0,853.0,46.0,887.5843621876177,2021-08-12 06:22:30.302
60,-123.0,886.0,135.0,904.626994954274,2021-08-12 06:22:30.312
61,-324.0,778.0,109.0,849.7887972902444,2021-08-12 06:22:30.322
62,-165.0,778.0,109.0,802.7390609656416,2021-08-12 06:22:30.331
63,-165.0,924.0,27.0,939.0047923200392,2021-08-12 06:22:30.332
64,-229.0,798.0,79.0,833.9580325172244,2021-08-12 06:22:30.342
65,-277.0,976.0,-162.0,1027.3991434685938,2021-08-12 06:22:30.352
66,22.0,1131.0,-366.0,1188.9495363555177,2021-08-12 06:22:30.361
67,-120.0,1131.0,-366.0,1194.7874287922518,2021-08-12 06:22:30.370
68,-120.0,1151.0,-162.0,1168.5225714550832,2021-08-12 06:22:30.371
69,-214.0,1129.0,-165.0,1160.8884528670271,2021-08-12 06:22:30.380
70,89.0,1270.0,-106.0,1277.5198628592825,2021-08-12 06:22:30.390
71,-111.0,1173.0,-151.0,1187.8766771007838,2021-08-12 06:22:30.401
72,-255.0,1119.0,-178.0,1161.4086274864674,2021-08-12 06:22:30.410
73,-294.0,880.0,51.0,929.2131079574804,2021-08-12 06:22:30.419
74,-280.0,1083.0,-72.0,1120.9250643999358,2021-08-12 06:22:30.429
75,-166.0,1090.0,-2.0,1102.5697256863168,2021-08-12 06:22:30.439
76,-322.0,957.0,-131.0,1018.1817126623322,2021-08-12 06:22:30.449
77,-243.0,1247.0,-66.0,1272.1690139285738,2021-08-12 06:22:30.462
78,-82.0,904.0,51.0,909.1430030528752,2021-08-12 06:22:30.468
79,-269.0,923.0,51.0,962.7517852489292,2021-08-12 06:22:30.487
80,-269.0,923.0,0.0,961.4000208029954,2021-08-12 06:22:30.488
81,-315.0,929.0,110.0,987.0997923209184,2021-08-12 06:22:30.490
82,-78.0,929.0,110.0,938.7358520904588,2021-08-12 06:22:30.497
83,-78.0,1014.0,-70.0,1019.401785362376,2021-08-12 06:22:30.498
84,-60.0,1058.0,-96.0,1064.0394729520142,2021-08-12 06:22:30.508
85,-214.0,856.0,10.0,882.4012692647264,2021-08-12 06:22:30.517
86,87.0,1158.0,-71.0,1163.4319919960942,2021-08-12 06:22:30.527
87,-70.0,1158.0,-71.0,1162.2843886071946,2021-08-12 06:22:30.536
88,-70.0,1016.0,-56.0,1019.9470574495522,2021-08-12 06:22:30.537
89,-292.0,928.0,-110.0,979.0546460744672,2021-08-12 06:22:30.547
90,56.0,1147.0,-284.0,1182.962805839643,2021-08-12 06:22:30.557
91,-40.0,1148.0,-169.0,1161.062013847667,2021-08-12 06:22:30.566
92,-270.0,1040.0,-147.0,1084.4855923432085,2021-08-12 06:22:30.576
93,-213.0,1159.0,-147.0,1187.5432623698389,2021-08-12 06:22:30.585
94,-213.0,1159.0,16.0,1178.51856158484,2021-08-12 06:22:30.586
95,-284.0,889.0,125.0,941.5954545344832,2021-08-12 06:22:30.596
96,-181.0,946.0,90.0,967.3556739896655,2021-08-12 06:22:30.605
97,-189.0,845.0,125.0,874.854845102889,2021-08-12 06:22:30.615
98,-241.0,810.0,125.0,854.2868370752296,2021-08-12 06:22:30.624
99,-241.0,810.0,84.0,849.2567338561408,2021-08-12 06:22:30.625
100,-196.0,853.0,149.0,887.8209278903038,2021-08-12 06:22:30.634
101,-272.0,853.0,149.0,907.630982282998,2021-08-12 06:22:30.644
102,-272.0,692.0,178.0,764.5469246553805,2021-08-12 06:22:30.645
103,-65.0,927.0,41.0,930.1800900900856,2021-08-12 06:22:30.654
104,-111.0,861.0,43.0,869.1898526789184,2021-08-12 06:22:30.664
105,-201.0,919.0,-8.0,940.758204853936,2021-08-12 06:22:30.673
106,-296.0,902.0,131.0,958.3219709471342,2021-08-12 06:22:30.683
107,-78.0,922.0,18.0,925.4685299889996,2021-08-12 06:22:30.693
108,-24.0,969.0,-34.0,969.8932930998131,2021-08-12 06:22:30.703
109,-237.0,969.0,-34.0,998.1412725661634,2021-08-12 06:22:30.712
110,-237.0,811.0,23.0,845.2331039423385,2021-08-12 06:22:30.713
111,-140.0,1077.0,-168.0,1098.9781617484489,2021-08-12 06:22:30.722
112,-264.0,1112.0,-151.0,1152.8404052599822,2021-08-12 06:22:30.732
113,-422.0,1112.0,-151.0,1198.9282714157673,2021-08-12 06:22:30.741
114,-422.0,879.0,65.0,977.2154317242436,2021-08-12 06:22:30.742
115,-354.0,1037.0,-61.0,1097.454327067874,2021-08-12 06:22:30.752
116,-269.0,1019.0,12.0,1053.9762805680211,2021-08-12 06:22:30.761
117,-338.0,967.0,-79.0,1027.4113100409202,2021-08-12 06:22:30.772
118,-202.0,1221.0,-25.0,1237.848940703186,2021-08-12 06:22:30.781
119,-360.0,904.0,-25.0,973.365809960469,2021-08-12 06:22:30.790
120,-360.0,904.0,115.0,979.8168196147686,2021-08-12 06:22:30.791
121,-160.0,1008.0,-23.0,1020.8785432165768,2021-08-12 06:22:30.801
122,-199.0,973.0,93.0,997.4863407586092,2021-08-12 06:22:30.810
123,-253.0,833.0,93.0,875.5266986220352,2021-08-12 06:22:30.820
124,-253.0,833.0,56.0,872.3726268057704,2021-08-12 06:22:30.821
125,-132.0,955.0,56.0,965.7044061202164,2021-08-12 06:22:30.829
126,-132.0,955.0,96.0,968.847253182874,2021-08-12 06:22:30.830
127,-372.0,757.0,102.0,849.609910488337,2021-08-12 06:22:30.839
128,-4.0,1106.0,-125.0,1113.048516462782,2021-08-12 06:22:30.849
129,-175.0,1043.0,-120.0,1064.365538713087,2021-08-12 06:22:30.860
130,-420.0,958.0,-137.0,1054.9563972032208,2021-08-12 06:22:30.869
131,36.0,1138.0,-298.0,1176.9214077414006,2021-08-12 06:22:30.879
132,-217.0,1117.0,-162.0,1149.3572116622404,2021-08-12 06:22:30.902
133,-217.0,1037.0,-203.0,1078.7339801823246,2021-08-12 06:22:30.904
134,3.0,1160.0,-150.0,1169.6619169657529,2021-08-12 06:22:30.908
135,-136.0,1160.0,-150.0,1177.5381097866857,2021-08-12 06:22:30.917
136,-136.0,1111.0,-137.0,1127.6462211172438,2021-08-12 06:22:30.918
137,-269.0,1159.0,-203.0,1207.00082850013,2021-08-12 06:22:30.927
138,-427.0,923.0,3.0,1016.9891838166224,2021-08-12 06:22:30.937
139,-265.0,1133.0,-128.0,1170.5972834412355,2021-08-12 06:22:30.947
140,-119.0,1040.0,-128.0,1054.5828559198185,2021-08-12 06:22:30.956
141,-119.0,1040.0,-48.0,1047.885967078479,2021-08-12 06:22:30.957
142,-287.0,711.0,127.0,777.1865927819393,2021-08-12 06:22:30.966
143,-4.0,990.0,-6.0,990.0262622779256,2021-08-12 06:22:30.976
144,-136.0,844.0,60.0,856.9900816228856,2021-08-12 06:22:30.986
145,-190.0,872.0,-16.0,892.6029352405245,2021-08-12 06:22:30.996
146,-217.0,872.0,-16.0,898.7374477565737,2021-08-12 06:22:31.005
147,-217.0,899.0,100.0,930.20965378779,2021-08-12 06:22:31.006
148,-112.0,933.0,12.0,939.774973065361,2021-08-12 06:22:31.015
149,-86.0,987.0,-88.0,994.640135928568,2021-08-12 06:22:31.025
150,-34.0,1252.0,-151.0,1261.5312124557204,2021-08-12 06:22:31.036
151,-51.0,1106.0,-98.0,1111.5039361153877,2021-08-12 06:22:31.045
152,-121.0,942.0,-31.0,950.245231506057,2021-08-12 06:22:31.055
153,-254.0,905.0,-66.0,942.2828662349752,2021-08-12 06:22:31.064
154,27.0,1127.0,-251.0,1154.9281362924708,2021-08-12 06:22:31.074
155,-29.0,1091.0,-251.0,1119.876332458187,2021-08-12 06:22:31.083
156,-29.0,1091.0,-56.0,1092.8211198544802,2021-08-12 06:22:31.084
157,-243.0,1042.0,-126.0,1077.352774164526,2021-08-12 06:22:31.093
158,-205.0,1273.0,-86.0,1292.265452606391,2021-08-12 06:22:31.104
159,-328.0,930.0,134.0,995.208520863844,2021-08-12 06:22:31.113
160,-159.0,1023.0,6.0,1035.299956534337,2021-08-12 06:22:31.123
161,-155.0,963.0,76.0,978.3506528847416,2021-08-12 06:22:31.132
162,-228.0,871.0,56.0,902.0870246267816,2021-08-12 06:22:31.142
163,-166.0,945.0,113.0,966.10040886028,2021-08-12 06:22:31.152
164,-355.0,725.0,144.0,819.9914633701987,2021-08-12 06:22:31.162
165,-194.0,873.0,144.0,905.815102545768,2021-08-12 06:22:31.171
166,-194.0,873.0,98.0,899.6493761460628,2021-08-12 06:22:31.172
167,-160.0,862.0,77.0,880.098289965388,2021-08-12 06:22:31.181
168,-137.0,941.0,20.0,951.1309058168596,2021-08-12 06:22:31.201
169,-326.0,872.0,212.0,954.7795557090652,2021-08-12 06:22:31.204
170,-187.0,838.0,98.0,864.1857439231453,2021-08-12 06:22:31.211
171,-183.0,1106.0,-192.0,1137.3605409016088,2021-08-12 06:22:31.220
172,34.0,1136.0,-85.0,1139.6828506211716,2021-08-12 06:22:31.230
173,-112.0,1137.0,-97.0,1146.6132739507248,2021-08-12 06:22:31.240
174,-210.0,1123.0,-174.0,1155.6405150391709,2021-08-12 06:22:31.250
175,-373.0,860.0,32.0,937.951491282998,2021-08-12 06:22:31.262
176,-198.0,1084.0,-113.0,1107.7134105895802,2021-08-12 06:22:31.269
177,-142.0,1088.0,-83.0,1100.362213091671,2021-08-12 06:22:31.279
178,-284.0,950.0,-114.0,998.074145542304,2021-08-12 06:22:31.295
179,-244.0,1269.0,-143.0,1300.1330701124405,2021-08-12 06:22:31.298
180,-349.0,1032.0,82.0,1092.496681917158,2021-08-12 06:22:31.308
181,-177.0,1065.0,11.0,1079.664299678377,2021-08-12 06:22:31.318
182,-130.0,1087.0,66.0,1096.7337872063576,2021-08-12 06:22:31.329
183,-155.0,952.0,50.0,965.8307305113044,2021-08-12 06:22:31.337
184,-92.0,1028.0,-59.0,1033.7934996893723,2021-08-12 06:22:31.348
185,-277.0,797.0,33.0,844.4092609629528,2021-08-12 06:22:31.357
186,-2.0,1067.0,-97.0,1071.4018853819514,2021-08-12 06:22:31.367
187,-117.0,967.0,-97.0,978.8702671958118,2021-08-12 06:22:31.377
188,-117.0,967.0,-45.0,975.0912777786498,2021-08-12 06:22:31.378
189,-289.0,938.0,-132.0,990.3479186629312,2021-08-12 06:22:31.386
190,112.0,1112.0,-132.0,1125.3941531747887,2021-08-12 06:22:31.396
191,112.0,1112.0,-287.0,1153.8877761723625,2021-08-12 06:22:31.397
192,0.0,1100.0,-122.0,1106.744776359934,2021-08-12 06:22:31.406
193,-198.0,1054.0,-122.0,1079.353510208773,2021-08-12 06:22:31.415
194,-198.0,1054.0,-126.0,1079.812946764392,2021-08-12 06:22:31.416
195,15.0,1049.0,-98.0,1053.6745228010402,2021-08-12 06:22:31.426
196,-61.0,1151.0,-156.0,1163.124240999215,2021-08-12 06:22:31.435
197,-178.0,1105.0,-203.0,1137.5051648234394,2021-08-12 06:22:31.445
198,-293.0,967.0,-58.0,1012.0780602305338,2021-08-12 06:22:31.458
199,-312.0,858.0,98.0,918.211304657049,2021-08-12 06:22:31.464
200,-225.0,946.0,114.0,979.0490283943903,2021-08-12 06:22:31.474
201,-366.0,751.0,146.0,848.0996403725213,2021-08-12 06:22:31.485
202,-174.0,896.0,99.0,918.0920433159192,2021-08-12 06:22:31.499
203,-206.0,828.0,87.0,857.6648529583102,2021-08-12 06:22:31.503
204,-182.0,969.0,-25.0,986.260614645034,2021-08-12 06:22:31.513
205,-420.0,887.0,173.0,996.543024660752,2021-08-12 06:22:31.523
206,-247.0,829.0,95.0,870.2154905539202,2021-08-12 06:22:31.534
207,-45.0,941.0,-32.0,942.6186927915232,2021-08-12 06:22:31.542
208,-244.0,767.0,31.0,805.4725321201214,2021-08-12 06:22:31.552
209,-44.0,944.0,-20.0,945.2364783481434,2021-08-12 06:22:31.562
210,-116.0,883.0,31.0,891.1262536812615,2021-08-12 06:22:31.572
211,-299.0,818.0,-10.0,870.9908151065658,2021-08-12 06:22:31.582
212,-90.0,1019.0,-156.0,1034.793216058165,2021-08-12 06:22:31.591
213,-164.0,1037.0,-81.0,1053.008072143799,2021-08-12 06:22:31.601
214,-310.0,935.0,-113.0,991.5109681692886,2021-08-12 06:22:31.611
215,-241.0,935.0,-113.0,972.1496798333064,2021-08-12 06:22:31.620
216,-241.0,1237.0,-67.0,1262.037638107517,2021-08-12 06:22:31.621
217,-339.0,981.0,104.0,1043.1193603802012,2021-08-12 06:22:31.631
218,-185.0,1070.0,-36.0,1086.471812795896,2021-08-12 06:22:31.642
219,-72.0,1066.0,-12.0,1068.49613944085,2021-08-12 06:22:31.650
220,-161.0,1066.0,-12.0,1078.1562966471977,2021-08-12 06:22:31.659
221,-161.0,871.0,-2.0,885.7573031028307,2021-08-12 06:22:31.660
222,-173.0,953.0,45.0,969.6200286710254,2021-08-12 06:22:31.669
223,-385.0,953.0,45.0,1028.8143661516397,2021-08-12 06:22:31.680
224,-385.0,766.0,140.0,868.6662189817214,2021-08-12 06:22:31.681
225,-244.0,919.0,81.0,954.2840248060322,2021-08-12 06:22:31.689
226,-205.0,863.0,45.0,888.1548288446108,2021-08-12 06:22:31.699
227,-163.0,955.0,11.0,968.873056700412,2021-08-12 06:22:31.709
228,-389.0,870.0,143.0,963.6752565050116,2021-08-12 06:22:31.718
229,-41.0,1088.0,-96.0,1092.9963403415402,2021-08-12 06:22:31.729
230,-243.0,1069.0,-142.0,1105.4293283607053,2021-08-12 06:22:31.738
231,19.0,1079.0,-112.0,1084.9635938592594,2021-08-12 06:22:31.748
232,-66.0,1119.0,-171.0,1133.9126950519603,2021-08-12 06:22:31.757
233,-194.0,1124.0,-209.0,1159.6089858223763,2021-08-12 06:22:31.767
234,-330.0,959.0,-209.0,1035.5008450020696,2021-08-12 06:22:31.777
235,-330.0,959.0,3.0,1014.1942614706514,2021-08-12 06:22:31.778
236,-164.0,1169.0,-102.0,1184.846403547734,2021-08-12 06:22:31.787
237,-142.0,1169.0,-102.0,1182.002115057329,2021-08-12 06:22:31.796
238,-142.0,1085.0,-103.0,1099.0896232791938,2021-08-12 06:22:31.797
239,-343.0,954.0,-90.0,1017.77453298852,2021-08-12 06:22:31.806
240,-75.0,1313.0,-210.0,1331.8010361912172,2021-08-12 06:22:31.816
241,-312.0,1045.0,-14.0,1090.6718113163097,2021-08-12 06:22:31.826
242,-275.0,1022.0,-68.0,1060.5342993038932,2021-08-12 06:22:31.836
243,-337.0,905.0,130.0,974.41982738448,2021-08-12 06:22:31.845
244,-181.0,865.0,132.0,893.5379118985383,2021-08-12 06:22:31.855
245,-36.0,928.0,-27.0,929.09041540638,2021-08-12 06:22:31.865
246,-269.0,820.0,2.0,862.9976824997851,2021-08-12 06:22:31.875
247,8.0,972.0,57.0,973.702726708722,2021-08-12 06:22:31.885
248,-51.0,901.0,40.0,903.3282902688258,2021-08-12 06:22:31.894
249,-155.0,852.0,40.0,866.907722886352,2021-08-12 06:22:31.919
250,-155.0,852.0,-20.0,866.2153311965795,2021-08-12 06:22:31.920
251,-68.0,1051.0,-99.0,1057.8402525901536,2021-08-12 06:22:31.925
252,-162.0,1017.0,-164.0,1042.7986382806605,2021-08-12 06:22:31.933
253,105.0,996.0,-164.0,1014.8581181623372,2021-08-12 06:22:31.943
254,105.0,996.0,-78.0,1004.5521390151932,2021-08-12 06:22:31.944
255,-45.0,996.0,-78.0,1000.062498046997,2021-08-12 06:22:31.952
256,-45.0,1026.0,-122.0,1034.2074260031204,2021-08-12 06:22:31.953
257,-87.0,1026.0,-122.0,1036.8842751242782,2021-08-12 06:22:31.962
258,-87.0,1086.0,-166.0,1102.0530840209103,2021-08-12 06:22:31.963
259,-52.0,1121.0,-30.0,1122.6063424014671,2021-08-12 06:22:31.972
260,-191.0,949.0,17.0,968.179218946575,2021-08-12 06:22:31.982
261,-244.0,994.0,56.0,1025.0404870052694,2021-08-12 06:22:31.992
262,-417.0,699.0,223.0,843.9306843574299,2021-08-12 06:22:32.002
263,-314.0,873.0,149.0,939.6414209686586,2021-08-12 06:22:32.011
264,-278.0,875.0,54.0,919.6874469079156,2021-08-12 06:22:32.021
265,-192.0,929.0,46.0,949.747861276876,2021-08-12 06:22:32.031
266,-376.0,929.0,46.0,1003.2611823448568,2021-08-12 06:22:32.040
267,-376.0,899.0,165.0,988.332939853772,2021-08-12 06:22:32.041
268,-172.0,899.0,165.0,930.0591379046818,2021-08-12 06:22:32.051
269,-172.0,812.0,155.0,844.3654422108948,2021-08-12 06:22:32.052
270,-76.0,933.0,39.0,936.902342829817,2021-08-12 06:22:32.063
271,-219.0,771.0,132.0,812.2967438073355,2021-08-12 06:22:32.071
272,-96.0,771.0,132.0,788.086924139717,2021-08-12 06:22:32.079
273,-96.0,986.0,81.0,993.9683093539752,2021-08-12 06:22:32.080
274,-66.0,883.0,33.0,886.0778746814526,2021-08-12 06:22:32.089
275,-234.0,713.0,5.0,750.4332082204252,2021-08-12 06:22:32.100
276,-160.0,1230.0,-221.0,1259.897218030106,2021-08-12 06:22:32.109
277,-217.0,1113.0,-68.0,1135.9938380114568,2021-08-12 06:22:32.119
278,-375.0,971.0,-104.0,1046.0793468948712,2021-08-12 06:22:32.128
279,-76.0,1312.0,-237.0,1335.3984424133496,2021-08-12 06:22:32.138
280,-332.0,1061.0,44.0,1112.601006650632,2021-08-12 06:22:32.148
281,-275.0,1032.0,-51.0,1069.2286939658886,2021-08-12 06:22:32.159
282,-59.0,1198.0,-51.0,1200.5357137544888,2021-08-12 06:22:32.167
283,-59.0,1198.0,-35.0,1199.9624994140445,2021-08-12 06:22:32.168
284,-178.0,1015.0,5.0,1030.5018195034884,2021-08-12 06:22:32.177
285,-267.0,1079.0,-8.0,1111.5727596518368,2021-08-12 06:22:32.187
286,-399.0,746.0,150.0,859.1955539922212,2021-08-12 06:22:32.197
287,-251.0,951.0,89.0,987.584426770694,2021-08-12 06:22:32.217
288,-210.0,912.0,89.0,940.0877618605616,2021-08-12 06:22:32.218
289,-210.0,912.0,77.0,939.0276886226518,2021-08-12 06:22:32.219
290,-271.0,830.0,-19.0,873.328117032768,2021-08-12 06:22:32.226
291,-32.0,999.0,-168.0,1013.5329299041052,2021-08-12 06:22:32.236
292,-70.0,1034.0,-81.0,1039.527296418906,2021-08-12 06:22:32.247
293,-191.0,1083.0,-169.0,1112.623476293755,2021-08-12 06:22:32.259
294,10.0,1016.0,-96.0,1020.5743481001274,2021-08-12 06:22:32.265
295,-109.0,1066.0,-129.0,1079.295140357817,2021-08-12 06:22:32.275
296,-146.0,1150.0,-195.0,1175.517332921978,2021-08-12 06:22:32.285
297,-342.0,937.0,-70.0,999.916496513584,2021-08-12 06:22:32.295
298,-101.0,1176.0,-159.0,1190.9903442093894,2021-08-12 06:22:32.311
299,-188.0,1123.0,-94.0,1142.5012035004602,2021-08-12 06:22:32.314
300,-266.0,1033.0,-168.0,1079.8467483860848,2021-08-12 06:22:32.324
301,49.0,1281.0,-168.0,1292.898294530548,2021-08-12 06:22:32.333
302,49.0,1281.0,-353.0,1329.650706012673,2021-08-12 06:22:32.334
303,-284.0,1127.0,-82.0,1165.1218820363815,2021-08-12 06:22:32.344
304,-175.0,938.0,23.0,954.4621522092953,2021-08-12 06:22:32.353
305,-367.0,909.0,146.0,991.1034254809132,2021-08-12 06:22:32.363
306,-136.0,785.0,146.0,809.9611101775196,2021-08-12 06:22:32.372
307,-136.0,785.0,119.0,805.5321222645314,2021-08-12 06:22:32.373
308,-130.0,968.0,-33.0,977.247665640599,2021-08-12 06:22:32.382
309,-288.0,968.0,-33.0,1010.4736513140756,2021-08-12 06:22:32.392
310,-288.0,718.0,97.0,779.6646715094894,2021-08-12 06:22:32.393
311,-57.0,939.0,56.0,942.3937605905506,2021-08-12 06:22:32.403
312,-56.0,939.0,56.0,942.3338049757104,2021-08-12 06:22:32.411
313,-56.0,866.0,25.0,868.1687623958835,2021-08-12 06:22:32.412
314,-330.0,760.0,12.0,828.6398493917608,2021-08-12 06:22:32.421
315,-121.0,918.0,-72.0,928.7351613888644,2021-08-12 06:22:32.431
316,-40.0,988.0,-8.0,988.8417466915522,2021-08-12 06:22:32.441
317,-225.0,992.0,-153.0,1028.638906516762,2021-08-12 06:22:32.455
318,-142.0,951.0,-153.0,973.6395636990108,2021-08-12 06:22:32.460
319,-142.0,951.0,20.0,961.7510072778712,2021-08-12 06:22:32.461
320,-14.0,1081.0,-101.0,1085.798323815247,2021-08-12 06:22:32.470
321,-170.0,1055.0,-80.0,1071.5992721162145,2021-08-12 06:22:32.480
322,12.0,1225.0,-39.0,1225.679403433051,2021-08-12 06:22:32.490
323,-221.0,994.0,-39.0,1019.0181548922473,2021-08-12 06:22:32.499
324,-221.0,994.0,-44.0,1019.2217619340748,2021-08-12 06:22:32.500
325,-271.0,1000.0,-44.0,1037.0038572734434,2021-08-12 06:22:32.518
326,-271.0,1000.0,83.0,1039.389243738841,2021-08-12 06:22:32.519
327,-374.0,1000.0,83.0,1070.871140707415,2021-08-12 06:22:32.520
328,-374.0,779.0,181.0,882.8805128668319,2021-08-12 06:22:32.521
329,-302.0,963.0,52.0,1010.5825052908842,2021-08-12 06:22:32.529
330,-247.0,898.0,49.0,932.6381935134332,2021-08-12 06:22:32.540
331,-292.0,932.0,49.0,977.9003016667906,2021-08-12 06:22:32.548
332,-292.0,932.0,23.0,976.9426799971428,2021-08-12 06:22:32.549
333,-460.0,934.0,58.0,1042.7463737649723,2021-08-12 06:22:32.558
334,-225.0,836.0,98.0,871.2777972610113,2021-08-12 06:22:32.568
335,-135.0,934.0,37.0,944.43104565659,2021-08-12 06:22:32.578
336,-284.0,692.0,135.0,760.0953887506488,2021-08-12 06:22:32.589
337,-96.0,862.0,23.0,867.6341394850712,2021-08-12 06:22:32.597
338,-128.0,1134.0,-208.0,1160.0017241366495,2021-08-12 06:22:32.607
339,-301.0,991.0,-23.0,1035.958976021734,2021-08-12 06:22:32.617
340,-138.0,1229.0,-23.0,1236.9373468369365,2021-08-12 06:22:32.626
341,-138.0,1229.0,-191.0,1251.3856320095736,2021-08-12 06:22:32.627
342,-96.0,1066.0,-115.0,1076.4743378269636,2021-08-12 06:22:32.637
343,-282.0,1012.0,-178.0,1065.5289766120864,2021-08-12 06:22:32.646
344,36.0,1265.0,-228.0,1285.886853498394,2021-08-12 06:22:32.656
345,-298.0,1265.0,-228.0,1319.4745166163689,2021-08-12 06:22:32.665
346,-298.0,1086.0,-5.0,1126.154962693856,2021-08-12 06:22:32.666
347,-227.0,1052.0,-111.0,1081.9214389224385,2021-08-12 06:22:32.676
348,-16.0,1300.0,-144.0,1308.0489287484625,2021-08-12 06:22:32.685
349,-187.0,1018.0,-70.0,1037.397223825088,2021-08-12 06:22:32.696
350,-244.0,976.0,33.0,1006.5788593051216,2021-08-12 06:22:32.705
351,-320.0,818.0,165.0,893.7275871315599,2021-08-12 06:22:32.714
352,-20.0,982.0,4.0,982.21178978874,2021-08-12 06:22:32.724
353,-91.0,919.0,-33.0,924.0838706524424,2021-08-12 06:22:32.734
354,-223.0,818.0,-47.0,849.1536963353572,2021-08-12 06:22:32.744
355,-39.0,1014.0,-129.0,1022.9164188730182,2021-08-12 06:22:32.753
356,11.0,996.0,-18.0,996.22336852736,2021-08-12 06:22:32.763
357,-107.0,1044.0,-166.0,1062.5163528153344,2021-08-12 06:22:32.773
358,76.0,1044.0,-166.0,1059.8433846564312,2021-08-12 06:22:32.783
359,76.0,1053.0,-102.0,1060.654986317417,2021-08-12 06:22:32.784
360,-26.0,1053.0,-102.0,1058.2480805557834,2021-08-12 06:22:32.792
361,-26.0,1111.0,-182.0,1126.1087869295754,2021-08-12 06:22:32.793
362,-76.0,1163.0,-225.0,1187.0004212299168,2021-08-12 06:22:32.802
363,-284.0,952.0,-11.0,993.5195015700496,2021-08-12 06:22:32.812
364,-159.0,1179.0,-180.0,1203.213198065912,2021-08-12 06:22:32.822
365,-159.0,1091.0,-91.0,1106.2743782624634,2021-08-12 06:22:32.832
366,-365.0,1044.0,-206.0,1124.9875554867265,2021-08-12 06:22:32.841
367,-233.0,930.0,131.0,967.6517968773684,2021-08-12 06:22:32.852
368,-193.0,878.0,99.0,904.397036704566,2021-08-12 06:22:32.861
369,-201.0,878.0,99.0,906.1379585912952,2021-08-12 06:22:32.870
370,-201.0,871.0,46.0,895.0742985920219,2021-08-12 06:22:32.871
371,-465.0,833.0,203.0,975.3578830357604,2021-08-12 06:22:32.880
372,-175.0,789.0,182.0,828.4141476338993,2021-08-12 06:22:32.890
373,-96.0,977.0,-44.0,982.6906939622456,2021-08-12 06:22:32.900
374,-335.0,726.0,28.0,800.0531232362011,2021-08-12 06:22:32.910
375,-38.0,940.0,28.0,941.1843602610488,2021-08-12 06:22:32.919
376,-38.0,940.0,79.0,944.0789161929208,2021-08-12 06:22:32.920
377,-278.0,940.0,79.0,983.4251369575622,2021-08-12 06:22:32.941
378,-278.0,891.0,-16.0,933.4993304764604,2021-08-12 06:22:32.942
379,-278.0,779.0,-61.0,829.36481719446,2021-08-12 06:22:32.943
380,-85.0,974.0,-69.0,980.1336643540002,2021-08-12 06:22:32.949
381,23.0,1019.0,-69.0,1021.5923844665248,2021-08-12 06:22:32.958
382,23.0,1019.0,-32.0,1019.7617368777866,2021-08-12 06:22:32.959
383,-139.0,1028.0,-171.0,1051.354364617373,2021-08-12 06:22:32.969
384,-181.0,1279.0,-165.0,1302.2392253345772,2021-08-12 06:22:32.978
385,-441.0,1074.0,29.0,1161.377630230581,2021-08-12 06:22:32.988
386,-285.0,1021.0,29.0,1060.4277438845138,2021-08-12 06:22:32.998
387,-285.0,1021.0,-42.0,1060.8628563579744,2021-08-12 06:22:32.999
388,-107.0,1185.0,-56.0,1191.1381112196857,2021-08-12 06:22:33.007
389,-290.0,922.0,-12.0,966.6064349051272,2021-08-12 06:22:33.017
390,-243.0,970.0,75.0,1002.7831271017676,2021-08-12 06:22:33.027
391,-322.0,756.0,187.0,842.7271207217672,2021-08-12 06:22:33.037
392,-230.0,962.0,114.0,995.6605847375902,2021-08-12 06:22:33.050
393,-222.0,865.0,54.0,894.6647416770151,2021-08-12 06:22:33.056
394,-220.0,865.0,21.0,892.785528556551,2021-08-12 06:22:33.066
395,-384.0,860.0,88.0,945.9386872308372,2021-08-12 06:22:33.076
396,-154.0,815.0,143.0,841.659075873361,2021-08-12 06:22:33.085
397,-196.0,1079.0,-170.0,1109.7553784505844,2021-08-12 06:22:33.095
398,169.0,1104.0,-170.0,1129.7243026508725,2021-08-12 06:22:33.105
399,169.0,1104.0,-180.0,1131.2722925980288,2021-08-12 06:22:33.106
400,-14.0,1157.0,-192.0,1172.906219610076,2021-08-12 06:22:33.115
401,-135.0,1157.0,-192.0,1180.5668130182214,2021-08-12 06:22:33.124
402,-135.0,1175.0,-220.0,1203.0170406108136,2021-08-12 06:22:33.125
403,-365.0,967.0,-81.0,1036.761785561177,2021-08-12 06:22:33.134
404,-254.0,1204.0,-200.0,1246.648306460166,2021-08-12 06:22:33.145
405,-204.0,1105.0,-72.0,1125.9773532358456,2021-08-12 06:22:33.154
406,-316.0,1105.0,-72.0,1151.5489568403073,2021-08-12 06:22:33.163
407,-316.0,997.0,-156.0,1057.4502352356824,2021-08-12 06:22:33.164
408,-15.0,1249.0,-269.0,1277.7272791953687,2021-08-12 06:22:33.173
409,-366.0,1077.0,-26.0,1137.7877657981735,2021-08-12 06:22:33.183
410,-351.0,1027.0,-26.0,1085.636218997874,2021-08-12 06:22:33.193
411,-351.0,1027.0,-97.0,1089.6508615148248,2021-08-12 06:22:33.194
412,-69.0,1027.0,-97.0,1033.875717869416,2021-08-12 06:22:33.202
413,-69.0,1301.0,-118.0,1308.161305038488,2021-08-12 06:22:33.203
414,-229.0,1065.0,-47.0,1090.3554466319688,2021-08-12 06:22:33.213
415,6.0,941.0,36.0,941.7074917404024,2021-08-12 06:22:33.232
416,-229.0,941.0,36.0,969.1326018662256,2021-08-12 06:22:33.235
417,-229.0,774.0,44.0,808.3643980285129,2021-08-12 06:22:33.236
418,-7.0,913.0,62.0,915.1294990327872,2021-08-12 06:22:33.247
419,-60.0,890.0,46.0,893.2054634853058,2021-08-12 06:22:33.262
420,-294.0,774.0,6.0,827.9782605841774,2021-08-12 06:22:33.266
421,-140.0,774.0,6.0,786.5824813711529,2021-08-12 06:22:33.274
422,-140.0,951.0,-89.0,965.3610723454722,2021-08-12 06:22:33.275
423,43.0,1025.0,-16.0,1026.0263154519969,2021-08-12 06:22:33.285
424,-124.0,1025.0,-16.0,1032.5972109201148,2021-08-12 06:22:33.309
425,-124.0,1039.0,-118.0,1053.0056979902815,2021-08-12 06:22:33.310
426,-11.0,955.0,-118.0,962.3253088223336,2021-08-12 06:22:33.320
427,-11.0,955.0,-45.0,956.1229000499884,2021-08-12 06:22:33.321
428,-11.0,1105.0,-154.0,1115.7338392286936,2021-08-12 06:22:33.322
429,-125.0,1156.0,-205.0,1180.671842638758,2021-08-12 06:22:33.325
430,-330.0,931.0,-62.0,989.699449327926,2021-08-12 06:22:33.330
431,-175.0,904.0,13.0,920.8745842947344,2021-08-12 06:22:33.341
432,-221.0,953.0,91.0,982.5125953391132,2021-08-12 06:22:33.349
433,-394.0,724.0,184.0,844.551952220821,2021-08-12 06:22:33.359
434,-240.0,724.0,184.0,784.6222020819956,2021-08-12 06:22:33.368
435,-240.0,910.0,137.0,951.0357511681672,2021-08-12 06:22:33.369
436,-189.0,870.0,69.0,892.9624852142446,2021-08-12 06:22:33.378
437,-209.0,879.0,66.0,905.9127993355652,2021-08-12 06:22:33.389
438,-410.0,851.0,120.0,952.2084855744564,2021-08-12 06:22:33.398
439,-147.0,775.0,190.0,811.37784046645,2021-08-12 06:22:33.408
440,-134.0,917.0,53.0,928.253198216952,2021-08-12 06:22:33.417
441,-274.0,772.0,124.0,828.5143330081864,2021-08-12 06:22:33.427
442,-82.0,927.0,124.0,938.8445025668522,2021-08-12 06:22:33.437
443,-82.0,927.0,30.0,931.1031092204556,2021-08-12 06:22:33.438
444,-36.0,875.0,53.0,877.3425784720584,2021-08-12 06:22:33.448
445,-331.0,671.0,53.0,750.0739963496935,2021-08-12 06:22:33.456
446,-331.0,671.0,24.0,748.5839966229574,2021-08-12 06:22:33.457
447,-15.0,919.0,-79.0,922.5112465439108,2021-08-12 06:22:33.466
448,-165.0,1130.0,-101.0,1146.440578486299,2021-08-12 06:22:33.476
449,-272.0,1037.0,-182.0,1087.417583083886,2021-08-12 06:22:33.486
450,34.0,1280.0,-290.0,1312.8808019009189,2021-08-12 06:22:33.498
451,-281.0,1058.0,-4.0,1094.6876266771264,2021-08-12 06:22:33.505
452,-217.0,1088.0,-99.0,1113.8375105911994,2021-08-12 06:22:33.515
453,9.0,1333.0,-79.0,1335.3692373272645,2021-08-12 06:22:33.525
454,-210.0,1080.0,-76.0,1102.8490377200317,2021-08-12 06:22:33.542
455,-172.0,1059.0,23.0,1073.1234784497076,2021-08-12 06:22:33.546
456,-298.0,873.0,132.0,931.856748647559,2021-08-12 06:22:33.554
457,-361.0,952.0,63.0,1020.0950936064736,2021-08-12 06:22:33.564
458,-320.0,899.0,129.0,962.9340579707418,2021-08-12 06:22:33.574
459,-266.0,905.0,65.0,945.5189051520864,2021-08-12 06:22:33.584
460,2.0,1036.0,37.0,1036.662433003145,2021-08-12 06:22:33.593
461,-196.0,1042.0,-39.0,1060.9905748874492,2021-08-12 06:22:33.604
462,-271.0,948.0,3.0,985.9787015955264,2021-08-12 06:22:33.613
463,-162.0,1071.0,3.0,1083.1869644710464,2021-08-12 06:22:33.622
464,-162.0,1071.0,3.0,1083.1869644710464,2021-08-12 06:22:33.623
465,-136.0,1060.0,-84.0,1071.985074522962,2021-08-12 06:22:33.633
466,-190.0,961.0,-77.0,982.6240379717972,2021-08-12 06:22:33.642
467,-342.0,976.0,-151.0,1045.151185235897,2021-08-12 06:22:33.652
468,-180.0,976.0,-151.0,1003.8809690396566,2021-08-12 06:22:33.661
469,-180.0,961.0,-66.0,979.9372428885432,2021-08-12 06:22:33.662
470,-243.0,924.0,-24.0,955.7201473234724,2021-08-12 06:22:33.671
471,-140.0,924.0,-24.0,934.8539992961468,2021-08-12 06:22:33.681
472,-140.0,871.0,104.0,888.2888043874019,2021-08-12 06:22:33.682
473,-202.0,951.0,104.0,977.763263781167,2021-08-12 06:22:33.691
474,-202.0,951.0,39.0,972.9984583749348,2021-08-12 06:22:33.694
475,-202.0,951.0,39.0,972.9984583749348,2021-08-12 06:22:33.700
476,-202.0,981.0,-54.0,1003.035891680851,2021-08-12 06:22:33.701
477,-204.0,931.0,0.0,953.08813863147,2021-08-12 06:22:33.711
478,-132.0,931.0,0.0,940.3111187261374,2021-08-12 06:22:33.720
479,-132.0,991.0,-17.0,999.8969946949536,2021-08-12 06:22:33.721
480,-213.0,970.0,-22.0,993.354418120743,2021-08-12 06:22:33.730
481,-193.0,992.0,-20.0,1010.7981994443796,2021-08-12 06:22:33.740
482,-120.0,1005.0,-20.0,1012.3364065368784,2021-08-12 06:22:33.749
483,-120.0,1005.0,-71.0,1014.626039484499,2021-08-12 06:22:33.750
484,-158.0,961.0,-40.0,974.7230375855492,2021-08-12 06:22:33.760
485,-209.0,988.0,-17.0,1010.00693066929,2021-08-12 06:22:33.769
486,-188.0,957.0,-81.0,978.6490688699396,2021-08-12 06:22:33.779
