,Acceleration_X,Acceleration_Y,Acceleration_Z,magnitude,time_stamp
0,-260.0,892.0,-79.0,932.4725197023234,2021-08-12 09:14:01.516
1,-98.0,965.0,57.0,971.636763404926,2021-08-12 09:14:01.526
2,-77.0,923.0,97.0,931.2717111563092,2021-08-12 09:14:01.536
3,-226.0,794.0,-129.0,835.555503841606,2021-08-12 09:14:01.546
4,-212.0,960.0,-122.0,990.6704800285512,2021-08-12 09:14:01.557
5,-250.0,967.0,-76.0,1001.681086973294,2021-08-12 09:14:01.566
6,-135.0,1100.0,-178.0,1122.4566806785908,2021-08-12 09:14:01.575
7,-78.0,1069.0,-170.0,1085.2396048799546,2021-08-12 09:14:01.585
8,-285.0,1048.0,-81.0,1089.0775913588527,2021-08-12 09:14:01.594
9,-263.0,1088.0,-188.0,1135.0140968287574,2021-08-12 09:14:01.604
10,-204.0,917.0,86.0,943.345641851384,2021-08-12 09:14:01.615
11,-290.0,1123.0,-81.0,1162.6650420477947,2021-08-12 09:14:01.624
12,-211.0,1123.0,-81.0,1145.517786854486,2021-08-12 09:14:01.633
13,-211.0,1096.0,-40.0,1116.8424239793185,2021-08-12 09:14:01.634
14,-124.0,998.0,4.0,1005.6818582434506,2021-08-12 09:14:01.643
15,-251.0,864.0,0.0,899.7205121591927,2021-08-12 09:14:01.654
16,-239.0,913.0,64.0,945.9312871451076,2021-08-12 09:14:01.664
17,-153.0,913.0,64.0,927.940730865932,2021-08-12 09:14:01.672
18,-153.0,837.0,50.0,852.3367878954891,2021-08-12 09:14:01.673
19,-342.0,870.0,73.0,937.6529208614454,2021-08-12 09:14:01.684
20,-183.0,807.0,52.0,829.1212215351866,2021-08-12 09:14:01.692
21,-44.0,807.0,52.0,809.8697426129711,2021-08-12 09:14:01.704
22,-44.0,950.0,-55.0,952.6074742515932,2021-08-12 09:14:01.705
23,-191.0,813.0,37.0,835.9539460999033,2021-08-12 09:14:01.712
24,-153.0,953.0,37.0,965.91252191904,2021-08-12 09:14:01.721
25,-153.0,953.0,45.0,966.2520375140224,2021-08-12 09:14:01.722
26,-149.0,991.0,-28.0,1002.5298000558388,2021-08-12 09:14:01.744
27,-149.0,756.0,58.0,772.7231069406428,2021-08-12 09:14:01.745
28,-70.0,954.0,-92.0,960.9786678173456,2021-08-12 09:14:01.751
29,-46.0,1016.0,-36.0,1017.6777486021792,2021-08-12 09:14:01.761
30,-159.0,1016.0,-36.0,1028.9961127234642,2021-08-12 09:14:01.771
31,-159.0,1020.0,-89.0,1036.1476728729356,2021-08-12 09:14:01.772
32,-138.0,1237.0,-207.0,1261.769392559512,2021-08-12 09:14:01.780
33,-341.0,972.0,25.0,1030.3834237797112,2021-08-12 09:14:01.790
34,-301.0,993.0,-36.0,1038.2417830158831,2021-08-12 09:14:01.800
35,-151.0,1148.0,-57.0,1159.2903001405643,2021-08-12 09:14:01.809
36,-158.0,1148.0,-57.0,1160.2228234266038,2021-08-12 09:14:01.819
37,-158.0,952.0,-59.0,966.8241825688888,2021-08-12 09:14:01.820
38,-249.0,1023.0,18.0,1053.0213673045766,2021-08-12 09:14:01.829
39,-342.0,829.0,109.0,903.3747837968468,2021-08-12 09:14:01.839
40,-212.0,829.0,109.0,862.592603724377,2021-08-12 09:14:01.849
41,-212.0,924.0,14.0,948.1118077526512,2021-08-12 09:14:01.850
42,-264.0,828.0,93.0,874.0303198402215,2021-08-12 09:14:01.858
43,-293.0,828.0,93.0,883.2225087711477,2021-08-12 09:14:01.868
44,-293.0,885.0,17.0,932.396374939328,2021-08-12 09:14:01.869
45,-183.0,885.0,17.0,903.8821825879744,2021-08-12 09:14:01.877
46,-183.0,977.0,41.0,994.836167416525,2021-08-12 09:14:01.878
47,-205.0,977.0,41.0,999.1171102528472,2021-08-12 09:14:01.887
48,-205.0,776.0,127.0,812.6069160424369,2021-08-12 09:14:01.888
49,-197.0,942.0,-38.0,963.1287556708086,2021-08-12 09:14:01.902
50,0.0,1101.0,-80.0,1103.9026225170408,2021-08-12 09:14:01.907
51,-122.0,979.0,-66.0,988.777528061798,2021-08-12 09:14:01.917
52,-68.0,1077.0,-147.0,1089.1106463532528,2021-08-12 09:14:01.927
53,-265.0,946.0,42.0,983.3132766316136,2021-08-12 09:14:01.936
54,-160.0,1090.0,-104.0,1106.5785105450043,2021-08-12 09:14:01.947
55,-115.0,1081.0,-104.0,1092.0631849851911,2021-08-12 09:14:01.956
56,-115.0,1081.0,-68.0,1089.2244947668044,2021-08-12 09:14:01.957
57,-260.0,984.0,-68.0,1020.0392149324456,2021-08-12 09:14:01.965
58,-260.0,984.0,-105.0,1023.1720285465196,2021-08-12 09:14:01.966
59,-102.0,1186.0,-254.0,1217.1754187462052,2021-08-12 09:14:01.976
60,-251.0,1186.0,-254.0,1238.593153541549,2021-08-12 09:14:01.984
61,-251.0,960.0,-29.0,992.6943134721786,2021-08-12 09:14:01.985
62,-231.0,960.0,-29.0,987.8269079145394,2021-08-12 09:14:01.995
63,-231.0,1049.0,-115.0,1080.2717250766125,2021-08-12 09:14:01.996
64,-126.0,1233.0,-70.0,1241.3963911660128,2021-08-12 09:14:02.006
65,-344.0,979.0,-70.0,1040.0370185719353,2021-08-12 09:14:02.014
66,-344.0,979.0,-34.0,1038.235522412906,2021-08-12 09:14:02.015
67,-293.0,1068.0,-37.0,1108.080321998365,2021-08-12 09:14:02.025
68,-146.0,1068.0,-37.0,1078.5680321611617,2021-08-12 09:14:02.037
69,-146.0,860.0,67.0,874.8742766820842,2021-08-12 09:14:02.038
70,-110.0,1033.0,67.0,1040.9985590768126,2021-08-12 09:14:02.043
71,-110.0,1033.0,-42.0,1039.688895776039,2021-08-12 09:14:02.044
72,-126.0,926.0,-14.0,934.6378977978584,2021-08-12 09:14:02.053
73,-194.0,801.0,76.0,827.6551214122945,2021-08-12 09:14:02.063
74,-80.0,1018.0,-65.0,1023.2052580005636,2021-08-12 09:14:02.074
75,-9.0,1074.0,-26.0,1074.352363054133,2021-08-12 09:14:02.084
76,-136.0,1081.0,-26.0,1089.831638373561,2021-08-12 09:14:02.092
77,-136.0,1081.0,-98.0,1093.9200153576128,2021-08-12 09:14:02.093
78,-121.0,1028.0,-16.0,1035.220266416766,2021-08-12 09:14:02.102
79,48.0,1040.0,-48.0,1042.2130300471204,2021-08-12 09:14:02.112
80,102.0,1150.0,-99.0,1158.7514832784466,2021-08-12 09:14:02.122
81,-226.0,962.0,-99.0,993.1369492673203,2021-08-12 09:14:02.132
82,-226.0,962.0,-5.0,988.202914385502,2021-08-12 09:14:02.133
83,-118.0,962.0,-5.0,969.222884583314,2021-08-12 09:14:02.147
84,-118.0,1146.0,-178.0,1165.7289564903156,2021-08-12 09:14:02.148
85,-94.0,1056.0,-107.0,1065.561354404335,2021-08-12 09:14:02.151
86,-274.0,943.0,-109.0,988.0313760200128,2021-08-12 09:14:02.161
87,-79.0,1099.0,-191.0,1118.2678570002806,2021-08-12 09:14:02.171
88,-402.0,868.0,122.0,964.3194491453544,2021-08-12 09:14:02.181
89,-310.0,870.0,-6.0,923.5994802943536,2021-08-12 09:14:02.190
90,-195.0,1005.0,32.0,1024.2431351978885,2021-08-12 09:14:02.200
91,-186.0,801.0,129.0,832.3689085976241,2021-08-12 09:14:02.214
92,-36.0,962.0,129.0,971.2780240487272,2021-08-12 09:14:02.219
93,-36.0,962.0,-59.0,964.4796524551464,2021-08-12 09:14:02.220
94,-142.0,867.0,66.0,881.027241349551,2021-08-12 09:14:02.229
95,-141.0,976.0,30.0,986.5885667288062,2021-08-12 09:14:02.240
96,-186.0,976.0,30.0,994.0181084869632,2021-08-12 09:14:02.249
97,-186.0,888.0,63.0,909.4553315034224,2021-08-12 09:14:02.250
98,-221.0,796.0,39.0,827.0296246205453,2021-08-12 09:14:02.260
99,36.0,993.0,-62.0,995.584752796064,2021-08-12 09:14:02.268
100,-104.0,896.0,30.0,902.514265815228,2021-08-12 09:14:02.278
101,-131.0,1004.0,-44.0,1013.4658356353212,2021-08-12 09:14:02.291
102,-147.0,1136.0,-216.0,1165.65904105789,2021-08-12 09:14:02.297
103,-279.0,1016.0,-38.0,1054.2964478741262,2021-08-12 09:14:02.309
104,-346.0,1077.0,-158.0,1142.1948170080268,2021-08-12 09:14:02.317
105,-123.0,1140.0,-76.0,1149.1322813323104,2021-08-12 09:14:02.327
106,-330.0,1140.0,-76.0,1189.2333665012936,2021-08-12 09:14:02.336
107,-330.0,997.0,28.0,1050.567941639188,2021-08-12 09:14:02.337
108,-279.0,1069.0,-57.0,1106.2779939960842,2021-08-12 09:14:02.347
109,-384.0,870.0,96.0,955.809604471518,2021-08-12 09:14:02.358
110,-331.0,995.0,-42.0,1049.4522380747014,2021-08-12 09:14:02.366
111,-264.0,963.0,23.0,998.7962755236924,2021-08-12 09:14:02.376
112,-307.0,963.0,23.0,1011.0128584741144,2021-08-12 09:14:02.385
113,-307.0,941.0,-57.0,991.4529741747714,2021-08-12 09:14:02.386
114,-257.0,1165.0,-57.0,1194.3713827784054,2021-08-12 09:14:02.395
115,-257.0,1165.0,-38.0,1193.6155159849422,2021-08-12 09:14:02.396
116,-336.0,878.0,115.0,947.103479034894,2021-08-12 09:14:02.405
117,-177.0,1034.0,-49.0,1050.183793438082,2021-08-12 09:14:02.416
118,-118.0,1034.0,-49.0,1041.864194605036,2021-08-12 09:14:02.424
119,-118.0,915.0,107.0,928.761540978092,2021-08-12 09:14:02.425
120,-29.0,1055.0,-89.0,1059.1444660668346,2021-08-12 09:14:02.434
121,-34.0,1163.0,-208.0,1181.9428920214375,2021-08-12 09:14:02.444
122,-217.0,939.0,8.0,963.7810954775986,2021-08-12 09:14:02.454
123,-105.0,1099.0,-159.0,1115.3954455707626,2021-08-12 09:14:02.464
124,-209.0,1042.0,-104.0,1067.8300426566018,2021-08-12 09:14:02.474
125,-305.0,961.0,-117.0,1015.0049260964204,2021-08-12 09:14:02.483
126,-83.0,1132.0,-260.0,1164.4367737236746,2021-08-12 09:14:02.493
127,-24.0,1088.0,-116.0,1094.4295317652936,2021-08-12 09:14:02.502
128,-276.0,1088.0,-116.0,1128.43963064047,2021-08-12 09:14:02.513
129,-276.0,1056.0,-100.0,1096.0437947454473,2021-08-12 09:14:02.514
130,-155.0,1157.0,-100.0,1171.6117104228688,2021-08-12 09:14:02.522
131,-155.0,1157.0,-107.0,1172.229926251672,2021-08-12 09:14:02.523
132,-190.0,1113.0,-122.0,1135.6729282676415,2021-08-12 09:14:02.532
133,-235.0,1143.0,-152.0,1176.7659070520356,2021-08-12 09:14:02.542
134,-311.0,929.0,-152.0,991.3959854669577,2021-08-12 09:14:02.551
135,-311.0,929.0,-9.0,979.7157751103124,2021-08-12 09:14:02.552
136,-223.0,894.0,54.0,922.9739974668844,2021-08-12 09:14:02.562
137,-115.0,899.0,116.0,913.7187751162828,2021-08-12 09:14:02.572
138,-224.0,833.0,84.0,866.672371776094,2021-08-12 09:14:02.581
139,-23.0,833.0,84.0,837.540446784512,2021-08-12 09:14:02.590
140,-23.0,988.0,4.0,988.2757712298728,2021-08-12 09:14:02.591
141,-90.0,842.0,94.0,851.9976525789258,2021-08-12 09:14:02.600
142,-71.0,842.0,94.0,850.2005645728542,2021-08-12 09:14:02.610
143,-71.0,1010.0,-82.0,1015.807560515278,2021-08-12 09:14:02.611
144,-194.0,996.0,78.0,1017.7111574508752,2021-08-12 09:14:02.621
145,-145.0,1000.0,19.0,1010.6364331449762,2021-08-12 09:14:02.630
146,-57.0,1111.0,19.0,1112.623476293755,2021-08-12 09:14:02.639
147,-57.0,1111.0,-131.0,1120.1477581105094,2021-08-12 09:14:02.640
148,-147.0,928.0,7.0,939.5967220036476,2021-08-12 09:14:02.649
149,-64.0,928.0,7.0,930.2306165677412,2021-08-12 09:14:02.659
150,-64.0,1098.0,-135.0,1108.117773524096,2021-08-12 09:14:02.660
151,-31.0,967.0,-43.0,968.4518573475916,2021-08-12 09:14:02.669
152,-157.0,902.0,-43.0,916.5707828640404,2021-08-12 09:14:02.679
153,-157.0,902.0,-57.0,917.3341812011586,2021-08-12 09:14:02.680
154,-112.0,1088.0,-220.0,1115.6558609176936,2021-08-12 09:14:02.688
155,-175.0,1052.0,8.0,1066.4862868316686,2021-08-12 09:14:02.698
156,-307.0,887.0,-11.0,938.6900446899392,2021-08-12 09:14:02.708
157,-266.0,1113.0,-38.0,1144.975545590385,2021-08-12 09:14:02.718
158,-287.0,1113.0,-38.0,1150.0356516212878,2021-08-12 09:14:02.728
159,-287.0,887.0,142.0,943.0281013840467,2021-08-12 09:14:02.729
160,-143.0,998.0,-9.0,1008.2331079666052,2021-08-12 09:14:02.737
161,-207.0,967.0,45.0,989.9308056626988,2021-08-12 09:14:02.763
162,-207.0,886.0,-15.0,909.9835163342246,2021-08-12 09:14:02.764
163,-228.0,936.0,39.0,964.15818204276,2021-08-12 09:14:02.767
164,-214.0,751.0,130.0,791.641964526894,2021-08-12 09:14:02.776
165,-134.0,954.0,26.0,963.7157257199864,2021-08-12 09:14:02.786
166,-158.0,902.0,50.0,917.0975956788895,2021-08-12 09:14:02.797
167,-143.0,918.0,-26.0,929.434774473174,2021-08-12 09:14:02.805
168,-272.0,876.0,71.0,920.0005434781004,2021-08-12 09:14:02.815
169,-104.0,1028.0,-111.0,1039.1924749535092,2021-08-12 09:14:02.825
170,-283.0,1092.0,-158.0,1139.0860371367914,2021-08-12 09:14:02.834
171,-3.0,1164.0,-137.0,1172.038395275513,2021-08-12 09:14:02.845
172,-216.0,1056.0,-147.0,1087.8423599033088,2021-08-12 09:14:02.855
173,-240.0,1086.0,-126.0,1119.3176492845987,2021-08-12 09:14:02.864
174,-290.0,961.0,-18.0,1003.9646408116174,2021-08-12 09:14:02.874
175,-289.0,1097.0,-18.0,1134.572166060846,2021-08-12 09:14:02.883
176,-289.0,1097.0,-154.0,1144.8344858537412,2021-08-12 09:14:02.884
177,-275.0,1056.0,-154.0,1102.0331210993616,2021-08-12 09:14:02.894
178,-275.0,1056.0,-8.0,1091.2492840776574,2021-08-12 09:14:02.895
179,-369.0,925.0,-29.0,996.3066796925532,2021-08-12 09:14:02.904
180,-126.0,1213.0,-94.0,1223.1438999561744,2021-08-12 09:14:02.913
181,-325.0,1213.0,-94.0,1259.2974231689668,2021-08-12 09:14:02.922
182,-325.0,976.0,32.0,1029.1865720072333,2021-08-12 09:14:02.923
183,-285.0,1017.0,-61.0,1057.9390341602866,2021-08-12 09:14:02.932
184,-286.0,1017.0,-61.0,1058.2088640717388,2021-08-12 09:14:02.942
185,-286.0,973.0,116.0,1020.7747057994728,2021-08-12 09:14:02.943
186,-226.0,890.0,42.0,919.206179265566,2021-08-12 09:14:02.953
187,-52.0,1113.0,-154.0,1124.806205530535,2021-08-12 09:14:02.962
188,-148.0,920.0,1.0,931.828846945618,2021-08-12 09:14:02.971
189,-55.0,1011.0,-24.0,1012.77934418115,2021-08-12 09:14:02.981
190,-20.0,992.0,-62.0,994.1368115103676,2021-08-12 09:14:02.992
191,-209.0,931.0,-33.0,954.7413262240196,2021-08-12 09:14:03.001
192,-123.0,1070.0,-189.0,1093.503543661382,2021-08-12 09:14:03.011
193,-138.0,1042.0,-51.0,1052.3350226995203,2021-08-12 09:14:03.020
194,-298.0,1122.0,-152.0,1170.8082678218495,2021-08-12 09:14:03.030
195,-148.0,1076.0,-152.0,1096.715095181971,2021-08-12 09:14:03.043
196,-148.0,1076.0,-20.0,1086.3148714806402,2021-08-12 09:14:03.044
197,-60.0,1076.0,-20.0,1077.8571333901352,2021-08-12 09:14:03.049
198,-60.0,1052.0,-61.0,1055.473827245375,2021-08-12 09:14:03.050
199,-63.0,1163.0,-61.0,1166.3014190165422,2021-08-12 09:14:03.059
200,-63.0,1163.0,-217.0,1184.7476524559988,2021-08-12 09:14:03.060
201,-294.0,979.0,-59.0,1023.8935491544032,2021-08-12 09:14:03.070
202,-222.0,927.0,-11.0,953.2754061655004,2021-08-12 09:14:03.079
203,-303.0,927.0,-11.0,975.3250740137876,2021-08-12 09:14:03.089
204,-303.0,919.0,52.0,969.0583057793788,2021-08-12 09:14:03.090
205,-340.0,919.0,52.0,981.2568471098684,2021-08-12 09:14:03.102
206,-340.0,707.0,169.0,802.5023364451969,2021-08-12 09:14:03.103
207,-144.0,969.0,25.0,979.960203273582,2021-08-12 09:14:03.108
208,-84.0,869.0,69.0,875.772801587261,2021-08-12 09:14:03.118
209,-144.0,934.0,-62.0,947.0670514805169,2021-08-12 09:14:03.127
210,-330.0,958.0,101.0,1018.2656824228144,2021-08-12 09:14:03.139
211,-162.0,916.0,57.0,931.9597630799304,2021-08-12 09:14:03.147
212,-84.0,1033.0,-117.0,1042.9928091794304,2021-08-12 09:14:03.160
213,-180.0,846.0,62.0,867.1562719602506,2021-08-12 09:14:03.167
214,-71.0,982.0,28.0,984.9614205642778,2021-08-12 09:14:03.177
215,-87.0,903.0,7.0,907.2083553407124,2021-08-12 09:14:03.188
216,-200.0,751.0,84.0,781.7013496214523,2021-08-12 09:14:03.196
217,-235.0,1168.0,-158.0,1201.83734340384,2021-08-12 09:14:03.206
218,-183.0,1131.0,5.0,1145.720297454837,2021-08-12 09:14:03.222
219,-295.0,942.0,-142.0,997.2727811386412,2021-08-12 09:14:03.225
220,-168.0,1181.0,-190.0,1207.9259083238508,2021-08-12 09:14:03.235
221,-318.0,1005.0,38.0,1054.7952407932073,2021-08-12 09:14:03.245
222,-314.0,1021.0,38.0,1068.869028459521,2021-08-12 09:14:03.255
223,-314.0,1021.0,-32.0,1068.6725410526838,2021-08-12 09:14:03.256
224,-60.0,1081.0,-51.0,1083.8643826604875,2021-08-12 09:14:03.265
225,-190.0,980.0,-68.0,1000.56184216669,2021-08-12 09:14:03.274
226,-304.0,979.0,-11.0,1025.1721806604,2021-08-12 09:14:03.284
227,-289.0,809.0,61.0,861.2334178374641,2021-08-12 09:14:03.294
228,-227.0,809.0,61.0,842.4553400626054,2021-08-12 09:14:03.304
229,-227.0,948.0,-6.0,974.8174188021056,2021-08-12 09:14:03.305
230,-469.0,855.0,35.0,975.8129943795584,2021-08-12 09:14:03.314
231,-368.0,844.0,-101.0,926.2618420295636,2021-08-12 09:14:03.323
232,-200.0,1050.0,15.0,1068.9831617008754,2021-08-12 09:14:03.333
233,-63.0,1000.0,15.0,1002.094805894133,2021-08-12 09:14:03.342
234,-63.0,1000.0,44.0,1002.948154193426,2021-08-12 09:14:03.343
235,-192.0,1145.0,-104.0,1165.635020064171,2021-08-12 09:14:03.353
236,32.0,1033.0,-23.0,1033.751420797089,2021-08-12 09:14:03.363
237,-43.0,1003.0,-117.0,1010.7160827848738,2021-08-12 09:14:03.372
238,15.0,1143.0,-215.0,1163.1418658100138,2021-08-12 09:14:03.382
239,-282.0,925.0,-70.0,969.5612409744936,2021-08-12 09:14:03.391
240,-153.0,925.0,-70.0,940.1776427888508,2021-08-12 09:14:03.401
241,-153.0,1103.0,-168.0,1126.1625104752866,2021-08-12 09:14:03.402
242,-169.0,1159.0,-154.0,1181.3373777206916,2021-08-12 09:14:03.412
243,-308.0,1003.0,-77.0,1052.04657691568,2021-08-12 09:14:03.421
244,-136.0,1119.0,-225.0,1149.4703127962896,2021-08-12 09:14:03.430
245,-294.0,1008.0,-46.0,1051.0071360366685,2021-08-12 09:14:03.440
246,-326.0,1096.0,-143.0,1152.3632239879923,2021-08-12 09:14:03.450
247,-109.0,1184.0,-99.0,1193.1211170706854,2021-08-12 09:14:03.460
248,-200.0,811.0,109.0,842.3787746613752,2021-08-12 09:14:03.470
249,-130.0,979.0,-16.0,987.723139346244,2021-08-12 09:14:03.479
250,-162.0,897.0,133.0,921.163394843716,2021-08-12 09:14:03.489
251,-105.0,964.0,2.0,969.70356295107,2021-08-12 09:14:03.500
252,-85.0,894.0,2.0,898.0339637229763,2021-08-12 09:14:03.508
253,-85.0,894.0,90.0,902.5303319002636,2021-08-12 09:14:03.509
254,-183.0,813.0,116.0,841.3762535275166,2021-08-12 09:14:03.519
255,74.0,1107.0,-142.0,1118.5208983295752,2021-08-12 09:14:03.528
256,-46.0,936.0,14.0,937.2342289950788,2021-08-12 09:14:03.538
257,-121.0,936.0,14.0,943.8924726895538,2021-08-12 09:14:03.547
258,-121.0,991.0,-29.0,998.7807567229156,2021-08-12 09:14:03.548
259,-144.0,960.0,-29.0,971.1730020959192,2021-08-12 09:14:03.557
260,-144.0,960.0,-6.0,970.7584663550456,2021-08-12 09:14:03.558
261,-58.0,960.0,-6.0,961.7692030835672,2021-08-12 09:14:03.568
262,-58.0,960.0,-51.0,963.1017599402464,2021-08-12 09:14:03.569
263,-73.0,1072.0,-121.0,1081.2742482830154,2021-08-12 09:14:03.577
264,-230.0,1072.0,-121.0,1103.0525826088256,2021-08-12 09:14:03.586
265,-230.0,923.0,30.0,951.697956286552,2021-08-12 09:14:03.587
266,-34.0,1077.0,-94.0,1081.6288642598256,2021-08-12 09:14:03.596
267,-332.0,1041.0,-76.0,1095.299502419315,2021-08-12 09:14:03.607
268,-371.0,855.0,67.0,934.427632296905,2021-08-12 09:14:03.617
269,-270.0,985.0,55.0,1022.814743734172,2021-08-12 09:14:03.626
270,-335.0,985.0,55.0,1041.8613151470786,2021-08-12 09:14:03.635
271,-335.0,870.0,48.0,933.5036154188156,2021-08-12 09:14:03.636
272,-234.0,913.0,6.0,942.5290446453096,2021-08-12 09:14:03.645
273,-189.0,1092.0,-18.0,1108.3812520969489,2021-08-12 09:14:03.656
274,-236.0,786.0,110.0,828.0048309037816,2021-08-12 09:14:03.666
275,-37.0,959.0,-59.0,961.5253506798456,2021-08-12 09:14:03.675
276,-175.0,868.0,119.0,893.4259902196712,2021-08-12 09:14:03.684
277,-274.0,851.0,92.0,898.7441237638219,2021-08-12 09:14:03.694
278,-117.0,880.0,107.0,894.1688878506118,2021-08-12 09:14:03.706
279,-222.0,880.0,107.0,913.8561155893196,2021-08-12 09:14:03.713
280,-222.0,845.0,46.0,874.8857068211825,2021-08-12 09:14:03.714
281,-26.0,1062.0,-95.0,1066.5575465018285,2021-08-12 09:14:03.725
282,-143.0,1098.0,-49.0,1108.3564408618736,2021-08-12 09:14:03.733
283,-291.0,957.0,-37.0,1000.9490496523788,2021-08-12 09:14:03.743
284,-201.0,1197.0,-244.0,1238.0411947911912,2021-08-12 09:14:03.752
285,-200.0,1077.0,-98.0,1099.7877067870872,2021-08-12 09:14:03.763
286,-234.0,1032.0,-142.0,1067.6816004783448,2021-08-12 09:14:03.783
287,-54.0,1120.0,-142.0,1130.2566080319991,2021-08-12 09:14:03.786
288,-54.0,1120.0,-63.0,1123.0694546643142,2021-08-12 09:14:03.787
289,-145.0,1089.0,-94.0,1102.6250495975503,2021-08-12 09:14:03.793
290,-305.0,1129.0,-139.0,1177.704122434833,2021-08-12 09:14:03.802
291,-382.0,1129.0,-139.0,1199.9524990598586,2021-08-12 09:14:03.811
292,-382.0,857.0,76.0,941.3548746354904,2021-08-12 09:14:03.812
293,-312.0,1015.0,-56.0,1063.3461336742614,2021-08-12 09:14:03.821
294,-274.0,1031.0,0.0,1066.7881701631304,2021-08-12 09:14:03.831
295,-254.0,856.0,0.0,892.8896908353238,2021-08-12 09:14:03.841
296,-254.0,856.0,-15.0,893.0156773539869,2021-08-12 09:14:03.842
297,-279.0,1179.0,-15.0,1211.654653768969,2021-08-12 09:14:03.851
298,-279.0,1179.0,-51.0,1212.6347347820777,2021-08-12 09:14:03.852
299,-138.0,863.0,86.0,878.185060223641,2021-08-12 09:14:03.860
300,-144.0,995.0,-65.0,1007.4651358731974,2021-08-12 09:14:03.870
301,-229.0,858.0,82.0,891.8121999614044,2021-08-12 09:14:03.880
302,-88.0,910.0,11.0,914.3112161621992,2021-08-12 09:14:03.890
303,-3.0,1090.0,-107.0,1095.2433519542583,2021-08-12 09:14:03.901
304,-115.0,924.0,-19.0,931.3227152818728,2021-08-12 09:14:03.909
305,-75.0,1077.0,-132.0,1087.64792097443,2021-08-12 09:14:03.919
306,-37.0,1077.0,-132.0,1085.6896425774726,2021-08-12 09:14:03.928
307,-37.0,1024.0,-38.0,1025.3726151989822,2021-08-12 09:14:03.929
308,-231.0,926.0,-53.0,955.8483143260756,2021-08-12 09:14:03.939
309,-25.0,1090.0,-236.0,1115.5361939444188,2021-08-12 09:14:03.949
310,-104.0,1042.0,-32.0,1047.6659773038352,2021-08-12 09:14:03.958
311,-308.0,1107.0,-32.0,1149.4942366101711,2021-08-12 09:14:03.967
312,-308.0,1107.0,-135.0,1156.9520301205232,2021-08-12 09:14:03.968
313,-22.0,1081.0,-55.0,1082.621817626081,2021-08-12 09:14:03.977
314,-254.0,1032.0,-87.0,1066.3531310030462,2021-08-12 09:14:03.987
315,-98.0,1006.0,-86.0,1014.4141166210178,2021-08-12 09:14:03.998
316,-301.0,902.0,47.0,952.0577713563396,2021-08-12 09:14:04.007
317,-270.0,826.0,50.0,870.4458627622972,2021-08-12 09:14:04.017
318,-129.0,889.0,55.0,899.9927777487995,2021-08-12 09:14:04.026
319,-306.0,823.0,145.0,889.9382001015576,2021-08-12 09:14:04.036
320,-16.0,1028.0,145.0,1038.2990898580235,2021-08-12 09:14:04.052
321,-16.0,1028.0,-12.0,1028.1945341227993,2021-08-12 09:14:04.053
322,-122.0,871.0,14.0,879.6141199412388,2021-08-12 09:14:04.056
323,-89.0,966.0,-15.0,970.2071943662344,2021-08-12 09:14:04.065
324,-237.0,892.0,88.0,927.1337551831452,2021-08-12 09:14:04.076
325,-132.0,862.0,24.0,872.3783582826892,2021-08-12 09:14:04.085
326,-73.0,1000.0,-42.0,1003.5402333738294,2021-08-12 09:14:04.097
327,-143.0,830.0,59.0,844.2926033076448,2021-08-12 09:14:04.104
328,-162.0,1142.0,59.0,1154.9411240405288,2021-08-12 09:14:04.114
329,-162.0,1142.0,-156.0,1163.934706072467,2021-08-12 09:14:04.115
330,-303.0,1142.0,-156.0,1191.7671752485885,2021-08-12 09:14:04.124
331,-303.0,1085.0,-146.0,1135.9357376189903,2021-08-12 09:14:04.125
332,-450.0,884.0,54.0,993.4143143724071,2021-08-12 09:14:04.134
333,-298.0,884.0,54.0,934.4388690545786,2021-08-12 09:14:04.143
334,-298.0,1116.0,-105.0,1159.8642161908435,2021-08-12 09:14:04.144
335,-223.0,1071.0,-22.0,1094.1910253698848,2021-08-12 09:14:04.153
336,-328.0,918.0,-10.0,974.8887115973804,2021-08-12 09:14:04.163
337,-116.0,1174.0,-127.0,1186.533185376625,2021-08-12 09:14:04.178
338,-282.0,925.0,71.0,969.63395155079,2021-08-12 09:14:04.182
339,-322.0,981.0,-62.0,1034.3543880121551,2021-08-12 09:14:04.192
340,-170.0,1118.0,-6.0,1130.866924089656,2021-08-12 09:14:04.202
341,-140.0,954.0,-22.0,964.4687656943588,2021-08-12 09:14:04.213
342,-260.0,883.0,-22.0,920.7458932843524,2021-08-12 09:14:04.221
343,-260.0,883.0,-12.0,920.5612418519476,2021-08-12 09:14:04.222
344,-222.0,748.0,77.0,784.0389020960631,2021-08-12 09:14:04.237
345,-159.0,748.0,77.0,768.5792086701279,2021-08-12 09:14:04.241
346,-159.0,1007.0,-55.0,1020.9578835583768,2021-08-12 09:14:04.242
347,-232.0,894.0,51.0,925.019459254777,2021-08-12 09:14:04.251
348,-182.0,965.0,51.0,983.3361581880328,2021-08-12 09:14:04.260
349,-182.0,965.0,-55.0,983.5517271602952,2021-08-12 09:14:04.261
350,-36.0,1061.0,-187.0,1077.9545444961952,2021-08-12 09:14:04.272
351,-46.0,992.0,2.0,993.0679735043316,2021-08-12 09:14:04.280
352,-201.0,1053.0,-148.0,1082.1802068047632,2021-08-12 09:14:04.290
353,-62.0,1024.0,-68.0,1028.1264513667568,2021-08-12 09:14:04.300
354,-170.0,1025.0,-64.0,1040.9711811572884,2021-08-12 09:14:04.310
355,-159.0,1175.0,-237.0,1209.162933603243,2021-08-12 09:14:04.320
356,-252.0,963.0,1.0,995.426541739771,2021-08-12 09:14:04.329
357,-228.0,1105.0,1.0,1128.2774481482825,2021-08-12 09:14:04.338
358,-228.0,1105.0,-142.0,1137.1776466322226,2021-08-12 09:14:04.339
359,-104.0,1115.0,-93.0,1123.6947984217068,2021-08-12 09:14:04.349
360,-196.0,981.0,-114.0,1006.8629499589306,2021-08-12 09:14:04.359
361,-93.0,1134.0,-203.0,1155.7741994005576,2021-08-12 09:14:04.368
362,-248.0,1053.0,-48.0,1082.8744156179885,2021-08-12 09:14:04.379
363,-196.0,872.0,-48.0,895.0441329901001,2021-08-12 09:14:04.387
364,-196.0,872.0,31.0,894.2935759581413,2021-08-12 09:14:04.388
365,-209.0,898.0,141.0,932.7196792177164,2021-08-12 09:14:04.398
366,-256.0,749.0,68.0,794.4564179361886,2021-08-12 09:14:04.407
367,-177.0,976.0,-21.0,992.1421269152924,2021-08-12 09:14:04.417
368,-184.0,976.0,-21.0,993.414817686952,2021-08-12 09:14:04.426
369,-184.0,850.0,115.0,877.2576588437402,2021-08-12 09:14:04.427
370,-113.0,1024.0,-45.0,1031.1983320389925,2021-08-12 09:14:04.437
371,-114.0,935.0,50.0,943.2502319109176,2021-08-12 09:14:04.446
372,-282.0,828.0,24.0,875.0337136362233,2021-08-12 09:14:04.456
373,-85.0,967.0,-156.0,983.183604419846,2021-08-12 09:14:04.466
374,-123.0,912.0,2.0,920.2592026163064,2021-08-12 09:14:04.476
375,-148.0,1001.0,-32.0,1012.3877715579144,2021-08-12 09:14:04.486
376,-81.0,988.0,38.0,992.042841816824,2021-08-12 09:14:04.495
377,-20.0,1008.0,-81.0,1011.4469832868156,2021-08-12 09:14:04.505
378,-51.0,1083.0,-157.0,1095.5085577027685,2021-08-12 09:14:04.515
379,-215.0,1219.0,-91.0,1241.1555099986465,2021-08-12 09:14:04.524
380,-185.0,986.0,-10.0,1003.2552018305212,2021-08-12 09:14:04.535
381,-261.0,986.0,-10.0,1020.0083332992922,2021-08-12 09:14:04.543
382,-261.0,1076.0,-22.0,1107.420877534824,2021-08-12 09:14:04.544
383,-318.0,894.0,48.0,950.0863118685586,2021-08-12 09:14:04.553
384,-298.0,988.0,-28.0,1032.3429662665408,2021-08-12 09:14:04.565
385,-231.0,899.0,58.0,930.0139783895723,2021-08-12 09:14:04.573
386,-295.0,897.0,-52.0,945.6944538274504,2021-08-12 09:14:04.583
387,-225.0,1094.0,32.0,1117.3562547370468,2021-08-12 09:14:04.593
388,-335.0,810.0,136.0,887.0293118042944,2021-08-12 09:14:04.602
389,-184.0,810.0,136.0,841.6959070828372,2021-08-12 09:14:04.612
390,-184.0,1012.0,-75.0,1031.3219671858058,2021-08-12 09:14:04.613
391,-129.0,906.0,104.0,921.0282297519442,2021-08-12 09:14:04.622
392,-243.0,915.0,9.0,946.7602653259166,2021-08-12 09:14:04.631
393,-200.0,896.0,47.0,919.2524136492652,2021-08-12 09:14:04.642
394,-203.0,831.0,57.0,857.332490927528,2021-08-12 09:14:04.651
395,-97.0,1129.0,57.0,1134.5919971513988,2021-08-12 09:14:04.661
396,-97.0,1129.0,-137.0,1141.4109689327504,2021-08-12 09:14:04.662
397,-74.0,1084.0,-89.0,1090.1619145796649,2021-08-12 09:14:04.671
398,-132.0,955.0,-79.0,967.3107049960732,2021-08-12 09:14:04.682
399,68.0,1155.0,-257.0,1185.199561255403,2021-08-12 09:14:04.691
400,-73.0,1139.0,-121.0,1147.7329828840852,2021-08-12 09:14:04.700
401,-382.0,1076.0,-121.0,1148.1903152352402,2021-08-12 09:14:04.710
402,-382.0,1076.0,-119.0,1147.9812716242368,2021-08-12 09:14:04.711
403,-189.0,1076.0,-119.0,1098.934938929507,2021-08-12 09:14:04.719
404,-189.0,1098.0,-42.0,1114.9390117849496,2021-08-12 09:14:04.720
405,-85.0,1041.0,38.0,1045.1554908242122,2021-08-12 09:14:04.729
406,-155.0,1041.0,38.0,1053.161905881522,2021-08-12 09:14:04.739
407,-155.0,1100.0,-34.0,1111.386971311073,2021-08-12 09:14:04.740
408,-297.0,860.0,80.0,913.35042563082,2021-08-12 09:14:04.749
409,-305.0,1047.0,-103.0,1095.3734522983475,2021-08-12 09:14:04.758
410,-244.0,1036.0,-6.0,1064.3627201288102,2021-08-12 09:14:04.768
411,-338.0,881.0,-6.0,943.6318137917988,2021-08-12 09:14:04.778
412,-338.0,881.0,-76.0,946.6683685430712,2021-08-12 09:14:04.779
413,-141.0,881.0,-76.0,895.4429071694075,2021-08-12 09:14:04.802
414,-141.0,965.0,-61.0,977.1524957753523,2021-08-12 09:14:04.803
415,-141.0,877.0,82.0,892.0392368051979,2021-08-12 09:14:04.804
416,-156.0,1005.0,-44.0,1017.9867386169624,2021-08-12 09:14:04.808
417,-180.0,992.0,26.0,1008.533588929987,2021-08-12 09:14:04.817
418,-142.0,956.0,8.0,966.5215983101464,2021-08-12 09:14:04.827
419,-84.0,1117.0,-115.0,1126.0417399013236,2021-08-12 09:14:04.837
420,-162.0,919.0,-115.0,940.228695584218,2021-08-12 09:14:04.846
421,-162.0,919.0,-70.0,935.791109169135,2021-08-12 09:14:04.847
422,-70.0,1089.0,-135.0,1099.5662781296996,2021-08-12 09:14:04.856
423,-83.0,991.0,-16.0,994.5984114204084,2021-08-12 09:14:04.866
424,-176.0,946.0,-16.0,962.3658348050392,2021-08-12 09:14:04.875
425,-176.0,946.0,-84.0,965.8923335444796,2021-08-12 09:14:04.876
426,-36.0,1029.0,-189.0,1046.832364803458,2021-08-12 09:14:04.885
427,-69.0,1098.0,-41.0,1100.9296071956644,2021-08-12 09:14:04.896
428,-238.0,1091.0,-122.0,1123.3027196619796,2021-08-12 09:14:04.905
429,57.0,1107.0,-99.0,1112.8786995894925,2021-08-12 09:14:04.915
430,-238.0,873.0,-99.0,910.26040230255,2021-08-12 09:14:04.924
431,-238.0,873.0,111.0,911.6435707007428,2021-08-12 09:14:04.925
432,-168.0,1009.0,-73.0,1025.492077004986,2021-08-12 09:14:04.934
433,-206.0,936.0,88.0,962.432335283889,2021-08-12 09:14:04.945
434,-240.0,936.0,88.0,970.2783105892864,2021-08-12 09:14:04.953
435,-240.0,874.0,0.0,906.353132062774,2021-08-12 09:14:04.954
436,-206.0,925.0,11.0,947.724643554234,2021-08-12 09:14:04.963
437,-292.0,775.0,96.0,833.7295724633977,2021-08-12 09:14:04.973
438,-211.0,957.0,38.0,980.721163226327,2021-08-12 09:14:04.983
439,-162.0,901.0,41.0,916.3656475446904,2021-08-12 09:14:04.995
440,-315.0,931.0,-50.0,984.116862979189,2021-08-12 09:14:05.003
441,-381.0,901.0,-50.0,979.521311661977,2021-08-12 09:14:05.012
442,-381.0,901.0,137.0,987.790969790674,2021-08-12 09:14:05.013
443,-168.0,901.0,137.0,926.7113898080676,2021-08-12 09:14:05.023
444,-168.0,849.0,25.0,865.8233076095838,2021-08-12 09:14:05.024
445,-61.0,1118.0,-123.0,1126.398686078779,2021-08-12 09:14:05.032
446,-154.0,922.0,36.0,935.4656594445356,2021-08-12 09:14:05.042
447,-107.0,1110.0,-34.0,1115.6634797285426,2021-08-12 09:14:05.052
448,-189.0,1088.0,-162.0,1116.1133454985654,2021-08-12 09:14:05.068
449,-320.0,923.0,-4.0,976.9058296478736,2021-08-12 09:14:05.071
450,-242.0,1118.0,-144.0,1152.91977171007,2021-08-12 09:14:05.080
451,-167.0,1016.0,-45.0,1030.616320460723,2021-08-12 09:14:05.091
452,-289.0,1010.0,-45.0,1051.4970280509594,2021-08-12 09:14:05.100
453,-289.0,1010.0,-110.0,1056.2769523188508,2021-08-12 09:14:05.101
454,-178.0,1010.0,-110.0,1031.4475265373417,2021-08-12 09:14:05.110
455,-178.0,1300.0,-177.0,1324.0139727359376,2021-08-12 09:14:05.111
456,-404.0,971.0,32.0,1052.1791672524218,2021-08-12 09:14:05.120
457,-285.0,971.0,32.0,1012.4672834220372,2021-08-12 09:14:05.129
458,-285.0,955.0,-49.0,997.8231306198508,2021-08-12 09:14:05.130
459,-136.0,1070.0,-20.0,1078.7937708385232,2021-08-12 09:14:05.140
460,-192.0,951.0,-58.0,971.9202642192414,2021-08-12 09:14:05.149
461,-266.0,951.0,-58.0,989.2022037985964,2021-08-12 09:14:05.159
462,-266.0,945.0,18.0,981.888486540096,2021-08-12 09:14:05.160
463,-348.0,813.0,93.0,889.2255057070731,2021-08-12 09:14:05.169
464,-315.0,982.0,93.0,1035.4699416207116,2021-08-12 09:14:05.178
465,-315.0,982.0,-15.0,1031.394202039162,2021-08-12 09:14:05.179
466,37.0,1013.0,-23.0,1013.9363885372692,2021-08-12 09:14:05.194
467,-108.0,870.0,0.0,876.6778199544003,2021-08-12 09:14:05.198
468,-32.0,870.0,0.0,870.5883068362451,2021-08-12 09:14:05.207
469,-32.0,1008.0,-132.0,1017.1096302759108,2021-08-12 09:14:05.208
470,-7.0,1008.0,-132.0,1016.630217925869,2021-08-12 09:14:05.217
471,-7.0,1072.0,13.0,1072.1016742828078,2021-08-12 09:14:05.218
472,-152.0,1085.0,-104.0,1100.5203314796142,2021-08-12 09:14:05.228
473,-103.0,1041.0,-3.0,1046.087472441956,2021-08-12 09:14:05.243
474,-83.0,1055.0,-49.0,1059.3936945253167,2021-08-12 09:14:05.253
475,-33.0,1133.0,-49.0,1134.5391134729557,2021-08-12 09:14:05.256
476,-33.0,1133.0,-221.0,1154.824229049599,2021-08-12 09:14:05.257
477,-278.0,930.0,-28.0,971.0653942963884,2021-08-12 09:14:05.266
478,-183.0,1114.0,-116.0,1134.874882971687,2021-08-12 09:14:05.276
479,-118.0,1120.0,-64.0,1128.0159573339376,2021-08-12 09:14:05.287
480,-265.0,973.0,-110.0,1014.4229886985014,2021-08-12 09:14:05.296
481,-88.0,1124.0,-212.0,1147.198326358612,2021-08-12 09:14:05.305
482,-312.0,813.0,81.0,874.5707518548743,2021-08-12 09:14:05.315
483,-187.0,922.0,-60.0,942.683934306722,2021-08-12 09:14:05.325
484,-222.0,983.0,43.0,1008.673386186034,2021-08-12 09:14:05.335
485,-116.0,850.0,89.0,862.4830433115773,2021-08-12 09:14:05.346
486,-148.0,1070.0,-118.0,1086.61308661363,2021-08-12 09:14:05.354
487,-23.0,874.0,74.0,877.428629576218,2021-08-12 09:14:05.364
488,-120.0,874.0,74.0,885.2976900455575,2021-08-12 09:14:05.373
489,-120.0,938.0,10.0,945.6976260940914,2021-08-12 09:14:05.374
490,-120.0,904.0,90.0,916.360191191215,2021-08-12 09:14:05.384
491,-138.0,831.0,66.0,844.962129328883,2021-08-12 09:14:05.395
492,-27.0,987.0,-64.0,989.4412564675076,2021-08-12 09:14:05.403
493,-91.0,936.0,68.0,942.8684956026476,2021-08-12 09:14:05.413
494,-109.0,1000.0,68.0,1008.2187262692556,2021-08-12 09:14:05.422
495,-109.0,1000.0,-53.0,1007.3182218147352,2021-08-12 09:14:05.423
496,-190.0,1000.0,-53.0,1019.2688556018966,2021-08-12 09:14:05.432
497,-190.0,957.0,-18.0,975.8447622444874,2021-08-12 09:14:05.433
498,-44.0,998.0,-45.0,999.9824998468724,2021-08-12 09:14:05.443
499,-336.0,1050.0,-119.0,1108.853912830721,2021-08-12 09:14:05.452
500,-186.0,1222.0,-101.0,1240.193936447038,2021-08-12 09:14:05.462
501,-222.0,1053.0,-88.0,1079.7393203917322,2021-08-12 09:14:05.471
502,-337.0,1090.0,-95.0,1144.8554493908828,2021-08-12 09:14:05.505
503,-400.0,1090.0,-95.0,1164.95708075448,2021-08-12 09:14:05.507
504,-400.0,883.0,95.0,974.019506991518,2021-08-12 09:14:05.508
505,-400.0,883.0,95.0,974.019506991518,2021-08-12 09:14:05.525
506,-400.0,996.0,-54.0,1074.6776260814215,2021-08-12 09:14:05.526
507,-264.0,951.0,50.0,988.229224421136,2021-08-12 09:14:05.531
508,-200.0,1140.0,-18.0,1157.5508628133798,2021-08-12 09:14:05.534
509,-303.0,814.0,75.0,871.7969947183806,2021-08-12 09:14:05.540
510,-174.0,950.0,-38.0,966.5505677407676,2021-08-12 09:14:05.550
511,-204.0,901.0,122.0,931.8267006262485,2021-08-12 09:14:05.559
512,-277.0,861.0,21.0,904.7049242708918,2021-08-12 09:14:05.569
513,-62.0,1066.0,-154.0,1078.84938707866,2021-08-12 09:14:05.580
514,-253.0,1066.0,-154.0,1106.381941284293,2021-08-12 09:14:05.588
515,-253.0,919.0,-40.0,954.0283014669952,2021-08-12 09:14:05.589
516,-44.0,1136.0,-89.0,1140.3302153323834,2021-08-12 09:14:05.599
517,-110.0,1043.0,-47.0,1049.837130225446,2021-08-12 09:14:05.608
518,-203.0,948.0,-80.0,972.7862046719208,2021-08-12 09:14:05.618
519,-29.0,1153.0,-289.0,1189.0210258864222,2021-08-12 09:14:05.628
520,-112.0,1115.0,-141.0,1129.446767227212,2021-08-12 09:14:05.638
521,-260.0,1083.0,-150.0,1123.8278337895,2021-08-12 09:14:05.647
522,30.0,1185.0,-72.0,1187.564314047875,2021-08-12 09:14:05.657
523,-226.0,1130.0,-130.0,1159.687889046014,2021-08-12 09:14:05.667
524,-374.0,1065.0,-101.0,1133.2704884536613,2021-08-12 09:14:05.676
525,-414.0,940.0,45.0,1028.1152659113666,2021-08-12 09:14:05.687
526,-279.0,1105.0,-126.0,1146.621995253885,2021-08-12 09:14:05.696
527,-306.0,1012.0,-82.0,1060.426329360036,2021-08-12 09:14:05.706
528,-172.0,1012.0,-82.0,1029.7825013079218,2021-08-12 09:14:05.715
529,-172.0,826.0,111.0,850.9882490375528,2021-08-12 09:14:05.716
530,-13.0,982.0,6.0,982.104373272006,2021-08-12 09:14:05.726
531,-145.0,982.0,6.0,992.665603312616,2021-08-12 09:14:05.738
532,-145.0,923.0,56.0,935.9967948663073,2021-08-12 09:14:05.739
533,-129.0,1004.0,-64.0,1014.2746176455368,2021-08-12 09:14:05.745
534,-208.0,965.0,26.0,987.5044303698086,2021-08-12 09:14:05.754
535,-75.0,973.0,16.0,976.0174178773656,2021-08-12 09:14:05.765
536,20.0,1074.0,-86.0,1077.6233108094868,2021-08-12 09:14:05.775
537,-120.0,957.0,-18.0,964.6621170129984,2021-08-12 09:14:05.784
538,-53.0,1072.0,-90.0,1077.076134727717,2021-08-12 09:14:05.794
539,-92.0,986.0,-30.0,990.7370993356412,2021-08-12 09:14:05.803
540,-127.0,933.0,-86.0,945.5231356238723,2021-08-12 09:14:05.824
541,-84.0,1097.0,-211.0,1120.2615765971802,2021-08-12 09:14:05.826
542,-202.0,1083.0,-211.0,1121.7013862878125,2021-08-12 09:14:05.833
543,-202.0,1083.0,-102.0,1106.3891720366753,2021-08-12 09:14:05.834
544,-265.0,922.0,1.0,959.3278897227996,2021-08-12 09:14:05.843
545,-210.0,1112.0,-52.0,1132.8495045680163,2021-08-12 09:14:05.853
546,-331.0,858.0,39.0,920.4596677747484,2021-08-12 09:14:05.862
547,-238.0,1006.0,-51.0,1035.0270527865443,2021-08-12 09:14:05.871
548,-206.0,877.0,119.0,908.6946681916868,2021-08-12 09:14:05.882
549,-166.0,856.0,40.0,872.8642506140345,2021-08-12 09:14:05.892
550,-190.0,935.0,10.0,954.1619359416932,2021-08-12 09:14:05.901
551,-325.0,748.0,116.0,823.7627085514372,2021-08-12 09:14:05.911
552,-158.0,910.0,34.0,924.2402285120464,2021-08-12 09:14:05.921
553,-165.0,881.0,21.0,896.5639966003542,2021-08-12 09:14:05.933
554,-134.0,950.0,-98.0,964.3961841484028,2021-08-12 09:14:05.942
555,-359.0,928.0,57.0,996.651393416976,2021-08-12 09:14:05.950
556,-20.0,1066.0,-80.0,1069.1847361424498,2021-08-12 09:14:05.960
557,-198.0,1054.0,-80.0,1075.4161985017709,2021-08-12 09:14:05.969
558,-198.0,1054.0,-120.0,1079.12927863162,2021-08-12 09:14:05.970
559,-40.0,1211.0,-115.0,1217.1055829302568,2021-08-12 09:14:05.979
560,-261.0,812.0,-115.0,860.6334876124679,2021-08-12 09:14:05.992
561,-261.0,812.0,209.0,878.1491900582726,2021-08-12 09:14:05.993
562,-300.0,1077.0,-75.0,1120.5150601397556,2021-08-12 09:14:06.000
563,-435.0,1077.0,-75.0,1163.9497411830118,2021-08-12 09:14:06.008
564,-435.0,975.0,-4.0,1067.6450721096408,2021-08-12 09:14:06.009
565,-212.0,1074.0,-24.0,1094.9867579107977,2021-08-12 09:14:06.018
566,-146.0,1047.0,-16.0,1057.2516256785798,2021-08-12 09:14:06.028
567,-265.0,1047.0,-16.0,1080.134250915135,2021-08-12 09:14:06.038
568,-265.0,967.0,-58.0,1004.329627164309,2021-08-12 09:14:06.039
569,-158.0,967.0,-58.0,981.5380787315386,2021-08-12 09:14:06.048
570,-158.0,1197.0,-131.0,1214.4686080751533,2021-08-12 09:14:06.049
571,-278.0,931.0,51.0,972.9573474721284,2021-08-12 09:14:06.057
572,-275.0,1020.0,-30.0,1056.846724932239,2021-08-12 09:14:06.067
573,-150.0,1015.0,40.0,1026.8032917750118,2021-08-12 09:14:06.083
574,-177.0,921.0,40.0,938.7065569175492,2021-08-12 09:14:06.087
575,-177.0,921.0,-22.0,938.111933619864,2021-08-12 09:14:06.088
576,2.0,921.0,-22.0,921.264891331478,2021-08-12 09:14:06.097
577,2.0,1114.0,-185.0,1129.2586063431174,2021-08-12 09:14:06.098
578,-132.0,939.0,-10.0,948.2852946239332,2021-08-12 09:14:06.106
579,-90.0,1087.0,-69.0,1092.8998124256404,2021-08-12 09:14:06.117
580,-20.0,1013.0,-102.0,1018.3187123882188,2021-08-12 09:14:06.126
581,-221.0,997.0,-130.0,1029.4415962064093,2021-08-12 09:14:06.137
582,-58.0,1077.0,-183.0,1093.9753196484828,2021-08-12 09:14:06.146
583,-83.0,1049.0,-49.0,1053.4187201678162,2021-08-12 09:14:06.156
584,-168.0,1031.0,-86.0,1048.1321481569012,2021-08-12 09:14:06.165
585,-14.0,1036.0,-86.0,1039.6576359552216,2021-08-12 09:14:06.174
586,-14.0,1036.0,-17.0,1036.2340469218332,2021-08-12 09:14:06.175
587,-194.0,1080.0,-78.0,1100.054544102246,2021-08-12 09:14:06.185
588,-68.0,1150.0,-174.0,1165.075104875218,2021-08-12 09:14:06.194
589,-285.0,972.0,-22.0,1013.159908405381,2021-08-12 09:14:06.210
590,-193.0,1130.0,-127.0,1153.376781455219,2021-08-12 09:14:06.214
591,-195.0,910.0,53.0,932.1662941771708,2021-08-12 09:14:06.223
592,-291.0,777.0,97.0,835.3556128978844,2021-08-12 09:14:06.234
593,-219.0,961.0,97.0,990.399414377856,2021-08-12 09:14:06.244
594,-219.0,961.0,-29.0,986.0643995196256,2021-08-12 09:14:06.245
595,-279.0,857.0,72.0,904.1426878540798,2021-08-12 09:14:06.264
596,-279.0,901.0,-11.0,943.272495093544,2021-08-12 09:14:06.265
597,-340.0,909.0,136.0,979.9882652358648,2021-08-12 09:14:06.274
598,-273.0,843.0,111.0,893.0279950819012,2021-08-12 09:14:06.282
599,-199.0,843.0,111.0,873.2531133640464,2021-08-12 09:14:06.291
600,-199.0,970.0,14.0,990.301469250652,2021-08-12 09:14:06.292
601,-153.0,856.0,14.0,869.6786762937218,2021-08-12 09:14:06.301
602,-153.0,856.0,83.0,873.518173823533,2021-08-12 09:14:06.302
603,-20.0,1047.0,-49.0,1048.3367779487658,2021-08-12 09:14:06.311
604,-119.0,966.0,5.0,973.3149541643752,2021-08-12 09:14:06.325
605,-204.0,772.0,61.0,800.825199403715,2021-08-12 09:14:06.331
606,-23.0,981.0,61.0,983.163770691333,2021-08-12 09:14:06.340
607,-23.0,981.0,-100.0,986.3518641945176,2021-08-12 09:14:06.341
608,-83.0,969.0,-18.0,972.7147577784558,2021-08-12 09:14:06.350
609,-247.0,1010.0,-175.0,1054.3879741347585,2021-08-12 09:14:06.360
610,-160.0,1193.0,-209.0,1221.691450407999,2021-08-12 09:14:06.371
611,-340.0,964.0,-209.0,1043.3489349206238,2021-08-12 09:14:06.380
612,-340.0,964.0,50.0,1023.4236659370353,2021-08-12 09:14:06.381
613,-346.0,1023.0,50.0,1081.085103033059,2021-08-12 09:14:06.389
614,-346.0,1023.0,-70.0,1082.1945296479742,2021-08-12 09:14:06.390
615,-184.0,1160.0,-54.0,1175.7431692338257,2021-08-12 09:14:06.399
616,-265.0,919.0,-54.0,957.9676403720534,2021-08-12 09:14:06.408
617,-265.0,919.0,-52.0,957.8569830616676,2021-08-12 09:14:06.409
618,-309.0,978.0,12.0,1025.7236469926977,2021-08-12 09:14:06.419
619,-377.0,807.0,70.0,893.4640451635421,2021-08-12 09:14:06.429
620,-340.0,883.0,-20.0,946.4084741801502,2021-08-12 09:14:06.438
621,-353.0,837.0,109.0,914.9092851206616,2021-08-12 09:14:06.448
622,-289.0,920.0,4.0,964.3324115677124,2021-08-12 09:14:06.458
623,-242.0,1044.0,4.0,1071.688387545559,2021-08-12 09:14:06.467
624,-242.0,1044.0,0.0,1071.6809226630844,2021-08-12 09:14:06.468
625,-238.0,1044.0,0.0,1070.7847589501823,2021-08-12 09:14:06.478
626,-238.0,798.0,105.0,839.328898585054,2021-08-12 09:14:06.479
627,-155.0,1057.0,-102.0,1073.1626158229703,2021-08-12 09:14:06.487
628,17.0,1025.0,-23.0,1025.398946751946,2021-08-12 09:14:06.497
629,-40.0,1025.0,-23.0,1026.0380109917955,2021-08-12 09:14:06.506
630,-40.0,1074.0,-118.0,1081.2030336620408,2021-08-12 09:14:06.507
631,-22.0,1099.0,-174.0,1112.906554927232,2021-08-12 09:14:06.516
632,-328.0,981.0,-174.0,1048.914200494969,2021-08-12 09:14:06.529
633,-328.0,981.0,0.0,1034.3814576837697,2021-08-12 09:14:06.530
634,-122.0,981.0,0.0,988.5570292097468,2021-08-12 09:14:06.537
635,-122.0,1129.0,-130.0,1142.989501264119,2021-08-12 09:14:06.538
636,-114.0,1129.0,-130.0,1142.163298307208,2021-08-12 09:14:06.545
637,-114.0,1085.0,-95.0,1095.1009085924456,2021-08-12 09:14:06.546
638,-284.0,1000.0,-95.0,1043.8778664192473,2021-08-12 09:14:06.555
639,-284.0,1000.0,-124.0,1046.9154693670357,2021-08-12 09:14:06.556
640,-102.0,1239.0,-233.0,1264.8375389748678,2021-08-12 09:14:06.565
641,-251.0,1043.0,-41.0,1073.559965721524,2021-08-12 09:14:06.575
642,-339.0,1038.0,-41.0,1092.7241188882033,2021-08-12 09:14:06.585
643,-339.0,1038.0,-140.0,1100.8928194878918,2021-08-12 09:14:06.586
644,-163.0,1179.0,-126.0,1196.8650717603884,2021-08-12 09:14:06.595
645,-159.0,1026.0,-36.0,1038.8710218309104,2021-08-12 09:14:06.604
646,-201.0,1008.0,-91.0,1031.865301286946,2021-08-12 09:14:06.614
647,-133.0,858.0,91.0,873.0028636837338,2021-08-12 09:14:06.624
648,-26.0,858.0,91.0,863.2039156537695,2021-08-12 09:14:06.633
649,-26.0,1025.0,-35.0,1025.926897980553,2021-08-12 09:14:06.634
650,-113.0,865.0,41.0,873.3126587883631,2021-08-12 09:14:06.644
651,-125.0,778.0,54.0,789.8259301896843,2021-08-12 09:14:06.653
652,14.0,1014.0,-86.0,1017.7367046540082,2021-08-12 09:14:06.663
653,-125.0,930.0,72.0,941.1211399177048,2021-08-12 09:14:06.672
654,-132.0,1013.0,72.0,1024.0981398284052,2021-08-12 09:14:06.684
655,-132.0,1013.0,-63.0,1023.5047630568214,2021-08-12 09:14:06.685
656,-10.0,1013.0,-63.0,1015.0064039206846,2021-08-12 09:14:06.693
657,-10.0,999.0,1.0,999.0505492716572,2021-08-12 09:14:06.694
658,-55.0,1049.0,-60.0,1052.15303069468,2021-08-12 09:14:06.702
659,-27.0,1081.0,-119.0,1087.865340931496,2021-08-12 09:14:06.712
660,-150.0,906.0,-119.0,926.0113390234484,2021-08-12 09:14:06.721
661,-150.0,906.0,12.0,918.4116723996924,2021-08-12 09:14:06.722
662,-2.0,1147.0,12.0,1147.064514314692,2021-08-12 09:14:06.731
663,-2.0,1147.0,-103.0,1151.6171238740765,2021-08-12 09:14:06.732
664,-68.0,1056.0,-45.0,1059.14352190815,2021-08-12 09:14:06.743
665,-292.0,807.0,93.0,863.2276640608779,2021-08-12 09:14:06.751
666,-323.0,938.0,93.0,996.4045363204646,2021-08-12 09:14:06.760
667,-323.0,938.0,-19.0,992.2368668820968,2021-08-12 09:14:06.761
668,-314.0,955.0,77.0,1008.2410426083636,2021-08-12 09:14:06.770
669,-301.0,955.0,77.0,1004.2683904216044,2021-08-12 09:14:06.780
670,-301.0,893.0,-45.0,943.4378622887676,2021-08-12 09:14:06.781
671,-237.0,1024.0,29.0,1051.46849691277,2021-08-12 09:14:06.791
672,-276.0,865.0,139.0,918.543412147733,2021-08-12 09:14:06.800
673,-24.0,1038.0,-33.0,1038.8017135141818,2021-08-12 09:14:06.809
674,-169.0,890.0,68.0,908.451980018757,2021-08-12 09:14:06.819
675,-210.0,827.0,83.0,857.2735852690201,2021-08-12 09:14:06.844
676,-210.0,901.0,62.0,927.224352570617,2021-08-12 09:14:06.845
677,-243.0,777.0,123.0,823.3510794308829,2021-08-12 09:14:06.849
678,-88.0,951.0,61.0,957.0088818814588,2021-08-12 09:14:06.858
679,-92.0,913.0,69.0,920.214105521101,2021-08-12 09:14:06.868
680,-209.0,1031.0,-66.0,1054.038898712946,2021-08-12 09:14:06.878
681,-14.0,1172.0,-66.0,1173.9403732728506,2021-08-12 09:14:06.887
682,-14.0,1172.0,-269.0,1202.556027800784,2021-08-12 09:14:06.888
683,-136.0,1172.0,-269.0,1210.1409008871651,2021-08-12 09:14:06.897
684,-136.0,1067.0,-57.0,1077.1415877218742,2021-08-12 09:14:06.898
685,-378.0,1031.0,-124.0,1105.0886842240309,2021-08-12 09:14:06.908
686,-29.0,1152.0,-84.0,1155.4224335713757,2021-08-12 09:14:06.917
687,-127.0,1074.0,-123.0,1088.4548681502602,2021-08-12 09:14:06.927
688,-265.0,1074.0,-123.0,1113.0274030768514,2021-08-12 09:14:06.936
689,-265.0,1074.0,-127.0,1113.4765376962373,2021-08-12 09:14:06.937
690,-402.0,867.0,59.0,957.4831591208276,2021-08-12 09:14:06.946
691,-337.0,1040.0,-87.0,1096.6941232631823,2021-08-12 09:14:06.957
692,-312.0,963.0,-87.0,1016.0127951950212,2021-08-12 09:14:06.965
693,-312.0,963.0,9.0,1012.3210953052396,2021-08-12 09:14:06.966
694,-419.0,888.0,-59.0,983.6594939306996,2021-08-12 09:14:06.976
695,-173.0,1159.0,-72.0,1174.050254461026,2021-08-12 09:14:06.986
696,-245.0,1159.0,-72.0,1186.7982136825117,2021-08-12 09:14:06.996
697,-245.0,848.0,121.0,890.9377082602352,2021-08-12 09:14:06.997
698,-195.0,958.0,-17.0,977.7924115066552,2021-08-12 09:14:07.005
699,-236.0,1005.0,60.0,1034.0797841559422,2021-08-12 09:14:07.015
700,-70.0,950.0,-17.0,952.7271382720238,2021-08-12 09:14:07.025
701,-30.0,1078.0,-17.0,1078.5513432377709,2021-08-12 09:14:07.034
702,-30.0,1078.0,-190.0,1095.026940307863,2021-08-12 09:14:07.035
703,-153.0,937.0,-53.0,950.8874801994187,2021-08-12 09:14:07.044
704,-31.0,1083.0,-93.0,1087.4276987459905,2021-08-12 09:14:07.053
705,-98.0,999.0,-32.0,1004.305232486618,2021-08-12 09:14:07.064
706,-208.0,963.0,-41.0,986.0598359126084,2021-08-12 09:14:07.073
707,-109.0,1122.0,-252.0,1155.1056228761074,2021-08-12 09:14:07.083
708,-99.0,1034.0,-65.0,1040.7602990122173,2021-08-12 09:14:07.100
709,-166.0,1045.0,-117.0,1064.5515487753516,2021-08-12 09:14:07.103
710,-63.0,1152.0,-131.0,1161.1347897638757,2021-08-12 09:14:07.113
711,-226.0,1059.0,-105.0,1087.9255489232708,2021-08-12 09:14:07.122
712,-184.0,998.0,-95.0,1019.2570823889328,2021-08-12 09:14:07.132
713,-270.0,868.0,84.0,912.8964892034584,2021-08-12 09:14:07.141
714,-342.0,899.0,-5.0,961.8679743083248,2021-08-12 09:14:07.151
715,-212.0,909.0,67.0,935.7959179222786,2021-08-12 09:14:07.162
716,-242.0,778.0,129.0,824.9175716397366,2021-08-12 09:14:07.171
717,-88.0,1020.0,20.0,1023.9843748807888,2021-08-12 09:14:07.181
718,-59.0,893.0,81.0,898.6050300326613,2021-08-12 09:14:07.190
719,-109.0,968.0,-56.0,975.7258836374076,2021-08-12 09:14:07.200
720,-271.0,968.0,-56.0,1006.7775325264266,2021-08-12 09:14:07.209
721,-271.0,892.0,89.0,936.4966631013696,2021-08-12 09:14:07.210
722,-133.0,912.0,14.0,921.7532207700714,2021-08-12 09:14:07.220
723,0.0,1070.0,-98.0,1074.4784781464914,2021-08-12 09:14:07.235
724,-176.0,874.0,82.0,895.3077683121039,2021-08-12 09:14:07.239
725,-161.0,1057.0,-56.0,1070.656807758677,2021-08-12 09:14:07.249
726,-49.0,1005.0,-45.0,1007.1995830022964,2021-08-12 09:14:07.259
727,-347.0,858.0,83.0,929.2265601025404,2021-08-12 09:14:07.278
728,-266.0,1057.0,-113.0,1095.7983391117182,2021-08-12 09:14:07.280
729,-305.0,1045.0,-15.0,1088.7033572098508,2021-08-12 09:14:07.288
730,-333.0,927.0,-48.0,986.165300545502,2021-08-12 09:14:07.298
731,-124.0,1209.0,-111.0,1220.4007538509636,2021-08-12 09:14:07.307
732,-267.0,936.0,38.0,974.0785389279448,2021-08-12 09:14:07.317
733,-254.0,986.0,-53.0,1019.569026598984,2021-08-12 09:14:07.327
734,-182.0,986.0,-53.0,1004.056273323363,2021-08-12 09:14:07.336
735,-182.0,1037.0,-4.0,1052.857540220898,2021-08-12 09:14:07.337
736,-235.0,936.0,-10.0,965.10154906103,2021-08-12 09:14:07.347
737,-289.0,922.0,49.0,967.4740306592214,2021-08-12 09:14:07.356
738,-324.0,753.0,129.0,829.8349233431912,2021-08-12 09:14:07.366
739,-247.0,997.0,-30.0,1027.5787074477555,2021-08-12 09:14:07.376
740,-406.0,997.0,-30.0,1076.9145741422576,2021-08-12 09:14:07.385
741,-406.0,858.0,50.0,950.5261700763424,2021-08-12 09:14:07.386
742,-180.0,975.0,-16.0,991.60526420547,2021-08-12 09:14:07.398
743,-91.0,1064.0,-199.0,1086.2679227520252,2021-08-12 09:14:07.405
744,-59.0,1024.0,-72.0,1028.2222522392717,2021-08-12 09:14:07.415
745,-179.0,1095.0,-72.0,1111.8677978968542,2021-08-12 09:14:07.424
746,-179.0,1095.0,-178.0,1123.721495745276,2021-08-12 09:14:07.425
747,36.0,1095.0,-178.0,1109.9572063823002,2021-08-12 09:14:07.434
748,36.0,1104.0,-112.0,1110.2504222021264,2021-08-12 09:14:07.435
749,-125.0,1065.0,-70.0,1074.5929461893932,2021-08-12 09:14:07.445
750,-91.0,1147.0,-181.0,1164.7536220162615,2021-08-12 09:14:07.454
751,-297.0,975.0,-181.0,1035.1787285295231,2021-08-12 09:14:07.463
752,-297.0,975.0,-3.0,1019.2364789390144,2021-08-12 09:14:07.464
753,-280.0,1116.0,-184.0,1165.208994129379,2021-08-12 09:14:07.473
754,-99.0,1138.0,-184.0,1157.0224716918856,2021-08-12 09:14:07.483
755,-99.0,1138.0,-65.0,1144.145969708411,2021-08-12 09:14:07.484
756,-248.0,980.0,-65.0,1012.980256470974,2021-08-12 09:14:07.493
757,-248.0,980.0,-151.0,1022.1081156120424,2021-08-12 09:14:07.494
758,-164.0,1158.0,-197.0,1186.030775317403,2021-08-12 09:14:07.503
759,-425.0,968.0,-197.0,1075.3873720664567,2021-08-12 09:14:07.512
760,-425.0,968.0,84.0,1060.5210983285529,2021-08-12 09:14:07.513
761,-275.0,973.0,-34.0,1011.6867104000132,2021-08-12 09:14:07.523
762,-241.0,878.0,155.0,923.5745773893952,2021-08-12 09:14:07.532
763,-151.0,878.0,155.0,904.2731888096648,2021-08-12 09:14:07.541
764,-151.0,807.0,84.0,825.291463666019,2021-08-12 09:14:07.542
765,-68.0,1023.0,84.0,1028.6928598955085,2021-08-12 09:14:07.552
766,-68.0,1023.0,-70.0,1027.6443937471756,2021-08-12 09:14:07.553
767,-190.0,850.0,99.0,876.584850428069,2021-08-12 09:14:07.561
768,-69.0,1009.0,1.0,1011.357009171341,2021-08-12 09:14:07.571
769,5.0,1045.0,-75.0,1047.6998616015944,2021-08-12 09:14:07.580
770,-229.0,921.0,-25.0,949.3718976249507,2021-08-12 09:14:07.591
771,-38.0,1053.0,-149.0,1064.1682197848231,2021-08-12 09:14:07.602
772,6.0,1034.0,-49.0,1035.1777625123136,2021-08-12 09:14:07.610
773,-166.0,1041.0,-116.0,1060.51544071739,2021-08-12 09:14:07.620
774,-26.0,1041.0,-116.0,1047.7657180877793,2021-08-12 09:14:07.629
775,-26.0,1026.0,-50.0,1027.5465926175805,2021-08-12 09:14:07.630
776,-45.0,1051.0,-81.0,1055.0767744576694,2021-08-12 09:14:07.640
777,-48.0,1138.0,-209.0,1158.028065290302,2021-08-12 09:14:07.650
778,-163.0,1049.0,-50.0,1062.7652610054583,2021-08-12 09:14:07.660
779,-216.0,913.0,-28.0,938.6207967012024,2021-08-12 09:14:07.668
780,-256.0,876.0,-28.0,913.0695482820572,2021-08-12 09:14:07.678
781,-256.0,876.0,123.0,920.8914159660736,2021-08-12 09:14:07.679
782,-360.0,779.0,141.0,869.6677526504016,2021-08-12 09:14:07.689
783,-299.0,948.0,11.0,994.095568846376,2021-08-12 09:14:07.698
784,-314.0,800.0,82.0,863.3191762031005,2021-08-12 09:14:07.708
785,-175.0,911.0,40.0,928.5181742970892,2021-08-12 09:14:07.717
786,-207.0,959.0,71.0,983.6518693114958,2021-08-12 09:14:07.729
787,-183.0,850.0,117.0,877.3129430254634,2021-08-12 09:14:07.737
788,-130.0,986.0,-37.0,995.2210809664354,2021-08-12 09:14:07.747
789,-117.0,874.0,93.0,886.6870924965582,2021-08-12 09:14:07.757
790,-74.0,1028.0,-3.0,1030.66434885466,2021-08-12 09:14:07.767
791,-104.0,1158.0,-183.0,1176.9745111938491,2021-08-12 09:14:07.776
792,-339.0,961.0,-18.0,1019.1987048657392,2021-08-12 09:14:07.786
793,-244.0,1093.0,-132.0,1127.6564193051,2021-08-12 09:14:07.796
794,-109.0,1118.0,-82.0,1126.2899271501988,2021-08-12 09:14:07.806
795,-209.0,982.0,-147.0,1014.6989701384348,2021-08-12 09:14:07.816
796,-163.0,1171.0,-224.0,1203.3228993084108,2021-08-12 09:14:07.825
797,-356.0,1016.0,4.0,1076.5723384891514,2021-08-12 09:14:07.835
798,-265.0,1078.0,-114.0,1115.932345619572,2021-08-12 09:14:07.844
799,-148.0,1170.0,-114.0,1184.8206615349009,2021-08-12 09:14:07.864
800,-148.0,1170.0,-50.0,1180.382988694771,2021-08-12 09:14:07.865
801,-161.0,1170.0,-50.0,1182.0833303959582,2021-08-12 09:14:07.866
802,-161.0,1037.0,-45.0,1050.3880235417766,2021-08-12 09:14:07.867
803,-197.0,1094.0,-70.0,1113.7975579071808,2021-08-12 09:14:07.874
804,-363.0,823.0,69.0,902.1413414759352,2021-08-12 09:14:07.884
805,-340.0,954.0,-14.0,1012.8731411188668,2021-08-12 09:14:07.893
806,-289.0,893.0,71.0,941.281573175636,2021-08-12 09:14:07.903
807,-113.0,850.0,22.0,857.7604560715072,2021-08-12 09:14:07.913
808,15.0,850.0,22.0,850.4169565571938,2021-08-12 09:14:07.925
809,15.0,1033.0,-157.0,1044.9703345071573,2021-08-12 09:14:07.926
810,-44.0,1033.0,-157.0,1045.7886975866588,2021-08-12 09:14:07.933
811,-44.0,991.0,-31.0,992.4605785621916,2021-08-12 09:14:07.934
812,-153.0,1023.0,-24.0,1034.656464726336,2021-08-12 09:14:07.942
813,-34.0,982.0,-6.0,982.6067372046664,2021-08-12 09:14:07.952
814,-82.0,1063.0,-66.0,1068.198951506694,2021-08-12 09:14:07.962
815,-103.0,1104.0,-201.0,1126.8655642977117,2021-08-12 09:14:07.972
816,-263.0,952.0,-22.0,987.9053598396964,2021-08-12 09:14:07.983
817,-46.0,1141.0,-139.0,1150.355597195928,2021-08-12 09:14:07.991
818,-77.0,1087.0,-83.0,1092.8801398140604,2021-08-12 09:14:08.001
819,-225.0,999.0,-84.0,1027.4638679778477,2021-08-12 09:14:08.010
820,-41.0,1190.0,-84.0,1193.6653634917957,2021-08-12 09:14:08.020
821,-41.0,1190.0,-253.0,1217.287969216816,2021-08-12 09:14:08.021
822,-181.0,1089.0,-114.0,1109.809893630436,2021-08-12 09:14:08.031
823,-227.0,907.0,0.0,934.9748659723426,2021-08-12 09:14:08.040
824,-232.0,988.0,0.0,1014.8733911183208,2021-08-12 09:14:08.049
825,-232.0,988.0,81.0,1018.100682643912,2021-08-12 09:14:08.050
826,-242.0,759.0,158.0,812.1631609473554,2021-08-12 09:14:08.060
827,-129.0,947.0,13.0,955.8341906418708,2021-08-12 09:14:08.069
828,-96.0,844.0,13.0,849.5416411218464,2021-08-12 09:14:08.079
829,-96.0,844.0,111.0,856.6638780758764,2021-08-12 09:14:08.080
830,-192.0,934.0,6.0,953.5491597185749,2021-08-12 09:14:08.090
831,-238.0,839.0,6.0,872.1244177294889,2021-08-12 09:14:08.098
832,-238.0,839.0,29.0,872.585812398987,2021-08-12 09:14:08.099
833,-167.0,815.0,63.0,834.3158874191478,2021-08-12 09:14:08.116
834,-74.0,961.0,63.0,965.901651308248,2021-08-12 09:14:08.121
835,-74.0,961.0,-67.0,966.1707923550576,2021-08-12 09:14:08.122
836,-203.0,838.0,91.0,867.0259511687063,2021-08-12 09:14:08.128
837,-121.0,955.0,-16.0,962.7678847988232,2021-08-12 09:14:08.138
838,-209.0,955.0,-16.0,977.7330924132618,2021-08-12 09:14:08.147
839,-209.0,982.0,59.0,1005.7266030089888,2021-08-12 09:14:08.148
840,-67.0,985.0,-50.0,988.5413496662646,2021-08-12 09:14:08.157
841,-57.0,1068.0,-153.0,1080.408256169861,2021-08-12 09:14:08.167
842,-13.0,1187.0,-66.0,1188.904537799398,2021-08-12 09:14:08.176
843,-175.0,1187.0,-66.0,1201.6447062255966,2021-08-12 09:14:08.187
844,-175.0,1078.0,-51.0,1093.302336958995,2021-08-12 09:14:08.188
845,-167.0,1126.0,-83.0,1141.3386876821446,2021-08-12 09:14:08.197
846,-424.0,857.0,37.0,956.8667618848508,2021-08-12 09:14:08.206
847,-372.0,969.0,-33.0,1038.4767691190789,2021-08-12 09:14:08.215
848,-276.0,1002.0,7.0,1039.3406563778788,2021-08-12 09:14:08.225
849,-424.0,1002.0,7.0,1088.039061798794,2021-08-12 09:14:08.235
850,-424.0,880.0,-59.0,978.5995095032492,2021-08-12 09:14:08.236
851,-335.0,1134.0,-28.0,1182.7785084283532,2021-08-12 09:14:08.251
852,-322.0,830.0,128.0,899.426483932956,2021-08-12 09:14:08.255
853,-140.0,1011.0,-96.0,1025.152183824431,2021-08-12 09:14:08.264
854,-136.0,913.0,91.0,927.5483814874564,2021-08-12 09:14:08.274
855,-206.0,885.0,51.0,910.0890066361642,2021-08-12 09:14:08.294
856,-186.0,898.0,61.0,919.0870470200306,2021-08-12 09:14:08.296
857,-139.0,943.0,61.0,955.1392568625791,2021-08-12 09:14:08.304
858,-139.0,943.0,0.0,953.189383071381,2021-08-12 09:14:08.305
859,43.0,1136.0,-117.0,1142.8184457734308,2021-08-12 09:14:08.316
860,-57.0,1040.0,-48.0,1042.6662936913228,2021-08-12 09:14:08.324
861,-185.0,981.0,-103.0,1003.5910521721484,2021-08-12 09:14:08.333
862,-57.0,1163.0,-103.0,1168.9426846513904,2021-08-12 09:14:08.342
863,-57.0,1163.0,-273.0,1195.971153498277,2021-08-12 09:14:08.343
864,-115.0,1146.0,-119.0,1157.8868683943176,2021-08-12 09:14:08.353
865,-288.0,1115.0,-171.0,1164.2207694419474,2021-08-12 09:14:08.364
866,32.0,1160.0,-114.0,1166.027443930888,2021-08-12 09:14:08.372
867,-175.0,1160.0,-114.0,1178.6521963666803,2021-08-12 09:14:08.381
868,-175.0,1113.0,-118.0,1132.836263543854,2021-08-12 09:14:08.382
869,-264.0,1092.0,-118.0,1129.6388803507075,2021-08-12 09:14:08.391
870,-264.0,1092.0,-109.0,1128.734246844668,2021-08-12 09:14:08.392
871,-355.0,967.0,16.0,1030.2281300760526,2021-08-12 09:14:08.402
872,-248.0,1111.0,-149.0,1148.053134658845,2021-08-12 09:14:08.412
873,-243.0,1030.0,-16.0,1058.3973733905427,2021-08-12 09:14:08.421
874,-164.0,812.0,83.0,832.5436925471239,2021-08-12 09:14:08.430
875,-106.0,1003.0,-40.0,1009.3785216656833,2021-08-12 09:14:08.440
876,-132.0,858.0,84.0,872.149069826942,2021-08-12 09:14:08.450
877,-41.0,858.0,84.0,863.0764740160631,2021-08-12 09:14:08.460
878,-41.0,1002.0,-11.0,1002.8987984836756,2021-08-12 09:14:08.461
879,-203.0,881.0,61.0,906.1407175488804,2021-08-12 09:14:08.470
880,-120.0,911.0,61.0,920.8919589180916,2021-08-12 09:14:08.479
881,-120.0,911.0,14.0,918.9760606239968,2021-08-12 09:14:08.480
882,2.0,1068.0,-110.0,1073.6517126144772,2021-08-12 09:14:08.489
883,-130.0,881.0,14.0,890.6497628136439,2021-08-12 09:14:08.499
884,-4.0,1017.0,-18.0,1017.1671445735948,2021-08-12 09:14:08.509
885,-86.0,985.0,-21.0,988.9701714409794,2021-08-12 09:14:08.522
886,-222.0,971.0,-67.0,998.3055644440734,2021-08-12 09:14:08.528
887,-176.0,1021.0,-165.0,1049.1148650171724,2021-08-12 09:14:08.538
888,-74.0,1021.0,-165.0,1036.8905438859013,2021-08-12 09:14:08.547
889,-74.0,1055.0,-27.0,1057.9366710725174,2021-08-12 09:14:08.548
890,-164.0,1071.0,-152.0,1094.0936888585,2021-08-12 09:14:08.559
891,-207.0,1124.0,12.0,1142.9650038387,2021-08-12 09:14:08.567
892,-295.0,874.0,103.0,928.1756299321804,2021-08-12 09:14:08.577
893,-263.0,874.0,103.0,918.5063962760412,2021-08-12 09:14:08.586
894,-263.0,974.0,0.0,1008.8830457491096,2021-08-12 09:14:08.587
895,-181.0,974.0,0.0,990.6750223963456,2021-08-12 09:14:08.596
896,-181.0,951.0,63.0,970.119064857505,2021-08-12 09:14:08.597
897,-130.0,890.0,-5.0,899.4581702336135,2021-08-12 09:14:08.607
898,-290.0,855.0,31.0,903.3747837968468,2021-08-12 09:14:08.616
899,-355.0,754.0,156.0,847.8661450960287,2021-08-12 09:14:08.626
900,-180.0,983.0,72.0,1001.9346286060784,2021-08-12 09:14:08.635
901,-198.0,831.0,97.0,859.752289906808,2021-08-12 09:14:08.645
902,-172.0,892.0,56.0,910.1560305793728,2021-08-12 09:14:08.656
903,-319.0,859.0,96.0,921.3349011081692,2021-08-12 09:14:08.666
904,-140.0,892.0,76.0,906.1125757873576,2021-08-12 09:14:08.674
905,-14.0,1009.0,-10.0,1009.14666922108,2021-08-12 09:14:08.684
906,-28.0,1156.0,-115.0,1162.0434587398183,2021-08-12 09:14:08.694
907,-165.0,1138.0,-120.0,1156.1440221702485,2021-08-12 09:14:08.705
908,-166.0,1149.0,-201.0,1178.2011712776389,2021-08-12 09:14:08.714
909,-333.0,1008.0,-201.0,1080.4415763936522,2021-08-12 09:14:08.723
910,-333.0,1008.0,-26.0,1061.8987710700112,2021-08-12 09:14:08.724
911,-326.0,1140.0,-157.0,1196.0455676938066,2021-08-12 09:14:08.734
912,-244.0,1079.0,-49.0,1107.3292193381335,2021-08-12 09:14:08.743
913,-236.0,937.0,-76.0,969.2476463732064,2021-08-12 09:14:08.753
914,-126.0,1226.0,-148.0,1241.3122089144213,2021-08-12 09:14:08.763
915,-366.0,977.0,46.0,1044.3184380254904,2021-08-12 09:14:08.772
916,-228.0,1014.0,-34.0,1039.8730691771952,2021-08-12 09:14:08.782
917,-89.0,1136.0,-32.0,1139.9302610247698,2021-08-12 09:14:08.792
918,-247.0,951.0,25.0,982.8707951709624,2021-08-12 09:14:08.802
919,-293.0,963.0,24.0,1006.8733783351312,2021-08-12 09:14:08.811
920,-158.0,788.0,45.0,804.9428551145727,2021-08-12 09:14:08.821
921,-4.0,991.0,29.0,991.4322972346624,2021-08-12 09:14:08.831
922,-34.0,996.0,29.0,997.002006016036,2021-08-12 09:14:08.840
923,-34.0,996.0,-45.0,997.5956094530488,2021-08-12 09:14:08.841
924,-162.0,889.0,9.0,903.684679520462,2021-08-12 09:14:08.850
925,-87.0,1048.0,-197.0,1069.8981259914422,2021-08-12 09:14:08.873
926,-87.0,1087.0,-85.0,1093.7837994777578,2021-08-12 09:14:08.874
927,-94.0,1065.0,-85.0,1072.5138693741912,2021-08-12 09:14:08.879
928,-94.0,1065.0,-149.0,1079.4730195794614,2021-08-12 09:14:08.880
929,32.0,1006.0,-100.0,1011.4642850837593,2021-08-12 09:14:08.889
930,-70.0,1073.0,-122.0,1082.1797447744068,2021-08-12 09:14:08.899
931,-79.0,1167.0,-183.0,1183.8999113100735,2021-08-12 09:14:08.909
932,-403.0,988.0,-39.0,1067.7424783158156,2021-08-12 09:14:08.922
933,-268.0,1167.0,-160.0,1208.020281286701,2021-08-12 09:14:08.929
934,-106.0,1193.0,-118.0,1203.4986497707423,2021-08-12 09:14:08.938
935,-272.0,723.0,179.0,792.9400986203183,2021-08-12 09:14:08.948
936,-178.0,969.0,66.0,987.4213892761288,2021-08-12 09:14:08.958
937,-181.0,875.0,142.0,904.7375310000132,2021-08-12 09:14:08.968
938,-200.0,917.0,21.0,938.7917767002436,2021-08-12 09:14:08.978
939,-277.0,874.0,71.0,919.5901260887916,2021-08-12 09:14:08.987
940,-150.0,841.0,94.0,859.428298347221,2021-08-12 09:14:08.997
941,-133.0,841.0,94.0,856.6247719976349,2021-08-12 09:14:09.006
942,-133.0,915.0,54.0,926.191124984471,2021-08-12 09:14:09.007
943,-371.0,669.0,145.0,778.6058052699068,2021-08-12 09:14:09.018
944,-22.0,924.0,19.0,924.4571380004592,2021-08-12 09:14:09.026
945,-314.0,989.0,-180.0,1053.1462386582407,2021-08-12 09:14:09.036
946,-125.0,989.0,-180.0,1012.9886475178288,2021-08-12 09:14:09.045
947,-125.0,989.0,8.0,996.9001956063606,2021-08-12 09:14:09.046
948,-51.0,1021.0,-72.0,1024.8053473709044,2021-08-12 09:14:09.056
949,-154.0,1021.0,-72.0,1035.0560371303577,2021-08-12 09:14:09.066
950,-154.0,1011.0,13.0,1022.7443473322156,2021-08-12 09:14:09.067
951,-83.0,938.0,16.0,941.8009343805091,2021-08-12 09:14:09.075
952,-180.0,983.0,-36.0,999.9924999718748,2021-08-12 09:14:09.085
953,-232.0,963.0,-25.0,990.8672968667398,2021-08-12 09:14:09.095
954,-281.0,1004.0,-138.0,1051.6753301280771,2021-08-12 09:14:09.104
955,-30.0,1027.0,43.0,1028.3374932384795,2021-08-12 09:14:09.115
956,-145.0,952.0,73.0,965.7422016252576,2021-08-12 09:14:09.124
957,-91.0,1022.0,-30.0,1026.4818556603911,2021-08-12 09:14:09.139
958,-114.0,1022.0,-30.0,1028.775971725623,2021-08-12 09:14:09.143
959,-114.0,1075.0,69.0,1083.2275845822985,2021-08-12 09:14:09.144
960,-67.0,960.0,46.0,963.433962448906,2021-08-12 09:14:09.153
961,-62.0,968.0,-6.0,970.0020618534788,2021-08-12 09:14:09.163
962,-190.0,1057.0,-122.0,1080.8482779742956,2021-08-12 09:14:09.173
963,-81.0,999.0,-3.0,1002.2828941970424,2021-08-12 09:14:09.183
964,-118.0,1039.0,5.0,1045.6911589948536,2021-08-12 09:14:09.193
965,-134.0,1101.0,-162.0,1120.892947609182,2021-08-12 09:14:09.202
966,-96.0,1101.0,-162.0,1116.9874663576131,2021-08-12 09:14:09.211
967,-96.0,1009.0,16.0,1013.6828892706042,2021-08-12 09:14:09.212
968,-151.0,959.0,7.0,970.8403576283796,2021-08-12 09:14:09.222
969,-260.0,919.0,-16.0,955.2052135536112,2021-08-12 09:14:09.232
970,-117.0,965.0,81.0,975.4358000401668,2021-08-12 09:14:09.241
971,-117.0,1008.0,4.0,1014.7753445960342,2021-08-12 09:14:09.251
972,-155.0,974.0,0.0,986.2560519459436,2021-08-12 09:14:09.266
973,-76.0,966.0,40.0,969.810290727006,2021-08-12 09:14:09.271
974,-109.0,1008.0,-8.0,1013.9077867340797,2021-08-12 09:14:09.282
975,-147.0,1015.0,-12.0,1025.6597876489066,2021-08-12 09:14:09.290
976,-184.0,976.0,-3.0,993.1973620585186,2021-08-12 09:14:09.312
977,-156.0,990.0,-6.0,1002.2335057260858,2021-08-12 09:14:09.314
978,-150.0,1004.0,-30.0,1015.586530040646,2021-08-12 09:14:09.320
979,-181.0,940.0,-31.0,957.7692832827748,2021-08-12 09:14:09.330
980,-172.0,940.0,-31.0,956.1093033748808,2021-08-12 09:14:09.338
981,-172.0,972.0,-24.0,987.3925257971116,2021-08-12 09:14:09.339
982,-236.0,997.0,24.0,1024.8321813838595,2021-08-12 09:14:09.348
983,-219.0,983.0,6.0,1007.1176693912188,2021-08-12 09:14:09.358
984,-199.0,1035.0,6.0,1053.9743829904028,2021-08-12 09:14:09.369
985,-199.0,1035.0,-62.0,1055.7793330047714,2021-08-12 09:14:09.370
986,-189.0,1004.0,-62.0,1023.514044847456,2021-08-12 09:14:09.378
987,-189.0,1004.0,-46.0,1022.6695458455775,2021-08-12 09:14:09.379
988,-191.0,1014.0,-10.0,1031.8803225180718,2021-08-12 09:14:09.387
989,-182.0,1012.0,-78.0,1031.1896042920523,2021-08-12 09:14:09.397
990,-177.0,969.0,-40.0,985.8448153741034,2021-08-12 09:14:09.407
991,-200.0,958.0,15.0,978.7691249727897,2021-08-12 09:14:09.417
992,-156.0,1006.0,-17.0,1018.1655071745456,2021-08-12 09:14:09.427
993,-109.0,993.0,-16.0,999.0925883020052,2021-08-12 09:14:09.436
994,-169.0,968.0,-13.0,982.727836178461,2021-08-12 09:14:09.446
995,-191.0,977.0,-61.0,997.3620205321636,2021-08-12 09:14:09.456
996,-149.0,1018.0,-74.0,1031.5042413873052,2021-08-12 09:14:09.465
997,-153.0,978.0,-37.0,990.5866948430108,2021-08-12 09:14:09.476
