,Acceleration_X,Acceleration_Y,Acceleration_Z,magnitude,time_stamp
0,-375.0,843.0,11.0,922.7106805494342,2021-08-12 09:20:23.437
1,-375.0,843.0,85.0,926.55221115704,2021-08-12 09:20:23.438
2,-73.0,763.0,49.0,768.0488265728944,2021-08-12 09:20:23.456
3,-5.0,926.0,-56.0,927.7052333580964,2021-08-12 09:20:23.459
4,-187.0,794.0,-21.0,815.9938725260135,2021-08-12 09:20:23.467
5,-113.0,990.0,-96.0,1001.0419571626356,2021-08-12 09:20:23.480
6,-102.0,1043.0,-123.0,1055.1691807478078,2021-08-12 09:20:23.487
7,-134.0,967.0,10.0,976.2914523849936,2021-08-12 09:20:23.496
8,-204.0,1053.0,-205.0,1091.993589724775,2021-08-12 09:20:23.506
9,-160.0,1053.0,-205.0,1084.6354226190476,2021-08-12 09:20:23.515
10,-160.0,1024.0,-67.0,1038.587983754867,2021-08-12 09:20:23.516
11,-257.0,1123.0,-133.0,1159.6840086851246,2021-08-12 09:20:23.526
12,-381.0,1107.0,-113.0,1176.171331056832,2021-08-12 09:20:23.535
13,-377.0,822.0,19.0,904.5297120603612,2021-08-12 09:20:23.545
14,-217.0,822.0,19.0,850.3728593975703,2021-08-12 09:20:23.554
15,-217.0,897.0,57.0,924.6334408834672,2021-08-12 09:20:23.555
16,-239.0,864.0,80.0,900.0094443948908,2021-08-12 09:20:23.564
17,-233.0,786.0,76.0,823.3231443364142,2021-08-12 09:20:23.574
18,-278.0,855.0,111.0,905.8863063320916,2021-08-12 09:20:23.584
19,-192.0,719.0,222.0,776.6009271176541,2021-08-12 09:20:23.594
20,-69.0,925.0,222.0,953.7662187349686,2021-08-12 09:20:23.603
21,-69.0,925.0,14.0,927.6755898480892,2021-08-12 09:20:23.604
22,-144.0,844.0,42.0,857.2257578957832,2021-08-12 09:20:23.614
23,-79.0,839.0,122.0,851.496329997963,2021-08-12 09:20:23.623
24,-297.0,901.0,79.0,951.9721634585752,2021-08-12 09:20:23.633
25,-138.0,824.0,110.0,842.6861812086395,2021-08-12 09:20:23.643
26,-57.0,1001.0,-4.0,1002.6295427524564,2021-08-12 09:20:23.652
27,-166.0,847.0,-4.0,863.1228186069466,2021-08-12 09:20:23.662
28,-166.0,847.0,46.0,864.3384753671446,2021-08-12 09:20:23.663
29,-191.0,1092.0,-144.0,1117.8913185099882,2021-08-12 09:20:23.672
30,-262.0,1146.0,-189.0,1190.6641004078351,2021-08-12 09:20:23.682
31,-438.0,997.0,32.0,1089.4388463791806,2021-08-12 09:20:23.691
32,-356.0,1146.0,-122.0,1206.207279036236,2021-08-12 09:20:23.701
33,-229.0,1046.0,-27.0,1071.1143729779749,2021-08-12 09:20:23.711
34,-284.0,952.0,-76.0,996.3613802230594,2021-08-12 09:20:23.721
35,-161.0,1217.0,-94.0,1231.1969785537974,2021-08-12 09:20:23.730
36,-414.0,869.0,102.0,967.9674581306956,2021-08-12 09:20:23.740
37,-287.0,962.0,102.0,1009.0673912083374,2021-08-12 09:20:23.750
38,-287.0,962.0,5.0,1003.911350667976,2021-08-12 09:20:23.751
39,-125.0,962.0,5.0,970.0999948458922,2021-08-12 09:20:23.759
40,-125.0,1029.0,25.0,1036.865950834533,2021-08-12 09:20:23.760
41,-252.0,830.0,-6.0,867.4329945304133,2021-08-12 09:20:23.770
42,-279.0,898.0,94.0,945.0296291651388,2021-08-12 09:20:23.779
43,-294.0,898.0,94.0,949.5662167537344,2021-08-12 09:20:23.789
44,-294.0,749.0,178.0,824.0879807399208,2021-08-12 09:20:23.790
45,0.0,1107.0,-82.0,1110.0328823958323,2021-08-12 09:20:23.799
46,15.0,1107.0,-82.0,1110.1342261186255,2021-08-12 09:20:23.808
47,15.0,1052.0,-121.0,1059.042019940663,2021-08-12 09:20:23.809
48,-348.0,906.0,-101.0,975.7771261922468,2021-08-12 09:20:23.819
49,-130.0,1096.0,-238.0,1129.0527002757665,2021-08-12 09:20:23.828
50,-31.0,1092.0,-88.0,1095.97855818442,2021-08-12 09:20:23.838
51,-206.0,1092.0,-88.0,1114.739431436782,2021-08-12 09:20:23.847
52,-206.0,1110.0,-178.0,1142.899820631712,2021-08-12 09:20:23.848
53,0.0,1072.0,-77.0,1074.7618340823235,2021-08-12 09:20:23.857
54,-112.0,1057.0,-111.0,1068.697337883837,2021-08-12 09:20:23.867
55,-212.0,1150.0,-249.0,1195.593994631957,2021-08-12 09:20:23.877
56,-465.0,1150.0,-249.0,1265.1980082184764,2021-08-12 09:20:23.886
57,-465.0,979.0,-33.0,1084.3223690397613,2021-08-12 09:20:23.887
58,-236.0,1191.0,-162.0,1224.9167318638438,2021-08-12 09:20:23.897
59,-146.0,1174.0,-117.0,1188.8149561643309,2021-08-12 09:20:23.906
60,-394.0,954.0,-164.0,1045.1066931179805,2021-08-12 09:20:23.916
61,-179.0,1200.0,-176.0,1225.975937773658,2021-08-12 09:20:23.926
62,-269.0,906.0,73.0,947.9061134943692,2021-08-12 09:20:23.944
63,-183.0,873.0,-71.0,894.7955073646716,2021-08-12 09:20:23.947
64,-300.0,935.0,71.0,984.5130776175602,2021-08-12 09:20:23.955
65,-184.0,935.0,71.0,955.5741729452508,2021-08-12 09:20:23.965
66,-184.0,792.0,108.0,820.2341129214268,2021-08-12 09:20:23.966
67,-14.0,1026.0,108.0,1031.7635388014055,2021-08-12 09:20:23.974
68,-14.0,1026.0,-52.0,1027.4122833604822,2021-08-12 09:20:23.975
69,-44.0,1026.0,-52.0,1028.2587223067935,2021-08-12 09:20:23.998
70,-44.0,853.0,90.0,858.8626199806346,2021-08-12 09:20:23.999
71,-44.0,853.0,90.0,858.8626199806346,2021-08-12 09:20:24.000
72,-44.0,1138.0,-58.0,1140.326269100208,2021-08-12 09:20:24.001
73,-59.0,1044.0,-111.0,1051.5407742926568,2021-08-12 09:20:24.004
74,-160.0,1044.0,-111.0,1062.0061205096702,2021-08-12 09:20:24.013
75,-160.0,886.0,-53.0,901.8896828326622,2021-08-12 09:20:24.014
76,4.0,1098.0,-194.0,1115.0139012586346,2021-08-12 09:20:24.023
77,-88.0,1001.0,-7.0,1004.8850680550488,2021-08-12 09:20:24.033
78,-231.0,1055.0,-126.0,1087.318720523104,2021-08-12 09:20:24.043
79,-111.0,1087.0,-87.0,1096.1108520583125,2021-08-12 09:20:24.054
80,-421.0,915.0,102.0,1012.3586321062314,2021-08-12 09:20:24.062
81,-306.0,1023.0,-64.0,1069.7013601935823,2021-08-12 09:20:24.072
82,-120.0,1044.0,20.0,1051.0642225858512,2021-08-12 09:20:24.082
83,-245.0,910.0,2.0,942.4059634785848,2021-08-12 09:20:24.093
84,-224.0,995.0,2.0,1019.9044072853104,2021-08-12 09:20:24.101
85,-224.0,995.0,77.0,1022.8049667458602,2021-08-12 09:20:24.102
86,-241.0,737.0,192.0,798.8203803108681,2021-08-12 09:20:24.111
87,-242.0,916.0,23.0,947.707233274074,2021-08-12 09:20:24.121
88,-336.0,844.0,100.0,913.9102800603569,2021-08-12 09:20:24.131
89,-192.0,835.0,-25.0,857.154595157723,2021-08-12 09:20:24.141
90,-207.0,944.0,65.0,968.6124095839368,2021-08-12 09:20:24.150
91,-229.0,789.0,155.0,836.0544240658021,2021-08-12 09:20:24.160
92,-55.0,1003.0,-67.0,1006.7387943255192,2021-08-12 09:20:24.170
93,-167.0,1003.0,-67.0,1019.0127575256356,2021-08-12 09:20:24.179
94,-167.0,813.0,79.0,833.7259741665723,2021-08-12 09:20:24.180
95,-210.0,899.0,29.0,923.6568626930674,2021-08-12 09:20:24.190
96,-181.0,1152.0,-212.0,1185.2463878873457,2021-08-12 09:20:24.200
97,-503.0,935.0,0.0,1061.7127671832905,2021-08-12 09:20:24.209
98,-158.0,1143.0,-184.0,1168.447260256106,2021-08-12 09:20:24.219
99,-137.0,1172.0,-184.0,1194.2399256430845,2021-08-12 09:20:24.228
100,-137.0,1172.0,-142.0,1188.4935843327048,2021-08-12 09:20:24.229
101,-343.0,984.0,-142.0,1051.6981506116667,2021-08-12 09:20:24.239
102,-59.0,1176.0,-180.0,1191.1578400866947,2021-08-12 09:20:24.249
103,-224.0,1019.0,23.0,1043.5832501530483,2021-08-12 09:20:24.258
104,-365.0,1019.0,23.0,1082.6426003072297,2021-08-12 09:20:24.267
105,-365.0,1059.0,-21.0,1120.3334325101612,2021-08-12 09:20:24.268
106,-91.0,1200.0,-50.0,1204.4837068221389,2021-08-12 09:20:24.280
107,-218.0,1007.0,-61.0,1032.1308056637008,2021-08-12 09:20:24.287
108,-309.0,1049.0,-17.0,1093.6960272397446,2021-08-12 09:20:24.297
109,-345.0,779.0,135.0,862.6070948004079,2021-08-12 09:20:24.307
110,-284.0,947.0,-50.0,989.9318158337976,2021-08-12 09:20:24.316
111,-10.0,895.0,73.0,898.027839212126,2021-08-12 09:20:24.326
112,-138.0,843.0,13.0,854.3196123231633,2021-08-12 09:20:24.336
113,-14.0,1020.0,-104.0,1025.3838305727274,2021-08-12 09:20:24.346
114,-111.0,922.0,56.0,930.3445598271644,2021-08-12 09:20:24.357
115,-127.0,1075.0,-118.0,1088.888424036182,2021-08-12 09:20:24.365
116,-189.0,1014.0,2.0,1031.4654623398692,2021-08-12 09:20:24.375
117,-37.0,1014.0,2.0,1014.676795832052,2021-08-12 09:20:24.391
118,-37.0,989.0,-33.0,990.241889641112,2021-08-12 09:20:24.392
119,51.0,1158.0,-171.0,1171.6680417251296,2021-08-12 09:20:24.396
120,-247.0,963.0,-76.0,997.072715502736,2021-08-12 09:20:24.404
121,-61.0,1122.0,-128.0,1130.9239585400956,2021-08-12 09:20:24.414
122,-87.0,1108.0,-95.0,1115.463132514921,2021-08-12 09:20:24.424
123,-335.0,981.0,-95.0,1040.9663779392686,2021-08-12 09:20:24.433
124,-335.0,981.0,-76.0,1039.4046372804,2021-08-12 09:20:24.434
125,-75.0,1168.0,-277.0,1202.7377103924198,2021-08-12 09:20:24.444
126,-155.0,1058.0,-80.0,1072.2821457060636,2021-08-12 09:20:24.454
127,-243.0,828.0,-22.0,863.2015987010219,2021-08-12 09:20:24.476
128,-243.0,1021.0,13.0,1049.5994474083911,2021-08-12 09:20:24.478
129,-237.0,805.0,13.0,839.2633674836522,2021-08-12 09:20:24.483
130,-237.0,805.0,134.0,849.7940927071687,2021-08-12 09:20:24.484
131,-185.0,948.0,-57.0,967.562917850824,2021-08-12 09:20:24.492
132,-246.0,785.0,170.0,840.0244044073958,2021-08-12 09:20:24.502
133,-225.0,785.0,170.0,834.1162988456706,2021-08-12 09:20:24.511
134,-225.0,904.0,-9.0,931.6233144356146,2021-08-12 09:20:24.512
135,-104.0,898.0,63.0,906.1947914218002,2021-08-12 09:20:24.521
136,-236.0,721.0,139.0,771.2703806059195,2021-08-12 09:20:24.532
137,-48.0,977.0,139.0,988.005060715784,2021-08-12 09:20:24.541
138,-48.0,977.0,15.0,978.293412019114,2021-08-12 09:20:24.542
139,-68.0,825.0,107.0,834.6843714842156,2021-08-12 09:20:24.551
140,-93.0,946.0,107.0,956.5636413746864,2021-08-12 09:20:24.560
141,-93.0,946.0,0.0,950.5603610502596,2021-08-12 09:20:24.561
142,-282.0,909.0,108.0,957.8460210284323,2021-08-12 09:20:24.570
143,-50.0,933.0,108.0,940.5599396104428,2021-08-12 09:20:24.580
144,-50.0,933.0,-9.0,934.382148802084,2021-08-12 09:20:24.581
145,-313.0,1036.0,-122.0,1089.1046781645923,2021-08-12 09:20:24.590
146,-90.0,1242.0,-122.0,1251.2186059997669,2021-08-12 09:20:24.599
147,-90.0,1242.0,-108.0,1249.9311981065198,2021-08-12 09:20:24.600
148,-211.0,1077.0,-70.0,1099.7045057650714,2021-08-12 09:20:24.609
149,-460.0,1089.0,-44.0,1182.9864749860835,2021-08-12 09:20:24.619
150,-383.0,807.0,137.0,903.7184296007248,2021-08-12 09:20:24.629
151,-309.0,1030.0,-92.0,1079.2798524942457,2021-08-12 09:20:24.639
152,-319.0,993.0,36.0,1043.6024147154892,2021-08-12 09:20:24.648
153,-333.0,848.0,4.0,911.0482972927396,2021-08-12 09:20:24.658
154,-228.0,1193.0,-36.0,1215.1250964406916,2021-08-12 09:20:24.668
155,-416.0,1193.0,-36.0,1263.96242032744,2021-08-12 09:20:24.680
156,-416.0,876.0,126.0,977.9100163102944,2021-08-12 09:20:24.681
157,-156.0,940.0,-30.0,953.3289044186168,2021-08-12 09:20:24.687
158,-81.0,978.0,47.0,982.4734093093816,2021-08-12 09:20:24.698
159,-243.0,850.0,-20.0,884.2788021885406,2021-08-12 09:20:24.707
160,70.0,1219.0,-182.0,1234.4978736312185,2021-08-12 09:20:24.717
161,-199.0,1219.0,-182.0,1248.4734678798743,2021-08-12 09:20:24.726
162,-199.0,916.0,-55.0,938.9792329971948,2021-08-12 09:20:24.727
163,-52.0,1127.0,-143.0,1137.2255712918172,2021-08-12 09:20:24.738
164,-69.0,1098.0,-197.0,1117.6645292752205,2021-08-12 09:20:24.746
165,-254.0,992.0,-141.0,1033.6638718655113,2021-08-12 09:20:24.756
166,-145.0,992.0,-141.0,1012.4080205134686,2021-08-12 09:20:24.765
167,-145.0,1100.0,-269.0,1141.6593187111469,2021-08-12 09:20:24.766
168,-109.0,1089.0,-80.0,1097.3613807675208,2021-08-12 09:20:24.775
169,-304.0,1131.0,-188.0,1186.1370072634948,2021-08-12 09:20:24.786
170,-7.0,1162.0,-122.0,1168.4078911065262,2021-08-12 09:20:24.795
171,-123.0,1136.0,-121.0,1149.0282851174727,2021-08-12 09:20:24.805
172,-236.0,1215.0,-238.0,1260.3828783349925,2021-08-12 09:20:24.814
173,-500.0,952.0,15.0,1075.4203829200933,2021-08-12 09:20:24.824
174,-311.0,1122.0,-130.0,1171.5395853320535,2021-08-12 09:20:24.834
175,-262.0,1137.0,-18.0,1166.93487393256,2021-08-12 09:20:24.844
176,-268.0,752.0,90.0,803.3853371826001,2021-08-12 09:20:24.854
177,27.0,939.0,18.0,939.5605355696886,2021-08-12 09:20:24.863
178,-64.0,851.0,84.0,857.5272590419502,2021-08-12 09:20:24.873
179,-137.0,935.0,0.0,944.983597741252,2021-08-12 09:20:24.885
180,-292.0,876.0,118.0,930.8941937728476,2021-08-12 09:20:24.894
181,-157.0,836.0,90.0,855.3624962552426,2021-08-12 09:20:24.902
182,-69.0,1053.0,-95.0,1059.525837344234,2021-08-12 09:20:24.912
183,-121.0,871.0,74.0,882.4726624660959,2021-08-12 09:20:24.922
184,-18.0,871.0,74.0,874.3231667981811,2021-08-12 09:20:24.931
185,-18.0,1117.0,-104.0,1121.975489928367,2021-08-12 09:20:24.932
186,34.0,1052.0,-104.0,1057.6748082468448,2021-08-12 09:20:24.942
187,34.0,1052.0,-55.0,1053.985294015054,2021-08-12 09:20:24.943
188,-217.0,903.0,-55.0,930.3348859416162,2021-08-12 09:20:24.958
189,-217.0,903.0,20.0,928.9230323336805,2021-08-12 09:20:24.959
190,-85.0,1090.0,-205.0,1112.3623510349494,2021-08-12 09:20:24.961
191,-63.0,1015.0,-45.0,1017.948426984393,2021-08-12 09:20:24.971
192,-344.0,898.0,-96.0,966.4139899649632,2021-08-12 09:20:24.981
193,-213.0,1225.0,-78.0,1245.8242251618003,2021-08-12 09:20:24.990
194,-416.0,884.0,113.0,983.5044483885164,2021-08-12 09:20:25.000
195,-108.0,1052.0,37.0,1058.1762613099957,2021-08-12 09:20:25.022
196,-194.0,826.0,3.0,848.4815849504337,2021-08-12 09:20:25.029
197,-192.0,826.0,3.0,848.0265326037859,2021-08-12 09:20:25.040
198,-192.0,916.0,63.0,938.0239869001218,2021-08-12 09:20:25.041
199,-320.0,799.0,137.0,871.5331319003311,2021-08-12 09:20:25.049
200,-226.0,799.0,137.0,841.5735261995828,2021-08-12 09:20:25.058
201,-226.0,921.0,64.0,950.4804048479904,2021-08-12 09:20:25.059
202,-266.0,854.0,129.0,903.7217492126656,2021-08-12 09:20:25.068
203,-135.0,887.0,21.0,897.4603055288852,2021-08-12 09:20:25.079
204,-284.0,928.0,74.0,973.3015976561428,2021-08-12 09:20:25.088
205,-157.0,745.0,74.0,764.950978821519,2021-08-12 09:20:25.097
206,-157.0,745.0,148.0,775.614595014818,2021-08-12 09:20:25.098
207,16.0,1027.0,-39.0,1027.864777098622,2021-08-12 09:20:25.107
208,3.0,1077.0,-100.0,1081.636722749371,2021-08-12 09:20:25.117
209,-22.0,1071.0,-113.0,1077.1694388535166,2021-08-12 09:20:25.127
210,-221.0,1108.0,-237.0,1154.4150033675064,2021-08-12 09:20:25.137
211,-429.0,859.0,44.0,961.1753221967364,2021-08-12 09:20:25.146
212,-231.0,1145.0,-155.0,1178.3085334495377,2021-08-12 09:20:25.156
213,-212.0,1142.0,-114.0,1167.0921129028334,2021-08-12 09:20:25.166
214,-369.0,945.0,-74.0,1017.1833659670216,2021-08-12 09:20:25.176
215,-72.0,1232.0,-209.0,1251.6744784487698,2021-08-12 09:20:25.186
216,-349.0,986.0,-41.0,1046.7463876221402,2021-08-12 09:20:25.197
217,-375.0,1027.0,-103.0,1098.1634668845982,2021-08-12 09:20:25.205
218,-139.0,1212.0,-28.0,1220.2659546180903,2021-08-12 09:20:25.215
219,-131.0,1212.0,-28.0,1219.3805804587837,2021-08-12 09:20:25.224
220,-131.0,1022.0,-40.0,1031.1377211604663,2021-08-12 09:20:25.225
221,-265.0,1030.0,-16.0,1063.6639506911945,2021-08-12 09:20:25.235
222,-106.0,1030.0,-16.0,1035.5636146562897,2021-08-12 09:20:25.244
223,-106.0,902.0,26.0,908.5791104796544,2021-08-12 09:20:25.245
224,-119.0,1080.0,-98.0,1090.946836468212,2021-08-12 09:20:25.254
225,-69.0,1080.0,-98.0,1086.6301118595968,2021-08-12 09:20:25.263
226,-69.0,970.0,6.0,972.46953679794,2021-08-12 09:20:25.264
227,-116.0,821.0,40.0,830.118666215861,2021-08-12 09:20:25.273
228,-51.0,821.0,40.0,823.5544912147586,2021-08-12 09:20:25.283
229,-51.0,1041.0,-176.0,1057.0042573234982,2021-08-12 09:20:25.284
230,-34.0,958.0,28.0,959.011991583004,2021-08-12 09:20:25.293
231,-71.0,1031.0,-132.0,1041.8377992758758,2021-08-12 09:20:25.303
232,-40.0,1052.0,-132.0,1061.003298769613,2021-08-12 09:20:25.312
233,-40.0,1052.0,-94.0,1056.948437720592,2021-08-12 09:20:25.313
234,-8.0,1065.0,-95.0,1069.258621662692,2021-08-12 09:20:25.322
235,-4.0,1138.0,-226.0,1160.2310114800414,2021-08-12 09:20:25.332
236,-371.0,948.0,-64.0,1020.020097841214,2021-08-12 09:20:25.342
237,-102.0,1167.0,-64.0,1173.196062045897,2021-08-12 09:20:25.352
238,-102.0,1167.0,-86.0,1174.601634597875,2021-08-12 09:20:25.353
239,-122.0,1109.0,-66.0,1117.6408188680298,2021-08-12 09:20:25.361
240,-271.0,990.0,-155.0,1038.0587651958824,2021-08-12 09:20:25.371
241,-279.0,905.0,24.0,947.33415435104,2021-08-12 09:20:25.381
242,-302.0,900.0,99.0,954.4658191889324,2021-08-12 09:20:25.391
243,-302.0,874.0,35.0,925.367494566348,2021-08-12 09:20:25.409
244,-231.0,999.0,116.0,1031.9001889717822,2021-08-12 09:20:25.411
245,-227.0,764.0,168.0,814.5237872524043,2021-08-12 09:20:25.420
246,71.0,996.0,-61.0,1000.3889243689176,2021-08-12 09:20:25.432
247,-109.0,833.0,-61.0,842.3128872337168,2021-08-12 09:20:25.439
248,-109.0,833.0,102.0,846.2706422888602,2021-08-12 09:20:25.440
249,-289.0,936.0,-30.0,980.0596920596214,2021-08-12 09:20:25.449
250,-157.0,890.0,141.0,914.6748056003293,2021-08-12 09:20:25.459
251,-229.0,764.0,118.0,806.2636045363823,2021-08-12 09:20:25.471
252,9.0,1024.0,-89.0,1027.899800564238,2021-08-12 09:20:25.479
253,-38.0,895.0,32.0,896.3777105662546,2021-08-12 09:20:25.488
254,-46.0,976.0,-110.0,983.25581615366,2021-08-12 09:20:25.498
255,-20.0,1394.0,-110.0,1398.4763137071718,2021-08-12 09:20:25.516
256,-20.0,1394.0,-397.0,1449.5671767807107,2021-08-12 09:20:25.517
257,-188.0,996.0,21.0,1013.8052081144582,2021-08-12 09:20:25.519
258,-377.0,1071.0,-120.0,1141.739900327566,2021-08-12 09:20:25.529
259,-30.0,1071.0,-120.0,1078.1191956365492,2021-08-12 09:20:25.537
260,-30.0,1254.0,-101.0,1258.4184518672637,2021-08-12 09:20:25.538
261,-129.0,1037.0,-75.0,1047.6807719911633,2021-08-12 09:20:25.547
262,-349.0,1037.0,-75.0,1096.7201101466137,2021-08-12 09:20:25.556
263,-349.0,1088.0,-66.0,1144.509065058027,2021-08-12 09:20:25.557
264,-441.0,878.0,117.0,989.4715761455708,2021-08-12 09:20:25.566
265,-356.0,1000.0,-92.0,1065.4576481493762,2021-08-12 09:20:25.576
266,-301.0,945.0,54.0,993.2482066432336,2021-08-12 09:20:25.586
267,-407.0,840.0,-58.0,935.2074636143576,2021-08-12 09:20:25.596
268,-183.0,1152.0,-58.0,1167.8856964617728,2021-08-12 09:20:25.605
269,-183.0,1152.0,-41.0,1167.164941214394,2021-08-12 09:20:25.606
270,-467.0,762.0,145.0,905.4048818070288,2021-08-12 09:20:25.615
271,-155.0,927.0,72.0,942.6229362794012,2021-08-12 09:20:25.625
272,-62.0,927.0,72.0,931.856748647559,2021-08-12 09:20:25.635
273,-62.0,930.0,117.0,939.379050224136,2021-08-12 09:20:25.636
274,-104.0,996.0,-56.0,1002.9795611078024,2021-08-12 09:20:25.645
275,27.0,996.0,-56.0,997.9383748508724,2021-08-12 09:20:25.654
276,27.0,1129.0,-213.0,1149.234092776576,2021-08-12 09:20:25.655
277,-211.0,935.0,-43.0,959.4764197206724,2021-08-12 09:20:25.664
278,-81.0,935.0,-43.0,939.4865619049588,2021-08-12 09:20:25.673
279,-81.0,1158.0,-152.0,1170.73865572125,2021-08-12 09:20:25.674
280,-83.0,1069.0,-109.0,1077.743475971903,2021-08-12 09:20:25.685
281,-274.0,977.0,-120.0,1021.7656287035692,2021-08-12 09:20:25.694
282,-81.0,1120.0,-120.0,1129.3188212369437,2021-08-12 09:20:25.703
283,-81.0,1120.0,-251.0,1150.6354765954334,2021-08-12 09:20:25.704
284,-53.0,1043.0,-85.0,1047.7991219694736,2021-08-12 09:20:25.713
285,-173.0,1043.0,-85.0,1060.661585992441,2021-08-12 09:20:25.722
286,-173.0,1118.0,-177.0,1145.068556899542,2021-08-12 09:20:25.723
287,-12.0,1159.0,-77.0,1161.616976459969,2021-08-12 09:20:25.733
288,-172.0,1059.0,-69.0,1075.093484307295,2021-08-12 09:20:25.742
289,-335.0,1132.0,-186.0,1195.092046664189,2021-08-12 09:20:25.752
290,-488.0,1132.0,-186.0,1246.6611408077176,2021-08-12 09:20:25.761
291,-488.0,896.0,34.0,1020.840829904447,2021-08-12 09:20:25.762
292,-289.0,1120.0,-107.0,1161.6238633912442,2021-08-12 09:20:25.771
293,-199.0,896.0,85.0,921.7602725220912,2021-08-12 09:20:25.781
294,-217.0,763.0,172.0,811.6908278402559,2021-08-12 09:20:25.792
295,-8.0,1025.0,-1.0,1025.0317068266718,2021-08-12 09:20:25.801
296,-98.0,870.0,87.0,879.8141849277039,2021-08-12 09:20:25.811
297,-40.0,947.0,8.0,947.8781567269076,2021-08-12 09:20:25.820
298,-249.0,935.0,111.0,973.933775982741,2021-08-12 09:20:25.830
299,-85.0,1006.0,27.0,1009.9455430863588,2021-08-12 09:20:25.840
300,-44.0,1107.0,-89.0,1111.443205926421,2021-08-12 09:20:25.850
301,-221.0,823.0,76.0,855.5384269569661,2021-08-12 09:20:25.860
302,4.0,1100.0,-46.0,1100.9686644042145,2021-08-12 09:20:25.869
303,-44.0,1013.0,-45.0,1014.9532008915484,2021-08-12 09:20:25.879
304,-235.0,854.0,-48.0,887.0428400026686,2021-08-12 09:20:25.889
305,-61.0,1157.0,-179.0,1172.352762610299,2021-08-12 09:20:25.898
306,-260.0,1030.0,-3.0,1062.3130423749865,2021-08-12 09:20:25.908
307,-368.0,925.0,-103.0,1000.8286566640666,2021-08-12 09:20:25.918
308,-199.0,925.0,-103.0,951.7536445950706,2021-08-12 09:20:25.927
309,-199.0,1199.0,-55.0,1216.6457989078006,2021-08-12 09:20:25.928
310,-436.0,873.0,74.0,978.6219903517394,2021-08-12 09:20:25.937
311,-156.0,973.0,12.0,985.4993658039564,2021-08-12 09:20:25.948
312,-50.0,1037.0,40.0,1038.974975637046,2021-08-12 09:20:25.958
313,-210.0,916.0,-15.0,939.8835034194398,2021-08-12 09:20:25.974
314,-250.0,997.0,56.0,1029.3905964210087,2021-08-12 09:20:25.977
315,-155.0,889.0,19.0,902.6112119844292,2021-08-12 09:20:25.991
316,-269.0,912.0,-10.0,950.8969449945668,2021-08-12 09:20:25.996
317,-229.0,901.0,82.0,933.2555920003908,2021-08-12 09:20:26.006
318,-160.0,901.0,82.0,918.762755013502,2021-08-12 09:20:26.015
319,-160.0,894.0,-31.0,908.7337343798788,2021-08-12 09:20:26.016
320,-254.0,888.0,127.0,932.3030623139666,2021-08-12 09:20:26.038
321,-254.0,888.0,127.0,932.3030623139666,2021-08-12 09:20:26.039
322,-254.0,750.0,187.0,813.6246063142388,2021-08-12 09:20:26.040
323,-320.0,1073.0,-198.0,1137.0721173258976,2021-08-12 09:20:26.045
324,-96.0,1094.0,-88.0,1101.7241033943117,2021-08-12 09:20:26.060
325,-117.0,1054.0,-88.0,1064.118884335768,2021-08-12 09:20:26.064
326,-158.0,1138.0,-175.0,1162.167371767079,2021-08-12 09:20:26.074
327,-381.0,943.0,-2.0,1017.0614534038738,2021-08-12 09:20:26.084
328,-170.0,1148.0,-173.0,1173.3426609477729,2021-08-12 09:20:26.095
329,-164.0,1100.0,-92.0,1115.9569884184605,2021-08-12 09:20:26.103
330,-342.0,914.0,-101.0,981.1019315035518,2021-08-12 09:20:26.114
331,-45.0,1198.0,-242.0,1223.0261648877345,2021-08-12 09:20:26.123
332,-315.0,980.0,3.0,1029.3852534401296,2021-08-12 09:20:26.133
333,-403.0,980.0,3.0,1059.63106787221,2021-08-12 09:20:26.144
334,-403.0,993.0,-64.0,1073.570677691972,2021-08-12 09:20:26.145
335,-113.0,1140.0,-5.0,1145.5976606121365,2021-08-12 09:20:26.152
336,-231.0,985.0,-60.0,1013.5018500229784,2021-08-12 09:20:26.162
337,-11.0,1050.0,-89.0,1053.8225657101864,2021-08-12 09:20:26.172
338,-139.0,1050.0,-89.0,1062.8932213538667,2021-08-12 09:20:26.181
339,-139.0,866.0,41.0,878.0421402187939,2021-08-12 09:20:26.182
340,-115.0,992.0,-49.0,999.8449879856375,2021-08-12 09:20:26.191
341,6.0,933.0,23.0,933.3027375937564,2021-08-12 09:20:26.201
342,-90.0,882.0,-1.0,886.5805095985361,2021-08-12 09:20:26.211
343,-54.0,1078.0,-164.0,1091.7398957627224,2021-08-12 09:20:26.221
344,-27.0,945.0,54.0,946.9266075045098,2021-08-12 09:20:26.230
345,-134.0,945.0,54.0,955.9796022928524,2021-08-12 09:20:26.240
346,-134.0,1104.0,-187.0,1127.714946251933,2021-08-12 09:20:26.241
347,-91.0,1064.0,-187.0,1084.1337555855366,2021-08-12 09:20:26.250
348,-91.0,1064.0,-35.0,1068.457767064286,2021-08-12 09:20:26.251
349,-83.0,1008.0,-25.0,1011.7203170837284,2021-08-12 09:20:26.260
350,-50.0,1168.0,-25.0,1169.3369916324375,2021-08-12 09:20:26.269
351,-50.0,1168.0,-219.0,1189.4053135916286,2021-08-12 09:20:26.270
352,-302.0,981.0,-41.0,1027.2516731551232,2021-08-12 09:20:26.279
353,-117.0,1089.0,-133.0,1103.3127389820168,2021-08-12 09:20:26.289
354,-92.0,1085.0,-90.0,1092.606516546556,2021-08-12 09:20:26.299
355,-379.0,739.0,-90.0,835.3813500432003,2021-08-12 09:20:26.308
356,-379.0,739.0,214.0,857.6467804405261,2021-08-12 09:20:26.309
357,-261.0,1003.0,-15.0,1036.5109743750909,2021-08-12 09:20:26.319
358,-277.0,926.0,77.0,969.605074244148,2021-08-12 09:20:26.328
359,-221.0,790.0,34.0,821.0341040419697,2021-08-12 09:20:26.338
360,-176.0,1048.0,36.0,1063.2854743670675,2021-08-12 09:20:26.348
361,-209.0,829.0,119.0,863.1819043515683,2021-08-12 09:20:26.357
362,-77.0,981.0,-12.0,984.090442998,2021-08-12 09:20:26.367
363,-130.0,857.0,143.0,878.5203469470698,2021-08-12 09:20:26.377
364,-194.0,913.0,-17.0,933.5384298463562,2021-08-12 09:20:26.387
365,-172.0,856.0,59.0,875.1005656494573,2021-08-12 09:20:26.398
366,-252.0,708.0,142.0,764.808472756415,2021-08-12 09:20:26.407
367,-69.0,986.0,23.0,988.6789165345846,2021-08-12 09:20:26.424
368,-87.0,860.0,23.0,864.6953220643674,2021-08-12 09:20:26.426
369,-87.0,860.0,98.0,869.9270084323167,2021-08-12 09:20:26.427
370,-259.0,970.0,98.0,1008.7541821474643,2021-08-12 09:20:26.435
371,-259.0,970.0,-117.0,1010.7769289017236,2021-08-12 09:20:26.436
372,-93.0,1169.0,-270.0,1203.374422197846,2021-08-12 09:20:26.446
373,-181.0,1010.0,0.0,1026.0901519847075,2021-08-12 09:20:26.455
374,-394.0,1018.0,-110.0,1097.114396952296,2021-08-12 09:20:26.465
375,-96.0,1120.0,-12.0,1124.170805527345,2021-08-12 09:20:26.475
376,-218.0,1050.0,-69.0,1074.609231302244,2021-08-12 09:20:26.484
377,-218.0,1147.0,-69.0,1169.570006455364,2021-08-12 09:20:26.494
378,-218.0,1147.0,-117.0,1173.380586169722,2021-08-12 09:20:26.495
379,-289.0,885.0,-117.0,938.3149790981704,2021-08-12 09:20:26.504
380,-289.0,885.0,51.0,932.387794857912,2021-08-12 09:20:26.505
381,-328.0,885.0,51.0,945.2036817533034,2021-08-12 09:20:26.513
382,-328.0,1083.0,-106.0,1136.5337654465,2021-08-12 09:20:26.514
383,-227.0,985.0,45.0,1011.8196479610384,2021-08-12 09:20:26.523
384,-282.0,889.0,-74.0,935.5859126771844,2021-08-12 09:20:26.542
385,-139.0,1215.0,-63.0,1224.546854963092,2021-08-12 09:20:26.545
386,-371.0,844.0,143.0,932.9662373312336,2021-08-12 09:20:26.553
387,-223.0,988.0,0.0,1012.8538887717222,2021-08-12 09:20:26.562
388,-176.0,976.0,3.0,991.7464393684506,2021-08-12 09:20:26.572
389,-28.0,1025.0,-53.0,1026.7511869971224,2021-08-12 09:20:26.582
390,-139.0,1159.0,-193.0,1183.1529909525648,2021-08-12 09:20:26.592
391,-210.0,858.0,53.0,884.9141201269194,2021-08-12 09:20:26.602
392,-2.0,1107.0,-114.0,1112.8562350995749,2021-08-12 09:20:26.612
393,-21.0,1095.0,-121.0,1101.865236768998,2021-08-12 09:20:26.621
394,-223.0,921.0,-94.0,952.2636189627324,2021-08-12 09:20:26.631
395,-55.0,1078.0,-94.0,1083.487424938564,2021-08-12 09:20:26.640
396,-55.0,1078.0,-237.0,1105.1144737084933,2021-08-12 09:20:26.641
397,-48.0,1078.0,-237.0,1104.7882149986938,2021-08-12 09:20:26.651
398,-48.0,1070.0,-86.0,1074.5231500530829,2021-08-12 09:20:26.652
399,-239.0,1110.0,-161.0,1146.7964073888618,2021-08-12 09:20:26.664
400,6.0,1089.0,-51.0,1090.210071499984,2021-08-12 09:20:26.670
401,-85.0,1095.0,-51.0,1099.4776032280058,2021-08-12 09:20:26.679
402,-85.0,1095.0,-77.0,1100.990009037321,2021-08-12 09:20:26.680
403,-167.0,1153.0,-217.0,1185.068352459047,2021-08-12 09:20:26.689
404,-153.0,930.0,68.0,944.951321497568,2021-08-12 09:20:26.700
405,-293.0,828.0,68.0,880.9409741861256,2021-08-12 09:20:26.709
406,-293.0,828.0,31.0,878.8594882004745,2021-08-12 09:20:26.710
407,-305.0,869.0,81.0,924.5252835915304,2021-08-12 09:20:26.719
408,-269.0,742.0,81.0,793.4015376844187,2021-08-12 09:20:26.728
409,-269.0,742.0,123.0,798.7828240516943,2021-08-12 09:20:26.729
410,-95.0,982.0,-44.0,987.565187721803,2021-08-12 09:20:26.738
411,-146.0,818.0,115.0,838.8474235521022,2021-08-12 09:20:26.748
412,-150.0,920.0,-40.0,933.0058949438636,2021-08-12 09:20:26.758
413,-306.0,920.0,-40.0,970.3793072814362,2021-08-12 09:20:26.767
414,-306.0,960.0,83.0,1011.0019782374316,2021-08-12 09:20:26.768
415,-160.0,838.0,93.0,858.1917035255002,2021-08-12 09:20:26.777
416,-17.0,1114.0,-175.0,1127.789874045693,2021-08-12 09:20:26.787
417,-122.0,904.0,8.0,912.230234096634,2021-08-12 09:20:26.797
418,0.0,989.0,-25.0,989.3159252736206,2021-08-12 09:20:26.807
419,-101.0,910.0,6.0,915.607448637242,2021-08-12 09:20:26.816
420,-230.0,818.0,-6.0,849.7411370529262,2021-08-12 09:20:26.826
421,-15.0,1040.0,-165.0,1053.1144287303257,2021-08-12 09:20:26.836
422,-94.0,1040.0,-165.0,1057.1948732376638,2021-08-12 09:20:26.845
423,-94.0,1092.0,-61.0,1097.7344852012257,2021-08-12 09:20:26.846
424,-316.0,979.0,-108.0,1034.3891917455442,2021-08-12 09:20:26.856
425,-202.0,1262.0,-108.0,1282.6191952407387,2021-08-12 09:20:26.868
426,-202.0,1262.0,-109.0,1282.7037849792134,2021-08-12 09:20:26.869
427,-399.0,924.0,83.0,1009.8841517718752,2021-08-12 09:20:26.875
428,-273.0,924.0,83.0,967.0542900995788,2021-08-12 09:20:26.884
429,-273.0,998.0,-32.0,1035.1603740483888,2021-08-12 09:20:26.885
430,-186.0,1054.0,30.0,1070.70630893817,2021-08-12 09:20:26.894
431,-198.0,918.0,-33.0,939.689842448028,2021-08-12 09:20:26.905
432,-184.0,958.0,24.0,975.80530845041,2021-08-12 09:20:26.914
433,-298.0,738.0,193.0,818.9609270288785,2021-08-12 09:20:26.924
434,-250.0,937.0,193.0,988.7962378569208,2021-08-12 09:20:26.933
435,-250.0,937.0,41.0,970.644116038417,2021-08-12 09:20:26.934
436,-285.0,827.0,79.0,878.2909540693221,2021-08-12 09:20:26.943
437,-237.0,874.0,79.0,909.0027502708668,2021-08-12 09:20:26.953
438,-237.0,874.0,-80.0,909.0902045451816,2021-08-12 09:20:26.954
439,-80.0,1140.0,-201.0,1160.3452072551513,2021-08-12 09:20:26.963
440,-78.0,1032.0,-25.0,1035.245381540048,2021-08-12 09:20:26.973
441,-204.0,1051.0,-143.0,1080.123141127899,2021-08-12 09:20:26.989
442,-22.0,1056.0,-47.0,1057.2743258019652,2021-08-12 09:20:26.992
443,-113.0,1047.0,-65.0,1055.0843568170271,2021-08-12 09:20:27.002
444,-210.0,1047.0,-65.0,1069.8289582919317,2021-08-12 09:20:27.011
445,-210.0,1076.0,-187.0,1112.1353334913877,2021-08-12 09:20:27.012
446,-396.0,918.0,20.0,999.9699995499864,2021-08-12 09:20:27.024
447,-179.0,918.0,20.0,935.5025387458873,2021-08-12 09:20:27.047
448,-179.0,1140.0,20.0,1154.1408059677988,2021-08-12 09:20:27.050
449,-179.0,1140.0,-133.0,1161.6066459864974,2021-08-12 09:20:27.051
450,-179.0,1138.0,-35.0,1152.5233186361131,2021-08-12 09:20:27.052
451,-340.0,906.0,-21.0,967.924067269742,2021-08-12 09:20:27.056
452,-25.0,1201.0,-174.0,1213.7965233102293,2021-08-12 09:20:27.060
453,-306.0,982.0,-31.0,1029.0388719577118,2021-08-12 09:20:27.070
454,-280.0,1020.0,-121.0,1064.6318612553357,2021-08-12 09:20:27.082
455,12.0,1238.0,-116.0,1243.480598964053,2021-08-12 09:20:27.090
456,-181.0,1057.0,-116.0,1078.6408113918185,2021-08-12 09:20:27.099
457,-181.0,1057.0,-97.0,1076.7632051662983,2021-08-12 09:20:27.100
458,-39.0,1014.0,-30.0,1015.1930850828328,2021-08-12 09:20:27.109
459,-110.0,791.0,96.0,804.361237255998,2021-08-12 09:20:27.119
460,-184.0,973.0,-9.0,990.2858173275026,2021-08-12 09:20:27.130
461,-70.0,949.0,46.0,952.689351257796,2021-08-12 09:20:27.139
462,-176.0,834.0,24.0,852.706280028475,2021-08-12 09:20:27.148
463,-123.0,1034.0,-131.0,1049.497975224345,2021-08-12 09:20:27.158
464,-116.0,982.0,35.0,989.4468151447048,2021-08-12 09:20:27.168
465,-147.0,1037.0,-139.0,1056.5505193789836,2021-08-12 09:20:27.178
466,-185.0,981.0,-5.0,998.3040618969752,2021-08-12 09:20:27.188
467,-71.0,1007.0,-61.0,1011.3411887192176,2021-08-12 09:20:27.197
468,78.0,1139.0,-196.0,1158.3699754396262,2021-08-12 09:20:27.207
469,-141.0,900.0,-36.0,911.689091741258,2021-08-12 09:20:27.217
470,-65.0,1125.0,-119.0,1133.1420917078317,2021-08-12 09:20:27.227
471,-260.0,1062.0,-38.0,1094.0237657382038,2021-08-12 09:20:27.237
472,-308.0,757.0,146.0,830.1981691138568,2021-08-12 09:20:27.246
473,-269.0,953.0,-63.0,992.2393864385753,2021-08-12 09:20:27.256
474,-339.0,888.0,-63.0,952.5933025168716,2021-08-12 09:20:27.265
475,-339.0,888.0,72.0,953.2308219943374,2021-08-12 09:20:27.266
476,-311.0,830.0,17.0,886.5156513000771,2021-08-12 09:20:27.275
477,-204.0,1044.0,17.0,1063.8801624243213,2021-08-12 09:20:27.285
478,-204.0,1044.0,23.0,1063.9929511044704,2021-08-12 09:20:27.286
479,-292.0,814.0,127.0,874.0646429183599,2021-08-12 09:20:27.295
480,-203.0,968.0,127.0,997.1770153789146,2021-08-12 09:20:27.304
481,-203.0,968.0,7.0,989.0813919996676,2021-08-12 09:20:27.305
482,-140.0,820.0,144.0,844.2369335678226,2021-08-12 09:20:27.314
483,-241.0,848.0,36.0,882.315703135788,2021-08-12 09:20:27.325
484,-143.0,879.0,160.0,904.8148981974158,2021-08-12 09:20:27.334
485,-238.0,723.0,175.0,781.0236872208167,2021-08-12 09:20:27.344
486,-31.0,978.0,-61.0,980.3907384303463,2021-08-12 09:20:27.353
487,-66.0,903.0,65.0,907.7389492579902,2021-08-12 09:20:27.363
488,-304.0,1053.0,-200.0,1114.1027780236436,2021-08-12 09:20:27.373
489,-25.0,1207.0,-305.0,1245.190346894803,2021-08-12 09:20:27.383
490,-203.0,1050.0,-101.0,1074.2020294153238,2021-08-12 09:20:27.393
491,-263.0,1145.0,-202.0,1192.056206728525,2021-08-12 09:20:27.402
492,-36.0,1237.0,-122.0,1243.5228184476553,2021-08-12 09:20:27.412
493,-219.0,1040.0,-40.0,1063.56052954216,2021-08-12 09:20:27.422
494,-368.0,1040.0,-40.0,1103.9130400534275,2021-08-12 09:20:27.438
495,-368.0,1116.0,-132.0,1182.49904862541,2021-08-12 09:20:27.439
496,-416.0,1116.0,-132.0,1198.3054702370343,2021-08-12 09:20:27.441
497,-416.0,923.0,43.0,1013.3281798114568,2021-08-12 09:20:27.442
498,-236.0,923.0,43.0,953.6634626533618,2021-08-12 09:20:27.454
499,-236.0,1087.0,-83.0,1115.4165141327253,2021-08-12 09:20:27.455
500,-240.0,1018.0,37.0,1046.562468274111,2021-08-12 09:20:27.461
501,-240.0,1018.0,37.0,1046.562468274111,2021-08-12 09:20:27.470
502,-240.0,888.0,-13.0,919.9527161762176,2021-08-12 09:20:27.471
503,-158.0,1149.0,-13.0,1159.8853391607292,2021-08-12 09:20:27.480
504,-158.0,1149.0,-95.0,1163.696695879128,2021-08-12 09:20:27.481
505,-326.0,860.0,80.0,923.187954860764,2021-08-12 09:20:27.490
506,-140.0,928.0,-11.0,938.5653946316154,2021-08-12 09:20:27.500
507,-400.0,944.0,73.0,1027.8448326474186,2021-08-12 09:20:27.510
508,28.0,972.0,23.0,972.6751770246838,2021-08-12 09:20:27.520
509,67.0,972.0,23.0,974.57785733106,2021-08-12 09:20:27.529
510,67.0,1107.0,-191.0,1125.3528335593242,2021-08-12 09:20:27.530
511,-242.0,894.0,-7.0,926.2013819898996,2021-08-12 09:20:27.539
512,-72.0,1140.0,-154.0,1152.6057435220423,2021-08-12 09:20:27.557
513,-60.0,1024.0,-65.0,1027.813699071967,2021-08-12 09:20:27.560
514,-292.0,935.0,-32.0,980.0576513654694,2021-08-12 09:20:27.569
515,-29.0,1135.0,-272.0,1167.4973233374028,2021-08-12 09:20:27.579
516,-93.0,1078.0,-110.0,1087.5812613317682,2021-08-12 09:20:27.588
517,-233.0,1078.0,-110.0,1108.365012078602,2021-08-12 09:20:27.597
518,-233.0,1097.0,-162.0,1133.1116449847295,2021-08-12 09:20:27.598
519,6.0,1159.0,-97.0,1163.0674958917905,2021-08-12 09:20:27.607
520,-92.0,1123.0,-109.0,1132.0220845902256,2021-08-12 09:20:27.617
521,-139.0,1159.0,-203.0,1184.8253035785488,2021-08-12 09:20:27.627
522,-81.0,950.0,44.0,954.4616283539114,2021-08-12 09:20:27.637
523,-216.0,914.0,-66.0,941.492432258486,2021-08-12 09:20:27.647
524,-157.0,887.0,75.0,903.9043090947184,2021-08-12 09:20:27.656
525,-218.0,887.0,75.0,916.4704032318774,2021-08-12 09:20:27.666
526,-218.0,747.0,122.0,787.6655381569007,2021-08-12 09:20:27.667
527,-92.0,747.0,122.0,762.4677042340876,2021-08-12 09:20:27.678
528,-92.0,934.0,18.0,938.6927079721032,2021-08-12 09:20:27.679
529,-243.0,844.0,92.0,883.0905955789588,2021-08-12 09:20:27.686
530,-127.0,917.0,-29.0,926.2067803681854,2021-08-12 09:20:27.696
531,-268.0,922.0,71.0,962.7819067680904,2021-08-12 09:20:27.705
532,-193.0,837.0,154.0,872.6591545385861,2021-08-12 09:20:27.715
533,-52.0,837.0,154.0,852.63649933603,2021-08-12 09:20:27.724
534,-52.0,1054.0,-79.0,1058.2348510609545,2021-08-12 09:20:27.725
535,-159.0,934.0,14.0,947.5405004536746,2021-08-12 09:20:27.735
536,-79.0,1124.0,-42.0,1127.5553201506343,2021-08-12 09:20:27.744
537,-30.0,979.0,6.0,979.4779221605764,2021-08-12 09:20:27.754
538,-426.0,979.0,6.0,1067.6858152096993,2021-08-12 09:20:27.763
539,-426.0,903.0,25.0,998.7542240211052,2021-08-12 09:20:27.764
540,-206.0,1089.0,-115.0,1114.262985116171,2021-08-12 09:20:27.774
541,-233.0,1108.0,-66.0,1134.1556330592375,2021-08-12 09:20:27.783
542,-404.0,921.0,-118.0,1012.6109815718968,2021-08-12 09:20:27.793
543,-161.0,1219.0,-132.0,1236.6511229930616,2021-08-12 09:20:27.803
544,-350.0,961.0,-132.0,1031.234696856152,2021-08-12 09:20:27.812
545,-350.0,961.0,79.0,1025.7982257734704,2021-08-12 09:20:27.813
546,-288.0,1015.0,-78.0,1057.947541232551,2021-08-12 09:20:27.823
547,-122.0,1005.0,95.0,1016.8254520811328,2021-08-12 09:20:27.832
548,-209.0,886.0,28.0,910.7474951928224,2021-08-12 09:20:27.842
549,-304.0,994.0,6.0,1039.4652471343138,2021-08-12 09:20:27.852
550,-340.0,708.0,167.0,802.9651300025425,2021-08-12 09:20:27.862
551,-218.0,948.0,45.0,973.7828299985578,2021-08-12 09:20:27.871
552,-208.0,930.0,72.0,955.6924191391288,2021-08-12 09:20:27.881
553,-225.0,891.0,-32.0,919.527052348108,2021-08-12 09:20:27.891
554,-21.0,1107.0,-215.0,1127.8807561085523,2021-08-12 09:20:27.900
555,-27.0,1071.0,-46.0,1072.3273753849614,2021-08-12 09:20:27.910
556,-216.0,1082.0,-149.0,1113.3647201164586,2021-08-12 09:20:27.920
557,6.0,1097.0,-149.0,1107.0889756473955,2021-08-12 09:20:27.930
558,6.0,1097.0,-93.0,1100.9514067387352,2021-08-12 09:20:27.931
559,-78.0,1086.0,-93.0,1092.7620967072385,2021-08-12 09:20:27.939
560,-78.0,1086.0,-114.0,1094.7492863665177,2021-08-12 09:20:27.940
561,-198.0,1144.0,-192.0,1176.7769542270958,2021-08-12 09:20:27.949
562,-406.0,1144.0,-192.0,1228.9979658241912,2021-08-12 09:20:27.959
563,-406.0,898.0,44.0,986.4968322300888,2021-08-12 09:20:27.960
564,-138.0,1151.0,-165.0,1170.9269832060409,2021-08-12 09:20:27.969
565,-198.0,1165.0,-120.0,1187.7832293815231,2021-08-12 09:20:27.980
566,-333.0,997.0,-126.0,1058.666141897435,2021-08-12 09:20:27.989
567,-40.0,1268.0,-248.0,1292.6438024452057,2021-08-12 09:20:28.006
568,-306.0,1019.0,3.0,1063.957705926321,2021-08-12 09:20:28.009
569,-131.0,952.0,3.0,960.975545994798,2021-08-12 09:20:28.017
570,-131.0,952.0,-32.0,961.5035101339984,2021-08-12 09:20:28.018
571,-304.0,917.0,50.0,967.3701463245596,2021-08-12 09:20:28.027
572,-142.0,769.0,149.0,796.0690924787873,2021-08-12 09:20:28.038
573,5.0,1077.0,-102.0,1081.8308555407357,2021-08-12 09:20:28.047
574,-77.0,1077.0,-102.0,1084.55613040543,2021-08-12 09:20:28.072
575,-77.0,861.0,43.0,865.5050548668102,2021-08-12 09:20:28.073
576,-77.0,1017.0,-3.0,1019.9151925527926,2021-08-12 09:20:28.074
577,-31.0,999.0,12.0,999.5529000508176,2021-08-12 09:20:28.076
578,-161.0,877.0,-4.0,891.6647352004003,2021-08-12 09:20:28.086
579,-44.0,877.0,-4.0,878.1121796217155,2021-08-12 09:20:28.095
580,-44.0,1084.0,-173.0,1098.5995630801972,2021-08-12 09:20:28.096
581,-93.0,950.0,27.0,954.9230335477304,2021-08-12 09:20:28.107
582,-135.0,1061.0,-162.0,1081.7532066049075,2021-08-12 09:20:28.115
583,-127.0,1046.0,-63.0,1055.5633566963188,2021-08-12 09:20:28.125
584,-116.0,1008.0,-61.0,1016.4846285114204,2021-08-12 09:20:28.135
585,-87.0,1196.0,-203.0,1216.221196986798,2021-08-12 09:20:28.144
586,-91.0,1040.0,72.0,1046.4535345632887,2021-08-12 09:20:28.155
587,-206.0,914.0,-2.0,936.9290261273796,2021-08-12 09:20:28.165
588,-261.0,979.0,0.0,1013.1939597135388,2021-08-12 09:20:28.174
589,-303.0,782.0,169.0,855.508036198375,2021-08-12 09:20:28.183
590,-229.0,960.0,10.0,986.9858155009118,2021-08-12 09:20:28.193
591,-191.0,864.0,89.0,889.324462724376,2021-08-12 09:20:28.203
592,-227.0,834.0,-7.0,864.369134108802,2021-08-12 09:20:28.214
593,-282.0,834.0,-7.0,880.4141071109663,2021-08-12 09:20:28.222
594,-282.0,975.0,58.0,1016.6184141554784,2021-08-12 09:20:28.223
595,-189.0,743.0,168.0,784.8528524506999,2021-08-12 09:20:28.232
596,-64.0,1042.0,-33.0,1044.4850405822,2021-08-12 09:20:28.242
597,-239.0,842.0,97.0,880.6213715326242,2021-08-12 09:20:28.252
598,-171.0,935.0,-60.0,952.4001259974716,2021-08-12 09:20:28.263
599,-180.0,919.0,-15.0,936.582083962746,2021-08-12 09:20:28.271
600,-362.0,950.0,-8.0,1016.6651366108704,2021-08-12 09:20:28.281
601,-224.0,1157.0,-164.0,1189.8407456462398,2021-08-12 09:20:28.291
602,-154.0,1103.0,-64.0,1115.5361939444188,2021-08-12 09:20:28.301
603,-281.0,992.0,-153.0,1042.3214475390978,2021-08-12 09:20:28.313
604,4.0,1276.0,-321.0,1315.7632765813155,2021-08-12 09:20:28.320
605,-227.0,1065.0,-83.0,1092.0819566314608,2021-08-12 09:20:28.330
606,-346.0,1068.0,-101.0,1127.1827713374614,2021-08-12 09:20:28.340
607,-18.0,1271.0,-101.0,1275.1337184781837,2021-08-12 09:20:28.349
608,-18.0,1271.0,-65.0,1272.7882777587167,2021-08-12 09:20:28.350
609,-207.0,1059.0,-71.0,1081.3745881978175,2021-08-12 09:20:28.361
610,-304.0,1069.0,-101.0,1115.9650532162734,2021-08-12 09:20:28.369
611,-307.0,864.0,129.0,925.9514026124696,2021-08-12 09:20:28.379
612,-337.0,864.0,129.0,936.32579799982,2021-08-12 09:20:28.388
613,-337.0,1008.0,-72.0,1065.277898015349,2021-08-12 09:20:28.389
614,-339.0,876.0,82.0,942.8791014758996,2021-08-12 09:20:28.398
615,-329.0,831.0,19.0,893.959171327192,2021-08-12 09:20:28.408
616,-138.0,987.0,-105.0,1002.1167596642618,2021-08-12 09:20:28.418
617,-86.0,987.0,-105.0,996.2881109398024,2021-08-12 09:20:28.427
618,-86.0,960.0,38.0,964.5931784954732,2021-08-12 09:20:28.428
619,-78.0,1064.0,-96.0,1071.1657201385788,2021-08-12 09:20:28.437
620,-201.0,993.0,30.0,1013.5827543915692,2021-08-12 09:20:28.447
621,-94.0,987.0,30.0,991.9198556335084,2021-08-12 09:20:28.457
622,-94.0,987.0,10.0,991.5165152431904,2021-08-12 09:20:28.458
623,35.0,1094.0,-159.0,1106.0479193959004,2021-08-12 09:20:28.475
624,-213.0,879.0,-35.0,905.1160146633138,2021-08-12 09:20:28.478
625,29.0,1145.0,-121.0,1151.7408562693258,2021-08-12 09:20:28.486
626,19.0,1145.0,-121.0,1151.5324572064828,2021-08-12 09:20:28.497
627,19.0,1131.0,-171.0,1144.0118006384375,2021-08-12 09:20:28.498
628,-285.0,969.0,-164.0,1023.2702477840348,2021-08-12 09:20:28.506
629,-104.0,1160.0,-164.0,1176.142848466971,2021-08-12 09:20:28.515
630,-104.0,1160.0,-252.0,1191.603961054175,2021-08-12 09:20:28.516
631,-127.0,1166.0,-74.0,1175.228062973311,2021-08-12 09:20:28.525
632,-346.0,1110.0,-203.0,1180.2648007968382,2021-08-12 09:20:28.535
633,-159.0,1113.0,-32.0,1124.7550844517218,2021-08-12 09:20:28.545
634,-342.0,1113.0,-32.0,1164.7991243128577,2021-08-12 09:20:28.554
635,-342.0,780.0,136.0,862.4731879890528,2021-08-12 09:20:28.555
636,-168.0,983.0,20.0,997.4532570501738,2021-08-12 09:20:28.573
637,-144.0,983.0,20.0,993.6926084056377,2021-08-12 09:20:28.575
638,-144.0,848.0,161.0,875.077710834872,2021-08-12 09:20:28.576
639,-294.0,835.0,64.0,887.5567587484194,2021-08-12 09:20:28.584
640,-260.0,893.0,114.0,937.0405540850406,2021-08-12 09:20:28.594
641,-194.0,751.0,163.0,792.5944738641571,2021-08-12 09:20:28.603
642,45.0,1032.0,-32.0,1033.4761729232075,2021-08-12 09:20:28.613
643,-83.0,903.0,87.0,910.970361757176,2021-08-12 09:20:28.623
644,-124.0,950.0,-30.0,958.5280381918936,2021-08-12 09:20:28.633
645,-320.0,898.0,81.0,956.7470930188396,2021-08-12 09:20:28.643
646,-109.0,915.0,49.0,922.77136930011,2021-08-12 09:20:28.652
647,1.0,1031.0,-72.0,1033.5114900183742,2021-08-12 09:20:28.662
648,-102.0,853.0,16.0,859.2258143235689,2021-08-12 09:20:28.672
649,-234.0,1077.0,-80.0,1105.0271489877523,2021-08-12 09:20:28.682
650,-401.0,1180.0,-179.0,1259.0639380110924,2021-08-12 09:20:28.691
651,-461.0,936.0,-179.0,1058.611354558414,2021-08-12 09:20:28.701
652,-461.0,936.0,55.0,1044.8167303407809,2021-08-12 09:20:28.702
653,-296.0,1066.0,-159.0,1117.6998702692956,2021-08-12 09:20:28.711
654,-225.0,1075.0,-32.0,1098.7602104189978,2021-08-12 09:20:28.721
655,-337.0,916.0,-43.0,976.9718522045556,2021-08-12 09:20:28.730
656,-138.0,1154.0,-60.0,1163.7697366747427,2021-08-12 09:20:28.741
657,-359.0,853.0,-60.0,927.4103730280356,2021-08-12 09:20:28.750
658,-359.0,853.0,116.0,932.7089578212488,2021-08-12 09:20:28.751
659,-221.0,853.0,116.0,888.7665610271349,2021-08-12 09:20:28.759
660,-221.0,1016.0,-54.0,1041.159449844259,2021-08-12 09:20:28.760
661,-121.0,1012.0,-54.0,1020.6375458506316,2021-08-12 09:20:28.769
662,-121.0,1012.0,17.0,1019.3497927600712,2021-08-12 09:20:28.770
663,-243.0,872.0,16.0,905.366776505522,2021-08-12 09:20:28.779
664,-237.0,952.0,43.0,981.9989816695332,2021-08-12 09:20:28.790
665,-357.0,750.0,168.0,847.4508835324913,2021-08-12 09:20:28.799
666,8.0,1129.0,-128.0,1136.2609735443702,2021-08-12 09:20:28.809
667,-94.0,999.0,-96.0,1007.9945436360258,2021-08-12 09:20:28.818
668,-253.0,885.0,-54.0,922.0357910623644,2021-08-12 09:20:28.828
669,-95.0,1114.0,-284.0,1153.5497388496085,2021-08-12 09:20:28.838
670,15.0,1114.0,-284.0,1149.729098527127,2021-08-12 09:20:28.847
671,15.0,1062.0,-66.0,1064.154594032277,2021-08-12 09:20:28.848
672,-225.0,1092.0,-170.0,1127.8248977567396,2021-08-12 09:20:28.858
673,-18.0,1142.0,-131.0,1149.6299404591027,2021-08-12 09:20:28.867
674,-134.0,1121.0,-166.0,1141.1191874646574,2021-08-12 09:20:28.877
675,-208.0,1184.0,-307.0,1240.7131014058004,2021-08-12 09:20:28.887
676,-432.0,1012.0,-72.0,1102.7021356649311,2021-08-12 09:20:28.897
677,-172.0,1270.0,-248.0,1305.3689133727676,2021-08-12 09:20:28.907
678,-170.0,1210.0,-83.0,1224.6995549929786,2021-08-12 09:20:28.916
679,-377.0,1001.0,-63.0,1071.4938170610226,2021-08-12 09:20:28.926
680,-72.0,1239.0,-250.0,1266.0193521427705,2021-08-12 09:20:28.936
681,-223.0,837.0,93.0,871.1756424510502,2021-08-12 09:20:28.945
682,-136.0,915.0,-7.0,925.0783750580272,2021-08-12 09:20:28.955
683,-314.0,899.0,90.0,956.5024830077548,2021-08-12 09:20:28.965
684,-248.0,769.0,90.0,812.997539971678,2021-08-12 09:20:28.974
685,-248.0,769.0,190.0,830.0391557029102,2021-08-12 09:20:28.975
686,-55.0,974.0,-23.0,975.8227298029084,2021-08-12 09:20:28.985
687,-113.0,974.0,-23.0,980.802732459489,2021-08-12 09:20:28.994
688,-113.0,791.0,119.0,807.8434254235161,2021-08-12 09:20:28.995
689,-149.0,1001.0,-12.0,1012.0997974508246,2021-08-12 09:20:29.011
690,53.0,1001.0,-12.0,1002.473939810906,2021-08-12 09:20:29.013
691,53.0,992.0,-61.0,995.2858885767446,2021-08-12 09:20:29.014
692,0.0,901.0,36.0,901.7189140746688,2021-08-12 09:20:29.023
693,-67.0,1068.0,-137.0,1078.8336294350488,2021-08-12 09:20:29.033
694,-58.0,967.0,6.0,968.7564193335702,2021-08-12 09:20:29.044
695,-59.0,1062.0,-133.0,1071.920706022605,2021-08-12 09:20:29.056
696,-157.0,1048.0,-96.0,1064.0343039582888,2021-08-12 09:20:29.062
697,-412.0,984.0,6.0,1066.7877014664164,2021-08-12 09:20:29.072
698,-264.0,1006.0,6.0,1040.0807660946336,2021-08-12 09:20:29.093
699,-264.0,1006.0,-40.0,1040.832359220254,2021-08-12 09:20:29.094
700,-114.0,1114.0,15.0,1119.9183005916102,2021-08-12 09:20:29.096
701,-139.0,981.0,15.0,990.9122060001076,2021-08-12 09:20:29.103
702,-139.0,981.0,-21.0,991.0211904898906,2021-08-12 09:20:29.104
703,-246.0,1008.0,7.0,1037.6073438444814,2021-08-12 09:20:29.111
704,-445.0,734.0,166.0,874.2636901987867,2021-08-12 09:20:29.121
705,-294.0,930.0,5.0,975.3773628703918,2021-08-12 09:20:29.131
706,-275.0,930.0,5.0,969.8195708481036,2021-08-12 09:20:29.140
707,-275.0,871.0,139.0,923.897721612084,2021-08-12 09:20:29.141
708,-287.0,816.0,54.0,866.6839100848706,2021-08-12 09:20:29.151
709,-278.0,971.0,143.0,1020.0852905517264,2021-08-12 09:20:29.160
710,-182.0,772.0,205.0,819.2270747478992,2021-08-12 09:20:29.170
711,-140.0,772.0,205.0,810.9309465053112,2021-08-12 09:20:29.179
712,-140.0,918.0,-8.0,928.6484803196524,2021-08-12 09:20:29.180
713,-23.0,773.0,137.0,785.383345889127,2021-08-12 09:20:29.189
714,-175.0,773.0,137.0,804.3152367075984,2021-08-12 09:20:29.199
715,-175.0,959.0,-21.0,975.0625620953764,2021-08-12 09:20:29.200
716,-150.0,919.0,43.0,932.1534208487355,2021-08-12 09:20:29.210
717,-295.0,967.0,-95.0,1015.4501464867687,2021-08-12 09:20:29.219
718,-100.0,967.0,-95.0,976.7875920587852,2021-08-12 09:20:29.228
719,-100.0,1098.0,-135.0,1110.7785557886864,2021-08-12 09:20:29.229
720,-122.0,1099.0,-62.0,1107.4876974485992,2021-08-12 09:20:29.238
721,-359.0,1010.0,-152.0,1082.6287452307924,2021-08-12 09:20:29.250
722,-66.0,1144.0,-289.0,1181.7838211788144,2021-08-12 09:20:29.258
723,-192.0,1053.0,-289.0,1108.6902182305028,2021-08-12 09:20:29.267
724,-192.0,1053.0,-37.0,1071.0004668533063,2021-08-12 09:20:29.268
725,-358.0,1101.0,-161.0,1168.8823721829326,2021-08-12 09:20:29.277
726,-76.0,1262.0,-165.0,1275.0078431131317,2021-08-12 09:20:29.287
727,-187.0,1019.0,-59.0,1037.6950419077853,2021-08-12 09:20:29.297
728,-307.0,1134.0,-127.0,1181.6657733894133,2021-08-12 09:20:29.308
729,-340.0,866.0,76.0,933.4516591661296,2021-08-12 09:20:29.316
730,-291.0,1011.0,-116.0,1058.422410949428,2021-08-12 09:20:29.326
731,-296.0,996.0,7.0,1039.0769942598097,2021-08-12 09:20:29.336
732,-158.0,766.0,59.0,784.3474995179114,2021-08-12 09:20:29.346
733,-51.0,972.0,-85.0,977.0414525494812,2021-08-12 09:20:29.358
734,9.0,864.0,74.0,867.2098938549998,2021-08-12 09:20:29.365
735,-127.0,1000.0,-55.0,1009.531574543362,2021-08-12 09:20:29.375
736,-347.0,951.0,23.0,1012.5902428919608,2021-08-12 09:20:29.385
737,10.0,979.0,-12.0,979.124609025838,2021-08-12 09:20:29.395
738,35.0,1157.0,-12.0,1157.5914650687434,2021-08-12 09:20:29.405
739,35.0,1157.0,-185.0,1172.2196893074267,2021-08-12 09:20:29.406
740,-281.0,891.0,-26.0,934.6218486639395,2021-08-12 09:20:29.414
741,53.0,1112.0,-102.0,1117.925310564172,2021-08-12 09:20:29.424
742,35.0,1067.0,-102.0,1072.4355458487937,2021-08-12 09:20:29.433
743,35.0,1067.0,-86.0,1071.032212400729,2021-08-12 09:20:29.434
744,-270.0,994.0,-40.0,1030.793868821502,2021-08-12 09:20:29.443
745,-88.0,1125.0,-223.0,1150.2599706153387,2021-08-12 09:20:29.454
746,-25.0,1063.0,-103.0,1068.2710330248592,2021-08-12 09:20:29.463
747,-229.0,1063.0,-103.0,1092.2540913175835,2021-08-12 09:20:29.472
748,-229.0,1086.0,-202.0,1128.1139126878986,2021-08-12 09:20:29.473
749,-244.0,1200.0,-21.0,1224.7354816449142,2021-08-12 09:20:29.491
750,-406.0,786.0,136.0,895.0575400498004,2021-08-12 09:20:29.495
751,-147.0,986.0,136.0,1006.1317011206831,2021-08-12 09:20:29.502
752,-147.0,986.0,5.0,996.9102266503238,2021-08-12 09:20:29.503
753,-93.0,944.0,93.0,953.1180409582016,2021-08-12 09:20:29.512
754,-283.0,833.0,27.0,880.1744145338469,2021-08-12 09:20:29.521
755,-184.0,820.0,107.0,847.1747163366008,2021-08-12 09:20:29.531
756,-249.0,732.0,166.0,790.8103438878376,2021-08-12 09:20:29.541
757,-193.0,994.0,40.0,1013.3533441006646,2021-08-12 09:20:29.551
758,-174.0,848.0,133.0,875.8247541603286,2021-08-12 09:20:29.561
759,-72.0,881.0,-20.0,884.1634464283173,2021-08-12 09:20:29.570
760,-265.0,935.0,93.0,976.267893562008,2021-08-12 09:20:29.588
761,-136.0,776.0,126.0,797.8395828736501,2021-08-12 09:20:29.590
762,37.0,1074.0,-127.0,1082.1155206353894,2021-08-12 09:20:29.600
763,-96.0,903.0,36.0,908.80195862465,2021-08-12 09:20:29.609
764,-98.0,1107.0,-101.0,1115.9094945379754,2021-08-12 09:20:29.619
765,-229.0,1179.0,-254.0,1227.598468555578,2021-08-12 09:20:29.629
766,-349.0,1179.0,-254.0,1255.530963377646,2021-08-12 09:20:29.638
767,-349.0,886.0,-13.0,952.3476256073724,2021-08-12 09:20:29.639
768,-264.0,1169.0,-180.0,1211.881594876331,2021-08-12 09:20:29.649
769,-181.0,1132.0,-90.0,1149.9065179396107,2021-08-12 09:20:29.659
770,-489.0,922.0,-117.0,1050.1876022882768,2021-08-12 09:20:29.668
771,-175.0,1260.0,-156.0,1281.6243599432714,2021-08-12 09:20:29.679
772,-409.0,976.0,59.0,1059.8764078891463,2021-08-12 09:20:29.687
773,-335.0,985.0,-25.0,1040.7088930147563,2021-08-12 09:20:29.697
774,-141.0,1118.0,0.0,1126.856246377505,2021-08-12 09:20:29.708
775,-186.0,965.0,-20.0,982.9654113955384,2021-08-12 09:20:29.717
776,-234.0,989.0,-20.0,1016.502336445913,2021-08-12 09:20:29.726
777,-234.0,989.0,12.0,1016.3764066525748,2021-08-12 09:20:29.727
778,-331.0,754.0,184.0,843.7612221475931,2021-08-12 09:20:29.736
779,-10.0,997.0,-30.0,997.5013784451628,2021-08-12 09:20:29.746
780,37.0,952.0,5.0,952.731861543425,2021-08-12 09:20:29.756
781,-50.0,833.0,10.0,834.5591650686008,2021-08-12 09:20:29.766
782,-44.0,1041.0,-226.0,1066.158055824745,2021-08-12 09:20:29.775
783,-21.0,1047.0,23.0,1047.4631258426236,2021-08-12 09:20:29.785
784,-222.0,1142.0,-178.0,1176.916309683913,2021-08-12 09:20:29.795
785,-57.0,1072.0,-106.0,1078.734907194534,2021-08-12 09:20:29.805
786,-150.0,1022.0,-61.0,1034.7487617774664,2021-08-12 09:20:29.816
787,-109.0,1158.0,-220.0,1183.741948230272,2021-08-12 09:20:29.824
788,-347.0,927.0,-42.0,990.7078277676018,2021-08-12 09:20:29.834
789,-198.0,1152.0,-152.0,1178.7332183322908,2021-08-12 09:20:29.844
790,-157.0,1196.0,-101.0,1210.4817222907582,2021-08-12 09:20:29.854
791,-332.0,1040.0,-222.0,1114.0502681656694,2021-08-12 09:20:29.864
792,-39.0,1210.0,-315.0,1250.93804802636,2021-08-12 09:20:29.873
793,-273.0,1074.0,-132.0,1115.9879031602447,2021-08-12 09:20:29.883
794,-164.0,888.0,-132.0,912.61382851675,2021-08-12 09:20:29.892
795,-164.0,888.0,59.0,904.9425396123224,2021-08-12 09:20:29.893
796,-235.0,951.0,92.0,983.9156467909228,2021-08-12 09:20:29.902
797,-110.0,731.0,161.0,756.559316907802,2021-08-12 09:20:29.913
798,13.0,982.0,-14.0,982.1858276314111,2021-08-12 09:20:29.922
799,-108.0,747.0,-14.0,754.8966816723995,2021-08-12 09:20:29.931
800,-108.0,747.0,182.0,776.4000257599172,2021-08-12 09:20:29.932
801,-168.0,887.0,30.0,903.2679558137772,2021-08-12 09:20:29.941
802,-127.0,890.0,114.0,906.2146544831418,2021-08-12 09:20:29.951
803,-236.0,753.0,115.0,797.4521929244411,2021-08-12 09:20:29.961
804,-40.0,951.0,-110.0,958.1758711217894,2021-08-12 09:20:29.971
805,-71.0,923.0,-17.0,925.882821959669,2021-08-12 09:20:29.980
806,-91.0,989.0,-47.0,994.289193343667,2021-08-12 09:20:29.991
807,-256.0,879.0,50.0,916.8843983840056,2021-08-12 09:20:30.000
808,-27.0,965.0,-50.0,966.6716091827668,2021-08-12 09:20:30.017
809,-338.0,1062.0,-151.0,1124.6728413187543,2021-08-12 09:20:30.019
810,-54.0,1251.0,-95.0,1255.763512768228,2021-08-12 09:20:30.029
811,-239.0,964.0,-12.0,993.2577711752372,2021-08-12 09:20:30.039
812,-314.0,1039.0,-105.0,1090.47787689618,2021-08-12 09:20:30.050
813,-360.0,1039.0,-105.0,1104.60219083614,2021-08-12 09:20:30.058
814,-360.0,833.0,155.0,920.605235700949,2021-08-12 09:20:30.059
815,-270.0,1008.0,-15.0,1043.6421800598134,2021-08-12 09:20:30.068
816,-302.0,912.0,92.0,965.0968863279998,2021-08-12 09:20:30.078
817,-321.0,891.0,-32.0,947.6001266357028,2021-08-12 09:20:30.088
818,-292.0,1173.0,-41.0,1209.4932823294223,2021-08-12 09:20:30.110
819,-292.0,741.0,154.0,811.2095906730887,2021-08-12 09:20:30.112
820,-168.0,940.0,154.0,967.2331673386724,2021-08-12 09:20:30.118
821,-168.0,940.0,48.0,956.100413136612,2021-08-12 09:20:30.119
822,-77.0,887.0,171.0,906.6085152920195,2021-08-12 09:20:30.127
823,-302.0,852.0,24.0,904.2588125088968,2021-08-12 09:20:30.137
824,-204.0,890.0,24.0,913.3958616065654,2021-08-12 09:20:30.146
825,-204.0,890.0,80.0,916.5784199947104,2021-08-12 09:20:30.147
826,-311.0,919.0,-28.0,970.6008448378768,2021-08-12 09:20:30.156
827,-68.0,1187.0,-102.0,1193.313454210586,2021-08-12 09:20:30.167
828,-49.0,1187.0,-102.0,1192.3816503116775,2021-08-12 09:20:30.175
829,-49.0,1154.0,-99.0,1159.2747732957878,2021-08-12 09:20:30.176
830,-277.0,990.0,-99.0,1032.777807662423,2021-08-12 09:20:30.185
831,-277.0,990.0,-137.0,1037.1104087800877,2021-08-12 09:20:30.186
832,-51.0,1201.0,-305.0,1240.1721654673595,2021-08-12 09:20:30.195
833,-122.0,1102.0,-150.0,1118.8333209196087,2021-08-12 09:20:30.205
834,-209.0,1135.0,-242.0,1179.1819198071178,2021-08-12 09:20:30.215
835,29.0,1250.0,-121.0,1256.1775352234254,2021-08-12 09:20:30.225
836,-249.0,1095.0,-91.0,1126.635255972402,2021-08-12 09:20:30.238
837,-273.0,1142.0,-141.0,1182.6132081115954,2021-08-12 09:20:30.244
838,-486.0,897.0,44.0,1021.1469042209352,2021-08-12 09:20:30.254
839,-290.0,1082.0,-57.0,1121.6385335748769,2021-08-12 09:20:30.264
840,-222.0,1042.0,-20.0,1065.57402370741,2021-08-12 09:20:30.274
841,-174.0,721.0,139.0,754.6111581470287,2021-08-12 09:20:30.283
842,17.0,1023.0,-52.0,1024.461809927535,2021-08-12 09:20:30.293
843,-37.0,1023.0,-52.0,1024.9887804264006,2021-08-12 09:20:30.302
844,-37.0,893.0,75.0,896.9074645692275,2021-08-12 09:20:30.303
845,-150.0,913.0,-36.0,925.9400628550424,2021-08-12 09:20:30.313
846,-301.0,882.0,51.0,933.341309489728,2021-08-12 09:20:30.323
847,-95.0,916.0,47.0,922.1117068988984,2021-08-12 09:20:30.332
848,2.0,1036.0,-118.0,1042.7003404622058,2021-08-12 09:20:30.342
849,-189.0,833.0,-118.0,862.2841758956266,2021-08-12 09:20:30.351
850,-189.0,833.0,8.0,854.2095761579824,2021-08-12 09:20:30.352
851,-51.0,1104.0,-75.0,1107.7192785178022,2021-08-12 09:20:30.361
852,-98.0,1039.0,-71.0,1046.023900300562,2021-08-12 09:20:30.372
853,-164.0,872.0,-55.0,888.9910010793135,2021-08-12 09:20:30.381
854,-73.0,1096.0,-55.0,1099.804528086696,2021-08-12 09:20:30.390
855,-73.0,1096.0,-244.0,1125.202648414942,2021-08-12 09:20:30.391
856,10.0,1073.0,-41.0,1073.8295954200555,2021-08-12 09:20:30.400
857,-244.0,1045.0,-130.0,1080.9537455414084,2021-08-12 09:20:30.410
858,-243.0,1235.0,-72.0,1260.7370859937453,2021-08-12 09:20:30.420
859,-364.0,868.0,107.0,947.2956243961016,2021-08-12 09:20:30.430
860,-246.0,1012.0,-43.0,1042.3574243031994,2021-08-12 09:20:30.443
861,-153.0,928.0,72.0,943.279916037652,2021-08-12 09:20:30.449
862,-265.0,803.0,88.0,850.1635136842795,2021-08-12 09:20:30.459
863,-257.0,902.0,64.0,940.0792519782574,2021-08-12 09:20:30.469
864,-299.0,719.0,186.0,800.5985261040643,2021-08-12 09:20:30.480
865,-277.0,882.0,72.0,927.2739616747576,2021-08-12 09:20:30.488
866,-239.0,855.0,101.0,893.5026580822242,2021-08-12 09:20:30.498
867,-190.0,899.0,34.0,919.4873571724628,2021-08-12 09:20:30.516
868,-304.0,902.0,142.0,962.384538529168,2021-08-12 09:20:30.520
869,-223.0,773.0,184.0,825.2963104243227,2021-08-12 09:20:30.528
870,-96.0,1035.0,-20.0,1039.6350321146358,2021-08-12 09:20:30.537
871,-111.0,790.0,142.0,810.2993274093222,2021-08-12 09:20:30.547
872,-114.0,1065.0,142.0,1080.4559222846622,2021-08-12 09:20:30.556
873,-114.0,1065.0,-91.0,1074.9427891753123,2021-08-12 09:20:30.557
874,-188.0,1157.0,-199.0,1188.946592576807,2021-08-12 09:20:30.566
875,-416.0,982.0,-5.0,1066.4919127682122,2021-08-12 09:20:30.576
876,-191.0,1180.0,-205.0,1212.8091358494955,2021-08-12 09:20:30.586
877,-216.0,1142.0,-111.0,1167.536294939048,2021-08-12 09:20:30.604
878,-397.0,986.0,-128.0,1070.6021670069606,2021-08-12 09:20:30.607
879,-45.0,986.0,-128.0,995.2914146118212,2021-08-12 09:20:30.615
880,-45.0,1252.0,-269.0,1281.3625560316643,2021-08-12 09:20:30.616
881,-335.0,990.0,-27.0,1045.4922285698733,2021-08-12 09:20:30.626
882,-362.0,1033.0,-81.0,1097.5855319746156,2021-08-12 09:20:30.640
883,-186.0,1237.0,-46.0,1251.75117335675,2021-08-12 09:20:30.644
884,-195.0,979.0,-21.0,998.4523023159394,2021-08-12 09:20:30.654
885,-441.0,1044.0,-20.0,1133.497684161728,2021-08-12 09:20:30.664
886,-420.0,799.0,148.0,914.7158028590082,2021-08-12 09:20:30.674
887,-112.0,946.0,148.0,964.0352690643635,2021-08-12 09:20:30.683
888,-112.0,946.0,31.0,953.1112212118792,2021-08-12 09:20:30.684
889,19.0,918.0,26.0,918.56464116577,2021-08-12 09:20:30.693
890,-49.0,836.0,42.0,838.4873284671629,2021-08-12 09:20:30.703
891,8.0,1036.0,-121.0,1043.0728641854316,2021-08-12 09:20:30.713
892,58.0,935.0,-121.0,944.5792714219384,2021-08-12 09:20:30.722
893,58.0,935.0,-20.0,937.0106722978132,2021-08-12 09:20:30.723
894,-68.0,1051.0,-159.0,1065.1319167126671,2021-08-12 09:20:30.732
895,-91.0,1092.0,-57.0,1097.266603884398,2021-08-12 09:20:30.742
896,31.0,1065.0,-76.0,1068.158227979357,2021-08-12 09:20:30.752
897,25.0,1065.0,-76.0,1068.0009363291776,2021-08-12 09:20:30.761
898,25.0,1172.0,-251.0,1198.8369363679114,2021-08-12 09:20:30.762
899,-354.0,1021.0,-98.0,1085.0626710010808,2021-08-12 09:20:30.772
900,-160.0,1140.0,-166.0,1163.0803927502177,2021-08-12 09:20:30.782
901,-121.0,1171.0,-178.0,1190.6158070511242,2021-08-12 09:20:30.791
902,-285.0,1038.0,-177.0,1090.870294764689,2021-08-12 09:20:30.801
903,-85.0,1219.0,-177.0,1234.7125171472103,2021-08-12 09:20:30.810
904,-85.0,1219.0,-319.0,1262.9121109562614,2021-08-12 09:20:30.811
905,-352.0,838.0,139.0,919.4938825245114,2021-08-12 09:20:30.821
906,-206.0,827.0,139.0,863.5311227743908,2021-08-12 09:20:30.830
907,-206.0,827.0,64.0,854.6701117975285,2021-08-12 09:20:30.831
908,-223.0,1041.0,81.0,1067.6942446224948,2021-08-12 09:20:30.844
909,-198.0,769.0,81.0,798.2017288881301,2021-08-12 09:20:30.849
910,-198.0,769.0,139.0,806.155071930953,2021-08-12 09:20:30.850
911,-54.0,920.0,18.0,921.7591876406766,2021-08-12 09:20:30.859
912,-68.0,755.0,18.0,758.2697409233735,2021-08-12 09:20:30.869
913,-68.0,755.0,208.0,786.0744239574266,2021-08-12 09:20:30.870
914,-159.0,906.0,68.0,922.356221857911,2021-08-12 09:20:30.879
915,-121.0,831.0,97.0,845.3466744478268,2021-08-12 09:20:30.889
916,-137.0,699.0,126.0,723.3574496747786,2021-08-12 09:20:30.898
917,-3.0,950.0,-87.0,953.9800836495488,2021-08-12 09:20:30.908
918,-106.0,833.0,45.0,840.9221129212859,2021-08-12 09:20:30.918
919,44.0,852.0,127.0,862.536376044512,2021-08-12 09:20:30.928
920,-372.0,934.0,-139.0,1014.9192086072665,2021-08-12 09:20:30.938
921,-220.0,1003.0,-40.0,1027.622985340441,2021-08-12 09:20:30.947
922,-175.0,956.0,-151.0,983.5456268013191,2021-08-12 09:20:30.957
923,-396.0,956.0,-151.0,1045.7308449118252,2021-08-12 09:20:30.966
924,-396.0,875.0,-157.0,973.1854910550198,2021-08-12 09:20:30.967
925,-379.0,864.0,-4.0,943.4791995587397,2021-08-12 09:20:30.977
926,-102.0,1053.0,-67.0,1060.0481121156718,2021-08-12 09:20:30.990
927,-25.0,987.0,75.0,990.161098003754,2021-08-12 09:20:30.996
928,-287.0,951.0,-73.0,996.0416657951614,2021-08-12 09:20:31.006
929,-228.0,996.0,-73.0,1024.367609796405,2021-08-12 09:20:31.015
930,-228.0,996.0,-82.0,1025.04829154533,2021-08-12 09:20:31.016
931,-85.0,996.0,-82.0,1002.978065562752,2021-08-12 09:20:31.032
932,-85.0,1075.0,8.0,1078.3849034551624,2021-08-12 09:20:31.033
933,-63.0,1031.0,17.0,1033.0629216073917,2021-08-12 09:20:31.038
934,-132.0,1005.0,90.0,1017.6192804777236,2021-08-12 09:20:31.045
935,-129.0,1005.0,90.0,1017.2344862419874,2021-08-12 09:20:31.054
936,-129.0,1077.0,-87.0,1088.181510594625,2021-08-12 09:20:31.055
937,-4.0,1001.0,77.0,1003.9651388370016,2021-08-12 09:20:31.067
938,-129.0,976.0,43.0,985.4268110823856,2021-08-12 09:20:31.074
939,-84.0,978.0,15.0,981.715335522472,2021-08-12 09:20:31.084
940,-128.0,928.0,48.0,938.0149252543906,2021-08-12 09:20:31.094
941,-234.0,963.0,32.0,991.538703228472,2021-08-12 09:20:31.103
942,-53.0,945.0,0.0,946.4850764803426,2021-08-12 09:20:31.130
943,-53.0,1039.0,177.0,1055.3004311569289,2021-08-12 09:20:31.131
944,-173.0,986.0,20.0,1001.2617040514432,2021-08-12 09:20:31.134
945,-140.0,890.0,20.0,901.1659114724656,2021-08-12 09:20:31.142
946,-140.0,890.0,26.0,901.319033417136,2021-08-12 09:20:31.143
947,-233.0,981.0,92.0,1012.4791355874944,2021-08-12 09:20:31.152
948,-108.0,994.0,-12.0,999.9219969577626,2021-08-12 09:20:31.163
949,-121.0,924.0,-4.0,931.8975265553612,2021-08-12 09:20:31.172
950,-204.0,924.0,-4.0,946.2600065521104,2021-08-12 09:20:31.181
951,-204.0,956.0,-30.0,977.9836399449634,2021-08-12 09:20:31.182
952,-102.0,1041.0,-65.0,1048.0028625915104,2021-08-12 09:20:31.191
