,Acceleration_X,Acceleration_Y,Acceleration_Z,magnitude,time_stamp
0,-204.0,530.0,-49.0,570.01491208564,2021-08-12 09:22:05.907
1,-204.0,530.0,126.0,581.7147067076781,2021-08-12 09:22:05.908
2,-27.0,923.0,-86.0,927.3909639413142,2021-08-12 09:22:05.918
3,-130.0,714.0,92.0,731.5463074884597,2021-08-12 09:22:05.927
4,-136.0,994.0,-98.0,1008.0357136530432,2021-08-12 09:22:05.937
5,-62.0,954.0,-11.0,956.0758338123604,2021-08-12 09:22:05.947
6,-113.0,1080.0,-11.0,1085.951195956798,2021-08-12 09:22:05.956
7,-113.0,1080.0,12.0,1085.9617856996626,2021-08-12 09:22:05.957
8,204.0,1171.0,-120.0,1194.678617871769,2021-08-12 09:22:05.966
9,17.0,1070.0,-38.0,1070.8095068685186,2021-08-12 09:22:05.976
10,-254.0,809.0,228.0,878.0552374423833,2021-08-12 09:22:05.990
11,124.0,1124.0,-239.0,1155.7997231354575,2021-08-12 09:22:05.996
12,-138.0,1103.0,-264.0,1142.518708818372,2021-08-12 09:22:06.005
13,-145.0,1286.0,-412.0,1358.147635568387,2021-08-12 09:22:06.018
14,-576.0,1010.0,-42.0,1163.460356007028,2021-08-12 09:22:06.025
15,-285.0,1010.0,-42.0,1050.2804387400538,2021-08-12 09:22:06.034
16,-285.0,761.0,56.0,814.5440442357921,2021-08-12 09:22:06.035
17,-84.0,835.0,197.0,862.0266817216275,2021-08-12 09:22:06.046
18,-302.0,835.0,197.0,909.526250308368,2021-08-12 09:22:06.054
19,-302.0,554.0,280.0,690.3042807342281,2021-08-12 09:22:06.055
20,119.0,902.0,114.0,916.930204541218,2021-08-12 09:22:06.064
21,-35.0,705.0,175.0,727.2379253036794,2021-08-12 09:22:06.074
22,-52.0,941.0,175.0,958.54577355492,2021-08-12 09:22:06.083
23,-52.0,941.0,1.0,942.4362047374876,2021-08-12 09:22:06.084
24,-305.0,873.0,232.0,953.4033773802148,2021-08-12 09:22:06.093
25,-95.0,827.0,59.0,834.5268120318244,2021-08-12 09:22:06.103
26,41.0,827.0,59.0,830.1150522668529,2021-08-12 09:22:06.112
27,41.0,1160.0,-217.0,1180.8344507169495,2021-08-12 09:22:06.113
28,-119.0,1160.0,-217.0,1186.1070777969417,2021-08-12 09:22:06.122
29,-119.0,803.0,36.0,812.5675356547295,2021-08-12 09:22:06.123
30,93.0,1110.0,-100.0,1118.368901570497,2021-08-12 09:22:06.132
31,57.0,1051.0,-82.0,1055.7338679799943,2021-08-12 09:22:06.142
32,-270.0,883.0,-104.0,929.1958889276254,2021-08-12 09:22:06.153
33,-345.0,1091.0,-122.0,1150.7345480170482,2021-08-12 09:22:06.162
34,-215.0,1057.0,85.0,1081.9884472581027,2021-08-12 09:22:06.171
35,-384.0,818.0,29.0,904.1133778459424,2021-08-12 09:22:06.181
36,-154.0,1364.0,69.0,1374.3991414432708,2021-08-12 09:22:06.191
37,-393.0,770.0,238.0,896.6565674772031,2021-08-12 09:22:06.201
38,-291.0,996.0,27.0,1037.9913294435555,2021-08-12 09:22:06.211
39,-2.0,820.0,253.0,858.1450926271151,2021-08-12 09:22:06.220
40,-273.0,762.0,107.0,816.469227834093,2021-08-12 09:22:06.230
41,-162.0,812.0,238.0,861.5288735730219,2021-08-12 09:22:06.240
42,-332.0,604.0,311.0,756.1487948810076,2021-08-12 09:22:06.250
43,-22.0,856.0,141.0,867.8139201464793,2021-08-12 09:22:06.259
44,-32.0,762.0,141.0,775.5958999375899,2021-08-12 09:22:06.277
45,-32.0,762.0,222.0,794.3248705661935,2021-08-12 09:22:06.278
46,-262.0,950.0,222.0,1010.1623631872254,2021-08-12 09:22:06.282
47,-262.0,950.0,-150.0,996.8169340455648,2021-08-12 09:22:06.283
48,77.0,1252.0,-496.0,1348.869526677803,2021-08-12 09:22:06.290
49,-239.0,1087.0,-189.0,1128.8981353514584,2021-08-12 09:22:06.298
50,-177.0,1211.0,-280.0,1255.487952948972,2021-08-12 09:22:06.308
51,124.0,1386.0,-282.0,1419.8225241205323,2021-08-12 09:22:06.318
52,-207.0,1386.0,-282.0,1429.4645850807217,2021-08-12 09:22:06.327
53,-207.0,1167.0,-220.0,1205.4617372608725,2021-08-12 09:22:06.328
54,-218.0,1306.0,-291.0,1355.6699450825042,2021-08-12 09:22:06.338
55,-572.0,937.0,34.0,1098.3209913317692,2021-08-12 09:22:06.347
56,-334.0,1231.0,-240.0,1297.8894405919173,2021-08-12 09:22:06.357
57,-232.0,1191.0,-240.0,1236.8932856152142,2021-08-12 09:22:06.366
58,-232.0,1191.0,-61.0,1214.918104235837,2021-08-12 09:22:06.367
59,-453.0,939.0,-140.0,1051.9172971293897,2021-08-12 09:22:06.376
60,-34.0,1421.0,-160.0,1430.3835150056784,2021-08-12 09:22:06.387
61,-576.0,862.0,-160.0,1049.00905620495,2021-08-12 09:22:06.403
62,-576.0,862.0,73.0,1039.302169727361,2021-08-12 09:22:06.404
63,-335.0,991.0,-48.0,1047.1914820127215,2021-08-12 09:22:06.406
64,-310.0,853.0,-48.0,908.8525733032832,2021-08-12 09:22:06.415
65,-310.0,853.0,244.0,939.8111512426314,2021-08-12 09:22:06.416
66,-72.0,863.0,58.0,867.9383618667861,2021-08-12 09:22:06.426
67,-19.0,1055.0,-180.0,1070.4139386237457,2021-08-12 09:22:06.435
68,-241.0,728.0,93.0,772.4726532376405,2021-08-12 09:22:06.445
69,111.0,728.0,93.0,742.2627567108564,2021-08-12 09:22:06.454
70,111.0,1121.0,-70.0,1128.6549517013602,2021-08-12 09:22:06.455
71,0.0,960.0,-65.0,962.1980045707847,2021-08-12 09:22:06.464
72,-149.0,850.0,-65.0,865.4051074496845,2021-08-12 09:22:06.474
73,-149.0,850.0,-71.0,865.8764346025362,2021-08-12 09:22:06.475
74,61.0,1123.0,-311.0,1166.86374525906,2021-08-12 09:22:06.484
75,67.0,1041.0,-103.0,1048.226597640033,2021-08-12 09:22:06.494
76,-170.0,1203.0,-252.0,1240.8114280582686,2021-08-12 09:22:06.503
77,105.0,1122.0,-126.0,1133.9246006679632,2021-08-12 09:22:06.513
78,-215.0,1112.0,-229.0,1155.51287314335,2021-08-12 09:22:06.523
79,-152.0,1295.0,-421.0,1370.1715221095496,2021-08-12 09:22:06.533
80,-40.0,974.0,158.0,987.5424041528546,2021-08-12 09:22:06.543
81,-109.0,974.0,158.0,992.7341033731036,2021-08-12 09:22:06.559
82,-109.0,795.0,94.0,807.9245014232456,2021-08-12 09:22:06.560
83,-387.0,792.0,185.0,900.6986177406958,2021-08-12 09:22:06.564
84,-408.0,518.0,379.0,760.5451991827968,2021-08-12 09:22:06.572
85,-93.0,874.0,142.0,890.330837385744,2021-08-12 09:22:06.582
86,-177.0,742.0,202.0,789.1115257047004,2021-08-12 09:22:06.591
87,-298.0,773.0,-17.0,828.626574519548,2021-08-12 09:22:06.601
88,-291.0,836.0,-17.0,885.3620728267052,2021-08-12 09:22:06.613
89,-291.0,836.0,278.0,927.8259535063676,2021-08-12 09:22:06.614
90,-150.0,683.0,245.0,740.9547894439984,2021-08-12 09:22:06.621
91,6.0,1057.0,-4.0,1057.0245976324295,2021-08-12 09:22:06.632
92,-141.0,713.0,165.0,745.3019522314429,2021-08-12 09:22:06.640
93,20.0,713.0,165.0,732.1161110097223,2021-08-12 09:22:06.649
94,20.0,1034.0,-5.0,1034.205492153276,2021-08-12 09:22:06.650
95,-39.0,1034.0,-5.0,1034.747312149203,2021-08-12 09:22:06.659
96,-39.0,840.0,60.0,843.0427035447256,2021-08-12 09:22:06.660
97,-531.0,961.0,-71.0,1100.2377015899792,2021-08-12 09:22:06.670
98,-284.0,1240.0,-185.0,1285.4886230535064,2021-08-12 09:22:06.681
99,1.0,1248.0,-24.0,1248.2311484656998,2021-08-12 09:22:06.689
100,-533.0,989.0,-254.0,1151.8359258158257,2021-08-12 09:22:06.699
101,-216.0,1420.0,-254.0,1458.6198956547933,2021-08-12 09:22:06.708
102,-216.0,1420.0,-296.0,1466.5169620566958,2021-08-12 09:22:06.709
103,-560.0,1420.0,-296.0,1554.8684831843495,2021-08-12 09:22:06.718
104,-560.0,958.0,111.0,1115.2062589494376,2021-08-12 09:22:06.719
105,-306.0,1068.0,111.0,1116.5039184884215,2021-08-12 09:22:06.728
106,-306.0,1068.0,-25.0,1111.253796393965,2021-08-12 09:22:06.729
107,-89.0,1068.0,-25.0,1071.993470129366,2021-08-12 09:22:06.737
108,-89.0,1252.0,27.0,1255.4497202198104,2021-08-12 09:22:06.738
109,-286.0,946.0,-15.0,988.4012343173192,2021-08-12 09:22:06.747
110,-103.0,1100.0,142.0,1113.8999057365972,2021-08-12 09:22:06.757
111,-431.0,672.0,216.0,827.0435296887341,2021-08-12 09:22:06.767
112,-255.0,848.0,234.0,915.9066546324468,2021-08-12 09:22:06.777
113,-359.0,720.0,234.0,837.8764825438175,2021-08-12 09:22:06.787
114,-359.0,720.0,239.0,839.2866018232389,2021-08-12 09:22:06.788
115,-234.0,835.0,-29.0,867.653156508982,2021-08-12 09:22:06.796
116,15.0,1092.0,-357.0,1148.9725845293265,2021-08-12 09:22:06.806
117,-39.0,1066.0,-167.0,1079.7064415849338,2021-08-12 09:22:06.816
118,-119.0,1171.0,-271.0,1207.8257324630902,2021-08-12 09:22:06.826
119,59.0,1062.0,-88.0,1067.271755458749,2021-08-12 09:22:06.838
120,-136.0,1130.0,-225.0,1160.1814513256106,2021-08-12 09:22:06.861
121,-136.0,1282.0,-404.0,1351.012953305778,2021-08-12 09:22:06.862
122,-546.0,907.0,-53.0,1059.987735778108,2021-08-12 09:22:06.865
123,-262.0,1275.0,-277.0,1330.788488077651,2021-08-12 09:22:06.874
124,85.0,1282.0,-106.0,1289.179971920135,2021-08-12 09:22:06.884
125,-394.0,1282.0,-106.0,1345.3609181182571,2021-08-12 09:22:06.894
126,-394.0,973.0,-231.0,1074.8609212358592,2021-08-12 09:22:06.895
127,-83.0,1345.0,-348.0,1391.7679404268515,2021-08-12 09:22:06.904
128,-423.0,1011.0,42.0,1096.7287723042557,2021-08-12 09:22:06.913
129,-182.0,836.0,-32.0,856.1798876404421,2021-08-12 09:22:06.923
130,-294.0,891.0,208.0,961.0312169747662,2021-08-12 09:22:06.933
131,-224.0,693.0,201.0,755.5302773549184,2021-08-12 09:22:06.943
132,-34.0,1055.0,-65.0,1057.5471620689077,2021-08-12 09:22:06.953
133,-6.0,716.0,139.0,729.392212736056,2021-08-12 09:22:06.962
134,78.0,979.0,21.0,982.3268295226392,2021-08-12 09:22:06.972
135,-15.0,866.0,35.0,866.8367781768376,2021-08-12 09:22:06.982
136,-189.0,866.0,35.0,887.0749686469571,2021-08-12 09:22:06.993
137,-189.0,720.0,98.0,750.8162225205314,2021-08-12 09:22:06.994
138,0.0,1071.0,-228.0,1095.0,2021-08-12 09:22:07.002
139,-39.0,938.0,75.0,941.8014652781128,2021-08-12 09:22:07.011
140,-10.0,1121.0,-180.0,1135.4034525224945,2021-08-12 09:22:07.021
141,39.0,1112.0,-101.0,1117.258251256172,2021-08-12 09:22:07.031
142,-572.0,821.0,196.0,1019.6278732949584,2021-08-12 09:22:07.041
143,-370.0,1086.0,-135.0,1155.2146986599505,2021-08-12 09:22:07.050
144,-89.0,1086.0,-135.0,1097.9717664858235,2021-08-12 09:22:07.060
145,-89.0,1254.0,-32.0,1257.5615293097987,2021-08-12 09:22:07.061
146,-321.0,881.0,-24.0,937.9648181035363,2021-08-12 09:22:07.070
147,-143.0,881.0,-24.0,892.8527314176733,2021-08-12 09:22:07.079
148,-143.0,989.0,130.0,1007.7053140675602,2021-08-12 09:22:07.080
149,-463.0,634.0,224.0,816.3951249241999,2021-08-12 09:22:07.089
150,-318.0,930.0,96.0,987.5424041528546,2021-08-12 09:22:07.100
151,-351.0,710.0,284.0,841.4018065110153,2021-08-12 09:22:07.109
152,-400.0,710.0,284.0,862.9924681015473,2021-08-12 09:22:07.118
153,-400.0,792.0,4.0,887.2880028491313,2021-08-12 09:22:07.119
154,-251.0,927.0,224.0,986.1571882818682,2021-08-12 09:22:07.128
155,-273.0,506.0,290.0,643.944873416972,2021-08-12 09:22:07.138
156,-41.0,1020.0,-87.0,1024.5242798489453,2021-08-12 09:22:07.148
157,0.0,767.0,-87.0,771.9183894687313,2021-08-12 09:22:07.157
158,0.0,767.0,187.0,789.4669087428554,2021-08-12 09:22:07.158
159,23.0,948.0,-16.0,948.4139391636966,2021-08-12 09:22:07.167
160,-58.0,1285.0,-336.0,1329.4679386882558,2021-08-12 09:22:07.177
161,-551.0,916.0,-2.0,1068.9532262919645,2021-08-12 09:22:07.187
162,-286.0,1256.0,-240.0,1310.3175187716906,2021-08-12 09:22:07.197
163,43.0,1257.0,-92.0,1261.0955554596171,2021-08-12 09:22:07.206
164,-318.0,983.0,-147.0,1043.5621687278626,2021-08-12 09:22:07.217
165,-157.0,1371.0,-363.0,1426.9053927993964,2021-08-12 09:22:07.226
166,-535.0,932.0,40.0,1075.383187519686,2021-08-12 09:22:07.236
167,-422.0,1040.0,40.0,1123.0690094557858,2021-08-12 09:22:07.246
168,-422.0,1040.0,-128.0,1129.6317984192904,2021-08-12 09:22:07.247
169,-90.0,1267.0,-17.0,1270.3062622848083,2021-08-12 09:22:07.255
170,-215.0,940.0,9.0,964.3163381380614,2021-08-12 09:22:07.265
171,-256.0,1096.0,-42.0,1126.2841559748588,2021-08-12 09:22:07.275
172,-529.0,608.0,338.0,873.9273425176717,2021-08-12 09:22:07.292
173,-425.0,608.0,338.0,815.1889351555258,2021-08-12 09:22:07.297
174,-425.0,905.0,69.0,1002.2030732341624,2021-08-12 09:22:07.298
175,-90.0,894.0,25.0,898.8665084427164,2021-08-12 09:22:07.304
176,-109.0,697.0,82.0,710.2210923367455,2021-08-12 09:22:07.314
177,36.0,1140.0,-312.0,1182.4719869832013,2021-08-12 09:22:07.324
178,46.0,919.0,-312.0,971.607431013164,2021-08-12 09:22:07.333
179,46.0,919.0,28.0,920.5764498399902,2021-08-12 09:22:07.334
180,-142.0,919.0,28.0,930.3273617388668,2021-08-12 09:22:07.343
181,-142.0,1106.0,-221.0,1136.767786313458,2021-08-12 09:22:07.344
182,132.0,1101.0,-52.0,1110.1031483605475,2021-08-12 09:22:07.353
183,-66.0,1086.0,-255.0,1117.4869126750434,2021-08-12 09:22:07.363
184,-51.0,1239.0,-380.0,1296.9664606303434,2021-08-12 09:22:07.372
185,-366.0,1015.0,-67.0,1081.0504151056043,2021-08-12 09:22:07.382
186,-127.0,1367.0,-331.0,1412.2248404556549,2021-08-12 09:22:07.392
187,191.0,1258.0,-38.0,1272.9842889839608,2021-08-12 09:22:07.409
188,-449.0,970.0,-247.0,1097.046033674066,2021-08-12 09:22:07.415
189,-196.0,868.0,94.0,894.805006691402,2021-08-12 09:22:07.421
190,-365.0,782.0,178.0,881.1543565119564,2021-08-12 09:22:07.431
191,-250.0,878.0,178.0,930.090318194959,2021-08-12 09:22:07.442
192,-250.0,878.0,-27.0,913.2978703577492,2021-08-12 09:22:07.443
193,-324.0,974.0,187.0,1043.370020654226,2021-08-12 09:22:07.451
194,-285.0,668.0,227.0,760.9060388773373,2021-08-12 09:22:07.460
195,41.0,1019.0,-22.0,1020.0617628359568,2021-08-12 09:22:07.470
196,29.0,711.0,167.0,730.9247567294461,2021-08-12 09:22:07.480
197,-25.0,928.0,64.0,930.540165710218,2021-08-12 09:22:07.490
198,-150.0,828.0,72.0,844.551952220821,2021-08-12 09:22:07.499
199,-152.0,665.0,149.0,698.2334853041639,2021-08-12 09:22:07.509
200,164.0,1014.0,-168.0,1040.8246730357616,2021-08-12 09:22:07.519
201,-15.0,855.0,75.0,858.4142356694698,2021-08-12 09:22:07.529
202,45.0,1049.0,-211.0,1070.9561148805303,2021-08-12 09:22:07.539
203,-159.0,998.0,-30.0,1011.031651334418,2021-08-12 09:22:07.549
204,-619.0,996.0,8.0,1172.7066981986586,2021-08-12 09:22:07.558
205,-467.0,1107.0,-204.0,1218.6689460226678,2021-08-12 09:22:07.577
206,-166.0,1312.0,-46.0,1323.2596117164612,2021-08-12 09:22:07.579
207,-258.0,1312.0,-46.0,1337.917785217014,2021-08-12 09:22:07.588
208,-258.0,1018.0,-95.0,1054.472854083973,2021-08-12 09:22:07.589
209,-157.0,1152.0,-14.0,1162.733417426368,2021-08-12 09:22:07.598
210,-523.0,1152.0,-14.0,1265.2387126546516,2021-08-12 09:22:07.609
211,-523.0,618.0,312.0,867.6387497109612,2021-08-12 09:22:07.610
212,-404.0,898.0,312.0,1032.9394948398478,2021-08-12 09:22:07.616
213,-404.0,898.0,92.0,988.9812940597006,2021-08-12 09:22:07.617
214,-253.0,867.0,92.0,907.8336852089152,2021-08-12 09:22:07.626
215,-253.0,867.0,192.0,923.3428399029258,2021-08-12 09:22:07.627
216,-377.0,833.0,192.0,934.2815421488322,2021-08-12 09:22:07.637
217,-377.0,833.0,18.0,914.5173590479296,2021-08-12 09:22:07.638
218,-211.0,1128.0,97.0,1151.657067012572,2021-08-12 09:22:07.646
219,-255.0,639.0,284.0,744.3131061589605,2021-08-12 09:22:07.656
220,-91.0,929.0,284.0,975.6935994460556,2021-08-12 09:22:07.665
221,-91.0,929.0,-3.0,933.451123519598,2021-08-12 09:22:07.666
222,-122.0,654.0,249.0,710.3527292831358,2021-08-12 09:22:07.676
223,-22.0,1067.0,249.0,1095.8895929791468,2021-08-12 09:22:07.685
224,-22.0,1067.0,-169.0,1080.5248724578255,2021-08-12 09:22:07.686
225,-82.0,1236.0,-336.0,1283.4780870743373,2021-08-12 09:22:07.696
226,-275.0,920.0,-336.0,1017.3106703460846,2021-08-12 09:22:07.704
227,-275.0,920.0,-6.0,960.2400741481268,2021-08-12 09:22:07.705
228,-161.0,1281.0,-284.0,1321.9447794821083,2021-08-12 09:22:07.714
229,87.0,1241.0,-12.0,1244.1036934275214,2021-08-12 09:22:07.724
230,-344.0,1000.0,-188.0,1074.094967868298,2021-08-12 09:22:07.734
231,-62.0,1319.0,-495.0,1410.1879307383113,2021-08-12 09:22:07.745
232,-447.0,1046.0,-161.0,1148.8455074552016,2021-08-12 09:22:07.753
233,-213.0,1207.0,-163.0,1236.4412642742072,2021-08-12 09:22:07.763
234,79.0,1439.0,-174.0,1451.632873697754,2021-08-12 09:22:07.773
235,-275.0,1147.0,-141.0,1187.9036156187085,2021-08-12 09:22:07.783
236,-261.0,1164.0,12.0,1192.9631176193168,2021-08-12 09:22:07.793
237,-18.0,712.0,169.0,732.0034152925791,2021-08-12 09:22:07.802
238,-127.0,880.0,-53.0,890.6952340728,2021-08-12 09:22:07.812
239,-12.0,769.0,157.0,784.9547757673687,2021-08-12 09:22:07.822
240,-261.0,671.0,108.0,728.0288455823711,2021-08-12 09:22:07.832
241,32.0,1059.0,-165.0,1072.254633937294,2021-08-12 09:22:07.841
242,-100.0,905.0,57.0,912.2905239012406,2021-08-12 09:22:07.851
243,42.0,1026.0,-135.0,1035.6954185473642,2021-08-12 09:22:07.861
244,19.0,949.0,-39.0,949.9910525894442,2021-08-12 09:22:07.882
245,63.0,1259.0,-39.0,1261.1784171956003,2021-08-12 09:22:07.890
246,63.0,1259.0,-256.0,1286.307117293533,2021-08-12 09:22:07.891
247,-105.0,949.0,-22.0,955.0445015809472,2021-08-12 09:22:07.900
248,-44.0,1240.0,-22.0,1240.975422802563,2021-08-12 09:22:07.909
249,-44.0,1240.0,-249.0,1265.5184708252978,2021-08-12 09:22:07.910
250,33.0,1164.0,-118.0,1170.4311171529916,2021-08-12 09:22:07.919
251,-517.0,666.0,269.0,884.9892654716214,2021-08-12 09:22:07.929
252,-363.0,896.0,92.0,971.107100169698,2021-08-12 09:22:07.940
253,-197.0,876.0,224.0,925.39775232059,2021-08-12 09:22:07.949
254,-488.0,772.0,-25.0,913.6481817417468,2021-08-12 09:22:07.958
255,-239.0,1031.0,136.0,1067.0417049019218,2021-08-12 09:22:07.968
256,-277.0,644.0,268.0,750.5258156785815,2021-08-12 09:22:07.978
257,-219.0,644.0,268.0,731.1094309335641,2021-08-12 09:22:07.989
258,-219.0,1011.0,-58.0,1036.072391293195,2021-08-12 09:22:07.990
259,-121.0,678.0,270.0,739.7465782279767,2021-08-12 09:22:07.998
260,-252.0,848.0,-6.0,884.6716905157529,2021-08-12 09:22:08.007
261,-209.0,831.0,87.0,861.2845058399693,2021-08-12 09:22:08.017
262,-168.0,565.0,237.0,635.3093734551695,2021-08-12 09:22:08.027
263,61.0,938.0,237.0,969.3987827514536,2021-08-12 09:22:08.037
264,61.0,938.0,-13.0,940.071273893634,2021-08-12 09:22:08.038
265,-100.0,735.0,155.0,757.792847683323,2021-08-12 09:22:08.046
266,-439.0,735.0,155.0,870.0408036408407,2021-08-12 09:22:08.056
267,-439.0,1066.0,-270.0,1184.0510968704011,2021-08-12 09:22:08.057
268,40.0,1379.0,-499.0,1467.0521463124614,2021-08-12 09:22:08.066
269,-388.0,1031.0,-499.0,1209.3411429369298,2021-08-12 09:22:08.075
270,-388.0,1031.0,-88.0,1105.1013528179217,2021-08-12 09:22:08.076
271,-357.0,1206.0,-205.0,1274.3272735055152,2021-08-12 09:22:08.087
272,8.0,1454.0,-122.0,1459.1312483803504,2021-08-12 09:22:08.095
273,-239.0,1119.0,-111.0,1149.6099338471288,2021-08-12 09:22:08.105
274,-146.0,1218.0,-47.0,1227.6192406442642,2021-08-12 09:22:08.115
275,-621.0,680.0,-47.0,922.0900172976606,2021-08-12 09:22:08.124
276,-621.0,680.0,230.0,949.1791190286478,2021-08-12 09:22:08.125
277,-462.0,994.0,-18.0,1096.268215356078,2021-08-12 09:22:08.134
278,-303.0,868.0,236.0,949.172797756025,2021-08-12 09:22:08.144
279,-411.0,769.0,-32.0,872.5285095628681,2021-08-12 09:22:08.154
280,-159.0,1245.0,61.0,1256.5934107737476,2021-08-12 09:22:08.164
281,-370.0,682.0,223.0,807.3122072655659,2021-08-12 09:22:08.173
282,142.0,1047.0,223.0,1079.8620282239765,2021-08-12 09:22:08.183
283,142.0,1047.0,-142.0,1066.084893430162,2021-08-12 09:22:08.184
284,-71.0,1011.0,-38.0,1014.2021494751428,2021-08-12 09:22:08.193
285,-63.0,1011.0,-38.0,1013.6735174601336,2021-08-12 09:22:08.202
286,-63.0,958.0,-48.0,961.2684328531756,2021-08-12 09:22:08.203
287,10.0,1159.0,-323.0,1203.2082114081502,2021-08-12 09:22:08.213
288,-294.0,952.0,-99.0,1001.2696939386512,2021-08-12 09:22:08.222
289,-26.0,1263.0,-248.0,1287.380674082068,2021-08-12 09:22:08.232
290,39.0,1202.0,-101.0,1206.8661897658749,2021-08-12 09:22:08.242
291,-293.0,957.0,-110.0,1006.8753646802568,2021-08-12 09:22:08.251
292,-20.0,1302.0,-514.0,1399.928569606321,2021-08-12 09:22:08.262
293,-183.0,1073.0,-138.0,1097.2064527699424,2021-08-12 09:22:08.271
294,-389.0,1322.0,-338.0,1418.8900591659665,2021-08-12 09:22:08.281
295,202.0,1400.0,-203.0,1428.9902029055345,2021-08-12 09:22:08.291
296,-320.0,560.0,216.0,680.1882092479992,2021-08-12 09:22:08.309
297,-84.0,987.0,43.0,991.500882500868,2021-08-12 09:22:08.313
298,-53.0,641.0,314.0,715.7415734746725,2021-08-12 09:22:08.321
299,-149.0,854.0,314.0,922.0157265470042,2021-08-12 09:22:08.329
300,-149.0,854.0,169.0,883.2202443332014,2021-08-12 09:22:08.330
301,-194.0,779.0,129.0,813.0916307526477,2021-08-12 09:22:08.339
302,-108.0,779.0,129.0,796.9604758079287,2021-08-12 09:22:08.349
303,-108.0,589.0,251.0,649.2965424211036,2021-08-12 09:22:08.350
304,151.0,912.0,-25.0,924.75402134838,2021-08-12 09:22:08.359
305,-76.0,762.0,100.0,772.2823317932374,2021-08-12 09:22:08.370
306,-65.0,933.0,-55.0,936.8772598371678,2021-08-12 09:22:08.378
307,-244.0,910.0,101.0,947.5426111790435,2021-08-12 09:22:08.388
308,-112.0,928.0,-52.0,936.179469973573,2021-08-12 09:22:08.398
309,142.0,1171.0,-52.0,1180.723930476553,2021-08-12 09:22:08.407
310,142.0,1171.0,-249.0,1205.5728928604856,2021-08-12 09:22:08.408
311,-317.0,860.0,-12.0,916.6422420988464,2021-08-12 09:22:08.429
312,-317.0,860.0,-12.0,916.6422420988464,2021-08-12 09:22:08.430
313,-317.0,1127.0,-115.0,1176.3685646939057,2021-08-12 09:22:08.431
314,-302.0,1208.0,-69.0,1247.08820858831,2021-08-12 09:22:08.438
315,-637.0,1208.0,-69.0,1367.404109983585,2021-08-12 09:22:08.446
316,-637.0,695.0,222.0,968.5442684771822,2021-08-12 09:22:08.447
317,-431.0,960.0,-10.0,1052.3597293701428,2021-08-12 09:22:08.457
318,-203.0,924.0,175.0,962.0862747176056,2021-08-12 09:22:08.466
319,-422.0,826.0,37.0,928.293595798226,2021-08-12 09:22:08.476
320,-210.0,1222.0,64.0,1241.563530392223,2021-08-12 09:22:08.486
321,-277.0,1222.0,64.0,1254.6350066852112,2021-08-12 09:22:08.495
322,-277.0,725.0,271.0,822.0675154754626,2021-08-12 09:22:08.496
323,-239.0,923.0,59.0,955.2648847309316,2021-08-12 09:22:08.505
324,-119.0,681.0,290.0,749.6812656055905,2021-08-12 09:22:08.515
325,-275.0,717.0,152.0,782.8269285097441,2021-08-12 09:22:08.525
326,-187.0,795.0,261.0,857.3884767128609,2021-08-12 09:22:08.535
327,-164.0,530.0,400.0,683.9561389445963,2021-08-12 09:22:08.544
328,-39.0,1292.0,-355.0,1340.4514165011726,2021-08-12 09:22:08.554
329,-29.0,1242.0,-152.0,1251.6025727042909,2021-08-12 09:22:08.564
330,-370.0,1242.0,-152.0,1304.8248924664183,2021-08-12 09:22:08.573
331,-370.0,1010.0,-207.0,1095.3761910868795,2021-08-12 09:22:08.574
332,55.0,1010.0,-207.0,1032.4601687232298,2021-08-12 09:22:08.591
333,55.0,1324.0,-543.0,1432.0789084404532,2021-08-12 09:22:08.592
334,-223.0,1086.0,-218.0,1129.888932594704,2021-08-12 09:22:08.595
335,-332.0,1236.0,-350.0,1326.8082001555465,2021-08-12 09:22:08.603
336,122.0,1450.0,-191.0,1467.6051921412652,2021-08-12 09:22:08.613
337,-170.0,1181.0,-129.0,1200.1258267365135,2021-08-12 09:22:08.623
338,-324.0,1210.0,-189.0,1266.8058256891622,2021-08-12 09:22:08.632
339,-603.0,811.0,141.0,1020.39747157664,2021-08-12 09:22:08.642
340,-438.0,1144.0,-132.0,1232.0730497823577,2021-08-12 09:22:08.652
341,-149.0,1127.0,118.0,1142.9146949794635,2021-08-12 09:22:08.662
342,-506.0,837.0,-68.0,980.4228679503552,2021-08-12 09:22:08.671
343,79.0,960.0,-81.0,966.644712394373,2021-08-12 09:22:08.681
344,-19.0,819.0,93.0,824.4822617861466,2021-08-12 09:22:08.691
345,-66.0,1002.0,-118.0,1011.0806100405644,2021-08-12 09:22:08.701
346,-284.0,947.0,99.0,993.612600564224,2021-08-12 09:22:08.710
347,-57.0,908.0,-20.0,910.00714282911,2021-08-12 09:22:08.720
348,201.0,1264.0,-262.0,1306.4229789773294,2021-08-12 09:22:08.730
349,-249.0,876.0,-82.0,914.3855860631224,2021-08-12 09:22:08.740
350,36.0,1216.0,-182.0,1230.0715426348177,2021-08-12 09:22:08.750
351,-47.0,1127.0,-118.0,1134.1349126096063,2021-08-12 09:22:08.759
352,-252.0,1127.0,-118.0,1160.8432280028169,2021-08-12 09:22:08.769
353,-252.0,1025.0,-205.0,1075.2460183604494,2021-08-12 09:22:08.770
354,74.0,1251.0,-567.0,1375.4875499254802,2021-08-12 09:22:08.779
355,-142.0,1073.0,-567.0,1221.8764258303702,2021-08-12 09:22:08.788
356,-142.0,1073.0,-201.0,1100.8605724613813,2021-08-12 09:22:08.789
357,-158.0,1198.0,-338.0,1254.755753124886,2021-08-12 09:22:08.799
358,-213.0,1222.0,84.0,1243.2654583796657,2021-08-12 09:22:08.808
359,-351.0,682.0,298.0,822.8784843462612,2021-08-12 09:22:08.818
360,-220.0,682.0,298.0,776.0979319647747,2021-08-12 09:22:08.827
361,-220.0,955.0,-5.0,980.0255098720644,2021-08-12 09:22:08.828
362,-76.0,711.0,264.0,762.2289682241158,2021-08-12 09:22:08.837
363,-262.0,750.0,113.0,802.4418982082129,2021-08-12 09:22:08.847
364,-249.0,754.0,113.0,802.0511205652667,2021-08-12 09:22:08.857
365,-249.0,754.0,260.0,835.5339610093656,2021-08-12 09:22:08.858
366,-312.0,493.0,260.0,638.7432974208027,2021-08-12 09:22:08.866
367,-312.0,493.0,366.0,688.7299906349367,2021-08-12 09:22:08.867
368,36.0,895.0,110.0,902.4527688472124,2021-08-12 09:22:08.876
369,-150.0,641.0,240.0,700.700363921698,2021-08-12 09:22:08.898
370,-150.0,861.0,240.0,906.3227901801874,2021-08-12 09:22:08.899
371,-150.0,861.0,-63.0,876.2362695072602,2021-08-12 09:22:08.900
372,-334.0,820.0,219.0,912.0948415598018,2021-08-12 09:22:08.907
373,-123.0,826.0,82.0,839.1239479361794,2021-08-12 09:22:08.915
374,32.0,1151.0,-181.0,1165.583973808837,2021-08-12 09:22:08.925
375,185.0,1437.0,-256.0,1471.302144360566,2021-08-12 09:22:08.935
376,-194.0,1131.0,-193.0,1163.6348224421613,2021-08-12 09:22:08.945
377,-293.0,1245.0,-236.0,1300.6037059765745,2021-08-12 09:22:08.956
378,-553.0,891.0,116.0,1055.0573444130891,2021-08-12 09:22:08.964
379,-508.0,1230.0,-219.0,1348.675275965271,2021-08-12 09:22:08.974
380,-206.0,1124.0,51.0,1143.858819959876,2021-08-12 09:22:08.984
381,-485.0,1124.0,51.0,1225.2354875696344,2021-08-12 09:22:08.993
382,-485.0,864.0,-89.0,994.8075190709004,2021-08-12 09:22:08.994
383,-141.0,1392.0,-55.0,1400.2035566302493,2021-08-12 09:22:09.004
384,-477.0,760.0,226.0,925.3134604013928,2021-08-12 09:22:09.013
385,-294.0,978.0,28.0,1021.618324033002,2021-08-12 09:22:09.023
386,-72.0,978.0,28.0,981.0463801472386,2021-08-12 09:22:09.032
387,-72.0,892.0,191.0,915.0568288363296,2021-08-12 09:22:09.033
388,-202.0,739.0,122.0,775.763494887456,2021-08-12 09:22:09.042
389,-202.0,842.0,235.0,897.2140212903497,2021-08-12 09:22:09.053
390,-207.0,880.0,-48.0,905.2916657077984,2021-08-12 09:22:09.063
391,72.0,1215.0,-48.0,1218.0775837359458,2021-08-12 09:22:09.071
392,72.0,1215.0,-258.0,1244.175630688851,2021-08-12 09:22:09.072
393,-59.0,1051.0,-125.0,1060.0504704965704,2021-08-12 09:22:09.081
394,-308.0,949.0,-200.0,1017.578006837805,2021-08-12 09:22:09.091
395,39.0,1209.0,-465.0,1295.9270812819675,2021-08-12 09:22:09.101
396,-88.0,1139.0,-139.0,1150.819707860445,2021-08-12 09:22:09.112
397,-163.0,1257.0,-359.0,1317.383391424076,2021-08-12 09:22:09.120
398,129.0,1258.0,-207.0,1281.426548811909,2021-08-12 09:22:09.130
399,-317.0,1181.0,-191.0,1237.6312051657392,2021-08-12 09:22:09.140
400,-237.0,1282.0,-308.0,1339.610764364037,2021-08-12 09:22:09.150
401,-527.0,932.0,25.0,1070.9705878314303,2021-08-12 09:22:09.160
402,-368.0,1282.0,-296.0,1366.2225294585066,2021-08-12 09:22:09.169
403,-243.0,848.0,149.0,894.6250611289626,2021-08-12 09:22:09.179
404,-215.0,501.0,360.0,653.3192175345831,2021-08-12 09:22:09.189
405,61.0,950.0,74.0,954.8282568085216,2021-08-12 09:22:09.199
406,-24.0,739.0,189.0,763.1631542468491,2021-08-12 09:22:09.209
407,-67.0,836.0,22.0,838.9690101547255,2021-08-12 09:22:09.219
408,-366.0,815.0,262.0,931.0343710089332,2021-08-12 09:22:09.228
409,-138.0,815.0,262.0,867.129171461784,2021-08-12 09:22:09.237
410,-138.0,793.0,101.0,811.2299304143062,2021-08-12 09:22:09.238
411,59.0,1130.0,101.0,1136.037851482071,2021-08-12 09:22:09.247
412,59.0,1130.0,-176.0,1145.1449689886429,2021-08-12 09:22:09.248
413,-250.0,803.0,16.0,841.1688296650085,2021-08-12 09:22:09.258
414,101.0,1053.0,-181.0,1073.205944821403,2021-08-12 09:22:09.268
415,-5.0,987.0,-139.0,996.752225981964,2021-08-12 09:22:09.277
416,-183.0,827.0,-97.0,852.541494591319,2021-08-12 09:22:09.286
417,75.0,1139.0,-307.0,1182.0300334593871,2021-08-12 09:22:09.296
418,74.0,1096.0,-89.0,1102.09482350658,2021-08-12 09:22:09.306
419,-392.0,868.0,-86.0,956.2865679282544,2021-08-12 09:22:09.317
420,-152.0,1369.0,-86.0,1380.094561977548,2021-08-12 09:22:09.325
421,-152.0,1369.0,-96.0,1380.7537796435684,2021-08-12 09:22:09.326
422,-489.0,1369.0,-96.0,1456.8795420349618,2021-08-12 09:22:09.343
423,-489.0,786.0,207.0,948.5599612043512,2021-08-12 09:22:09.344
424,-308.0,969.0,49.0,1017.9518652667228,2021-08-12 09:22:09.346
425,20.0,976.0,147.0,987.2107171217298,2021-08-12 09:22:09.355
426,-335.0,773.0,114.0,850.1470461043783,2021-08-12 09:22:09.366
427,-199.0,805.0,114.0,837.0316600941687,2021-08-12 09:22:09.374
428,-199.0,805.0,334.0,893.969798147566,2021-08-12 09:22:09.375
429,-372.0,490.0,354.0,709.7887009526145,2021-08-12 09:22:09.384
430,0.0,861.0,228.0,890.6767090252221,2021-08-12 09:22:09.394
431,-281.0,731.0,211.0,811.0752122953826,2021-08-12 09:22:09.404
432,-162.0,742.0,86.0,764.3323884279666,2021-08-12 09:22:09.417
433,-336.0,826.0,274.0,932.8708377905272,2021-08-12 09:22:09.423
434,-164.0,653.0,213.0,706.1685351245834,2021-08-12 09:22:09.443
435,-131.0,1237.0,-294.0,1278.1885619891923,2021-08-12 09:22:09.446
436,122.0,1237.0,-180.0,1255.9669581641072,2021-08-12 09:22:09.454
437,-239.0,1206.0,-249.0,1254.4154016911623,2021-08-12 09:22:09.462
438,-246.0,1331.0,-390.0,1408.608178309355,2021-08-12 09:22:09.472
439,-520.0,961.0,-26.0,1092.9762120009748,2021-08-12 09:22:09.482
440,-337.0,1296.0,-306.0,1373.616030774248,2021-08-12 09:22:09.492
441,-187.0,1273.0,-133.0,1293.5172979129425,2021-08-12 09:22:09.502
442,-441.0,888.0,-122.0,998.9539528927248,2021-08-12 09:22:09.511
443,-326.0,1390.0,-201.0,1441.796448878967,2021-08-12 09:22:09.521
444,-479.0,855.0,210.0,1002.280399888175,2021-08-12 09:22:09.531
445,-405.0,1033.0,-79.0,1112.364598501768,2021-08-12 09:22:09.540
446,-132.0,1155.0,22.0,1162.7265370670784,2021-08-12 09:22:09.551
447,-79.0,774.0,134.0,789.4764087672285,2021-08-12 09:22:09.561
448,89.0,774.0,134.0,790.5396890732305,2021-08-12 09:22:09.569
449,89.0,1105.0,-145.0,1118.021019480403,2021-08-12 09:22:09.570
450,-198.0,764.0,56.0,791.2243676732916,2021-08-12 09:22:09.579
451,87.0,1166.0,-158.0,1179.8682129797378,2021-08-12 09:22:09.589
452,1.0,1166.0,-158.0,1176.6567043959762,2021-08-12 09:22:09.610
453,1.0,952.0,-139.0,962.0945899442528,2021-08-12 09:22:09.611
454,-108.0,838.0,-108.0,851.8051420366045,2021-08-12 09:22:09.614
455,28.0,838.0,-108.0,845.3945824288206,2021-08-12 09:22:09.618
456,28.0,1121.0,-388.0,1186.57869524107,2021-08-12 09:22:09.619
457,-19.0,1071.0,-185.0,1087.0266786054517,2021-08-12 09:22:09.628
458,-239.0,1071.0,-185.0,1112.8283785022738,2021-08-12 09:22:09.638
459,-239.0,1227.0,-303.0,1286.257750219605,2021-08-12 09:22:09.639
460,-214.0,1181.0,-240.0,1223.9922385374834,2021-08-12 09:22:09.648
461,-102.0,1092.0,-184.0,1112.0809323066376,2021-08-12 09:22:09.658
462,-336.0,991.0,-146.0,1056.547679946343,2021-08-12 09:22:09.667
463,-21.0,974.0,221.0,998.9784782466536,2021-08-12 09:22:09.677
464,-165.0,1044.0,-28.0,1057.3291824214443,2021-08-12 09:22:09.687
465,-343.0,902.0,-50.0,966.308956804189,2021-08-12 09:22:09.697
466,118.0,950.0,265.0,993.3020688592168,2021-08-12 09:22:09.707
467,-237.0,1003.0,45.0,1031.6021519946537,2021-08-12 09:22:09.717
468,-163.0,903.0,90.0,921.9967461981632,2021-08-12 09:22:09.726
469,-225.0,903.0,90.0,934.9513356319676,2021-08-12 09:22:09.735
470,-225.0,1195.0,5.0,1216.0078124749034,2021-08-12 09:22:09.736
471,4.0,1041.0,23.0,1041.2617346277543,2021-08-12 09:22:09.746
472,-84.0,990.0,82.0,996.935303818658,2021-08-12 09:22:09.758
473,-130.0,1078.0,-58.0,1087.3582666260463,2021-08-12 09:22:09.766
474,-158.0,1015.0,-30.0,1027.661909384599,2021-08-12 09:22:09.775
475,-204.0,1015.0,-30.0,1035.73210822104,2021-08-12 09:22:09.784
476,-204.0,976.0,-13.0,997.1765139633004,2021-08-12 09:22:09.785
477,-218.0,976.0,-13.0,1000.1344909560912,2021-08-12 09:22:09.794
478,-218.0,976.0,-15.0,1000.16248679902,2021-08-12 09:22:09.795
479,-179.0,1032.0,-33.0,1047.9284326708575,2021-08-12 09:22:09.804
480,-203.0,984.0,-52.0,1006.0661012080668,2021-08-12 09:22:09.814
481,-210.0,1037.0,-6.0,1058.0666330623983,2021-08-12 09:22:09.824
482,-215.0,983.0,-6.0,1006.255434767932,2021-08-12 09:22:09.833
483,-215.0,983.0,-14.0,1006.334934303684,2021-08-12 09:22:09.834
484,-240.0,965.0,-5.0,994.4093724417525,2021-08-12 09:22:09.843
485,-162.0,965.0,-5.0,978.5162236774617,2021-08-12 09:22:09.853
486,-162.0,973.0,-43.0,987.3307449887296,2021-08-12 09:22:09.854
487,-142.0,1010.0,-23.0,1020.192628869666,2021-08-12 09:22:09.863
488,-149.0,972.0,12.0,983.4271706638982,2021-08-12 09:22:09.873
489,-123.0,1019.0,-8.0,1026.4277860619325,2021-08-12 09:22:09.882
490,-131.0,987.0,-49.0,996.8605719959036,2021-08-12 09:22:09.892
491,-158.0,964.0,-43.0,977.8082634136408,2021-08-12 09:22:09.918
492,-158.0,983.0,-35.0,996.231900713885,2021-08-12 09:22:09.919
493,-106.0,1008.0,-42.0,1014.4279175969084,2021-08-12 09:22:09.921
494,-134.0,984.0,-26.0,993.422367374522,2021-08-12 09:22:09.931
495,-123.0,998.0,-65.0,1007.6497407333562,2021-08-12 09:22:09.941
496,-197.0,998.0,-34.0,1017.8256235721324,2021-08-12 09:22:09.952
497,-208.0,955.0,-53.0,978.824805570435,2021-08-12 09:22:09.960
498,-213.0,1009.0,-42.0,1032.092050158318,2021-08-12 09:22:09.970
499,-227.0,988.0,-14.0,1013.8387445743036,2021-08-12 09:22:09.980
