,Acceleration_X,Acceleration_Y,Acceleration_Z,magnitude,time_stamp
0,-200.0,1141.0,-12.0,1158.4580268615691,2021-08-31 07:25:20.216
1,-299.0,949.0,97.0,999.7054566220992,2021-08-31 07:25:20.229
2,-114.0,900.0,-122.0,915.3578535195948,2021-08-31 07:25:20.235
3,-63.0,1010.0,-184.0,1028.554811373706,2021-08-31 07:25:20.245
4,-180.0,1028.0,39.0,1044.3682300797932,2021-08-31 07:25:20.255
5,-149.0,1010.0,-6.0,1020.9490682693236,2021-08-31 07:25:20.266
6,-195.0,908.0,-63.0,930.8372575267924,2021-08-31 07:25:20.275
7,-312.0,992.0,17.0,1040.046633569861,2021-08-31 07:25:20.284
8,-200.0,1063.0,-20.0,1081.8359395028435,2021-08-31 07:25:20.294
9,-220.0,1063.0,-20.0,1085.7112875898454,2021-08-31 07:25:20.303
10,-220.0,966.0,-48.0,991.89717208993,2021-08-31 07:25:20.304
11,-208.0,898.0,-48.0,923.0232933138794,2021-08-31 07:25:20.313
12,-208.0,898.0,-1.0,921.7749182962184,2021-08-31 07:25:20.314
13,-157.0,902.0,-50.0,916.925842148644,2021-08-31 07:25:20.324
14,-119.0,902.0,-50.0,911.1887839520414,2021-08-31 07:25:20.333
15,-119.0,1111.0,-99.0,1121.7321427150066,2021-08-31 07:25:20.334
16,-62.0,1054.0,-73.0,1058.3425721381525,2021-08-31 07:25:20.343
17,-58.0,1054.0,-73.0,1058.1157781641857,2021-08-31 07:25:20.352
18,-58.0,1154.0,-74.0,1157.8238207948566,2021-08-31 07:25:20.353
19,-296.0,912.0,81.0,962.2478890597786,2021-08-31 07:25:20.362
20,-270.0,912.0,81.0,954.570584084802,2021-08-31 07:25:20.372
21,-270.0,879.0,-27.0,919.929345112982,2021-08-31 07:25:20.373
22,-64.0,1000.0,-160.0,1014.7393754063158,2021-08-31 07:25:20.383
23,-81.0,1000.0,-160.0,1015.953246955784,2021-08-31 07:25:20.391
24,-81.0,1063.0,-60.0,1067.7687015454237,2021-08-31 07:25:20.392
25,-242.0,1075.0,10.0,1101.9478209062352,2021-08-31 07:25:20.401
26,-234.0,908.0,-77.0,940.823575384886,2021-08-31 07:25:20.411
27,-244.0,981.0,-72.0,1013.4500481030132,2021-08-31 07:25:20.421
28,-188.0,968.0,-45.0,987.1134686549464,2021-08-31 07:25:20.432
29,-260.0,989.0,-27.0,1022.961387345583,2021-08-31 07:25:20.440
30,-282.0,981.0,3.0,1020.7320902176044,2021-08-31 07:25:20.450
31,-283.0,1081.0,-43.0,1118.257126067167,2021-08-31 07:25:20.460
32,-289.0,942.0,-16.0,985.4648649241636,2021-08-31 07:25:20.470
33,-164.0,894.0,-16.0,909.058853980313,2021-08-31 07:25:20.479
34,-164.0,894.0,-45.0,910.0313181424032,2021-08-31 07:25:20.480
35,-65.0,1074.0,-110.0,1081.573390944877,2021-08-31 07:25:20.490
36,-183.0,1118.0,7.0,1132.8998190484454,2021-08-31 07:25:20.499
37,-357.0,966.0,99.0,1034.6042721736655,2021-08-31 07:25:20.509
38,-178.0,834.0,-106.0,859.3462631558946,2021-08-31 07:25:20.522
39,-92.0,889.0,-121.0,901.9013249796232,2021-08-31 07:25:20.529
40,-144.0,889.0,-121.0,908.6792613458282,2021-08-31 07:25:20.538
41,-144.0,1087.0,74.0,1098.9909007812576,2021-08-31 07:25:20.539
42,-125.0,1042.0,-28.0,1049.844274166412,2021-08-31 07:25:20.548
43,-251.0,1042.0,-28.0,1072.1702290214926,2021-08-31 07:25:20.557
44,-251.0,1005.0,-93.0,1040.0360570672538,2021-08-31 07:25:20.558
45,-319.0,873.0,-93.0,934.0979606015636,2021-08-31 07:25:20.567
46,-319.0,873.0,-42.0,930.4052880331236,2021-08-31 07:25:20.568
47,-232.0,1007.0,-19.0,1033.5540624466628,2021-08-31 07:25:20.578
48,-343.0,971.0,-62.0,1031.665643510532,2021-08-31 07:25:20.587
49,-258.0,971.0,-62.0,1006.6027021620796,2021-08-31 07:25:20.596
50,-258.0,982.0,-102.0,1020.4371612206212,2021-08-31 07:25:20.597
51,-153.0,1046.0,2.0,1057.1324420336366,2021-08-31 07:25:20.606
52,-237.0,880.0,56.0,913.074476699464,2021-08-31 07:25:20.616
53,-108.0,1026.0,-107.0,1037.2024874632723,2021-08-31 07:25:20.626
54,-66.0,1017.0,-43.0,1020.0460773906244,2021-08-31 07:25:20.636
55,-303.0,1026.0,-43.0,1070.6698837643655,2021-08-31 07:25:20.646
56,-303.0,1026.0,158.0,1081.410652804937,2021-08-31 07:25:20.647
57,-208.0,1001.0,-23.0,1022.6406993661068,2021-08-31 07:25:20.655
58,-113.0,860.0,-135.0,877.8348364014726,2021-08-31 07:25:20.665
59,-131.0,936.0,-14.0,945.226427899686,2021-08-31 07:25:20.675
60,-66.0,1094.0,-14.0,1096.0784643445925,2021-08-31 07:25:20.685
61,-66.0,1094.0,-50.0,1097.128980567007,2021-08-31 07:25:20.686
62,-258.0,1053.0,3.0,1084.1503585757837,2021-08-31 07:25:20.695
63,-113.0,1079.0,-102.0,1089.685275664492,2021-08-31 07:25:20.704
64,-243.0,1075.0,-23.0,1102.3624630764602,2021-08-31 07:25:20.714
65,-250.0,1075.0,-23.0,1103.9266279966257,2021-08-31 07:25:20.723
66,-250.0,907.0,25.0,941.1556725643212,2021-08-31 07:25:20.724
67,-136.0,968.0,-71.0,980.0821394148554,2021-08-31 07:25:20.734
68,-325.0,1043.0,-95.0,1096.585154012218,2021-08-31 07:25:20.743
69,-273.0,939.0,40.0,978.698114844409,2021-08-31 07:25:20.753
70,4.0,939.0,40.0,939.8600959717356,2021-08-31 07:25:20.762
71,4.0,963.0,-51.0,964.3578174101146,2021-08-31 07:25:20.763
72,-35.0,963.0,-148.0,974.9348696195044,2021-08-31 07:25:20.772
73,-169.0,1039.0,61.0,1054.4206940306133,2021-08-31 07:25:20.782
74,-224.0,1051.0,61.0,1076.3354495695105,2021-08-31 07:25:20.792
75,-224.0,1051.0,50.0,1075.7680976864856,2021-08-31 07:25:20.793
76,-209.0,879.0,-100.0,909.0225519754722,2021-08-31 07:25:20.803
77,-113.0,1101.0,-28.0,1107.1377511402995,2021-08-31 07:25:20.811
78,-235.0,1018.0,-6.0,1044.789452473559,2021-08-31 07:25:20.821
79,-230.0,885.0,3.0,914.403630788942,2021-08-31 07:25:20.831
80,-160.0,981.0,-101.0,999.0805773309778,2021-08-31 07:25:20.842
81,-170.0,1122.0,-84.0,1137.9103655385163,2021-08-31 07:25:20.851
82,-179.0,973.0,-40.0,990.136354246222,2021-08-31 07:25:20.860
83,-244.0,990.0,-80.0,1022.7590136488652,2021-08-31 07:25:20.870
84,-219.0,1049.0,-98.0,1076.088286340856,2021-08-31 07:25:20.880
85,-158.0,1016.0,39.0,1028.951407987763,2021-08-31 07:25:20.890
86,-243.0,1024.0,6.0,1052.4547496210942,2021-08-31 07:25:20.899
87,-84.0,968.0,-172.0,986.744141102444,2021-08-31 07:25:20.910
88,-70.0,1023.0,-75.0,1028.131314570274,2021-08-31 07:25:20.919
89,-239.0,1063.0,65.0,1091.4737743070148,2021-08-31 07:25:20.929
90,-133.0,938.0,0.0,947.3821826485866,2021-08-31 07:25:20.941
91,-52.0,1072.0,-42.0,1074.0819335600054,2021-08-31 07:25:20.949
92,-194.0,1072.0,-42.0,1090.2219957421516,2021-08-31 07:25:20.958
93,-194.0,1060.0,-74.0,1080.144434786385,2021-08-31 07:25:20.959
94,-212.0,857.0,-6.0,882.8527623562153,2021-08-31 07:25:20.968
95,-112.0,859.0,-6.0,866.2915213714145,2021-08-31 07:25:20.977
96,-112.0,859.0,-34.0,866.9377140256387,2021-08-31 07:25:20.978
97,-180.0,1096.0,-51.0,1111.852957904057,2021-08-31 07:25:20.987
98,-281.0,1020.0,31.0,1058.4526441934,2021-08-31 07:25:20.998
99,-188.0,981.0,41.0,999.6929528610272,2021-08-31 07:25:21.007
100,-206.0,932.0,41.0,955.374795564547,2021-08-31 07:25:21.016
101,-206.0,932.0,-86.0,958.3611010469904,2021-08-31 07:25:21.017
102,-270.0,1030.0,-73.0,1067.2998641431564,2021-08-31 07:25:21.026
103,-245.0,991.0,53.0,1022.2108393086036,2021-08-31 07:25:21.036
104,-70.0,1013.0,-57.0,1017.0142575205128,2021-08-31 07:25:21.046
105,-197.0,1043.0,3.0,1061.4457122246056,2021-08-31 07:25:21.056
106,-214.0,902.0,33.0,927.6254632123894,2021-08-31 07:25:21.078
107,-125.0,1012.0,-1.0,1019.6911297054612,2021-08-31 07:25:21.085
108,-69.0,1012.0,-1.0,1014.3500382018034,2021-08-31 07:25:21.094
109,-69.0,1170.0,-68.0,1174.0038330431464,2021-08-31 07:25:21.095
110,-227.0,1033.0,57.0,1059.1822317240787,2021-08-31 07:25:21.104
111,-242.0,769.0,21.0,806.4527264508441,2021-08-31 07:25:21.115
112,-95.0,1025.0,-129.0,1037.444456344531,2021-08-31 07:25:21.124
113,-159.0,1045.0,-129.0,1064.8694755696588,2021-08-31 07:25:21.136
114,-159.0,1045.0,-96.0,1061.3774069575818,2021-08-31 07:25:21.137
115,-349.0,965.0,103.0,1031.3268153209244,2021-08-31 07:25:21.145
116,-252.0,953.0,4.0,985.7631561384306,2021-08-31 07:25:21.153
117,-156.0,969.0,-23.0,981.7464031001082,2021-08-31 07:25:21.163
118,-245.0,975.0,-54.0,1006.76015018474,2021-08-31 07:25:21.184
119,-146.0,975.0,-54.0,987.3484693865688,2021-08-31 07:25:21.186
120,-146.0,977.0,-14.0,987.94787311882,2021-08-31 07:25:21.187
121,-76.0,1127.0,-12.0,1129.623388568066,2021-08-31 07:25:21.199
122,-167.0,1051.0,-58.0,1065.7645143276256,2021-08-31 07:25:21.216
123,-337.0,1051.0,-58.0,1105.2302927444578,2021-08-31 07:25:21.223
124,-337.0,915.0,-5.0,975.099482104262,2021-08-31 07:25:21.224
125,-231.0,1117.0,20.0,1140.8111149528654,2021-08-31 07:25:21.230
126,36.0,1140.0,-128.0,1147.728190818715,2021-08-31 07:25:21.235
127,-217.0,1190.0,30.0,1209.995454536917,2021-08-31 07:25:21.241
128,-344.0,886.0,114.0,957.2502285191684,2021-08-31 07:25:21.251
129,-125.0,969.0,-73.0,979.7525197722128,2021-08-31 07:25:21.261
130,-200.0,991.0,-73.0,1013.6123519373666,2021-08-31 07:25:21.270
131,-200.0,991.0,-165.0,1024.3563832963605,2021-08-31 07:25:21.271
132,-312.0,1016.0,21.0,1063.0338658763417,2021-08-31 07:25:21.281
133,-234.0,992.0,20.0,1019.4214045231736,2021-08-31 07:25:21.290
134,-226.0,985.0,-3.0,1010.5988323761312,2021-08-31 07:25:21.300
135,-134.0,985.0,-3.0,994.0774617704598,2021-08-31 07:25:21.309
136,-134.0,1018.0,-26.0,1027.110510120503,2021-08-31 07:25:21.310
137,-166.0,1035.0,-77.0,1051.0518540966473,2021-08-31 07:25:21.319
138,-158.0,1035.0,-77.0,1049.818079478535,2021-08-31 07:25:21.329
139,-158.0,983.0,10.0,995.667113045319,2021-08-31 07:25:21.330
140,-142.0,1085.0,-16.0,1094.3696815975852,2021-08-31 07:25:21.339
141,-177.0,1076.0,-21.0,1090.6631010536664,2021-08-31 07:25:21.349
142,-267.0,851.0,8.0,891.9383386759423,2021-08-31 07:25:21.358
143,-52.0,945.0,-157.0,959.3633305479212,2021-08-31 07:25:21.368
144,-73.0,1077.0,-121.0,1086.231559106989,2021-08-31 07:25:21.378
145,-263.0,985.0,65.0,1021.5767225225916,2021-08-31 07:25:21.389
146,-288.0,955.0,9.0,997.5219295835054,2021-08-31 07:25:21.397
147,-158.0,959.0,-127.0,980.190797753172,2021-08-31 07:25:21.408
148,-239.0,973.0,-22.0,1002.1646571297553,2021-08-31 07:25:21.417
149,-203.0,915.0,-41.0,938.1444451682268,2021-08-31 07:25:21.427
150,-186.0,946.0,27.0,964.4900206845066,2021-08-31 07:25:21.437
151,-218.0,1000.0,-52.0,1024.8063231655042,2021-08-31 07:25:21.446
152,-253.0,945.0,-42.0,979.1823119317464,2021-08-31 07:25:21.456
153,-120.0,939.0,23.0,946.916046965094,2021-08-31 07:25:21.466
154,-1.0,1072.0,23.0,1072.2471729969727,2021-08-31 07:25:21.475
155,-1.0,1072.0,-110.0,1077.629342584917,2021-08-31 07:25:21.476
156,-181.0,1073.0,9.0,1088.1962139246764,2021-08-31 07:25:21.486
157,-289.0,935.0,80.0,981.9093644527484,2021-08-31 07:25:21.496
158,-123.0,893.0,-94.0,906.3189284131718,2021-08-31 07:25:21.505
159,6.0,1111.0,-202.0,1129.230268811459,2021-08-31 07:25:21.518
160,-256.0,1143.0,-48.0,1172.3007293352675,2021-08-31 07:25:21.524
161,-319.0,909.0,52.0,964.7517815479794,2021-08-31 07:25:21.534
162,-225.0,1056.0,14.0,1079.7948879301105,2021-08-31 07:25:21.545
163,-252.0,1030.0,42.0,1061.2106294228304,2021-08-31 07:25:21.554
164,-238.0,863.0,-54.0,896.8439106109826,2021-08-31 07:25:21.563
165,-211.0,933.0,-48.0,957.7651069025223,2021-08-31 07:25:21.573
166,-194.0,1016.0,40.0,1035.1289774709237,2021-08-31 07:25:21.583
167,-153.0,1016.0,40.0,1028.2339228016162,2021-08-31 07:25:21.593
168,-153.0,1030.0,30.0,1041.7336511796093,2021-08-31 07:25:21.594
169,-166.0,1030.0,30.0,1043.722185258127,2021-08-31 07:25:21.602
170,-166.0,1001.0,-20.0,1014.8679717086357,2021-08-31 07:25:21.603
171,-221.0,964.0,-15.0,989.1218327385156,2021-08-31 07:25:21.612
172,-92.0,1025.0,-65.0,1031.1711788059245,2021-08-31 07:25:21.622
173,-151.0,1057.0,-6.0,1067.7480976335196,2021-08-31 07:25:21.632
174,-213.0,826.0,56.0,854.8572980328354,2021-08-31 07:25:21.642
175,-101.0,981.0,-84.0,989.7565357197698,2021-08-31 07:25:21.652
176,-38.0,1119.0,-87.0,1123.0200354401518,2021-08-31 07:25:21.662
177,-52.0,914.0,-164.0,930.0516114711054,2021-08-31 07:25:21.671
178,-3.0,914.0,-164.0,928.601636871269,2021-08-31 07:25:21.680
179,-3.0,1023.0,-10.0,1023.0532732951888,2021-08-31 07:25:21.681
180,-327.0,1085.0,-10.0,1133.2493106108648,2021-08-31 07:25:21.690
181,-327.0,1085.0,77.0,1135.818207284951,2021-08-31 07:25:21.691
182,-279.0,1010.0,-98.0,1052.3996389205006,2021-08-31 07:25:21.701
183,-267.0,880.0,-47.0,920.8137705312622,2021-08-31 07:25:21.710
184,-218.0,906.0,7.0,931.8846495140908,2021-08-31 07:25:21.720
185,-121.0,1114.0,7.0,1120.5739600758177,2021-08-31 07:25:21.729
186,-121.0,1114.0,-33.0,1121.0379119369693,2021-08-31 07:25:21.730
187,-198.0,1114.0,-33.0,1131.940369454151,2021-08-31 07:25:21.739
188,-198.0,1060.0,0.0,1078.3339000513708,2021-08-31 07:25:21.740
189,-174.0,894.0,54.0,912.3749229346454,2021-08-31 07:25:21.749
190,-77.0,1032.0,-7.0,1034.8922649242288,2021-08-31 07:25:21.759
191,-221.0,1032.0,-7.0,1055.4212429167796,2021-08-31 07:25:21.768
192,-221.0,1054.0,-9.0,1076.9577521890076,2021-08-31 07:25:21.769
193,-254.0,915.0,-2.0,949.6025484380294,2021-08-31 07:25:21.778
194,-229.0,1055.0,-46.0,1080.547083657163,2021-08-31 07:25:21.788
195,-255.0,1055.0,-46.0,1086.3544541262763,2021-08-31 07:25:21.798
196,-255.0,1032.0,52.0,1064.3086958209071,2021-08-31 07:25:21.799
197,-40.0,955.0,-104.0,961.4785489026784,2021-08-31 07:25:21.808
198,-110.0,912.0,-140.0,929.2168745777274,2021-08-31 07:25:21.818
199,-127.0,1037.0,1.0,1044.7482950452709,2021-08-31 07:25:21.827
200,-132.0,1118.0,-49.0,1126.8313982135926,2021-08-31 07:25:21.837
201,-378.0,1118.0,-49.0,1181.189654543249,2021-08-31 07:25:21.847
202,-378.0,959.0,-23.0,1031.0644984674818,2021-08-31 07:25:21.848
203,-321.0,868.0,-23.0,925.7397042365636,2021-08-31 07:25:21.856
204,-321.0,868.0,-8.0,925.4885196478668,2021-08-31 07:25:21.857
205,-116.0,997.0,-75.0,1006.5237205351892,2021-08-31 07:25:21.866
206,-104.0,1101.0,-25.0,1106.1835290764368,2021-08-31 07:25:21.876
207,-162.0,1037.0,21.0,1049.7875975643835,2021-08-31 07:25:21.886
208,-237.0,915.0,21.0,945.42847429089,2021-08-31 07:25:21.895
209,-237.0,915.0,-36.0,945.8805421404968,2021-08-31 07:25:21.896
210,-110.0,1003.0,20.0,1009.212068893352,2021-08-31 07:25:21.905
211,-205.0,1010.0,-75.0,1033.3198923857026,2021-08-31 07:25:21.916
212,-84.0,955.0,-87.0,962.6266150486388,2021-08-31 07:25:21.925
213,-140.0,995.0,45.0,1005.808132796708,2021-08-31 07:25:21.935
214,-198.0,1077.0,-56.0,1096.4802779804113,2021-08-31 07:25:21.945
215,-190.0,1077.0,-56.0,1095.0639250746965,2021-08-31 07:25:21.954
216,-190.0,894.0,-71.0,916.7207862811882,2021-08-31 07:25:21.955
217,-86.0,973.0,-20.0,976.9979529149484,2021-08-31 07:25:21.964
218,-123.0,1160.0,-152.0,1176.3643143176353,2021-08-31 07:25:21.974
219,-255.0,1064.0,-38.0,1094.78993418829,2021-08-31 07:25:21.983
220,-319.0,823.0,59.0,884.6304313101601,2021-08-31 07:25:21.993
221,-201.0,884.0,-58.0,908.4167545790864,2021-08-31 07:25:22.003
222,-143.0,884.0,-58.0,897.367817564236,2021-08-31 07:25:22.012
223,-143.0,1070.0,-116.0,1085.7278664564155,2021-08-31 07:25:22.013
224,-167.0,935.0,-116.0,956.8542208717064,2021-08-31 07:25:22.022
225,-167.0,935.0,-73.0,952.5980264518712,2021-08-31 07:25:22.023
226,-217.0,979.0,-19.0,1002.941174745558,2021-08-31 07:25:22.032
227,-143.0,978.0,58.0,990.0994899503788,2021-08-31 07:25:22.042
228,-87.0,1017.0,-7.0,1020.7384581762362,2021-08-31 07:25:22.052
229,-92.0,927.0,-7.0,931.5803776379148,2021-08-31 07:25:22.061
230,-92.0,927.0,-68.0,934.0326546754134,2021-08-31 07:25:22.062
231,-142.0,939.0,-62.0,951.697956286552,2021-08-31 07:25:22.072
232,-205.0,1079.0,-18.0,1098.4489064130385,2021-08-31 07:25:22.095
233,-205.0,1079.0,-18.0,1098.4489064130385,2021-08-31 07:25:22.096
234,-205.0,914.0,-39.0,937.5190664727838,2021-08-31 07:25:22.097
235,-252.0,883.0,-39.0,919.083238885358,2021-08-31 07:25:22.100
236,-252.0,883.0,-10.0,918.30986055906,2021-08-31 07:25:22.101
237,-116.0,1069.0,-84.0,1078.5513432377709,2021-08-31 07:25:22.111
238,-117.0,1128.0,-77.0,1136.662658839464,2021-08-31 07:25:22.120
239,-343.0,992.0,-31.0,1050.0828538739215,2021-08-31 07:25:22.131
240,-169.0,1124.0,-7.0,1136.6556206696907,2021-08-31 07:25:22.140
241,-264.0,1014.0,25.0,1048.1016172108505,2021-08-31 07:25:22.149
242,-345.0,897.0,-45.0,962.1117398722458,2021-08-31 07:25:22.159
243,-108.0,946.0,-119.0,959.5524998664742,2021-08-31 07:25:22.169
244,-37.0,1101.0,12.0,1101.6868883671077,2021-08-31 07:25:22.179
245,-179.0,1010.0,23.0,1025.9970760192252,2021-08-31 07:25:22.197
246,-311.0,1006.0,-41.0,1053.7732203847277,2021-08-31 07:25:22.200
247,-187.0,925.0,-13.0,943.8024157629604,2021-08-31 07:25:22.228
248,-229.0,1011.0,51.0,1037.8646347188055,2021-08-31 07:25:22.234
249,-229.0,1078.0,-80.0,1104.9547502047312,2021-08-31 07:25:22.236
250,-303.0,1078.0,-80.0,1122.6277210188605,2021-08-31 07:25:22.241
251,-303.0,895.0,-28.0,945.3137045446872,2021-08-31 07:25:22.242
252,-152.0,857.0,-10.0,870.4326510419976,2021-08-31 07:25:22.247
253,-360.0,908.0,91.0,980.9918450221694,2021-08-31 07:25:22.257
254,-148.0,832.0,91.0,849.9464689026009,2021-08-31 07:25:22.267
255,-148.0,832.0,-125.0,854.2558164859049,2021-08-31 07:25:22.268
256,-108.0,1054.0,-152.0,1070.3662924438531,2021-08-31 07:25:22.276
257,-261.0,1135.0,51.0,1165.7388215204985,2021-08-31 07:25:22.287
258,-336.0,922.0,119.0,988.5044258879168,2021-08-31 07:25:22.296
259,-103.0,936.0,-115.0,948.6464040937489,2021-08-31 07:25:22.309
260,-203.0,1040.0,-101.0,1064.429424621473,2021-08-31 07:25:22.316
261,-210.0,1040.0,-101.0,1065.7865639986271,2021-08-31 07:25:22.325
262,-210.0,1016.0,6.0,1037.4931325073917,2021-08-31 07:25:22.326
263,-10.0,1048.0,-23.0,1048.3000524658958,2021-08-31 07:25:22.335
264,-191.0,1048.0,-23.0,1065.5111449440592,2021-08-31 07:25:22.344
265,-191.0,931.0,-82.0,953.92138040826,2021-08-31 07:25:22.345
266,-222.0,988.0,-82.0,1015.9488176084462,2021-08-31 07:25:22.354
267,-222.0,988.0,-18.0,1012.794154801458,2021-08-31 07:25:22.355
268,-153.0,1049.0,19.0,1060.2693054125448,2021-08-31 07:25:22.364
269,-119.0,988.0,19.0,995.32205843134,2021-08-31 07:25:22.374
270,-119.0,988.0,-69.0,997.5299494250788,2021-08-31 07:25:22.375
271,-72.0,1135.0,-43.0,1138.094020720608,2021-08-31 07:25:22.384
272,-293.0,1032.0,-43.0,1073.64891840862,2021-08-31 07:25:22.393
273,-293.0,1032.0,76.0,1075.476173608695,2021-08-31 07:25:22.394
274,-353.0,841.0,11.0,912.1463698332632,2021-08-31 07:25:22.403
275,-151.0,973.0,-158.0,997.2432000269544,2021-08-31 07:25:22.413
276,-130.0,973.0,-158.0,994.2801416099992,2021-08-31 07:25:22.423
277,-130.0,1107.0,-128.0,1121.9327074294608,2021-08-31 07:25:22.424
278,-258.0,1107.0,-128.0,1143.8518260683943,2021-08-31 07:25:22.432
279,-258.0,1025.0,61.0,1058.730371718881,2021-08-31 07:25:22.433
280,-276.0,995.0,-15.0,1032.6790401668854,2021-08-31 07:25:22.443
281,-154.0,930.0,-67.0,945.0423270944004,2021-08-31 07:25:22.452
282,-44.0,949.0,-2.0,950.0215787022944,2021-08-31 07:25:22.462
283,-198.0,1111.0,-47.0,1129.4839529625908,2021-08-31 07:25:22.472
284,-221.0,974.0,-75.0,1001.5697679143476,2021-08-31 07:25:22.482
285,-99.0,960.0,-30.0,965.5573519993516,2021-08-31 07:25:22.491
286,-251.0,1018.0,-23.0,1048.739243091437,2021-08-31 07:25:22.501
287,-142.0,855.0,13.0,866.8090908614191,2021-08-31 07:25:22.512
288,-16.0,1010.0,13.0,1010.210374130062,2021-08-31 07:25:22.520
289,-16.0,1010.0,-98.0,1014.8694497323288,2021-08-31 07:25:22.521
290,-203.0,1081.0,9.0,1099.932270642152,2021-08-31 07:25:22.531
291,-343.0,925.0,108.0,992.440426423672,2021-08-31 07:25:22.540
292,-187.0,837.0,-107.0,864.2840968107652,2021-08-31 07:25:22.550
293,-91.0,837.0,-107.0,848.7043065756177,2021-08-31 07:25:22.559
294,-91.0,1026.0,-122.0,1037.2275545896375,2021-08-31 07:25:22.560
295,-281.0,1096.0,70.0,1133.612367610728,2021-08-31 07:25:22.569
296,-211.0,1045.0,61.0,1067.8328520887526,2021-08-31 07:25:22.580
297,-138.0,919.0,-89.0,933.55556877992,2021-08-31 07:25:22.589
298,-110.0,917.0,-73.0,926.4545320737548,2021-08-31 07:25:22.599
299,-131.0,1048.0,-73.0,1058.6755877038065,2021-08-31 07:25:22.608
300,-131.0,1048.0,-5.0,1056.1676003362345,2021-08-31 07:25:22.609
301,-45.0,1042.0,-50.0,1044.169047616333,2021-08-31 07:25:22.618
302,-148.0,988.0,-43.0,999.9484986738069,2021-08-31 07:25:22.628
303,-197.0,988.0,-43.0,1008.3660049803344,2021-08-31 07:25:22.638
304,-197.0,1023.0,40.0,1042.5631875334943,2021-08-31 07:25:22.639
305,-205.0,954.0,40.0,976.5966414031948,2021-08-31 07:25:22.647
306,-205.0,954.0,3.0,975.7817378901902,2021-08-31 07:25:22.648
307,-142.0,998.0,-150.0,1019.1506267475874,2021-08-31 07:25:22.657
308,-115.0,1021.0,-105.0,1032.8073392458052,2021-08-31 07:25:22.667
309,-261.0,1041.0,65.0,1075.1869604864078,2021-08-31 07:25:22.677
310,-262.0,863.0,65.0,904.233376955308,2021-08-31 07:25:22.687
311,-262.0,863.0,14.0,902.002771614367,2021-08-31 07:25:22.688
312,-137.0,945.0,-88.0,958.9254402715572,2021-08-31 07:25:22.696
313,-159.0,945.0,-88.0,962.3149172698094,2021-08-31 07:25:22.706
314,-159.0,982.0,-82.0,998.1628123708076,2021-08-31 07:25:22.707
315,-237.0,1011.0,116.0,1044.866498649469,2021-08-31 07:25:22.716
316,-221.0,1041.0,116.0,1070.50361979771,2021-08-31 07:25:22.725
317,-221.0,1041.0,-14.0,1064.2922530959247,2021-08-31 07:25:22.726
318,-131.0,899.0,-96.0,913.5524068163796,2021-08-31 07:25:22.736
319,-193.0,899.0,-96.0,924.4814762881948,2021-08-31 07:25:22.745
320,-193.0,1025.0,-57.0,1044.568331896004,2021-08-31 07:25:22.746
321,-137.0,914.0,35.0,924.8729642496857,2021-08-31 07:25:22.755
322,-129.0,914.0,35.0,923.7218195972204,2021-08-31 07:25:22.764
323,-129.0,954.0,-66.0,964.941967166938,2021-08-31 07:25:22.765
324,-150.0,1039.0,-93.0,1053.8832952466796,2021-08-31 07:25:22.774
325,-233.0,1002.0,0.0,1028.733687598496,2021-08-31 07:25:22.784
326,-155.0,1002.0,0.0,1013.9176495159752,2021-08-31 07:25:22.794
327,-155.0,919.0,-4.0,931.9881973501596,2021-08-31 07:25:22.795
328,-81.0,919.0,-4.0,922.5714064504708,2021-08-31 07:25:22.803
329,-81.0,1007.0,-101.0,1015.2886289129806,2021-08-31 07:25:22.804
330,-345.0,1091.0,3.0,1144.2530314576404,2021-08-31 07:25:22.813
331,-334.0,1010.0,79.0,1066.7225506194195,2021-08-31 07:25:22.823
332,-111.0,998.0,-67.0,1006.3866056342364,2021-08-31 07:25:22.833
333,-212.0,998.0,-67.0,1022.4661363585592,2021-08-31 07:25:22.843
334,-212.0,902.0,-68.0,929.0705032450444,2021-08-31 07:25:22.844
335,-214.0,1005.0,-68.0,1029.7791025263623,2021-08-31 07:25:22.852
336,-214.0,1005.0,28.0,1027.9129340561874,2021-08-31 07:25:22.853
337,-192.0,817.0,-45.0,840.4629676553275,2021-08-31 07:25:22.863
338,-105.0,1002.0,-56.0,1009.0416245130822,2021-08-31 07:25:22.872
339,-14.0,1164.0,-63.0,1165.787716524754,2021-08-31 07:25:22.882
340,-245.0,1017.0,-21.0,1046.30540474567,2021-08-31 07:25:22.892
341,-197.0,892.0,12.0,913.57375181208,2021-08-31 07:25:22.902
342,-46.0,1000.0,-108.0,1006.8664260963318,2021-08-31 07:25:22.911
343,-94.0,1118.0,-38.0,1122.5880811767065,2021-08-31 07:25:22.921
344,-153.0,1001.0,-37.0,1013.3010411521346,2021-08-31 07:25:22.931
345,-211.0,1001.0,-37.0,1023.665472700921,2021-08-31 07:25:22.940
346,-211.0,968.0,-46.0,991.7968541994878,2021-08-31 07:25:22.941
347,-187.0,968.0,-46.0,986.9696043951913,2021-08-31 07:25:22.950
348,-187.0,926.0,-77.0,947.8259333865052,2021-08-31 07:25:22.951
349,-151.0,1050.0,52.0,1062.0757976717105,2021-08-31 07:25:22.960
350,-293.0,1079.0,-64.0,1119.9044602107806,2021-08-31 07:25:22.970
351,-277.0,910.0,-64.0,953.3755818144284,2021-08-31 07:25:22.979
352,-277.0,910.0,-56.0,952.87197461149,2021-08-31 07:25:22.980
353,-276.0,1096.0,-13.0,1130.2924400348788,2021-08-31 07:25:22.990
354,-317.0,866.0,62.0,924.2775557158142,2021-08-31 07:25:22.999
355,-172.0,867.0,12.0,883.9779409012422,2021-08-31 07:25:23.009
356,-31.0,1122.0,-143.0,1131.5007733095017,2021-08-31 07:25:23.019
357,-254.0,1071.0,-11.0,1100.7624630227904,2021-08-31 07:25:23.028
358,-287.0,923.0,80.0,969.8958706995304,2021-08-31 07:25:23.038
359,-105.0,902.0,-144.0,919.4373279348624,2021-08-31 07:25:23.048
360,-121.0,1021.0,-144.0,1038.1801385116169,2021-08-31 07:25:23.058
361,-121.0,1021.0,-62.0,1030.0126212818948,2021-08-31 07:25:23.059
362,-155.0,1040.0,35.0,1052.0693893465393,2021-08-31 07:25:23.067
363,-87.0,1054.0,7.0,1057.6076777330998,2021-08-31 07:25:23.077
364,-197.0,955.0,-63.0,977.1402151175644,2021-08-31 07:25:23.087
365,-258.0,955.0,-63.0,991.2406367779724,2021-08-31 07:25:23.114
366,-258.0,985.0,-68.0,1020.496447813514,2021-08-31 07:25:23.115
367,-252.0,979.0,-44.0,1011.8700509452782,2021-08-31 07:25:23.118
368,-203.0,979.0,-44.0,1000.7926858245918,2021-08-31 07:25:23.127
369,-203.0,1119.0,-64.0,1139.0636505481157,2021-08-31 07:25:23.128
370,-332.0,876.0,69.0,939.3407262543236,2021-08-31 07:25:23.136
371,-294.0,832.0,34.0,883.0719110015899,2021-08-31 07:25:23.146
372,-32.0,1040.0,-49.0,1041.6453331148757,2021-08-31 07:25:23.155
373,-62.0,1114.0,-33.0,1116.2118974460002,2021-08-31 07:25:23.165
374,-237.0,1114.0,-33.0,1139.4094961865114,2021-08-31 07:25:23.175
375,-237.0,1025.0,80.0,1055.080091746593,2021-08-31 07:25:23.176
376,-274.0,1025.0,80.0,1064.0023496214658,2021-08-31 07:25:23.184
377,-274.0,890.0,-67.0,933.6300123710676,2021-08-31 07:25:23.185
378,-82.0,955.0,-71.0,961.1399481865272,2021-08-31 07:25:23.195
379,-76.0,1004.0,-10.0,1006.922042662688,2021-08-31 07:25:23.204
380,-148.0,1067.0,18.0,1077.3657689011657,2021-08-31 07:25:23.214
381,-62.0,995.0,-40.0,997.7319279245304,2021-08-31 07:25:23.225
382,-322.0,1124.0,-25.0,1169.4806539656822,2021-08-31 07:25:23.265
383,-123.0,1124.0,-25.0,1130.9862952308486,2021-08-31 07:25:23.268
384,-123.0,962.0,28.0,970.2355384132248,2021-08-31 07:25:23.269
385,-161.0,940.0,-24.0,953.9900418767484,2021-08-31 07:25:23.271
386,-161.0,1101.0,-141.0,1121.607328792033,2021-08-31 07:25:23.272
387,-291.0,1063.0,-36.0,1102.6994150719406,2021-08-31 07:25:23.275
388,-380.0,846.0,103.0,933.1264651696468,2021-08-31 07:25:23.282
389,-148.0,864.0,-47.0,877.8433801083198,2021-08-31 07:25:23.292
390,12.0,1083.0,-154.0,1093.9602369373397,2021-08-31 07:25:23.306
391,-205.0,1129.0,-154.0,1157.7486773907367,2021-08-31 07:25:23.311
392,-205.0,1129.0,102.0,1151.985242961037,2021-08-31 07:25:23.312
393,-300.0,919.0,97.0,971.58118549095,2021-08-31 07:25:23.321
394,-149.0,922.0,-99.0,939.1943355876888,2021-08-31 07:25:23.331
395,-106.0,1056.0,-25.0,1061.6011492081195,2021-08-31 07:25:23.341
396,-172.0,936.0,-55.0,953.2601953296906,2021-08-31 07:25:23.351
397,-223.0,954.0,-80.0,982.9776192772651,2021-08-31 07:25:23.360
398,-151.0,978.0,-103.0,994.9341686765008,2021-08-31 07:25:23.371
399,-121.0,1014.0,-30.0,1021.6344747511216,2021-08-31 07:25:23.380
400,-193.0,1014.0,-30.0,1032.6398210411992,2021-08-31 07:25:23.389
401,-193.0,924.0,-36.0,944.6274397877716,2021-08-31 07:25:23.390
402,-150.0,942.0,-89.0,958.010960271332,2021-08-31 07:25:23.400
403,-82.0,1100.0,-49.0,1104.1399367833772,2021-08-31 07:25:23.409
404,-389.0,996.0,68.0,1071.4294190472838,2021-08-31 07:25:23.419
405,-261.0,881.0,29.0,919.3057162881128,2021-08-31 07:25:23.429
406,-43.0,955.0,29.0,956.4073399969284,2021-08-31 07:25:23.438
407,-43.0,955.0,-156.0,968.6124095839368,2021-08-31 07:25:23.439
408,-105.0,1077.0,-67.0,1084.1784908399538,2021-08-31 07:25:23.449
409,-72.0,1077.0,-67.0,1081.4813914256686,2021-08-31 07:25:23.458
410,-72.0,925.0,-113.0,934.6539466561942,2021-08-31 07:25:23.459
411,-77.0,1003.0,-69.0,1008.3149309615524,2021-08-31 07:25:23.468
412,-199.0,1041.0,-69.0,1062.0936870163573,2021-08-31 07:25:23.477
413,-199.0,1041.0,25.0,1060.144801430446,2021-08-31 07:25:23.478
414,-221.0,999.0,-19.0,1023.3293702420546,2021-08-31 07:25:23.487
415,-141.0,905.0,-22.0,916.1822962707804,2021-08-31 07:25:23.500
416,-140.0,905.0,-22.0,916.028929674167,2021-08-31 07:25:23.507
417,-140.0,978.0,14.0,988.068823513828,2021-08-31 07:25:23.508
418,-210.0,978.0,14.0,1000.389923979645,2021-08-31 07:25:23.516
419,-210.0,1090.0,-41.0,1110.8019625477802,2021-08-31 07:25:23.517
420,-231.0,993.0,-38.0,1020.2225247464398,2021-08-31 07:25:23.527
421,-109.0,926.0,-24.0,932.701988847456,2021-08-31 07:25:23.536
422,-126.0,1083.0,-165.0,1102.7193659313325,2021-08-31 07:25:23.546
423,-222.0,1067.0,-14.0,1089.939906600359,2021-08-31 07:25:23.556
424,-277.0,939.0,151.0,990.581142562284,2021-08-31 07:25:23.567
425,-123.0,881.0,-92.0,894.2896622459638,2021-08-31 07:25:23.575
426,-153.0,974.0,117.0,992.861521059206,2021-08-31 07:25:23.605
427,-153.0,982.0,117.0,1000.7107474190532,2021-08-31 07:25:23.614
428,-153.0,982.0,-50.0,995.104517123704,2021-08-31 07:25:23.615
429,-135.0,920.0,-37.0,930.5879861678852,2021-08-31 07:25:23.639
430,-187.0,1020.0,4.0,1037.007714532539,2021-08-31 07:25:23.641
431,-210.0,908.0,-27.0,932.3588365001964,2021-08-31 07:25:23.644
432,-142.0,1004.0,-7.0,1014.0162720587872,2021-08-31 07:25:23.653
433,-198.0,1004.0,-7.0,1023.3616174158576,2021-08-31 07:25:23.663
434,-198.0,966.0,2.0,986.085189017663,2021-08-31 07:25:23.664
435,-255.0,964.0,33.0,997.7023604261944,2021-08-31 07:25:23.673
436,-178.0,964.0,33.0,980.851160982134,2021-08-31 07:25:23.682
437,-178.0,1017.0,-39.0,1033.1960123810002,2021-08-31 07:25:23.683
438,-75.0,1058.0,-87.0,1064.2170831179135,2021-08-31 07:25:23.692
439,-246.0,1085.0,34.0,1113.0575007608547,2021-08-31 07:25:23.702
440,-132.0,1110.0,-34.0,1118.3380526477672,2021-08-31 07:25:23.712
441,-240.0,1051.0,85.0,1081.400018494544,2021-08-31 07:25:23.723
442,-261.0,965.0,-45.0,1000.6852652057988,2021-08-31 07:25:23.732
443,-152.0,883.0,-132.0,905.6583240935844,2021-08-31 07:25:23.741
444,0.0,1038.0,-16.0,1038.123306741545,2021-08-31 07:25:23.751
445,-200.0,1105.0,27.0,1123.2782380158533,2021-08-31 07:25:23.761
446,-245.0,1020.0,-53.0,1050.3494656541698,2021-08-31 07:25:23.771
447,-149.0,892.0,-16.0,904.5004145936032,2021-08-31 07:25:23.780
448,-169.0,908.0,-1.0,923.594066676481,2021-08-31 07:25:23.790
449,-270.0,1086.0,-57.0,1120.5110441222791,2021-08-31 07:25:23.800
450,-341.0,906.0,-4.0,968.0563000156552,2021-08-31 07:25:23.810
451,-222.0,842.0,-4.0,870.7835551961233,2021-08-31 07:25:23.819
452,-222.0,842.0,64.0,873.1231299192572,2021-08-31 07:25:23.820
453,-38.0,842.0,64.0,845.2833844338833,2021-08-31 07:25:23.829
454,-38.0,1077.0,-125.0,1084.895386661774,2021-08-31 07:25:23.830
455,-197.0,860.0,-125.0,891.0858544495026,2021-08-31 07:25:23.839
456,-197.0,860.0,-103.0,888.2668517962381,2021-08-31 07:25:23.840
457,-73.0,1045.0,-132.0,1055.8304788175042,2021-08-31 07:25:23.849
458,-209.0,1105.0,-132.0,1132.3117945159804,2021-08-31 07:25:23.858
459,-209.0,1105.0,56.0,1125.9849022078404,2021-08-31 07:25:23.859
460,-219.0,982.0,95.0,1010.5988323761312,2021-08-31 07:25:23.869
461,-78.0,940.0,-126.0,951.6091634699616,2021-08-31 07:25:23.878
462,-141.0,936.0,-173.0,962.2400947788448,2021-08-31 07:25:23.888
463,-154.0,936.0,-173.0,964.2307815040962,2021-08-31 07:25:23.897
464,-154.0,982.0,-10.0,994.0523125067411,2021-08-31 07:25:23.898
465,-63.0,1135.0,-44.0,1137.5983473968306,2021-08-31 07:25:23.907
466,-231.0,965.0,-57.0,993.8988882175088,2021-08-31 07:25:23.917
467,-281.0,944.0,-13.0,985.0208119628742,2021-08-31 07:25:23.927
468,-194.0,1020.0,-13.0,1038.366505623135,2021-08-31 07:25:23.936
469,-194.0,1020.0,0.0,1038.2851246165478,2021-08-31 07:25:23.937
470,-254.0,1004.0,-2.0,1035.6331396783323,2021-08-31 07:25:23.946
471,-167.0,973.0,-6.0,987.2456634495792,2021-08-31 07:25:23.956
472,-234.0,1033.0,-12.0,1059.239821758982,2021-08-31 07:25:23.966
473,-320.0,915.0,-1.0,969.343076521414,2021-08-31 07:25:23.976
474,-219.0,934.0,-97.0,964.2230032518412,2021-08-31 07:25:23.985
475,-77.0,1093.0,-120.0,1102.2604048045996,2021-08-31 07:25:23.996
476,-147.0,1001.0,43.0,1012.6494951363971,2021-08-31 07:25:24.005
477,-220.0,1024.0,2.0,1047.3681301242652,2021-08-31 07:25:24.015
478,-158.0,963.0,-123.0,983.59646197005,2021-08-31 07:25:24.025
479,-43.0,983.0,-26.0,984.2834957470332,2021-08-31 07:25:24.034
480,-187.0,1142.0,9.0,1157.2441401882318,2021-08-31 07:25:24.044
481,-225.0,1006.0,-88.0,1034.6037888969863,2021-08-31 07:25:24.054
482,-170.0,854.0,-88.0,875.1914076360667,2021-08-31 07:25:24.063
483,-170.0,854.0,-25.0,871.1148029967118,2021-08-31 07:25:24.064
484,-263.0,1081.0,-11.0,1112.5875246469377,2021-08-31 07:25:24.074
485,-243.0,840.0,50.0,875.8704242066859,2021-08-31 07:25:24.083
486,-111.0,890.0,-86.0,901.008878979558,2021-08-31 07:25:24.093
487,-242.0,890.0,-86.0,926.315281100339,2021-08-31 07:25:24.102
488,-242.0,1031.0,-46.0,1060.0193394462196,2021-08-31 07:25:24.103
489,-252.0,1003.0,78.0,1037.109926671228,2021-08-31 07:25:24.112
490,-132.0,873.0,-27.0,883.3357232672072,2021-08-31 07:25:24.136
491,-132.0,963.0,-72.0,974.667635658433,2021-08-31 07:25:24.138
492,-238.0,1086.0,53.0,1113.0359383236464,2021-08-31 07:25:24.143
493,-192.0,1053.0,76.0,1073.055916529982,2021-08-31 07:25:24.151
494,-93.0,917.0,-106.0,927.7790685287096,2021-08-31 07:25:24.161
495,-68.0,879.0,-141.0,892.8303310260018,2021-08-31 07:25:24.171
496,-129.0,1037.0,29.0,1045.395140604738,2021-08-31 07:25:24.181
497,-63.0,1136.0,-17.0,1137.8725763458754,2021-08-31 07:25:24.192
498,-109.0,1001.0,-47.0,1008.0133927681716,2021-08-31 07:25:24.200
499,-152.0,1098.0,-21.0,1108.6699238276467,2021-08-31 07:25:24.210
500,-255.0,1006.0,17.0,1037.954719628944,2021-08-31 07:25:24.220
501,-320.0,959.0,-37.0,1011.6570565166834,2021-08-31 07:25:24.230
502,-227.0,957.0,-37.0,984.2494602487724,2021-08-31 07:25:24.243
503,-227.0,957.0,-110.0,989.6858087292148,2021-08-31 07:25:24.244
504,-141.0,1072.0,-29.0,1081.6219302510467,2021-08-31 07:25:24.249
505,-241.0,955.0,0.0,984.9395920562844,2021-08-31 07:25:24.259
506,-219.0,962.0,-64.0,988.6865023858676,2021-08-31 07:25:24.285
507,-218.0,993.0,-64.0,1018.6603948323504,2021-08-31 07:25:24.303
508,-218.0,993.0,-97.0,1021.2649019720592,2021-08-31 07:25:24.304
509,-214.0,993.0,-97.0,1020.4185415798754,2021-08-31 07:25:24.305
510,-214.0,963.0,118.0,993.523527652969,2021-08-31 07:25:24.306
511,-214.0,1013.0,3.0,1035.3617725220497,2021-08-31 07:25:24.307
512,-79.0,959.0,-148.0,973.5635572472912,2021-08-31 07:25:24.310
513,-104.0,945.0,-47.0,951.8665872904668,2021-08-31 07:25:24.317
514,-138.0,860.0,-29.0,871.4843658953383,2021-08-31 07:25:24.327
515,-75.0,967.0,-70.0,972.426861002924,2021-08-31 07:25:24.337
516,-51.0,1082.0,-136.0,1091.7055463814406,2021-08-31 07:25:24.348
517,-232.0,1090.0,-136.0,1122.68428331388,2021-08-31 07:25:24.356
518,-232.0,1090.0,2.0,1114.4182338781077,2021-08-31 07:25:24.357
519,-266.0,904.0,25.0,942.6542314125578,2021-08-31 07:25:24.366
520,-106.0,948.0,-40.0,954.746039530932,2021-08-31 07:25:24.376
521,-288.0,1062.0,-73.0,1102.7769493419785,2021-08-31 07:25:24.386
522,-347.0,1062.0,-73.0,1119.634761875497,2021-08-31 07:25:24.396
523,-347.0,978.0,15.0,1037.8429553646351,2021-08-31 07:25:24.397
524,-95.0,967.0,-36.0,972.3219631377252,2021-08-31 07:25:24.406
525,-66.0,1040.0,-91.0,1046.0578377890963,2021-08-31 07:25:24.415
526,-210.0,1086.0,9.0,1106.1541483898163,2021-08-31 07:25:24.427
527,-340.0,1086.0,9.0,1138.014499028901,2021-08-31 07:25:24.434
528,-340.0,976.0,106.0,1038.9475443928825,2021-08-31 07:25:24.435
529,-224.0,937.0,-37.0,964.1130639090004,2021-08-31 07:25:24.445
530,-156.0,1080.0,62.0,1092.9684350428424,2021-08-31 07:25:24.455
531,-154.0,936.0,-134.0,958.0020876803976,2021-08-31 07:25:24.464
532,-81.0,936.0,-134.0,949.006322423618,2021-08-31 07:25:24.473
533,-81.0,908.0,-53.0,913.1451144259602,2021-08-31 07:25:24.474
534,-59.0,1037.0,15.0,1038.7853483756885,2021-08-31 07:25:24.483
535,-83.0,1167.0,-54.0,1171.1934084513966,2021-08-31 07:25:24.493
536,-236.0,978.0,10.0,1006.1212650570508,2021-08-31 07:25:24.504
537,-281.0,978.0,10.0,1017.6173151042586,2021-08-31 07:25:24.512
538,-281.0,834.0,-50.0,881.4856777055428,2021-08-31 07:25:24.513
539,-176.0,961.0,-98.0,981.8864496468012,2021-08-31 07:25:24.522
540,-136.0,1057.0,-59.0,1067.345304950558,2021-08-31 07:25:24.532
541,-229.0,1026.0,-19.0,1051.4171389130006,2021-08-31 07:25:24.542
542,-173.0,981.0,-62.0,998.0651281354338,2021-08-31 07:25:24.553
543,-49.0,1072.0,-65.0,1075.0860430681817,2021-08-31 07:25:24.564
544,-104.0,983.0,-76.0,991.4035505282396,2021-08-31 07:25:24.571
545,-141.0,972.0,12.0,982.2469139681732,2021-08-31 07:25:24.581
546,-199.0,1072.0,97.0,1094.620482176357,2021-08-31 07:25:24.591
547,-231.0,1072.0,97.0,1100.8878235315349,2021-08-31 07:25:24.600
548,-231.0,951.0,-39.0,979.4299362384224,2021-08-31 07:25:24.601
549,-132.0,866.0,-93.0,880.9250819451107,2021-08-31 07:25:24.611
550,-115.0,930.0,-74.0,940.0005319147432,2021-08-31 07:25:24.620
551,-84.0,1055.0,29.0,1058.73603886899,2021-08-31 07:25:24.630
552,-247.0,1079.0,29.0,1107.2899349312263,2021-08-31 07:25:24.641
553,-247.0,1079.0,18.0,1107.0564574582454,2021-08-31 07:25:24.642
554,-276.0,874.0,18.0,916.720240858682,2021-08-31 07:25:24.649
555,-276.0,874.0,-23.0,916.8320456877584,2021-08-31 07:25:24.650
556,-153.0,929.0,29.0,941.9612518569965,2021-08-31 07:25:24.659
557,-151.0,1113.0,-83.0,1126.2588512415784,2021-08-31 07:25:24.669
558,-218.0,1002.0,-73.0,1028.0355052234331,2021-08-31 07:25:24.679
559,-293.0,1030.0,-73.0,1073.34896468949,2021-08-31 07:25:24.688
560,-293.0,1030.0,-102.0,1075.7104629034711,2021-08-31 07:25:24.689
561,-239.0,1030.0,-102.0,1062.273505270653,2021-08-31 07:25:24.699
562,-239.0,1048.0,14.0,1074.9981395332738,2021-08-31 07:25:24.700
563,-165.0,943.0,-20.0,957.5353779365022,2021-08-31 07:25:24.708
564,-54.0,1010.0,-129.0,1019.6357192644832,2021-08-31 07:25:24.718
565,-244.0,1010.0,-129.0,1047.0324732308927,2021-08-31 07:25:24.727
566,-244.0,1067.0,38.0,1095.2027209608275,2021-08-31 07:25:24.728
567,-261.0,974.0,68.0,1010.6537488180608,2021-08-31 07:25:24.737
568,-156.0,993.0,68.0,1007.4765505955958,2021-08-31 07:25:24.748
569,-156.0,993.0,-88.0,1009.0237856463048,2021-08-31 07:25:24.749
570,-183.0,982.0,-83.0,1002.3482428776936,2021-08-31 07:25:24.757
571,-213.0,986.0,-83.0,1012.1531504668648,2021-08-31 07:25:24.766
572,-213.0,986.0,-20.0,1008.9425157064202,2021-08-31 07:25:24.767
573,-183.0,1088.0,3.0,1103.2869073817562,2021-08-31 07:25:24.776
574,-234.0,908.0,-28.0,938.0852839694268,2021-08-31 07:25:24.786
575,-263.0,837.0,-3.0,877.35226676632,2021-08-31 07:25:24.797
576,-166.0,837.0,-3.0,853.3076819061223,2021-08-31 07:25:24.805
577,-166.0,1028.0,0.0,1041.3164744687372,2021-08-31 07:25:24.806
578,-268.0,858.0,-10.0,898.9371501946063,2021-08-31 07:25:24.815
579,-94.0,992.0,-70.0,998.8993943335836,2021-08-31 07:25:24.825
580,-220.0,1021.0,-30.0,1044.8641059965646,2021-08-31 07:25:24.835
581,-268.0,1031.0,-30.0,1065.6852255708532,2021-08-31 07:25:24.849
582,-268.0,1031.0,25.0,1065.5561927932283,2021-08-31 07:25:24.850
583,-134.0,977.0,-70.0,988.6278369538256,2021-08-31 07:25:24.855
584,-166.0,1025.0,-85.0,1041.8282008085594,2021-08-31 07:25:24.864
585,-210.0,1043.0,95.0,1068.1638451099157,2021-08-31 07:25:24.874
586,-245.0,936.0,-6.0,967.5520657825086,2021-08-31 07:25:24.884
587,-163.0,932.0,-141.0,956.5950031230562,2021-08-31 07:25:24.894
588,-54.0,1043.0,-58.0,1046.006214130681,2021-08-31 07:25:24.904
589,-231.0,1104.0,94.0,1131.8184483387784,2021-08-31 07:25:24.913
590,-292.0,1040.0,-30.0,1080.6312969741346,2021-08-31 07:25:24.923
591,-236.0,1040.0,-30.0,1066.8626903214863,2021-08-31 07:25:24.932
592,-236.0,846.0,-71.0,881.1657051883034,2021-08-31 07:25:24.933
593,-276.0,1049.0,-46.0,1085.6762869290276,2021-08-31 07:25:24.942
594,-183.0,931.0,37.0,949.5362025747096,2021-08-31 07:25:24.953
595,-176.0,998.0,-87.0,1017.1278189096982,2021-08-31 07:25:24.962
596,-219.0,998.0,-87.0,1025.4433187651086,2021-08-31 07:25:24.971
597,-219.0,992.0,-63.0,1017.8379045800956,2021-08-31 07:25:24.972
598,-219.0,955.0,65.0,981.942462672839,2021-08-31 07:25:24.981
599,-147.0,913.0,-64.0,926.970333937392,2021-08-31 07:25:24.991
600,-5.0,913.0,-64.0,915.2540630884956,2021-08-31 07:25:25.001
601,-5.0,1012.0,-118.0,1018.8684900417718,2021-08-31 07:25:25.002
602,-209.0,1154.0,-118.0,1178.694616938586,2021-08-31 07:25:25.011
603,-209.0,1154.0,9.0,1172.8077421299708,2021-08-31 07:25:25.012
604,-290.0,912.0,39.0,957.7917310146292,2021-08-31 07:25:25.020
605,-27.0,928.0,-67.0,930.807176594594,2021-08-31 07:25:25.030
606,-104.0,981.0,-173.0,1001.551795964642,2021-08-31 07:25:25.040
607,-195.0,1024.0,29.0,1042.8048714884296,2021-08-31 07:25:25.050
608,-214.0,1099.0,34.0,1120.157578200496,2021-08-31 07:25:25.060
609,-126.0,1051.0,47.0,1059.5687802120258,2021-08-31 07:25:25.069
610,-158.0,1048.0,-6.0,1059.8603681617687,2021-08-31 07:25:25.079
611,-300.0,878.0,-10.0,927.8922351221612,2021-08-31 07:25:25.089
612,-282.0,878.0,-10.0,922.229906259822,2021-08-31 07:25:25.098
613,-282.0,935.0,21.0,976.8264943171844,2021-08-31 07:25:25.099
614,-101.0,1004.0,-7.0,1009.0916707613832,2021-08-31 07:25:25.109
615,-128.0,1004.0,-7.0,1012.1506804819132,2021-08-31 07:25:25.118
616,-128.0,1076.0,-25.0,1083.8749927920655,2021-08-31 07:25:25.119
617,-178.0,977.0,17.0,993.228070485324,2021-08-31 07:25:25.128
618,-99.0,925.0,-43.0,931.2760063482792,2021-08-31 07:25:25.150
619,-99.0,1099.0,-94.0,1107.446612708712,2021-08-31 07:25:25.152
620,-201.0,975.0,13.0,995.5877660959882,2021-08-31 07:25:25.157
621,-185.0,898.0,21.0,917.098686074732,2021-08-31 07:25:25.167
622,-92.0,898.0,21.0,902.9446273166478,2021-08-31 07:25:25.176
623,-92.0,1012.0,-101.0,1021.1801995730234,2021-08-31 07:25:25.177
624,-5.0,1012.0,-101.0,1017.0398222291986,2021-08-31 07:25:25.186
625,-5.0,1053.0,-89.0,1056.7662939363652,2021-08-31 07:25:25.187
626,-87.0,902.0,-153.0,919.0114253914364,2021-08-31 07:25:25.196
627,-162.0,973.0,23.0,986.6620495387466,2021-08-31 07:25:25.207
628,-251.0,1108.0,46.0,1137.005277032609,2021-08-31 07:25:25.216
629,-317.0,966.0,-55.0,1018.169926878613,2021-08-31 07:25:25.227
630,-273.0,818.0,-60.0,864.4379676992445,2021-08-31 07:25:25.235
631,-143.0,936.0,-80.0,950.2341816626048,2021-08-31 07:25:25.250
632,-161.0,1050.0,-80.0,1065.2797754580718,2021-08-31 07:25:25.255
633,-161.0,1050.0,-14.0,1062.363873632759,2021-08-31 07:25:25.256
634,-214.0,1024.0,63.0,1048.017652523086,2021-08-31 07:25:25.265
635,-183.0,876.0,6.0,894.9307235758531,2021-08-31 07:25:25.274
636,-143.0,876.0,6.0,887.6153446172503,2021-08-31 07:25:25.284
637,-143.0,934.0,11.0,944.9476175958116,2021-08-31 07:25:25.285
638,-187.0,934.0,11.0,952.5996010916654,2021-08-31 07:25:25.299
639,-187.0,1101.0,-67.0,1118.775670096557,2021-08-31 07:25:25.300
640,-265.0,956.0,-3.0,992.0534259806776,2021-08-31 07:25:25.309
641,-180.0,849.0,4.0,867.8807521773945,2021-08-31 07:25:25.323
642,-199.0,1010.0,82.0,1032.6785559892294,2021-08-31 07:25:25.335
643,-92.0,901.0,-122.0,913.8648696607174,2021-08-31 07:25:25.339
644,0.0,901.0,-122.0,909.2221950656506,2021-08-31 07:25:25.342
645,0.0,1006.0,-130.0,1014.3648258885952,2021-08-31 07:25:25.343
646,-183.0,1152.0,-130.0,1173.6664773265018,2021-08-31 07:25:25.352
647,-183.0,1152.0,72.0,1168.6646225500283,2021-08-31 07:25:25.353
648,-400.0,935.0,89.0,1020.8555235683452,2021-08-31 07:25:25.362
649,-222.0,935.0,89.0,965.1062117715336,2021-08-31 07:25:25.372
650,-222.0,935.0,-95.0,965.6780001636156,2021-08-31 07:25:25.373
651,-263.0,1005.0,-74.0,1041.4749156844823,2021-08-31 07:25:25.383
652,-267.0,1005.0,-74.0,1042.4922062058786,2021-08-31 07:25:25.391
653,-267.0,1005.0,13.0,1039.9437484787338,2021-08-31 07:25:25.392
654,-71.0,1145.0,-30.0,1147.5913906961832,2021-08-31 07:25:25.401
655,-214.0,936.0,-15.0,960.2692330799732,2021-08-31 07:25:25.411
656,-266.0,899.0,-58.0,939.3194344843504,2021-08-31 07:25:25.423
657,-154.0,1032.0,-37.0,1044.0828511186264,2021-08-31 07:25:25.431
658,-168.0,1008.0,0.0,1021.9041050901008,2021-08-31 07:25:25.440
659,-44.0,1079.0,-77.0,1082.638443802916,2021-08-31 07:25:25.450
660,-234.0,1016.0,17.0,1042.737263168436,2021-08-31 07:25:25.460
661,-235.0,917.0,42.0,947.5642458429928,2021-08-31 07:25:25.470
662,48.0,932.0,42.0,934.1798542036752,2021-08-31 07:25:25.479
663,48.0,932.0,-164.0,947.5357513044032,2021-08-31 07:25:25.480
664,-123.0,1156.0,-164.0,1174.036200464023,2021-08-31 07:25:25.490
665,-123.0,1156.0,-92.0,1166.1599375728872,2021-08-31 07:25:25.491
666,-286.0,1006.0,77.0,1048.6949032011169,2021-08-31 07:25:25.499
667,-315.0,894.0,13.0,947.9609696606713,2021-08-31 07:25:25.509
668,-160.0,878.0,13.0,892.5542000349335,2021-08-31 07:25:25.518
669,-160.0,878.0,-133.0,902.3153550727152,2021-08-31 07:25:25.519
670,-71.0,1002.0,-56.0,1006.0720650132376,2021-08-31 07:25:25.528
671,-250.0,1078.0,24.0,1106.8694593311354,2021-08-31 07:25:25.539
672,-211.0,1054.0,-27.0,1075.251598464285,2021-08-31 07:25:25.548
673,-103.0,984.0,-27.0,989.7444114517648,2021-08-31 07:25:25.557
674,-103.0,984.0,-44.0,990.353977121312,2021-08-31 07:25:25.558
675,-169.0,994.0,6.0,1008.2822025603743,2021-08-31 07:25:25.568
676,-187.0,994.0,6.0,1011.4548927164276,2021-08-31 07:25:25.577
677,-187.0,894.0,41.0,914.268013221506,2021-08-31 07:25:25.578
678,-52.0,1037.0,-95.0,1042.6399186679937,2021-08-31 07:25:25.587
679,-173.0,994.0,-77.0,1011.8764746746511,2021-08-31 07:25:25.597
680,-270.0,923.0,63.0,963.741666630638,2021-08-31 07:25:25.606
681,-104.0,878.0,-82.0,887.9324298616422,2021-08-31 07:25:25.616
682,35.0,1135.0,-122.0,1142.0744283977292,2021-08-31 07:25:25.628
683,-262.0,1106.0,64.0,1138.4094166862817,2021-08-31 07:25:25.636
684,-309.0,951.0,75.0,1002.7497195212773,2021-08-31 07:25:25.645
685,-176.0,951.0,75.0,970.0525758947296,2021-08-31 07:25:25.655
686,-176.0,918.0,-117.0,942.0132695456048,2021-08-31 07:25:25.656
687,-138.0,1014.0,-161.0,1035.9348435109227,2021-08-31 07:25:25.665
688,-154.0,984.0,-16.0,996.1064200174598,2021-08-31 07:25:25.675
689,-91.0,1071.0,45.0,1075.800632087563,2021-08-31 07:25:25.686
690,-132.0,992.0,-84.0,1004.2629137830392,2021-08-31 07:25:25.694
691,-154.0,1025.0,-11.0,1036.562588558935,2021-08-31 07:25:25.704
692,-191.0,979.0,-28.0,997.8506902337645,2021-08-31 07:25:25.714
693,-225.0,979.0,-28.0,1004.9129315517838,2021-08-31 07:25:25.723
694,-225.0,1048.0,5.0,1071.892718512445,2021-08-31 07:25:25.724
695,-97.0,1007.0,-57.0,1013.2655130813444,2021-08-31 07:25:25.734
696,-192.0,1087.0,28.0,1104.181597383329,2021-08-31 07:25:25.743
697,-313.0,865.0,0.0,919.8880366653324,2021-08-31 07:25:25.753
698,-73.0,865.0,0.0,868.0748815626449,2021-08-31 07:25:25.762
699,-73.0,992.0,-120.0,1001.8947050463936,2021-08-31 07:25:25.763
700,-138.0,1119.0,-104.0,1132.2636618738588,2021-08-31 07:25:25.772
701,-315.0,1119.0,-104.0,1167.1340968372058,2021-08-31 07:25:25.782
702,-315.0,968.0,127.0,1025.854765549198,2021-08-31 07:25:25.783
703,-325.0,891.0,72.0,951.1519331841786,2021-08-31 07:25:25.793
704,-83.0,993.0,-120.0,1003.6622938020536,2021-08-31 07:25:25.802
705,-98.0,1007.0,1.0,1011.7578761739392,2021-08-31 07:25:25.811
706,-122.0,875.0,-68.0,886.0773103967847,2021-08-31 07:25:25.821
707,-200.0,1004.0,15.0,1023.8364127144532,2021-08-31 07:25:25.832
708,-186.0,1143.0,-32.0,1158.47701746733,2021-08-31 07:25:25.841
709,-231.0,1006.0,-32.0,1032.6766192763348,2021-08-31 07:25:25.850
710,-231.0,1006.0,-8.0,1032.2117030919578,2021-08-31 07:25:25.851
711,-223.0,935.0,3.0,961.2299412731586,2021-08-31 07:25:25.860
712,-55.0,961.0,-94.0,967.1514876171158,2021-08-31 07:25:25.870
713,-205.0,1078.0,-2.0,1097.320828199301,2021-08-31 07:25:25.880
714,-321.0,957.0,52.0,1010.7393333594968,2021-08-31 07:25:25.891
715,-146.0,946.0,-39.0,957.9942588554484,2021-08-31 07:25:25.899
716,-149.0,1058.0,-98.0,1072.925440093579,2021-08-31 07:25:25.909
717,-301.0,1041.0,-34.0,1084.176184944126,2021-08-31 07:25:25.919
718,-328.0,1041.0,-34.0,1091.980311177816,2021-08-31 07:25:25.928
719,-328.0,918.0,80.0,978.1145127233314,2021-08-31 07:25:25.929
720,-205.0,864.0,-90.0,892.5362737726686,2021-08-31 07:25:25.940
721,-156.0,1050.0,31.0,1061.977871709199,2021-08-31 07:25:25.948
722,-198.0,969.0,-139.0,998.742208980876,2021-08-31 07:25:25.958
723,-133.0,877.0,-42.0,888.021396138629,2021-08-31 07:25:25.968
724,1.0,1058.0,-42.0,1058.8337924339212,2021-08-31 07:25:25.977
725,1.0,1058.0,19.0,1058.1710636754342,2021-08-31 07:25:25.978
726,-104.0,1034.0,-77.0,1042.0657368899526,2021-08-31 07:25:25.988
727,-255.0,992.0,-77.0,1027.1406914342358,2021-08-31 07:25:25.997
728,-255.0,992.0,-5.0,1024.2626616254252,2021-08-31 07:25:25.998
729,-200.0,926.0,-89.0,951.5235152112635,2021-08-31 07:25:26.007
730,-128.0,961.0,-89.0,973.5635572472912,2021-08-31 07:25:26.016
731,-128.0,961.0,-84.0,973.1192116077044,2021-08-31 07:25:26.017
732,-95.0,1052.0,-15.0,1056.3872396048714,2021-08-31 07:25:26.026
733,-229.0,898.0,-22.0,927.0,2021-08-31 07:25:26.036
734,-213.0,945.0,-22.0,968.9571713961355,2021-08-31 07:25:26.047
735,-213.0,945.0,-128.0,977.1274226015764,2021-08-31 07:25:26.048
736,-106.0,945.0,-128.0,959.502475244332,2021-08-31 07:25:26.055
737,-106.0,1132.0,-107.0,1141.9759191856892,2021-08-31 07:25:26.056
738,-98.0,910.0,-133.0,924.8745860926226,2021-08-31 07:25:26.065
739,-158.0,941.0,8.0,954.2059526119086,2021-08-31 07:25:26.075
740,-232.0,1135.0,25.0,1158.738106735081,2021-08-31 07:25:26.085
741,-246.0,1036.0,-60.0,1066.495194550824,2021-08-31 07:25:26.096
742,-107.0,858.0,-26.0,865.0369934286048,2021-08-31 07:25:26.104
743,-41.0,997.0,-63.0,999.8294854623962,2021-08-31 07:25:26.114
744,-65.0,1046.0,-95.0,1052.3145917452632,2021-08-31 07:25:26.124
745,-154.0,1054.0,3.0,1065.195287259571,2021-08-31 07:25:26.134
746,-174.0,968.0,-55.0,985.0507601134066,2021-08-31 07:25:26.160
747,-171.0,1138.0,-28.0,1151.1164146166973,2021-08-31 07:25:26.164
748,-244.0,936.0,0.0,967.2807245055594,2021-08-31 07:25:26.173
749,-267.0,936.0,0.0,973.3370433719248,2021-08-31 07:25:26.182
750,-267.0,950.0,-19.0,986.9903748264215,2021-08-31 07:25:26.183
751,-265.0,1005.0,75.0,1042.053261594627,2021-08-31 07:25:26.192
752,-161.0,881.0,-70.0,898.3217686330439,2021-08-31 07:25:26.202
753,-158.0,869.0,-83.0,887.1380952253149,2021-08-31 07:25:26.213
754,-198.0,982.0,-96.0,1006.351827145954,2021-08-31 07:25:26.227
755,-233.0,1092.0,30.0,1116.983885291099,2021-08-31 07:25:26.231
756,-292.0,935.0,-16.0,979.6657593281496,2021-08-31 07:25:26.242
757,-195.0,934.0,34.0,954.7444684312132,2021-08-31 07:25:26.251
758,-87.0,995.0,-62.0,1000.7187417051806,2021-08-31 07:25:26.262
759,-91.0,1156.0,-62.0,1161.232534852516,2021-08-31 07:25:26.270
760,-91.0,1156.0,-37.0,1160.166367380127,2021-08-31 07:25:26.271
761,-215.0,975.0,34.0,999.002502499368,2021-08-31 07:25:26.280
762,-226.0,850.0,34.0,880.1886161499705,2021-08-31 07:25:26.290
763,-226.0,850.0,-39.0,880.3959336571245,2021-08-31 07:25:26.291
764,-161.0,999.0,-77.0,1014.8157468230378,2021-08-31 07:25:26.300
765,-284.0,994.0,-61.0,1035.573754012721,2021-08-31 07:25:26.319
766,-78.0,994.0,-94.0,1001.4769093693574,2021-08-31 07:25:26.321
767,-246.0,1003.0,84.0,1036.1375391327158,2021-08-31 07:25:26.330
768,-277.0,1042.0,16.0,1078.3083974448127,2021-08-31 07:25:26.339
769,-259.0,921.0,-52.0,958.1367334571823,2021-08-31 07:25:26.365
770,-259.0,935.0,-38.0,970.9531399609356,2021-08-31 07:25:26.366
771,-65.0,1090.0,-134.0,1100.1277198580171,2021-08-31 07:25:26.368
772,-272.0,1092.0,-30.0,1125.7655173258772,2021-08-31 07:25:26.378
773,-316.0,843.0,87.0,904.4744330272692,2021-08-31 07:25:26.388
774,-41.0,887.0,-118.0,895.7533142556605,2021-08-31 07:25:26.403
775,-29.0,1144.0,-112.0,1149.8352055838263,2021-08-31 07:25:26.407
776,-156.0,909.0,-89.0,926.573256682924,2021-08-31 07:25:26.417
777,-101.0,1075.0,-82.0,1082.8434789940789,2021-08-31 07:25:26.427
778,-161.0,1075.0,-82.0,1090.0779788620628,2021-08-31 07:25:26.437
779,-161.0,1008.0,29.0,1021.1885232414238,2021-08-31 07:25:26.438
780,-83.0,1040.0,45.0,1044.2767832332577,2021-08-31 07:25:26.446
781,-249.0,943.0,-73.0,978.0485673012358,2021-08-31 07:25:26.456
782,-201.0,888.0,-39.0,911.299072752738,2021-08-31 07:25:26.466
783,-131.0,888.0,-39.0,898.4575671671979,2021-08-31 07:25:26.475
784,-131.0,1125.0,-69.0,1134.7012822765294,2021-08-31 07:25:26.476
785,-305.0,1125.0,-69.0,1167.6519173109766,2021-08-31 07:25:26.486
786,-305.0,949.0,-3.0,996.8124196658064,2021-08-31 07:25:26.487
787,-323.0,898.0,115.0,961.2273404351334,2021-08-31 07:25:26.495
788,-40.0,1018.0,-136.0,1027.8229419506065,2021-08-31 07:25:26.505
789,-145.0,1102.0,-107.0,1116.6369150265452,2021-08-31 07:25:26.515
790,-272.0,1053.0,132.0,1095.5441570288256,2021-08-31 07:25:26.524
791,-110.0,1112.0,-56.0,1118.8297457611682,2021-08-31 07:25:26.535
792,-278.0,986.0,48.0,1025.5652100183586,2021-08-31 07:25:26.544
793,-243.0,986.0,48.0,1016.6361197596708,2021-08-31 07:25:26.553
794,-243.0,1003.0,-41.0,1032.8305766194185,2021-08-31 07:25:26.554
795,-203.0,897.0,-79.0,923.0704198488868,2021-08-31 07:25:26.563
796,-40.0,887.0,-18.0,888.0838924335922,2021-08-31 07:25:26.573
797,-132.0,1134.0,-18.0,1141.798581186717,2021-08-31 07:25:26.583
798,-132.0,1134.0,-59.0,1143.1802132647329,2021-08-31 07:25:26.584
799,-213.0,1021.0,-36.0,1043.6024147154892,2021-08-31 07:25:26.594
800,-130.0,934.0,-36.0,943.6906272714592,2021-08-31 07:25:26.602
801,-130.0,934.0,12.0,943.0800602281864,2021-08-31 07:25:26.603
802,-146.0,1064.0,-92.0,1077.903520729012,2021-08-31 07:25:26.612
803,-244.0,963.0,-95.0,997.9629251630544,2021-08-31 07:25:26.622
804,-332.0,972.0,98.0,1031.8003682883625,2021-08-31 07:25:26.632
805,-178.0,897.0,-73.0,917.3995857858232,2021-08-31 07:25:26.643
806,-351.0,963.0,77.0,1027.8613719758127,2021-08-31 07:25:26.651
807,-171.0,926.0,-80.0,945.0486759950516,2021-08-31 07:25:26.661
808,-176.0,952.0,-18.0,968.2995404315752,2021-08-31 07:25:26.671
809,-117.0,1031.0,43.0,1038.5080644848167,2021-08-31 07:25:26.681
810,-81.0,1159.0,-38.0,1162.4482784193024,2021-08-31 07:25:26.691
811,-230.0,977.0,-53.0,1005.105964562941,2021-08-31 07:25:26.701
812,-202.0,840.0,-54.0,865.6327165721037,2021-08-31 07:25:26.710
813,-112.0,840.0,-54.0,849.1525186914304,2021-08-31 07:25:26.719
814,-112.0,1013.0,-36.0,1019.808315322051,2021-08-31 07:25:26.720
815,-115.0,985.0,-36.0,992.3436904621302,2021-08-31 07:25:26.729
816,-115.0,985.0,-25.0,992.005544339345,2021-08-31 07:25:26.730
