,Acceleration_X,Acceleration_Y,Acceleration_Z,magnitude,time_stamp
0,-169.0,850.0,11.0,866.707563137648,2021-08-31 07:26:12.423
1,-169.0,850.0,-23.0,866.942904694421,2021-08-31 07:26:12.424
2,-51.0,954.0,-52.0,956.7763584035716,2021-08-31 07:26:12.433
3,-69.0,954.0,-52.0,957.9044837560788,2021-08-31 07:26:12.442
4,-69.0,1134.0,-94.0,1139.9793857785323,2021-08-31 07:26:12.443
5,-298.0,976.0,2.0,1020.482238943922,2021-08-31 07:26:12.452
6,-230.0,1001.0,-44.0,1028.0257778869166,2021-08-31 07:26:12.462
7,-210.0,1002.0,-47.0,1024.8477935771732,2021-08-31 07:26:12.473
8,-240.0,938.0,-129.0,976.7727473675748,2021-08-31 07:26:12.482
9,-211.0,973.0,-129.0,1003.9377470739906,2021-08-31 07:26:12.491
10,-211.0,973.0,-54.0,997.078733099849,2021-08-31 07:26:12.492
11,-198.0,1057.0,-36.0,1075.98745345845,2021-08-31 07:26:12.501
12,-244.0,1072.0,-99.0,1103.8663868421756,2021-08-31 07:26:12.511
13,-414.0,915.0,-12.0,1004.3729387035476,2021-08-31 07:26:12.522
14,-333.0,812.0,-12.0,877.7112281382756,2021-08-31 07:26:12.530
15,-333.0,812.0,20.0,877.8570498663207,2021-08-31 07:26:12.531
16,-63.0,1128.0,-122.0,1136.326097561787,2021-08-31 07:26:12.540
17,-264.0,1196.0,10.0,1224.8314169713317,2021-08-31 07:26:12.550
18,-381.0,868.0,37.0,948.6590536119918,2021-08-31 07:26:12.560
19,-185.0,793.0,-47.0,815.6488214912101,2021-08-31 07:26:12.570
20,-98.0,1003.0,-117.0,1014.5452183121264,2021-08-31 07:26:12.579
21,-7.0,932.0,-111.0,938.6128062199024,2021-08-31 07:26:12.590
22,-22.0,986.0,-214.0,1009.19571937261,2021-08-31 07:26:12.599
23,-97.0,1084.0,14.0,1088.4213338592735,2021-08-31 07:26:12.609
24,-6.0,1037.0,14.0,1037.1118551053207,2021-08-31 07:26:12.618
25,-6.0,1037.0,-51.0,1038.2706776173543,2021-08-31 07:26:12.619
26,-129.0,1037.0,-51.0,1046.23658892241,2021-08-31 07:26:12.629
27,-129.0,963.0,-100.0,976.7343548785412,2021-08-31 07:26:12.630
28,-243.0,1007.0,15.0,1036.0130308060802,2021-08-31 07:26:12.638
29,-136.0,1070.0,8.0,1078.638030110194,2021-08-31 07:26:12.674
30,-136.0,1070.0,8.0,1078.638030110194,2021-08-31 07:26:12.676
31,-136.0,1074.0,-11.0,1082.6324399351795,2021-08-31 07:26:12.677
32,-271.0,968.0,-113.0,1011.5502953387934,2021-08-31 07:26:12.701
33,-158.0,1109.0,81.0,1123.1233235936293,2021-08-31 07:26:12.706
34,-66.0,1069.0,-92.0,1074.9795346889168,2021-08-31 07:26:12.709
35,-250.0,969.0,95.0,1005.2293270692016,2021-08-31 07:26:12.716
36,-265.0,949.0,60.0,987.1301839169948,2021-08-31 07:26:12.726
37,-53.0,901.0,60.0,904.5496116852852,2021-08-31 07:26:12.737
38,-53.0,901.0,-98.0,907.8623243642176,2021-08-31 07:26:12.738
39,53.0,1029.0,6.0,1030.3814827528686,2021-08-31 07:26:12.745
40,-135.0,1143.0,-25.0,1151.2163132965063,2021-08-31 07:26:12.755
41,-170.0,1022.0,-35.0,1036.6334935742718,2021-08-31 07:26:12.765
42,-181.0,1022.0,-35.0,1038.4941020535457,2021-08-31 07:26:12.774
43,-181.0,994.0,16.0,1010.471672042319,2021-08-31 07:26:12.775
44,-51.0,979.0,-75.0,983.1922497660364,2021-08-31 07:26:12.786
45,-115.0,1107.0,-52.0,1114.1714410269185,2021-08-31 07:26:12.794
46,-291.0,1042.0,34.0,1082.405192153105,2021-08-31 07:26:12.804
47,-183.0,881.0,18.0,899.9855554396415,2021-08-31 07:26:12.814
48,-473.0,928.0,18.0,1041.7470902287178,2021-08-31 07:26:12.823
49,-473.0,928.0,89.0,1045.3870096763208,2021-08-31 07:26:12.824
50,-259.0,815.0,40.0,856.099293306565,2021-08-31 07:26:12.834
51,-108.0,988.0,40.0,994.6899014265704,2021-08-31 07:26:12.843
52,-108.0,988.0,-132.0,1002.6125871940768,2021-08-31 07:26:12.844
53,-271.0,1108.0,11.0,1140.7129349665497,2021-08-31 07:26:12.853
54,-368.0,1027.0,11.0,1090.9967919292887,2021-08-31 07:26:12.862
55,-368.0,1027.0,129.0,1098.5417606991552,2021-08-31 07:26:12.863
56,-241.0,805.0,-112.0,847.7322690566875,2021-08-31 07:26:12.872
57,-126.0,845.0,-82.0,858.2686059736777,2021-08-31 07:26:12.882
58,-158.0,1084.0,59.0,1097.0419317419005,2021-08-31 07:26:12.893
59,-39.0,1074.0,10.0,1074.7543905469752,2021-08-31 07:26:12.904
60,-236.0,969.0,-69.0,999.7089576471744,2021-08-31 07:26:12.911
61,-264.0,876.0,-53.0,916.4502168694162,2021-08-31 07:26:12.921
62,-222.0,987.0,17.0,1011.801363904991,2021-08-31 07:26:12.931
63,-85.0,987.0,17.0,990.7991723856052,2021-08-31 07:26:12.941
64,-85.0,1086.0,-39.0,1090.0192658847825,2021-08-31 07:26:12.942
65,-275.0,974.0,-76.0,1014.9270909774752,2021-08-31 07:26:12.950
66,-174.0,1066.0,24.0,1080.374009313441,2021-08-31 07:26:12.960
67,-296.0,916.0,20.0,962.8457820440406,2021-08-31 07:26:12.970
68,-205.0,958.0,-80.0,982.9491339840532,2021-08-31 07:26:12.980
69,-104.0,956.0,-80.0,964.9621754245086,2021-08-31 07:26:12.990
70,-104.0,956.0,-73.0,964.407071728531,2021-08-31 07:26:12.991
71,-339.0,1098.0,116.0,1154.9809522238884,2021-08-31 07:26:13.000
72,-290.0,1061.0,-27.0,1100.2499715973638,2021-08-31 07:26:13.009
73,-259.0,838.0,-120.0,885.2824408063226,2021-08-31 07:26:13.019
74,-204.0,838.0,-120.0,870.7812584110891,2021-08-31 07:26:13.028
75,-204.0,806.0,-21.0,831.6808282027426,2021-08-31 07:26:13.029
76,-106.0,1021.0,-104.0,1031.7427004830226,2021-08-31 07:26:13.039
77,-272.0,1021.0,-104.0,1061.7160637383236,2021-08-31 07:26:13.048
78,-272.0,1113.0,-2.0,1145.756082244384,2021-08-31 07:26:13.049
79,-281.0,924.0,-4.0,965.7913853415756,2021-08-31 07:26:13.058
80,-201.0,924.0,-4.0,945.617787480756,2021-08-31 07:26:13.067
81,-201.0,914.0,-74.0,938.7614180397488,2021-08-31 07:26:13.068
82,-191.0,939.0,-1.0,958.2290957803358,2021-08-31 07:26:13.077
83,-259.0,939.0,-1.0,974.0651928900858,2021-08-31 07:26:13.118
84,-259.0,1001.0,-95.0,1038.3193150471584,2021-08-31 07:26:13.119
85,-259.0,1085.0,-79.0,1118.2785878304207,2021-08-31 07:26:13.121
86,-55.0,950.0,-61.0,953.543916136011,2021-08-31 07:26:13.123
87,-36.0,950.0,-61.0,952.6368668070746,2021-08-31 07:26:13.126
88,-36.0,845.0,-115.0,853.5490612729885,2021-08-31 07:26:13.127
89,-156.0,1091.0,95.0,1106.1835290764368,2021-08-31 07:26:13.136
90,-172.0,1152.0,62.0,1166.4184497854965,2021-08-31 07:26:13.146
91,-294.0,949.0,62.0,995.4300578142092,2021-08-31 07:26:13.155
92,-294.0,949.0,-14.0,993.5959943558548,2021-08-31 07:26:13.156
93,-287.0,874.0,-54.0,921.4993217577536,2021-08-31 07:26:13.166
94,-231.0,1022.0,-93.0,1051.900185378822,2021-08-31 07:26:13.175
95,-185.0,1062.0,-56.0,1079.446617485089,2021-08-31 07:26:13.185
96,-79.0,969.0,-56.0,973.8264732486996,2021-08-31 07:26:13.194
97,-79.0,969.0,-67.0,974.5209079337396,2021-08-31 07:26:13.195
98,-40.0,1108.0,-49.0,1109.8040367560393,2021-08-31 07:26:13.204
99,-74.0,1027.0,-49.0,1030.8278226745726,2021-08-31 07:26:13.214
100,-74.0,1027.0,-20.0,1029.8567861600952,2021-08-31 07:26:13.215
101,-214.0,1046.0,-78.0,1070.5120270225832,2021-08-31 07:26:13.227
102,-150.0,961.0,-39.0,973.417690408388,2021-08-31 07:26:13.234
103,-12.0,1019.0,61.0,1020.8947056381476,2021-08-31 07:26:13.243
104,-171.0,1110.0,-39.0,1123.7713290523122,2021-08-31 07:26:13.253
105,-135.0,904.0,-48.0,915.2841088973412,2021-08-31 07:26:13.263
106,-11.0,959.0,-18.0,959.23198445423,2021-08-31 07:26:13.273
107,-19.0,1120.0,-18.0,1120.3057618346877,2021-08-31 07:26:13.282
108,-19.0,1120.0,-99.0,1124.527456312206,2021-08-31 07:26:13.283
109,-127.0,1094.0,-52.0,1102.5738070532966,2021-08-31 07:26:13.292
110,-267.0,930.0,77.0,970.6276319990072,2021-08-31 07:26:13.302
111,-277.0,1133.0,77.0,1168.908465193062,2021-08-31 07:26:13.312
112,-277.0,1133.0,4.0,1166.376440091277,2021-08-31 07:26:13.313
113,-343.0,883.0,75.0,950.2436529648592,2021-08-31 07:26:13.330
114,-194.0,881.0,75.0,905.2193104436074,2021-08-31 07:26:13.332
115,-194.0,881.0,-102.0,907.8551646600904,2021-08-31 07:26:13.333
116,-181.0,881.0,-102.0,905.1662830662664,2021-08-31 07:26:13.341
117,-181.0,939.0,-73.0,959.0677765413662,2021-08-31 07:26:13.342
118,-219.0,1028.0,59.0,1052.7231354919488,2021-08-31 07:26:13.352
119,-159.0,1028.0,59.0,1041.8953882228293,2021-08-31 07:26:13.360
120,-159.0,1079.0,32.0,1091.1214414537,2021-08-31 07:26:13.361
121,-227.0,946.0,-45.0,973.8942447719876,2021-08-31 07:26:13.370
122,-174.0,970.0,-65.0,987.623916275826,2021-08-31 07:26:13.380
123,-141.0,1061.0,3.0,1070.3321914246997,2021-08-31 07:26:13.390
124,-40.0,1048.0,-23.0,1049.0152525106582,2021-08-31 07:26:13.400
125,-185.0,975.0,-13.0,992.4812340795164,2021-08-31 07:26:13.409
126,-340.0,975.0,-13.0,1032.6635463692903,2021-08-31 07:26:13.428
127,-340.0,1049.0,150.0,1112.8795981596572,2021-08-31 07:26:13.429
128,-328.0,933.0,0.0,988.9757327659764,2021-08-31 07:26:13.431
129,-202.0,901.0,-202.0,945.203152766642,2021-08-31 07:26:13.439
130,-191.0,1017.0,-202.0,1054.31209800514,2021-08-31 07:26:13.448
131,-191.0,1017.0,-71.0,1037.2130928599,2021-08-31 07:26:13.449
132,-185.0,1106.0,-27.0,1121.6906882024118,2021-08-31 07:26:13.458
133,-260.0,1034.0,-44.0,1067.09512228292,2021-08-31 07:26:13.468
134,-254.0,836.0,-41.0,874.6959471725017,2021-08-31 07:26:13.478
135,-162.0,865.0,4.0,880.0482941293619,2021-08-31 07:26:13.488
136,-263.0,1051.0,-20.0,1083.5912513489577,2021-08-31 07:26:13.499
137,-290.0,1006.0,-16.0,1047.087388903142,2021-08-31 07:26:13.507
138,-230.0,974.0,40.0,1001.5867411262992,2021-08-31 07:26:13.517
139,-166.0,974.0,40.0,988.8538820270668,2021-08-31 07:26:13.526
140,-166.0,964.0,-64.0,980.2795519646425,2021-08-31 07:26:13.527
141,-55.0,1005.0,2.0,1006.5058370421904,2021-08-31 07:26:13.536
142,-5.0,1039.0,-154.0,1050.3627944667498,2021-08-31 07:26:13.547
143,-140.0,1046.0,13.0,1055.4075042371076,2021-08-31 07:26:13.556
144,-252.0,1045.0,121.0,1081.7439623127093,2021-08-31 07:26:13.566
145,-160.0,877.0,-50.0,892.8768112119387,2021-08-31 07:26:13.575
146,-159.0,877.0,-50.0,892.6981572737786,2021-08-31 07:26:13.585
147,-159.0,912.0,-61.0,927.763978606628,2021-08-31 07:26:13.586
148,-206.0,1058.0,-61.0,1079.5929788582362,2021-08-31 07:26:13.595
149,-206.0,1058.0,-43.0,1078.7256370365917,2021-08-31 07:26:13.596
150,-204.0,1058.0,-43.0,1078.345491945879,2021-08-31 07:26:13.605
151,-204.0,1091.0,-68.0,1111.9896582252911,2021-08-31 07:26:13.606
152,-235.0,1091.0,-68.0,1118.0921250058066,2021-08-31 07:26:13.614
153,-235.0,1042.0,-11.0,1068.2275038586115,2021-08-31 07:26:13.615
154,-335.0,815.0,-44.0,882.2618658879006,2021-08-31 07:26:13.624
155,-277.0,975.0,-63.0,1015.5407426588064,2021-08-31 07:26:13.634
156,-261.0,978.0,-69.0,1014.5767590478308,2021-08-31 07:26:13.644
157,-186.0,953.0,-69.0,973.4300180290312,2021-08-31 07:26:13.655
158,-186.0,953.0,-33.0,971.542073201156,2021-08-31 07:26:13.656
159,-40.0,1040.0,22.0,1041.0014409211929,2021-08-31 07:26:13.663
160,-209.0,1078.0,-63.0,1099.8790842633566,2021-08-31 07:26:13.675
161,-101.0,906.0,-67.0,914.071113207282,2021-08-31 07:26:13.683
162,-27.0,955.0,-21.0,955.6123691120788,2021-08-31 07:26:13.693
163,-69.0,1154.0,-16.0,1156.1717000515105,2021-08-31 07:26:13.703
164,-117.0,1070.0,-48.0,1077.447446514214,2021-08-31 07:26:13.712
165,-286.0,870.0,28.0,916.2314118169056,2021-08-31 07:26:13.722
166,-100.0,833.0,-7.0,839.0101310472955,2021-08-31 07:26:13.732
167,29.0,1149.0,-7.0,1149.387228048059,2021-08-31 07:26:13.741
168,29.0,1149.0,-140.0,1157.860958837459,2021-08-31 07:26:13.742
169,-356.0,1194.0,9.0,1245.974718844648,2021-08-31 07:26:13.752
170,-101.0,961.0,-123.0,974.0898315863892,2021-08-31 07:26:13.762
171,-168.0,1037.0,90.0,1054.3685313968735,2021-08-31 07:26:13.771
172,-160.0,1058.0,90.0,1073.808176538063,2021-08-31 07:26:13.780
173,-160.0,1058.0,87.0,1073.560897201458,2021-08-31 07:26:13.781
174,-236.0,902.0,-54.0,933.9250505260044,2021-08-31 07:26:13.790
175,-243.0,902.0,-76.0,937.2454321040996,2021-08-31 07:26:13.800
176,-163.0,995.0,-76.0,1011.1231379016108,2021-08-31 07:26:13.811
177,-163.0,995.0,41.0,1009.096130207623,2021-08-31 07:26:13.812
178,-39.0,1073.0,-12.0,1073.775581767438,2021-08-31 07:26:13.820
179,-122.0,1018.0,-30.0,1025.7231595318494,2021-08-31 07:26:13.829
180,-72.0,1003.0,-47.0,1006.6786974998528,2021-08-31 07:26:13.839
181,27.0,1129.0,-64.0,1131.1348283913817,2021-08-31 07:26:13.849
182,-149.0,1129.0,-64.0,1140.586691137504,2021-08-31 07:26:13.859
183,-149.0,1117.0,79.0,1129.6596832674877,2021-08-31 07:26:13.860
184,-151.0,877.0,79.0,893.4041638586648,2021-08-31 07:26:13.868
185,-151.0,877.0,9.0,889.9499985954267,2021-08-31 07:26:13.869
186,-195.0,877.0,9.0,898.4625757370197,2021-08-31 07:26:13.878
187,-195.0,1108.0,57.0,1126.4714821068485,2021-08-31 07:26:13.879
188,-313.0,939.0,-21.0,990.0156564418564,2021-08-31 07:26:13.888
189,-285.0,855.0,-79.0,904.7049242708918,2021-08-31 07:26:13.898
190,-160.0,826.0,-21.0,841.6157080283139,2021-08-31 07:26:13.908
191,-230.0,826.0,-21.0,857.6811761954439,2021-08-31 07:26:13.918
192,-230.0,1099.0,-10.0,1122.85395310343,2021-08-31 07:26:13.919
193,-294.0,1052.0,-12.0,1092.3753933515711,2021-08-31 07:26:13.927
194,-272.0,925.0,76.0,967.1530385621502,2021-08-31 07:26:13.937
195,-236.0,925.0,76.0,957.6518156407368,2021-08-31 07:26:13.946
196,-236.0,909.0,-8.0,939.1703785788816,2021-08-31 07:26:13.947
197,-174.0,984.0,-41.0,1000.1064943294788,2021-08-31 07:26:13.956
198,-209.0,971.0,40.0,994.0432586160424,2021-08-31 07:26:13.967
199,-113.0,930.0,25.0,937.1734097807088,2021-08-31 07:26:13.976
200,-75.0,992.0,-161.0,1007.7747764257648,2021-08-31 07:26:13.986
201,-41.0,910.0,-161.0,925.0416206852532,2021-08-31 07:26:13.995
202,-41.0,910.0,-71.0,913.6859416670478,2021-08-31 07:26:13.996
203,-39.0,983.0,-111.0,990.0156564418564,2021-08-31 07:26:14.005
204,-281.0,983.0,-111.0,1028.3827108620603,2021-08-31 07:26:14.015
205,-281.0,1097.0,25.0,1132.6936920456474,2021-08-31 07:26:14.016
206,-276.0,1069.0,44.0,1104.9312195788475,2021-08-31 07:26:14.025
207,-138.0,1070.0,-32.0,1079.3368334306024,2021-08-31 07:26:14.034
208,-272.0,807.0,-105.0,858.0547768062363,2021-08-31 07:26:14.044
209,-264.0,1033.0,-101.0,1070.9743227547522,2021-08-31 07:26:14.054
210,-225.0,1103.0,-67.0,1127.7069654834984,2021-08-31 07:26:14.064
211,-386.0,935.0,-67.0,1013.7603267044929,2021-08-31 07:26:14.075
212,-386.0,935.0,74.0,1014.247011334024,2021-08-31 07:26:14.076
213,-265.0,924.0,9.0,961.2918391414752,2021-08-31 07:26:14.083
214,-183.0,977.0,-24.0,994.2806444862535,2021-08-31 07:26:14.093
215,-148.0,982.0,24.0,993.3800883851056,2021-08-31 07:26:14.103
216,-159.0,982.0,24.0,995.078388871952,2021-08-31 07:26:14.112
217,-159.0,1003.0,-42.0,1016.3926406659978,2021-08-31 07:26:14.113
218,-117.0,1003.0,-42.0,1010.6740325149352,2021-08-31 07:26:14.150
219,-117.0,1094.0,42.0,1101.039962944125,2021-08-31 07:26:14.151
220,-117.0,1041.0,-49.0,1048.699671021213,2021-08-31 07:26:14.152
221,-101.0,854.0,-60.0,862.0423423475206,2021-08-31 07:26:14.155
222,35.0,1105.0,-65.0,1107.4633176769332,2021-08-31 07:26:14.161
223,-235.0,1192.0,-65.0,1216.681552420353,2021-08-31 07:26:14.172
224,-235.0,1192.0,-17.0,1215.062961331634,2021-08-31 07:26:14.173
225,-333.0,830.0,69.0,896.9671119946372,2021-08-31 07:26:14.181
226,-58.0,917.0,-64.0,921.058630055655,2021-08-31 07:26:14.191
227,-224.0,1089.0,-64.0,1113.6395287524597,2021-08-31 07:26:14.200
228,-224.0,1089.0,-179.0,1126.1163350204986,2021-08-31 07:26:14.201
229,-337.0,1009.0,-10.0,1063.8373935898287,2021-08-31 07:26:14.210
230,-324.0,927.0,76.0,984.9269008408696,2021-08-31 07:26:14.221
231,-261.0,983.0,31.0,1017.5318176843416,2021-08-31 07:26:14.230
232,-84.0,983.0,31.0,987.0693997890928,2021-08-31 07:26:14.239
233,-84.0,1017.0,3.0,1020.4675399051164,2021-08-31 07:26:14.240
234,-122.0,969.0,-87.0,980.517210455788,2021-08-31 07:26:14.249
235,-136.0,1018.0,36.0,1027.6750459167529,2021-08-31 07:26:14.260
236,-102.0,1101.0,-12.0,1105.779815333957,2021-08-31 07:26:14.269
237,-95.0,1054.0,-12.0,1058.3406823891823,2021-08-31 07:26:14.280
238,-95.0,1054.0,-50.0,1059.4531608334555,2021-08-31 07:26:14.281
239,-186.0,817.0,-27.0,838.3400264809023,2021-08-31 07:26:14.288
240,-32.0,955.0,-145.0,966.475038477456,2021-08-31 07:26:14.298
241,4.0,1100.0,-110.0,1105.4935549337229,2021-08-31 07:26:14.308
242,-169.0,1001.0,62.0,1017.0575204972432,2021-08-31 07:26:14.318
243,-282.0,933.0,1.0,974.6866163029016,2021-08-31 07:26:14.329
244,-126.0,977.0,-122.0,992.6172474826336,2021-08-31 07:26:14.345
245,-327.0,1014.0,-122.0,1072.384725739788,2021-08-31 07:26:14.347
246,-327.0,1014.0,-25.0,1065.715721944647,2021-08-31 07:26:14.348
247,-257.0,886.0,-37.0,923.2626928453244,2021-08-31 07:26:14.357
248,-225.0,890.0,-37.0,918.7458843445232,2021-08-31 07:26:14.367
249,-225.0,890.0,39.0,918.8286020798438,2021-08-31 07:26:14.368
250,-230.0,1045.0,-24.0,1070.2808042752145,2021-08-31 07:26:14.376
251,-278.0,977.0,-40.0,1016.5692303035736,2021-08-31 07:26:14.386
252,-98.0,925.0,19.0,930.370893783764,2021-08-31 07:26:14.396
253,-35.0,961.0,19.0,961.824828126203,2021-08-31 07:26:14.405
254,-35.0,961.0,-112.0,968.1373869446422,2021-08-31 07:26:14.406
255,-143.0,1057.0,17.0,1066.764735075171,2021-08-31 07:26:14.415
256,-213.0,919.0,131.0,952.4132506428078,2021-08-31 07:26:14.427
257,6.0,911.0,-36.0,911.7307716645304,2021-08-31 07:26:14.435
258,60.0,1104.0,-163.0,1117.5799747669068,2021-08-31 07:26:14.459
259,-199.0,1123.0,-39.0,1141.1621269565512,2021-08-31 07:26:14.462
260,-168.0,940.0,-151.0,966.7600529604024,2021-08-31 07:26:14.464
261,-307.0,1029.0,-31.0,1074.2676575230216,2021-08-31 07:26:14.474
262,-351.0,1097.0,-27.0,1152.10199201286,2021-08-31 07:26:14.484
263,-366.0,905.0,-27.0,976.5807698291012,2021-08-31 07:26:14.494
264,-366.0,905.0,-25.0,976.5275213735658,2021-08-31 07:26:14.495
265,-291.0,859.0,-25.0,907.296533664711,2021-08-31 07:26:14.503
266,-162.0,981.0,-22.0,994.5295370173778,2021-08-31 07:26:14.513
267,-183.0,1031.0,-21.0,1047.3256418134715,2021-08-31 07:26:14.523
268,-246.0,1027.0,-21.0,1056.2603845643364,2021-08-31 07:26:14.532
269,-246.0,1027.0,10.0,1056.0989536970485,2021-08-31 07:26:14.533
270,-298.0,937.0,-18.0,983.4109008954496,2021-08-31 07:26:14.542
271,-224.0,878.0,-45.0,907.2403209734453,2021-08-31 07:26:14.554
272,-150.0,936.0,-15.0,948.06170685246,2021-08-31 07:26:14.563
273,-152.0,910.0,-15.0,922.729104342114,2021-08-31 07:26:14.571
274,-152.0,910.0,54.0,924.1861284395044,2021-08-31 07:26:14.572
275,-6.0,994.0,4.0,994.0261565975012,2021-08-31 07:26:14.581
276,-125.0,1111.0,-113.0,1123.7059223836102,2021-08-31 07:26:14.591
277,-236.0,893.0,-75.0,926.69844070226,2021-08-31 07:26:14.602
278,34.0,893.0,-75.0,896.7887153616508,2021-08-31 07:26:14.610
279,34.0,941.0,28.0,942.0302542912304,2021-08-31 07:26:14.611
280,-138.0,1157.0,-107.0,1170.1034142331182,2021-08-31 07:26:14.620
281,-316.0,1088.0,-65.0,1134.8237748655074,2021-08-31 07:26:14.630
282,-415.0,881.0,100.0,978.9719097093644,2021-08-31 07:26:14.640
283,-208.0,881.0,100.0,910.7277309931876,2021-08-31 07:26:14.650
284,-208.0,867.0,-90.0,896.1322447049877,2021-08-31 07:26:14.651
285,-133.0,1075.0,-90.0,1086.9287005135157,2021-08-31 07:26:14.659
286,-133.0,1075.0,-192.0,1100.0809061155458,2021-08-31 07:26:14.660
287,-308.0,1112.0,45.0,1154.7436945054085,2021-08-31 07:26:14.669
288,-309.0,916.0,72.0,969.3920775413836,2021-08-31 07:26:14.679
289,-212.0,1019.0,-79.0,1043.8132016793045,2021-08-31 07:26:14.689
290,13.0,1086.0,-26.0,1086.388972698085,2021-08-31 07:26:14.699
291,-161.0,1086.0,-26.0,1098.177125968302,2021-08-31 07:26:14.709
292,-161.0,1029.0,-32.0,1042.0105565684064,2021-08-31 07:26:14.710
293,-159.0,996.0,-46.0,1009.6598437097516,2021-08-31 07:26:14.718
294,-74.0,1088.0,-55.0,1091.8997206703552,2021-08-31 07:26:14.728
295,-66.0,1088.0,-55.0,1091.386732556338,2021-08-31 07:26:14.737
296,-66.0,1014.0,-63.0,1018.0967537518228,2021-08-31 07:26:14.738
297,-180.0,889.0,-13.0,907.1328458390204,2021-08-31 07:26:14.747
298,-19.0,1047.0,-124.0,1054.4885015968644,2021-08-31 07:26:14.758
299,58.0,1128.0,-37.0,1130.0960136200815,2021-08-31 07:26:14.767
300,-393.0,1019.0,-37.0,1092.7849742744452,2021-08-31 07:26:14.776
301,-393.0,1019.0,52.0,1093.395628306607,2021-08-31 07:26:14.777
302,-308.0,909.0,-70.0,962.3123193641449,2021-08-31 07:26:14.786
303,-139.0,951.0,-87.0,965.0341962852924,2021-08-31 07:26:14.796
304,-20.0,951.0,-87.0,955.180611193506,2021-08-31 07:26:14.806
305,-20.0,1053.0,14.0,1053.2829629306648,2021-08-31 07:26:14.807
306,-196.0,876.0,-29.0,898.1274965170591,2021-08-31 07:26:14.816
307,-71.0,924.0,-29.0,927.177437171548,2021-08-31 07:26:14.825
308,-71.0,924.0,-59.0,928.6000215377986,2021-08-31 07:26:14.826
309,-110.0,1010.0,21.0,1016.1894508407375,2021-08-31 07:26:14.835
310,-232.0,1010.0,21.0,1036.5157982394674,2021-08-31 07:26:14.845
311,-232.0,952.0,21.0,980.0862206969344,2021-08-31 07:26:14.847
312,-232.0,952.0,89.0,983.8948114508988,2021-08-31 07:26:14.848
313,-65.0,910.0,-3.0,912.3234075699252,2021-08-31 07:26:14.855
314,48.0,1080.0,-3.0,1081.0703029868132,2021-08-31 07:26:14.866
315,48.0,1080.0,-103.0,1085.9617856996626,2021-08-31 07:26:14.867
316,-179.0,1142.0,-26.0,1156.235702614307,2021-08-31 07:26:14.874
317,-308.0,870.0,115.0,930.0478482314768,2021-08-31 07:26:14.884
318,-56.0,951.0,-77.0,955.7541524890174,2021-08-31 07:26:14.894
319,-37.0,951.0,-77.0,954.8293041167096,2021-08-31 07:26:14.903
320,-37.0,1044.0,-214.0,1066.3493798938507,2021-08-31 07:26:14.904
321,-137.0,1089.0,54.0,1098.911279403392,2021-08-31 07:26:14.914
322,-65.0,1103.0,34.0,1105.4365653442082,2021-08-31 07:26:14.923
323,-273.0,983.0,30.0,1020.6458739445332,2021-08-31 07:26:14.933
324,-253.0,983.0,30.0,1015.4791972266098,2021-08-31 07:26:14.942
325,-253.0,1028.0,-27.0,1059.0193577078749,2021-08-31 07:26:14.943
326,-322.0,1010.0,-1.0,1060.0872605592428,2021-08-31 07:26:14.952
327,-309.0,929.0,12.0,979.1149064333564,2021-08-31 07:26:14.963
328,-211.0,922.0,-61.0,947.8006119432504,2021-08-31 07:26:14.973
329,-133.0,967.0,-30.0,976.5643859981788,2021-08-31 07:26:14.982
330,-194.0,919.0,-30.0,939.7324087206954,2021-08-31 07:26:14.991
331,-194.0,919.0,46.0,940.379178842237,2021-08-31 07:26:14.992
332,-226.0,943.0,-70.0,972.226825385928,2021-08-31 07:26:15.001
333,-145.0,985.0,-33.0,996.162135397647,2021-08-31 07:26:15.011
334,-168.0,1018.0,119.0,1038.6091661448015,2021-08-31 07:26:15.022
335,-243.0,1018.0,119.0,1053.3441982562017,2021-08-31 07:26:15.030
336,-243.0,1057.0,19.0,1084.73913914821,2021-08-31 07:26:15.031
337,-159.0,883.0,-87.0,901.4094519140566,2021-08-31 07:26:15.040
338,-244.0,1069.0,-81.0,1099.480786553362,2021-08-31 07:26:15.050
339,-317.0,920.0,50.0,974.3659476808496,2021-08-31 07:26:15.060
340,-223.0,920.0,50.0,947.9604422126484,2021-08-31 07:26:15.070
341,-223.0,874.0,-35.0,902.6793450611352,2021-08-31 07:26:15.071
342,-89.0,1101.0,-182.0,1119.4847028878955,2021-08-31 07:26:15.079
343,-354.0,1127.0,-30.0,1181.6704278266425,2021-08-31 07:26:15.089
344,-412.0,843.0,106.0,944.2610867763216,2021-08-31 07:26:15.099
345,-139.0,1002.0,-67.0,1013.8116195822575,2021-08-31 07:26:15.109
346,-240.0,1033.0,-92.0,1064.4965946399266,2021-08-31 07:26:15.119
347,-306.0,992.0,-92.0,1042.1919209051662,2021-08-31 07:26:15.129
348,-306.0,992.0,-30.0,1038.5566907973778,2021-08-31 07:26:15.130
349,-168.0,962.0,-11.0,976.6212162348309,2021-08-31 07:26:15.138
350,-225.0,953.0,-50.0,980.4764148106776,2021-08-31 07:26:15.148
351,-15.0,1007.0,-14.0,1007.2090150509972,2021-08-31 07:26:15.183
352,-15.0,1005.0,-61.0,1006.9612703575048,2021-08-31 07:26:15.185
353,16.0,1150.0,-64.0,1151.8906198072802,2021-08-31 07:26:15.187
354,-334.0,1150.0,-64.0,1199.2297527996875,2021-08-31 07:26:15.196
355,-334.0,959.0,58.0,1017.1533807641796,2021-08-31 07:26:15.197
356,-306.0,876.0,41.0,928.812682945275,2021-08-31 07:26:15.206
357,-35.0,1006.0,-145.0,1016.9985250726768,2021-08-31 07:26:15.216
358,-64.0,1118.0,-58.0,1121.3313515638454,2021-08-31 07:26:15.226
359,-158.0,1118.0,-58.0,1130.598071818628,2021-08-31 07:26:15.236
360,-158.0,1028.0,69.0,1042.3574243031994,2021-08-31 07:26:15.237
361,-337.0,958.0,-34.0,1016.1146588845178,2021-08-31 07:26:15.245
362,-221.0,855.0,-98.0,888.5212434151476,2021-08-31 07:26:15.255
363,-31.0,1035.0,-6.0,1035.4815304968022,2021-08-31 07:26:15.266
364,-247.0,1056.0,-44.0,1085.3943983640231,2021-08-31 07:26:15.275
365,-65.0,953.0,-5.0,955.2271981052464,2021-08-31 07:26:15.285
366,-164.0,1071.0,-39.0,1084.1854084980114,2021-08-31 07:26:15.294
367,-233.0,1006.0,61.0,1034.4302779791396,2021-08-31 07:26:15.304
368,-11.0,939.0,61.0,941.0435696608314,2021-08-31 07:26:15.314
369,-11.0,939.0,0.0,939.0644280346264,2021-08-31 07:26:15.315
370,-5.0,1125.0,0.0,1125.011111056242,2021-08-31 07:26:15.323
371,-5.0,1125.0,-207.0,1143.896411393969,2021-08-31 07:26:15.324
372,-236.0,1064.0,-19.0,1090.0243116554786,2021-08-31 07:26:15.334
373,-318.0,900.0,137.0,964.3095975878286,2021-08-31 07:26:15.343
374,-108.0,871.0,-142.0,889.0832356984356,2021-08-31 07:26:15.360
375,-67.0,1080.0,-81.0,1085.103681682078,2021-08-31 07:26:15.363
376,-127.0,1139.0,62.0,1147.7342898075322,2021-08-31 07:26:15.372
377,-69.0,1009.0,62.0,1013.2551504927078,2021-08-31 07:26:15.382
378,-69.0,1009.0,-15.0,1011.4677454076328,2021-08-31 07:26:15.383
379,-61.0,944.0,-91.0,950.3357301501402,2021-08-31 07:26:15.392
380,-124.0,1048.0,7.0,1055.3335965466083,2021-08-31 07:26:15.403
381,-200.0,942.0,40.0,963.827785447172,2021-08-31 07:26:15.411
382,-347.0,924.0,40.0,987.818303130692,2021-08-31 07:26:15.424
383,-347.0,924.0,-55.0,988.5393264812484,2021-08-31 07:26:15.425
384,-103.0,973.0,-82.0,981.8665897157312,2021-08-31 07:26:15.431
385,-260.0,1010.0,84.0,1046.3058826175068,2021-08-31 07:26:15.441
386,-196.0,995.0,84.0,1017.5937303265974,2021-08-31 07:26:15.450
387,-196.0,995.0,101.0,1019.1378709477927,2021-08-31 07:26:15.451
388,-74.0,986.0,-137.0,998.2189138660918,2021-08-31 07:26:15.460
389,-166.0,980.0,-96.0,998.5849988859236,2021-08-31 07:26:15.479
390,-287.0,1063.0,-96.0,1105.239340595511,2021-08-31 07:26:15.482
391,-287.0,1063.0,38.0,1101.71774969817,2021-08-31 07:26:15.483
392,-345.0,943.0,-26.0,1004.4650317457548,2021-08-31 07:26:15.491
393,-217.0,915.0,-110.0,946.791423704292,2021-08-31 07:26:15.499
394,-115.0,934.0,-9.0,941.0961693684658,2021-08-31 07:26:15.509
395,-226.0,816.0,35.0,847.4414434047936,2021-08-31 07:26:15.519
396,-33.0,816.0,35.0,817.416662418867,2021-08-31 07:26:15.528
397,-33.0,925.0,-4.0,925.5971045762838,2021-08-31 07:26:15.529
398,-102.0,1131.0,-4.0,1135.597199714758,2021-08-31 07:26:15.539
399,-102.0,1131.0,-77.0,1138.1976981175108,2021-08-31 07:26:15.540
400,-115.0,1049.0,46.0,1056.286892846825,2021-08-31 07:26:15.548
401,-87.0,963.0,46.0,968.0154957437406,2021-08-31 07:26:15.558
402,-147.0,963.0,46.0,975.2404831629992,2021-08-31 07:26:15.567
403,-147.0,918.0,-60.0,931.6292180905448,2021-08-31 07:26:15.568
