,Acceleration_X,Acceleration_Y,Acceleration_Z,magnitude,time_stamp
0,-234.0,969.0,30.0,997.3048681321072,2021-08-31 10:43:00.200
1,-234.0,933.0,-20.0,962.1044641825544,2021-08-31 10:43:00.201
2,26.0,1031.0,-81.0,1034.5037457641224,2021-08-31 10:43:00.211
3,-225.0,1107.0,78.0,1132.3241585341186,2021-08-31 10:43:00.222
4,-220.0,934.0,-9.0,959.6025218808046,2021-08-31 10:43:00.230
5,-288.0,1090.0,28.0,1127.7535191698582,2021-08-31 10:43:00.240
6,-242.0,1024.0,28.0,1052.579688194675,2021-08-31 10:43:00.249
7,-242.0,1024.0,-40.0,1052.9672359575106,2021-08-31 10:43:00.250
8,-220.0,809.0,-7.0,838.4092079647027,2021-08-31 10:43:00.259
9,-38.0,929.0,36.0,930.473535357132,2021-08-31 10:43:00.270
10,-214.0,1037.0,-65.0,1060.844003612218,2021-08-31 10:43:00.280
11,-221.0,1061.0,39.0,1084.4736050268812,2021-08-31 10:43:00.289
12,-230.0,891.0,52.0,921.6751054465992,2021-08-31 10:43:00.298
13,-154.0,941.0,52.0,954.9350763271816,2021-08-31 10:43:00.310
14,-154.0,941.0,18.0,953.6881041514569,2021-08-31 10:43:00.311
15,-134.0,1043.0,52.0,1052.857540220898,2021-08-31 10:43:00.319
16,-226.0,883.0,52.0,912.9452338448348,2021-08-31 10:43:00.329
17,-226.0,883.0,4.0,911.4718865658996,2021-08-31 10:43:00.330
18,-102.0,874.0,44.0,881.0312139759862,2021-08-31 10:43:00.338
19,66.0,980.0,-127.0,990.3963852922728,2021-08-31 10:43:00.348
20,-161.0,1046.0,26.0,1058.63733166746,2021-08-31 10:43:00.357
21,-122.0,1046.0,26.0,1053.4116004677371,2021-08-31 10:43:00.367
22,-122.0,1040.0,-163.0,1059.7419497217236,2021-08-31 10:43:00.368
23,-270.0,1058.0,76.0,1094.55013590059,2021-08-31 10:43:00.378
24,-373.0,1049.0,90.0,1116.9735896609195,2021-08-31 10:43:00.386
25,-186.0,1076.0,-118.0,1098.3150731916594,2021-08-31 10:43:00.396
26,-267.0,1076.0,-118.0,1114.8941653807324,2021-08-31 10:43:00.405
27,-267.0,966.0,-72.0,1004.8029657599544,2021-08-31 10:43:00.406
28,-176.0,899.0,4.0,916.0747786070742,2021-08-31 10:43:00.416
29,-147.0,1128.0,-53.0,1138.7721457780744,2021-08-31 10:43:00.426
30,-282.0,936.0,-17.0,977.7059885262032,2021-08-31 10:43:00.436
31,-275.0,862.0,9.0,904.8480535426928,2021-08-31 10:43:00.445
32,-88.0,862.0,9.0,866.5269759216962,2021-08-31 10:43:00.454
33,-88.0,989.0,-23.0,993.1737008197508,2021-08-31 10:43:00.455
34,-246.0,981.0,14.0,1011.4707113901025,2021-08-31 10:43:00.482
35,-246.0,995.0,0.0,1024.9590235711864,2021-08-31 10:43:00.483
36,-190.0,1051.0,49.0,1069.1594829584592,2021-08-31 10:43:00.486
37,-249.0,1051.0,49.0,1081.2044210046497,2021-08-31 10:43:00.493
38,-249.0,945.0,-18.0,977.4200734586948,2021-08-31 10:43:00.494
39,51.0,963.0,-149.0,975.7924984339652,2021-08-31 10:43:00.504
40,-144.0,1138.0,-149.0,1156.7112863631962,2021-08-31 10:43:00.514
41,-144.0,1138.0,-102.0,1151.6006252169195,2021-08-31 10:43:00.515
42,-197.0,984.0,0.0,1003.5262826652822,2021-08-31 10:43:00.523
43,-236.0,937.0,16.0,966.3958816137412,2021-08-31 10:43:00.533
44,-138.0,933.0,-84.0,946.8838365924302,2021-08-31 10:43:00.549
45,-70.0,974.0,-9.0,976.5536339597534,2021-08-31 10:43:00.554
46,-260.0,974.0,-9.0,1008.1453268254533,2021-08-31 10:43:00.563
47,-260.0,1148.0,19.0,1177.2276755156583,2021-08-31 10:43:00.564
48,-320.0,1062.0,-22.0,1109.381809838254,2021-08-31 10:43:00.572
49,-249.0,952.0,-5.0,984.0376009076076,2021-08-31 10:43:00.582
50,-170.0,987.0,32.0,1002.0444101934804,2021-08-31 10:43:00.592
51,-212.0,1101.0,-128.0,1128.5074213313796,2021-08-31 10:43:00.601
52,-217.0,944.0,-8.0,968.653188711006,2021-08-31 10:43:00.612
53,-169.0,966.0,-8.0,980.7043387280388,2021-08-31 10:43:00.620
54,-169.0,966.0,-47.0,981.7973314284368,2021-08-31 10:43:00.621
55,-192.0,966.0,-47.0,986.0167341379153,2021-08-31 10:43:00.630
56,-192.0,1017.0,19.0,1035.1396041114454,2021-08-31 10:43:00.631
57,-88.0,1017.0,19.0,1020.9769830902164,2021-08-31 10:43:00.640
58,-88.0,864.0,-131.0,878.2943697872598,2021-08-31 10:43:00.641
59,9.0,1037.0,-100.0,1041.849317319928,2021-08-31 10:43:00.650
60,-189.0,1037.0,-100.0,1058.8153757855994,2021-08-31 10:43:00.660
61,-189.0,1024.0,28.0,1041.672213318566,2021-08-31 10:43:00.661
62,-252.0,1004.0,47.0,1036.2089557613367,2021-08-31 10:43:00.673
63,-88.0,995.0,-129.0,1007.1792293330916,2021-08-31 10:43:00.679
64,-144.0,952.0,-155.0,975.2256149220036,2021-08-31 10:43:00.689
65,-208.0,981.0,-155.0,1014.7167092346514,2021-08-31 10:43:00.699
66,-208.0,981.0,-34.0,1003.3847716604034,2021-08-31 10:43:00.700
67,-173.0,1051.0,32.0,1065.623760996347,2021-08-31 10:43:00.708
68,-248.0,991.0,-140.0,1031.108626673252,2021-08-31 10:43:00.719
69,-213.0,873.0,-72.0,901.488768648839,2021-08-31 10:43:00.732
70,-28.0,1060.0,44.0,1061.2822433264396,2021-08-31 10:43:00.738
71,-299.0,963.0,36.0,1008.9925668705396,2021-08-31 10:43:00.748
72,-59.0,924.0,-2.0,925.8839020093178,2021-08-31 10:43:00.758
73,-76.0,1087.0,-2.0,1089.6554501309115,2021-08-31 10:43:00.767
74,-76.0,1087.0,-9.0,1089.6907818275788,2021-08-31 10:43:00.768
75,-269.0,897.0,-34.0,937.0837742699422,2021-08-31 10:43:00.777
76,-68.0,949.0,-80.0,954.790552948656,2021-08-31 10:43:00.787
77,-92.0,1087.0,-180.0,1105.636920512335,2021-08-31 10:43:00.797
78,-235.0,930.0,73.0,962.005197491157,2021-08-31 10:43:00.806
79,-316.0,864.0,64.0,922.197375836648,2021-08-31 10:43:00.817
80,-51.0,1055.0,64.0,1058.169173620173,2021-08-31 10:43:00.826
81,-51.0,1055.0,-175.0,1070.6311222825534,2021-08-31 10:43:00.827
82,-96.0,1037.0,-66.0,1043.5233586269164,2021-08-31 10:43:00.835
83,-328.0,1051.0,93.0,1104.9135712805776,2021-08-31 10:43:00.845
84,-247.0,919.0,-44.0,952.6310933409636,2021-08-31 10:43:00.855
85,-387.0,1082.0,-99.0,1153.3837175892504,2021-08-31 10:43:00.865
86,-259.0,943.0,-8.0,977.9539866476337,2021-08-31 10:43:00.884
87,-276.0,924.0,31.0,964.8383284260632,2021-08-31 10:43:00.887
88,-75.0,1048.0,-101.0,1055.5235667667491,2021-08-31 10:43:00.895
89,-204.0,1054.0,11.0,1073.616784518573,2021-08-31 10:43:00.906
90,-306.0,947.0,18.0,995.373799132768,2021-08-31 10:43:00.913
91,-139.0,884.0,-29.0,895.3312236262063,2021-08-31 10:43:00.923
92,-9.0,1096.0,-106.0,1101.15076170341,2021-08-31 10:43:00.933
93,-167.0,1058.0,-46.0,1072.0862838409976,2021-08-31 10:43:00.944
94,-384.0,831.0,28.0,915.8607972830806,2021-08-31 10:43:00.954
95,-168.0,879.0,28.0,895.3485354877172,2021-08-31 10:43:00.962
96,-168.0,879.0,3.0,894.9156384821979,2021-08-31 10:43:00.963
97,-82.0,1037.0,-175.0,1054.8544923353172,2021-08-31 10:43:00.972
98,-253.0,1054.0,44.0,1084.8322450959872,2021-08-31 10:43:00.982
99,-106.0,945.0,-117.0,958.0970723261812,2021-08-31 10:43:00.992
100,-65.0,1024.0,72.0,1028.5839780980452,2021-08-31 10:43:01.001
101,-204.0,1024.0,72.0,1046.6021211520642,2021-08-31 10:43:01.012
102,-204.0,1023.0,-30.0,1043.573188616879,2021-08-31 10:43:01.013
103,-230.0,979.0,-54.0,1007.1032717651154,2021-08-31 10:43:01.021
104,-279.0,896.0,-14.0,938.5376923704237,2021-08-31 10:43:01.031
105,-193.0,980.0,-41.0,999.6649438686944,2021-08-31 10:43:01.041
106,-23.0,980.0,-41.0,981.1269031068304,2021-08-31 10:43:01.051
107,-23.0,1119.0,-63.0,1121.0080285171914,2021-08-31 10:43:01.052
108,-270.0,858.0,-45.0,900.6047967893576,2021-08-31 10:43:01.061
109,-194.0,879.0,-23.0,900.4476664415317,2021-08-31 10:43:01.070
110,-35.0,1215.0,-23.0,1215.7215964191803,2021-08-31 10:43:01.079
111,-35.0,1215.0,-38.0,1216.0978579045357,2021-08-31 10:43:01.080
112,-215.0,970.0,82.0,996.9197560486,2021-08-31 10:43:01.089
113,-436.0,892.0,40.0,993.659901575987,2021-08-31 10:43:01.100
114,-79.0,924.0,-139.0,937.7302383948168,2021-08-31 10:43:01.110
115,-301.0,924.0,-139.0,981.6812109845029,2021-08-31 10:43:01.118
116,-301.0,939.0,20.0,986.266698210986,2021-08-31 10:43:01.119
117,28.0,939.0,20.0,939.6302464267528,2021-08-31 10:43:01.128
118,28.0,1011.0,-176.0,1026.5870640135693,2021-08-31 10:43:01.129
119,-162.0,1011.0,-176.0,1038.9133746371735,2021-08-31 10:43:01.138
120,-162.0,1073.0,-141.0,1094.2824132736484,2021-08-31 10:43:01.139
121,-292.0,992.0,27.0,1034.4355949018768,2021-08-31 10:43:01.149
122,-263.0,992.0,27.0,1026.6265143663493,2021-08-31 10:43:01.163
123,-263.0,975.0,17.0,1009.9915841233528,2021-08-31 10:43:01.164
124,-119.0,974.0,-92.0,985.5460415424536,2021-08-31 10:43:01.168
125,-12.0,909.0,-44.0,910.1433952954886,2021-08-31 10:43:01.177
126,-210.0,1052.0,9.0,1072.7930834974654,2021-08-31 10:43:01.187
127,-165.0,1045.0,9.0,1057.9844044219178,2021-08-31 10:43:01.198
128,-165.0,1045.0,-76.0,1060.6724282265473,2021-08-31 10:43:01.199
129,-12.0,934.0,-75.0,937.0832406995656,2021-08-31 10:43:01.208
130,-142.0,1112.0,-106.0,1126.0301949770264,2021-08-31 10:43:01.216
131,-199.0,1022.0,-122.0,1048.3172229816698,2021-08-31 10:43:01.226
132,-243.0,1010.0,84.0,1042.2115908010237,2021-08-31 10:43:01.236
133,-220.0,1010.0,84.0,1037.0901600150298,2021-08-31 10:43:01.246
134,-220.0,1066.0,-12.0,1088.5311203635845,2021-08-31 10:43:01.247
135,-374.0,873.0,136.0,959.4274334205792,2021-08-31 10:43:01.257
136,-226.0,859.0,-93.0,893.0879016087946,2021-08-31 10:43:01.265
137,-63.0,1048.0,-69.0,1052.1568324161565,2021-08-31 10:43:01.275
138,-118.0,1048.0,-69.0,1056.8770032506147,2021-08-31 10:43:01.284
139,-118.0,1096.0,63.0,1104.132691301186,2021-08-31 10:43:01.285
140,-242.0,1062.0,-29.0,1089.6095631004714,2021-08-31 10:43:01.294
141,-135.0,984.0,-1.0,993.2180022532816,2021-08-31 10:43:01.307
142,-178.0,803.0,-1.0,822.4925531577778,2021-08-31 10:43:01.314
143,-178.0,803.0,-36.0,823.2794179377984,2021-08-31 10:43:01.315
144,-62.0,1036.0,-36.0,1038.4777320674718,2021-08-31 10:43:01.325
145,-62.0,1036.0,-85.0,1041.328478435119,2021-08-31 10:43:01.326
146,16.0,1108.0,-85.0,1111.3707752141047,2021-08-31 10:43:01.335
147,16.0,1108.0,-84.0,1111.2947403816866,2021-08-31 10:43:01.336
148,-181.0,915.0,-7.0,932.756667089547,2021-08-31 10:43:01.343
149,-154.0,1017.0,-2.0,1028.5956445562076,2021-08-31 10:43:01.353
150,-341.0,1009.0,-25.0,1065.3576864133472,2021-08-31 10:43:01.363
151,-104.0,909.0,-123.0,923.1608743875576,2021-08-31 10:43:01.373
152,-171.0,994.0,-123.0,1016.0738162161252,2021-08-31 10:43:01.382
153,-171.0,994.0,-42.0,1009.475606441285,2021-08-31 10:43:01.383
154,-281.0,1073.0,-42.0,1109.9792790858755,2021-08-31 10:43:01.393
155,-281.0,1073.0,47.0,1110.1797151812857,2021-08-31 10:43:01.394
156,-315.0,893.0,-36.0,947.6127901205216,2021-08-31 10:43:01.402
157,-135.0,879.0,-77.0,892.6337434804938,2021-08-31 10:43:01.412
158,-159.0,906.0,0.0,919.8461827936234,2021-08-31 10:43:01.421
159,-211.0,1062.0,38.0,1083.42466281694,2021-08-31 10:43:01.431
160,-147.0,1143.0,-10.0,1152.4573744828915,2021-08-31 10:43:01.443
161,-269.0,819.0,-67.0,864.6450138640713,2021-08-31 10:43:01.451
162,-115.0,856.0,-44.0,864.8103838414522,2021-08-31 10:43:01.460
163,-185.0,1031.0,-94.0,1051.675805559869,2021-08-31 10:43:01.471
164,-259.0,1053.0,-76.0,1087.0446172995844,2021-08-31 10:43:01.480
165,-133.0,976.0,-75.0,987.8714491268588,2021-08-31 10:43:01.501
166,-133.0,1101.0,37.0,1109.6211065043778,2021-08-31 10:43:01.503
167,-140.0,950.0,-76.0,963.2632039063882,2021-08-31 10:43:01.512
168,-214.0,1023.0,-159.0,1057.168860684044,2021-08-31 10:43:01.519
169,-296.0,1031.0,100.0,1077.3007936505014,2021-08-31 10:43:01.529
170,-359.0,965.0,82.0,1032.8746293718325,2021-08-31 10:43:01.539
171,-216.0,1048.0,-104.0,1075.0702302640511,2021-08-31 10:43:01.549
172,-289.0,1048.0,-104.0,1092.081040948885,2021-08-31 10:43:01.567
173,-289.0,880.0,-44.0,927.2847459114164,2021-08-31 10:43:01.568
174,-148.0,896.0,73.0,911.0702497612356,2021-08-31 10:43:01.571
175,-92.0,1204.0,-23.0,1207.7288602993638,2021-08-31 10:43:01.579
176,-261.0,961.0,-5.0,995.824783784778,2021-08-31 10:43:01.587
177,1.0,1175.0,-97.0,1178.997455467992,2021-08-31 10:43:01.598
178,-292.0,944.0,107.0,993.905931162502,2021-08-31 10:43:01.607
179,-192.0,911.0,29.0,931.4644383979456,2021-08-31 10:43:01.617
180,-7.0,945.0,-117.0,952.2410409134864,2021-08-31 10:43:01.626
181,-110.0,1081.0,13.0,1086.660020429573,2021-08-31 10:43:01.638
182,-214.0,1000.0,-1.0,1022.6421661558846,2021-08-31 10:43:01.646
183,54.0,947.0,-86.0,952.428999978476,2021-08-31 10:43:01.656
184,-179.0,1093.0,-122.0,1114.2593952935736,2021-08-31 10:43:01.666
185,-307.0,1001.0,-12.0,1047.0883439328318,2021-08-31 10:43:01.676
186,-337.0,953.0,35.0,1011.4361077201072,2021-08-31 10:43:01.686
187,-225.0,995.0,-53.0,1021.498409200915,2021-08-31 10:43:01.695
188,-123.0,970.0,-65.0,979.9255073728818,2021-08-31 10:43:01.705
189,-215.0,1166.0,62.0,1187.2762947182937,2021-08-31 10:43:01.715
190,-156.0,907.0,71.0,923.0525445498756,2021-08-31 10:43:01.724
191,-100.0,907.0,71.0,915.2540630884956,2021-08-31 10:43:01.734
192,-100.0,1170.0,-53.0,1175.461186088252,2021-08-31 10:43:01.735
193,-154.0,1107.0,-74.0,1120.107584118597,2021-08-31 10:43:01.744
194,-332.0,873.0,111.0,940.5711031070432,2021-08-31 10:43:01.754
195,-143.0,851.0,-105.0,869.2956919253655,2021-08-31 10:43:01.763
196,-76.0,975.0,-113.0,984.4643213443544,2021-08-31 10:43:01.773
197,-76.0,1097.0,-113.0,1105.4202820646997,2021-08-31 10:43:01.782
198,-76.0,1097.0,14.0,1099.7186003701129,2021-08-31 10:43:01.783
199,-56.0,972.0,14.0,973.7124832310614,2021-08-31 10:43:01.793
200,-56.0,972.0,-106.0,979.3651004604972,2021-08-31 10:43:01.794
201,-135.0,1027.0,-75.0,1038.5465805634333,2021-08-31 10:43:01.802
202,-248.0,967.0,-3.0,998.2995542421122,2021-08-31 10:43:01.813
203,-246.0,1011.0,-32.0,1040.990393807743,2021-08-31 10:43:01.822
204,-107.0,996.0,-118.0,1008.6570279336778,2021-08-31 10:43:01.832
205,-183.0,822.0,-66.0,844.7064578893664,2021-08-31 10:43:01.842
206,-270.0,925.0,-71.0,966.212192015812,2021-08-31 10:43:01.851
207,-360.0,770.0,5.0,850.0147057551417,2021-08-31 10:43:01.861
208,-44.0,971.0,-60.0,973.8464971441856,2021-08-31 10:43:01.871
209,-26.0,971.0,-60.0,973.1993629262198,2021-08-31 10:43:01.880
210,-26.0,1091.0,-14.0,1091.3995601978224,2021-08-31 10:43:01.881
211,-341.0,1023.0,69.0,1080.541993630974,2021-08-31 10:43:01.902
212,13.0,930.0,-139.0,940.4201188830448,2021-08-31 10:43:01.912
213,-169.0,930.0,-139.0,955.3962528710272,2021-08-31 10:43:01.919
214,-169.0,1103.0,-27.0,1116.198459056453,2021-08-31 10:43:01.920
215,-221.0,989.0,-43.0,1014.3032091046542,2021-08-31 10:43:01.929
216,-127.0,1023.0,-3.0,1030.8574101203328,2021-08-31 10:43:01.939
217,-182.0,1023.0,-3.0,1039.0678514899785,2021-08-31 10:43:01.948
218,-182.0,983.0,-113.0,1006.072561995406,2021-08-31 10:43:01.949
219,-232.0,995.0,74.0,1024.365657370453,2021-08-31 10:43:01.960
220,-335.0,1018.0,70.0,1073.9874300940398,2021-08-31 10:43:01.968
221,-267.0,1117.0,67.0,1150.420357956169,2021-08-31 10:43:01.978
222,-344.0,1071.0,-36.0,1125.4656813959275,2021-08-31 10:43:01.988
223,-219.0,973.0,-40.0,998.1432762885296,2021-08-31 10:43:01.998
224,-186.0,983.0,0.0,1000.4424021401732,2021-08-31 10:43:02.008
225,-169.0,1140.0,-198.0,1169.3438330961517,2021-08-31 10:43:02.019
226,-247.0,1005.0,1.0,1034.908208490009,2021-08-31 10:43:02.027
227,-367.0,1005.0,1.0,1069.9135479093627,2021-08-31 10:43:02.036
228,-367.0,857.0,105.0,938.1700272338696,2021-08-31 10:43:02.037
229,-123.0,964.0,-84.0,975.4388755837036,2021-08-31 10:43:02.046
230,-240.0,1074.0,-84.0,1103.6901739165753,2021-08-31 10:43:02.057
231,-240.0,1074.0,3.0,1100.4930713094018,2021-08-31 10:43:02.058
232,-199.0,976.0,7.0,996.1054161081548,2021-08-31 10:43:02.068
233,-111.0,933.0,-17.0,939.7334728528084,2021-08-31 10:43:02.076
234,-234.0,1003.0,-90.0,1033.8592747564826,2021-08-31 10:43:02.085
235,-147.0,1028.0,-96.0,1042.884940921097,2021-08-31 10:43:02.096
236,-220.0,830.0,-76.0,862.0185612850804,2021-08-31 10:43:02.105
237,-150.0,958.0,-20.0,969.8783428863644,2021-08-31 10:43:02.116
238,-90.0,1169.0,-20.0,1172.6299501547792,2021-08-31 10:43:02.124
239,-90.0,1169.0,-29.0,1172.8179739413956,2021-08-31 10:43:02.125
240,-310.0,992.0,-29.0,1039.7139029560008,2021-08-31 10:43:02.134
241,-308.0,856.0,63.0,911.9040519703814,2021-08-31 10:43:02.144
242,68.0,1074.0,-72.0,1078.5564426584267,2021-08-31 10:43:02.154
243,-42.0,1165.0,-74.0,1168.1031632522877,2021-08-31 10:43:02.169
244,-417.0,991.0,18.0,1075.3111177701085,2021-08-31 10:43:02.178
245,-275.0,756.0,-6.0,804.4855499013019,2021-08-31 10:43:02.183
246,-84.0,947.0,-86.0,954.5999161952614,2021-08-31 10:43:02.193
247,-108.0,1185.0,-27.0,1190.217627159,2021-08-31 10:43:02.203
248,-146.0,951.0,-151.0,973.9188877930236,2021-08-31 10:43:02.214
249,-70.0,938.0,40.0,941.4584430552418,2021-08-31 10:43:02.223
250,-206.0,1070.0,40.0,1090.3834188027622,2021-08-31 10:43:02.232
251,-206.0,1070.0,44.0,1090.5374821618925,2021-08-31 10:43:02.233
252,-210.0,1027.0,-107.0,1053.6972999870504,2021-08-31 10:43:02.242
253,-170.0,886.0,-10.0,902.217268732981,2021-08-31 10:43:02.252
254,-227.0,1084.0,10.0,1107.558124885552,2021-08-31 10:43:02.262
255,-175.0,982.0,-81.0,1000.7547152024816,2021-08-31 10:43:02.271
256,-173.0,876.0,14.0,893.029114866923,2021-08-31 10:43:02.281
257,-91.0,889.0,-70.0,896.3827307573479,2021-08-31 10:43:02.291
258,41.0,1082.0,-70.0,1085.036865733142,2021-08-31 10:43:02.300
259,41.0,1082.0,-152.0,1093.393341849126,2021-08-31 10:43:02.301
260,-74.0,1093.0,28.0,1095.8599363057306,2021-08-31 10:43:02.311
261,-348.0,900.0,39.0,965.7251161691923,2021-08-31 10:43:02.321
262,-242.0,1037.0,57.0,1066.3873592649156,2021-08-31 10:43:02.331
263,-254.0,1037.0,57.0,1069.1744478802325,2021-08-31 10:43:02.339
264,-254.0,975.0,44.0,1008.502354979898,2021-08-31 10:43:02.340
265,-222.0,996.0,-72.0,1022.9780056286644,2021-08-31 10:43:02.349
266,-118.0,912.0,-72.0,922.416391875166,2021-08-31 10:43:02.359
267,-118.0,912.0,-83.0,923.3401323456052,2021-08-31 10:43:02.360
268,-204.0,1021.0,-26.0,1041.505160812946,2021-08-31 10:43:02.370
269,-185.0,954.0,-18.0,971.9387840805612,2021-08-31 10:43:02.379
270,-304.0,894.0,-33.0,944.8497235010444,2021-08-31 10:43:02.388
271,-261.0,1054.0,-36.0,1086.4313139816986,2021-08-31 10:43:02.398
272,-122.0,1093.0,-51.0,1100.9695726949042,2021-08-31 10:43:02.408
273,-233.0,1039.0,-51.0,1066.0257970612156,2021-08-31 10:43:02.418
274,-233.0,1039.0,51.0,1066.0257970612156,2021-08-31 10:43:02.419
275,-230.0,838.0,33.0,869.6165821786059,2021-08-31 10:43:02.427
276,99.0,838.0,33.0,844.4726164891316,2021-08-31 10:43:02.437
277,99.0,1016.0,-139.0,1030.2320127039343,2021-08-31 10:43:02.438
278,-328.0,762.0,74.0,832.8889481797678,2021-08-31 10:43:02.447
279,-20.0,976.0,74.0,979.0056179614088,2021-08-31 10:43:02.456
280,-20.0,976.0,-135.0,985.495306939612,2021-08-31 10:43:02.457
281,-10.0,1135.0,-103.0,1139.7078573037918,2021-08-31 10:43:02.466
282,-278.0,1135.0,-103.0,1173.08055989348,2021-08-31 10:43:02.477
283,-278.0,961.0,51.0,1001.7015523597836,2021-08-31 10:43:02.478
284,-251.0,1015.0,-31.0,1046.0339382639552,2021-08-31 10:43:02.487
285,-130.0,994.0,-98.0,1007.2437639419765,2021-08-31 10:43:02.496
286,-337.0,994.0,-98.0,1054.1389851437998,2021-08-31 10:43:02.521
287,-337.0,999.0,33.0,1054.82652602217,2021-08-31 10:43:02.522
288,-337.0,1066.0,-68.0,1120.066515881981,2021-08-31 10:43:02.523
289,-326.0,865.0,-74.0,927.3494486977388,2021-08-31 10:43:02.526
290,-256.0,865.0,-74.0,905.1171194933836,2021-08-31 10:43:02.534
291,-256.0,892.0,51.0,929.408951968938,2021-08-31 10:43:02.535
292,-166.0,892.0,51.0,908.7469394721504,2021-08-31 10:43:02.544
293,-166.0,1031.0,-89.0,1048.0639293478237,2021-08-31 10:43:02.545
294,-177.0,1038.0,-27.0,1053.3290084299397,2021-08-31 10:43:02.556
295,-354.0,898.0,88.0,969.2595111733492,2021-08-31 10:43:02.564
296,-99.0,1085.0,8.0,1089.5365987427865,2021-08-31 10:43:02.574
297,-295.0,867.0,8.0,915.848240703666,2021-08-31 10:43:02.589
298,-295.0,867.0,38.0,916.601331004925,2021-08-31 10:43:02.590
299,-89.0,927.0,-103.0,936.941300189078,2021-08-31 10:43:02.595
300,-77.0,1062.0,-102.0,1069.6620961780409,2021-08-31 10:43:02.605
301,-130.0,1062.0,43.0,1070.790829247244,2021-08-31 10:43:02.613
302,-67.0,1021.0,43.0,1024.0991162968553,2021-08-31 10:43:02.622
303,-67.0,1021.0,39.0,1023.938963024652,2021-08-31 10:43:02.623
304,-282.0,918.0,-103.0,965.8452256961256,2021-08-31 10:43:02.632
305,-207.0,926.0,-103.0,954.428624885067,2021-08-31 10:43:02.642
306,-207.0,926.0,-51.0,950.224184074474,2021-08-31 10:43:02.643
307,-99.0,1221.0,-51.0,1226.0681057755316,2021-08-31 10:43:02.653
308,-99.0,1221.0,27.0,1225.304451962858,2021-08-31 10:43:02.654
309,-199.0,1221.0,27.0,1237.4049458443262,2021-08-31 10:43:02.661
310,-199.0,1006.0,-63.0,1027.4268830432654,2021-08-31 10:43:02.662
311,-371.0,915.0,-92.0,991.6299713098632,2021-08-31 10:43:02.671
312,-283.0,897.0,-20.0,940.7964710818168,2021-08-31 10:43:02.681
313,-160.0,973.0,0.0,986.0674419125702,2021-08-31 10:43:02.691
314,23.0,976.0,0.0,976.2709664842032,2021-08-31 10:43:02.702
315,23.0,976.0,-126.0,984.3683253741964,2021-08-31 10:43:02.703
316,-74.0,1198.0,-151.0,1209.744187834767,2021-08-31 10:43:02.710
317,-307.0,965.0,102.0,1017.7809194517256,2021-08-31 10:43:02.720
318,-209.0,869.0,91.0,898.4002448797529,2021-08-31 10:43:02.730
319,-20.0,1073.0,-198.0,1091.2987675242744,2021-08-31 10:43:02.740
320,-12.0,1043.0,-88.0,1046.774569809565,2021-08-31 10:43:02.751
321,-298.0,1028.0,162.0,1082.5118936990946,2021-08-31 10:43:02.760
322,-173.0,990.0,-7.0,1005.0263678133028,2021-08-31 10:43:02.769
323,-20.0,893.0,-160.0,907.4409071669626,2021-08-31 10:43:02.779
324,-186.0,1042.0,-37.0,1059.1170851232644,2021-08-31 10:43:02.789
325,-253.0,998.0,-41.0,1030.3853648028974,2021-08-31 10:43:02.800
326,-144.0,1032.0,-41.0,1042.8043920122316,2021-08-31 10:43:02.809
327,-144.0,1032.0,-15.0,1042.1060406695665,2021-08-31 10:43:02.810
328,-251.0,1015.0,-8.0,1045.6050879753789,2021-08-31 10:43:02.818
329,-359.0,1015.0,-8.0,1076.647574650127,2021-08-31 10:43:02.827
330,-359.0,962.0,43.0,1027.703264566188,2021-08-31 10:43:02.828
331,-202.0,852.0,13.0,875.7151363314442,2021-08-31 10:43:02.837
332,-66.0,1118.0,-44.0,1120.8104210793188,2021-08-31 10:43:02.848
333,-148.0,1151.0,-44.0,1161.3100361229986,2021-08-31 10:43:02.858
334,-148.0,1151.0,16.0,1160.586489668047,2021-08-31 10:43:02.859
335,-389.0,1151.0,16.0,1215.062961331634,2021-08-31 10:43:02.866
336,-389.0,862.0,55.0,947.3067085163073,2021-08-31 10:43:02.867
337,-155.0,896.0,-14.0,909.4157465098128,2021-08-31 10:43:02.878
338,-2.0,973.0,-178.0,989.1496347873764,2021-08-31 10:43:02.886
339,-167.0,1074.0,-73.0,1089.3548549485608,2021-08-31 10:43:02.896
340,-245.0,1074.0,-73.0,1104.0063405615024,2021-08-31 10:43:02.916
341,-245.0,1004.0,76.0,1036.2514173693564,2021-08-31 10:43:02.917
342,-110.0,892.0,-74.0,901.7982035910252,2021-08-31 10:43:02.919
343,-145.0,892.0,-74.0,906.7331470725,2021-08-31 10:43:02.926
344,-145.0,963.0,-2.0,973.85727907122,2021-08-31 10:43:02.927
345,-141.0,1050.0,69.0,1061.6694400801032,2021-08-31 10:43:02.935
346,-300.0,864.0,-4.0,914.6102995265252,2021-08-31 10:43:02.945
347,-223.0,961.0,24.0,986.8262258371532,2021-08-31 10:43:02.955
348,-149.0,1154.0,-57.0,1164.9746778363897,2021-08-31 10:43:02.964
349,-384.0,873.0,-39.0,954.518726898535,2021-08-31 10:43:02.975
350,-196.0,861.0,-20.0,883.2536442042002,2021-08-31 10:43:02.984
351,-46.0,1169.0,-108.0,1174.879142720646,2021-08-31 10:43:02.994
352,-261.0,928.0,61.0,965.9327098716556,2021-08-31 10:43:03.003
353,-324.0,869.0,103.0,933.1377175958542,2021-08-31 10:43:03.013
354,-35.0,972.0,-221.0,997.4216761229926,2021-08-31 10:43:03.023
355,-44.0,1079.0,-57.0,1081.400018494544,2021-08-31 10:43:03.033
356,-428.0,1054.0,121.0,1144.0021853125982,2021-08-31 10:43:03.043
357,-245.0,937.0,-75.0,971.4005353097144,2021-08-31 10:43:03.053
358,-11.0,948.0,-113.0,954.7743188837874,2021-08-31 10:43:03.062
359,-113.0,1019.0,-113.0,1031.4547978462265,2021-08-31 10:43:03.074
360,-113.0,1019.0,9.0,1025.2858138099834,2021-08-31 10:43:03.075
361,-232.0,1019.0,9.0,1045.1153046434638,2021-08-31 10:43:03.081
362,-232.0,976.0,-58.0,1004.8701408639824,2021-08-31 10:43:03.082
363,-184.0,976.0,-58.0,994.8849179679024,2021-08-31 10:43:03.091
364,-184.0,902.0,-86.0,924.5842308843472,2021-08-31 10:43:03.092
365,-234.0,902.0,-86.0,935.8183584435604,2021-08-31 10:43:03.101
366,-234.0,1037.0,16.0,1063.1937734956878,2021-08-31 10:43:03.102
367,-269.0,1029.0,0.0,1063.579804246019,2021-08-31 10:43:03.111
368,-135.0,969.0,-14.0,978.4589924978972,2021-08-31 10:43:03.122
369,-157.0,969.0,-14.0,981.7362171174088,2021-08-31 10:43:03.130
370,-157.0,1168.0,7.0,1178.5253497485746,2021-08-31 10:43:03.131
371,-141.0,1040.0,-79.0,1052.4837290903836,2021-08-31 10:43:03.140
372,-281.0,1002.0,42.0,1041.5032405134416,2021-08-31 10:43:03.150
373,-159.0,916.0,-38.0,930.473535357132,2021-08-31 10:43:03.161
374,-80.0,1037.0,-179.0,1055.3719723396107,2021-08-31 10:43:03.171
375,-272.0,1038.0,51.0,1074.2574179404114,2021-08-31 10:43:03.179
376,-405.0,919.0,163.0,1017.4256729609292,2021-08-31 10:43:03.195
377,-65.0,1099.0,75.0,1103.4722470456609,2021-08-31 10:43:03.199
378,-140.0,1061.0,17.0,1070.3317242799076,2021-08-31 10:43:03.209
379,-172.0,990.0,-95.0,1009.3111512313732,2021-08-31 10:43:03.219
380,-105.0,855.0,-67.0,864.0248839009209,2021-08-31 10:43:03.228
381,-186.0,993.0,-20.0,1010.4677134871752,2021-08-31 10:43:03.238
382,-148.0,1104.0,-20.0,1114.0556539060335,2021-08-31 10:43:03.247
383,-148.0,1104.0,-60.0,1115.4909233158287,2021-08-31 10:43:03.248
384,-220.0,1104.0,-60.0,1127.304750278291,2021-08-31 10:43:03.257
385,-220.0,847.0,44.0,876.2105911252157,2021-08-31 10:43:03.258
386,-121.0,997.0,44.0,1005.279065732496,2021-08-31 10:43:03.268
387,-121.0,997.0,16.0,1004.4431293010072,2021-08-31 10:43:03.269
388,22.0,997.0,16.0,997.3710442959532,2021-08-31 10:43:03.278
389,22.0,1165.0,-96.0,1169.1556782567495,2021-08-31 10:43:03.279
390,-287.0,1165.0,-96.0,1203.6652358525605,2021-08-31 10:43:03.286
391,-287.0,1038.0,9.0,1076.9837510380553,2021-08-31 10:43:03.287
392,-327.0,807.0,-1.0,870.7347472106532,2021-08-31 10:43:03.296
393,84.0,1031.0,-220.0,1057.5523627698062,2021-08-31 10:43:03.308
394,-43.0,1138.0,-220.0,1159.8676648652638,2021-08-31 10:43:03.316
395,-43.0,1138.0,-75.0,1141.279106967266,2021-08-31 10:43:03.317
396,23.0,926.0,-164.0,940.6917667333972,2021-08-31 10:43:03.327
397,-118.0,1080.0,-164.0,1098.735636993722,2021-08-31 10:43:03.336
398,-118.0,1080.0,-53.0,1087.719173316348,2021-08-31 10:43:03.337
399,-268.0,955.0,49.0,993.1012033020604,2021-08-31 10:43:03.345
400,-181.0,1062.0,-7.0,1077.3365305233087,2021-08-31 10:43:03.355
401,-205.0,912.0,-143.0,945.6310062598412,2021-08-31 10:43:03.365
402,-93.0,962.0,-10.0,966.536600445115,2021-08-31 10:43:03.376
403,-236.0,1114.0,-10.0,1138.7677550756343,2021-08-31 10:43:03.385
404,-236.0,1114.0,-6.0,1138.739654179128,2021-08-31 10:43:03.386
405,-192.0,969.0,-104.0,993.29804187867,2021-08-31 10:43:03.394
406,-84.0,947.0,28.0,951.1303801267206,2021-08-31 10:43:03.404
407,-104.0,947.0,28.0,953.1049260181168,2021-08-31 10:43:03.413
408,-104.0,982.0,-61.0,989.3740445352304,2021-08-31 10:43:03.414
409,-103.0,967.0,-72.0,975.1317859653636,2021-08-31 10:43:03.424
410,-194.0,963.0,-72.0,984.9817257188074,2021-08-31 10:43:03.433
411,-194.0,963.0,79.0,985.518137834104,2021-08-31 10:43:03.434
412,-268.0,1040.0,7.0,1073.9986033510472,2021-08-31 10:43:03.443
413,-392.0,1040.0,7.0,1111.4463549807522,2021-08-31 10:43:03.452
414,-392.0,862.0,102.0,952.4242752051208,2021-08-31 10:43:03.453
415,-159.0,998.0,102.0,1015.7209262390924,2021-08-31 10:43:03.468
416,-159.0,998.0,-87.0,1014.3244057006614,2021-08-31 10:43:03.469
417,-175.0,1063.0,-57.0,1078.8155542074835,2021-08-31 10:43:03.472
418,-229.0,932.0,-57.0,961.41250251908,2021-08-31 10:43:03.483
419,-229.0,932.0,69.0,962.198524214208,2021-08-31 10:43:03.484
420,-264.0,1086.0,52.0,1118.836896066625,2021-08-31 10:43:03.493
421,-336.0,954.0,52.0,1012.7763820310976,2021-08-31 10:43:03.501
422,-336.0,954.0,-82.0,1014.7590847092724,2021-08-31 10:43:03.502
423,-246.0,823.0,-102.0,865.0138727211258,2021-08-31 10:43:03.511
424,-171.0,1018.0,-31.0,1032.7274567861552,2021-08-31 10:43:03.538
425,-171.0,1069.0,18.0,1082.7400426695228,2021-08-31 10:43:03.539
426,-303.0,960.0,54.0,1008.1294559727932,2021-08-31 10:43:03.541
427,-247.0,1040.0,-23.0,1069.1763184807266,2021-08-31 10:43:03.550
428,-229.0,1050.0,95.0,1078.8725596658765,2021-08-31 10:43:03.561
429,46.0,1026.0,95.0,1031.4150473984755,2021-08-31 10:43:03.572
430,46.0,1026.0,-51.0,1028.2961635637855,2021-08-31 10:43:03.573
431,-156.0,1134.0,-9.0,1144.7152484351732,2021-08-31 10:43:03.580
432,-326.0,1034.0,-9.0,1084.2107728666049,2021-08-31 10:43:03.589
433,-326.0,1034.0,17.0,1084.3066909320444,2021-08-31 10:43:03.590
434,-240.0,864.0,17.0,896.8751306620114,2021-08-31 10:43:03.607
435,-240.0,864.0,24.0,897.0351163694763,2021-08-31 10:43:03.608
436,-156.0,944.0,-122.0,964.5496358404788,2021-08-31 10:43:03.611
437,-90.0,1058.0,-94.0,1065.9737332598772,2021-08-31 10:43:03.620
438,-305.0,1049.0,83.0,1095.5888827475387,2021-08-31 10:43:03.628
439,-305.0,1029.0,-31.0,1073.6978159612695,2021-08-31 10:43:03.639
440,-286.0,874.0,-97.0,924.7058991917376,2021-08-31 10:43:03.651
441,-213.0,970.0,9.0,993.1515493619288,2021-08-31 10:43:03.658
442,-211.0,1099.0,-88.0,1122.5266143838194,2021-08-31 10:43:03.670
443,-177.0,916.0,-40.0,933.8013707421936,2021-08-31 10:43:03.679
444,-120.0,992.0,-111.0,1005.3780383517436,2021-08-31 10:43:03.687
445,-83.0,1030.0,-111.0,1039.2834069684743,2021-08-31 10:43:03.697
446,-83.0,1030.0,6.0,1033.3561825430766,2021-08-31 10:43:03.698
447,-82.0,966.0,-42.0,970.383429372122,2021-08-31 10:43:03.707
448,-60.0,983.0,-90.0,988.9332636735404,2021-08-31 10:43:03.717
449,-75.0,1010.0,-90.0,1016.7718524821584,2021-08-31 10:43:03.727
450,-75.0,1010.0,8.0,1012.8124209348936,2021-08-31 10:43:03.728
451,-264.0,996.0,33.0,1030.9224025114595,2021-08-31 10:43:03.736
452,-115.0,998.0,-108.0,1010.3924979927356,2021-08-31 10:43:03.746
453,-107.0,931.0,-107.0,943.2173662523396,2021-08-31 10:43:03.755
454,-138.0,986.0,-27.0,995.9764053430182,2021-08-31 10:43:03.765
455,-194.0,1154.0,-27.0,1170.5045920456698,2021-08-31 10:43:03.776
456,-194.0,1154.0,3.0,1170.196991963319,2021-08-31 10:43:03.777
457,-351.0,902.0,3.0,967.8915228474729,2021-08-31 10:43:03.785
458,-351.0,902.0,-86.0,971.7000566018302,2021-08-31 10:43:03.786
459,-213.0,871.0,-12.0,896.7463409459779,2021-08-31 10:43:03.794
460,-107.0,1153.0,-34.0,1158.453279161486,2021-08-31 10:43:03.804
461,-244.0,976.0,-34.0,1006.6121398036088,2021-08-31 10:43:03.814
462,-244.0,976.0,-24.0,1006.3240034899296,2021-08-31 10:43:03.815
463,-77.0,953.0,-24.0,956.4068172069876,2021-08-31 10:43:03.825
464,-77.0,953.0,-87.0,960.0557275491876,2021-08-31 10:43:03.826
465,-103.0,1079.0,2.0,1083.9068225636372,2021-08-31 10:43:03.835
466,-194.0,926.0,-25.0,946.4338328694722,2021-08-31 10:43:03.843
467,13.0,942.0,-110.0,948.489852344241,2021-08-31 10:43:03.854
468,-68.0,1107.0,-130.0,1116.6794526631177,2021-08-31 10:43:03.863
469,-224.0,968.0,83.0,997.0401195538724,2021-08-31 10:43:03.874
470,-151.0,968.0,83.0,983.2161512098954,2021-08-31 10:43:03.883
471,-151.0,905.0,51.0,918.927091776056,2021-08-31 10:43:03.884
472,-61.0,1028.0,-179.0,1045.249252570888,2021-08-31 10:43:03.892
473,-77.0,1000.0,-124.0,1010.5963585922918,2021-08-31 10:43:03.902
474,-309.0,1047.0,103.0,1096.493958031689,2021-08-31 10:43:03.912
475,-220.0,1047.0,103.0,1074.8106810038687,2021-08-31 10:43:03.931
476,-220.0,978.0,-74.0,1005.166652849168,2021-08-31 10:43:03.932
477,-237.0,1078.0,-88.0,1107.2474881434591,2021-08-31 10:43:03.935
478,-307.0,930.0,-102.0,984.658824161953,2021-08-31 10:43:03.942
479,-325.0,803.0,97.0,871.6897383817249,2021-08-31 10:43:03.951
480,-169.0,922.0,-75.0,940.3563154464376,2021-08-31 10:43:03.961
481,-143.0,1041.0,-42.0,1051.6149485434296,2021-08-31 10:43:03.970
482,-215.0,1057.0,21.0,1078.8489236218388,2021-08-31 10:43:03.980
483,-222.0,936.0,32.0,962.4988311681216,2021-08-31 10:43:03.991
484,-110.0,1006.0,-24.0,1012.2805935115026,2021-08-31 10:43:04.000
485,-112.0,1014.0,-62.0,1022.0489225081157,2021-08-31 10:43:04.010
486,-282.0,937.0,-20.0,978.7200825568054,2021-08-31 10:43:04.019
487,-96.0,953.0,-10.0,957.8752528382806,2021-08-31 10:43:04.029
488,-78.0,916.0,-101.0,924.846473745778,2021-08-31 10:43:04.039
489,-152.0,1068.0,6.0,1078.7789393569008,2021-08-31 10:43:04.050
490,-199.0,874.0,-41.0,897.3059678838652,2021-08-31 10:43:04.058
491,-33.0,1115.0,-41.0,1116.2414613335234,2021-08-31 10:43:04.068
492,-33.0,1115.0,-38.0,1116.1352964582743,2021-08-31 10:43:04.069
493,-163.0,1115.0,-38.0,1127.491906844568,2021-08-31 10:43:04.077
494,-163.0,1132.0,-42.0,1144.44615425978,2021-08-31 10:43:04.078
495,-443.0,989.0,-21.0,1083.8869867287826,2021-08-31 10:43:04.088
496,-277.0,989.0,-21.0,1027.2735760253936,2021-08-31 10:43:04.097
497,-277.0,787.0,-16.0,834.4782801247735,2021-08-31 10:43:04.098
498,-132.0,921.0,-17.0,930.5664941313972,2021-08-31 10:43:04.108
499,-92.0,1240.0,-17.0,1243.524426780592,2021-08-31 10:43:04.117
500,-92.0,1240.0,-77.0,1245.7901107329435,2021-08-31 10:43:04.118
501,-316.0,874.0,-77.0,932.5561645284428,2021-08-31 10:43:04.126
502,-316.0,874.0,-24.0,929.6816659480814,2021-08-31 10:43:04.127
503,-268.0,874.0,-24.0,914.4812737284454,2021-08-31 10:43:04.136
504,-268.0,854.0,19.0,895.2658822941931,2021-08-31 10:43:04.137
505,-93.0,1038.0,-119.0,1048.9299309296116,2021-08-31 10:43:04.147
506,-170.0,1038.0,-119.0,1058.539087610845,2021-08-31 10:43:04.156
507,-170.0,953.0,37.0,968.7507419351998,2021-08-31 10:43:04.157
508,-277.0,951.0,61.0,992.3965941094316,2021-08-31 10:43:04.166
509,-281.0,1011.0,158.0,1061.1531463459928,2021-08-31 10:43:04.175
510,-161.0,964.0,52.0,978.7343868486486,2021-08-31 10:43:04.185
511,44.0,946.0,52.0,948.449260635486,2021-08-31 10:43:04.195
512,44.0,946.0,-169.0,961.9838875989556,2021-08-31 10:43:04.196
513,-220.0,1076.0,-82.0,1101.3173929435602,2021-08-31 10:43:04.209
514,-329.0,991.0,-82.0,1047.3996371968055,2021-08-31 10:43:04.214
515,-329.0,991.0,36.0,1044.8052450098055,2021-08-31 10:43:04.215
516,-122.0,1027.0,-35.0,1034.813026589828,2021-08-31 10:43:04.224
517,-182.0,948.0,-83.0,968.8740888268196,2021-08-31 10:43:04.234
518,-129.0,948.0,-83.0,960.3301515624718,2021-08-31 10:43:04.244
519,-129.0,970.0,-55.0,980.0846902181464,2021-08-31 10:43:04.245
520,-160.0,1137.0,40.0,1148.8990382100596,2021-08-31 10:43:04.255
521,-225.0,1077.0,14.0,1100.3408562804527,2021-08-31 10:43:04.263
522,-130.0,918.0,-77.0,930.3510090283128,2021-08-31 10:43:04.273
523,-229.0,1017.0,-55.0,1043.9133105770804,2021-08-31 10:43:04.283
524,-169.0,981.0,-73.0,998.1237398238758,2021-08-31 10:43:04.293
525,-106.0,981.0,-73.0,989.4068930424934,2021-08-31 10:43:04.302
526,-106.0,914.0,-88.0,924.3246183024664,2021-08-31 10:43:04.303
527,-125.0,1061.0,-92.0,1072.291937860208,2021-08-31 10:43:04.313
528,-256.0,985.0,55.0,1019.2085164479348,2021-08-31 10:43:04.322
529,-147.0,985.0,55.0,997.4261877452386,2021-08-31 10:43:04.331
530,-147.0,897.0,-21.0,909.2078970180582,2021-08-31 10:43:04.332
531,-34.0,1019.0,-84.0,1023.0215051503072,2021-08-31 10:43:04.342
532,-167.0,1035.0,45.0,1049.3517046252891,2021-08-31 10:43:04.353
533,-284.0,1036.0,-3.0,1074.22576770435,2021-08-31 10:43:04.362
534,-197.0,1036.0,-3.0,1054.568158062816,2021-08-31 10:43:04.370
535,-197.0,968.0,-108.0,993.7288362526268,2021-08-31 10:43:04.371
536,-62.0,854.0,-66.0,858.7875173755148,2021-08-31 10:43:04.380
537,-44.0,1040.0,-66.0,1043.020613410876,2021-08-31 10:43:04.390
538,-44.0,1040.0,-14.0,1041.0244953890374,2021-08-31 10:43:04.391
539,-95.0,1150.0,-82.0,1156.82712623797,2021-08-31 10:43:04.401
540,-218.0,1150.0,-82.0,1173.3490529250023,2021-08-31 10:43:04.411
541,-218.0,882.0,48.0,909.8087711162163,2021-08-31 10:43:04.412
542,-199.0,882.0,48.0,905.4440899359828,2021-08-31 10:43:04.419
543,-199.0,991.0,7.0,1010.8071032595684,2021-08-31 10:43:04.420
544,-277.0,985.0,64.0,1025.2072961113768,2021-08-31 10:43:04.429
545,-196.0,985.0,64.0,1006.3483492310204,2021-08-31 10:43:04.441
546,-196.0,928.0,-175.0,964.4817261099352,2021-08-31 10:43:04.442
547,-40.0,928.0,-175.0,945.203152766642,2021-08-31 10:43:04.449
548,-40.0,1013.0,-62.0,1015.6835136990262,2021-08-31 10:43:04.450
549,-347.0,1040.0,88.0,1099.8877215425218,2021-08-31 10:43:04.460
550,-208.0,905.0,-42.0,929.5445121133254,2021-08-31 10:43:04.469
551,-11.0,977.0,-168.0,991.4000201734918,2021-08-31 10:43:04.478
552,-171.0,1025.0,-44.0,1040.0971108507129,2021-08-31 10:43:04.488
553,-334.0,993.0,103.0,1052.7174359722555,2021-08-31 10:43:04.498
554,-217.0,1084.0,-36.0,1106.0926724284905,2021-08-31 10:43:04.509
555,-199.0,925.0,-139.0,956.3195072777715,2021-08-31 10:43:04.518
556,-50.0,921.0,-12.0,922.4342795017974,2021-08-31 10:43:04.527
557,-179.0,1134.0,7.0,1148.0618450240388,2021-08-31 10:43:04.554
558,-179.0,1022.0,-144.0,1047.5022673006488,2021-08-31 10:43:04.555
559,-139.0,1054.0,-144.0,1072.834097146432,2021-08-31 10:43:04.558
560,-139.0,1054.0,-80.0,1066.1317929787106,2021-08-31 10:43:04.559
561,-160.0,1136.0,-20.0,1147.386595703471,2021-08-31 10:43:04.566
562,-170.0,953.0,-10.0,968.0955531351232,2021-08-31 10:43:04.577
563,-227.0,888.0,-10.0,916.6095133697884,2021-08-31 10:43:04.586
564,-227.0,888.0,-125.0,925.0394586178472,2021-08-31 10:43:04.587
565,-237.0,1021.0,2.0,1048.1478903284594,2021-08-31 10:43:04.595
566,-290.0,946.0,97.0,994.195654788332,2021-08-31 10:43:04.605
567,-174.0,991.0,-36.0,1006.8033571656384,2021-08-31 10:43:04.627
568,-171.0,1045.0,-127.0,1066.4872244898202,2021-08-31 10:43:04.629
569,-268.0,910.0,13.0,948.7323120880832,2021-08-31 10:43:04.635
570,-386.0,994.0,72.0,1068.7450584681085,2021-08-31 10:43:04.644
571,-234.0,916.0,-82.0,948.965752806707,2021-08-31 10:43:04.655
572,-14.0,954.0,-40.0,954.9408358636676,2021-08-31 10:43:04.663
573,-199.0,954.0,-40.0,975.3548072368332,2021-08-31 10:43:04.674
574,-199.0,930.0,-19.0,951.242345567101,2021-08-31 10:43:04.675
575,-122.0,843.0,0.0,851.782249169352,2021-08-31 10:43:04.683
576,62.0,1020.0,-60.0,1023.6425157250944,2021-08-31 10:43:04.693
577,-117.0,1020.0,-60.0,1028.4400808992227,2021-08-31 10:43:04.702
578,-117.0,1119.0,-72.0,1127.401436933624,2021-08-31 10:43:04.703
579,-305.0,1028.0,50.0,1073.4565664245572,2021-08-31 10:43:04.713
580,-102.0,1028.0,50.0,1034.2572213912747,2021-08-31 10:43:04.722
581,-102.0,957.0,-40.0,963.2512652470278,2021-08-31 10:43:04.723
582,-174.0,1047.0,-70.0,1063.6658309826446,2021-08-31 10:43:04.733
583,-275.0,1051.0,-99.0,1090.8835868230854,2021-08-31 10:43:04.742
584,-275.0,893.0,14.0,934.4891652662432,2021-08-31 10:43:04.751
585,-196.0,893.0,14.0,914.3637131907632,2021-08-31 10:43:04.761
586,-196.0,974.0,-40.0,994.3299251254584,2021-08-31 10:43:04.762
587,-136.0,1056.0,-86.0,1068.1891218318974,2021-08-31 10:43:04.772
588,-336.0,1037.0,96.0,1094.2947500559435,2021-08-31 10:43:04.782
589,-160.0,921.0,27.0,935.1844737804408,2021-08-31 10:43:04.791
590,-152.0,1118.0,-13.0,1128.3603147931071,2021-08-31 10:43:04.800
591,-180.0,1102.0,-102.0,1121.25287067637,2021-08-31 10:43:04.810
592,-187.0,848.0,44.0,869.4877802476582,2021-08-31 10:43:04.823
593,-113.0,850.0,-58.0,859.4376068104071,2021-08-31 10:43:04.831
594,27.0,1030.0,-124.0,1037.7885141010186,2021-08-31 10:43:04.839
595,-107.0,1114.0,20.0,1119.3055883001746,2021-08-31 10:43:04.850
596,-200.0,948.0,-7.0,968.8926669141428,2021-08-31 10:43:04.859
597,-150.0,995.0,-62.0,1008.151278330787,2021-08-31 10:43:04.869
598,-101.0,995.0,-62.0,1002.0329335905084,2021-08-31 10:43:04.879
599,-101.0,1019.0,-42.0,1024.854135962772,2021-08-31 10:43:04.880
600,-199.0,1017.0,0.0,1036.2866398830008,2021-08-31 10:43:04.889
601,-227.0,1066.0,0.0,1089.9013716846125,2021-08-31 10:43:04.898
602,-227.0,1066.0,-98.0,1094.298405372136,2021-08-31 10:43:04.899
603,-202.0,1128.0,-62.0,1147.620146215637,2021-08-31 10:43:04.908
604,-341.0,945.0,-62.0,1006.5535256507724,2021-08-31 10:43:04.917
605,-341.0,945.0,-35.0,1005.251709772234,2021-08-31 10:43:04.918
606,-255.0,837.0,51.0,876.4673410914978,2021-08-31 10:43:04.928
607,-94.0,951.0,-208.0,978.008691167926,2021-08-31 10:43:04.947
608,-55.0,1157.0,-58.0,1159.757733321921,2021-08-31 10:43:04.951
609,-475.0,1013.0,161.0,1130.3605619447274,2021-08-31 10:43:04.958
610,-233.0,986.0,-21.0,1013.3735737624108,2021-08-31 10:43:04.966
611,99.0,945.0,-196.0,970.176272643276,2021-08-31 10:43:04.976
612,-134.0,1017.0,-24.0,1026.0706603348524,2021-08-31 10:43:04.986
613,-160.0,1017.0,-24.0,1029.7888133010574,2021-08-31 10:43:04.995
614,-160.0,976.0,12.0,989.100601556788,2021-08-31 10:43:04.996
615,-93.0,1023.0,-55.0,1028.6899435690036,2021-08-31 10:43:05.005
616,-234.0,989.0,-66.0,1018.446365794488,2021-08-31 10:43:05.019
617,-273.0,908.0,19.0,948.3427650380426,2021-08-31 10:43:05.025
618,-233.0,935.0,3.0,963.5989829799532,2021-08-31 10:43:05.035
619,-125.0,1130.0,-22.0,1137.1055359991876,2021-08-31 10:43:05.045
620,-262.0,987.0,-22.0,1021.4191108452984,2021-08-31 10:43:05.055
621,-262.0,987.0,-23.0,1021.4411387838264,2021-08-31 10:43:05.056
622,-424.0,846.0,76.0,949.351357506798,2021-08-31 10:43:05.064
623,-213.0,876.0,-40.0,902.4106603980252,2021-08-31 10:43:05.074
624,18.0,1048.0,-127.0,1055.8205339924016,2021-08-31 10:43:05.084
625,-271.0,1048.0,-127.0,1089.896325344755,2021-08-31 10:43:05.093
626,-271.0,1013.0,-7.0,1048.6462701979158,2021-08-31 10:43:05.094
627,-354.0,939.0,160.0,1016.187482701888,2021-08-31 10:43:05.103
628,-177.0,920.0,160.0,950.4362156399555,2021-08-31 10:43:05.113
629,-177.0,920.0,-83.0,940.5413334883268,2021-08-31 10:43:05.114
630,-159.0,1070.0,-83.0,1084.9285690772458,2021-08-31 10:43:05.122
631,-159.0,1070.0,-100.0,1086.3613579283829,2021-08-31 10:43:05.123
632,-171.0,1010.0,9.0,1024.4130026507864,2021-08-31 10:43:05.132
633,-42.0,933.0,-47.0,935.1267293794996,2021-08-31 10:43:05.143
634,-98.0,1067.0,-1.0,1071.4914838672307,2021-08-31 10:43:05.153
635,-169.0,1113.0,-104.0,1130.551193002776,2021-08-31 10:43:05.163
636,-240.0,884.0,40.0,916.8729464871346,2021-08-31 10:43:05.171
637,-277.0,941.0,3.0,980.927622202576,2021-08-31 10:43:05.181
638,-130.0,1114.0,-122.0,1128.1755182594595,2021-08-31 10:43:05.191
639,-427.0,942.0,98.0,1038.892198449868,2021-08-31 10:43:05.201
640,-391.0,919.0,55.0,1000.2334727452386,2021-08-31 10:43:05.212
641,-63.0,1024.0,55.0,1027.40936339903,2021-08-31 10:43:05.227
642,-63.0,1024.0,-176.0,1040.9231479797152,2021-08-31 10:43:05.228
643,-99.0,1037.0,-2.0,1041.7168521244148,2021-08-31 10:43:05.231
644,-316.0,985.0,50.0,1035.6548652905562,2021-08-31 10:43:05.240
645,-283.0,909.0,-73.0,954.8293041167096,2021-08-31 10:43:05.251
646,-129.0,909.0,-73.0,921.00542886565,2021-08-31 10:43:05.260
647,-129.0,1048.0,12.0,1055.977745977632,2021-08-31 10:43:05.261
648,-105.0,1048.0,12.0,1053.3152424606794,2021-08-31 10:43:05.269
649,-105.0,1093.0,0.0,1098.0318756757474,2021-08-31 10:43:05.270
650,-226.0,851.0,-50.0,881.9166627295348,2021-08-31 10:43:05.279
651,-66.0,865.0,-63.0,869.798827315834,2021-08-31 10:43:05.289
652,17.0,1138.0,-60.0,1139.70741859479,2021-08-31 10:43:05.298
653,-163.0,1090.0,-60.0,1103.7522366908254,2021-08-31 10:43:05.309
654,-163.0,1090.0,-41.0,1102.8825866791078,2021-08-31 10:43:05.310
655,-169.0,1013.0,-38.0,1027.703264566188,2021-08-31 10:43:05.318
656,-202.0,1013.0,-38.0,1033.642588131894,2021-08-31 10:43:05.327
657,-202.0,937.0,-51.0,959.8822844495048,2021-08-31 10:43:05.328
658,-162.0,979.0,-51.0,993.6226647978598,2021-08-31 10:43:05.337
659,-162.0,979.0,-24.0,992.603143255148,2021-08-31 10:43:05.338
660,-197.0,1052.0,48.0,1071.3622169929272,2021-08-31 10:43:05.348
661,-254.0,953.0,-83.0,989.7545150187494,2021-08-31 10:43:05.358
662,-161.0,953.0,-18.0,966.6716091827668,2021-08-31 10:43:05.367
663,-325.0,1001.0,16.0,1052.5597370220846,2021-08-31 10:43:05.377
664,-198.0,915.0,-2.0,936.1800040590484,2021-08-31 10:43:05.386
665,-7.0,915.0,-2.0,915.028961290297,2021-08-31 10:43:05.396
666,-7.0,1039.0,-97.0,1043.5415660145025,2021-08-31 10:43:05.397
667,-82.0,1172.0,-45.0,1175.7265838620815,2021-08-31 10:43:05.413
668,-314.0,951.0,-45.0,1002.50785533082,2021-08-31 10:43:05.416
669,-314.0,951.0,55.0,1003.0064805373892,2021-08-31 10:43:05.417
670,-159.0,859.0,-22.0,873.8684111466669,2021-08-31 10:43:05.426
671,-27.0,1016.0,-193.0,1034.5211452648032,2021-08-31 10:43:05.435
672,-41.0,1016.0,-46.0,1017.866887171402,2021-08-31 10:43:05.445
673,-100.0,1037.0,33.0,1042.3329602387137,2021-08-31 10:43:05.456
674,-280.0,1069.0,-125.0,1112.1088076263045,2021-08-31 10:43:05.465
675,-172.0,909.0,-112.0,931.8846495140908,2021-08-31 10:43:05.474
676,-219.0,1007.0,48.0,1031.6559504020709,2021-08-31 10:43:05.484
677,-275.0,943.0,20.0,982.483587649178,2021-08-31 10:43:05.494
678,-191.0,1027.0,-79.0,1047.592955302774,2021-08-31 10:43:05.504
679,-237.0,1046.0,-42.0,1073.3354554844443,2021-08-31 10:43:05.514
680,-325.0,786.0,110.0,857.6252095175374,2021-08-31 10:43:05.523
681,-160.0,886.0,-17.0,900.4915324421435,2021-08-31 10:43:05.533
682,-19.0,1113.0,-17.0,1113.29196529931,2021-08-31 10:43:05.542
683,-19.0,1113.0,-142.0,1122.1826945733926,2021-08-31 10:43:05.543
684,-204.0,1099.0,34.0,1118.2902127802067,2021-08-31 10:43:05.553
685,-168.0,1099.0,34.0,1112.286383985707,2021-08-31 10:43:05.573
686,-168.0,907.0,93.0,927.10409340052,2021-08-31 10:43:05.574
687,-168.0,938.0,-90.0,957.166652156248,2021-08-31 10:43:05.575
688,-13.0,1002.0,-109.0,1007.9950396703348,2021-08-31 10:43:05.583
689,-164.0,1070.0,-109.0,1087.969209123126,2021-08-31 10:43:05.591
690,-164.0,1070.0,-51.0,1083.6959905803842,2021-08-31 10:43:05.592
691,-149.0,1054.0,-25.0,1064.7732152904673,2021-08-31 10:43:05.604
692,-127.0,1142.0,-74.0,1151.4204271246886,2021-08-31 10:43:05.611
693,-351.0,974.0,1.0,1035.3154108772842,2021-08-31 10:43:05.621
694,-357.0,885.0,65.0,956.5035284827756,2021-08-31 10:43:05.632
695,-59.0,1055.0,-178.0,1071.5362803003918,2021-08-31 10:43:05.649
696,-93.0,1100.0,-63.0,1105.7205795317368,2021-08-31 10:43:05.652
697,-428.0,949.0,86.0,1044.5960941914343,2021-08-31 10:43:05.660
698,-285.0,830.0,-5.0,877.5819050094412,2021-08-31 10:43:05.674
699,-13.0,898.0,-110.0,904.8055039620392,2021-08-31 10:43:05.679
700,-121.0,1031.0,-21.0,1038.2884955541017,2021-08-31 10:43:05.689
701,-216.0,1021.0,-21.0,1043.809369568984,2021-08-31 10:43:05.699
702,-216.0,1021.0,43.0,1044.4836044668198,2021-08-31 10:43:05.700
703,-199.0,1031.0,17.0,1050.1671295560532,2021-08-31 10:43:05.709
704,-234.0,851.0,-37.0,883.3606285091045,2021-08-31 10:43:05.720
705,-204.0,1083.0,-54.0,1103.3680256378648,2021-08-31 10:43:05.728
706,-167.0,945.0,-14.0,959.744757735097,2021-08-31 10:43:05.738
707,-183.0,966.0,-14.0,983.2807330564348,2021-08-31 10:43:05.747
708,-183.0,966.0,-35.0,983.8038422368556,2021-08-31 10:43:05.748
709,-193.0,985.0,-81.0,1006.9930486353916,2021-08-31 10:43:05.758
710,-185.0,985.0,-81.0,1005.4904276023716,2021-08-31 10:43:05.767
711,-185.0,1003.0,-15.0,1020.0289211586112,2021-08-31 10:43:05.768
712,-223.0,948.0,-84.0,977.4911764307644,2021-08-31 10:43:05.778
713,-92.0,948.0,-84.0,956.1506157504684,2021-08-31 10:43:05.786
714,-92.0,1025.0,-82.0,1032.382196669431,2021-08-31 10:43:05.787
715,-78.0,1160.0,3.0,1162.623326791614,2021-08-31 10:43:05.799
716,-279.0,1010.0,89.0,1051.5997337390306,2021-08-31 10:43:05.806
717,-264.0,986.0,89.0,1024.603825876129,2021-08-31 10:43:05.816
718,-264.0,986.0,-108.0,1026.4287603141292,2021-08-31 10:43:05.817
719,-154.0,848.0,-108.0,868.6103844647496,2021-08-31 10:43:05.827
720,-154.0,848.0,-91.0,866.6608333137018,2021-08-31 10:43:05.828
721,-165.0,898.0,-14.0,913.1401863898008,2021-08-31 10:43:05.835
722,-153.0,841.0,-53.0,856.4455616091428,2021-08-31 10:43:05.845
723,-7.0,1045.0,-187.0,1061.6228143742956,2021-08-31 10:43:05.855
724,26.0,1045.0,-187.0,1061.918075936181,2021-08-31 10:43:05.865
725,26.0,1147.0,-137.0,1155.4453686782426,2021-08-31 10:43:05.866
726,-299.0,976.0,120.0,1027.802023738035,2021-08-31 10:43:05.876
727,-292.0,988.0,-55.0,1031.7136230563208,2021-08-31 10:43:05.884
728,-23.0,964.0,-139.0,974.2412432246954,2021-08-31 10:43:05.894
729,-156.0,1020.0,31.0,1032.326014396615,2021-08-31 10:43:05.904
730,-189.0,990.0,-29.0,1008.2965833523388,2021-08-31 10:43:05.914
731,-58.0,978.0,-79.0,982.8982653357366,2021-08-31 10:43:05.924
732,-178.0,954.0,-79.0,973.6739700741722,2021-08-31 10:43:05.934
733,-178.0,954.0,-52.0,971.8559564050632,2021-08-31 10:43:05.935
734,-196.0,1007.0,51.0,1027.1640570035538,2021-08-31 10:43:05.943
735,-57.0,1197.0,-32.0,1198.783550104021,2021-08-31 10:43:05.962
736,-16.0,1115.0,-103.0,1119.8615985915403,2021-08-31 10:43:05.966
737,-204.0,1077.0,37.0,1096.7743614800631,2021-08-31 10:43:05.973
738,-426.0,829.0,105.0,937.9456274219738,2021-08-31 10:43:05.983
739,-148.0,927.0,-66.0,941.0573840101356,2021-08-31 10:43:05.992
740,130.0,1104.0,-162.0,1123.369930165482,2021-08-31 10:43:06.002
741,-211.0,1010.0,-50.0,1033.015488751258,2021-08-31 10:43:06.012
742,-244.0,1010.0,-50.0,1040.2576603899631,2021-08-31 10:43:06.021
743,-244.0,957.0,41.0,988.46648906273,2021-08-31 10:43:06.022
744,-230.0,878.0,-16.0,907.7664897978996,2021-08-31 10:43:06.032
745,-197.0,1029.0,-57.0,1049.237342072803,2021-08-31 10:43:06.041
746,-37.0,975.0,-57.0,977.3653359926368,2021-08-31 10:43:06.050
747,-37.0,975.0,-28.0,976.1034781210444,2021-08-31 10:43:06.051
748,-130.0,1030.0,-28.0,1038.5489877709188,2021-08-31 10:43:06.060
749,-130.0,1030.0,54.0,1039.5749131255525,2021-08-31 10:43:06.061
750,-165.0,1003.0,6.0,1016.498893260588,2021-08-31 10:43:06.070
751,-349.0,987.0,10.0,1046.9336177618904,2021-08-31 10:43:06.081
752,-239.0,810.0,-3.0,844.529454785326,2021-08-31 10:43:06.090
753,-84.0,873.0,-116.0,884.6699949698758,2021-08-31 10:43:06.099
754,-60.0,1088.0,-104.0,1094.6049515692864,2021-08-31 10:43:06.109
755,-265.0,968.0,88.0,1007.4686099328356,2021-08-31 10:43:06.119
756,-272.0,943.0,0.0,981.444343811711,2021-08-31 10:43:06.129
757,-181.0,873.0,0.0,891.566037935497,2021-08-31 10:43:06.139
758,-181.0,873.0,-112.0,898.5733136478069,2021-08-31 10:43:06.140
759,-145.0,930.0,-9.0,941.2789172184832,2021-08-31 10:43:06.148
760,-125.0,1139.0,-51.0,1146.9729726545434,2021-08-31 10:43:06.158
761,-313.0,946.0,-150.0,1007.663138156795,2021-08-31 10:43:06.168
762,-222.0,932.0,17.0,958.2259649999054,2021-08-31 10:43:06.178
763,-195.0,941.0,-1.0,960.99271589331,2021-08-31 10:43:06.193
764,-250.0,941.0,-1.0,973.6436719868312,2021-08-31 10:43:06.197
765,-250.0,946.0,-33.0,979.0326858690674,2021-08-31 10:43:06.198
766,-232.0,986.0,-47.0,1014.0162720587872,2021-08-31 10:43:06.207
767,-75.0,986.0,-47.0,989.9646458333752,2021-08-31 10:43:06.216
768,-75.0,1083.0,89.0,1089.235970761157,2021-08-31 10:43:06.217
769,-225.0,1083.0,89.0,1109.700410020651,2021-08-31 10:43:06.226
770,-225.0,982.0,98.0,1012.2020549277698,2021-08-31 10:43:06.227
771,-94.0,917.0,-83.0,925.534440201984,2021-08-31 10:43:06.236
772,14.0,998.0,-185.0,1015.0985173863668,2021-08-31 10:43:06.251
773,-172.0,967.0,-185.0,999.4488481158004,2021-08-31 10:43:06.256
774,-172.0,967.0,-14.0,982.2774557119797,2021-08-31 10:43:06.257
775,-225.0,1028.0,-12.0,1052.403439751125,2021-08-31 10:43:06.266
776,-174.0,1028.0,-12.0,1042.6907499349938,2021-08-31 10:43:06.275
777,-174.0,963.0,-82.0,982.0229121563304,2021-08-31 10:43:06.276
778,-189.0,863.0,-82.0,887.2508100869787,2021-08-31 10:43:06.285
779,-189.0,863.0,4.0,883.4625062785631,2021-08-31 10:43:06.286
780,-161.0,1127.0,-57.0,1139.8679748111183,2021-08-31 10:43:06.295
781,-267.0,874.0,-9.0,913.9179394234474,2021-08-31 10:43:06.306
782,-14.0,966.0,-59.0,967.9013379472104,2021-08-31 10:43:06.314
783,-154.0,1129.0,-59.0,1140.9811567243344,2021-08-31 10:43:06.324
784,-154.0,1129.0,21.0,1139.6481913292364,2021-08-31 10:43:06.325
785,-335.0,961.0,36.0,1018.3525911981568,2021-08-31 10:43:06.334
786,-150.0,927.0,4.0,939.0660253677588,2021-08-31 10:43:06.343
787,-131.0,927.0,4.0,936.2189914758192,2021-08-31 10:43:06.353
788,-131.0,1030.0,-67.0,1040.4566305233486,2021-08-31 10:43:06.354
789,-149.0,1007.0,84.0,1021.4235164710084,2021-08-31 10:43:06.363
790,-116.0,1038.0,59.0,1046.1266653708813,2021-08-31 10:43:06.373
791,-132.0,1038.0,59.0,1048.0214692457405,2021-08-31 10:43:06.382
792,-132.0,964.0,-89.0,977.0573166401242,2021-08-31 10:43:06.383
793,-112.0,948.0,28.0,955.0036649144336,2021-08-31 10:43:06.393
794,-110.0,948.0,28.0,954.7711767748332,2021-08-31 10:43:06.402
795,-110.0,1161.0,68.0,1168.1802087006952,2021-08-31 10:43:06.403
796,-229.0,1161.0,68.0,1185.3210535546898,2021-08-31 10:43:06.411
797,-229.0,1089.0,-9.0,1112.853539330311,2021-08-31 10:43:06.412
798,-188.0,850.0,-14.0,870.6549259034833,2021-08-31 10:43:06.422
799,-194.0,1126.0,-36.0,1143.1570320826445,2021-08-31 10:43:06.432
800,-382.0,1126.0,-36.0,1189.578076462407,2021-08-31 10:43:06.441
801,-382.0,857.0,95.0,943.0789998722272,2021-08-31 10:43:06.442
802,-139.0,882.0,-115.0,900.2610732448671,2021-08-31 10:43:06.451
803,-147.0,1052.0,-115.0,1068.4278169347708,2021-08-31 10:43:06.460
804,-147.0,1052.0,-162.0,1074.503140991221,2021-08-31 10:43:06.461
805,-287.0,1024.0,33.0,1063.970864262739,2021-08-31 10:43:06.470
806,-258.0,982.0,56.0,1016.8697065012803,2021-08-31 10:43:06.480
807,-194.0,980.0,-35.0,999.6304317096394,2021-08-31 10:43:06.491
808,-187.0,966.0,-15.0,984.0477630684396,2021-08-31 10:43:06.500
809,-197.0,1070.0,-1.0,1087.984374887801,2021-08-31 10:43:06.510
810,-116.0,985.0,-60.0,993.6201487490076,2021-08-31 10:43:06.519
811,-183.0,857.0,-12.0,876.4028753946441,2021-08-31 10:43:06.530
812,-143.0,983.0,-12.0,993.4193475063792,2021-08-31 10:43:06.539
813,-143.0,983.0,-53.0,994.759769994746,2021-08-31 10:43:06.540
814,-244.0,774.0,32.0,812.1797830529888,2021-08-31 10:43:06.549
815,6.0,1034.0,-141.0,1043.5866039768812,2021-08-31 10:43:06.559
816,-39.0,1145.0,-47.0,1146.6276640653668,2021-08-31 10:43:06.568
817,-159.0,1145.0,-47.0,1156.9420901670055,2021-08-31 10:43:06.599
818,-159.0,1031.0,136.0,1052.0161595717054,2021-08-31 10:43:06.600
819,-159.0,938.0,-148.0,962.8234521447844,2021-08-31 10:43:06.601
820,-152.0,1018.0,-47.0,1030.3577048772916,2021-08-31 10:43:06.609
821,-214.0,989.0,-32.0,1012.3936981234128,2021-08-31 10:43:06.617
822,-239.0,1011.0,-32.0,1039.3584559717594,2021-08-31 10:43:06.626
823,-239.0,1011.0,-31.0,1039.3281483727842,2021-08-31 10:43:06.627
