,Acceleration_X,Acceleration_Y,Acceleration_Z,magnitude,time_stamp
0,268.0,1137.0,20.0,1168.329148827504,2021-09-02 13:24:38.461
1,163.0,1290.0,-170.0,1311.323377355868,2021-09-02 13:24:38.471
2,-292.0,934.0,-45.0,979.6147201833994,2021-09-02 13:24:38.482
3,-381.0,841.0,78.0,926.5667811874112,2021-09-02 13:24:38.491
4,-451.0,800.0,-145.0,929.7451263652852,2021-09-02 13:24:38.501
5,-332.0,846.0,-163.0,923.3141393913558,2021-09-02 13:24:38.510
6,-449.0,1060.0,-141.0,1159.7767026458152,2021-09-02 13:24:38.536
7,-449.0,884.0,-141.0,1001.4679226016178,2021-09-02 13:24:38.537
8,-449.0,884.0,-202.0,1011.8601682050736,2021-09-02 13:24:38.538
9,111.0,884.0,-202.0,913.554048756832,2021-09-02 13:24:38.540
10,111.0,1030.0,-24.0,1036.2417671566805,2021-09-02 13:24:38.541
11,-125.0,1126.0,-193.0,1149.2388785626772,2021-09-02 13:24:38.549
12,-385.0,1013.0,-259.0,1114.2149702817676,2021-09-02 13:24:38.560
13,-241.0,1013.0,-259.0,1073.0009319660444,2021-09-02 13:24:38.570
14,-241.0,858.0,-72.0,894.1079353187735,2021-09-02 13:24:38.571
15,-190.0,858.0,-72.0,881.7301174395712,2021-09-02 13:24:38.578
16,-190.0,976.0,-119.0,1001.4174953534616,2021-09-02 13:24:38.579
17,-87.0,976.0,-119.0,987.0693997890928,2021-09-02 13:24:38.589
18,-87.0,1212.0,-99.0,1219.1447822141552,2021-09-02 13:24:38.590
19,-366.0,1102.0,-234.0,1184.5319750855188,2021-09-02 13:24:38.598
20,-461.0,766.0,-77.0,897.3327142147443,2021-09-02 13:24:38.608
21,-270.0,1009.0,-121.0,1051.4856156885835,2021-09-02 13:24:38.619
22,-263.0,1161.0,-149.0,1199.704546961459,2021-09-02 13:24:38.628
23,-504.0,915.0,-2.0,1044.6267275922055,2021-09-02 13:24:38.637
24,-172.0,871.0,-88.0,892.1709477448815,2021-09-02 13:24:38.647
25,-196.0,1047.0,-68.0,1067.3560792912551,2021-09-02 13:24:38.657
26,-39.0,1044.0,-118.0,1051.3710096821198,2021-09-02 13:24:38.667
27,-53.0,1073.0,-186.0,1090.290786900449,2021-09-02 13:24:38.678
28,-363.0,950.0,71.0,1019.4655462545068,2021-09-02 13:24:38.686
29,19.0,1157.0,47.0,1158.1100983930671,2021-09-02 13:24:38.695
30,-131.0,1073.0,-130.0,1088.7561710502491,2021-09-02 13:24:38.705
31,-201.0,868.0,-128.0,900.1161036221938,2021-09-02 13:24:38.715
32,49.0,1136.0,16.0,1137.168852897405,2021-09-02 13:24:38.726
33,184.0,1017.0,16.0,1033.634848483738,2021-09-02 13:24:38.735
34,184.0,1017.0,-17.0,1033.6508114445612,2021-09-02 13:24:38.736
35,-48.0,1088.0,-17.0,1089.1909841712793,2021-09-02 13:24:38.744
36,-48.0,1088.0,9.0,1089.0954962720211,2021-09-02 13:24:38.745
37,-163.0,1112.0,-72.0,1126.186929421577,2021-09-02 13:24:38.754
38,-309.0,807.0,53.0,865.759204398082,2021-09-02 13:24:38.764
39,4.0,1110.0,118.0,1116.2616180806365,2021-09-02 13:24:38.775
40,-173.0,1022.0,-84.0,1039.9370173236457,2021-09-02 13:24:38.784
41,-400.0,850.0,37.0,940.1430742179618,2021-09-02 13:24:38.794
42,-246.0,872.0,107.0,912.331628301902,2021-09-02 13:24:38.803
43,-218.0,980.0,-108.0,1009.7465028411834,2021-09-02 13:24:38.819
44,-82.0,1051.0,-95.0,1058.4658709660885,2021-09-02 13:24:38.823
45,-215.0,1138.0,-95.0,1162.0215144307786,2021-09-02 13:24:38.832
46,-215.0,1138.0,27.0,1158.4463733811765,2021-09-02 13:24:38.833
47,-387.0,991.0,0.0,1063.8843922156204,2021-09-02 13:24:38.842
48,56.0,902.0,32.0,904.3030465502148,2021-09-02 13:24:38.853
49,-7.0,1138.0,-114.0,1143.7171853216162,2021-09-02 13:24:38.862
50,-104.0,1119.0,-114.0,1129.589748537052,2021-09-02 13:24:38.871
51,-104.0,1119.0,-105.0,1128.7169707238393,2021-09-02 13:24:38.872
52,-113.0,1047.0,-68.0,1055.2734242839626,2021-09-02 13:24:38.881
53,-42.0,1047.0,-68.0,1050.0461894602545,2021-09-02 13:24:38.890
54,-42.0,934.0,19.0,935.1368883751726,2021-09-02 13:24:38.891
55,111.0,1114.0,-92.0,1123.290256345171,2021-09-02 13:24:38.902
56,-131.0,1114.0,-92.0,1125.4425796103503,2021-09-02 13:24:38.910
57,-131.0,833.0,16.0,843.3895896915019,2021-09-02 13:24:38.911
58,-59.0,1027.0,-41.0,1029.5100776583006,2021-09-02 13:24:38.920
59,-279.0,1058.0,45.0,1095.093603305215,2021-09-02 13:24:38.930
60,-439.0,860.0,128.0,974.0148869498864,2021-09-02 13:24:38.940
61,-413.0,640.0,-20.0,761.9507858123121,2021-09-02 13:24:38.950
62,-99.0,917.0,-99.0,927.6265412330546,2021-09-02 13:24:38.960
63,-419.0,1067.0,-10.0,1146.3638165957611,2021-09-02 13:24:38.969
64,-365.0,878.0,88.0,954.9099433978056,2021-09-02 13:24:38.979
65,-229.0,842.0,-175.0,889.9606732884324,2021-09-02 13:24:38.989
66,-131.0,874.0,-76.0,887.024802358987,2021-09-02 13:24:38.999
67,-297.0,987.0,40.0,1031.4930925604883,2021-09-02 13:24:39.009
68,-132.0,1122.0,-54.0,1131.027851115966,2021-09-02 13:24:39.018
69,-128.0,816.0,-96.0,831.5383334519221,2021-09-02 13:24:39.028
70,-82.0,1057.0,-71.0,1062.5507046724877,2021-09-02 13:24:39.038
71,-61.0,1077.0,-71.0,1081.0601278374852,2021-09-02 13:24:39.052
72,-61.0,1077.0,-117.0,1085.0525332904394,2021-09-02 13:24:39.053
73,-432.0,924.0,-67.0,1022.198121696572,2021-09-02 13:24:39.058
74,-129.0,1137.0,47.0,1145.259359271951,2021-09-02 13:24:39.067
75,-37.0,1044.0,-24.0,1044.9310982069585,2021-09-02 13:24:39.077
76,-202.0,937.0,-24.0,958.8268873993889,2021-09-02 13:24:39.087
77,-202.0,937.0,119.0,965.8850863327376,2021-09-02 13:24:39.088
78,-323.0,1003.0,-173.0,1067.8328520887526,2021-09-02 13:24:39.096
79,-403.0,882.0,26.0,970.0561839398788,2021-09-02 13:24:39.106
80,-471.0,1020.0,199.0,1140.9829096003148,2021-09-02 13:24:39.117
81,-284.0,961.0,68.0,1004.3908601734684,2021-09-02 13:24:39.126
82,-259.0,891.0,-50.0,929.2265601025404,2021-09-02 13:24:39.135
83,-141.0,891.0,-50.0,903.4721910496194,2021-09-02 13:24:39.145
84,-141.0,1093.0,-17.0,1102.1882779271425,2021-09-02 13:24:39.146
85,-288.0,967.0,92.0,1013.1618824255086,2021-09-02 13:24:39.155
86,-256.0,745.0,75.0,791.3191517965429,2021-09-02 13:24:39.165
87,34.0,1188.0,-59.0,1189.9499989495357,2021-09-02 13:24:39.174
88,-405.0,927.0,-81.0,1014.8472791509076,2021-09-02 13:24:39.184
89,189.0,936.0,-66.0,957.1692640280506,2021-09-02 13:24:39.194
90,24.0,936.0,-66.0,938.6309178798662,2021-09-02 13:24:39.203
91,24.0,1116.0,-44.0,1117.1248811122236,2021-09-02 13:24:39.204
92,-141.0,1158.0,-143.0,1175.2846463729545,2021-09-02 13:24:39.219
93,-155.0,1053.0,-143.0,1073.910145217001,2021-09-02 13:24:39.223
94,-155.0,1053.0,-80.0,1067.3490525596585,2021-09-02 13:24:39.224
95,-10.0,992.0,5.0,992.063002031625,2021-09-02 13:24:39.233
96,100.0,1188.0,-105.0,1196.8161930722697,2021-09-02 13:24:39.244
97,-112.0,1262.0,-198.0,1282.3384888554192,2021-09-02 13:24:39.253
98,-561.0,638.0,171.0,866.6060235193384,2021-09-02 13:24:39.262
99,73.0,847.0,108.0,856.9725783244176,2021-09-02 13:24:39.272
100,129.0,1234.0,-172.0,1252.5897173456278,2021-09-02 13:24:39.282
101,-143.0,720.0,-86.0,739.0838923965263,2021-09-02 13:24:39.292
102,0.0,1056.0,-129.0,1063.8500834234117,2021-09-02 13:24:39.302
103,-401.0,1049.0,1.0,1123.0329469788498,2021-09-02 13:24:39.311
104,-123.0,1011.0,-32.0,1018.9573101950836,2021-09-02 13:24:39.321
105,-56.0,1011.0,-32.0,1013.0552798342252,2021-09-02 13:24:39.330
106,-56.0,1107.0,-239.0,1133.8897653652227,2021-09-02 13:24:39.331
107,-251.0,923.0,-131.0,965.4486003925844,2021-09-02 13:24:39.340
108,-216.0,1040.0,66.0,1064.2424535790706,2021-09-02 13:24:39.350
109,109.0,1099.0,-226.0,1127.279024909095,2021-09-02 13:24:39.361
110,-73.0,992.0,-226.0,1020.0338229686308,2021-09-02 13:24:39.369
111,-73.0,992.0,-224.0,1019.5925656849406,2021-09-02 13:24:39.370
112,-167.0,992.0,-224.0,1030.5964292583203,2021-09-02 13:24:39.379
113,-167.0,1090.0,-11.0,1102.7737755315004,2021-09-02 13:24:39.380
114,-182.0,994.0,164.0,1023.7460622634892,2021-09-02 13:24:39.389
115,60.0,1114.0,-133.0,1123.5145748943355,2021-09-02 13:24:39.399
116,94.0,1114.0,-133.0,1125.842351308566,2021-09-02 13:24:39.409
117,94.0,1135.0,-162.0,1150.349946755334,2021-09-02 13:24:39.410
118,-292.0,889.0,95.0,940.5370806087338,2021-09-02 13:24:39.418
119,260.0,1214.0,41.0,1242.206504571603,2021-09-02 13:24:39.428
120,-270.0,1023.0,-80.0,1061.0508941610672,2021-09-02 13:24:39.438
121,-377.0,809.0,-80.0,896.1082523891854,2021-09-02 13:24:39.448
122,-377.0,809.0,-25.0,892.8801711316027,2021-09-02 13:24:39.449
123,-327.0,793.0,98.0,863.355083381108,2021-09-02 13:24:39.459
124,-470.0,978.0,-26.0,1085.3847244180286,2021-09-02 13:24:39.468
125,-329.0,873.0,-16.0,933.0734161897444,2021-09-02 13:24:39.477
126,-321.0,873.0,-16.0,930.2827527155388,2021-09-02 13:24:39.486
127,-321.0,954.0,-53.0,1007.9513877166894,2021-09-02 13:24:39.487
128,-317.0,867.0,-53.0,924.65507082371,2021-09-02 13:24:39.496
129,-317.0,867.0,2.0,923.1370429139976,2021-09-02 13:24:39.497
130,-224.0,896.0,-110.0,930.103220078288,2021-09-02 13:24:39.506
131,-100.0,896.0,-110.0,908.248864574022,2021-09-02 13:24:39.515
132,-100.0,1166.0,-200.0,1187.2472362570486,2021-09-02 13:24:39.516
133,-473.0,847.0,-54.0,971.624413032114,2021-09-02 13:24:39.526
134,-189.0,860.0,62.0,882.7032343885458,2021-09-02 13:24:39.536
135,-298.0,1004.0,-90.0,1051.1517492731484,2021-09-02 13:24:39.556
136,-3.0,967.0,-58.0,968.7424838418102,2021-09-02 13:24:39.567
137,85.0,1017.0,6.0,1020.5635697985696,2021-09-02 13:24:39.574
138,-113.0,1152.0,143.0,1166.3284271593486,2021-09-02 13:24:39.585
139,-380.0,1133.0,-150.0,1204.4040019860445,2021-09-02 13:24:39.594
140,-248.0,669.0,86.0,718.6522107389637,2021-09-02 13:24:39.604
141,-84.0,989.0,37.0,993.2502202365728,2021-09-02 13:24:39.615
142,-56.0,1087.0,-34.0,1088.972451442184,2021-09-02 13:24:39.625
143,-534.0,962.0,-7.0,1100.2949604537866,2021-09-02 13:24:39.633
144,-170.0,844.0,47.0,862.2325672346179,2021-09-02 13:24:39.643
145,-215.0,844.0,47.0,872.2213021934284,2021-09-02 13:24:39.652
146,-215.0,986.0,9.0,1009.2086008353278,2021-09-02 13:24:39.653
147,-335.0,1032.0,16.0,1085.1290245864775,2021-09-02 13:24:39.663
148,-487.0,929.0,19.0,1049.0810264226495,2021-09-02 13:24:39.674
149,-395.0,652.0,74.0,765.9014296892258,2021-09-02 13:24:39.682
150,-145.0,991.0,149.0,1012.5744417078675,2021-09-02 13:24:39.692
151,47.0,991.0,149.0,1003.2402503887092,2021-09-02 13:24:39.701
152,47.0,1093.0,-187.0,1109.877020214402,2021-09-02 13:24:39.702
153,14.0,1109.0,-298.0,1148.4254438142686,2021-09-02 13:24:39.711
154,-86.0,1189.0,12.0,1192.1665152150515,2021-09-02 13:24:39.722
155,-84.0,893.0,104.0,902.951272217942,2021-09-02 13:24:39.732
156,28.0,893.0,104.0,899.4715114999474,2021-09-02 13:24:39.740
157,28.0,1031.0,-135.0,1040.1778694050358,2021-09-02 13:24:39.741
158,32.0,1189.0,-200.0,1206.128102649134,2021-09-02 13:24:39.750
159,-260.0,900.0,223.0,962.9792313440618,2021-09-02 13:24:39.760
160,87.0,1104.0,118.0,1113.6916090193013,2021-09-02 13:24:39.771
161,-40.0,1066.0,118.0,1073.2567260446124,2021-09-02 13:24:39.780
162,-40.0,1066.0,-134.0,1075.1334800851473,2021-09-02 13:24:39.781
163,-390.0,918.0,-76.0,1000.2999550134948,2021-09-02 13:24:39.790
164,-203.0,1069.0,95.0,1092.2431048077162,2021-09-02 13:24:39.799
165,92.0,1041.0,51.0,1046.3011038893153,2021-09-02 13:24:39.809
166,-222.0,970.0,-20.0,995.2808648818684,2021-09-02 13:24:39.820
167,-202.0,945.0,-111.0,972.7024210929056,2021-09-02 13:24:39.835
168,-254.0,784.0,-111.0,831.5605810763278,2021-09-02 13:24:39.838
169,-254.0,784.0,-17.0,824.2942435805311,2021-09-02 13:24:39.839
170,-150.0,913.0,-28.0,925.663545787561,2021-09-02 13:24:39.848
171,6.0,1254.0,-122.0,1259.9349189541497,2021-09-02 13:24:39.858
172,-266.0,982.0,-122.0,1024.6775102440768,2021-09-02 13:24:39.869
173,-266.0,982.0,-87.0,1021.1018558400528,2021-09-02 13:24:39.870
174,-235.0,871.0,16.0,902.2870940005736,2021-09-02 13:24:39.877
175,-171.0,986.0,-64.0,1002.7626837891406,2021-09-02 13:24:39.887
176,157.0,1287.0,-237.0,1318.023899631566,2021-09-02 13:24:39.897
177,-46.0,1118.0,-68.0,1121.0102586506512,2021-09-02 13:24:39.907
178,-445.0,854.0,56.0,964.6123573747124,2021-09-02 13:24:39.918
179,218.0,1041.0,-41.0,1064.3711758592488,2021-09-02 13:24:39.929
180,-16.0,1142.0,-117.0,1148.0892822424569,2021-09-02 13:24:39.936
181,-278.0,1098.0,-65.0,1134.510026399062,2021-09-02 13:24:39.946
182,27.0,1098.0,-65.0,1100.2536071288291,2021-09-02 13:24:39.955
183,27.0,1062.0,-51.0,1063.5666410714468,2021-09-02 13:24:39.956
184,-322.0,1110.0,-51.0,1156.8859062154747,2021-09-02 13:24:39.966
185,-322.0,1110.0,0.0,1155.7612210140985,2021-09-02 13:24:39.967
186,-333.0,844.0,-22.0,907.5841558775692,2021-09-02 13:24:39.975
187,-79.0,965.0,-83.0,971.7792959309228,2021-09-02 13:24:39.985
188,-400.0,905.0,46.0,990.525618043269,2021-09-02 13:24:39.995
189,-335.0,992.0,15.0,1047.1456441202436,2021-09-02 13:24:40.004
190,-430.0,868.0,-150.0,980.2163026597752,2021-09-02 13:24:40.015
191,-236.0,706.0,-25.0,744.8201125103967,2021-09-02 13:24:40.025
192,-168.0,706.0,-25.0,726.1439251277944,2021-09-02 13:24:40.033
193,-168.0,1075.0,9.0,1088.0854745836837,2021-09-02 13:24:40.034
194,-403.0,1025.0,38.0,1102.03357480614,2021-09-02 13:24:40.043
195,-209.0,902.0,-65.0,928.1756299321804,2021-09-02 13:24:40.053
196,-110.0,1007.0,-138.0,1022.3468100405069,2021-09-02 13:24:40.070
197,-322.0,971.0,-86.0,1026.6065458587336,2021-09-02 13:24:40.073
198,-11.0,1031.0,-57.0,1032.6330422759092,2021-09-02 13:24:40.083
199,-388.0,1031.0,-57.0,1103.0657278693775,2021-09-02 13:24:40.092
200,-388.0,1130.0,-103.0,1199.1884755950584,2021-09-02 13:24:40.093
201,-462.0,713.0,207.0,874.4495411400248,2021-09-02 13:24:40.102
202,4.0,976.0,84.0,979.6162513964332,2021-09-02 13:24:40.113
203,-61.0,1162.0,-111.0,1168.8823721829326,2021-09-02 13:24:40.121
204,-563.0,950.0,22.0,1104.5148256134908,2021-09-02 13:24:40.132
205,-151.0,1001.0,22.0,1012.5640720468014,2021-09-02 13:24:40.141
206,-151.0,1001.0,181.0,1028.3788212521688,2021-09-02 13:24:40.142
207,-233.0,952.0,-86.0,983.8643199140824,2021-09-02 13:24:40.151
208,-227.0,866.0,-60.0,897.2652896440384,2021-09-02 13:24:40.162
209,-369.0,997.0,-61.0,1064.8431809426213,2021-09-02 13:24:40.170
210,-376.0,831.0,8.0,912.1408882404078,2021-09-02 13:24:40.180
211,-340.0,831.0,8.0,897.9003285443213,2021-09-02 13:24:40.190
212,-340.0,816.0,50.0,885.4128980311954,2021-09-02 13:24:40.191
213,-400.0,962.0,-3.0,1041.8507570664813,2021-09-02 13:24:40.200
214,-216.0,1047.0,-1.0,1069.049110190921,2021-09-02 13:24:40.210
215,-55.0,1015.0,-21.0,1016.7059555249984,2021-09-02 13:24:40.220
216,-25.0,927.0,40.0,928.199332040268,2021-09-02 13:24:40.235
217,1.0,1118.0,-2.0,1118.0022361337208,2021-09-02 13:24:40.240
218,-79.0,1118.0,-2.0,1120.7894539118397,2021-09-02 13:24:40.248
219,-79.0,1098.0,-122.0,1107.577988224757,2021-09-02 13:24:40.249
220,-310.0,825.0,17.0,881.4839760313287,2021-09-02 13:24:40.259
221,152.0,1038.0,-51.0,1050.3090021512717,2021-09-02 13:24:40.268
222,54.0,1045.0,42.0,1047.2368404520537,2021-09-02 13:24:40.278
223,-405.0,1045.0,42.0,1121.5230715415532,2021-09-02 13:24:40.287
224,-405.0,1021.0,-65.0,1100.3140460795728,2021-09-02 13:24:40.288
225,-55.0,983.0,-41.0,985.3907854247472,2021-09-02 13:24:40.298
226,29.0,1001.0,26.0,1001.7574556747757,2021-09-02 13:24:40.307
227,-121.0,1127.0,112.0,1138.9969271249154,2021-09-02 13:24:40.318
228,-534.0,1144.0,-195.0,1277.4650680155603,2021-09-02 13:24:40.327
229,-218.0,1008.0,-152.0,1042.4452023967494,2021-09-02 13:24:40.338
230,-292.0,1071.0,-13.0,1110.1684556858927,2021-09-02 13:24:40.347
231,-183.0,1038.0,-13.0,1054.0882316011312,2021-09-02 13:24:40.355
232,-183.0,1038.0,-106.0,1059.3247849455804,2021-09-02 13:24:40.356
233,-224.0,842.0,-139.0,882.3043692513372,2021-09-02 13:24:40.367
234,-184.0,1127.0,-139.0,1150.350381405596,2021-09-02 13:24:40.375
235,-184.0,1127.0,-140.0,1150.471642414536,2021-09-02 13:24:40.376
236,-333.0,1127.0,-140.0,1183.4770804709317,2021-09-02 13:24:40.385
237,-333.0,1018.0,46.0,1072.0676284638016,2021-09-02 13:24:40.386
238,-17.0,1083.0,-57.0,1084.6321957235089,2021-09-02 13:24:40.395
239,65.0,1179.0,-174.0,1193.5417881247392,2021-09-02 13:24:40.405
240,-287.0,989.0,-35.0,1030.3955551146366,2021-09-02 13:24:40.415
241,54.0,1072.0,127.0,1080.8464275742415,2021-09-02 13:24:40.425
242,102.0,1048.0,127.0,1060.5833300594536,2021-09-02 13:24:40.434
243,102.0,1048.0,-192.0,1070.313972626724,2021-09-02 13:24:40.435
244,-36.0,1001.0,-153.0,1013.2650196271458,2021-09-02 13:24:40.444
245,-51.0,1117.0,66.0,1120.1098160448375,2021-09-02 13:24:40.454
246,-317.0,982.0,-81.0,1035.0719781734988,2021-09-02 13:24:40.463
247,-338.0,898.0,24.0,959.804146688271,2021-09-02 13:24:40.474
248,-156.0,1120.0,-81.0,1133.709398390963,2021-09-02 13:24:40.483
249,-359.0,871.0,42.0,943.0196180355952,2021-09-02 13:24:40.493
250,-483.0,668.0,27.0,824.7678461239866,2021-09-02 13:24:40.503
251,-108.0,1089.0,-65.0,1096.270951909244,2021-09-02 13:24:40.512
252,-263.0,919.0,-142.0,966.3819120823816,2021-09-02 13:24:40.522
253,-153.0,919.0,-142.0,942.4086162594228,2021-09-02 13:24:40.531
254,-153.0,899.0,60.0,913.8982437886616,2021-09-02 13:24:40.532
255,-393.0,899.0,60.0,982.980162566875,2021-09-02 13:24:40.541
256,-393.0,927.0,4.0,1006.8733783351312,2021-09-02 13:24:40.542
257,-30.0,1046.0,-155.0,1057.847342483782,2021-09-02 13:24:40.551
258,-338.0,1097.0,9.0,1147.925955800286,2021-09-02 13:24:40.577
259,-338.0,925.0,19.0,985.002538067796,2021-09-02 13:24:40.579
260,-151.0,1109.0,128.0,1126.528295250501,2021-09-02 13:24:40.582
261,-254.0,1112.0,-50.0,1141.735521038038,2021-09-02 13:24:40.590
262,-335.0,707.0,-13.0,782.4595836207772,2021-09-02 13:24:40.600
263,-180.0,929.0,-13.0,946.3667365244828,2021-09-02 13:24:40.610
264,-180.0,929.0,90.0,950.547736833874,2021-09-02 13:24:40.611
265,-140.0,1168.0,-38.0,1176.9740863757368,2021-09-02 13:24:40.621
266,-566.0,985.0,-38.0,1136.6727761321638,2021-09-02 13:24:40.629
267,-566.0,985.0,-14.0,1136.1236728455226,2021-09-02 13:24:40.630
268,-103.0,864.0,70.0,872.928977637929,2021-09-02 13:24:40.639
269,-174.0,915.0,44.0,932.4360567888824,2021-09-02 13:24:40.649
270,-275.0,1062.0,44.0,1097.9093769523968,2021-09-02 13:24:40.658
271,-275.0,1062.0,-6.0,1097.0437548247562,2021-09-02 13:24:40.659
272,-317.0,997.0,-39.0,1046.9092606334132,2021-09-02 13:24:40.670
273,-364.0,727.0,-20.0,813.2803944519995,2021-09-02 13:24:40.678
274,-128.0,891.0,-70.0,902.8648846865184,2021-09-02 13:24:40.688
275,-264.0,891.0,-70.0,931.9211340022288,2021-09-02 13:24:40.697
276,-264.0,1026.0,-34.0,1059.9660371917582,2021-09-02 13:24:40.698
277,-259.0,903.0,7.0,939.4354687789896,2021-09-02 13:24:40.707
278,-66.0,1114.0,5.0,1115.9646051734794,2021-09-02 13:24:40.718
279,-98.0,952.0,5.0,957.0438861410692,2021-09-02 13:24:40.727
280,-98.0,952.0,118.0,964.2779682228564,2021-09-02 13:24:40.728
281,92.0,1112.0,-82.0,1118.8082945706117,2021-09-02 13:24:40.737
282,-109.0,1128.0,-137.0,1141.5051467251474,2021-09-02 13:24:40.747
283,-409.0,1128.0,-137.0,1207.656408089652,2021-09-02 13:24:40.756
284,-409.0,827.0,119.0,930.253191340938,2021-09-02 13:24:40.757
285,40.0,1129.0,92.0,1133.448278484731,2021-09-02 13:24:40.767
286,-162.0,1042.0,-182.0,1070.1084057234575,2021-09-02 13:24:40.777
287,-496.0,814.0,-77.0,956.3163702457466,2021-09-02 13:24:40.786
288,-131.0,1065.0,-77.0,1075.7857593405854,2021-09-02 13:24:40.795
289,-131.0,1065.0,50.0,1074.190858274264,2021-09-02 13:24:40.796
290,-61.0,1090.0,-18.0,1091.8539279592303,2021-09-02 13:24:40.805
291,-160.0,1001.0,39.0,1014.4565047354174,2021-09-02 13:24:40.816
292,-468.0,1001.0,39.0,1105.6880210981758,2021-09-02 13:24:40.825
293,-468.0,936.0,-78.0,1049.3826756717494,2021-09-02 13:24:40.826
294,-374.0,741.0,52.0,831.6615898308638,2021-09-02 13:24:40.841
295,-141.0,922.0,-49.0,934.0053533037164,2021-09-02 13:24:40.845
296,98.0,1175.0,-129.0,1186.1155087089958,2021-09-02 13:24:40.854
297,-162.0,955.0,-52.0,970.037628136146,2021-09-02 13:24:40.864
298,-213.0,1050.0,11.0,1071.4429522844416,2021-09-02 13:24:40.875
299,-63.0,903.0,-30.0,905.6920006271448,2021-09-02 13:24:40.883
300,6.0,903.0,-30.0,903.5181237805914,2021-09-02 13:24:40.893
301,6.0,1065.0,-110.0,1070.68249261861,2021-09-02 13:24:40.894
302,-96.0,1131.0,-40.0,1135.7715439295,2021-09-02 13:24:40.903
303,-362.0,930.0,82.0,1001.3331114069882,2021-09-02 13:24:40.913
304,194.0,1032.0,-143.0,1059.7683709188532,2021-09-02 13:24:40.923
305,25.0,1101.0,-64.0,1103.1418766414408,2021-09-02 13:24:40.933
306,-250.0,1101.0,-64.0,1130.8390690102638,2021-09-02 13:24:40.945
307,-250.0,1120.0,-83.0,1150.56029828949,2021-09-02 13:24:40.946
308,-88.0,1107.0,-70.0,1112.6962748207616,2021-09-02 13:24:40.951
309,-257.0,1191.0,3.0,1218.4165954221078,2021-09-02 13:24:40.961
310,-508.0,985.0,-165.0,1120.4972110630174,2021-09-02 13:24:40.972
311,-201.0,789.0,-6.0,814.2223283600125,2021-09-02 13:24:40.981
312,-261.0,821.0,-72.0,864.4917582024713,2021-09-02 13:24:40.991
313,-349.0,958.0,-18.0,1019.7494790388472,2021-09-02 13:24:41.001
314,-272.0,967.0,-46.0,1005.5789377269195,2021-09-02 13:24:41.010
315,-329.0,967.0,-46.0,1022.4705374728408,2021-09-02 13:24:41.020
316,-329.0,789.0,-63.0,857.164511631227,2021-09-02 13:24:41.021
317,-32.0,1014.0,-95.0,1018.9430798626584,2021-09-02 13:24:41.031
318,-475.0,1021.0,41.0,1126.830510769033,2021-09-02 13:24:41.039
319,-285.0,981.0,-19.0,1021.7372460667176,2021-09-02 13:24:41.050
320,-74.0,993.0,-219.0,1019.551862339528,2021-09-02 13:24:41.059
321,-92.0,946.0,-113.0,957.1567269783984,2021-09-02 13:24:41.069
322,21.0,1113.0,-113.0,1118.9186744352785,2021-09-02 13:24:41.079
323,21.0,1113.0,143.0,1122.345312281385,2021-09-02 13:24:41.080
324,-79.0,1136.0,-107.0,1143.759590123729,2021-09-02 13:24:41.094
325,-352.0,769.0,143.0,857.7377221505418,2021-09-02 13:24:41.098
326,-95.0,1086.0,71.0,1092.456864136978,2021-09-02 13:24:41.108
327,-162.0,1118.0,71.0,1131.9050313520124,2021-09-02 13:24:41.117
328,-162.0,1118.0,-49.0,1130.7382544161137,2021-09-02 13:24:41.118
329,-548.0,806.0,-49.0,975.8796032298246,2021-09-02 13:24:41.127
330,-548.0,806.0,-8.0,974.6814864354408,2021-09-02 13:24:41.128
331,-160.0,1036.0,-20.0,1048.4731756225335,2021-09-02 13:24:41.137
332,-196.0,1015.0,-10.0,1033.799303540102,2021-09-02 13:24:41.147
333,-347.0,1015.0,-10.0,1072.7227041505182,2021-09-02 13:24:41.156
334,-347.0,837.0,66.0,908.4789485728328,2021-09-02 13:24:41.157
335,-358.0,837.0,66.0,912.7370924861112,2021-09-02 13:24:41.166
336,-358.0,983.0,-133.0,1054.5814335555126,2021-09-02 13:24:41.167
337,-365.0,898.0,-2.0,969.34668720742,2021-09-02 13:24:41.178
338,-405.0,856.0,188.0,965.4558508808158,2021-09-02 13:24:41.186
339,-493.0,911.0,81.0,1039.0048123083934,2021-09-02 13:24:41.196
340,-2.0,948.0,-122.0,955.8200667489672,2021-09-02 13:24:41.205
341,-131.0,1059.0,-122.0,1074.0232772151635,2021-09-02 13:24:41.215
342,-131.0,1059.0,-141.0,1076.3470629866558,2021-09-02 13:24:41.216
343,75.0,957.0,-205.0,981.579849018917,2021-09-02 13:24:41.226
344,27.0,1101.0,1.0,1101.3314669072158,2021-09-02 13:24:41.235
345,-148.0,1197.0,-107.0,1210.851766319891,2021-09-02 13:24:41.245
346,-457.0,1197.0,-107.0,1285.7320871783515,2021-09-02 13:24:41.254
347,-457.0,909.0,0.0,1017.4133869769948,2021-09-02 13:24:41.255
348,43.0,1025.0,23.0,1026.1593443515485,2021-09-02 13:24:41.264
349,41.0,1165.0,-22.0,1165.9288142935657,2021-09-02 13:24:41.281
350,-417.0,1165.0,-22.0,1237.57747232244,2021-09-02 13:24:41.284
351,-417.0,929.0,-142.0,1028.1507671543118,2021-09-02 13:24:41.285
352,-189.0,929.0,-142.0,958.6062799710838,2021-09-02 13:24:41.294
353,-189.0,1033.0,-27.0,1050.4946453933023,2021-09-02 13:24:41.295
354,-172.0,940.0,19.0,955.7954802153022,2021-09-02 13:24:41.304
355,-197.0,1055.0,-45.0,1074.1782906017045,2021-09-02 13:24:41.313
356,-377.0,1055.0,-45.0,1121.239938639362,2021-09-02 13:24:41.322
357,-377.0,1063.0,-95.0,1131.8670416616962,2021-09-02 13:24:41.323
358,-659.0,608.0,146.0,908.4387706389464,2021-09-02 13:24:41.333
359,-193.0,1086.0,62.0,1104.7574394408937,2021-09-02 13:24:41.343
360,-136.0,991.0,-1.0,1000.2889582515644,2021-09-02 13:24:41.352
361,40.0,933.0,-90.0,938.1838838948364,2021-09-02 13:24:41.362
362,90.0,1147.0,-179.0,1164.3667807009954,2021-09-02 13:24:41.372
363,-233.0,1147.0,-179.0,1184.0350501568778,2021-09-02 13:24:41.381
364,-233.0,1073.0,56.0,1099.433490484986,2021-09-02 13:24:41.382
365,16.0,1099.0,-18.0,1099.2638445796351,2021-09-02 13:24:41.391
366,228.0,1125.0,-117.0,1153.818876600656,2021-09-02 13:24:41.402
367,-323.0,1125.0,-117.0,1176.2835542504197,2021-09-02 13:24:41.410
368,-323.0,853.0,-66.0,914.491115320428,2021-09-02 13:24:41.411
369,245.0,1060.0,88.0,1091.4985112220722,2021-09-02 13:24:41.421
370,-87.0,1142.0,-129.0,1152.5510834665854,2021-09-02 13:24:41.430
371,-205.0,980.0,-79.0,1004.3236530123146,2021-09-02 13:24:41.440
372,-187.0,1028.0,-79.0,1047.852088798796,2021-09-02 13:24:41.450
373,-187.0,1028.0,7.0,1044.8932959876813,2021-09-02 13:24:41.451
374,-100.0,1068.0,-38.0,1073.3443063621291,2021-09-02 13:24:41.460
375,-17.0,1111.0,6.0,1111.1462549997636,2021-09-02 13:24:41.469
376,-211.0,1087.0,-105.0,1112.256714971863,2021-09-02 13:24:41.480
377,-290.0,898.0,103.0,949.2697193105868,2021-09-02 13:24:41.489
378,-354.0,661.0,78.0,753.8706785649645,2021-09-02 13:24:41.499
379,-117.0,661.0,78.0,675.7913879297367,2021-09-02 13:24:41.509
380,-117.0,1079.0,-146.0,1095.1009085924456,2021-09-02 13:24:41.510
381,-214.0,1010.0,-238.0,1059.499882019814,2021-09-02 13:24:41.518
382,-285.0,933.0,113.0,982.0809538933132,2021-09-02 13:24:41.528
383,-432.0,808.0,65.0,918.538513073894,2021-09-02 13:24:41.537
384,-14.0,1038.0,-175.0,1052.7416587178452,2021-09-02 13:24:41.547
385,-43.0,1098.0,-74.0,1101.3305589149882,2021-09-02 13:24:41.557
386,-386.0,1012.0,36.0,1083.7139844073251,2021-09-02 13:24:41.567
387,-108.0,973.0,22.0,979.2226508818104,2021-09-02 13:24:41.578
388,-138.0,1040.0,22.0,1049.3464632808366,2021-09-02 13:24:41.598
389,-138.0,1040.0,-163.0,1061.702877456777,2021-09-02 13:24:41.599
390,-138.0,1053.0,-56.0,1063.479666002129,2021-09-02 13:24:41.600
391,-155.0,945.0,28.0,958.0365337501488,2021-09-02 13:24:41.607
392,-154.0,1100.0,5.0,1110.7389432265352,2021-09-02 13:24:41.616
393,-565.0,1031.0,-84.0,1178.6611048134234,2021-09-02 13:24:41.625
394,-194.0,830.0,-84.0,856.4998540571971,2021-09-02 13:24:41.635
395,-194.0,830.0,22.0,852.654678049678,2021-09-02 13:24:41.636
396,-204.0,910.0,-41.0,933.4864755313812,2021-09-02 13:24:41.645
397,-148.0,1046.0,-8.0,1056.4487682798442,2021-09-02 13:24:41.656
398,-482.0,1093.0,-8.0,1194.586539351587,2021-09-02 13:24:41.664
399,-482.0,1093.0,-125.0,1201.0820121873444,2021-09-02 13:24:41.665
400,-550.0,591.0,-6.0,807.3518439936828,2021-09-02 13:24:41.674
401,-166.0,736.0,-36.0,755.3462782062278,2021-09-02 13:24:41.684
402,-265.0,736.0,-36.0,783.0817326435345,2021-09-02 13:24:41.694
403,-265.0,1127.0,-150.0,1167.413380084364,2021-09-02 13:24:41.695
404,-297.0,946.0,27.0,991.8941475782584,2021-09-02 13:24:41.704
405,-319.0,868.0,-20.0,924.9783781256727,2021-09-02 13:24:41.714
406,-332.0,825.0,35.0,889.9853931385616,2021-09-02 13:24:41.723
407,-48.0,1087.0,-54.0,1089.398457865624,2021-09-02 13:24:41.733
408,-20.0,1137.0,-136.0,1145.2794418830715,2021-09-02 13:24:41.743
409,-447.0,884.0,-136.0,999.8804928590216,2021-09-02 13:24:41.753
410,-447.0,884.0,42.0,991.4781893718086,2021-09-02 13:24:41.754
411,-6.0,1139.0,97.0,1143.138661755432,2021-09-02 13:24:41.763
412,33.0,1032.0,97.0,1037.0737678680337,2021-09-02 13:24:41.771
413,33.0,1032.0,-145.0,1042.6591005693087,2021-09-02 13:24:41.772
414,-345.0,916.0,-156.0,991.1695112340776,2021-09-02 13:24:41.782
415,-123.0,1057.0,-156.0,1075.5063923566424,2021-09-02 13:24:41.791
416,-123.0,1057.0,43.0,1065.0009389667223,2021-09-02 13:24:41.792
417,-162.0,1057.0,43.0,1070.2065221255195,2021-09-02 13:24:41.800
418,-162.0,1130.0,-45.0,1142.439932775461,2021-09-02 13:24:41.801
419,-163.0,1010.0,-47.0,1024.1474503214856,2021-09-02 13:24:41.812
420,-346.0,967.0,-69.0,1029.352223488151,2021-09-02 13:24:41.821
421,-513.0,775.0,-69.0,931.9629820974652,2021-09-02 13:24:41.830
422,-513.0,775.0,41.0,930.3090884216922,2021-09-02 13:24:41.831
423,-217.0,775.0,41.0,805.8504824097333,2021-09-02 13:24:41.846
424,-217.0,1025.0,100.0,1052.4799285497088,2021-09-02 13:24:41.847
425,-347.0,1082.0,-69.0,1138.373400954186,2021-09-02 13:24:41.851
426,-483.0,805.0,-11.0,938.847697978751,2021-09-02 13:24:41.860
427,-124.0,936.0,11.0,944.2420240595098,2021-09-02 13:24:41.870
428,-305.0,822.0,11.0,876.8295159265568,2021-09-02 13:24:41.880
429,-305.0,822.0,27.0,877.1761510665916,2021-09-02 13:24:41.881
430,23.0,1112.0,-181.0,1126.8691139613331,2021-09-02 13:24:41.889
431,-28.0,1159.0,-44.0,1160.1728319522051,2021-09-02 13:24:41.900
432,-390.0,1159.0,-44.0,1223.649050994606,2021-09-02 13:24:41.908
433,-390.0,827.0,106.0,920.4699886471042,2021-09-02 13:24:41.909
434,312.0,1041.0,-71.0,1089.066572804436,2021-09-02 13:24:41.918
435,9.0,1182.0,-187.0,1196.734724155692,2021-09-02 13:24:41.929
436,-254.0,1068.0,42.0,1098.5918259299035,2021-09-02 13:24:41.938
437,-83.0,1032.0,42.0,1036.183863993259,2021-09-02 13:24:41.948
438,-83.0,1032.0,16.0,1035.4559382223852,2021-09-02 13:24:41.949
439,183.0,1032.0,16.0,1048.2218276681706,2021-09-02 13:24:41.957
440,183.0,917.0,-122.0,943.006892869824,2021-09-02 13:24:41.958
441,72.0,917.0,-122.0,927.8776859047748,2021-09-02 13:24:41.985
442,72.0,1161.0,-122.0,1169.6106189668424,2021-09-02 13:24:41.986
443,72.0,1161.0,28.0,1163.567359459692,2021-09-02 13:24:41.995
444,-177.0,1184.0,-55.0,1198.419792893959,2021-09-02 13:24:42.001
445,-307.0,1066.0,-96.0,1113.4724962925668,2021-09-02 13:24:42.014
446,-373.0,790.0,-96.0,878.8885025985948,2021-09-02 13:24:42.024
447,-373.0,790.0,-5.0,873.6440922938814,2021-09-02 13:24:42.025
448,-248.0,911.0,-4.0,944.161532789808,2021-09-02 13:24:42.030
449,-364.0,998.0,9.0,1062.34693015041,2021-09-02 13:24:42.036
450,-166.0,991.0,-95.0,1009.287867756271,2021-09-02 13:24:42.045
451,-50.0,1025.0,-91.0,1030.2456017862926,2021-09-02 13:24:42.056
452,-200.0,986.0,-151.0,1017.3480230481604,2021-09-02 13:24:42.066
453,-35.0,1086.0,-35.0,1087.127407436681,2021-09-02 13:24:42.075
454,-153.0,990.0,-35.0,1002.3642052667284,2021-09-02 13:24:42.084
455,-153.0,990.0,-41.0,1002.591641696658,2021-09-02 13:24:42.085
456,-40.0,945.0,-164.0,959.9588532848686,2021-09-02 13:24:42.094
457,64.0,1189.0,-180.0,1204.2495588539778,2021-09-02 13:24:42.111
458,-187.0,1189.0,-180.0,1217.000410846274,2021-09-02 13:24:42.114
459,-187.0,997.0,52.0,1015.7174804048614,2021-09-02 13:24:42.115
460,-419.0,921.0,-45.0,1012.8311804047108,2021-09-02 13:24:42.124
461,-182.0,1097.0,49.0,1113.0741215211142,2021-09-02 13:24:42.133
462,-250.0,1131.0,-7.0,1158.322062295284,2021-09-02 13:24:42.143
463,-283.0,876.0,-17.0,920.7355755047156,2021-09-02 13:24:42.154
464,-445.0,878.0,-17.0,984.4785421734696,2021-09-02 13:24:42.162
465,-445.0,878.0,-108.0,990.2388600736692,2021-09-02 13:24:42.163
466,-350.0,786.0,97.0,865.8550687037641,2021-09-02 13:24:42.173
467,-177.0,945.0,30.0,961.9012423320804,2021-09-02 13:24:42.182
468,-322.0,1028.0,60.0,1078.9198302005575,2021-09-02 13:24:42.192
469,-232.0,918.0,-57.0,948.5763016225948,2021-09-02 13:24:42.203
470,-141.0,1100.0,-135.0,1117.186645104568,2021-09-02 13:24:42.211
471,-264.0,856.0,48.0,897.0707887340888,2021-09-02 13:24:42.221
472,-330.0,856.0,48.0,918.6620706222718,2021-09-02 13:24:42.231
473,-330.0,743.0,65.0,815.5820007822634,2021-09-02 13:24:42.232
474,95.0,1071.0,-194.0,1092.5667027692175,2021-09-02 13:24:42.243
475,-409.0,1071.0,-194.0,1162.7372876105762,2021-09-02 13:24:42.251
476,-409.0,655.0,93.0,777.7885316716878,2021-09-02 13:24:42.252
477,299.0,1065.0,-79.0,1108.993687989251,2021-09-02 13:24:42.261
478,40.0,1177.0,-163.0,1188.906220019056,2021-09-02 13:24:42.270
479,-515.0,1019.0,83.0,1144.7598001327617,2021-09-02 13:24:42.280
480,-333.0,1019.0,83.0,1075.239043189932,2021-09-02 13:24:42.288
481,-333.0,1009.0,-20.0,1062.7182128861818,2021-09-02 13:24:42.289
482,-22.0,988.0,-62.0,990.1878609637668,2021-09-02 13:24:42.300
483,-5.0,1095.0,33.0,1095.5085577027685,2021-09-02 13:24:42.316
484,-284.0,1083.0,-78.0,1122.3319473310914,2021-09-02 13:24:42.320
485,-479.0,741.0,-8.0,882.3752036407188,2021-09-02 13:24:42.330
486,-281.0,864.0,-8.0,908.5818620245508,2021-09-02 13:24:42.338
487,-281.0,864.0,76.0,911.719803448406,2021-09-02 13:24:42.339
488,-177.0,1131.0,76.0,1147.2863635553244,2021-09-02 13:24:42.348
489,-177.0,1131.0,0.0,1144.7663517067576,2021-09-02 13:24:42.349
490,-383.0,924.0,-2.0,1000.2344725113207,2021-09-02 13:24:42.358
491,124.0,924.0,-2.0,932.2853640382864,2021-09-02 13:24:42.367
492,124.0,1116.0,-100.0,1127.3118468285518,2021-09-02 13:24:42.368
493,-259.0,1136.0,16.0,1165.2609149885702,2021-09-02 13:24:42.378
494,-146.0,967.0,6.0,977.9780161128368,2021-09-02 13:24:42.387
495,69.0,1065.0,-126.0,1074.6450576818377,2021-09-02 13:24:42.397
496,-189.0,1065.0,-126.0,1088.954544505876,2021-09-02 13:24:42.406
497,-189.0,1003.0,-145.0,1030.900092152484,2021-09-02 13:24:42.407
498,66.0,1107.0,-145.0,1118.405114437519,2021-09-02 13:24:42.416
499,66.0,1107.0,70.0,1111.172803842859,2021-09-02 13:24:42.417
500,-139.0,1013.0,-28.0,1022.8753589758628,2021-09-02 13:24:42.428
501,-196.0,991.0,-168.0,1024.070798333787,2021-09-02 13:24:42.437
502,-169.0,1104.0,-36.0,1117.4403787227309,2021-09-02 13:24:42.446
503,121.0,1104.0,-36.0,1111.1944024337056,2021-09-02 13:24:42.455
504,121.0,1099.0,40.0,1106.3643161273776,2021-09-02 13:24:42.456
505,80.0,1118.0,-3.0,1120.8626142395865,2021-09-02 13:24:42.468
506,-232.0,1069.0,-174.0,1107.6375761051086,2021-09-02 13:24:42.475
507,-415.0,1069.0,-174.0,1159.8543011947663,2021-09-02 13:24:42.486
508,-415.0,763.0,100.0,874.2962884514608,2021-09-02 13:24:42.487
509,-108.0,1101.0,58.0,1107.803682969144,2021-09-02 13:24:42.495
510,-188.0,1101.0,58.0,1118.4404320302444,2021-09-02 13:24:42.504
511,-188.0,1016.0,-136.0,1042.159296844777,2021-09-02 13:24:42.505
512,-167.0,977.0,-67.0,993.4319302297464,2021-09-02 13:24:42.514
513,-212.0,960.0,-67.0,985.4100669264548,2021-09-02 13:24:42.524
514,-212.0,960.0,-15.0,983.244120246849,2021-09-02 13:24:42.525
515,-405.0,752.0,79.0,857.7703655408013,2021-09-02 13:24:42.535
516,-30.0,1057.0,79.0,1060.3725760316513,2021-09-02 13:24:42.543
517,-30.0,1057.0,-69.0,1059.6744783186955,2021-09-02 13:24:42.544
518,-285.0,914.0,40.0,958.2384880602532,2021-09-02 13:24:42.559
519,-464.0,909.0,22.0,1020.813890971317,2021-09-02 13:24:42.563
520,-135.0,825.0,36.0,836.7472736734791,2021-09-02 13:24:42.573
521,146.0,1102.0,-295.0,1150.106516806161,2021-09-02 13:24:42.584
522,94.0,1130.0,-128.0,1141.1047278843428,2021-09-02 13:24:42.592
523,-88.0,1130.0,-128.0,1140.626143835043,2021-09-02 13:24:42.618
524,-88.0,1053.0,11.0,1056.7279687790988,2021-09-02 13:24:42.619
525,-47.0,1053.0,11.0,1054.105782167995,2021-09-02 13:24:42.622
526,-47.0,1151.0,-188.0,1167.1992117886305,2021-09-02 13:24:42.623
527,-153.0,1015.0,-119.0,1033.3416666330647,2021-09-02 13:24:42.631
528,-139.0,1051.0,-82.0,1063.318390699606,2021-09-02 13:24:42.642
529,-319.0,967.0,127.0,1026.147650194649,2021-09-02 13:24:42.651
530,-418.0,967.0,127.0,1061.104141920104,2021-09-02 13:24:42.660
531,-418.0,1020.0,-68.0,1104.422020787344,2021-09-02 13:24:42.661
532,-403.0,656.0,-87.0,774.7993288587697,2021-09-02 13:24:42.670
533,-225.0,774.0,91.0,811.1608964934145,2021-09-02 13:24:42.681
534,-453.0,1085.0,-85.0,1178.8379871721136,2021-09-02 13:24:42.690
535,-315.0,934.0,-28.0,986.0856960731152,2021-09-02 13:24:42.701
536,-366.0,802.0,-13.0,881.6626338912181,2021-09-02 13:24:42.709
537,-272.0,726.0,20.0,775.5385225764095,2021-09-02 13:24:42.719
538,-202.0,1089.0,-108.0,1112.829277113071,2021-09-02 13:24:42.729
539,-77.0,1143.0,-3.0,1145.594605434226,2021-09-02 13:24:42.739
540,-321.0,829.0,-5.0,888.9921259493809,2021-09-02 13:24:42.749
541,-70.0,829.0,-5.0,831.9651435006157,2021-09-02 13:24:42.758
542,-70.0,974.0,-125.0,984.4800658215482,2021-09-02 13:24:42.759
543,167.0,1122.0,-57.0,1135.7913540787322,2021-09-02 13:24:42.768
544,-242.0,972.0,-238.0,1029.55912894792,2021-09-02 13:24:42.778
545,-140.0,1063.0,-31.0,1072.627614785299,2021-09-02 13:24:42.788
546,-136.0,1054.0,-31.0,1063.1900112397595,2021-09-02 13:24:42.798
547,-136.0,1054.0,12.0,1062.8057207222776,2021-09-02 13:24:42.799
548,-48.0,1043.0,15.0,1044.211664366952,2021-09-02 13:24:42.807
549,-325.0,1086.0,-277.0,1166.9404440673054,2021-09-02 13:24:42.817
550,-526.0,827.0,212.0,1002.7706617168254,2021-09-02 13:24:42.827
551,-448.0,973.0,150.0,1081.6344114348433,2021-09-02 13:24:42.836
552,-314.0,1110.0,-92.0,1157.220808661856,2021-09-02 13:24:42.846
553,-430.0,741.0,28.0,857.1843442340743,2021-09-02 13:24:42.863
554,-138.0,874.0,40.0,885.7313362414136,2021-09-02 13:24:42.866
555,-234.0,1001.0,40.0,1028.7647933322758,2021-09-02 13:24:42.875
556,-234.0,1001.0,-59.0,1029.678590629134,2021-09-02 13:24:42.876
557,-406.0,1001.0,-59.0,1081.8123682043945,2021-09-02 13:24:42.888
558,-406.0,847.0,-19.0,939.4711278160707,2021-09-02 13:24:42.889
559,155.0,1287.0,-213.0,1313.6829906792582,2021-09-02 13:24:42.897
560,-186.0,864.0,141.0,894.9709492491921,2021-09-02 13:24:42.905
561,104.0,1023.0,141.0,1037.894985053883,2021-09-02 13:24:42.914
562,104.0,1023.0,-38.0,1028.9747324400148,2021-09-02 13:24:42.915
563,4.0,1113.0,-38.0,1113.6556918545336,2021-09-02 13:24:42.924
564,4.0,1113.0,-137.0,1121.4071517517625,2021-09-02 13:24:42.925
565,86.0,991.0,-89.0,998.6981525966692,2021-09-02 13:24:42.934
566,-122.0,1067.0,-89.0,1077.633518409668,2021-09-02 13:24:42.945
567,-122.0,1067.0,-31.0,1074.3993670884213,2021-09-02 13:24:42.946
568,198.0,1067.0,-31.0,1085.6583256255165,2021-09-02 13:24:42.953
569,198.0,909.0,-61.0,932.3121794763812,2021-09-02 13:24:42.954
570,-61.0,1171.0,-91.0,1176.113514929575,2021-09-02 13:24:42.963
571,-315.0,1118.0,38.0,1162.150162414479,2021-09-02 13:24:42.973
572,-569.0,732.0,103.0,932.8418944279894,2021-09-02 13:24:42.983
573,-14.0,1009.0,-65.0,1011.1884097437036,2021-09-02 13:24:42.994
574,73.0,1156.0,-93.0,1162.0301200915576,2021-09-02 13:24:43.003
575,-305.0,727.0,-108.0,795.7499607288712,2021-09-02 13:24:43.012
576,-104.0,899.0,25.0,905.340819802134,2021-09-02 13:24:43.022
577,-451.0,899.0,25.0,1006.0949259388996,2021-09-02 13:24:43.031
578,-451.0,1057.0,-1.0,1149.1958057702786,2021-09-02 13:24:43.032
579,-87.0,1037.0,-1.0,1040.6435508857007,2021-09-02 13:24:43.042
580,-87.0,1037.0,-151.0,1051.5412497852851,2021-09-02 13:24:43.043
581,-28.0,1071.0,-123.0,1078.403449549379,2021-09-02 13:24:43.052
582,-213.0,922.0,-26.0,946.6409034052988,2021-09-02 13:24:43.061
583,88.0,1165.0,-5.0,1168.3295767890154,2021-09-02 13:24:43.071
584,-35.0,1093.0,-5.0,1093.5716711766083,2021-09-02 13:24:43.080
585,-35.0,1093.0,-34.0,1094.0886618551533,2021-09-02 13:24:43.081
586,-68.0,979.0,-241.0,1010.5176891079146,2021-09-02 13:24:43.091
587,4.0,1171.0,-220.0,1191.4936004863812,2021-09-02 13:24:43.101
588,-120.0,1171.0,-220.0,1197.5145093066722,2021-09-02 13:24:43.110
589,-120.0,1093.0,26.0,1099.87499289692,2021-09-02 13:24:43.111
590,-113.0,1016.0,31.0,1022.7345696709386,2021-09-02 13:24:43.126
591,48.0,1133.0,-152.0,1144.1577688413429,2021-09-02 13:24:43.130
592,-260.0,932.0,-38.0,968.3325874925412,2021-09-02 13:24:43.139
593,-267.0,835.0,-55.0,878.3729276338155,2021-09-02 13:24:43.150
594,-234.0,839.0,-122.0,879.5231662668131,2021-09-02 13:24:43.160
595,-461.0,746.0,-122.0,885.3931330205809,2021-09-02 13:24:43.168
596,-461.0,746.0,78.0,880.4095637826749,2021-09-02 13:24:43.169
597,-209.0,857.0,80.0,885.7369812760445,2021-09-02 13:24:43.178
598,-435.0,1010.0,-37.0,1100.3154093258895,2021-09-02 13:24:43.188
599,-318.0,826.0,-17.0,885.2621080787317,2021-09-02 13:24:43.199
600,-254.0,923.0,-104.0,962.943923600954,2021-09-02 13:24:43.209
601,-217.0,923.0,-104.0,953.8521898072048,2021-09-02 13:24:43.217
602,-217.0,869.0,-20.0,895.907361282404,2021-09-02 13:24:43.218
603,-193.0,936.0,68.0,958.1069877628488,2021-09-02 13:24:43.227
604,-77.0,994.0,-130.0,1005.4178235937536,2021-09-02 13:24:43.237
605,-242.0,1093.0,-128.0,1126.76395043505,2021-09-02 13:24:43.247
606,-136.0,1075.0,65.0,1085.5164669409671,2021-09-02 13:24:43.257
607,-552.0,810.0,187.0,997.8842618259896,2021-09-02 13:24:43.266
608,-597.0,991.0,0.0,1156.9312857728414,2021-09-02 13:24:43.276
609,-259.0,1000.0,75.0,1035.715211822246,2021-09-02 13:24:43.286
610,112.0,1075.0,-135.0,1089.2171500669645,2021-09-02 13:24:43.297
611,-82.0,1116.0,-135.0,1127.1224423282504,2021-09-02 13:24:43.305
612,-82.0,1116.0,24.0,1119.265830801602,2021-09-02 13:24:43.306
613,-494.0,1116.0,24.0,1220.683415140879,2021-09-02 13:24:43.315
614,-494.0,1075.0,-42.0,1183.8179758729802,2021-09-02 13:24:43.316
615,-358.0,741.0,33.0,823.6103447626189,2021-09-02 13:24:43.325
616,-247.0,741.0,33.0,781.7793806439256,2021-09-02 13:24:43.334
617,-247.0,914.0,-11.0,946.8505689917496,2021-09-02 13:24:43.335
618,-121.0,1077.0,22.0,1083.9990774903824,2021-09-02 13:24:43.353
619,-416.0,1077.0,22.0,1154.7592822748818,2021-09-02 13:24:43.355
620,-416.0,933.0,-3.0,1021.5449084597308,2021-09-02 13:24:43.356
621,-351.0,948.0,-41.0,1011.724270737833,2021-09-02 13:24:43.365
622,-354.0,795.0,-41.0,871.2186866682785,2021-09-02 13:24:43.373
623,-354.0,795.0,18.0,870.4395441384772,2021-09-02 13:24:43.374
624,-314.0,867.0,-1.0,922.1095379617326,2021-09-02 13:24:43.384
625,75.0,1121.0,-84.0,1126.641912943061,2021-09-02 13:24:43.393
626,-198.0,999.0,-84.0,1021.8908943718012,2021-09-02 13:24:43.403
627,-198.0,999.0,-83.0,1021.8091798374096,2021-09-02 13:24:43.404
628,153.0,999.0,-83.0,1014.0507876827472,2021-09-02 13:24:43.413
629,153.0,1145.0,50.0,1156.258621589478,2021-09-02 13:24:43.414
630,-166.0,1036.0,40.0,1049.9771426083523,2021-09-02 13:24:43.423
631,-84.0,967.0,-183.0,987.7418691135856,2021-09-02 13:24:43.432
632,92.0,1154.0,-130.0,1164.937766578112,2021-09-02 13:24:43.442
633,52.0,1154.0,-130.0,1162.4629026338862,2021-09-02 13:24:43.451
634,52.0,1156.0,84.0,1160.2137734055736,2021-09-02 13:24:43.452
635,-90.0,1055.0,73.0,1061.3453726285331,2021-09-02 13:24:43.462
636,-195.0,1055.0,73.0,1075.3506404889524,2021-09-02 13:24:43.471
637,-195.0,1090.0,-181.0,1122.0008912652431,2021-09-02 13:24:43.472
638,-279.0,798.0,0.0,845.3667843013469,2021-09-02 13:24:43.481
639,-48.0,1118.0,98.0,1123.312957283054,2021-09-02 13:24:43.491
640,-150.0,1169.0,98.0,1182.651681603675,2021-09-02 13:24:43.500
641,-150.0,1169.0,-47.0,1179.5210892561438,2021-09-02 13:24:43.501
642,-518.0,884.0,-6.0,1024.605289855562,2021-09-02 13:24:43.511
643,-149.0,975.0,40.0,987.1301839169948,2021-09-02 13:24:43.520
644,-549.0,889.0,22.0,1045.0865992825666,2021-09-02 13:24:43.530
645,-26.0,1037.0,-100.0,1042.134828129259,2021-09-02 13:24:43.540
646,20.0,1238.0,-205.0,1255.0175297580508,2021-09-02 13:24:43.549
647,-342.0,942.0,105.0,1007.647259709468,2021-09-02 13:24:43.562
648,2.0,942.0,105.0,947.8359562709152,2021-09-02 13:24:43.570
649,2.0,860.0,90.0,864.698791487533,2021-09-02 13:24:43.571
650,282.0,1078.0,-265.0,1145.352784080084,2021-09-02 13:24:43.579
651,22.0,1185.0,-209.0,1203.4907560924596,2021-09-02 13:24:43.588
652,-102.0,1085.0,56.0,1091.2217923043877,2021-09-02 13:24:43.599
653,-19.0,902.0,45.0,903.3216481409044,2021-09-02 13:24:43.608
654,94.0,902.0,45.0,908.000550660626,2021-09-02 13:24:43.618
655,94.0,1104.0,-155.0,1118.7837145757887,2021-09-02 13:24:43.619
656,-358.0,1120.0,-68.0,1177.7894548687384,2021-09-02 13:24:43.640
657,-358.0,876.0,28.0,946.7438935636184,2021-09-02 13:24:43.641
658,-315.0,904.0,4.0,957.3176066489116,2021-09-02 13:24:43.647
659,-338.0,904.0,4.0,965.1300430511942,2021-09-02 13:24:43.656
660,-338.0,967.0,-85.0,1027.8900719434937,2021-09-02 13:24:43.657
661,-520.0,629.0,-85.0,820.527878868232,2021-09-02 13:24:43.666
662,-520.0,629.0,-73.0,819.3717105197128,2021-09-02 13:24:43.667
663,-239.0,779.0,68.0,817.6710830156586,2021-09-02 13:24:43.676
664,-306.0,1066.0,68.0,1111.1327553447427,2021-09-02 13:24:43.686
665,-306.0,1066.0,-126.0,1116.1845725506157,2021-09-02 13:24:43.687
666,-65.0,1057.0,-7.0,1059.019829842671,2021-09-02 13:24:43.697
667,-354.0,1057.0,-7.0,1114.725975296171,2021-09-02 13:24:43.705
668,-354.0,964.0,-21.0,1027.1577288810126,2021-09-02 13:24:43.706
669,-203.0,792.0,-48.0,819.0097679515184,2021-09-02 13:24:43.715
670,110.0,1075.0,-108.0,1085.996777159122,2021-09-02 13:24:43.725
671,-24.0,1170.0,-108.0,1175.219128503276,2021-09-02 13:24:43.735
672,-24.0,1170.0,-96.0,1174.1771586945472,2021-09-02 13:24:43.736
673,-179.0,981.0,-41.0,998.0395783735232,2021-09-02 13:24:43.746
674,43.0,1031.0,-79.0,1034.915938615306,2021-09-02 13:24:43.754
675,-16.0,1218.0,-89.0,1221.3521195789526,2021-09-02 13:24:43.764
676,-523.0,919.0,-89.0,1061.136654724546,2021-09-02 13:24:43.775
677,-523.0,919.0,-151.0,1068.124992685781,2021-09-02 13:24:43.776
678,-301.0,945.0,-9.0,991.820044161238,2021-09-02 13:24:43.784
679,-84.0,1134.0,3.0,1137.110812542032,2021-09-02 13:24:43.795
680,-181.0,1134.0,3.0,1148.357958129781,2021-09-02 13:24:43.803
681,-181.0,1037.0,10.0,1052.7250353249892,2021-09-02 13:24:43.804
682,-608.0,941.0,-66.0,1122.2749217549149,2021-09-02 13:24:43.813
683,-640.0,710.0,-66.0,958.152388714864,2021-09-02 13:24:43.822
684,-640.0,710.0,-77.0,958.9728880422012,2021-09-02 13:24:43.823
685,-139.0,953.0,-77.0,966.1568195691628,2021-09-02 13:24:43.832
686,-139.0,953.0,38.0,963.8329730819548,2021-09-02 13:24:43.833
687,-386.0,1140.0,57.0,1204.9253088884805,2021-09-02 13:24:43.843
688,-362.0,756.0,52.0,839.8118836977719,2021-09-02 13:24:43.853
689,-127.0,927.0,-194.0,955.5595219555922,2021-09-02 13:24:43.862
690,-251.0,965.0,-42.0,997.992985947296,2021-09-02 13:24:43.878
691,-396.0,898.0,171.0,996.22336852736,2021-09-02 13:24:43.883
692,192.0,1141.0,-97.0,1161.1003401945932,2021-09-02 13:24:43.891
693,-255.0,1028.0,160.0,1071.171788276745,2021-09-02 13:24:43.900
694,166.0,1156.0,11.0,1167.909671164684,2021-09-02 13:24:43.912
695,11.0,1002.0,-130.0,1010.4578170314682,2021-09-02 13:24:43.920
696,-272.0,995.0,-95.0,1035.8735444058798,2021-09-02 13:24:43.930
697,-145.0,1106.0,-65.0,1117.3567022218106,2021-09-02 13:24:43.940
698,-8.0,1104.0,44.0,1104.9054258170695,2021-09-02 13:24:43.950
699,-181.0,1040.0,76.0,1058.3652488626033,2021-09-02 13:24:43.960
700,-224.0,1050.0,-99.0,1078.1822665950317,2021-09-02 13:24:43.969
701,-484.0,852.0,62.0,981.8370536906824,2021-09-02 13:24:43.979
702,-385.0,969.0,105.0,1047.9556288316792,2021-09-02 13:24:43.989
703,-166.0,1052.0,-89.0,1068.7286839979547,2021-09-02 13:24:43.999
704,-210.0,964.0,-6.0,986.6265757620764,2021-09-02 13:24:44.009
705,3.0,1006.0,-59.0,1007.7330995854012,2021-09-02 13:24:44.018
706,-177.0,778.0,-51.0,799.5085990782088,2021-09-02 13:24:44.028
707,96.0,1128.0,-1.0,1132.0781775124897,2021-09-02 13:24:44.038
708,153.0,1288.0,-146.0,1305.2467199728949,2021-09-02 13:24:44.047
709,-366.0,892.0,19.0,964.3552250078806,2021-09-02 13:24:44.058
710,86.0,958.0,53.0,963.3114761072868,2021-09-02 13:24:44.067
711,43.0,1086.0,53.0,1088.1424539094137,2021-09-02 13:24:44.076
712,43.0,1086.0,-199.0,1104.9190015562226,2021-09-02 13:24:44.077
713,-71.0,1090.0,-124.0,1099.3257024194422,2021-09-02 13:24:44.086
714,-111.0,1090.0,-124.0,1102.6318515261564,2021-09-02 13:24:44.096
715,-111.0,1055.0,8.0,1060.853430026976,2021-09-02 13:24:44.097
716,56.0,890.0,29.0,892.2314722088657,2021-09-02 13:24:44.107
717,68.0,1104.0,29.0,1106.47232229279,2021-09-02 13:24:44.115
718,68.0,1104.0,-92.0,1109.9117082002515,2021-09-02 13:24:44.116
719,-212.0,869.0,-77.0,897.7939630004203,2021-09-02 13:24:44.131
720,-210.0,896.0,-114.0,927.3144019155532,2021-09-02 13:24:44.136
721,-404.0,881.0,155.0,981.5304376329856,2021-09-02 13:24:44.145
722,-305.0,1018.0,-38.0,1063.387511681419,2021-09-02 13:24:44.156
723,-162.0,783.0,-138.0,811.4043381693248,2021-09-02 13:24:44.165
724,-10.0,945.0,57.0,946.7702994919094,2021-09-02 13:24:44.174
725,-363.0,966.0,151.0,1042.9410338077605,2021-09-02 13:24:44.185
726,-77.0,1078.0,-97.0,1085.090779612471,2021-09-02 13:24:44.194
727,-66.0,1017.0,-63.0,1021.0847173471944,2021-09-02 13:24:44.205
728,-244.0,883.0,20.0,916.3105368814656,2021-09-02 13:24:44.214
729,127.0,1096.0,-17.0,1103.464544061113,2021-09-02 13:24:44.223
730,-66.0,1166.0,-17.0,1167.9901540680896,2021-09-02 13:24:44.233
731,-66.0,1166.0,-84.0,1170.8834271608766,2021-09-02 13:24:44.234
732,-4.0,1166.0,-84.0,1169.0286566205295,2021-09-02 13:24:44.242
733,-4.0,1016.0,-64.0,1018.0216107725807,2021-09-02 13:24:44.243
734,-391.0,987.0,89.0,1065.3501771718068,2021-09-02 13:24:44.253
735,-166.0,1070.0,-92.0,1086.7014309367592,2021-09-02 13:24:44.262
736,-319.0,916.0,-85.0,973.6744835929512,2021-09-02 13:24:44.272
737,-291.0,898.0,-30.0,944.4495751494624,2021-09-02 13:24:44.282
738,-366.0,952.0,117.0,1026.6201829303766,2021-09-02 13:24:44.292
739,-286.0,854.0,-50.0,902.0044345788992,2021-09-02 13:24:44.302
740,-256.0,886.0,-106.0,928.314601845732,2021-09-02 13:24:44.311
741,-400.0,875.0,3.0,962.0987475306264,2021-09-02 13:24:44.321
742,-249.0,1007.0,52.0,1038.6308295058452,2021-09-02 13:24:44.331
743,-537.0,985.0,-48.0,1122.8971457796124,2021-09-02 13:24:44.341
744,-222.0,797.0,-87.0,831.9026385341016,2021-09-02 13:24:44.350
745,-136.0,797.0,-87.0,813.1875552417167,2021-09-02 13:24:44.360
746,-136.0,1018.0,-112.0,1033.1330988793263,2021-09-02 13:24:44.361
747,-286.0,1016.0,-26.0,1055.8068005085022,2021-09-02 13:24:44.370
748,33.0,1113.0,-101.0,1118.0603740406866,2021-09-02 13:24:44.389
749,-71.0,1185.0,-84.0,1190.0932736554728,2021-09-02 13:24:44.391
750,-301.0,817.0,141.0,882.0266435885029,2021-09-02 13:24:44.401
751,14.0,1102.0,38.0,1102.7438505836249,2021-09-02 13:24:44.409
752,-38.0,1057.0,-143.0,1067.305954260539,2021-09-02 13:24:44.423
753,-571.0,1033.0,10.0,1180.3516425201433,2021-09-02 13:24:44.428
754,-264.0,1017.0,-7.0,1050.7302222740143,2021-09-02 13:24:44.438
755,-44.0,1041.0,-211.0,1063.0794890317468,2021-09-02 13:24:44.449
756,-203.0,1013.0,-45.0,1034.11943217406,2021-09-02 13:24:44.458
757,-666.0,916.0,-75.0,1135.0052863313017,2021-09-02 13:24:44.467
758,-359.0,825.0,100.0,905.2657068507566,2021-09-02 13:24:44.477
759,-172.0,959.0,14.0,974.402894084372,2021-09-02 13:24:44.487
760,-31.0,939.0,65.0,941.7573997585578,2021-09-02 13:24:44.497
761,-344.0,732.0,100.0,814.9601217237565,2021-09-02 13:24:44.509
762,-161.0,903.0,32.0,917.7984528206616,2021-09-02 13:24:44.516
763,40.0,1076.0,-13.0,1076.8217122625267,2021-09-02 13:24:44.526
764,-145.0,1076.0,-13.0,1085.803849689252,2021-09-02 13:24:44.535
765,-145.0,1048.0,-66.0,1060.0400935813702,2021-09-02 13:24:44.536
766,-154.0,960.0,89.0,976.3385683255578,2021-09-02 13:24:44.546
767,-101.0,971.0,128.0,984.5943327076384,2021-09-02 13:24:44.557
768,-84.0,931.0,57.0,936.518019047151,2021-09-02 13:24:44.565
769,-95.0,931.0,57.0,937.5686641521248,2021-09-02 13:24:44.574
770,-95.0,1007.0,150.0,1022.5331290476609,2021-09-02 13:24:44.575
771,-108.0,969.0,150.0,986.4709828474428,2021-09-02 13:24:44.584
772,-108.0,969.0,130.0,983.6284867774012,2021-09-02 13:24:44.585
773,20.0,1068.0,1.0,1068.187717585257,2021-09-02 13:24:44.594
774,-81.0,1001.0,122.0,1011.6550795602224,2021-09-02 13:24:44.605
775,-170.0,927.0,142.0,953.096532361754,2021-09-02 13:24:44.614
776,-190.0,1039.0,-47.0,1057.2747987160196,2021-09-02 13:24:44.623
777,-308.0,1103.0,-67.0,1147.153869365396,2021-09-02 13:24:44.633
778,-268.0,984.0,-99.0,1024.6370088963213,2021-09-02 13:24:44.661
779,-119.0,1039.0,36.0,1046.4119647634004,2021-09-02 13:24:44.664
780,-40.0,1138.0,-74.0,1141.1047278843428,2021-09-02 13:24:44.673
781,-245.0,1021.0,14.0,1050.0771400235317,2021-09-02 13:24:44.684
782,-253.0,946.0,-48.0,980.4228679503552,2021-09-02 13:24:44.692
783,-101.0,1001.0,-48.0,1007.2268860589456,2021-09-02 13:24:44.701
784,-101.0,1001.0,-77.0,1009.0247767027328,2021-09-02 13:24:44.702
785,-191.0,1049.0,17.0,1066.3822016519218,2021-09-02 13:24:44.711
786,-272.0,941.0,-15.0,979.6376881276057,2021-09-02 13:24:44.721
787,-113.0,911.0,-123.0,926.185186666252,2021-09-02 13:24:44.732
788,-164.0,1102.0,-21.0,1114.3343304412729,2021-09-02 13:24:44.741
789,-6.0,1102.0,-21.0,1102.2164034344617,2021-09-02 13:24:44.750
790,-6.0,1025.0,-149.0,1035.7905193619026,2021-09-02 13:24:44.751
791,-134.0,993.0,-72.0,1004.5839935017876,2021-09-02 13:24:44.760
792,-313.0,1042.0,110.0,1093.5414944116203,2021-09-02 13:24:44.770
793,-242.0,1066.0,-31.0,1093.5634412323775,2021-09-02 13:24:44.781
794,-203.0,782.0,-65.0,810.5294565899502,2021-09-02 13:24:44.790
795,-148.0,941.0,6.0,952.586479013848,2021-09-02 13:24:44.799
796,-144.0,1099.0,-17.0,1108.5242442093904,2021-09-02 13:24:44.809
797,-208.0,940.0,-7.0,962.7632107636852,2021-09-02 13:24:44.819
798,-163.0,961.0,7.0,974.7507373682772,2021-09-02 13:24:44.830
799,-94.0,994.0,-23.0,998.6996545508564,2021-09-02 13:24:44.839
800,-147.0,1057.0,16.0,1067.292837041456,2021-09-02 13:24:44.848
801,-209.0,1057.0,16.0,1077.5834074446395,2021-09-02 13:24:44.860
802,-209.0,1040.0,24.0,1061.0640885450794,2021-09-02 13:24:44.861
803,-190.0,814.0,-9.0,835.9288247213395,2021-09-02 13:24:44.867
804,-284.0,891.0,95.0,939.9797870167208,2021-09-02 13:24:44.879
805,-111.0,958.0,-68.0,966.8034960631866,2021-09-02 13:24:44.892
