,Acceleration_X,Acceleration_Y,Acceleration_Z,magnitude,time_stamp
0,-304.0,931.0,-94.0,983.8765166422056,2021-09-02 13:25:08.296
1,-304.0,986.0,19.0,1031.9752904018585,2021-09-02 13:25:08.297
2,159.0,1251.0,-256.0,1286.785918480615,2021-09-02 13:25:08.305
3,-555.0,1065.0,-203.0,1217.9733166206886,2021-09-02 13:25:08.316
4,-490.0,848.0,-11.0,979.4513770473754,2021-09-02 13:25:08.326
5,-487.0,848.0,-11.0,977.9539866476337,2021-09-02 13:25:08.334
6,-487.0,905.0,-72.0,1030.2320127039343,2021-09-02 13:25:08.335
7,-156.0,905.0,-72.0,921.1650232178814,2021-09-02 13:25:08.344
8,-156.0,775.0,152.0,805.0248443371173,2021-09-02 13:25:08.345
9,-469.0,740.0,2.0,876.1078700708035,2021-09-02 13:25:08.354
10,-289.0,1176.0,-148.0,1220.0004098359968,2021-09-02 13:25:08.365
11,-413.0,685.0,-148.0,813.4482159301845,2021-09-02 13:25:08.374
12,-413.0,685.0,0.0,799.8712396379807,2021-09-02 13:25:08.375
13,114.0,1120.0,-219.0,1146.8901429517998,2021-09-02 13:25:08.384
14,-160.0,1120.0,-219.0,1152.37190177477,2021-09-02 13:25:08.392
15,-160.0,1121.0,-257.0,1161.1589038542486,2021-09-02 13:25:08.393
16,-518.0,970.0,20.0,1099.8290776297924,2021-09-02 13:25:08.403
17,-278.0,1052.0,20.0,1088.2959156405946,2021-09-02 13:25:08.413
18,-278.0,1052.0,27.0,1088.44705888711,2021-09-02 13:25:08.414
19,-39.0,1064.0,-148.0,1074.951626818621,2021-09-02 13:25:08.423
20,-106.0,1070.0,61.0,1076.966573297426,2021-09-02 13:25:08.432
21,-367.0,1070.0,61.0,1132.832732577939,2021-09-02 13:25:08.441
22,-367.0,1135.0,-71.0,1194.9707109381384,2021-09-02 13:25:08.442
23,-492.0,619.0,-17.0,790.8944303761407,2021-09-02 13:25:08.451
24,-164.0,619.0,-17.0,640.5825473738728,2021-09-02 13:25:08.461
25,-164.0,900.0,114.0,921.8958726450618,2021-09-02 13:25:08.462
26,-224.0,1227.0,-2.0,1247.2806420369077,2021-09-02 13:25:08.473
27,-427.0,911.0,-2.0,1006.1083440663832,2021-09-02 13:25:08.481
28,-427.0,911.0,-23.0,1006.3692165403312,2021-09-02 13:25:08.482
29,46.0,1140.0,-95.0,1144.8759758157212,2021-09-02 13:25:08.491
30,-249.0,1125.0,125.0,1158.987057736194,2021-09-02 13:25:08.501
31,-169.0,954.0,-92.0,973.2116933124056,2021-09-02 13:25:08.510
32,15.0,1069.0,-92.0,1073.0563824888234,2021-09-02 13:25:08.520
33,15.0,1069.0,-120.0,1075.8187579699472,2021-09-02 13:25:08.521
34,-216.0,1107.0,-84.0,1131.0,2021-09-02 13:25:08.531
35,141.0,1158.0,-37.0,1167.1392376233437,2021-09-02 13:25:08.540
36,-93.0,1064.0,-4.0,1068.0641366509783,2021-09-02 13:25:08.551
37,-135.0,1045.0,-253.0,1083.6323177166691,2021-09-02 13:25:08.560
38,-61.0,1045.0,-253.0,1076.9192170260496,2021-09-02 13:25:08.569
39,-61.0,1055.0,-126.0,1064.2471517462473,2021-09-02 13:25:08.570
40,166.0,1112.0,72.0,1126.6250485409953,2021-09-02 13:25:08.579
41,49.0,1101.0,-23.0,1102.3298054575137,2021-09-02 13:25:08.588
42,-169.0,1189.0,-116.0,1206.539680242635,2021-09-02 13:25:08.598
43,-474.0,797.0,-116.0,934.5271531635664,2021-09-02 13:25:08.607
44,-474.0,797.0,139.0,937.6598530384032,2021-09-02 13:25:08.608
45,-408.0,912.0,-65.0,1001.2157609626408,2021-09-02 13:25:08.618
46,-147.0,1016.0,-25.0,1026.8836350823788,2021-09-02 13:25:08.628
47,-278.0,913.0,-79.0,957.65024930817,2021-09-02 13:25:08.637
48,-166.0,898.0,-79.0,916.624786922108,2021-09-02 13:25:08.647
49,-166.0,898.0,21.0,913.455527105726,2021-09-02 13:25:08.648
50,-555.0,720.0,21.0,909.3217252436016,2021-09-02 13:25:08.656
51,-555.0,720.0,-27.0,909.4800712495024,2021-09-02 13:25:08.657
52,-102.0,944.0,-196.0,969.5132799503058,2021-09-02 13:25:08.666
53,23.0,1319.0,-244.0,1341.5759389613395,2021-09-02 13:25:08.677
54,-563.0,915.0,9.0,1074.3719095359857,2021-09-02 13:25:08.692
55,-218.0,868.0,42.0,895.9419624060478,2021-09-02 13:25:08.697
56,167.0,1130.0,-411.0,1213.9645793844234,2021-09-02 13:25:08.706
57,142.0,1216.0,-143.0,1232.586305294684,2021-09-02 13:25:08.715
58,-199.0,1136.0,-62.0,1154.963635791188,2021-09-02 13:25:08.726
59,-67.0,1203.0,-62.0,1206.4584534910434,2021-09-02 13:25:08.734
60,-67.0,1203.0,-24.0,1205.1033150730273,2021-09-02 13:25:08.735
61,-563.0,950.0,-51.0,1105.4727495510688,2021-09-02 13:25:08.744
62,-283.0,911.0,0.0,953.94444282673,2021-09-02 13:25:08.754
63,-77.0,916.0,-11.0,919.2964701335472,2021-09-02 13:25:08.769
64,-166.0,985.0,-11.0,998.9504492215816,2021-09-02 13:25:08.774
65,-166.0,985.0,134.0,1007.8377845665442,2021-09-02 13:25:08.775
66,-408.0,1102.0,-30.0,1175.4862823529672,2021-09-02 13:25:08.784
67,-611.0,486.0,56.0,782.7215341358636,2021-09-02 13:25:08.794
68,-239.0,690.0,159.0,747.329913759646,2021-09-02 13:25:08.804
69,-254.0,1156.0,-118.0,1189.4435673877092,2021-09-02 13:25:08.813
70,-279.0,961.0,-39.0,1001.4404625338444,2021-09-02 13:25:08.823
71,-354.0,883.0,-14.0,951.4205169114232,2021-09-02 13:25:08.834
72,-187.0,697.0,-37.0,722.5973982792908,2021-09-02 13:25:08.842
73,-185.0,992.0,-126.0,1016.939034554186,2021-09-02 13:25:08.852
74,20.0,1244.0,-141.0,1252.124993760607,2021-09-02 13:25:08.862
75,-359.0,855.0,79.0,930.6701886275288,2021-09-02 13:25:08.871
76,201.0,1064.0,91.0,1086.6360936394483,2021-09-02 13:25:08.882
77,96.0,1064.0,91.0,1072.190747954859,2021-09-02 13:25:08.892
78,96.0,1170.0,-34.0,1174.424114193846,2021-09-02 13:25:08.893
79,-537.0,974.0,-169.0,1124.9915555238626,2021-09-02 13:25:08.901
80,-183.0,996.0,43.0,1013.5847275881777,2021-09-02 13:25:08.910
81,-59.0,1151.0,48.0,1153.5102947091543,2021-09-02 13:25:08.920
82,-191.0,973.0,63.0,993.5688199616573,2021-09-02 13:25:08.931
83,-464.0,894.0,-57.0,1008.8513270051242,2021-09-02 13:25:08.947
84,-407.0,709.0,-57.0,819.4992373394865,2021-09-02 13:25:08.950
85,-407.0,709.0,142.0,829.7553856408526,2021-09-02 13:25:08.951
86,32.0,709.0,142.0,723.7879523727927,2021-09-02 13:25:08.959
87,32.0,957.0,190.0,976.2033599614376,2021-09-02 13:25:08.960
88,-435.0,1131.0,68.0,1213.6762335977417,2021-09-02 13:25:08.971
89,-460.0,621.0,86.0,777.5840790551206,2021-09-02 13:25:08.979
90,-87.0,621.0,86.0,632.9344357830438,2021-09-02 13:25:08.988
91,-87.0,863.0,-151.0,880.4197862383603,2021-09-02 13:25:08.989
92,-119.0,856.0,29.0,864.7184512892043,2021-09-02 13:25:08.999
93,127.0,1187.0,-254.0,1220.4974395712593,2021-09-02 13:25:09.008
94,117.0,1212.0,-223.0,1237.8861013841297,2021-09-02 13:25:09.018
95,-323.0,894.0,50.0,951.8744665133108,2021-09-02 13:25:09.029
96,270.0,1154.0,-4.0,1185.1717175160736,2021-09-02 13:25:09.038
97,77.0,1154.0,-4.0,1156.5729548973554,2021-09-02 13:25:09.047
98,77.0,1035.0,-134.0,1046.4750355359654,2021-09-02 13:25:09.048
99,-433.0,1107.0,-71.0,1190.7892340796502,2021-09-02 13:25:09.057
100,-248.0,1107.0,-71.0,1136.659139760025,2021-09-02 13:25:09.067
101,-248.0,1102.0,12.0,1129.6247164434744,2021-09-02 13:25:09.068
102,168.0,866.0,88.0,886.5235473466004,2021-09-02 13:25:09.078
103,-253.0,866.0,88.0,906.4816600461368,2021-09-02 13:25:09.086
104,-253.0,1094.0,-20.0,1123.0516461855173,2021-09-02 13:25:09.087
105,-400.0,1175.0,-113.0,1246.352277648659,2021-09-02 13:25:09.109
106,-400.0,814.0,221.0,933.5079003415022,2021-09-02 13:25:09.110
107,-91.0,1002.0,-73.0,1008.7685562109874,2021-09-02 13:25:09.117
108,-228.0,1272.0,-73.0,1294.3326465789232,2021-09-02 13:25:09.125
109,-228.0,1272.0,-81.0,1294.8084800463737,2021-09-02 13:25:09.126
110,-446.0,719.0,-21.0,846.3557171780669,2021-09-02 13:25:09.135
111,-46.0,940.0,52.0,942.5603428958806,2021-09-02 13:25:09.145
112,-325.0,1014.0,52.0,1066.0792653456872,2021-09-02 13:25:09.154
113,-325.0,1014.0,-84.0,1068.1184391255497,2021-09-02 13:25:09.155
114,-18.0,1014.0,-84.0,1017.6325466493296,2021-09-02 13:25:09.181
115,-18.0,1117.0,-113.0,1122.8454924877242,2021-09-02 13:25:09.182
116,-276.0,920.0,-186.0,978.3516750126204,2021-09-02 13:25:09.185
117,6.0,920.0,-186.0,938.6330486404152,2021-09-02 13:25:09.194
118,6.0,1056.0,6.0,1056.0340903588292,2021-09-02 13:25:09.195
119,-1.0,1135.0,-95.0,1138.9692708760847,2021-09-02 13:25:09.204
120,-105.0,1091.0,-227.0,1119.3011212359254,2021-09-02 13:25:09.215
121,-9.0,1091.0,-227.0,1114.4016331646324,2021-09-02 13:25:09.222
122,-9.0,1093.0,-12.0,1093.102922875975,2021-09-02 13:25:09.223
123,42.0,1002.0,41.0,1003.7175897631764,2021-09-02 13:25:09.233
124,-441.0,670.0,29.0,802.6344124195025,2021-09-02 13:25:09.243
125,-199.0,944.0,48.0,965.9404743564688,2021-09-02 13:25:09.252
126,-63.0,1169.0,-18.0,1170.8347449576306,2021-09-02 13:25:09.263
127,-400.0,935.0,149.0,1027.8258607371192,2021-09-02 13:25:09.273
128,-428.0,688.0,96.0,815.9313696629147,2021-09-02 13:25:09.282
129,-384.0,647.0,24.0,752.7556044294855,2021-09-02 13:25:09.291
130,48.0,837.0,90.0,843.1921489198058,2021-09-02 13:25:09.301
131,-575.0,1142.0,90.0,1281.752316167207,2021-09-02 13:25:09.311
132,-575.0,1142.0,12.0,1278.6449859128218,2021-09-02 13:25:09.312
133,-319.0,1142.0,12.0,1185.7778038064298,2021-09-02 13:25:09.321
134,-319.0,875.0,72.0,934.1145540028804,2021-09-02 13:25:09.322
135,-280.0,898.0,-189.0,959.4399407987976,2021-09-02 13:25:09.331
136,-238.0,912.0,16.0,942.6791606904228,2021-09-02 13:25:09.340
137,-144.0,945.0,14.0,956.010983200507,2021-09-02 13:25:09.350
138,162.0,945.0,14.0,958.8873760770864,2021-09-02 13:25:09.360
139,162.0,1146.0,-122.0,1163.8058257286737,2021-09-02 13:25:09.361
140,-528.0,800.0,8.0,958.5655950429266,2021-09-02 13:25:09.371
141,-18.0,1019.0,64.0,1021.166489853638,2021-09-02 13:25:09.384
142,47.0,1031.0,-226.0,1056.525437459979,2021-09-02 13:25:09.389
143,-376.0,969.0,117.0,1045.9569780827508,2021-09-02 13:25:09.399
144,-410.0,1102.0,-59.0,1177.2786416137856,2021-09-02 13:25:09.409
145,93.0,999.0,43.0,1004.2405090415344,2021-09-02 13:25:09.419
146,-205.0,1031.0,117.0,1057.674335511645,2021-09-02 13:25:09.428
147,-385.0,1131.0,-145.0,1203.499480681234,2021-09-02 13:25:09.438
148,-575.0,598.0,139.0,841.1599134528464,2021-09-02 13:25:09.448
149,-441.0,701.0,251.0,865.3802632369194,2021-09-02 13:25:09.458
150,-327.0,701.0,251.0,813.2226017518204,2021-09-02 13:25:09.468
151,-327.0,962.0,-131.0,1024.467666644487,2021-09-02 13:25:09.469
152,-398.0,929.0,67.0,1012.88400125582,2021-09-02 13:25:09.477
153,-186.0,970.0,20.0,987.874485954567,2021-09-02 13:25:09.487
154,-288.0,978.0,-13.0,1019.6062965674544,2021-09-02 13:25:09.496
155,41.0,1015.0,98.0,1020.5439725950076,2021-09-02 13:25:09.507
156,200.0,1289.0,-166.0,1314.9437250316075,2021-09-02 13:25:09.517
157,-166.0,863.0,-41.0,879.7761078819997,2021-09-02 13:25:09.526
158,215.0,1147.0,15.0,1167.07283405964,2021-09-02 13:25:09.535
159,-88.0,1057.0,15.0,1060.7629329873853,2021-09-02 13:25:09.545
160,-88.0,1057.0,-33.0,1061.1701088892394,2021-09-02 13:25:09.546
161,-199.0,1057.0,-33.0,1076.0757408286836,2021-09-02 13:25:09.556
162,-199.0,979.0,-321.0,1049.3250211445452,2021-09-02 13:25:09.557
163,-23.0,970.0,5.0,970.2855249873616,2021-09-02 13:25:09.565
164,224.0,1073.0,117.0,1102.3583809270017,2021-09-02 13:25:09.575
165,85.0,1257.0,117.0,1265.2916659806149,2021-09-02 13:25:09.584
166,85.0,1257.0,0.0,1259.8706282789517,2021-09-02 13:25:09.585
167,-433.0,1228.0,-126.0,1308.1853844161385,2021-09-02 13:25:09.596
168,-549.0,585.0,133.0,813.2127642874281,2021-09-02 13:25:09.604
169,-119.0,1032.0,1.0,1038.8387747865402,2021-09-02 13:25:09.615
170,-222.0,1216.0,-116.0,1241.529701618129,2021-09-02 13:25:09.624
171,-384.0,1216.0,-116.0,1280.456168714884,2021-09-02 13:25:09.633
172,-384.0,920.0,-81.0,1000.2084782684058,2021-09-02 13:25:09.634
173,-62.0,985.0,35.0,987.5697443725176,2021-09-02 13:25:09.643
174,-527.0,798.0,276.0,995.3436592453884,2021-09-02 13:25:09.653
175,98.0,1091.0,-225.0,1118.2620444242932,2021-09-02 13:25:09.663
176,75.0,1238.0,-225.0,1260.5133874735325,2021-09-02 13:25:09.673
177,75.0,1238.0,-182.0,1253.5521528839556,2021-09-02 13:25:09.674
178,-364.0,959.0,130.0,1033.9617981337608,2021-09-02 13:25:09.682
179,-5.0,976.0,95.0,980.6253107074076,2021-09-02 13:25:09.692
180,279.0,1062.0,-303.0,1139.075941278719,2021-09-02 13:25:09.704
181,1.0,1157.0,-261.0,1186.0737751084455,2021-09-02 13:25:09.711
182,-133.0,1066.0,-61.0,1075.9953531498172,2021-09-02 13:25:09.721
183,38.0,882.0,44.0,883.9140229682976,2021-09-02 13:25:09.732
184,125.0,1094.0,44.0,1101.996823951866,2021-09-02 13:25:09.740
185,125.0,1094.0,-130.0,1108.7655297672272,2021-09-02 13:25:09.741
186,53.0,1249.0,-187.0,1264.0328318520844,2021-09-02 13:25:09.751
187,-142.0,931.0,-187.0,960.15311278983,2021-09-02 13:25:09.761
188,-142.0,931.0,-55.0,943.3716128864596,2021-09-02 13:25:09.762
189,-325.0,829.0,103.0,896.3676700997197,2021-09-02 13:25:09.770
190,-496.0,1061.0,-96.0,1175.1395661792687,2021-09-02 13:25:09.780
191,-542.0,639.0,69.0,840.7413395331528,2021-09-02 13:25:09.790
192,-142.0,808.0,117.0,828.6838963078744,2021-09-02 13:25:09.800
193,-202.0,1144.0,-60.0,1163.2454599094724,2021-09-02 13:25:09.810
194,-218.0,944.0,-8.0,968.8777012605874,2021-09-02 13:25:09.819
195,-382.0,772.0,-46.0,862.5682581685927,2021-09-02 13:25:09.829
196,-205.0,710.0,28.0,739.5329607258894,2021-09-02 13:25:09.838
197,-278.0,964.0,-143.0,1013.4243928384592,2021-09-02 13:25:09.848
198,-134.0,1155.0,84.0,1165.7774230100702,2021-09-02 13:25:09.859
199,-501.0,713.0,37.0,872.2035312930119,2021-09-02 13:25:09.867
200,51.0,820.0,37.0,822.4171690814826,2021-09-02 13:25:09.877
201,51.0,820.0,86.0,826.07324130491,2021-09-02 13:25:09.878
202,-246.0,1024.0,-147.0,1063.3442528174965,2021-09-02 13:25:09.887
203,-407.0,876.0,-284.0,1006.8172624662332,2021-09-02 13:25:09.897
204,-174.0,1047.0,-59.0,1062.998588898405,2021-09-02 13:25:09.908
205,-168.0,1146.0,27.0,1158.563334479389,2021-09-02 13:25:09.917
206,-10.0,1076.0,160.0,1087.8768312635398,2021-09-02 13:25:09.926
207,-341.0,1056.0,-220.0,1131.2899716695097,2021-09-02 13:25:09.936
208,-480.0,638.0,215.0,826.8427903779533,2021-09-02 13:25:09.946
209,-326.0,957.0,111.0,1017.077184878316,2021-09-02 13:25:09.957
210,-157.0,957.0,111.0,976.124479766797,2021-09-02 13:25:09.966
211,-157.0,1248.0,-43.0,1258.5714123560888,2021-09-02 13:25:09.967
212,-516.0,782.0,4.0,936.9076795501252,2021-09-02 13:25:09.975
213,-109.0,864.0,-49.0,872.2258881734708,2021-09-02 13:25:09.993
214,-246.0,1091.0,-76.0,1120.9696695272355,2021-09-02 13:25:09.996
215,-286.0,770.0,-76.0,824.9072675155675,2021-09-02 13:25:10.008
216,-286.0,770.0,103.0,827.831504594987,2021-09-02 13:25:10.009
217,-436.0,808.0,17.0,918.2859031913754,2021-09-02 13:25:10.015
218,-548.0,873.0,31.0,1031.209968920006,2021-09-02 13:25:10.024
219,54.0,886.0,120.0,895.7187058446418,2021-09-02 13:25:10.034
220,233.0,1062.0,120.0,1093.8615086015232,2021-09-02 13:25:10.043
221,233.0,1062.0,-328.0,1135.657078523266,2021-09-02 13:25:10.044
222,-98.0,1211.0,-208.0,1232.6349824664237,2021-09-02 13:25:10.054
223,-192.0,1211.0,-208.0,1243.643437646016,2021-09-02 13:25:10.063
224,-192.0,1148.0,-39.0,1164.598213977679,2021-09-02 13:25:10.064
225,-4.0,939.0,-101.0,944.4246926039152,2021-09-02 13:25:10.073
226,144.0,1149.0,-101.0,1162.384617929883,2021-09-02 13:25:10.082
227,144.0,1149.0,-112.0,1163.3920233524038,2021-09-02 13:25:10.083
228,-16.0,1249.0,-186.0,1262.8748948332134,2021-09-02 13:25:10.092
229,-398.0,818.0,27.0,910.0862596479524,2021-09-02 13:25:10.102
230,119.0,818.0,27.0,827.051388971689,2021-09-02 13:25:10.127
231,119.0,1106.0,-43.0,1113.214265090059,2021-09-02 13:25:10.128
232,-584.0,963.0,-41.0,1126.989795872172,2021-09-02 13:25:10.131
233,-395.0,1168.0,-26.0,1233.2578805748617,2021-09-02 13:25:10.141
234,-305.0,1041.0,228.0,1108.4628996948884,2021-09-02 13:25:10.151
235,-242.0,1063.0,-13.0,1090.2761118175524,2021-09-02 13:25:10.162
236,-211.0,1032.0,-126.0,1060.85861451939,2021-09-02 13:25:10.170
237,-360.0,1032.0,-126.0,1100.2272492535349,2021-09-02 13:25:10.180
238,-360.0,798.0,1.0,875.4456008228038,2021-09-02 13:25:10.181
239,47.0,1046.0,-63.0,1048.9489978068525,2021-09-02 13:25:10.199
240,-121.0,1232.0,-171.0,1249.6823596418412,2021-09-02 13:25:10.202
241,-120.0,942.0,-171.0,964.8860036294444,2021-09-02 13:25:10.209
242,-120.0,942.0,-100.0,954.8633410074972,2021-09-02 13:25:10.210
243,53.0,1057.0,5.0,1058.3397375134318,2021-09-02 13:25:10.221
244,-55.0,1007.0,53.0,1009.8925685438032,2021-09-02 13:25:10.229
245,45.0,1120.0,-177.0,1134.7924920442504,2021-09-02 13:25:10.239
246,153.0,1149.0,-167.0,1171.1101570731937,2021-09-02 13:25:10.248
247,-245.0,903.0,-116.0,942.8096308375302,2021-09-02 13:25:10.258
248,405.0,1180.0,75.0,1249.8199870381334,2021-09-02 13:25:10.270
249,-171.0,1112.0,11.0,1125.1248819575542,2021-09-02 13:25:10.278
250,-586.0,651.0,108.0,882.5310192848748,2021-09-02 13:25:10.288
251,-506.0,760.0,108.0,919.4019795497504,2021-09-02 13:25:10.297
252,-506.0,760.0,193.0,933.212194519553,2021-09-02 13:25:10.298
253,-278.0,944.0,-69.0,986.4993664468316,2021-09-02 13:25:10.307
254,-356.0,870.0,-70.0,942.6218754092226,2021-09-02 13:25:10.318
255,-287.0,918.0,10.0,961.8695337726422,2021-09-02 13:25:10.327
256,-327.0,900.0,65.0,959.7676802226672,2021-09-02 13:25:10.336
257,-382.0,820.0,-38.0,905.4104041814408,2021-09-02 13:25:10.346
258,-57.0,820.0,-38.0,822.856609622843,2021-09-02 13:25:10.355
259,-57.0,959.0,-103.0,966.198219828623,2021-09-02 13:25:10.356
260,-318.0,869.0,-103.0,931.0714258315523,2021-09-02 13:25:10.366
261,-318.0,869.0,-80.0,928.8083763618844,2021-09-02 13:25:10.367
262,-256.0,912.0,-56.0,948.9025239717724,2021-09-02 13:25:10.376
263,-290.0,913.0,95.0,962.649468913789,2021-09-02 13:25:10.385
264,-61.0,1022.0,-73.0,1026.418043489104,2021-09-02 13:25:10.398
265,-65.0,1159.0,-162.0,1172.0708169731042,2021-09-02 13:25:10.405
266,-8.0,897.0,0.0,897.0356737610829,2021-09-02 13:25:10.415
267,141.0,1246.0,-40.0,1254.5903713961782,2021-09-02 13:25:10.425
268,-307.0,1219.0,61.0,1258.5432054562132,2021-09-02 13:25:10.434
269,-720.0,546.0,91.0,908.1833515320571,2021-09-02 13:25:10.444
270,-25.0,1038.0,1.0,1038.3014976392935,2021-09-02 13:25:10.453
271,41.0,1301.0,1.0,1301.64626531174,2021-09-02 13:25:10.464
272,41.0,1301.0,-192.0,1315.7302155077232,2021-09-02 13:25:10.465
273,-610.0,874.0,143.0,1075.3720286486905,2021-09-02 13:25:10.474
274,-332.0,850.0,37.0,913.2869209618628,2021-09-02 13:25:10.483
275,50.0,850.0,37.0,852.2728436363557,2021-09-02 13:25:10.492
276,50.0,1055.0,-83.0,1059.4404183341317,2021-09-02 13:25:10.493
277,-239.0,1027.0,-83.0,1057.7045901384754,2021-09-02 13:25:10.502
278,-239.0,1027.0,40.0,1055.2014025767785,2021-09-02 13:25:10.503
279,-521.0,1016.0,-32.0,1142.2438443694937,2021-09-02 13:25:10.513
280,-545.0,608.0,39.0,817.4411293787462,2021-09-02 13:25:10.522
281,-285.0,608.0,39.0,672.6143025538485,2021-09-02 13:25:10.532
282,-285.0,749.0,18.0,801.5921656303784,2021-09-02 13:25:10.533
283,-303.0,1115.0,-69.0,1157.4951403785676,2021-09-02 13:25:10.541
284,-133.0,1023.0,-164.0,1044.5640238874782,2021-09-02 13:25:10.551
285,0.0,1066.0,-101.0,1070.774019109541,2021-09-02 13:25:10.561
286,-40.0,1008.0,-68.0,1011.0825881202782,2021-09-02 13:25:10.571
287,-2.0,1077.0,-164.0,1089.4168164664982,2021-09-02 13:25:10.581
288,-149.0,1070.0,-164.0,1092.7016976284058,2021-09-02 13:25:10.590
289,-149.0,1070.0,-239.0,1106.445660663008,2021-09-02 13:25:10.591
290,-291.0,965.0,-26.0,1008.2569117045516,2021-09-02 13:25:10.600
291,149.0,1187.0,29.0,1196.6666202414103,2021-09-02 13:25:10.610
292,-212.0,1064.0,-170.0,1098.1529948053687,2021-09-02 13:25:10.621
293,-381.0,895.0,-117.0,979.7321062412929,2021-09-02 13:25:10.629
294,55.0,1109.0,-120.0,1116.82854548046,2021-09-02 13:25:10.639
295,25.0,1204.0,40.0,1204.923649033415,2021-09-02 13:25:10.649
296,-214.0,982.0,120.0,1012.1857537033408,2021-09-02 13:25:10.659
297,-347.0,903.0,-202.0,988.2418732273998,2021-09-02 13:25:10.670
298,-144.0,835.0,193.0,869.0281928683327,2021-09-02 13:25:10.678
299,-157.0,905.0,0.0,918.5172834519772,2021-09-02 13:25:10.688
300,-67.0,1084.0,-93.0,1090.043118413212,2021-09-02 13:25:10.705
301,-349.0,903.0,-91.0,972.363615115251,2021-09-02 13:25:10.709
302,-198.0,998.0,-91.0,1021.5130934060512,2021-09-02 13:25:10.718
303,-198.0,998.0,-29.0,1017.8649222760356,2021-09-02 13:25:10.719
304,-427.0,808.0,-5.0,913.9026206330738,2021-09-02 13:25:10.727
305,-79.0,1105.0,-131.0,1115.5388832308804,2021-09-02 13:25:10.737
306,-77.0,1290.0,-131.0,1298.918781140684,2021-09-02 13:25:10.746
307,-77.0,1290.0,-142.0,1300.0742286500413,2021-09-02 13:25:10.747
308,-329.0,847.0,22.0,908.9191383175952,2021-09-02 13:25:10.757
309,203.0,961.0,22.0,982.4530523134426,2021-09-02 13:25:10.767
310,203.0,961.0,13.0,982.2927262277776,2021-09-02 13:25:10.768
311,56.0,1104.0,-135.0,1113.6323450762377,2021-09-02 13:25:10.777
312,-59.0,1221.0,-193.0,1237.5665638663645,2021-09-02 13:25:10.786
313,-53.0,1120.0,-193.0,1137.7425016232803,2021-09-02 13:25:10.795
314,-53.0,1120.0,-20.0,1121.431674245025,2021-09-02 13:25:10.796
315,139.0,843.0,-5.0,854.3974484980629,2021-09-02 13:25:10.805
316,-491.0,843.0,-5.0,975.5793150738692,2021-09-02 13:25:10.817
317,-491.0,758.0,75.0,906.2394826975924,2021-09-02 13:25:10.818
318,-351.0,830.0,75.0,904.2820356503828,2021-09-02 13:25:10.825
319,-351.0,830.0,-88.0,905.452925336265,2021-09-02 13:25:10.826
320,-130.0,924.0,3.0,933.1050316014804,2021-09-02 13:25:10.835
321,-396.0,810.0,70.0,904.3317975168184,2021-09-02 13:25:10.844
322,-444.0,966.0,8.0,1063.1820164017072,2021-09-02 13:25:10.854
323,-378.0,764.0,-59.0,854.4360713359426,2021-09-02 13:25:10.865
324,-194.0,764.0,-59.0,790.4511370097458,2021-09-02 13:25:10.874
325,-194.0,896.0,56.0,918.4704676798268,2021-09-02 13:25:10.875
326,-526.0,896.0,56.0,1040.4941133903642,2021-09-02 13:25:10.883
327,-526.0,1032.0,154.0,1168.5101625574337,2021-09-02 13:25:10.884
328,-279.0,914.0,36.0,956.3121875203724,2021-09-02 13:25:10.893
329,3.0,948.0,-167.0,962.6016829405607,2021-09-02 13:25:10.903
330,-289.0,929.0,-109.0,979.0010214499268,2021-09-02 13:25:10.914
331,82.0,926.0,109.0,935.9919871451892,2021-09-02 13:25:10.922
332,-9.0,1100.0,-170.0,1113.095234020881,2021-09-02 13:25:10.933
333,-463.0,899.0,-5.0,1011.234394193552,2021-09-02 13:25:10.942
334,8.0,899.0,-5.0,899.0494980811679,2021-09-02 13:25:10.951
335,8.0,1173.0,-22.0,1173.2335658341865,2021-09-02 13:25:10.952
336,-87.0,1065.0,-91.0,1072.4154978365427,2021-09-02 13:25:10.962
337,-534.0,926.0,-45.0,1069.8864425722948,2021-09-02 13:25:10.972
338,-231.0,980.0,-94.0,1011.2353830834836,2021-09-02 13:25:10.982
339,-181.0,1143.0,-63.0,1158.9559957133831,2021-09-02 13:25:10.991
340,-347.0,893.0,66.0,960.3197384204908,2021-09-02 13:25:11.008
341,-552.0,941.0,-211.0,1111.1732538177837,2021-09-02 13:25:11.011
342,-596.0,677.0,66.0,904.3787923210052,2021-09-02 13:25:11.021
343,-398.0,729.0,267.0,872.4299398805614,2021-09-02 13:25:11.031
344,-334.0,1017.0,-68.0,1072.5991795633634,2021-09-02 13:25:11.041
345,-137.0,996.0,-68.0,1007.6750468280932,2021-09-02 13:25:11.049
346,-137.0,996.0,-119.0,1012.3961675154644,2021-09-02 13:25:11.050
347,-171.0,1009.0,85.0,1026.9113885822867,2021-09-02 13:25:11.059
348,-126.0,980.0,-125.0,995.942267403086,2021-09-02 13:25:11.070
349,135.0,1033.0,-10.0,1041.8320402060976,2021-09-02 13:25:11.079
350,-170.0,1309.0,-236.0,1340.9239352028883,2021-09-02 13:25:11.089
351,-216.0,867.0,-236.0,924.143387142926,2021-09-02 13:25:11.097
352,-216.0,867.0,-97.0,898.7513560490465,2021-09-02 13:25:11.098
353,353.0,1056.0,13.0,1113.5142567565088,2021-09-02 13:25:11.108
354,57.0,1195.0,-153.0,1206.1024002960942,2021-09-02 13:25:11.119
355,-221.0,1195.0,-153.0,1224.8571345263088,2021-09-02 13:25:11.127
356,-221.0,1060.0,-363.0,1142.0201399274883,2021-09-02 13:25:11.128
357,-313.0,1081.0,-78.0,1128.1019457478124,2021-09-02 13:25:11.148
358,23.0,1081.0,-78.0,1084.054426677923,2021-09-02 13:25:11.150
359,23.0,1054.0,30.0,1054.6776758801714,2021-09-02 13:25:11.151
360,-92.0,1247.0,-22.0,1250.5826642009715,2021-09-02 13:25:11.157
361,-245.0,1247.0,-22.0,1271.030290748415,2021-09-02 13:25:11.166
362,-245.0,1232.0,-37.0,1256.6694076009012,2021-09-02 13:25:11.167
363,-948.0,644.0,-77.0,1148.6378889798125,2021-09-02 13:25:11.176
364,56.0,1064.0,47.0,1066.5087903997792,2021-09-02 13:25:11.187
365,-133.0,925.0,103.0,940.1717928123562,2021-09-02 13:25:11.196
366,140.0,906.0,-63.0,918.9151212163176,2021-09-02 13:25:11.218
367,140.0,1103.0,-17.0,1111.9793163544005,2021-09-02 13:25:11.219
368,-523.0,871.0,192.0,1033.941004119674,2021-09-02 13:25:11.227
369,-106.0,946.0,-124.0,959.9624992675496,2021-09-02 13:25:11.235
370,170.0,946.0,-124.0,969.119187716351,2021-09-02 13:25:11.244
371,170.0,1099.0,-286.0,1148.2582462146745,2021-09-02 13:25:11.245
372,-209.0,915.0,-286.0,981.1737868492004,2021-09-02 13:25:11.254
373,-209.0,915.0,-26.0,938.9259821732488,2021-09-02 13:25:11.255
374,49.0,1120.0,32.0,1121.527975576178,2021-09-02 13:25:11.264
375,75.0,1120.0,32.0,1122.9643805571038,2021-09-02 13:25:11.275
376,75.0,1165.0,-178.0,1180.9038910935978,2021-09-02 13:25:11.276
377,-154.0,1165.0,-178.0,1188.539019132313,2021-09-02 13:25:11.283
378,-154.0,1036.0,-207.0,1067.6427305049194,2021-09-02 13:25:11.284
379,149.0,1110.0,-132.0,1127.7078522383358,2021-09-02 13:25:11.293
380,-8.0,1066.0,-65.0,1068.009831415423,2021-09-02 13:25:11.303
381,-447.0,925.0,-113.0,1033.539065541308,2021-09-02 13:25:11.313
382,-273.0,937.0,-36.0,976.623776077564,2021-09-02 13:25:11.324
383,-298.0,886.0,71.0,937.465199354088,2021-09-02 13:25:11.333
384,-326.0,767.0,37.0,834.226587924408,2021-09-02 13:25:11.342
385,-113.0,1075.0,-115.0,1087.0229988367312,2021-09-02 13:25:11.352
386,-542.0,739.0,-1.0,916.4529447822184,2021-09-02 13:25:11.362
387,-382.0,716.0,114.0,819.4974069513582,2021-09-02 13:25:11.373
388,-300.0,856.0,-11.0,907.1146564795432,2021-09-02 13:25:11.381
389,-142.0,1049.0,-110.0,1064.2673536287768,2021-09-02 13:25:11.391
390,-123.0,1081.0,-18.0,1088.124073807762,2021-09-02 13:25:11.404
391,-444.0,723.0,98.0,854.0895737567577,2021-09-02 13:25:11.410
392,-248.0,920.0,-23.0,953.117516364063,2021-09-02 13:25:11.422
393,-128.0,1169.0,-211.0,1194.7660858929669,2021-09-02 13:25:11.431
394,-239.0,966.0,-122.0,1002.5771790740102,2021-09-02 13:25:11.440
395,-33.0,1007.0,-72.0,1010.109895011429,2021-09-02 13:25:11.450
396,-40.0,1007.0,-72.0,1010.362806124612,2021-09-02 13:25:11.459
397,-40.0,1193.0,-78.0,1196.216117597485,2021-09-02 13:25:11.460
398,-573.0,950.0,-98.0,1113.7472783356195,2021-09-02 13:25:11.469
399,-148.0,864.0,-8.0,876.6207846041525,2021-09-02 13:25:11.479
400,48.0,1081.0,41.0,1082.8416320034985,2021-09-02 13:25:11.489
401,-81.0,1081.0,41.0,1084.8055125228668,2021-09-02 13:25:11.498
402,-81.0,1111.0,17.0,1114.0785430121164,2021-09-02 13:25:11.499
403,-558.0,1025.0,17.0,1167.1666547670045,2021-09-02 13:25:11.508
404,-558.0,1025.0,-46.0,1167.9490571082283,2021-09-02 13:25:11.509
405,-573.0,489.0,116.0,762.1718966217529,2021-09-02 13:25:11.518
406,-315.0,825.0,11.0,883.1596684631834,2021-09-02 13:25:11.529
407,-277.0,1257.0,-80.0,1289.6425861454793,2021-09-02 13:25:11.538
408,-631.0,781.0,6.0,1004.0707146411552,2021-09-02 13:25:11.547
409,-422.0,710.0,-50.0,827.4563432592682,2021-09-02 13:25:11.558
410,-309.0,807.0,-18.0,864.3228563447805,2021-09-02 13:25:11.567
411,19.0,1152.0,-119.0,1158.2858023821236,2021-09-02 13:25:11.578
412,155.0,1171.0,-140.0,1189.4813996023645,2021-09-02 13:25:11.587
413,-269.0,873.0,100.0,918.9613702436028,2021-09-02 13:25:11.596
414,327.0,1154.0,37.0,1200.0058333191553,2021-09-02 13:25:11.606
415,168.0,1142.0,-196.0,1170.8133924755043,2021-09-02 13:25:11.616
416,-302.0,1078.0,-170.0,1132.3374055465977,2021-09-02 13:25:11.627
417,15.0,1103.0,-170.0,1116.124545021746,2021-09-02 13:25:11.636
418,15.0,1103.0,60.0,1104.7325468184597,2021-09-02 13:25:11.637
419,170.0,1114.0,-7.0,1126.9183643902516,2021-09-02 13:25:11.645
420,-89.0,995.0,78.0,1002.0129739679024,2021-09-02 13:25:11.655
421,-228.0,995.0,78.0,1023.7641329915792,2021-09-02 13:25:11.664
422,-228.0,1020.0,-54.0,1046.5658125507446,2021-09-02 13:25:11.665
423,-407.0,891.0,-3.0,979.5606157864862,2021-09-02 13:25:11.675
424,-154.0,1174.0,-3.0,1184.061231524789,2021-09-02 13:25:11.685
425,-154.0,1174.0,127.0,1190.848856908382,2021-09-02 13:25:11.686
426,-40.0,1140.0,-183.0,1155.2874101278867,2021-09-02 13:25:11.694
427,-355.0,1140.0,-183.0,1207.9379123117214,2021-09-02 13:25:11.703
428,-355.0,898.0,-24.0,965.9218394880612,2021-09-02 13:25:11.704
429,-284.0,869.0,143.0,925.3464216173314,2021-09-02 13:25:11.713
430,-433.0,846.0,3.0,950.37571517795,2021-09-02 13:25:11.723
431,34.0,1084.0,3.0,1084.5372284988653,2021-09-02 13:25:11.740
432,34.0,1084.0,-159.0,1096.1263613288388,2021-09-02 13:25:11.741
433,-40.0,1172.0,-168.0,1184.6552241053091,2021-09-02 13:25:11.743
434,122.0,1172.0,-168.0,1190.2487135048707,2021-09-02 13:25:11.752
435,122.0,823.0,103.0,838.3447978010003,2021-09-02 13:25:11.753
436,256.0,1055.0,103.0,1090.4907152286992,2021-09-02 13:25:11.763
437,256.0,1055.0,-129.0,1093.2529441990998,2021-09-02 13:25:11.764
438,180.0,1105.0,-152.0,1129.8358287822173,2021-09-02 13:25:11.772
439,-70.0,1090.0,-135.0,1100.55667732289,2021-09-02 13:25:11.782
440,132.0,1090.0,-135.0,1106.2318925071722,2021-09-02 13:25:11.791
441,132.0,1168.0,-39.0,1176.082054960452,2021-09-02 13:25:11.792
442,55.0,887.0,-43.0,889.7432213846869,2021-09-02 13:25:11.801
443,114.0,1154.0,-45.0,1160.4899827228153,2021-09-02 13:25:11.817
444,-3.0,1382.0,-137.0,1388.7771599504365,2021-09-02 13:25:11.821
445,-255.0,1010.0,-139.0,1050.9262581170956,2021-09-02 13:25:11.830
446,-317.0,957.0,-9.0,1008.1760758915082,2021-09-02 13:25:11.840
447,-591.0,917.0,-9.0,1090.9862510591047,2021-09-02 13:25:11.849
448,-591.0,917.0,29.0,1091.3345041736743,2021-09-02 13:25:11.850
449,-670.0,917.0,29.0,1136.0589773422855,2021-09-02 13:25:11.860
450,-670.0,613.0,49.0,909.4338898457656,2021-09-02 13:25:11.861
451,-81.0,831.0,68.0,837.7028112642334,2021-09-02 13:25:11.871
452,-245.0,1142.0,68.0,1169.9628199220692,2021-09-02 13:25:11.879
453,-245.0,1142.0,73.0,1170.264072763067,2021-09-02 13:25:11.880
454,-279.0,1033.0,73.0,1072.5012820505158,2021-09-02 13:25:11.889
455,-279.0,1033.0,-68.0,1072.1725607382425,2021-09-02 13:25:11.890
456,-232.0,875.0,-79.0,908.674859341888,2021-09-02 13:25:11.899
457,-207.0,755.0,-13.0,782.9706252472056,2021-09-02 13:25:11.909
458,-188.0,980.0,-38.0,998.5930101898372,2021-09-02 13:25:11.919
459,110.0,1168.0,-123.0,1179.5986605621422,2021-09-02 13:25:11.929
460,-151.0,983.0,-212.0,1016.8746235401884,2021-09-02 13:25:11.938
461,81.0,1279.0,28.0,1281.868167948639,2021-09-02 13:25:11.948
462,-297.0,973.0,-44.0,1018.2701016920804,2021-09-02 13:25:11.958
463,-675.0,910.0,-94.0,1136.9085275430034,2021-09-02 13:25:11.969
464,-91.0,1125.0,-94.0,1132.5820058609445,2021-09-02 13:25:11.977
465,-282.0,1233.0,-114.0,1269.9641727229946,2021-09-02 13:25:11.987
466,-454.0,1233.0,-114.0,1318.8635259191908,2021-09-02 13:25:11.996
467,-454.0,881.0,150.0,1002.3856543267168,2021-09-02 13:25:11.997
468,-455.0,790.0,-101.0,917.2382460407982,2021-09-02 13:25:12.006
469,-341.0,659.0,34.0,742.7772209754417,2021-09-02 13:25:12.030
470,-341.0,824.0,126.0,900.6292244869694,2021-09-02 13:25:12.031
471,-402.0,1204.0,126.0,1275.5767323058226,2021-09-02 13:25:12.035
472,-402.0,1204.0,-60.0,1270.7556806876764,2021-09-02 13:25:12.036
473,-137.0,923.0,-102.0,938.67033616707,2021-09-02 13:25:12.045
474,-144.0,952.0,-50.0,964.1265477104132,2021-09-02 13:25:12.055
475,-464.0,799.0,41.0,924.8664768494964,2021-09-02 13:25:12.065
476,159.0,1151.0,-57.0,1163.3275549044645,2021-09-02 13:25:12.076
477,15.0,1389.0,-57.0,1390.2499775220283,2021-09-02 13:25:12.084
478,15.0,1389.0,-184.0,1401.2144732338445,2021-09-02 13:25:12.085
479,-424.0,777.0,70.0,887.9217307848704,2021-09-02 13:25:12.094
480,318.0,1000.0,95.0,1053.6360851831148,2021-09-02 13:25:12.104
481,333.0,1126.0,-201.0,1191.2875387579609,2021-09-02 13:25:12.114
482,-317.0,1269.0,-90.0,1311.0873350009906,2021-09-02 13:25:12.124
483,-333.0,1269.0,-90.0,1315.0475276582213,2021-09-02 13:25:12.134
484,-333.0,1076.0,60.0,1127.9472505396695,2021-09-02 13:25:12.135
485,65.0,1076.0,60.0,1079.630029222974,2021-09-02 13:25:12.142
486,65.0,1016.0,68.0,1020.3455297104016,2021-09-02 13:25:12.143
487,-315.0,1121.0,-7.0,1164.437632507641,2021-09-02 13:25:12.168
488,-315.0,1256.0,-183.0,1307.7652694577878,2021-09-02 13:25:12.169
489,-590.0,718.0,23.0,929.5983003426804,2021-09-02 13:25:12.172
490,-239.0,899.0,23.0,930.5111498525958,2021-09-02 13:25:12.181
491,-239.0,899.0,74.0,933.165580162492,2021-09-02 13:25:12.182
492,-223.0,1129.0,-132.0,1158.358321073406,2021-09-02 13:25:12.192
493,-153.0,904.0,-155.0,929.8655816837183,2021-09-02 13:25:12.202
494,-123.0,958.0,-40.0,966.6917812829486,2021-09-02 13:25:12.213
495,73.0,923.0,-40.0,926.745919872324,2021-09-02 13:25:12.233
496,73.0,923.0,233.0,954.7497054202216,2021-09-02 13:25:12.234
497,73.0,1161.0,-65.0,1165.1072911968236,2021-09-02 13:25:12.235
498,-37.0,1129.0,-65.0,1131.474701440558,2021-09-02 13:25:12.240
499,-37.0,1129.0,-241.0,1155.028571075192,2021-09-02 13:25:12.241
500,-265.0,1129.0,-241.0,1184.4606367456877,2021-09-02 13:25:12.250
501,-265.0,802.0,30.0,845.1798625144828,2021-09-02 13:25:12.251
502,432.0,802.0,30.0,911.4428122487992,2021-09-02 13:25:12.260
503,432.0,1156.0,56.0,1235.35258124958,2021-09-02 13:25:12.261
504,-5.0,1183.0,-216.0,1202.5680853905944,2021-09-02 13:25:12.270
505,-182.0,907.0,-59.0,926.959546042868,2021-09-02 13:25:12.280
506,117.0,907.0,-59.0,916.4163900760396,2021-09-02 13:25:12.288
507,117.0,974.0,-53.0,982.432694895686,2021-09-02 13:25:12.289
508,524.0,1233.0,-49.0,1340.6214976644228,2021-09-02 13:25:12.299
509,-36.0,1248.0,-49.0,1249.480291961422,2021-09-02 13:25:12.309
510,-36.0,1248.0,26.0,1248.7898141801124,2021-09-02 13:25:12.310
511,-139.0,890.0,117.0,908.3556572180304,2021-09-02 13:25:12.319
512,-276.0,1098.0,101.0,1136.6534212326992,2021-09-02 13:25:12.329
513,175.0,1000.0,101.0,1020.208802157676,2021-09-02 13:25:12.339
514,175.0,1000.0,125.0,1022.8636272739392,2021-09-02 13:25:12.340
515,123.0,1075.0,-119.0,1088.5380103606856,2021-09-02 13:25:12.348
516,-334.0,966.0,-291.0,1062.7290341380535,2021-09-02 13:25:12.358
517,-324.0,1126.0,-44.0,1172.5135393674566,2021-09-02 13:25:12.368
518,-460.0,1040.0,-207.0,1155.875858386185,2021-09-02 13:25:12.377
519,-237.0,896.0,-144.0,937.9344326764,2021-09-02 13:25:12.388
520,-314.0,1057.0,-152.0,1113.0808595964625,2021-09-02 13:25:12.397
521,-324.0,1183.0,-176.0,1239.1291296713189,2021-09-02 13:25:12.406
522,-347.0,988.0,-114.0,1053.3513184118583,2021-09-02 13:25:12.420
523,-275.0,818.0,-137.0,873.7951705062234,2021-09-02 13:25:12.426
524,23.0,818.0,-137.0,829.7119982258904,2021-09-02 13:25:12.436
525,23.0,987.0,-77.0,990.2661258469866,2021-09-02 13:25:12.437
526,-9.0,987.0,-77.0,990.0398981859266,2021-09-02 13:25:12.446
527,-9.0,1179.0,-114.0,1184.532819300504,2021-09-02 13:25:12.447
528,-107.0,976.0,-165.0,995.6153875869938,2021-09-02 13:25:12.456
529,-122.0,1074.0,-85.0,1084.2439762341317,2021-09-02 13:25:12.465
530,-221.0,1046.0,-45.0,1070.0383170709356,2021-09-02 13:25:12.475
531,-253.0,1002.0,-50.0,1034.6559814740356,2021-09-02 13:25:12.485
532,-46.0,950.0,-50.0,952.4263751072835,2021-09-02 13:25:12.495
533,-46.0,950.0,-16.0,951.2476018366616,2021-09-02 13:25:12.496
534,-160.0,1075.0,43.0,1087.6920520073686,2021-09-02 13:25:12.505
535,-285.0,959.0,43.0,1001.3765525515364,2021-09-02 13:25:12.514
