,Acceleration_X,Acceleration_Y,Acceleration_Z,magnitude,time_stamp
0,-300.0,952.0,109.0,1004.0841598192852,2021-09-02 13:25:30.649
1,-95.0,709.0,3.0,715.3425752742528,2021-09-02 13:25:30.658
2,342.0,709.0,3.0,787.1810465197952,2021-09-02 13:25:30.668
3,342.0,988.0,319.0,1093.1006358062373,2021-09-02 13:25:30.669
4,378.0,1133.0,58.0,1195.799732396692,2021-09-02 13:25:30.679
5,29.0,1337.0,-276.0,1365.4984437925957,2021-09-02 13:25:30.693
6,-630.0,1337.0,-276.0,1503.5441463422349,2021-09-02 13:25:30.697
7,-630.0,762.0,-157.0,1001.0958995021406,2021-09-02 13:25:30.698
8,-104.0,1130.0,-30.0,1135.1722336280077,2021-09-02 13:25:30.707
9,-187.0,1210.0,-402.0,1288.6710208583104,2021-09-02 13:25:30.718
10,-759.0,1210.0,-402.0,1483.8412987917543,2021-09-02 13:25:30.726
11,-759.0,1021.0,-32.0,1272.6138455949629,2021-09-02 13:25:30.727
12,-437.0,1017.0,47.0,1107.9110975164026,2021-09-02 13:25:30.738
13,-97.0,1193.0,-86.0,1200.0224997890664,2021-09-02 13:25:30.746
14,-69.0,959.0,1.0,961.4795889669214,2021-09-02 13:25:30.756
15,-433.0,967.0,-1.0,1059.518286769983,2021-09-02 13:25:30.766
16,-652.0,593.0,-1.0,881.3364851179145,2021-09-02 13:25:30.775
17,-652.0,593.0,130.0,890.8720446843082,2021-09-02 13:25:30.776
18,-272.0,593.0,130.0,665.2315386389914,2021-09-02 13:25:30.785
19,-272.0,717.0,164.0,784.1995919407252,2021-09-02 13:25:30.786
20,187.0,1263.0,-317.0,1315.5329718406908,2021-09-02 13:25:30.796
21,-188.0,1089.0,-284.0,1141.0175283491485,2021-09-02 13:25:30.805
22,-48.0,1029.0,-284.0,1068.5508878850833,2021-09-02 13:25:30.814
23,-48.0,1029.0,2.0,1030.1208666947778,2021-09-02 13:25:30.815
24,92.0,976.0,-65.0,982.4790074093188,2021-09-02 13:25:30.825
25,213.0,1176.0,-142.0,1203.5401945926028,2021-09-02 13:25:30.835
26,-77.0,1240.0,-142.0,1250.477108946821,2021-09-02 13:25:30.844
27,-77.0,1240.0,-167.0,1253.562124507597,2021-09-02 13:25:30.845
28,-405.0,817.0,12.0,911.952849658358,2021-09-02 13:25:30.854
29,345.0,1212.0,-105.0,1264.5133451253096,2021-09-02 13:25:30.863
30,80.0,1106.0,-97.0,1113.123982312842,2021-09-02 13:25:30.874
31,-705.0,1106.0,-97.0,1315.1691906367028,2021-09-02 13:25:30.883
32,-705.0,1037.0,-40.0,1254.5891757862412,2021-09-02 13:25:30.884
33,34.0,1059.0,-7.0,1059.5687802120258,2021-09-02 13:25:30.899
34,202.0,1059.0,-7.0,1078.1159492373722,2021-09-02 13:25:30.902
35,202.0,1394.0,-97.0,1411.895534379226,2021-09-02 13:25:30.903
36,-204.0,818.0,-112.0,850.4610514303404,2021-09-02 13:25:30.912
37,-313.0,913.0,-207.0,987.110429485982,2021-09-02 13:25:30.923
38,-275.0,939.0,4.0,978.448772292142,2021-09-02 13:25:30.933
39,-179.0,958.0,-5.0,974.5922224192024,2021-09-02 13:25:30.942
40,153.0,1041.0,-208.0,1072.5455701274425,2021-09-02 13:25:30.951
41,-273.0,993.0,-216.0,1052.2518709890708,2021-09-02 13:25:30.961
42,-146.0,1150.0,-66.0,1161.1080914367965,2021-09-02 13:25:30.972
43,-199.0,1049.0,52.0,1068.9742747138491,2021-09-02 13:25:30.982
44,-9.0,1090.0,-222.0,1112.414041622992,2021-09-02 13:25:30.990
45,136.0,1269.0,-315.0,1314.565327399137,2021-09-02 13:25:31.000
46,-327.0,984.0,76.0,1039.6927430736448,2021-09-02 13:25:31.010
47,204.0,1053.0,73.0,1075.0599983256748,2021-09-02 13:25:31.020
48,50.0,951.0,-341.0,1011.5245918908744,2021-09-02 13:25:31.030
49,-598.0,596.0,161.0,859.5004363000638,2021-09-02 13:25:31.040
50,-169.0,777.0,121.0,804.3202098666924,2021-09-02 13:25:31.049
51,-232.0,1034.0,-3.0,1059.711753261235,2021-09-02 13:25:31.059
52,-265.0,814.0,-3.0,856.0549047812295,2021-09-02 13:25:31.069
53,-265.0,814.0,231.0,886.6690476158509,2021-09-02 13:25:31.070
54,-219.0,814.0,231.0,874.0240271296893,2021-09-02 13:25:31.078
55,-219.0,985.0,-55.0,1010.5498503290175,2021-09-02 13:25:31.079
56,-347.0,751.0,81.0,831.2466541286046,2021-09-02 13:25:31.090
57,-589.0,703.0,-5.0,917.1450266997036,2021-09-02 13:25:31.098
58,-196.0,978.0,-117.0,1004.2853180247135,2021-09-02 13:25:31.108
59,-470.0,746.0,-215.0,907.5466930136432,2021-09-02 13:25:31.121
60,-108.0,907.0,85.0,917.3538030661888,2021-09-02 13:25:31.127
61,-542.0,905.0,114.0,1061.030159797543,2021-09-02 13:25:31.137
62,265.0,1052.0,-59.0,1086.4667505266789,2021-09-02 13:25:31.147
63,0.0,1269.0,-67.0,1270.7674846328105,2021-09-02 13:25:31.157
64,188.0,1177.0,-29.0,1192.2726198315552,2021-09-02 13:25:31.166
65,-81.0,1208.0,136.0,1218.3271317671622,2021-09-02 13:25:31.177
66,-628.0,1124.0,-101.0,1291.495644591959,2021-09-02 13:25:31.186
67,-432.0,573.0,39.0,718.6612553908831,2021-09-02 13:25:31.195
68,-212.0,1051.0,9.0,1072.206136897192,2021-09-02 13:25:31.206
69,-173.0,1291.0,9.0,1302.57091937445,2021-09-02 13:25:31.215
70,-173.0,1291.0,-25.0,1302.7797204439437,2021-09-02 13:25:31.216
71,-661.0,925.0,42.0,1137.6774586850177,2021-09-02 13:25:31.226
72,-195.0,706.0,-14.0,732.5687681030362,2021-09-02 13:25:31.235
73,10.0,1053.0,16.0,1053.169027269602,2021-09-02 13:25:31.244
74,-469.0,911.0,67.0,1026.8256911472365,2021-09-02 13:25:31.254
75,-569.0,911.0,67.0,1076.1835345330276,2021-09-02 13:25:31.264
76,-569.0,977.0,-32.0,1131.0676372348385,2021-09-02 13:25:31.265
77,-484.0,977.0,-32.0,1090.783663244,2021-09-02 13:25:31.274
78,-484.0,509.0,178.0,724.5833285413072,2021-09-02 13:25:31.275
79,-74.0,740.0,150.0,758.667252489522,2021-09-02 13:25:31.283
80,162.0,1100.0,-228.0,1135.0013215851336,2021-09-02 13:25:31.293
81,-19.0,1143.0,-307.0,1183.663381202612,2021-09-02 13:25:31.305
82,107.0,1219.0,-113.0,1228.8934046531456,2021-09-02 13:25:31.313
83,115.0,896.0,-113.0,910.3900263074064,2021-09-02 13:25:31.324
84,115.0,896.0,122.0,911.5508762543096,2021-09-02 13:25:31.325
85,15.0,896.0,122.0,904.3920610000952,2021-09-02 13:25:31.332
86,15.0,1163.0,-138.0,1171.2548825938784,2021-09-02 13:25:31.333
87,164.0,1278.0,-270.0,1316.4649634532625,2021-09-02 13:25:31.342
88,-485.0,855.0,142.0,993.1837695008916,2021-09-02 13:25:31.352
89,216.0,1205.0,144.0,1232.6463401965707,2021-09-02 13:25:31.362
90,38.0,1205.0,144.0,1214.1684397150177,2021-09-02 13:25:31.371
91,38.0,1064.0,-242.0,1091.8351523925212,2021-09-02 13:25:31.372
92,-704.0,920.0,-144.0,1167.3696929422144,2021-09-02 13:25:31.383
93,-296.0,936.0,-8.0,981.7209379451984,2021-09-02 13:25:31.391
94,-45.0,1260.0,-20.0,1260.9619343977042,2021-09-02 13:25:31.400
95,-2.0,925.0,-93.0,929.6655312530416,2021-09-02 13:25:31.411
96,-187.0,1092.0,-159.0,1119.2470683455017,2021-09-02 13:25:31.421
97,-458.0,854.0,-159.0,982.0188389231644,2021-09-02 13:25:31.430
98,-458.0,854.0,2.0,969.0634654139016,2021-09-02 13:25:31.431
99,-148.0,854.0,2.0,866.7317924248539,2021-09-02 13:25:31.440
100,-148.0,887.0,35.0,899.9433315492704,2021-09-02 13:25:31.441
101,168.0,1231.0,-277.0,1272.9155510087855,2021-09-02 13:25:31.449
102,-83.0,1085.0,-156.0,1099.295228771598,2021-09-02 13:25:31.459
103,-70.0,1017.0,-156.0,1031.2734845810785,2021-09-02 13:25:31.476
104,-70.0,1017.0,-106.0,1024.9024343809513,2021-09-02 13:25:31.477
105,-64.0,902.0,-99.0,909.6708195825564,2021-09-02 13:25:31.480
106,288.0,902.0,-99.0,952.023634160413,2021-09-02 13:25:31.489
107,288.0,1130.0,-205.0,1184.0054898521375,2021-09-02 13:25:31.490
108,25.0,1367.0,-205.0,1382.5118444338914,2021-09-02 13:25:31.499
109,25.0,1367.0,-118.0,1372.3111891987182,2021-09-02 13:25:31.500
110,-445.0,858.0,-7.0,966.559879159072,2021-09-02 13:25:31.508
111,273.0,858.0,-7.0,900.4121278614588,2021-09-02 13:25:31.517
112,273.0,974.0,-37.0,1012.2124282975388,2021-09-02 13:25:31.518
113,42.0,1057.0,-230.0,1082.5493060364502,2021-09-02 13:25:31.529
114,-752.0,416.0,86.0,863.6874434655166,2021-09-02 13:25:31.538
115,-365.0,416.0,86.0,560.068745780373,2021-09-02 13:25:31.547
116,-365.0,660.0,74.0,757.8264972934109,2021-09-02 13:25:31.548
117,-303.0,1145.0,-16.0,1184.5210002359604,2021-09-02 13:25:31.558
118,-728.0,1145.0,-16.0,1356.9322016961644,2021-09-02 13:25:31.573
119,-728.0,832.0,-45.0,1106.450631524064,2021-09-02 13:25:31.574
120,-283.0,764.0,-90.0,819.6859154578661,2021-09-02 13:25:31.577
121,-235.0,724.0,83.0,765.6957620360713,2021-09-02 13:25:31.598
122,-389.0,967.0,-29.0,1042.713287534018,2021-09-02 13:25:31.601
123,-111.0,1087.0,96.0,1096.86188738601,2021-09-02 13:25:31.607
124,-315.0,829.0,96.0,892.0100896290355,2021-09-02 13:25:31.616
125,-315.0,829.0,-136.0,897.1967454243244,2021-09-02 13:25:31.617
126,31.0,972.0,-61.0,974.4054597548188,2021-09-02 13:25:31.625
127,-588.0,804.0,143.0,1006.2847509527312,2021-09-02 13:25:31.635
128,-72.0,1071.0,-103.0,1078.3478103098275,2021-09-02 13:25:31.645
129,-11.0,1199.0,-283.0,1231.9947240146769,2021-09-02 13:25:31.656
130,182.0,1259.0,105.0,1276.412942585588,2021-09-02 13:25:31.664
131,-305.0,1205.0,-32.0,1243.4122405702783,2021-09-02 13:25:31.674
132,-585.0,1006.0,-54.0,1164.9793989594837,2021-09-02 13:25:31.684
133,-546.0,698.0,111.0,893.1074963295292,2021-09-02 13:25:31.694
134,-184.0,1060.0,99.0,1080.3966864073584,2021-09-02 13:25:31.705
135,-348.0,1221.0,-33.0,1270.052754809815,2021-09-02 13:25:31.713
136,-692.0,768.0,-16.0,1033.8974804108964,2021-09-02 13:25:31.723
137,-238.0,861.0,-35.0,893.974272560458,2021-09-02 13:25:31.733
138,-91.0,957.0,-11.0,961.379737668732,2021-09-02 13:25:31.742
139,-420.0,853.0,176.0,966.9462239442274,2021-09-02 13:25:31.754
140,-454.0,853.0,176.0,982.1919364360512,2021-09-02 13:25:31.762
141,-454.0,916.0,-69.0,1024.6623834219738,2021-09-02 13:25:31.763
142,-305.0,691.0,17.0,755.5097616841227,2021-09-02 13:25:31.772
143,-447.0,806.0,290.0,966.2013247765706,2021-09-02 13:25:31.781
144,139.0,1155.0,-291.0,1199.177634881505,2021-09-02 13:25:31.792
145,-148.0,1200.0,-99.0,1213.138491681803,2021-09-02 13:25:31.802
146,-21.0,1200.0,-99.0,1204.2599387175512,2021-09-02 13:25:31.810
147,-21.0,1193.0,-9.0,1193.218756138203,2021-09-02 13:25:31.811
148,43.0,819.0,-102.0,826.4466104958021,2021-09-02 13:25:31.821
149,181.0,1070.0,-15.0,1085.3045655483072,2021-09-02 13:25:31.830
150,-245.0,1398.0,-223.0,1436.7177871802105,2021-09-02 13:25:31.840
151,-293.0,921.0,188.0,984.5983952861188,2021-09-02 13:25:31.851
152,185.0,1134.0,169.0,1161.3535206817949,2021-09-02 13:25:31.860
153,87.0,1161.0,-96.0,1168.2063173943206,2021-09-02 13:25:31.869
154,-515.0,1161.0,-96.0,1273.7197493954468,2021-09-02 13:25:31.881
155,-515.0,966.0,-208.0,1114.2912545649813,2021-09-02 13:25:31.882
156,-26.0,1099.0,118.0,1105.622449120856,2021-09-02 13:25:31.889
157,13.0,1213.0,-83.0,1215.905835169813,2021-09-02 13:25:31.899
158,-109.0,1016.0,-64.0,1023.8325058328631,2021-09-02 13:25:31.910
159,-159.0,1006.0,-127.0,1026.375175070013,2021-09-02 13:25:31.919
160,-146.0,1006.0,-127.0,1024.4417992253148,2021-09-02 13:25:31.928
161,-146.0,849.0,-13.0,861.560212637515,2021-09-02 13:25:31.929
162,-13.0,982.0,65.0,984.2347281009748,2021-09-02 13:25:31.938
163,116.0,1226.0,-193.0,1246.5075210362752,2021-09-02 13:25:31.948
164,-6.0,1112.0,-162.0,1123.7544215708342,2021-09-02 13:25:31.959
165,2.0,912.0,-28.0,912.4319152682024,2021-09-02 13:25:31.968
166,162.0,972.0,-33.0,985.9599383342104,2021-09-02 13:25:31.977
167,329.0,1328.0,-141.0,1375.3930347358896,2021-09-02 13:25:31.987
168,-18.0,1194.0,-152.0,1203.770742292734,2021-09-02 13:25:31.996
169,-315.0,706.0,172.0,791.9880049596711,2021-09-02 13:25:32.007
170,596.0,1165.0,-8.0,1308.6271432306453,2021-09-02 13:25:32.017
171,-566.0,828.0,-84.0,1006.4770240795366,2021-09-02 13:25:32.026
172,-452.0,519.0,-64.0,691.2025752266842,2021-09-02 13:25:32.035
173,-208.0,741.0,216.0,799.3753811570632,2021-09-02 13:25:32.045
174,-434.0,1026.0,35.0,1114.5658347536048,2021-09-02 13:25:32.056
175,-286.0,873.0,-63.0,920.811598536856,2021-09-02 13:25:32.066
176,-279.0,873.0,-63.0,918.661526352334,2021-09-02 13:25:32.074
177,-279.0,957.0,-179.0,1012.783787389984,2021-09-02 13:25:32.075
178,-384.0,771.0,81.0,865.134671597434,2021-09-02 13:25:32.084
179,-329.0,960.0,30.0,1015.2541553719444,2021-09-02 13:25:32.096
180,136.0,1044.0,-205.0,1072.5935856604774,2021-09-02 13:25:32.105
181,-125.0,933.0,-205.0,963.39970936263,2021-09-02 13:25:32.114
182,-125.0,933.0,-101.0,946.7391404183096,2021-09-02 13:25:32.115
183,138.0,1200.0,-101.0,1212.1241685570003,2021-09-02 13:25:32.130
184,138.0,1200.0,4.0,1207.9155599626988,2021-09-02 13:25:32.131
185,-68.0,1078.0,48.0,1081.208583021796,2021-09-02 13:25:32.134
186,110.0,1021.0,-167.0,1040.3989619371985,2021-09-02 13:25:32.144
187,339.0,1137.0,-131.0,1193.6712277675122,2021-09-02 13:25:32.154
188,-240.0,1280.0,-131.0,1308.8777635822223,2021-09-02 13:25:32.164
189,-65.0,1280.0,-131.0,1288.3268218895391,2021-09-02 13:25:32.172
190,-65.0,1006.0,6.0,1008.1155687717554,2021-09-02 13:25:32.173
191,-532.0,1083.0,-193.0,1221.9500808134512,2021-09-02 13:25:32.182
192,-610.0,595.0,240.0,885.2824408063226,2021-09-02 13:25:32.192
193,-386.0,691.0,116.0,799.9581239039953,2021-09-02 13:25:32.202
194,-227.0,1095.0,-43.0,1119.108127036883,2021-09-02 13:25:32.213
195,-686.0,821.0,-12.0,1069.94439107834,2021-09-02 13:25:32.221
196,-457.0,821.0,-12.0,939.6988879423023,2021-09-02 13:25:32.230
197,-457.0,916.0,-53.0,1025.0434137147558,2021-09-02 13:25:32.231
198,-309.0,747.0,56.0,810.3246263072597,2021-09-02 13:25:32.241
199,-630.0,579.0,11.0,855.7230860506219,2021-09-02 13:25:32.251
200,17.0,1040.0,-42.0,1040.9865513060197,2021-09-02 13:25:32.262
201,-441.0,918.0,-156.0,1030.3111180609476,2021-09-02 13:25:32.270
202,-265.0,876.0,-156.0,928.40562255945,2021-09-02 13:25:32.279
203,-265.0,876.0,57.0,916.978734758882,2021-09-02 13:25:32.280
204,237.0,1233.0,-379.0,1311.525447713463,2021-09-02 13:25:32.289
205,-406.0,1233.0,-379.0,1352.318749407846,2021-09-02 13:25:32.299
206,-406.0,1083.0,-83.0,1159.5749221158587,2021-09-02 13:25:32.300
207,-256.0,945.0,-131.0,987.7864141604704,2021-09-02 13:25:32.312
208,342.0,1053.0,55.0,1108.5116147339188,2021-09-02 13:25:32.320
209,62.0,1347.0,-28.0,1348.7167975523994,2021-09-02 13:25:32.329
210,-242.0,1201.0,-44.0,1225.928627612554,2021-09-02 13:25:32.339
211,-551.0,665.0,-44.0,864.7323285271576,2021-09-02 13:25:32.348
212,-551.0,665.0,15.0,863.7424384618369,2021-09-02 13:25:32.349
213,-14.0,665.0,15.0,665.3164660520586,2021-09-02 13:25:32.358
214,-14.0,1076.0,38.0,1076.7618121014507,2021-09-02 13:25:32.359
215,-277.0,1213.0,-5.0,1244.2359101070826,2021-09-02 13:25:32.369
216,-633.0,917.0,95.0,1118.3036260336455,2021-09-02 13:25:32.377
217,-239.0,835.0,95.0,873.7110506340182,2021-09-02 13:25:32.387
218,-239.0,835.0,-144.0,880.3874147214964,2021-09-02 13:25:32.388
219,39.0,835.0,-144.0,848.222848077084,2021-09-02 13:25:32.396
220,39.0,1110.0,84.0,1113.8568130599192,2021-09-02 13:25:32.397
221,-30.0,1018.0,-74.0,1021.12682855755,2021-09-02 13:25:32.407
222,-97.0,1083.0,-151.0,1097.7700123432048,2021-09-02 13:25:32.418
223,-225.0,1083.0,-151.0,1116.3847902940993,2021-09-02 13:25:32.426
224,-225.0,1012.0,-50.0,1037.915699852353,2021-09-02 13:25:32.427
225,6.0,1060.0,23.0,1060.26647593895,2021-09-02 13:25:32.436
226,109.0,1021.0,-225.0,1051.1645922499483,2021-09-02 13:25:32.446
227,37.0,1011.0,-325.0,1062.5982307532795,2021-09-02 13:25:32.456
228,182.0,1175.0,-128.0,1195.8816831108336,2021-09-02 13:25:32.467
229,92.0,1175.0,-128.0,1185.526465330909,2021-09-02 13:25:32.475
230,92.0,976.0,-19.0,980.510581278958,2021-09-02 13:25:32.476
231,77.0,1160.0,-19.0,1162.7080458997434,2021-09-02 13:25:32.491
232,77.0,1160.0,-84.0,1165.5835448392363,2021-09-02 13:25:32.492
233,-122.0,1281.0,-212.0,1304.1430136300237,2021-09-02 13:25:32.496
234,-292.0,1281.0,-212.0,1330.8527341520548,2021-09-02 13:25:32.504
235,-292.0,799.0,74.0,853.8975348365868,2021-09-02 13:25:32.505
236,193.0,1179.0,86.0,1197.783786832999,2021-09-02 13:25:32.517
237,-577.0,935.0,73.0,1101.1280579478482,2021-09-02 13:25:32.524
238,-711.0,935.0,73.0,1176.8920936092654,2021-09-02 13:25:32.533
239,-711.0,637.0,-44.0,955.6285889402848,2021-09-02 13:25:32.534
240,-169.0,699.0,176.0,740.3634242721611,2021-09-02 13:25:32.543
241,137.0,1207.0,176.0,1227.43390860771,2021-09-02 13:25:32.556
242,137.0,1207.0,-203.0,1231.595306908889,2021-09-02 13:25:32.557
243,-48.0,944.0,13.0,945.3089442081884,2021-09-02 13:25:32.564
244,-324.0,1111.0,13.0,1157.35301442559,2021-09-02 13:25:32.573
245,-324.0,1111.0,-70.0,1159.3951009039154,2021-09-02 13:25:32.574
246,-427.0,790.0,-70.0,900.7380307281358,2021-09-02 13:25:32.605
247,-427.0,790.0,81.0,901.6595809949562,2021-09-02 13:25:32.606
248,361.0,755.0,81.0,840.7776162577118,2021-09-02 13:25:32.609
249,361.0,755.0,59.0,838.9439790593887,2021-09-02 13:25:32.610
250,361.0,1282.0,-146.0,1339.8361840165387,2021-09-02 13:25:32.611
251,-289.0,1128.0,-322.0,1208.1345123784852,2021-09-02 13:25:32.613
252,-143.0,969.0,65.0,981.6491226502473,2021-09-02 13:25:32.622
253,-506.0,778.0,115.0,935.171107338117,2021-09-02 13:25:32.632
254,111.0,1136.0,-283.0,1175.9702377186252,2021-09-02 13:25:32.642
255,-134.0,1334.0,-302.0,1374.3056428611503,2021-09-02 13:25:32.652
256,13.0,1101.0,89.0,1104.6678233749728,2021-09-02 13:25:32.660
257,-348.0,1067.0,115.0,1128.1923594848531,2021-09-02 13:25:32.671
258,-519.0,1045.0,-21.0,1166.9734358587602,2021-09-02 13:25:32.680
259,-557.0,592.0,-19.0,813.0645730813759,2021-09-02 13:25:32.691
260,-330.0,701.0,139.0,787.1607205647396,2021-09-02 13:25:32.704
261,-96.0,1239.0,123.0,1248.7858102973464,2021-09-02 13:25:32.709
262,-481.0,862.0,61.0,989.002527802634,2021-09-02 13:25:32.719
263,-491.0,664.0,-206.0,851.124550227521,2021-09-02 13:25:32.729
264,-149.0,616.0,262.0,685.7849517159151,2021-09-02 13:25:32.740
265,-486.0,882.0,0.0,1007.0352526103544,2021-09-02 13:25:32.748
266,-74.0,1159.0,-49.0,1162.3932209024622,2021-09-02 13:25:32.758
267,-560.0,730.0,-151.0,932.363126684019,2021-09-02 13:25:32.768
268,-248.0,815.0,-11.0,851.9683092697755,2021-09-02 13:25:32.778
269,269.0,815.0,-11.0,858.3163752370101,2021-09-02 13:25:32.789
270,269.0,1101.0,-238.0,1158.1044857870122,2021-09-02 13:25:32.790
271,-334.0,1125.0,-203.0,1190.9617961966703,2021-09-02 13:25:32.797
272,-225.0,1125.0,-203.0,1165.100424856158,2021-09-02 13:25:32.823
273,-225.0,1135.0,44.0,1157.923140799941,2021-09-02 13:25:32.824
274,177.0,1145.0,86.0,1161.7874160103474,2021-09-02 13:25:32.857
275,-340.0,1111.0,-109.0,1166.9627243404136,2021-09-02 13:25:32.863
276,0.0,1187.0,97.0,1190.956758241037,2021-09-02 13:25:32.867
277,-819.0,676.0,-123.0,1069.049110190921,2021-09-02 13:25:32.875
278,-156.0,872.0,-58.0,887.7409532065084,2021-09-02 13:25:32.886
279,-427.0,1020.0,-129.0,1113.2699582760688,2021-09-02 13:25:32.896
280,236.0,1176.0,-295.0,1235.1910783356557,2021-09-02 13:25:32.905
281,88.0,1285.0,-295.0,1321.360662347718,2021-09-02 13:25:32.914
282,88.0,1285.0,-282.0,1318.5192452141152,2021-09-02 13:25:32.915
283,-248.0,909.0,119.0,949.708376292428,2021-09-02 13:25:32.924
284,150.0,998.0,119.0,1016.2012595937872,2021-09-02 13:25:32.934
285,150.0,998.0,49.0,1010.398436261656,2021-09-02 13:25:32.935
286,190.0,998.0,49.0,1017.1061891464432,2021-09-02 13:25:32.944
287,190.0,1152.0,-223.0,1188.668582911149,2021-09-02 13:25:32.945
288,-4.0,1152.0,-223.0,1173.3920913317934,2021-09-02 13:25:32.954
289,-4.0,1154.0,-189.0,1169.381460431112,2021-09-02 13:25:32.955
290,-52.0,1016.0,-136.0,1026.3800465714442,2021-09-02 13:25:32.963
291,340.0,1016.0,-136.0,1079.977777549149,2021-09-02 13:25:32.973
292,340.0,887.0,-84.0,953.637771902938,2021-09-02 13:25:32.974
293,236.0,1142.0,-126.0,1172.9177294252142,2021-09-02 13:25:32.983
294,115.0,1351.0,-39.0,1356.4464604251802,2021-09-02 13:25:32.994
295,-447.0,777.0,-39.0,897.2508010584331,2021-09-02 13:25:33.003
296,-447.0,777.0,113.0,903.4970946273154,2021-09-02 13:25:33.004
297,279.0,1096.0,135.0,1138.9828795903827,2021-09-02 13:25:33.012
298,184.0,1157.0,-130.0,1178.730249039194,2021-09-02 13:25:33.022
299,-600.0,597.0,83.0,850.4692822201164,2021-09-02 13:25:33.032
300,-396.0,554.0,96.0,687.7121490856476,2021-09-02 13:25:33.042
301,-368.0,967.0,12.0,1034.7255674815424,2021-09-02 13:25:33.053
302,-347.0,1113.0,-80.0,1168.579479539154,2021-09-02 13:25:33.061
303,-454.0,944.0,-179.0,1062.6819844149047,2021-09-02 13:25:33.073
304,-335.0,710.0,-84.0,789.544805568373,2021-09-02 13:25:33.080
305,-68.0,943.0,11.0,945.5125594089166,2021-09-02 13:25:33.091
306,124.0,1174.0,-212.0,1199.414857336693,2021-09-02 13:25:33.101
307,8.0,1124.0,-232.0,1147.7212205060948,2021-09-02 13:25:33.110
308,35.0,970.0,-182.0,987.5469609086952,2021-09-02 13:25:33.119
309,-60.0,928.0,2.0,929.9397829967272,2021-09-02 13:25:33.129
310,18.0,928.0,2.0,928.1767073138606,2021-09-02 13:25:33.139
311,18.0,1266.0,-150.0,1274.9823528190498,2021-09-02 13:25:33.140
312,298.0,1281.0,-221.0,1333.6438805018377,2021-09-02 13:25:33.150
313,67.0,1256.0,-51.0,1258.8192880632232,2021-09-02 13:25:33.159
314,-457.0,933.0,84.0,1042.30225942382,2021-09-02 13:25:33.169
315,-677.0,728.0,-29.0,994.5622152484982,2021-09-02 13:25:33.184
316,-476.0,546.0,-39.0,725.4054038949531,2021-09-02 13:25:33.189
317,-241.0,891.0,136.0,932.983386775992,2021-09-02 13:25:33.199
318,-625.0,982.0,121.0,1170.2948346463809,2021-09-02 13:25:33.208
319,-449.0,756.0,-4.0,879.2911918130421,2021-09-02 13:25:33.217
320,-330.0,904.0,-134.0,971.6336758264404,2021-09-02 13:25:33.227
321,-366.0,679.0,10.0,771.4253042258855,2021-09-02 13:25:33.237
322,-446.0,849.0,84.0,962.6905006283172,2021-09-02 13:25:33.248
323,-16.0,1145.0,-137.0,1153.2779370125834,2021-09-02 13:25:33.258
324,-143.0,917.0,-94.0,932.8311744361891,2021-09-02 13:25:33.266
325,460.0,917.0,-94.0,1030.2062900215665,2021-09-02 13:25:33.275
326,460.0,1141.0,56.0,1231.5100486800748,2021-09-02 13:25:33.276
327,88.0,1116.0,-175.0,1133.0600160626973,2021-09-02 13:25:33.288
328,-312.0,1167.0,-148.0,1217.0197204647095,2021-09-02 13:25:33.299
329,-167.0,1199.0,45.0,1211.4103351053268,2021-09-02 13:25:33.305
330,-235.0,1098.0,8.0,1122.894919393618,2021-09-02 13:25:33.316
331,-96.0,1098.0,8.0,1102.2177643279026,2021-09-02 13:25:33.324
332,-96.0,982.0,42.0,987.5748072930982,2021-09-02 13:25:33.325
333,-386.0,1151.0,-189.0,1228.6244340725118,2021-09-02 13:25:33.335
334,-723.0,698.0,114.0,1011.399525410211,2021-09-02 13:25:33.345
335,-534.0,698.0,114.0,886.2031369838407,2021-09-02 13:25:33.354
336,-534.0,761.0,223.0,956.0366101776648,2021-09-02 13:25:33.355
337,-263.0,761.0,223.0,835.4753138184276,2021-09-02 13:25:33.364
338,-263.0,1198.0,69.0,1228.4681518053287,2021-09-02 13:25:33.365
339,-537.0,784.0,-71.0,952.9249708135474,2021-09-02 13:25:33.374
340,-331.0,794.0,-71.0,863.1558376098722,2021-09-02 13:25:33.383
341,-331.0,794.0,28.0,860.6863540221839,2021-09-02 13:25:33.384
342,-261.0,734.0,86.0,783.7557017336461,2021-09-02 13:25:33.393
343,68.0,1282.0,-168.0,1294.7478519001295,2021-09-02 13:25:33.404
344,323.0,1282.0,-168.0,1332.6953890518269,2021-09-02 13:25:33.413
345,323.0,1316.0,-155.0,1363.8951572609972,2021-09-02 13:25:33.414
346,-405.0,759.0,-33.0,860.9268261588786,2021-09-02 13:25:33.423
347,545.0,1092.0,-78.0,1222.9362207408856,2021-09-02 13:25:33.432
348,336.0,1210.0,-120.0,1261.5054498495042,2021-09-02 13:25:33.442
349,-357.0,1208.0,-146.0,1268.0808333856323,2021-09-02 13:25:33.452
350,-140.0,1208.0,-146.0,1224.818353879464,2021-09-02 13:25:33.462
351,-140.0,926.0,8.0,936.5575262630696,2021-09-02 13:25:33.463
352,386.0,1168.0,-48.0,1231.0662045560343,2021-09-02 13:25:33.472
353,80.0,1168.0,-48.0,1171.7201030962983,2021-09-02 13:25:33.480
354,80.0,1334.0,-9.0,1336.4269527362878,2021-09-02 13:25:33.481
355,-530.0,1190.0,-9.0,1302.7206147136844,2021-09-02 13:25:33.490
356,-530.0,1190.0,-111.0,1307.410035145822,2021-09-02 13:25:33.491
357,-651.0,548.0,129.0,860.6660211719759,2021-09-02 13:25:33.509
358,-16.0,548.0,129.0,563.2060013884795,2021-09-02 13:25:33.512
359,-16.0,1027.0,-30.0,1027.5626501581305,2021-09-02 13:25:33.513
360,-28.0,1036.0,-19.0,1036.5524588750925,2021-09-02 13:25:33.521
361,-368.0,773.0,-125.0,865.2040221820516,2021-09-02 13:25:33.530
362,-272.0,887.0,87.0,931.837968747786,2021-09-02 13:25:33.540
363,-435.0,821.0,150.0,941.1514224608068,2021-09-02 13:25:33.550
364,188.0,1139.0,-87.0,1157.6847584727027,2021-09-02 13:25:33.560
365,102.0,1203.0,-98.0,1211.2873317260442,2021-09-02 13:25:33.569
366,-262.0,815.0,-98.0,861.6687298492385,2021-09-02 13:25:33.579
367,-262.0,815.0,-20.0,856.3112751797678,2021-09-02 13:25:33.580
368,154.0,1112.0,12.0,1122.6771575123455,2021-09-02 13:25:33.595
369,-69.0,911.0,-225.0,940.9075406223504,2021-09-02 13:25:33.599
370,0.0,964.0,-192.0,982.9343823470618,2021-09-02 13:25:33.624
371,129.0,1046.0,20.0,1054.1143201759476,2021-09-02 13:25:33.629
372,-601.0,862.0,-94.0,1055.026539950536,2021-09-02 13:25:33.637
373,-587.0,763.0,-94.0,967.2507430857834,2021-09-02 13:25:33.648
374,-587.0,763.0,31.0,963.1713243239752,2021-09-02 13:25:33.649
375,-14.0,763.0,31.0,763.7578150172999,2021-09-02 13:25:33.657
376,-14.0,852.0,405.0,943.464360747135,2021-09-02 13:25:33.658
377,-98.0,966.0,-39.0,971.7412206961276,2021-09-02 13:25:33.667
378,180.0,1006.0,0.0,1021.976516364246,2021-09-02 13:25:33.676
379,-203.0,995.0,-302.0,1059.4517450077658,2021-09-02 13:25:33.686
380,-89.0,1152.0,-126.0,1162.282667856662,2021-09-02 13:25:33.697
381,-443.0,1173.0,-127.0,1260.280524327818,2021-09-02 13:25:33.705
382,-267.0,931.0,-67.0,970.8444777615,2021-09-02 13:25:33.715
383,-203.0,1114.0,-114.0,1138.0689785773093,2021-09-02 13:25:33.725
384,-389.0,1010.0,-160.0,1094.0845488352352,2021-09-02 13:25:33.735
385,-402.0,854.0,-99.0,949.0632223408512,2021-09-02 13:25:33.746
386,-203.0,1035.0,-72.0,1057.1745362048785,2021-09-02 13:25:33.755
387,-81.0,1118.0,-72.0,1123.2404016950245,2021-09-02 13:25:33.764
388,-81.0,1118.0,-108.0,1126.1212190523718,2021-09-02 13:25:33.765
389,-5.0,996.0,-153.0,1007.6953904826596,2021-09-02 13:25:33.774
