,Acceleration_X,Acceleration_Y,Acceleration_Z,magnitude,time_stamp
0,-229.0,1056.0,-84.0,1083.8048717366055,2021-08-31 07:27:49.269
1,-229.0,1056.0,-45.0,1081.4813914256686,2021-08-31 07:27:49.270
2,-180.0,1087.0,-41.0,1102.565190816398,2021-08-31 07:27:49.279
3,-127.0,934.0,-97.0,947.5726885046868,2021-08-31 07:27:49.289
4,-187.0,1105.0,-67.0,1122.7123407177814,2021-08-31 07:27:49.299
5,-158.0,1105.0,-67.0,1118.24773641622,2021-08-31 07:27:49.308
6,-158.0,1147.0,-29.0,1158.1942842200526,2021-08-31 07:27:49.309
7,-167.0,1046.0,-114.0,1065.364256956277,2021-08-31 07:27:49.318
8,-212.0,1221.0,30.0,1239.630993481528,2021-08-31 07:27:49.328
9,-173.0,901.0,-95.0,922.363811085409,2021-08-31 07:27:49.338
10,-183.0,901.0,-95.0,924.2916206479424,2021-08-31 07:27:49.347
11,-183.0,1015.0,-96.0,1035.8233440119025,2021-08-31 07:27:49.348
12,-266.0,1045.0,22.0,1078.5476345530594,2021-08-31 07:27:49.358
13,-87.0,942.0,20.0,946.2203760224148,2021-08-31 07:27:49.368
14,-242.0,888.0,-81.0,923.942097752884,2021-08-31 07:27:49.377
15,-210.0,967.0,58.0,991.2381146828444,2021-08-31 07:27:49.387
16,-171.0,1036.0,93.0,1054.128075709968,2021-08-31 07:27:49.396
17,-254.0,765.0,-54.0,807.8718957854643,2021-08-31 07:27:49.407
18,-218.0,765.0,-54.0,797.2860214502698,2021-08-31 07:27:49.417
19,-218.0,896.0,1.0,922.139360400585,2021-08-31 07:27:49.418
20,-179.0,1037.0,0.0,1052.3354978332718,2021-08-31 07:27:49.426
21,-145.0,808.0,0.0,820.9074247441059,2021-08-31 07:27:49.435
22,-145.0,808.0,-32.0,821.5308880376928,2021-08-31 07:27:49.436
23,-207.0,1073.0,-26.0,1093.093774568312,2021-08-31 07:27:49.445
24,-220.0,1040.0,20.0,1063.202708800161,2021-08-31 07:27:49.455
25,-128.0,868.0,0.0,877.387029765086,2021-08-31 07:27:49.475
26,-173.0,1105.0,-78.0,1121.177060057866,2021-08-31 07:27:49.477
27,-254.0,1012.0,-28.0,1043.7643412188404,2021-08-31 07:27:49.485
28,-92.0,1004.0,-47.0,1009.3012434352788,2021-08-31 07:27:49.494
29,-165.0,986.0,-135.0,1008.7844170089068,2021-08-31 07:27:49.504
30,-291.0,986.0,-135.0,1036.8712552674997,2021-08-31 07:27:49.513
31,-291.0,1123.0,-5.0,1160.1012886812944,2021-08-31 07:27:49.514
32,-86.0,1107.0,-28.0,1110.6885251950705,2021-08-31 07:27:49.523
33,-271.0,1107.0,-28.0,1140.032455678346,2021-08-31 07:27:49.533
34,-271.0,870.0,-146.0,922.8526426250291,2021-08-31 07:27:49.534
35,-297.0,1119.0,-34.0,1158.242634338764,2021-08-31 07:27:49.544
36,-248.0,1119.0,-34.0,1146.656443752879,2021-08-31 07:27:49.552
37,-248.0,897.0,-152.0,942.983032721162,2021-08-31 07:27:49.553
38,-279.0,1088.0,-152.0,1133.4412203550742,2021-08-31 07:27:49.563
39,-279.0,1088.0,-36.0,1123.77978269766,2021-08-31 07:27:49.564
40,-220.0,1042.0,56.0,1066.4426848171447,2021-08-31 07:27:49.572
41,-192.0,847.0,-67.0,871.0694576209179,2021-08-31 07:27:49.582
42,-198.0,1032.0,-67.0,1052.95631438346,2021-08-31 07:27:49.593
43,-198.0,1032.0,-2.0,1050.8244382388525,2021-08-31 07:27:49.594
44,-241.0,969.0,-2.0,998.5219076214604,2021-08-31 07:27:49.601
45,-241.0,969.0,45.0,999.533391138085,2021-08-31 07:27:49.602
46,-184.0,912.0,50.0,931.7188417113824,2021-08-31 07:27:49.612
47,-212.0,803.0,-64.0,832.9759900501334,2021-08-31 07:27:49.621
48,-142.0,968.0,18.0,978.5254212333986,2021-08-31 07:27:49.631
49,-135.0,968.0,18.0,977.5341426262308,2021-08-31 07:27:49.641
50,-135.0,1029.0,8.0,1037.8487365700264,2021-08-31 07:27:49.642
51,-170.0,934.0,-37.0,950.0657871958132,2021-08-31 07:27:49.650
52,-212.0,1045.0,-19.0,1066.4567501778963,2021-08-31 07:27:49.660
53,-139.0,976.0,-17.0,985.994928993045,2021-08-31 07:27:49.670
54,-97.0,972.0,-58.0,978.5484147450244,2021-08-31 07:27:49.680
55,-167.0,1139.0,-58.0,1152.6378442511768,2021-08-31 07:27:49.689
56,-167.0,1139.0,-55.0,1152.4907808741898,2021-08-31 07:27:49.690
57,-173.0,948.0,-82.0,967.138562978439,2021-08-31 07:27:49.701
58,-160.0,946.0,-85.0,963.1931270518908,2021-08-31 07:27:49.709
59,-256.0,1084.0,-50.0,1114.9403571492064,2021-08-31 07:27:49.719
60,-258.0,1093.0,-50.0,1124.1499010363343,2021-08-31 07:27:49.728
61,-258.0,1093.0,-39.0,1123.714376521009,2021-08-31 07:27:49.729
62,-119.0,964.0,-55.0,972.8730646903532,2021-08-31 07:27:49.738
63,-213.0,1017.0,-103.0,1044.1585128705317,2021-08-31 07:27:49.756
64,-254.0,1163.0,-34.0,1190.8992400702923,2021-08-31 07:27:49.759
65,-116.0,1163.0,-34.0,1169.265153846637,2021-08-31 07:27:49.767
66,-116.0,873.0,-14.0,880.7843095786845,2021-08-31 07:27:49.768
67,-236.0,873.0,-14.0,904.4451337698712,2021-08-31 07:27:49.778
68,-236.0,969.0,-21.0,997.5459889147968,2021-08-31 07:27:49.779
69,-196.0,1109.0,5.0,1126.1980287675876,2021-08-31 07:27:49.787
70,-198.0,943.0,-63.0,965.6200080777116,2021-08-31 07:27:49.797
71,-174.0,1039.0,61.0,1055.233623421847,2021-08-31 07:27:49.809
72,-135.0,914.0,0.0,923.9161217340024,2021-08-31 07:27:49.816
73,-215.0,859.0,-84.0,889.472877607856,2021-08-31 07:27:49.827
74,-275.0,1018.0,64.0,1056.4303100536258,2021-08-31 07:27:49.836
75,-114.0,1018.0,64.0,1026.3605604269876,2021-08-31 07:27:49.845
76,-114.0,932.0,27.0,939.3343387740064,2021-08-31 07:27:49.846
77,-164.0,932.0,-74.0,949.2080909895363,2021-08-31 07:27:49.855
78,-220.0,939.0,-58.0,966.1702748480724,2021-08-31 07:27:49.865
79,-154.0,1078.0,65.0,1090.8826701346024,2021-08-31 07:27:49.875
80,-140.0,1073.0,-50.0,1083.2492787904362,2021-08-31 07:27:49.886
81,-113.0,872.0,-136.0,889.7465931376191,2021-08-31 07:27:49.905
82,-175.0,1158.0,-33.0,1171.613417471821,2021-08-31 07:27:49.907
83,-153.0,930.0,-147.0,953.8962207703728,2021-08-31 07:27:49.915
84,-50.0,1112.0,-82.0,1116.1397761929284,2021-08-31 07:27:49.924
85,-222.0,1112.0,-82.0,1136.90456943404,2021-08-31 07:27:49.933
86,-222.0,1071.0,-47.0,1094.7757761295231,2021-08-31 07:27:49.934
87,-175.0,1014.0,-108.0,1034.642450317983,2021-08-31 07:27:49.943
88,-115.0,1001.0,-60.0,1009.3691098899352,2021-08-31 07:27:49.953
89,-244.0,1094.0,-61.0,1122.538640760308,2021-08-31 07:27:49.967
90,-198.0,1094.0,-61.0,1113.44555322656,2021-08-31 07:27:49.972
91,-198.0,964.0,-25.0,984.4414660100416,2021-08-31 07:27:49.973
92,-196.0,895.0,-29.0,916.6689696940766,2021-08-31 07:27:49.982
93,-271.0,1064.0,-4.0,1097.9767757106704,2021-08-31 07:27:49.994
94,-150.0,973.0,27.0,984.8644576793296,2021-08-31 07:27:50.002
95,-74.0,973.0,27.0,976.1833844109416,2021-08-31 07:27:50.011
96,-74.0,796.0,-59.0,801.6065119495973,2021-08-31 07:27:50.012
97,-208.0,995.0,-22.0,1016.746281035736,2021-08-31 07:27:50.021
98,-117.0,842.0,-21.0,850.3493399774001,2021-08-31 07:27:50.031
99,-216.0,952.0,-62.0,978.163585500912,2021-08-31 07:27:50.042
100,-159.0,1010.0,79.0,1025.4862261386058,2021-08-31 07:27:50.051
101,-107.0,886.0,79.0,895.9274524201164,2021-08-31 07:27:50.060
102,-107.0,886.0,7.0,892.4651253690533,2021-08-31 07:27:50.061
103,-132.0,949.0,-105.0,963.8723981938688,2021-08-31 07:27:50.070
104,-239.0,1034.0,26.0,1061.5804255919568,2021-08-31 07:27:50.080
105,-14.0,1021.0,-11.0,1021.1552281607336,2021-08-31 07:27:50.090
106,-190.0,982.0,-115.0,1006.8013706784473,2021-08-31 07:27:50.101
107,-195.0,1037.0,-97.0,1059.6239899134032,2021-08-31 07:27:50.109
108,-228.0,1076.0,42.0,1100.692509286767,2021-08-31 07:27:50.119
109,-176.0,979.0,-118.0,1001.6691070408432,2021-08-31 07:27:50.129
110,-202.0,979.0,-118.0,1006.5629637533858,2021-08-31 07:27:50.138
111,-202.0,1004.0,-84.0,1027.558270853775,2021-08-31 07:27:50.139
112,-255.0,1011.0,-81.0,1045.8044750334548,2021-08-31 07:27:50.150
113,-176.0,1005.0,-61.0,1022.116431723901,2021-08-31 07:27:50.158
114,-120.0,1089.0,-20.0,1095.7741555630887,2021-08-31 07:27:50.168
115,-233.0,1040.0,-50.0,1066.9531386148128,2021-08-31 07:27:50.178
116,-160.0,859.0,-50.0,875.2034049293912,2021-08-31 07:27:50.187
117,-160.0,859.0,-68.0,876.415997115525,2021-08-31 07:27:50.188
118,-170.0,1062.0,52.0,1076.7766713669089,2021-08-31 07:27:50.198
119,-280.0,1062.0,52.0,1099.5217142012248,2021-08-31 07:27:50.207
120,-280.0,1010.0,-22.0,1048.3243772802389,2021-08-31 07:27:50.208
121,-106.0,826.0,13.0,832.8751407023744,2021-08-31 07:27:50.217
122,-136.0,972.0,-20.0,981.6720429960304,2021-08-31 07:27:50.226
123,-303.0,991.0,-11.0,1036.3450197689956,2021-08-31 07:27:50.236
124,-106.0,897.0,60.0,905.232014458172,2021-08-31 07:27:50.246
125,-92.0,860.0,-64.0,867.271583761396,2021-08-31 07:27:50.258
126,-53.0,860.0,-64.0,864.005208317635,2021-08-31 07:27:50.265
127,-53.0,841.0,34.0,843.3540181916488,2021-08-31 07:27:50.266
128,-190.0,937.0,-47.0,957.2241116896294,2021-08-31 07:27:50.275
129,-266.0,1055.0,-43.0,1088.866382987371,2021-08-31 07:27:50.285
130,-192.0,1018.0,99.0,1040.667574204174,2021-08-31 07:27:50.295
131,-108.0,961.0,-80.0,970.3530285416746,2021-08-31 07:27:50.306
132,-140.0,979.0,-91.0,993.1374527224316,2021-08-31 07:27:50.314
133,-169.0,1161.0,7.0,1173.2565789289229,2021-08-31 07:27:50.324
134,-139.0,961.0,-86.0,974.8015182589736,2021-08-31 07:27:50.334
135,-262.0,993.0,-114.0,1033.2903754511603,2021-08-31 07:27:50.344
136,-107.0,1153.0,-17.0,1158.0790128484325,2021-08-31 07:27:50.354
137,-159.0,983.0,-64.0,997.8306469536802,2021-08-31 07:27:50.364
138,-168.0,967.0,-111.0,987.7418691135856,2021-08-31 07:27:50.373
139,-208.0,1025.0,64.0,1047.8477942907548,2021-08-31 07:27:50.383
140,-161.0,975.0,64.0,990.2736995396778,2021-08-31 07:27:50.392
141,-161.0,975.0,-115.0,994.8723536213076,2021-08-31 07:27:50.393
142,-249.0,1001.0,-115.0,1037.895466798078,2021-08-31 07:27:50.403
143,-249.0,1001.0,40.0,1032.2800007749836,2021-08-31 07:27:50.404
144,-267.0,1040.0,24.0,1073.9948789449604,2021-08-31 07:27:50.412
145,-203.0,893.0,-47.0,916.9880042835894,2021-08-31 07:27:50.422
146,-230.0,893.0,-47.0,923.3406738577046,2021-08-31 07:27:50.431
147,-230.0,816.0,-65.0,850.2828941005458,2021-08-31 07:27:50.432
148,-218.0,1096.0,57.0,1118.923143026365,2021-08-31 07:27:50.441
149,-241.0,876.0,22.0,908.8129620554496,2021-08-31 07:27:50.451
150,-159.0,883.0,40.0,898.0924228608101,2021-08-31 07:27:50.462
151,-164.0,1014.0,-69.0,1029.4916221125843,2021-08-31 07:27:50.471
152,-211.0,999.0,32.0,1021.5409928142874,2021-08-31 07:27:50.490
153,-116.0,920.0,26.0,927.6486403806132,2021-08-31 07:27:50.492
154,-91.0,1054.0,-117.0,1064.3711758592488,2021-08-31 07:27:50.500
155,-262.0,1084.0,0.0,1115.212984142491,2021-08-31 07:27:50.510
156,-200.0,1040.0,0.0,1059.0561835898982,2021-08-31 07:27:50.519
157,-200.0,1040.0,-134.0,1067.4998829039748,2021-08-31 07:27:50.520
158,-223.0,1067.0,-20.0,1090.2375887851235,2021-08-31 07:27:50.529
159,-162.0,1037.0,-17.0,1049.7151994707897,2021-08-31 07:27:50.539
160,-234.0,887.0,-160.0,931.1954682020312,2021-08-31 07:27:50.549
161,-291.0,1185.0,-160.0,1230.6526723653592,2021-08-31 07:27:50.559
162,-291.0,1185.0,-33.0,1220.6535134918508,2021-08-31 07:27:50.560
163,-243.0,1070.0,16.0,1097.362747681914,2021-08-31 07:27:50.569
164,-134.0,886.0,-104.0,902.0909045101828,2021-08-31 07:27:50.578
165,-238.0,1108.0,-49.0,1134.3319619934898,2021-08-31 07:27:50.588
166,-197.0,1108.0,-49.0,1126.4430744604897,2021-08-31 07:27:50.599
167,-197.0,964.0,61.0,985.8123553699254,2021-08-31 07:27:50.600
168,-156.0,917.0,-59.0,932.0439903781366,2021-08-31 07:27:50.607
169,-243.0,950.0,-39.0,981.3612994203512,2021-08-31 07:27:50.617
170,-194.0,998.0,87.0,1020.3964915659012,2021-08-31 07:27:50.627
171,-186.0,998.0,87.0,1018.9057856347662,2021-08-31 07:27:50.636
172,-186.0,913.0,-4.0,931.7623087461736,2021-08-31 07:27:50.637
173,-225.0,991.0,5.0,1016.2337329571382,2021-08-31 07:27:50.647
174,-171.0,914.0,-22.0,930.1188096152018,2021-08-31 07:27:50.656
175,-197.0,919.0,-21.0,940.1122273430976,2021-08-31 07:27:50.666
176,-190.0,911.0,-10.0,930.6562200941872,2021-08-31 07:27:50.676
177,-177.0,1095.0,-10.0,1109.2583107644496,2021-08-31 07:27:50.685
178,-177.0,1095.0,0.0,1109.2132346848373,2021-08-31 07:27:50.686
179,-229.0,873.0,-33.0,903.1384168553568,2021-08-31 07:27:50.695
180,-197.0,994.0,-33.0,1013.8708004474732,2021-08-31 07:27:50.705
181,-197.0,994.0,-31.0,1013.8076740684104,2021-08-31 07:27:50.706
182,-144.0,1175.0,-55.0,1185.0679305423805,2021-08-31 07:27:50.715
183,-242.0,900.0,-55.0,933.5893101358862,2021-08-31 07:27:50.724
184,-242.0,900.0,-19.0,932.1614666998416,2021-08-31 07:27:50.725
185,-115.0,1057.0,-98.0,1067.7443514250028,2021-08-31 07:27:50.734
186,-197.0,1097.0,-42.0,1115.3394102245288,2021-08-31 07:27:50.744
187,-258.0,1111.0,-44.0,1141.411845041044,2021-08-31 07:27:50.755
188,-227.0,1077.0,-59.0,1102.242713743212,2021-08-31 07:27:50.764
189,-243.0,1106.0,-59.0,1133.916222654919,2021-08-31 07:27:50.780
190,-243.0,1106.0,-45.0,1133.274018055651,2021-08-31 07:27:50.781
191,-148.0,942.0,-46.0,954.6643389170875,2021-08-31 07:27:50.784
192,-207.0,1019.0,-78.0,1042.733906612804,2021-08-31 07:27:50.795
193,-241.0,1019.0,-78.0,1050.0123808793876,2021-08-31 07:27:50.802
194,-241.0,1064.0,39.0,1091.6492110563722,2021-08-31 07:27:50.803
195,-160.0,865.0,-20.0,879.9005625637478,2021-08-31 07:27:50.813
196,-258.0,973.0,-5.0,1006.6369752795692,2021-08-31 07:27:50.822
197,-281.0,1068.0,51.0,1105.5252145473662,2021-08-31 07:27:50.832
198,-148.0,806.0,3.0,819.4809332742282,2021-08-31 07:27:50.843
199,-199.0,902.0,3.0,923.6958373837136,2021-08-31 07:27:50.851
200,-199.0,902.0,-40.0,924.5566505087722,2021-08-31 07:27:50.852
201,-252.0,987.0,-5.0,1018.6746291137324,2021-08-31 07:27:50.862
202,-145.0,983.0,89.0,997.61465506477,2021-08-31 07:27:50.871
203,-180.0,978.0,37.0,995.1145662686282,2021-08-31 07:27:50.881
204,-102.0,1009.0,12.0,1014.2134883741194,2021-08-31 07:27:50.891
205,-117.0,936.0,-38.0,944.0492571894752,2021-08-31 07:27:50.900
206,-53.0,948.0,-57.0,951.189781273958,2021-08-31 07:27:50.924
207,-53.0,1050.0,-26.0,1051.658214440414,2021-08-31 07:27:50.926
208,-166.0,1050.0,-26.0,1063.3588293704058,2021-08-31 07:27:50.929
209,-166.0,1043.0,-40.0,1056.8845726946722,2021-08-31 07:27:50.930
210,-122.0,973.0,-106.0,986.3310803173548,2021-08-31 07:27:50.939
211,-238.0,1052.0,-8.0,1078.615779599019,2021-08-31 07:27:50.949
212,-221.0,1098.0,-55.0,1121.369698181648,2021-08-31 07:27:50.959
213,-284.0,989.0,-89.0,1032.8107280620202,2021-08-31 07:27:50.979
214,-236.0,989.0,-89.0,1020.6556716150652,2021-08-31 07:27:50.986
215,-236.0,1044.0,-29.0,1070.7347944285737,2021-08-31 07:27:50.987
216,-153.0,1109.0,-29.0,1119.879904275454,2021-08-31 07:27:50.990
217,-153.0,1109.0,0.0,1119.50435461413,2021-08-31 07:27:50.991
218,-144.0,998.0,-103.0,1013.5822610918168,2021-08-31 07:27:50.998
219,-218.0,1144.0,-103.0,1169.13172910498,2021-08-31 07:27:51.008
220,-218.0,1144.0,0.0,1164.585763265205,2021-08-31 07:27:51.009
221,-133.0,1144.0,0.0,1151.7052574335155,2021-08-31 07:27:51.017
222,-133.0,881.0,-50.0,892.3844463010323,2021-08-31 07:27:51.018
223,-154.0,974.0,-1.0,986.0998935199212,2021-08-31 07:27:51.027
224,-265.0,1077.0,2.0,1109.1248802546988,2021-08-31 07:27:51.037
225,-177.0,885.0,37.0,903.284562029043,2021-08-31 07:27:51.047
226,-81.0,885.0,37.0,889.4689426843413,2021-08-31 07:27:51.056
227,-81.0,833.0,-48.0,838.304240714551,2021-08-31 07:27:51.057
228,-235.0,989.0,-50.0,1017.7651988548242,2021-08-31 07:27:51.068
229,-208.0,974.0,46.0,997.023570433518,2021-08-31 07:27:51.076
230,-66.0,880.0,-3.0,882.4766285857094,2021-08-31 07:27:51.086
231,-252.0,880.0,-3.0,915.37587907919,2021-08-31 07:27:51.095
232,-252.0,1035.0,-53.0,1066.5542649110732,2021-08-31 07:27:51.096
233,-237.0,980.0,-2.0,1008.2524485464936,2021-08-31 07:27:51.105
234,-89.0,1034.0,29.0,1038.2282985933296,2021-08-31 07:27:51.116
235,-243.0,1036.0,31.0,1064.5684571693828,2021-08-31 07:27:51.125
236,-96.0,1036.0,-12.0,1040.507568449168,2021-08-31 07:27:51.135
237,-147.0,925.0,-108.0,942.8138734660198,2021-08-31 07:27:51.144
238,-155.0,1090.0,-53.0,1102.2404456378836,2021-08-31 07:27:51.154
239,-112.0,1077.0,-32.0,1083.2806653863993,2021-08-31 07:27:51.164
240,-245.0,952.0,-99.0,987.9929149543532,2021-08-31 07:27:51.178
241,-111.0,1093.0,-99.0,1103.0734336389396,2021-08-31 07:27:51.183
242,-111.0,1093.0,-62.0,1100.3699377936496,2021-08-31 07:27:51.184
243,-183.0,1074.0,-12.0,1089.5453180111415,2021-08-31 07:27:51.193
244,-130.0,952.0,-113.0,967.456975787554,2021-08-31 07:27:51.203
245,-184.0,971.0,-18.0,988.443726268724,2021-08-31 07:27:51.214
246,-116.0,1019.0,-91.0,1029.6106060059794,2021-08-31 07:27:51.227
247,-150.0,960.0,-32.0,972.1748813870888,2021-08-31 07:27:51.232
248,-266.0,842.0,-26.0,883.4002490377734,2021-08-31 07:27:51.243
249,-186.0,1005.0,-7.0,1022.090993992218,2021-08-31 07:27:51.252
250,-187.0,766.0,-63.0,791.0082174035867,2021-08-31 07:27:51.263
251,-202.0,1019.0,0.0,1038.8286672979332,2021-08-31 07:27:51.271
252,-249.0,956.0,-14.0,987.9944331826975,2021-08-31 07:27:51.281
253,-89.0,900.0,30.0,904.8872857986236,2021-08-31 07:27:51.291
254,-92.0,945.0,-82.0,953.002098633576,2021-08-31 07:27:51.301
255,-184.0,1094.0,-30.0,1109.771147579536,2021-08-31 07:27:51.311
256,-180.0,1011.0,34.0,1027.4614347993795,2021-08-31 07:27:51.320
257,-29.0,892.0,-113.0,899.5965762495987,2021-08-31 07:27:51.330
258,-208.0,1077.0,-71.0,1099.1969796173933,2021-08-31 07:27:51.340
259,-176.0,1077.0,-71.0,1093.5931601834386,2021-08-31 07:27:51.349
260,-176.0,1105.0,-6.0,1118.944592015172,2021-08-31 07:27:51.350
261,-136.0,939.0,-82.0,952.3345000576217,2021-08-31 07:27:51.359
262,-171.0,1142.0,26.0,1155.0242421698342,2021-08-31 07:27:51.370
263,-191.0,933.0,-113.0,959.0302393564032,2021-08-31 07:27:51.383
264,-223.0,933.0,-113.0,965.91252191904,2021-08-31 07:27:51.388
265,-223.0,1048.0,-107.0,1076.7924591117826,2021-08-31 07:27:51.389
266,-166.0,1129.0,-35.0,1141.6750851271129,2021-08-31 07:27:51.399
267,-144.0,927.0,-95.0,942.9156908228858,2021-08-31 07:27:51.408
268,-225.0,1030.0,-113.0,1060.327307957312,2021-08-31 07:27:51.419
269,-186.0,1051.0,122.0,1074.2816204329292,2021-08-31 07:27:51.428
270,-108.0,974.0,122.0,987.534303201666,2021-08-31 07:27:51.437
271,-108.0,974.0,-5.0,979.9821426944472,2021-08-31 07:27:51.438
272,-193.0,863.0,-115.0,891.7639822284818,2021-08-31 07:27:51.447
273,-160.0,991.0,62.0,1005.7459917891794,2021-08-31 07:27:51.457
274,-205.0,965.0,16.0,986.664076573177,2021-08-31 07:27:51.467
275,-175.0,822.0,16.0,840.5742085027354,2021-08-31 07:27:51.476
276,-175.0,822.0,-36.0,841.1926057687383,2021-08-31 07:27:51.477
277,-120.0,911.0,-19.0,919.0658300687716,2021-08-31 07:27:51.486
278,-177.0,915.0,40.0,932.8204543211948,2021-08-31 07:27:51.505
279,-145.0,915.0,40.0,927.2809714428524,2021-08-31 07:27:51.508
280,-145.0,826.0,-5.0,838.6453362417274,2021-08-31 07:27:51.509
281,-128.0,826.0,-5.0,835.8737943015082,2021-08-31 07:27:51.515
282,-128.0,1117.0,-45.0,1125.2102025843883,2021-08-31 07:27:51.516
283,-142.0,965.0,-11.0,975.4537405740982,2021-08-31 07:27:51.525
284,-213.0,929.0,-16.0,953.2397389953904,2021-08-31 07:27:51.535
285,-143.0,1142.0,-114.0,1156.5504744713912,2021-08-31 07:27:51.545
286,-170.0,1142.0,-114.0,1160.1982589195693,2021-08-31 07:27:51.554
287,-170.0,1000.0,2.0,1014.349052348352,2021-08-31 07:27:51.555
288,-91.0,1008.0,2.0,1012.1012795170254,2021-08-31 07:27:51.564
289,-91.0,1008.0,-101.0,1017.1263441677244,2021-08-31 07:27:51.565
290,-180.0,1004.0,-101.0,1024.9960975535469,2021-08-31 07:27:51.575
291,-180.0,1004.0,-105.0,1025.3979715213015,2021-08-31 07:27:51.576
292,-272.0,1139.0,26.0,1171.3159266397772,2021-08-31 07:27:51.584
293,-117.0,980.0,-88.0,990.8748659644164,2021-08-31 07:27:51.594
294,-205.0,935.0,-88.0,961.2460663118472,2021-08-31 07:27:51.603
295,-205.0,935.0,-87.0,961.1550343206864,2021-08-31 07:27:51.604
296,-132.0,1040.0,-25.0,1048.6415021350242,2021-08-31 07:27:51.613
297,-179.0,1040.0,-25.0,1055.5879878058483,2021-08-31 07:27:51.623
298,-179.0,917.0,-155.0,947.077082396148,2021-08-31 07:27:51.624
299,-224.0,1138.0,23.0,1160.0642223601244,2021-08-31 07:27:51.633
300,-135.0,1138.0,23.0,1146.2102773924164,2021-08-31 07:27:51.642
301,-135.0,939.0,13.0,948.7439064362944,2021-08-31 07:27:51.643
302,-178.0,870.0,-32.0,888.5988971408866,2021-08-31 07:27:51.653
303,-237.0,1033.0,1.0,1059.8391387375727,2021-08-31 07:27:51.662
304,-168.0,898.0,22.0,913.8446257433482,2021-08-31 07:27:51.672
305,-186.0,898.0,22.0,917.3243701112492,2021-08-31 07:27:51.682
306,-186.0,886.0,-37.0,906.0689819213546,2021-08-31 07:27:51.683
307,-214.0,902.0,-34.0,927.6615762227084,2021-08-31 07:27:51.691
308,-114.0,1036.0,76.0,1045.0205739601492,2021-08-31 07:27:51.701
309,-82.0,959.0,-53.0,963.9574679414025,2021-08-31 07:27:51.711
310,-109.0,896.0,-81.0,906.2328619069162,2021-08-31 07:27:51.721
311,-117.0,950.0,-81.0,960.5987716002973,2021-08-31 07:27:51.731
312,-117.0,950.0,3.0,957.1823232801576,2021-08-31 07:27:51.732
313,-196.0,939.0,-55.0,960.8131972449172,2021-08-31 07:27:51.740
314,-151.0,1002.0,-35.0,1013.9181426525516,2021-08-31 07:27:51.750
315,-150.0,1144.0,-11.0,1153.844443588476,2021-08-31 07:27:51.760
316,-102.0,957.0,-11.0,962.483246607441,2021-08-31 07:27:51.769
317,-102.0,957.0,-115.0,969.2667331545016,2021-08-31 07:27:51.770
318,-182.0,977.0,-60.0,995.6168941917368,2021-08-31 07:27:51.780
319,-156.0,1145.0,-60.0,1157.1348236052702,2021-08-31 07:27:51.796
320,-156.0,1145.0,-59.0,1157.0834023526568,2021-08-31 07:27:51.797
321,-265.0,1145.0,-59.0,1176.745936895471,2021-08-31 07:27:51.799
322,-265.0,1083.0,-69.0,1117.0832556260077,2021-08-31 07:27:51.800
323,-228.0,901.0,-65.0,931.6705426275964,2021-08-31 07:27:51.809
324,-195.0,1104.0,-24.0,1121.3460661187517,2021-08-31 07:27:51.819
325,-287.0,1104.0,-24.0,1140.9474133368285,2021-08-31 07:27:51.828
326,-287.0,1029.0,5.0,1068.286010392348,2021-08-31 07:27:51.829
327,-71.0,817.0,-33.0,820.7429561074526,2021-08-31 07:27:51.838
328,-271.0,959.0,27.0,996.9207591378564,2021-08-31 07:27:51.848
329,-128.0,886.0,27.0,895.6053818507345,2021-08-31 07:27:51.857
330,-128.0,886.0,-9.0,895.2435422833275,2021-08-31 07:27:51.858
331,-233.0,1016.0,-29.0,1042.7780204818282,2021-08-31 07:27:51.867
332,-255.0,1036.0,-29.0,1067.3153236040416,2021-08-31 07:27:51.878
333,-255.0,1036.0,82.0,1070.0677548641488,2021-08-31 07:27:51.879
334,-78.0,810.0,-21.0,814.0178130729081,2021-08-31 07:27:51.887
335,-205.0,863.0,-39.0,887.8710491957714,2021-08-31 07:27:51.896
336,-248.0,987.0,60.0,1019.4473993296564,2021-08-31 07:27:51.906
337,-59.0,940.0,55.0,943.4542914206284,2021-08-31 07:27:51.916
338,-210.0,940.0,55.0,964.7408978580726,2021-08-31 07:27:51.943
339,-210.0,983.0,-68.0,1007.4785357515068,2021-08-31 07:27:51.944
340,-162.0,1114.0,51.0,1126.8722199078295,2021-08-31 07:27:51.948
341,-164.0,996.0,-120.0,1016.5195521975954,2021-08-31 07:27:51.957
342,-127.0,945.0,-81.0,956.929986989644,2021-08-31 07:27:51.965
343,-196.0,945.0,-81.0,968.5050335439666,2021-08-31 07:27:51.974
344,-196.0,1142.0,0.0,1158.69754465952,2021-08-31 07:27:51.975
345,-178.0,974.0,-122.0,997.61916581429,2021-08-31 07:27:51.985
346,-177.0,1111.0,0.0,1125.011111056242,2021-08-31 07:27:51.994
347,-274.0,1010.0,-45.0,1047.4736273529754,2021-08-31 07:27:52.004
348,-169.0,1020.0,-45.0,1034.8845346221,2021-08-31 07:27:52.024
349,-169.0,1020.0,-79.0,1036.9194761407464,2021-08-31 07:27:52.025
350,-191.0,1080.0,-53.0,1098.0391614145644,2021-08-31 07:27:52.026
351,-175.0,1053.0,-53.0,1068.7576900308134,2021-08-31 07:27:52.034
352,-175.0,1053.0,-67.0,1069.5433605048463,2021-08-31 07:27:52.035
353,-180.0,929.0,-30.0,946.7528716618714,2021-08-31 07:27:52.043
354,-244.0,925.0,0.0,956.6404758319608,2021-08-31 07:27:52.053
355,-180.0,1104.0,0.0,1118.5776682912992,2021-08-31 07:27:52.062
356,-180.0,1104.0,19.0,1118.7390222925094,2021-08-31 07:27:52.063
357,-223.0,858.0,-21.0,886.7547575288221,2021-08-31 07:27:52.072
358,-192.0,831.0,-34.0,853.569563656062,2021-08-31 07:27:52.083
359,-257.0,1052.0,13.0,1083.0152353499004,2021-08-31 07:27:52.092
360,-157.0,885.0,13.0,898.9121202876286,2021-08-31 07:27:52.101
361,-157.0,885.0,-23.0,899.112340033213,2021-08-31 07:27:52.102
362,-276.0,947.0,-46.0,987.4720249202,2021-08-31 07:27:52.111
363,-160.0,1001.0,61.0,1015.540250310149,2021-08-31 07:27:52.121
364,-88.0,1001.0,61.0,1006.710484697562,2021-08-31 07:27:52.131
365,-88.0,853.0,-8.0,857.5645748280417,2021-08-31 07:27:52.132
366,-195.0,853.0,-8.0,875.0417132914293,2021-08-31 07:27:52.140
367,-195.0,1044.0,-65.0,1064.0422923925537,2021-08-31 07:27:52.141
368,-284.0,1067.0,43.0,1104.9859727616456,2021-08-31 07:27:52.151
369,-58.0,963.0,0.0,964.745044040134,2021-08-31 07:27:52.161
370,-188.0,966.0,-119.0,991.2925905099868,2021-08-31 07:27:52.170
371,-172.0,966.0,-119.0,988.383022921782,2021-08-31 07:27:52.179
372,-172.0,1100.0,-25.0,1113.6467123823425,2021-08-31 07:27:52.180
373,-146.0,1061.0,-11.0,1071.054620455932,2021-08-31 07:27:52.190
374,-221.0,935.0,-122.0,968.478187673837,2021-08-31 07:27:52.199
375,-247.0,935.0,-122.0,974.7399653240858,2021-08-31 07:27:52.209
376,-247.0,1126.0,-33.0,1153.2449869823845,2021-08-31 07:27:52.210
377,-195.0,1126.0,-33.0,1143.2366334228448,2021-08-31 07:27:52.218
378,-195.0,1021.0,-74.0,1042.0854091675978,2021-08-31 07:27:52.219
379,-217.0,1004.0,-74.0,1029.8451339886012,2021-08-31 07:27:52.230
380,-198.0,1076.0,-40.0,1094.7967847961556,2021-08-31 07:27:52.238
381,-210.0,961.0,-127.0,991.8417212438686,2021-08-31 07:27:52.248
382,-223.0,928.0,-1.0,954.4181473547116,2021-08-31 07:27:52.258
383,-203.0,928.0,-1.0,949.94420888808,2021-08-31 07:27:52.268
384,-203.0,1102.0,66.0,1122.4834074497494,2021-08-31 07:27:52.269
385,-174.0,920.0,-48.0,937.539332508242,2021-08-31 07:27:52.277
386,-180.0,850.0,-18.0,869.0362478055791,2021-08-31 07:27:52.287
387,-234.0,984.0,-6.0,1011.4583530724336,2021-08-31 07:27:52.297
388,-226.0,984.0,-6.0,1009.6375587308546,2021-08-31 07:27:52.306
389,-226.0,984.0,54.0,1011.062807148992,2021-08-31 07:27:52.307
390,-131.0,841.0,13.0,851.2408589817572,2021-08-31 07:27:52.317
391,-120.0,926.0,-60.0,935.6687448023472,2021-08-31 07:27:52.326
392,-95.0,827.0,40.0,833.3990640743485,2021-08-31 07:27:52.336
393,-106.0,984.0,-145.0,1000.258466597509,2021-08-31 07:27:52.346
394,-240.0,1071.0,-38.0,1098.2190127656686,2021-08-31 07:27:52.355
395,-206.0,1009.0,70.0,1032.190389414666,2021-08-31 07:27:52.366
396,-42.0,1009.0,70.0,1012.2968932087068,2021-08-31 07:27:52.375
397,-42.0,976.0,-119.0,984.1244839958002,2021-08-31 07:27:52.376
398,-258.0,996.0,-55.0,1030.3421761725567,2021-08-31 07:27:52.385
399,-207.0,1137.0,-55.0,1156.9974070843894,2021-08-31 07:27:52.394
400,-207.0,1137.0,-31.0,1156.1050990286308,2021-08-31 07:27:52.395
401,-125.0,896.0,-108.0,911.1009823285232,2021-08-31 07:27:52.404
402,-253.0,1073.0,-74.0,1104.904520761862,2021-08-31 07:27:52.414
403,-175.0,1134.0,-17.0,1147.5495631997774,2021-08-31 07:27:52.425
404,-178.0,1134.0,-17.0,1148.0108884501053,2021-08-31 07:27:52.433
405,-178.0,936.0,-104.0,958.4341396256708,2021-08-31 07:27:52.434
406,-160.0,990.0,-106.0,1008.4324469194752,2021-08-31 07:27:52.443
407,-203.0,990.0,-106.0,1016.1422144562248,2021-08-31 07:27:52.453
408,-203.0,1029.0,73.0,1051.3700585426618,2021-08-31 07:27:52.454
409,-227.0,1035.0,-69.0,1061.8450922804136,2021-08-31 07:27:52.463
410,-182.0,1035.0,-69.0,1053.1429152778835,2021-08-31 07:27:52.473
411,-182.0,997.0,36.0,1014.1148850105692,2021-08-31 07:27:52.474
412,-133.0,983.0,10.0,992.0070564265156,2021-08-31 07:27:52.482
413,-142.0,927.0,-60.0,939.7302804528542,2021-08-31 07:27:52.492
414,-244.0,942.0,-13.0,973.17470168516,2021-08-31 07:27:52.502
415,-247.0,993.0,18.0,1023.4168261270672,2021-08-31 07:27:52.520
416,-170.0,993.0,18.0,1007.6075624964316,2021-08-31 07:27:52.522
417,-170.0,827.0,-33.0,844.9366840183943,2021-08-31 07:27:52.523
418,-168.0,910.0,6.0,925.3972120122256,2021-08-31 07:27:52.531
419,-118.0,1054.0,-87.0,1064.147076301016,2021-08-31 07:27:52.542
420,-136.0,1025.0,43.0,1034.876804262227,2021-08-31 07:27:52.551
421,-168.0,930.0,43.0,946.0301263701912,2021-08-31 07:27:52.560
422,-168.0,930.0,-45.0,946.1231420909226,2021-08-31 07:27:52.561
423,-103.0,1056.0,-91.0,1064.906568671637,2021-08-31 07:27:52.570
424,-119.0,895.0,-52.0,904.3727107780288,2021-08-31 07:27:52.580
425,-119.0,1090.0,-141.0,1105.5053143246305,2021-08-31 07:27:52.590
426,-149.0,1078.0,-43.0,1089.097791752421,2021-08-31 07:27:52.601
427,-179.0,977.0,-53.0,994.6753239122804,2021-08-31 07:27:52.609
428,-59.0,1004.0,-140.0,1015.4294657926764,2021-08-31 07:27:52.619
429,-305.0,1170.0,-1.0,1209.1013191622942,2021-08-31 07:27:52.629
430,-172.0,972.0,-75.0,989.9459581209472,2021-08-31 07:27:52.639
431,-153.0,937.0,-97.0,954.351612352596,2021-08-31 07:27:52.650
432,-318.0,1117.0,-26.0,1161.67508366152,2021-08-31 07:27:52.658
433,-141.0,915.0,45.0,926.8931977310008,2021-08-31 07:27:52.668
434,-153.0,915.0,45.0,928.7943798279574,2021-08-31 07:27:52.677
435,-153.0,940.0,-34.0,952.97691472564,2021-08-31 07:27:52.678
436,-199.0,993.0,-34.0,1013.3143638575344,2021-08-31 07:27:52.687
437,-199.0,993.0,-27.0,1013.1036472148346,2021-08-31 07:27:52.688
438,-145.0,887.0,-61.0,900.841273477187,2021-08-31 07:27:52.698
439,-223.0,887.0,-61.0,916.6346054999232,2021-08-31 07:27:52.707
440,-223.0,1004.0,42.0,1029.3245358000556,2021-08-31 07:27:52.708
441,-150.0,955.0,23.0,966.9819026227948,2021-08-31 07:27:52.717
442,-127.0,883.0,23.0,892.3827654095522,2021-08-31 07:27:52.726
443,-127.0,883.0,-22.0,892.357551657406,2021-08-31 07:27:52.727
444,-183.0,875.0,-29.0,894.4020348814062,2021-08-31 07:27:52.736
445,-121.0,978.0,-6.0,985.4750123671324,2021-08-31 07:27:52.749
446,-84.0,1064.0,-23.0,1067.5584293142929,2021-08-31 07:27:52.757
447,-128.0,1064.0,-23.0,1071.9183737580022,2021-08-31 07:27:52.765
448,-128.0,833.0,-83.0,846.8541787108333,2021-08-31 07:27:52.766
449,-164.0,1078.0,-11.0,1090.4590776365706,2021-08-31 07:27:52.775
450,-189.0,1133.0,-54.0,1149.9243453375532,2021-08-31 07:27:52.785
451,-122.0,922.0,-64.0,932.2360216168436,2021-08-31 07:27:52.795
452,-163.0,967.0,-138.0,990.3039937312178,2021-08-31 07:27:52.810
453,-202.0,968.0,-83.0,992.3290784815288,2021-08-31 07:27:52.814
454,-143.0,974.0,-108.0,990.3479186629312,2021-08-31 07:27:52.824
455,-217.0,1096.0,-34.0,1117.7929146313284,2021-08-31 07:27:52.834
456,-184.0,1113.0,-34.0,1128.619067710625,2021-08-31 07:27:52.844
457,-184.0,1113.0,4.0,1128.1139126878986,2021-08-31 07:27:52.845
458,-204.0,935.0,4.0,957.00417971919,2021-08-31 07:27:52.853
459,-204.0,935.0,-98.0,962.0005197503792,2021-08-31 07:27:52.854
460,-167.0,1027.0,-56.0,1041.99520152446,2021-08-31 07:27:52.863
461,-219.0,1098.0,20.0,1119.8057867326816,2021-08-31 07:27:52.873
462,-130.0,847.0,-40.0,857.851385730652,2021-08-31 07:27:52.883
463,-143.0,1039.0,-11.0,1048.8522298207693,2021-08-31 07:27:52.893
464,-250.0,1004.0,-2.0,1034.659364235399,2021-08-31 07:27:52.904
465,-100.0,891.0,16.0,896.7368621842196,2021-08-31 07:27:52.912
466,-206.0,858.0,-40.0,883.2893070789435,2021-08-31 07:27:52.922
467,-204.0,858.0,-40.0,882.8250109732959,2021-08-31 07:27:52.931
468,-204.0,931.0,2.0,953.0902370709712,2021-08-31 07:27:52.932
469,-218.0,790.0,-39.0,820.4541425332679,2021-08-31 07:27:52.955
470,-159.0,952.0,0.0,965.186510473494,2021-08-31 07:27:52.964
471,-138.0,1019.0,-23.0,1028.5591864350831,2021-08-31 07:27:52.971
472,-227.0,934.0,-48.0,962.3871362398812,2021-08-31 07:27:52.980
473,-120.0,1070.0,28.0,1077.071956741981,2021-08-31 07:27:52.990
474,-172.0,1011.0,-63.0,1027.4599748895332,2021-08-31 07:27:53.000
475,-128.0,966.0,-110.0,980.6324489838178,2021-08-31 07:27:53.010
476,-199.0,1030.0,-110.0,1054.799032991593,2021-08-31 07:27:53.020
477,-199.0,1030.0,-59.0,1050.7054772865706,2021-08-31 07:27:53.021
478,-208.0,1116.0,-38.0,1135.8538638398868,2021-08-31 07:27:53.029
479,-163.0,1116.0,-38.0,1128.4808372320729,2021-08-31 07:27:53.042
480,-163.0,1033.0,-50.0,1046.9756444158577,2021-08-31 07:27:53.043
481,-143.0,970.0,-75.0,983.3483614670846,2021-08-31 07:27:53.050
482,-187.0,970.0,-75.0,990.7037902420684,2021-08-31 07:27:53.058
483,-187.0,876.0,-94.0,900.6558721287504,2021-08-31 07:27:53.059
484,-199.0,1042.0,-97.0,1065.2577152971012,2021-08-31 07:27:53.069
485,-234.0,1099.0,4.0,1123.642736816289,2021-08-31 07:27:53.078
486,-244.0,886.0,34.0,919.6129620661076,2021-08-31 07:27:53.088
487,-211.0,962.0,34.0,985.4547173767044,2021-08-31 07:27:53.099
488,-211.0,962.0,-39.0,985.6398936731406,2021-08-31 07:27:53.100
489,-198.0,1029.0,19.0,1048.048662992325,2021-08-31 07:27:53.107
490,-218.0,965.0,12.0,989.3902162443288,2021-08-31 07:27:53.117
491,-141.0,827.0,-36.0,839.7059008962602,2021-08-31 07:27:53.128
492,-247.0,978.0,8.0,1008.7403035469536,2021-08-31 07:27:53.137
493,-164.0,912.0,14.0,926.734050307854,2021-08-31 07:27:53.147
494,-83.0,964.0,-1.0,967.567051940071,2021-08-31 07:27:53.156
495,-187.0,980.0,-41.0,998.523910580012,2021-08-31 07:27:53.166
496,-53.0,951.0,-57.0,954.1797524575754,2021-08-31 07:27:53.176
497,-153.0,889.0,-57.0,903.868906423935,2021-08-31 07:27:53.185
498,-153.0,889.0,-65.0,904.4086465752084,2021-08-31 07:27:53.186
499,-202.0,1100.0,1.0,1118.3939377518102,2021-08-31 07:27:53.195
500,-165.0,1101.0,-12.0,1113.3597801250053,2021-08-31 07:27:53.207
501,-172.0,892.0,-114.0,915.5566612722556,2021-08-31 07:27:53.215
502,-188.0,1057.0,-103.0,1078.5184282152995,2021-08-31 07:27:53.225
503,-285.0,1115.0,13.0,1150.9209355989665,2021-08-31 07:27:53.234
504,-224.0,1021.0,-68.0,1047.4927207384308,2021-08-31 07:27:53.244
505,-149.0,1020.0,-43.0,1031.721861743755,2021-08-31 07:27:53.255
506,-190.0,1020.0,-43.0,1038.4358429869417,2021-08-31 07:27:53.263
507,-190.0,1047.0,-62.0,1065.9047799874058,2021-08-31 07:27:53.264
508,-126.0,1042.0,-47.0,1050.6421845709413,2021-08-31 07:27:53.273
509,-217.0,858.0,-42.0,886.0118509365436,2021-08-31 07:27:53.283
510,-210.0,1081.0,-23.0,1101.4490455758723,2021-08-31 07:27:53.293
511,-171.0,768.0,-41.0,787.8743554653877,2021-08-31 07:27:53.303
512,-206.0,1087.0,-41.0,1107.1070408953235,2021-08-31 07:27:53.312
513,-206.0,1087.0,-37.0,1106.9661241429203,2021-08-31 07:27:53.313
514,-132.0,1020.0,33.0,1029.0349848280184,2021-08-31 07:27:53.322
515,-172.0,826.0,33.0,844.3630735649209,2021-08-31 07:27:53.332
516,-172.0,826.0,-37.0,844.5288627394566,2021-08-31 07:27:53.333
517,-110.0,894.0,-109.0,907.3130661464102,2021-08-31 07:27:53.342
518,-288.0,1018.0,-109.0,1063.55488809934,2021-08-31 07:27:53.351
519,-288.0,1018.0,22.0,1058.1833489523449,2021-08-31 07:27:53.352
520,-203.0,1018.0,22.0,1038.2759748737326,2021-08-31 07:27:53.362
521,-203.0,952.0,32.0,973.9286421499268,2021-08-31 07:27:53.363
522,-96.0,869.0,-92.0,879.1137582816003,2021-08-31 07:27:53.371
523,-261.0,1056.0,-31.0,1088.2178090805166,2021-08-31 07:27:53.381
524,-115.0,1056.0,-31.0,1062.6956290490707,2021-08-31 07:27:53.390
525,-115.0,1028.0,15.0,1034.5211452648032,2021-08-31 07:27:53.391
526,-88.0,989.0,-67.0,995.165312900324,2021-08-31 07:27:53.400
527,-193.0,989.0,-129.0,1015.8794219788094,2021-08-31 07:27:53.411
528,-85.0,976.0,-86.0,983.4617430281668,2021-08-31 07:27:53.420
529,-140.0,986.0,-115.0,1002.5073565814866,2021-08-31 07:27:53.430
530,-209.0,1104.0,-64.0,1125.4301399909282,2021-08-31 07:27:53.439
531,-149.0,1049.0,-52.0,1060.804411755532,2021-08-31 07:27:53.450
532,-179.0,986.0,-89.0,1006.0606343556038,2021-08-31 07:27:53.459
533,-165.0,1056.0,-45.0,1069.7597861202298,2021-08-31 07:27:53.469
534,-175.0,1107.0,-45.0,1121.6501237016826,2021-08-31 07:27:53.478
535,-175.0,1107.0,-30.0,1121.1485182615193,2021-08-31 07:27:53.479
536,-215.0,872.0,-100.0,903.6642075461438,2021-08-31 07:27:53.488
537,-284.0,975.0,13.0,1015.6032689982836,2021-08-31 07:27:53.498
538,-250.0,1092.0,3.0,1120.2557743658365,2021-08-31 07:27:53.508
539,-127.0,879.0,35.0,888.816629007356,2021-08-31 07:27:53.519
540,-151.0,886.0,35.0,899.4565025614079,2021-08-31 07:27:53.536
541,-151.0,886.0,-68.0,901.3439964852488,2021-08-31 07:27:53.537
542,-126.0,904.0,24.0,913.0542152577798,2021-08-31 07:27:53.540
543,-148.0,846.0,-66.0,861.3802876778642,2021-08-31 07:27:53.547
544,-317.0,1032.0,-13.0,1079.6675414218953,2021-08-31 07:27:53.558
545,-110.0,933.0,83.0,943.1214131807208,2021-08-31 07:27:53.568
546,-116.0,867.0,-11.0,874.7948330894508,2021-08-31 07:27:53.576
547,-89.0,1090.0,-133.0,1101.6850729677697,2021-08-31 07:27:53.586
548,-250.0,987.0,49.0,1019.347830723154,2021-08-31 07:27:53.596
549,-44.0,980.0,-68.0,983.3412429060422,2021-08-31 07:27:53.606
550,-83.0,967.0,-127.0,978.829402909414,2021-08-31 07:27:53.616
551,-244.0,1122.0,-53.0,1149.4472584681737,2021-08-31 07:27:53.625
552,-152.0,994.0,-89.0,1009.485512526059,2021-08-31 07:27:53.635
553,-203.0,939.0,-89.0,964.8061981558784,2021-08-31 07:27:53.644
554,-203.0,939.0,-92.0,965.087560794356,2021-08-31 07:27:53.645
555,-204.0,1053.0,-44.0,1073.4807869729202,2021-08-31 07:27:53.655
556,-179.0,1053.0,-44.0,1069.0116931072364,2021-08-31 07:27:53.664
557,-179.0,904.0,-102.0,927.1790549834482,2021-08-31 07:27:53.665
558,-158.0,1179.0,-18.0,1189.6760063143242,2021-08-31 07:27:53.674
559,-183.0,1007.0,-18.0,1023.6513078192204,2021-08-31 07:27:53.683
560,-183.0,1007.0,-59.0,1025.192177106322,2021-08-31 07:27:53.684
561,-142.0,960.0,-90.0,974.6096654558686,2021-08-31 07:27:53.693
562,-218.0,956.0,-20.0,980.7446150757088,2021-08-31 07:27:53.703
563,-166.0,956.0,-20.0,970.5112054994522,2021-08-31 07:27:53.713
564,-166.0,1052.0,61.0,1066.761922830019,2021-08-31 07:27:53.714
565,-196.0,1052.0,61.0,1071.8400067174205,2021-08-31 07:27:53.722
566,-196.0,995.0,-36.0,1014.7595774369414,2021-08-31 07:27:53.723
567,-136.0,828.0,-67.0,841.7654067494102,2021-08-31 07:27:53.732
568,-180.0,1037.0,30.0,1052.9335211683594,2021-08-31 07:27:53.742
569,-240.0,932.0,-14.0,962.5071428306388,2021-08-31 07:27:53.752
570,-104.0,846.0,-10.0,852.4271229847159,2021-08-31 07:27:53.762
571,-203.0,945.0,-29.0,966.9927610897612,2021-08-31 07:27:53.772
572,-164.0,849.0,20.0,864.926008396094,2021-08-31 07:27:53.781
573,-188.0,889.0,-66.0,911.0548830888292,2021-08-31 07:27:53.791
574,-183.0,1165.0,-4.0,1179.2921605776917,2021-08-31 07:27:53.801
575,-182.0,1165.0,-4.0,1179.1373965742923,2021-08-31 07:27:53.811
576,-182.0,915.0,28.0,933.3450594501478,2021-08-31 07:27:53.812
577,-122.0,977.0,-75.0,987.4401247670664,2021-08-31 07:27:53.827
578,-137.0,1075.0,-75.0,1086.2867945436876,2021-08-31 07:27:53.830
579,-137.0,1075.0,-90.0,1087.4253997401386,2021-08-31 07:27:53.831
580,-181.0,1095.0,-21.0,1110.05720573311,2021-08-31 07:27:53.840
581,-149.0,900.0,-133.0,921.8947879232206,2021-08-31 07:27:53.850
582,-184.0,1105.0,-70.0,1122.3996614397208,2021-08-31 07:27:53.861
583,-203.0,1125.0,7.0,1143.1898355041476,2021-08-31 07:27:53.869
584,-118.0,898.0,-77.0,908.9867985840058,2021-08-31 07:27:53.879
585,-216.0,1048.0,-91.0,1073.8905903303184,2021-08-31 07:27:53.889
586,-151.0,1032.0,-91.0,1046.9508106878757,2021-08-31 07:27:53.898
587,-151.0,1032.0,-69.0,1045.2683865878655,2021-08-31 07:27:53.899
588,-208.0,922.0,-69.0,947.686129475366,2021-08-31 07:27:53.909
589,-208.0,922.0,-119.0,952.6326679261005,2021-08-31 07:27:53.910
590,-286.0,1058.0,69.0,1098.1443438819872,2021-08-31 07:27:53.922
591,-203.0,974.0,22.0,995.1728493080988,2021-08-31 07:27:53.928
592,-192.0,974.0,22.0,992.9874118033924,2021-08-31 07:27:53.937
593,-192.0,892.0,-17.0,912.5880779409732,2021-08-31 07:27:53.938
594,-263.0,968.0,-20.0,1003.291084381796,2021-08-31 07:27:53.947
595,-198.0,992.0,54.0,1013.0074037241782,2021-08-31 07:27:53.958
596,-102.0,992.0,54.0,998.6911434472622,2021-08-31 07:27:53.982
597,-102.0,866.0,-1.0,871.9868118268762,2021-08-31 07:27:53.983
598,-102.0,850.0,-35.0,856.8132818765125,2021-08-31 07:27:53.984
599,-158.0,1093.0,-19.0,1104.5243320090328,2021-08-31 07:27:53.986
600,-94.0,993.0,-28.0,997.832150213652,2021-08-31 07:27:53.996
601,-149.0,918.0,-44.0,931.0537041438588,2021-08-31 07:27:54.006
602,-149.0,1033.0,16.0,1043.8132016793045,2021-08-31 07:27:54.017
603,-153.0,942.0,-26.0,954.6983816892118,2021-08-31 07:27:54.025
604,-200.0,1084.0,-64.0,1104.1521634267624,2021-08-31 07:27:54.035
605,-183.0,1070.0,-23.0,1085.7799040321202,2021-08-31 07:27:54.045
606,-179.0,989.0,-74.0,1007.7886683228782,2021-08-31 07:27:54.065
607,-308.0,991.0,-86.0,1041.3169546300492,2021-08-31 07:27:54.069
608,-228.0,1119.0,-24.0,1142.2438443694937,2021-08-31 07:27:54.075
609,-233.0,1037.0,-14.0,1062.9459064317432,2021-08-31 07:27:54.084
610,-151.0,907.0,-107.0,925.6883924950124,2021-08-31 07:27:54.094
611,-211.0,1150.0,12.0,1169.2583119225624,2021-08-31 07:27:54.105
612,-257.0,918.0,19.0,953.4851860411886,2021-08-31 07:27:54.115
613,-127.0,910.0,-10.0,918.873767173707,2021-08-31 07:27:54.123
614,-235.0,891.0,42.0,922.4261488054208,2021-08-31 07:27:54.133
615,-149.0,891.0,42.0,904.3483841971522,2021-08-31 07:27:54.142
616,-149.0,944.0,-45.0,956.7455252051092,2021-08-31 07:27:54.143
617,-162.0,940.0,-31.0,954.3610427925064,2021-08-31 07:27:54.152
618,-191.0,1032.0,35.0,1050.1095180979935,2021-08-31 07:27:54.163
619,-129.0,841.0,-60.0,852.949001992499,2021-08-31 07:27:54.172
620,-263.0,841.0,-60.0,883.2043931050162,2021-08-31 07:27:54.181
621,-263.0,883.0,22.0,921.597526038346,2021-08-31 07:27:54.182
622,-185.0,1025.0,22.0,1041.7936455939823,2021-08-31 07:27:54.191
623,-185.0,1025.0,13.0,1041.6424530519098,2021-08-31 07:27:54.192
624,-130.0,977.0,-20.0,985.8138769564972,2021-08-31 07:27:54.201
625,-200.0,918.0,-84.0,943.2815062323654,2021-08-31 07:27:54.211
626,-205.0,1014.0,-32.0,1035.009661790652,2021-08-31 07:27:54.222
627,-178.0,1159.0,-7.0,1172.60990956072,2021-08-31 07:27:54.230
628,-117.0,949.0,-73.0,958.9676741162864,2021-08-31 07:27:54.240
629,-225.0,1123.0,-2.0,1145.3200426081785,2021-08-31 07:27:54.250
630,-114.0,1030.0,-23.0,1036.544740954292,2021-08-31 07:27:54.260
631,-160.0,1030.0,-23.0,1042.606829058778,2021-08-31 07:27:54.270
632,-160.0,924.0,-132.0,946.9952481401372,2021-08-31 07:27:54.271
633,-221.0,1163.0,-34.0,1184.2997931267234,2021-08-31 07:27:54.279
634,-191.0,1037.0,-42.0,1055.2791099988667,2021-08-31 07:27:54.289
635,-183.0,929.0,-82.0,950.396759253734,2021-08-31 07:27:54.299
636,-209.0,929.0,-82.0,955.7436894900222,2021-08-31 07:27:54.308
637,-209.0,1110.0,-82.0,1132.4773728423893,2021-08-31 07:27:54.309
638,-182.0,972.0,27.0,989.2608351693702,2021-08-31 07:27:54.319
639,-218.0,972.0,27.0,996.5124183872472,2021-08-31 07:27:54.328
640,-218.0,956.0,-27.0,980.9123304352944,2021-08-31 07:27:54.329
641,-243.0,956.0,-29.0,986.8262258371532,2021-08-31 07:27:54.338
642,-199.0,956.0,-29.0,976.9227195638354,2021-08-31 07:27:54.347
643,-199.0,1041.0,57.0,1061.381646722799,2021-08-31 07:27:54.348
644,-214.0,839.0,-54.0,867.5442351834286,2021-08-31 07:27:54.357
645,-253.0,1010.0,-3.0,1041.2098731763929,2021-08-31 07:27:54.368
646,-172.0,1010.0,-3.0,1024.5452649834465,2021-08-31 07:27:54.377
647,-172.0,908.0,18.0,924.322454557932,2021-08-31 07:27:54.378
648,-144.0,824.0,-62.0,838.7824509370711,2021-08-31 07:27:54.387
649,-148.0,947.0,-62.0,960.4983081713368,2021-08-31 07:27:54.396
650,-148.0,947.0,48.0,959.6963061302256,2021-08-31 07:27:54.397
651,-204.0,1042.0,49.0,1062.9115673469737,2021-08-31 07:27:54.406
652,-80.0,938.0,-73.0,944.231433494988,2021-08-31 07:27:54.416
653,-244.0,938.0,-73.0,971.9614189874,2021-08-31 07:27:54.426
654,-244.0,942.0,-30.0,973.5502041497398,2021-08-31 07:27:54.427
655,-143.0,1125.0,-30.0,1134.4487648192844,2021-08-31 07:27:54.435
656,-143.0,1125.0,-11.0,1134.105374292883,2021-08-31 07:27:54.436
657,-158.0,989.0,-34.0,1002.1182564947112,2021-08-31 07:27:54.445
658,-131.0,1007.0,-110.0,1021.4254745207796,2021-08-31 07:27:54.455
659,-188.0,1094.0,-81.0,1112.987421312568,2021-08-31 07:27:54.465
660,-265.0,1094.0,-81.0,1128.548625447747,2021-08-31 07:27:54.475
661,-265.0,1017.0,-66.0,1053.028964463941,2021-08-31 07:27:54.476
662,-143.0,1031.0,-89.0,1044.6678898099626,2021-08-31 07:27:54.485
663,-259.0,1050.0,-35.0,1082.037892127628,2021-08-31 07:27:54.494
664,-131.0,1025.0,-29.0,1033.7441656425442,2021-08-31 07:27:54.504
665,-213.0,950.0,-116.0,980.4718251943806,2021-08-31 07:27:54.514
666,-164.0,1188.0,-26.0,1199.5482483001674,2021-08-31 07:27:54.524
667,-118.0,892.0,-13.0,899.8649898734809,2021-08-31 07:27:54.542
668,-254.0,904.0,-32.0,939.5509565744692,2021-08-31 07:27:54.545
669,-201.0,1095.0,-20.0,1113.4747415186391,2021-08-31 07:27:54.553
670,-133.0,891.0,28.0,901.306828998871,2021-08-31 07:27:54.565
671,-147.0,863.0,-75.0,878.6370126508443,2021-08-31 07:27:54.572
672,-186.0,951.0,-58.0,970.7528006655454,2021-08-31 07:27:54.582
673,-173.0,1036.0,95.0,1054.6326374619744,2021-08-31 07:27:54.592
674,-137.0,841.0,95.0,857.3651497465943,2021-08-31 07:27:54.601
675,-137.0,841.0,-55.0,853.8588876389354,2021-08-31 07:27:54.602
676,-179.0,970.0,26.0,986.7203251175076,2021-08-31 07:27:54.612
677,-142.0,970.0,26.0,980.6834351614184,2021-08-31 07:27:54.621
678,-142.0,938.0,-23.0,948.9662796959648,2021-08-31 07:27:54.622
679,-132.0,929.0,-78.0,941.567310392624,2021-08-31 07:27:54.631
680,-271.0,929.0,-78.0,970.8583830816932,2021-08-31 07:27:54.640
681,-271.0,1032.0,32.0,1067.468500706227,2021-08-31 07:27:54.641
682,-159.0,1078.0,-62.0,1091.4252150284965,2021-08-31 07:27:54.650
683,-66.0,917.0,-69.0,921.9576996804136,2021-08-31 07:27:54.660
684,-182.0,1120.0,-54.0,1135.9753518452767,2021-08-31 07:27:54.671
685,-207.0,1120.0,-54.0,1140.2477800899242,2021-08-31 07:27:54.679
686,-207.0,1070.0,-58.0,1091.3812349495477,2021-08-31 07:27:54.680
687,-140.0,1013.0,-86.0,1026.2382764251197,2021-08-31 07:27:54.689
688,-139.0,972.0,-81.0,985.2238324360612,2021-08-31 07:27:54.702
689,-185.0,1081.0,-54.0,1098.0446256869527,2021-08-31 07:27:54.709
690,-101.0,1023.0,-63.0,1029.9024225624485,2021-08-31 07:27:54.720
691,-188.0,888.0,-63.0,909.8664737201829,2021-08-31 07:27:54.728
692,-188.0,888.0,-54.0,909.2876332602352,2021-08-31 07:27:54.729
693,-97.0,955.0,-36.0,960.5883613702592,2021-08-31 07:27:54.738
694,-204.0,963.0,-33.0,984.9233472712484,2021-08-31 07:27:54.748
695,-267.0,1031.0,-27.0,1065.353931799193,2021-08-31 07:27:54.758
696,-211.0,991.0,43.0,1014.125731849853,2021-08-31 07:27:54.768
697,-206.0,809.0,-80.0,838.639970428312,2021-08-31 07:27:54.778
698,-254.0,946.0,-21.0,979.731085553582,2021-08-31 07:27:54.787
699,-237.0,1043.0,70.0,1071.875925655577,2021-08-31 07:27:54.797
700,-85.0,1043.0,70.0,1048.7964530832471,2021-08-31 07:27:54.806
701,-85.0,866.0,65.0,872.585812398987,2021-08-31 07:27:54.807
702,-155.0,917.0,-90.0,934.3521819956328,2021-08-31 07:27:54.817
703,-87.0,1077.0,-36.0,1081.1077652112208,2021-08-31 07:27:54.827
704,-171.0,1010.0,28.0,1024.756068535337,2021-08-31 07:27:54.842
705,-103.0,1010.0,28.0,1015.6244384613832,2021-08-31 07:27:54.845
706,-103.0,949.0,-142.0,965.07719898462,2021-08-31 07:27:54.846
707,-172.0,987.0,-142.0,1011.8878396344132,2021-08-31 07:27:54.855
708,-172.0,987.0,21.0,1002.094805894133,2021-08-31 07:27:54.856
709,-134.0,1017.0,-94.0,1030.0878603303702,2021-08-31 07:27:54.866
710,-129.0,1017.0,-94.0,1029.4493673804457,2021-08-31 07:27:54.875
711,-129.0,1030.0,-65.0,1040.0798046303946,2021-08-31 07:27:54.876
712,-207.0,1136.0,-12.0,1154.767942055892,2021-08-31 07:27:54.885
713,-180.0,956.0,-141.0,982.9633767338436,2021-08-31 07:27:54.897
714,-188.0,1074.0,-42.0,1091.1388545918437,2021-08-31 07:27:54.904
715,-254.0,1103.0,-42.0,1132.6468999648566,2021-08-31 07:27:54.914
716,-254.0,1103.0,-29.0,1132.2393739841411,2021-08-31 07:27:54.915
717,-164.0,940.0,-68.0,956.6190464338456,2021-08-31 07:27:54.924
718,-185.0,1025.0,-68.0,1043.778712179933,2021-08-31 07:27:54.934
719,-142.0,948.0,7.0,958.601585644422,2021-08-31 07:27:54.973
720,-142.0,904.0,-58.0,916.9209344321896,2021-08-31 07:27:54.975
721,-230.0,1086.0,32.0,1110.5494135787026,2021-08-31 07:27:54.978
722,-183.0,891.0,-4.0,909.6076077078512,2021-08-31 07:27:55.013
723,-183.0,925.0,-49.0,944.2007201861264,2021-08-31 07:27:55.015
724,-185.0,937.0,74.0,957.950938200908,2021-08-31 07:27:55.017
725,-136.0,850.0,-48.0,862.1484790916237,2021-08-31 07:27:55.022
726,-199.0,1062.0,-6.0,1080.50034706149,2021-08-31 07:27:55.031
727,-225.0,1009.0,-14.0,1033.877168719766,2021-08-31 07:27:55.041
728,-116.0,878.0,-34.0,886.2821221259063,2021-08-31 07:27:55.051
729,-219.0,1093.0,-34.0,1115.2425745101375,2021-08-31 07:27:55.060
730,-219.0,1093.0,-126.0,1121.8226241255788,2021-08-31 07:27:55.061
731,-114.0,1093.0,-126.0,1106.1288351724677,2021-08-31 07:27:55.078
732,-114.0,1147.0,-15.0,1152.7488885268986,2021-08-31 07:27:55.079
733,-179.0,967.0,-58.0,985.1365387599832,2021-08-31 07:27:55.081
734,-144.0,1191.0,-21.0,1199.8574915380575,2021-08-31 07:27:55.090
735,-200.0,904.0,-21.0,926.0977270245296,2021-08-31 07:27:55.100
736,-200.0,904.0,-62.0,927.9331872500304,2021-08-31 07:27:55.101
737,-187.0,1032.0,-62.0,1050.6364737624522,2021-08-31 07:27:55.109
738,-187.0,1032.0,-75.0,1051.4837136161457,2021-08-31 07:27:55.110
739,-194.0,1117.0,-38.0,1134.3584089695814,2021-08-31 07:27:55.119
740,-229.0,1026.0,-18.0,1051.399543465756,2021-08-31 07:27:55.129
741,-150.0,1008.0,-107.0,1024.7014199268,2021-08-31 07:27:55.139
742,-228.0,944.0,9.0,971.1853582092348,2021-08-31 07:27:55.149
743,-211.0,1063.0,12.0,1083.8053330741643,2021-08-31 07:27:55.158
744,-219.0,900.0,-40.0,927.1251263988048,2021-08-31 07:27:55.169
745,-223.0,939.0,22.0,965.3672876164802,2021-08-31 07:27:55.178
746,-243.0,974.0,5.0,1003.8675211401154,2021-08-31 07:27:55.188
747,-248.0,935.0,-3.0,967.335515733812,2021-08-31 07:27:55.197
748,-133.0,935.0,-3.0,944.4167512279736,2021-08-31 07:27:55.207
749,-133.0,815.0,-17.0,825.9558099559564,2021-08-31 07:27:55.208
750,-225.0,815.0,-17.0,845.6589146931522,2021-08-31 07:27:55.217
751,-225.0,916.0,-12.0,943.3053588313808,2021-08-31 07:27:55.218
752,-78.0,813.0,-12.0,816.8212778815205,2021-08-31 07:27:55.226
753,-78.0,813.0,0.0,816.7331265474666,2021-08-31 07:27:55.227
754,-172.0,1002.0,-6.0,1016.6730054447202,2021-08-31 07:27:55.236
755,-161.0,1094.0,23.0,1106.0226037473194,2021-08-31 07:27:55.246
756,-189.0,927.0,-7.0,946.0967181002162,2021-08-31 07:27:55.256
757,-104.0,927.0,-7.0,932.8418944279894,2021-08-31 07:27:55.265
758,-104.0,962.0,-74.0,970.430832156522,2021-08-31 07:27:55.266
759,-298.0,1078.0,-12.0,1118.495417961111,2021-08-31 07:27:55.275
760,-106.0,1055.0,-38.0,1060.9924599166577,2021-08-31 07:27:55.285
761,-147.0,989.0,-96.0,1004.463040634149,2021-08-31 07:27:55.295
762,-291.0,1042.0,-94.0,1085.9470521162625,2021-08-31 07:27:55.305
763,-205.0,1154.0,26.0,1172.3553215642432,2021-08-31 07:27:55.314
764,-259.0,922.0,-82.0,961.1914481517196,2021-08-31 07:27:55.325
765,-181.0,1137.0,0.0,1151.3166375936726,2021-08-31 07:27:55.334
