,Acceleration_X,Acceleration_Y,Acceleration_Z,magnitude,time_stamp
0,-140.0,921.0,58.0,933.383629597177,2021-09-27 07:15:34.003
1,-40.0,997.0,-83.0,1001.2482209722024,2021-09-27 07:15:34.012
2,-183.0,916.0,-8.0,934.1354291536104,2021-09-27 07:15:34.022
3,-12.0,1058.0,-8.0,1058.0982941107125,2021-09-27 07:15:34.031
4,-12.0,1058.0,-121.0,1064.9643186510991,2021-09-27 07:15:34.032
5,-176.0,1051.0,-69.0,1067.866096474647,2021-09-27 07:15:34.041
6,-216.0,1138.0,-69.0,1160.3710613420174,2021-09-27 07:15:34.051
7,-216.0,1138.0,-113.0,1163.8165663024392,2021-09-27 07:15:34.052
8,-11.0,1067.0,-139.0,1076.0720236118027,2021-09-27 07:15:34.062
9,-244.0,1159.0,-139.0,1192.5342762369555,2021-09-27 07:15:34.070
10,-244.0,1159.0,-20.0,1184.5746071902774,2021-09-27 07:15:34.071
11,-228.0,1082.0,-79.0,1108.5797219866508,2021-09-27 07:15:34.080
12,-16.0,1020.0,-142.0,1029.9611643164028,2021-09-27 07:15:34.090
13,-313.0,994.0,-48.0,1043.2204944305877,2021-09-27 07:15:34.100
14,-207.0,1113.0,79.0,1134.8387550661107,2021-09-27 07:15:34.110
15,-98.0,935.0,-26.0,940.4812597813952,2021-09-27 07:15:34.119
16,-213.0,935.0,-26.0,959.3070415669844,2021-09-27 07:15:34.129
17,-213.0,735.0,0.0,765.2411384655167,2021-09-27 07:15:34.130
18,-224.0,959.0,79.0,987.9767203735116,2021-09-27 07:15:34.139
19,-267.0,959.0,79.0,998.6045263266136,2021-09-27 07:15:34.148
20,-267.0,819.0,51.0,862.9316311272869,2021-09-27 07:15:34.149
21,-166.0,907.0,93.0,926.7437617810006,2021-09-27 07:15:34.159
22,-305.0,883.0,96.0,939.1112820108168,2021-09-27 07:15:34.169
23,-220.0,782.0,96.0,818.0097798926367,2021-09-27 07:15:34.178
24,-220.0,782.0,51.0,813.956387038028,2021-09-27 07:15:34.179
25,-156.0,1021.0,36.0,1033.4761729232075,2021-09-27 07:15:34.188
26,-144.0,971.0,36.0,982.2794917944688,2021-09-27 07:15:34.197
27,-144.0,971.0,-19.0,981.8034426503098,2021-09-27 07:15:34.198
28,-76.0,886.0,-23.0,889.5510103417341,2021-09-27 07:15:34.207
29,-155.0,1032.0,-36.0,1044.195862853325,2021-09-27 07:15:34.218
30,-224.0,1034.0,26.0,1058.304304063817,2021-09-27 07:15:34.227
31,-131.0,1034.0,26.0,1042.589564497938,2021-09-27 07:15:34.236
32,-131.0,953.0,-120.0,969.4173507834488,2021-09-27 07:15:34.237
33,-133.0,1068.0,-158.0,1087.7853648583437,2021-09-27 07:15:34.246
34,-257.0,1197.0,-24.0,1224.5137810576082,2021-09-27 07:15:34.256
35,-143.0,1174.0,-89.0,1186.0210790706883,2021-09-27 07:15:34.267
36,-203.0,1096.0,-134.0,1122.6669140934011,2021-09-27 07:15:34.279
37,-120.0,1282.0,-39.0,1288.1944728960764,2021-09-27 07:15:34.286
38,-114.0,960.0,-174.0,982.2789827742422,2021-09-27 07:15:34.295
39,-228.0,1195.0,-82.0,1219.3166118773254,2021-09-27 07:15:34.305
40,-204.0,1214.0,-29.0,1231.3622537661288,2021-09-27 07:15:34.316
41,-156.0,785.0,-24.0,800.7103096626145,2021-09-27 07:15:34.324
42,-226.0,1066.0,-35.0,1090.2554746480291,2021-09-27 07:15:34.334
43,-195.0,959.0,59.0,980.4014483873432,2021-09-27 07:15:34.344
44,-193.0,704.0,79.0,734.2383809090887,2021-09-27 07:15:34.354
45,-236.0,887.0,-52.0,919.3307348283316,2021-09-27 07:15:34.364
46,-258.0,1068.0,147.0,1108.511163678562,2021-09-27 07:15:34.374
47,-242.0,759.0,45.0,797.9160356829533,2021-09-27 07:15:34.383
48,-52.0,875.0,-33.0,877.1647507737642,2021-09-27 07:15:34.393
49,-183.0,850.0,146.0,881.6490231378924,2021-09-27 07:15:34.403
50,-40.0,888.0,-100.0,894.5076858250018,2021-09-27 07:15:34.412
51,-248.0,918.0,67.0,953.2664894980836,2021-09-27 07:15:34.423
52,-174.0,978.0,103.0,998.6836335897368,2021-09-27 07:15:34.432
53,-2.0,942.0,-136.0,951.7688795080452,2021-09-27 07:15:34.442
54,-197.0,1062.0,-105.0,1085.208735681758,2021-09-27 07:15:34.451
55,-86.0,1158.0,-10.0,1161.2321042754545,2021-09-27 07:15:34.461
56,21.0,1140.0,-138.0,1148.5142576389724,2021-09-27 07:15:34.472
57,-270.0,1051.0,-202.0,1103.7685445780742,2021-09-27 07:15:34.481
58,-110.0,1165.0,-38.0,1170.798445506313,2021-09-27 07:15:34.490
59,-37.0,1123.0,-183.0,1138.4142479783006,2021-09-27 07:15:34.500
60,-248.0,923.0,-87.0,959.688491126157,2021-09-27 07:15:34.510
61,-286.0,1196.0,22.0,1229.9170703750722,2021-09-27 07:15:34.520
62,-164.0,966.0,22.0,980.0693852988164,2021-09-27 07:15:34.530
63,-164.0,966.0,56.0,981.4214181481876,2021-09-27 07:15:34.531
64,-186.0,1138.0,-16.0,1153.2111688671766,2021-09-27 07:15:34.539
65,-337.0,1138.0,-16.0,1186.9578762534077,2021-09-27 07:15:34.557
66,-337.0,1032.0,38.0,1086.295079616952,2021-09-27 07:15:34.558
67,-140.0,723.0,20.0,736.7014320605058,2021-09-27 07:15:34.561
68,-159.0,723.0,20.0,740.5470950587816,2021-09-27 07:15:34.568
69,-159.0,893.0,2.0,907.0468565625482,2021-09-27 07:15:34.569
70,-407.0,956.0,53.0,1040.3816607380195,2021-09-27 07:15:34.579
71,-235.0,870.0,72.0,904.0514365897552,2021-09-27 07:15:34.588
72,-208.0,793.0,53.0,821.5363655980178,2021-09-27 07:15:34.598
73,-211.0,793.0,53.0,822.3010397658512,2021-09-27 07:15:34.607
74,-211.0,963.0,-51.0,987.1631070902112,2021-09-27 07:15:34.608
75,-119.0,895.0,-40.0,903.762136847965,2021-09-27 07:15:34.628
76,-147.0,937.0,18.0,948.6316461092788,2021-09-27 07:15:34.632
77,-217.0,1057.0,-24.0,1079.3118177802005,2021-09-27 07:15:34.638
78,-159.0,1015.0,-117.0,1034.018858628797,2021-09-27 07:15:34.647
79,-63.0,1116.0,-136.0,1126.0199820607093,2021-09-27 07:15:34.657
80,-186.0,1142.0,-21.0,1157.2385233822802,2021-09-27 07:15:34.667
81,4.0,939.0,-21.0,939.2433124595564,2021-09-27 07:15:34.676
82,4.0,939.0,-77.0,942.1602836035916,2021-09-27 07:15:34.679
83,-137.0,1136.0,-157.0,1154.9519470523437,2021-09-27 07:15:34.686
84,-138.0,1347.0,-157.0,1363.1221515330164,2021-09-27 07:15:34.695
85,-138.0,1347.0,0.0,1354.0505898968472,2021-09-27 07:15:34.696
86,-77.0,936.0,-58.0,940.9511145644072,2021-09-27 07:15:34.710
87,-155.0,1068.0,-195.0,1096.66494427423,2021-09-27 07:15:34.715
88,-239.0,1201.0,9.0,1224.5827860949214,2021-09-27 07:15:34.726
89,-206.0,1201.0,9.0,1218.572115223387,2021-09-27 07:15:34.734
90,-206.0,919.0,20.0,942.0175157607208,2021-09-27 07:15:34.735
91,-121.0,875.0,-151.0,896.1400560180311,2021-09-27 07:15:34.744
92,-231.0,984.0,53.0,1012.1393184734994,2021-09-27 07:15:34.754
93,-295.0,762.0,-10.0,817.1713406624096,2021-09-27 07:15:34.765
94,-192.0,762.0,-10.0,785.880398025043,2021-09-27 07:15:34.773
95,-192.0,910.0,16.0,930.1720271003638,2021-09-27 07:15:34.774
96,-328.0,895.0,187.0,971.3794315302335,2021-09-27 07:15:34.791
97,-102.0,895.0,187.0,919.9989130428362,2021-09-27 07:15:34.794
98,-102.0,844.0,8.0,850.1788047228654,2021-09-27 07:15:34.795
99,-348.0,815.0,159.0,900.3388251097472,2021-09-27 07:15:34.803
100,-204.0,934.0,73.0,958.8018564854784,2021-09-27 07:15:34.813
101,6.0,918.0,7.0,918.0462951289549,2021-09-27 07:15:34.824
102,-302.0,865.0,0.0,916.2035799973715,2021-09-27 07:15:34.832
103,-167.0,1009.0,122.0,1029.9776696608524,2021-09-27 07:15:34.842
104,-19.0,1033.0,32.0,1033.6701601574846,2021-09-27 07:15:34.852
105,-85.0,894.0,32.0,898.6016915185504,2021-09-27 07:15:34.861
106,-85.0,894.0,-137.0,908.4217082390757,2021-09-27 07:15:34.862
107,7.0,1214.0,-27.0,1214.3203860596263,2021-09-27 07:15:34.872
108,-48.0,1177.0,-136.0,1185.8031033860557,2021-09-27 07:15:34.882
109,-167.0,1105.0,-141.0,1126.4080077840356,2021-09-27 07:15:34.891
110,-197.0,1105.0,-141.0,1131.2448894912188,2021-09-27 07:15:34.900
111,-197.0,1091.0,-117.0,1114.799982059562,2021-09-27 07:15:34.901
112,-72.0,1159.0,-137.0,1169.287817434185,2021-09-27 07:15:34.910
113,-281.0,1008.0,-139.0,1055.625880698271,2021-09-27 07:15:34.920
114,-166.0,1172.0,-61.0,1185.2683240515626,2021-09-27 07:15:34.932
115,-320.0,1172.0,-61.0,1216.4312557641715,2021-09-27 07:15:34.939
116,-320.0,859.0,-127.0,925.424227044008,2021-09-27 07:15:34.940
117,-145.0,1076.0,-127.0,1093.1285377301244,2021-09-27 07:15:34.949
118,-145.0,1076.0,-26.0,1086.037292177391,2021-09-27 07:15:34.950
119,-290.0,1034.0,63.0,1075.7439286372942,2021-09-27 07:15:34.959
120,-163.0,789.0,46.0,806.9733576766955,2021-09-27 07:15:34.969
121,-142.0,757.0,-59.0,772.4597076870741,2021-09-27 07:15:34.980
122,-344.0,757.0,-59.0,833.5862282931503,2021-09-27 07:15:34.988
123,-344.0,912.0,78.0,977.836387132326,2021-09-27 07:15:34.989
124,-237.0,925.0,143.0,965.527317065654,2021-09-27 07:15:34.998
125,-60.0,752.0,-7.0,754.422295534802,2021-09-27 07:15:35.008
126,-169.0,1004.0,-71.0,1020.5968841810168,2021-09-27 07:15:35.018
127,-144.0,929.0,40.0,940.9447380160004,2021-09-27 07:15:35.028
128,-53.0,952.0,77.0,956.5782769852136,2021-09-27 07:15:35.039
129,-221.0,950.0,79.0,978.5611886846932,2021-09-27 07:15:35.047
130,-73.0,848.0,3.0,851.141586341544,2021-09-27 07:15:35.057
131,-189.0,1012.0,-53.0,1030.8608053466774,2021-09-27 07:15:35.067
132,-185.0,1091.0,-57.0,1108.0410642209972,2021-09-27 07:15:35.077
133,-127.0,1030.0,-51.0,1039.0524529589447,2021-09-27 07:15:35.088
134,-55.0,1079.0,-177.0,1094.8036353611546,2021-09-27 07:15:35.096
135,-183.0,1276.0,-26.0,1289.3180367930947,2021-09-27 07:15:35.106
136,-128.0,1276.0,-26.0,1282.6675329172404,2021-09-27 07:15:35.115
137,-128.0,1035.0,-34.0,1043.439025530481,2021-09-27 07:15:35.116
138,-62.0,904.0,-170.0,921.9327524282886,2021-09-27 07:15:35.125
139,-198.0,1263.0,-59.0,1279.7867009779402,2021-09-27 07:15:35.136
140,-212.0,967.0,57.0,991.6057684382438,2021-09-27 07:15:35.145
141,-160.0,935.0,57.0,950.3020572428536,2021-09-27 07:15:35.154
142,-160.0,935.0,-93.0,953.1390244869842,2021-09-27 07:15:35.155
143,-176.0,933.0,-82.0,952.9895067627974,2021-09-27 07:15:35.164
144,-403.0,840.0,86.0,935.6308032552156,2021-09-27 07:15:35.174
145,-201.0,899.0,18.0,921.3718033454248,2021-09-27 07:15:35.184
146,-343.0,921.0,50.0,984.0680870752795,2021-09-27 07:15:35.195
147,-126.0,883.0,-35.0,892.6309427753444,2021-09-27 07:15:35.203
148,-369.0,782.0,72.0,867.6802406416779,2021-09-27 07:15:35.213
149,-273.0,915.0,24.0,955.1596725155432,2021-09-27 07:15:35.223
150,-137.0,971.0,40.0,981.4326263172628,2021-09-27 07:15:35.233
151,-188.0,739.0,-13.0,762.6493296397762,2021-09-27 07:15:35.244
152,-175.0,1097.0,59.0,1112.436515042544,2021-09-27 07:15:35.252
153,-120.0,1100.0,-30.0,1106.932698947863,2021-09-27 07:15:35.262
154,-185.0,909.0,-147.0,939.2097742251196,2021-09-27 07:15:35.272
155,-79.0,1098.0,-116.0,1106.9331506464157,2021-09-27 07:15:35.283
156,-20.0,1166.0,-28.0,1166.507608204936,2021-09-27 07:15:35.292
157,-232.0,1101.0,-135.0,1133.2475457727671,2021-09-27 07:15:35.302
158,-209.0,1275.0,-51.0,1293.0224282664242,2021-09-27 07:15:35.311
159,-183.0,1072.0,-51.0,1088.702897947829,2021-09-27 07:15:35.320
160,-183.0,1072.0,-42.0,1088.318427667197,2021-09-27 07:15:35.321
161,-91.0,1053.0,-107.0,1062.3271624127851,2021-09-27 07:15:35.330
162,-187.0,1139.0,-118.0,1160.2646249886272,2021-09-27 07:15:35.341
163,-300.0,926.0,-24.0,973.6796187658445,2021-09-27 07:15:35.351
164,-16.0,985.0,-55.0,986.664076573177,2021-09-27 07:15:35.360
165,-244.0,1059.0,8.0,1086.7755057968504,2021-09-27 07:15:35.369
166,-243.0,880.0,29.0,913.3947667903512,2021-09-27 07:15:35.379
167,-55.0,690.0,-20.0,692.4774364555137,2021-09-27 07:15:35.389
168,-355.0,930.0,37.0,996.1395484569418,2021-09-27 07:15:35.400
169,-306.0,865.0,37.0,918.2755577711954,2021-09-27 07:15:35.408
170,-306.0,865.0,184.0,935.797520834502,2021-09-27 07:15:35.409
171,-54.0,783.0,76.0,788.5309125202385,2021-09-27 07:15:35.418
172,-112.0,822.0,-74.0,832.8889481797678,2021-09-27 07:15:35.428
173,-190.0,1077.0,5.0,1093.6425375779784,2021-09-27 07:15:35.438
174,-115.0,1011.0,58.0,1019.171231933084,2021-09-27 07:15:35.448
175,-171.0,957.0,9.0,972.1990536921952,2021-09-27 07:15:35.458
176,-142.0,960.0,80.0,973.7371308520592,2021-09-27 07:15:35.467
177,-142.0,974.0,-72.0,986.9265423525704,2021-09-27 07:15:35.477
178,-108.0,974.0,-72.0,982.6108080008077,2021-09-27 07:15:35.486
179,-108.0,1069.0,-75.0,1077.05617309405,2021-09-27 07:15:35.487
180,-117.0,1161.0,-83.0,1169.8286199268678,2021-09-27 07:15:35.497
181,-128.0,1018.0,-185.0,1042.5607895945443,2021-09-27 07:15:35.508
182,-193.0,1300.0,-44.0,1314.9847907865703,2021-09-27 07:15:35.516
183,-156.0,1300.0,-44.0,1310.065647210093,2021-09-27 07:15:35.525
184,-156.0,1041.0,-38.0,1053.3095461449118,2021-09-27 07:15:35.526
185,-138.0,899.0,-118.0,917.152659048645,2021-09-27 07:15:35.535
186,-163.0,899.0,-118.0,921.2458955132446,2021-09-27 07:15:35.545
187,-163.0,1321.0,-121.0,1336.50701457194,2021-09-27 07:15:35.546
188,-281.0,948.0,145.0,999.3447853468792,2021-09-27 07:15:35.556
189,-212.0,895.0,-81.0,923.3255113988782,2021-09-27 07:15:35.565
190,-113.0,943.0,-81.0,953.194104052265,2021-09-27 07:15:35.583
191,-113.0,943.0,18.0,949.9168384653468,2021-09-27 07:15:35.584
192,-113.0,932.0,-110.0,945.247586614216,2021-09-27 07:15:35.589
193,-128.0,911.0,1.0,919.948911624988,2021-09-27 07:15:35.594
194,-423.0,832.0,45.0,934.4399392149288,2021-09-27 07:15:35.605
195,-245.0,928.0,45.0,960.8506647757496,2021-09-27 07:15:35.613
196,-245.0,928.0,84.0,963.4651005615098,2021-09-27 07:15:35.614
197,-198.0,821.0,21.0,844.7993844694728,2021-09-27 07:15:35.623
198,-411.0,834.0,127.0,938.406095461874,2021-09-27 07:15:35.644
199,-66.0,834.0,127.0,846.1920585777203,2021-09-27 07:15:35.646
200,-66.0,1047.0,-102.0,1054.0251420151228,2021-09-27 07:15:35.647
201,-131.0,1047.0,-102.0,1060.082072294405,2021-09-27 07:15:35.653
202,-131.0,937.0,10.0,946.16594738978,2021-09-27 07:15:35.654
203,-230.0,970.0,200.0,1016.7595585978034,2021-09-27 07:15:35.662
204,-236.0,864.0,-26.0,896.0290173872719,2021-09-27 07:15:35.673
205,19.0,1002.0,-97.0,1006.8634465507226,2021-09-27 07:15:35.686
206,-273.0,1048.0,-107.0,1088.2472145611032,2021-09-27 07:15:35.692
207,-114.0,1245.0,-36.0,1250.7265888274703,2021-09-27 07:15:35.701
208,-166.0,1055.0,-156.0,1079.3132075537665,2021-09-27 07:15:35.712
209,-77.0,1055.0,-156.0,1069.2473988745542,2021-09-27 07:15:35.725
210,-77.0,1320.0,-62.0,1323.6967175301147,2021-09-27 07:15:35.726
211,-244.0,1056.0,-131.0,1091.711042355073,2021-09-27 07:15:35.735
212,-215.0,1065.0,-75.0,1089.0707047754065,2021-09-27 07:15:35.742
213,-68.0,1179.0,-117.0,1186.740915280163,2021-09-27 07:15:35.750
214,-324.0,1091.0,-59.0,1139.6218671120698,2021-09-27 07:15:35.760
215,-211.0,898.0,-68.0,924.9589180066324,2021-09-27 07:15:35.770
216,-176.0,1173.0,-29.0,1186.4847238797472,2021-09-27 07:15:35.780
217,-252.0,865.0,67.0,903.4478402210058,2021-09-27 07:15:35.790
218,-143.0,779.0,3.0,792.0220956513776,2021-09-27 07:15:35.807
219,-287.0,972.0,-30.0,1013.9294847276116,2021-09-27 07:15:35.811
220,-349.0,846.0,164.0,929.7381351757064,2021-09-27 07:15:35.819
221,-101.0,778.0,97.0,790.50237191295,2021-09-27 07:15:35.828
222,-99.0,889.0,-81.0,898.1553317773046,2021-09-27 07:15:35.839
223,-226.0,1109.0,82.0,1134.7603271175813,2021-09-27 07:15:35.848
224,-83.0,1109.0,82.0,1115.1206212782545,2021-09-27 07:15:35.857
225,-83.0,1042.0,-97.0,1049.791407852055,2021-09-27 07:15:35.858
226,-291.0,1087.0,-97.0,1129.4507514717054,2021-09-27 07:15:35.867
227,-291.0,1087.0,57.0,1126.7204622265454,2021-09-27 07:15:35.868
228,-183.0,926.0,128.0,952.5486864197546,2021-09-27 07:15:35.878
229,-208.0,908.0,128.0,940.2723009851986,2021-09-27 07:15:35.888
230,-208.0,908.0,-147.0,943.0466584427304,2021-09-27 07:15:35.889
231,-112.0,1079.0,-1.0,1084.7976769886632,2021-09-27 07:15:35.897
232,-252.0,1166.0,-1.0,1192.9212044389185,2021-09-27 07:15:35.906
233,-252.0,1166.0,-132.0,1200.201649723912,2021-09-27 07:15:35.907
234,-79.0,1000.0,-103.0,1008.3898055811552,2021-09-27 07:15:35.917
235,-238.0,1122.0,-51.0,1148.097992333407,2021-09-27 07:15:35.926
236,6.0,1128.0,-101.0,1132.52858683567,2021-09-27 07:15:35.937
237,-156.0,1128.0,-101.0,1143.206455545104,2021-09-27 07:15:35.945
238,-156.0,922.0,-104.0,940.8698103350964,2021-09-27 07:15:35.946
239,-194.0,1177.0,-126.0,1199.516986123998,2021-09-27 07:15:35.955
240,-269.0,1014.0,-126.0,1056.6139313864833,2021-09-27 07:15:35.965
241,-269.0,1014.0,69.0,1051.341048375835,2021-09-27 07:15:35.966
242,-12.0,913.0,-44.0,914.1383921485848,2021-09-27 07:15:35.975
243,-271.0,960.0,58.0,999.2021817430144,2021-09-27 07:15:35.985
244,-140.0,889.0,-78.0,903.329950793175,2021-09-27 07:15:35.995
245,-121.0,988.0,-40.0,996.185223741047,2021-09-27 07:15:36.004
246,-328.0,896.0,121.0,961.7905177324218,2021-09-27 07:15:36.014
247,-333.0,867.0,114.0,935.7211122978896,2021-09-27 07:15:36.024
248,-124.0,760.0,-20.0,770.3090288968448,2021-09-27 07:15:36.033
249,-322.0,926.0,52.0,981.765756176085,2021-09-27 07:15:36.044
250,-162.0,937.0,-24.0,951.2039739193692,2021-09-27 07:15:36.053
251,-87.0,937.0,-24.0,941.3362842257808,2021-09-27 07:15:36.062
252,-87.0,930.0,-7.0,934.0867197428728,2021-09-27 07:15:36.063
253,-266.0,901.0,81.0,942.9305382688588,2021-09-27 07:15:36.073
254,-162.0,901.0,81.0,919.0244828077216,2021-09-27 07:15:36.084
255,-162.0,997.0,-40.0,1010.8674492731478,2021-09-27 07:15:36.085
256,-31.0,1087.0,-142.0,1096.6740627916756,2021-09-27 07:15:36.092
257,-300.0,965.0,-141.0,1020.3460197403624,2021-09-27 07:15:36.102
258,-84.0,1190.0,-141.0,1201.264750169587,2021-09-27 07:15:36.111
259,-84.0,1190.0,4.0,1192.9677279792609,2021-09-27 07:15:36.112
260,-275.0,1103.0,-79.0,1139.506472118522,2021-09-27 07:15:36.121
261,-30.0,1199.0,-61.0,1200.9254764555542,2021-09-27 07:15:36.131
262,-144.0,1099.0,-43.0,1109.22765922961,2021-09-27 07:15:36.141
263,-175.0,992.0,-128.0,1015.417648064086,2021-09-27 07:15:36.151
264,-60.0,1169.0,-29.0,1170.8979460226242,2021-09-27 07:15:36.160
265,-185.0,1189.0,-109.0,1208.2330073292983,2021-09-27 07:15:36.170
266,-246.0,791.0,-20.0,828.6114891793379,2021-09-27 07:15:36.181
267,-138.0,1161.0,-55.0,1170.4657192758789,2021-09-27 07:15:36.191
268,-98.0,949.0,29.0,954.4872969296134,2021-09-27 07:15:36.199
269,-166.0,796.0,62.0,815.4851316854281,2021-09-27 07:15:36.209
270,-158.0,875.0,-40.0,890.0499985955845,2021-09-27 07:15:36.219
271,-348.0,956.0,102.0,1022.469559449082,2021-09-27 07:15:36.229
272,-135.0,744.0,37.0,757.0534987700671,2021-09-27 07:15:36.239
273,-338.0,993.0,132.0,1057.221358089213,2021-09-27 07:15:36.248
274,-55.0,766.0,132.0,779.2335978382862,2021-09-27 07:15:36.258
275,-55.0,766.0,69.0,771.0654965695197,2021-09-27 07:15:36.259
276,-95.0,956.0,-97.0,965.5930819967592,2021-09-27 07:15:36.268
277,-179.0,956.0,-97.0,977.4384891132536,2021-09-27 07:15:36.277
278,-179.0,1054.0,84.0,1072.3865907404847,2021-09-27 07:15:36.278
279,-214.0,903.0,112.0,934.7454198871476,2021-09-27 07:15:36.287
280,-92.0,903.0,112.0,914.5583633645258,2021-09-27 07:15:36.297
281,-92.0,830.0,-155.0,849.3462191591836,2021-09-27 07:15:36.298
282,-174.0,1106.0,-58.0,1121.1048122276525,2021-09-27 07:15:36.307
283,-219.0,1106.0,-58.0,1128.9645698603654,2021-09-27 07:15:36.316
284,-219.0,1189.0,-67.0,1210.8554827063383,2021-09-27 07:15:36.317
285,24.0,1189.0,-67.0,1191.1280367785823,2021-09-27 07:15:36.326
286,24.0,1024.0,-101.0,1029.2487551607726,2021-09-27 07:15:36.327
287,-186.0,1152.0,-137.0,1174.9336151459793,2021-09-27 07:15:36.337
288,-22.0,1223.0,4.0,1223.2043982916346,2021-09-27 07:15:36.347
289,-115.0,999.0,-155.0,1017.4728497606212,2021-09-27 07:15:36.356
290,-245.0,1068.0,-81.0,1098.7310862990998,2021-09-27 07:15:36.365
291,-337.0,1138.0,54.0,1188.0778594014787,2021-09-27 07:15:36.375
292,-89.0,854.0,-94.0,863.755173645866,2021-09-27 07:15:36.385
293,-195.0,960.0,65.0,981.758626139847,2021-09-27 07:15:36.395
294,-242.0,977.0,65.0,1008.6218320064264,2021-09-27 07:15:36.404
295,-242.0,977.0,-91.0,1010.6304962744792,2021-09-27 07:15:36.405
296,-52.0,951.0,-44.0,953.4364163382894,2021-09-27 07:15:36.415
297,-331.0,940.0,102.0,1001.7809141723552,2021-09-27 07:15:36.424
298,-318.0,820.0,28.0,879.9477257201135,2021-09-27 07:15:36.434
299,-165.0,820.0,28.0,836.9044150917116,2021-09-27 07:15:36.443
300,-165.0,810.0,-13.0,826.736959377044,2021-09-27 07:15:36.444
301,-266.0,945.0,33.0,982.2779647329976,2021-09-27 07:15:36.454
302,-163.0,911.0,33.0,926.0556138807216,2021-09-27 07:15:36.463
303,-163.0,911.0,0.0,925.4674494545986,2021-09-27 07:15:36.464
304,-103.0,1031.0,-4.0,1036.139951936996,2021-09-27 07:15:36.473
305,-174.0,1031.0,-4.0,1045.5873947212638,2021-09-27 07:15:36.482
306,-174.0,863.0,-20.0,880.5935498287505,2021-09-27 07:15:36.483
307,-288.0,1007.0,56.0,1048.8703447042442,2021-09-27 07:15:36.493
308,20.0,1084.0,-110.0,1089.7504301444435,2021-09-27 07:15:36.505
309,-202.0,967.0,-111.0,994.08953319105,2021-09-27 07:15:36.512
310,-10.0,967.0,-111.0,973.4012533380056,2021-09-27 07:15:36.521
311,-10.0,1118.0,-58.0,1119.5481231282556,2021-09-27 07:15:36.522
312,-261.0,1000.0,-58.0,1035.1255962442433,2021-09-27 07:15:36.531
313,-261.0,1000.0,-150.0,1044.328013604921,2021-09-27 07:15:36.532
314,-71.0,1147.0,-59.0,1150.7089119321186,2021-09-27 07:15:36.541
315,-178.0,1153.0,-139.0,1174.9102093351644,2021-09-27 07:15:36.551
316,-173.0,970.0,-94.0,989.780278647741,2021-09-27 07:15:36.561
317,-176.0,1247.0,-39.0,1259.962697860536,2021-09-27 07:15:36.571
318,-88.0,1197.0,-117.0,1205.9195661402962,2021-09-27 07:15:36.580
319,-320.0,815.0,-6.0,875.5917998702363,2021-09-27 07:15:36.602
320,-123.0,1029.0,-49.0,1037.4830119091107,2021-09-27 07:15:36.605
321,-205.0,1029.0,-49.0,1050.3651745940551,2021-09-27 07:15:36.609
322,-205.0,1026.0,35.0,1046.8648432343116,2021-09-27 07:15:36.610
323,-325.0,756.0,60.0,825.0824201254078,2021-09-27 07:15:36.620
324,-140.0,797.0,-18.0,809.4028663156562,2021-09-27 07:15:36.630
325,-324.0,1049.0,53.0,1099.1751452794044,2021-09-27 07:15:36.639
326,-258.0,1049.0,53.0,1081.5609090569055,2021-09-27 07:15:36.660
327,-258.0,751.0,49.0,795.5916037767115,2021-09-27 07:15:36.661
328,-298.0,751.0,49.0,809.4479600320209,2021-09-27 07:15:36.663
329,-298.0,882.0,83.0,934.6748097600577,2021-09-27 07:15:36.664
330,-220.0,859.0,75.0,889.8910045617946,2021-09-27 07:15:36.669
331,-1.0,891.0,-112.0,898.0122493596622,2021-09-27 07:15:36.678
332,-222.0,1109.0,6.0,1131.0176833277187,2021-09-27 07:15:36.688
333,-160.0,932.0,103.0,951.2271022211256,2021-09-27 07:15:36.697
334,-120.0,869.0,-32.0,877.8297101374503,2021-09-27 07:15:36.707
335,-155.0,1079.0,-63.0,1091.895141485665,2021-09-27 07:15:36.718
336,-321.0,1104.0,-19.0,1149.8773847676107,2021-09-27 07:15:36.728
337,-36.0,1094.0,-155.0,1105.512098531717,2021-09-27 07:15:36.745
338,-158.0,1094.0,-155.0,1116.1653103371382,2021-09-27 07:15:36.749
339,-158.0,971.0,-108.0,989.6812618211986,2021-09-27 07:15:36.750
340,-219.0,1302.0,10.0,1320.3276108602745,2021-09-27 07:15:36.758
341,-21.0,940.0,-169.0,955.3020464753544,2021-09-27 07:15:36.766
342,-163.0,940.0,-169.0,968.8807976216682,2021-09-27 07:15:36.775
343,-163.0,1079.0,-100.0,1095.814765368673,2021-09-27 07:15:36.776
344,-107.0,1026.0,-100.0,1036.4000192975684,2021-09-27 07:15:36.785
345,-107.0,1026.0,-126.0,1039.2309656664393,2021-09-27 07:15:36.786
346,-261.0,1067.0,-175.0,1112.3106580447748,2021-09-27 07:15:36.795
347,-246.0,1006.0,72.0,1038.140645577467,2021-09-27 07:15:36.806
348,-160.0,1006.0,72.0,1021.1855854838532,2021-09-27 07:15:36.822
349,-160.0,1000.0,-12.0,1012.7902053238864,2021-09-27 07:15:36.823
350,-146.0,888.0,-12.0,900.0022222194788,2021-09-27 07:15:36.825
351,-146.0,888.0,-40.0,900.8107459394564,2021-09-27 07:15:36.826
352,-248.0,950.0,50.0,983.109353022338,2021-09-27 07:15:36.834
353,-258.0,821.0,36.0,861.3367517992019,2021-09-27 07:15:36.844
354,-264.0,823.0,15.0,864.4362324659928,2021-09-27 07:15:36.855
355,-245.0,823.0,15.0,858.8241962124728,2021-09-27 07:15:36.863
356,-245.0,934.0,-24.0,965.8969924375996,2021-09-27 07:15:36.864
357,-264.0,997.0,102.0,1036.392300241564,2021-09-27 07:15:36.873
358,-100.0,918.0,-5.0,923.4440968461493,2021-09-27 07:15:36.883
359,-138.0,918.0,-5.0,928.3280670107956,2021-09-27 07:15:36.893
360,-138.0,873.0,-85.0,887.9177889872462,2021-09-27 07:15:36.894
361,-327.0,1089.0,-85.0,1140.2083143005054,2021-09-27 07:15:36.902
362,-327.0,1089.0,73.0,1139.3765839264909,2021-09-27 07:15:36.903
363,-27.0,976.0,-50.0,977.6528013563916,2021-09-27 07:15:36.913
364,-213.0,996.0,11.0,1018.580384653072,2021-09-27 07:15:36.922
365,-104.0,1107.0,-114.0,1117.703449041829,2021-09-27 07:15:36.932
366,-60.0,993.0,-159.0,1007.437342964812,2021-09-27 07:15:36.942
367,-172.0,1136.0,-7.0,1148.968667980115,2021-09-27 07:15:36.953
368,-131.0,1137.0,-7.0,1144.543140296599,2021-09-27 07:15:36.961
369,-131.0,1137.0,-91.0,1148.1337030154632,2021-09-27 07:15:36.962
370,-166.0,1060.0,-68.0,1075.0720906060208,2021-09-27 07:15:36.971
371,-265.0,1060.0,-68.0,1094.736954706472,2021-09-27 07:15:36.980
372,-265.0,1134.0,-29.0,1164.9128722784378,2021-09-27 07:15:36.981
373,-140.0,1064.0,-95.0,1077.367625279319,2021-09-27 07:15:36.990
374,-372.0,949.0,-57.0,1020.8986237624184,2021-09-27 07:15:37.001
375,-63.0,960.0,55.0,963.6358233274644,2021-09-27 07:15:37.010
376,-156.0,1122.0,-17.0,1132.92056208721,2021-09-27 07:15:37.020
377,-135.0,846.0,-17.0,856.8722191785657,2021-09-27 07:15:37.029
378,-135.0,846.0,-33.0,857.3389061508873,2021-09-27 07:15:37.030
379,-269.0,722.0,-33.0,771.1899895615866,2021-09-27 07:15:37.039
380,-269.0,722.0,54.0,772.3736142567275,2021-09-27 07:15:37.040
381,-273.0,1073.0,54.0,1108.500789354703,2021-09-27 07:15:37.049
382,-273.0,1073.0,0.0,1107.18471810263,2021-09-27 07:15:37.050
383,-299.0,778.0,-31.0,834.0539550892377,2021-09-27 07:15:37.059
384,-237.0,1033.0,47.0,1060.880294849518,2021-09-27 07:15:37.069
385,-254.0,849.0,150.0,898.7864039915156,2021-09-27 07:15:37.078
386,-253.0,803.0,-86.0,846.2942750603953,2021-09-27 07:15:37.088
387,34.0,1131.0,21.0,1131.7057921562478,2021-09-27 07:15:37.100
388,-239.0,841.0,19.0,874.5072898495472,2021-09-27 07:15:37.109
389,-224.0,893.0,2.0,920.6676924927908,2021-09-27 07:15:37.117
390,-17.0,1174.0,-8.0,1174.1503310905296,2021-09-27 07:15:37.127
391,-249.0,999.0,-63.0,1031.489699415365,2021-09-27 07:15:37.137
392,-131.0,1016.0,-63.0,1026.345945575857,2021-09-27 07:15:37.147
393,-131.0,1016.0,-139.0,1033.7978525804742,2021-09-27 07:15:37.148
394,-5.0,1166.0,-178.0,1179.518969749957,2021-09-27 07:15:37.157
395,-323.0,1273.0,56.0,1314.5318558330946,2021-09-27 07:15:37.166
396,-106.0,921.0,-129.0,936.0117520629748,2021-09-27 07:15:37.176
397,-93.0,1089.0,-171.0,1106.2599152098028,2021-09-27 07:15:37.186
398,-79.0,1089.0,-171.0,1105.171027488506,2021-09-27 07:15:37.195
399,-79.0,1018.0,-113.0,1027.2945049984448,2021-09-27 07:15:37.196
400,-139.0,1046.0,-181.0,1070.6063702407157,2021-09-27 07:15:37.205
401,-401.0,1046.0,-181.0,1134.759005251776,2021-09-27 07:15:37.215
402,-401.0,1062.0,67.0,1137.1604987863411,2021-09-27 07:15:37.216
403,-99.0,900.0,67.0,907.904179966146,2021-09-27 07:15:37.225
404,-99.0,900.0,-35.0,906.1048504450245,2021-09-27 07:15:37.226
405,-105.0,900.0,-35.0,906.7800174242924,2021-09-27 07:15:37.234
406,-105.0,1006.0,-101.0,1016.4949581773636,2021-09-27 07:15:37.235
407,-253.0,982.0,63.0,1016.0226375430816,2021-09-27 07:15:37.244
408,-228.0,982.0,63.0,1010.0876199617536,2021-09-27 07:15:37.254
409,-228.0,782.0,8.0,814.5992879937963,2021-09-27 07:15:37.255
410,-145.0,874.0,-8.0,885.9825054706216,2021-09-27 07:15:37.265
411,-304.0,923.0,66.0,974.012833591016,2021-09-27 07:15:37.274
412,-316.0,940.0,22.0,991.937498031,2021-09-27 07:15:37.283
413,68.0,912.0,15.0,914.654579609155,2021-09-27 07:15:37.294
414,-182.0,912.0,15.0,930.103757652876,2021-09-27 07:15:37.303
415,-182.0,884.0,-18.0,902.7203332151104,2021-09-27 07:15:37.304
416,-217.0,884.0,-18.0,910.4224294249344,2021-09-27 07:15:37.314
417,-217.0,1159.0,28.0,1179.471915731782,2021-09-27 07:15:37.315
418,20.0,924.0,28.0,924.6404706695464,2021-09-27 07:15:37.322
419,20.0,924.0,-53.0,925.734843246164,2021-09-27 07:15:37.323
420,-159.0,1060.0,31.0,1072.3068590660046,2021-09-27 07:15:37.333
421,-14.0,1010.0,-16.0,1010.2237375947964,2021-09-27 07:15:37.342
422,-74.0,1049.0,-154.0,1062.8231273358706,2021-09-27 07:15:37.352
423,-263.0,1049.0,-154.0,1092.3763087874067,2021-09-27 07:15:37.361
424,-263.0,1164.0,-68.0,1195.2777919797556,2021-09-27 07:15:37.362
425,-39.0,1148.0,-77.0,1151.2402008269169,2021-09-27 07:15:37.372
426,-152.0,1053.0,-77.0,1066.6967704085357,2021-09-27 07:15:37.381
427,-152.0,1053.0,-118.0,1070.4377609184012,2021-09-27 07:15:37.382
428,-240.0,1065.0,-57.0,1093.1944017419771,2021-09-27 07:15:37.391
429,-100.0,1065.0,-57.0,1071.2021284519556,2021-09-27 07:15:37.400
430,-100.0,1021.0,-114.0,1032.2000775043566,2021-09-27 07:15:37.401
431,-185.0,995.0,-84.0,1015.5323726991672,2021-09-27 07:15:37.411
432,-190.0,1026.0,7.0,1043.4677762154422,2021-09-27 07:15:37.421
433,-242.0,1090.0,24.0,1116.79899713422,2021-09-27 07:15:37.430
434,-64.0,1090.0,24.0,1092.1410165358684,2021-09-27 07:15:37.439
435,-64.0,785.0,-46.0,788.9467662649996,2021-09-27 07:15:37.440
436,-305.0,851.0,-13.0,904.0989990039808,2021-09-27 07:15:37.449
437,-371.0,851.0,-13.0,928.4454749741636,2021-09-27 07:15:37.459
438,-371.0,1016.0,82.0,1084.7216232748383,2021-09-27 07:15:37.460
439,-258.0,798.0,-23.0,838.9856971367271,2021-09-27 07:15:37.469
440,-296.0,1041.0,55.0,1083.661386227266,2021-09-27 07:15:37.479
441,-184.0,902.0,46.0,921.7244707611924,2021-09-27 07:15:37.489
442,-263.0,819.0,29.0,860.680544685425,2021-09-27 07:15:37.498
443,-20.0,1063.0,29.0,1063.583565123117,2021-09-27 07:15:37.508
444,-20.0,1063.0,0.0,1063.1881301068029,2021-09-27 07:15:37.509
445,15.0,917.0,-26.0,917.491144371432,2021-09-27 07:15:37.518
446,-214.0,915.0,-26.0,940.0515943287368,2021-09-27 07:15:37.528
447,-214.0,915.0,-24.0,939.9984042539646,2021-09-27 07:15:37.529
448,-125.0,1094.0,-24.0,1101.3795894241005,2021-09-27 07:15:37.537
449,-125.0,1094.0,-17.0,1101.2492905786592,2021-09-27 07:15:37.538
450,-96.0,1060.0,-60.0,1066.028142217643,2021-09-27 07:15:37.547
451,-248.0,1006.0,-118.0,1042.8154199090077,2021-09-27 07:15:37.557
452,-180.0,1179.0,-111.0,1197.815511671142,2021-09-27 07:15:37.567
453,-163.0,1220.0,-49.0,1231.8157329730775,2021-09-27 07:15:37.577
454,-185.0,940.0,-49.0,959.2841080722644,2021-09-27 07:15:37.587
455,-185.0,940.0,-121.0,965.6427910982404,2021-09-27 07:15:37.588
456,-179.0,1218.0,0.0,1231.0828566753742,2021-09-27 07:15:37.596
457,-254.0,970.0,-88.0,1006.558493084232,2021-09-27 07:15:37.606
458,-64.0,1081.0,-88.0,1086.4626086525022,2021-09-27 07:15:37.615
459,-64.0,1081.0,-151.0,1093.3700197097046,2021-09-27 07:15:37.616
460,-216.0,1229.0,13.0,1247.9046437929462,2021-09-27 07:15:37.625
461,-185.0,795.0,0.0,816.2413858657254,2021-09-27 07:15:37.644
462,-92.0,1046.0,-102.0,1054.9805685414306,2021-09-27 07:15:37.647
463,-197.0,1031.0,-102.0,1054.5966053425357,2021-09-27 07:15:37.654
464,-197.0,1031.0,74.0,1052.257573030482,2021-09-27 07:15:37.655
465,-316.0,766.0,45.0,829.8415511409391,2021-09-27 07:15:37.677
466,-294.0,957.0,60.0,1002.9381835387464,2021-09-27 07:15:37.685
467,-313.0,957.0,60.0,1008.671403381696,2021-09-27 07:15:37.693
468,-313.0,879.0,119.0,940.6226661100612,2021-09-27 07:15:37.694
469,-3.0,899.0,-60.0,901.0049944367678,2021-09-27 07:15:37.704
470,-183.0,899.0,-60.0,919.3965412160304,2021-09-27 07:15:37.715
471,-183.0,1035.0,-22.0,1051.2839768587744,2021-09-27 07:15:37.716
472,-237.0,1008.0,88.0,1039.2194186022507,2021-09-27 07:15:37.724
473,-53.0,914.0,88.0,919.7548586444108,2021-09-27 07:15:37.733
474,-53.0,914.0,-37.0,916.2827074653324,2021-09-27 07:15:37.734
475,-244.0,1075.0,89.0,1105.930377555477,2021-09-27 07:15:37.742
476,23.0,958.0,-34.0,958.8790330380574,2021-09-27 07:15:37.752
477,-115.0,1043.0,-34.0,1049.8714206987445,2021-09-27 07:15:37.765
478,-115.0,1043.0,-94.0,1053.522662309644,2021-09-27 07:15:37.766
479,-159.0,1043.0,-94.0,1059.2289648607614,2021-09-27 07:15:37.773
480,-159.0,1211.0,-37.0,1221.9537634460642,2021-09-27 07:15:37.774
481,-10.0,1074.0,-37.0,1074.6836743898175,2021-09-27 07:15:37.781
482,-10.0,1074.0,-101.0,1078.7849646709024,2021-09-27 07:15:37.782
483,-282.0,996.0,-139.0,1044.442913710462,2021-09-27 07:15:37.791
484,-107.0,1139.0,-53.0,1145.2418958455894,2021-09-27 07:15:37.801
485,-136.0,1093.0,-53.0,1102.7030425277696,2021-09-27 07:15:37.811
486,-136.0,1093.0,-49.0,1102.5180270635035,2021-09-27 07:15:37.812
487,-282.0,1093.0,-49.0,1129.855743004389,2021-09-27 07:15:37.821
488,-282.0,989.0,-126.0,1036.108585043093,2021-09-27 07:15:37.822
489,-257.0,1029.0,58.0,1062.1930144752412,2021-09-27 07:15:37.838
490,-240.0,1071.0,36.0,1098.1516288746286,2021-09-27 07:15:37.841
491,-105.0,775.0,13.0,782.1885961838104,2021-09-27 07:15:37.850
492,-215.0,775.0,13.0,804.3749125874078,2021-09-27 07:15:37.859
493,-215.0,1003.0,-34.0,1026.3478942346983,2021-09-27 07:15:37.860
494,-104.0,850.0,25.0,856.703566001683,2021-09-27 07:15:37.870
495,-124.0,875.0,-59.0,885.7098847816931,2021-09-27 07:15:37.879
496,-340.0,1047.0,44.0,1101.7009576105486,2021-09-27 07:15:37.889
497,-128.0,1047.0,44.0,1055.712555575617,2021-09-27 07:15:37.898
498,-128.0,895.0,105.0,910.183497982687,2021-09-27 07:15:37.899
499,-163.0,800.0,-2.0,816.4392200280435,2021-09-27 07:15:37.909
500,-196.0,1003.0,-2.0,1021.9730916222794,2021-09-27 07:15:37.919
501,-196.0,1003.0,-47.0,1023.051318360912,2021-09-27 07:15:37.920
502,-133.0,949.0,36.0,958.9504679596334,2021-09-27 07:15:37.928
503,-128.0,949.0,36.0,958.2697949951256,2021-09-27 07:15:37.937
504,-128.0,918.0,-73.0,929.751041946176,2021-09-27 07:15:37.938
505,-292.0,1035.0,-27.0,1075.7406750699724,2021-09-27 07:15:37.948
506,-33.0,1141.0,20.0,1141.652311345271,2021-09-27 07:15:37.957
507,-175.0,1010.0,-197.0,1043.8074535085482,2021-09-27 07:15:37.968
508,-228.0,1071.0,-18.0,1095.1479352124077,2021-09-27 07:15:37.977
509,-101.0,1146.0,-18.0,1150.5828957532783,2021-09-27 07:15:37.986
510,-101.0,1146.0,-24.0,1150.6924002529954,2021-09-27 07:15:37.987
511,-78.0,1008.0,-57.0,1012.6188819096748,2021-09-27 07:15:37.996
512,-176.0,1262.0,23.0,1274.4210450239748,2021-09-27 07:15:38.006
513,-155.0,917.0,23.0,930.2918896776432,2021-09-27 07:15:38.016
514,-155.0,917.0,-63.0,932.1389381417345,2021-09-27 07:15:38.017
515,-220.0,917.0,-63.0,945.1232723830262,2021-09-27 07:15:38.025
516,-220.0,921.0,-102.0,952.3891011556148,2021-09-27 07:15:38.026
517,-231.0,1236.0,-102.0,1261.5312124557204,2021-09-27 07:15:38.035
518,-231.0,1236.0,-5.0,1257.410831828643,2021-09-27 07:15:38.036
519,-191.0,808.0,-39.0,831.1834935800879,2021-09-27 07:15:38.045
520,-226.0,960.0,-39.0,987.014184295241,2021-09-27 07:15:38.055
521,-144.0,1109.0,-1.0,1118.3103326000346,2021-09-27 07:15:38.065
522,-261.0,828.0,4.0,868.1710660923917,2021-09-27 07:15:38.076
523,-158.0,883.0,-8.0,897.0601986488978,2021-09-27 07:15:38.084
524,-61.0,997.0,57.0,1000.4893802534838,2021-09-27 07:15:38.094
525,-308.0,956.0,28.0,1004.780573060606,2021-09-27 07:15:38.104
