,Acceleration_X,Acceleration_Y,Acceleration_Z,magnitude,time_stamp
0,-184.0,1102.0,-3.0,1117.2595938276834,2021-08-31 07:28:41.449
1,-165.0,993.0,-136.0,1015.7607986135318,2021-08-31 07:28:41.457
2,-333.0,943.0,-55.0,1001.580251402752,2021-08-31 07:28:41.467
3,-168.0,1013.0,65.0,1028.8916366653973,2021-08-31 07:28:41.477
4,-175.0,1013.0,65.0,1030.057765370467,2021-08-31 07:28:41.486
5,-175.0,1055.0,22.0,1069.6419961837698,2021-08-31 07:28:41.487
6,-146.0,830.0,-81.0,846.6268363334581,2021-08-31 07:28:41.497
7,-167.0,1002.0,-6.0,1015.839062056584,2021-08-31 07:28:41.506
8,-136.0,836.0,-27.0,847.4202027329771,2021-08-31 07:28:41.516
9,-165.0,938.0,-17.0,952.553410576016,2021-08-31 07:28:41.526
10,-243.0,1020.0,7.0,1048.569501749884,2021-08-31 07:28:41.536
11,-170.0,1020.0,7.0,1034.093322674506,2021-08-31 07:28:41.545
12,-170.0,865.0,51.0,883.0209510538241,2021-08-31 07:28:41.546
13,-48.0,864.0,51.0,866.8338941227437,2021-08-31 07:28:41.555
14,-48.0,864.0,-56.0,867.1424335136645,2021-08-31 07:28:41.556
15,-245.0,1167.0,-60.0,1193.9489101297424,2021-08-31 07:28:41.565
16,-205.0,925.0,73.0,950.2520718209458,2021-08-31 07:28:41.577
17,-18.0,956.0,-28.0,956.579322377397,2021-08-31 07:28:41.584
18,-267.0,1087.0,-190.0,1135.3228615684616,2021-08-31 07:28:41.594
19,-181.0,1091.0,-8.0,1105.9412280948748,2021-08-31 07:28:41.611
20,-99.0,997.0,-83.0,1005.335267460562,2021-08-31 07:28:41.615
21,-193.0,1149.0,-8.0,1165.12402773267,2021-08-31 07:28:41.623
22,-111.0,968.0,-76.0,977.3029213094576,2021-08-31 07:28:41.633
23,-257.0,972.0,-102.0,1010.5627145308696,2021-08-31 07:28:41.645
24,-116.0,972.0,-102.0,984.1971347245428,2021-08-31 07:28:41.652
25,-116.0,1201.0,21.0,1206.771726549806,2021-08-31 07:28:41.653
26,-128.0,980.0,-94.0,992.7839644152195,2021-08-31 07:28:41.662
27,-189.0,948.0,-170.0,981.4912123906154,2021-08-31 07:28:41.672
28,-203.0,1093.0,65.0,1113.5901400425562,2021-08-31 07:28:41.682
29,-177.0,1093.0,65.0,1109.1451663330638,2021-08-31 07:28:41.692
30,-177.0,946.0,43.0,963.3763542873576,2021-08-31 07:28:41.693
31,-128.0,946.0,43.0,955.5883004725414,2021-08-31 07:28:41.701
32,-128.0,893.0,-84.0,906.029248975992,2021-08-31 07:28:41.702
33,-174.0,991.0,9.0,1006.1997813555716,2021-08-31 07:28:41.711
34,-200.0,999.0,9.0,1018.8630918823196,2021-08-31 07:28:41.721
35,-249.0,854.0,21.0,889.807844424851,2021-08-31 07:28:41.731
36,-277.0,1081.0,21.0,1116.1232010848985,2021-08-31 07:28:41.741
37,-277.0,1081.0,63.0,1117.7025543497698,2021-08-31 07:28:41.742
38,-224.0,821.0,-7.0,851.0381895073805,2021-08-31 07:28:41.751
39,-144.0,827.0,28.0,839.9101142384226,2021-08-31 07:28:41.760
40,-166.0,1011.0,-79.0,1027.5787074477555,2021-08-31 07:28:41.770
41,-181.0,1133.0,23.0,1147.5970547191205,2021-08-31 07:28:41.780
42,-176.0,868.0,73.0,888.6669792447562,2021-08-31 07:28:41.790
43,-37.0,946.0,-122.0,954.5517272521172,2021-08-31 07:28:41.800
44,-212.0,1161.0,-70.0,1182.2711194984,2021-08-31 07:28:41.809
45,-143.0,1161.0,-70.0,1171.866033299029,2021-08-31 07:28:41.818
46,-143.0,1018.0,-65.0,1030.0475717169572,2021-08-31 07:28:41.819
47,-80.0,1018.0,-65.0,1023.2052580005636,2021-08-31 07:28:41.828
48,-80.0,992.0,-118.0,1002.1915984481212,2021-08-31 07:28:41.829
49,-272.0,1154.0,-58.0,1187.0400161746866,2021-08-31 07:28:41.838
50,-125.0,1053.0,-7.0,1060.4164276358604,2021-08-31 07:28:41.849
51,-173.0,934.0,-134.0,959.2919263706956,2021-08-31 07:28:41.858
52,-125.0,1025.0,-134.0,1041.2521308501607,2021-08-31 07:28:41.867
53,-125.0,1025.0,-1.0,1032.594305620557,2021-08-31 07:28:41.868
54,-153.0,864.0,-165.0,892.8213707119695,2021-08-31 07:28:41.877
55,-239.0,1181.0,-64.0,1206.6391341242004,2021-08-31 07:28:41.887
56,-213.0,981.0,89.0,1007.7951180671596,2021-08-31 07:28:41.898
57,-138.0,981.0,89.0,994.6486816962056,2021-08-31 07:28:41.906
58,-138.0,947.0,-51.0,958.3600575983957,2021-08-31 07:28:41.907
59,-290.0,957.0,-54.0,1001.4314754390338,2021-08-31 07:28:41.916
60,-149.0,992.0,119.0,1010.161373246869,2021-08-31 07:28:41.926
61,-156.0,852.0,-39.0,867.0415214970965,2021-08-31 07:28:41.936
62,-215.0,852.0,-39.0,879.5737604089835,2021-08-31 07:28:41.946
63,-215.0,879.0,-52.0,906.4049867470942,2021-08-31 07:28:41.947
64,-97.0,1015.0,-52.0,1020.9495580096012,2021-08-31 07:28:41.956
65,-97.0,1015.0,33.0,1020.1583210462971,2021-08-31 07:28:41.957
66,-54.0,920.0,-35.0,922.2477975034692,2021-08-31 07:28:41.965
67,-137.0,1029.0,-80.0,1041.158009141744,2021-08-31 07:28:41.981
68,-124.0,1029.0,-80.0,1039.527296418906,2021-08-31 07:28:42.001
69,-124.0,940.0,22.0,948.3986503575384,2021-08-31 07:28:42.002
70,-124.0,930.0,-70.0,940.8379244056864,2021-08-31 07:28:42.003
71,-196.0,976.0,52.0,996.8430167283112,2021-08-31 07:28:42.010
72,-149.0,1164.0,-67.0,1175.4088650337806,2021-08-31 07:28:42.019
73,-189.0,899.0,-50.0,920.0119564440454,2021-08-31 07:28:42.024
74,-176.0,995.0,-50.0,1011.682262372925,2021-08-31 07:28:42.033
75,-176.0,995.0,-90.0,1014.4461543127856,2021-08-31 07:28:42.034
76,-234.0,1081.0,-58.0,1107.556319109778,2021-08-31 07:28:42.044
77,-271.0,1076.0,3.0,1109.606236464089,2021-08-31 07:28:42.053
78,-88.0,960.0,-81.0,967.4218314675352,2021-08-31 07:28:42.064
79,-205.0,960.0,-81.0,984.9802028467374,2021-08-31 07:28:42.072
80,-205.0,1079.0,-13.0,1098.3783501143855,2021-08-31 07:28:42.073
81,-164.0,1112.0,-13.0,1124.1036429084286,2021-08-31 07:28:42.082
82,-164.0,1112.0,-67.0,1126.0235343899344,2021-08-31 07:28:42.083
83,-146.0,802.0,-9.0,815.2306422111475,2021-08-31 07:28:42.092
84,-187.0,1077.0,0.0,1093.1139007441082,2021-08-31 07:28:42.102
85,-164.0,1034.0,35.0,1047.509904487781,2021-08-31 07:28:42.112
86,-162.0,985.0,-29.0,998.6540942688816,2021-08-31 07:28:42.123
87,-219.0,1098.0,43.0,1120.452587127184,2021-08-31 07:28:42.131
88,-162.0,762.0,-34.0,779.7717614789599,2021-08-31 07:28:42.141
89,-217.0,922.0,-4.0,947.2006123308832,2021-08-31 07:28:42.151
90,-311.0,979.0,-4.0,1027.2185745984152,2021-08-31 07:28:42.162
91,-311.0,979.0,-18.0,1027.3684830672976,2021-08-31 07:28:42.163
92,-122.0,924.0,-18.0,932.1931130404256,2021-08-31 07:28:42.171
93,-122.0,924.0,80.0,935.4464174927392,2021-08-31 07:28:42.172
94,-123.0,920.0,-117.0,935.530865337964,2021-08-31 07:28:42.180
95,-190.0,1051.0,-34.0,1068.5770912760577,2021-08-31 07:28:42.190
96,-185.0,1103.0,-34.0,1118.9235898844925,2021-08-31 07:28:42.199
97,-185.0,1103.0,111.0,1123.901686091804,2021-08-31 07:28:42.200
98,-25.0,945.0,-113.0,952.0603972437884,2021-08-31 07:28:42.209
99,-160.0,969.0,-86.0,985.8787957959132,2021-08-31 07:28:42.220
100,-198.0,1161.0,-39.0,1178.4082484436367,2021-08-31 07:28:42.229
101,-112.0,1161.0,-39.0,1167.0415588144238,2021-08-31 07:28:42.238
102,-112.0,951.0,-147.0,968.7899669174944,2021-08-31 07:28:42.239
103,-210.0,1084.0,6.0,1104.1702767236582,2021-08-31 07:28:42.248
104,-206.0,1018.0,-71.0,1041.05763529211,2021-08-31 07:28:42.271
105,-206.0,1018.0,-112.0,1044.6549669627766,2021-08-31 07:28:42.272
106,-175.0,1018.0,-112.0,1038.986525417919,2021-08-31 07:28:42.277
107,-175.0,1104.0,10.0,1117.8286988622183,2021-08-31 07:28:42.278
108,-127.0,1016.0,-87.0,1027.5962242048188,2021-08-31 07:28:42.287
109,-239.0,968.0,-77.0,1000.0369993155252,2021-08-31 07:28:42.297
110,-215.0,978.0,21.0,1001.5737616371548,2021-08-31 07:28:42.307
111,-244.0,1103.0,51.0,1130.816519157728,2021-08-31 07:28:42.317
112,-143.0,859.0,-45.0,871.9833714010836,2021-08-31 07:28:42.328
113,-172.0,856.0,-29.0,873.5908653368577,2021-08-31 07:28:42.336
114,-262.0,1040.0,1.0,1072.494755231931,2021-08-31 07:28:42.346
115,-113.0,833.0,-47.0,841.9423970795152,2021-08-31 07:28:42.356
116,-268.0,1018.0,-60.0,1054.3946130363147,2021-08-31 07:28:42.367
117,-270.0,970.0,117.0,1013.6513207212824,2021-08-31 07:28:42.375
118,-61.0,798.0,-1.0,800.3286824798921,2021-08-31 07:28:42.385
119,-171.0,1119.0,-122.0,1138.5455634273053,2021-08-31 07:28:42.395
120,-245.0,1119.0,-122.0,1151.985242961037,2021-08-31 07:28:42.404
121,-245.0,984.0,26.0,1014.3751771410812,2021-08-31 07:28:42.405
122,-39.0,948.0,66.0,951.0946325156084,2021-08-31 07:28:42.415
123,-215.0,1044.0,-147.0,1075.9972118922983,2021-08-31 07:28:42.424
124,-192.0,1074.0,-20.0,1091.2103371944384,2021-08-31 07:28:42.434
125,-180.0,1053.0,-32.0,1068.753011691663,2021-08-31 07:28:42.444
126,-205.0,918.0,-129.0,949.4156097305332,2021-08-31 07:28:42.453
127,-277.0,1202.0,3.0,1233.5080056489296,2021-08-31 07:28:42.463
128,-276.0,1202.0,3.0,1233.2838278352635,2021-08-31 07:28:42.473
129,-276.0,904.0,-140.0,955.5061485935086,2021-08-31 07:28:42.474
130,-220.0,1123.0,-14.0,1144.4321736127486,2021-08-31 07:28:42.483
131,-181.0,1085.0,-14.0,1100.0827241621423,2021-08-31 07:28:42.492
132,-181.0,1085.0,-9.0,1100.0304541238847,2021-08-31 07:28:42.493
133,-176.0,936.0,-122.0,960.1853987642178,2021-08-31 07:28:42.502
134,-236.0,1021.0,16.0,1048.0424609718823,2021-08-31 07:28:42.512
135,-204.0,1021.0,92.0,1045.2372936324075,2021-08-31 07:28:42.523
136,-150.0,1021.0,92.0,1036.0526048420516,2021-08-31 07:28:42.531
137,-150.0,914.0,-80.0,929.675212103668,2021-08-31 07:28:42.532
138,-150.0,975.0,-7.0,986.4958185415688,2021-08-31 07:28:42.541
139,-256.0,963.0,45.0,997.4617787163576,2021-08-31 07:28:42.551
140,-211.0,934.0,5.0,957.5499986945852,2021-08-31 07:28:42.561
141,-229.0,806.0,0.0,837.9003520705788,2021-08-31 07:28:42.571
142,-243.0,956.0,-1.0,986.4005271693644,2021-08-31 07:28:42.580
143,-147.0,1115.0,-36.0,1125.224422059884,2021-08-31 07:28:42.590
144,-207.0,857.0,-6.0,881.6654694383806,2021-08-31 07:28:42.600
145,-162.0,857.0,-6.0,872.1977986672518,2021-08-31 07:28:42.609
146,-162.0,1092.0,-41.0,1104.7121797101722,2021-08-31 07:28:42.610
147,-233.0,926.0,41.0,955.7436894900222,2021-08-31 07:28:42.625
148,-78.0,904.0,-52.0,908.8476219917176,2021-08-31 07:28:42.629
149,-209.0,1191.0,-73.0,1211.400429255331,2021-08-31 07:28:42.639
150,-184.0,1034.0,-31.0,1050.7011944411215,2021-08-31 07:28:42.649
151,-132.0,858.0,-84.0,872.149069826942,2021-08-31 07:28:42.660
152,-196.0,1163.0,-77.0,1181.911164174364,2021-08-31 07:28:42.669
153,-283.0,1052.0,-15.0,1089.5035566715696,2021-08-31 07:28:42.678
154,-186.0,972.0,-102.0,994.8788871013396,2021-08-31 07:28:42.688
155,-113.0,1044.0,-102.0,1055.0398096754454,2021-08-31 07:28:42.697
156,-113.0,1044.0,-48.0,1051.1940829361629,2021-08-31 07:28:42.698
157,-365.0,1095.0,8.0,1154.2590697066234,2021-08-31 07:28:42.708
158,-97.0,844.0,-13.0,849.655224193908,2021-08-31 07:28:42.718
159,-231.0,989.0,-22.0,1015.857273439532,2021-08-31 07:28:42.727
160,-96.0,847.0,48.0,853.7733891378906,2021-08-31 07:28:42.737
161,-275.0,986.0,48.0,1024.756068535337,2021-08-31 07:28:42.746
162,-275.0,986.0,-94.0,1027.9382277160432,2021-08-31 07:28:42.747
163,-266.0,979.0,102.0,1019.6082581070044,2021-08-31 07:28:42.756
164,-114.0,979.0,102.0,990.878902792869,2021-08-31 07:28:42.766
165,-114.0,952.0,48.0,960.0020833310728,2021-08-31 07:28:42.767
166,-242.0,952.0,48.0,983.4490327414024,2021-08-31 07:28:42.775
167,-242.0,823.0,-99.0,863.5357549053774,2021-08-31 07:28:42.776
168,-188.0,997.0,45.0,1015.56782146738,2021-08-31 07:28:42.785
169,-106.0,999.0,17.0,1004.7517106230772,2021-08-31 07:28:42.795
170,-133.0,1006.0,-47.0,1015.841523073358,2021-08-31 07:28:42.805
171,-216.0,888.0,-47.0,915.1005409243292,2021-08-31 07:28:42.815
172,-216.0,888.0,-38.0,914.6824585614398,2021-08-31 07:28:42.816
173,-116.0,888.0,-38.0,896.3503779214911,2021-08-31 07:28:42.825
174,-116.0,1058.0,11.0,1064.39701239716,2021-08-31 07:28:42.826
175,-179.0,1122.0,-66.0,1138.1041252890705,2021-08-31 07:28:42.834
176,-175.0,904.0,-103.0,926.5257686648548,2021-08-31 07:28:42.844
177,-154.0,1027.0,-38.0,1039.1770782691465,2021-08-31 07:28:42.854
178,-178.0,967.0,-62.0,985.1989646766788,2021-08-31 07:28:42.864
179,-236.0,1000.0,-92.0,1031.5813104161978,2021-08-31 07:28:42.874
180,-323.0,1086.0,-15.0,1133.1151750815095,2021-08-31 07:28:42.883
181,-188.0,1016.0,-77.0,1036.1124456351251,2021-08-31 07:28:42.893
182,-194.0,1016.0,-77.0,1037.2179134588837,2021-08-31 07:28:42.902
183,-194.0,933.0,-59.0,954.780603070674,2021-08-31 07:28:42.903
184,-177.0,1258.0,-59.0,1271.7601975215296,2021-08-31 07:28:42.912
185,-177.0,1258.0,-38.0,1270.9590866743115,2021-08-31 07:28:42.913
186,-212.0,1258.0,-38.0,1276.3040390126484,2021-08-31 07:28:42.922
187,-212.0,861.0,11.0,886.784077439373,2021-08-31 07:28:42.923
188,-167.0,910.0,2.0,925.1988975350112,2021-08-31 07:28:42.932
189,-229.0,1114.0,-6.0,1137.309544495253,2021-08-31 07:28:42.942
190,-217.0,882.0,51.0,909.7329278420124,2021-08-31 07:28:42.954
191,-126.0,832.0,-61.0,843.6948500494714,2021-08-31 07:28:42.961
192,-171.0,832.0,-61.0,851.5785342527136,2021-08-31 07:28:42.971
193,-171.0,882.0,-37.0,899.1851867107242,2021-08-31 07:28:42.972
194,-114.0,870.0,-19.0,877.6428658628748,2021-08-31 07:28:42.982
195,-322.0,932.0,-19.0,986.239828844891,2021-08-31 07:28:42.990
196,-322.0,932.0,-20.0,986.2596007137269,2021-08-31 07:28:42.991
197,-129.0,951.0,60.0,961.5830697344874,2021-08-31 07:28:43.016
198,-159.0,1030.0,-131.0,1050.4008758564512,2021-08-31 07:28:43.022
199,-328.0,1030.0,-131.0,1088.8732708630514,2021-08-31 07:28:43.029
200,-328.0,1066.0,96.0,1119.4445051006326,2021-08-31 07:28:43.030
201,-104.0,1028.0,-29.0,1033.654197495468,2021-08-31 07:28:43.043
202,-156.0,915.0,-91.0,932.6532045728466,2021-08-31 07:28:43.049
203,-179.0,1093.0,-78.0,1110.303562094619,2021-08-31 07:28:43.059
204,-194.0,1093.0,-78.0,1112.8202909724462,2021-08-31 07:28:43.068
205,-194.0,1056.0,-16.0,1073.7914136367451,2021-08-31 07:28:43.069
206,-254.0,991.0,-16.0,1023.15834551647,2021-08-31 07:28:43.078
207,-254.0,991.0,-88.0,1026.8110829164243,2021-08-31 07:28:43.079
208,-133.0,1003.0,-88.0,1015.5993304448364,2021-08-31 07:28:43.089
209,-133.0,1003.0,-92.0,1015.953739104296,2021-08-31 07:28:43.090
210,-194.0,988.0,-129.0,1015.0965471323406,2021-08-31 07:28:43.098
211,-217.0,1039.0,-46.0,1062.415173084421,2021-08-31 07:28:43.108
212,-79.0,1039.0,-46.0,1043.013902112527,2021-08-31 07:28:43.117
213,-79.0,1057.0,-109.0,1065.5378923341957,2021-08-31 07:28:43.118
214,-153.0,1033.0,-73.0,1046.8175581255791,2021-08-31 07:28:43.127
215,-247.0,914.0,-73.0,949.5967565235256,2021-08-31 07:28:43.143
216,-247.0,914.0,-11.0,946.8505689917496,2021-08-31 07:28:43.144
217,-203.0,1052.0,49.0,1072.5269227390052,2021-08-31 07:28:43.147
218,-196.0,976.0,49.0,996.6910253433608,2021-08-31 07:28:43.156
219,-196.0,976.0,-16.0,995.6143831825652,2021-08-31 07:28:43.157
220,-163.0,780.0,-69.0,799.8312321983932,2021-08-31 07:28:43.166
221,-278.0,780.0,-69.0,830.9302016415097,2021-08-31 07:28:43.176
222,-278.0,978.0,-6.0,1016.7615256292894,2021-08-31 07:28:43.177
223,-237.0,1019.0,66.0,1048.277634980352,2021-08-31 07:28:43.186
224,-115.0,847.0,99.0,860.4853281724215,2021-08-31 07:28:43.196
225,-110.0,865.0,-164.0,887.2547548477833,2021-08-31 07:28:43.205
226,-58.0,835.0,36.0,837.7857721398711,2021-08-31 07:28:43.215
227,-85.0,936.0,-172.0,955.4606218991968,2021-08-31 07:28:43.228
228,-225.0,936.0,-172.0,977.9084824256306,2021-08-31 07:28:43.234
229,-225.0,1067.0,-59.0,1092.0599800377267,2021-08-31 07:28:43.235
230,-77.0,1018.0,120.0,1027.9362820719969,2021-08-31 07:28:43.244
231,-83.0,1025.0,-122.0,1035.5665116254002,2021-08-31 07:28:43.254
232,-155.0,952.0,-110.0,970.787824398308,2021-08-31 07:28:43.264
233,-209.0,1160.0,11.0,1178.7289764827196,2021-08-31 07:28:43.286
234,-209.0,914.0,-138.0,947.6924606643232,2021-08-31 07:28:43.287
235,-244.0,1031.0,-102.0,1064.378222249967,2021-08-31 07:28:43.293
236,-219.0,1110.0,-11.0,1131.4512804358833,2021-08-31 07:28:43.303
237,-121.0,954.0,-91.0,965.9389214644992,2021-08-31 07:28:43.313
238,-159.0,954.0,-91.0,971.4309033585456,2021-08-31 07:28:43.322
239,-159.0,1067.0,-97.0,1083.1338790749735,2021-08-31 07:28:43.323
240,-208.0,941.0,63.0,965.7711944347895,2021-08-31 07:28:43.335
241,-136.0,932.0,-63.0,943.975105603956,2021-08-31 07:28:43.343
242,-227.0,1016.0,33.0,1041.5728491085008,2021-08-31 07:28:43.352
243,-159.0,1075.0,-30.0,1087.1090101733128,2021-08-31 07:28:43.362
244,-74.0,873.0,-18.0,876.3155824245054,2021-08-31 07:28:43.371
245,-209.0,873.0,-63.0,899.8772138464225,2021-08-31 07:28:43.382
246,-219.0,1044.0,-21.0,1066.9292385158446,2021-08-31 07:28:43.391
247,-184.0,869.0,23.0,888.5640100746822,2021-08-31 07:28:43.401
248,-120.0,855.0,23.0,863.6862856384835,2021-08-31 07:28:43.410
249,-120.0,855.0,-13.0,863.4778514820168,2021-08-31 07:28:43.411
250,-143.0,1088.0,-89.0,1100.9604897542872,2021-08-31 07:28:43.420
251,-144.0,1021.0,-8.0,1031.1357815535257,2021-08-31 07:28:43.430
252,-161.0,903.0,-12.0,917.3189194604024,2021-08-31 07:28:43.440
253,-147.0,1088.0,-12.0,1097.9512739643776,2021-08-31 07:28:43.449
254,-147.0,1088.0,-128.0,1105.3221249934338,2021-08-31 07:28:43.450
255,-104.0,913.0,-38.0,919.689621557186,2021-08-31 07:28:43.459
256,-126.0,913.0,-38.0,922.436447675394,2021-08-31 07:28:43.469
257,-126.0,1062.0,-132.0,1077.5639192177882,2021-08-31 07:28:43.470
258,-161.0,1148.0,-41.0,1159.9594820509897,2021-08-31 07:28:43.479
259,-175.0,1148.0,-41.0,1161.985369959536,2021-08-31 07:28:43.488
260,-175.0,996.0,-40.0,1012.0479237664588,2021-08-31 07:28:43.489
261,-98.0,983.0,-116.0,994.6602435002618,2021-08-31 07:28:43.499
262,-268.0,1082.0,-57.0,1116.1527673217497,2021-08-31 07:28:43.508
263,-183.0,1066.0,-28.0,1081.9560989245358,2021-08-31 07:28:43.518
264,-71.0,938.0,-124.0,948.8208471571438,2021-08-31 07:28:43.528
265,-260.0,1072.0,-124.0,1110.027026697999,2021-08-31 07:28:43.540
266,-260.0,1072.0,-6.0,1103.0956440853167,2021-08-31 07:28:43.541
267,-134.0,982.0,80.0,994.323890892701,2021-08-31 07:28:43.547
268,-149.0,911.0,-63.0,925.2518576041876,2021-08-31 07:28:43.557
269,-228.0,935.0,-14.0,962.4993506491317,2021-08-31 07:28:43.568
270,-264.0,923.0,-14.0,960.1150972669892,2021-08-31 07:28:43.577
271,-264.0,923.0,-65.0,962.210995572177,2021-08-31 07:28:43.578
272,-177.0,879.0,-3.0,896.6487606638399,2021-08-31 07:28:43.587
273,-247.0,1000.0,27.0,1030.4067158166235,2021-08-31 07:28:43.596
274,-262.0,921.0,-15.0,957.6586030522568,2021-08-31 07:28:43.606
275,-119.0,921.0,-15.0,928.7771530351076,2021-08-31 07:28:43.615
276,-119.0,907.0,40.0,915.647312014839,2021-08-31 07:28:43.616
277,-161.0,925.0,-51.0,940.2909124308284,2021-08-31 07:28:43.626
278,-145.0,925.0,-51.0,937.683848639828,2021-08-31 07:28:43.642
279,-145.0,1179.0,-39.0,1188.5230330119816,2021-08-31 07:28:43.643
280,-160.0,1179.0,-39.0,1190.4461348586924,2021-08-31 07:28:43.645
281,-160.0,894.0,-6.0,908.2246418150082,2021-08-31 07:28:43.646
282,-78.0,894.0,-6.0,897.4162913609268,2021-08-31 07:28:43.654
283,-78.0,917.0,-76.0,923.4440968461493,2021-08-31 07:28:43.655
284,-211.0,1209.0,-93.0,1230.7928339082905,2021-08-31 07:28:43.665
285,-98.0,1023.0,-3.0,1027.687695751973,2021-08-31 07:28:43.675
286,-116.0,904.0,-79.0,914.8294923099058,2021-08-31 07:28:43.684
287,-244.0,904.0,-79.0,939.6770721902284,2021-08-31 07:28:43.693
288,-244.0,1060.0,-119.0,1094.210674413296,2021-08-31 07:28:43.694
289,-143.0,879.0,-162.0,905.1707021330286,2021-08-31 07:28:43.703
290,-263.0,1067.0,-75.0,1101.4912618809103,2021-08-31 07:28:43.713
291,-170.0,1159.0,-12.0,1171.4627608251149,2021-08-31 07:28:43.724
292,-200.0,895.0,-102.0,922.729104342114,2021-08-31 07:28:43.737
293,-225.0,1108.0,-89.0,1134.111987415705,2021-08-31 07:28:43.742
294,-217.0,1009.0,75.0,1034.7922496810652,2021-08-31 07:28:43.752
295,-123.0,923.0,18.0,931.3334526365946,2021-08-31 07:28:43.762
296,-223.0,940.0,-93.0,970.5555110347888,2021-08-31 07:28:43.773
297,-206.0,940.0,-93.0,966.7910839473024,2021-08-31 07:28:43.781
298,-206.0,990.0,63.0,1013.1658304542252,2021-08-31 07:28:43.782
299,-122.0,890.0,0.0,898.3228818192265,2021-08-31 07:28:43.791
300,-208.0,838.0,-50.0,864.8745573781206,2021-08-31 07:28:43.801
301,-145.0,993.0,20.0,1003.7300433881612,2021-08-31 07:28:43.811
302,-221.0,993.0,20.0,1017.4920147106808,2021-08-31 07:28:43.821
303,-221.0,826.0,-41.0,856.036214187227,2021-08-31 07:28:43.822
304,-51.0,936.0,28.0,937.8064832362804,2021-08-31 07:28:43.830
305,-193.0,1042.0,-2.0,1059.7249643185726,2021-08-31 07:28:43.840
306,-172.0,990.0,-41.0,1005.666445696584,2021-08-31 07:28:43.850
307,-271.0,909.0,13.0,948.6258482668496,2021-08-31 07:28:43.860
308,-150.0,1075.0,-46.0,1086.388972698085,2021-08-31 07:28:43.870
309,-230.0,1075.0,-46.0,1100.291325058959,2021-08-31 07:28:43.880
310,-230.0,1042.0,-52.0,1068.3482578260705,2021-08-31 07:28:43.881
311,-78.0,1020.0,-96.0,1027.4726273726226,2021-08-31 07:28:43.889
312,-223.0,1005.0,-41.0,1030.2596760040644,2021-08-31 07:28:43.899
313,-280.0,1005.0,-41.0,1044.0814144500418,2021-08-31 07:28:43.908
314,-280.0,1166.0,-16.0,1199.2547685958975,2021-08-31 07:28:43.909
315,-111.0,915.0,-95.0,926.5910640622432,2021-08-31 07:28:43.918
316,-185.0,1047.0,-91.0,1067.105899149658,2021-08-31 07:28:43.929
317,-185.0,959.0,-48.0,977.859908166809,2021-08-31 07:28:43.938
318,-141.0,959.0,-48.0,970.4978104045368,2021-08-31 07:28:43.947
319,-141.0,937.0,-176.0,963.7561932356128,2021-08-31 07:28:43.948
320,-167.0,1159.0,5.0,1170.9803585030793,2021-08-31 07:28:43.957
321,-273.0,950.0,37.0,989.1400305315724,2021-08-31 07:28:43.967
322,-172.0,924.0,-18.0,940.0446797892108,2021-08-31 07:28:43.978
323,-230.0,924.0,-18.0,952.36547606473,2021-08-31 07:28:43.986
324,-230.0,1068.0,-26.0,1092.7945827098522,2021-08-31 07:28:43.987
325,-239.0,901.0,3.0,932.164685020839,2021-08-31 07:28:43.996
326,-192.0,864.0,-31.0,885.6189925696038,2021-08-31 07:28:44.006
327,-315.0,920.0,-30.0,972.8951639308318,2021-08-31 07:28:44.016
328,-108.0,990.0,130.0,1004.3226573168604,2021-08-31 07:28:44.038
329,-108.0,884.0,-63.0,892.7984094967911,2021-08-31 07:28:44.039
330,-190.0,1011.0,-70.0,1031.0775916486596,2021-08-31 07:28:44.046
331,-284.0,1009.0,72.0,1050.6764487700293,2021-08-31 07:28:44.060
332,-200.0,980.0,-76.0,1003.0832467946018,2021-08-31 07:28:44.065
333,-224.0,1020.0,-76.0,1047.068288126424,2021-08-31 07:28:44.075
334,-224.0,1020.0,101.0,1049.1792029963233,2021-08-31 07:28:44.076
335,-129.0,1160.0,-51.0,1168.264524840158,2021-08-31 07:28:44.084
336,-122.0,849.0,-153.0,871.2600071161306,2021-08-31 07:28:44.094
337,-143.0,1137.0,-28.0,1146.2992628454404,2021-08-31 07:28:44.104
338,-241.0,1082.0,-30.0,1108.920646394502,2021-08-31 07:28:44.114
339,-273.0,1015.0,-76.0,1053.8168721367106,2021-08-31 07:28:44.124
340,-174.0,1020.0,-55.0,1036.195444884796,2021-08-31 07:28:44.133
341,-199.0,999.0,-63.0,1020.5738581797988,2021-08-31 07:28:44.143
342,-145.0,1112.0,-70.0,1123.5964578085852,2021-08-31 07:28:44.153
343,-187.0,837.0,0.0,857.635120549526,2021-08-31 07:28:44.163
344,-268.0,1115.0,43.0,1147.5617630437152,2021-08-31 07:28:44.172
345,-160.0,952.0,1.0,965.3522673097112,2021-08-31 07:28:44.182
346,-259.0,1112.0,-36.0,1142.3313879956202,2021-08-31 07:28:44.192
347,-125.0,985.0,68.0,995.2256025645644,2021-08-31 07:28:44.202
348,-206.0,776.0,-77.0,806.5612190032447,2021-08-31 07:28:44.211
349,-212.0,955.0,-43.0,979.1925244812688,2021-08-31 07:28:44.221
350,-273.0,955.0,-43.0,994.1845905062098,2021-08-31 07:28:44.231
351,-273.0,1022.0,93.0,1061.9143091605838,2021-08-31 07:28:44.232
352,-113.0,1022.0,93.0,1032.4252999612129,2021-08-31 07:28:44.240
353,-113.0,861.0,23.0,868.6880913193181,2021-08-31 07:28:44.241
354,-130.0,932.0,-123.0,949.0273968648112,2021-08-31 07:28:44.250
355,-157.0,1136.0,-36.0,1147.3626279428836,2021-08-31 07:28:44.260
356,-286.0,963.0,98.0,1009.3408740361208,2021-08-31 07:28:44.270
357,-141.0,987.0,-151.0,1008.390301421032,2021-08-31 07:28:44.280
358,-170.0,1057.0,-51.0,1071.7975555113007,2021-08-31 07:28:44.300
359,-256.0,1087.0,-23.0,1116.9753802121154,2021-08-31 07:28:44.303
360,-153.0,935.0,-89.0,951.6065363373668,2021-08-31 07:28:44.314
361,-236.0,1075.0,-16.0,1100.7165847755723,2021-08-31 07:28:44.319
362,-144.0,992.0,-16.0,1002.5248126605146,2021-08-31 07:28:44.328
363,-144.0,992.0,-80.0,1005.5844071981228,2021-08-31 07:28:44.329
364,-265.0,1029.0,-88.0,1066.2129243260936,2021-08-31 07:28:44.338
365,-193.0,1029.0,-88.0,1050.6350460554795,2021-08-31 07:28:44.354
366,-193.0,1136.0,4.0,1152.2851209661608,2021-08-31 07:28:44.355
367,-95.0,949.0,-141.0,964.1094336225532,2021-08-31 07:28:44.358
368,-225.0,913.0,-141.0,950.82858602379,2021-08-31 07:28:44.367
369,-225.0,913.0,-93.0,944.9036987968668,2021-08-31 07:28:44.368
370,-193.0,1073.0,73.0,1092.6605145240676,2021-08-31 07:28:44.377
371,-158.0,1021.0,73.0,1035.7287289633323,2021-08-31 07:28:44.388
372,-158.0,1021.0,12.0,1033.2226284784902,2021-08-31 07:28:44.389
373,-135.0,912.0,-56.0,923.6368333928656,2021-08-31 07:28:44.397
374,-217.0,886.0,-56.0,913.9042619443244,2021-08-31 07:28:44.406
375,-217.0,886.0,-31.0,912.7135366586824,2021-08-31 07:28:44.407
376,-301.0,976.0,51.0,1022.6328764517596,2021-08-31 07:28:44.416
377,-227.0,851.0,24.0,881.0822890059702,2021-08-31 07:28:44.426
378,-326.0,851.0,24.0,911.6210835648768,2021-08-31 07:28:44.436
379,-326.0,923.0,-15.0,978.9943820063525,2021-08-31 07:28:44.437
380,-196.0,923.0,-15.0,943.700164247098,2021-08-31 07:28:44.445
381,-196.0,894.0,68.0,917.7559588474488,2021-08-31 07:28:44.446
382,-176.0,884.0,-55.0,903.026577681964,2021-08-31 07:28:44.455
383,-179.0,1051.0,8.0,1066.164152464338,2021-08-31 07:28:44.465
384,-152.0,995.0,-4.0,1006.5510419248494,2021-08-31 07:28:44.475
385,-132.0,914.0,-66.0,925.8379987881248,2021-08-31 07:28:44.485
386,-217.0,1097.0,-83.0,1121.332689258634,2021-08-31 07:28:44.496
387,-140.0,1116.0,-29.0,1125.1208823944207,2021-08-31 07:28:44.504
388,-82.0,1000.0,-91.0,1007.4745654357732,2021-08-31 07:28:44.514
389,-193.0,998.0,-151.0,1027.6448802966909,2021-08-31 07:28:44.526
390,-211.0,998.0,-151.0,1031.1769974160595,2021-08-31 07:28:44.533
391,-211.0,1221.0,-2.0,1239.0988661119825,2021-08-31 07:28:44.534
392,-190.0,970.0,-71.0,990.9798181597848,2021-08-31 07:28:44.544
393,-192.0,1226.0,-24.0,1241.1752495115263,2021-08-31 07:28:44.553
394,-226.0,953.0,-78.0,982.531933323289,2021-08-31 07:28:44.564
395,-180.0,985.0,-70.0,1003.755448304018,2021-08-31 07:28:44.573
396,-229.0,1033.0,-49.0,1059.2124432803837,2021-08-31 07:28:44.582
397,-292.0,1033.0,-49.0,1074.5948073576385,2021-08-31 07:28:44.592
398,-292.0,986.0,13.0,1028.4109100938203,2021-08-31 07:28:44.593
399,-121.0,986.0,13.0,993.4817562492026,2021-08-31 07:28:44.602
400,-121.0,920.0,-35.0,928.5827911392716,2021-08-31 07:28:44.603
401,-249.0,949.0,18.0,981.2879292032488,2021-08-31 07:28:44.612
