,Acceleration_X,Acceleration_Y,Acceleration_Z,magnitude,time_stamp
0,19.0,1107.0,178.0,1121.3803993293266,2021-09-27 12:44:48.570
1,-19.0,986.0,20.0,986.3858271487886,2021-09-27 12:44:48.580
2,-212.0,1065.0,-134.0,1094.1320761224397,2021-09-27 12:44:48.593
3,-273.0,1055.0,-149.0,1099.8886307258567,2021-09-27 12:44:48.607
4,-152.0,1178.0,-49.0,1188.7762615395716,2021-09-27 12:44:48.610
5,110.0,1035.0,-99.0,1045.5266615443147,2021-09-27 12:44:48.619
6,-52.0,1140.0,-144.0,1150.2347586471208,2021-09-27 12:44:48.629
7,52.0,1080.0,-34.0,1081.7855610055071,2021-09-27 12:44:48.638
8,-353.0,882.0,-34.0,950.6255834975198,2021-09-27 12:44:48.648
9,-353.0,882.0,-2.0,950.0194734846228,2021-09-27 12:44:48.649
10,-199.0,1012.0,19.0,1031.55513667472,2021-09-27 12:44:48.658
11,-92.0,1012.0,19.0,1016.3508252567124,2021-09-27 12:44:48.667
12,-92.0,1089.0,60.0,1094.5250111349671,2021-09-27 12:44:48.668
13,-162.0,675.0,60.0,696.7560548714306,2021-09-27 12:44:48.677
14,-162.0,675.0,-39.0,695.2625403399784,2021-09-27 12:44:48.678
15,-184.0,903.0,-57.0,923.3168470248986,2021-09-27 12:44:48.688
16,-191.0,855.0,3.0,876.0793343071163,2021-09-27 12:44:48.697
17,-237.0,917.0,106.0,953.0445949691966,2021-09-27 12:44:48.709
18,-321.0,930.0,4.0,983.8480573747148,2021-09-27 12:44:48.716
19,139.0,930.0,4.0,940.3387687424143,2021-09-27 12:44:48.726
20,139.0,1101.0,26.0,1110.0441432663838,2021-09-27 12:44:48.727
21,-257.0,896.0,-5.0,932.1426929392302,2021-09-27 12:44:48.738
22,-25.0,883.0,-4.0,883.3628925871858,2021-09-27 12:44:48.746
23,-234.0,1105.0,82.0,1132.4773728423893,2021-09-27 12:44:48.755
24,-152.0,982.0,77.0,996.6729654204532,2021-09-27 12:44:48.766
25,-79.0,977.0,23.0,980.4585661821716,2021-09-27 12:44:48.783
26,-89.0,935.0,-73.0,942.0589153550854,2021-09-27 12:44:48.787
27,-256.0,1032.0,-325.0,1111.8385674188496,2021-09-27 12:44:48.795
28,-223.0,1206.0,-58.0,1227.8147254370265,2021-09-27 12:44:48.804
29,-193.0,1049.0,-58.0,1068.1825686651136,2021-09-27 12:44:48.815
30,-193.0,1049.0,-96.0,1070.918297537212,2021-09-27 12:44:48.816
31,-337.0,1006.0,-123.0,1068.0514968858008,2021-09-27 12:44:48.824
32,103.0,1006.0,-123.0,1018.7119318040798,2021-09-27 12:44:48.833
33,103.0,1287.0,-71.0,1293.0657369213675,2021-09-27 12:44:48.834
34,-145.0,1028.0,-138.0,1047.3075002118528,2021-09-27 12:44:48.844
35,-310.0,949.0,29.0,998.7702438499056,2021-09-27 12:44:48.853
36,-62.0,1034.0,54.0,1037.2637080318582,2021-09-27 12:44:48.863
37,-96.0,858.0,59.0,865.3675519685263,2021-09-27 12:44:48.873
38,-246.0,813.0,-59.0,851.4493525747729,2021-09-27 12:44:48.883
39,-352.0,886.0,76.0,956.3869509774796,2021-09-27 12:44:48.893
40,-267.0,968.0,196.0,1023.0977470408192,2021-09-27 12:44:48.902
41,-147.0,968.0,196.0,998.5234098407508,2021-09-27 12:44:48.911
42,-147.0,766.0,-60.0,782.2819184923042,2021-09-27 12:44:48.912
43,-278.0,766.0,-60.0,817.09240603496,2021-09-27 12:44:48.921
44,-278.0,900.0,184.0,959.7603867632796,2021-09-27 12:44:48.922
45,-232.0,777.0,29.0,811.4148137666701,2021-09-27 12:44:48.931
46,112.0,959.0,-180.0,982.153246698294,2021-09-27 12:44:48.942
47,-44.0,1247.0,13.0,1247.8437402175002,2021-09-27 12:44:48.951
48,-90.0,715.0,13.0,720.7593218266413,2021-09-27 12:44:48.960
49,-90.0,715.0,122.0,730.8960254372711,2021-09-27 12:44:48.961
50,-166.0,944.0,-56.0,960.1187426563446,2021-09-27 12:44:48.971
51,-200.0,944.0,-56.0,966.5774671489088,2021-09-27 12:44:48.980
52,-200.0,1124.0,26.0,1141.950962169567,2021-09-27 12:44:48.981
53,-269.0,964.0,-126.0,1008.7284074516788,2021-09-27 12:44:48.990
54,-227.0,987.0,-105.0,1018.1959536356449,2021-09-27 12:44:49.000
55,-217.0,1137.0,-105.0,1162.2749244477402,2021-09-27 12:44:49.009
56,-217.0,1137.0,-145.0,1166.5689006655373,2021-09-27 12:44:49.010
57,-177.0,1240.0,-145.0,1260.9337809734498,2021-09-27 12:44:49.019
58,-177.0,1240.0,26.0,1252.8387765391044,2021-09-27 12:44:49.020
59,13.0,1240.0,26.0,1240.340679007183,2021-09-27 12:44:49.029
60,13.0,1049.0,-223.0,1072.5199298847551,2021-09-27 12:44:49.030
61,-46.0,1049.0,-223.0,1073.4272215665112,2021-09-27 12:44:49.038
62,-46.0,1341.0,-47.0,1342.6116340923015,2021-09-27 12:44:49.039
63,-355.0,930.0,15.0,995.5651661242472,2021-09-27 12:44:49.049
64,-87.0,801.0,34.0,806.427926103753,2021-09-27 12:44:49.058
65,-325.0,820.0,13.0,882.1530479457632,2021-09-27 12:44:49.069
66,-154.0,950.0,-72.0,965.090669315583,2021-09-27 12:44:49.078
67,-97.0,1052.0,20.0,1056.6517874872495,2021-09-27 12:44:49.095
68,-454.0,1052.0,20.0,1145.9581144178003,2021-09-27 12:44:49.097
69,-454.0,887.0,8.0,996.4682634183588,2021-09-27 12:44:49.098
70,-267.0,681.0,-73.0,735.1047544398009,2021-09-27 12:44:49.109
71,-305.0,927.0,20.0,976.0911842650768,2021-09-27 12:44:49.117
72,-397.0,932.0,20.0,1013.2289968215478,2021-09-27 12:44:49.126
73,-397.0,932.0,96.0,1017.5701450022992,2021-09-27 12:44:49.127
74,-103.0,842.0,-7.0,848.3053695456607,2021-09-27 12:44:49.136
75,36.0,1152.0,-49.0,1153.6034847381486,2021-09-27 12:44:49.146
76,-288.0,872.0,64.0,920.5563535167198,2021-09-27 12:44:49.156
77,-273.0,872.0,129.0,922.7968357119566,2021-09-27 12:44:49.166
78,-120.0,1028.0,-121.0,1042.0292702222907,2021-09-27 12:44:49.187
79,-120.0,1079.0,70.0,1087.9067055588912,2021-09-27 12:44:49.189
80,-301.0,918.0,-77.0,969.151174997998,2021-09-27 12:44:49.197
81,-21.0,1083.0,-213.0,1103.9470095978338,2021-09-27 12:44:49.205
82,-87.0,967.0,-145.0,981.673571000055,2021-09-27 12:44:49.214
83,-91.0,1174.0,-176.0,1190.6019485957513,2021-09-27 12:44:49.224
84,-325.0,1067.0,-1.0,1115.399031737073,2021-09-27 12:44:49.234
85,-183.0,1067.0,-1.0,1082.5797892072435,2021-09-27 12:44:49.245
86,-183.0,1138.0,-101.0,1157.0367323469036,2021-09-27 12:44:49.246
87,85.0,1138.0,-101.0,1145.630830590727,2021-09-27 12:44:49.253
88,85.0,1159.0,-196.0,1178.5253497485746,2021-09-27 12:44:49.254
89,-428.0,1035.0,-8.0,1120.0325888115935,2021-09-27 12:44:49.263
90,-229.0,955.0,63.0,984.0909510812504,2021-09-27 12:44:49.273
91,59.0,878.0,87.0,884.2703206599213,2021-09-27 12:44:49.283
92,-324.0,877.0,-25.0,935.2700144877948,2021-09-27 12:44:49.293
93,-289.0,763.0,59.0,818.0287281018925,2021-09-27 12:44:49.303
94,-121.0,893.0,-54.0,902.7768273499272,2021-09-27 12:44:49.312
95,-422.0,1013.0,-11.0,1097.439747776615,2021-09-27 12:44:49.322
96,-380.0,1013.0,-11.0,1081.984288240823,2021-09-27 12:44:49.331
97,-380.0,916.0,78.0,994.7562515511024,2021-09-27 12:44:49.332
98,210.0,1001.0,-124.0,1030.280059013082,2021-09-27 12:44:49.342
99,-275.0,918.0,-46.0,959.4086720475274,2021-09-27 12:44:49.352
100,270.0,994.0,-38.0,1030.7181962107782,2021-09-27 12:44:49.361
101,-296.0,845.0,-38.0,896.1500990347544,2021-09-27 12:44:49.371
102,-185.0,913.0,162.0,945.5358269256644,2021-09-27 12:44:49.381
103,-95.0,1087.0,44.0,1092.0302193620837,2021-09-27 12:44:49.391
104,-170.0,792.0,-135.0,821.2119093145203,2021-09-27 12:44:49.401
105,-312.0,1156.0,-83.0,1200.2370599177482,2021-09-27 12:44:49.410
106,-83.0,1156.0,-83.0,1161.9440606156563,2021-09-27 12:44:49.419
107,-83.0,1059.0,-212.0,1083.1961964482705,2021-09-27 12:44:49.420
108,-222.0,930.0,16.0,956.263561995332,2021-09-27 12:44:49.430
109,-319.0,1139.0,-110.0,1187.931816225157,2021-09-27 12:44:49.440
110,128.0,1148.0,-187.0,1170.1525541569356,2021-09-27 12:44:49.449
111,-173.0,1141.0,-110.0,1159.2713228575958,2021-09-27 12:44:49.459
112,-342.0,902.0,61.0,966.5862610238156,2021-09-27 12:44:49.468
113,40.0,1060.0,61.0,1062.506941153798,2021-09-27 12:44:49.478
114,40.0,1060.0,40.0,1061.5083607772478,2021-09-27 12:44:49.479
115,-36.0,875.0,-33.0,876.3617974330008,2021-09-27 12:44:49.488
116,-382.0,812.0,63.0,899.5760112408511,2021-09-27 12:44:49.498
117,-152.0,834.0,63.0,850.0758789661073,2021-09-27 12:44:49.508
118,-152.0,834.0,-34.0,848.4197074561623,2021-09-27 12:44:49.509
119,-476.0,885.0,-34.0,1005.4635746758804,2021-09-27 12:44:49.517
120,-301.0,930.0,36.0,978.160007360759,2021-09-27 12:44:49.527
121,-172.0,860.0,53.0,878.6313220003029,2021-09-27 12:44:49.537
122,-380.0,847.0,-93.0,932.983386775992,2021-09-27 12:44:49.547
123,15.0,847.0,-93.0,852.2223888164403,2021-09-27 12:44:49.556
124,15.0,1234.0,-38.0,1234.6760708785118,2021-09-27 12:44:49.557
125,-90.0,892.0,-80.0,900.091106499781,2021-09-27 12:44:49.566
126,-268.0,784.0,58.0,830.5684800183546,2021-09-27 12:44:49.576
127,1.0,1133.0,58.0,1134.484023686539,2021-09-27 12:44:49.585
128,1.0,1133.0,0.0,1133.0004413061806,2021-09-27 12:44:49.586
129,-105.0,951.0,-23.0,957.0553797978464,2021-09-27 12:44:49.596
130,-291.0,933.0,-74.0,980.1255021679622,2021-09-27 12:44:49.605
131,-81.0,1126.0,-124.0,1135.6993440167164,2021-09-27 12:44:49.624
132,-272.0,1126.0,-124.0,1165.0047210204773,2021-09-27 12:44:49.626
133,-272.0,1113.0,-127.0,1152.7714430883514,2021-09-27 12:44:49.627
134,-244.0,938.0,-131.0,978.029140670154,2021-09-27 12:44:49.634
135,-35.0,1275.0,-66.0,1277.1867522018854,2021-09-27 12:44:49.645
136,-283.0,1097.0,-110.0,1138.243383464187,2021-09-27 12:44:49.654
137,-5.0,1200.0,-123.0,1206.2976415462313,2021-09-27 12:44:49.664
138,-35.0,1178.0,-123.0,1184.921094419371,2021-09-27 12:44:49.673
139,-35.0,1178.0,-100.0,1182.7548351201106,2021-09-27 12:44:49.674
140,-334.0,1178.0,-100.0,1228.5112942093776,2021-09-27 12:44:49.683
141,-334.0,884.0,-9.0,945.0359781510966,2021-09-27 12:44:49.684
142,-100.0,1006.0,-9.0,1010.9980217586976,2021-09-27 12:44:49.694
143,-100.0,1006.0,11.0,1011.017803997536,2021-09-27 12:44:49.695
144,-185.0,1060.0,51.0,1077.2307088084706,2021-09-27 12:44:49.708
145,-450.0,712.0,51.0,843.8275890251515,2021-09-27 12:44:49.712
146,-450.0,712.0,-38.0,843.1417437181011,2021-09-27 12:44:49.713
147,-153.0,916.0,-38.0,929.467051594622,2021-09-27 12:44:49.722
148,-153.0,916.0,28.0,929.111941587234,2021-09-27 12:44:49.723
149,-293.0,880.0,28.0,927.9186386747492,2021-09-27 12:44:49.732
150,-293.0,880.0,-37.0,928.2338067534494,2021-09-27 12:44:49.733
151,-262.0,881.0,-37.0,919.877165712901,2021-09-27 12:44:49.742
152,-262.0,881.0,43.0,920.1380331232916,2021-09-27 12:44:49.743
153,-149.0,881.0,43.0,894.5451358092558,2021-09-27 12:44:49.751
154,-149.0,1041.0,39.0,1052.3321718925065,2021-09-27 12:44:49.752
155,50.0,1083.0,-17.0,1084.2868624123414,2021-09-27 12:44:49.762
156,-189.0,759.0,60.0,784.4756210361161,2021-09-27 12:44:49.771
157,-51.0,925.0,10.0,926.4588495988368,2021-09-27 12:44:49.781
158,-71.0,925.0,10.0,927.7747571474448,2021-09-27 12:44:49.790
159,-71.0,1097.0,69.0,1101.4585784313454,2021-09-27 12:44:49.791
160,-166.0,920.0,-10.0,934.9096213003692,2021-09-27 12:44:49.802
161,-144.0,920.0,-10.0,931.2550671003085,2021-09-27 12:44:49.818
162,-144.0,1182.0,-25.0,1191.0016792599413,2021-09-27 12:44:49.819
163,-179.0,828.0,-8.0,847.1652731315183,2021-09-27 12:44:49.821
164,-105.0,1067.0,-230.0,1096.546396647219,2021-09-27 12:44:49.830
165,-229.0,1201.0,-162.0,1233.3231531111385,2021-09-27 12:44:49.841
166,-388.0,1133.0,-12.0,1197.6547916657787,2021-09-27 12:44:49.849
167,-123.0,1041.0,-229.0,1072.963652692858,2021-09-27 12:44:49.859
168,20.0,1307.0,-136.0,1314.208887506092,2021-09-27 12:44:49.869
169,-324.0,1003.0,-136.0,1062.7704361714243,2021-09-27 12:44:49.878
170,-324.0,1003.0,2.0,1054.034629412146,2021-09-27 12:44:49.879
171,-249.0,833.0,-33.0,870.0454011142177,2021-09-27 12:44:49.889
172,-111.0,1117.0,1.0,1122.5021158109234,2021-09-27 12:44:49.898
173,-95.0,824.0,103.0,835.8289298654361,2021-09-27 12:44:49.908
174,-213.0,824.0,103.0,857.2945818095435,2021-09-27 12:44:49.917
175,-213.0,746.0,-53.0,777.6207301763502,2021-09-27 12:44:49.918
176,-247.0,931.0,-23.0,963.4827450452864,2021-09-27 12:44:49.927
177,-366.0,890.0,197.0,982.2754196252698,2021-09-27 12:44:49.938
178,-305.0,973.0,-55.0,1021.1655105809244,2021-09-27 12:44:49.948
179,-386.0,973.0,-55.0,1048.2127646618314,2021-09-27 12:44:49.956
180,-386.0,935.0,187.0,1028.6836248332138,2021-09-27 12:44:49.957
181,-300.0,702.0,187.0,785.9853688205652,2021-09-27 12:44:49.966
182,-300.0,702.0,-16.0,763.5836561896804,2021-09-27 12:44:49.967
183,96.0,1052.0,-55.0,1057.8019663434172,2021-09-27 12:44:49.976
184,-242.0,1004.0,45.0,1033.7335246571042,2021-09-27 12:44:49.987
185,-27.0,879.0,-11.0,879.4833710764519,2021-09-27 12:44:49.997
186,2.0,879.0,-11.0,879.0711006511361,2021-09-27 12:44:50.005
187,2.0,998.0,-8.0,998.0340675548103,2021-09-27 12:44:50.006
188,-94.0,1139.0,122.0,1149.365477122051,2021-09-27 12:44:50.016
189,-110.0,1009.0,-106.0,1020.4984076420698,2021-09-27 12:44:50.025
190,-126.0,1028.0,-211.0,1056.9678330015536,2021-09-27 12:44:50.035
191,-172.0,1235.0,-150.0,1255.9096305069088,2021-09-27 12:44:50.045
192,-194.0,1039.0,-165.0,1069.757916539999,2021-09-27 12:44:50.055
193,-40.0,1064.0,-176.0,1079.1997034840217,2021-09-27 12:44:50.064
194,-73.0,1234.0,-62.0,1237.711194099819,2021-09-27 12:44:50.074
195,-329.0,1234.0,-62.0,1278.609009822784,2021-09-27 12:44:50.083
196,-329.0,951.0,73.0,1008.9454891122712,2021-09-27 12:44:50.084
197,-235.0,1255.0,-61.0,1278.2687510848414,2021-09-27 12:44:50.094
198,-293.0,886.0,59.0,935.0540091353012,2021-09-27 12:44:50.114
199,-56.0,952.0,-11.0,953.7090751376962,2021-09-27 12:44:50.116
200,-279.0,914.0,8.0,955.6678293214646,2021-09-27 12:44:50.124
201,-350.0,890.0,65.0,958.5535978754656,2021-09-27 12:44:50.133
202,-164.0,778.0,12.0,795.188028078894,2021-09-27 12:44:50.142
203,-206.0,874.0,36.0,898.6701285788907,2021-09-27 12:44:50.152
204,-311.0,914.0,86.0,969.2847878719648,2021-09-27 12:44:50.162
205,-23.0,921.0,-61.0,923.3043918448564,2021-09-27 12:44:50.172
206,-73.0,1050.0,15.0,1052.6414394275005,2021-09-27 12:44:50.182
207,-291.0,898.0,84.0,947.703012551928,2021-09-27 12:44:50.202
208,-77.0,930.0,70.0,935.8039324559392,2021-09-27 12:44:50.204
209,-54.0,1091.0,50.0,1093.4793093607211,2021-09-27 12:44:50.213
210,-244.0,1091.0,50.0,1119.0697029229234,2021-09-27 12:44:50.220
211,-244.0,1171.0,-31.0,1196.5525479476444,2021-09-27 12:44:50.221
212,-156.0,1171.0,-31.0,1181.752089060984,2021-09-27 12:44:50.230
213,-156.0,979.0,-118.0,998.349137326216,2021-09-27 12:44:50.231
214,-194.0,992.0,-193.0,1029.0524767960087,2021-09-27 12:44:50.240
215,-133.0,938.0,-49.0,948.6485123585026,2021-09-27 12:44:50.250
216,-307.0,938.0,-49.0,988.1771096316692,2021-09-27 12:44:50.260
217,-307.0,990.0,-162.0,1049.0915117376558,2021-09-27 12:44:50.261
218,-291.0,1236.0,-23.0,1270.0023622025276,2021-09-27 12:44:50.270
219,-117.0,1003.0,-47.0,1010.8941586536148,2021-09-27 12:44:50.279
220,-36.0,1178.0,-161.0,1189.4961118053309,2021-09-27 12:44:50.289
221,-392.0,1066.0,-161.0,1147.144716241155,2021-09-27 12:44:50.298
222,-392.0,1066.0,10.0,1135.8344949859552,2021-09-27 12:44:50.299
223,-128.0,950.0,64.0,960.718481137945,2021-09-27 12:44:50.310
224,34.0,950.0,64.0,952.760200680108,2021-09-27 12:44:50.320
225,34.0,1045.0,-20.0,1045.744232592272,2021-09-27 12:44:50.321
226,-423.0,898.0,-24.0,992.9295040434644,2021-09-27 12:44:50.328
227,-268.0,774.0,-24.0,819.43639167418,2021-09-27 12:44:50.337
228,-268.0,774.0,48.0,820.4900974417668,2021-09-27 12:44:50.338
229,-169.0,805.0,-46.0,823.8337210869679,2021-09-27 12:44:50.347
230,-247.0,1031.0,-46.0,1061.1719935995295,2021-09-27 12:44:50.357
231,-432.0,932.0,76.0,1030.0601924159578,2021-09-27 12:44:50.367
232,-4.0,932.0,76.0,935.102133459228,2021-09-27 12:44:50.376
233,-4.0,913.0,-23.0,913.2984178240976,2021-09-27 12:44:50.377
234,-293.0,1003.0,-74.0,1047.537111514432,2021-09-27 12:44:50.386
235,84.0,1000.0,-67.0,1005.755934608392,2021-09-27 12:44:50.396
236,-307.0,952.0,-67.0,1002.5178302653774,2021-09-27 12:44:50.406
237,-153.0,952.0,-67.0,966.5412562327592,2021-09-27 12:44:50.415
238,-153.0,955.0,120.0,974.5942745573668,2021-09-27 12:44:50.416
239,-46.0,942.0,-6.0,943.1415588340916,2021-09-27 12:44:50.426
240,-107.0,1054.0,-150.0,1069.9836447348157,2021-09-27 12:44:50.435
241,-307.0,1051.0,-5.0,1094.9315047070295,2021-09-27 12:44:50.445
242,-86.0,1009.0,-168.0,1026.499391134744,2021-09-27 12:44:50.455
243,-130.0,1168.0,-184.0,1189.529318680292,2021-09-27 12:44:50.465
244,-326.0,1091.0,-72.0,1140.9386486573237,2021-09-27 12:44:50.477
245,174.0,1147.0,-234.0,1183.4867975604966,2021-09-27 12:44:50.484
246,-232.0,1102.0,-111.0,1131.613449902395,2021-09-27 12:44:50.494
247,-369.0,927.0,-111.0,1003.8979031754176,2021-09-27 12:44:50.503
248,-369.0,927.0,89.0,1001.7040481100194,2021-09-27 12:44:50.504
249,15.0,926.0,16.0,926.2596828103876,2021-09-27 12:44:50.514
250,-253.0,910.0,-132.0,953.694395495748,2021-09-27 12:44:50.523
251,-429.0,910.0,-132.0,1014.6748247591444,2021-09-27 12:44:50.532
252,-429.0,931.0,50.0,1026.3050228854968,2021-09-27 12:44:50.533
253,-268.0,931.0,50.0,970.0953561377356,2021-09-27 12:44:50.542
254,-268.0,835.0,-122.0,885.3999096453534,2021-09-27 12:44:50.543
255,-426.0,908.0,101.0,1008.038193720853,2021-09-27 12:44:50.552
256,-289.0,726.0,73.0,784.8095310328488,2021-09-27 12:44:50.562
257,-165.0,915.0,-22.0,930.0182793902494,2021-09-27 12:44:50.572
258,-252.0,801.0,64.0,842.1407245822993,2021-09-27 12:44:50.588
259,-120.0,950.0,77.0,960.6398909060564,2021-09-27 12:44:50.591
260,13.0,1094.0,-114.0,1100.0004545453603,2021-09-27 12:44:50.601
261,-187.0,933.0,46.0,952.6667832983368,2021-09-27 12:44:50.612
262,-115.0,995.0,65.0,1003.7305415299468,2021-09-27 12:44:50.621
263,-61.0,995.0,65.0,998.9849848721452,2021-09-27 12:44:50.640
264,-61.0,923.0,-67.0,927.43679029894,2021-09-27 12:44:50.641
265,-307.0,923.0,-67.0,975.0215382236436,2021-09-27 12:44:50.643
266,-307.0,1105.0,-141.0,1155.4890739422854,2021-09-27 12:44:50.644
267,-282.0,1069.0,-59.0,1107.143170506868,2021-09-27 12:44:50.650
268,-150.0,926.0,-202.0,959.5728216242892,2021-09-27 12:44:50.660
269,-300.0,926.0,-202.0,994.1227288418668,2021-09-27 12:44:50.670
270,-300.0,1301.0,-113.0,1339.9141763560829,2021-09-27 12:44:50.671
271,-162.0,1127.0,-115.0,1144.3766862357866,2021-09-27 12:44:50.679
272,-22.0,1252.0,-178.0,1264.7814040378678,2021-09-27 12:44:50.689
273,-245.0,1056.0,-21.0,1084.25181576975,2021-09-27 12:44:50.699
274,9.0,1093.0,-195.0,1110.2950058430415,2021-09-27 12:44:50.709
275,-320.0,1026.0,-8.0,1074.774394931327,2021-09-27 12:44:50.719
276,-233.0,974.0,140.0,1011.2195607285296,2021-09-27 12:44:50.729
277,-100.0,1013.0,-21.0,1018.1404618224344,2021-09-27 12:44:50.738
278,-295.0,756.0,-67.0,814.2788220259691,2021-09-27 12:44:50.748
279,-185.0,772.0,212.0,821.676943816729,2021-09-27 12:44:50.758
280,-142.0,818.0,-73.0,833.4368602359749,2021-09-27 12:44:50.767
281,-191.0,917.0,26.0,937.041087679724,2021-09-27 12:44:50.777
282,-270.0,951.0,189.0,1006.4899403372098,2021-09-27 12:44:50.787
283,87.0,1017.0,-16.0,1020.839850319334,2021-09-27 12:44:50.797
284,-172.0,838.0,49.0,856.8716356607914,2021-09-27 12:44:50.807
285,-194.0,966.0,149.0,996.4903411473692,2021-09-27 12:44:50.816
286,23.0,919.0,-58.0,921.1156279208382,2021-09-27 12:44:50.827
287,4.0,1045.0,-163.0,1057.6436072704264,2021-09-27 12:44:50.843
288,-417.0,1045.0,-163.0,1136.8742234741712,2021-09-27 12:44:50.845
289,-417.0,1037.0,-194.0,1134.4135048561436,2021-09-27 12:44:50.846
290,-62.0,1037.0,-194.0,1056.810768302443,2021-09-27 12:44:50.855
291,-62.0,976.0,-152.0,989.7090481550626,2021-09-27 12:44:50.856
292,-389.0,1051.0,-44.0,1121.5426875513924,2021-09-27 12:44:50.865
293,-161.0,1051.0,-44.0,1064.1700991852758,2021-09-27 12:44:50.874
294,-161.0,1183.0,-180.0,1207.3980288206535,2021-09-27 12:44:50.875
295,-136.0,1084.0,-173.0,1106.1107539482653,2021-09-27 12:44:50.884
296,-348.0,1048.0,-101.0,1108.8773602161782,2021-09-27 12:44:50.894
297,104.0,1273.0,-111.0,1282.0553810190884,2021-09-27 12:44:50.904
298,-102.0,1113.0,-159.0,1128.917180310407,2021-09-27 12:44:50.917
299,-301.0,977.0,-159.0,1034.6066885536743,2021-09-27 12:44:50.924
300,-301.0,977.0,-10.0,1022.3649055009664,2021-09-27 12:44:50.925
301,-215.0,1100.0,40.0,1121.527975576178,2021-09-27 12:44:50.933
302,-120.0,795.0,-34.0,804.7241763486418,2021-09-27 12:44:50.943
303,-526.0,828.0,-34.0,981.537569326819,2021-09-27 12:44:50.953
304,-448.0,828.0,-34.0,942.042461887998,2021-09-27 12:44:50.962
305,-448.0,904.0,9.0,1008.9603560100862,2021-09-27 12:44:50.963
306,-212.0,918.0,42.0,943.0970257614008,2021-09-27 12:44:50.974
307,-208.0,790.0,42.0,818.0024449841211,2021-09-27 12:44:50.984
308,-208.0,790.0,20.0,817.1682813227641,2021-09-27 12:44:50.985
309,7.0,1085.0,-11.0,1085.0783381857736,2021-09-27 12:44:50.992
310,-289.0,1085.0,-11.0,1122.8833421152883,2021-09-27 12:44:51.001
311,-289.0,662.0,8.0,722.3773252255361,2021-09-27 12:44:51.002
312,15.0,1162.0,8.0,1162.1243479077443,2021-09-27 12:44:51.011
313,-25.0,955.0,-53.0,956.7962165477036,2021-09-27 12:44:51.022
314,-247.0,776.0,26.0,814.7766565139185,2021-09-27 12:44:51.031
315,-236.0,1124.0,-60.0,1150.074780177359,2021-09-27 12:44:51.041
316,-93.0,1000.0,8.0,1004.3470515713182,2021-09-27 12:44:51.050
317,-303.0,899.0,-145.0,959.7056840511052,2021-09-27 12:44:51.061
318,-140.0,1125.0,-145.0,1142.912945066246,2021-09-27 12:44:51.070
319,-140.0,1125.0,-183.0,1148.3527332662209,2021-09-27 12:44:51.071
320,-167.0,1189.0,-164.0,1211.819293459219,2021-09-27 12:44:51.080
321,-187.0,1043.0,-164.0,1072.2471729969727,2021-09-27 12:44:51.089
322,-187.0,1043.0,-154.0,1070.7632791611786,2021-09-27 12:44:51.090
323,-228.0,1108.0,-28.0,1131.5617526233375,2021-09-27 12:44:51.099
324,-58.0,1108.0,-28.0,1109.870262688392,2021-09-27 12:44:51.109
325,-58.0,1223.0,-83.0,1227.1845826932474,2021-09-27 12:44:51.110
326,-250.0,848.0,-9.0,884.1295153991863,2021-09-27 12:44:51.133
327,-250.0,987.0,12.0,1018.240148491504,2021-09-27 12:44:51.134
328,-56.0,1141.0,86.0,1145.6059531968224,2021-09-27 12:44:51.138
329,-292.0,708.0,-15.0,765.9980417729539,2021-09-27 12:44:51.148
330,-185.0,1151.0,88.0,1169.0893892256486,2021-09-27 12:44:51.158
331,-265.0,1151.0,88.0,1184.3859168362312,2021-09-27 12:44:51.167
332,-265.0,625.0,-42.0,680.1573347395439,2021-09-27 12:44:51.168
333,-242.0,864.0,-1.0,897.2519155733244,2021-09-27 12:44:51.177
334,-296.0,989.0,6.0,1032.3628238172855,2021-09-27 12:44:51.188
335,-383.0,817.0,53.0,903.8733318336148,2021-09-27 12:44:51.197
336,-225.0,966.0,-61.0,993.7313520262908,2021-09-27 12:44:51.217
337,94.0,1156.0,-17.0,1159.9400846595483,2021-09-27 12:44:51.220
338,-390.0,823.0,-35.0,911.4022163677242,2021-09-27 12:44:51.227
339,-11.0,808.0,107.0,815.1282107742315,2021-09-27 12:44:51.237
340,-1.0,1240.0,188.0,1254.171040966901,2021-09-27 12:44:51.246
341,-148.0,928.0,188.0,958.3485795888676,2021-09-27 12:44:51.255
342,-148.0,928.0,-72.0,942.4818300635828,2021-09-27 12:44:51.256
343,-176.0,905.0,-69.0,924.5333958273222,2021-09-27 12:44:51.266
344,-71.0,1229.0,-69.0,1232.9813461687083,2021-09-27 12:44:51.275
345,-71.0,1229.0,-130.0,1237.8941796454171,2021-09-27 12:44:51.276
346,-299.0,1032.0,-39.0,1075.1492919590285,2021-09-27 12:44:51.286
347,-368.0,1032.0,-39.0,1096.343468079233,2021-09-27 12:44:51.294
348,-368.0,914.0,-90.0,989.4038609182804,2021-09-27 12:44:51.295
349,-281.0,1138.0,-90.0,1175.6296185448884,2021-09-27 12:44:51.304
350,-281.0,1138.0,-97.0,1176.1862097474193,2021-09-27 12:44:51.305
351,-185.0,890.0,-130.0,918.272835272829,2021-09-27 12:44:51.317
352,136.0,1358.0,-130.0,1370.9704592003432,2021-09-27 12:44:51.324
353,136.0,1358.0,-142.0,1372.1603404850323,2021-09-27 12:44:51.325
354,-324.0,1028.0,-119.0,1084.3989118401032,2021-09-27 12:44:51.335
355,-264.0,869.0,110.0,914.8535401909968,2021-09-27 12:44:51.343
356,-54.0,1174.0,12.0,1175.3025142489912,2021-09-27 12:44:51.353
357,-253.0,805.0,29.0,844.3192524158146,2021-09-27 12:44:51.363
358,-355.0,781.0,-18.0,858.0850773670405,2021-09-27 12:44:51.373
359,-285.0,883.0,18.0,928.0290943715072,2021-09-27 12:44:51.384
360,-297.0,1014.0,152.0,1067.4778686230454,2021-09-27 12:44:51.393
361,-419.0,754.0,-94.0,867.7055952337752,2021-09-27 12:44:51.402
362,-24.0,1068.0,-82.0,1071.412152255144,2021-09-27 12:44:51.412
363,-68.0,1097.0,-82.0,1102.1601517021018,2021-09-27 12:44:51.421
364,-68.0,1097.0,82.0,1102.1601517021018,2021-09-27 12:44:51.422
365,-204.0,713.0,17.0,741.8045564702336,2021-09-27 12:44:51.434
366,-159.0,1054.0,-141.0,1075.2106770303203,2021-09-27 12:44:51.442
367,-150.0,933.0,88.0,949.0695443433004,2021-09-27 12:44:51.451
368,34.0,933.0,88.0,937.7574313221944,2021-09-27 12:44:51.460
369,34.0,988.0,-114.0,995.1361715865823,2021-09-27 12:44:51.461
370,-267.0,1056.0,-71.0,1091.5429446430403,2021-09-27 12:44:51.470
371,-203.0,975.0,-71.0,998.4362773857928,2021-09-27 12:44:51.481
372,-203.0,975.0,-64.0,997.9629251630544,2021-09-27 12:44:51.482
373,-70.0,1077.0,-156.0,1090.488422680406,2021-09-27 12:44:51.490
374,-309.0,1077.0,-156.0,1131.258591127599,2021-09-27 12:44:51.499
375,-309.0,1168.0,-142.0,1216.498664199842,2021-09-27 12:44:51.500
376,-243.0,1106.0,-28.0,1132.7263570695263,2021-09-27 12:44:51.509
377,-43.0,1027.0,-136.0,1036.857753021117,2021-09-27 12:44:51.522
378,-133.0,1272.0,-123.0,1284.8353980179718,2021-09-27 12:44:51.529
379,-283.0,955.0,101.0,1001.1568308711678,2021-09-27 12:44:51.540
380,-52.0,829.0,-58.0,832.6517879642125,2021-09-27 12:44:51.549
381,-134.0,1104.0,12.0,1112.1672536089166,2021-09-27 12:44:51.559
382,-472.0,810.0,73.0,940.3260072974692,2021-09-27 12:44:51.568
383,-86.0,683.0,10.0,688.4656854193969,2021-09-27 12:44:51.578
384,-227.0,942.0,10.0,969.0165117272254,2021-09-27 12:44:51.588
385,-227.0,942.0,-25.0,969.2873670898636,2021-09-27 12:44:51.589
386,-209.0,789.0,-62.0,818.5633756771678,2021-09-27 12:44:51.597
387,-237.0,831.0,27.0,864.5571120521766,2021-09-27 12:44:51.607
388,-422.0,1012.0,122.0,1103.227990942942,2021-09-27 12:44:51.617
389,44.0,1012.0,122.0,1020.276433129767,2021-09-27 12:44:51.626
390,44.0,831.0,-74.0,835.4477841253755,2021-09-27 12:44:51.627
391,14.0,831.0,-74.0,834.4057765859486,2021-09-27 12:44:51.637
392,14.0,1158.0,-81.0,1160.9138641604725,2021-09-27 12:44:51.638
393,-367.0,898.0,42.0,971.008238893986,2021-09-27 12:44:51.647
394,70.0,898.0,42.0,901.7028335322008,2021-09-27 12:44:51.664
395,70.0,905.0,-4.0,907.7119587181828,2021-09-27 12:44:51.665
396,-147.0,1063.0,-104.0,1078.143775198837,2021-09-27 12:44:51.667
397,-217.0,1063.0,-104.0,1089.896325344755,2021-09-27 12:44:51.675
398,-217.0,1049.0,94.0,1075.325997081815,2021-09-27 12:44:51.676
399,29.0,961.0,-36.0,962.1112201819496,2021-09-27 12:44:51.687
400,-156.0,1184.0,-327.0,1238.1926344474837,2021-09-27 12:44:51.695
401,-517.0,1184.0,-327.0,1332.6942635128285,2021-09-27 12:44:51.704
402,-517.0,1167.0,-4.0,1276.3988404883482,2021-09-27 12:44:51.705
403,-282.0,1006.0,-4.0,1044.7851453767898,2021-09-27 12:44:51.714
404,-282.0,1006.0,1.0,1044.7779668427163,2021-09-27 12:44:51.715
405,144.0,1006.0,1.0,1016.2543972844596,2021-09-27 12:44:51.725
406,144.0,1180.0,-242.0,1213.136430909566,2021-09-27 12:44:51.726
407,-434.0,1104.0,-49.0,1187.2543956541074,2021-09-27 12:44:51.734
408,-125.0,899.0,93.0,912.4006795262704,2021-09-27 12:44:51.744
409,-492.0,994.0,93.0,1112.991015237769,2021-09-27 12:44:51.753
410,-492.0,994.0,9.0,1109.1352487411082,2021-09-27 12:44:51.754
411,-58.0,1012.0,12.0,1013.7317199338296,2021-09-27 12:44:51.763
412,-84.0,959.0,-116.0,969.63549852509,2021-09-27 12:44:51.773
413,-414.0,872.0,92.0,969.6617967105852,2021-09-27 12:44:51.783
414,-328.0,777.0,22.0,843.6806267776925,2021-09-27 12:44:51.793
415,-264.0,823.0,-24.0,864.6392311247507,2021-09-27 12:44:51.802
416,-422.0,990.0,173.0,1090.00596328644,2021-09-27 12:44:51.812
417,-335.0,791.0,26.0,859.4079357325019,2021-09-27 12:44:51.822
418,158.0,1034.0,-57.0,1047.5538172332722,2021-09-27 12:44:51.832
419,-328.0,885.0,24.0,944.1318763816844,2021-09-27 12:44:51.842
420,-185.0,997.0,164.0,1027.1952102692069,2021-09-27 12:44:51.851
421,55.0,886.0,-142.0,898.9911011795389,2021-09-27 12:44:51.861
422,-129.0,886.0,-142.0,906.5324042746624,2021-09-27 12:44:51.870
423,-129.0,999.0,-127.0,1015.268929890007,2021-09-27 12:44:51.871
424,-389.0,1114.0,-127.0,1186.7796762668293,2021-09-27 12:44:51.880
425,-389.0,1114.0,-82.0,1182.810635731688,2021-09-27 12:44:51.881
426,-145.0,1000.0,-256.0,1042.3823674640705,2021-09-27 12:44:51.898
427,-231.0,1117.0,-111.0,1146.023996258368,2021-09-27 12:44:51.901
428,-43.0,1083.0,-215.0,1104.97194534522,2021-09-27 12:44:51.910
429,-254.0,1038.0,-70.0,1070.9154961993968,2021-09-27 12:44:51.923
430,-271.0,1165.0,60.0,1197.608450203989,2021-09-27 12:44:51.929
431,128.0,1100.0,-155.0,1118.2168841508342,2021-09-27 12:44:51.939
432,-105.0,1162.0,-81.0,1169.5426456525645,2021-09-27 12:44:51.950
433,-344.0,1162.0,-81.0,1214.553827543267,2021-09-27 12:44:51.958
434,-344.0,955.0,97.0,1019.6911297054612,2021-09-27 12:44:51.959
435,28.0,925.0,-94.0,930.1854653777384,2021-09-27 12:44:51.968
436,-129.0,965.0,-64.0,975.6854001162465,2021-09-27 12:44:51.979
437,-460.0,841.0,0.0,958.582808107886,2021-09-27 12:44:51.988
438,-129.0,900.0,44.0,910.2620501811552,2021-09-27 12:44:51.998
439,-297.0,745.0,44.0,803.2247506146707,2021-09-27 12:44:52.007
440,-297.0,745.0,-102.0,808.478818522786,2021-09-27 12:44:52.008
441,-339.0,969.0,157.0,1038.5234710876784,2021-09-27 12:44:52.017
442,50.0,1054.0,3.0,1055.1895564305023,2021-09-27 12:44:52.028
443,44.0,899.0,-69.0,902.7170099206064,2021-09-27 12:44:52.037
444,-563.0,918.0,-69.0,1079.0986979882796,2021-09-27 12:44:52.046
445,-563.0,918.0,18.0,1077.0408534498588,2021-09-27 12:44:52.047
446,-47.0,988.0,45.0,990.1403940856064,2021-09-27 12:44:52.057
447,-354.0,756.0,118.0,843.0753228508115,2021-09-27 12:44:52.066
448,-65.0,967.0,57.0,970.8568380559516,2021-09-27 12:44:52.076
449,-104.0,967.0,57.0,974.245348975298,2021-09-27 12:44:52.085
450,-104.0,944.0,-42.0,950.6397845661626,2021-09-27 12:44:52.086
451,-251.0,1025.0,67.0,1057.4095706016662,2021-09-27 12:44:52.095
452,-6.0,1095.0,-100.0,1099.5730989797814,2021-09-27 12:44:52.106
453,-67.0,1099.0,-220.0,1122.804524394162,2021-09-27 12:44:52.115
454,-426.0,1099.0,-220.0,1199.0316926587054,2021-09-27 12:44:52.124
455,-426.0,1099.0,6.0,1178.691223349016,2021-09-27 12:44:52.125
456,76.0,1097.0,-79.0,1102.4636048414477,2021-09-27 12:44:52.147
457,76.0,1179.0,-183.0,1195.5358631174558,2021-09-27 12:44:52.149
458,-482.0,940.0,-92.0,1060.3716329664803,2021-09-27 12:44:52.154
459,-87.0,1019.0,117.0,1029.3779675124197,2021-09-27 12:44:52.164
460,106.0,1064.0,117.0,1075.649106353926,2021-09-27 12:44:52.173
461,106.0,1064.0,-47.0,1070.2994907968516,2021-09-27 12:44:52.174
462,-372.0,766.0,-108.0,858.3728793478974,2021-09-27 12:44:52.183
463,-433.0,766.0,-108.0,886.5150872940629,2021-09-27 12:44:52.193
464,-433.0,928.0,67.0,1026.2368147752252,2021-09-27 12:44:52.194
465,-130.0,867.0,-47.0,877.9510236909574,2021-09-27 12:44:52.204
466,-283.0,882.0,-47.0,927.4815362043604,2021-09-27 12:44:52.212
467,-283.0,882.0,134.0,935.9321556608684,2021-09-27 12:44:52.213
468,-167.0,812.0,-59.0,831.0920526632414,2021-09-27 12:44:52.232
469,-330.0,926.0,-10.0,983.0951123874028,2021-09-27 12:44:52.236
470,-444.0,926.0,-10.0,1026.991723433057,2021-09-27 12:44:52.242
471,-444.0,1056.0,122.0,1152.0225692233637,2021-09-27 12:44:52.243
472,217.0,908.0,122.0,941.5078332122362,2021-09-27 12:44:52.252
473,217.0,908.0,38.0,934.3430847392192,2021-09-27 12:44:52.253
474,-198.0,776.0,-43.0,802.0155858834664,2021-09-27 12:44:52.261
475,-188.0,1126.0,121.0,1147.9812716242368,2021-09-27 12:44:52.271
476,10.0,946.0,-29.0,946.4972266203424,2021-09-27 12:44:52.281
477,-47.0,810.0,-128.0,821.3969807589993,2021-09-27 12:44:52.291
478,-155.0,1178.0,-37.0,1188.7295739570038,2021-09-27 12:44:52.301
479,-32.0,1065.0,-117.0,1071.8852550529837,2021-09-27 12:44:52.310
480,-152.0,995.0,-221.0,1030.5192865735216,2021-09-27 12:44:52.320
481,-307.0,1169.0,-67.0,1210.4953531509325,2021-09-27 12:44:52.330
482,-27.0,1204.0,-82.0,1207.0911316052322,2021-09-27 12:44:52.340
483,-179.0,1148.0,-121.0,1168.154955474658,2021-09-27 12:44:52.350
484,-421.0,872.0,114.0,974.9979487157908,2021-09-27 12:44:52.359
485,-200.0,1129.0,-110.0,1151.8424371414694,2021-09-27 12:44:52.369
486,-233.0,939.0,-110.0,973.7094022345682,2021-09-27 12:44:52.378
487,-233.0,939.0,77.0,970.5354192403285,2021-09-27 12:44:52.379
488,-55.0,1067.0,-5.0,1068.4282849120011,2021-09-27 12:44:52.390
489,-141.0,833.0,-11.0,844.9207063387664,2021-09-27 12:44:52.400
490,-296.0,890.0,-37.0,938.6612807610636,2021-09-27 12:44:52.408
491,6.0,973.0,-37.0,973.7217261620488,2021-09-27 12:44:52.417
492,6.0,973.0,225.0,998.6941473744602,2021-09-27 12:44:52.418
493,-225.0,749.0,6.0,782.0882303167591,2021-09-27 12:44:52.427
494,-253.0,749.0,6.0,790.5985074612777,2021-09-27 12:44:52.437
495,-253.0,854.0,54.0,892.323371878155,2021-09-27 12:44:52.438
496,-178.0,1043.0,69.0,1060.327307957312,2021-09-27 12:44:52.447
497,-184.0,1043.0,69.0,1061.351025815682,2021-09-27 12:44:52.456
498,-184.0,953.0,-71.0,973.1937114470068,2021-09-27 12:44:52.457
499,-133.0,886.0,-36.0,896.6498759270532,2021-09-27 12:44:52.466
500,-245.0,1096.0,41.0,1123.798024557794,2021-09-27 12:44:52.476
501,-315.0,1016.0,-113.0,1069.6962185592693,2021-09-27 12:44:52.486
502,-240.0,1016.0,-113.0,1050.0595221224366,2021-09-27 12:44:52.496
503,-240.0,1059.0,25.0,1086.1427162210314,2021-09-27 12:44:52.497
504,-16.0,1154.0,4.0,1154.1178449361223,2021-09-27 12:44:52.506
505,-55.0,1025.0,-154.0,1037.962427065643,2021-09-27 12:44:52.518
506,-79.0,1160.0,-55.0,1163.9871133307277,2021-09-27 12:44:52.525
507,-174.0,1096.0,-60.0,1111.3469305306962,2021-09-27 12:44:52.536
508,-193.0,1096.0,-60.0,1114.4796992318882,2021-09-27 12:44:52.544
509,-193.0,1006.0,-124.0,1031.824112918476,2021-09-27 12:44:52.545
510,-159.0,1133.0,-24.0,1144.3539662184949,2021-09-27 12:44:52.555
511,-244.0,1008.0,-32.0,1037.604934452415,2021-09-27 12:44:52.564
512,-176.0,906.0,-71.0,925.663545787561,2021-09-27 12:44:52.574
513,-241.0,906.0,-71.0,940.1904062475857,2021-09-27 12:44:52.585
514,-241.0,1088.0,-40.0,1115.089682491951,2021-09-27 12:44:52.586
515,-200.0,945.0,26.0,966.2820499212432,2021-09-27 12:44:52.593
516,-204.0,840.0,-2.0,864.4188799418948,2021-09-27 12:44:52.604
517,-148.0,945.0,-37.0,957.2345585069525,2021-09-27 12:44:52.613
518,-248.0,945.0,-37.0,977.7003630969972,2021-09-27 12:44:52.622
519,-248.0,952.0,36.0,984.4308000057698,2021-09-27 12:44:52.623
520,-229.0,854.0,36.0,884.9028195231384,2021-09-27 12:44:52.632
521,-229.0,854.0,31.0,884.7135129520742,2021-09-27 12:44:52.633
522,-84.0,933.0,108.0,942.9787908537498,2021-09-27 12:44:52.643
523,-201.0,967.0,28.0,988.0657872834176,2021-09-27 12:44:52.653
524,-94.0,823.0,-121.0,837.1415650892028,2021-09-27 12:44:52.662
525,-300.0,1109.0,-28.0,1149.2018969702408,2021-09-27 12:44:52.681
526,-118.0,825.0,-28.0,833.8662962369926,2021-09-27 12:44:52.683
527,-118.0,825.0,-88.0,838.0292357668675,2021-09-27 12:44:52.684
528,-104.0,1095.0,-103.0,1104.7397883664732,2021-09-27 12:44:52.692
529,-192.0,1081.0,24.0,1098.1807683619304,2021-09-27 12:44:52.702
