,Acceleration_X,Acceleration_Y,Acceleration_Z,magnitude,time_stamp
0,-126.0,1001.0,22.0,1009.1387417000695,2021-08-31 10:45:31.247
1,-46.0,954.0,90.0,959.339356015378,2021-08-31 10:45:31.257
2,-183.0,954.0,90.0,975.5536889377232,2021-08-31 10:45:31.266
3,-183.0,950.0,-51.0,968.808546617958,2021-08-31 10:45:31.267
4,-24.0,1052.0,-51.0,1053.5088988708164,2021-08-31 10:45:31.276
5,-24.0,1052.0,68.0,1054.4685865401586,2021-08-31 10:45:31.277
6,-95.0,983.0,68.0,989.9181784369856,2021-08-31 10:45:31.286
7,-95.0,983.0,-75.0,990.4236467290146,2021-08-31 10:45:31.287
8,-263.0,888.0,-91.0,930.5879861678852,2021-08-31 10:45:31.296
9,-144.0,1040.0,-39.0,1050.6459917593556,2021-08-31 10:45:31.311
10,0.0,1104.0,-33.0,1104.493096402146,2021-08-31 10:45:31.316
11,-172.0,880.0,-137.0,907.0573300514142,2021-08-31 10:45:31.325
12,-199.0,880.0,-137.0,912.56232663857,2021-08-31 10:45:31.337
13,-199.0,1062.0,-99.0,1085.0096773761975,2021-08-31 10:45:31.338
14,-196.0,1107.0,36.0,1124.7937588731545,2021-08-31 10:45:31.345
15,-234.0,958.0,36.0,986.8211590759493,2021-08-31 10:45:31.354
16,-234.0,958.0,-125.0,994.0548274617452,2021-08-31 10:45:31.355
17,-254.0,1009.0,-81.0,1043.6273281205315,2021-08-31 10:45:31.364
18,-191.0,1111.0,-81.0,1130.2048486889446,2021-08-31 10:45:31.374
19,-191.0,1111.0,-46.0,1128.236677297809,2021-08-31 10:45:31.375
20,-125.0,997.0,-80.0,1007.9851189377748,2021-08-31 10:45:31.385
21,-163.0,1080.0,-54.0,1093.565270114226,2021-08-31 10:45:31.395
22,-184.0,1083.0,-30.0,1098.929024095733,2021-08-31 10:45:31.403
23,-80.0,826.0,-31.0,830.4438572233526,2021-08-31 10:45:31.413
24,-194.0,1033.0,14.0,1051.1522249417542,2021-08-31 10:45:31.423
25,-140.0,1015.0,5.0,1024.621881476284,2021-08-31 10:45:31.433
26,-110.0,819.0,-15.0,826.4901693305251,2021-08-31 10:45:31.442
27,-194.0,819.0,-15.0,841.7968876160091,2021-08-31 10:45:31.452
28,-194.0,940.0,-124.0,967.787166684907,2021-08-31 10:45:31.453
29,-210.0,1007.0,54.0,1030.0800939732794,2021-08-31 10:45:31.462
30,-125.0,933.0,58.0,943.1214131807208,2021-08-31 10:45:31.472
31,-61.0,932.0,-184.0,951.945901824258,2021-08-31 10:45:31.482
32,-241.0,1049.0,-36.0,1076.929895582809,2021-08-31 10:45:31.492
33,-178.0,1047.0,40.0,1062.7760817782832,2021-08-31 10:45:31.501
34,-78.0,984.0,-99.0,992.0388097247004,2021-08-31 10:45:31.511
35,-111.0,1027.0,40.0,1033.755290192026,2021-08-31 10:45:31.521
36,-100.0,1031.0,-135.0,1044.5984874582196,2021-08-31 10:45:31.530
37,-132.0,969.0,-78.0,981.0550443272792,2021-08-31 10:45:31.540
38,-161.0,1105.0,4.0,1116.6745273355168,2021-08-31 10:45:31.551
39,-209.0,1105.0,4.0,1124.5985950551424,2021-08-31 10:45:31.559
40,-209.0,952.0,-127.0,982.9109827446229,2021-08-31 10:45:31.560
41,-228.0,1052.0,-31.0,1076.8700014393569,2021-08-31 10:45:31.569
42,-157.0,1052.0,-31.0,1064.1024386777806,2021-08-31 10:45:31.579
43,-157.0,1035.0,-58.0,1048.4455159902209,2021-08-31 10:45:31.580
44,-122.0,1002.0,-92.0,1013.5837409903536,2021-08-31 10:45:31.589
45,-223.0,1002.0,-92.0,1030.6294193355825,2021-08-31 10:45:31.599
46,-223.0,996.0,-59.0,1022.3629492504116,2021-08-31 10:45:31.600
47,-164.0,961.0,58.0,976.6171204725013,2021-08-31 10:45:31.609
48,-194.0,1054.0,58.0,1073.273497296938,2021-08-31 10:45:31.618
49,-194.0,1054.0,1.0,1071.705649887132,2021-08-31 10:45:31.619
50,-198.0,1054.0,1.0,1072.436944533337,2021-08-31 10:45:31.628
51,-198.0,915.0,-51.0,937.5659976769635,2021-08-31 10:45:31.629
52,-214.0,913.0,28.0,938.1625658701162,2021-08-31 10:45:31.638
53,-174.0,842.0,28.0,860.2464763078079,2021-08-31 10:45:31.648
54,-174.0,842.0,-16.0,859.9395327579724,2021-08-31 10:45:31.649
55,-196.0,927.0,-29.0,947.937761670037,2021-08-31 10:45:31.661
56,-236.0,1029.0,-26.0,1056.0364577039943,2021-08-31 10:45:31.667
57,-179.0,884.0,51.0,903.3814255340876,2021-08-31 10:45:31.695
58,-72.0,884.0,51.0,888.3923682697865,2021-08-31 10:45:31.704
59,-72.0,912.0,-38.0,915.6265614321156,2021-08-31 10:45:31.705
60,-149.0,1128.0,-58.0,1139.27564706703,2021-08-31 10:45:31.708
61,-121.0,966.0,-25.0,973.8696011273788,2021-08-31 10:45:31.710
62,-38.0,966.0,-25.0,967.070318022428,2021-08-31 10:45:31.723
63,-38.0,915.0,-54.0,917.3794198694452,2021-08-31 10:45:31.724
64,-160.0,1142.0,-104.0,1157.834185019599,2021-08-31 10:45:31.730
65,-132.0,1012.0,-15.0,1020.6826147240874,2021-08-31 10:45:31.735
66,-134.0,1012.0,-15.0,1020.9431913676686,2021-08-31 10:45:31.745
67,-134.0,915.0,-59.0,926.640167486819,2021-08-31 10:45:31.746
68,-245.0,1034.0,-129.0,1070.4307544161836,2021-08-31 10:45:31.756
69,-297.0,1120.0,35.0,1159.2385431825496,2021-08-31 10:45:31.765
70,-310.0,1030.0,-78.0,1078.4637221529522,2021-08-31 10:45:31.776
71,-255.0,1113.0,1.0,1141.8384299015338,2021-08-31 10:45:31.784
72,-103.0,935.0,-55.0,942.2627022226868,2021-08-31 10:45:31.794
73,-171.0,1076.0,-102.0,1094.2673347952957,2021-08-31 10:45:31.804
74,-250.0,1061.0,10.0,1090.1013714329508,2021-08-31 10:45:31.813
75,-107.0,920.0,59.0,928.0786604593384,2021-08-31 10:45:31.824
76,-174.0,954.0,-73.0,972.481876437808,2021-08-31 10:45:31.832
77,-152.0,1016.0,26.0,1027.6361223701704,2021-08-31 10:45:31.843
78,-95.0,925.0,-4.0,929.8741850379544,2021-08-31 10:45:31.853
79,-156.0,875.0,-149.0,901.2003106967952,2021-08-31 10:45:31.863
80,-250.0,875.0,-149.0,922.1312271038216,2021-08-31 10:45:31.873
81,-250.0,977.0,61.0,1010.32173093525,2021-08-31 10:45:31.874
82,-106.0,979.0,19.0,984.9050715678136,2021-08-31 10:45:31.888
83,-96.0,1007.0,-100.0,1016.4964338353578,2021-08-31 10:45:31.892
84,-266.0,915.0,-65.0,955.0947596966492,2021-08-31 10:45:31.902
85,-163.0,981.0,-85.0,998.075648435528,2021-08-31 10:45:31.912
86,-242.0,851.0,-12.0,884.821450915381,2021-08-31 10:45:31.923
87,-140.0,1141.0,-13.0,1149.6303753815832,2021-08-31 10:45:31.932
88,-83.0,1062.0,-13.0,1065.3177929613305,2021-08-31 10:45:31.940
89,-83.0,1062.0,-43.0,1066.105998482327,2021-08-31 10:45:31.941
90,-188.0,898.0,-79.0,920.8631820200002,2021-08-31 10:45:31.950
91,-134.0,1079.0,-31.0,1087.7306651924457,2021-08-31 10:45:31.960
92,-212.0,1038.0,-47.0,1060.4701787414865,2021-08-31 10:45:31.971
93,-219.0,1038.0,-47.0,1061.8917082264086,2021-08-31 10:45:31.980
94,-219.0,954.0,-61.0,980.7130059298694,2021-08-31 10:45:31.981
95,-134.0,1004.0,-72.0,1015.4585171241612,2021-08-31 10:45:31.989
96,-159.0,1122.0,-59.0,1134.7449052540398,2021-08-31 10:45:31.999
97,-168.0,939.0,-77.0,957.0130615618576,2021-08-31 10:45:32.009
98,-193.0,946.0,-77.0,968.5525282605998,2021-08-31 10:45:32.019
99,-193.0,946.0,20.0,965.694050929175,2021-08-31 10:45:32.020
100,-195.0,946.0,20.0,966.0957509481138,2021-08-31 10:45:32.028
101,-195.0,1094.0,15.0,1111.3442311003373,2021-08-31 10:45:32.029
102,-162.0,874.0,15.0,889.0134982102353,2021-08-31 10:45:32.038
103,-162.0,874.0,-2.0,888.8891944443919,2021-08-31 10:45:32.039
104,-204.0,1076.0,16.0,1095.2844379429482,2021-08-31 10:45:32.048
105,-219.0,927.0,-34.0,953.1243360653424,2021-08-31 10:45:32.058
106,-147.0,871.0,-5.0,883.3317610048899,2021-08-31 10:45:32.068
107,-208.0,1029.0,-62.0,1051.6410984741894,2021-08-31 10:45:32.079
108,-185.0,904.0,75.0,925.778591240908,2021-08-31 10:45:32.088
109,-55.0,932.0,-3.0,933.6262635551766,2021-08-31 10:45:32.097
110,-121.0,1030.0,-130.0,1045.1990241097626,2021-08-31 10:45:32.106
111,-199.0,1030.0,-130.0,1057.071899162966,2021-08-31 10:45:32.116
112,-199.0,1036.0,-10.0,1054.9867297743608,2021-08-31 10:45:32.117
113,-39.0,1036.0,-10.0,1036.7820407395182,2021-08-31 10:45:32.126
114,-39.0,967.0,-58.0,969.5225629143448,2021-08-31 10:45:32.127
115,-114.0,1031.0,-102.0,1042.2864289627876,2021-08-31 10:45:32.137
116,-219.0,1031.0,-102.0,1058.9268152237903,2021-08-31 10:45:32.145
117,-219.0,1076.0,-17.0,1098.1921507641548,2021-08-31 10:45:32.146
118,-149.0,964.0,-17.0,975.5952029402358,2021-08-31 10:45:32.155
119,-149.0,964.0,-61.0,977.3525464232443,2021-08-31 10:45:32.156
120,-185.0,1088.0,5.0,1103.6276546009528,2021-08-31 10:45:32.165
121,-148.0,923.0,-28.0,935.209602174828,2021-08-31 10:45:32.176
122,-256.0,938.0,-28.0,972.7096175118244,2021-08-31 10:45:32.185
123,-256.0,938.0,-181.0,989.0101111717717,2021-08-31 10:45:32.186
124,-272.0,938.0,-181.0,993.27186610716,2021-08-31 10:45:32.194
125,-272.0,1153.0,20.0,1184.8177074976554,2021-08-31 10:45:32.195
126,-96.0,1010.0,-54.0,1015.9881889077254,2021-08-31 10:45:32.204
127,-140.0,986.0,-100.0,1000.8975971596694,2021-08-31 10:45:32.214
128,-268.0,1081.0,-22.0,1113.942996746243,2021-08-31 10:45:32.224
129,-148.0,958.0,67.0,971.6774156066404,2021-08-31 10:45:32.235
130,-180.0,941.0,-33.0,958.6292296816324,2021-08-31 10:45:32.245
131,-183.0,958.0,-50.0,976.6027851690778,2021-08-31 10:45:32.253
132,-118.0,974.0,18.0,981.2869101338304,2021-08-31 10:45:32.263
133,-183.0,905.0,-117.0,930.7002739872812,2021-08-31 10:45:32.272
134,-196.0,877.0,-4.0,898.6439784475274,2021-08-31 10:45:32.283
135,-149.0,1062.0,49.0,1073.5203770772123,2021-08-31 10:45:32.293
136,-161.0,874.0,10.0,888.7614978159214,2021-08-31 10:45:32.302
137,-118.0,985.0,10.0,992.0932415856888,2021-08-31 10:45:32.311
138,-118.0,985.0,-7.0,992.0675380234956,2021-08-31 10:45:32.312
139,-197.0,985.0,-7.0,1004.5312339594026,2021-08-31 10:45:32.321
140,-197.0,1106.0,-37.0,1124.016903787483,2021-08-31 10:45:32.322
141,-262.0,816.0,-16.0,857.1790944720946,2021-08-31 10:45:32.332
142,-48.0,1022.0,-28.0,1023.5096482202794,2021-08-31 10:45:32.342
143,-153.0,1218.0,-61.0,1229.0866527629369,2021-08-31 10:45:32.351
144,-195.0,866.0,-51.0,889.1467820332028,2021-08-31 10:45:32.360
145,-155.0,1034.0,-42.0,1046.3961964762675,2021-08-31 10:45:32.370
146,-243.0,1045.0,-81.0,1075.9344775589263,2021-08-31 10:45:32.380
147,-260.0,1018.0,-19.0,1050.849656230614,2021-08-31 10:45:32.390
148,-145.0,1018.0,-19.0,1028.4502904856413,2021-08-31 10:45:32.400
149,-145.0,949.0,-68.0,962.418827746008,2021-08-31 10:45:32.401
150,-162.0,1072.0,-65.0,1086.1183176799846,2021-08-31 10:45:32.409
151,-110.0,903.0,-81.0,913.274328994306,2021-08-31 10:45:32.419
152,-191.0,1166.0,-105.0,1186.196442415842,2021-08-31 10:45:32.429
153,-212.0,977.0,-105.0,1005.2352958387404,2021-08-31 10:45:32.439
154,-212.0,977.0,31.0,1000.2169764606076,2021-08-31 10:45:32.440
155,-154.0,977.0,31.0,989.5483818389074,2021-08-31 10:45:32.448
156,-154.0,885.0,-10.0,898.3546070455698,2021-08-31 10:45:32.449
157,-220.0,1047.0,-54.0,1071.2259332185718,2021-08-31 10:45:32.458
158,-239.0,948.0,34.0,978.2540569811096,2021-08-31 10:45:32.468
159,-157.0,874.0,-17.0,888.1520140156189,2021-08-31 10:45:32.478
160,-222.0,874.0,-17.0,901.9140757300552,2021-08-31 10:45:32.487
161,-222.0,916.0,-96.0,947.394321283382,2021-08-31 10:45:32.488
162,-246.0,916.0,-96.0,953.3037291440752,2021-08-31 10:45:32.497
163,-246.0,1023.0,96.0,1056.5325361767143,2021-08-31 10:45:32.498
164,-69.0,897.0,0.0,899.6499319179655,2021-08-31 10:45:32.508
165,-131.0,897.0,0.0,906.5153059932304,2021-08-31 10:45:32.516
166,-131.0,1007.0,-135.0,1024.4193477282631,2021-08-31 10:45:32.517
167,-279.0,1062.0,11.0,1098.091981575314,2021-08-31 10:45:32.526
168,0.0,971.0,0.0,971.0,2021-08-31 10:45:32.537
169,-117.0,1007.0,-119.0,1020.7345394371644,2021-08-31 10:45:32.546
170,-31.0,1013.0,-13.0,1013.5575957980878,2021-08-31 10:45:32.557
171,-148.0,965.0,-13.0,976.3698069891346,2021-08-31 10:45:32.565
172,-148.0,965.0,-152.0,988.0450394592344,2021-08-31 10:45:32.566
173,-158.0,1093.0,-11.0,1104.4156826123033,2021-08-31 10:45:32.576
174,-177.0,1093.0,-11.0,1107.293547348669,2021-08-31 10:45:32.585
175,-177.0,989.0,-54.0,1006.1640025363658,2021-08-31 10:45:32.586
176,-215.0,981.0,-96.0,1008.8617348279198,2021-08-31 10:45:32.595
177,-294.0,981.0,-96.0,1028.5975889530366,2021-08-31 10:45:32.604
178,-294.0,1078.0,-51.0,1118.5352028434331,2021-08-31 10:45:32.605
179,-151.0,1078.0,-51.0,1089.718312225687,2021-08-31 10:45:32.614
180,-151.0,1027.0,-36.0,1038.6654899437065,2021-08-31 10:45:32.615
181,-151.0,1067.0,-69.0,1079.8384138379224,2021-08-31 10:45:32.624
182,-234.0,930.0,-54.0,960.5061165864588,2021-08-31 10:45:32.634
183,-164.0,996.0,63.0,1011.3757956368148,2021-08-31 10:45:32.644
184,-195.0,1037.0,63.0,1057.053924830706,2021-08-31 10:45:32.654
185,-195.0,1037.0,-10.0,1055.2222514712244,2021-08-31 10:45:32.655
186,-168.0,873.0,-21.0,889.2659894542239,2021-08-31 10:45:32.665
187,-140.0,934.0,-17.0,944.5872114315332,2021-08-31 10:45:32.673
188,-167.0,879.0,-11.0,894.7910370583737,2021-08-31 10:45:32.683
189,-125.0,969.0,-11.0,977.0910909429068,2021-08-31 10:45:32.694
190,-225.0,1029.0,-31.0,1053.7680010324852,2021-08-31 10:45:32.725
191,-198.0,787.0,-21.0,811.7967725976742,2021-08-31 10:45:32.737
192,-198.0,1154.0,-21.0,1171.051237136958,2021-08-31 10:45:32.742
193,-198.0,1154.0,-40.0,1171.545987146898,2021-08-31 10:45:32.743
194,-260.0,858.0,-11.0,896.5963417279819,2021-08-31 10:45:32.750
195,-23.0,977.0,-67.0,979.564699241454,2021-08-31 10:45:32.753
196,-156.0,1178.0,-45.0,1189.1362411431248,2021-08-31 10:45:32.762
197,-245.0,937.0,9.0,968.5427197599496,2021-08-31 10:45:32.772
198,-109.0,939.0,-113.0,952.0351884253018,2021-08-31 10:45:32.780
199,-253.0,1085.0,-46.0,1115.056052402748,2021-08-31 10:45:32.790
200,-269.0,1097.0,-13.0,1129.574698725144,2021-08-31 10:45:32.800
201,-297.0,1017.0,-13.0,1059.559814262508,2021-08-31 10:45:32.809
202,-297.0,1017.0,-109.0,1065.0722980154917,2021-08-31 10:45:32.810
203,-202.0,1159.0,20.0,1176.6414067165915,2021-08-31 10:45:32.820
204,-79.0,908.0,-83.0,915.2016171314384,2021-08-31 10:45:32.830
205,-116.0,973.0,-150.0,991.304695842807,2021-08-31 10:45:32.839
206,-298.0,1109.0,52.0,1149.5168550308429,2021-08-31 10:45:32.849
207,-85.0,939.0,52.0,944.2722065167436,2021-08-31 10:45:32.858
208,-85.0,939.0,7.0,942.8653138174084,2021-08-31 10:45:32.859
209,-199.0,928.0,-59.0,950.9290194331016,2021-08-31 10:45:32.870
210,-271.0,928.0,-59.0,968.5587230519376,2021-08-31 10:45:32.878
211,-271.0,961.0,-6.0,998.4978718054437,2021-08-31 10:45:32.879
212,-115.0,1014.0,46.0,1021.536587695223,2021-08-31 10:45:32.888
213,-183.0,883.0,-95.0,906.754101176278,2021-08-31 10:45:32.902
214,-217.0,883.0,-95.0,914.2226205908491,2021-08-31 10:45:32.906
215,-217.0,897.0,-5.0,922.8884006205734,2021-08-31 10:45:32.907
216,-141.0,1083.0,73.0,1094.5770872807452,2021-08-31 10:45:32.918
217,-56.0,980.0,-129.0,990.038888125108,2021-08-31 10:45:32.927
218,-79.0,1028.0,-20.0,1031.2249996969624,2021-08-31 10:45:32.936
219,-96.0,1066.0,-85.0,1073.6838454591743,2021-08-31 10:45:32.948
220,-244.0,918.0,-27.0,950.2573335681236,2021-08-31 10:45:32.956
221,-25.0,1059.0,-27.0,1059.639089501704,2021-08-31 10:45:32.966
222,-25.0,1059.0,40.0,1060.0499988208103,2021-08-31 10:45:32.967
223,-169.0,1059.0,40.0,1073.1458428377755,2021-08-31 10:45:32.975
224,-169.0,1046.0,-90.0,1063.3799885271492,2021-08-31 10:45:32.976
225,-187.0,911.0,-72.0,932.777572629188,2021-08-31 10:45:32.985
226,-188.0,1030.0,-72.0,1049.4893996606158,2021-08-31 10:45:32.995
227,-188.0,1030.0,-29.0,1047.4182545669137,2021-08-31 10:45:32.996
228,-253.0,1062.0,-99.0,1096.1997993066775,2021-08-31 10:45:33.005
229,-262.0,1009.0,-37.0,1043.1174430523151,2021-08-31 10:45:33.015
230,-146.0,982.0,-89.0,996.775300657074,2021-08-31 10:45:33.024
231,-126.0,1102.0,-73.0,1111.5795068280092,2021-08-31 10:45:33.034
232,-312.0,955.0,-11.0,1004.7337955896576,2021-08-31 10:45:33.045
233,-127.0,891.0,32.0,900.5742612355741,2021-08-31 10:45:33.055
234,-169.0,884.0,26.0,900.3849176879853,2021-08-31 10:45:33.064
235,-111.0,948.0,-17.0,954.627676112525,2021-08-31 10:45:33.073
236,-233.0,1073.0,-24.0,1098.2686374471411,2021-08-31 10:45:33.083
237,-157.0,940.0,45.0,954.0828056306224,2021-08-31 10:45:33.093
238,-102.0,874.0,-62.0,882.1133713984841,2021-08-31 10:45:33.104
239,-283.0,1014.0,-68.0,1054.9450222641935,2021-08-31 10:45:33.113
240,-210.0,978.0,112.0,1006.5425972108682,2021-08-31 10:45:33.122
241,-52.0,847.0,-60.0,850.7132301780665,2021-08-31 10:45:33.132
242,-177.0,1160.0,-74.0,1175.7572028271825,2021-08-31 10:45:33.142
243,-339.0,1160.0,-74.0,1210.7836305467629,2021-08-31 10:45:33.151
244,-339.0,982.0,40.0,1039.6369558648826,2021-08-31 10:45:33.152
245,14.0,891.0,40.0,892.0072869657512,2021-08-31 10:45:33.160
246,14.0,891.0,-37.0,891.8777943193787,2021-08-31 10:45:33.161
247,-176.0,1101.0,-84.0,1118.138184662343,2021-08-31 10:45:33.171
248,-219.0,1101.0,-84.0,1125.7077773560952,2021-08-31 10:45:33.180
249,-219.0,1062.0,-32.0,1084.817496171591,2021-08-31 10:45:33.181
250,-117.0,1062.0,-32.0,1068.904579464416,2021-08-31 10:45:33.190
251,-117.0,947.0,-38.0,954.956543513892,2021-08-31 10:45:33.191
252,-179.0,1089.0,-3.0,1103.6172343706853,2021-08-31 10:45:33.201
253,-123.0,1089.0,-3.0,1095.9283735719227,2021-08-31 10:45:33.211
254,-123.0,951.0,-96.0,963.7146880690364,2021-08-31 10:45:33.212
255,-305.0,965.0,-74.0,1014.7541574194216,2021-08-31 10:45:33.220
256,-244.0,1152.0,-74.0,1179.8796548801067,2021-08-31 10:45:33.229
257,-244.0,1152.0,-11.0,1177.6081691292736,2021-08-31 10:45:33.230
258,-96.0,946.0,-73.0,953.6566468074344,2021-08-31 10:45:33.239
259,-127.0,1051.0,-124.0,1065.8827327619113,2021-08-31 10:45:33.251
260,-315.0,1051.0,-124.0,1104.1748050014544,2021-08-31 10:45:33.259
261,-315.0,1042.0,-39.0,1089.270398018784,2021-08-31 10:45:33.260
262,-184.0,961.0,70.0,980.957185610055,2021-08-31 10:45:33.269
263,-234.0,919.0,-42.0,949.2528640989186,2021-08-31 10:45:33.278
264,-224.0,919.0,16.0,946.0406967990332,2021-08-31 10:45:33.288
265,-162.0,1020.0,62.0,1034.6439000931673,2021-08-31 10:45:33.298
266,-144.0,871.0,62.0,884.997740110109,2021-08-31 10:45:33.309
267,-144.0,871.0,-65.0,885.2129687256056,2021-08-31 10:45:33.310
268,-224.0,860.0,0.0,888.6934229530451,2021-08-31 10:45:33.317
269,-197.0,919.0,-8.0,939.911697980188,2021-08-31 10:45:33.328
270,-175.0,827.0,-29.0,845.8102624111391,2021-08-31 10:45:33.337
271,-150.0,1078.0,35.0,1088.94857546167,2021-08-31 10:45:33.347
272,-92.0,1079.0,-43.0,1083.7684254489056,2021-08-31 10:45:33.358
273,-247.0,826.0,-56.0,863.9565961320047,2021-08-31 10:45:33.367
274,-111.0,826.0,-56.0,835.3041362282363,2021-08-31 10:45:33.376
275,-111.0,1103.0,-1.0,1108.5716034609582,2021-08-31 10:45:33.377
276,-143.0,1070.0,-80.0,1082.473556258997,2021-08-31 10:45:33.386
277,-183.0,1070.0,-80.0,1088.4801330295377,2021-08-31 10:45:33.395
278,-183.0,927.0,-63.0,946.9883843004624,2021-08-31 10:45:33.396
279,-247.0,984.0,-47.0,1015.615084566983,2021-08-31 10:45:33.405
280,-254.0,1107.0,-58.0,1137.2462354301288,2021-08-31 10:45:33.416
281,-251.0,1026.0,-33.0,1056.7714984801587,2021-08-31 10:45:33.425
282,-159.0,1026.0,-33.0,1038.7713896714715,2021-08-31 10:45:33.434
283,-159.0,903.0,-73.0,919.7929114751864,2021-08-31 10:45:33.435
284,-151.0,1173.0,-43.0,1183.4606034845435,2021-08-31 10:45:33.444
285,-281.0,939.0,-43.0,981.0866424531524,2021-08-31 10:45:33.458
286,-281.0,939.0,-5.0,980.1566201378226,2021-08-31 10:45:33.459
287,-184.0,1096.0,-82.0,1114.3590085784742,2021-08-31 10:45:33.465
288,-295.0,957.0,40.0,1002.2345034970608,2021-08-31 10:45:33.474
289,-131.0,909.0,19.0,918.5875026365208,2021-08-31 10:45:33.484
290,-212.0,1017.0,-13.0,1038.942731819228,2021-08-31 10:45:33.493
291,-241.0,1001.0,20.0,1029.797067387551,2021-08-31 10:45:33.503
292,-91.0,1001.0,20.0,1005.3268125341132,2021-08-31 10:45:33.513
293,-91.0,821.0,-54.0,827.7910364337125,2021-08-31 10:45:33.514
294,-278.0,987.0,-66.0,1027.525668779131,2021-08-31 10:45:33.523
295,-252.0,1000.0,129.0,1039.3002453574231,2021-08-31 10:45:33.533
296,-152.0,846.0,11.0,859.616775080617,2021-08-31 10:45:33.542
297,-115.0,1090.0,-125.0,1103.1545675924112,2021-08-31 10:45:33.552
298,-337.0,994.0,45.0,1050.5379574294304,2021-08-31 10:45:33.562
299,-75.0,994.0,45.0,997.8406686440476,2021-08-31 10:45:33.572
300,-75.0,989.0,-36.0,992.4928211327274,2021-08-31 10:45:33.573
301,-101.0,1029.0,-36.0,1034.571408845228,2021-08-31 10:45:33.580
302,-101.0,1029.0,-127.0,1041.7154121927929,2021-08-31 10:45:33.581
303,7.0,941.0,-22.0,941.2831667463304,2021-08-31 10:45:33.591
304,-155.0,975.0,-22.0,987.4887341129518,2021-08-31 10:45:33.600
305,-155.0,975.0,-99.0,992.1950413099232,2021-08-31 10:45:33.601
306,-235.0,1099.0,-40.0,1124.5559123494038,2021-08-31 10:45:33.610
307,-106.0,1007.0,-40.0,1013.3533441006646,2021-08-31 10:45:33.620
308,-106.0,1007.0,-19.0,1012.741822973654,2021-08-31 10:45:33.621
309,-251.0,1007.0,-19.0,1037.9841039245257,2021-08-31 10:45:33.630
310,-251.0,922.0,-109.0,961.7515271628114,2021-08-31 10:45:33.631
311,-288.0,1122.0,-21.0,1158.563334479389,2021-08-31 10:45:33.640
312,-151.0,1075.0,-21.0,1085.7564183554248,2021-08-31 10:45:33.649
313,-151.0,1075.0,-12.0,1085.6196387317243,2021-08-31 10:45:33.650
314,-98.0,943.0,-12.0,948.1545232713916,2021-08-31 10:45:33.659
315,-98.0,943.0,-71.0,950.7334011172638,2021-08-31 10:45:33.660
316,-352.0,1041.0,-44.0,1099.7822511752042,2021-08-31 10:45:33.672
317,-212.0,968.0,51.0,992.2545036430926,2021-08-31 10:45:33.680
318,-203.0,967.0,28.0,988.4745823742765,2021-08-31 10:45:33.689
319,-211.0,967.0,28.0,990.1484737149271,2021-08-31 10:45:33.698
320,-211.0,886.0,-49.0,912.0953897482434,2021-08-31 10:45:33.699
321,-176.0,886.0,-49.0,904.6397072868292,2021-08-31 10:45:33.708
322,-176.0,966.0,37.0,982.5991044164452,2021-08-31 10:45:33.709
323,-175.0,984.0,7.0,999.4648568108836,2021-08-31 10:45:33.718
324,-162.0,1038.0,33.0,1051.0837264461857,2021-08-31 10:45:33.728
325,-211.0,982.0,-22.0,1004.653671669994,2021-08-31 10:45:33.765
326,-179.0,982.0,-22.0,998.4232569406624,2021-08-31 10:45:33.772
327,-179.0,833.0,18.0,852.2053743083295,2021-08-31 10:45:33.773
328,-96.0,958.0,-4.0,962.8063148941224,2021-08-31 10:45:33.775
329,-96.0,1139.0,-31.0,1143.458788063654,2021-08-31 10:45:33.778
330,-283.0,896.0,-14.0,939.7345369837165,2021-08-31 10:45:33.780
331,-88.0,959.0,-36.0,963.7017173378908,2021-08-31 10:45:33.786
332,-125.0,1179.0,-32.0,1186.039628342999,2021-08-31 10:45:33.796
333,-200.0,969.0,-100.0,994.4651828998338,2021-08-31 10:45:33.806
334,-259.0,967.0,-29.0,1001.5043684378016,2021-08-31 10:45:33.816
335,-226.0,1093.0,-62.0,1117.8412230724005,2021-08-31 10:45:33.828
336,-260.0,1020.0,-37.0,1053.265873367214,2021-08-31 10:45:33.835
337,-205.0,947.0,-26.0,969.2832403379314,2021-08-31 10:45:33.845
338,-232.0,1039.0,37.0,1065.2295527256083,2021-08-31 10:45:33.855
339,-133.0,869.0,-105.0,885.3671554784489,2021-08-31 10:45:33.865
340,-159.0,1156.0,-124.0,1173.4534502910628,2021-08-31 10:45:33.875
341,-307.0,1029.0,-124.0,1080.956058311345,2021-08-31 10:45:33.884
342,-307.0,1029.0,43.0,1074.6808828670955,2021-08-31 10:45:33.885
343,-136.0,858.0,43.0,869.775258328265,2021-08-31 10:45:33.893
344,-136.0,858.0,63.0,870.9931113390048,2021-08-31 10:45:33.894
345,-181.0,989.0,-94.0,1009.8108733817436,2021-08-31 10:45:33.903
346,-188.0,1002.0,42.0,1020.3489599151852,2021-08-31 10:45:33.914
347,-99.0,917.0,42.0,923.2843548983162,2021-08-31 10:45:33.929
348,-99.0,917.0,26.0,922.694965847327,2021-08-31 10:45:33.930
349,-249.0,917.0,26.0,950.5608870556372,2021-08-31 10:45:33.932
350,-249.0,860.0,-163.0,910.0384607256992,2021-08-31 10:45:33.933
351,-320.0,1034.0,126.0,1089.6935348986888,2021-08-31 10:45:33.942
352,-165.0,927.0,59.0,943.4166629861908,2021-08-31 10:45:33.953
353,-60.0,967.0,-144.0,979.5024247034818,2021-08-31 10:45:33.963
354,-154.0,980.0,41.0,992.873103674382,2021-08-31 10:45:33.972
355,-118.0,1005.0,41.0,1012.7339235949393,2021-08-31 10:45:33.981
356,-118.0,1005.0,-117.0,1018.6451786564348,2021-08-31 10:45:33.982
357,-283.0,968.0,18.0,1008.6808216675878,2021-08-31 10:45:33.991
358,-79.0,1069.0,23.0,1072.161834799206,2021-08-31 10:45:34.001
359,-87.0,953.0,-98.0,961.9677749280378,2021-08-31 10:45:34.011
360,-215.0,1023.0,-40.0,1046.1137605442343,2021-08-31 10:45:34.022
361,-182.0,1047.0,-49.0,1063.8298736170177,2021-08-31 10:45:34.030
362,-181.0,955.0,-81.0,975.3701861344748,2021-08-31 10:45:34.040
363,-274.0,1109.0,-81.0,1145.2152636076764,2021-08-31 10:45:34.051
364,-274.0,1109.0,5.0,1142.3580874664476,2021-08-31 10:45:34.052
365,-174.0,995.0,-77.0,1013.030108140918,2021-08-31 10:45:34.061
366,-160.0,1076.0,-35.0,1088.3937706547204,2021-08-31 10:45:34.069
367,-287.0,986.0,-38.0,1027.622985340441,2021-08-31 10:45:34.079
368,-195.0,899.0,55.0,921.5481539236026,2021-08-31 10:45:34.089
369,-250.0,1085.0,11.0,1113.4837223776556,2021-08-31 10:45:34.099
370,-256.0,892.0,21.0,928.2461957907504,2021-08-31 10:45:34.110
371,-198.0,1092.0,36.0,1110.389120984171,2021-08-31 10:45:34.118
372,-284.0,873.0,15.0,918.1557602062952,2021-08-31 10:45:34.128
373,-111.0,886.0,-51.0,894.3813504316824,2021-08-31 10:45:34.138
374,-246.0,1067.0,38.0,1095.6500353671331,2021-08-31 10:45:34.147
375,-216.0,879.0,48.0,906.422087109532,2021-08-31 10:45:34.158
376,-97.0,823.0,-50.0,830.2035894887471,2021-08-31 10:45:34.168
377,-116.0,1224.0,-6.0,1229.4990849935596,2021-08-31 10:45:34.177
378,-295.0,946.0,-6.0,990.9475263605032,2021-08-31 10:45:34.186
379,-295.0,946.0,38.0,991.6577030407216,2021-08-31 10:45:34.187
380,-55.0,921.0,-82.0,926.277496218061,2021-08-31 10:45:34.197
381,-119.0,1116.0,-82.0,1125.3181772281118,2021-08-31 10:45:34.207
382,-119.0,1116.0,-75.0,1124.8297648977823,2021-08-31 10:45:34.208
383,-261.0,1064.0,-11.0,1095.5993793353482,2021-08-31 10:45:34.217
384,-166.0,1064.0,-11.0,1076.927574166434,2021-08-31 10:45:34.225
385,-166.0,875.0,-95.0,895.6595335282263,2021-08-31 10:45:34.226
386,-289.0,1057.0,-47.0,1096.8039934281785,2021-08-31 10:45:34.235
387,-179.0,913.0,-23.0,930.6658906396,2021-08-31 10:45:34.245
388,-302.0,1034.0,-66.0,1079.2200887678102,2021-08-31 10:45:34.258
389,-287.0,1039.0,-21.0,1078.1145579204465,2021-08-31 10:45:34.266
390,-140.0,1043.0,-28.0,1052.7264601975196,2021-08-31 10:45:34.274
391,-124.0,971.0,-151.0,990.463527849461,2021-08-31 10:45:34.284
392,-301.0,1010.0,16.0,1054.0194495359185,2021-08-31 10:45:34.294
393,-183.0,1037.0,16.0,1053.1448143536577,2021-08-31 10:45:34.304
394,-183.0,1037.0,87.0,1056.6110921242498,2021-08-31 10:45:34.305
395,-139.0,1037.0,87.0,1049.8852318229835,2021-08-31 10:45:34.314
396,-139.0,897.0,-37.0,908.4596854016144,2021-08-31 10:45:34.315
397,-211.0,900.0,-30.0,924.8897231562258,2021-08-31 10:45:34.324
398,-128.0,1041.0,22.0,1049.070541002844,2021-08-31 10:45:34.333
399,-254.0,933.0,-32.0,967.485917210168,2021-08-31 10:45:34.343
400,-158.0,1049.0,43.0,1061.7033483982236,2021-08-31 10:45:34.353
401,-266.0,900.0,-23.0,938.767809418282,2021-08-31 10:45:34.362
402,-183.0,864.0,-23.0,883.4670339067553,2021-08-31 10:45:34.373
403,-183.0,864.0,-16.0,883.3125154779592,2021-08-31 10:45:34.374
404,-190.0,1022.0,-21.0,1039.7235209419855,2021-08-31 10:45:34.382
405,-139.0,1022.0,-21.0,1031.622993152053,2021-08-31 10:45:34.391
406,-139.0,1098.0,-22.0,1106.981933005232,2021-08-31 10:45:34.392
407,-276.0,878.0,0.0,920.3586257541132,2021-08-31 10:45:34.402
408,-125.0,1051.0,15.0,1058.51358045138,2021-08-31 10:45:34.412
409,-188.0,1057.0,-9.0,1073.6265644999662,2021-08-31 10:45:34.422
410,-186.0,918.0,-75.0,939.6515311539698,2021-08-31 10:45:34.431
411,-226.0,981.0,-75.0,1009.486007827746,2021-08-31 10:45:34.440
412,-226.0,981.0,-36.0,1007.3395653899432,2021-08-31 10:45:34.441
413,-227.0,981.0,-36.0,1007.5643900019492,2021-08-31 10:45:34.449
414,-227.0,1040.0,-65.0,1066.4680023329345,2021-08-31 10:45:34.450
415,-158.0,1044.0,-13.0,1055.9682760386318,2021-08-31 10:45:34.461
416,-209.0,960.0,-101.0,987.664922936924,2021-08-31 10:45:34.473
417,-169.0,1024.0,-16.0,1037.975433235296,2021-08-31 10:45:34.480
418,-125.0,924.0,-106.0,938.422612685777,2021-08-31 10:45:34.489
419,-188.0,1164.0,-137.0,1187.0168490800795,2021-08-31 10:45:34.499
420,-264.0,931.0,78.0,970.8455077920482,2021-08-31 10:45:34.509
421,-182.0,929.0,15.0,946.7787492334204,2021-08-31 10:45:34.519
422,-197.0,993.0,-93.0,1016.6154631914663,2021-08-31 10:45:34.529
423,-241.0,955.0,54.0,986.4187751660044,2021-08-31 10:45:34.538
424,-122.0,927.0,4.0,935.0021390349864,2021-08-31 10:45:34.548
425,-257.0,870.0,-71.0,909.939558432317,2021-08-31 10:45:34.558
426,-210.0,1057.0,-71.0,1079.9953703604474,2021-08-31 10:45:34.568
427,-210.0,1057.0,107.0,1082.957986258008,2021-08-31 10:45:34.569
428,-58.0,1057.0,107.0,1063.9840224364273,2021-08-31 10:45:34.576
429,-58.0,914.0,-31.0,916.3629193720138,2021-08-31 10:45:34.577
430,-120.0,1017.0,-31.0,1024.5242798489453,2021-08-31 10:45:34.587
431,-120.0,1017.0,-137.0,1033.1785905640902,2021-08-31 10:45:34.588
432,-352.0,1017.0,-137.0,1084.8787950734404,2021-08-31 10:45:34.596
433,-352.0,1100.0,72.0,1157.189699228264,2021-08-31 10:45:34.597
434,-129.0,951.0,-107.0,965.6557357567964,2021-08-31 10:45:34.607
435,-279.0,1034.0,26.0,1071.295010723003,2021-08-31 10:45:34.617
436,-78.0,1158.0,-57.0,1162.0228052839582,2021-08-31 10:45:34.627
437,-170.0,871.0,-45.0,888.5752641166645,2021-08-31 10:45:34.636
438,-244.0,871.0,-45.0,905.6500427869476,2021-08-31 10:45:34.645
439,-244.0,1051.0,-27.0,1079.2895811597552,2021-08-31 10:45:34.646
440,-269.0,1017.0,-51.0,1053.2098556318203,2021-08-31 10:45:34.656
441,-252.0,1027.0,-12.0,1057.5334510075793,2021-08-31 10:45:34.666
442,-158.0,959.0,-71.0,974.5183425672398,2021-08-31 10:45:34.678
443,-220.0,1048.0,-59.0,1072.4667827023827,2021-08-31 10:45:34.686
444,-170.0,1131.0,-59.0,1145.2257419391165,2021-08-31 10:45:34.694
445,-170.0,1131.0,-27.0,1144.023601155151,2021-08-31 10:45:34.695
446,-209.0,835.0,20.0,860.991289154542,2021-08-31 10:45:34.705
447,-201.0,982.0,-11.0,1002.420071626661,2021-08-31 10:45:34.714
448,-182.0,1115.0,40.0,1130.4640640020364,2021-08-31 10:45:34.725
449,-102.0,968.0,-76.0,976.3216683040482,2021-08-31 10:45:34.734
450,-183.0,1083.0,61.0,1100.044999079583,2021-08-31 10:45:34.743
451,-213.0,891.0,-43.0,917.1144966687638,2021-08-31 10:45:34.753
452,-156.0,835.0,-81.0,853.3006504157839,2021-08-31 10:45:34.763
453,-59.0,835.0,-81.0,840.9916765343163,2021-08-31 10:45:34.806
454,-59.0,1038.0,16.0,1039.7985381793917,2021-08-31 10:45:34.807
455,-190.0,902.0,-122.0,929.8322429341756,2021-08-31 10:45:34.810
456,-190.0,1116.0,-15.0,1132.1576745312466,2021-08-31 10:45:34.812
457,-291.0,1048.0,47.0,1088.666156358321,2021-08-31 10:45:34.815
458,-18.0,1048.0,47.0,1049.2077963873503,2021-08-31 10:45:34.822
459,-18.0,1010.0,-111.0,1016.2406211129332,2021-08-31 10:45:34.823
460,-204.0,955.0,12.0,976.6191683558131,2021-08-31 10:45:34.831
461,-266.0,1106.0,-23.0,1137.7701876916972,2021-08-31 10:45:34.841
462,-191.0,947.0,-78.0,969.213082866714,2021-08-31 10:45:34.851
463,-226.0,1078.0,-32.0,1101.9001769670426,2021-08-31 10:45:34.861
464,-123.0,992.0,-55.0,1001.1083857405253,2021-08-31 10:45:34.870
465,-241.0,1017.0,-44.0,1046.0908182371163,2021-08-31 10:45:34.880
466,-241.0,1039.0,-58.0,1068.160100359492,2021-08-31 10:45:34.890
467,-92.0,1067.0,-83.0,1074.1703775472492,2021-08-31 10:45:34.899
468,-241.0,989.0,-6.0,1017.9577594379838,2021-08-31 10:45:34.909
469,-283.0,888.0,-28.0,932.4253321312116,2021-08-31 10:45:34.919
470,-196.0,1047.0,32.0,1065.668334895994,2021-08-31 10:45:34.935
471,-150.0,979.0,47.0,991.5392074950944,2021-08-31 10:45:34.943
472,-183.0,808.0,-83.0,832.6115540874988,2021-08-31 10:45:34.948
473,-138.0,1037.0,0.0,1046.1419597741026,2021-08-31 10:45:34.958
474,-160.0,844.0,-30.0,859.5556991841773,2021-08-31 10:45:34.969
475,-128.0,1000.0,-99.0,1013.007897303866,2021-08-31 10:45:34.979
476,-218.0,941.0,84.0,969.5674293209318,2021-08-31 10:45:34.988
477,-140.0,887.0,-49.0,899.3164070559371,2021-08-31 10:45:34.997
478,2.0,1083.0,-116.0,1089.1964928331342,2021-08-31 10:45:35.007
479,-253.0,1081.0,39.0,1110.8964848265566,2021-08-31 10:45:35.017
480,-71.0,880.0,-77.0,886.2110358148334,2021-08-31 10:45:35.027
481,-142.0,1096.0,-77.0,1107.8397898613318,2021-08-31 10:45:35.035
482,-142.0,1096.0,-54.0,1106.479100570815,2021-08-31 10:45:35.036
483,-183.0,1087.0,-51.0,1103.4758719609597,2021-08-31 10:45:35.046
484,-259.0,909.0,-37.0,945.9022148192698,2021-08-31 10:45:35.056
485,-213.0,1023.0,-37.0,1045.5940895012748,2021-08-31 10:45:35.065
486,-213.0,1023.0,-52.0,1046.2322877831673,2021-08-31 10:45:35.066
487,-285.0,1085.0,-45.0,1122.7087779117076,2021-08-31 10:45:35.076
488,-260.0,1085.0,-45.0,1116.6243773086812,2021-08-31 10:45:35.085
489,-260.0,986.0,7.0,1019.7279048844354,2021-08-31 10:45:35.086
490,-309.0,1107.0,-11.0,1149.3698273401822,2021-08-31 10:45:35.095
491,-141.0,964.0,-11.0,974.3192495275867,2021-08-31 10:45:35.104
492,-141.0,964.0,-45.0,975.2958525493688,2021-08-31 10:45:35.105
493,-67.0,964.0,-45.0,967.372730647293,2021-08-31 10:45:35.114
494,-67.0,1070.0,-105.0,1077.2251389565693,2021-08-31 10:45:35.115
495,-301.0,976.0,-70.0,1023.756318661819,2021-08-31 10:45:35.125
496,-153.0,991.0,101.0,1007.8149631752844,2021-08-31 10:45:35.135
497,-133.0,1015.0,-37.0,1024.3451566732767,2021-08-31 10:45:35.144
498,-120.0,864.0,-107.0,878.8316107195963,2021-08-31 10:45:35.153
499,-219.0,1016.0,39.0,1040.0663440377252,2021-08-31 10:45:35.163
500,-130.0,951.0,-100.0,965.0393774349316,2021-08-31 10:45:35.173
501,-218.0,833.0,6.0,861.0743289635337,2021-08-31 10:45:35.184
502,-171.0,1026.0,16.0,1040.275444293481,2021-08-31 10:45:35.192
503,-126.0,1098.0,16.0,1105.3216726365226,2021-08-31 10:45:35.202
504,-126.0,1098.0,-17.0,1105.3366003168446,2021-08-31 10:45:35.203
505,-233.0,875.0,-63.0,907.6800096950468,2021-08-31 10:45:35.212
506,-193.0,1211.0,42.0,1227.0020374881208,2021-08-31 10:45:35.222
507,-170.0,791.0,-30.0,809.6178110689018,2021-08-31 10:45:35.232
508,-92.0,1014.0,-69.0,1020.5003674668618,2021-08-31 10:45:35.242
509,-204.0,1135.0,-69.0,1155.2497565461765,2021-08-31 10:45:35.251
510,-204.0,1135.0,-36.0,1153.7491061751684,2021-08-31 10:45:35.252
511,-87.0,927.0,-19.0,931.2674159445288,2021-08-31 10:45:35.261
512,-180.0,950.0,-115.0,973.7171047075224,2021-08-31 10:45:35.273
513,-277.0,950.0,-115.0,996.2198552528452,2021-08-31 10:45:35.280
514,-277.0,1092.0,-47.0,1127.5646322938655,2021-08-31 10:45:35.281
515,-136.0,1092.0,-47.0,1101.4395126378934,2021-08-31 10:45:35.291
516,-136.0,1099.0,-1.0,1107.383402440185,2021-08-31 10:45:35.292
517,-144.0,859.0,-116.0,878.6768461726984,2021-08-31 10:45:35.300
518,-179.0,1101.0,-115.0,1121.3683605310075,2021-08-31 10:45:35.310
519,-236.0,1057.0,-16.0,1083.1440347433022,2021-08-31 10:45:35.319
520,-233.0,856.0,66.0,889.5959757103221,2021-08-31 10:45:35.330
521,-195.0,960.0,-83.0,983.1144389133952,2021-08-31 10:45:35.340
522,-210.0,951.0,61.0,975.8186306891256,2021-08-31 10:45:35.349
523,-126.0,898.0,-64.0,909.052253723624,2021-08-31 10:45:35.359
524,-244.0,947.0,2.0,977.9309791595724,2021-08-31 10:45:35.368
525,-142.0,994.0,23.0,1004.35501691384,2021-08-31 10:45:35.378
526,-226.0,840.0,23.0,870.175269701455,2021-08-31 10:45:35.388
527,-226.0,840.0,-87.0,874.2110729108846,2021-08-31 10:45:35.389
528,-128.0,840.0,-87.0,854.1387475111992,2021-08-31 10:45:35.398
529,-128.0,949.0,-2.0,957.5954260542392,2021-08-31 10:45:35.399
530,-81.0,1044.0,-10.0,1047.185274915571,2021-08-31 10:45:35.408
531,-86.0,1022.0,-108.0,1031.2826964513658,2021-08-31 10:45:35.417
532,-336.0,933.0,35.0,992.275163450139,2021-08-31 10:45:35.427
533,-100.0,933.0,35.0,938.99627262306,2021-08-31 10:45:35.437
534,-100.0,1093.0,6.0,1097.5814320586878,2021-08-31 10:45:35.438
535,-51.0,994.0,-129.0,1003.632402824859,2021-08-31 10:45:35.448
536,-238.0,996.0,-129.0,1032.1341967011847,2021-08-31 10:45:35.455
537,-238.0,996.0,-56.0,1025.5710604341368,2021-08-31 10:45:35.456
538,-114.0,960.0,-102.0,972.111104761179,2021-08-31 10:45:35.466
539,-204.0,1007.0,-102.0,1032.5061743156791,2021-08-31 10:45:35.475
540,-204.0,1007.0,-82.0,1030.7225620893337,2021-08-31 10:45:35.476
541,-203.0,1032.0,-45.0,1052.7383340602737,2021-08-31 10:45:35.486
542,-191.0,1032.0,-45.0,1050.4903616882928,2021-08-31 10:45:35.496
543,-191.0,1016.0,-40.0,1034.5709255531976,2021-08-31 10:45:35.497
544,-217.0,988.0,-20.0,1011.747498143682,2021-08-31 10:45:35.505
545,-143.0,1043.0,-78.0,1055.6429320561,2021-08-31 10:45:35.515
546,-102.0,1067.0,-93.0,1075.8912584457594,2021-08-31 10:45:35.524
547,-200.0,1067.0,-93.0,1089.5586262335771,2021-08-31 10:45:35.534
548,-200.0,957.0,45.0,978.7103759539898,2021-08-31 10:45:35.535
549,-116.0,957.0,45.0,965.0544026115832,2021-08-31 10:45:35.544
550,-116.0,939.0,-28.0,946.5521644368048,2021-08-31 10:45:35.545
551,-204.0,1063.0,-11.0,1082.453694159709,2021-08-31 10:45:35.554
552,-181.0,906.0,11.0,923.9686141855684,2021-08-31 10:45:35.564
553,-88.0,881.0,-72.0,888.3068163647063,2021-08-31 10:45:35.573
554,-258.0,1053.0,-7.0,1084.16880604452,2021-08-31 10:45:35.583
555,-143.0,890.0,62.0,903.5446862219932,2021-08-31 10:45:35.593
556,-247.0,1013.0,-12.0,1042.7473327705038,2021-08-31 10:45:35.603
557,-127.0,984.0,82.0,995.5445745922178,2021-08-31 10:45:35.612
558,-165.0,839.0,-116.0,862.90323907145,2021-08-31 10:45:35.622
559,-96.0,1179.0,-50.0,1183.9581918294243,2021-08-31 10:45:35.632
560,-277.0,1179.0,-50.0,1212.1344809879802,2021-08-31 10:45:35.642
561,-277.0,1017.0,75.0,1056.713300758536,2021-08-31 10:45:35.643
562,-34.0,889.0,-105.0,895.8247596488948,2021-08-31 10:45:35.653
563,-179.0,1059.0,-57.0,1075.5328911753463,2021-08-31 10:45:35.661
564,-183.0,1075.0,-5.0,1090.476501351588,2021-08-31 10:45:35.674
565,-138.0,1075.0,-5.0,1083.8330129683263,2021-08-31 10:45:35.680
566,-138.0,913.0,-90.0,927.746193740508,2021-08-31 10:45:35.681
567,-256.0,992.0,-90.0,1028.4454287904634,2021-08-31 10:45:35.692
568,-256.0,992.0,-71.0,1026.9571558736031,2021-08-31 10:45:35.693
569,-180.0,1168.0,-19.0,1181.9411998910944,2021-08-31 10:45:35.701
570,-162.0,954.0,-58.0,969.39362490167,2021-08-31 10:45:35.710
571,-240.0,1072.0,-39.0,1099.2292754471198,2021-08-31 10:45:35.720
572,-210.0,976.0,-39.0,999.098093282136,2021-08-31 10:45:35.729
573,-210.0,976.0,-40.0,999.1376281574026,2021-08-31 10:45:35.730
574,-106.0,976.0,-40.0,982.5538153200566,2021-08-31 10:45:35.739
575,-106.0,1077.0,-97.0,1086.5422219131665,2021-08-31 10:45:35.740
576,-260.0,887.0,-6.0,924.3403052988656,2021-08-31 10:45:35.750
577,-216.0,1069.0,59.0,1092.1986998710445,2021-08-31 10:45:35.760
578,-169.0,988.0,-34.0,1002.9262186222873,2021-08-31 10:45:35.769
579,-189.0,805.0,-63.0,829.2858373323398,2021-08-31 10:45:35.779
580,-210.0,805.0,-63.0,834.3224796204403,2021-08-31 10:45:35.803
581,-210.0,924.0,-2.0,947.5653011798184,2021-08-31 10:45:35.804
582,-210.0,924.0,-20.0,947.7742347204844,2021-08-31 10:45:35.805
583,-116.0,878.0,-6.0,885.6500437531746,2021-08-31 10:45:35.809
584,-93.0,994.0,-53.0,999.7469679874004,2021-08-31 10:45:35.835
585,-93.0,1140.0,-26.0,1144.082601912991,2021-08-31 10:45:35.837
586,-248.0,895.0,-24.0,929.0344450019064,2021-08-31 10:45:35.840
587,-95.0,1126.0,-14.0,1130.0871647797792,2021-08-31 10:45:35.847
588,-197.0,890.0,0.0,911.5420999602816,2021-08-31 10:45:35.858
589,-136.0,1071.0,0.0,1079.600389032905,2021-08-31 10:45:35.866
590,-136.0,1071.0,-114.0,1085.602597638749,2021-08-31 10:45:35.867
591,-163.0,1020.0,-1.0,1032.9423991685112,2021-08-31 10:45:35.876
592,-176.0,956.0,-29.0,972.4983290474077,2021-08-31 10:45:35.886
593,-293.0,917.0,-95.0,967.348437741024,2021-08-31 10:45:35.895
594,-246.0,1144.0,-95.0,1174.0004258943009,2021-08-31 10:45:35.906
595,-246.0,1144.0,-13.0,1170.2226283917091,2021-08-31 10:45:35.907
596,-129.0,970.0,-18.0,978.7057780558976,2021-08-31 10:45:35.915
597,-162.0,939.0,-96.0,957.695671912534,2021-08-31 10:45:35.925
598,-154.0,1119.0,-136.0,1137.7051463362552,2021-08-31 10:45:35.935
599,-191.0,935.0,80.0,957.6565146230668,2021-08-31 10:45:35.945
600,-117.0,988.0,-9.0,994.94421954198,2021-08-31 10:45:35.959
601,-221.0,1039.0,72.0,1064.6811729339445,2021-08-31 10:45:35.964
602,-76.0,1039.0,72.0,1044.260982704994,2021-08-31 10:45:35.973
603,-76.0,966.0,-10.0,969.0366350143836,2021-08-31 10:45:35.974
604,-98.0,966.0,-10.0,971.0097836788258,2021-08-31 10:45:35.983
605,-98.0,929.0,-47.0,935.3363031551806,2021-08-31 10:45:35.984
606,-267.0,958.0,-34.0,995.0924580158368,2021-08-31 10:45:35.994
607,-189.0,960.0,16.0,978.5586339100994,2021-08-31 10:45:36.005
608,-204.0,847.0,-71.0,874.1086888940071,2021-08-31 10:45:36.013
609,-186.0,962.0,-71.0,982.3853622687992,2021-08-31 10:45:36.022
610,-186.0,962.0,23.0,980.0862206969344,2021-08-31 10:45:36.023
611,-152.0,1078.0,-25.0,1088.9504120941413,2021-08-31 10:45:36.032
612,-71.0,946.0,-72.0,951.388984590425,2021-08-31 10:45:36.043
613,-225.0,1012.0,65.0,1038.7463598010825,2021-08-31 10:45:36.053
614,-53.0,1012.0,65.0,1015.4693496113016,2021-08-31 10:45:36.061
615,-53.0,1134.0,-78.0,1137.9143201489294,2021-08-31 10:45:36.062
616,-72.0,1134.0,-78.0,1138.9574179924375,2021-08-31 10:45:36.072
617,-72.0,838.0,-57.0,843.016607191104,2021-08-31 10:45:36.073
618,-211.0,1087.0,-75.0,1109.8265630268545,2021-08-31 10:45:36.081
619,-214.0,1020.0,-62.0,1044.0498072410148,2021-08-31 10:45:36.091
620,-226.0,1043.0,-69.0,1069.4325598185235,2021-08-31 10:45:36.101
621,-180.0,1043.0,-69.0,1060.6648858145536,2021-08-31 10:45:36.111
622,-180.0,1067.0,-32.0,1082.5493060364502,2021-08-31 10:45:36.112
623,-142.0,982.0,-58.0,993.9074403585074,2021-08-31 10:45:36.120
624,-235.0,978.0,-56.0,1007.3951558350874,2021-08-31 10:45:36.130
625,-151.0,1062.0,-109.0,1078.204989786265,2021-08-31 10:45:36.140
626,-198.0,1070.0,24.0,1088.4300620618671,2021-08-31 10:45:36.150
627,-255.0,875.0,0.0,911.4000219442612,2021-08-31 10:45:36.161
628,-149.0,957.0,-58.0,970.2649122791156,2021-08-31 10:45:36.169
629,-164.0,1106.0,16.0,1118.2074941619735,2021-08-31 10:45:36.179
630,-190.0,862.0,16.0,882.8363381737297,2021-08-31 10:45:36.188
631,-190.0,862.0,-19.0,882.8958035917942,2021-08-31 10:45:36.189
632,-132.0,891.0,-52.0,902.2244731772688,2021-08-31 10:45:36.198
633,-209.0,891.0,-52.0,916.6602424017308,2021-08-31 10:45:36.209
634,-209.0,1023.0,-9.0,1044.1700053152265,2021-08-31 10:45:36.210
635,-122.0,920.0,19.0,928.248350389054,2021-08-31 10:45:36.218
636,-221.0,920.0,19.0,946.362509823799,2021-08-31 10:45:36.227
637,-221.0,1007.0,82.0,1034.2214463063508,2021-08-31 10:45:36.228
638,-170.0,990.0,49.0,1005.6843441159856,2021-08-31 10:45:36.237
639,-21.0,893.0,-170.0,909.2799348935398,2021-08-31 10:45:36.247
640,-180.0,1113.0,-2.0,1127.4630814354855,2021-08-31 10:45:36.258
641,-162.0,1024.0,32.0,1037.2290007515217,2021-08-31 10:45:36.268
642,-102.0,999.0,-126.0,1012.0676854835352,2021-08-31 10:45:36.276
643,-151.0,1035.0,-59.0,1047.6196829002404,2021-08-31 10:45:36.286
644,-218.0,1053.0,-8.0,1075.3590098195114,2021-08-31 10:45:36.297
645,-177.0,1019.0,-8.0,1034.2891278554562,2021-08-31 10:45:36.310
646,-210.0,1060.0,-8.0,1080.6312969741346,2021-08-31 10:45:36.315
647,-210.0,1060.0,-75.0,1083.201274002205,2021-08-31 10:45:36.316
648,-244.0,1038.0,-23.0,1066.5406696418097,2021-08-31 10:45:36.325
649,-87.0,1028.0,-89.0,1035.5066392833992,2021-08-31 10:45:36.335
650,-216.0,986.0,-49.0,1010.5706308813848,2021-08-31 10:45:36.345
651,-115.0,1098.0,-49.0,1105.0927562879056,2021-08-31 10:45:36.356
652,-212.0,988.0,-54.0,1011.9308276754888,2021-08-31 10:45:36.364
653,-172.0,925.0,0.0,940.8554618005892,2021-08-31 10:45:36.374
654,-184.0,1099.0,21.0,1114.4945042484508,2021-08-31 10:45:36.384
655,-59.0,917.0,-44.0,919.948911624988,2021-08-31 10:45:36.394
656,-223.0,843.0,-53.0,873.6057463180974,2021-08-31 10:45:36.404
657,-172.0,1030.0,-40.0,1045.0282292837835,2021-08-31 10:45:36.414
658,-214.0,915.0,40.0,940.5429283132164,2021-08-31 10:45:36.423
659,-225.0,871.0,-38.0,900.3943580454066,2021-08-31 10:45:36.433
660,-85.0,871.0,-38.0,875.9623279570874,2021-08-31 10:45:36.442
661,-85.0,1099.0,-6.0,1102.2985076647794,2021-08-31 10:45:36.443
662,-161.0,1017.0,-6.0,1029.682475329167,2021-08-31 10:45:36.453
663,-161.0,1017.0,-16.0,1029.7892988373883,2021-08-31 10:45:36.454
664,-139.0,926.0,-55.0,937.9882728478004,2021-08-31 10:45:36.463
665,-87.0,1128.0,-53.0,1132.590835209256,2021-08-31 10:45:36.472
666,-87.0,930.0,-53.0,935.562932142996,2021-08-31 10:45:36.481
667,-87.0,930.0,-40.0,934.9165738182204,2021-08-31 10:45:36.482
668,-201.0,1108.0,-82.0,1129.0655428273417,2021-08-31 10:45:36.494
669,-157.0,985.0,20.0,997.6342014987256,2021-08-31 10:45:36.502
670,-131.0,976.0,20.0,984.9553289362924,2021-08-31 10:45:36.512
671,-131.0,976.0,-52.0,986.1242315246088,2021-08-31 10:45:36.513
672,-239.0,976.0,-52.0,1006.181395176834,2021-08-31 10:45:36.520
673,-239.0,991.0,-113.0,1025.6563752056534,2021-08-31 10:45:36.521
674,-188.0,1164.0,15.0,1179.179799691294,2021-08-31 10:45:36.530
675,-132.0,906.0,-94.0,920.3781831399524,2021-08-31 10:45:36.540
676,-164.0,1025.0,-148.0,1048.534691843813,2021-08-31 10:45:36.550
677,-219.0,1106.0,-148.0,1137.1459888686236,2021-08-31 10:45:36.560
678,-219.0,1106.0,-36.0,1128.0483145681303,2021-08-31 10:45:36.561
679,-184.0,916.0,-36.0,934.9909090467136,2021-08-31 10:45:36.570
680,-184.0,916.0,76.0,937.3835927729908,2021-08-31 10:45:36.571
681,-213.0,942.0,-73.0,968.5360086233244,2021-08-31 10:45:36.579
682,-135.0,1027.0,-35.0,1036.4260706871476,2021-08-31 10:45:36.589
683,-223.0,969.0,56.0,995.904613906372,2021-08-31 10:45:36.599
684,-128.0,977.0,15.0,985.463342798706,2021-08-31 10:45:36.609
685,-220.0,985.0,34.0,1009.842066859962,2021-08-31 10:45:36.619
686,-186.0,930.0,-39.0,949.2191527776924,2021-08-31 10:45:36.628
687,-216.0,844.0,0.0,871.201469236594,2021-08-31 10:45:36.638
688,-172.0,1003.0,33.0,1018.1758197875256,2021-08-31 10:45:36.648
689,-100.0,1058.0,-69.0,1064.9530506083356,2021-08-31 10:45:36.658
690,-138.0,888.0,-23.0,898.9532802098227,2021-08-31 10:45:36.668
691,-206.0,888.0,-23.0,911.8711531790004,2021-08-31 10:45:36.678
692,-206.0,1067.0,6.0,1086.7202952001956,2021-08-31 10:45:36.679
693,-91.0,1067.0,6.0,1070.8902838293006,2021-08-31 10:45:36.686
694,-91.0,1099.0,-117.0,1108.9504046619938,2021-08-31 10:45:36.687
695,-56.0,955.0,-62.0,958.6474847408716,2021-08-31 10:45:36.696
696,-264.0,1003.0,-78.0,1040.0908614154823,2021-08-31 10:45:36.708
697,-214.0,1062.0,-54.0,1084.6916612567832,2021-08-31 10:45:36.717
698,-259.0,1017.0,-41.0,1050.2623481778255,2021-08-31 10:45:36.727
699,-223.0,1119.0,3.0,1141.007887790439,2021-08-31 10:45:36.735
700,-189.0,948.0,-46.0,967.7504843708424,2021-08-31 10:45:36.745
701,-239.0,995.0,-94.0,1027.6098481427666,2021-08-31 10:45:36.755
702,-147.0,1132.0,-94.0,1145.3684996541506,2021-08-31 10:45:36.764
703,-147.0,1132.0,-88.0,1144.891697934787,2021-08-31 10:45:36.765
704,-233.0,1132.0,-88.0,1159.0759250368374,2021-08-31 10:45:36.775
705,-233.0,996.0,26.0,1023.2208950172978,2021-08-31 10:45:36.776
706,-167.0,891.0,-13.0,906.6085152920195,2021-08-31 10:45:36.784
707,-165.0,1032.0,-43.0,1045.9913957581105,2021-08-31 10:45:36.794
708,-122.0,1054.0,52.0,1062.3106890171066,2021-08-31 10:45:36.868
709,-179.0,804.0,-60.0,825.8674227743821,2021-08-31 10:45:36.883
710,-277.0,977.0,-124.0,1023.051318360912,2021-08-31 10:45:36.888
711,-277.0,1093.0,71.0,1129.7871480947197,2021-08-31 10:45:36.892
712,-41.0,936.0,-9.0,936.9407665375652,2021-08-31 10:45:36.895
713,-175.0,978.0,-9.0,993.5743555466796,2021-08-31 10:45:36.901
714,-175.0,978.0,-107.0,999.2787398919282,2021-08-31 10:45:36.902
715,-166.0,1074.0,-52.0,1087.9963235232,2021-08-31 10:45:36.911
716,-189.0,1036.0,-19.0,1053.270145784072,2021-08-31 10:45:36.921
717,-209.0,938.0,-110.0,967.2771061076552,2021-08-31 10:45:36.931
718,-181.0,1093.0,-51.0,1109.058609812845,2021-08-31 10:45:36.941
719,-255.0,1067.0,-59.0,1098.6332418054717,2021-08-31 10:45:36.953
720,-102.0,940.0,-80.0,948.8962008565532,2021-08-31 10:45:36.960
721,-205.0,1025.0,-34.0,1045.8518059457565,2021-08-31 10:45:36.975
722,-229.0,967.0,43.0,994.6753239122804,2021-08-31 10:45:36.980
723,-245.0,924.0,-14.0,956.0319032333596,2021-08-31 10:45:36.990
724,-204.0,986.0,48.0,1008.025793320786,2021-08-31 10:45:37.000
725,-222.0,1039.0,-21.0,1062.659870325402,2021-08-31 10:45:37.009
726,-93.0,833.0,-40.0,839.1293106548001,2021-08-31 10:45:37.019
727,-136.0,990.0,-14.0,999.3958174817424,2021-08-31 10:45:37.029
728,-229.0,1022.0,-20.0,1047.5328157150973,2021-08-31 10:45:37.038
729,-182.0,842.0,54.0,863.1361422162787,2021-08-31 10:45:37.048
730,-145.0,842.0,54.0,856.0987092619636,2021-08-31 10:45:37.060
731,-145.0,892.0,-50.0,905.0906031994808,2021-08-31 10:45:37.061
732,-127.0,1144.0,0.0,1151.0278015756178,2021-08-31 10:45:37.068
733,-220.0,951.0,-5.0,976.128065368474,2021-08-31 10:45:37.078
734,-73.0,915.0,-5.0,917.9210205676738,2021-08-31 10:45:37.087
735,-73.0,915.0,-54.0,919.4944263017584,2021-08-31 10:45:37.088
736,-180.0,1141.0,-88.0,1158.4580268615691,2021-08-31 10:45:37.097
737,-57.0,960.0,-81.0,965.0958501620448,2021-08-31 10:45:37.107
738,-221.0,960.0,-81.0,988.434115153863,2021-08-31 10:45:37.115
739,-221.0,1077.0,-81.0,1102.4205186769702,2021-08-31 10:45:37.116
740,-209.0,1041.0,4.0,1061.7805799693267,2021-08-31 10:45:37.127
741,-205.0,1041.0,4.0,1061.00047125343,2021-08-31 10:45:37.136
742,-205.0,896.0,-115.0,926.3185197328183,2021-08-31 10:45:37.137
743,-256.0,1060.0,-60.0,1092.1245350233644,2021-08-31 10:45:37.146
744,-193.0,1129.0,22.0,1145.5889315107754,2021-08-31 10:45:37.156
745,-104.0,872.0,-123.0,886.7519382555643,2021-08-31 10:45:37.168
746,-209.0,1062.0,-138.0,1091.1319810178786,2021-08-31 10:45:37.175
747,-210.0,1054.0,59.0,1076.334985030218,2021-08-31 10:45:37.185
748,-125.0,971.0,59.0,980.788968127191,2021-08-31 10:45:37.194
749,-125.0,971.0,59.0,980.788968127191,2021-08-31 10:45:37.195
750,-225.0,921.0,-126.0,956.4214552173116,2021-08-31 10:45:37.204
751,-128.0,999.0,40.0,1007.9608127303362,2021-08-31 10:45:37.215
752,-159.0,983.0,45.0,996.7923555084078,2021-08-31 10:45:37.224
753,-187.0,996.0,16.0,1013.5289833053616,2021-08-31 10:45:37.233
754,-136.0,1000.0,6.0,1009.2234638572372,2021-08-31 10:45:37.244
755,-290.0,1000.0,6.0,1041.2185169310042,2021-08-31 10:45:37.253
756,-290.0,833.0,-38.0,882.8550277367174,2021-08-31 10:45:37.254
757,-225.0,956.0,-10.0,982.1715736061597,2021-08-31 10:45:37.263
758,-200.0,1037.0,67.0,1058.2334336052702,2021-08-31 10:45:37.277
759,-45.0,944.0,-13.0,945.1613618848372,2021-08-31 10:45:37.283
760,-130.0,944.0,-13.0,952.9979013618026,2021-08-31 10:45:37.292
761,-130.0,932.0,-84.0,944.7645209257172,2021-08-31 10:45:37.293
762,-296.0,1144.0,-84.0,1184.6552241053091,2021-08-31 10:45:37.302
763,-151.0,1144.0,-84.0,1156.9757992283155,2021-08-31 10:45:37.317
764,-151.0,955.0,-16.0,966.9963805516544,2021-08-31 10:45:37.318
765,-20.0,984.0,6.0,984.2215197809892,2021-08-31 10:45:37.321
766,-190.0,1084.0,-161.0,1112.2396324533663,2021-08-31 10:45:37.332
767,-189.0,1084.0,-161.0,1112.0692424485087,2021-08-31 10:45:37.341
768,-189.0,1097.0,-59.0,1114.7246296731762,2021-08-31 10:45:37.342
769,-66.0,1064.0,-20.0,1066.232620022479,2021-08-31 10:45:37.352
770,-136.0,1115.0,-49.0,1124.3318015603757,2021-08-31 10:45:37.360
771,-102.0,1115.0,-49.0,1120.7274423337728,2021-08-31 10:45:37.370
772,-102.0,974.0,-35.0,979.9515294135724,2021-08-31 10:45:37.371
773,-343.0,1046.0,-61.0,1102.490816288281,2021-08-31 10:45:37.381
774,-208.0,1060.0,-11.0,1080.2707993831916,2021-08-31 10:45:37.390
775,-170.0,937.0,-37.0,953.015214988722,2021-08-31 10:45:37.399
776,-222.0,952.0,-45.0,978.5770281383066,2021-08-31 10:45:37.410
777,-225.0,1007.0,56.0,1033.3489246135596,2021-08-31 10:45:37.419
778,-171.0,939.0,25.0,954.7706530890024,2021-08-31 10:45:37.429
779,-150.0,830.0,-61.0,845.6482720374943,2021-08-31 10:45:37.439
780,-166.0,1011.0,-61.0,1026.3517915412824,2021-08-31 10:45:37.449
781,-166.0,1011.0,51.0,1025.806024548501,2021-08-31 10:45:37.450
782,-134.0,948.0,7.0,957.4492153634052,2021-08-31 10:45:37.459
783,-142.0,875.0,7.0,886.4750419498566,2021-08-31 10:45:37.468
784,-218.0,973.0,-17.0,997.2672660826686,2021-08-31 10:45:37.478
785,-155.0,891.0,-26.0,904.7552155141192,2021-08-31 10:45:37.488
786,-189.0,913.0,0.0,932.3572276761736,2021-08-31 10:45:37.498
787,-130.0,913.0,0.0,922.2087616152864,2021-08-31 10:45:37.507
788,-130.0,1161.0,-26.0,1168.5448215622712,2021-08-31 10:45:37.508
789,-103.0,954.0,-69.0,962.0218292741596,2021-08-31 10:45:37.517
790,-247.0,917.0,-82.0,953.2166595270984,2021-08-31 10:45:37.527
791,-159.0,1173.0,-48.0,1184.6999620156996,2021-08-31 10:45:37.537
