,Acceleration_X,Acceleration_Y,Acceleration_Z,magnitude,time_stamp
0,472.0,1164.0,-131.0,1262.8701437598404,2021-09-02 08:19:57.427
1,-409.0,1164.0,-131.0,1240.700608527295,2021-09-02 08:19:57.435
2,-409.0,912.0,-221.0,1023.6532616076598,2021-09-02 08:19:57.436
3,-287.0,1067.0,-221.0,1126.8092118899276,2021-09-02 08:19:57.445
4,-287.0,1067.0,-68.0,1107.014905048708,2021-09-02 08:19:57.446
5,-412.0,941.0,-120.0,1034.2267643026842,2021-09-02 08:19:57.454
6,-242.0,941.0,-120.0,979.002042898788,2021-09-02 08:19:57.482
7,-242.0,995.0,-180.0,1039.706208503152,2021-09-02 08:19:57.483
8,-184.0,1054.0,-78.0,1072.7795672923678,2021-09-02 08:19:57.487
9,-103.0,1246.0,-118.0,1255.8061156086158,2021-09-02 08:19:57.490
10,-352.0,834.0,162.0,919.6216613368782,2021-09-02 08:19:57.494
11,-179.0,834.0,162.0,868.2401741453801,2021-09-02 08:19:57.506
12,-179.0,905.0,29.0,922.9880822632545,2021-09-02 08:19:57.507
13,-85.0,1039.0,-34.0,1043.0254071689722,2021-09-02 08:19:57.513
14,-305.0,818.0,-34.0,873.6732798935767,2021-09-02 08:19:57.523
15,-305.0,818.0,80.0,876.6692648884184,2021-09-02 08:19:57.524
16,-199.0,850.0,80.0,876.6418881162365,2021-09-02 08:19:57.532
17,-199.0,850.0,-89.0,877.5089743130836,2021-09-02 08:19:57.533
18,-371.0,982.0,41.0,1050.5455725479023,2021-09-02 08:19:57.543
19,-43.0,939.0,41.0,940.877781648605,2021-09-02 08:19:57.551
20,-43.0,939.0,38.0,940.7518269979602,2021-09-02 08:19:57.552
21,-250.0,918.0,-1.0,951.433129547211,2021-09-02 08:19:57.561
22,-194.0,1011.0,81.0,1032.626747668295,2021-09-02 08:19:57.571
23,61.0,1011.0,81.0,1016.0723399443564,2021-09-02 08:19:57.581
24,61.0,916.0,-295.0,964.262412416869,2021-09-02 08:19:57.582
25,-60.0,916.0,-295.0,964.1996681185904,2021-09-02 08:19:57.590
26,-60.0,1111.0,-65.0,1114.5160384669214,2021-09-02 08:19:57.591
27,-258.0,983.0,165.0,1029.6008935505058,2021-09-02 08:19:57.600
28,-73.0,1286.0,-162.0,1298.2176242833864,2021-09-02 08:19:57.610
29,4.0,944.0,-83.0,947.6502519389736,2021-09-02 08:19:57.620
30,-362.0,977.0,-82.0,1045.130135437688,2021-09-02 08:19:57.630
31,-255.0,1011.0,-61.0,1044.4457860511477,2021-09-02 08:19:57.639
32,-234.0,986.0,0.0,1013.3864021191522,2021-09-02 08:19:57.650
33,-365.0,919.0,-37.0,989.5226121721524,2021-09-02 08:19:57.659
34,-19.0,1116.0,-167.0,1128.5858407759686,2021-09-02 08:19:57.669
35,-284.0,1116.0,-167.0,1163.6154863183972,2021-09-02 08:19:57.678
36,-284.0,842.0,-106.0,894.9055816118257,2021-09-02 08:19:57.679
37,62.0,1299.0,-179.0,1312.739882840466,2021-09-02 08:19:57.689
38,-333.0,1038.0,33.0,1090.606253420546,2021-09-02 08:19:57.698
39,-190.0,1038.0,33.0,1055.7618102583556,2021-09-02 08:19:57.715
40,-190.0,720.0,97.0,750.9387458375018,2021-09-02 08:19:57.716
41,-44.0,1102.0,-64.0,1104.733452014557,2021-09-02 08:19:57.718
42,-106.0,985.0,5.0,990.69975270008,2021-09-02 08:19:57.728
43,-332.0,812.0,17.0,877.414953143608,2021-09-02 08:19:57.738
44,-115.0,942.0,-91.0,953.3467365025172,2021-09-02 08:19:57.747
45,-355.0,942.0,-91.0,1010.7769289017236,2021-09-02 08:19:57.756
46,-355.0,961.0,101.0,1029.4401391047463,2021-09-02 08:19:57.757
47,-263.0,884.0,-42.0,923.2491538041072,2021-09-02 08:19:57.766
48,146.0,1161.0,-235.0,1193.508273955401,2021-09-02 08:19:57.777
49,-325.0,1161.0,-235.0,1228.32039794184,2021-09-02 08:19:57.786
50,-325.0,937.0,88.0,995.6595803787558,2021-09-02 08:19:57.787
51,-66.0,1123.0,-183.0,1139.7254055253836,2021-09-02 08:19:57.796
52,-433.0,942.0,191.0,1054.1982735709637,2021-09-02 08:19:57.805
53,39.0,967.0,13.0,967.8734421400352,2021-09-02 08:19:57.815
54,-58.0,1101.0,13.0,1102.6032831440327,2021-09-02 08:19:57.825
55,-58.0,1101.0,-116.0,1108.61219549489,2021-09-02 08:19:57.826
56,-264.0,943.0,-106.0,984.9776647213884,2021-09-02 08:19:57.835
57,-148.0,965.0,-106.0,982.0208755418594,2021-09-02 08:19:57.845
58,-148.0,965.0,8.0,976.3160348985364,2021-09-02 08:19:57.846
59,-172.0,1077.0,-144.0,1100.1131759959972,2021-09-02 08:19:57.854
60,-323.0,907.0,42.0,963.7126127637844,2021-09-02 08:19:57.864
61,-118.0,1069.0,-152.0,1086.180924155824,2021-09-02 08:19:57.874
62,-98.0,1069.0,-152.0,1084.1904814192014,2021-09-02 08:19:57.884
63,-98.0,1243.0,-91.0,1250.17358794689,2021-09-02 08:19:57.885
64,-477.0,940.0,56.0,1055.5875141360852,2021-09-02 08:19:57.894
65,-88.0,786.0,101.0,797.3336817167577,2021-09-02 08:19:57.903
66,-328.0,884.0,152.0,955.062301632726,2021-09-02 08:19:57.913
67,-183.0,845.0,54.0,866.2736288263657,2021-09-02 08:19:57.924
68,-89.0,1057.0,-90.0,1064.5515487753516,2021-09-02 08:19:57.933
69,-314.0,831.0,151.0,901.0871212041598,2021-09-02 08:19:57.943
70,-209.0,865.0,151.0,902.6112119844292,2021-09-02 08:19:57.952
71,-209.0,865.0,-99.0,895.3809245231886,2021-09-02 08:19:57.953
72,-411.0,865.0,-99.0,962.7808681107036,2021-09-02 08:19:57.961
73,-411.0,905.0,8.0,993.9869214431344,2021-09-02 08:19:57.962
74,-35.0,1018.0,8.0,1018.6329073812608,2021-09-02 08:19:57.971
75,-35.0,1018.0,92.0,1022.747769491579,2021-09-02 08:19:57.972
76,-48.0,822.0,-210.0,849.7576124989996,2021-09-02 08:19:57.982
77,-66.0,1316.0,-91.0,1320.7925650911277,2021-09-02 08:19:57.991
78,-334.0,924.0,229.0,1008.8473620920064,2021-09-02 08:19:58.002
79,11.0,1054.0,229.0,1078.646373933552,2021-09-02 08:19:58.010
80,11.0,1054.0,-90.0,1057.8927166778303,2021-09-02 08:19:58.011
81,-131.0,984.0,-135.0,1001.8193449919004,2021-09-02 08:19:58.020
82,-29.0,1189.0,-160.0,1200.0674981016691,2021-09-02 08:19:58.030
83,-242.0,878.0,-37.0,911.4916346297424,2021-09-02 08:19:58.040
84,-290.0,1001.0,-37.0,1042.8182967324651,2021-09-02 08:19:58.050
85,-290.0,1001.0,-59.0,1043.8304460016484,2021-09-02 08:19:58.051
86,-317.0,983.0,-33.0,1033.3765044745307,2021-09-02 08:19:58.059
87,-272.0,947.0,21.0,985.5120496472888,2021-09-02 08:19:58.069
88,-223.0,945.0,-48.0,972.1409362844464,2021-09-02 08:19:58.079
89,-211.0,1059.0,-130.0,1087.612982636747,2021-09-02 08:19:58.090
90,11.0,1239.0,-86.0,1242.029790302954,2021-09-02 08:19:58.099
91,-268.0,838.0,169.0,895.8956412440011,2021-09-02 08:19:58.109
92,-149.0,971.0,-17.0,982.5125953391132,2021-09-02 08:19:58.118
93,-103.0,1098.0,58.0,1104.34460201515,2021-09-02 08:19:58.128
94,-301.0,1098.0,58.0,1139.98640342769,2021-09-02 08:19:58.138
95,-301.0,673.0,-41.0,738.3840464148722,2021-09-02 08:19:58.139
96,0.0,991.0,49.0,992.2106631154496,2021-09-02 08:19:58.148
97,-356.0,766.0,-20.0,844.9212981100666,2021-09-02 08:19:58.157
98,-153.0,886.0,-65.0,901.4599270072964,2021-09-02 08:19:58.167
99,-260.0,886.0,-65.0,925.6462607281468,2021-09-02 08:19:58.176
100,-260.0,1044.0,80.0,1078.8586561732727,2021-09-02 08:19:58.177
101,-342.0,864.0,80.0,932.6628544120324,2021-09-02 08:19:58.186
102,-342.0,864.0,-7.0,929.2518496080596,2021-09-02 08:19:58.187
103,157.0,960.0,-275.0,1010.8778363382986,2021-09-02 08:19:58.197
104,-175.0,1179.0,41.0,1192.621901526213,2021-09-02 08:19:58.207
105,4.0,898.0,87.0,902.2133893929972,2021-09-02 08:19:58.228
106,4.0,1179.0,-205.0,1196.6962856130206,2021-09-02 08:19:58.229
107,-111.0,978.0,11.0,984.3403882803956,2021-09-02 08:19:58.236
108,-308.0,971.0,-20.0,1018.8743789103738,2021-09-02 08:19:58.245
109,-202.0,894.0,-138.0,926.8678438698798,2021-09-02 08:19:58.255
110,-316.0,869.0,-138.0,934.9122953518154,2021-09-02 08:19:58.264
111,-316.0,869.0,-51.0,926.0766706920114,2021-09-02 08:19:58.265
112,-55.0,1091.0,-109.0,1097.8100928667034,2021-09-02 08:19:58.274
113,-356.0,948.0,-109.0,1018.4895679387196,2021-09-02 08:19:58.285
114,-356.0,948.0,-31.0,1013.1145048808648,2021-09-02 08:19:58.286
115,-422.0,988.0,-23.0,1074.596203231707,2021-09-02 08:19:58.294
116,102.0,1249.0,-23.0,1253.3690597744944,2021-09-02 08:19:58.303
117,102.0,1249.0,-101.0,1257.2215397454818,2021-09-02 08:19:58.304
118,-467.0,856.0,0.0,975.10255870857,2021-09-02 08:19:58.313
119,-141.0,864.0,70.0,878.2237755834216,2021-09-02 08:19:58.345
120,-141.0,919.0,70.0,932.3851135662774,2021-09-02 08:19:58.346
121,-141.0,919.0,-9.0,929.7972897357788,2021-09-02 08:19:58.347
122,-306.0,772.0,-81.0,834.3746161047806,2021-09-02 08:19:58.354
123,-149.0,1048.0,-24.0,1058.8111257443416,2021-09-02 08:19:58.362
124,-223.0,942.0,88.0,972.0272629921446,2021-09-02 08:19:58.373
125,-218.0,942.0,88.0,970.8923730259704,2021-09-02 08:19:58.381
126,-218.0,978.0,-89.0,1005.946817679742,2021-09-02 08:19:58.382
127,-181.0,963.0,139.0,989.672167942496,2021-09-02 08:19:58.391
128,-91.0,861.0,139.0,876.8825462968231,2021-09-02 08:19:58.402
129,-91.0,861.0,-166.0,881.5656526884427,2021-09-02 08:19:58.403
130,-11.0,1292.0,-162.0,1302.1632002172385,2021-09-02 08:19:58.411
131,-370.0,951.0,133.0,1029.0723978418623,2021-09-02 08:19:58.421
132,-59.0,904.0,-60.0,907.9080349903288,2021-09-02 08:19:58.430
133,-40.0,1211.0,-130.0,1218.6143770693009,2021-09-02 08:19:58.441
134,-224.0,1027.0,-29.0,1051.544578227666,2021-09-02 08:19:58.451
135,-345.0,879.0,-34.0,944.8925864880092,2021-09-02 08:19:58.460
136,-137.0,934.0,-34.0,944.6062671822584,2021-09-02 08:19:58.469
137,-137.0,934.0,-145.0,955.0654427838964,2021-09-02 08:19:58.470
138,-444.0,1023.0,63.0,1116.9753802121154,2021-09-02 08:19:58.479
139,-94.0,1030.0,-161.0,1046.7363564909742,2021-09-02 08:19:58.496
140,-108.0,1028.0,-40.0,1034.4312446943973,2021-09-02 08:19:58.501
141,-188.0,1028.0,-40.0,1045.8145151029412,2021-09-02 08:19:58.508
142,-188.0,1077.0,-68.0,1095.398101148619,2021-09-02 08:19:58.509
143,25.0,1240.0,-128.0,1246.8396047607728,2021-09-02 08:19:58.531
144,-332.0,851.0,100.0,918.9260035497962,2021-09-02 08:19:58.533
145,-155.0,922.0,102.0,940.48551291341,2021-09-02 08:19:58.539
146,-33.0,922.0,102.0,928.2117215377104,2021-09-02 08:19:58.547
147,-33.0,1078.0,5.0,1078.5165738179455,2021-09-02 08:19:58.548
148,-337.0,706.0,-42.0,783.4341069930515,2021-09-02 08:19:58.557
149,-169.0,926.0,-86.0,945.215848364806,2021-09-02 08:19:58.567
150,-397.0,1016.0,28.0,1091.1686395786858,2021-09-02 08:19:58.578
151,-6.0,908.0,28.0,908.4514296317662,2021-09-02 08:19:58.588
152,-6.0,908.0,-19.0,908.2185860243115,2021-09-02 08:19:58.589
153,-172.0,925.0,-19.0,941.04728892867,2021-09-02 08:19:58.596
154,-172.0,925.0,-208.0,963.5730382280318,2021-09-02 08:19:58.597
155,-17.0,1403.0,-58.0,1404.3012497324069,2021-09-02 08:19:58.606
156,-82.0,852.0,-273.0,898.4191672042622,2021-09-02 08:19:58.616
157,32.0,1361.0,-3.0,1361.3794474723056,2021-09-02 08:19:58.626
158,-407.0,885.0,241.0,1003.4714744326318,2021-09-02 08:19:58.637
159,-12.0,1069.0,-172.0,1082.8153120454106,2021-09-02 08:19:58.645
160,-85.0,1085.0,-27.0,1088.6592671722406,2021-09-02 08:19:58.655
161,-315.0,917.0,-5.0,969.6076526100647,2021-09-02 08:19:58.665
162,-222.0,920.0,-62.0,948.4344995833924,2021-09-02 08:19:58.675
163,-238.0,920.0,-62.0,952.3066732938504,2021-09-02 08:19:58.685
164,-238.0,1016.0,-71.0,1045.9163446471232,2021-09-02 08:19:58.686
165,-349.0,1034.0,-71.0,1093.616934762808,2021-09-02 08:19:58.695
166,-349.0,1034.0,-31.0,1091.7499713762304,2021-09-02 08:19:58.696
167,-75.0,1025.0,-90.0,1031.6733979317291,2021-09-02 08:19:58.704
168,-1.0,1025.0,-90.0,1028.9441189880042,2021-09-02 08:19:58.713
169,-1.0,1158.0,-143.0,1166.7964689696314,2021-09-02 08:19:58.714
170,-366.0,855.0,141.0,940.671037079382,2021-09-02 08:19:58.724
171,-266.0,968.0,141.0,1013.7361589683976,2021-09-02 08:19:58.734
172,-266.0,968.0,-18.0,1004.0438237447606,2021-09-02 08:19:58.735
173,-284.0,840.0,145.0,898.4881746578527,2021-09-02 08:19:58.743
174,-102.0,1135.0,-24.0,1139.8267412199102,2021-09-02 08:19:58.753
175,10.0,929.0,-24.0,929.3637608600844,2021-09-02 08:19:58.762
176,10.0,929.0,61.0,931.054241169654,2021-09-02 08:19:58.763
177,-366.0,757.0,-91.0,845.745824701488,2021-09-02 08:19:58.772
178,-271.0,959.0,-24.0,996.8440198947876,2021-09-02 08:19:58.783
179,-190.0,959.0,-24.0,977.935069419233,2021-09-02 08:19:58.792
180,-190.0,1005.0,76.0,1025.6222501486598,2021-09-02 08:19:58.793
181,-201.0,1005.0,76.0,1027.7168870851544,2021-09-02 08:19:58.801
182,-201.0,794.0,-75.0,822.4730998640624,2021-09-02 08:19:58.802
183,54.0,1120.0,-181.0,1135.8155660141306,2021-09-02 08:19:58.811
184,-10.0,1144.0,-20.0,1144.2185106001389,2021-09-02 08:19:58.821
185,-243.0,904.0,51.0,937.4785330875584,2021-09-02 08:19:58.831
186,-18.0,1231.0,51.0,1232.1874857342125,2021-09-02 08:19:58.842
187,-18.0,1231.0,-184.0,1244.805607313849,2021-09-02 08:19:58.843
188,-61.0,911.0,-40.0,913.9157510405432,2021-09-02 08:19:58.850
189,-9.0,1193.0,-93.0,1196.6532496926584,2021-09-02 08:19:58.860
190,-189.0,1065.0,-36.0,1082.2393450618952,2021-09-02 08:19:58.870
191,-461.0,815.0,-30.0,936.8276255533884,2021-09-02 08:19:58.880
192,-211.0,971.0,-113.0,1000.0654978550156,2021-09-02 08:19:58.891
193,-331.0,1068.0,40.0,1118.8319802365322,2021-09-02 08:19:58.899
194,-378.0,982.0,-63.0,1054.1238067703432,2021-09-02 08:19:58.909
195,226.0,1142.0,-118.0,1170.1128150738286,2021-09-02 08:19:58.919
196,-407.0,989.0,16.0,1069.5915108114873,2021-09-02 08:19:58.931
197,-244.0,869.0,89.0,906.9829105335998,2021-09-02 08:19:58.939
198,91.0,1114.0,45.0,1118.6161093064948,2021-09-02 08:19:58.949
199,-96.0,800.0,-133.0,816.6425166497272,2021-09-02 08:19:58.958
200,-44.0,800.0,-133.0,812.1730111250928,2021-09-02 08:19:58.967
201,-44.0,1085.0,-13.0,1085.9696128345397,2021-09-02 08:19:58.968
202,-276.0,1085.0,-13.0,1119.6294029722517,2021-09-02 08:19:58.977
203,-276.0,731.0,-8.0,781.4096236929771,2021-09-02 08:19:58.978
204,-173.0,926.0,-15.0,942.1411783803952,2021-09-02 08:19:58.987
205,-265.0,1071.0,-8.0,1103.3267874931703,2021-09-02 08:19:58.998
206,-236.0,878.0,57.0,910.9495046378804,2021-09-02 08:19:59.007
207,-132.0,894.0,-163.0,918.2750132721678,2021-09-02 08:19:59.016
208,-119.0,1370.0,-65.0,1376.6938657522958,2021-09-02 08:19:59.026
209,-360.0,882.0,161.0,966.1495743413648,2021-09-02 08:19:59.037
210,22.0,884.0,-51.0,885.7431907725851,2021-09-02 08:19:59.046
211,-8.0,1211.0,-51.0,1212.0998308720284,2021-09-02 08:19:59.055
212,-8.0,1211.0,-122.0,1217.156111597851,2021-09-02 08:19:59.056
213,-279.0,1051.0,0.0,1087.4014897911445,2021-09-02 08:19:59.065
214,-292.0,809.0,-94.0,865.2057558754449,2021-09-02 08:19:59.075
215,-363.0,922.0,-14.0,990.9838545607088,2021-09-02 08:19:59.086
216,-238.0,922.0,-14.0,952.3255745804582,2021-09-02 08:19:59.094
217,-238.0,899.0,-72.0,932.753450811092,2021-09-02 08:19:59.095
218,-284.0,965.0,-74.0,1008.6411651325758,2021-09-02 08:19:59.105
219,-223.0,1032.0,-1.0,1055.8191132954546,2021-09-02 08:19:59.114
220,-134.0,1040.0,-102.0,1053.5463919543365,2021-09-02 08:19:59.124
221,5.0,1156.0,-164.0,1167.5859711387425,2021-09-02 08:19:59.134
222,-376.0,931.0,-164.0,1017.3657159546904,2021-09-02 08:19:59.143
223,-376.0,931.0,118.0,1010.970325974012,2021-09-02 08:19:59.144
224,-100.0,1016.0,38.0,1021.6163663528496,2021-09-02 08:19:59.154
225,-109.0,966.0,-56.0,973.74175221154,2021-09-02 08:19:59.163
226,-269.0,966.0,-56.0,1004.317180974218,2021-09-02 08:19:59.172
227,-269.0,717.0,-35.0,766.5996347507609,2021-09-02 08:19:59.173
228,-243.0,1006.0,-35.0,1035.5240219328568,2021-09-02 08:19:59.182
229,-243.0,1006.0,-2.0,1034.9342974314843,2021-09-02 08:19:59.183
230,-372.0,759.0,-27.0,845.6914330889251,2021-09-02 08:19:59.193
231,-229.0,919.0,-43.0,948.077528475388,2021-09-02 08:19:59.202
232,-229.0,997.0,64.0,1024.9614626901832,2021-09-02 08:19:59.212
233,-108.0,853.0,64.0,862.1884944720615,2021-09-02 08:19:59.221
234,-108.0,853.0,-89.0,864.4038408059048,2021-09-02 08:19:59.222
235,-27.0,1053.0,-206.0,1073.3005170966796,2021-09-02 08:19:59.244
236,-27.0,1191.0,3.0,1191.309783389694,2021-09-02 08:19:59.245
237,-223.0,918.0,73.0,947.513588293065,2021-09-02 08:19:59.251
238,-58.0,918.0,73.0,922.7226018690558,2021-09-02 08:19:59.260
239,-58.0,1234.0,-180.0,1248.4069849211835,2021-09-02 08:19:59.261
240,110.0,1016.0,40.0,1022.71990300375,2021-09-02 08:19:59.271
241,-395.0,960.0,-102.0,1043.0862859802155,2021-09-02 08:19:59.280
242,-373.0,821.0,-92.0,906.4402903666628,2021-09-02 08:19:59.291
243,-238.0,1109.0,2.0,1134.2526173652852,2021-09-02 08:19:59.301
244,-201.0,963.0,-87.0,987.5925273107324,2021-09-02 08:19:59.309
245,-286.0,1075.0,-23.0,1112.6320146391618,2021-09-02 08:19:59.319
246,-485.0,937.0,-13.0,1055.1601774138371,2021-09-02 08:19:59.329
247,-326.0,1165.0,-134.0,1217.151182064085,2021-09-02 08:19:59.362
248,-326.0,1165.0,-134.0,1217.151182064085,2021-09-02 08:19:59.363
249,-326.0,845.0,84.0,909.5916666284932,2021-09-02 08:19:59.364
250,65.0,1123.0,20.0,1125.0573318724696,2021-09-02 08:19:59.368
251,-16.0,839.0,-48.0,840.5242411733287,2021-09-02 08:19:59.378
252,-382.0,839.0,-48.0,923.119168905077,2021-09-02 08:19:59.387
253,-382.0,819.0,-48.0,904.9801102786736,2021-09-02 08:19:59.388
254,-205.0,1078.0,-21.0,1097.5199314818842,2021-09-02 08:19:59.398
255,-222.0,815.0,77.0,848.1969111002468,2021-09-02 08:19:59.407
256,-268.0,815.0,77.0,861.3814486045076,2021-09-02 08:19:59.418
257,-268.0,863.0,-94.0,908.531232264472,2021-09-02 08:19:59.419
258,-257.0,863.0,-94.0,905.3474471162992,2021-09-02 08:19:59.428
259,-257.0,911.0,158.0,959.6530623094994,2021-09-02 08:19:59.429
260,-166.0,800.0,-126.0,826.6994617150782,2021-09-02 08:19:59.436
261,-27.0,1305.0,-92.0,1308.5174817326667,2021-09-02 08:19:59.446
262,-449.0,926.0,135.0,1037.9315969754462,2021-09-02 08:19:59.458
263,57.0,926.0,135.0,937.5233330429702,2021-09-02 08:19:59.465
264,57.0,875.0,-40.0,877.7664837529398,2021-09-02 08:19:59.466
265,-108.0,1189.0,-101.0,1198.1594217799232,2021-09-02 08:19:59.475
266,-185.0,1043.0,-6.0,1059.296936651853,2021-09-02 08:19:59.485
267,-244.0,857.0,-45.0,892.1939251082132,2021-09-02 08:19:59.495
268,-132.0,1028.0,-139.0,1045.719369620741,2021-09-02 08:19:59.505
269,-407.0,1082.0,60.0,1157.5720279965303,2021-09-02 08:19:59.520
270,-209.0,982.0,-117.0,1010.7888008877028,2021-09-02 08:19:59.524
271,43.0,982.0,-117.0,989.8797906816768,2021-09-02 08:19:59.534
272,43.0,1159.0,-152.0,1169.7153499890476,2021-09-02 08:19:59.535
273,-210.0,1069.0,-98.0,1093.8304256145009,2021-09-02 08:19:59.545
274,42.0,1157.0,-98.0,1161.902319474404,2021-09-02 08:19:59.560
275,42.0,1157.0,-169.0,1170.0316235042535,2021-09-02 08:19:59.561
276,-416.0,905.0,130.0,1004.4804627268766,2021-09-02 08:19:59.565
277,-224.0,989.0,86.0,1017.6900313946284,2021-09-02 08:19:59.573
278,-105.0,996.0,-36.0,1002.1661538886652,2021-09-02 08:19:59.583
279,-300.0,996.0,-36.0,1040.8227514807695,2021-09-02 08:19:59.593
280,-300.0,739.0,-7.0,797.602657969493,2021-09-02 08:19:59.594
281,-206.0,982.0,-4.0,1003.382280090694,2021-09-02 08:19:59.602
282,-383.0,1025.0,28.0,1094.5766304832202,2021-09-02 08:19:59.612
283,2.0,850.0,40.0,850.9430063171094,2021-09-02 08:19:59.622
284,-152.0,952.0,-192.0,982.9913529629852,2021-09-02 08:19:59.633
285,-33.0,952.0,-192.0,971.7288716509354,2021-09-02 08:19:59.642
286,-33.0,1331.0,-43.0,1332.103224228513,2021-09-02 08:19:59.643
287,-345.0,924.0,186.0,1003.691685728242,2021-09-02 08:19:59.651
288,-8.0,1322.0,-13.0,1322.0881211174994,2021-09-02 08:19:59.661
289,-261.0,906.0,171.0,958.226486797354,2021-09-02 08:19:59.671
290,-49.0,1149.0,-191.0,1165.7971521667052,2021-09-02 08:19:59.681
291,-82.0,984.0,-191.0,1005.7141741071366,2021-09-02 08:19:59.691
292,-82.0,984.0,-29.0,987.8365249371984,2021-09-02 08:19:59.692
293,-287.0,1007.0,-29.0,1047.5013126483425,2021-09-02 08:19:59.700
294,-287.0,1007.0,-28.0,1047.4741046918534,2021-09-02 08:19:59.701
295,-390.0,858.0,-70.0,945.0735421119354,2021-09-02 08:19:59.710
296,-290.0,1030.0,-70.0,1072.3339032223123,2021-09-02 08:19:59.719
297,-290.0,1030.0,-17.0,1070.1817602631806,2021-09-02 08:19:59.720
298,-208.0,1030.0,-17.0,1050.9295885072415,2021-09-02 08:19:59.731
299,-208.0,1047.0,-27.0,1067.8024161800722,2021-09-02 08:19:59.732
300,-109.0,956.0,-141.0,972.4700509527272,2021-09-02 08:19:59.739
301,33.0,1255.0,-152.0,1264.6019136471366,2021-09-02 08:19:59.750
302,-369.0,1255.0,-152.0,1316.92444733933,2021-09-02 08:19:59.758
303,-369.0,851.0,158.0,940.917637203172,2021-09-02 08:19:59.759
304,-117.0,1040.0,-77.0,1049.3893462390402,2021-09-02 08:19:59.768
305,-342.0,1040.0,-77.0,1097.49396353693,2021-09-02 08:19:59.778
306,-342.0,836.0,119.0,911.0548830888292,2021-09-02 08:19:59.779
307,11.0,1174.0,-40.0,1174.732735561583,2021-09-02 08:19:59.788
308,58.0,895.0,-4.0,896.8862804168654,2021-09-02 08:19:59.798
309,-342.0,782.0,-105.0,859.9494171170767,2021-09-02 08:19:59.807
310,-207.0,1077.0,-26.0,1097.0205102913983,2021-09-02 08:19:59.817
311,-239.0,887.0,50.0,919.9945652013386,2021-09-02 08:19:59.827
312,-269.0,808.0,-57.0,853.5068833934498,2021-09-02 08:19:59.837
313,64.0,1230.0,-231.0,1253.138859025607,2021-09-02 08:19:59.847
314,-225.0,966.0,49.0,993.0669665234062,2021-09-02 08:19:59.857
315,-163.0,893.0,22.0,908.0209248690252,2021-09-02 08:19:59.866
316,-24.0,1274.0,-190.0,1288.313626412451,2021-09-02 08:19:59.876
317,24.0,859.0,-190.0,880.0892000246339,2021-09-02 08:19:59.886
318,24.0,859.0,-56.0,861.1579413789319,2021-09-02 08:19:59.887
319,-102.0,1253.0,-143.0,1265.2517536047917,2021-09-02 08:19:59.895
320,-67.0,1082.0,-22.0,1084.2956238959928,2021-09-02 08:19:59.906
321,-315.0,850.0,-67.0,908.9631455675196,2021-09-02 08:19:59.915
322,-268.0,850.0,-67.0,893.7633915080658,2021-09-02 08:19:59.924
323,-268.0,978.0,-200.0,1033.5898606313822,2021-09-02 08:19:59.925
324,-471.0,1017.0,-48.0,1121.7994473166762,2021-09-02 08:19:59.937
325,-365.0,1028.0,-116.0,1097.02552385986,2021-09-02 08:19:59.944
326,-107.0,976.0,-59.0,983.618828611978,2021-09-02 08:19:59.954
327,-88.0,1038.0,-39.0,1042.4533562706774,2021-09-02 08:19:59.964
328,-256.0,970.0,8.0,1003.2447358446492,2021-09-02 08:19:59.973
329,-267.0,936.0,-61.0,975.2466354722789,2021-09-02 08:19:59.983
330,-255.0,936.0,-61.0,972.0298349330642,2021-09-02 08:19:59.993
331,-255.0,1013.0,40.0,1045.367877830575,2021-09-02 08:19:59.994
332,-253.0,931.0,9.0,964.8061981558784,2021-09-02 08:20:00.003
333,-209.0,847.0,9.0,872.4511447639919,2021-09-02 08:20:00.013
334,-209.0,847.0,9.0,872.4511447639919,2021-09-02 08:20:00.014
335,-185.0,941.0,0.0,959.013034322266,2021-09-02 08:20:00.022
336,-139.0,941.0,0.0,951.210807339782,2021-09-02 08:20:00.032
337,-139.0,1027.0,99.0,1041.0816490554428,2021-09-02 08:20:00.033
338,-170.0,764.0,-42.0,783.8112017571578,2021-09-02 08:20:00.042
339,-159.0,930.0,-32.0,944.0365459027528,2021-09-02 08:20:00.052
340,-212.0,1045.0,53.0,1067.603859116292,2021-09-02 08:20:00.062
341,-107.0,964.0,7.0,969.9453592857692,2021-09-02 08:20:00.071
342,-75.0,1018.0,-101.0,1025.7436326880124,2021-09-02 08:20:00.081
343,-214.0,1018.0,-101.0,1045.1416171983583,2021-09-02 08:20:00.090
344,-214.0,990.0,-47.0,1013.955127212245,2021-09-02 08:20:00.091
345,-200.0,1199.0,-23.0,1215.7836978673467,2021-09-02 08:20:00.100
