,Acceleration_X,Acceleration_Y,Acceleration_Z,magnitude,time_stamp
0,-265.0,1025.0,-71.0,1061.08011007652,2021-09-02 13:25:58.298
1,-192.0,1025.0,-71.0,1045.241598866023,2021-09-02 13:25:58.305
2,-192.0,1118.0,11.0,1134.420116182713,2021-09-02 13:25:58.306
3,-233.0,847.0,-83.0,882.3757702929064,2021-09-02 13:25:58.319
4,-222.0,985.0,-1.0,1009.7078785470578,2021-09-02 13:25:58.326
5,-222.0,1016.0,31.0,1040.433082903461,2021-09-02 13:25:58.336
6,-167.0,829.0,-2.0,845.6559584133491,2021-09-02 13:25:58.344
7,-202.0,914.0,-8.0,936.0897392878528,2021-09-02 13:25:58.354
8,-181.0,916.0,6.0,933.730689224682,2021-09-02 13:25:58.365
9,-179.0,851.0,-33.0,870.2476658974731,2021-09-02 13:25:58.374
10,-143.0,985.0,-10.0,995.3763107488544,2021-09-02 13:25:58.384
11,-126.0,976.0,18.0,984.264192176064,2021-09-02 13:25:58.394
12,-143.0,890.0,-22.0,901.6834255990292,2021-09-02 13:25:58.403
13,-81.0,890.0,-22.0,893.9491036966255,2021-09-02 13:25:58.413
14,-81.0,992.0,-96.0,999.9204968396238,2021-09-02 13:25:58.414
15,-196.0,1055.0,10.0,1073.098783896431,2021-09-02 13:25:58.422
16,-186.0,1023.0,-57.0,1041.332799829142,2021-09-02 13:25:58.433
17,-100.0,964.0,-124.0,977.0731804731926,2021-09-02 13:25:58.442
18,-201.0,1129.0,-81.0,1149.6099338471288,2021-09-02 13:25:58.452
19,-189.0,1057.0,-75.0,1076.380508927953,2021-09-02 13:25:58.462
20,-138.0,1009.0,-75.0,1021.1513110210454,2021-09-02 13:25:58.471
21,-138.0,1009.0,-66.0,1020.5297643871048,2021-09-02 13:25:58.472
22,-156.0,1009.0,-101.0,1025.9717345034414,2021-09-02 13:25:58.482
23,-103.0,939.0,-101.0,950.0163156493682,2021-09-02 13:25:58.491
24,-214.0,939.0,-101.0,968.3584047242013,2021-09-02 13:25:58.500
25,-214.0,1077.0,-22.0,1098.2754663562323,2021-09-02 13:25:58.501
26,-239.0,1121.0,12.0,1146.257388198654,2021-09-02 13:25:58.511
27,-142.0,922.0,-15.0,932.9914254697092,2021-09-02 13:25:58.521
28,-197.0,940.0,-42.0,961.339170116354,2021-09-02 13:25:58.530
29,-168.0,940.0,-42.0,955.8179743026388,2021-09-02 13:25:58.542
30,-168.0,963.0,10.0,977.5955196296676,2021-09-02 13:25:58.543
31,-100.0,873.0,27.0,879.1234270567472,2021-09-02 13:25:58.550
32,-194.0,821.0,-18.0,843.8015169457803,2021-09-02 13:25:58.560
33,-261.0,991.0,107.0,1030.3644986120205,2021-09-02 13:25:58.570
34,-165.0,918.0,64.0,934.9037383602656,2021-09-02 13:25:58.579
35,-129.0,907.0,20.0,916.3460045201268,2021-09-02 13:25:58.590
36,-213.0,973.0,-81.0,999.3292750640302,2021-09-02 13:25:58.598
37,-147.0,1036.0,0.0,1046.3770830823848,2021-09-02 13:25:58.608
38,-195.0,954.0,-52.0,975.1128139861562,2021-09-02 13:25:58.618
39,-148.0,1123.0,6.0,1132.7263570695263,2021-09-02 13:25:58.628
40,-114.0,1055.0,-12.0,1061.2092159418896,2021-09-02 13:25:58.638
41,-215.0,921.0,-12.0,945.838252556958,2021-09-02 13:25:58.647
42,-215.0,921.0,-95.0,950.521435844558,2021-09-02 13:25:58.648
43,-76.0,1152.0,-75.0,1156.937768421448,2021-09-02 13:25:58.657
44,-147.0,1099.0,-71.0,1111.0585043101917,2021-09-02 13:25:58.667
45,-162.0,1099.0,-71.0,1113.1423987972069,2021-09-02 13:25:58.676
46,-162.0,948.0,-141.0,972.0231478725184,2021-09-02 13:25:58.677
47,-68.0,1179.0,-50.0,1182.017343358379,2021-09-02 13:25:58.687
48,-264.0,1068.0,-68.0,1102.2449818438731,2021-09-02 13:25:58.701
49,-146.0,934.0,-68.0,947.7847856976816,2021-09-02 13:25:58.705
50,-146.0,934.0,-98.0,950.4083332967994,2021-09-02 13:25:58.706
51,-203.0,1020.0,-40.0,1040.7732702178705,2021-09-02 13:25:58.716
52,-273.0,1001.0,17.0,1037.6988965976595,2021-09-02 13:25:58.726
53,-183.0,1001.0,17.0,1017.7322830685878,2021-09-02 13:25:58.735
54,-183.0,880.0,-17.0,898.987207917888,2021-09-02 13:25:58.736
55,-303.0,1051.0,-17.0,1093.93738394846,2021-09-02 13:25:58.744
56,-303.0,1051.0,24.0,1094.0685536107871,2021-09-02 13:25:58.745
57,-145.0,905.0,25.0,916.8833077333232,2021-09-02 13:25:58.755
58,-183.0,813.0,-11.0,833.4140627563228,2021-09-02 13:25:58.764
59,-228.0,957.0,8.0,983.8175643888454,2021-09-02 13:25:58.775
60,-146.0,955.0,87.0,970.0051546254792,2021-09-02 13:25:58.784
61,-119.0,872.0,18.0,880.2664369382716,2021-09-02 13:25:58.794
62,-118.0,925.0,-62.0,934.5549743059528,2021-09-02 13:25:58.803
63,183.0,1196.0,2.0,1209.9210718059255,2021-09-02 13:25:58.813
64,47.0,964.0,198.0,985.2456546465962,2021-09-02 13:25:58.823
65,-20.0,964.0,198.0,984.3271813782244,2021-09-02 13:25:58.833
66,-20.0,1037.0,-135.0,1045.9416809746135,2021-09-02 13:25:58.834
67,-371.0,1077.0,-255.0,1167.3024458125667,2021-09-02 13:25:58.843
68,-214.0,1108.0,0.0,1128.4768495631622,2021-09-02 13:25:58.852
69,-314.0,1034.0,-233.0,1105.4596329129345,2021-09-02 13:25:58.862
70,-303.0,1089.0,-233.0,1154.1312750289717,2021-09-02 13:25:58.871
71,-303.0,1089.0,-99.0,1134.6942319409225,2021-09-02 13:25:58.872
72,-60.0,1062.0,-89.0,1067.4104177868978,2021-09-02 13:25:58.882
73,-253.0,1019.0,-108.0,1055.4780907247673,2021-09-02 13:25:58.892
74,-229.0,1181.0,-97.0,1206.9014044237415,2021-09-02 13:25:58.900
75,33.0,1075.0,-97.0,1079.8717516446109,2021-09-02 13:25:58.910
76,33.0,1075.0,-283.0,1112.116450737062,2021-09-02 13:25:58.911
77,-109.0,1068.0,-11.0,1073.6042101258731,2021-09-02 13:25:58.921
78,-354.0,1024.0,183.0,1098.8089005828083,2021-09-02 13:25:58.931
79,-16.0,1170.0,-111.0,1175.3624972747768,2021-09-02 13:25:58.940
80,-312.0,785.0,81.0,848.6047372010128,2021-09-02 13:25:58.965
81,-312.0,771.0,81.0,835.6709878893727,2021-09-02 13:25:58.966
82,-312.0,771.0,60.0,833.8974757126922,2021-09-02 13:25:58.967
83,-260.0,814.0,60.0,856.6189351164262,2021-09-02 13:25:58.969
84,-260.0,814.0,46.0,855.7523006104044,2021-09-02 13:25:58.970
85,-305.0,698.0,114.0,770.2110100485451,2021-09-02 13:25:58.979
86,-354.0,855.0,14.0,925.492841679502,2021-09-02 13:25:58.989
87,-311.0,812.0,112.0,876.7034846514528,2021-09-02 13:25:59.000
88,-218.0,876.0,-18.0,902.8975578657858,2021-09-02 13:25:59.010
89,49.0,1151.0,-97.0,1156.1189385180055,2021-09-02 13:25:59.018
90,-359.0,939.0,41.0,1006.1227559299114,2021-09-02 13:25:59.027
91,6.0,862.0,84.0,866.1039198618142,2021-09-02 13:25:59.038
92,-25.0,1157.0,-98.0,1161.4120715749427,2021-09-02 13:25:59.048
93,-140.0,1067.0,-88.0,1079.7374680912023,2021-09-02 13:25:59.058
94,-116.0,963.0,-45.0,971.0046343864688,2021-09-02 13:25:59.067
95,-222.0,1074.0,-45.0,1097.626985819864,2021-09-02 13:25:59.076
96,-222.0,1074.0,-281.0,1132.131176145238,2021-09-02 13:25:59.077
97,-265.0,1074.0,-281.0,1141.3421923332196,2021-09-02 13:25:59.086
98,-265.0,1169.0,-25.0,1198.9207646879756,2021-09-02 13:25:59.087
99,-137.0,1169.0,-25.0,1177.2659002961057,2021-09-02 13:25:59.097
100,-137.0,1024.0,-84.0,1036.5331639653407,2021-09-02 13:25:59.098
101,-344.0,1223.0,115.0,1275.652774072945,2021-09-02 13:25:59.107
102,34.0,1223.0,115.0,1228.865330294577,2021-09-02 13:25:59.115
103,34.0,946.0,-212.0,970.0597919716084,2021-09-02 13:25:59.116
104,-112.0,1286.0,-212.0,1308.160540606542,2021-09-02 13:25:59.135
105,-112.0,1286.0,-256.0,1316.0075987622563,2021-09-02 13:25:59.136
106,-407.0,1061.0,117.0,1142.3917891861793,2021-09-02 13:25:59.138
107,-88.0,833.0,50.0,839.1263313709087,2021-09-02 13:25:59.146
108,-91.0,1096.0,-91.0,1103.529791170134,2021-09-02 13:25:59.156
109,-316.0,861.0,76.0,920.300494403866,2021-09-02 13:25:59.164
110,-283.0,699.0,131.0,765.4090409709047,2021-09-02 13:25:59.174
111,-257.0,767.0,-31.0,809.5054045526812,2021-09-02 13:25:59.184
112,-398.0,883.0,-31.0,969.0479864279168,2021-09-02 13:25:59.194
113,-398.0,883.0,90.0,972.7245242102206,2021-09-02 13:25:59.195
114,-166.0,909.0,-11.0,924.098479600524,2021-09-02 13:25:59.210
115,136.0,1205.0,-11.0,1212.7002927351837,2021-09-02 13:25:59.213
116,136.0,1205.0,-60.0,1214.1338476461317,2021-09-02 13:25:59.214
117,-442.0,1205.0,-60.0,1284.908167924852,2021-09-02 13:25:59.223
118,-442.0,818.0,-8.0,929.8128844020176,2021-09-02 13:25:59.224
119,-15.0,1065.0,-96.0,1069.4232090243788,2021-09-02 13:25:59.233
120,-354.0,830.0,67.0,904.8231871476328,2021-09-02 13:25:59.244
121,14.0,1058.0,67.0,1060.2117712985455,2021-09-02 13:25:59.252
122,14.0,1058.0,112.0,1064.0037593918548,2021-09-02 13:25:59.253
123,-184.0,1106.0,-62.0,1122.914066168912,2021-09-02 13:25:59.262
124,-219.0,959.0,-82.0,987.0997923209184,2021-09-02 13:25:59.272
125,-23.0,1082.0,-31.0,1082.688320801513,2021-09-02 13:25:59.282
126,-439.0,1183.0,-200.0,1277.5797431080375,2021-09-02 13:25:59.293
127,-188.0,1010.0,18.0,1027.5057177456483,2021-09-02 13:25:59.301
128,-73.0,1037.0,-180.0,1055.0345965891356,2021-09-02 13:25:59.311
129,-70.0,1449.0,-199.0,1464.27524734935,2021-09-02 13:25:59.320
130,-397.0,864.0,127.0,959.2882778393572,2021-09-02 13:25:59.332
131,27.0,892.0,-32.0,892.9820826869932,2021-09-02 13:25:59.341
132,-181.0,1217.0,-32.0,1230.8021774436377,2021-09-02 13:25:59.350
133,-181.0,1217.0,-104.0,1234.7736634703544,2021-09-02 13:25:59.351
134,45.0,904.0,-75.0,908.221338661452,2021-09-02 13:25:59.360
135,-245.0,1154.0,-103.0,1184.2085964896555,2021-09-02 13:25:59.370
136,-317.0,775.0,-103.0,843.6367701801528,2021-09-02 13:25:59.379
137,-317.0,775.0,121.0,846.0230493313998,2021-09-02 13:25:59.380
138,-280.0,612.0,77.0,677.401653378555,2021-09-02 13:25:59.390
139,-477.0,831.0,-40.0,959.004692376424,2021-09-02 13:25:59.400
140,-335.0,831.0,-40.0,896.8756881530461,2021-09-02 13:25:59.408
141,-335.0,939.0,126.0,1004.89899989999,2021-09-02 13:25:59.409
142,-54.0,866.0,-5.0,867.6963754678246,2021-09-02 13:25:59.419
143,-64.0,1150.0,-167.0,1163.8234402176302,2021-09-02 13:25:59.428
144,-394.0,923.0,-167.0,1017.3760366747392,2021-09-02 13:25:59.438
145,-394.0,923.0,116.0,1010.2578878682413,2021-09-02 13:25:59.439
146,16.0,1037.0,117.0,1043.7020647675274,2021-09-02 13:25:59.448
147,-124.0,1031.0,-202.0,1057.8946072270148,2021-09-02 13:25:59.458
148,-286.0,988.0,-86.0,1032.1511517214908,2021-09-02 13:25:59.467
149,-222.0,984.0,-183.0,1025.1970542290885,2021-09-02 13:25:59.478
150,-247.0,959.0,-1.0,990.298439865478,2021-09-02 13:25:59.487
151,-74.0,1111.0,-94.0,1117.422480532766,2021-09-02 13:25:59.497
152,-533.0,1072.0,-178.0,1210.354080424402,2021-09-02 13:25:59.507
153,-10.0,1191.0,-58.0,1192.4533533853642,2021-09-02 13:25:59.517
154,-159.0,1072.0,-193.0,1100.778815203127,2021-09-02 13:25:59.526
155,-75.0,1462.0,-142.0,1470.7933233462818,2021-09-02 13:25:59.536
156,-411.0,779.0,193.0,901.671226112933,2021-09-02 13:25:59.546
157,9.0,1046.0,193.0,1063.6945050154202,2021-09-02 13:25:59.556
158,9.0,1046.0,-27.0,1046.3871176577052,2021-09-02 13:25:59.557
159,-176.0,1067.0,-43.0,1082.2726089114517,2021-09-02 13:25:59.565
160,-402.0,642.0,142.0,770.6698385171176,2021-09-02 13:25:59.576
161,-368.0,663.0,14.0,758.4121570755574,2021-09-02 13:25:59.585
162,-345.0,630.0,131.0,730.1273861457328,2021-09-02 13:25:59.595
163,-298.0,732.0,51.0,791.9779037321686,2021-09-02 13:25:59.604
164,-403.0,935.0,92.0,1022.300347256128,2021-09-02 13:25:59.614
165,-312.0,782.0,121.0,850.5933223344749,2021-09-02 13:25:59.624
166,18.0,943.0,121.0,950.9016773568128,2021-09-02 13:25:59.633
167,18.0,943.0,-135.0,952.7843407613288,2021-09-02 13:25:59.634
168,-121.0,1101.0,-163.0,1119.5583950826326,2021-09-02 13:25:59.643
169,-226.0,980.0,154.0,1017.443855944887,2021-09-02 13:25:59.653
170,12.0,1006.0,154.0,1017.7897621807756,2021-09-02 13:25:59.663
171,12.0,1006.0,-59.0,1007.8000793808264,2021-09-02 13:25:59.664
172,-154.0,1006.0,-59.0,1019.427780669136,2021-09-02 13:25:59.672
173,-154.0,1105.0,-108.0,1120.8947318994767,2021-09-02 13:25:59.673
174,-305.0,1098.0,-90.0,1143.122478127344,2021-09-02 13:25:59.683
175,-116.0,1041.0,-128.0,1055.2350449070575,2021-09-02 13:25:59.693
176,-387.0,1129.0,-264.0,1222.3362876066471,2021-09-02 13:25:59.702
177,-85.0,1062.0,-264.0,1097.617875218876,2021-09-02 13:25:59.718
178,-85.0,1062.0,-254.0,1095.2556779126962,2021-09-02 13:25:59.719
179,-355.0,1164.0,-206.0,1234.243492994798,2021-09-02 13:25:59.723
180,-334.0,1031.0,-206.0,1103.1559273284988,2021-09-02 13:25:59.731
181,-334.0,1031.0,-4.0,1083.7587369890034,2021-09-02 13:25:59.732
182,105.0,1240.0,-350.0,1292.7200006188502,2021-09-02 13:25:59.742
183,-229.0,1216.0,-74.0,1239.585817924681,2021-09-02 13:25:59.752
184,-363.0,839.0,175.0,930.7604417894004,2021-09-02 13:25:59.760
185,126.0,1296.0,-61.0,1303.5386453803355,2021-09-02 13:25:59.770
186,-178.0,846.0,-21.0,864.7780061958098,2021-09-02 13:25:59.783
187,-436.0,642.0,86.0,780.8047131005294,2021-09-02 13:25:59.790
188,-343.0,795.0,75.0,869.0793979838666,2021-09-02 13:25:59.801
189,-380.0,840.0,68.0,924.4587605729096,2021-09-02 13:25:59.810
190,-360.0,686.0,51.0,776.4000257599172,2021-09-02 13:25:59.819
191,112.0,1039.0,-70.0,1047.3609692937769,2021-09-02 13:25:59.829
192,-247.0,1098.0,-39.0,1126.1145590036565,2021-09-02 13:25:59.839
193,84.0,1098.0,-39.0,1101.8988156813673,2021-09-02 13:25:59.849
194,84.0,1148.0,-121.0,1157.4113356970372,2021-09-02 13:25:59.850
195,-348.0,960.0,6.0,1021.1464145753048,2021-09-02 13:25:59.858
196,-75.0,831.0,182.0,853.9964871122129,2021-09-02 13:25:59.868
197,-11.0,1085.0,-74.0,1087.576204226628,2021-09-02 13:25:59.877
198,-144.0,1074.0,-85.0,1086.939280732829,2021-09-02 13:25:59.888
199,-205.0,1014.0,-76.0,1037.3027523341486,2021-09-02 13:25:59.898
200,-119.0,1014.0,-76.0,1023.783668555032,2021-09-02 13:25:59.906
201,-119.0,1037.0,-270.0,1078.1604704310023,2021-09-02 13:25:59.907
202,-344.0,1247.0,-74.0,1295.6932507349106,2021-09-02 13:25:59.917
203,-132.0,1077.0,-57.0,1086.5551067479275,2021-09-02 13:25:59.926
204,66.0,1163.0,-57.0,1166.2649784675864,2021-09-02 13:25:59.936
205,66.0,1163.0,-344.0,1214.6032273956791,2021-09-02 13:25:59.937
206,-176.0,1224.0,-8.0,1236.614733860146,2021-09-02 13:25:59.947
207,-290.0,923.0,-8.0,967.5189920616546,2021-09-02 13:25:59.955
208,-290.0,923.0,139.0,977.4200734586948,2021-09-02 13:25:59.956
209,-417.0,1136.0,40.0,1210.778675068239,2021-09-02 13:25:59.965
210,-209.0,892.0,27.0,916.5555084117927,2021-09-02 13:25:59.986
211,-80.0,1101.0,-47.0,1104.9027106492226,2021-09-02 13:25:59.988
212,-298.0,821.0,-47.0,874.6736534273797,2021-09-02 13:25:59.994
213,-298.0,821.0,25.0,873.7677036833073,2021-09-02 13:25:59.995
214,-418.0,663.0,76.0,787.4446012260164,2021-09-02 13:26:00.004
215,-132.0,820.0,90.0,835.418458019692,2021-09-02 13:26:00.016
216,-410.0,832.0,19.0,927.7311032837048,2021-09-02 13:26:00.024
217,-360.0,902.0,40.0,972.0102880113976,2021-09-02 13:26:00.034
218,225.0,1055.0,-3.0,1078.7302721255207,2021-09-02 13:26:00.043
219,-413.0,835.0,-88.0,935.7018755992744,2021-09-02 13:26:00.053
220,-80.0,902.0,71.0,908.3198775761764,2021-09-02 13:26:00.065
221,50.0,902.0,71.0,906.1705137555514,2021-09-02 13:26:00.072
222,50.0,1189.0,-12.0,1190.1113393292242,2021-09-02 13:26:00.073
223,-112.0,1011.0,-119.0,1024.1220630374096,2021-09-02 13:26:00.082
224,-72.0,1193.0,-99.0,1199.2639409237652,2021-09-02 13:26:00.092
225,-219.0,958.0,-91.0,986.9174230907062,2021-09-02 13:26:00.102
226,-123.0,1003.0,-86.0,1014.1666529717884,2021-09-02 13:26:00.113
227,-263.0,1190.0,-259.0,1245.9333850571627,2021-09-02 13:26:00.123
228,-393.0,1053.0,-259.0,1153.403225242586,2021-09-02 13:26:00.131
229,-393.0,1053.0,47.0,1124.929775586014,2021-09-02 13:26:00.132
230,-41.0,1015.0,47.0,1016.914450679112,2021-09-02 13:26:00.153
231,-41.0,1015.0,-200.0,1035.328933238128,2021-09-02 13:26:00.154
232,-41.0,1388.0,-231.0,1407.688175698013,2021-09-02 13:26:00.155
233,-465.0,1011.0,81.0,1115.7540051462956,2021-09-02 13:26:00.162
234,34.0,806.0,81.0,810.7730878612092,2021-09-02 13:26:00.170
235,34.0,806.0,48.0,808.1435516045401,2021-09-02 13:26:00.171
236,-97.0,1202.0,-118.0,1211.6670334708294,2021-09-02 13:26:00.184
237,-292.0,871.0,-118.0,926.1905851389334,2021-09-02 13:26:00.190
238,-292.0,871.0,88.0,922.8483082283892,2021-09-02 13:26:00.191
239,-297.0,671.0,82.0,738.3589912772784,2021-09-02 13:26:00.200
240,-365.0,842.0,146.0,929.2496973365124,2021-09-02 13:26:00.211
241,-221.0,622.0,45.0,661.6267830129007,2021-09-02 13:26:00.225
242,-363.0,819.0,-27.0,896.2471757277676,2021-09-02 13:26:00.229
243,-284.0,896.0,78.0,943.1627643201358,2021-09-02 13:26:00.239
244,-59.0,896.0,78.0,901.3218071255128,2021-09-02 13:26:00.248
245,-59.0,927.0,40.0,929.7365218167996,2021-09-02 13:26:00.249
246,-20.0,1081.0,-176.0,1095.4163591986382,2021-09-02 13:26:00.260
247,-424.0,854.0,72.0,956.177807732432,2021-09-02 13:26:00.268
248,-106.0,1053.0,152.0,1069.1814626152102,2021-09-02 13:26:00.278
249,-68.0,1053.0,152.0,1066.084893430162,2021-09-02 13:26:00.287
250,-68.0,1042.0,-135.0,1052.906928460441,2021-09-02 13:26:00.288
251,-241.0,1042.0,-135.0,1077.993506473949,2021-09-02 13:26:00.297
252,-241.0,960.0,-84.0,993.3463645677676,2021-09-02 13:26:00.298
253,-47.0,1119.0,-64.0,1121.8137100249755,2021-09-02 13:26:00.308
254,-328.0,1090.0,-229.0,1161.087851973312,2021-09-02 13:26:00.318
255,-188.0,1125.0,-229.0,1163.3615087323458,2021-09-02 13:26:00.326
256,-188.0,1125.0,-33.0,1141.0775609046038,2021-09-02 13:26:00.327
257,-393.0,1104.0,-213.0,1191.06423000609,2021-09-02 13:26:00.336
258,-55.0,1176.0,-213.0,1196.3987629548938,2021-09-02 13:26:00.346
259,-55.0,1176.0,-11.0,1177.3368252118846,2021-09-02 13:26:00.347
260,-73.0,1046.0,-248.0,1077.4734335472035,2021-09-02 13:26:00.357
261,-16.0,1364.0,-158.0,1373.2137488388323,2021-09-02 13:26:00.366
262,-379.0,908.0,174.0,999.1901720893776,2021-09-02 13:26:00.375
263,86.0,872.0,-40.0,877.1430898091827,2021-09-02 13:26:00.386
264,-160.0,1199.0,-40.0,1210.289634756904,2021-09-02 13:26:00.395
265,-160.0,1199.0,-22.0,1209.8285002429063,2021-09-02 13:26:00.396
266,-410.0,676.0,107.0,797.825168818332,2021-09-02 13:26:00.406
267,-331.0,600.0,68.0,688.6109206220883,2021-09-02 13:26:00.415
268,-384.0,880.0,-21.0,960.3629522217108,2021-09-02 13:26:00.424
269,-315.0,900.0,113.0,960.205186405489,2021-09-02 13:26:00.434
270,-76.0,856.0,-1.0,859.367790878853,2021-09-02 13:26:00.444
271,113.0,856.0,-1.0,863.4268932573273,2021-09-02 13:26:00.454
272,113.0,1181.0,-79.0,1189.0210258864222,2021-09-02 13:26:00.455
273,107.0,804.0,-84.0,815.4268820685273,2021-09-02 13:26:00.464
274,-29.0,1167.0,-129.0,1174.4662617546746,2021-09-02 13:26:00.474
275,-358.0,940.0,170.0,1020.1294035562352,2021-09-02 13:26:00.483
276,115.0,992.0,87.0,1002.426057123417,2021-09-02 13:26:00.493
277,-52.0,992.0,87.0,997.1644799129178,2021-09-02 13:26:00.503
278,-52.0,1051.0,-172.0,1066.249970691676,2021-09-02 13:26:00.504
279,-292.0,1081.0,-37.0,1120.354408211973,2021-09-02 13:26:00.513
280,-18.0,1049.0,-125.0,1056.5746542483405,2021-09-02 13:26:00.522
281,-455.0,1058.0,-222.0,1172.8908730141948,2021-09-02 13:26:00.532
282,-94.0,1239.0,-222.0,1262.2365071570382,2021-09-02 13:26:00.541
283,-94.0,1239.0,-17.0,1242.6769491706202,2021-09-02 13:26:00.542
284,-96.0,1045.0,-216.0,1071.3995519879593,2021-09-02 13:26:00.552
285,-98.0,1383.0,-172.0,1397.0959165354395,2021-09-02 13:26:00.562
286,-417.0,830.0,144.0,939.9601055364,2021-09-02 13:26:00.571
287,116.0,1064.0,25.0,1070.5965626696177,2021-09-02 13:26:00.581
288,-394.0,814.0,25.0,904.6861334186568,2021-09-02 13:26:00.590
289,-394.0,814.0,172.0,920.5520083080586,2021-09-02 13:26:00.591
290,99.0,1170.0,-60.0,1175.7129751771902,2021-09-02 13:26:00.600
291,-106.0,1170.0,-60.0,1176.323084870819,2021-09-02 13:26:00.610
292,-106.0,971.0,67.0,979.0638385723374,2021-09-02 13:26:00.611
293,-376.0,652.0,67.0,755.624906947885,2021-09-02 13:26:00.620
294,-376.0,652.0,47.0,754.1147127592725,2021-09-02 13:26:00.621
295,-420.0,706.0,47.0,822.8274424203413,2021-09-02 13:26:00.629
296,-420.0,706.0,83.0,825.6663975238425,2021-09-02 13:26:00.630
297,-247.0,912.0,72.0,947.5953777852654,2021-09-02 13:26:00.639
298,-325.0,714.0,-26.0,784.9184671034311,2021-09-02 13:26:00.649
299,-3.0,714.0,-26.0,714.4795308474554,2021-09-02 13:26:00.659
300,-3.0,1045.0,-70.0,1047.3461700889538,2021-09-02 13:26:00.660
301,-23.0,1148.0,-100.0,1152.5766785771782,2021-09-02 13:26:00.669
302,-326.0,792.0,121.0,864.9745661000675,2021-09-02 13:26:00.678
303,52.0,792.0,121.0,802.8754573406762,2021-09-02 13:26:00.687
304,52.0,1023.0,-1.0,1024.321238674665,2021-09-02 13:26:00.688
305,-162.0,1153.0,-88.0,1167.645922358315,2021-09-02 13:26:00.698
306,55.0,1040.0,-98.0,1046.0540139017678,2021-09-02 13:26:00.708
307,-167.0,1109.0,-116.0,1127.4865852860512,2021-09-02 13:26:00.718
308,-232.0,1003.0,-24.0,1029.761622901145,2021-09-02 13:26:00.735
309,-75.0,1016.0,-174.0,1033.516811667812,2021-09-02 13:26:00.739
310,-270.0,1183.0,-187.0,1227.7450875487143,2021-09-02 13:26:00.747
311,-219.0,1254.0,-34.0,1273.4335475398784,2021-09-02 13:26:00.758
312,22.0,1254.0,-34.0,1254.6537370924298,2021-09-02 13:26:00.765
313,22.0,997.0,-337.0,1052.6452393850457,2021-09-02 13:26:00.766
314,-123.0,1421.0,-117.0,1431.1041192030718,2021-09-02 13:26:00.776
315,-455.0,928.0,173.0,1047.920798533935,2021-09-02 13:26:00.785
316,64.0,928.0,173.0,946.1548499056588,2021-09-02 13:26:00.795
317,64.0,973.0,-27.0,975.4762939200522,2021-09-02 13:26:00.796
318,-53.0,1016.0,-30.0,1017.8236585971068,2021-09-02 13:26:00.806
319,-455.0,716.0,61.0,850.5304227363064,2021-09-02 13:26:00.818
320,-357.0,721.0,29.0,805.0658358171709,2021-09-02 13:26:00.825
321,-488.0,693.0,68.0,850.304063262078,2021-09-02 13:26:00.834
322,-259.0,781.0,59.0,824.9381795019551,2021-09-02 13:26:00.845
323,-373.0,854.0,79.0,935.2464915732108,2021-09-02 13:26:00.854
324,-382.0,777.0,33.0,866.4536917804667,2021-09-02 13:26:00.865
325,153.0,1100.0,-45.0,1111.500787224193,2021-09-02 13:26:00.874
326,-71.0,989.0,-100.0,996.5751351503808,2021-09-02 13:26:00.884
327,-223.0,846.0,133.0,884.9485860771799,2021-09-02 13:26:00.893
328,-6.0,1142.0,-7.0,1142.037214805192,2021-09-02 13:26:00.903
329,20.0,1041.0,-121.0,1048.1994085096594,2021-09-02 13:26:00.913
330,-300.0,937.0,-96.0,988.5266814810816,2021-09-02 13:26:00.923
331,-57.0,1069.0,-132.0,1078.6259778069505,2021-09-02 13:26:00.932
332,-271.0,1218.0,-154.0,1257.2513670702451,2021-09-02 13:26:00.942
333,-149.0,1031.0,-154.0,1053.0327630230695,2021-09-02 13:26:00.952
334,-149.0,1031.0,-81.0,1044.8554924007435,2021-09-02 13:26:00.953
335,-273.0,1119.0,-145.0,1160.9112799865457,2021-09-02 13:26:00.961
336,-264.0,983.0,-82.0,1021.1312354442988,2021-09-02 13:26:00.972
337,79.0,1269.0,-82.0,1274.0981123916636,2021-09-02 13:26:00.980
338,79.0,1269.0,-287.0,1303.4458178228967,2021-09-02 13:26:00.981
339,-270.0,1168.0,10.0,1198.842775346292,2021-09-02 13:26:01.001
340,-392.0,845.0,46.0,932.6333684787394,2021-09-02 13:26:01.008
341,59.0,1111.0,-163.0,1124.4425285447007,2021-09-02 13:26:01.013
342,-179.0,900.0,87.0,921.7429142662286,2021-09-02 13:26:01.025
343,-454.0,673.0,87.0,816.4643286757848,2021-09-02 13:26:01.030
344,-454.0,673.0,62.0,814.1799555380862,2021-09-02 13:26:01.031
345,-306.0,722.0,62.0,786.6155350614429,2021-09-02 13:26:01.039
346,-306.0,722.0,15.0,784.3118002427351,2021-09-02 13:26:01.040
347,-374.0,917.0,69.0,992.7366216676002,2021-09-02 13:26:01.050
348,-317.0,859.0,87.0,919.7494223972092,2021-09-02 13:26:01.061
349,211.0,929.0,-114.0,959.457138177626,2021-09-02 13:26:01.069
350,-156.0,1050.0,-114.0,1067.629149096258,2021-09-02 13:26:01.078
351,-156.0,1050.0,-141.0,1070.848728812805,2021-09-02 13:26:01.079
352,218.0,1028.0,-92.0,1054.880087972088,2021-09-02 13:26:01.089
353,-342.0,1028.0,-92.0,1087.2957279415753,2021-09-02 13:26:01.098
354,-342.0,919.0,-45.0,981.6058272035676,2021-09-02 13:26:01.099
355,-98.0,973.0,196.0,997.3710442959532,2021-09-02 13:26:01.109
356,89.0,1118.0,-72.0,1123.845629968814,2021-09-02 13:26:01.118
357,-101.0,929.0,-128.0,943.1998727735285,2021-09-02 13:26:01.128
358,-294.0,1090.0,-68.0,1130.9995579132649,2021-09-02 13:26:01.137
359,-96.0,1084.0,-180.0,1103.028558107178,2021-09-02 13:26:01.148
360,-268.0,1111.0,-111.0,1148.2447474297455,2021-09-02 13:26:01.173
361,90.0,1228.0,-255.0,1257.4215681305932,2021-09-02 13:26:01.178
362,-274.0,1213.0,35.0,1244.0538573550584,2021-09-02 13:26:01.186
363,-275.0,751.0,47.0,801.1460540999999,2021-09-02 13:26:01.196
364,-373.0,1011.0,92.0,1081.5331710123369,2021-09-02 13:26:01.208
365,-129.0,801.0,26.0,811.7376423451115,2021-09-02 13:26:01.215
366,-61.0,1219.0,-99.0,1224.5337888355714,2021-09-02 13:26:01.225
367,-305.0,821.0,106.0,882.2142596897876,2021-09-02 13:26:01.240
368,-403.0,586.0,15.0,711.3578564969955,2021-09-02 13:26:01.245
369,-245.0,915.0,40.0,948.0770010922108,2021-09-02 13:26:01.255
370,-411.0,913.0,105.0,1006.7348210924264,2021-09-02 13:26:01.265
371,-176.0,913.0,105.0,935.718974906462,2021-09-02 13:26:01.274
372,-176.0,740.0,3.0,760.6477502760393,2021-09-02 13:26:01.275
373,207.0,740.0,3.0,768.4126495575148,2021-09-02 13:26:01.283
374,207.0,1147.0,-109.0,1170.6147957376927,2021-09-02 13:26:01.284
375,-371.0,1042.0,-109.0,1111.4342085791673,2021-09-02 13:26:01.294
376,-371.0,1042.0,20.0,1106.257203366378,2021-09-02 13:26:01.295
377,-44.0,892.0,166.0,908.3809773437574,2021-09-02 13:26:01.303
378,154.0,1099.0,-120.0,1116.206522109596,2021-09-02 13:26:01.313
379,179.0,910.0,167.0,942.3534368802398,2021-09-02 13:26:01.323
380,-15.0,1058.0,167.0,1071.203995511593,2021-09-02 13:26:01.333
381,-15.0,1058.0,-139.0,1067.1972638645584,2021-09-02 13:26:01.334
382,-233.0,1101.0,-139.0,1133.9360652170826,2021-09-02 13:26:01.342
383,-233.0,1101.0,-131.0,1132.983230237765,2021-09-02 13:26:01.343
384,-49.0,1097.0,45.0,1099.0154684989652,2021-09-02 13:26:01.353
385,-207.0,1083.0,-264.0,1133.7698179083795,2021-09-02 13:26:01.362
386,-400.0,1085.0,-33.0,1156.8552199821722,2021-09-02 13:26:01.372
387,21.0,1149.0,-116.0,1155.0316012992892,2021-09-02 13:26:01.383
388,124.0,1292.0,-182.0,1310.6349606202332,2021-09-02 13:26:01.391
389,-514.0,988.0,99.0,1118.09704408875,2021-09-02 13:26:01.401
390,25.0,937.0,112.0,944.0010593214396,2021-09-02 13:26:01.411
391,-55.0,1191.0,-82.0,1195.0857709804766,2021-09-02 13:26:01.420
392,-394.0,699.0,11.0,802.4699371316037,2021-09-02 13:26:01.432
393,-310.0,672.0,62.0,742.6493115865658,2021-09-02 13:26:01.440
394,-446.0,672.0,62.0,808.915323133392,2021-09-02 13:26:01.449
395,-446.0,653.0,82.0,795.0150941963303,2021-09-02 13:26:01.450
396,-422.0,648.0,-5.0,773.3130026063185,2021-09-02 13:26:01.460
397,-382.0,896.0,-18.0,974.1991582833564,2021-09-02 13:26:01.469
398,-274.0,896.0,-18.0,937.13179435979,2021-09-02 13:26:01.479
399,-274.0,797.0,53.0,844.4489327366102,2021-09-02 13:26:01.480
400,-49.0,837.0,-18.0,838.6262576380494,2021-09-02 13:26:01.490
401,71.0,1311.0,-60.0,1314.291444086889,2021-09-02 13:26:01.499
402,-388.0,832.0,112.0,924.830795335017,2021-09-02 13:26:01.509
403,0.0,880.0,112.0,887.0986416402632,2021-09-02 13:26:01.518
404,0.0,880.0,98.0,885.4400036140224,2021-09-02 13:26:01.519
405,-104.0,1176.0,-65.0,1182.3776892347048,2021-09-02 13:26:01.528
406,-246.0,1176.0,-65.0,1203.2111202943563,2021-09-02 13:26:01.538
407,-246.0,988.0,-20.0,1018.3614289632144,2021-09-02 13:26:01.539
408,14.0,988.0,-20.0,988.3015734076316,2021-09-02 13:26:01.547
409,14.0,979.0,-50.0,980.3759482973866,2021-09-02 13:26:01.548
410,-227.0,1111.0,-231.0,1157.2428440046626,2021-09-02 13:26:01.559
411,-347.0,1232.0,46.0,1280.7611018453051,2021-09-02 13:26:01.568
412,-461.0,1097.0,-276.0,1221.5179081781814,2021-09-02 13:26:01.577
413,-139.0,1228.0,11.0,1235.8907718726605,2021-09-02 13:26:01.589
414,-59.0,1024.0,-199.0,1044.8243871579568,2021-09-02 13:26:01.596
415,-5.0,1289.0,-199.0,1304.2802612935611,2021-09-02 13:26:01.605
416,-5.0,1289.0,-204.0,1305.0524893658492,2021-09-02 13:26:01.606
417,-436.0,975.0,148.0,1078.2508984461826,2021-09-02 13:26:01.616
418,19.0,945.0,20.0,945.4025597595978,2021-09-02 13:26:01.626
419,-23.0,945.0,20.0,945.4914066240898,2021-09-02 13:26:01.635
420,-23.0,1026.0,-51.0,1027.524208960548,2021-09-02 13:26:01.636
421,-485.0,774.0,81.0,916.98527796252,2021-09-02 13:26:01.649
422,-318.0,774.0,81.0,840.6907873885618,2021-09-02 13:26:01.654
423,-318.0,730.0,138.0,808.1262277639552,2021-09-02 13:26:01.655
424,-279.0,792.0,138.0,850.9694471601199,2021-09-02 13:26:01.664
425,-279.0,792.0,-24.0,840.0482129020929,2021-09-02 13:26:01.665
426,-301.0,823.0,27.0,876.7320001003727,2021-09-02 13:26:01.675
427,-48.0,1050.0,24.0,1051.3705341124985,2021-09-02 13:26:01.685
428,-285.0,813.0,16.0,861.6553835495952,2021-09-02 13:26:01.694
429,-22.0,1046.0,0.0,1046.2313319720454,2021-09-02 13:26:01.704
430,16.0,1143.0,-57.0,1144.5322188562452,2021-09-02 13:26:01.713
431,-305.0,1143.0,-57.0,1184.3660751642626,2021-09-02 13:26:01.723
432,-305.0,833.0,58.0,888.9758151940918,2021-09-02 13:26:01.724
433,-33.0,833.0,58.0,835.6685945995578,2021-09-02 13:26:01.733
434,-33.0,1044.0,0.0,1044.521421513221,2021-09-02 13:26:01.734
435,-125.0,1172.0,-110.0,1183.768980840434,2021-09-02 13:26:01.751
436,-236.0,941.0,-110.0,976.3590528079308,2021-09-02 13:26:01.754
437,-236.0,941.0,-43.0,971.0952579433184,2021-09-02 13:26:01.755
438,-15.0,1092.0,-84.0,1095.328717782931,2021-09-02 13:26:01.762
439,-390.0,1092.0,-84.0,1162.5919318488322,2021-09-02 13:26:01.773
440,-390.0,1166.0,-199.0,1245.4946808397056,2021-09-02 13:26:01.774
441,-121.0,1123.0,-40.0,1130.2079454684435,2021-09-02 13:26:01.782
442,-134.0,966.0,-265.0,1010.6121907042284,2021-09-02 13:26:01.792
443,-125.0,1468.0,-110.0,1477.4129415975751,2021-09-02 13:26:01.801
444,-427.0,898.0,-110.0,1000.416413299982,2021-09-02 13:26:01.810
445,-427.0,898.0,228.0,1020.155380322037,2021-09-02 13:26:01.811
446,-58.0,1366.0,-122.0,1372.6631050625642,2021-09-02 13:26:01.822
447,-500.0,817.0,-122.0,965.594635444916,2021-09-02 13:26:01.830
448,-500.0,817.0,202.0,978.9244097477598,2021-09-02 13:26:01.831
449,91.0,1097.0,-93.0,1104.689549149443,2021-09-02 13:26:01.840
450,-128.0,882.0,25.0,891.5901524803871,2021-09-02 13:26:01.850
451,-474.0,812.0,172.0,955.826344060468,2021-09-02 13:26:01.860
452,-318.0,671.0,127.0,753.3219763155726,2021-09-02 13:26:01.871
453,-376.0,843.0,35.0,923.7153241123588,2021-09-02 13:26:01.880
454,-341.0,856.0,35.0,922.0856793161902,2021-09-02 13:26:01.889
455,7.0,1015.0,-28.0,1015.4102619138728,2021-09-02 13:26:01.899
456,-73.0,1102.0,-119.0,1110.8078141604874,2021-09-02 13:26:01.909
457,-288.0,929.0,196.0,992.1698443311004,2021-09-02 13:26:01.919
458,-39.0,1069.0,196.0,1087.5191952328933,2021-09-02 13:26:01.929
459,-39.0,1069.0,9.0,1069.749035989283,2021-09-02 13:26:01.930
460,-204.0,970.0,182.0,1007.7896605939158,2021-09-02 13:26:01.938
461,-21.0,1148.0,-59.0,1149.7069191754915,2021-09-02 13:26:01.948
462,-130.0,966.0,-59.0,976.4921914690358,2021-09-02 13:26:01.957
463,-130.0,966.0,-100.0,979.8244740768624,2021-09-02 13:26:01.958
464,-330.0,1013.0,-144.0,1075.083717670396,2021-09-02 13:26:01.968
465,-136.0,1151.0,-125.0,1165.7280986576586,2021-09-02 13:26:01.978
466,-282.0,1094.0,-107.0,1134.8167252909168,2021-09-02 13:26:01.987
467,-129.0,1047.0,-107.0,1060.329665717224,2021-09-02 13:26:01.996
468,-129.0,1047.0,-119.0,1061.607743001152,2021-09-02 13:26:01.997
469,14.0,1154.0,-359.0,1208.6326985482397,2021-09-02 13:26:02.016
470,-72.0,1338.0,0.0,1339.9358193585244,2021-09-02 13:26:02.019
471,-428.0,756.0,133.0,878.8680219464126,2021-09-02 13:26:02.026
472,160.0,1109.0,-144.0,1129.697747187273,2021-09-02 13:26:02.036
473,-143.0,1010.0,157.0,1032.0842988826057,2021-09-02 13:26:02.045
474,-22.0,1213.0,-121.0,1219.218602220291,2021-09-02 13:26:02.057
475,-228.0,857.0,78.0,890.2342388382958,2021-09-02 13:26:02.065
476,-384.0,716.0,144.0,825.1351404467028,2021-09-02 13:26:02.076
477,-219.0,739.0,-50.0,772.3872085942387,2021-09-02 13:26:02.084
478,-506.0,982.0,57.0,1106.1686128253684,2021-09-02 13:26:02.094
479,-377.0,982.0,57.0,1053.423941250625,2021-09-02 13:26:02.104
480,-377.0,855.0,80.0,937.845403038262,2021-09-02 13:26:02.105
481,228.0,1004.0,-142.0,1039.309386082893,2021-09-02 13:26:02.114
482,-375.0,1037.0,-42.0,1103.5207293023543,2021-09-02 13:26:02.124
483,-143.0,934.0,182.0,962.2520459837953,2021-09-02 13:26:02.133
484,89.0,1090.0,-110.0,1099.1455772553516,2021-09-02 13:26:02.143
485,-79.0,1002.0,-112.0,1011.3303120148232,2021-09-02 13:26:02.153
486,-302.0,1030.0,-112.0,1079.1885840760178,2021-09-02 13:26:02.162
487,-302.0,1030.0,-24.0,1073.629358764001,2021-09-02 13:26:02.163
488,-150.0,950.0,-80.0,965.090669315583,2021-09-02 13:26:02.173
489,-200.0,1049.0,-80.0,1070.8879493205627,2021-09-02 13:26:02.192
490,-200.0,1049.0,-57.0,1069.4157283301945,2021-09-02 13:26:02.193
491,-70.0,1174.0,-165.0,1187.6030481604532,2021-09-02 13:26:02.195
492,-389.0,988.0,-40.0,1062.5747032561992,2021-09-02 13:26:02.203
493,-193.0,1048.0,-143.0,1075.1753345385114,2021-09-02 13:26:02.211
494,45.0,1416.0,-235.0,1436.0731179156585,2021-09-02 13:26:02.222
495,-444.0,922.0,71.0,1025.7977383480625,2021-09-02 13:26:02.231
496,-182.0,922.0,71.0,942.469628157852,2021-09-02 13:26:02.240
497,-182.0,897.0,-6.0,915.297219486654,2021-09-02 13:26:02.241
498,-85.0,1275.0,-78.0,1280.2085767561473,2021-09-02 13:26:02.259
499,-273.0,851.0,135.0,903.8556300648904,2021-09-02 13:26:02.263
500,-380.0,557.0,-24.0,674.7036386444051,2021-09-02 13:26:02.270
501,-222.0,857.0,-31.0,885.8295547112887,2021-09-02 13:26:02.281
502,-376.0,609.0,50.0,717.4656786216327,2021-09-02 13:26:02.289
503,-272.0,852.0,-72.0,897.2580453804803,2021-09-02 13:26:02.300
504,-292.0,881.0,103.0,933.827607216664,2021-09-02 13:26:02.309
505,-114.0,895.0,103.0,908.0914050909192,2021-09-02 13:26:02.319
506,-114.0,895.0,-50.0,903.6155155817104,2021-09-02 13:26:02.320
507,100.0,895.0,-50.0,901.9562073626412,2021-09-02 13:26:02.329
508,100.0,1074.0,-138.0,1087.4373545174913,2021-09-02 13:26:02.330
509,-452.0,939.0,125.0,1049.5951600498165,2021-09-02 13:26:02.339
510,-27.0,894.0,74.0,897.4636482888875,2021-09-02 13:26:02.349
511,-89.0,1006.0,-115.0,1016.4556065072394,2021-09-02 13:26:02.358
512,-286.0,976.0,-25.0,1017.3480230481604,2021-09-02 13:26:02.367
513,-64.0,1064.0,-25.0,1066.2162069674237,2021-09-02 13:26:02.378
514,-64.0,1064.0,-13.0,1066.0023452131802,2021-09-02 13:26:02.379
515,-207.0,1064.0,-13.0,1084.026752437411,2021-09-02 13:26:02.388
516,-207.0,1066.0,-240.0,1112.1173499231095,2021-09-02 13:26:02.389
517,-279.0,1118.0,7.0,1152.3081185169185,2021-09-02 13:26:02.397
518,-94.0,1103.0,-196.0,1124.215726629013,2021-09-02 13:26:02.407
519,-21.0,1184.0,-42.0,1184.930799667221,2021-09-02 13:26:02.417
520,-162.0,1023.0,-188.0,1052.6713637218409,2021-09-02 13:26:02.427
521,-13.0,1443.0,-75.0,1445.0062283602797,2021-09-02 13:26:02.438
522,-397.0,788.0,125.0,891.1666510816033,2021-09-02 13:26:02.446
523,-16.0,926.0,-49.0,927.4335555715028,2021-09-02 13:26:02.455
524,0.0,1168.0,-49.0,1169.0273735032897,2021-09-02 13:26:02.468
525,0.0,1168.0,-25.0,1168.267520733158,2021-09-02 13:26:02.469
526,-434.0,662.0,52.0,793.2868333711332,2021-09-02 13:26:02.475
527,-423.0,661.0,-12.0,784.8528524506999,2021-09-02 13:26:02.486
528,-394.0,951.0,51.0,1030.649309901287,2021-09-02 13:26:02.495
529,-273.0,814.0,38.0,859.4003723527236,2021-09-02 13:26:02.504
530,-75.0,828.0,-90.0,836.2469730886922,2021-09-02 13:26:02.514
531,-6.0,1266.0,-15.0,1266.1030763725362,2021-09-02 13:26:02.524
532,-311.0,857.0,118.0,919.2899433802156,2021-09-02 13:26:02.535
533,-15.0,1192.0,-109.0,1197.0672495728884,2021-09-02 13:26:02.544
534,227.0,1192.0,-109.0,1218.307842870594,2021-09-02 13:26:02.557
535,227.0,968.0,-109.0,1000.2169764606076,2021-09-02 13:26:02.558
536,-11.0,948.0,-160.0,961.4702283482312,2021-09-02 13:26:02.563
537,-67.0,1122.0,-61.0,1125.6526995481331,2021-09-02 13:26:02.572
538,-211.0,1006.0,-35.0,1028.4852940125104,2021-09-02 13:26:02.584
539,-200.0,972.0,-163.0,1005.6604794859944,2021-09-02 13:26:02.593
540,-312.0,1146.0,-133.0,1195.1355571649603,2021-09-02 13:26:02.602
541,-81.0,1122.0,-59.0,1126.4661557277254,2021-09-02 13:26:02.612
542,-244.0,1015.0,-59.0,1045.5821345068975,2021-09-02 13:26:02.621
543,-244.0,1015.0,-225.0,1067.888570966091,2021-09-02 13:26:02.622
544,20.0,1346.0,-180.0,1358.129596172619,2021-09-02 13:26:02.632
545,-499.0,884.0,229.0,1040.6238513507174,2021-09-02 13:26:02.642
546,298.0,1141.0,229.0,1201.3017938886132,2021-09-02 13:26:02.651
547,298.0,1141.0,-32.0,1179.7071670546045,2021-09-02 13:26:02.652
548,-161.0,1141.0,-32.0,1152.7471535423542,2021-09-02 13:26:02.660
549,-161.0,990.0,53.0,1004.405296680578,2021-09-02 13:26:02.661
550,51.0,1136.0,191.0,1153.0732847481984,2021-09-02 13:26:02.671
551,123.0,837.0,151.0,859.3596453173724,2021-09-02 13:26:02.681
552,-352.0,781.0,151.0,869.8655068457422,2021-09-02 13:26:02.690
553,-352.0,781.0,-203.0,880.3828712554555,2021-09-02 13:26:02.691
554,-385.0,1067.0,-144.0,1143.437798920431,2021-09-02 13:26:02.701
555,-10.0,961.0,163.0,974.7768975514346,2021-09-02 13:26:02.710
556,-52.0,759.0,75.0,764.4671346761743,2021-09-02 13:26:02.720
557,-241.0,1009.0,75.0,1040.0898999605756,2021-09-02 13:26:02.729
558,-241.0,1009.0,-81.0,1040.5397637764738,2021-09-02 13:26:02.730
559,-198.0,1007.0,-77.0,1029.1656815109995,2021-09-02 13:26:02.740
560,-81.0,959.0,-16.0,962.5476611576177,2021-09-02 13:26:02.750
561,-136.0,1004.0,-13.0,1013.2526831940788,2021-09-02 13:26:02.767
562,-348.0,1059.0,-73.0,1117.1007116639037,2021-09-02 13:26:02.771
563,-95.0,1038.0,-73.0,1044.891381914886,2021-09-02 13:26:02.779
564,-95.0,1038.0,-43.0,1043.2248079872334,2021-09-02 13:26:02.780
565,-206.0,1038.0,-43.0,1059.1170851232644,2021-09-02 13:26:02.787
566,-206.0,1022.0,-42.0,1043.4002108491256,2021-09-02 13:26:02.788
567,-107.0,1081.0,-69.0,1088.4718645881485,2021-09-02 13:26:02.797
568,-166.0,1081.0,-69.0,1095.845792071129,2021-09-02 13:26:02.806
569,-166.0,962.0,-149.0,987.5226579679072,2021-09-02 13:26:02.807
570,-155.0,1175.0,-46.0,1186.0716673118873,2021-09-02 13:26:02.817
571,-94.0,1053.0,-46.0,1058.1876015149676,2021-09-02 13:26:02.827
572,-94.0,1053.0,-71.0,1059.5687802120258,2021-09-02 13:26:02.828
573,-270.0,953.0,-73.0,993.195851783524,2021-09-02 13:26:02.836
574,-183.0,1138.0,-62.0,1154.2863596179243,2021-09-02 13:26:02.846
575,-161.0,970.0,9.0,983.3117511755872,2021-09-02 13:26:02.856
576,-219.0,868.0,-76.0,898.4213933338854,2021-09-02 13:26:02.866
577,-122.0,1000.0,1.0,1007.4150088220842,2021-09-02 13:26:02.876
578,-230.0,975.0,51.0,1003.058323329207,2021-09-02 13:26:02.886
579,-227.0,853.0,51.0,884.1600533840012,2021-09-02 13:26:02.898
580,-227.0,853.0,-38.0,883.5055178095947,2021-09-02 13:26:02.899
581,-264.0,951.0,-5.0,986.9761901890035,2021-09-02 13:26:02.905
582,-172.0,905.0,-5.0,921.2133303421092,2021-09-02 13:26:02.914
583,-172.0,905.0,20.0,921.4168437791876,2021-09-02 13:26:02.915
584,-177.0,883.0,-40.0,901.453271112818,2021-09-02 13:26:02.925
