,Acceleration_X,Acceleration_Y,Acceleration_Z,magnitude,time_stamp
0,37.0,839.0,346.0,908.2984091145375,2021-09-02 13:27:10.991
1,172.0,1117.0,-86.0,1133.4323976311953,2021-09-02 13:27:11.000
2,-346.0,1036.0,-228.0,1115.7938877767704,2021-09-02 13:27:11.010
3,-616.0,874.0,-165.0,1081.9228253438412,2021-09-02 13:27:11.024
4,-21.0,874.0,-165.0,889.6864616256673,2021-09-02 13:27:11.030
5,-21.0,997.0,-127.0,1005.2755841061694,2021-09-02 13:27:11.031
6,-349.0,1163.0,-127.0,1220.8599428271862,2021-09-02 13:27:11.039
7,-349.0,1163.0,-11.0,1214.2862100839325,2021-09-02 13:27:11.040
8,21.0,1171.0,-60.0,1172.7241789952143,2021-09-02 13:27:11.049
9,-103.0,842.0,-444.0,957.4492153634052,2021-09-02 13:27:11.059
10,-27.0,1671.0,-74.0,1672.8556423074886,2021-09-02 13:27:11.069
11,-618.0,762.0,325.0,1033.5342277834827,2021-09-02 13:27:11.080
12,149.0,1015.0,-139.0,1035.2521431999066,2021-09-02 13:27:11.088
13,-508.0,850.0,236.0,1017.968565329991,2021-09-02 13:27:11.098
14,137.0,1187.0,-182.0,1208.6612428633591,2021-09-02 13:27:11.108
15,-85.0,919.0,59.0,924.8064662403696,2021-09-02 13:27:11.118
16,-687.0,668.0,27.0,958.6041936065168,2021-09-02 13:27:11.128
17,-245.0,752.0,139.0,803.0255288594504,2021-09-02 13:27:11.139
18,-422.0,846.0,21.0,945.643167373402,2021-09-02 13:27:11.147
19,-411.0,798.0,9.0,897.6669761108515,2021-09-02 13:27:11.157
20,160.0,1073.0,-69.0,1087.0556563488367,2021-09-02 13:27:11.167
21,-35.0,1026.0,-149.0,1037.3533631313874,2021-09-02 13:27:11.177
22,-354.0,843.0,241.0,945.5400573217404,2021-09-02 13:27:11.187
23,112.0,1151.0,-17.0,1156.5612824230284,2021-09-02 13:27:11.196
24,13.0,1003.0,-17.0,1003.2282890748248,2021-09-02 13:27:11.205
25,13.0,1003.0,-103.0,1008.3585671773708,2021-09-02 13:27:11.206
26,-316.0,854.0,-133.0,920.2505093723122,2021-09-02 13:27:11.215
27,40.0,932.0,-133.0,942.2913562163244,2021-09-02 13:27:11.226
28,40.0,932.0,-107.0,938.9744405467062,2021-09-02 13:27:11.229
29,-309.0,932.0,-107.0,987.701371873098,2021-09-02 13:27:11.235
30,-309.0,863.0,-109.0,923.1094192997924,2021-09-02 13:27:11.236
31,-247.0,863.0,-109.0,904.2449889272264,2021-09-02 13:27:11.244
32,-247.0,1158.0,-200.0,1200.8218019339922,2021-09-02 13:27:11.245
33,-313.0,1163.0,0.0,1204.382829502314,2021-09-02 13:27:11.255
34,-223.0,902.0,-155.0,941.9968152812409,2021-09-02 13:27:11.264
35,198.0,1262.0,-431.0,1348.1873015274991,2021-09-02 13:27:11.274
36,-236.0,1339.0,-49.0,1360.5212236492307,2021-09-02 13:27:11.285
37,-341.0,723.0,164.0,816.0306366797756,2021-09-02 13:27:11.295
38,182.0,1377.0,-140.0,1396.0132520860968,2021-09-02 13:27:11.303
39,-93.0,896.0,124.0,909.3079786299028,2021-09-02 13:27:11.313
40,-493.0,544.0,17.0,734.352776259476,2021-09-02 13:27:11.323
41,-342.0,544.0,17.0,642.797790910952,2021-09-02 13:27:11.333
42,-342.0,722.0,-19.0,799.1301521028975,2021-09-02 13:27:11.334
43,-410.0,534.0,6.0,673.2696339506186,2021-09-02 13:27:11.343
44,-281.0,776.0,-158.0,840.2981613689275,2021-09-02 13:27:11.352
45,-400.0,979.0,143.0,1067.187893484554,2021-09-02 13:27:11.377
46,-400.0,811.0,88.0,908.5510442457264,2021-09-02 13:27:11.379
47,467.0,1115.0,-105.0,1213.399769243426,2021-09-02 13:27:11.381
48,-625.0,880.0,-172.0,1092.9817015851638,2021-09-02 13:27:11.391
49,-213.0,923.0,265.0,983.627470132875,2021-09-02 13:27:11.401
50,172.0,1170.0,-19.0,1182.7277793304763,2021-09-02 13:27:11.411
51,29.0,864.0,-104.0,870.7198171627886,2021-09-02 13:27:11.427
52,-349.0,1007.0,-88.0,1069.389545488453,2021-09-02 13:27:11.432
53,-198.0,1154.0,-230.0,1193.2392886592363,2021-09-02 13:27:11.440
54,-225.0,1172.0,-17.0,1193.5233554480617,2021-09-02 13:27:11.451
55,-294.0,1213.0,-232.0,1269.4995076800935,2021-09-02 13:27:11.459
56,-191.0,1115.0,10.0,1131.285109952394,2021-09-02 13:27:11.470
57,-230.0,1037.0,-217.0,1084.1392899438706,2021-09-02 13:27:11.479
58,292.0,1487.0,-287.0,1542.3365391509078,2021-09-02 13:27:11.489
59,-531.0,868.0,137.0,1026.7200202586876,2021-09-02 13:27:11.499
60,-179.0,841.0,-80.0,863.5519671681607,2021-09-02 13:27:11.508
61,0.0,1411.0,-88.0,1413.7414898063932,2021-09-02 13:27:11.519
62,-323.0,754.0,44.0,821.4505462899151,2021-09-02 13:27:11.528
63,-456.0,492.0,26.0,671.3240648151979,2021-09-02 13:27:11.538
64,-273.0,927.0,26.0,966.7129873959487,2021-09-02 13:27:11.548
65,-273.0,927.0,-13.0,966.4507230066104,2021-09-02 13:27:11.549
66,-482.0,871.0,109.0,1001.4219889736794,2021-09-02 13:27:11.557
67,-354.0,746.0,19.0,825.9497563411469,2021-09-02 13:27:11.567
68,337.0,1179.0,-86.0,1229.2298401844953,2021-09-02 13:27:11.578
69,-208.0,856.0,-61.0,883.0181198593832,2021-09-02 13:27:11.586
70,422.0,1203.0,-61.0,1276.328327664947,2021-09-02 13:27:11.596
71,422.0,1203.0,-82.0,1277.5042074294706,2021-09-02 13:27:11.597
72,-718.0,908.0,90.0,1161.0719185304586,2021-09-02 13:27:11.606
73,75.0,908.0,90.0,915.5266244080508,2021-09-02 13:27:11.615
74,75.0,948.0,180.0,967.84761197205,2021-09-02 13:27:11.616
75,38.0,1066.0,-127.0,1074.2108731529393,2021-09-02 13:27:11.626
76,-228.0,953.0,-12.0,979.9678566157156,2021-09-02 13:27:11.638
77,-73.0,1061.0,13.0,1063.5877960939567,2021-09-02 13:27:11.645
78,-245.0,1179.0,-341.0,1251.5378540020274,2021-09-02 13:27:11.655
79,-351.0,1099.0,-341.0,1203.0307560490712,2021-09-02 13:27:11.664
80,-351.0,1099.0,98.0,1157.8454128250455,2021-09-02 13:27:11.665
81,-138.0,1011.0,98.0,1025.0702414956745,2021-09-02 13:27:11.674
82,-138.0,1011.0,-186.0,1037.1889895289094,2021-09-02 13:27:11.675
83,139.0,1458.0,-299.0,1494.819721571802,2021-09-02 13:27:11.685
84,-678.0,1458.0,-299.0,1635.4965606811895,2021-09-02 13:27:11.701
85,-678.0,881.0,189.0,1127.6373530528333,2021-09-02 13:27:11.702
86,10.0,882.0,67.0,884.5976486516341,2021-09-02 13:27:11.705
87,-678.0,882.0,67.0,1114.4940556144747,2021-09-02 13:27:11.713
88,-678.0,756.0,226.0,1040.3345615714206,2021-09-02 13:27:11.714
89,218.0,1064.0,-3.0,1086.1072691037475,2021-09-02 13:27:11.724
90,130.0,1118.0,-39.0,1126.2082400693043,2021-09-02 13:27:11.733
91,-637.0,667.0,11.0,922.3768210444146,2021-09-02 13:27:11.743
92,-358.0,629.0,94.0,729.8225811798371,2021-09-02 13:27:11.752
93,-277.0,837.0,8.0,881.6813483339658,2021-09-02 13:27:11.762
94,-345.0,742.0,28.0,818.7630914983894,2021-09-02 13:27:11.772
95,-53.0,742.0,28.0,744.4172217244843,2021-09-02 13:27:11.781
96,-53.0,910.0,-63.0,913.716586256373,2021-09-02 13:27:11.782
97,338.0,1362.0,-63.0,1404.726663803318,2021-09-02 13:27:11.791
98,338.0,1362.0,-65.0,1404.817781778121,2021-09-02 13:27:11.792
99,-627.0,766.0,78.0,992.959717209112,2021-09-02 13:27:11.801
100,40.0,908.0,78.0,912.2214643385672,2021-09-02 13:27:11.811
101,40.0,908.0,139.0,919.4482040876474,2021-09-02 13:27:11.812
102,41.0,1219.0,-99.0,1223.7005352617934,2021-09-02 13:27:11.821
103,-220.0,969.0,-60.0,995.4702406400704,2021-09-02 13:27:11.831
104,-66.0,1132.0,-144.0,1143.029308460636,2021-09-02 13:27:11.841
105,-293.0,1033.0,-69.0,1075.964218735921,2021-09-02 13:27:11.850
106,-57.0,1033.0,-69.0,1036.8698086066545,2021-09-02 13:27:11.860
107,-57.0,993.0,-171.0,1009.2269318641868,2021-09-02 13:27:11.861
108,-407.0,1228.0,-238.0,1315.3999391819964,2021-09-02 13:27:11.870
109,-53.0,1291.0,76.0,1294.3206712403228,2021-09-02 13:27:11.880
110,-136.0,1000.0,-455.0,1107.0325198475427,2021-09-02 13:27:11.889
111,223.0,1523.0,-154.0,1546.9240446770489,2021-09-02 13:27:11.899
112,-557.0,967.0,228.0,1139.0004389814785,2021-09-02 13:27:11.909
113,147.0,866.0,228.0,907.4960055008506,2021-09-02 13:27:11.919
114,147.0,866.0,-89.0,882.8850434796141,2021-09-02 13:27:11.920
115,139.0,1225.0,-113.0,1238.028674950625,2021-09-02 13:27:11.929
116,-588.0,736.0,33.0,942.6181623541952,2021-09-02 13:27:11.938
117,-448.0,575.0,131.0,740.6011072095423,2021-09-02 13:27:11.948
118,-793.0,581.0,54.0,984.5435490622036,2021-09-02 13:27:11.958
119,-305.0,678.0,54.0,745.4025757937787,2021-09-02 13:27:11.975
120,-305.0,678.0,179.0,764.6894794620886,2021-09-02 13:27:11.976
121,-364.0,726.0,76.0,815.6886660975498,2021-09-02 13:27:11.979
122,-368.0,850.0,28.0,926.664988008072,2021-09-02 13:27:11.987
123,172.0,976.0,28.0,991.4353231552728,2021-09-02 13:27:11.997
124,172.0,976.0,5.0,991.0524708611548,2021-09-02 13:27:11.998
125,120.0,1142.0,-95.0,1152.210484243222,2021-09-02 13:27:12.007
126,-611.0,820.0,107.0,1028.1877260500632,2021-09-02 13:27:12.016
127,198.0,1109.0,190.0,1142.4469353103452,2021-09-02 13:27:12.026
128,40.0,1058.0,-126.0,1066.2269927177797,2021-09-02 13:27:12.037
129,-351.0,821.0,-78.0,896.2845530298957,2021-09-02 13:27:12.047
130,-116.0,1142.0,-125.0,1154.66228829039,2021-09-02 13:27:12.055
131,-430.0,1224.0,-162.0,1307.4096527102745,2021-09-02 13:27:12.065
132,-266.0,1067.0,36.0,1100.2458816101064,2021-09-02 13:27:12.075
133,-457.0,1253.0,-38.0,1334.279580897497,2021-09-02 13:27:12.085
134,-61.0,1004.0,-160.0,1018.4974226771512,2021-09-02 13:27:12.096
135,0.0,1109.0,-439.0,1192.72880404558,2021-09-02 13:27:12.104
136,46.0,1109.0,-439.0,1193.6155159849422,2021-09-02 13:27:12.113
137,46.0,1535.0,-74.0,1537.4709753357947,2021-09-02 13:27:12.114
138,-593.0,734.0,239.0,973.4094719078914,2021-09-02 13:27:12.124
139,151.0,1169.0,-199.0,1195.3924041920293,2021-09-02 13:27:12.133
140,-17.0,948.0,37.0,948.8740696214646,2021-09-02 13:27:12.146
141,-640.0,644.0,77.0,911.1887839520414,2021-09-02 13:27:12.153
142,-319.0,599.0,77.0,683.0014641272741,2021-09-02 13:27:12.162
143,-319.0,599.0,-20.0,678.9418237227693,2021-09-02 13:27:12.163
144,-400.0,940.0,71.0,1024.0317377894105,2021-09-02 13:27:12.172
145,-333.0,813.0,12.0,878.6364435874488,2021-09-02 13:27:12.182
146,162.0,885.0,-137.0,910.0758210171282,2021-09-02 13:27:12.193
147,110.0,885.0,-137.0,902.2715777414248,2021-09-02 13:27:12.202
148,110.0,1168.0,-128.0,1180.1305012582295,2021-09-02 13:27:12.203
149,338.0,981.0,-72.0,1040.0908614154823,2021-09-02 13:27:12.212
150,-124.0,958.0,-133.0,975.1046097727155,2021-09-02 13:27:12.221
151,-262.0,981.0,266.0,1049.6480362483417,2021-09-02 13:27:12.231
152,131.0,1083.0,-50.0,1092.0393765794345,2021-09-02 13:27:12.241
153,141.0,992.0,-121.0,1009.2502167450843,2021-09-02 13:27:12.251
154,-472.0,933.0,-106.0,1050.956231248476,2021-09-02 13:27:12.260
155,-181.0,1205.0,-186.0,1232.6321430175346,2021-09-02 13:27:12.270
156,-320.0,1088.0,-163.0,1145.7368807889532,2021-09-02 13:27:12.280
157,-174.0,1132.0,-143.0,1154.187593071421,2021-09-02 13:27:12.289
158,3.0,1132.0,-143.0,1141.0004382120103,2021-09-02 13:27:12.299
159,3.0,1177.0,-354.0,1229.0866527629369,2021-09-02 13:27:12.300
160,105.0,1451.0,-354.0,1497.244802963096,2021-09-02 13:27:12.309
161,105.0,1451.0,-28.0,1455.063572494343,2021-09-02 13:27:12.310
162,-508.0,759.0,183.0,931.4687327012108,2021-09-02 13:27:12.319
163,209.0,759.0,183.0,808.2394447191996,2021-09-02 13:27:12.328
164,209.0,1245.0,-72.0,1264.4722219171128,2021-09-02 13:27:12.329
165,-439.0,640.0,71.0,779.3343313366863,2021-09-02 13:27:12.339
166,215.0,1480.0,-105.0,1499.216462022746,2021-09-02 13:27:12.349
167,48.0,815.0,157.0,831.3711565841096,2021-09-02 13:27:12.360
168,-648.0,486.0,1.0,810.0006172837154,2021-09-02 13:27:12.368
169,-255.0,836.0,86.0,878.2465485272345,2021-09-02 13:27:12.377
170,-447.0,716.0,86.0,848.4462269348601,2021-09-02 13:27:12.398
171,-447.0,716.0,11.0,844.1480912730893,2021-09-02 13:27:12.399
172,262.0,938.0,-106.0,979.655041328324,2021-09-02 13:27:12.407
173,-109.0,1177.0,-72.0,1184.227174151987,2021-09-02 13:27:12.418
174,-187.0,805.0,-72.0,829.5649462218133,2021-09-02 13:27:12.426
175,-187.0,805.0,200.0,850.2905385807842,2021-09-02 13:27:12.427
176,191.0,1091.0,-125.0,1114.624151900541,2021-09-02 13:27:12.436
177,180.0,1111.0,-74.0,1127.917106883303,2021-09-02 13:27:12.446
178,288.0,1098.0,-142.0,1143.9895104414202,2021-09-02 13:27:12.457
179,-2.0,1019.0,-60.0,1020.766868584595,2021-09-02 13:27:12.465
180,-478.0,918.0,-104.0,1040.2038261802347,2021-09-02 13:27:12.475
181,-121.0,1095.0,-247.0,1129.0150574726629,2021-09-02 13:27:12.485
182,-176.0,1095.0,-247.0,1136.2262098719602,2021-09-02 13:27:12.494
183,-176.0,1149.0,-48.0,1163.3920233524038,2021-09-02 13:27:12.495
184,-354.0,1021.0,-152.0,1091.2657788091772,2021-09-02 13:27:12.506
185,257.0,1380.0,-391.0,1457.1650558533167,2021-09-02 13:27:12.514
186,-348.0,1018.0,23.0,1076.0841045197164,2021-09-02 13:27:12.524
187,-345.0,1018.0,23.0,1075.1176679787195,2021-09-02 13:27:12.533
188,-345.0,918.0,124.0,988.496332820714,2021-09-02 13:27:12.534
189,334.0,1489.0,-69.0,1527.5594914765186,2021-09-02 13:27:12.543
190,-75.0,851.0,0.0,854.2985426652675,2021-09-02 13:27:12.557
191,-700.0,554.0,-62.0,894.8519430609737,2021-09-02 13:27:12.563
192,-369.0,694.0,-30.0,786.5729463946748,2021-09-02 13:27:12.573
193,-651.0,538.0,42.0,845.5820480592052,2021-09-02 13:27:12.582
194,-120.0,897.0,85.0,908.9741470470984,2021-09-02 13:27:12.592
195,-449.0,876.0,62.0,986.3168861983456,2021-09-02 13:27:12.603
196,-402.0,818.0,-43.0,912.4565743091558,2021-09-02 13:27:12.614
197,422.0,1264.0,-43.0,1333.2775404993515,2021-09-02 13:27:12.621
198,422.0,1264.0,-75.0,1334.6928485610465,2021-09-02 13:27:12.622
199,-617.0,855.0,28.0,1054.750207395097,2021-09-02 13:27:12.631
200,-172.0,851.0,131.0,878.0353068071921,2021-09-02 13:27:12.641
201,166.0,1242.0,-37.0,1253.5904434862289,2021-09-02 13:27:12.651
202,-40.0,1024.0,-61.0,1026.5948567960002,2021-09-02 13:27:12.661
203,-336.0,886.0,-208.0,970.1319497882748,2021-09-02 13:27:12.670
204,-124.0,1168.0,-232.0,1197.2568646702343,2021-09-02 13:27:12.680
205,-241.0,1251.0,17.0,1274.115771819814,2021-09-02 13:27:12.690
206,-233.0,1128.0,-253.0,1179.271809211091,2021-09-02 13:27:12.701
207,-288.0,1287.0,117.0,1324.0098186947105,2021-09-02 13:27:12.719
208,-238.0,871.0,-264.0,940.7342876710724,2021-09-02 13:27:12.723
209,360.0,1473.0,-225.0,1532.9559680564869,2021-09-02 13:27:12.730
210,-634.0,960.0,209.0,1169.2891002656272,2021-09-02 13:27:12.739
211,-10.0,799.0,40.0,800.063122509718,2021-09-02 13:27:12.749
212,207.0,799.0,40.0,826.3473845786649,2021-09-02 13:27:12.758
213,207.0,1323.0,-61.0,1340.4846138617183,2021-09-02 13:27:12.759
214,-341.0,776.0,9.0,847.6662078908183,2021-09-02 13:27:12.769
215,-607.0,592.0,69.0,850.6903079264509,2021-09-02 13:27:12.778
216,28.0,592.0,69.0,596.6648975765207,2021-09-02 13:27:12.788
217,28.0,825.0,63.0,827.8755945188866,2021-09-02 13:27:12.789
218,-470.0,842.0,62.0,966.2856720452808,2021-09-02 13:27:12.797
219,-254.0,894.0,44.0,930.4235594609586,2021-09-02 13:27:12.807
220,414.0,1161.0,-88.0,1235.7430962785104,2021-09-02 13:27:12.817
221,-40.0,1161.0,-88.0,1165.0171672554873,2021-09-02 13:27:12.826
222,-40.0,1038.0,18.0,1038.9263689020506,2021-09-02 13:27:12.827
223,355.0,1038.0,18.0,1097.175008829494,2021-09-02 13:27:12.837
224,355.0,1228.0,18.0,1278.41034100949,2021-09-02 13:27:12.838
225,355.0,1228.0,-72.0,1280.3097281517469,2021-09-02 13:27:12.840
226,-597.0,719.0,133.0,943.9592152206576,2021-09-02 13:27:12.846
227,30.0,1036.0,180.0,1051.9486679491542,2021-09-02 13:27:12.856
228,50.0,1186.0,-28.0,1187.3836785133944,2021-09-02 13:27:12.866
229,-77.0,873.0,-110.0,883.2655319891069,2021-09-02 13:27:12.876
230,-289.0,1024.0,-85.0,1067.3902753913396,2021-09-02 13:27:12.886
231,-99.0,1299.0,-183.0,1315.5572963577072,2021-09-02 13:27:12.895
232,-160.0,1299.0,-183.0,1321.5483343412,2021-09-02 13:27:12.905
233,-160.0,1044.0,60.0,1057.8922440400063,2021-09-02 13:27:12.906
234,-258.0,930.0,-243.0,995.245195919076,2021-09-02 13:27:12.915
235,266.0,1564.0,-331.0,1620.621177203359,2021-09-02 13:27:12.925
236,-502.0,860.0,116.0,1002.5268076216216,2021-09-02 13:27:12.935
237,-63.0,790.0,-29.0,793.0384606057893,2021-09-02 13:27:12.944
238,-658.0,790.0,-29.0,1028.545088948462,2021-09-02 13:27:12.953
239,-658.0,811.0,311.0,1089.681604873644,2021-09-02 13:27:12.954
240,128.0,829.0,-72.0,841.9079522133046,2021-09-02 13:27:12.963
241,-38.0,1237.0,-27.0,1237.8780230701243,2021-09-02 13:27:12.974
242,-548.0,1237.0,-27.0,1353.2191249018024,2021-09-02 13:27:12.989
243,-548.0,784.0,66.0,958.8096787162716,2021-09-02 13:27:12.990
244,-383.0,505.0,74.0,638.1144098043861,2021-09-02 13:27:12.993
245,-384.0,806.0,-67.0,895.3105606436238,2021-09-02 13:27:13.002
246,-337.0,877.0,175.0,955.6793395276472,2021-09-02 13:27:13.013
247,-191.0,877.0,175.0,914.4588563735384,2021-09-02 13:27:13.022
248,-191.0,818.0,-67.0,842.6707542094955,2021-09-02 13:27:13.023
249,451.0,1119.0,-16.0,1206.5728324473414,2021-09-02 13:27:13.032
250,-678.0,838.0,104.0,1082.9330542558944,2021-09-02 13:27:13.043
251,104.0,838.0,104.0,850.8090267504218,2021-09-02 13:27:13.052
252,104.0,917.0,207.0,945.8086487234084,2021-09-02 13:27:13.053
253,-15.0,1013.0,-60.0,1014.8862005170826,2021-09-02 13:27:13.061
254,-121.0,1020.0,-80.0,1030.2625878871852,2021-09-02 13:27:13.071
255,-154.0,1006.0,-80.0,1020.8584622757456,2021-09-02 13:27:13.080
256,-154.0,1006.0,-57.0,1019.313984991867,2021-09-02 13:27:13.081
257,-308.0,1044.0,-28.0,1088.845259896924,2021-09-02 13:27:13.090
258,-31.0,1136.0,-85.0,1139.5972972940924,2021-09-02 13:27:13.102
259,-329.0,1063.0,-226.0,1135.4673046812047,2021-09-02 13:27:13.110
260,-96.0,1063.0,-226.0,1090.990834058655,2021-09-02 13:27:13.119
261,-96.0,1230.0,158.0,1243.816706753853,2021-09-02 13:27:13.120
262,-114.0,1029.0,-356.0,1094.7935878511528,2021-09-02 13:27:13.130
263,293.0,1524.0,-120.0,1556.5426431678638,2021-09-02 13:27:13.139
264,-591.0,801.0,129.0,1003.7544520449212,2021-09-02 13:27:13.155
265,125.0,924.0,-10.0,932.4703748645315,2021-09-02 13:27:13.159
266,46.0,1296.0,-10.0,1296.8546564669457,2021-09-02 13:27:13.168
267,46.0,1296.0,-5.0,1296.82574002832,2021-09-02 13:27:13.169
268,-402.0,1296.0,-5.0,1356.924832111197,2021-09-02 13:27:13.178
269,-402.0,606.0,-61.0,729.7677712807,2021-09-02 13:27:13.179
270,-512.0,647.0,-61.0,827.3294386155977,2021-09-02 13:27:13.188
271,-512.0,647.0,94.0,830.4149565127063,2021-09-02 13:27:13.189
272,-205.0,910.0,-3.0,932.8097340830016,2021-09-02 13:27:13.199
273,-488.0,786.0,64.0,927.3812592456244,2021-09-02 13:27:13.208
274,-233.0,786.0,64.0,822.3022558645939,2021-09-02 13:27:13.217
275,-233.0,950.0,84.0,981.7560796857842,2021-09-02 13:27:13.218
276,-309.0,736.0,11.0,798.3094638046075,2021-09-02 13:27:13.227
277,20.0,926.0,-58.0,928.0301719233056,2021-09-02 13:27:13.237
278,343.0,1313.0,26.0,1357.3113128534662,2021-09-02 13:27:13.248
279,-572.0,739.0,122.0,942.4377963558126,2021-09-02 13:27:13.257
280,49.0,963.0,101.0,969.5210157598442,2021-09-02 13:27:13.266
281,-85.0,1133.0,-88.0,1139.5867672099391,2021-09-02 13:27:13.276
282,-249.0,925.0,-97.0,962.82656797577,2021-09-02 13:27:13.286
283,-145.0,987.0,-97.0,1002.2988576268058,2021-09-02 13:27:13.297
284,-218.0,1330.0,-222.0,1365.9092209953046,2021-09-02 13:27:13.306
285,-246.0,1116.0,116.0,1148.6635712862144,2021-09-02 13:27:13.315
286,-54.0,963.0,-325.0,1017.7966398058112,2021-09-02 13:27:13.325
287,22.0,1158.0,-325.0,1202.9434733186758,2021-09-02 13:27:13.334
288,22.0,1158.0,104.0,1162.8688662097718,2021-09-02 13:27:13.335
289,-126.0,1030.0,104.0,1042.8767904215722,2021-09-02 13:27:13.345
290,-126.0,1030.0,-458.0,1134.2574663629066,2021-09-02 13:27:13.346
291,8.0,1477.0,-168.0,1486.5453238969876,2021-09-02 13:27:13.355
292,-735.0,848.0,329.0,1169.431485808382,2021-09-02 13:27:13.364
293,167.0,928.0,-69.0,945.4279454300048,2021-09-02 13:27:13.374
294,55.0,1089.0,-39.0,1091.085239566552,2021-09-02 13:27:13.383
295,-611.0,1089.0,-39.0,1249.3050067937772,2021-09-02 13:27:13.394
296,-611.0,709.0,35.0,936.6039718045188,2021-09-02 13:27:13.395
297,-315.0,673.0,156.0,759.2693856596617,2021-09-02 13:27:13.414
298,-275.0,782.0,-22.0,829.2363957280215,2021-09-02 13:27:13.416
299,-237.0,802.0,33.0,836.9360788017207,2021-09-02 13:27:13.424
300,-8.0,1054.0,-86.0,1057.5329782091903,2021-09-02 13:27:13.432
301,185.0,1142.0,-186.0,1171.744426058857,2021-09-02 13:27:13.442
302,-490.0,856.0,172.0,1001.209268834443,2021-09-02 13:27:13.452
303,83.0,1177.0,172.0,1192.3933914610564,2021-09-02 13:27:13.461
304,83.0,1177.0,-124.0,1186.4206673857295,2021-09-02 13:27:13.462
305,-427.0,816.0,241.0,951.9800418076,2021-09-02 13:27:13.473
306,-64.0,1064.0,241.0,1092.827982804247,2021-09-02 13:27:13.481
307,-64.0,1064.0,23.0,1066.1711870051638,2021-09-02 13:27:13.482
308,-130.0,1064.0,23.0,1072.159036710506,2021-09-02 13:27:13.490
309,-130.0,895.0,-40.0,905.2762009464294,2021-09-02 13:27:13.491
310,-441.0,960.0,-284.0,1093.9547522635478,2021-09-02 13:27:13.501
311,-411.0,1178.0,-295.0,1282.0413409870994,2021-09-02 13:27:13.511
312,-44.0,1106.0,-295.0,1145.5116760644564,2021-09-02 13:27:13.520
313,-44.0,1106.0,-11.0,1106.9295370528334,2021-09-02 13:27:13.521
314,70.0,999.0,142.0,1011.4667567448768,2021-09-02 13:27:13.531
315,-244.0,992.0,142.0,1031.3893542208004,2021-09-02 13:27:13.539
316,-244.0,992.0,-207.0,1042.3286429912594,2021-09-02 13:27:13.540
317,-339.0,1199.0,-90.0,1249.248574143673,2021-09-02 13:27:13.549
318,-106.0,929.0,-37.0,935.7595845087562,2021-09-02 13:27:13.561
319,-195.0,863.0,-15.0,884.8836081655033,2021-09-02 13:27:13.570
320,-171.0,1087.0,-15.0,1100.4703539850584,2021-09-02 13:27:13.580
321,-171.0,1087.0,11.0,1100.4231004481867,2021-09-02 13:27:13.581
