,Acceleration_X,Acceleration_Y,Acceleration_Z,magnitude,time_stamp
0,-181.0,932.0,25.0,949.7420702485492,2021-09-23 13:33:11.206
1,-266.0,1008.0,112.0,1048.5056032277555,2021-09-23 13:33:11.216
2,122.0,1069.0,-29.0,1076.3298750847716,2021-09-23 13:33:11.226
3,-67.0,1023.0,54.0,1026.6128773788105,2021-09-23 13:33:11.237
4,-76.0,1110.0,54.0,1113.9084342979004,2021-09-23 13:33:11.245
5,-76.0,1110.0,24.0,1112.8575829817578,2021-09-23 13:33:11.246
6,-281.0,800.0,-12.0,848.0005896224366,2021-09-23 13:33:11.256
7,-87.0,1024.0,-6.0,1027.706670212858,2021-09-23 13:33:11.265
8,-46.0,1193.0,29.0,1194.238669613407,2021-09-23 13:33:11.275
9,-201.0,787.0,-167.0,829.2520726534242,2021-09-23 13:33:11.285
10,-39.0,1188.0,-145.0,1197.4514603941154,2021-09-23 13:33:11.294
11,-360.0,1188.0,-145.0,1249.787581951429,2021-09-23 13:33:11.304
12,-360.0,1112.0,-4.0,1168.8284733013652,2021-09-23 13:33:11.305
13,-32.0,1109.0,32.0,1109.9229703001915,2021-09-23 13:33:11.314
14,-106.0,1009.0,32.0,1015.0571412487084,2021-09-23 13:33:11.323
15,-106.0,1009.0,-302.0,1058.5466451696873,2021-09-23 13:33:11.324
16,-173.0,1338.0,-115.0,1354.0302803113375,2021-09-23 13:33:11.333
17,-346.0,975.0,-115.0,1040.9447631839068,2021-09-23 13:33:11.343
18,-346.0,975.0,131.0,1042.8336396568725,2021-09-23 13:33:11.344
19,-172.0,1352.0,-108.0,1367.1693384508008,2021-09-23 13:33:11.353
20,-423.0,1352.0,-108.0,1420.7381884077024,2021-09-23 13:33:11.362
21,-423.0,963.0,239.0,1078.61902449382,2021-09-23 13:33:11.363
22,-102.0,963.0,239.0,997.4437327488704,2021-09-23 13:33:11.373
23,-102.0,862.0,-59.0,870.0166665070274,2021-09-23 13:33:11.374
24,-28.0,1081.0,5.0,1081.3741258232508,2021-09-23 13:33:11.382
25,-374.0,883.0,135.0,968.3955803286176,2021-09-23 13:33:11.392
26,-318.0,628.0,32.0,704.6502678634274,2021-09-23 13:33:11.402
27,-252.0,812.0,-10.0,850.2634885728071,2021-09-23 13:33:11.412
28,-323.0,860.0,56.0,920.361342082554,2021-09-23 13:33:11.421
29,-13.0,989.0,11.0,989.1466018745654,2021-09-23 13:33:11.431
30,67.0,1066.0,-182.0,1083.4985002296958,2021-09-23 13:33:11.441
31,-329.0,932.0,143.0,998.6560969623126,2021-09-23 13:33:11.450
32,-221.0,932.0,143.0,968.4596016355044,2021-09-23 13:33:11.460
33,-221.0,1109.0,90.0,1134.3817699522504,2021-09-23 13:33:11.461
34,-294.0,921.0,73.0,969.5390657420668,2021-09-23 13:33:11.470
35,-130.0,1164.0,16.0,1171.3462340401322,2021-09-23 13:33:11.480
36,-104.0,1016.0,-97.0,1025.9049663589703,2021-09-23 13:33:11.490
37,-236.0,924.0,-106.0,959.5353041967765,2021-09-23 13:33:11.500
38,-172.0,1226.0,-108.0,1242.7083326348145,2021-09-23 13:33:11.509
39,-262.0,1053.0,-75.0,1087.6938907615506,2021-09-23 13:33:11.520
40,-130.0,974.0,-68.0,984.9873095629202,2021-09-23 13:33:11.529
41,21.0,1217.0,-292.0,1251.716421558813,2021-09-23 13:33:11.538
42,-179.0,1364.0,-66.0,1377.2773867307922,2021-09-23 13:33:11.548
43,25.0,767.0,136.0,779.3651262405831,2021-09-23 13:33:11.571
44,25.0,1077.0,-124.0,1084.4030615965637,2021-09-23 13:33:11.573
45,-271.0,1081.0,-124.0,1121.3286761694806,2021-09-23 13:33:11.577
46,-271.0,1081.0,61.0,1116.1196172453915,2021-09-23 13:33:11.578
47,12.0,1214.0,-140.0,1222.104741828621,2021-09-23 13:33:11.588
48,-372.0,652.0,-3.0,750.6643724062039,2021-09-23 13:33:11.597
49,-376.0,766.0,112.0,860.6253540304283,2021-09-23 13:33:11.607
50,-372.0,616.0,-47.0,721.1442296794727,2021-09-23 13:33:11.617
51,-418.0,979.0,120.0,1071.2446032536172,2021-09-23 13:33:11.626
52,-314.0,785.0,64.0,847.889733396979,2021-09-23 13:33:11.636
53,88.0,942.0,-87.0,950.0931533276092,2021-09-23 13:33:11.646
54,-107.0,1084.0,-59.0,1090.8647945552189,2021-09-23 13:33:11.656
55,-252.0,1005.0,222.0,1059.6287085578608,2021-09-23 13:33:11.665
56,-51.0,1014.0,-99.0,1020.0970542061182,2021-09-23 13:33:11.676
57,-4.0,951.0,-209.0,973.7032402123348,2021-09-23 13:33:11.685
58,-234.0,951.0,-209.0,1001.4179946455926,2021-09-23 13:33:11.694
59,-234.0,1124.0,-25.0,1148.37145558395,2021-09-23 13:33:11.695
60,-100.0,1090.0,-200.0,1112.6994203287786,2021-09-23 13:33:11.705
61,-162.0,1083.0,-177.0,1109.2619167716882,2021-09-23 13:33:11.714
62,-121.0,1173.0,-135.0,1186.9267037184732,2021-09-23 13:33:11.725
63,-132.0,1041.0,-133.0,1057.730589517009,2021-09-23 13:33:11.734
64,-258.0,1091.0,-94.0,1125.0248886135807,2021-09-23 13:33:11.744
65,19.0,1268.0,-319.0,1307.649035483145,2021-09-23 13:33:11.753
66,-250.0,1048.0,18.0,1077.5564950386592,2021-09-23 13:33:11.763
67,-254.0,1048.0,18.0,1078.491539141592,2021-09-23 13:33:11.775
68,-254.0,881.0,12.0,916.962921823996,2021-09-23 13:33:11.776
69,-83.0,1313.0,12.0,1315.675491905204,2021-09-23 13:33:11.782
70,-83.0,1313.0,-44.0,1316.3563347361537,2021-09-23 13:33:11.783
71,-150.0,854.0,-44.0,868.1889195330702,2021-09-23 13:33:11.797
72,-150.0,854.0,117.0,874.9314258843375,2021-09-23 13:33:11.798
73,-416.0,570.0,-20.0,705.9433405026214,2021-09-23 13:33:11.802
74,-371.0,933.0,27.0,1004.419732980192,2021-09-23 13:33:11.812
75,-362.0,933.0,27.0,1001.1303611418446,2021-09-23 13:33:11.821
76,-362.0,890.0,162.0,974.3654345264922,2021-09-23 13:33:11.822
77,-255.0,655.0,44.0,704.2627350641236,2021-09-23 13:33:11.832
78,-451.0,655.0,44.0,796.4684551192219,2021-09-23 13:33:11.841
79,-451.0,949.0,225.0,1074.5357136921973,2021-09-23 13:33:11.842
80,-208.0,700.0,8.0,730.293091847376,2021-09-23 13:33:11.851
81,106.0,700.0,8.0,708.0254232723568,2021-09-23 13:33:11.860
82,106.0,1119.0,-110.0,1129.3790329203034,2021-09-23 13:33:11.861
83,-383.0,1047.0,32.0,1115.3125122583356,2021-09-23 13:33:11.870
84,-130.0,850.0,142.0,871.5296896836045,2021-09-23 13:33:11.881
85,7.0,1003.0,-118.0,1009.941582469006,2021-09-23 13:33:11.890
86,-134.0,1003.0,-118.0,1018.7683740674324,2021-09-23 13:33:11.899
87,-134.0,1071.0,-93.0,1083.3494357777645,2021-09-23 13:33:11.900
88,-149.0,1103.0,-23.0,1113.2560352407706,2021-09-23 13:33:11.915
89,-71.0,1068.0,-273.0,1104.6239179014729,2021-09-23 13:33:11.919
90,-311.0,1217.0,-18.0,1256.2380347688888,2021-09-23 13:33:11.929
91,-273.0,1079.0,-64.0,1114.8390018294122,2021-09-23 13:33:11.939
92,98.0,1213.0,-64.0,1218.6340714094613,2021-09-23 13:33:11.948
93,98.0,1213.0,-297.0,1252.6699485498964,2021-09-23 13:33:11.949
94,-309.0,1000.0,-57.0,1048.203224570503,2021-09-23 13:33:11.959
95,-37.0,1297.0,-57.0,1298.7790420237,2021-09-23 13:33:11.968
96,-37.0,1297.0,-254.0,1322.1550589851404,2021-09-23 13:33:11.969
97,-377.0,854.0,89.0,937.7451679427626,2021-09-23 13:33:11.978
98,-132.0,854.0,89.0,868.7122653675382,2021-09-23 13:33:11.987
99,-132.0,1034.0,60.0,1044.116851698123,2021-09-23 13:33:11.988
100,-19.0,1140.0,-24.0,1140.410890863464,2021-09-23 13:33:11.997
101,-277.0,728.0,4.0,778.9281096481241,2021-09-23 13:33:12.007
102,-405.0,687.0,46.0,798.8178766151894,2021-09-23 13:33:12.018
103,-345.0,687.0,46.0,770.1363515637994,2021-09-23 13:33:12.026
104,-345.0,903.0,89.0,970.7497102755168,2021-09-23 13:33:12.027
105,-355.0,722.0,74.0,807.9511123824262,2021-09-23 13:33:12.036
106,-285.0,863.0,4.0,908.8509228690918,2021-09-23 13:33:12.046
107,72.0,1274.0,-66.0,1277.7386274195517,2021-09-23 13:33:12.056
108,-267.0,840.0,44.0,882.5106231655232,2021-09-23 13:33:12.067
109,-57.0,905.0,28.0,907.2254405603936,2021-09-23 13:33:12.076
110,-278.0,862.0,125.0,914.3046538216898,2021-09-23 13:33:12.086
111,25.0,874.0,-49.0,875.7294102632388,2021-09-23 13:33:12.095
112,-117.0,1192.0,-97.0,1201.6496993716596,2021-09-23 13:33:12.105
113,-306.0,974.0,-30.0,1021.3775012207778,2021-09-23 13:33:12.116
114,79.0,1123.0,-148.0,1135.462020500906,2021-09-23 13:33:12.124
115,-377.0,1077.0,-225.0,1163.0490101453163,2021-09-23 13:33:12.134
116,-285.0,1338.0,64.0,1369.5126870533184,2021-09-23 13:33:12.144
117,-42.0,974.0,64.0,977.0035823885192,2021-09-23 13:33:12.153
118,-42.0,974.0,-222.0,999.8619904766856,2021-09-23 13:33:12.154
119,-131.0,1304.0,-272.0,1338.492061986174,2021-09-23 13:33:12.168
120,-69.0,964.0,-240.0,995.8197628085114,2021-09-23 13:33:12.178
121,-61.0,964.0,-240.0,995.2974429787308,2021-09-23 13:33:12.183
122,-61.0,839.0,20.0,841.4523159395309,2021-09-23 13:33:12.184
123,-94.0,1088.0,-59.0,1093.6457378877312,2021-09-23 13:33:12.193
124,-61.0,1022.0,-3.0,1023.8232269293368,2021-09-23 13:33:12.215
125,-61.0,940.0,-40.0,942.826070916582,2021-09-23 13:33:12.216
126,-357.0,816.0,91.0,895.3133529664349,2021-09-23 13:33:12.222
127,-336.0,745.0,93.0,822.5387528864521,2021-09-23 13:33:12.233
128,-203.0,790.0,93.0,820.9494503317485,2021-09-23 13:33:12.241
129,-203.0,790.0,42.0,816.7453703572492,2021-09-23 13:33:12.242
130,-301.0,754.0,-43.0,812.9981549794562,2021-09-23 13:33:12.251
131,-158.0,1064.0,-43.0,1076.5263582467453,2021-09-23 13:33:12.262
132,-158.0,1064.0,22.0,1075.89218790732,2021-09-23 13:33:12.263
133,34.0,1159.0,-84.0,1162.5373112291925,2021-09-23 13:33:12.273
134,-305.0,1159.0,-84.0,1201.400016647245,2021-09-23 13:33:12.280
135,-305.0,759.0,49.0,819.4553068959893,2021-09-23 13:33:12.281
136,-181.0,1077.0,60.0,1093.7504285713446,2021-09-23 13:33:12.290
137,-63.0,1098.0,-41.0,1100.5698523946585,2021-09-23 13:33:12.300
138,-273.0,891.0,-96.0,936.8169511702912,2021-09-23 13:33:12.310
139,-56.0,1084.0,-107.0,1090.7066516712914,2021-09-23 13:33:12.321
140,-262.0,837.0,-67.0,879.6033196845042,2021-09-23 13:33:12.329
141,-106.0,1142.0,-178.0,1160.6394789080716,2021-09-23 13:33:12.339
142,-345.0,1205.0,-95.0,1257.010342041783,2021-09-23 13:33:12.349
143,-154.0,1022.0,32.0,1034.032881488785,2021-09-23 13:33:12.362
144,55.0,1034.0,-339.0,1089.5421056572343,2021-09-23 13:33:12.369
145,-223.0,1435.0,-117.0,1456.929305079694,2021-09-23 13:33:12.379
146,-417.0,903.0,222.0,1019.1084338773768,2021-09-23 13:33:12.388
147,143.0,913.0,-124.0,932.4129986223916,2021-09-23 13:33:12.398
148,-217.0,1030.0,-124.0,1059.8891451467932,2021-09-23 13:33:12.407
149,-217.0,1030.0,18.0,1052.7644560869255,2021-09-23 13:33:12.408
150,-367.0,854.0,153.0,942.0265389042922,2021-09-23 13:33:12.418
151,-311.0,854.0,153.0,921.6539480737875,2021-09-23 13:33:12.428
152,-311.0,652.0,59.0,724.7799666105569,2021-09-23 13:33:12.429
153,-296.0,748.0,-34.0,805.1558855277653,2021-09-23 13:33:12.437
154,-379.0,748.0,-34.0,839.226429517088,2021-09-23 13:33:12.446
155,-379.0,896.0,91.0,977.1069542276322,2021-09-23 13:33:12.447
156,-286.0,805.0,73.0,857.4088872877397,2021-09-23 13:33:12.456
157,-375.0,837.0,20.0,917.3843251331472,2021-09-23 13:33:12.468
158,76.0,1029.0,-50.0,1033.0135526700508,2021-09-23 13:33:12.477
159,-21.0,1047.0,-152.0,1058.184293967738,2021-09-23 13:33:12.486
160,-163.0,941.0,-152.0,967.0336085162708,2021-09-23 13:33:12.495
161,-163.0,941.0,187.0,973.1490122278294,2021-09-23 13:33:12.496
162,-180.0,1106.0,-4.0,1120.558789176186,2021-09-23 13:33:12.505
163,2.0,927.0,-191.0,946.4745110144275,2021-09-23 13:33:12.515
164,-209.0,1044.0,-71.0,1067.0791910631565,2021-09-23 13:33:12.525
165,-200.0,1138.0,-183.0,1169.8431518797722,2021-09-23 13:33:12.536
166,-236.0,1085.0,-99.0,1114.7744166422192,2021-09-23 13:33:12.544
167,-34.0,1061.0,-116.0,1067.8637553545864,2021-09-23 13:33:12.554
168,-141.0,1117.0,-275.0,1158.9628984570645,2021-09-23 13:33:12.564
169,-265.0,974.0,-167.0,1023.1275580297894,2021-09-23 13:33:12.574
170,77.0,1277.0,-167.0,1290.173244180796,2021-09-23 13:33:12.587
171,77.0,1277.0,-324.0,1319.7098165884802,2021-09-23 13:33:12.588
172,-303.0,1243.0,47.0,1280.2605203629455,2021-09-23 13:33:12.593
173,-307.0,793.0,43.0,851.4381950558713,2021-09-23 13:33:12.603
174,14.0,1196.0,-139.0,1204.131637322099,2021-09-23 13:33:12.613
175,-174.0,1016.0,121.0,1037.8694522915682,2021-09-23 13:33:12.623
176,-380.0,629.0,54.0,736.856159640401,2021-09-23 13:33:12.634
177,-255.0,738.0,-3.0,780.8188010031521,2021-09-23 13:33:12.642
178,-311.0,738.0,-3.0,800.8582895868657,2021-09-23 13:33:12.651
179,-311.0,976.0,104.0,1029.61789028746,2021-09-23 13:33:12.652
180,-453.0,827.0,120.0,950.5461587950372,2021-09-23 13:33:12.661
181,241.0,920.0,-133.0,960.2968291106662,2021-09-23 13:33:12.671
182,-110.0,1037.0,-133.0,1051.264952331238,2021-09-23 13:33:12.681
183,-110.0,1037.0,-63.0,1044.7191010027527,2021-09-23 13:33:12.682
184,-260.0,1027.0,197.0,1077.561135156609,2021-09-23 13:33:12.691
185,-254.0,953.0,197.0,1005.750466069989,2021-09-23 13:33:12.700
186,-254.0,953.0,-57.0,987.913963865275,2021-09-23 13:33:12.701
187,-186.0,987.0,179.0,1020.19900019555,2021-09-23 13:33:12.710
188,22.0,1078.0,179.0,1092.9817015851638,2021-09-23 13:33:12.720
189,22.0,1078.0,-58.0,1079.7833115954331,2021-09-23 13:33:12.721
190,-46.0,971.0,-150.0,983.5939202740122,2021-09-23 13:33:12.731
191,-275.0,1169.0,-53.0,1202.0794482895046,2021-09-23 13:33:12.741
192,-101.0,1136.0,-202.0,1158.2318420765334,2021-09-23 13:33:12.749
193,-192.0,1125.0,-82.0,1144.208460028154,2021-09-23 13:33:12.759
194,-255.0,1125.0,-82.0,1156.4488747886785,2021-09-23 13:33:12.769
195,-255.0,1012.0,-173.0,1057.8742836462186,2021-09-23 13:33:12.770
196,81.0,1340.0,-253.0,1366.078328647373,2021-09-23 13:33:12.780
197,-294.0,1012.0,0.0,1053.840595156592,2021-09-23 13:33:12.789
198,-160.0,855.0,19.0,870.0494238834941,2021-09-23 13:33:12.798
199,-34.0,855.0,19.0,855.8866747414637,2021-09-23 13:33:12.812
200,-34.0,1383.0,-42.0,1384.0552734627329,2021-09-23 13:33:12.813
201,-62.0,913.0,-31.0,915.6276535797724,2021-09-23 13:33:12.818
202,-1.0,913.0,-31.0,913.5266826973364,2021-09-23 13:33:12.827
203,-1.0,1256.0,0.0,1256.0003980891088,2021-09-23 13:33:12.828
204,-267.0,804.0,0.0,847.1747163366008,2021-09-23 13:33:12.837
205,-267.0,804.0,54.0,848.8939863139566,2021-09-23 13:33:12.838
206,-349.0,532.0,-30.0,636.9654621720082,2021-09-23 13:33:12.848
207,-307.0,899.0,52.0,951.3958166819948,2021-09-23 13:33:12.857
208,-366.0,915.0,52.0,986.8561191987412,2021-09-23 13:33:12.866
209,-366.0,915.0,137.0,994.9623108439836,2021-09-23 13:33:12.867
210,-320.0,733.0,13.0,799.9112450766022,2021-09-23 13:33:12.876
211,185.0,1164.0,-143.0,1187.2531322342345,2021-09-23 13:33:12.886
212,-371.0,979.0,119.0,1053.6806916708686,2021-09-23 13:33:12.897
213,-46.0,913.0,47.0,915.3655007700476,2021-09-23 13:33:12.916
214,160.0,1038.0,-122.0,1057.3211432672667,2021-09-23 13:33:12.920
215,-272.0,1035.0,-50.0,1071.311812685737,2021-09-23 13:33:12.925
216,-50.0,1035.0,-50.0,1037.4126469250314,2021-09-23 13:33:12.935
217,-50.0,1037.0,-158.0,1050.1585594566184,2021-09-23 13:33:12.936
218,-261.0,1037.0,-158.0,1080.950507655184,2021-09-23 13:33:12.944
219,-261.0,998.0,-72.0,1034.0739818794398,2021-09-23 13:33:12.945
220,-49.0,1153.0,-26.0,1154.3335739724455,2021-09-23 13:33:12.955
221,-165.0,956.0,-270.0,1007.0059582743291,2021-09-23 13:33:12.965
222,-294.0,1292.0,53.0,1326.0878553097452,2021-09-23 13:33:12.974
223,-159.0,1074.0,-146.0,1095.478434292524,2021-09-23 13:33:12.984
224,-19.0,1243.0,-146.0,1251.689258562204,2021-09-23 13:33:12.993
225,-19.0,1243.0,-181.0,1256.2527611909954,2021-09-23 13:33:12.994
226,-460.0,981.0,67.0,1085.5643693489576,2021-09-23 13:33:13.003
227,-173.0,916.0,9.0,932.2370943059497,2021-09-23 13:33:13.014
228,-57.0,916.0,9.0,917.8158856764248,2021-09-23 13:33:13.023
229,-57.0,1212.0,51.0,1214.4109683299143,2021-09-23 13:33:13.024
230,-190.0,1212.0,51.0,1227.8619629258003,2021-09-23 13:33:13.032
231,-190.0,667.0,39.0,694.6293975927019,2021-09-23 13:33:13.033
232,-421.0,675.0,63.0,798.0194233225154,2021-09-23 13:33:13.042
233,-328.0,706.0,24.0,778.8427312365443,2021-09-23 13:33:13.052
234,-340.0,708.0,24.0,785.7735042618833,2021-09-23 13:33:13.062
235,-340.0,708.0,47.0,786.8119216178667,2021-09-23 13:33:13.063
236,-259.0,708.0,47.0,755.3502498841183,2021-09-23 13:33:13.072
237,-259.0,962.0,113.0,1002.6435059381774,2021-09-23 13:33:13.073
238,-305.0,667.0,-3.0,733.4323418012053,2021-09-23 13:33:13.081
239,-101.0,922.0,-52.0,928.9720124955326,2021-09-23 13:33:13.091
240,61.0,1300.0,-58.0,1302.72214996138,2021-09-23 13:33:13.101
241,-260.0,807.0,77.0,851.3389454265557,2021-09-23 13:33:13.111
242,-96.0,904.0,12.0,909.1622517460786,2021-09-23 13:33:13.121
243,-65.0,904.0,12.0,906.4132611563006,2021-09-23 13:33:13.130
244,-65.0,1178.0,-59.0,1181.2662697292258,2021-09-23 13:33:13.131
245,-274.0,997.0,-34.0,1034.5245284670634,2021-09-23 13:33:13.140
246,-100.0,930.0,-34.0,935.978632234732,2021-09-23 13:33:13.152
247,-100.0,930.0,-147.0,946.8415918198776,2021-09-23 13:33:13.153
248,-163.0,1291.0,-147.0,1309.5262502141757,2021-09-23 13:33:13.159
249,-163.0,1291.0,-183.0,1314.0544128764227,2021-09-23 13:33:13.160
250,-316.0,1097.0,45.0,1142.4928883804923,2021-09-23 13:33:13.170
251,-94.0,968.0,-190.0,990.9389486744376,2021-09-23 13:33:13.181
252,-268.0,1152.0,73.0,1185.0135020327828,2021-09-23 13:33:13.189
253,40.0,1053.0,73.0,1056.2849994201376,2021-09-23 13:33:13.198
254,40.0,1053.0,-238.0,1080.302272514503,2021-09-23 13:33:13.199
255,-60.0,1316.0,-176.0,1329.0718565976786,2021-09-23 13:33:13.208
256,78.0,1316.0,-176.0,1330.0060150239922,2021-09-23 13:33:13.230
257,78.0,992.0,-16.0,995.1904340376268,2021-09-23 13:33:13.231
258,-57.0,992.0,-16.0,993.7650627789246,2021-09-23 13:33:13.237
259,-57.0,970.0,-56.0,973.2856723490796,2021-09-23 13:33:13.238
260,-420.0,800.0,28.0,903.9823007116898,2021-09-23 13:33:13.247
261,-345.0,783.0,142.0,867.3396105332674,2021-09-23 13:33:13.258
262,-238.0,691.0,-52.0,732.6861538203107,2021-09-23 13:33:13.267
263,-425.0,799.0,59.0,906.9217165775666,2021-09-23 13:33:13.277
264,-101.0,1090.0,17.0,1094.8013518442513,2021-09-23 13:33:13.288
265,51.0,1057.0,-77.0,1061.0273323529418,2021-09-23 13:33:13.296
266,-24.0,1104.0,-5.0,1104.272158482681,2021-09-23 13:33:13.306
267,-59.0,1097.0,-71.0,1100.877377367707,2021-09-23 13:33:13.316
268,-81.0,844.0,-71.0,850.8454618789478,2021-09-23 13:33:13.325
269,-81.0,844.0,80.0,851.6437048437568,2021-09-23 13:33:13.326
270,-198.0,1175.0,80.0,1194.2482991405095,2021-09-23 13:33:13.336
271,-57.0,1054.0,-72.0,1057.9929111293704,2021-09-23 13:33:13.345
272,-232.0,976.0,-86.0,1006.8743715081836,2021-09-23 13:33:13.355
273,-117.0,1109.0,-86.0,1118.4659136513728,2021-09-23 13:33:13.364
274,-117.0,1109.0,-163.0,1127.0044365484991,2021-09-23 13:33:13.365
275,-285.0,1189.0,-110.0,1227.618018766424,2021-09-23 13:33:13.375
276,-48.0,1069.0,-80.0,1073.0633718471618,2021-09-23 13:33:13.384
277,-116.0,1028.0,-263.0,1067.4310282168117,2021-09-23 13:33:13.394
278,-177.0,1028.0,-263.0,1075.7704216049074,2021-09-23 13:33:13.403
279,-177.0,1472.0,-60.0,1483.817037238756,2021-09-23 13:33:13.404
280,-335.0,849.0,168.0,928.0355596635292,2021-09-23 13:33:13.414
281,-121.0,1365.0,-51.0,1371.3012068834475,2021-09-23 13:33:13.423
282,-412.0,862.0,173.0,970.9361462011803,2021-09-23 13:33:13.433
283,-22.0,862.0,173.0,879.4640413342663,2021-09-23 13:33:13.443
284,-22.0,977.0,-181.0,993.8682005175536,2021-09-23 13:33:13.444
285,-78.0,1020.0,96.0,1027.4726273726226,2021-09-23 13:33:13.452
286,-477.0,728.0,92.0,875.2011197433422,2021-09-23 13:33:13.463
287,-330.0,738.0,73.0,811.709923556439,2021-09-23 13:33:13.472
288,-320.0,820.0,14.0,880.338571232682,2021-09-23 13:33:13.482
289,-420.0,819.0,119.0,928.0743504698318,2021-09-23 13:33:13.492
290,103.0,939.0,-79.0,947.9298497251788,2021-09-23 13:33:13.501
291,-12.0,971.0,-165.0,984.9923857573724,2021-09-23 13:33:13.511
292,-285.0,1077.0,188.0,1129.8221098916413,2021-09-23 13:33:13.521
293,-79.0,995.0,-19.0,998.312075455366,2021-09-23 13:33:13.531
294,-27.0,995.0,-19.0,995.5475880137524,2021-09-23 13:33:13.540
295,-27.0,1017.0,-161.0,1030.0189318648468,2021-09-23 13:33:13.541
296,-62.0,1017.0,-161.0,1031.5299317033898,2021-09-23 13:33:13.550
297,-62.0,1167.0,-40.0,1169.3301501286965,2021-09-23 13:33:13.551
298,-59.0,898.0,-165.0,914.937156311842,2021-09-23 13:33:13.560
299,-250.0,1101.0,-81.0,1131.9284429680174,2021-09-23 13:33:13.570
300,-237.0,1154.0,-198.0,1194.6083040059616,2021-09-23 13:33:13.579
301,-207.0,1057.0,-25.0,1077.3685534671968,2021-09-23 13:33:13.597
302,-162.0,1057.0,-120.0,1076.0543666562578,2021-09-23 13:33:13.601
303,-22.0,1057.0,-120.0,1064.017387075982,2021-09-23 13:33:13.608
304,-22.0,1206.0,-183.0,1220.0036885190143,2021-09-23 13:33:13.609
305,-132.0,1308.0,-45.0,1315.4136231619316,2021-09-23 13:33:13.620
306,-297.0,762.0,89.0,822.6627498556137,2021-09-23 13:33:13.628
307,-105.0,1216.0,-49.0,1221.5080842958018,2021-09-23 13:33:13.638
308,-90.0,934.0,102.0,943.8538022384612,2021-09-23 13:33:13.648
309,-386.0,677.0,102.0,785.9573779792388,2021-09-23 13:33:13.657
310,-386.0,677.0,63.0,781.8529273463137,2021-09-23 13:33:13.658
311,-420.0,677.0,63.0,799.1858357103184,2021-09-23 13:33:13.667
312,-420.0,747.0,0.0,856.9766624593694,2021-09-23 13:33:13.668
313,-424.0,610.0,-26.0,743.3384155282168,2021-09-23 13:33:13.677
314,-321.0,783.0,79.0,849.9241142596203,2021-09-23 13:33:13.687
315,-382.0,783.0,79.0,874.78797431149,2021-09-23 13:33:13.696
316,-382.0,1007.0,122.0,1083.9082064455458,2021-09-23 13:33:13.697
317,-435.0,669.0,47.0,799.3716282180648,2021-09-23 13:33:13.707
318,115.0,996.0,-156.0,1014.6807379663812,2021-09-23 13:33:13.716
319,-163.0,1134.0,27.0,1145.9729490699158,2021-09-23 13:33:13.727
320,-237.0,944.0,191.0,991.8598691347482,2021-09-23 13:33:13.736
321,88.0,944.0,191.0,967.1406309322342,2021-09-23 13:33:13.745
322,88.0,974.0,-164.0,991.6229121999957,2021-09-23 13:33:13.746
323,-85.0,1107.0,-164.0,1122.3056624645533,2021-09-23 13:33:13.757
324,-85.0,1107.0,-63.0,1112.044513497549,2021-09-23 13:33:13.758
325,-328.0,1025.0,-79.0,1079.0968445881028,2021-09-23 13:33:13.765
326,-131.0,1025.0,-79.0,1036.3527391771588,2021-09-23 13:33:13.775
327,-131.0,1040.0,-205.0,1068.0758400038828,2021-09-23 13:33:13.776
328,-160.0,1169.0,-205.0,1197.5750498403013,2021-09-23 13:33:13.784
329,-160.0,1169.0,-125.0,1186.5015802770763,2021-09-23 13:33:13.785
330,-323.0,1141.0,0.0,1185.837256962354,2021-09-23 13:33:13.794
331,-258.0,1165.0,-37.0,1193.7998157145107,2021-09-23 13:33:13.804
332,-351.0,1112.0,-77.0,1168.620554328906,2021-09-23 13:33:13.824
333,123.0,1179.0,-272.0,1216.2047524985255,2021-09-23 13:33:13.826
334,-327.0,1058.0,8.0,1107.4100414932132,2021-09-23 13:33:13.834
335,-193.0,880.0,1.0,900.9162003205404,2021-09-23 13:33:13.843
336,-137.0,1260.0,-1.0,1267.426526470075,2021-09-23 13:33:13.853
337,-111.0,1260.0,-1.0,1264.8802314843883,2021-09-23 13:33:13.862
338,-111.0,776.0,27.0,784.3634361697389,2021-09-23 13:33:13.863
339,-471.0,776.0,27.0,908.1552730673318,2021-09-23 13:33:13.872
340,-471.0,653.0,43.0,806.2871696858384,2021-09-23 13:33:13.873
341,-279.0,653.0,43.0,711.4063536404493,2021-09-23 13:33:13.882
342,-279.0,921.0,110.0,968.597955810356,2021-09-23 13:33:13.883
343,-285.0,796.0,105.0,851.9776992386596,2021-09-23 13:33:13.892
344,-409.0,796.0,105.0,901.0671451118392,2021-09-23 13:33:13.901
345,-409.0,740.0,-32.0,846.1116947543037,2021-09-23 13:33:13.902
346,71.0,1068.0,-19.0,1070.5260389173166,2021-09-23 13:33:13.911
347,-174.0,1066.0,4.0,1080.1148087124814,2021-09-23 13:33:13.932
348,40.0,1220.0,0.0,1220.6555615733705,2021-09-23 13:33:13.934
349,-292.0,872.0,25.0,919.9309756715446,2021-09-23 13:33:13.945
350,-120.0,884.0,25.0,892.457842141577,2021-09-23 13:33:13.950
351,-120.0,884.0,56.0,893.8635242585973,2021-09-23 13:33:13.951
352,-40.0,1101.0,-71.0,1104.0117752995209,2021-09-23 13:33:13.960
353,-201.0,1090.0,-11.0,1108.4322261645048,2021-09-23 13:33:13.971
354,-157.0,918.0,-86.0,935.290863849316,2021-09-23 13:33:13.981
355,-141.0,918.0,-86.0,932.7384413649949,2021-09-23 13:33:13.989
356,-141.0,1179.0,-227.0,1208.9048763240226,2021-09-23 13:33:13.990
357,-261.0,1267.0,-9.0,1293.6348016345262,2021-09-23 13:33:14.000
358,-267.0,896.0,-114.0,941.860393051964,2021-09-23 13:33:14.009
359,142.0,1323.0,-316.0,1367.6070342024425,2021-09-23 13:33:14.019
360,-373.0,1323.0,-316.0,1410.430430755094,2021-09-23 13:33:14.028
361,-373.0,1046.0,36.0,1111.09900548961,2021-09-23 13:33:14.029
362,-242.0,986.0,88.0,1019.0701644146,2021-09-23 13:33:14.039
363,-503.0,1038.0,106.0,1158.312997423408,2021-09-23 13:33:14.048
364,-7.0,959.0,40.0,959.8593646988083,2021-09-23 13:33:14.058
365,-13.0,959.0,40.0,959.9218718208268,2021-09-23 13:33:14.067
366,-13.0,1047.0,-37.0,1047.734222023887,2021-09-23 13:33:14.068
367,-285.0,795.0,-37.0,845.3514062211052,2021-09-23 13:33:14.077
368,-285.0,795.0,0.0,844.5412956155549,2021-09-23 13:33:14.078
369,-475.0,732.0,127.0,881.8038330603922,2021-09-23 13:33:14.088
370,-244.0,742.0,-4.0,781.0992254509026,2021-09-23 13:33:14.097
371,-369.0,767.0,30.0,851.6748205741437,2021-09-23 13:33:14.107
372,-244.0,1034.0,30.0,1062.8226568906027,2021-09-23 13:33:14.116
373,-244.0,1034.0,44.0,1063.3099265971327,2021-09-23 13:33:14.117
374,20.0,1104.0,-24.0,1104.441940529243,2021-09-23 13:33:14.126
375,-345.0,806.0,48.0,878.0461263510022,2021-09-23 13:33:14.137
376,-79.0,995.0,41.0,998.9729726073674,2021-09-23 13:33:14.149
377,-70.0,995.0,41.0,998.3015576467864,2021-09-23 13:33:14.155
378,-70.0,1181.0,30.0,1183.4529986442217,2021-09-23 13:33:14.156
379,-125.0,1024.0,40.0,1032.3763848519588,2021-09-23 13:33:14.165
380,-142.0,1134.0,-61.0,1144.482852645683,2021-09-23 13:33:14.175
381,-194.0,910.0,-33.0,931.0343710089332,2021-09-23 13:33:14.185
382,-12.0,1060.0,-167.0,1073.1416495505148,2021-09-23 13:33:14.196
383,-307.0,1184.0,-137.0,1230.8021774436377,2021-09-23 13:33:14.204
384,-88.0,1191.0,32.0,1194.675269686286,2021-09-23 13:33:14.214
385,-59.0,947.0,-302.0,995.7379173256384,2021-09-23 13:33:14.224
386,-204.0,947.0,-302.0,1014.7063614662126,2021-09-23 13:33:14.245
387,-204.0,1408.0,-115.0,1427.3419352068374,2021-09-23 13:33:14.246
388,-334.0,962.0,120.0,1025.377979088687,2021-09-23 13:33:14.247
389,-189.0,823.0,-33.0,845.0674529290546,2021-09-23 13:33:14.254
390,-40.0,1114.0,-58.0,1116.2257836119,2021-09-23 13:33:14.263
391,-387.0,843.0,135.0,937.3595894852732,2021-09-23 13:33:14.273
392,-1.0,1006.0,135.0,1015.0182264373384,2021-09-23 13:33:14.282
393,-1.0,1006.0,-22.0,1006.2410248046936,2021-09-23 13:33:14.283
394,-430.0,779.0,104.0,895.8554570911538,2021-09-23 13:33:14.293
395,-317.0,717.0,105.0,790.9506937856494,2021-09-23 13:33:14.302
396,-230.0,752.0,-2.0,786.3892166096888,2021-09-23 13:33:14.312
397,-365.0,851.0,73.0,928.8460582895316,2021-09-23 13:33:14.322
398,-28.0,1043.0,-7.0,1043.3992524436655,2021-09-23 13:33:14.331
399,97.0,1003.0,-145.0,1018.0584462593492,2021-09-23 13:33:14.343
400,-282.0,968.0,131.0,1016.7148076033908,2021-09-23 13:33:14.351
401,-154.0,968.0,131.0,988.888770287134,2021-09-23 13:33:14.360
402,-154.0,1041.0,69.0,1054.5890194763076,2021-09-23 13:33:14.361
403,-54.0,1004.0,-151.0,1016.7266102546938,2021-09-23 13:33:14.370
404,-295.0,901.0,-132.0,957.2094859538324,2021-09-23 13:33:14.380
405,-142.0,1211.0,-62.0,1220.8722291869858,2021-09-23 13:33:14.390
406,-315.0,1211.0,-62.0,1252.8327901200544,2021-09-23 13:33:14.399
407,-315.0,1113.0,-163.0,1168.145110848819,2021-09-23 13:33:14.400
408,-188.0,1159.0,-193.0,1189.905038227841,2021-09-23 13:33:14.410
409,-301.0,1117.0,-38.0,1157.4687900760002,2021-09-23 13:33:14.419
410,-87.0,991.0,-139.0,1004.4754850169315,2021-09-23 13:33:14.429
411,-2.0,1093.0,-283.0,1129.0447289633837,2021-09-23 13:33:14.439
412,-178.0,1093.0,-283.0,1142.9881889153537,2021-09-23 13:33:14.449
413,-178.0,1435.0,-44.0,1446.6668586789426,2021-09-23 13:33:14.450
414,-251.0,801.0,128.0,849.108944717932,2021-09-23 13:33:14.458
415,-5.0,1104.0,-137.0,1112.4792132889495,2021-09-23 13:33:14.468
416,-135.0,954.0,57.0,965.1891006429776,2021-09-23 13:33:14.478
417,-359.0,954.0,57.0,1020.9045009206296,2021-09-23 13:33:14.487
418,-359.0,797.0,135.0,884.4857262839237,2021-09-23 13:33:14.488
419,-350.0,653.0,-88.0,746.0918174058739,2021-09-23 13:33:14.498
420,-310.0,873.0,105.0,932.3379215713582,2021-09-23 13:33:14.507
421,-305.0,871.0,42.0,923.8127515898448,2021-09-23 13:33:14.517
422,-18.0,844.0,-127.0,853.6913962316828,2021-09-23 13:33:14.527
423,-449.0,802.0,50.0,920.4917164211744,2021-09-23 13:33:14.536
424,133.0,1001.0,-144.0,1020.012745018414,2021-09-23 13:33:14.548
425,-52.0,1008.0,-112.0,1015.5353268104463,2021-09-23 13:33:14.556
426,-238.0,1024.0,207.0,1071.4798178220624,2021-09-23 13:33:14.566
427,48.0,1038.0,207.0,1059.5267811622318,2021-09-23 13:33:14.575
428,48.0,1038.0,-101.0,1044.0062260350749,2021-09-23 13:33:14.576
429,26.0,948.0,-115.0,955.3036166580758,2021-09-23 13:33:14.586
430,-284.0,1097.0,-74.0,1135.5795876996028,2021-09-23 13:33:14.596
431,-185.0,1097.0,-74.0,1114.948429300656,2021-09-23 13:33:14.612
432,-185.0,1151.0,-146.0,1174.8795682962573,2021-09-23 13:33:14.613
433,-134.0,1050.0,-146.0,1068.5373180193567,2021-09-23 13:33:14.616
434,-134.0,1050.0,-128.0,1066.2269927177797,2021-09-23 13:33:14.617
435,-140.0,1089.0,-110.0,1103.4586535072349,2021-09-23 13:33:14.625
436,-115.0,1198.0,-227.0,1224.727724843363,2021-09-23 13:33:14.635
437,-23.0,1211.0,-70.0,1213.2394652334715,2021-09-23 13:33:14.644
438,62.0,1211.0,-70.0,1214.604874022824,2021-09-23 13:33:14.653
439,62.0,1299.0,-240.0,1322.4390345116103,2021-09-23 13:33:14.654
440,-290.0,1106.0,90.0,1146.9245833968334,2021-09-23 13:33:14.663
441,-156.0,787.0,-57.0,804.3345075278071,2021-09-23 13:33:14.674
442,-87.0,1331.0,-78.0,1336.1190066756778,2021-09-23 13:33:14.683
443,-136.0,835.0,104.0,852.3713979246371,2021-09-23 13:33:14.693
444,-325.0,835.0,104.0,902.034367416231,2021-09-23 13:33:14.702
445,-325.0,615.0,2.0,695.5961472003709,2021-09-23 13:33:14.703
446,-275.0,895.0,11.0,936.3605074969788,2021-09-23 13:33:14.712
447,-260.0,975.0,176.0,1024.3051303200623,2021-09-23 13:33:14.722
448,-288.0,703.0,-8.0,759.747984531713,2021-09-23 13:33:14.732
449,144.0,1017.0,-8.0,1027.1752528171617,2021-09-23 13:33:14.745
450,144.0,1017.0,-129.0,1035.213021556433,2021-09-23 13:33:14.746
451,-180.0,1163.0,20.0,1177.0169922307834,2021-09-23 13:33:14.751
452,-77.0,781.0,113.0,792.8801927151416,2021-09-23 13:33:14.761
453,-29.0,1041.0,-74.0,1044.0296930643303,2021-09-23 13:33:14.771
454,-82.0,1041.0,-74.0,1046.8433502678422,2021-09-23 13:33:14.780
455,-82.0,912.0,123.0,923.903133450688,2021-09-23 13:33:14.781
456,48.0,1007.0,-163.0,1021.2355262132236,2021-09-23 13:33:14.791
457,-143.0,1126.0,-79.0,1137.7899630423883,2021-09-23 13:33:14.800
458,-221.0,1063.0,-68.0,1087.8575274363827,2021-09-23 13:33:14.810
459,-160.0,1063.0,-68.0,1077.1225557010678,2021-09-23 13:33:14.819
460,-160.0,1002.0,-262.0,1047.9732821021728,2021-09-23 13:33:14.820
461,-210.0,1179.0,-65.0,1199.318973417831,2021-09-23 13:33:14.830
462,-239.0,1056.0,-47.0,1083.727825609364,2021-09-23 13:33:14.844
463,133.0,1318.0,-249.0,1347.8924289423098,2021-09-23 13:33:14.849
464,-254.0,1318.0,-249.0,1365.1523724478525,2021-09-23 13:33:14.858
465,-254.0,922.0,-21.0,956.5777542886934,2021-09-23 13:33:14.859
466,-244.0,1037.0,-21.0,1065.526161105395,2021-09-23 13:33:14.868
467,-244.0,1037.0,88.0,1068.9476133094645,2021-09-23 13:33:14.869
468,9.0,1233.0,-83.0,1235.8232074208672,2021-09-23 13:33:14.879
469,-125.0,694.0,16.0,705.3488498608331,2021-09-23 13:33:14.889
470,-80.0,1140.0,28.0,1143.146534788957,2021-09-23 13:33:14.898
471,-235.0,670.0,28.0,710.5694899163628,2021-09-23 13:33:14.907
472,-235.0,670.0,-12.0,710.1190041112827,2021-09-23 13:33:14.908
473,-417.0,706.0,69.0,822.852356136871,2021-09-23 13:33:14.917
474,-322.0,924.0,49.0,979.7249614049854,2021-09-23 13:33:14.927
475,-254.0,726.0,103.0,776.0161080802383,2021-09-23 13:33:14.950
476,-254.0,876.0,103.0,917.87853226884,2021-09-23 13:33:14.951
477,-254.0,876.0,-29.0,912.5420538254662,2021-09-23 13:33:14.952
478,70.0,1214.0,-50.0,1217.0439597648065,2021-09-23 13:33:14.956
479,-283.0,888.0,66.0,934.3388036467286,2021-09-23 13:33:14.966
480,-53.0,899.0,19.0,900.7613446412984,2021-09-23 13:33:14.976
481,-45.0,1184.0,-13.0,1184.9261580368627,2021-09-23 13:33:14.986
482,-201.0,985.0,-84.0,1008.8022601084912,2021-09-23 13:33:14.996
483,20.0,1001.0,-94.0,1005.6028042920326,2021-09-23 13:33:15.007
484,-255.0,1029.0,22.0,1060.3537145688697,2021-09-23 13:33:15.015
485,57.0,1025.0,-197.0,1045.3147851245576,2021-09-23 13:33:15.025
486,-377.0,1111.0,-202.0,1190.4847752071423,2021-09-23 13:33:15.034
487,-169.0,1111.0,-202.0,1141.7906988585955,2021-09-23 13:33:15.044
488,-169.0,1293.0,101.0,1307.903283886083,2021-09-23 13:33:15.045
489,0.0,986.0,-240.0,1014.7886479459652,2021-09-23 13:33:15.056
490,-148.0,1289.0,-189.0,1311.1620799885875,2021-09-23 13:33:15.064
491,-321.0,995.0,-189.0,1062.443880870891,2021-09-23 13:33:15.073
492,-321.0,995.0,80.0,1048.554242755233,2021-09-23 13:33:15.074
493,-73.0,915.0,22.0,918.171008037174,2021-09-23 13:33:15.083
494,-101.0,1008.0,-121.0,1020.2480090644628,2021-09-23 13:33:15.093
495,-244.0,820.0,89.0,860.1494056267202,2021-09-23 13:33:15.104
496,-407.0,820.0,89.0,919.7662746589484,2021-09-23 13:33:15.112
497,-407.0,768.0,126.0,878.2647664571316,2021-09-23 13:33:15.113
498,-235.0,767.0,17.0,802.3733544927823,2021-09-23 13:33:15.122
499,-366.0,783.0,67.0,866.910606694831,2021-09-23 13:33:15.135
500,-280.0,784.0,48.0,833.8824857256567,2021-09-23 13:33:15.142
501,-256.0,701.0,0.0,746.2821182367966,2021-09-23 13:33:15.152
502,-140.0,1083.0,14.0,1092.101185788203,2021-09-23 13:33:15.163
503,25.0,1100.0,-66.0,1102.2617656437149,2021-09-23 13:33:15.171
504,-229.0,865.0,126.0,903.6271354933958,2021-09-23 13:33:15.182
505,-108.0,1019.0,35.0,1025.304832720494,2021-09-23 13:33:15.191
506,-101.0,1138.0,-79.0,1145.201292349952,2021-09-23 13:33:15.201
507,-249.0,835.0,-103.0,877.4024162264428,2021-09-23 13:33:15.211
508,-4.0,1126.0,-110.0,1131.3673143590458,2021-09-23 13:33:15.220
509,-393.0,1257.0,-155.0,1326.093133984186,2021-09-23 13:33:15.230
510,-149.0,1006.0,-155.0,1028.7186204205696,2021-09-23 13:33:15.239
511,-149.0,1006.0,22.0,1017.212367207556,2021-09-23 13:33:15.240
512,-35.0,1107.0,-265.0,1138.8147347132456,2021-09-23 13:33:15.261
513,-115.0,1379.0,-265.0,1408.9325746819825,2021-09-23 13:33:15.263
514,-115.0,1379.0,-148.0,1391.6788422621075,2021-09-23 13:33:15.264
515,45.0,997.0,-313.0,1045.9459833088897,2021-09-23 13:33:15.269
516,-214.0,997.0,-313.0,1066.6648958318633,2021-09-23 13:33:15.278
517,-214.0,1477.0,-87.0,1494.95618664896,2021-09-23 13:33:15.279
518,-343.0,859.0,204.0,947.1779135938508,2021-09-23 13:33:15.289
519,65.0,955.0,204.0,978.70628893453,2021-09-23 13:33:15.298
520,65.0,955.0,-98.0,962.2130741161232,2021-09-23 13:33:15.299
521,-201.0,1010.0,-17.0,1029.946600557524,2021-09-23 13:33:15.308
522,-363.0,1010.0,-17.0,1073.3862305805865,2021-09-23 13:33:15.318
523,-363.0,834.0,210.0,933.5014729500966,2021-09-23 13:33:15.319
524,-324.0,639.0,-6.0,716.4726093857322,2021-09-23 13:33:15.329
525,-332.0,747.0,-15.0,817.5928081875476,2021-09-23 13:33:15.337
526,-298.0,943.0,69.0,991.3697594742335,2021-09-23 13:33:15.347
527,-41.0,883.0,-62.0,886.1230162906277,2021-09-23 13:33:15.357
528,-69.0,1105.0,-62.0,1108.8868292120708,2021-09-23 13:33:15.367
529,-69.0,1105.0,-116.0,1113.2124684892815,2021-09-23 13:33:15.368
530,-217.0,996.0,141.0,1029.0704543421698,2021-09-23 13:33:15.376
531,-88.0,1019.0,122.0,1030.0432029774286,2021-09-23 13:33:15.386
532,-240.0,981.0,206.0,1030.726442854747,2021-09-23 13:33:15.396
533,-123.0,981.0,206.0,1009.9138577126269,2021-09-23 13:33:15.405
534,-123.0,1064.0,-60.0,1072.7651187468764,2021-09-23 13:33:15.406
535,19.0,963.0,-131.0,972.0550395939522,2021-09-23 13:33:15.416
536,-238.0,977.0,-88.0,1009.41418654584,2021-09-23 13:33:15.425
537,-225.0,1180.0,-88.0,1204.4787254244054,2021-09-23 13:33:15.435
538,-248.0,1100.0,-86.0,1130.884609498246,2021-09-23 13:33:15.445
539,-39.0,1076.0,-105.0,1081.8142169522455,2021-09-23 13:33:15.455
540,-148.0,1211.0,-247.0,1244.7626279737033,2021-09-23 13:33:15.467
541,-89.0,1335.0,-86.0,1340.72443104465,2021-09-23 13:33:15.475
542,-403.0,1335.0,-86.0,1397.1506719033564,2021-09-23 13:33:15.483
543,-403.0,786.0,157.0,897.1365559378349,2021-09-23 13:33:15.484
544,-112.0,1056.0,-118.0,1068.4587029923057,2021-09-23 13:33:15.494
545,-174.0,1044.0,132.0,1066.6002062628716,2021-09-23 13:33:15.504
546,-101.0,1255.0,132.0,1265.958135168774,2021-09-23 13:33:15.513
547,-101.0,1255.0,-149.0,1267.843444594008,2021-09-23 13:33:15.514
548,-185.0,960.0,157.0,990.1888708726228,2021-09-23 13:33:15.524
549,-412.0,604.0,52.0,732.9829465956217,2021-09-23 13:33:15.535
550,-306.0,770.0,-27.0,829.0144751450363,2021-09-23 13:33:15.542
551,-355.0,959.0,125.0,1030.2092020555824,2021-09-23 13:33:15.552
552,-339.0,810.0,80.0,881.7148064992444,2021-09-23 13:33:15.562
553,105.0,810.0,80.0,820.6856889211606,2021-09-23 13:33:15.571
554,105.0,911.0,-167.0,932.113190551448,2021-09-23 13:33:15.572
555,-139.0,1152.0,-27.0,1160.6696343059898,2021-09-23 13:33:15.581
556,-140.0,959.0,176.0,985.0162435208872,2021-09-23 13:33:15.591
557,-26.0,971.0,-85.0,975.0599981539598,2021-09-23 13:33:15.601
558,-106.0,971.0,-85.0,980.4600960773467,2021-09-23 13:33:15.610
559,-106.0,1031.0,-128.0,1044.3088623582585,2021-09-23 13:33:15.611
560,-245.0,1070.0,29.0,1098.0737680137888,2021-09-23 13:33:15.629
561,-41.0,1011.0,-100.0,1016.760542114022,2021-09-23 13:33:15.632
562,-312.0,1073.0,-73.0,1119.8223073327304,2021-09-23 13:33:15.640
563,-239.0,1076.0,-156.0,1113.2084261269315,2021-09-23 13:33:15.650
564,-236.0,1044.0,-118.0,1076.8268198740222,2021-09-23 13:33:15.660
565,-221.0,1046.0,-103.0,1074.041898624071,2021-09-23 13:33:15.669
566,0.0,1249.0,-206.0,1265.8740063687223,2021-09-23 13:33:15.679
567,-72.0,1127.0,-108.0,1134.4500870465831,2021-09-23 13:33:15.689
568,-361.0,928.0,-108.0,1001.5832466649988,2021-09-23 13:33:15.699
569,-361.0,928.0,143.0,1005.959243707219,2021-09-23 13:33:15.700
570,-93.0,1249.0,-81.0,1255.0741013980012,2021-09-23 13:33:15.709
571,-142.0,722.0,35.0,736.6634238239333,2021-09-23 13:33:15.719
572,-369.0,748.0,21.0,834.3296710533552,2021-09-23 13:33:15.728
573,-478.0,850.0,21.0,975.41017013357,2021-09-23 13:33:15.737
574,-478.0,850.0,76.0,978.1410941167944,2021-09-23 13:33:15.738
575,-277.0,882.0,127.0,933.1570071536728,2021-09-23 13:33:15.748
576,-279.0,648.0,-65.0,708.4984121365411,2021-09-23 13:33:15.757
577,-320.0,885.0,116.0,948.1988188138604,2021-09-23 13:33:15.767
578,-394.0,885.0,116.0,975.6623391317304,2021-09-23 13:33:15.776
579,-394.0,709.0,-16.0,811.278620450459,2021-09-23 13:33:15.777
580,77.0,1128.0,-133.0,1138.420836070739,2021-09-23 13:33:15.786
581,-216.0,1017.0,56.0,1041.1921052332273,2021-09-23 13:33:15.796
582,-100.0,817.0,56.0,825.0,2021-09-23 13:33:15.806
583,-100.0,817.0,93.0,828.3344735069282,2021-09-23 13:33:15.807
584,-15.0,1155.0,-118.0,1161.108952682736,2021-09-23 13:33:15.816
585,-123.0,1090.0,-118.0,1103.2465726210075,2021-09-23 13:33:15.825
586,-123.0,1090.0,-41.0,1097.6839253628525,2021-09-23 13:33:15.826
587,-220.0,965.0,-70.0,992.2323316643134,2021-09-23 13:33:15.835
588,-208.0,1086.0,-283.0,1141.3803047188085,2021-09-23 13:33:15.849
589,-260.0,1159.0,-12.0,1187.865733153373,2021-09-23 13:33:15.858
590,-163.0,1080.0,-12.0,1092.2971207505768,2021-09-23 13:33:15.865
591,-163.0,1080.0,-63.0,1094.0466169226977,2021-09-23 13:33:15.866
592,128.0,1037.0,-368.0,1107.7802128581284,2021-09-23 13:33:15.874
593,-125.0,1002.0,-125.0,1017.4743240003652,2021-09-23 13:33:15.884
594,39.0,1222.0,-250.0,1247.9202698890665,2021-09-23 13:33:15.894
595,-422.0,1001.0,53.0,1087.609304851701,2021-09-23 13:33:15.904
596,-170.0,1001.0,53.0,1016.715299383264,2021-09-23 13:33:15.913
597,-170.0,970.0,68.0,987.1291708788672,2021-09-23 13:33:15.914
598,-55.0,1158.0,-87.0,1162.565266985041,2021-09-23 13:33:15.923
599,-159.0,710.0,0.0,727.5857337798756,2021-09-23 13:33:15.933
600,-497.0,710.0,0.0,866.6654487170929,2021-09-23 13:33:15.942
601,-497.0,848.0,49.0,984.1310888291256,2021-09-23 13:33:15.943
602,-285.0,842.0,34.0,889.5757415757244,2021-09-23 13:33:15.965
603,-285.0,820.0,87.0,872.4643259182578,2021-09-23 13:33:15.966
604,-382.0,824.0,-28.0,908.6715578249382,2021-09-23 13:33:15.972
605,93.0,1195.0,-17.0,1198.733915429108,2021-09-23 13:33:15.982
606,-192.0,846.0,-17.0,867.6802406416779,2021-09-23 13:33:15.991
607,-192.0,846.0,-22.0,867.7926019504891,2021-09-23 13:33:15.992
608,38.0,1208.0,-47.0,1209.5110582379973,2021-09-23 13:33:16.001
609,-313.0,898.0,-47.0,952.1459972084114,2021-09-23 13:33:16.011
610,-313.0,898.0,117.0,958.1555197357056,2021-09-23 13:33:16.012
611,-22.0,889.0,117.0,896.9358951452439,2021-09-23 13:33:16.022
612,-22.0,889.0,7.0,889.2997245023749,2021-09-23 13:33:16.023
613,-101.0,1223.0,7.0,1227.1833603826285,2021-09-23 13:33:16.030
614,-101.0,1223.0,-70.0,1229.1582485587444,2021-09-23 13:33:16.031
615,-236.0,988.0,-38.0,1016.505779619575,2021-09-23 13:33:16.040
616,-61.0,941.0,-96.0,947.8491441152436,2021-09-23 13:33:16.050
617,-234.0,1218.0,-217.0,1259.1143712943633,2021-09-23 13:33:16.060
618,-296.0,1126.0,92.0,1167.885268337605,2021-09-23 13:33:16.071
619,-127.0,1019.0,-166.0,1040.2144009770293,2021-09-23 13:33:16.079
620,129.0,1238.0,-256.0,1270.756074154281,2021-09-23 13:33:16.089
621,-486.0,1001.0,181.0,1127.367730600801,2021-09-23 13:33:16.099
622,49.0,933.0,-36.0,934.9791441524244,2021-09-23 13:33:16.109
623,-363.0,894.0,167.0,979.2313311980984,2021-09-23 13:33:16.119
624,49.0,1038.0,167.0,1052.489429875664,2021-09-23 13:33:16.129
625,49.0,1038.0,-9.0,1039.1948806648347,2021-09-23 13:33:16.130
626,-168.0,906.0,-73.0,924.3316504372228,2021-09-23 13:33:16.138
627,-344.0,851.0,47.0,919.1006473722016,2021-09-23 13:33:16.148
628,-353.0,815.0,47.0,889.4059815404886,2021-09-23 13:33:16.157
629,-353.0,815.0,66.0,890.6121490300927,2021-09-23 13:33:16.158
630,-335.0,715.0,-27.0,790.0499984178217,2021-09-23 13:33:16.168
631,-263.0,871.0,5.0,909.854383953828,2021-09-23 13:33:16.181
632,-172.0,1006.0,-29.0,1021.0097942723174,2021-09-23 13:33:16.187
633,-154.0,1100.0,-29.0,1111.1062055447264,2021-09-23 13:33:16.196
634,-154.0,1100.0,-17.0,1110.8577766753042,2021-09-23 13:33:16.197
635,-105.0,898.0,-151.0,916.6406056901473,2021-09-23 13:33:16.206
636,-320.0,1089.0,29.0,1135.4127002988826,2021-09-23 13:33:16.216
637,-23.0,1056.0,59.0,1057.8969704087444,2021-09-23 13:33:16.226
638,-46.0,1056.0,59.0,1058.6467777308917,2021-09-23 13:33:16.235
639,-46.0,909.0,-56.0,911.8843128379827,2021-09-23 13:33:16.236
640,-138.0,1082.0,49.0,1091.8649183850537,2021-09-23 13:33:16.245
641,-3.0,993.0,-40.0,993.809840965564,2021-09-23 13:33:16.255
642,-195.0,1008.0,-271.0,1061.8521554340794,2021-09-23 13:33:16.277
643,-304.0,1271.0,-116.0,1311.988185922419,2021-09-23 13:33:16.279
644,43.0,964.0,89.0,969.0541780519808,2021-09-23 13:33:16.285
645,-213.0,1030.0,-176.0,1066.4168978406146,2021-09-23 13:33:16.294
646,-342.0,1195.0,-72.0,1245.059436332258,2021-09-23 13:33:16.304
647,-113.0,968.0,79.0,977.76991158452,2021-09-23 13:33:16.317
648,-138.0,775.0,-138.0,799.195220205927,2021-09-23 13:33:16.324
649,-335.0,1124.0,-16.0,1172.9693090614094,2021-09-23 13:33:16.334
650,-269.0,961.0,99.0,1002.837474369601,2021-09-23 13:33:16.343
651,-61.0,784.0,10.0,786.4330867912413,2021-09-23 13:33:16.353
652,-240.0,784.0,10.0,819.9731702927846,2021-09-23 13:33:16.362
653,-240.0,944.0,94.0,978.5560791288356,2021-09-23 13:33:16.363
654,-117.0,877.0,12.0,884.8513999536872,2021-09-23 13:33:16.373
655,-204.0,837.0,-8.0,861.5387396977573,2021-09-23 13:33:16.383
656,-209.0,1045.0,60.0,1067.3827804494506,2021-09-23 13:33:16.392
657,-101.0,1045.0,60.0,1051.5826168209514,2021-09-23 13:33:16.401
658,-101.0,860.0,11.0,865.9803692925146,2021-09-23 13:33:16.402
659,-148.0,932.0,11.0,943.7420198338104,2021-09-23 13:33:16.411
660,-148.0,932.0,-6.0,943.6969852659274,2021-09-23 13:33:16.412
661,-105.0,1087.0,-76.0,1094.7008723847807,2021-09-23 13:33:16.421
662,-134.0,1021.0,-9.0,1029.7951252555044,2021-09-23 13:33:16.432
663,-128.0,1021.0,-9.0,1029.0315835774916,2021-09-23 13:33:16.441
664,-128.0,956.0,-148.0,975.8196554691856,2021-09-23 13:33:16.442
665,-145.0,1110.0,-81.0,1122.3573406005771,2021-09-23 13:33:16.450
666,-196.0,1175.0,-33.0,1191.692074321215,2021-09-23 13:33:16.460
667,-177.0,1175.0,-33.0,1188.7148522669345,2021-09-23 13:33:16.470
668,-177.0,968.0,-113.0,990.516027129294,2021-09-23 13:33:16.471
669,-266.0,1154.0,-42.0,1185.0046413411214,2021-09-23 13:33:16.480
