,Acceleration_X,Acceleration_Y,Acceleration_Z,magnitude,time_stamp
0,222.0,877.0,36.0,905.3778216855104,2021-09-23 13:33:56.274
1,222.0,919.0,79.0,948.728622947574,2021-09-23 13:33:56.275
2,-109.0,904.0,101.0,916.132086546476,2021-09-23 13:33:56.285
3,231.0,904.0,101.0,938.4977357458037,2021-09-23 13:33:56.294
4,231.0,1085.0,132.0,1117.1436792105123,2021-09-23 13:33:56.295
5,-514.0,927.0,71.0,1062.339870286341,2021-09-23 13:33:56.305
6,363.0,1016.0,71.0,1081.2335547882335,2021-09-23 13:33:56.313
7,363.0,1016.0,0.0,1078.8999026786498,2021-09-23 13:33:56.314
8,-96.0,996.0,17.0,1000.7602110395876,2021-09-23 13:33:56.323
9,-61.0,805.0,131.0,817.8673486574703,2021-09-23 13:33:56.333
10,-45.0,1310.0,-21.0,1310.9408834878864,2021-09-23 13:33:56.344
11,47.0,928.0,29.0,929.6418665271052,2021-09-23 13:33:56.353
12,-129.0,797.0,-143.0,819.9384123213158,2021-09-23 13:33:56.362
13,-436.0,1234.0,-287.0,1339.8585746264416,2021-09-23 13:33:56.372
14,-317.0,1163.0,25.0,1205.6877705276768,2021-09-23 13:33:56.382
15,-105.0,950.0,-170.0,970.7857642137116,2021-09-23 13:33:56.393
16,47.0,1216.0,-474.0,1305.963628896303,2021-09-23 13:33:56.401
17,-100.0,1411.0,76.0,1416.579330641246,2021-09-23 13:33:56.418
18,-170.0,732.0,94.0,757.3374413034127,2021-09-23 13:33:56.421
19,-416.0,1138.0,316.0,1252.1804981710904,2021-09-23 13:33:56.435
20,-3.0,1138.0,316.0,1181.062657101646,2021-09-23 13:33:56.440
21,-3.0,698.0,-108.0,706.3122538934178,2021-09-23 13:33:56.441
22,199.0,1506.0,-183.0,1530.0738544266417,2021-09-23 13:33:56.451
23,-162.0,900.0,75.0,917.534195548046,2021-09-23 13:33:56.460
24,-573.0,512.0,75.0,772.073830666472,2021-09-23 13:33:56.470
25,-312.0,512.0,75.0,604.2458109081105,2021-09-23 13:33:56.479
26,-312.0,604.0,-22.0,680.179388102874,2021-09-23 13:33:56.480
27,-406.0,604.0,-22.0,728.104388120275,2021-09-23 13:33:56.489
28,-406.0,1030.0,170.0,1120.1053521879091,2021-09-23 13:33:56.490
29,-597.0,772.0,102.0,981.222197058342,2021-09-23 13:33:56.500
30,393.0,1089.0,-141.0,1166.297989366354,2021-09-23 13:33:56.509
31,-245.0,971.0,-7.0,1001.4564393921484,2021-09-23 13:33:56.522
32,-247.0,863.0,291.0,943.6413513618402,2021-09-23 13:33:56.530
33,256.0,1225.0,-57.0,1252.7609508601392,2021-09-23 13:33:56.538
34,40.0,867.0,-125.0,876.8774144656709,2021-09-23 13:33:56.559
35,312.0,867.0,-125.0,929.8698833707864,2021-09-23 13:33:56.561
36,312.0,1095.0,-49.0,1139.635906770228,2021-09-23 13:33:56.562
37,-63.0,914.0,-119.0,923.8647087101012,2021-09-23 13:33:56.569
38,-168.0,1057.0,2.0,1070.2695922056273,2021-09-23 13:33:56.577
39,-336.0,1292.0,-231.0,1354.8140093754566,2021-09-23 13:33:56.587
40,-258.0,1096.0,28.0,1126.305464782978,2021-09-23 13:33:56.597
41,-379.0,1009.0,-123.0,1084.8276360786538,2021-09-23 13:33:56.608
42,298.0,1653.0,-427.0,1733.07299326947,2021-09-23 13:33:56.617
43,-452.0,688.0,-427.0,927.3494486977388,2021-09-23 13:33:56.628
44,-452.0,688.0,181.0,842.8576392250354,2021-09-23 13:33:56.629
45,-41.0,899.0,-66.0,902.3513728033,2021-09-23 13:33:56.636
46,71.0,899.0,-66.0,904.2112585010208,2021-09-23 13:33:56.645
47,71.0,1561.0,-69.0,1564.1365029945437,2021-09-23 13:33:56.646
48,-247.0,677.0,81.0,725.188940897474,2021-09-23 13:33:56.655
49,-623.0,404.0,-76.0,746.4053858326587,2021-09-23 13:33:56.666
50,-393.0,685.0,61.0,792.0826977027083,2021-09-23 13:33:56.676
51,-411.0,432.0,104.0,605.2776222527973,2021-09-23 13:33:56.685
52,-228.0,816.0,-79.0,850.9294917911824,2021-09-23 13:33:56.694
53,-497.0,851.0,192.0,1004.0288840466692,2021-09-23 13:33:56.704
54,-278.0,809.0,-66.0,857.974941359012,2021-09-23 13:33:56.715
55,306.0,1248.0,-147.0,1293.34798101671,2021-09-23 13:33:56.724
56,-593.0,863.0,-147.0,1057.3679586596145,2021-09-23 13:33:56.733
57,-593.0,863.0,207.0,1067.3645113081095,2021-09-23 13:33:56.734
58,152.0,836.0,188.0,870.2551350035229,2021-09-23 13:33:56.743
59,110.0,1050.0,-93.0,1059.8344210300022,2021-09-23 13:33:56.753
60,-71.0,986.0,-95.0,993.1072449640068,2021-09-23 13:33:56.763
61,-244.0,986.0,-95.0,1020.17498499032,2021-09-23 13:33:56.773
62,-244.0,1132.0,-22.0,1158.2072353426222,2021-09-23 13:33:56.774
63,-328.0,1063.0,-368.0,1171.7410123401844,2021-09-23 13:33:56.783
64,-97.0,1137.0,-69.0,1143.21432811175,2021-09-23 13:33:56.792
65,-403.0,1097.0,-280.0,1201.7562148788747,2021-09-23 13:33:56.802
66,-98.0,1239.0,168.0,1254.172635644711,2021-09-23 13:33:56.812
67,-128.0,1140.0,-348.0,1198.7860526382512,2021-09-23 13:33:56.822
68,83.0,1561.0,-315.0,1594.626915613806,2021-09-23 13:33:56.832
69,-565.0,719.0,312.0,966.1935623879928,2021-09-23 13:33:56.841
70,103.0,719.0,312.0,790.5150219951547,2021-09-23 13:33:56.855
71,103.0,1041.0,0.0,1046.0831706895967,2021-09-23 13:33:56.856
72,210.0,1281.0,-118.0,1303.4511881923313,2021-09-23 13:33:56.860
73,-379.0,634.0,-7.0,738.6785498442472,2021-09-23 13:33:56.870
74,-596.0,546.0,131.0,818.8363694902664,2021-09-23 13:33:56.880
75,-230.0,813.0,61.0,847.1068409592735,2021-09-23 13:33:56.890
76,-477.0,664.0,74.0,820.9147336965027,2021-09-23 13:33:56.901
77,-324.0,880.0,-84.0,941.505177893356,2021-09-23 13:33:56.909
78,187.0,1399.0,-51.0,1412.3636217348562,2021-09-23 13:33:56.919
79,113.0,967.0,-193.0,992.5255664213392,2021-09-23 13:33:56.929
80,-15.0,1293.0,-76.0,1295.3184936532018,2021-09-23 13:33:56.939
81,-503.0,838.0,256.0,1010.3410315334124,2021-09-23 13:33:56.949
82,169.0,899.0,256.0,949.8936782608884,2021-09-23 13:33:56.958
83,169.0,899.0,75.0,917.816430447832,2021-09-23 13:33:56.959
84,56.0,1222.0,-120.0,1229.154180727544,2021-09-23 13:33:56.968
85,-304.0,1222.0,-120.0,1264.9505919204908,2021-09-23 13:33:56.977
86,-304.0,845.0,-45.0,899.1473739048566,2021-09-23 13:33:56.978
87,0.0,1027.0,-106.0,1032.455810192378,2021-09-23 13:33:56.988
88,-206.0,1261.0,-197.0,1292.8132115661565,2021-09-23 13:33:56.998
89,-249.0,1188.0,175.0,1226.3645461281078,2021-09-23 13:33:57.008
90,-118.0,1188.0,175.0,1206.603911811991,2021-09-23 13:33:57.016
91,-118.0,1015.0,-367.0,1085.7430635283838,2021-09-23 13:33:57.017
92,104.0,1586.0,-270.0,1612.176169033645,2021-09-23 13:33:57.026
93,-712.0,954.0,370.0,1246.5793195781807,2021-09-23 13:33:57.036
94,15.0,803.0,-113.0,811.0505532949226,2021-09-23 13:33:57.046
95,-674.0,911.0,330.0,1180.295302032504,2021-09-23 13:33:57.057
96,48.0,1039.0,330.0,1091.203464070748,2021-09-23 13:33:57.065
97,48.0,1039.0,-107.0,1045.597436875206,2021-09-23 13:33:57.066
98,76.0,1030.0,-79.0,1035.8170687915892,2021-09-23 13:33:57.075
99,-699.0,739.0,191.0,1034.9893719261083,2021-09-23 13:33:57.085
100,-366.0,551.0,113.0,671.063335311951,2021-09-23 13:33:57.095
101,-214.0,661.0,22.0,695.1266071731106,2021-09-23 13:33:57.105
102,-424.0,824.0,77.0,929.8822506102588,2021-09-23 13:33:57.115
103,56.0,947.0,-78.0,951.855556268912,2021-09-23 13:33:57.124
104,151.0,1218.0,-93.0,1230.842800685774,2021-09-23 13:33:57.134
105,-292.0,850.0,186.0,917.8017215063392,2021-09-23 13:33:57.144
106,-142.0,1024.0,199.0,1052.7777543242448,2021-09-23 13:33:57.153
107,127.0,1067.0,-152.0,1085.2290080899977,2021-09-23 13:33:57.164
108,-89.0,1024.0,-47.0,1028.934400241337,2021-09-23 13:33:57.177
109,188.0,1013.0,-51.0,1031.559014307955,2021-09-23 13:33:57.183
110,-229.0,1013.0,-51.0,1039.812963950729,2021-09-23 13:33:57.192
111,-229.0,781.0,-125.0,823.423949129487,2021-09-23 13:33:57.193
112,-186.0,1175.0,-88.0,1192.8809664002524,2021-09-23 13:33:57.202
113,-397.0,1190.0,-88.0,1257.5583485468974,2021-09-23 13:33:57.212
114,-397.0,1190.0,-117.0,1259.9198387199085,2021-09-23 13:33:57.213
115,42.0,1080.0,-96.0,1085.0714262204124,2021-09-23 13:33:57.222
116,-202.0,1117.0,-459.0,1224.407611867878,2021-09-23 13:33:57.237
117,17.0,1628.0,-176.0,1637.5741204598953,2021-09-23 13:33:57.241
118,-540.0,794.0,-176.0,976.2233351031924,2021-09-23 13:33:57.251
119,-540.0,794.0,276.0,999.1056000243418,2021-09-23 13:33:57.252
120,-25.0,1023.0,-135.0,1032.171981793732,2021-09-23 13:33:57.261
121,139.0,1266.0,-135.0,1280.7427532490667,2021-09-23 13:33:57.271
122,139.0,1266.0,172.0,1285.1696386080712,2021-09-23 13:33:57.272
123,-490.0,481.0,73.0,690.4998189717359,2021-09-23 13:33:57.280
124,-446.0,443.0,-6.0,628.650141175519,2021-09-23 13:33:57.290
125,-436.0,916.0,52.0,1015.8031305326834,2021-09-23 13:33:57.300
126,-310.0,628.0,5.0,700.3634770603047,2021-09-23 13:33:57.310
127,-429.0,798.0,92.0,910.6640434320442,2021-09-23 13:33:57.320
128,-431.0,748.0,63.0,865.5830404992926,2021-09-23 13:33:57.329
129,216.0,835.0,-229.0,892.368757857423,2021-09-23 13:33:57.339
130,-37.0,1313.0,-160.0,1323.2301387135951,2021-09-23 13:33:57.349
131,-468.0,1313.0,-160.0,1403.0655722381616,2021-09-23 13:33:57.358
132,-468.0,1017.0,253.0,1147.746487687939,2021-09-23 13:33:57.359
133,-93.0,835.0,146.0,852.7543608800837,2021-09-23 13:33:57.368
134,162.0,1088.0,-155.0,1110.861377490459,2021-09-23 13:33:57.378
135,-403.0,937.0,-75.0,1022.7428806889832,2021-09-23 13:33:57.388
136,-87.0,1167.0,-109.0,1175.3037905154565,2021-09-23 13:33:57.398
137,-194.0,1098.0,-278.0,1149.1405484099846,2021-09-23 13:33:57.408
138,-190.0,1098.0,-278.0,1148.4720283925074,2021-09-23 13:33:57.417
139,-190.0,1306.0,119.0,1325.1026375341648,2021-09-23 13:33:57.418
140,-31.0,1306.0,119.0,1311.7766578194628,2021-09-23 13:33:57.436
141,-31.0,1082.0,-478.0,1183.287369999359,2021-09-23 13:33:57.437
142,-83.0,1121.0,-79.0,1126.8411600576187,2021-09-23 13:33:57.439
143,120.0,1222.0,-489.0,1321.6675073557649,2021-09-23 13:33:57.447
144,90.0,1469.0,-489.0,1550.864919972078,2021-09-23 13:33:57.456
145,90.0,1469.0,-212.0,1486.944854391043,2021-09-23 13:33:57.457
146,-511.0,1469.0,-212.0,1569.7216313729004,2021-09-23 13:33:57.468
147,-511.0,910.0,354.0,1102.0603431754544,2021-09-23 13:33:57.469
148,-33.0,1322.0,-97.0,1325.9645545790431,2021-09-23 13:33:57.476
149,198.0,875.0,-97.0,902.3513728033,2021-09-23 13:33:57.485
150,198.0,875.0,74.0,900.169428496658,2021-09-23 13:33:57.486
151,-576.0,582.0,62.0,821.1845103263943,2021-09-23 13:33:57.495
152,-653.0,675.0,49.0,940.4440440557854,2021-09-23 13:33:57.505
153,-374.0,823.0,158.0,917.6976626318714,2021-09-23 13:33:57.516
154,-340.0,592.0,158.0,700.733900992381,2021-09-23 13:33:57.524
155,-340.0,592.0,-60.0,685.3203630419864,2021-09-23 13:33:57.525
156,6.0,1037.0,-77.0,1039.87210752092,2021-09-23 13:33:57.539
157,166.0,1263.0,-77.0,1276.1872903300675,2021-09-23 13:33:57.544
158,166.0,1263.0,-80.0,1276.371811033133,2021-09-23 13:33:57.545
159,258.0,1038.0,-180.0,1084.6234369586523,2021-09-23 13:33:57.554
160,66.0,1134.0,-25.0,1136.194085532925,2021-09-23 13:33:57.574
161,-325.0,745.0,-25.0,813.188170105788,2021-09-23 13:33:57.576
162,-325.0,745.0,271.0,856.7911063964191,2021-09-23 13:33:57.577
163,101.0,1114.0,-56.0,1119.970088886306,2021-09-23 13:33:57.584
164,-60.0,1165.0,-151.0,1176.2763280794186,2021-09-23 13:33:57.593
165,-268.0,769.0,-23.0,814.6864427496017,2021-09-23 13:33:57.603
166,-264.0,1083.0,-374.0,1175.781017026555,2021-09-23 13:33:57.612
167,-347.0,1207.0,-20.0,1256.0485659400276,2021-09-23 13:33:57.628
168,-36.0,1220.0,-20.0,1220.694884072183,2021-09-23 13:33:57.632
169,-31.0,1220.0,-20.0,1220.5576594327692,2021-09-23 13:33:57.642
170,-31.0,950.0,-576.0,1111.412164770568,2021-09-23 13:33:57.643
171,37.0,1612.0,-115.0,1616.5203370202307,2021-09-23 13:33:57.652
172,-610.0,874.0,328.0,1115.1502140967375,2021-09-23 13:33:57.662
173,42.0,995.0,-180.0,1012.0222329573596,2021-09-23 13:33:57.671
174,40.0,1182.0,51.0,1183.7757388965192,2021-09-23 13:33:57.681
175,164.0,1325.0,-230.0,1354.7771034380526,2021-09-23 13:33:57.691
176,96.0,817.0,128.0,832.5196694373052,2021-09-23 13:33:57.700
177,-670.0,629.0,140.0,929.5918459194874,2021-09-23 13:33:57.711
178,-345.0,602.0,40.0,695.0028776918841,2021-09-23 13:33:57.720
179,-276.0,807.0,40.0,853.8296082943014,2021-09-23 13:33:57.729
180,-276.0,807.0,184.0,872.514183265808,2021-09-23 13:33:57.730
181,-514.0,853.0,-13.0,995.9789154394786,2021-09-23 13:33:57.739
182,291.0,1001.0,-65.0,1044.4649347871857,2021-09-23 13:33:57.749
183,153.0,1183.0,-196.0,1208.8482121424508,2021-09-23 13:33:57.759
184,-302.0,1183.0,-196.0,1236.571469831,2021-09-23 13:33:57.768
185,-302.0,850.0,333.0,961.5575905789524,2021-09-23 13:33:57.769
186,-85.0,1212.0,74.0,1217.2284091328136,2021-09-23 13:33:57.778
187,261.0,995.0,-165.0,1041.8114032779638,2021-09-23 13:33:57.788
188,-428.0,869.0,-175.0,984.3627380188668,2021-09-23 13:33:57.799
189,-292.0,869.0,-175.0,933.3005946639056,2021-09-23 13:33:57.807
190,-292.0,1220.0,-265.0,1282.1423477913831,2021-09-23 13:33:57.808
191,-349.0,754.0,-210.0,856.9813300183382,2021-09-23 13:33:57.818
192,-413.0,1327.0,-239.0,1410.1840305435317,2021-09-23 13:33:57.830
193,-179.0,1173.0,-21.0,1186.764930388491,2021-09-23 13:33:57.837
194,-17.0,937.0,-161.0,950.8832735935572,2021-09-23 13:33:57.847
195,61.0,1241.0,-495.0,1337.4703735036526,2021-09-23 13:33:57.868
196,12.0,1386.0,-63.0,1387.482972868496,2021-09-23 13:33:57.870
197,-621.0,786.0,275.0,1038.7790910487176,2021-09-23 13:33:57.877
198,54.0,1294.0,-109.0,1299.7049665212487,2021-09-23 13:33:57.886
199,55.0,1294.0,-109.0,1299.7468984383074,2021-09-23 13:33:57.895
200,55.0,1001.0,124.0,1010.1494938869196,2021-09-23 13:33:57.896
201,-768.0,460.0,-9.0,895.2681162646194,2021-09-23 13:33:57.906
202,-506.0,648.0,64.0,824.6429530408903,2021-09-23 13:33:57.916
203,-349.0,878.0,166.0,959.2919263706956,2021-09-23 13:33:57.926
204,-363.0,878.0,166.0,964.4734314640295,2021-09-23 13:33:57.934
205,-363.0,557.0,-26.0,665.3525381329811,2021-09-23 13:33:57.935
206,135.0,958.0,-26.0,967.8145483510774,2021-09-23 13:33:57.944
207,135.0,958.0,-157.0,980.1214210494536,2021-09-23 13:33:57.945
208,-541.0,643.0,32.0,840.924491259471,2021-09-23 13:33:57.954
209,408.0,895.0,-159.0,996.3784421594036,2021-09-23 13:33:57.965
210,33.0,1316.0,-150.0,1324.9320737305743,2021-09-23 13:33:57.974
211,-505.0,849.0,-150.0,999.1626494220048,2021-09-23 13:33:57.983
212,-505.0,849.0,255.0,1020.2210544779008,2021-09-23 13:33:57.984
213,65.0,1061.0,-53.0,1064.309635397519,2021-09-23 13:33:57.993
214,208.0,1019.0,-171.0,1053.9762805680211,2021-09-23 13:33:58.003
215,-430.0,926.0,-27.0,1021.3251196362498,2021-09-23 13:33:58.013
216,-152.0,1143.0,-292.0,1189.4608022124985,2021-09-23 13:33:58.026
217,-296.0,1105.0,-45.0,1144.8432207075343,2021-09-23 13:33:58.033
218,-70.0,1299.0,4.0,1300.8908486110586,2021-09-23 13:33:58.042
219,52.0,965.0,-498.0,1087.1674204095707,2021-09-23 13:33:58.052
220,-4.0,965.0,-498.0,1085.9304765959928,2021-09-23 13:33:58.061
221,-4.0,1595.0,-152.0,1602.2312567167075,2021-09-23 13:33:58.062
222,314.0,1377.0,-500.0,1498.2406348781226,2021-09-23 13:33:58.071
223,42.0,1190.0,-21.0,1190.92611021843,2021-09-23 13:33:58.082
224,-481.0,912.0,166.0,1044.347164500388,2021-09-23 13:33:58.091
225,85.0,1537.0,-125.0,1544.4154233884094,2021-09-23 13:33:58.101
226,9.0,1537.0,-125.0,1542.1008397637297,2021-09-23 13:33:58.110
227,9.0,617.0,116.0,627.8741912198653,2021-09-23 13:33:58.111
228,-693.0,504.0,-13.0,856.9912484967393,2021-09-23 13:33:58.121
229,-377.0,789.0,201.0,897.2463429850244,2021-09-23 13:33:58.130
230,-478.0,824.0,111.0,959.0521362261804,2021-09-23 13:33:58.140
231,-487.0,619.0,111.0,795.3936132506974,2021-09-23 13:33:58.149
232,-487.0,619.0,-40.0,788.6253863527346,2021-09-23 13:33:58.150
233,176.0,1123.0,-40.0,1137.4115350215154,2021-09-23 13:33:58.159
234,176.0,1123.0,-72.0,1138.985952503366,2021-09-23 13:33:58.160
235,2.0,1042.0,-103.0,1047.080226152705,2021-09-23 13:33:58.170
236,-96.0,1042.0,-103.0,1051.4699234880663,2021-09-23 13:33:58.180
237,-96.0,823.0,311.0,885.0231635386726,2021-09-23 13:33:58.181
238,-82.0,823.0,311.0,883.614169193772,2021-09-23 13:33:58.189
239,-82.0,1191.0,-114.0,1199.2501824056562,2021-09-23 13:33:58.190
240,-137.0,694.0,161.0,725.4832871955081,2021-09-23 13:33:58.198
241,219.0,1228.0,-27.0,1247.667423635001,2021-09-23 13:33:58.208
242,51.0,1037.0,-48.0,1039.3623044925191,2021-09-23 13:33:58.219
243,-416.0,768.0,-187.0,893.223936087698,2021-09-23 13:33:58.228
244,-277.0,768.0,-187.0,837.5691016268448,2021-09-23 13:33:58.237
245,-277.0,1188.0,-310.0,1258.6393446893355,2021-09-23 13:33:58.238
246,-101.0,1319.0,74.0,1324.9294320830827,2021-09-23 13:33:58.247
247,-218.0,1001.0,-171.0,1038.6366063258122,2021-09-23 13:33:58.257
248,387.0,1168.0,-590.0,1364.5852849858818,2021-09-23 13:33:58.267
249,-131.0,1389.0,40.0,1395.7370812585011,2021-09-23 13:33:58.277
250,-383.0,860.0,181.0,958.670955020543,2021-09-23 13:33:58.286
251,181.0,1348.0,-171.0,1370.8048730581606,2021-09-23 13:33:58.297
252,-78.0,783.0,130.0,797.5418484317923,2021-09-23 13:33:58.306
253,184.0,1383.0,-100.0,1398.7655271702974,2021-09-23 13:33:58.316
254,-194.0,673.0,96.0,706.951907840979,2021-09-23 13:33:58.325
255,-732.0,583.0,10.0,935.8488125760484,2021-09-23 13:33:58.335
256,-351.0,627.0,30.0,719.18704104009,2021-09-23 13:33:58.346
257,-464.0,935.0,132.0,1052.114537491047,2021-09-23 13:33:58.355
258,-575.0,825.0,20.0,1005.808132796708,2021-09-23 13:33:58.364
259,452.0,1179.0,-39.0,1263.2759001896616,2021-09-23 13:33:58.374
260,-189.0,791.0,-129.0,823.4336646020735,2021-09-23 13:33:58.384
261,-176.0,933.0,284.0,991.020181429218,2021-09-23 13:33:58.394
262,110.0,1384.0,-29.0,1388.6673467753176,2021-09-23 13:33:58.403
263,156.0,822.0,-123.0,845.6648272217545,2021-09-23 13:33:58.413
264,-330.0,960.0,-151.0,1026.3045357007832,2021-09-23 13:33:58.423
265,-400.0,1209.0,-284.0,1304.7363718391543,2021-09-23 13:33:58.433
266,-296.0,1162.0,39.0,1199.7420556102882,2021-09-23 13:33:58.443
267,-458.0,1162.0,39.0,1249.611539639419,2021-09-23 13:33:58.460
268,-458.0,1300.0,-166.0,1388.2795107614315,2021-09-23 13:33:58.461
269,-110.0,1178.0,97.0,1187.0943517682156,2021-09-23 13:33:58.464
270,-480.0,912.0,-161.0,1043.103542319745,2021-09-23 13:33:58.472
271,230.0,1407.0,-386.0,1477.005416374632,2021-09-23 13:33:58.482
272,-307.0,1017.0,173.0,1076.3210487582226,2021-09-23 13:33:58.491
273,-188.0,696.0,-23.0,721.3106127044022,2021-09-23 13:33:58.501
274,107.0,1560.0,-143.0,1570.1904343104377,2021-09-23 13:33:58.511
275,-61.0,823.0,199.0,848.9116561810187,2021-09-23 13:33:58.522
276,-644.0,395.0,-101.0,762.2086328558605,2021-09-23 13:33:58.531
277,-368.0,789.0,-101.0,876.4393875220351,2021-09-23 13:33:58.540
278,-368.0,789.0,92.0,875.4478853706827,2021-09-23 13:33:58.541
279,-481.0,789.0,92.0,928.6258665361416,2021-09-23 13:33:58.555
280,-481.0,1013.0,154.0,1131.9213753613808,2021-09-23 13:33:58.556
281,-565.0,1013.0,154.0,1170.0897401481648,2021-09-23 13:33:58.559
282,-565.0,699.0,32.0,899.3608841838742,2021-09-23 13:33:58.560
283,371.0,977.0,-170.0,1058.8059312263035,2021-09-23 13:33:58.570
284,-518.0,817.0,-39.0,968.1601107254936,2021-09-23 13:33:58.589
285,457.0,1185.0,-142.0,1277.9820030031722,2021-09-23 13:33:58.591
286,-532.0,878.0,50.0,1027.817104352715,2021-09-23 13:33:58.600
287,-126.0,878.0,243.0,919.6787482594126,2021-09-23 13:33:58.609
288,361.0,1191.0,-68.0,1246.3651150445442,2021-09-23 13:33:58.618
289,13.0,1000.0,-111.0,1006.225620822686,2021-09-23 13:33:58.628
290,-356.0,1079.0,-33.0,1136.6908110827676,2021-09-23 13:33:58.638
291,-221.0,1078.0,-305.0,1141.9063008846215,2021-09-23 13:33:58.649
292,-104.0,1255.0,113.0,1264.3614989392868,2021-09-23 13:33:58.657
293,-422.0,1052.0,-198.0,1150.6485127961537,2021-09-23 13:33:58.667
294,386.0,1304.0,-485.0,1443.8272057278878,2021-09-23 13:33:58.677
295,-318.0,1304.0,-485.0,1427.152759868403,2021-09-23 13:33:58.686
296,-318.0,1062.0,-1.0,1108.5887425010233,2021-09-23 13:33:58.687
297,369.0,1520.0,-1.0,1564.148969887459,2021-09-23 13:33:58.697
298,369.0,1520.0,-333.0,1599.202926460554,2021-09-23 13:33:58.698
299,-529.0,639.0,171.0,846.9964580799615,2021-09-23 13:33:58.706
300,-113.0,989.0,-62.0,997.3635244984648,2021-09-23 13:33:58.716
301,185.0,1357.0,23.0,1369.7455968171607,2021-09-23 13:33:58.726
302,-288.0,617.0,5.0,680.9243717183282,2021-09-23 13:33:58.735
303,-696.0,493.0,0.0,852.9155878514591,2021-09-23 13:33:58.746
304,-353.0,872.0,0.0,940.740665645958,2021-09-23 13:33:58.755
305,-353.0,872.0,137.0,950.6639784908232,2021-09-23 13:33:58.756
306,-306.0,817.0,168.0,888.4531501435515,2021-09-23 13:33:58.765
307,-329.0,797.0,168.0,878.4497709032657,2021-09-23 13:33:58.774
308,-329.0,797.0,-57.0,864.1174688663573,2021-09-23 13:33:58.775
309,-53.0,1076.0,35.0,1077.8729053093411,2021-09-23 13:33:58.784
310,-87.0,888.0,5.0,892.2656555084926,2021-09-23 13:33:58.794
311,-266.0,976.0,-154.0,1023.25363424715,2021-09-23 13:33:58.805
312,-320.0,1096.0,-154.0,1152.098954083372,2021-09-23 13:33:58.813
313,-320.0,1096.0,-122.0,1148.2595525402785,2021-09-23 13:33:58.814
314,-33.0,1196.0,141.0,1204.7348255944128,2021-09-23 13:33:58.823
315,-302.0,1185.0,-160.0,1233.3000445957991,2021-09-23 13:33:58.833
316,-142.0,1197.0,-24.0,1205.6321993045806,2021-09-23 13:33:58.843
317,-79.0,1197.0,-24.0,1199.8441565470075,2021-09-23 13:33:58.853
318,-79.0,930.0,-114.0,940.2855949125244,2021-09-23 13:33:58.854
319,-286.0,1001.0,-160.0,1053.2791652738604,2021-09-23 13:33:58.862
320,-264.0,1236.0,-9.0,1263.9117848963986,2021-09-23 13:33:58.883
321,-265.0,948.0,-50.0,985.6109780232767,2021-09-23 13:33:58.885
322,-133.0,923.0,-98.0,937.6683848781508,2021-09-23 13:33:58.893
