,Acceleration_X,Acceleration_Y,Acceleration_Z,magnitude,time_stamp
0,-244.0,979.0,-12.0,1009.019821410858,2021-08-31 13:38:35.647
1,-244.0,965.0,-14.0,995.4682315373002,2021-08-31 13:38:35.648
2,-165.0,1010.0,-22.0,1023.6254197703375,2021-08-31 13:38:35.656
3,-150.0,1046.0,-50.0,1057.8827912391807,2021-08-31 13:38:35.667
4,-255.0,1063.0,-33.0,1093.6557959431295,2021-08-31 13:38:35.676
5,-147.0,914.0,-24.0,926.0566937288452,2021-08-31 13:38:35.686
6,-158.0,1031.0,-25.0,1043.335995736752,2021-08-31 13:38:35.696
7,-186.0,1050.0,20.0,1066.5345751545049,2021-08-31 13:38:35.705
8,-172.0,908.0,-52.0,925.6089887203992,2021-08-31 13:38:35.716
9,-173.0,989.0,-21.0,1004.2365259240474,2021-08-31 13:38:35.725
10,-174.0,1113.0,-21.0,1126.7146932564606,2021-08-31 13:38:35.734
11,-174.0,1113.0,-56.0,1127.910014141199,2021-08-31 13:38:35.735
12,-142.0,941.0,-64.0,953.8034388698752,2021-08-31 13:38:35.744
13,-207.0,915.0,-64.0,940.303142608808,2021-08-31 13:38:35.754
14,-207.0,915.0,-15.0,938.2425059652754,2021-08-31 13:38:35.755
15,-222.0,1062.0,-11.0,1085.0110598514652,2021-08-31 13:38:35.766
16,-139.0,1062.0,-11.0,1071.1143729779749,2021-08-31 13:38:35.773
17,-139.0,971.0,-83.0,984.4038805287188,2021-08-31 13:38:35.774
18,-154.0,1014.0,8.0,1025.6588126662784,2021-08-31 13:38:35.783
19,-290.0,910.0,-16.0,955.2256277969096,2021-08-31 13:38:35.793
20,-208.0,958.0,-44.0,981.3072913211232,2021-08-31 13:38:35.803
21,-191.0,958.0,-44.0,977.8450797544568,2021-08-31 13:38:35.812
22,-191.0,1145.0,-9.0,1160.856149572375,2021-08-31 13:38:35.813
23,-157.0,912.0,-9.0,925.4588051339724,2021-08-31 13:38:35.823
24,-157.0,912.0,-34.0,926.0394160077636,2021-08-31 13:38:35.824
25,-158.0,920.0,-100.0,938.8098849074822,2021-08-31 13:38:35.832
26,-219.0,1064.0,19.0,1086.4704321793577,2021-08-31 13:38:35.842
27,-197.0,973.0,19.0,992.924468426476,2021-08-31 13:38:35.852
28,-197.0,973.0,-36.0,993.3951882307464,2021-08-31 13:38:35.853
29,-125.0,843.0,-36.0,852.9771392012801,2021-08-31 13:38:35.861
30,-125.0,843.0,-48.0,853.5678063282378,2021-08-31 13:38:35.862
31,-231.0,1113.0,0.0,1136.7189626288462,2021-08-31 13:38:35.872
32,-157.0,974.0,-83.0,990.057574083447,2021-08-31 13:38:35.881
33,-128.0,958.0,9.0,966.5552234611326,2021-08-31 13:38:35.891
34,-220.0,958.0,9.0,982.9776192772651,2021-08-31 13:38:35.900
35,-220.0,1039.0,-50.0,1063.212584575634,2021-08-31 13:38:35.901
36,-200.0,934.0,-101.0,960.4983081713368,2021-08-31 13:38:35.910
37,-171.0,1118.0,41.0,1131.7446708511598,2021-08-31 13:38:35.920
38,-223.0,918.0,-42.0,945.6304775122258,2021-08-31 13:38:35.931
39,-236.0,918.0,-42.0,948.7802696093548,2021-08-31 13:38:35.939
40,-236.0,883.0,-38.0,914.783580963279,2021-08-31 13:38:35.940
41,-156.0,1129.0,-23.0,1139.9587711842917,2021-08-31 13:38:35.949
42,-93.0,1129.0,-23.0,1133.0573683622556,2021-08-31 13:38:35.959
43,-93.0,893.0,-84.0,901.7505198224172,2021-08-31 13:38:35.960
44,-147.0,945.0,-38.0,957.1196372449998,2021-08-31 13:38:35.969
45,-178.0,1045.0,-49.0,1061.183301790977,2021-08-31 13:38:35.980
46,-108.0,1054.0,-49.0,1060.6512150561089,2021-08-31 13:38:35.988
47,-108.0,1054.0,-17.0,1059.6551325785197,2021-08-31 13:38:35.989
48,-170.0,904.0,-27.0,920.2418160461956,2021-08-31 13:38:35.999
49,-227.0,931.0,-31.0,958.7757819219256,2021-08-31 13:38:36.008
50,-160.0,1010.0,-50.0,1023.816389788716,2021-08-31 13:38:36.018
51,-142.0,1010.0,-50.0,1021.1581660056388,2021-08-31 13:38:36.027
52,-142.0,994.0,-37.0,1004.7731087165898,2021-08-31 13:38:36.028
53,-194.0,981.0,-13.0,1000.0829965557858,2021-08-31 13:38:36.037
54,-190.0,1040.0,-7.0,1057.236491992213,2021-08-31 13:38:36.047
55,-167.0,1054.0,-39.0,1067.860477777879,2021-08-31 13:38:36.057
56,-161.0,1054.0,-39.0,1066.9386111674842,2021-08-31 13:38:36.066
57,-161.0,945.0,4.0,958.6250570478531,2021-08-31 13:38:36.067
58,-210.0,930.0,-2.0,953.4170126445196,2021-08-31 13:38:36.076
59,-156.0,975.0,-93.0,991.7711429558736,2021-08-31 13:38:36.087
60,-282.0,978.0,50.0,1019.0721269861128,2021-08-31 13:38:36.096
61,-172.0,910.0,-20.0,926.3282355623196,2021-08-31 13:38:36.107
62,-171.0,1046.0,-47.0,1060.9269531876355,2021-08-31 13:38:36.115
63,-145.0,1080.0,-36.0,1090.284825171845,2021-08-31 13:38:36.125
64,-164.0,950.0,-40.0,964.8813398548032,2021-08-31 13:38:36.136
65,-205.0,950.0,-40.0,972.6895702124084,2021-08-31 13:38:36.144
66,-205.0,982.0,5.0,1003.1819376364388,2021-08-31 13:38:36.145
67,-167.0,995.0,-59.0,1010.6408857749622,2021-08-31 13:38:36.155
68,-155.0,995.0,-59.0,1008.7274161040732,2021-08-31 13:38:36.164
69,-155.0,1022.0,-28.0,1034.0662454601252,2021-08-31 13:38:36.165
70,-151.0,934.0,-93.0,950.68711992958,2021-08-31 13:38:36.174
71,-172.0,1008.0,-25.0,1022.8748701576357,2021-08-31 13:38:36.184
72,-176.0,1034.0,-25.0,1049.1696716928109,2021-08-31 13:38:36.193
73,-176.0,1034.0,-54.0,1050.260919962273,2021-08-31 13:38:36.194
74,-237.0,871.0,-39.0,903.51037625475,2021-08-31 13:38:36.203
75,-234.0,991.0,50.0,1019.4787884012104,2021-08-31 13:38:36.213
76,-132.0,1069.0,-41.0,1077.898882084957,2021-08-31 13:38:36.223
77,-204.0,1069.0,-41.0,1089.0628999281903,2021-08-31 13:38:36.232
78,-204.0,1001.0,-45.0,1022.5663792634688,2021-08-31 13:38:36.233
79,-208.0,943.0,4.0,965.675411305476,2021-08-31 13:38:36.243
80,-237.0,1029.0,-7.0,1055.963541037284,2021-08-31 13:38:36.252
81,-115.0,960.0,-99.0,971.9187208815356,2021-08-31 13:38:36.262
82,-228.0,960.0,-99.0,991.6577030407216,2021-08-31 13:38:36.295
83,-228.0,1034.0,17.0,1058.9754482517524,2021-08-31 13:38:36.296
84,-98.0,1034.0,17.0,1038.7728336840544,2021-08-31 13:38:36.299
85,-98.0,965.0,-18.0,970.1304036056184,2021-08-31 13:38:36.300
86,-98.0,961.0,-33.0,966.547463914732,2021-08-31 13:38:36.301
87,-170.0,1127.0,-33.0,1140.2271703480849,2021-08-31 13:38:36.304
88,-170.0,1127.0,1.0,1139.7499725817063,2021-08-31 13:38:36.307
89,-117.0,880.0,-83.0,891.615387933609,2021-08-31 13:38:36.312
90,-150.0,916.0,-83.0,931.9039650092708,2021-08-31 13:38:36.320
91,-150.0,916.0,-55.0,929.8284788067098,2021-08-31 13:38:36.321
92,-220.0,1120.0,-42.0,1142.1751179219411,2021-08-31 13:38:36.330
93,-120.0,934.0,-64.0,943.8495642844786,2021-08-31 13:38:36.340
94,-289.0,956.0,49.0,999.9289974793212,2021-08-31 13:38:36.350
95,-265.0,1017.0,-46.0,1051.964828309388,2021-08-31 13:38:36.360
96,-146.0,986.0,-100.0,1001.7544609334166,2021-08-31 13:38:36.370
97,-193.0,954.0,-61.0,975.2363816019172,2021-08-31 13:38:36.391
98,-200.0,1001.0,-16.0,1020.9098882859348,2021-08-31 13:38:36.397
99,-172.0,946.0,-97.0,966.3896729580672,2021-08-31 13:38:36.400
100,-181.0,1066.0,-17.0,1081.390771183109,2021-08-31 13:38:36.408
101,-200.0,970.0,-20.0,990.6058752097124,2021-08-31 13:38:36.419
102,-195.0,954.0,-24.0,974.0210470005256,2021-08-31 13:38:36.428
103,-186.0,1125.0,-24.0,1140.5248791674824,2021-08-31 13:38:36.447
104,-186.0,1125.0,-12.0,1140.3354769540408,2021-08-31 13:38:36.448
105,-171.0,963.0,-56.0,979.6662697061688,2021-08-31 13:38:36.451
106,-226.0,930.0,-2.0,957.06844060391,2021-08-31 13:38:36.457
107,-231.0,1023.0,-48.0,1049.8542756020952,2021-08-31 13:38:36.468
108,-107.0,990.0,-82.0,999.1361268616004,2021-08-31 13:38:36.477
109,-199.0,1005.0,34.0,1025.0765825049366,2021-08-31 13:38:36.487
110,-190.0,1030.0,-29.0,1047.7790797682496,2021-08-31 13:38:36.496
111,-193.0,1045.0,-73.0,1065.177450005397,2021-08-31 13:38:36.506
112,-167.0,956.0,-19.0,970.662660248142,2021-08-31 13:38:36.517
113,-211.0,956.0,-19.0,979.1925244812688,2021-08-31 13:38:36.525
114,-211.0,961.0,19.0,984.0746922871252,2021-08-31 13:38:36.526
115,-223.0,934.0,-77.0,963.3348327554652,2021-08-31 13:38:36.536
116,-145.0,1043.0,-40.0,1053.7903017204137,2021-08-31 13:38:36.545
117,-177.0,982.0,-3.0,997.8286426035284,2021-08-31 13:38:36.555
118,-208.0,982.0,-3.0,1003.7913129729704,2021-08-31 13:38:36.564
119,-208.0,856.0,-50.0,882.3264701911645,2021-08-31 13:38:36.565
120,-254.0,1063.0,-47.0,1093.9350986233142,2021-08-31 13:38:36.576
121,-192.0,1064.0,-59.0,1082.793147373957,2021-08-31 13:38:36.584
122,-117.0,968.0,-36.0,975.7094854514842,2021-08-31 13:38:36.594
123,-231.0,976.0,-36.0,1003.609984007732,2021-08-31 13:38:36.603
124,-231.0,976.0,-9.0,1003.0044865303444,2021-08-31 13:38:36.604
125,-184.0,1055.0,-77.0,1073.689899365734,2021-08-31 13:38:36.613
126,-181.0,958.0,-6.0,974.9671789347576,2021-08-31 13:38:36.624
127,-250.0,973.0,-29.0,1005.0223878103412,2021-08-31 13:38:36.633
128,-180.0,965.0,-99.0,986.6235350933,2021-08-31 13:38:36.643
129,-157.0,1044.0,-38.0,1056.4227373547012,2021-08-31 13:38:36.652
130,-177.0,979.0,-25.0,995.1859122797108,2021-08-31 13:38:36.662
131,-174.0,979.0,-25.0,994.6567247045584,2021-08-31 13:38:36.672
132,-174.0,961.0,-19.0,976.8101146077472,2021-08-31 13:38:36.673
133,-191.0,1079.0,-36.0,1096.3658148629042,2021-08-31 13:38:36.682
134,-205.0,985.0,-6.0,1006.1242468005628,2021-08-31 13:38:36.692
135,-191.0,977.0,34.0,996.0752983585128,2021-08-31 13:38:36.701
136,-195.0,901.0,-67.0,924.2916206479424,2021-08-31 13:38:36.711
137,-157.0,991.0,-33.0,1003.9018876364364,2021-08-31 13:38:36.721
138,-172.0,1063.0,0.0,1076.8254268914716,2021-08-31 13:38:36.732
139,-153.0,918.0,-50.0,932.0048283136734,2021-08-31 13:38:36.744
140,-165.0,1069.0,-4.0,1081.6663071391288,2021-08-31 13:38:36.750
141,-235.0,1037.0,-42.0,1064.12311317817,2021-08-31 13:38:36.761
142,-256.0,951.0,-46.0,985.9274821202622,2021-08-31 13:38:36.770
143,-185.0,895.0,-44.0,914.9786882763992,2021-08-31 13:38:36.780
144,-166.0,1103.0,20.0,1115.6007350302348,2021-08-31 13:38:36.789
145,-170.0,1103.0,20.0,1116.202938537612,2021-08-31 13:38:36.799
146,-170.0,914.0,-50.0,931.0187968027284,2021-08-31 13:38:36.800
147,-177.0,928.0,0.0,944.7290616891172,2021-08-31 13:38:36.809
148,-164.0,1105.0,0.0,1117.1038447700375,2021-08-31 13:38:36.818
149,-164.0,1105.0,-32.0,1117.5620788126269,2021-08-31 13:38:36.819
150,-98.0,1105.0,-32.0,1109.7986303830078,2021-08-31 13:38:36.828
151,-98.0,958.0,-110.0,969.2615746020266,2021-08-31 13:38:36.829
152,-258.0,978.0,-110.0,1017.4222329003824,2021-08-31 13:38:36.838
153,-258.0,978.0,61.0,1013.2961067723492,2021-08-31 13:38:36.839
154,-237.0,1004.0,-17.0,1031.733492719898,2021-08-31 13:38:36.848
155,-129.0,962.0,-17.0,970.7594964768564,2021-08-31 13:38:36.857
156,-129.0,962.0,-99.0,975.64645235864,2021-08-31 13:38:36.858
157,-149.0,1128.0,-6.0,1137.814132448705,2021-08-31 13:38:36.867
158,-184.0,897.0,-80.0,919.165382289825,2021-08-31 13:38:36.877
159,-200.0,982.0,-14.0,1002.2574519553348,2021-08-31 13:38:36.888
160,-201.0,982.0,-14.0,1002.457480395054,2021-08-31 13:38:36.896
161,-201.0,1026.0,-44.0,1046.4286884446549,2021-08-31 13:38:36.897
162,-209.0,1017.0,-10.0,1038.3014976392935,2021-08-31 13:38:36.906
163,-138.0,927.0,-11.0,937.2801075452312,2021-08-31 13:38:36.916
164,-206.0,1065.0,-23.0,1084.9838708478574,2021-08-31 13:38:36.926
165,-202.0,1065.0,-23.0,1084.231525090467,2021-08-31 13:38:36.936
166,-202.0,947.0,-84.0,971.940841821147,2021-08-31 13:38:36.937
167,-187.0,925.0,-84.0,947.4439297393805,2021-08-31 13:38:36.945
168,-187.0,925.0,-5.0,943.7261255258328,2021-08-31 13:38:36.946
169,-196.0,1051.0,-44.0,1070.0247660685245,2021-08-31 13:38:36.956
170,-58.0,963.0,-116.0,971.693881837279,2021-08-31 13:38:36.965
171,-223.0,1025.0,58.0,1050.579839897949,2021-08-31 13:38:36.977
172,-176.0,1025.0,58.0,1041.6165321268668,2021-08-31 13:38:36.984
173,-176.0,968.0,-21.0,984.093999575244,2021-08-31 13:38:36.985
174,-114.0,993.0,-25.0,999.8349863852536,2021-08-31 13:38:36.995
175,-149.0,1083.0,-24.0,1093.4651343321375,2021-08-31 13:38:37.004
176,-136.0,897.0,-58.0,909.1034044595808,2021-08-31 13:38:37.014
177,-196.0,943.0,-58.0,964.8984402516152,2021-08-31 13:38:37.023
178,-196.0,943.0,-30.0,963.6207760317334,2021-08-31 13:38:37.024
179,-176.0,1088.0,-63.0,1103.9424803856405,2021-08-31 13:38:37.033
180,-209.0,902.0,-22.0,926.158193830838,2021-08-31 13:38:37.044
181,-220.0,962.0,-28.0,987.2324954133144,2021-08-31 13:38:37.053
182,-180.0,1076.0,-44.0,1091.838815943086,2021-08-31 13:38:37.063
183,-121.0,1012.0,-50.0,1020.4337313123278,2021-08-31 13:38:37.072
184,-173.0,974.0,-7.0,989.2694274059014,2021-08-31 13:38:37.082
185,-208.0,974.0,-7.0,995.986445690904,2021-08-31 13:38:37.092
186,-208.0,927.0,-18.0,950.2194483381194,2021-08-31 13:38:37.093
187,-200.0,927.0,-18.0,948.500395361014,2021-08-31 13:38:37.101
188,-200.0,976.0,-70.0,998.7372026714536,2021-08-31 13:38:37.102
189,-166.0,1035.0,-59.0,1049.8866605496044,2021-08-31 13:38:37.112
190,-200.0,896.0,-19.0,918.2466988778124,2021-08-31 13:38:37.121
191,-244.0,1010.0,22.0,1039.2882179645835,2021-08-31 13:38:37.131
192,-174.0,1061.0,-64.0,1077.076134727717,2021-08-31 13:38:37.141
193,-170.0,1002.0,-20.0,1016.5156171943448,2021-08-31 13:38:37.152
194,-237.0,934.0,34.0,964.1996681185904,2021-08-31 13:38:37.160
195,-288.0,1059.0,-25.0,1097.747694144697,2021-08-31 13:38:37.170
196,-188.0,954.0,-25.0,972.6690084504596,2021-08-31 13:38:37.180
197,-216.0,911.0,-41.0,937.1542028929924,2021-08-31 13:38:37.190
198,-263.0,1055.0,-4.0,1087.2948082282007,2021-08-31 13:38:37.200
199,-153.0,1011.0,-36.0,1023.1451509927612,2021-08-31 13:38:37.209
200,-183.0,1020.0,-36.0,1036.9112787505014,2021-08-31 13:38:37.219
201,-183.0,1020.0,-19.0,1036.4603224436526,2021-08-31 13:38:37.220
202,-208.0,897.0,-51.0,922.211472494243,2021-08-31 13:38:37.229
203,-160.0,975.0,-54.0,989.515538028585,2021-08-31 13:38:37.238
204,-140.0,975.0,-54.0,986.479092530602,2021-08-31 13:38:37.248
205,-140.0,1055.0,-57.0,1065.7738972221075,2021-08-31 13:38:37.249
206,-159.0,1055.0,-57.0,1068.4357725198086,2021-08-31 13:38:37.258
207,-159.0,905.0,-12.0,918.9396062854186,2021-08-31 13:38:37.259
208,-217.0,956.0,-4.0,980.3269862652973,2021-08-31 13:38:37.268
209,-214.0,956.0,-4.0,979.6672904614096,2021-08-31 13:38:37.277
210,-214.0,1016.0,-65.0,1040.3254298535628,2021-08-31 13:38:37.278
211,-206.0,1046.0,2.0,1066.0938045031496,2021-08-31 13:38:37.287
212,-173.0,874.0,-32.0,891.5318278109874,2021-08-31 13:38:37.297
213,-127.0,1056.0,-24.0,1063.8801624243213,2021-08-31 13:38:37.329
214,-154.0,1005.0,-104.0,1022.0357136617096,2021-08-31 13:38:37.331
215,-154.0,1011.0,16.0,1022.7868790710996,2021-08-31 13:38:37.332
216,-241.0,937.0,16.0,967.6290611592854,2021-08-31 13:38:37.337
217,-241.0,937.0,-17.0,967.6461129979286,2021-08-31 13:38:37.338
218,-220.0,941.0,-66.0,968.6263469470568,2021-08-31 13:38:37.346
219,-193.0,1111.0,4.0,1127.6462211172438,2021-08-31 13:38:37.356
220,-160.0,945.0,-31.0,958.9504679596334,2021-08-31 13:38:37.365
221,-136.0,959.0,-21.0,968.8229972497556,2021-08-31 13:38:37.375
222,-228.0,1081.0,-50.0,1105.913649431998,2021-08-31 13:38:37.387
223,-137.0,947.0,-22.0,957.111278796776,2021-08-31 13:38:37.397
224,-162.0,970.0,-22.0,983.680842550062,2021-08-31 13:38:37.404
225,-162.0,970.0,45.0,984.4638134538008,2021-08-31 13:38:37.405
226,-227.0,945.0,-88.0,975.8575715748688,2021-08-31 13:38:37.423
227,-197.0,1073.0,-22.0,1091.1562674521006,2021-08-31 13:38:37.427
228,-130.0,925.0,-16.0,934.2274883560214,2021-08-31 13:38:37.434
229,-188.0,1031.0,-22.0,1048.23136759019,2021-08-31 13:38:37.444
230,-184.0,1033.0,-85.0,1052.6965374693696,2021-08-31 13:38:37.454
231,-172.0,1033.0,-85.0,1050.6655033834509,2021-08-31 13:38:37.471
232,-172.0,1004.0,-2.0,1018.6284896860092,2021-08-31 13:38:37.472
233,-270.0,876.0,-18.0,916.8424073961676,2021-08-31 13:38:37.475
234,-209.0,876.0,-18.0,900.7668954840648,2021-08-31 13:38:37.482
235,-209.0,946.0,1.0,968.8126753918943,2021-08-31 13:38:37.483
236,-174.0,946.0,1.0,961.8695337726422,2021-08-31 13:38:37.493
237,-174.0,1055.0,27.0,1069.5933806825844,2021-08-31 13:38:37.494
238,-157.0,951.0,-28.0,964.2790052676664,2021-08-31 13:38:37.502
239,-215.0,1013.0,-5.0,1035.5766509534676,2021-08-31 13:38:37.512
240,-123.0,1025.0,-89.0,1036.182898913121,2021-08-31 13:38:37.522
241,-184.0,986.0,-47.0,1004.122004539289,2021-08-31 13:38:37.531
242,-210.0,1002.0,0.0,1023.76950530869,2021-08-31 13:38:37.542
243,-139.0,962.0,-18.0,972.1568803439084,2021-08-31 13:38:37.552
244,-125.0,1029.0,1.0,1036.5650003738308,2021-08-31 13:38:37.561
245,-153.0,988.0,-20.0,999.9764997238684,2021-08-31 13:38:37.570
246,-202.0,886.0,-49.0,910.0554928134876,2021-08-31 13:38:37.580
247,-160.0,1004.0,-74.0,1019.358621879464,2021-08-31 13:38:37.590
248,-175.0,1004.0,-74.0,1021.8204343229784,2021-08-31 13:38:37.601
249,-175.0,1077.0,-48.0,1092.180388031208,2021-08-31 13:38:37.602
250,-206.0,938.0,-48.0,961.5529106606666,2021-08-31 13:38:37.609
251,-206.0,938.0,-5.0,960.3671173046274,2021-08-31 13:38:37.610
252,-201.0,1007.0,8.0,1026.8953208579733,2021-08-31 13:38:37.619
253,-134.0,1019.0,-77.0,1030.6531909425207,2021-08-31 13:38:37.629
254,-144.0,997.0,-8.0,1007.3772878122676,2021-08-31 13:38:37.639
255,-196.0,976.0,-8.0,995.5179556391738,2021-08-31 13:38:37.649
256,-196.0,976.0,-40.0,996.2891146650152,2021-08-31 13:38:37.650
257,-196.0,979.0,-40.0,999.2282021640502,2021-08-31 13:38:37.658
258,-93.0,1043.0,-11.0,1047.1957792122732,2021-08-31 13:38:37.668
259,-162.0,994.0,-74.0,1009.8296886109064,2021-08-31 13:38:37.678
260,-162.0,909.0,-44.0,924.3705966764628,2021-08-31 13:38:37.688
261,-104.0,939.0,-120.0,952.3323999528736,2021-08-31 13:38:37.698
262,-183.0,1043.0,14.0,1059.0250233115362,2021-08-31 13:38:37.708
263,-230.0,917.0,-34.0,946.0153275713876,2021-08-31 13:38:37.717
264,-172.0,917.0,-34.0,933.6107325861244,2021-08-31 13:38:37.726
265,-172.0,944.0,-38.0,960.2937050715266,2021-08-31 13:38:37.727
266,-110.0,1093.0,-38.0,1099.178329480708,2021-08-31 13:38:37.736
267,-110.0,1093.0,-31.0,1098.9585979462556,2021-08-31 13:38:37.737
268,-147.0,1093.0,-31.0,1103.276483933198,2021-08-31 13:38:37.746
269,-147.0,896.0,-66.0,910.3740989285668,2021-08-31 13:38:37.747
270,-207.0,986.0,8.0,1007.526178319948,2021-08-31 13:38:37.757
271,-153.0,1091.0,-15.0,1101.7781083321631,2021-08-31 13:38:37.766
272,-98.0,1012.0,-15.0,1016.8446292330012,2021-08-31 13:38:37.775
273,-98.0,1012.0,-71.0,1019.2099881771176,2021-08-31 13:38:37.776
274,-220.0,1012.0,20.0,1035.8301018989553,2021-08-31 13:38:37.785
275,-149.0,928.0,-42.0,940.823575384886,2021-08-31 13:38:37.795
276,-190.0,1004.0,-45.0,1022.8103441009972,2021-08-31 13:38:37.806
277,-201.0,1004.0,-45.0,1024.9107278197453,2021-08-31 13:38:37.814
278,-201.0,1004.0,-43.0,1024.8248630863714,2021-08-31 13:38:37.815
279,-207.0,995.0,-10.0,1016.3532850342935,2021-08-31 13:38:37.824
280,-114.0,976.0,-43.0,983.5756198686504,2021-08-31 13:38:37.834
281,-174.0,1089.0,-8.0,1102.8422371309507,2021-08-31 13:38:37.844
282,-150.0,1089.0,-8.0,1099.311147946749,2021-08-31 13:38:37.854
283,-150.0,939.0,-25.0,951.2339354753908,2021-08-31 13:38:37.855
284,-211.0,896.0,-29.0,920.9657974105228,2021-08-31 13:38:37.864
285,-251.0,1054.0,-67.0,1085.54410320355,2021-08-31 13:38:37.873
286,-189.0,982.0,-75.0,1002.8309927400528,2021-08-31 13:38:37.883
287,-187.0,912.0,-27.0,931.3656639580396,2021-08-31 13:38:37.893
288,-251.0,1030.0,-1.0,1060.1424432593951,2021-08-31 13:38:37.903
289,-174.0,1048.0,-43.0,1063.2163467516853,2021-08-31 13:38:37.913
290,-175.0,974.0,-36.0,990.2509782878278,2021-08-31 13:38:37.922
291,-219.0,873.0,-19.0,900.250520688547,2021-08-31 13:38:37.932
292,-178.0,995.0,-19.0,1010.9747771334356,2021-08-31 13:38:37.941
293,-178.0,995.0,-27.0,1011.1567633161536,2021-08-31 13:38:37.942
294,-129.0,995.0,-27.0,1003.6906894058548,2021-08-31 13:38:37.951
295,-129.0,1037.0,-21.0,1045.2038078767223,2021-08-31 13:38:37.952
296,-233.0,956.0,-1.0,983.9847559794816,2021-08-31 13:38:37.962
297,-219.0,985.0,-20.0,1009.2502167450843,2021-08-31 13:38:37.971
298,-159.0,985.0,-20.0,997.950900595816,2021-08-31 13:38:37.980
299,-159.0,1053.0,-65.0,1066.9184598646702,2021-08-31 13:38:37.981
300,-116.0,973.0,-31.0,980.380538362528,2021-08-31 13:38:37.990
301,-190.0,944.0,-47.0,964.0772790601384,2021-08-31 13:38:38.000
302,-147.0,995.0,-47.0,1006.8977107929088,2021-08-31 13:38:38.010
303,-147.0,995.0,-61.0,1007.6482521197564,2021-08-31 13:38:38.011
304,-175.0,1044.0,-26.0,1058.8847907114352,2021-08-31 13:38:38.021
305,-195.0,971.0,-4.0,990.3948707460072,2021-08-31 13:38:38.029
306,-172.0,855.0,-80.0,875.7905000626577,2021-08-31 13:38:38.039
307,-253.0,1021.0,-44.0,1052.799126139455,2021-08-31 13:38:38.049
308,-218.0,1054.0,-11.0,1076.364715140737,2021-08-31 13:38:38.061
309,-186.0,1054.0,-11.0,1070.342468558545,2021-08-31 13:38:38.069
310,-186.0,963.0,0.0,980.798144370186,2021-08-31 13:38:38.070
311,-185.0,1039.0,-11.0,1055.3989766908055,2021-08-31 13:38:38.078
312,-155.0,1077.0,-53.0,1089.386524609149,2021-08-31 13:38:38.088
313,-162.0,928.0,-23.0,942.3147032706216,2021-08-31 13:38:38.098
314,-283.0,926.0,-4.0,968.2876638685428,2021-08-31 13:38:38.108
315,-249.0,1044.0,-54.0,1074.640870244567,2021-08-31 13:38:38.118
316,-137.0,1031.0,-54.0,1041.4633934997428,2021-08-31 13:38:38.127
317,-137.0,1031.0,-6.0,1040.0798046303946,2021-08-31 13:38:38.128
318,-214.0,1017.0,2.0,1039.273303804153,2021-08-31 13:38:38.137
319,-165.0,1017.0,2.0,1030.2999563234,2021-08-31 13:38:38.146
320,-165.0,953.0,-71.0,969.7809030910024,2021-08-31 13:38:38.147
321,-201.0,1012.0,-55.0,1033.2327908075702,2021-08-31 13:38:38.156
322,-187.0,1025.0,-18.0,1042.073893733069,2021-08-31 13:38:38.166
323,-209.0,835.0,-20.0,860.991289154542,2021-08-31 13:38:38.177
324,-197.0,835.0,-20.0,858.1573282329995,2021-08-31 13:38:38.185
325,-197.0,985.0,6.0,1004.5247632587262,2021-08-31 13:38:38.186
326,-130.0,1045.0,-52.0,1054.3381810405997,2021-08-31 13:38:38.195
327,-108.0,970.0,-26.0,976.340104676644,2021-08-31 13:38:38.205
328,-253.0,1001.0,33.0,1033.0048402597154,2021-08-31 13:38:38.215
329,-163.0,1001.0,33.0,1014.7211439602509,2021-08-31 13:38:38.225
330,-163.0,1100.0,-71.0,1114.2755494041858,2021-08-31 13:38:38.226
331,-174.0,989.0,-71.0,1006.6965779220668,2021-08-31 13:38:38.234
332,-174.0,989.0,-56.0,1005.7499689286598,2021-08-31 13:38:38.235
333,-196.0,930.0,38.0,951.1887299584662,2021-08-31 13:38:38.244
334,-231.0,982.0,-42.0,1009.6776713387296,2021-08-31 13:38:38.254
335,-100.0,995.0,-46.0,1001.069927627436,2021-08-31 13:38:38.264
336,-194.0,1002.0,-6.0,1020.6252985302688,2021-08-31 13:38:38.274
337,-186.0,943.0,-69.0,963.6420497259344,2021-08-31 13:38:38.286
338,-137.0,1026.0,-59.0,1036.7863810833935,2021-08-31 13:38:38.293
339,-246.0,1040.0,0.0,1068.698273602049,2021-08-31 13:38:38.303
340,-162.0,1040.0,0.0,1052.5416856353006,2021-08-31 13:38:38.312
341,-162.0,958.0,-16.0,971.7324734719942,2021-08-31 13:38:38.313
342,-177.0,976.0,-17.0,992.0655220296692,2021-08-31 13:38:38.323
343,-209.0,1018.0,-101.0,1044.1293023375983,2021-08-31 13:38:38.360
344,-209.0,1018.0,-101.0,1044.1293023375983,2021-08-31 13:38:38.361
345,-209.0,955.0,-17.0,977.7499680388644,2021-08-31 13:38:38.362
346,-165.0,1072.0,-8.0,1084.653400861307,2021-08-31 13:38:38.364
347,-116.0,1032.0,-76.0,1041.2761401280643,2021-08-31 13:38:38.372
348,-139.0,964.0,-3.0,973.974332310662,2021-08-31 13:38:38.383
349,-222.0,1006.0,47.0,1031.2754239290298,2021-08-31 13:38:38.392
350,-172.0,942.0,47.0,958.7267598226306,2021-08-31 13:38:38.400
351,-172.0,942.0,-93.0,962.079518543036,2021-08-31 13:38:38.401
352,-159.0,1028.0,-16.0,1040.346576867536,2021-08-31 13:38:38.410
353,-220.0,997.0,-16.0,1021.1096904838382,2021-08-31 13:38:38.420
354,-147.0,931.0,-70.0,945.129620739928,2021-08-31 13:38:38.430
355,-108.0,1027.0,-50.0,1033.872816162607,2021-08-31 13:38:38.440
356,-194.0,975.0,-67.0,996.368405761644,2021-08-31 13:38:38.454
357,-190.0,942.0,-35.0,961.6075082901548,2021-08-31 13:38:38.459
358,-131.0,1100.0,-2.0,1107.7747966080472,2021-08-31 13:38:38.469
359,-152.0,1037.0,-57.0,1049.6294584280683,2021-08-31 13:38:38.487
360,-167.0,926.0,-58.0,942.724243880468,2021-08-31 13:38:38.490
361,-183.0,958.0,-68.0,977.68962355136,2021-08-31 13:38:38.498
362,-134.0,1033.0,-49.0,1042.8067893910163,2021-08-31 13:38:38.508
363,-187.0,932.0,-51.0,951.9422251376392,2021-08-31 13:38:38.518
364,-166.0,920.0,-16.0,934.993048102498,2021-08-31 13:38:38.528
365,-153.0,1136.0,20.0,1146.431419667134,2021-08-31 13:38:38.537
366,-188.0,1000.0,-88.0,1021.3167970811016,2021-08-31 13:38:38.547
367,-159.0,948.0,21.0,961.4707483849936,2021-08-31 13:38:38.557
368,-271.0,949.0,-49.0,988.1513042039666,2021-08-31 13:38:38.567
369,-225.0,953.0,-56.0,980.8006933113372,2021-08-31 13:38:38.576
370,-211.0,1025.0,-21.0,1046.7029186927875,2021-08-31 13:38:38.586
371,-190.0,944.0,-41.0,963.8034031896754,2021-08-31 13:38:38.596
372,-179.0,984.0,-25.0,1000.4608937884578,2021-08-31 13:38:38.606
373,-124.0,992.0,-33.0,1000.2644650291242,2021-08-31 13:38:38.616
374,-142.0,978.0,-34.0,988.839724121154,2021-08-31 13:38:38.625
375,-196.0,874.0,-61.0,897.7822675905334,2021-08-31 13:38:38.635
376,-251.0,874.0,-61.0,911.3714939584188,2021-08-31 13:38:38.644
377,-251.0,1053.0,-38.0,1083.1685002805427,2021-08-31 13:38:38.645
378,-190.0,1031.0,-35.0,1048.9451844591308,2021-08-31 13:38:38.654
379,-210.0,871.0,-22.0,896.2282075453774,2021-08-31 13:38:38.664
380,-183.0,871.0,-22.0,890.2887172148145,2021-08-31 13:38:38.674
381,-183.0,1062.0,11.0,1077.7077525934385,2021-08-31 13:38:38.675
382,-82.0,1042.0,-138.0,1054.292179616258,2021-08-31 13:38:38.684
383,-121.0,1014.0,-31.0,1021.6643284366936,2021-08-31 13:38:38.693
384,-272.0,989.0,34.0,1026.2850481225964,2021-08-31 13:38:38.703
385,-184.0,989.0,34.0,1006.545080957629,2021-08-31 13:38:38.713
386,-184.0,939.0,-65.0,959.063084473592,2021-08-31 13:38:38.714
387,-163.0,1091.0,-65.0,1105.022624202781,2021-08-31 13:38:38.723
388,-163.0,1091.0,-23.0,1103.3489928395277,2021-08-31 13:38:38.724
389,-173.0,982.0,-23.0,997.387587650859,2021-08-31 13:38:38.732
390,-173.0,982.0,-27.0,997.487844537466,2021-08-31 13:38:38.733
391,-170.0,835.0,-73.0,855.2508403971317,2021-08-31 13:38:38.742
392,-122.0,1017.0,-22.0,1024.5276960629224,2021-08-31 13:38:38.752
393,-120.0,1004.0,-22.0,1011.385188738692,2021-08-31 13:38:38.763
394,-120.0,1004.0,-11.0,1011.2057159648576,2021-08-31 13:38:38.764
395,-203.0,918.0,-35.0,940.8283584161352,2021-08-31 13:38:38.772
396,-153.0,978.0,-39.0,990.663414081695,2021-08-31 13:38:38.781
397,-143.0,1074.0,-24.0,1083.7439734549853,2021-08-31 13:38:38.792
398,-162.0,930.0,-43.0,944.9830686313908,2021-08-31 13:38:38.801
399,-237.0,930.0,-43.0,960.6862130789636,2021-08-31 13:38:38.810
400,-237.0,925.0,-24.0,955.180611193506,2021-08-31 13:38:38.811
401,-278.0,1077.0,-24.0,1112.559661321585,2021-08-31 13:38:38.820
402,-278.0,1077.0,-36.0,1112.8831924330602,2021-08-31 13:38:38.821
403,-165.0,1077.0,-36.0,1090.1605386363974,2021-08-31 13:38:38.830
404,-165.0,1010.0,-54.0,1024.8126658077565,2021-08-31 13:38:38.831
405,-161.0,1031.0,-8.0,1043.5257543539594,2021-08-31 13:38:38.840
406,-228.0,1031.0,-8.0,1055.9398657120585,2021-08-31 13:38:38.849
407,-228.0,969.0,1.0,995.4627064837738,2021-08-31 13:38:38.850
408,-212.0,950.0,-55.0,974.9199967176794,2021-08-31 13:38:38.859
409,-164.0,1043.0,-20.0,1056.0042613550384,2021-08-31 13:38:38.870
410,-274.0,1043.0,-20.0,1078.5754493775576,2021-08-31 13:38:38.879
411,-274.0,946.0,7.0,984.9065945560524,2021-08-31 13:38:38.880
412,-251.0,946.0,7.0,978.757375451138,2021-08-31 13:38:38.891
413,-251.0,988.0,-61.0,1021.20810807592,2021-08-31 13:38:38.892
414,-198.0,1064.0,-61.0,1083.9838559683442,2021-08-31 13:38:38.898
415,-198.0,1064.0,7.0,1082.288778469037,2021-08-31 13:38:38.899
416,-217.0,983.0,-11.0,1006.726874579198,2021-08-31 13:38:38.908
417,-159.0,912.0,-71.0,928.4750939039776,2021-08-31 13:38:38.918
418,-186.0,1071.0,-26.0,1087.3421724553868,2021-08-31 13:38:38.928
419,-134.0,1031.0,-13.0,1039.7528552497463,2021-08-31 13:38:38.938
420,-165.0,858.0,-41.0,874.6827996479639,2021-08-31 13:38:38.948
421,-231.0,961.0,-16.0,988.5029084428634,2021-08-31 13:38:38.957
422,-136.0,1020.0,-64.0,1031.0150338380136,2021-08-31 13:38:38.967
423,-155.0,1020.0,-64.0,1033.692894432384,2021-08-31 13:38:38.976
424,-155.0,956.0,-40.0,969.309548080488,2021-08-31 13:38:38.977
425,-246.0,958.0,45.0,990.1035299401776,2021-08-31 13:38:38.987
426,-140.0,1027.0,-55.0,1037.9566464934844,2021-08-31 13:38:38.996
427,-171.0,978.0,-57.0,994.471719054896,2021-08-31 13:38:39.006
428,-157.0,967.0,13.0,979.7484371000548,2021-08-31 13:38:39.016
429,-197.0,954.0,-36.0,974.7927984961728,2021-08-31 13:38:39.026
430,-151.0,1002.0,-25.0,1013.622217593912,2021-08-31 13:38:39.036
431,-183.0,1041.0,-12.0,1057.0307469511,2021-08-31 13:38:39.045
432,-153.0,966.0,-41.0,978.9004035140654,2021-08-31 13:38:39.055
433,-100.0,974.0,-41.0,979.978060978918,2021-08-31 13:38:39.064
434,-100.0,974.0,-27.0,979.4922153850944,2021-08-31 13:38:39.065
435,-183.0,1045.0,-57.0,1062.4325860966426,2021-08-31 13:38:39.074
436,-153.0,944.0,-50.0,957.624665513582,2021-08-31 13:38:39.084
437,-188.0,976.0,19.0,994.1232317977484,2021-08-31 13:38:39.094
438,-209.0,1016.0,-82.0,1040.5099711199312,2021-08-31 13:38:39.104
439,-134.0,971.0,-39.0,980.9780833433538,2021-08-31 13:38:39.115
440,-236.0,977.0,19.0,1005.279065732496,2021-08-31 13:38:39.123
441,-206.0,995.0,-71.0,1018.5784211340824,2021-08-31 13:38:39.133
442,-193.0,1028.0,-71.0,1048.3673020463773,2021-08-31 13:38:39.143
443,-193.0,1028.0,-76.0,1048.7177885398912,2021-08-31 13:38:39.144
444,-208.0,943.0,7.0,965.6924976409416,2021-08-31 13:38:39.152
445,-190.0,986.0,11.0,1004.1996813383282,2021-08-31 13:38:39.162
446,-152.0,960.0,-117.0,978.9754848820272,2021-08-31 13:38:39.172
447,-153.0,1021.0,-17.0,1032.5400718616204,2021-08-31 13:38:39.182
448,-199.0,927.0,-26.0,948.475619085699,2021-08-31 13:38:39.192
449,-171.0,954.0,-62.0,971.1853582092348,2021-08-31 13:38:39.201
450,-149.0,954.0,-62.0,967.5541328525242,2021-08-31 13:38:39.211
451,-149.0,1065.0,-10.0,1075.4189881157947,2021-08-31 13:38:39.212
452,-196.0,997.0,-27.0,1016.441833062768,2021-08-31 13:38:39.221
453,-157.0,997.0,-27.0,1009.6469680041632,2021-08-31 13:38:39.230
454,-157.0,929.0,-65.0,944.4125158001666,2021-08-31 13:38:39.231
455,-127.0,1118.0,7.0,1125.2119800286523,2021-08-31 13:38:39.240
456,-185.0,1118.0,7.0,1133.2246026273874,2021-08-31 13:38:39.250
457,-185.0,1027.0,-51.0,1044.7750954152764,2021-08-31 13:38:39.251
458,-205.0,863.0,14.0,887.1245684795343,2021-08-31 13:38:39.260
459,-170.0,863.0,14.0,879.6959702078894,2021-08-31 13:38:39.269
460,-170.0,972.0,-14.0,986.8535858981312,2021-08-31 13:38:39.270
461,-142.0,1054.0,-57.0,1065.0488251718791,2021-08-31 13:38:39.279
462,-144.0,934.0,-62.0,947.0670514805169,2021-08-31 13:38:39.290
463,-236.0,934.0,-62.0,965.3476057876768,2021-08-31 13:38:39.299
464,-236.0,966.0,33.0,994.9577880493222,2021-08-31 13:38:39.300
465,-183.0,1052.0,-53.0,1069.1127162278074,2021-08-31 13:38:39.309
466,-82.0,986.0,-53.0,990.8223856978606,2021-08-31 13:38:39.318
467,-82.0,986.0,-52.0,990.7693979932968,2021-08-31 13:38:39.319
468,-209.0,1008.0,56.0,1030.9612019857973,2021-08-31 13:38:39.328
469,-207.0,868.0,-52.0,893.855133676593,2021-08-31 13:38:39.339
470,-234.0,965.0,-41.0,993.8118534209582,2021-08-31 13:38:39.348
471,-238.0,1089.0,-41.0,1115.4577535702551,2021-08-31 13:38:39.357
472,-238.0,1089.0,0.0,1114.7039965838464,2021-08-31 13:38:39.358
473,-129.0,895.0,-84.0,908.1420593717704,2021-08-31 13:38:39.393
474,-149.0,954.0,-46.0,966.660747108312,2021-08-31 13:38:39.399
475,-192.0,887.0,-76.0,910.7189467667838,2021-08-31 13:38:39.406
476,-237.0,1041.0,-13.0,1067.7167227312682,2021-08-31 13:38:39.416
477,-183.0,994.0,-43.0,1011.6194936832724,2021-08-31 13:38:39.426
478,-231.0,859.0,-15.0,889.6443109467963,2021-08-31 13:38:39.436
479,-247.0,1092.0,20.0,1119.764707427413,2021-08-31 13:38:39.447
480,-111.0,1033.0,-96.0,1043.3724167333542,2021-08-31 13:38:39.455
481,-139.0,1005.0,24.0,1014.8507279398286,2021-08-31 13:38:39.469
482,-214.0,1006.0,-3.0,1028.5139765700806,2021-08-31 13:38:39.475
483,-134.0,941.0,-3.0,950.4977643319316,2021-08-31 13:38:39.484
484,-134.0,941.0,-123.0,958.418488970241,2021-08-31 13:38:39.485
485,-175.0,1113.0,0.0,1126.6738658547113,2021-08-31 13:38:39.505
486,-161.0,975.0,-82.0,991.5997176280356,2021-08-31 13:38:39.507
487,-135.0,872.0,-61.0,884.4942057469907,2021-08-31 13:38:39.515
488,-221.0,872.0,-61.0,901.6351812124458,2021-08-31 13:38:39.523
489,-221.0,1102.0,-30.0,1124.3420298112137,2021-08-31 13:38:39.524
490,-150.0,1028.0,-26.0,1039.2112393541556,2021-08-31 13:38:39.533
491,-154.0,892.0,-50.0,906.5759758564088,2021-08-31 13:38:39.543
492,-184.0,973.0,-9.0,990.2858173275026,2021-08-31 13:38:39.553
493,-196.0,1059.0,-37.0,1077.6205269017476,2021-08-31 13:38:39.564
494,-187.0,958.0,-26.0,976.4266485507244,2021-08-31 13:38:39.573
495,-248.0,940.0,-35.0,972.7944284379922,2021-08-31 13:38:39.582
496,-254.0,1027.0,-68.0,1060.1268791989005,2021-08-31 13:38:39.592
497,-230.0,1027.0,-68.0,1054.634059757222,2021-08-31 13:38:39.601
498,-230.0,1053.0,-6.0,1077.8427529097182,2021-08-31 13:38:39.602
499,-179.0,997.0,31.0,1013.4155120186388,2021-08-31 13:38:39.612
500,-182.0,906.0,-28.0,924.5236611358304,2021-08-31 13:38:39.621
501,-187.0,990.0,-64.0,1009.5370225999638,2021-08-31 13:38:39.631
502,-106.0,1029.0,-31.0,1034.9096578929004,2021-08-31 13:38:39.641
503,-157.0,888.0,-31.0,902.304826541452,2021-08-31 13:38:39.650
504,-157.0,888.0,-54.0,903.3875137503284,2021-08-31 13:38:39.651
505,-219.0,940.0,-54.0,966.6835056004628,2021-08-31 13:38:39.660
506,-219.0,940.0,-33.0,965.7380597242712,2021-08-31 13:38:39.661
507,-165.0,1028.0,-25.0,1041.4576323595693,2021-08-31 13:38:39.671
508,-192.0,1032.0,-20.0,1049.8990427655413,2021-08-31 13:38:39.680
509,-168.0,1032.0,-20.0,1045.776266703352,2021-08-31 13:38:39.689
510,-168.0,941.0,-48.0,957.0835909156524,2021-08-31 13:38:39.690
511,-142.0,1005.0,-34.0,1015.5515742688798,2021-08-31 13:38:39.699
512,-194.0,1037.0,-66.0,1057.0529788047522,2021-08-31 13:38:39.709
513,-191.0,891.0,-16.0,911.382466366344,2021-08-31 13:38:39.720
514,-183.0,973.0,3.0,990.0641393364372,2021-08-31 13:38:39.732
515,-93.0,1025.0,-93.0,1033.4035997614872,2021-08-31 13:38:39.738
516,-145.0,921.0,-18.0,932.518096339154,2021-08-31 13:38:39.748
517,-255.0,1027.0,36.0,1058.7964865827616,2021-08-31 13:38:39.758
518,-138.0,964.0,-87.0,977.7059885262032,2021-08-31 13:38:39.769
519,-116.0,1068.0,-87.0,1077.7982185919589,2021-08-31 13:38:39.777
520,-116.0,1068.0,-20.0,1074.4673098796443,2021-08-31 13:38:39.778
521,-144.0,910.0,-17.0,921.4797881668376,2021-08-31 13:38:39.788
522,-149.0,990.0,-59.0,1002.886833097334,2021-08-31 13:38:39.797
523,-84.0,1004.0,-80.0,1010.6789796963228,2021-08-31 13:38:39.807
524,-172.0,1033.0,-14.0,1047.3151388192573,2021-08-31 13:38:39.817
525,-223.0,1033.0,-14.0,1056.8888304831307,2021-08-31 13:38:39.827
526,-223.0,976.0,-36.0,1001.798882011754,2021-08-31 13:38:39.828
527,-194.0,991.0,-17.0,1009.9534642744684,2021-08-31 13:38:39.837
528,-232.0,1084.0,-16.0,1108.6640609309927,2021-08-31 13:38:39.846
529,-175.0,1084.0,-16.0,1098.1516288746286,2021-08-31 13:38:39.855
530,-175.0,911.0,-69.0,930.2187914678998,2021-08-31 13:38:39.856
531,-151.0,970.0,2.0,981.6847762902304,2021-08-31 13:38:39.865
532,-208.0,1013.0,-69.0,1036.433307068043,2021-08-31 13:38:39.876
533,-167.0,911.0,-48.0,927.4233121935204,2021-08-31 13:38:39.885
534,-203.0,911.0,-48.0,934.5769096227448,2021-08-31 13:38:39.894
535,-203.0,993.0,33.0,1014.074454860194,2021-08-31 13:38:39.895
536,-213.0,1006.0,-37.0,1028.9674436054815,2021-08-31 13:38:39.904
537,-91.0,926.0,-60.0,932.3931574180496,2021-08-31 13:38:39.914
538,-154.0,1043.0,-28.0,1054.6795721924266,2021-08-31 13:38:39.924
539,-255.0,1052.0,53.0,1083.7610437730266,2021-08-31 13:38:39.934
540,-139.0,947.0,53.0,958.6130606245672,2021-08-31 13:38:39.943
541,-139.0,947.0,-140.0,967.3313806550472,2021-08-31 13:38:39.944
542,-128.0,1045.0,-14.0,1052.903129447339,2021-08-31 13:38:39.953
543,-239.0,1001.0,-7.0,1029.160337362454,2021-08-31 13:38:39.963
544,-124.0,917.0,-75.0,928.380310002318,2021-08-31 13:38:39.973
545,-164.0,1086.0,3.0,1098.3173494031678,2021-08-31 13:38:39.984
546,-242.0,916.0,-60.0,949.326076751292,2021-08-31 13:38:39.993
547,-115.0,918.0,-26.0,925.5403826954284,2021-08-31 13:38:40.002
548,-185.0,1160.0,13.0,1174.731458674705,2021-08-31 13:38:40.012
549,-132.0,1160.0,13.0,1167.55856384166,2021-08-31 13:38:40.021
550,-132.0,955.0,-86.0,967.9075369062896,2021-08-31 13:38:40.022
551,-192.0,965.0,36.0,984.5735117298252,2021-08-31 13:38:40.032
552,-253.0,973.0,-36.0,1005.9990059637236,2021-08-31 13:38:40.041
553,-200.0,969.0,-97.0,994.1679938521456,2021-08-31 13:38:40.065
554,-234.0,969.0,-97.0,1001.5617804209584,2021-08-31 13:38:40.074
555,-234.0,996.0,9.0,1023.15834551647,2021-08-31 13:38:40.075
556,-186.0,996.0,9.0,1013.2586047006954,2021-08-31 13:38:40.082
557,-186.0,1062.0,-31.0,1078.6106804588949,2021-08-31 13:38:40.083
558,-156.0,1015.0,-55.0,1028.3900038409552,2021-08-31 13:38:40.093
559,-155.0,1015.0,-55.0,1028.238785496832,2021-08-31 13:38:40.109
560,-155.0,931.0,-13.0,943.904126487431,2021-08-31 13:38:40.110
561,-195.0,956.0,-31.0,976.1772380054762,2021-08-31 13:38:40.114
562,-255.0,1025.0,-23.0,1056.493729276232,2021-08-31 13:38:40.120
563,-199.0,986.0,-10.0,1005.9309121405904,2021-08-31 13:38:40.130
564,-145.0,926.0,-61.0,939.2667352781104,2021-08-31 13:38:40.140
565,-183.0,926.0,-61.0,945.8784277062248,2021-08-31 13:38:40.148
566,-183.0,1043.0,3.0,1058.9367308767792,2021-08-31 13:38:40.149
567,-152.0,1078.0,-69.0,1090.847835401437,2021-08-31 13:38:40.158
568,-148.0,1018.0,-62.0,1030.568774997574,2021-08-31 13:38:40.168
569,-224.0,963.0,-3.0,988.7133052609336,2021-08-31 13:38:40.178
570,-182.0,963.0,-3.0,980.0520394346414,2021-08-31 13:38:40.188
571,-182.0,999.0,-67.0,1017.65121726454,2021-08-31 13:38:40.189
572,-222.0,1023.0,-12.0,1046.8796492434076,2021-08-31 13:38:40.197
573,-188.0,875.0,-5.0,894.9826813966849,2021-08-31 13:38:40.207
574,-206.0,996.0,-20.0,1017.2767568366044,2021-08-31 13:38:40.217
575,-146.0,1120.0,-45.0,1130.3720626413235,2021-08-31 13:38:40.227
576,-123.0,974.0,-45.0,982.766503295671,2021-08-31 13:38:40.237
577,-123.0,974.0,-28.0,982.1349194484432,2021-08-31 13:38:40.238
578,-239.0,938.0,5.0,967.9824378572164,2021-08-31 13:38:40.247
579,-180.0,978.0,-94.0,998.8593494581708,2021-08-31 13:38:40.256
580,-147.0,1044.0,-32.0,1054.7838641162464,2021-08-31 13:38:40.266
581,-196.0,1044.0,-32.0,1062.7210358320758,2021-08-31 13:38:40.275
582,-196.0,1049.0,0.0,1067.1536908993005,2021-08-31 13:38:40.276
583,-269.0,842.0,-61.0,886.0282162549904,2021-08-31 13:38:40.286
584,-241.0,1063.0,19.0,1090.1426512158855,2021-08-31 13:38:40.296
585,-220.0,1031.0,-37.0,1054.860180308272,2021-08-31 13:38:40.305
586,-176.0,838.0,-40.0,857.2164254142591,2021-08-31 13:38:40.315
587,-218.0,1037.0,23.0,1059.9160344102734,2021-08-31 13:38:40.324
588,-223.0,1121.0,23.0,1143.1968334455794,2021-08-31 13:38:40.337
589,-160.0,937.0,-52.0,951.983718348166,2021-08-31 13:38:40.345
590,-167.0,906.0,-24.0,921.5752817865722,2021-08-31 13:38:40.354
591,-256.0,906.0,-24.0,941.779167321087,2021-08-31 13:38:40.363
592,-256.0,1113.0,-44.0,1142.9090077517108,2021-08-31 13:38:40.364
593,-142.0,965.0,-64.0,977.4891303743484,2021-08-31 13:38:40.373
594,-199.0,965.0,-64.0,987.3813852812904,2021-08-31 13:38:40.384
595,-199.0,1031.0,58.0,1051.630163127703,2021-08-31 13:38:40.385
596,-285.0,975.0,-42.0,1016.6680874307012,2021-08-31 13:38:40.410
597,-108.0,947.0,-66.0,955.4208496782976,2021-08-31 13:38:40.427
598,-108.0,1140.0,-5.0,1145.1152780397265,2021-08-31 13:38:40.429
599,-197.0,918.0,4.0,938.9084087385734,2021-08-31 13:38:40.434
600,-164.0,918.0,4.0,932.542760413698,2021-08-31 13:38:40.441
601,-164.0,1065.0,-53.0,1078.8558754532507,2021-08-31 13:38:40.442
602,-154.0,896.0,-55.0,910.8001976284372,2021-08-31 13:38:40.451
603,-123.0,861.0,-52.0,871.2944393257654,2021-08-31 13:38:40.461
604,-225.0,1054.0,-31.0,1078.193860119784,2021-08-31 13:38:40.471
605,-116.0,1005.0,-94.0,1016.0300192415576,2021-08-31 13:38:40.487
606,-109.0,873.0,-61.0,881.8905827822406,2021-08-31 13:38:40.491
607,-189.0,1016.0,-43.0,1034.3239337847697,2021-08-31 13:38:40.500
608,-121.0,991.0,-74.0,1001.0983967622764,2021-08-31 13:38:40.510
609,-241.0,1023.0,56.0,1052.495130630066,2021-08-31 13:38:40.520
610,-189.0,962.0,-18.0,980.555454831597,2021-08-31 13:38:40.543
611,-189.0,964.0,-53.0,983.781479801282,2021-08-31 13:38:40.544
612,-202.0,1073.0,-3.0,1091.8525541482238,2021-08-31 13:38:40.549
613,-134.0,871.0,-42.0,882.2476976450548,2021-08-31 13:38:40.559
614,-187.0,871.0,-42.0,891.8374291315654,2021-08-31 13:38:40.568
615,-187.0,947.0,5.0,965.2994354085162,2021-08-31 13:38:40.569
616,-205.0,1007.0,-39.0,1028.394379603467,2021-08-31 13:38:40.578
617,-136.0,998.0,-40.0,1008.0178569846864,2021-08-31 13:38:40.589
618,-136.0,909.0,-17.0,919.2747141089,2021-08-31 13:38:40.599
619,-204.0,1043.0,0.0,1062.762908648961,2021-08-31 13:38:40.608
620,-148.0,1024.0,0.0,1034.6400340214948,2021-08-31 13:38:40.617
621,-148.0,1024.0,-113.0,1040.792486521689,2021-08-31 13:38:40.618
622,-191.0,969.0,-10.0,987.6952971438104,2021-08-31 13:38:40.627
623,-187.0,969.0,-10.0,986.9295820878002,2021-08-31 13:38:40.637
624,-187.0,980.0,7.0,997.7063696298626,2021-08-31 13:38:40.638
625,-219.0,980.0,7.0,1004.196195969692,2021-08-31 13:38:40.648
626,-219.0,913.0,-86.0,942.8287225153888,2021-08-31 13:38:40.649
627,-194.0,1004.0,-11.0,1022.6304317787536,2021-08-31 13:38:40.656
628,-242.0,930.0,-7.0,960.9958376600806,2021-08-31 13:38:40.666
629,-190.0,961.0,-32.0,980.124992029078,2021-08-31 13:38:40.676
630,-99.0,1070.0,-61.0,1076.300144011883,2021-08-31 13:38:40.686
631,-139.0,1070.0,-61.0,1080.7136531015049,2021-08-31 13:38:40.696
632,-139.0,1001.0,-45.0,1011.6061486566796,2021-08-31 13:38:40.697
633,-182.0,917.0,11.0,934.9513356319676,2021-08-31 13:38:40.705
634,-160.0,1006.0,-52.0,1019.9705878112368,2021-08-31 13:38:40.715
635,-138.0,945.0,-36.0,955.7013131726878,2021-08-31 13:38:40.725
636,-211.0,945.0,-36.0,968.9385945455988,2021-08-31 13:38:40.734
637,-211.0,996.0,-2.0,1018.106575953618,2021-08-31 13:38:40.735
638,-158.0,995.0,-54.0,1008.912781165944,2021-08-31 13:38:40.745
639,-99.0,1014.0,-54.0,1020.251439597122,2021-08-31 13:38:40.755
640,-99.0,1014.0,-40.0,1019.6062965674544,2021-08-31 13:38:40.756
641,-174.0,1025.0,-60.0,1041.393777588478,2021-08-31 13:38:40.770
642,-142.0,1025.0,-60.0,1036.5273754223765,2021-08-31 13:38:40.773
643,-142.0,900.0,-61.0,913.1730394618536,2021-08-31 13:38:40.774
644,-187.0,1102.0,-61.0,1119.4168124519124,2021-08-31 13:38:40.783
645,-187.0,1102.0,34.0,1118.270539717469,2021-08-31 13:38:40.784
646,-183.0,1032.0,-59.0,1049.759019966011,2021-08-31 13:38:40.794
647,-143.0,890.0,-11.0,901.4821129673068,2021-08-31 13:38:40.804
648,-224.0,1039.0,-12.0,1062.9397913334508,2021-08-31 13:38:40.813
649,-194.0,992.0,-12.0,1010.8629976411244,2021-08-31 13:38:40.822
650,-194.0,992.0,-101.0,1015.8252802524656,2021-08-31 13:38:40.823
651,-164.0,1051.0,33.0,1064.2302382473447,2021-08-31 13:38:40.832
652,-231.0,1019.0,10.0,1044.9028662990645,2021-08-31 13:38:40.843
653,-187.0,1019.0,10.0,1036.0646697962438,2021-08-31 13:38:40.852
654,-187.0,1081.0,-48.0,1098.1047308886343,2021-08-31 13:38:40.853
655,-76.0,968.0,-48.0,972.164595117514,2021-08-31 13:38:40.861
656,-76.0,968.0,-39.0,971.7618020893804,2021-08-31 13:38:40.862
657,-233.0,1028.0,48.0,1055.1668114568429,2021-08-31 13:38:40.871
658,-217.0,854.0,-68.0,883.7584511618545,2021-08-31 13:38:40.881
659,-211.0,976.0,-26.0,998.8858793676084,2021-08-31 13:38:40.891
660,-175.0,976.0,-26.0,991.9057414895832,2021-08-31 13:38:40.901
661,-175.0,1103.0,-29.0,1117.1727708819258,2021-08-31 13:38:40.902
662,-93.0,875.0,-73.0,882.9513010353402,2021-08-31 13:38:40.911
663,-185.0,1046.0,23.0,1062.4829410395257,2021-08-31 13:38:40.920
664,-203.0,1082.0,-60.0,1102.5121314525295,2021-08-31 13:38:40.930
665,-130.0,960.0,-33.0,969.323991243382,2021-08-31 13:38:40.940
666,-288.0,996.0,24.0,1037.0805176069985,2021-08-31 13:38:40.950
667,-222.0,953.0,-116.0,985.3674441547172,2021-08-31 13:38:40.960
668,-143.0,1096.0,0.0,1105.2895548226263,2021-08-31 13:38:40.969
669,-204.0,1037.0,9.0,1056.9134307028178,2021-08-31 13:38:40.979
670,-215.0,1117.0,9.0,1137.5390103200857,2021-08-31 13:38:40.988
671,-215.0,1117.0,36.0,1138.0729326365688,2021-08-31 13:38:40.989
672,-117.0,1001.0,-85.0,1011.3926042838162,2021-08-31 13:38:41.002
673,-151.0,1043.0,7.0,1053.897053796053,2021-08-31 13:38:41.009
674,-261.0,969.0,0.0,1003.5347527614576,2021-08-31 13:38:41.018
675,-128.0,969.0,0.0,977.4175157014528,2021-08-31 13:38:41.027
676,-128.0,926.0,-81.0,938.307518887065,2021-08-31 13:38:41.028
677,-117.0,1096.0,-15.0,1102.3293518726607,2021-08-31 13:38:41.037
678,-142.0,960.0,-15.0,970.561177875975,2021-08-31 13:38:41.047
679,-142.0,960.0,-91.0,974.7025187204556,2021-08-31 13:38:41.048
680,-212.0,956.0,-5.0,979.2369478323416,2021-08-31 13:38:41.058
681,-233.0,956.0,-5.0,983.9969512147892,2021-08-31 13:38:41.067
682,-233.0,1076.0,-30.0,1101.346902660556,2021-08-31 13:38:41.068
683,-226.0,991.0,-34.0,1017.0117993415809,2021-08-31 13:38:41.076
684,-252.0,983.0,23.0,1015.0477821265362,2021-08-31 13:38:41.086
685,-202.0,915.0,-58.0,938.8253298670631,2021-08-31 13:38:41.096
686,-177.0,1047.0,-73.0,1064.3622503640383,2021-08-31 13:38:41.106
687,-213.0,987.0,16.0,1009.8485034895084,2021-08-31 13:38:41.116
688,-298.0,914.0,-1.0,961.3537330244264,2021-08-31 13:38:41.125
689,-174.0,1047.0,-57.0,1062.889458034089,2021-08-31 13:38:41.135
690,-162.0,1082.0,-19.0,1094.2252967282377,2021-08-31 13:38:41.145
691,-154.0,952.0,-17.0,964.5252718306556,2021-08-31 13:38:41.155
692,-188.0,955.0,-29.0,973.760750903424,2021-08-31 13:38:41.165
693,-129.0,1018.0,-29.0,1026.5505345573592,2021-08-31 13:38:41.174
694,-129.0,1018.0,-67.0,1028.325823851565,2021-08-31 13:38:41.175
695,-138.0,1044.0,-6.0,1053.0982860113295,2021-08-31 13:38:41.184
696,-169.0,921.0,-6.0,936.3962836320956,2021-08-31 13:38:41.193
697,-169.0,921.0,-55.0,937.9909381225386,2021-08-31 13:38:41.194
698,-197.0,917.0,-20.0,938.1353846860272,2021-08-31 13:38:41.203
699,-133.0,1055.0,-80.0,1066.3554754395927,2021-08-31 13:38:41.214
700,-252.0,930.0,-40.0,964.367150000455,2021-08-31 13:38:41.224
701,-253.0,930.0,-40.0,964.6289442060092,2021-08-31 13:38:41.232
702,-253.0,945.0,17.0,978.428842583864,2021-08-31 13:38:41.233
703,-211.0,996.0,-41.0,1018.929830753816,2021-08-31 13:38:41.245
704,-233.0,1057.0,-11.0,1082.4319840063854,2021-08-31 13:38:41.252
705,-189.0,837.0,-64.0,860.456855397178,2021-08-31 13:38:41.262
706,-216.0,837.0,-64.0,866.7877479521732,2021-08-31 13:38:41.272
707,-216.0,979.0,-24.0,1002.832488504436,2021-08-31 13:38:41.273
708,-111.0,1015.0,-24.0,1021.33344212358,2021-08-31 13:38:41.281
709,-111.0,1015.0,-68.0,1023.313246274082,2021-08-31 13:38:41.282
710,-159.0,942.0,-4.0,955.3329262618348,2021-08-31 13:38:41.291
711,-242.0,1032.0,9.0,1060.0325466701483,2021-08-31 13:38:41.301
712,-145.0,924.0,-69.0,937.8496681238416,2021-08-31 13:38:41.311
713,-160.0,1007.0,-69.0,1021.9637958362322,2021-08-31 13:38:41.321
714,-160.0,1007.0,-42.0,1020.496447813514,2021-08-31 13:38:41.322
715,-187.0,950.0,-29.0,968.6640284432988,2021-08-31 13:38:41.331
716,-173.0,872.0,-23.0,889.292977595123,2021-08-31 13:38:41.340
717,-286.0,1030.0,-27.0,1069.3105255256771,2021-08-31 13:38:41.350
718,-180.0,949.0,-71.0,968.5256837069422,2021-08-31 13:38:41.360
719,-215.0,878.0,-58.0,905.7996467210615,2021-08-31 13:38:41.370
720,-175.0,1003.0,-111.0,1024.185041874758,2021-08-31 13:38:41.383
721,-202.0,1108.0,-39.0,1126.9378864870948,2021-08-31 13:38:41.390
722,-141.0,874.0,-54.0,886.9458833547851,2021-08-31 13:38:41.399
723,-193.0,874.0,-54.0,896.6833331784416,2021-08-31 13:38:41.408
724,-193.0,992.0,35.0,1011.2062104239668,2021-08-31 13:38:41.409
725,-237.0,967.0,-72.0,998.2194147580982,2021-08-31 13:38:41.419
726,-107.0,944.0,-34.0,950.6529335146448,2021-08-31 13:38:41.457
727,-99.0,996.0,-88.0,1004.7691277104408,2021-08-31 13:38:41.461
728,-99.0,1086.0,-26.0,1090.812999555836,2021-08-31 13:38:41.462
729,-140.0,1024.0,-20.0,1033.719497736209,2021-08-31 13:38:41.468
730,-181.0,871.0,-39.0,890.4622395138381,2021-08-31 13:38:41.479
731,-192.0,1126.0,-39.0,1142.9177573211468,2021-08-31 13:38:41.486
732,-192.0,1126.0,35.0,1142.7882568525108,2021-08-31 13:38:41.487
733,-165.0,1006.0,-111.0,1025.4667230095768,2021-08-31 13:38:41.502
734,-194.0,945.0,-44.0,965.7106191815434,2021-08-31 13:38:41.507
735,-203.0,959.0,10.0,980.30097419109,2021-08-31 13:38:41.516
736,-162.0,1086.0,-61.0,1099.7095070972152,2021-08-31 13:38:41.526
737,-114.0,942.0,-93.0,953.419634788376,2021-08-31 13:38:41.535
738,-154.0,994.0,7.0,1005.8831940140964,2021-08-31 13:38:41.546
739,-216.0,1018.0,-35.0,1041.2516506589557,2021-08-31 13:38:41.565
740,-199.0,1024.0,7.0,1043.1807130118923,2021-08-31 13:38:41.568
741,-237.0,1007.0,35.0,1035.1053086522163,2021-08-31 13:38:41.575
742,-172.0,898.0,-63.0,916.491680267748,2021-08-31 13:38:41.584
743,-203.0,1080.0,-10.0,1098.9581429699676,2021-08-31 13:38:41.594
744,-160.0,1012.0,-24.0,1024.8512087127574,2021-08-31 13:38:41.604
745,-167.0,920.0,-24.0,935.3421833746194,2021-08-31 13:38:41.613
746,-167.0,920.0,-17.0,935.188751001636,2021-08-31 13:38:41.614
747,-221.0,1015.0,-13.0,1038.8623585441917,2021-08-31 13:38:41.623
748,-145.0,1048.0,-6.0,1058.0004725896863,2021-08-31 13:38:41.633
749,-237.0,940.0,-17.0,969.5658822380252,2021-08-31 13:38:41.643
750,-233.0,889.0,-41.0,919.940758962228,2021-08-31 13:38:41.654
751,-218.0,1024.0,-67.0,1049.0896053245403,2021-08-31 13:38:41.662
752,-207.0,1024.0,-67.0,1046.8591118197328,2021-08-31 13:38:41.672
753,-207.0,1026.0,-16.0,1046.7955865401802,2021-08-31 13:38:41.673
754,-166.0,942.0,3.0,956.519210470966,2021-08-31 13:38:41.683
755,-134.0,942.0,3.0,951.4877823703256,2021-08-31 13:38:41.691
756,-134.0,1037.0,5.0,1045.633779102416,2021-08-31 13:38:41.692
757,-170.0,1096.0,-62.0,1110.8375218725737,2021-08-31 13:38:41.702
758,-133.0,1001.0,-38.0,1010.511751539783,2021-08-31 13:38:41.711
759,-234.0,958.0,-9.0,986.2053538690612,2021-08-31 13:38:41.721
760,-160.0,995.0,-55.0,1009.281922953146,2021-08-31 13:38:41.731
761,-35.0,1035.0,-15.0,1035.7002462102632,2021-08-31 13:38:41.740
762,-110.0,1002.0,-20.0,1008.2182303449982,2021-08-31 13:38:41.750
763,-100.0,1052.0,-7.0,1056.7653476529215,2021-08-31 13:38:41.762
764,-114.0,1002.0,-68.0,1010.7541738721636,2021-08-31 13:38:41.772
765,-151.0,1002.0,-68.0,1015.592930262908,2021-08-31 13:38:41.780
766,-151.0,1012.0,-5.0,1023.2155198197494,2021-08-31 13:38:41.781
767,-254.0,971.0,-6.0,1003.6896930824786,2021-08-31 13:38:41.790
768,-165.0,928.0,-69.0,945.0767164627432,2021-08-31 13:38:41.799
769,-197.0,1106.0,-35.0,1123.952845985987,2021-08-31 13:38:41.809
770,-197.0,1106.0,-35.0,1123.952845985987,2021-08-31 13:38:41.818
771,-197.0,1012.0,-12.0,1031.0659532736013,2021-08-31 13:38:41.819
772,-214.0,913.0,5.0,937.7579645089664,2021-08-31 13:38:41.829
773,-232.0,1061.0,-29.0,1086.455705493786,2021-08-31 13:38:41.838
774,-148.0,1017.0,-86.0,1031.3045137106692,2021-08-31 13:38:41.848
775,-129.0,1000.0,25.0,1008.5960539284298,2021-08-31 13:38:41.858
776,-210.0,908.0,25.0,932.3030623139666,2021-08-31 13:38:41.867
777,-210.0,908.0,-61.0,933.9619906612902,2021-08-31 13:38:41.868
778,-157.0,911.0,-61.0,926.4399602780528,2021-08-31 13:38:41.880
779,-157.0,911.0,-64.0,926.642325819407,2021-08-31 13:38:41.881
780,-145.0,884.0,-43.0,896.844468121424,2021-08-31 13:38:41.887
781,-227.0,884.0,-43.0,913.6925084512842,2021-08-31 13:38:41.896
782,-227.0,1046.0,52.0,1071.6104702735972,2021-08-31 13:38:41.897
783,-194.0,970.0,52.0,990.575590250436,2021-08-31 13:38:41.906
784,-194.0,970.0,-74.0,991.973789976328,2021-08-31 13:38:41.907
785,-236.0,999.0,-28.0,1026.8792528822462,2021-08-31 13:38:41.916
786,-202.0,984.0,-44.0,1005.4829685280602,2021-08-31 13:38:41.926
787,-147.0,896.0,-70.0,910.672828188038,2021-08-31 13:38:41.937
788,-211.0,1053.0,-24.0,1074.200167566548,2021-08-31 13:38:41.946
789,-169.0,1000.0,-44.0,1015.133981304931,2021-08-31 13:38:41.955
790,-167.0,1000.0,-44.0,1014.8029365349709,2021-08-31 13:38:41.965
791,-167.0,910.0,-12.0,925.2745538487482,2021-08-31 13:38:41.966
792,-270.0,1006.0,1.0,1041.603091393262,2021-08-31 13:38:41.975
793,-79.0,969.0,-136.0,981.6812109845029,2021-08-31 13:38:41.985
794,-141.0,977.0,-22.0,987.3672062611762,2021-08-31 13:38:41.994
795,-198.0,956.0,-3.0,976.29350095143,2021-08-31 13:38:42.004
796,-182.0,979.0,-111.0,1001.9411160342707,2021-08-31 13:38:42.014
797,-108.0,979.0,-111.0,991.174051314904,2021-08-31 13:38:42.023
798,-108.0,1003.0,-19.0,1008.9767093446708,2021-08-31 13:38:42.024
799,-161.0,963.0,-26.0,976.711830582593,2021-08-31 13:38:42.033
800,-222.0,946.0,-47.0,972.8355462255684,2021-08-31 13:38:42.044
801,-174.0,1080.0,-30.0,1094.3381561473584,2021-08-31 13:38:42.053
802,-217.0,1012.0,-72.0,1037.505180709957,2021-08-31 13:38:42.063
803,-175.0,902.0,-72.0,921.6360453020488,2021-08-31 13:38:42.072
804,-175.0,902.0,-49.0,920.1249915093058,2021-08-31 13:38:42.073
805,-209.0,1035.0,0.0,1055.8910928689568,2021-08-31 13:38:42.082
806,-118.0,992.0,-90.0,1003.0393810813212,2021-08-31 13:38:42.093
807,-150.0,910.0,11.0,922.3453799960188,2021-08-31 13:38:42.102
808,-262.0,910.0,11.0,947.0295665923002,2021-08-31 13:38:42.111
809,-262.0,918.0,-12.0,954.731375833014,2021-08-31 13:38:42.112
810,-262.0,983.0,-61.0,1019.1437582598444,2021-08-31 13:38:42.122
811,-153.0,1066.0,-6.0,1076.9405740336836,2021-08-31 13:38:42.131
812,-199.0,925.0,-51.0,947.5373343568052,2021-08-31 13:38:42.142
813,-167.0,925.0,-51.0,941.336815385439,2021-08-31 13:38:42.150
814,-167.0,1000.0,-40.0,1014.6373736463682,2021-08-31 13:38:42.151
815,-155.0,1025.0,-32.0,1037.1470483976705,2021-08-31 13:38:42.160
816,-130.0,933.0,-14.0,942.1172963065692,2021-08-31 13:38:42.170
817,-183.0,936.0,-26.0,954.0759927804494,2021-08-31 13:38:42.180
818,-300.0,1015.0,-40.0,1059.162404921927,2021-08-31 13:38:42.190
819,-130.0,988.0,-39.0,997.2787975285548,2021-08-31 13:38:42.199
820,-195.0,988.0,-39.0,1007.814467052344,2021-08-31 13:38:42.209
821,-195.0,993.0,-10.0,1012.0148220258436,2021-08-31 13:38:42.210
822,-188.0,943.0,-22.0,961.809232644395,2021-08-31 13:38:42.219
823,-149.0,1001.0,-46.0,1013.0735412594684,2021-08-31 13:38:42.229
824,-118.0,1001.0,-46.0,1008.9801781997504,2021-08-31 13:38:42.238
825,-118.0,1060.0,-32.0,1067.0276472519352,2021-08-31 13:38:42.239
826,-207.0,937.0,-17.0,959.7431948182806,2021-08-31 13:38:42.249
827,-189.0,999.0,-32.0,1017.2246556193966,2021-08-31 13:38:42.258
828,-146.0,1052.0,-27.0,1062.4259974228794,2021-08-31 13:38:42.268
829,-174.0,952.0,-27.0,968.1471995518036,2021-08-31 13:38:42.278
830,-177.0,975.0,-20.0,991.1377300859856,2021-08-31 13:38:42.287
831,-188.0,1118.0,-33.0,1134.1767939787871,2021-08-31 13:38:42.298
832,-141.0,1009.0,-23.0,1019.0637860310806,2021-08-31 13:38:42.307
833,-235.0,1009.0,-23.0,1036.2601024839275,2021-08-31 13:38:42.316
834,-235.0,927.0,-18.0,956.4925509380614,2021-08-31 13:38:42.317
835,-182.0,967.0,-86.0,987.7292139042968,2021-08-31 13:38:42.326
836,-140.0,1054.0,-40.0,1064.0093984547318,2021-08-31 13:38:42.336
837,-202.0,1032.0,-2.0,1051.5854696599797,2021-08-31 13:38:42.346
838,-221.0,1032.0,-2.0,1055.3999241993529,2021-08-31 13:38:42.355
839,-221.0,899.0,-23.0,926.0512944756354,2021-08-31 13:38:42.356
840,-200.0,1040.0,8.0,1059.086398741859,2021-08-31 13:38:42.366
841,-248.0,1016.0,-42.0,1046.6728237610837,2021-08-31 13:38:42.375
842,-156.0,921.0,-28.0,934.5378537009616,2021-08-31 13:38:42.385
843,-162.0,949.0,-46.0,963.8262291512926,2021-08-31 13:38:42.395
844,-167.0,1074.0,-46.0,1087.879129315385,2021-08-31 13:38:42.405
845,-167.0,1074.0,-6.0,1086.9227203439991,2021-08-31 13:38:42.406
846,-205.0,1005.0,-43.0,1026.5958308896447,2021-08-31 13:38:42.414
847,-148.0,926.0,-10.0,937.8059500770936,2021-08-31 13:38:42.424
848,-145.0,1049.0,-34.0,1059.5197025067537,2021-08-31 13:38:42.434
849,-213.0,1005.0,-34.0,1027.8861804694136,2021-08-31 13:38:42.443
850,-213.0,1005.0,-21.0,1027.5383204533057,2021-08-31 13:38:42.444
851,-153.0,1013.0,23.0,1024.7472859198017,2021-08-31 13:38:42.454
852,-151.0,983.0,-6.0,994.5481386036575,2021-08-31 13:38:42.488
853,-151.0,1049.0,-20.0,1060.0009433958066,2021-08-31 13:38:42.489
854,-206.0,951.0,-51.0,974.3910919133036,2021-08-31 13:38:42.492
855,-193.0,1011.0,-14.0,1029.352223488151,2021-08-31 13:38:42.502
856,-150.0,1011.0,-14.0,1022.1629028682268,2021-08-31 13:38:42.517
857,-150.0,1082.0,-30.0,1092.759808924175,2021-08-31 13:38:42.518
858,-204.0,989.0,-39.0,1010.5731047282032,2021-08-31 13:38:42.522
859,-156.0,939.0,-39.0,952.6688826659556,2021-08-31 13:38:42.542
860,-156.0,1026.0,-63.0,1039.702361255374,2021-08-31 13:38:42.543
861,-199.0,1013.0,-20.0,1032.5550832764322,2021-08-31 13:38:42.552
862,-193.0,901.0,-20.0,921.6561180830952,2021-08-31 13:38:42.560
863,-193.0,901.0,-34.0,922.0661581470172,2021-08-31 13:38:42.561
864,-188.0,1016.0,-3.0,1033.2516634392612,2021-08-31 13:38:42.580
865,-127.0,1048.0,-65.0,1057.6662989809215,2021-08-31 13:38:42.582
866,-220.0,953.0,-47.0,979.1925244812688,2021-08-31 13:38:42.591
867,-131.0,990.0,-13.0,998.7141733248808,2021-08-31 13:38:42.600
868,-130.0,1119.0,-13.0,1126.6010829037934,2021-08-31 13:38:42.609
869,-130.0,1119.0,-61.0,1128.176404646011,2021-08-31 13:38:42.610
870,-226.0,1009.0,-41.0,1034.813026589828,2021-08-31 13:38:42.619
871,-214.0,888.0,30.0,913.914656847126,2021-08-31 13:38:42.629
872,-198.0,932.0,-75.0,955.7473515526998,2021-08-31 13:38:42.639
873,-221.0,963.0,-59.0,989.7934127887496,2021-08-31 13:38:42.650
874,-228.0,950.0,-40.0,977.795479637741,2021-08-31 13:38:42.658
875,-228.0,982.0,12.0,1008.1924419474686,2021-08-31 13:38:42.668
876,-122.0,1062.0,-62.0,1070.7810233656553,2021-08-31 13:38:42.678
877,-134.0,1062.0,-62.0,1072.2145307726437,2021-08-31 13:38:42.687
878,-134.0,1004.0,-91.0,1016.982300730942,2021-08-31 13:38:42.688
879,-176.0,959.0,2.0,975.018461363681,2021-08-31 13:38:42.699
880,-229.0,898.0,-39.0,927.559162533582,2021-08-31 13:38:42.707
881,-223.0,960.0,-67.0,987.8350064661608,2021-08-31 13:38:42.717
882,-159.0,960.0,-67.0,975.381976458454,2021-08-31 13:38:42.726
883,-159.0,1040.0,-3.0,1052.088399327737,2021-08-31 13:38:42.727
884,-163.0,954.0,-55.0,969.386403865868,2021-08-31 13:38:42.737
885,-203.0,1016.0,-52.0,1037.385656349653,2021-08-31 13:38:42.746
886,-157.0,1050.0,-48.0,1062.757262972124,2021-08-31 13:38:42.756
887,-187.0,1050.0,-48.0,1067.601517421177,2021-08-31 13:38:42.765
888,-187.0,958.0,-11.0,976.1424076434748,2021-08-31 13:38:42.766
889,-240.0,891.0,-11.0,922.8228432369888,2021-08-31 13:38:42.775
890,-240.0,891.0,-13.0,922.8488500290824,2021-08-31 13:38:42.776
891,-230.0,981.0,-28.0,1007.990575352766,2021-08-31 13:38:42.785
892,-137.0,1009.0,-44.0,1019.2085164479348,2021-08-31 13:38:42.796
893,-223.0,923.0,-13.0,949.64572341479,2021-08-31 13:38:42.805
894,-218.0,1024.0,-13.0,1047.0286529030616,2021-08-31 13:38:42.814
895,-218.0,1024.0,-26.0,1047.2707386344755,2021-08-31 13:38:42.815
896,-84.0,1053.0,-92.0,1060.343812166601,2021-08-31 13:38:42.824
897,-163.0,999.0,-14.0,1012.3072656066438,2021-08-31 13:38:42.834
898,-248.0,899.0,-10.0,932.6333684787394,2021-08-31 13:38:42.845
899,-193.0,899.0,-10.0,919.5379274396462,2021-08-31 13:38:42.853
900,-193.0,979.0,-13.0,997.9273520652694,2021-08-31 13:38:42.854
901,-124.0,1037.0,-31.0,1044.847357272822,2021-08-31 13:38:42.863
902,-139.0,950.0,-28.0,960.5232948762878,2021-08-31 13:38:42.873
903,-200.0,930.0,-33.0,951.8345444456196,2021-08-31 13:38:42.883
904,-255.0,1035.0,-48.0,1067.0304587967487,2021-08-31 13:38:42.893
905,-195.0,1038.0,-9.0,1056.1960045370367,2021-08-31 13:38:42.902
906,-232.0,989.0,13.0,1015.9301157067842,2021-08-31 13:38:42.913
907,-234.0,989.0,13.0,1016.3887051714024,2021-08-31 13:38:42.922
908,-234.0,1018.0,-28.0,1044.922963667657,2021-08-31 13:38:42.924
909,-172.0,1018.0,-28.0,1032.807823363088,2021-08-31 13:38:42.931
910,-172.0,1051.0,-30.0,1065.4036793628975,2021-08-31 13:38:42.932
911,-186.0,959.0,-30.0,977.3315711671244,2021-08-31 13:38:42.941
912,-186.0,959.0,8.0,976.9037823654896,2021-08-31 13:38:42.942
913,-196.0,959.0,8.0,978.8569864898548,2021-08-31 13:38:42.952
914,-196.0,935.0,-58.0,957.0815012317394,2021-08-31 13:38:42.953
915,-271.0,972.0,-58.0,1010.736859919534,2021-08-31 13:38:42.961
916,-271.0,972.0,-22.0,1009.3111512313732,2021-08-31 13:38:42.962
917,-155.0,1001.0,-27.0,1013.2891986002812,2021-08-31 13:38:42.971
918,-168.0,940.0,-27.0,955.2763997922276,2021-08-31 13:38:42.980
919,-168.0,940.0,-10.0,954.9471189547618,2021-08-31 13:38:42.981
920,-191.0,949.0,-7.0,968.0552670173332,2021-08-31 13:38:42.990
921,-169.0,1048.0,-72.0,1063.977913304595,2021-08-31 13:38:43.001
922,-124.0,1085.0,-4.0,1092.070052698086,2021-08-31 13:38:43.010
923,-225.0,1085.0,-4.0,1108.091151485292,2021-08-31 13:38:43.019
924,-225.0,907.0,-7.0,934.5175225751522,2021-08-31 13:38:43.020
925,-203.0,937.0,-69.0,961.217457186458,2021-08-31 13:38:43.029
926,-125.0,1064.0,-12.0,1071.38461814607,2021-08-31 13:38:43.039
927,-244.0,969.0,-7.0,999.2727355432048,2021-08-31 13:38:43.050
928,-162.0,969.0,-7.0,982.4734093093816,2021-08-31 13:38:43.058
929,-162.0,1018.0,6.0,1030.8268525800054,2021-08-31 13:38:43.059
930,-207.0,1057.0,6.0,1077.0951675687716,2021-08-31 13:38:43.068
931,-207.0,1057.0,-46.0,1078.0602951597837,2021-08-31 13:38:43.069
932,-150.0,999.0,-38.0,1010.9129537205466,2021-08-31 13:38:43.078
933,-219.0,964.0,-1.0,988.5636044281622,2021-08-31 13:38:43.088
934,-182.0,937.0,-54.0,956.0381791539498,2021-08-31 13:38:43.098
935,-173.0,937.0,-54.0,954.3657579775168,2021-08-31 13:38:43.108
936,-173.0,1039.0,-40.0,1054.063565445652,2021-08-31 13:38:43.109
937,-205.0,1019.0,-10.0,1039.4642851007436,2021-08-31 13:38:43.118
938,-187.0,953.0,0.0,971.1735169371124,2021-08-31 13:38:43.129
939,-117.0,1007.0,-65.0,1015.855796853077,2021-08-31 13:38:43.137
940,-218.0,1042.0,-65.0,1066.5425448616666,2021-08-31 13:38:43.146
941,-218.0,1042.0,-42.0,1065.388192162838,2021-08-31 13:38:43.147
942,-189.0,1000.0,2.0,1017.7057531526488,2021-08-31 13:38:43.157
943,-143.0,981.0,0.0,991.367742061441,2021-08-31 13:38:43.166
944,-192.0,983.0,-92.0,1005.791727943713,2021-08-31 13:38:43.176
945,-201.0,983.0,-92.0,1007.548509998402,2021-08-31 13:38:43.185
946,-201.0,999.0,-23.0,1019.2796475943194,2021-08-31 13:38:43.186
947,-226.0,891.0,-18.0,919.3916466881784,2021-08-31 13:38:43.195
948,-196.0,1013.0,-38.0,1032.4868037897627,2021-08-31 13:38:43.206
949,-195.0,1035.0,-27.0,1053.555409079181,2021-08-31 13:38:43.215
950,-143.0,1035.0,-27.0,1045.1808455956318,2021-08-31 13:38:43.224
951,-143.0,969.0,-4.0,979.5029351666078,2021-08-31 13:38:43.225
952,-175.0,1015.0,-4.0,1029.983495013391,2021-08-31 13:38:43.234
953,-175.0,1015.0,-8.0,1030.006796094084,2021-08-31 13:38:43.235
954,-121.0,1029.0,-82.0,1039.3295916118236,2021-08-31 13:38:43.244
955,-158.0,1014.0,-26.0,1026.5651464958275,2021-08-31 13:38:43.254
956,-193.0,942.0,-20.0,961.7759614380057,2021-08-31 13:38:43.265
957,-217.0,1011.0,-22.0,1034.260122019601,2021-08-31 13:38:43.274
958,-77.0,1023.0,-65.0,1027.9508743125812,2021-08-31 13:38:43.283
959,-181.0,976.0,-33.0,993.1898106605806,2021-08-31 13:38:43.293
960,-221.0,963.0,20.0,988.235801820598,2021-08-31 13:38:43.303
961,-137.0,963.0,20.0,972.9018449977368,2021-08-31 13:38:43.313
962,-137.0,938.0,-112.0,954.5454415584414,2021-08-31 13:38:43.314
963,-166.0,985.0,1.0,998.8903843765842,2021-08-31 13:38:43.322
964,-225.0,951.0,-30.0,977.714682307676,2021-08-31 13:38:43.332
965,-232.0,979.0,0.0,1006.1138106596092,2021-08-31 13:38:43.342
966,-196.0,979.0,0.0,998.4272632495567,2021-08-31 13:38:43.351
967,-196.0,1053.0,-53.0,1072.3963819409314,2021-08-31 13:38:43.352
968,-187.0,942.0,-70.0,962.9293847422042,2021-08-31 13:38:43.362
969,-140.0,1024.0,13.0,1033.6077592588013,2021-08-31 13:38:43.371
970,-167.0,1088.0,-20.0,1100.923703078465,2021-08-31 13:38:43.382
971,-140.0,978.0,-49.0,989.184007149327,2021-08-31 13:38:43.391
972,-169.0,938.0,31.0,953.606837223811,2021-08-31 13:38:43.400
973,-176.0,881.0,-64.0,900.6847395176627,2021-08-31 13:38:43.410
974,-211.0,936.0,-63.0,961.5539506444763,2021-08-31 13:38:43.421
975,-152.0,1024.0,-5.0,1035.231858087839,2021-08-31 13:38:43.430
976,-166.0,927.0,-5.0,941.7589925240958,2021-08-31 13:38:43.439
977,-166.0,927.0,-16.0,941.8816273821247,2021-08-31 13:38:43.440
978,-160.0,1065.0,-34.0,1077.4882829989383,2021-08-31 13:38:43.449
979,-147.0,1027.0,-65.0,1039.5013227504812,2021-08-31 13:38:43.459
980,-184.0,948.0,-5.0,965.7044061202164,2021-08-31 13:38:43.470
981,-225.0,948.0,-5.0,974.347987117539,2021-08-31 13:38:43.478
982,-225.0,957.0,-57.0,984.7451446948088,2021-08-31 13:38:43.479
983,-180.0,1025.0,-50.0,1041.885310386897,2021-08-31 13:38:43.529
984,-180.0,1053.0,5.0,1068.2855423527924,2021-08-31 13:38:43.535
985,-114.0,1075.0,-46.0,1082.0060073770385,2021-08-31 13:38:43.541
986,-142.0,954.0,-40.0,965.3393185818136,2021-08-31 13:38:43.544
987,-267.0,932.0,2.0,969.4931665566291,2021-08-31 13:38:43.547
988,-205.0,995.0,-55.0,1017.3863572900908,2021-08-31 13:38:43.557
989,-157.0,960.0,-55.0,974.3069331581296,2021-08-31 13:38:43.566
990,-157.0,960.0,-77.0,975.796085255521,2021-08-31 13:38:43.567
991,-234.0,972.0,-13.0,999.8544894133346,2021-08-31 13:38:43.577
992,-168.0,1001.0,-75.0,1017.7671639427164,2021-08-31 13:38:43.587
993,-128.0,1031.0,-51.0,1040.1663328525876,2021-08-31 13:38:43.604
994,-198.0,1052.0,-10.0,1070.5176318024846,2021-08-31 13:38:43.608
995,-211.0,851.0,-10.0,876.824954024462,2021-08-31 13:38:43.615
996,-211.0,851.0,-52.0,878.3086018023506,2021-08-31 13:38:43.616
997,-178.0,962.0,-38.0,979.0669027191144,2021-08-31 13:38:43.626
998,-188.0,1081.0,-38.0,1097.8838736405594,2021-08-31 13:38:43.635
999,-200.0,934.0,-3.0,955.1779938838624,2021-08-31 13:38:43.646
1000,-253.0,888.0,-24.0,923.649825420868,2021-08-31 13:38:43.654
1001,-217.0,1051.0,-15.0,1073.2730314323564,2021-08-31 13:38:43.664
1002,-188.0,1044.0,-38.0,1061.4725620570698,2021-08-31 13:38:43.674
1003,-162.0,970.0,-38.0,984.1686847283854,2021-08-31 13:38:43.685
1004,-162.0,970.0,-29.0,983.862287111362,2021-08-31 13:38:43.686
1005,-162.0,961.0,-40.0,975.3794133566691,2021-08-31 13:38:43.693
1006,-123.0,1048.0,-48.0,1056.2845260629354,2021-08-31 13:38:43.703
1007,-168.0,966.0,-21.0,980.7247320221918,2021-08-31 13:38:43.713
1008,-180.0,896.0,-27.0,914.3002789018497,2021-08-31 13:38:43.723
1009,-193.0,896.0,-27.0,916.9481991912083,2021-08-31 13:38:43.733
1010,-193.0,1012.0,-54.0,1031.6535271107252,2021-08-31 13:38:43.734
1011,-154.0,1013.0,-26.0,1024.9687800123477,2021-08-31 13:38:43.742
1012,-213.0,970.0,10.0,993.16111482478,2021-08-31 13:38:43.752
1013,-228.0,948.0,-12.0,975.1061480679936,2021-08-31 13:38:43.763
1014,-152.0,1042.0,-77.0,1055.8394764356938,2021-08-31 13:38:43.772
1015,-168.0,1091.0,-28.0,1104.2142002347189,2021-08-31 13:38:43.782
1016,-212.0,1091.0,-28.0,1111.759416420657,2021-08-31 13:38:43.791
1017,-212.0,919.0,5.0,943.1489808084405,2021-08-31 13:38:43.792
1018,-186.0,934.0,-51.0,953.7048809773388,2021-08-31 13:38:43.801
1019,-133.0,934.0,-51.0,944.7994496188066,2021-08-31 13:38:43.810
1020,-133.0,1080.0,-50.0,1089.3066602201604,2021-08-31 13:38:43.811
1021,-189.0,942.0,-37.0,961.4853093001474,2021-08-31 13:38:43.820
1022,-228.0,926.0,-2.0,953.65821969928,2021-08-31 13:38:43.831
1023,-219.0,1040.0,-63.0,1064.673658920892,2021-08-31 13:38:43.841
1024,-101.0,1040.0,-63.0,1046.7903323970852,2021-08-31 13:38:43.849
1025,-101.0,1044.0,-61.0,1050.6464676569374,2021-08-31 13:38:43.850
1026,-140.0,937.0,-61.0,949.3629442947516,2021-08-31 13:38:43.859
1027,-140.0,937.0,-40.0,948.245221448545,2021-08-31 13:38:43.860
1028,-194.0,943.0,-29.0,963.1853404200044,2021-08-31 13:38:43.869
1029,-180.0,1027.0,-66.0,1044.7415948453474,2021-08-31 13:38:43.879
1030,-223.0,980.0,13.0,1005.1358117189936,2021-08-31 13:38:43.890
1031,-258.0,980.0,13.0,1013.4757027181264,2021-08-31 13:38:43.898
1032,-258.0,928.0,-23.0,963.4713280632692,2021-08-31 13:38:43.899
1033,-151.0,973.0,-87.0,988.4831814451876,2021-08-31 13:38:43.908
1034,-203.0,1078.0,14.0,1097.036462475154,2021-08-31 13:38:43.918
1035,-117.0,956.0,-30.0,963.6000207555,2021-08-31 13:38:43.928
1036,-138.0,970.0,-17.0,979.9147922140986,2021-08-31 13:38:43.939
1037,-244.0,1032.0,-44.0,1061.3651586518183,2021-08-31 13:38:43.947
1038,-177.0,955.0,-72.0,973.929155534426,2021-08-31 13:38:43.957
1039,-241.0,896.0,22.0,928.106136171936,2021-08-31 13:38:43.967
1040,-174.0,1042.0,-25.0,1056.723710342491,2021-08-31 13:38:43.977
1041,-125.0,1021.0,-25.0,1028.927111121094,2021-08-31 13:38:43.987
1042,-125.0,1021.0,-94.0,1032.9094829654723,2021-08-31 13:38:43.988
1043,-108.0,955.0,2.0,961.0894859481087,2021-08-31 13:38:43.997
1044,-181.0,998.0,-1.0,1014.2810261461073,2021-08-31 13:38:44.006
1045,-182.0,924.0,-98.0,946.8389514590114,2021-08-31 13:38:44.016
1046,-228.0,1010.0,16.0,1035.538507251179,2021-08-31 13:38:44.026
1047,-271.0,982.0,-16.0,1018.8331561153672,2021-08-31 13:38:44.036
1048,-198.0,967.0,-53.0,988.4846989205244,2021-08-31 13:38:44.046
1049,-117.0,1092.0,-46.0,1099.2129002154222,2021-08-31 13:38:44.055
1050,-196.0,1092.0,-46.0,1110.4035302537543,2021-08-31 13:38:44.064
1051,-196.0,946.0,-33.0,966.6545401538236,2021-08-31 13:38:44.065
1052,-171.0,941.0,22.0,956.6639953505096,2021-08-31 13:38:44.074
1053,-177.0,1083.0,22.0,1097.5891763314723,2021-08-31 13:38:44.084
1054,-177.0,1083.0,-20.0,1097.5509099809449,2021-08-31 13:38:44.085
1055,-153.0,1041.0,15.0,1052.290359168989,2021-08-31 13:38:44.095
1056,-176.0,1041.0,15.0,1055.879727999359,2021-08-31 13:38:44.103
1057,-176.0,919.0,-55.0,937.3163820183664,2021-08-31 13:38:44.104
1058,-240.0,1036.0,0.0,1063.4359407129327,2021-08-31 13:38:44.113
1059,-94.0,1128.0,-69.0,1134.0110228741164,2021-08-31 13:38:44.124
1060,-134.0,989.0,-50.0,999.2882467036226,2021-08-31 13:38:44.133
1061,-220.0,978.0,0.0,1002.439025577117,2021-08-31 13:38:44.143
1062,-152.0,1047.0,0.0,1057.9758976460664,2021-08-31 13:38:44.153
1063,-152.0,1047.0,-8.0,1058.006143649459,2021-08-31 13:38:44.154
1064,-139.0,991.0,-83.0,1004.13694285192,2021-08-31 13:38:44.162
1065,-144.0,922.0,-9.0,933.2207670213944,2021-08-31 13:38:44.172
1066,-232.0,928.0,-45.0,957.6183999903092,2021-08-31 13:38:44.182
1067,-184.0,928.0,-45.0,947.1351540303,2021-08-31 13:38:44.191
1068,-184.0,1004.0,-41.0,1021.5444190048712,2021-08-31 13:38:44.192
1069,-124.0,1030.0,0.0,1037.4372270166518,2021-08-31 13:38:44.202
1070,-216.0,942.0,-11.0,966.5096998995924,2021-08-31 13:38:44.211
1071,-201.0,1025.0,-43.0,1045.4066194548416,2021-08-31 13:38:44.221
1072,-145.0,1045.0,-20.0,1055.2014025767785,2021-08-31 13:38:44.231
1073,-218.0,939.0,-27.0,964.351595633045,2021-08-31 13:38:44.240
1074,-225.0,954.0,1.0,980.1744742646588,2021-08-31 13:38:44.251
1075,-146.0,1065.0,-69.0,1077.1731522833272,2021-08-31 13:38:44.260
1076,-138.0,1032.0,-62.0,1043.030200905036,2021-08-31 13:38:44.270
1077,-182.0,939.0,-5.0,956.4883689831256,2021-08-31 13:38:44.279
1078,-201.0,959.0,-6.0,979.8561118858216,2021-08-31 13:38:44.289
1079,-164.0,1057.0,-60.0,1071.3286143849607,2021-08-31 13:38:44.299
1080,-198.0,960.0,-39.0,980.9816512045472,2021-08-31 13:38:44.310
1081,-223.0,960.0,-39.0,986.3315872463986,2021-08-31 13:38:44.318
1082,-223.0,933.0,18.0,959.4488000930536,2021-08-31 13:38:44.319
1083,-192.0,933.0,18.0,952.7208405403968,2021-08-31 13:38:44.330
1084,-192.0,986.0,-48.0,1005.66594851372,2021-08-31 13:38:44.331
1085,-155.0,1020.0,-8.0,1031.7407620134045,2021-08-31 13:38:44.339
1086,-251.0,991.0,47.0,1023.372366247985,2021-08-31 13:38:44.348
1087,-194.0,1109.0,-12.0,1125.90452525958,2021-08-31 13:38:44.359
1088,-191.0,1011.0,-61.0,1030.6905452171377,2021-08-31 13:38:44.367
1089,-239.0,1027.0,28.0,1054.8146756658252,2021-08-31 13:38:44.377
1090,-248.0,889.0,-59.0,924.8275514927094,2021-08-31 13:38:44.387
1091,-172.0,889.0,-59.0,907.40619349881,2021-08-31 13:38:44.396
1092,-172.0,897.0,-28.0,913.7707589981198,2021-08-31 13:38:44.397
1093,-188.0,1135.0,-11.0,1150.51727496809,2021-08-31 13:38:44.407
1094,-88.0,916.0,-21.0,920.4569517364732,2021-08-31 13:38:44.417
1095,-227.0,941.0,6.0,968.011363569664,2021-08-31 13:38:44.426
1096,-226.0,1107.0,-60.0,1131.426091267123,2021-08-31 13:38:44.436
1097,-150.0,940.0,-60.0,953.7819457297354,2021-08-31 13:38:44.445
1098,-150.0,940.0,-80.0,955.24865872714,2021-08-31 13:38:44.446
1099,-207.0,1040.0,12.0,1060.4682927839003,2021-08-31 13:38:44.456
1100,-219.0,925.0,-5.0,950.5845569963778,2021-08-31 13:38:44.465
1101,-195.0,1020.0,-80.0,1041.5493267243755,2021-08-31 13:38:44.475
1102,-165.0,1020.0,-80.0,1036.3517742542829,2021-08-31 13:38:44.484
1103,-165.0,983.0,16.0,996.880133215624,2021-08-31 13:38:44.485
1104,-166.0,921.0,-52.0,937.2838417469918,2021-08-31 13:38:44.495
1105,-142.0,957.0,-90.0,971.654774083882,2021-08-31 13:38:44.504
1106,-216.0,1089.0,13.0,1110.290952858754,2021-08-31 13:38:44.514
1107,-158.0,968.0,13.0,980.896018954099,2021-08-31 13:38:44.523
1108,-158.0,968.0,-25.0,981.1284319598532,2021-08-31 13:38:44.524
1109,-149.0,935.0,-33.0,947.3726827389526,2021-08-31 13:38:44.533
1110,-178.0,1144.0,-42.0,1158.5266505350664,2021-08-31 13:38:44.579
1111,-285.0,1144.0,-42.0,1179.713948379013,2021-08-31 13:38:44.583
1112,-285.0,969.0,-62.0,1011.9436743218469,2021-08-31 13:38:44.584
1113,-150.0,981.0,-110.0,998.4793438023644,2021-08-31 13:38:44.586
1114,-202.0,1036.0,17.0,1055.6462475659164,2021-08-31 13:38:44.592
1115,-226.0,897.0,-38.0,925.8126160298314,2021-08-31 13:38:44.602
1116,-157.0,1026.0,-99.0,1042.653346035968,2021-08-31 13:38:44.611
1117,-209.0,974.0,0.0,996.1711700305324,2021-08-31 13:38:44.629
1118,-240.0,953.0,27.0,983.1266449445868,2021-08-31 13:38:44.635
1119,-261.0,863.0,-42.0,902.5818522438838,2021-08-31 13:38:44.641
1120,-160.0,863.0,-42.0,878.7109877542217,2021-08-31 13:38:44.650
1121,-160.0,1064.0,-39.0,1076.6694014413151,2021-08-31 13:38:44.651
1122,-138.0,966.0,-66.0,978.0368091232558,2021-08-31 13:38:44.661
1123,-202.0,896.0,-11.0,918.5537545511422,2021-08-31 13:38:44.670
1124,-178.0,1057.0,-8.0,1071.9127763022511,2021-08-31 13:38:44.680
1125,-133.0,1021.0,-8.0,1029.6572245169748,2021-08-31 13:38:44.689
1126,-133.0,1021.0,-40.0,1030.4028338470348,2021-08-31 13:38:44.690
1127,-187.0,969.0,10.0,986.9295820878002,2021-08-31 13:38:44.700
1128,-224.0,922.0,-60.0,950.7155200163716,2021-08-31 13:38:44.710
1129,-181.0,965.0,-104.0,987.3206166185328,2021-08-31 13:38:44.719
1130,-142.0,965.0,-104.0,980.9204860741772,2021-08-31 13:38:44.728
1131,-142.0,1010.0,-49.0,1021.1096904838382,2021-08-31 13:38:44.729
1132,-276.0,969.0,-22.0,1007.7802339796112,2021-08-31 13:38:44.738
1133,-156.0,976.0,-39.0,989.1577225094084,2021-08-31 13:38:44.748
1134,-166.0,1044.0,-43.0,1057.9891303789468,2021-08-31 13:38:44.759
1135,-137.0,980.0,-25.0,989.8454424807944,2021-08-31 13:38:44.768
1136,-163.0,912.0,-25.0,926.7890806434872,2021-08-31 13:38:44.777
1137,-163.0,912.0,-5.0,926.4653258487336,2021-08-31 13:38:44.778
1138,-175.0,1044.0,-81.0,1061.660020910649,2021-08-31 13:38:44.787
