,Acceleration_X,Acceleration_Y,Acceleration_Z,magnitude,time_stamp
0,-101.0,1023.0,-171.0,1042.0993234812122,2021-09-02 05:32:00.861
1,-49.0,979.0,-171.0,995.0291453017846,2021-09-02 05:32:00.870
2,-49.0,979.0,93.0,984.627340672602,2021-09-02 05:32:00.871
3,-275.0,848.0,-59.0,893.4259902196712,2021-09-02 05:32:00.880
4,-228.0,848.0,-59.0,880.096017489001,2021-09-02 05:32:00.890
5,-228.0,1118.0,-61.0,1142.6412385346505,2021-09-02 05:32:00.891
6,-92.0,964.0,-79.0,971.5971387360092,2021-09-02 05:32:00.900
7,-222.0,964.0,-79.0,992.3814790694151,2021-09-02 05:32:00.909
8,-222.0,950.0,-29.0,976.0251021362104,2021-09-02 05:32:00.910
9,-219.0,1033.0,-76.0,1058.6907008187047,2021-09-02 05:32:00.919
10,-50.0,1085.0,1.0,1086.1519230752206,2021-09-02 05:32:00.930
11,-151.0,955.0,-103.0,972.3348188767076,2021-09-02 05:32:00.939
12,-175.0,955.0,-103.0,976.349834844048,2021-09-02 05:32:00.948
13,-175.0,854.0,32.0,872.3330785886776,2021-09-02 05:32:00.949
14,-248.0,1037.0,39.0,1066.955481732954,2021-09-02 05:32:00.959
15,-221.0,983.0,-90.0,1011.5483181736796,2021-09-02 05:32:00.968
16,-162.0,966.0,-90.0,983.6157786453,2021-09-02 05:32:00.978
17,-162.0,966.0,15.0,979.6045120353416,2021-09-02 05:32:00.979
18,-180.0,1051.0,1.0,1066.3029588254926,2021-09-02 05:32:00.988
19,-179.0,937.0,1.0,953.9449669661244,2021-09-02 05:32:00.997
20,-179.0,937.0,-74.0,956.810326031236,2021-09-02 05:32:00.998
21,-143.0,937.0,-74.0,950.7334011172638,2021-09-02 05:32:01.007
22,-143.0,994.0,-38.0,1004.9522376710248,2021-09-02 05:32:01.008
23,-151.0,935.0,-1.0,947.115093322876,2021-09-02 05:32:01.017
24,-222.0,906.0,-49.0,934.0883255881106,2021-09-02 05:32:01.027
25,-285.0,906.0,-49.0,951.0320709629092,2021-09-02 05:32:01.036
26,-285.0,1020.0,-23.0,1059.3177049403073,2021-09-02 05:32:01.037
27,-214.0,976.0,11.0,999.2462159047687,2021-09-02 05:32:01.047
28,-95.0,957.0,-22.0,961.9553004168124,2021-09-02 05:32:01.056
29,-225.0,1030.0,-75.0,1056.9531683097412,2021-09-02 05:32:01.066
30,-175.0,1030.0,-75.0,1047.4492827817487,2021-09-02 05:32:01.075
31,-175.0,1072.0,34.0,1086.7221355986082,2021-09-02 05:32:01.076
32,-227.0,949.0,1.0,975.7720020578578,2021-09-02 05:32:01.086
33,-219.0,923.0,-106.0,954.5292033248644,2021-09-02 05:32:01.095
34,-98.0,1050.0,-5.0,1054.5752699546863,2021-09-02 05:32:01.105
35,-175.0,1005.0,-74.0,1022.8030113369828,2021-09-02 05:32:01.115
36,-243.0,1046.0,-74.0,1076.4018766241538,2021-09-02 05:32:01.124
37,-243.0,1046.0,56.0,1075.3143726371372,2021-09-02 05:32:01.125
38,-202.0,1001.0,56.0,1022.7125695912806,2021-09-02 05:32:01.134
39,-202.0,1001.0,-88.0,1024.9629261587952,2021-09-02 05:32:01.135
40,-66.0,1068.0,-21.0,1070.2434302531365,2021-09-02 05:32:01.144
41,-201.0,956.0,-27.0,977.2747822388544,2021-09-02 05:32:01.154
42,-238.0,937.0,-27.0,967.1308081123256,2021-09-02 05:32:01.163
43,-238.0,937.0,-71.0,969.3575191847432,2021-09-02 05:32:01.164
44,-100.0,1036.0,-17.0,1040.953889468693,2021-09-02 05:32:01.173
45,-195.0,968.0,-73.0,990.1403940856064,2021-09-02 05:32:01.183
46,-180.0,968.0,-73.0,987.2958016724268,2021-09-02 05:32:01.193
47,-180.0,964.0,9.0,980.7022993752996,2021-09-02 05:32:01.194
48,-154.0,982.0,0.0,994.0020120703982,2021-09-02 05:32:01.203
49,-156.0,995.0,-56.0,1008.7105630457132,2021-09-02 05:32:01.212
50,-186.0,912.0,-19.0,930.9677760266464,2021-09-02 05:32:01.223
51,-145.0,928.0,-4.0,939.268332267196,2021-09-02 05:32:01.232
52,-101.0,928.0,-4.0,933.4886180345212,2021-09-02 05:32:01.242
53,-101.0,999.0,-19.0,1004.2723734127112,2021-09-02 05:32:01.243
54,-141.0,1008.0,-80.0,1020.9529861849664,2021-09-02 05:32:01.251
55,-196.0,937.0,-38.0,958.0339242427692,2021-09-02 05:32:01.261
56,-165.0,993.0,-20.0,1006.8137861590892,2021-09-02 05:32:01.271
57,-101.0,1064.0,-22.0,1069.0093544960212,2021-09-02 05:32:01.281
58,-137.0,915.0,12.0,925.2772557455414,2021-09-02 05:32:01.290
59,-160.0,947.0,-47.0,961.5705902324592,2021-09-02 05:32:01.302
60,-291.0,969.0,-16.0,1011.8784511985616,2021-09-02 05:32:01.310
61,-183.0,989.0,-18.0,1005.9493028975168,2021-09-02 05:32:01.320
62,-174.0,942.0,-18.0,958.104378447359,2021-09-02 05:32:01.329
63,-174.0,942.0,-10.0,957.9874738220744,2021-09-02 05:32:01.330
64,-211.0,1026.0,-32.0,1047.9604000151917,2021-09-02 05:32:01.339
65,-86.0,1076.0,-64.0,1081.3269625788491,2021-09-02 05:32:01.350
66,-153.0,986.0,37.0,998.4858536804616,2021-09-02 05:32:01.361
67,-103.0,986.0,37.0,992.055441999085,2021-09-02 05:32:01.368
68,-103.0,924.0,-20.0,929.938169987661,2021-09-02 05:32:01.369
69,-295.0,956.0,-18.0,1000.6422937293826,2021-09-02 05:32:01.379
70,-252.0,956.0,-18.0,988.8194981896344,2021-09-02 05:32:01.388
71,-252.0,1047.0,-54.0,1078.2527533004495,2021-09-02 05:32:01.389
72,-162.0,1047.0,-54.0,1060.834105786574,2021-09-02 05:32:01.398
73,-162.0,913.0,-27.0,927.6540303367416,2021-09-02 05:32:01.399
74,-199.0,989.0,19.0,1009.0009910797908,2021-09-02 05:32:01.408
75,-146.0,1062.0,19.0,1072.1571713139824,2021-09-02 05:32:01.417
76,-146.0,1062.0,-78.0,1074.822776089156,2021-09-02 05:32:01.418
77,-142.0,1081.0,-47.0,1091.2992256938517,2021-09-02 05:32:01.427
78,-238.0,945.0,-20.0,974.7148300913452,2021-09-02 05:32:01.437
79,-197.0,979.0,-59.0,1000.3654332292774,2021-09-02 05:32:01.447
80,-118.0,1111.0,-59.0,1118.805613142873,2021-09-02 05:32:01.456
81,-118.0,1111.0,4.0,1117.2560136334018,2021-09-02 05:32:01.457
82,-202.0,997.0,-42.0,1018.124255678058,2021-09-02 05:32:01.466
83,-174.0,1031.0,13.0,1045.6605567773895,2021-09-02 05:32:01.476
84,-215.0,976.0,-46.0,1000.4583949370408,2021-09-02 05:32:01.486
85,-150.0,976.0,-46.0,988.5302220974328,2021-09-02 05:32:01.521
86,-150.0,1015.0,-54.0,1027.4439157443096,2021-09-02 05:32:01.522
87,-150.0,1000.0,-27.0,1011.5478238817976,2021-09-02 05:32:01.523
88,-156.0,1034.0,9.0,1045.7404075582049,2021-09-02 05:32:01.527
89,-235.0,1005.0,-47.0,1033.1790745074156,2021-09-02 05:32:01.535
90,-180.0,1000.0,3.0,1016.0752924857488,2021-09-02 05:32:01.544
91,-183.0,930.0,-8.0,947.8676067890494,2021-09-02 05:32:01.554
92,-163.0,1005.0,-102.0,1023.2292020852416,2021-09-02 05:32:01.564
93,-192.0,1044.0,11.0,1061.5653536170064,2021-09-02 05:32:01.574
94,-144.0,982.0,11.0,992.5628443579782,2021-09-02 05:32:01.583
95,-144.0,982.0,33.0,993.0503511907136,2021-09-02 05:32:01.584
96,-89.0,1099.0,14.0,1102.6867188825663,2021-09-02 05:32:01.599
97,-188.0,1019.0,-31.0,1036.6609860508884,2021-09-02 05:32:01.603
98,-150.0,906.0,-30.0,918.8231603524152,2021-09-02 05:32:01.613
99,-234.0,1023.0,-29.0,1049.8218896555738,2021-09-02 05:32:01.623
100,-153.0,1096.0,-29.0,1107.007678383488,2021-09-02 05:32:01.632
101,-128.0,949.0,-26.0,957.9462406628046,2021-09-02 05:32:01.643
102,-81.0,1025.0,-13.0,1028.2776862307185,2021-09-02 05:32:01.652
103,-237.0,1025.0,-13.0,1052.1230916580057,2021-09-02 05:32:01.661
104,-237.0,1017.0,-69.0,1046.5271138389105,2021-09-02 05:32:01.662
105,-138.0,980.0,-65.0,991.8008872752636,2021-09-02 05:32:01.671
106,-183.0,980.0,-65.0,999.0565549557242,2021-09-02 05:32:01.682
107,-183.0,914.0,-55.0,933.76121144541,2021-09-02 05:32:01.683
108,-253.0,1048.0,-21.0,1078.310715888514,2021-09-02 05:32:01.691
109,-129.0,1048.0,-21.0,1056.1183645785163,2021-09-02 05:32:01.700
110,-129.0,973.0,1.0,981.5146458408044,2021-09-02 05:32:01.701
111,-154.0,1012.0,-61.0,1025.4662354265986,2021-09-02 05:32:01.710
112,-167.0,1037.0,23.0,1050.612678392946,2021-09-02 05:32:01.720
113,-232.0,904.0,-76.0,936.3845363951714,2021-09-02 05:32:01.731
114,-164.0,1028.0,-18.0,1041.1551277307335,2021-09-02 05:32:01.740
115,-230.0,976.0,-18.0,1002.8958071504736,2021-09-02 05:32:01.749
116,-230.0,976.0,-11.0,1002.7945951190604,2021-09-02 05:32:01.750
117,-225.0,988.0,-20.0,1013.4934632250964,2021-09-02 05:32:01.759
118,-127.0,1005.0,0.0,1012.9925962217098,2021-09-02 05:32:01.769
119,-114.0,974.0,-61.0,982.5441465908796,2021-09-02 05:32:01.779
120,-265.0,974.0,-61.0,1011.2477441260376,2021-09-02 05:32:01.788
121,-265.0,952.0,-24.0,988.4862163935315,2021-09-02 05:32:01.789
122,-140.0,960.0,-85.0,973.8711413734366,2021-09-02 05:32:01.799
123,-65.0,1077.0,-61.0,1080.6826546216057,2021-09-02 05:32:01.808
124,-201.0,1011.0,-18.0,1030.9442273954494,2021-09-02 05:32:01.818
125,-183.0,877.0,-21.0,896.1355924189152,2021-09-02 05:32:01.838
126,-179.0,877.0,-21.0,895.3273144498609,2021-09-02 05:32:01.840
127,-179.0,982.0,-14.0,998.2790191123922,2021-09-02 05:32:01.841
128,-104.0,974.0,-97.0,984.3276893392768,2021-09-02 05:32:01.848
129,-173.0,946.0,-31.0,962.1881312924204,2021-09-02 05:32:01.857
130,-172.0,1079.0,-31.0,1093.0626697495436,2021-09-02 05:32:01.867
131,-97.0,1078.0,-43.0,1083.2091210841977,2021-09-02 05:32:01.876
132,-205.0,980.0,-10.0,1001.2617040514432,2021-09-02 05:32:01.887
133,-176.0,941.0,-10.0,957.3698344944862,2021-09-02 05:32:01.896
134,-176.0,941.0,9.0,957.359911423076,2021-09-02 05:32:01.897
135,-230.0,942.0,-43.0,970.6250563425612,2021-09-02 05:32:01.906
136,-210.0,1065.0,-44.0,1086.3981774653344,2021-09-02 05:32:01.916
137,-177.0,980.0,0.0,995.8559132725978,2021-09-02 05:32:01.925
138,-120.0,1055.0,5.0,1061.814484738271,2021-09-02 05:32:01.935
139,-254.0,1038.0,-66.0,1070.661477779041,2021-09-02 05:32:01.946
140,-176.0,1038.0,-66.0,1054.8819839204764,2021-09-02 05:32:01.954
141,-176.0,1047.0,-60.0,1063.3837501109372,2021-09-02 05:32:01.955
142,-113.0,908.0,-34.0,915.6358446456758,2021-09-02 05:32:01.964
143,-256.0,1000.0,-15.0,1032.357011890751,2021-09-02 05:32:01.974
144,-321.0,1020.0,-66.0,1071.3528830408775,2021-09-02 05:32:01.984
145,-162.0,966.0,-66.0,981.710751698279,2021-09-02 05:32:01.994
146,-162.0,966.0,13.0,979.575928654844,2021-09-02 05:32:01.995
147,-137.0,1071.0,13.0,1079.8050750019654,2021-09-02 05:32:02.003
148,-137.0,1071.0,4.0,1079.7342265576283,2021-09-02 05:32:02.004
149,-246.0,972.0,-73.0,1005.3004526011116,2021-09-02 05:32:02.013
150,-116.0,1076.0,9.0,1082.2721469205424,2021-09-02 05:32:02.023
151,-223.0,1076.0,9.0,1098.902179450018,2021-09-02 05:32:02.032
152,-223.0,1008.0,-36.0,1033.0,2021-09-02 05:32:02.033
153,-180.0,951.0,-55.0,969.4462336818892,2021-09-02 05:32:02.046
154,-87.0,1068.0,20.0,1071.7243115652457,2021-09-02 05:32:02.053
155,-108.0,952.0,-89.0,962.2312611841292,2021-09-02 05:32:02.062
156,-145.0,1010.0,-22.0,1020.5924749869558,2021-09-02 05:32:02.072
157,-194.0,968.0,-110.0,993.3579415296382,2021-09-02 05:32:02.082
158,-141.0,1110.0,0.0,1118.9195681549234,2021-09-02 05:32:02.092
159,-202.0,916.0,-29.0,938.456711841308,2021-09-02 05:32:02.101
160,-264.0,1008.0,-48.0,1043.1030629808351,2021-09-02 05:32:02.111
161,-94.0,1008.0,-48.0,1013.510730086268,2021-09-02 05:32:02.120
162,-94.0,959.0,-60.0,965.4620655416762,2021-09-02 05:32:02.121
163,-166.0,1020.0,-46.0,1034.4428452070226,2021-09-02 05:32:02.130
164,-225.0,953.0,-46.0,980.2805720812792,2021-09-02 05:32:02.140
165,-225.0,953.0,-15.0,979.3155773293918,2021-09-02 05:32:02.141
166,-136.0,932.0,-45.0,942.9448552274944,2021-09-02 05:32:02.150
167,-245.0,932.0,-45.0,964.7144655285314,2021-09-02 05:32:02.159
168,-245.0,1107.0,0.0,1133.7874580361172,2021-09-02 05:32:02.160
169,-186.0,898.0,-21.0,917.3009320828144,2021-09-02 05:32:02.169
170,-69.0,947.0,-27.0,949.8942046354424,2021-09-02 05:32:02.180
171,-289.0,1038.0,-53.0,1078.783574216812,2021-09-02 05:32:02.189
172,-103.0,1038.0,-53.0,1044.4433924344585,2021-09-02 05:32:02.198
173,-103.0,951.0,-81.0,959.9848957145108,2021-09-02 05:32:02.199
174,-190.0,933.0,-61.0,954.1016717310582,2021-09-02 05:32:02.209
175,-155.0,1105.0,-1.0,1115.8185336334936,2021-09-02 05:32:02.218
176,-67.0,937.0,-60.0,941.3065388065676,2021-09-02 05:32:02.228
177,-182.0,916.0,-18.0,934.0792257619264,2021-09-02 05:32:02.238
178,-171.0,985.0,-37.0,1000.4174128832424,2021-09-02 05:32:02.248
179,-203.0,926.0,-49.0,949.25549774547,2021-09-02 05:32:02.257
180,-257.0,1013.0,-20.0,1045.283693549268,2021-09-02 05:32:02.267
181,-237.0,957.0,11.0,985.971094911002,2021-09-02 05:32:02.277
182,-186.0,1091.0,11.0,1106.796277550661,2021-09-02 05:32:02.288
183,-182.0,998.0,11.0,1014.5190978981124,2021-09-02 05:32:02.296
184,-182.0,998.0,-66.0,1016.6041510834,2021-09-02 05:32:02.297
185,-81.0,1003.0,-61.0,1008.1125929180728,2021-09-02 05:32:02.306
186,-94.0,933.0,-58.0,939.515300567266,2021-09-02 05:32:02.316
187,-279.0,933.0,-58.0,975.5480510974332,2021-09-02 05:32:02.325
188,-279.0,982.0,-47.0,1021.9461825360472,2021-09-02 05:32:02.326
189,-306.0,1012.0,36.0,1057.8638853841264,2021-09-02 05:32:02.336
190,-186.0,995.0,14.0,1012.332455273464,2021-09-02 05:32:02.345
191,-127.0,1083.0,0.0,1090.4210196066472,2021-09-02 05:32:02.358
192,-144.0,1031.0,-98.0,1045.6103480742718,2021-09-02 05:32:02.366
193,-90.0,1089.0,-98.0,1097.098445901734,2021-09-02 05:32:02.374
194,-90.0,1089.0,-20.0,1092.8956949315889,2021-09-02 05:32:02.375
195,-244.0,913.0,-2.0,945.0444433993569,2021-09-02 05:32:02.385
196,-212.0,1038.0,-2.0,1059.430035443587,2021-09-02 05:32:02.394
197,-212.0,1038.0,-57.0,1060.9604139646303,2021-09-02 05:32:02.395
198,-148.0,1038.0,-57.0,1050.0461894602545,2021-09-02 05:32:02.404
199,-148.0,1139.0,5.0,1148.5860873265008,2021-09-02 05:32:02.405
200,-165.0,1139.0,5.0,1150.900082544093,2021-09-02 05:32:02.413
201,-165.0,993.0,-97.0,1011.2779044357688,2021-09-02 05:32:02.414
202,-196.0,897.0,-17.0,918.3212945369391,2021-09-02 05:32:02.423
203,-267.0,1001.0,-54.0,1037.4034894870945,2021-09-02 05:32:02.433
204,-80.0,1009.0,-13.0,1012.2499691281794,2021-09-02 05:32:02.443
205,-274.0,1021.0,-1.0,1057.1272392668727,2021-09-02 05:32:02.453
206,-178.0,955.0,-78.0,974.5732399363324,2021-09-02 05:32:02.462
207,-86.0,1027.0,-18.0,1030.7516674737908,2021-09-02 05:32:02.473
208,-142.0,1038.0,-103.0,1052.718860855072,2021-09-02 05:32:02.482
209,-147.0,1038.0,-103.0,1053.404955370915,2021-09-02 05:32:02.491
210,-147.0,843.0,-60.0,857.8216597871611,2021-09-02 05:32:02.492
211,-223.0,1036.0,35.0,1060.306559444013,2021-09-02 05:32:02.501
212,-201.0,1007.0,-79.0,1029.8985386920403,2021-09-02 05:32:02.512
213,-191.0,916.0,38.0,936.47263708023,2021-09-02 05:32:02.543
214,-112.0,891.0,-88.0,902.3131385500268,2021-09-02 05:32:02.556
215,-258.0,935.0,-21.0,970.170088180418,2021-09-02 05:32:02.562
216,-226.0,1022.0,-5.0,1046.701963311429,2021-09-02 05:32:02.570
217,-175.0,1050.0,-5.0,1064.4951855222268,2021-09-02 05:32:02.579
218,-175.0,1050.0,-35.0,1065.0586838292056,2021-09-02 05:32:02.580
219,-211.0,987.0,-1.0,1009.302234219265,2021-09-02 05:32:02.590
220,-185.0,903.0,-30.0,922.2440024201838,2021-09-02 05:32:02.600
221,-248.0,1034.0,-60.0,1065.0164317981205,2021-09-02 05:32:02.615
222,-127.0,997.0,-61.0,1006.9056559578956,2021-09-02 05:32:02.619
223,-126.0,942.0,-31.0,950.8948417148976,2021-09-02 05:32:02.628
224,-269.0,1047.0,-30.0,1081.4203623013575,2021-09-02 05:32:02.638
225,-103.0,904.0,-90.0,914.289341510662,2021-09-02 05:32:02.649
226,-151.0,904.0,-90.0,920.9326794071324,2021-09-02 05:32:02.657
227,-151.0,1034.0,-21.0,1045.17845366234,2021-09-02 05:32:02.658
228,-155.0,966.0,25.0,978.6756357445504,2021-09-02 05:32:02.668
229,-283.0,1000.0,-88.0,1042.9923297896298,2021-09-02 05:32:02.677
230,-185.0,1048.0,-25.0,1064.497064345412,2021-09-02 05:32:02.687
231,-240.0,933.0,-25.0,963.6980855018858,2021-09-02 05:32:02.697
232,-240.0,933.0,1.0,963.3742782532654,2021-09-02 05:32:02.698
233,-306.0,956.0,-26.0,1004.1155312014648,2021-09-02 05:32:02.708
234,-147.0,1012.0,-37.0,1023.2897927762205,2021-09-02 05:32:02.716
235,-109.0,985.0,-44.0,991.9889112283464,2021-09-02 05:32:02.726
236,-236.0,893.0,-57.0,925.4155823196407,2021-09-02 05:32:02.736
237,-161.0,1062.0,-57.0,1075.64585249979,2021-09-02 05:32:02.745
238,-161.0,1062.0,-46.0,1075.1190631739353,2021-09-02 05:32:02.746
239,-49.0,1085.0,-41.0,1086.8794781391357,2021-09-02 05:32:02.756
240,-164.0,917.0,-65.0,933.8147567906602,2021-09-02 05:32:02.765
241,-134.0,909.0,-57.0,920.590028188444,2021-09-02 05:32:02.775
242,-264.0,909.0,-57.0,948.2752764888476,2021-09-02 05:32:02.784
243,-264.0,991.0,-9.0,1025.6012870506745,2021-09-02 05:32:02.785
244,-77.0,991.0,-9.0,994.0276656109728,2021-09-02 05:32:02.794
245,-77.0,929.0,-81.0,935.6981350841734,2021-09-02 05:32:02.795
246,-227.0,972.0,16.0,998.283026000142,2021-09-02 05:32:02.805
247,-179.0,972.0,16.0,988.474076544246,2021-09-02 05:32:02.814
248,-179.0,943.0,-99.0,964.9305674503216,2021-09-02 05:32:02.815
249,-46.0,1057.0,-73.0,1060.5159121861398,2021-09-02 05:32:02.824
250,-216.0,1023.0,-17.0,1045.693071603709,2021-09-02 05:32:02.833
251,-170.0,878.0,-33.0,894.9150797701423,2021-09-02 05:32:02.843
252,-337.0,984.0,-9.0,1040.1471049808292,2021-09-02 05:32:02.865
253,-337.0,1057.0,-15.0,1109.5237717146938,2021-09-02 05:32:02.867
254,-178.0,970.0,35.0,986.8176123276276,2021-09-02 05:32:02.872
255,-164.0,893.0,-9.0,907.9790746487498,2021-09-02 05:32:02.882
256,-202.0,1018.0,-9.0,1037.886795368358,2021-09-02 05:32:02.892
257,-202.0,1018.0,-80.0,1040.9265103742914,2021-09-02 05:32:02.893
258,-142.0,1104.0,-27.0,1113.4222020419747,2021-09-02 05:32:02.902
259,-135.0,1104.0,-27.0,1112.551122420898,2021-09-02 05:32:02.911
260,-135.0,898.0,-59.0,910.005494488907,2021-09-02 05:32:02.912
261,-236.0,992.0,-17.0,1019.8279266621404,2021-09-02 05:32:02.922
262,-307.0,1057.0,-52.0,1101.9083446457787,2021-09-02 05:32:02.931
263,-158.0,883.0,-44.0,898.10300077441,2021-09-02 05:32:02.941
264,-208.0,1042.0,29.0,1062.9529622706737,2021-09-02 05:32:02.951
265,-342.0,1000.0,-40.0,1057.6218605910149,2021-09-02 05:32:02.960
266,-95.0,1036.0,6.0,1040.3638786501576,2021-09-02 05:32:02.971
267,-229.0,1024.0,-40.0,1050.055712807659,2021-09-02 05:32:02.980
268,-265.0,897.0,-33.0,935.9075809074312,2021-09-02 05:32:02.990
269,-73.0,1068.0,16.0,1070.611507504006,2021-09-02 05:32:02.999
270,-114.0,957.0,-97.0,968.6351222209528,2021-09-02 05:32:03.009
271,-179.0,944.0,-7.0,960.8465017889174,2021-09-02 05:32:03.019
272,-243.0,953.0,-75.0,986.3483157586876,2021-09-02 05:32:03.029
273,-160.0,953.0,-75.0,969.2440353182474,2021-09-02 05:32:03.038
274,-160.0,1146.0,12.0,1157.1776008893362,2021-09-02 05:32:03.039
275,-191.0,905.0,-38.0,925.7159391519624,2021-09-02 05:32:03.049
276,-252.0,905.0,-38.0,940.1983833213072,2021-09-02 05:32:03.058
277,-252.0,931.0,-63.0,966.5578099627564,2021-09-02 05:32:03.059
278,-13.0,1100.0,-40.0,1100.8037972318227,2021-09-02 05:32:03.068
279,-102.0,1100.0,-40.0,1105.4428976659085,2021-09-02 05:32:03.078
280,-102.0,970.0,-44.0,976.340104676644,2021-09-02 05:32:03.079
281,-181.0,974.0,11.0,990.7360899856228,2021-09-02 05:32:03.087
282,-150.0,977.0,-51.0,989.762597798078,2021-09-02 05:32:03.097
283,-143.0,1057.0,-42.0,1067.4558538881129,2021-09-02 05:32:03.107
284,-229.0,1057.0,-42.0,1082.3372856924038,2021-09-02 05:32:03.116
285,-229.0,942.0,12.0,969.509669884731,2021-09-02 05:32:03.117
286,-165.0,880.0,-65.0,897.6914837515169,2021-09-02 05:32:03.127
287,-335.0,1027.0,19.0,1080.423528066656,2021-09-02 05:32:03.136
288,-164.0,1002.0,-89.0,1019.2256864895036,2021-09-02 05:32:03.146
289,-181.0,889.0,-36.0,907.9526419367918,2021-09-02 05:32:03.156
290,-104.0,1029.0,-27.0,1034.5946065971928,2021-09-02 05:32:03.165
291,-106.0,1053.0,-38.0,1059.003777141517,2021-09-02 05:32:03.175
292,-218.0,1053.0,-38.0,1076.0004646839143,2021-09-02 05:32:03.185
293,-218.0,882.0,23.0,908.8327678951722,2021-09-02 05:32:03.186
294,-149.0,967.0,16.0,978.5427941587428,2021-09-02 05:32:03.195
295,-315.0,924.0,-38.0,976.9570103131458,2021-09-02 05:32:03.205
296,-244.0,978.0,0.0,1007.9781743668858,2021-09-02 05:32:03.215
297,-211.0,969.0,-12.0,991.7792093001344,2021-09-02 05:32:03.224
298,-159.0,969.0,-12.0,982.0315677207124,2021-09-02 05:32:03.234
299,-159.0,978.0,-28.0,991.236097002122,2021-09-02 05:32:03.235
300,-172.0,978.0,-28.0,993.4042480279616,2021-09-02 05:32:03.243
301,-172.0,1040.0,-64.0,1056.0681796172064,2021-09-02 05:32:03.244
302,-133.0,1052.0,-26.0,1060.692698193025,2021-09-02 05:32:03.253
303,-129.0,892.0,-81.0,904.9121504322948,2021-09-02 05:32:03.263
304,-336.0,949.0,-81.0,1009.9792077067724,2021-09-02 05:32:03.273
305,-336.0,949.0,-32.0,1007.2343322186748,2021-09-02 05:32:03.274
306,-262.0,949.0,-32.0,985.0223347721612,2021-09-02 05:32:03.283
307,-262.0,1024.0,26.0,1057.3060105759355,2021-09-02 05:32:03.284
308,-186.0,933.0,-1.0,951.3600790447326,2021-09-02 05:32:03.292
309,-244.0,1020.0,-17.0,1048.916107226884,2021-09-02 05:32:03.302
310,-155.0,1038.0,-49.0,1050.6521784111048,2021-09-02 05:32:03.312
311,-88.0,1021.0,-85.0,1028.3044296316143,2021-09-02 05:32:03.322
312,-122.0,956.0,14.0,963.854760843147,2021-09-02 05:32:03.332
313,-190.0,983.0,-34.0,1001.7709319001026,2021-09-02 05:32:03.341
314,-50.0,1090.0,-45.0,1092.0737154606368,2021-09-02 05:32:03.351
315,-167.0,1037.0,-27.0,1050.70785663761,2021-09-02 05:32:03.362
316,-161.0,995.0,0.0,1007.941466554482,2021-09-02 05:32:03.371
317,-145.0,934.0,-32.0,945.7298768675968,2021-09-02 05:32:03.380
318,-102.0,1059.0,-34.0,1064.4439863139817,2021-09-02 05:32:03.392
319,-207.0,953.0,-19.0,975.4070944995224,2021-09-02 05:32:03.400
320,-175.0,953.0,-19.0,969.120735512351,2021-09-02 05:32:03.409
321,-175.0,990.0,-71.0,1007.8521716997984,2021-09-02 05:32:03.410
322,-168.0,1125.0,38.0,1138.1093972022195,2021-09-02 05:32:03.419
323,-156.0,1044.0,-81.0,1058.6940067838298,2021-09-02 05:32:03.429
324,-115.0,907.0,-69.0,916.8614944472256,2021-09-02 05:32:03.440
325,-221.0,907.0,-69.0,936.082795483391,2021-09-02 05:32:03.448
326,-221.0,1025.0,-11.0,1048.6119396611884,2021-09-02 05:32:03.449
327,-240.0,1000.0,-11.0,1028.4556383237928,2021-09-02 05:32:03.458
328,-240.0,1000.0,-46.0,1029.4250822667962,2021-09-02 05:32:03.459
329,-188.0,905.0,0.0,924.3208317462072,2021-09-02 05:32:03.469
330,-194.0,905.0,0.0,925.5598305890333,2021-09-02 05:32:03.480
331,-194.0,1031.0,8.0,1049.1239202305894,2021-09-02 05:32:03.481
332,-238.0,963.0,-75.0,994.805508629702,2021-09-02 05:32:03.488
333,-131.0,1047.0,-75.0,1057.82559999274,2021-09-02 05:32:03.497
334,-131.0,1047.0,4.0,1055.1710761767497,2021-09-02 05:32:03.498
335,-175.0,956.0,-4.0,971.8935126854176,2021-09-02 05:32:03.507
336,-169.0,1023.0,0.0,1036.8654686120085,2021-09-02 05:32:03.517
337,-192.0,985.0,-48.0,1004.6855229374016,2021-09-02 05:32:03.527
338,-278.0,981.0,-48.0,1020.7590313095446,2021-09-02 05:32:03.536
339,-278.0,981.0,19.0,1019.8068444563412,2021-09-02 05:32:03.537
340,-157.0,993.0,19.0,1005.5142962683324,2021-09-02 05:32:03.547
341,-157.0,993.0,4.0,1005.342727630732,2021-09-02 05:32:03.548
342,-219.0,921.0,-101.0,952.0519943784584,2021-09-02 05:32:03.581
343,-222.0,958.0,1.0,983.3864957380694,2021-09-02 05:32:03.584
344,-206.0,995.0,-33.0,1016.636611577608,2021-09-02 05:32:03.587
345,-124.0,951.0,-56.0,960.683610768915,2021-09-02 05:32:03.595
346,-89.0,994.0,-52.0,999.3302757347044,2021-09-02 05:32:03.605
347,-212.0,994.0,-52.0,1017.6856096064246,2021-09-02 05:32:03.615
348,-212.0,968.0,-20.0,991.1447926514068,2021-09-02 05:32:03.616
349,-239.0,1011.0,-57.0,1040.4282772012689,2021-09-02 05:32:03.624
350,-160.0,1054.0,-36.0,1066.6827082127093,2021-09-02 05:32:03.639
351,-170.0,920.0,-53.0,937.0747035322212,2021-09-02 05:32:03.645
352,-264.0,1053.0,16.0,1085.7076033628944,2021-09-02 05:32:03.656
353,-156.0,1001.0,16.0,1013.2092577547838,2021-09-02 05:32:03.663
354,-156.0,1001.0,-43.0,1013.9950690215412,2021-09-02 05:32:03.664
355,-97.0,970.0,-87.0,978.7124194573196,2021-09-02 05:32:03.674
356,-237.0,970.0,-61.0,1000.3949220182998,2021-09-02 05:32:03.683
357,-104.0,1073.0,-48.0,1079.0963812375612,2021-09-02 05:32:03.693
358,-63.0,1106.0,10.0,1107.8379845446716,2021-09-02 05:32:03.703
359,-195.0,950.0,-68.0,972.1877390710088,2021-09-02 05:32:03.712
360,-115.0,937.0,-31.0,944.5395703727822,2021-09-02 05:32:03.722
361,-261.0,1033.0,10.0,1065.5092679090126,2021-09-02 05:32:03.732
362,-270.0,1033.0,10.0,1067.7495024583247,2021-09-02 05:32:03.741
363,-270.0,983.0,-53.0,1020.78303277435,2021-09-02 05:32:03.742
364,-195.0,960.0,-39.0,980.380538362528,2021-09-02 05:32:03.752
365,-147.0,1026.0,-58.0,1038.0987428949136,2021-09-02 05:32:03.762
366,-8.0,1083.0,-82.0,1086.129366143831,2021-09-02 05:32:03.771
367,-144.0,983.0,-47.0,994.602433135974,2021-09-02 05:32:03.781
368,-153.0,970.0,-47.0,983.1164732624512,2021-09-02 05:32:03.790
369,-153.0,970.0,-13.0,982.0784082750216,2021-09-02 05:32:03.791
370,-255.0,975.0,-40.0,1008.5881220795732,2021-09-02 05:32:03.800
371,-301.0,975.0,-40.0,1021.1885232414238,2021-09-02 05:32:03.810
372,-301.0,1099.0,14.0,1139.560441573855,2021-09-02 05:32:03.811
373,-247.0,976.0,-5.0,1006.782002222924,2021-09-02 05:32:03.820
374,-161.0,938.0,-16.0,951.85135394136,2021-09-02 05:32:03.830
375,-305.0,1034.0,-78.0,1080.8630810606865,2021-09-02 05:32:03.839
376,-109.0,1057.0,-37.0,1063.2492652242936,2021-09-02 05:32:03.849
377,-212.0,995.0,37.0,1018.0068762046748,2021-09-02 05:32:03.860
378,-220.0,988.0,8.0,1012.229223051775,2021-09-02 05:32:03.869
379,-274.0,1014.0,8.0,1050.3980198001136,2021-09-02 05:32:03.878
380,-274.0,1014.0,-68.0,1052.566387454967,2021-09-02 05:32:03.879
381,-209.0,980.0,-11.0,1002.0987975244756,2021-09-02 05:32:03.896
382,-218.0,980.0,-11.0,1004.0144421272036,2021-09-02 05:32:03.900
383,-218.0,1016.0,43.0,1040.013942214238,2021-09-02 05:32:03.901
384,-268.0,937.0,-104.0,980.1066268524052,2021-09-02 05:32:03.908
385,-164.0,1091.0,-104.0,1108.1484557585234,2021-09-02 05:32:03.918
386,-164.0,1091.0,8.0,1103.2864541903884,2021-09-02 05:32:03.919
387,-238.0,1056.0,-20.0,1082.6726190312563,2021-09-02 05:32:03.928
388,-175.0,964.0,-92.0,984.0655465973798,2021-09-02 05:32:03.937
389,-83.0,1064.0,15.0,1067.3378096928825,2021-09-02 05:32:03.947
390,-112.0,1021.0,15.0,1027.2341505226548,2021-09-02 05:32:03.956
391,-112.0,1021.0,-94.0,1031.41698648025,2021-09-02 05:32:03.957
392,-197.0,911.0,-94.0,936.7849272912111,2021-09-02 05:32:03.966
393,-197.0,911.0,-36.0,932.7518426677054,2021-09-02 05:32:03.967
394,-211.0,1059.0,-19.0,1079.9828702345235,2021-09-02 05:32:03.976
395,-136.0,1019.0,-86.0,1031.6263858587563,2021-09-02 05:32:03.986
396,-204.0,1019.0,-86.0,1042.7717871135562,2021-09-02 05:32:03.995
397,-204.0,972.0,-61.0,995.0482400366326,2021-09-02 05:32:03.996
398,-233.0,996.0,-25.0,1023.1959734088088,2021-09-02 05:32:04.005
399,-68.0,996.0,-25.0,998.631563691034,2021-09-02 05:32:04.015
400,-68.0,1036.0,-10.0,1038.2774195753273,2021-09-02 05:32:04.016
401,-128.0,962.0,-96.0,975.2148481232224,2021-09-02 05:32:04.026
402,-164.0,962.0,-96.0,980.5896185459032,2021-09-02 05:32:04.047
403,-164.0,1031.0,6.0,1043.9794059271476,2021-09-02 05:32:04.048
404,-110.0,976.0,-94.0,986.6671171170144,2021-09-02 05:32:04.057
405,-200.0,900.0,-94.0,926.734050307854,2021-09-02 05:32:04.069
406,-200.0,900.0,-55.0,923.5935253129484,2021-09-02 05:32:04.070
407,-175.0,988.0,22.0,1003.6199479882812,2021-09-02 05:32:04.094
408,-181.0,976.0,-72.0,995.249215021042,2021-09-02 05:32:04.098
409,-181.0,963.0,-18.0,980.0275506331442,2021-09-02 05:32:04.100
410,-256.0,956.0,-20.0,989.8848417871646,2021-09-02 05:32:04.107
411,-118.0,1042.0,-28.0,1049.033841208185,2021-09-02 05:32:04.113
412,-170.0,998.0,-28.0,1012.7625585496336,2021-09-02 05:32:04.122
413,-170.0,998.0,-52.0,1013.7100177072336,2021-09-02 05:32:04.123
414,-232.0,980.0,0.0,1007.0868880091728,2021-09-02 05:32:04.132
415,-162.0,899.0,-41.0,914.3992563426548,2021-09-02 05:32:04.143
416,-305.0,1006.0,-17.0,1051.3562669238245,2021-09-02 05:32:04.152
417,-289.0,1006.0,-17.0,1046.8266332110586,2021-09-02 05:32:04.161
418,-289.0,1052.0,-17.0,1091.1067775428764,2021-09-02 05:32:04.162
419,-193.0,823.0,-63.0,847.6715165675912,2021-09-02 05:32:04.171
420,-272.0,1066.0,18.0,1100.301776786714,2021-09-02 05:32:04.181
421,-179.0,1059.0,-65.0,1075.986524079182,2021-09-02 05:32:04.191
422,-52.0,983.0,-29.0,984.8015028420702,2021-09-02 05:32:04.201
423,-250.0,930.0,-27.0,963.3945193948324,2021-09-02 05:32:04.211
424,-108.0,986.0,-103.0,997.230665392917,2021-09-02 05:32:04.220
425,-225.0,925.0,-12.0,952.0472677341183,2021-09-02 05:32:04.230
426,-227.0,925.0,-12.0,952.5219157583724,2021-09-02 05:32:04.239
427,-227.0,1006.0,26.0,1031.62056978329,2021-09-02 05:32:04.240
428,-277.0,1053.0,26.0,1089.1345187808529,2021-09-02 05:32:04.250
429,-277.0,1053.0,22.0,1089.0463718317967,2021-09-02 05:32:04.251
430,-151.0,969.0,-81.0,984.0340441265232,2021-09-02 05:32:04.259
431,-115.0,1067.0,-71.0,1075.525452976358,2021-09-02 05:32:04.269
432,-183.0,898.0,-12.0,916.5353239237428,2021-09-02 05:32:04.279
433,-176.0,962.0,-12.0,978.0408989403256,2021-09-02 05:32:04.288
434,-176.0,962.0,-51.0,979.296175832419,2021-09-02 05:32:04.289
435,-66.0,1131.0,-61.0,1134.565114922894,2021-09-02 05:32:04.301
436,-144.0,1022.0,-62.0,1033.955511615466,2021-09-02 05:32:04.308
437,-184.0,950.0,3.0,967.659547568255,2021-09-02 05:32:04.319
438,-223.0,950.0,3.0,975.8268288994724,2021-09-02 05:32:04.327
439,-223.0,914.0,-69.0,943.3376913915822,2021-09-02 05:32:04.328
440,-267.0,1073.0,-23.0,1105.959764186745,2021-09-02 05:32:04.337
441,-213.0,936.0,8.0,959.9630201210878,2021-09-02 05:32:04.347
442,-234.0,1071.0,-63.0,1098.0737680137888,2021-09-02 05:32:04.360
443,-62.0,1071.0,-63.0,1074.6413355161806,2021-09-02 05:32:04.367
444,-62.0,1038.0,-10.0,1039.8980719282058,2021-09-02 05:32:04.368
445,-114.0,1087.0,-59.0,1094.552876749223,2021-09-02 05:32:04.376
446,-125.0,911.0,-136.0,929.5385952180792,2021-09-02 05:32:04.386
447,-172.0,1034.0,-4.0,1048.2156266722989,2021-09-02 05:32:04.396
448,-329.0,1037.0,-34.0,1088.4695677877264,2021-09-02 05:32:04.406
449,-200.0,923.0,-34.0,945.0317454985308,2021-09-02 05:32:04.415
450,-200.0,923.0,-15.0,944.539041014187,2021-09-02 05:32:04.416
451,-303.0,1014.0,24.0,1058.574985534799,2021-09-02 05:32:04.425
452,-232.0,921.0,-110.0,956.1197623728945,2021-09-02 05:32:04.435
453,-115.0,1064.0,23.0,1070.4438331832268,2021-09-02 05:32:04.445
454,-191.0,958.0,-24.0,977.1494256253748,2021-09-02 05:32:04.456
455,-185.0,1009.0,-2.0,1025.8216219206925,2021-09-02 05:32:04.464
456,-214.0,1024.0,-69.0,1048.3954406615856,2021-09-02 05:32:04.475
457,-231.0,953.0,19.0,980.7808113946764,2021-09-02 05:32:04.484
458,-207.0,953.0,19.0,975.4070944995224,2021-09-02 05:32:04.493
459,-207.0,944.0,-26.0,966.7786716720638,2021-09-02 05:32:04.494
460,-256.0,1015.0,-73.0,1049.3283566167456,2021-09-02 05:32:04.504
461,-157.0,1015.0,-73.0,1029.6615948941671,2021-09-02 05:32:04.513
462,-157.0,1032.0,28.0,1044.249491261547,2021-09-02 05:32:04.514
463,-185.0,922.0,28.0,940.7938137551712,2021-09-02 05:32:04.523
464,-185.0,922.0,-28.0,940.7938137551712,2021-09-02 05:32:04.524
465,-273.0,922.0,-28.0,961.9755714154076,2021-09-02 05:32:04.532
466,-273.0,975.0,-24.0,1012.783293701076,2021-09-02 05:32:04.533
467,-100.0,963.0,-63.0,970.2257469269716,2021-09-02 05:32:04.542
468,-128.0,958.0,-92.0,970.8820731685182,2021-09-02 05:32:04.552
469,-187.0,919.0,-92.0,942.3343355731022,2021-09-02 05:32:04.562
470,-187.0,919.0,-45.0,938.9116039329796,2021-09-02 05:32:04.563
471,-195.0,1048.0,11.0,1066.0440891445344,2021-09-02 05:32:04.572
472,-166.0,1042.0,11.0,1055.1971379794393,2021-09-02 05:32:04.581
473,-166.0,1042.0,-22.0,1055.3691297361318,2021-09-02 05:32:04.582
474,-273.0,935.0,20.0,974.245348975298,2021-09-02 05:32:04.613
475,-196.0,977.0,-44.0,997.437216069262,2021-09-02 05:32:04.615
476,-119.0,977.0,-44.0,985.203532271378,2021-09-02 05:32:04.620
477,-119.0,924.0,-66.0,933.9662734810074,2021-09-02 05:32:04.621
478,-171.0,967.0,-66.0,984.2184716819736,2021-09-02 05:32:04.631
479,-171.0,967.0,-11.0,982.0646618222244,2021-09-02 05:32:04.632
480,-121.0,1018.0,-81.0,1028.3608316150514,2021-09-02 05:32:04.640
481,-3.0,1070.0,-70.0,1072.291471569181,2021-09-02 05:32:04.657
482,-197.0,1039.0,28.0,1057.8818459544525,2021-09-02 05:32:04.660
483,-163.0,839.0,-78.0,858.2388944810181,2021-09-02 05:32:04.669
484,-327.0,982.0,-4.0,1035.0212558203816,2021-09-02 05:32:04.680
485,-337.0,1098.0,3.0,1148.556485332785,2021-09-02 05:32:04.689
486,-201.0,899.0,30.0,921.6843277391667,2021-09-02 05:32:04.699
487,-173.0,969.0,-81.0,987.649229230702,2021-09-02 05:32:04.708
488,-84.0,1154.0,-22.0,1157.2622866057634,2021-09-02 05:32:04.718
489,-123.0,1154.0,-22.0,1160.7450193733334,2021-09-02 05:32:04.728
490,-123.0,893.0,-61.0,903.4926673747829,2021-09-02 05:32:04.729
491,-170.0,927.0,-29.0,942.9050853611938,2021-09-02 05:32:04.738
492,-359.0,1056.0,-29.0,1115.7320466850454,2021-09-02 05:32:04.747
493,-359.0,1056.0,5.0,1115.366307542056,2021-09-02 05:32:04.748
494,-256.0,947.0,-35.0,981.6160145392902,2021-09-02 05:32:04.757
495,-265.0,1036.0,42.0,1070.1798914201297,2021-09-02 05:32:04.767
496,-203.0,960.0,0.0,981.2283118622292,2021-09-02 05:32:04.777
497,-197.0,973.0,-35.0,993.359451558196,2021-09-02 05:32:04.788
498,-74.0,1116.0,-37.0,1119.0625541049974,2021-09-02 05:32:04.797
499,-122.0,877.0,-48.0,886.7451719631746,2021-09-02 05:32:04.806
500,-211.0,876.0,-80.0,904.5977006382452,2021-09-02 05:32:04.816
501,-272.0,876.0,-80.0,920.7388337634076,2021-09-02 05:32:04.825
502,-272.0,1111.0,-6.0,1143.8273471114424,2021-09-02 05:32:04.826
503,-237.0,944.0,-16.0,973.4274497876048,2021-09-02 05:32:04.836
504,-171.0,942.0,23.0,957.6711335317568,2021-09-02 05:32:04.845
505,-305.0,1022.0,-63.0,1068.3997379258385,2021-09-02 05:32:04.855
506,-152.0,1051.0,-9.0,1061.9726926809371,2021-09-02 05:32:04.865
507,-239.0,984.0,-9.0,1012.6490013820188,2021-09-02 05:32:04.874
508,-239.0,984.0,17.0,1012.7516971104022,2021-09-02 05:32:04.875
509,-204.0,893.0,-69.0,918.600021772262,2021-09-02 05:32:04.888
510,-76.0,1058.0,-69.0,1062.968014570523,2021-09-02 05:32:04.895
511,-76.0,1058.0,20.0,1060.9146996813645,2021-09-02 05:32:04.896
512,-197.0,997.0,-81.0,1019.4993869542052,2021-09-02 05:32:04.910
513,-94.0,888.0,-81.0,896.6275703992154,2021-09-02 05:32:04.914
514,-94.0,888.0,-61.0,895.0424570935169,2021-09-02 05:32:04.915
515,-184.0,1076.0,-24.0,1091.8827775910745,2021-09-02 05:32:04.923
516,-114.0,1021.0,-58.0,1028.9805634704671,2021-09-02 05:32:04.934
517,-216.0,1021.0,-58.0,1045.2085916217873,2021-09-02 05:32:04.944
518,-216.0,961.0,-52.0,986.3473019175344,2021-09-02 05:32:04.945
519,-219.0,956.0,-43.0,981.7056585351844,2021-09-02 05:32:04.953
520,-26.0,1068.0,0.0,1068.3164325236226,2021-09-02 05:32:04.962
521,-177.0,939.0,-134.0,964.8865218252351,2021-09-02 05:32:04.972
522,-154.0,915.0,-13.0,927.9601284538038,2021-09-02 05:32:04.982
523,-131.0,1055.0,-35.0,1063.6780527960516,2021-09-02 05:32:04.993
524,-84.0,1039.0,-84.0,1045.7690949726905,2021-09-02 05:32:05.001
525,-215.0,932.0,49.0,957.7316952048732,2021-09-02 05:32:05.011
526,-160.0,956.0,-25.0,969.6189973386454,2021-09-02 05:32:05.021
527,-304.0,922.0,-52.0,972.2160253770764,2021-09-02 05:32:05.031
528,-228.0,976.0,-1.0,1002.2779055731,2021-09-02 05:32:05.042
529,-210.0,930.0,-31.0,953.9187596436084,2021-09-02 05:32:05.053
530,-127.0,1020.0,-70.0,1030.256764112714,2021-09-02 05:32:05.060
531,-85.0,1067.0,-90.0,1074.1573441540118,2021-09-02 05:32:05.070
532,-122.0,1067.0,-90.0,1077.7165675631047,2021-09-02 05:32:05.079
533,-122.0,892.0,18.0,900.4843141332335,2021-09-02 05:32:05.080
534,-146.0,874.0,-44.0,887.2023444513659,2021-09-02 05:32:05.091
535,-291.0,874.0,-44.0,922.2217737616044,2021-09-02 05:32:05.099
536,-291.0,957.0,-3.0,1000.2694636946586,2021-09-02 05:32:05.100
537,-243.0,1004.0,4.0,1032.9961277758982,2021-09-02 05:32:05.109
538,-199.0,1004.0,4.0,1023.5394472124658,2021-09-02 05:32:05.118
539,-199.0,922.0,14.0,943.3350412234244,2021-09-02 05:32:05.119
540,-229.0,1037.0,17.0,1062.1200497118955,2021-09-02 05:32:05.128
541,-164.0,1088.0,-61.0,1101.9804898454418,2021-09-02 05:32:05.139
542,-120.0,904.0,-73.0,914.8469817406624,2021-09-02 05:32:05.148
543,-227.0,1024.0,-13.0,1048.939464411555,2021-09-02 05:32:05.158
544,-102.0,937.0,-13.0,942.6250580161764,2021-09-02 05:32:05.167
545,-102.0,937.0,-74.0,945.4358783122206,2021-09-02 05:32:05.168
546,-242.0,1026.0,-50.0,1055.33880815594,2021-09-02 05:32:05.177
547,-135.0,977.0,30.0,986.739073919747,2021-09-02 05:32:05.187
548,-240.0,966.0,-87.0,999.1621490028532,2021-09-02 05:32:05.198
549,-51.0,963.0,-87.0,968.265975855808,2021-09-02 05:32:05.207
550,-51.0,963.0,-83.0,967.9147689750374,2021-09-02 05:32:05.208
551,-155.0,1043.0,-16.0,1054.575744079106,2021-09-02 05:32:05.216
552,-203.0,833.0,-62.0,859.6173567349603,2021-09-02 05:32:05.226
553,-189.0,933.0,17.0,952.1024104580348,2021-09-02 05:32:05.236
554,-184.0,1077.0,-42.0,1093.411633375098,2021-09-02 05:32:05.247
555,-160.0,928.0,-11.0,941.7563379133692,2021-09-02 05:32:05.255
556,-260.0,955.0,21.0,989.9828281339026,2021-09-02 05:32:05.265
557,-160.0,1028.0,-122.0,1047.5056085768706,2021-09-02 05:32:05.275
558,-191.0,915.0,-47.0,935.9033069713986,2021-09-02 05:32:05.285
559,-199.0,908.0,-47.0,930.7384165274366,2021-09-02 05:32:05.297
560,-199.0,908.0,-21.0,929.788147913276,2021-09-02 05:32:05.298
561,-204.0,973.0,-1.0,994.1559233842546,2021-09-02 05:32:05.304
562,-116.0,973.0,-1.0,979.890810243672,2021-09-02 05:32:05.314
563,-116.0,986.0,-50.0,994.0583483880612,2021-09-02 05:32:05.315
564,-195.0,986.0,-50.0,1006.3403996660376,2021-09-02 05:32:05.323
565,-195.0,1008.0,10.0,1026.7370646859886,2021-09-02 05:32:05.324
566,-237.0,967.0,-4.0,995.627440361102,2021-09-02 05:32:05.333
567,-172.0,1047.0,-29.0,1061.4301672743245,2021-09-02 05:32:05.343
568,-145.0,1046.0,-29.0,1056.400492237674,2021-09-02 05:32:05.353
569,-145.0,1046.0,-87.0,1059.5801055135,2021-09-02 05:32:05.354
570,-119.0,986.0,-58.0,994.8472244520764,2021-09-02 05:32:05.364
571,-216.0,987.0,-58.0,1012.0222329573596,2021-09-02 05:32:05.372
572,-216.0,987.0,25.0,1010.6680958653044,2021-09-02 05:32:05.373
573,-101.0,985.0,-85.0,993.8063191588188,2021-09-02 05:32:05.382
574,-170.0,995.0,9.0,1009.4582705590162,2021-09-02 05:32:05.393
575,-132.0,887.0,-19.0,896.9693417280214,2021-09-02 05:32:05.402
576,-177.0,887.0,-19.0,904.68723877371,2021-09-02 05:32:05.411
577,-177.0,1083.0,-34.0,1097.8952591208326,2021-09-02 05:32:05.412
