,Acceleration_X,Acceleration_Y,Acceleration_Z,magnitude,time_stamp
0,-143.0,1004.0,5.0,1014.1449600525558,2021-09-02 05:31:36.740
1,-143.0,1004.0,-51.0,1015.4142012006726,2021-09-02 05:31:36.741
2,-146.0,965.0,-44.0,976.9733875597636,2021-09-02 05:31:36.749
3,-234.0,1011.0,34.0,1038.2836799256745,2021-09-02 05:31:36.759
4,-189.0,959.0,-74.0,980.243847213539,2021-09-02 05:31:36.769
5,-140.0,988.0,-41.0,998.7116701030384,2021-09-02 05:31:36.779
6,-192.0,1073.0,33.0,1090.5420670473927,2021-09-02 05:31:36.789
7,-202.0,873.0,-17.0,896.2265338629514,2021-09-02 05:31:36.799
8,-144.0,1008.0,-25.0,1018.5406226557682,2021-09-02 05:31:36.808
9,-164.0,1008.0,-25.0,1021.5600814440628,2021-09-02 05:31:36.817
10,-164.0,1040.0,-64.0,1054.7947667674505,2021-09-02 05:31:36.820
11,-193.0,961.0,-64.0,982.275928647343,2021-09-02 05:31:36.827
12,-193.0,961.0,44.0,981.175825221963,2021-09-02 05:31:36.828
13,-276.0,964.0,49.0,1003.9287823346832,2021-09-02 05:31:36.838
14,-223.0,970.0,-77.0,998.2775165253396,2021-09-02 05:31:36.848
15,-195.0,970.0,-77.0,992.3981056007716,2021-09-02 05:31:36.856
16,-195.0,1037.0,-50.0,1056.358840546147,2021-09-02 05:31:36.857
17,-274.0,915.0,-42.0,956.067466238654,2021-09-02 05:31:36.882
18,-274.0,915.0,-42.0,956.067466238654,2021-09-02 05:31:36.884
19,-274.0,1092.0,0.0,1125.850789403285,2021-09-02 05:31:36.885
20,-108.0,1046.0,-29.0,1051.9605505911331,2021-09-02 05:31:36.905
21,-108.0,995.0,-22.0,1001.0859103993024,2021-09-02 05:31:36.906
22,-204.0,938.0,-35.0,960.5649379401686,2021-09-02 05:31:36.933
23,-160.0,938.0,-35.0,952.191682383332,2021-09-02 05:31:36.940
24,-160.0,959.0,-44.0,973.2507385047288,2021-09-02 05:31:36.941
25,-171.0,892.0,-61.0,910.2889651094316,2021-09-02 05:31:36.943
26,-267.0,981.0,-61.0,1018.5141137951894,2021-09-02 05:31:36.958
27,-267.0,981.0,29.0,1017.0993068525806,2021-09-02 05:31:36.959
28,-57.0,1146.0,8.0,1147.444552037265,2021-09-02 05:31:36.963
29,-147.0,1012.0,-137.0,1031.7567542788368,2021-09-02 05:31:36.965
30,-137.0,1044.0,30.0,1053.3778999010754,2021-09-02 05:31:36.974
31,-208.0,1096.0,-35.0,1116.1115535644276,2021-09-02 05:31:36.984
32,-253.0,1017.0,-14.0,1048.090644934874,2021-09-02 05:31:36.995
33,-158.0,877.0,16.0,891.2625875688938,2021-09-02 05:31:37.003
34,-267.0,1074.0,9.0,1106.7276087637824,2021-09-02 05:31:37.013
35,-208.0,1074.0,9.0,1093.993144402651,2021-09-02 05:31:37.022
36,-208.0,977.0,-117.0,1005.7246143950142,2021-09-02 05:31:37.023
37,-66.0,1027.0,-117.0,1035.7480388588722,2021-09-02 05:31:37.032
38,-66.0,1027.0,13.0,1029.2006607071337,2021-09-02 05:31:37.033
39,-255.0,996.0,-29.0,1028.5339080458164,2021-09-02 05:31:37.045
40,-92.0,913.0,-120.0,925.4366536938118,2021-09-02 05:31:37.052
41,-72.0,1120.0,9.0,1122.3479852523458,2021-09-02 05:31:37.062
42,-180.0,1082.0,9.0,1096.9070152022914,2021-09-02 05:31:37.071
43,-180.0,1082.0,-74.0,1099.3634521849451,2021-09-02 05:31:37.072
44,-134.0,876.0,-5.0,886.2037011883893,2021-09-02 05:31:37.081
45,-264.0,1030.0,25.0,1063.5887363074132,2021-09-02 05:31:37.092
46,-117.0,1106.0,-11.0,1112.22569652027,2021-09-02 05:31:37.101
47,-144.0,1106.0,-11.0,1115.389169751975,2021-09-02 05:31:37.110
48,-144.0,848.0,-56.0,861.9605559420918,2021-09-02 05:31:37.111
49,-206.0,996.0,-16.0,1017.2059771747312,2021-09-02 05:31:37.121
50,-101.0,1119.0,-34.0,1124.0631654849294,2021-09-02 05:31:37.130
51,-200.0,1119.0,-34.0,1137.2409595156164,2021-09-02 05:31:37.140
52,-200.0,907.0,-87.0,932.854758255539,2021-09-02 05:31:37.141
53,-216.0,907.0,-87.0,936.41550606555,2021-09-02 05:31:37.150
54,-216.0,1006.0,45.0,1029.9111612173158,2021-09-02 05:31:37.151
55,-191.0,970.0,-38.0,989.3558510465282,2021-09-02 05:31:37.159
56,-197.0,970.0,-38.0,990.5316754147744,2021-09-02 05:31:37.173
57,-197.0,1028.0,-22.0,1046.9369608529446,2021-09-02 05:31:37.174
58,-251.0,996.0,-18.0,1027.2979120002142,2021-09-02 05:31:37.179
59,-108.0,907.0,-33.0,914.0032822698176,2021-09-02 05:31:37.189
60,-303.0,1011.0,-33.0,1055.9446008195696,2021-09-02 05:31:37.198
61,-303.0,1011.0,0.0,1055.428822801424,2021-09-02 05:31:37.199
62,-172.0,962.0,-67.0,979.5493861975516,2021-09-02 05:31:37.208
63,-163.0,860.0,-48.0,876.6259179376343,2021-09-02 05:31:37.219
64,-157.0,929.0,14.0,942.2770293284242,2021-09-02 05:31:37.228
65,-217.0,929.0,14.0,954.1100565448412,2021-09-02 05:31:37.237
66,-217.0,1092.0,-67.0,1115.366307542056,2021-09-02 05:31:37.238
67,-153.0,863.0,0.0,876.457643015337,2021-09-02 05:31:37.247
68,-163.0,1065.0,37.0,1078.0366413067786,2021-09-02 05:31:37.258
69,-254.0,953.0,-127.0,994.4113836838352,2021-09-02 05:31:37.267
70,-207.0,953.0,-127.0,983.4566589331732,2021-09-02 05:31:37.276
71,-207.0,1005.0,44.0,1027.039434491198,2021-09-02 05:31:37.277
72,-253.0,1000.0,-14.0,1031.603121360148,2021-09-02 05:31:37.287
73,-240.0,904.0,-65.0,937.5718639123083,2021-09-02 05:31:37.296
74,-148.0,1043.0,-6.0,1053.4652343575465,2021-09-02 05:31:37.306
75,-32.0,981.0,-103.0,986.9113435359836,2021-09-02 05:31:37.317
76,-150.0,890.0,-23.0,902.8449479284913,2021-09-02 05:31:37.325
77,-133.0,1117.0,-10.0,1124.93466476947,2021-09-02 05:31:37.335
78,-175.0,1035.0,22.0,1049.9209494052398,2021-09-02 05:31:37.345
79,-218.0,985.0,40.0,1009.628149369856,2021-09-02 05:31:37.363
80,-207.0,980.0,-1.0,1001.6236818286596,2021-09-02 05:31:37.367
81,-148.0,1030.0,-35.0,1041.1671335573362,2021-09-02 05:31:37.374
82,-92.0,1013.0,-103.0,1022.3707742301714,2021-09-02 05:31:37.384
83,-221.0,1015.0,20.0,1038.9735319054091,2021-09-02 05:31:37.395
84,-167.0,995.0,20.0,1009.115454246936,2021-09-02 05:31:37.403
85,-167.0,995.0,-80.0,1012.083988609641,2021-09-02 05:31:37.404
86,-57.0,1125.0,-63.0,1128.2034391012996,2021-09-02 05:31:37.413
87,-229.0,1004.0,-66.0,1031.8977662540026,2021-09-02 05:31:37.423
88,-142.0,861.0,-48.0,873.9502274157264,2021-09-02 05:31:37.433
89,-275.0,1014.0,16.0,1050.7506840349904,2021-09-02 05:31:37.443
90,-85.0,1009.0,-57.0,1014.1770062469373,2021-09-02 05:31:37.454
91,-168.0,973.0,-55.0,988.9277021097143,2021-09-02 05:31:37.462
92,-153.0,1027.0,-48.0,1039.4431201369318,2021-09-02 05:31:37.472
93,-94.0,1113.0,2.0,1116.9641892200484,2021-09-02 05:31:37.482
94,-261.0,954.0,2.0,989.0606654801312,2021-09-02 05:31:37.491
95,-261.0,954.0,-61.0,990.9379395300192,2021-09-02 05:31:37.492
96,-172.0,887.0,-61.0,905.579372556597,2021-09-02 05:31:37.502
97,-172.0,887.0,-46.0,904.692765528718,2021-09-02 05:31:37.503
98,-268.0,988.0,19.0,1023.879387428031,2021-09-02 05:31:37.514
99,-274.0,1040.0,-35.0,1076.0580839341342,2021-09-02 05:31:37.521
100,-184.0,907.0,-35.0,926.137138873072,2021-09-02 05:31:37.530
101,-184.0,907.0,20.0,925.6916333207296,2021-09-02 05:31:37.531
102,-185.0,1014.0,20.0,1030.9321025169406,2021-09-02 05:31:37.541
103,-248.0,957.0,-113.0,995.0487425247068,2021-09-02 05:31:37.551
104,-95.0,957.0,-113.0,968.3196786185852,2021-09-02 05:31:37.560
105,-95.0,1051.0,5.0,1055.2966407603126,2021-09-02 05:31:37.561
106,-227.0,1051.0,5.0,1075.2464833702086,2021-09-02 05:31:37.569
107,-227.0,963.0,-43.0,990.3267137667244,2021-09-02 05:31:37.570
108,-233.0,1045.0,-50.0,1071.8274114800386,2021-09-02 05:31:37.579
109,-241.0,991.0,-67.0,1022.0816992784872,2021-09-02 05:31:37.589
110,-279.0,1020.0,-67.0,1059.5895431722606,2021-09-02 05:31:37.599
111,-279.0,1020.0,75.0,1060.1254642729791,2021-09-02 05:31:37.600
112,-98.0,958.0,75.0,965.9156277853672,2021-09-02 05:31:37.610
113,-98.0,958.0,-35.0,963.6353044591092,2021-09-02 05:31:37.611
114,-232.0,966.0,-83.0,996.9297868957472,2021-09-02 05:31:37.618
115,-189.0,1143.0,-27.0,1158.835191043144,2021-09-02 05:31:37.628
116,-114.0,891.0,-49.0,899.5987994656284,2021-09-02 05:31:37.638
117,-252.0,999.0,-13.0,1030.3756596504015,2021-09-02 05:31:37.648
118,-157.0,948.0,-13.0,961.0005202912224,2021-09-02 05:31:37.658
119,-157.0,948.0,-39.0,961.7036965718704,2021-09-02 05:31:37.659
120,-77.0,1011.0,-81.0,1017.1582964317796,2021-09-02 05:31:37.667
121,-187.0,1014.0,-18.0,1031.2560302853992,2021-09-02 05:31:37.677
122,-96.0,940.0,-58.0,946.6678403748592,2021-09-02 05:31:37.687
123,-89.0,940.0,-58.0,945.983615080092,2021-09-02 05:31:37.696
124,-89.0,974.0,-11.0,978.1196245858685,2021-09-02 05:31:37.697
125,-209.0,989.0,-14.0,1010.9391673092896,2021-09-02 05:31:37.707
126,-213.0,962.0,-14.0,985.3978891797972,2021-09-02 05:31:37.717
127,-213.0,962.0,-96.0,989.9641407647048,2021-09-02 05:31:37.718
128,-132.0,960.0,0.0,969.032507194676,2021-09-02 05:31:37.726
129,-121.0,1049.0,0.0,1055.9554914862651,2021-09-02 05:31:37.735
130,-121.0,1049.0,-104.0,1061.0645597700452,2021-09-02 05:31:37.736
131,-190.0,884.0,-87.0,908.363913858317,2021-09-02 05:31:37.745
132,-174.0,884.0,-87.0,905.1524733435798,2021-09-02 05:31:37.755
133,-174.0,1099.0,32.0,1113.1491364592616,2021-09-02 05:31:37.756
134,-125.0,1051.0,32.0,1058.8909292273686,2021-09-02 05:31:37.766
135,-125.0,1051.0,-70.0,1060.719567086419,2021-09-02 05:31:37.767
136,-182.0,1051.0,-70.0,1068.9363872560425,2021-09-02 05:31:37.774
137,-182.0,843.0,-27.0,862.8452932015101,2021-09-02 05:31:37.775
138,-182.0,1063.0,21.0,1078.6723320823614,2021-09-02 05:31:37.784
139,-228.0,894.0,-63.0,924.764294293416,2021-09-02 05:31:37.794
140,-261.0,1016.0,22.0,1049.2192335255772,2021-09-02 05:31:37.804
141,-248.0,1016.0,22.0,1046.0611836790426,2021-09-02 05:31:37.814
142,-248.0,1043.0,17.0,1072.2135981230606,2021-09-02 05:31:37.815
143,-155.0,996.0,-93.0,1012.2697269008888,2021-09-02 05:31:37.823
144,-38.0,1061.0,-13.0,1061.7598598553252,2021-09-02 05:31:37.833
145,-284.0,1024.0,-16.0,1062.7737294457368,2021-09-02 05:31:37.843
146,-182.0,773.0,-75.0,797.6703579800368,2021-09-02 05:31:37.853
147,-281.0,1010.0,17.0,1048.4989270380777,2021-09-02 05:31:37.863
148,-295.0,1045.0,-24.0,1086.1058880238152,2021-09-02 05:31:37.874
149,-195.0,896.0,25.0,917.3145589164058,2021-09-02 05:31:37.882
150,-187.0,965.0,-107.0,988.7583122280188,2021-09-02 05:31:37.907
151,-132.0,1128.0,34.0,1136.2059672436155,2021-09-02 05:31:37.912
152,-214.0,1128.0,34.0,1148.6235240495469,2021-09-02 05:31:37.922
153,-214.0,972.0,-21.0,995.5003766950568,2021-09-02 05:31:37.923
154,-300.0,1035.0,16.0,1077.7202791077098,2021-09-02 05:31:37.931
155,-294.0,1035.0,16.0,1076.0655184513628,2021-09-02 05:31:37.940
156,-294.0,1001.0,-48.0,1044.3854652378116,2021-09-02 05:31:37.941
157,-209.0,979.0,21.0,1001.2806799294592,2021-09-02 05:31:37.950
158,-165.0,1033.0,11.0,1046.1524745466122,2021-09-02 05:31:37.971
159,-220.0,991.0,11.0,1015.185697298775,2021-09-02 05:31:37.974
160,-220.0,991.0,-49.0,1016.3080241737738,2021-09-02 05:31:37.975
161,-106.0,1048.0,-41.0,1054.144676977501,2021-09-02 05:31:37.980
162,-174.0,950.0,-41.0,966.6731608977256,2021-09-02 05:31:37.989
163,-174.0,950.0,-58.0,967.5432806856757,2021-09-02 05:31:37.990
164,-203.0,1006.0,-28.0,1026.659144994092,2021-09-02 05:31:37.999
165,-126.0,988.0,2.0,996.0040160561604,2021-09-02 05:31:38.010
166,-200.0,1049.0,-71.0,1070.253241060264,2021-09-02 05:31:38.020
167,-207.0,1049.0,-71.0,1071.5834078596029,2021-09-02 05:31:38.028
168,-207.0,984.0,16.0,1005.6644569636536,2021-09-02 05:31:38.029
169,-132.0,1003.0,-22.0,1011.8878396344132,2021-09-02 05:31:38.039
170,-131.0,1084.0,37.0,1092.513615475798,2021-09-02 05:31:38.049
171,-203.0,964.0,-15.0,985.2563118295664,2021-09-02 05:31:38.058
172,-164.0,964.0,-15.0,977.9657458213964,2021-09-02 05:31:38.068
173,-164.0,913.0,-87.0,931.683422628094,2021-09-02 05:31:38.069
174,-126.0,1076.0,26.0,1083.66415461618,2021-09-02 05:31:38.078
175,-164.0,1000.0,-81.0,1016.5908714915752,2021-09-02 05:31:38.087
176,-170.0,962.0,-2.0,976.9073651068458,2021-09-02 05:31:38.099
177,-164.0,962.0,-2.0,975.8811403034696,2021-09-02 05:31:38.106
178,-164.0,1011.0,-51.0,1025.4842758423945,2021-09-02 05:31:38.107
179,-157.0,987.0,-54.0,1000.8666244810044,2021-09-02 05:31:38.117
180,-146.0,961.0,27.0,972.4021801703244,2021-09-02 05:31:38.127
181,-186.0,898.0,-50.0,918.4225606985054,2021-09-02 05:31:38.136
182,-339.0,995.0,-5.0,1051.176008097597,2021-09-02 05:31:38.146
183,-257.0,992.0,-5.0,1024.7624114886337,2021-09-02 05:31:38.155
184,-257.0,992.0,23.0,1025.0082926493817,2021-09-02 05:31:38.156
185,-207.0,967.0,-40.0,989.7161209154876,2021-09-02 05:31:38.166
186,-148.0,1000.0,11.0,1010.9525211403352,2021-09-02 05:31:38.176
187,-148.0,1104.0,-57.0,1115.3335823869018,2021-09-02 05:31:38.190
188,-163.0,1104.0,-57.0,1117.4229279910091,2021-09-02 05:31:38.194
189,-163.0,855.0,-10.0,870.4562022296125,2021-09-02 05:31:38.195
190,-273.0,966.0,24.0,1004.122004539289,2021-09-02 05:31:38.204
191,-345.0,959.0,-54.0,1020.5988438167076,2021-09-02 05:31:38.214
192,-249.0,943.0,6.0,975.3389154545204,2021-09-02 05:31:38.224
193,-142.0,1052.0,-27.0,1061.883703613536,2021-09-02 05:31:38.235
194,-132.0,940.0,-86.0,953.1106966139872,2021-09-02 05:31:38.243
195,-188.0,1021.0,-18.0,1038.3202781415762,2021-09-02 05:31:38.253
196,-147.0,1001.0,-38.0,1012.4495049137018,2021-09-02 05:31:38.263
197,-216.0,1001.0,-38.0,1024.7443583645631,2021-09-02 05:31:38.273
198,-216.0,922.0,-40.0,947.8079974340794,2021-09-02 05:31:38.274
199,-230.0,900.0,-13.0,929.0150698454788,2021-09-02 05:31:38.283
200,-306.0,1101.0,-16.0,1142.8442588559476,2021-09-02 05:31:38.293
201,-197.0,862.0,-33.0,884.8400985488847,2021-09-02 05:31:38.302
202,-197.0,1071.0,-2.0,1088.9692373983758,2021-09-02 05:31:38.312
203,-182.0,1065.0,-43.0,1081.2945944561084,2021-09-02 05:31:38.322
204,-67.0,983.0,-42.0,986.175440781203,2021-09-02 05:31:38.331
205,-218.0,983.0,-42.0,1007.7584035868914,2021-09-02 05:31:38.341
206,-218.0,1034.0,-16.0,1056.8519290799445,2021-09-02 05:31:38.342
207,-147.0,942.0,-102.0,958.8414884640734,2021-09-02 05:31:38.351
208,-89.0,942.0,-102.0,951.6769409836512,2021-09-02 05:31:38.360
209,-89.0,1093.0,40.0,1097.3468002413822,2021-09-02 05:31:38.361
210,-202.0,1017.0,-90.0,1040.765583596998,2021-09-02 05:31:38.371
211,-129.0,875.0,-90.0,889.0253089760719,2021-09-02 05:31:38.388
212,-129.0,875.0,-32.0,885.0367224019577,2021-09-02 05:31:38.389
213,-204.0,1049.0,-32.0,1069.1309554960983,2021-09-02 05:31:38.391
214,-204.0,1049.0,52.0,1069.9163518705564,2021-09-02 05:31:38.392
215,-123.0,1144.0,25.0,1150.8648921571985,2021-09-02 05:31:38.400
216,-207.0,901.0,25.0,924.8107914595288,2021-09-02 05:31:38.410
217,-207.0,901.0,-56.0,926.167371483146,2021-09-02 05:31:38.411
218,-178.0,968.0,-83.0,987.723139346244,2021-09-02 05:31:38.419
219,-92.0,1077.0,-20.0,1081.1073027225373,2021-09-02 05:31:38.429
220,-187.0,1012.0,-72.0,1031.6477111882718,2021-09-02 05:31:38.439
221,-160.0,1012.0,-72.0,1027.0968795590804,2021-09-02 05:31:38.448
222,-160.0,1011.0,58.0,1025.2243656878234,2021-09-02 05:31:38.449
223,-235.0,937.0,-10.0,966.071425930816,2021-09-02 05:31:38.459
224,-185.0,1081.0,-10.0,1096.761596701854,2021-09-02 05:31:38.469
225,-185.0,1081.0,-55.0,1098.0942582492637,2021-09-02 05:31:38.470
226,-218.0,950.0,44.0,975.6843751951754,2021-09-02 05:31:38.478
227,-85.0,935.0,-18.0,939.028221088163,2021-09-02 05:31:38.488
228,-283.0,968.0,-63.0,1010.4860216747188,2021-09-02 05:31:38.497
229,-175.0,968.0,-63.0,985.7068529740473,2021-09-02 05:31:38.507
230,-175.0,1037.0,-67.0,1053.794572011073,2021-09-02 05:31:38.508
231,-146.0,922.0,-40.0,934.3446901438464,2021-09-02 05:31:38.518
232,-196.0,922.0,-40.0,943.4511116109832,2021-09-02 05:31:38.526
233,-196.0,1049.0,32.0,1067.6333640346766,2021-09-02 05:31:38.527
234,-117.0,996.0,-96.0,1007.432876175877,2021-09-02 05:31:38.536
235,-151.0,869.0,-18.0,882.2051915512626,2021-09-02 05:31:38.546
236,-173.0,1014.0,0.0,1028.6520305720492,2021-09-02 05:31:38.556
237,-324.0,890.0,-37.0,947.8633867810275,2021-09-02 05:31:38.566
238,-209.0,1015.0,49.0,1037.4521675720766,2021-09-02 05:31:38.575
239,-248.0,910.0,-83.0,946.8331426391876,2021-09-02 05:31:38.585
240,-238.0,997.0,-6.0,1025.0312190367667,2021-09-02 05:31:38.595
241,-143.0,1004.0,-12.0,1014.2036284691552,2021-09-02 05:31:38.605
242,-47.0,951.0,-84.0,955.8587761798289,2021-09-02 05:31:38.615
243,-221.0,990.0,-33.0,1014.9039363407752,2021-09-02 05:31:38.626
244,-264.0,949.0,-60.0,986.8621990936728,2021-09-02 05:31:38.634
245,-206.0,974.0,-18.0,995.7087927702556,2021-09-02 05:31:38.644
246,-242.0,974.0,-18.0,1003.7748751587678,2021-09-02 05:31:38.653
247,-242.0,960.0,-5.0,990.044948474563,2021-09-02 05:31:38.654
248,-181.0,1009.0,-48.0,1026.229019273963,2021-09-02 05:31:38.663
249,-116.0,989.0,-52.0,997.1363998972256,2021-09-02 05:31:38.674
250,-59.0,1097.0,-33.0,1099.0809797280635,2021-09-02 05:31:38.683
251,-158.0,1097.0,-33.0,1108.8110749807652,2021-09-02 05:31:38.692
252,-158.0,902.0,-64.0,917.9673196797368,2021-09-02 05:31:38.693
253,-176.0,1026.0,-71.0,1043.4045236628026,2021-09-02 05:31:38.702
254,-127.0,1188.0,2.0,1194.770689295649,2021-09-02 05:31:38.713
255,-134.0,947.0,-112.0,962.9688468481212,2021-09-02 05:31:38.722
256,-145.0,908.0,-30.0,919.9940217197068,2021-09-02 05:31:38.732
257,-271.0,992.0,-30.0,1028.788122015413,2021-09-02 05:31:38.741
258,-271.0,992.0,7.0,1028.3744454234557,2021-09-02 05:31:38.742
259,-98.0,983.0,-100.0,992.9214470440248,2021-09-02 05:31:38.751
260,-191.0,965.0,-24.0,984.0132112934256,2021-09-02 05:31:38.761
261,-138.0,1087.0,-71.0,1098.0227684342433,2021-09-02 05:31:38.771
262,-70.0,1031.0,-71.0,1035.8098281055263,2021-09-02 05:31:38.781
263,-70.0,1031.0,-32.0,1033.8689472075268,2021-09-02 05:31:38.782
264,-163.0,1016.0,-36.0,1029.6217752165112,2021-09-02 05:31:38.790
265,-120.0,907.0,-65.0,917.209899641298,2021-09-02 05:31:38.800
266,-209.0,970.0,39.0,993.02668644906,2021-09-02 05:31:38.810
267,-372.0,970.0,39.0,1039.6177182022243,2021-09-02 05:31:38.819
268,-372.0,1012.0,-35.0,1078.7738409879987,2021-09-02 05:31:38.820
269,-202.0,955.0,-35.0,976.7568786550725,2021-09-02 05:31:38.830
270,-202.0,955.0,7.0,976.1547008543266,2021-09-02 05:31:38.831
271,-220.0,1039.0,43.0,1062.9063928681585,2021-09-02 05:31:38.839
272,-204.0,922.0,-142.0,954.9157030858796,2021-09-02 05:31:38.849
273,-94.0,1055.0,-14.0,1059.2719197637591,2021-09-02 05:31:38.859
274,-224.0,1037.0,0.0,1060.9170561358696,2021-09-02 05:31:38.869
275,-273.0,1003.0,-13.0,1039.570584424165,2021-09-02 05:31:38.879
276,-292.0,1053.0,-13.0,1092.813799327223,2021-09-02 05:31:38.888
277,-292.0,1053.0,-34.0,1093.2652925982786,2021-09-02 05:31:38.889
278,-187.0,955.0,12.0,973.210152022676,2021-09-02 05:31:38.898
279,-266.0,958.0,0.0,994.2434309564233,2021-09-02 05:31:38.923
280,-266.0,1009.0,-106.0,1048.8436489772917,2021-09-02 05:31:38.924
281,-109.0,1079.0,11.0,1084.547371026273,2021-09-02 05:31:38.927
282,-192.0,901.0,-34.0,921.8573642380908,2021-09-02 05:31:38.937
283,-240.0,901.0,-34.0,933.0364408746316,2021-09-02 05:31:38.946
284,-240.0,964.0,-40.0,994.2313614043766,2021-09-02 05:31:38.947
285,-145.0,1016.0,-34.0,1026.8578285235012,2021-09-02 05:31:38.957
286,-75.0,994.0,-64.0,998.8778704125946,2021-09-02 05:31:38.967
287,-199.0,992.0,-14.0,1011.8601682050736,2021-09-02 05:31:38.987
288,-171.0,1044.0,-50.0,1059.0925360892693,2021-09-02 05:31:38.989
289,-98.0,1048.0,-10.0,1052.6195894054033,2021-09-02 05:31:38.997
290,-184.0,1012.0,-29.0,1029.0,2021-09-02 05:31:39.005
291,-323.0,965.0,-1.0,1017.622228530804,2021-09-02 05:31:39.015
292,-95.0,981.0,-25.0,985.906182149194,2021-09-02 05:31:39.025
293,-73.0,1020.0,-25.0,1022.9144636771932,2021-09-02 05:31:39.034
294,-73.0,1020.0,-98.0,1027.294018282984,2021-09-02 05:31:39.035
295,-171.0,979.0,3.0,993.8264436006924,2021-09-02 05:31:39.045
296,-115.0,1038.0,-33.0,1044.8722409940844,2021-09-02 05:31:39.054
297,-70.0,1061.0,-108.0,1068.7773388316202,2021-09-02 05:31:39.064
298,-197.0,942.0,-108.0,968.4198469672128,2021-09-02 05:31:39.076
299,-197.0,942.0,-5.0,962.3918121014954,2021-09-02 05:31:39.077
300,-156.0,935.0,-5.0,947.937761670037,2021-09-02 05:31:39.083
301,-156.0,935.0,-21.0,948.157159968747,2021-09-02 05:31:39.084
302,-324.0,942.0,-56.0,997.7354358746612,2021-09-02 05:31:39.094
303,-225.0,942.0,-56.0,970.1159724486552,2021-09-02 05:31:39.103
304,-225.0,1013.0,33.0,1038.2114428188509,2021-09-02 05:31:39.104
305,-197.0,971.0,-42.0,991.6723249138296,2021-09-02 05:31:39.113
306,-140.0,995.0,-31.0,1005.279065732496,2021-09-02 05:31:39.122
307,-114.0,1057.0,-4.0,1063.1373382587972,2021-09-02 05:31:39.132
308,-184.0,918.0,-4.0,936.2670559194102,2021-09-02 05:31:39.142
309,-184.0,918.0,-42.0,937.2000853606448,2021-09-02 05:31:39.143
310,-160.0,918.0,-42.0,932.7850770675956,2021-09-02 05:31:39.153
311,-160.0,896.0,-70.0,912.8614352682448,2021-09-02 05:31:39.154
312,-322.0,1019.0,26.0,1068.9812907623782,2021-09-02 05:31:39.161
313,-294.0,994.0,10.0,1036.6156471904137,2021-09-02 05:31:39.171
314,-255.0,979.0,24.0,1011.9496034882368,2021-09-02 05:31:39.181
315,-216.0,1011.0,-11.0,1033.87523425218,2021-09-02 05:31:39.191
316,-207.0,1011.0,-11.0,1032.032460729797,2021-09-02 05:31:39.205
317,-207.0,992.0,-81.0,1016.5992327362834,2021-09-02 05:31:39.206
318,-51.0,1084.0,-51.0,1086.3967967552187,2021-09-02 05:31:39.210
319,-236.0,959.0,-37.0,988.3046089136687,2021-09-02 05:31:39.220
320,-253.0,937.0,-19.0,970.7414691873424,2021-09-02 05:31:39.230
321,-275.0,1047.0,-7.0,1082.535449765965,2021-09-02 05:31:39.240
322,-211.0,973.0,21.0,995.8368340245304,2021-09-02 05:31:39.251
323,-174.0,994.0,41.0,1009.9470283138616,2021-09-02 05:31:39.259
324,-287.0,1020.0,-78.0,1062.4749408809605,2021-09-02 05:31:39.269
325,-183.0,1020.0,-78.0,1039.2174940790787,2021-09-02 05:31:39.278
326,-183.0,1096.0,-13.0,1111.2488470185244,2021-09-02 05:31:39.279
327,-176.0,939.0,-23.0,955.6285889402848,2021-09-02 05:31:39.288
328,-211.0,972.0,-23.0,994.9040154708392,2021-09-02 05:31:39.299
329,-211.0,972.0,-59.0,996.3864712048232,2021-09-02 05:31:39.300
330,-100.0,1074.0,0.0,1078.645446845255,2021-09-02 05:31:39.308
331,-125.0,1074.0,0.0,1081.2497398843618,2021-09-02 05:31:39.317
332,-125.0,1023.0,-81.0,1033.786728489005,2021-09-02 05:31:39.318
333,-101.0,938.0,-37.0,944.1472342807556,2021-09-02 05:31:39.327
334,-128.0,986.0,-10.0,994.323890892701,2021-09-02 05:31:39.337
335,-41.0,1070.0,-18.0,1070.9365060543971,2021-09-02 05:31:39.348
336,-190.0,1005.0,-37.0,1023.4715433269262,2021-09-02 05:31:39.359
337,-213.0,913.0,-37.0,938.2467692457031,2021-09-02 05:31:39.366
338,-213.0,913.0,-59.0,939.3715984635686,2021-09-02 05:31:39.367
339,-96.0,1055.0,5.0,1059.3705678373362,2021-09-02 05:31:39.376
340,-194.0,1016.0,-78.0,1037.2926298783773,2021-09-02 05:31:39.386
341,-128.0,986.0,-21.0,994.4953494109462,2021-09-02 05:31:39.401
342,-121.0,1003.0,-21.0,1010.4904749674783,2021-09-02 05:31:39.405
343,-121.0,1003.0,-60.0,1012.0523701864444,2021-09-02 05:31:39.406
344,-118.0,994.0,-80.0,1004.1713001276228,2021-09-02 05:31:39.415
345,-244.0,913.0,55.0,946.6414315885396,2021-09-02 05:31:39.425
346,-215.0,972.0,-27.0,995.8604319883384,2021-09-02 05:31:39.436
347,-274.0,972.0,-27.0,1010.2420502038112,2021-09-02 05:31:39.444
348,-274.0,895.0,-96.0,940.9128546257618,2021-09-02 05:31:39.445
349,-228.0,997.0,43.0,1023.6415388210856,2021-09-02 05:31:39.454
350,-122.0,965.0,20.0,972.8869410162724,2021-09-02 05:31:39.464
351,-191.0,1057.0,-44.0,1075.0190695983026,2021-09-02 05:31:39.474
352,-87.0,988.0,-110.0,997.904304029199,2021-09-02 05:31:39.484
353,-189.0,922.0,57.0,942.896600905953,2021-09-02 05:31:39.495
354,-197.0,923.0,-51.0,945.1661229646352,2021-09-02 05:31:39.503
355,-312.0,901.0,-23.0,953.7683156825876,2021-09-02 05:31:39.513
356,-193.0,1029.0,50.0,1048.136441499865,2021-09-02 05:31:39.523
357,-197.0,885.0,50.0,908.038545437362,2021-09-02 05:31:39.532
358,-197.0,885.0,-103.0,912.492739697144,2021-09-02 05:31:39.533
359,-243.0,1031.0,55.0,1060.676670809724,2021-09-02 05:31:39.543
360,-150.0,996.0,-45.0,1008.236579380058,2021-09-02 05:31:39.552
361,-75.0,925.0,-77.0,931.2244627370997,2021-09-02 05:31:39.562
362,-259.0,953.0,-77.0,990.5649902959422,2021-09-02 05:31:39.571
363,-259.0,953.0,-39.0,988.3374929648272,2021-09-02 05:31:39.572
364,-341.0,928.0,-65.0,990.8027048812492,2021-09-02 05:31:39.582
365,-200.0,896.0,-57.0,919.8179167639648,2021-09-02 05:31:39.591
366,-238.0,896.0,-57.0,928.8212960521524,2021-09-02 05:31:39.601
367,-238.0,1015.0,4.0,1042.5377690999976,2021-09-02 05:31:39.602
368,-202.0,1015.0,4.0,1034.913039825086,2021-09-02 05:31:39.610
369,-202.0,1034.0,-14.0,1053.639407007919,2021-09-02 05:31:39.611
370,-155.0,975.0,-53.0,988.6652618555988,2021-09-02 05:31:39.620
371,-115.0,1054.0,-37.0,1060.9005608444177,2021-09-02 05:31:39.630
372,-195.0,929.0,-39.0,950.0457883702238,2021-09-02 05:31:39.640
373,-139.0,995.0,-51.0,1005.9557644349974,2021-09-02 05:31:39.651
374,-41.0,1137.0,-29.0,1138.108518551724,2021-09-02 05:31:39.659
375,-119.0,1006.0,-18.0,1013.173726465506,2021-09-02 05:31:39.669
376,-135.0,904.0,-29.0,914.4845542708744,2021-09-02 05:31:39.679
377,-242.0,904.0,-29.0,936.2804067158512,2021-09-02 05:31:39.689
378,-242.0,971.0,-26.0,1001.0399592423872,2021-09-02 05:31:39.690
379,-298.0,1096.0,-26.0,1136.0880247586451,2021-09-02 05:31:39.698
380,-298.0,1096.0,-57.0,1137.219855612801,2021-09-02 05:31:39.699
381,-200.0,903.0,-23.0,925.1691737190556,2021-09-02 05:31:39.708
382,-127.0,1058.0,-82.0,1068.7455263064262,2021-09-02 05:31:39.718
383,-135.0,1141.0,-26.0,1149.2528007362,2021-09-02 05:31:39.728
384,-162.0,1003.0,-67.0,1018.2052838205074,2021-09-02 05:31:39.738
385,-97.0,892.0,-49.0,898.5955708771327,2021-09-02 05:31:39.748
386,-197.0,892.0,-49.0,914.8081766140922,2021-09-02 05:31:39.757
387,-197.0,1025.0,7.0,1043.7830234296782,2021-09-02 05:31:39.758
388,-278.0,1064.0,-32.0,1100.18362103787,2021-09-02 05:31:39.767
389,-174.0,1064.0,-32.0,1078.60836265996,2021-09-02 05:31:39.776
390,-174.0,961.0,-15.0,976.740497778197,2021-09-02 05:31:39.777
391,-239.0,989.0,39.0,1018.2155960306244,2021-09-02 05:31:39.786
392,-271.0,969.0,-53.0,1007.5767960805766,2021-09-02 05:31:39.797
393,-125.0,1093.0,1.0,1100.1249928985342,2021-09-02 05:31:39.806
394,-200.0,1093.0,1.0,1111.1480549413743,2021-09-02 05:31:39.815
395,-200.0,1015.0,-36.0,1035.1429852923702,2021-09-02 05:31:39.816
396,-215.0,924.0,-33.0,949.2576046574502,2021-09-02 05:31:39.825
397,-243.0,1058.0,-35.0,1086.1114123330074,2021-09-02 05:31:39.835
398,-267.0,1058.0,-35.0,1091.7316520097784,2021-09-02 05:31:39.845
399,-267.0,991.0,20.0,1026.5329999566502,2021-09-02 05:31:39.846
400,-154.0,944.0,-34.0,957.083068495102,2021-09-02 05:31:39.855
401,-276.0,983.0,-34.0,1021.577701401122,2021-09-02 05:31:39.864
402,-276.0,983.0,-81.0,1024.2197029934543,2021-09-02 05:31:39.865
403,-151.0,1071.0,3.0,1081.5965051718686,2021-09-02 05:31:39.874
404,-230.0,966.0,-16.0,993.1324181598344,2021-09-02 05:31:39.884
405,-287.0,942.0,-16.0,984.88019575987,2021-09-02 05:31:39.894
406,-287.0,942.0,-56.0,986.3412188487308,2021-09-02 05:31:39.895
407,-72.0,942.0,-56.0,946.4058326109364,2021-09-02 05:31:39.903
408,-72.0,966.0,-24.0,968.9767799075476,2021-09-02 05:31:39.904
409,-187.0,1021.0,-57.0,1039.547497712346,2021-09-02 05:31:39.914
410,-135.0,933.0,-38.0,943.4818493219676,2021-09-02 05:31:39.923
411,-114.0,1077.0,49.0,1084.1245315921967,2021-09-02 05:31:39.945
412,-201.0,1004.0,49.0,1025.0941420181855,2021-09-02 05:31:39.952
413,-201.0,1004.0,-92.0,1028.0471779057614,2021-09-02 05:31:39.953
414,-246.0,1004.0,-92.0,1037.7841779483824,2021-09-02 05:31:39.963
415,-246.0,943.0,-25.0,974.8794797306998,2021-09-02 05:31:39.964
416,-150.0,1048.0,19.0,1058.8507921326782,2021-09-02 05:31:39.972
417,-80.0,976.0,-132.0,988.12954616285,2021-09-02 05:31:39.982
418,-190.0,981.0,-12.0,999.3022565770578,2021-09-02 05:31:40.007
419,-161.0,1046.0,-28.0,1058.688339408723,2021-09-02 05:31:40.009
420,-12.0,945.0,-120.0,952.6641590823076,2021-09-02 05:31:40.015
421,-243.0,998.0,27.0,1027.5125303372215,2021-09-02 05:31:40.021
422,-194.0,998.0,27.0,1017.0393306062456,2021-09-02 05:31:40.030
423,-194.0,947.0,-61.0,968.589696414328,2021-09-02 05:31:40.031
424,-341.0,901.0,-13.0,963.4578350919152,2021-09-02 05:31:40.044
425,-273.0,1044.0,-13.0,1079.1820977017735,2021-09-02 05:31:40.053
426,-273.0,1044.0,54.0,1080.4540712126543,2021-09-02 05:31:40.054
427,-137.0,1041.0,-8.0,1050.0066666455027,2021-09-02 05:31:40.060
428,-98.0,1041.0,-8.0,1045.6333009234163,2021-09-02 05:31:40.069
429,-98.0,960.0,-59.0,966.7910839473024,2021-09-02 05:31:40.070
430,-106.0,1102.0,-28.0,1107.440291844215,2021-09-02 05:31:40.079
431,-171.0,919.0,-27.0,935.1636220469657,2021-09-02 05:31:40.089
432,-121.0,884.0,-51.0,893.6990544920588,2021-09-02 05:31:40.099
433,-333.0,1057.0,2.0,1108.215682978724,2021-09-02 05:31:40.109
434,-212.0,908.0,-27.0,932.8113421265846,2021-09-02 05:31:40.120
435,-255.0,967.0,36.0,1000.7047516625472,2021-09-02 05:31:40.128
436,-233.0,1019.0,-22.0,1045.5304873603638,2021-09-02 05:31:40.138
437,-221.0,990.0,-67.0,1016.5775917262785,2021-09-02 05:31:40.148
438,-153.0,1135.0,7.0,1145.2873002002598,2021-09-02 05:31:40.158
439,-158.0,915.0,-61.0,930.542852317936,2021-09-02 05:31:40.168
440,-159.0,988.0,-20.0,1000.9120840513416,2021-09-02 05:31:40.177
441,-267.0,1005.0,29.0,1040.2667927027182,2021-09-02 05:31:40.187
442,-272.0,989.0,29.0,1026.1315705113063,2021-09-02 05:31:40.196
443,-272.0,989.0,8.0,1025.7528942196557,2021-09-02 05:31:40.197
444,-151.0,977.0,3.0,988.6045721116204,2021-09-02 05:31:40.206
445,-214.0,977.0,3.0,1000.1669860578282,2021-09-02 05:31:40.220
446,-214.0,1085.0,-57.0,1107.3707599535037,2021-09-02 05:31:40.221
447,-169.0,1075.0,-14.0,1088.2931590339067,2021-09-02 05:31:40.226
448,-229.0,1075.0,-14.0,1099.2097161142635,2021-09-02 05:31:40.235
449,-229.0,938.0,20.0,965.7561804099416,2021-09-02 05:31:40.236
450,-268.0,849.0,-61.0,892.3822051116887,2021-09-02 05:31:40.247
451,-146.0,849.0,-61.0,863.6191290146369,2021-09-02 05:31:40.255
452,-146.0,958.0,3.0,969.066045220861,2021-09-02 05:31:40.256
453,-190.0,1007.0,3.0,1024.772169801659,2021-09-02 05:31:40.265
454,-190.0,1007.0,-40.0,1025.5481461150423,2021-09-02 05:31:40.266
455,-166.0,900.0,-31.0,915.7057387610936,2021-09-02 05:31:40.275
456,-158.0,1027.0,21.0,1039.2949533217218,2021-09-02 05:31:40.284
457,-307.0,1072.0,-50.0,1116.2136892190492,2021-09-02 05:31:40.294
458,-292.0,882.0,-57.0,930.8259772911368,2021-09-02 05:31:40.305
459,-203.0,962.0,-38.0,983.9192040000032,2021-09-02 05:31:40.314
460,-193.0,1045.0,-38.0,1063.352246435771,2021-09-02 05:31:40.323
461,-193.0,1045.0,-12.0,1062.7407962433738,2021-09-02 05:31:40.324
462,-183.0,943.0,-28.0,961.0005202912224,2021-09-02 05:31:40.333
463,-270.0,979.0,-16.0,1015.6756371991996,2021-09-02 05:31:40.343
464,-144.0,979.0,-16.0,989.6630739802308,2021-09-02 05:31:40.353
465,-144.0,1041.0,-103.0,1055.9479153821935,2021-09-02 05:31:40.354
466,-114.0,1027.0,-40.0,1034.0817182408748,2021-09-02 05:31:40.363
467,-145.0,1002.0,-6.0,1012.4549372688148,2021-09-02 05:31:40.373
468,-128.0,935.0,-14.0,943.82466592053,2021-09-02 05:31:40.382
469,-141.0,1057.0,-72.0,1068.7909056499311,2021-09-02 05:31:40.392
470,-133.0,1057.0,-72.0,1067.764955409195,2021-09-02 05:31:40.401
471,-133.0,990.0,-54.0,1000.3524378937656,2021-09-02 05:31:40.402
472,-270.0,939.0,-10.0,977.0982550388676,2021-09-02 05:31:40.419
