,Acceleration_X,Acceleration_Y,Acceleration_Z,magnitude,time_stamp
0,-240.0,905.0,59.0,938.1396484532568,2021-09-23 15:12:36.902
1,-126.0,900.0,-32.0,909.3404203047394,2021-09-23 15:12:36.912
2,-376.0,900.0,-32.0,975.909831900468,2021-09-23 15:12:36.922
3,-376.0,885.0,-99.0,966.644712394373,2021-09-23 15:12:36.923
4,-181.0,1070.0,64.0,1087.0864731013812,2021-09-23 15:12:36.932
5,-213.0,1070.0,64.0,1092.8700746200343,2021-09-23 15:12:36.941
6,-213.0,816.0,116.0,851.2819744362029,2021-09-23 15:12:36.942
7,-293.0,1043.0,-153.0,1094.1238503935467,2021-09-23 15:12:36.951
8,-200.0,1196.0,-23.0,1212.8252141178464,2021-09-23 15:12:36.961
9,-144.0,1000.0,47.0,1011.407435210954,2021-09-23 15:12:36.971
10,-182.0,887.0,-28.0,905.9122474058952,2021-09-23 15:12:36.980
11,-8.0,1018.0,-142.0,1027.8871533393149,2021-09-23 15:12:36.990
12,-126.0,1025.0,-73.0,1035.2922292763526,2021-09-23 15:12:37.000
13,-221.0,1025.0,-73.0,1051.092289002255,2021-09-23 15:12:37.045
14,-221.0,946.0,-32.0,971.9984567888984,2021-09-23 15:12:37.046
15,-221.0,1047.0,-58.0,1071.6407980288918,2021-09-23 15:12:37.049
16,-221.0,1047.0,-58.0,1071.6407980288918,2021-09-23 15:12:37.071
17,-221.0,1125.0,-26.0,1146.7964073888618,2021-09-23 15:12:37.072
18,-221.0,797.0,40.0,828.039854113315,2021-09-23 15:12:37.075
19,-130.0,797.0,40.0,808.5227269532996,2021-09-23 15:12:37.081
20,-130.0,968.0,-72.0,979.3405944818176,2021-09-23 15:12:37.082
21,-187.0,1009.0,-90.0,1030.121352074599,2021-09-23 15:12:37.084
22,-187.0,938.0,-22.0,956.7115552767198,2021-09-23 15:12:37.088
23,-60.0,1051.0,10.0,1052.7587567909377,2021-09-23 15:12:37.092
24,-123.0,996.0,10.0,1003.6159624079322,2021-09-23 15:12:37.097
25,-123.0,996.0,-105.0,1009.0441021085252,2021-09-23 15:12:37.098
26,-61.0,1154.0,53.0,1156.825829587151,2021-09-23 15:12:37.108
27,-307.0,868.0,34.0,921.3191629397492,2021-09-23 15:12:37.117
28,-263.0,945.0,-12.0,980.9882771980508,2021-09-23 15:12:37.127
29,-128.0,965.0,0.0,973.4521046255948,2021-09-23 15:12:37.138
30,-290.0,774.0,31.0,827.1257461837348,2021-09-23 15:12:37.151
31,-66.0,967.0,-20.0,969.4560330412102,2021-09-23 15:12:37.157
32,-142.0,1053.0,-15.0,1062.637285248358,2021-09-23 15:12:37.166
33,-18.0,1076.0,-98.0,1080.6035350673253,2021-09-23 15:12:37.176
34,-392.0,815.0,100.0,909.8840585481208,2021-09-23 15:12:37.186
35,-328.0,1112.0,28.0,1159.703410359735,2021-09-23 15:12:37.196
36,-136.0,893.0,-108.0,909.730179778598,2021-09-23 15:12:37.205
37,-256.0,893.0,-108.0,935.226710482544,2021-09-23 15:12:37.214
38,-256.0,1026.0,49.0,1058.5901000859587,2021-09-23 15:12:37.215
39,-303.0,941.0,-41.0,989.4296336779084,2021-09-23 15:12:37.225
40,-79.0,977.0,-55.0,981.730614781876,2021-09-23 15:12:37.235
41,-190.0,977.0,-55.0,996.821949999096,2021-09-23 15:12:37.244
42,-190.0,1156.0,3.0,1171.513977722844,2021-09-23 15:12:37.245
43,-48.0,930.0,-170.0,946.6276987284916,2021-09-23 15:12:37.254
44,-257.0,920.0,-170.0,970.2314156942148,2021-09-23 15:12:37.263
45,-257.0,920.0,-48.0,956.4272058029298,2021-09-23 15:12:37.264
46,-224.0,1060.0,-10.0,1083.4555828459236,2021-09-23 15:12:37.273
47,-209.0,1031.0,-10.0,1052.0180606814697,2021-09-23 15:12:37.283
48,-209.0,1031.0,-34.0,1052.5198335423424,2021-09-23 15:12:37.284
49,-254.0,795.0,-61.0,836.816586833698,2021-09-23 15:12:37.294
50,-137.0,1231.0,-7.0,1238.6197963862842,2021-09-23 15:12:37.314
51,-157.0,975.0,-52.0,988.9277021097143,2021-09-23 15:12:37.317
52,-165.0,975.0,-52.0,990.2292663822858,2021-09-23 15:12:37.322
53,-165.0,969.0,-57.0,984.59890310725,2021-09-23 15:12:37.323
54,-84.0,1007.0,-24.0,1010.7823702459398,2021-09-23 15:12:37.333
55,-90.0,1007.0,-24.0,1011.2986700278014,2021-09-23 15:12:37.341
56,-90.0,1066.0,-87.0,1073.324275324098,2021-09-23 15:12:37.342
57,-62.0,1103.0,-87.0,1108.1615405706875,2021-09-23 15:12:37.351
58,-62.0,1103.0,8.0,1104.7701118332266,2021-09-23 15:12:37.352
59,-135.0,766.0,-29.0,778.345681558008,2021-09-23 15:12:37.362
60,-171.0,1032.0,-4.0,1046.0788689195476,2021-09-23 15:12:37.371
61,-228.0,1032.0,-4.0,1056.8935613390784,2021-09-23 15:12:37.387
62,-228.0,995.0,-36.0,1021.4230269579788,2021-09-23 15:12:37.388
63,-87.0,994.0,-113.0,1004.1782710256182,2021-09-23 15:12:37.392
64,-114.0,1003.0,20.0,1009.6558819716744,2021-09-23 15:12:37.400
65,-94.0,1125.0,-122.0,1135.4932848766657,2021-09-23 15:12:37.410
66,-48.0,1052.0,-14.0,1053.1875426532542,2021-09-23 15:12:37.421
67,-221.0,1052.0,-14.0,1075.0539521344965,2021-09-23 15:12:37.429
68,-221.0,918.0,72.0,946.968320483848,2021-09-23 15:12:37.430
69,-98.0,872.0,-92.0,882.2992689558345,2021-09-23 15:12:37.439
70,-274.0,1003.0,-25.0,1040.052883270846,2021-09-23 15:12:37.452
71,-201.0,1121.0,-25.0,1139.1518774948318,2021-09-23 15:12:37.459
72,-201.0,1121.0,-36.0,1139.4463567891207,2021-09-23 15:12:37.460
73,-284.0,762.0,-7.0,813.2336687570184,2021-09-23 15:12:37.470
74,-222.0,1097.0,-2.0,1119.2394739286135,2021-09-23 15:12:37.478
75,-111.0,1092.0,-134.0,1105.7761979713616,2021-09-23 15:12:37.488
76,-164.0,1056.0,46.0,1069.6485404094187,2021-09-23 15:12:37.498
77,-191.0,887.0,30.0,907.8270760447718,2021-09-23 15:12:37.508
78,-264.0,1072.0,-43.0,1104.8660552302256,2021-09-23 15:12:37.518
79,-171.0,985.0,-87.0,1003.5113352623378,2021-09-23 15:12:37.528
80,-426.0,895.0,8.0,991.2441677003704,2021-09-23 15:12:37.537
81,-178.0,1047.0,-93.0,1066.0872384565907,2021-09-23 15:12:37.547
82,-180.0,1105.0,-55.0,1120.9148049695837,2021-09-23 15:12:37.557
83,-211.0,1159.0,35.0,1178.5698961028995,2021-09-23 15:12:37.567
84,-198.0,774.0,-26.0,799.3472336850863,2021-09-23 15:12:37.577
85,-133.0,1017.0,-106.0,1031.1226891112424,2021-09-23 15:12:37.586
86,-130.0,1017.0,-106.0,1030.740025418631,2021-09-23 15:12:37.595
87,-130.0,951.0,-70.0,962.3933707169848,2021-09-23 15:12:37.596
88,-130.0,934.0,-13.0,943.0933145770888,2021-09-23 15:12:37.605
89,-127.0,1037.0,13.0,1044.82869409296,2021-09-23 15:12:37.616
90,-110.0,999.0,13.0,1005.1218831564656,2021-09-23 15:12:37.625
91,-110.0,999.0,-118.0,1011.9412038255978,2021-09-23 15:12:37.626
92,-96.0,999.0,-118.0,1010.515215125433,2021-09-23 15:12:37.634
93,-96.0,1033.0,-1.0,1037.451685622034,2021-09-23 15:12:37.635
94,-257.0,846.0,83.0,888.0619347770739,2021-09-23 15:12:37.644
95,-66.0,846.0,83.0,852.6200795195947,2021-09-23 15:12:37.654
96,-66.0,997.0,-166.0,1012.87758391624,2021-09-23 15:12:37.655
97,-81.0,952.0,-166.0,969.7530613511876,2021-09-23 15:12:37.664
98,-81.0,952.0,-57.0,957.1384434866254,2021-09-23 15:12:37.665
99,-284.0,1073.0,-24.0,1110.2076382371,2021-09-23 15:12:37.675
100,-67.0,1002.0,-6.0,1004.2554455914092,2021-09-23 15:12:37.685
101,-155.0,1057.0,-104.0,1073.3545546556363,2021-09-23 15:12:37.693
102,-96.0,1098.0,-33.0,1102.682637933508,2021-09-23 15:12:37.705
103,-386.0,855.0,89.0,942.3067441125528,2021-09-23 15:12:37.713
104,-361.0,985.0,89.0,1052.837594313577,2021-09-23 15:12:37.722
105,-361.0,985.0,-19.0,1049.241154358711,2021-09-23 15:12:37.723
106,-128.0,1037.0,-32.0,1045.3597466901049,2021-09-23 15:12:37.733
107,-232.0,1044.0,41.0,1070.2527738810118,2021-09-23 15:12:37.742
108,-305.0,834.0,-29.0,888.4942318327114,2021-09-23 15:12:37.752
109,-112.0,834.0,-29.0,841.9863419319817,2021-09-23 15:12:37.761
110,-112.0,1046.0,-77.0,1054.7933446889017,2021-09-23 15:12:37.762
111,-37.0,1078.0,-35.0,1079.2024833181213,2021-09-23 15:12:37.771
112,-358.0,872.0,79.0,945.9328728826376,2021-09-23 15:12:37.782
113,-353.0,984.0,12.0,1045.470707384956,2021-09-23 15:12:37.791
114,-337.0,1021.0,-101.0,1079.912496455153,2021-09-23 15:12:37.801
115,-127.0,951.0,-7.0,959.4680818036628,2021-09-23 15:12:37.810
116,-266.0,875.0,-15.0,914.6616860894524,2021-09-23 15:12:37.820
117,-116.0,1030.0,-38.0,1037.207790175141,2021-09-23 15:12:37.831
118,-177.0,988.0,-43.0,1004.6501878763572,2021-09-23 15:12:37.841
119,-76.0,984.0,-43.0,987.8668938677924,2021-09-23 15:12:37.849
120,-76.0,984.0,-138.0,996.5319864409772,2021-09-23 15:12:37.850
121,-140.0,960.0,16.0,970.2865556112793,2021-09-23 15:12:37.860
122,-251.0,1086.0,-60.0,1116.2423571966797,2021-09-23 15:12:37.869
123,32.0,1039.0,-34.0,1040.0485565587792,2021-09-23 15:12:37.879
124,-246.0,847.0,54.0,883.6520808553556,2021-09-23 15:12:37.889
125,-87.0,1001.0,-93.0,1009.0683822219384,2021-09-23 15:12:37.898
126,-292.0,1013.0,-40.0,1055.0037914623815,2021-09-23 15:12:37.908
127,-152.0,951.0,-72.0,965.758251323798,2021-09-23 15:12:37.918
128,-119.0,936.0,-17.0,943.6874482581612,2021-09-23 15:12:37.930
129,-154.0,1057.0,-155.0,1079.347024825658,2021-09-23 15:12:37.938
130,-19.0,1105.0,-13.0,1105.2397929861197,2021-09-23 15:12:37.948
131,-150.0,847.0,40.0,861.10916845659,2021-09-23 15:12:37.957
132,-169.0,847.0,40.0,864.621304387071,2021-09-23 15:12:37.966
133,-169.0,903.0,-55.0,920.3233127548166,2021-09-23 15:12:37.967
134,-299.0,971.0,-40.0,1016.7802122386136,2021-09-23 15:12:37.976
135,-277.0,1046.0,-17.0,1082.1894473704683,2021-09-23 15:12:37.987
136,-326.0,807.0,-26.0,870.7473801281287,2021-09-23 15:12:37.997
137,-208.0,1047.0,-42.0,1068.286946470844,2021-09-23 15:12:38.006
138,24.0,1071.0,-19.0,1071.4373523449703,2021-09-23 15:12:38.016
139,-170.0,871.0,-2.0,887.4373217303856,2021-09-23 15:12:38.025
140,-169.0,871.0,-2.0,887.2463017674404,2021-09-23 15:12:38.035
141,-169.0,895.0,-17.0,910.9747526688102,2021-09-23 15:12:38.036
142,-300.0,1001.0,11.0,1045.046410452665,2021-09-23 15:12:38.046
143,-251.0,1054.0,-19.0,1083.6410844924624,2021-09-23 15:12:38.060
144,-346.0,772.0,-21.0,846.2511447555034,2021-09-23 15:12:38.065
145,-172.0,1056.0,-40.0,1070.6633457814833,2021-09-23 15:12:38.074
146,-144.0,1058.0,-97.0,1072.1515751049385,2021-09-23 15:12:38.084
147,-108.0,1074.0,25.0,1079.7059784959977,2021-09-23 15:12:38.103
148,-238.0,890.0,50.0,922.6288527896794,2021-09-23 15:12:38.107
149,-41.0,922.0,-194.0,943.0805904057192,2021-09-23 15:12:38.113
150,-187.0,1052.0,-194.0,1085.9599440126694,2021-09-23 15:12:38.124
151,-187.0,1052.0,-12.0,1068.5583746337866,2021-09-23 15:12:38.125
152,-186.0,979.0,-36.0,997.1624742237344,2021-09-23 15:12:38.133
153,-231.0,1096.0,-75.0,1122.587190377656,2021-09-23 15:12:38.142
154,-137.0,1046.0,-97.0,1059.3837831494309,2021-09-23 15:12:38.154
155,-160.0,1153.0,81.0,1166.8633167599369,2021-09-23 15:12:38.163
156,-134.0,856.0,2.0,866.4271463891237,2021-09-23 15:12:38.172
157,-36.0,951.0,2.0,951.6832456232484,2021-09-23 15:12:38.181
158,-36.0,951.0,-82.0,955.2073073422334,2021-09-23 15:12:38.182
159,-182.0,1112.0,-62.0,1128.4998892334904,2021-09-23 15:12:38.192
160,-140.0,923.0,-96.0,938.480154292034,2021-09-23 15:12:38.202
161,-41.0,1018.0,46.0,1019.863226123974,2021-09-23 15:12:38.212
162,-211.0,1061.0,46.0,1082.7548198922968,2021-09-23 15:12:38.220
163,-211.0,1061.0,-103.0,1086.6696830223984,2021-09-23 15:12:38.221
164,-41.0,987.0,25.0,988.1674959236416,2021-09-23 15:12:38.230
165,-425.0,959.0,25.0,1049.2525911333266,2021-09-23 15:12:38.240
166,-425.0,959.0,68.0,1051.1565059495183,2021-09-23 15:12:38.241
167,-257.0,959.0,68.0,995.165312900324,2021-09-23 15:12:38.250
168,-257.0,918.0,-88.0,957.348943698169,2021-09-23 15:12:38.251
169,-233.0,1005.0,27.0,1032.009205385301,2021-09-23 15:12:38.260
170,-197.0,1083.0,-21.0,1100.97184341835,2021-09-23 15:12:38.271
171,-119.0,1023.0,-49.0,1031.06304365931,2021-09-23 15:12:38.279
172,-90.0,1001.0,-66.0,1007.2025615535338,2021-09-23 15:12:38.289
173,-179.0,1001.0,-66.0,1019.0181548922473,2021-09-23 15:12:38.298
174,-179.0,1151.0,51.0,1165.951542732373,2021-09-23 15:12:38.299
175,-324.0,781.0,51.0,847.0761476986588,2021-09-23 15:12:38.308
176,-324.0,781.0,41.0,846.5329290700982,2021-09-23 15:12:38.309
177,-123.0,1043.0,41.0,1051.0275924065934,2021-09-23 15:12:38.330
178,-123.0,1043.0,45.0,1051.1912290349458,2021-09-23 15:12:38.331
179,-123.0,1031.0,-59.0,1039.9860575988507,2021-09-23 15:12:38.332
180,-147.0,930.0,-10.0,941.5991716224054,2021-09-23 15:12:38.338
181,-280.0,946.0,-17.0,986.7142443483827,2021-09-23 15:12:38.348
182,-1.0,1001.0,-48.0,1002.1506872721288,2021-09-23 15:12:38.357
183,-248.0,1037.0,-70.0,1068.5377859486298,2021-09-23 15:12:38.367
184,-83.0,976.0,-112.0,985.9051678533792,2021-09-23 15:12:38.377
185,-108.0,976.0,-112.0,988.3238335687348,2021-09-23 15:12:38.387
186,-108.0,996.0,27.0,1002.202075431896,2021-09-23 15:12:38.388
187,-251.0,1006.0,27.0,1037.1913998872146,2021-09-23 15:12:38.404
188,-251.0,1006.0,-57.0,1038.405508459966,2021-09-23 15:12:38.405
189,-214.0,1066.0,4.0,1087.275494067626,2021-09-23 15:12:38.407
190,-262.0,813.0,-77.0,857.6374525404077,2021-09-23 15:12:38.416
191,-90.0,1110.0,-25.0,1113.9232469070748,2021-09-23 15:12:38.426
192,-134.0,1012.0,-24.0,1021.115076766571,2021-09-23 15:12:38.437
193,-58.0,1057.0,-64.0,1060.5229841922333,2021-09-23 15:12:38.445
194,-117.0,974.0,-52.0,982.379254666954,2021-09-23 15:12:38.455
195,-89.0,1154.0,-18.0,1157.5668447221526,2021-09-23 15:12:38.465
196,-48.0,1073.0,82.0,1077.198681766739,2021-09-23 15:12:38.476
197,-157.0,871.0,1.0,885.0372873500868,2021-09-23 15:12:38.485
198,-85.0,1052.0,-83.0,1058.686922560206,2021-09-23 15:12:38.495
199,-2.0,1125.0,-2.0,1125.003555549937,2021-09-23 15:12:38.504
200,-93.0,1125.0,-2.0,1128.839226816645,2021-09-23 15:12:38.513
201,-93.0,873.0,-81.0,881.6683049764237,2021-09-23 15:12:38.514
202,-64.0,945.0,122.0,954.9895287384046,2021-09-23 15:12:38.523
203,-382.0,1101.0,122.0,1171.7546671552027,2021-09-23 15:12:38.534
204,-382.0,1101.0,-61.0,1166.981576546948,2021-09-23 15:12:38.535
205,-140.0,1101.0,-61.0,1111.5403726361,2021-09-23 15:12:38.547
206,-140.0,919.0,-69.0,932.1598575351762,2021-09-23 15:12:38.548
207,-190.0,1044.0,-69.0,1063.3893924616702,2021-09-23 15:12:38.552
208,-190.0,1044.0,175.0,1075.481752518377,2021-09-23 15:12:38.553
209,-354.0,995.0,-91.0,1060.0103773076942,2021-09-23 15:12:38.562
210,-92.0,995.0,-91.0,1003.379290198876,2021-09-23 15:12:38.572
211,-92.0,936.0,-157.0,953.5245146298024,2021-09-23 15:12:38.573
212,-187.0,1138.0,32.0,1153.7057683829096,2021-09-23 15:12:38.583
213,-124.0,1138.0,32.0,1145.1829548155176,2021-09-23 15:12:38.591
214,-124.0,850.0,-131.0,868.9286506957864,2021-09-23 15:12:38.592
215,-145.0,1017.0,-14.0,1027.3801633280643,2021-09-23 15:12:38.601
216,-145.0,1136.0,-38.0,1145.8468484051436,2021-09-23 15:12:38.611
217,-139.0,948.0,-38.0,958.8894618255016,2021-09-23 15:12:38.621
218,-139.0,948.0,-57.0,959.8301933154636,2021-09-23 15:12:38.622
219,-263.0,971.0,-57.0,1007.6006153233532,2021-09-23 15:12:38.631
220,-263.0,971.0,39.0,1006.742767542931,2021-09-23 15:12:38.632
221,-119.0,892.0,-113.0,906.9696797578184,2021-09-23 15:12:38.640
222,-152.0,975.0,-73.0,989.4735974244082,2021-09-23 15:12:38.651
223,-214.0,945.0,1.0,968.9282739191792,2021-09-23 15:12:38.660
224,-202.0,945.0,1.0,966.3487983124934,2021-09-23 15:12:38.669
225,-202.0,1119.0,-93.0,1140.8829913711572,2021-09-23 15:12:38.670
226,-87.0,943.0,-63.0,949.0979928331952,2021-09-23 15:12:38.680
227,-228.0,1091.0,20.0,1114.748850638564,2021-09-23 15:12:38.690
228,-201.0,1091.0,20.0,1109.5413466833943,2021-09-23 15:12:38.699
229,-201.0,924.0,-43.0,946.5864989529484,2021-09-23 15:12:38.700
230,-157.0,973.0,13.0,985.670837551766,2021-09-23 15:12:38.709
231,-151.0,973.0,13.0,984.7329587253593,2021-09-23 15:12:38.718
232,-151.0,1133.0,-49.0,1144.067742749528,2021-09-23 15:12:38.719
233,-184.0,912.0,-15.0,930.4971789317794,2021-09-23 15:12:38.728
234,-137.0,1033.0,-58.0,1043.65798995648,2021-09-23 15:12:38.739
235,-156.0,1060.0,-58.0,1072.9864864013898,2021-09-23 15:12:38.751
236,-156.0,1060.0,-83.0,1074.627842557599,2021-09-23 15:12:38.752
237,-40.0,1033.0,-120.0,1040.7156191774966,2021-09-23 15:12:38.758
238,-83.0,891.0,61.0,896.9342227833655,2021-09-23 15:12:38.767
239,-129.0,981.0,-61.0,991.3238623174568,2021-09-23 15:12:38.777
240,-119.0,996.0,-175.0,1018.2347470009064,2021-09-23 15:12:38.788
241,-146.0,988.0,-123.0,1006.274813358657,2021-09-23 15:12:38.797
242,-116.0,972.0,-7.0,978.9223666869606,2021-09-23 15:12:38.807
243,-225.0,1088.0,-100.0,1115.512886523504,2021-09-23 15:12:38.816
244,-91.0,1049.0,-12.0,1053.008072143799,2021-09-23 15:12:38.826
245,-393.0,887.0,73.0,972.9064703248716,2021-09-23 15:12:38.837
246,-335.0,986.0,73.0,1043.910915739461,2021-09-23 15:12:38.846
247,-335.0,986.0,-22.0,1041.5877303424809,2021-09-23 15:12:38.847
248,-233.0,986.0,-22.0,1013.3947898030658,2021-09-23 15:12:38.855
249,-233.0,945.0,-2.0,973.3026250863604,2021-09-23 15:12:38.856
250,-256.0,948.0,-27.0,982.3283565081484,2021-09-23 15:12:38.865
251,-270.0,829.0,-59.0,873.8546789941678,2021-09-23 15:12:38.875
252,-113.0,1118.0,-29.0,1124.0702825001647,2021-09-23 15:12:38.885
253,-60.0,1137.0,-29.0,1138.9512720042064,2021-09-23 15:12:38.895
254,-60.0,1137.0,-39.0,1139.2497531270303,2021-09-23 15:12:38.896
255,-308.0,894.0,81.0,949.0316116968918,2021-09-23 15:12:38.904
256,-362.0,939.0,9.0,1006.4025039714478,2021-09-23 15:12:38.914
257,-323.0,939.0,9.0,993.0412881647972,2021-09-23 15:12:38.923
258,-323.0,1042.0,-39.0,1091.6107364807292,2021-09-23 15:12:38.924
259,-209.0,885.0,-20.0,909.5636316388204,2021-09-23 15:12:38.933
260,-320.0,838.0,-10.0,897.0752476799257,2021-09-23 15:12:38.944
261,-154.0,1081.0,-91.0,1095.6997763986265,2021-09-23 15:12:38.953
262,-185.0,1055.0,-7.0,1071.1204414070344,2021-09-23 15:12:38.964
263,-76.0,1023.0,-52.0,1027.136310330815,2021-09-23 15:12:38.972
264,-125.0,894.0,-53.0,904.2510713291967,2021-09-23 15:12:38.982
265,-232.0,1105.0,-65.0,1130.9615378075418,2021-09-23 15:12:38.992
266,-8.0,1087.0,0.0,1087.0294384238175,2021-09-23 15:12:39.003
267,-342.0,883.0,0.0,946.9176310535146,2021-09-23 15:12:39.011
268,-342.0,883.0,-5.0,946.9308316872992,2021-09-23 15:12:39.012
269,-113.0,1025.0,-64.0,1033.1940766380728,2021-09-23 15:12:39.021
270,-142.0,1060.0,-53.0,1070.7814903144338,2021-09-23 15:12:39.031
271,-45.0,1013.0,-148.0,1024.7428945838074,2021-09-23 15:12:39.041
272,-114.0,1013.0,-148.0,1030.0820355680416,2021-09-23 15:12:39.051
273,-114.0,942.0,7.0,948.898835493015,2021-09-23 15:12:39.052
274,-142.0,1068.0,-113.0,1083.3083586864825,2021-09-23 15:12:39.060
275,-12.0,1039.0,-16.0,1039.1924749535092,2021-09-23 15:12:39.074
276,-247.0,877.0,62.0,913.2261494284973,2021-09-23 15:12:39.080
277,-180.0,986.0,-38.0,1003.0154535200344,2021-09-23 15:12:39.090
278,-318.0,884.0,-77.0,942.6075535449522,2021-09-23 15:12:39.100
279,-280.0,1088.0,24.0,1123.7081471627764,2021-09-23 15:12:39.110
280,-383.0,861.0,-2.0,942.3449474582012,2021-09-23 15:12:39.127
281,-162.0,861.0,-2.0,876.1101528917468,2021-09-23 15:12:39.131
282,-162.0,1061.0,-162.0,1085.4533615038465,2021-09-23 15:12:39.132
283,-15.0,1068.0,28.0,1068.4722738564628,2021-09-23 15:12:39.138
284,-117.0,875.0,28.0,883.2315664648768,2021-09-23 15:12:39.158
285,-117.0,875.0,-132.0,892.6018149208526,2021-09-23 15:12:39.159
286,-278.0,1042.0,28.0,1078.8104560116203,2021-09-23 15:12:39.168
287,-229.0,1198.0,28.0,1220.011885188009,2021-09-23 15:12:39.177
288,-229.0,1198.0,-36.0,1220.221701167456,2021-09-23 15:12:39.178
289,-315.0,696.0,-25.0,764.3729456227503,2021-09-23 15:12:39.188
290,-299.0,1040.0,-2.0,1082.129844334773,2021-09-23 15:12:39.197
291,-142.0,1127.0,-139.0,1144.3836769195898,2021-09-23 15:12:39.207
292,-106.0,1127.0,-139.0,1140.47621632369,2021-09-23 15:12:39.216
293,-106.0,1009.0,-12.0,1014.6235755195124,2021-09-23 15:12:39.217
294,-201.0,952.0,71.0,975.5747024190408,2021-09-23 15:12:39.226
295,-6.0,838.0,-160.0,853.1588363253352,2021-09-23 15:12:39.236
296,-195.0,996.0,21.0,1015.1265930907336,2021-09-23 15:12:39.247
297,-210.0,1067.0,-91.0,1091.2699024531007,2021-09-23 15:12:39.256
298,-238.0,1044.0,-58.0,1072.35441902386,2021-09-23 15:12:39.265
299,-148.0,939.0,-55.0,952.1817053483016,2021-09-23 15:12:39.275
300,-217.0,1210.0,-55.0,1230.534030411187,2021-09-23 15:12:39.285
301,-217.0,1210.0,83.0,1232.103080103284,2021-09-23 15:12:39.286
302,-106.0,762.0,-85.0,774.0187336234181,2021-09-23 15:12:39.296
303,4.0,922.0,-48.0,923.2572772526628,2021-09-23 15:12:39.304
304,-162.0,1067.0,-53.0,1080.528574356088,2021-09-23 15:12:39.315
305,-85.0,898.0,-108.0,908.4563831026782,2021-09-23 15:12:39.324
306,-181.0,1125.0,67.0,1141.435499710781,2021-09-23 15:12:39.350
307,-181.0,1019.0,-157.0,1046.7908100475472,2021-09-23 15:12:39.351
308,-1.0,1049.0,-19.0,1049.1725310929562,2021-09-23 15:12:39.354
309,-392.0,931.0,70.0,1012.5833299042604,2021-09-23 15:12:39.363
310,-275.0,847.0,-18.0,890.7064611868492,2021-09-23 15:12:39.373
311,-125.0,905.0,-104.0,919.4922511908406,2021-09-23 15:12:39.384
312,-184.0,1099.0,-60.0,1115.9108387321992,2021-09-23 15:12:39.392
313,-54.0,1041.0,-60.0,1044.1249925176585,2021-09-23 15:12:39.408
314,-54.0,1041.0,-38.0,1043.092038125112,2021-09-23 15:12:39.409
315,-120.0,1047.0,-104.0,1058.9735596321564,2021-09-23 15:12:39.413
316,-73.0,1110.0,2.0,1112.399658396208,2021-09-23 15:12:39.422
317,-317.0,1110.0,2.0,1154.3799201302836,2021-09-23 15:12:39.431
318,-317.0,843.0,64.0,902.9030955755994,2021-09-23 15:12:39.432
319,-345.0,975.0,38.0,1034.936713040947,2021-09-23 15:12:39.441
320,-332.0,888.0,-42.0,948.9636452467504,2021-09-23 15:12:39.453
321,-243.0,982.0,-1.0,1011.6194936832724,2021-09-23 15:12:39.461
322,-255.0,843.0,-82.0,884.5326449600376,2021-09-23 15:12:39.471
323,-127.0,1144.0,-22.0,1151.2380292537248,2021-09-23 15:12:39.480
324,-163.0,1155.0,-25.0,1166.712903845672,2021-09-23 15:12:39.490
325,-87.0,933.0,-103.0,942.6913598840292,2021-09-23 15:12:39.501
326,-369.0,952.0,-103.0,1026.193938785452,2021-09-23 15:12:39.509
327,-369.0,952.0,53.0,1022.3864240100218,2021-09-23 15:12:39.510
328,-380.0,977.0,53.0,1049.6370801377018,2021-09-23 15:12:39.519
329,-380.0,977.0,0.0,1048.2981446134493,2021-09-23 15:12:39.520
330,-146.0,855.0,-48.0,868.7030562856332,2021-09-23 15:12:39.529
331,-339.0,911.0,-48.0,973.2142621231976,2021-09-23 15:12:39.539
332,-339.0,911.0,-33.0,972.5898416084758,2021-09-23 15:12:39.540
333,-99.0,1163.0,-42.0,1167.9614719672904,2021-09-23 15:12:39.549
334,-52.0,1000.0,-50.0,1002.5986235777506,2021-09-23 15:12:39.558
335,-130.0,1103.0,-40.0,1111.3545788811057,2021-09-23 15:12:39.568
336,-34.0,935.0,-29.0,936.067305272436,2021-09-23 15:12:39.578
337,-112.0,935.0,-29.0,942.1305642001008,2021-09-23 15:12:39.587
338,-112.0,1063.0,-83.0,1072.1016742828078,2021-09-23 15:12:39.588
339,4.0,1161.0,-17.0,1161.1313448529413,2021-09-23 15:12:39.598
340,-144.0,793.0,-33.0,806.6436635838653,2021-09-23 15:12:39.608
341,-134.0,998.0,-10.0,1007.0054617528148,2021-09-23 15:12:39.617
342,-183.0,1190.0,-10.0,1204.030315232968,2021-09-23 15:12:39.627
343,-183.0,1190.0,66.0,1205.796417310982,2021-09-23 15:12:39.628
344,-103.0,991.0,66.0,998.5219076214604,2021-09-23 15:12:39.636
345,-103.0,991.0,-160.0,1009.1035625742286,2021-09-23 15:12:39.637
346,-23.0,897.0,-36.0,898.0167036308401,2021-09-23 15:12:39.646
347,-199.0,1245.0,-62.0,1262.327215899269,2021-09-23 15:12:39.657
348,60.0,988.0,-67.0,992.0851777947296,2021-09-23 15:12:39.666
349,-216.0,923.0,57.0,949.649408992603,2021-09-23 15:12:39.676
350,-168.0,975.0,-92.0,993.63625135157,2021-09-23 15:12:39.685
351,-258.0,894.0,21.0,930.7206884989718,2021-09-23 15:12:39.695
352,-263.0,1170.0,13.0,1199.265608612204,2021-09-23 15:12:39.705
353,-318.0,1170.0,13.0,1212.51515454447,2021-09-23 15:12:39.714
354,-318.0,721.0,-96.0,793.8394044137643,2021-09-23 15:12:39.715
355,-271.0,1062.0,61.0,1097.7276529267176,2021-09-23 15:12:39.724
356,-125.0,1150.0,-142.0,1165.4565628971334,2021-09-23 15:12:39.735
357,-85.0,980.0,24.0,983.9720524486456,2021-09-23 15:12:39.744
358,-307.0,957.0,65.0,1007.1360384774244,2021-09-23 15:12:39.754
359,-279.0,1097.0,14.0,1132.0097172727803,2021-09-23 15:12:39.764
360,-263.0,1035.0,-81.0,1070.9598498543255,2021-09-23 15:12:39.773
361,-470.0,1035.0,-81.0,1139.5990522986583,2021-09-23 15:12:39.783
362,-470.0,812.0,54.0,939.765928303426,2021-09-23 15:12:39.784
363,-235.0,1079.0,-36.0,1104.8809890662433,2021-09-23 15:12:39.793
364,-78.0,1018.0,-152.0,1032.23640703087,2021-09-23 15:12:39.803
365,-171.0,1179.0,91.0,1194.806678923415,2021-09-23 15:12:39.813
366,-133.0,873.0,6.0,883.0934265410427,2021-09-23 15:12:39.822
367,-2.0,929.0,-159.0,942.5104773953444,2021-09-23 15:12:39.832
368,-199.0,929.0,-159.0,963.2875998371412,2021-09-23 15:12:39.841
369,-199.0,1040.0,7.0,1058.8909292273686,2021-09-23 15:12:39.842
370,-174.0,1032.0,7.0,1046.5892221879603,2021-09-23 15:12:39.851
371,-174.0,1032.0,-130.0,1054.6089322587782,2021-09-23 15:12:39.852
372,-17.0,1032.0,-130.0,1040.294669793131,2021-09-23 15:12:39.861
373,-17.0,1096.0,-31.0,1096.5701071978938,2021-09-23 15:12:39.862
374,-138.0,1078.0,-80.0,1089.7375830905346,2021-09-23 15:12:39.871
375,-32.0,1063.0,-24.0,1063.7523207965282,2021-09-23 15:12:39.881
376,-220.0,874.0,-45.0,902.386280924084,2021-09-23 15:12:39.891
377,0.0,976.0,-116.0,982.8692690281856,2021-09-23 15:12:39.900
378,-166.0,1013.0,-64.0,1028.5042537588265,2021-09-23 15:12:39.910
379,-181.0,964.0,-102.0,986.1343721826148,2021-09-23 15:12:39.921
380,-43.0,1107.0,-102.0,1112.5205616077394,2021-09-23 15:12:39.929
381,-43.0,1107.0,0.0,1107.834825233437,2021-09-23 15:12:39.930
382,-124.0,1107.0,0.0,1113.9232469070748,2021-09-23 15:12:39.939
383,-124.0,1107.0,-58.0,1115.432203228865,2021-09-23 15:12:39.940
384,-15.0,1018.0,-58.0,1019.761246567058,2021-09-23 15:12:39.949
385,-15.0,1018.0,-19.0,1018.2877785773528,2021-09-23 15:12:39.950
386,-347.0,900.0,119.0,971.8899114611696,2021-09-23 15:12:39.959
387,-416.0,884.0,3.0,976.9959058256078,2021-09-23 15:12:39.969
388,-321.0,978.0,6.0,1029.3497947733802,2021-09-23 15:12:39.978
389,-238.0,1019.0,-12.0,1046.493669354956,2021-09-23 15:12:39.988
390,-221.0,778.0,-74.0,812.1582358136867,2021-09-23 15:12:39.998
391,-66.0,778.0,-74.0,784.2933124794575,2021-09-23 15:12:40.007
392,-66.0,1015.0,-97.0,1021.7582884420366,2021-09-23 15:12:40.008
393,-20.0,1015.0,-97.0,1019.8205724538018,2021-09-23 15:12:40.017
394,-20.0,1096.0,6.0,1096.1988870638393,2021-09-23 15:12:40.018
395,-354.0,1096.0,6.0,1151.767337616413,2021-09-23 15:12:40.027
396,-354.0,874.0,64.0,945.1391431953286,2021-09-23 15:12:40.028
397,-362.0,893.0,16.0,963.7162445450424,2021-09-23 15:12:40.037
398,-320.0,958.0,3.0,1010.03613796735,2021-09-23 15:12:40.047
399,-291.0,857.0,3.0,905.0629812339027,2021-09-23 15:12:40.056
400,-291.0,857.0,-92.0,909.7219355385467,2021-09-23 15:12:40.057
401,-267.0,887.0,37.0,927.0528571769788,2021-09-23 15:12:40.067
402,-155.0,1184.0,-52.0,1195.2342866568044,2021-09-23 15:12:40.077
403,-135.0,1032.0,-93.0,1044.9392326829343,2021-09-23 15:12:40.091
404,-89.0,1079.0,-93.0,1086.6512780096473,2021-09-23 15:12:40.095
405,-89.0,1079.0,-42.0,1083.4786569194614,2021-09-23 15:12:40.096
406,-151.0,948.0,-20.0,960.158841025796,2021-09-23 15:12:40.105
407,-111.0,1027.0,-172.0,1047.2029411723404,2021-09-23 15:12:40.115
408,-264.0,943.0,-172.0,994.2479570006668,2021-09-23 15:12:40.126
409,-264.0,943.0,45.0,980.2907731892616,2021-09-23 15:12:40.127
410,-347.0,896.0,-91.0,965.1455848730802,2021-09-23 15:12:40.145
411,-83.0,1122.0,-60.0,1126.6645463490895,2021-09-23 15:12:40.148
412,-128.0,1159.0,2.0,1166.0484552538971,2021-09-23 15:12:40.155
413,-95.0,1018.0,-77.0,1025.318487105348,2021-09-23 15:12:40.166
414,-82.0,886.0,-30.0,890.2920869018212,2021-09-23 15:12:40.174
415,-215.0,1146.0,-105.0,1170.7117493217534,2021-09-23 15:12:40.183
416,-189.0,1029.0,-97.0,1050.700242695318,2021-09-23 15:12:40.193
417,-273.0,797.0,21.0,842.7211875822276,2021-09-23 15:12:40.203
418,-308.0,978.0,92.0,1029.4717091790333,2021-09-23 15:12:40.214
419,-152.0,933.0,-51.0,946.6752347030103,2021-09-23 15:12:40.222
420,-260.0,1111.0,-55.0,1142.3423304771648,2021-09-23 15:12:40.232
421,-245.0,1009.0,-97.0,1042.839872655433,2021-09-23 15:12:40.242
422,-70.0,921.0,-5.0,923.6698544393446,2021-09-23 15:12:40.252
423,-117.0,976.0,-43.0,983.9278428828,2021-09-23 15:12:40.262
