,Acceleration_X,Acceleration_Y,Acceleration_Z,magnitude,time_stamp
0,-34.0,980.0,-307.0,1027.523722353893,2021-09-24 12:46:12.469
1,-459.0,1261.0,-124.0,1347.6564844202694,2021-09-24 12:46:12.479
2,273.0,1183.0,-160.0,1224.5889106144969,2021-09-24 12:46:12.488
3,144.0,1091.0,-157.0,1111.6051457239662,2021-09-24 12:46:12.499
4,-339.0,893.0,-146.0,966.2742881811562,2021-09-24 12:46:12.513
5,67.0,848.0,94.0,855.8206587831355,2021-09-24 12:46:12.518
6,-340.0,728.0,319.0,864.4911798277643,2021-09-24 12:46:12.527
7,-494.0,1062.0,-130.0,1178.4651034290323,2021-09-24 12:46:12.537
8,-345.0,634.0,55.0,723.8825871645207,2021-09-24 12:46:12.548
9,-183.0,990.0,-225.0,1031.607483493601,2021-09-24 12:46:12.557
10,114.0,990.0,-225.0,1021.6266441317982,2021-09-24 12:46:12.567
11,114.0,1304.0,228.0,1328.682053766062,2021-09-24 12:46:12.568
12,-253.0,722.0,-32.0,765.7133928566222,2021-09-24 12:46:12.576
13,-232.0,947.0,-16.0,975.1353752172054,2021-09-24 12:46:12.586
14,-488.0,962.0,-103.0,1083.603709849685,2021-09-24 12:46:12.596
15,-197.0,962.0,-103.0,987.3510014174292,2021-09-24 12:46:12.605
16,-197.0,946.0,71.0,968.899375580354,2021-09-24 12:46:12.606
17,-513.0,787.0,40.0,940.286126665708,2021-09-24 12:46:12.616
18,-167.0,1111.0,-91.0,1127.1605919300052,2021-09-24 12:46:12.625
19,-197.0,1157.0,-194.0,1189.577235827922,2021-09-24 12:46:12.635
20,57.0,1089.0,67.0,1092.547024159601,2021-09-24 12:46:12.645
21,-41.0,748.0,36.0,749.9873332263686,2021-09-24 12:46:12.655
22,-146.0,979.0,-132.0,998.5895052522832,2021-09-24 12:46:12.664
23,-345.0,1042.0,-81.0,1100.613465300148,2021-09-24 12:46:12.674
24,-629.0,726.0,42.0,961.4993499737792,2021-09-24 12:46:12.684
25,-131.0,1092.0,42.0,1100.6311825493588,2021-09-24 12:46:12.693
26,-131.0,1092.0,30.0,1100.2386104841078,2021-09-24 12:46:12.694
27,-98.0,1228.0,-69.0,1233.835078120249,2021-09-24 12:46:12.704
28,-40.0,1213.0,103.0,1218.0221672859652,2021-09-24 12:46:12.718
29,-210.0,779.0,9.0,806.8593433802449,2021-09-24 12:46:12.724
30,46.0,938.0,9.0,939.1703785788816,2021-09-24 12:46:12.732
31,46.0,938.0,-177.0,955.6615509687516,2021-09-24 12:46:12.733
32,-264.0,939.0,-208.0,997.3369540932492,2021-09-24 12:46:12.742
33,-135.0,976.0,-208.0,1007.007944357938,2021-09-24 12:46:12.752
34,-135.0,976.0,-113.0,991.7509768081904,2021-09-24 12:46:12.753
35,184.0,1105.0,-113.0,1125.8996402877124,2021-09-24 12:46:12.762
36,184.0,1105.0,7.0,1120.2365821557516,2021-09-24 12:46:12.763
37,-89.0,1068.0,-71.0,1074.0512092074568,2021-09-24 12:46:12.772
38,194.0,1126.0,106.0,1147.4964052231276,2021-09-24 12:46:12.781
39,-22.0,737.0,144.0,751.2582778246107,2021-09-24 12:46:12.791
40,-110.0,737.0,144.0,758.9499324724919,2021-09-24 12:46:12.803
41,-110.0,1046.0,-161.0,1064.0192667428537,2021-09-24 12:46:12.804
42,-326.0,949.0,-105.0,1008.9112944159164,2021-09-24 12:46:12.811
43,-162.0,1025.0,-108.0,1043.3278487608773,2021-09-24 12:46:12.821
44,101.0,1025.0,-108.0,1035.610930803649,2021-09-24 12:46:12.830
45,101.0,1084.0,-41.0,1089.466842083778,2021-09-24 12:46:12.831
46,-262.0,1071.0,-163.0,1114.5644889372709,2021-09-24 12:46:12.840
47,192.0,1232.0,93.0,1250.334755175589,2021-09-24 12:46:12.850
48,-510.0,712.0,93.0,880.7343526853032,2021-09-24 12:46:12.859
49,-510.0,712.0,64.0,878.14577377563,2021-09-24 12:46:12.860
50,-523.0,943.0,158.0,1089.8357674438842,2021-09-24 12:46:12.869
51,-265.0,994.0,-118.0,1035.463664258674,2021-09-24 12:46:12.879
52,-238.0,850.0,-12.0,882.7729039792737,2021-09-24 12:46:12.889
53,-506.0,850.0,-12.0,989.2825683291908,2021-09-24 12:46:12.898
54,-506.0,891.0,20.0,1024.8497450846148,2021-09-24 12:46:12.899
55,87.0,891.0,20.0,895.4607752436731,2021-09-24 12:46:12.918
56,87.0,1163.0,-34.0,1166.7450449862642,2021-09-24 12:46:12.919
57,-192.0,1080.0,-159.0,1108.39749187735,2021-09-24 12:46:12.920
58,-407.0,694.0,205.0,830.2469512139144,2021-09-24 12:46:12.928
59,-526.0,1009.0,90.0,1141.4276148753368,2021-09-24 12:46:12.939
60,-468.0,796.0,-79.0,926.7583287999088,2021-09-24 12:46:12.948
61,-326.0,1003.0,11.0,1054.7065942716013,2021-09-24 12:46:12.957
62,-546.0,777.0,-52.0,951.0778096454568,2021-09-24 12:46:12.967
63,41.0,1188.0,11.0,1188.7581755765132,2021-09-24 12:46:12.978
64,-95.0,1304.0,51.0,1308.450228323569,2021-09-24 12:46:12.987
65,-31.0,953.0,-176.0,969.6112623108294,2021-09-24 12:46:12.996
66,-118.0,1029.0,14.0,1035.8383078453896,2021-09-24 12:46:13.006
67,-95.0,1227.0,-223.0,1250.7129966543084,2021-09-24 12:46:13.016
68,125.0,1049.0,25.0,1056.717086073657,2021-09-24 12:46:13.027
69,-234.0,1025.0,75.0,1054.0426936324734,2021-09-24 12:46:13.035
70,-106.0,1327.0,75.0,1333.337916658789,2021-09-24 12:46:13.045
71,-106.0,1327.0,94.0,1334.541494296824,2021-09-24 12:46:13.046
72,-18.0,1156.0,-130.0,1163.4259752988155,2021-09-24 12:46:13.055
73,-99.0,1156.0,-130.0,1167.4917558595434,2021-09-24 12:46:13.064
74,-99.0,1015.0,-6.0,1019.8343002664698,2021-09-24 12:46:13.065
75,-4.0,938.0,66.0,940.3276024875586,2021-09-24 12:46:13.074
76,-148.0,1163.0,-294.0,1208.680685706527,2021-09-24 12:46:13.085
77,24.0,1159.0,-1.0,1159.248894759016,2021-09-24 12:46:13.095
78,-271.0,1159.0,-1.0,1190.2617359219778,2021-09-24 12:46:13.103
79,-271.0,871.0,10.0,912.2400999736856,2021-09-24 12:46:13.104
80,-5.0,994.0,91.0,998.169324313265,2021-09-24 12:46:13.113
81,-265.0,1028.0,-43.0,1062.4772938750268,2021-09-24 12:46:13.123
82,-270.0,1054.0,24.0,1088.2977533745072,2021-09-24 12:46:13.134
83,-531.0,691.0,37.0,872.2448050862785,2021-09-24 12:46:13.143
84,-268.0,691.0,37.0,742.0741202871853,2021-09-24 12:46:13.152
85,-268.0,1105.0,-40.0,1137.7385464156516,2021-09-24 12:46:13.153
86,-122.0,1131.0,-112.0,1143.0612407041017,2021-09-24 12:46:13.162
87,-192.0,880.0,4.0,900.7108304000791,2021-09-24 12:46:13.172
88,-19.0,898.0,20.0,898.4236194579927,2021-09-24 12:46:13.183
89,-225.0,906.0,13.0,933.6112681410824,2021-09-24 12:46:13.192
90,-99.0,1031.0,-42.0,1036.593459365821,2021-09-24 12:46:13.202
91,-802.0,631.0,9.0,1020.5126162865406,2021-09-24 12:46:13.211
92,-319.0,986.0,27.0,1036.670632361118,2021-09-24 12:46:13.221
93,13.0,1149.0,-128.0,1156.180781711926,2021-09-24 12:46:13.231
94,-99.0,1102.0,-16.0,1106.5536588887137,2021-09-24 12:46:13.241
95,-70.0,745.0,132.0,759.8348504773916,2021-09-24 12:46:13.251
96,204.0,977.0,-89.0,1002.0309376461388,2021-09-24 12:46:13.260
97,-310.0,977.0,-89.0,1028.858590866597,2021-09-24 12:46:13.269
98,-310.0,954.0,-87.0,1006.8689090442708,2021-09-24 12:46:13.270
99,-164.0,954.0,-87.0,971.895570521854,2021-09-24 12:46:13.279
100,-164.0,999.0,-152.0,1023.7191997808774,2021-09-24 12:46:13.280
101,-357.0,953.0,17.0,1017.8148161625472,2021-09-24 12:46:13.298
102,-293.0,1215.0,-210.0,1267.3492020749452,2021-09-24 12:46:13.301
103,-20.0,1097.0,70.0,1099.4130252093614,2021-09-24 12:46:13.318
104,35.0,705.0,123.0,716.5047103822835,2021-09-24 12:46:13.321
105,82.0,1091.0,123.0,1100.9695726949042,2021-09-24 12:46:13.328
106,82.0,1091.0,-223.0,1116.5724338349034,2021-09-24 12:46:13.329
107,-331.0,889.0,-95.0,953.3661416266052,2021-09-24 12:46:13.339
108,-51.0,1013.0,-67.0,1016.493482517227,2021-09-24 12:46:13.348
109,-38.0,1013.0,-67.0,1015.9242097715754,2021-09-24 12:46:13.357
110,-38.0,1168.0,-33.0,1169.0838293296165,2021-09-24 12:46:13.358
111,21.0,1089.0,-70.0,1091.4494949378095,2021-09-24 12:46:13.367
112,183.0,1224.0,106.0,1242.1356608680069,2021-09-24 12:46:13.377
113,-618.0,754.0,-27.0,975.2789344592652,2021-09-24 12:46:13.389
114,-414.0,754.0,-27.0,860.6050197390206,2021-09-24 12:46:13.396
115,-414.0,876.0,138.0,978.6807446762198,2021-09-24 12:46:13.397
116,-303.0,944.0,-126.0,999.4103261423708,2021-09-24 12:46:13.406
117,-209.0,946.0,44.0,969.810806291619,2021-09-24 12:46:13.416
118,124.0,1096.0,-47.0,1103.9932065008372,2021-09-24 12:46:13.426
119,-113.0,1211.0,-109.0,1221.135127657869,2021-09-24 12:46:13.437
120,-14.0,1211.0,-109.0,1215.97615108192,2021-09-24 12:46:13.453
121,-14.0,1094.0,-34.0,1094.6177414970032,2021-09-24 12:46:13.454
122,-488.0,715.0,204.0,889.3733749106727,2021-09-24 12:46:13.456
123,-601.0,1006.0,53.0,1173.0498710626075,2021-09-24 12:46:13.465
124,-313.0,809.0,-47.0,868.7111142376389,2021-09-24 12:46:13.476
125,-251.0,887.0,-47.0,923.027085193062,2021-09-24 12:46:13.484
126,-251.0,887.0,66.0,924.1893745331636,2021-09-24 12:46:13.485
127,-486.0,778.0,31.0,917.8458476236628,2021-09-24 12:46:13.494
128,-187.0,778.0,31.0,800.75839052738,2021-09-24 12:46:13.504
129,-187.0,1129.0,44.0,1145.227488318369,2021-09-24 12:46:13.505
130,86.0,1208.0,45.0,1211.8931471049748,2021-09-24 12:46:13.514
131,-124.0,1117.0,-139.0,1132.4248319425003,2021-09-24 12:46:13.524
132,-28.0,850.0,-139.0,861.7453220064499,2021-09-24 12:46:13.533
133,-28.0,850.0,138.0,861.5845866773616,2021-09-24 12:46:13.534
134,-630.0,918.0,-77.0,1116.0434579352186,2021-09-24 12:46:13.543
135,-345.0,850.0,-5.0,917.3603435945986,2021-09-24 12:46:13.553
136,-222.0,767.0,-5.0,798.4973387557407,2021-09-24 12:46:13.563
137,-222.0,767.0,56.0,800.4430023430775,2021-09-24 12:46:13.564
138,-66.0,1202.0,-36.0,1204.3487866893045,2021-09-24 12:46:13.572
139,-174.0,1180.0,-161.0,1203.576752849605,2021-09-24 12:46:13.583
140,8.0,1030.0,-82.0,1033.289891559963,2021-09-24 12:46:13.592
141,-172.0,1030.0,-82.0,1047.4769687205535,2021-09-24 12:46:13.601
142,-172.0,856.0,-12.0,873.1918460453006,2021-09-24 12:46:13.602
143,-3.0,1163.0,-259.0,1191.494439768814,2021-09-24 12:46:13.612
144,25.0,1046.0,1.0,1046.2991923919276,2021-09-24 12:46:13.621
145,-251.0,877.0,-20.0,912.430819295359,2021-09-24 12:46:13.632
146,-51.0,851.0,4.0,852.5362162395214,2021-09-24 12:46:13.641
147,-369.0,861.0,4.0,936.748632238126,2021-09-24 12:46:13.650
148,-369.0,861.0,-8.0,936.7742524215746,2021-09-24 12:46:13.651
149,-211.0,1036.0,7.0,1057.291823481105,2021-09-24 12:46:13.660
150,-153.0,958.0,61.0,972.0565827152244,2021-09-24 12:46:13.670
151,8.0,1129.0,-227.0,1151.62233392723,2021-09-24 12:46:13.680
152,51.0,1129.0,-227.0,1152.7232972400618,2021-09-24 12:46:13.689
153,51.0,1073.0,-7.0,1074.2341457987638,2021-09-24 12:46:13.690
154,-274.0,905.0,2.0,945.5712559083,2021-09-24 12:46:13.699
155,12.0,808.0,0.0,808.0891039978203,2021-09-24 12:46:13.711
156,-566.0,999.0,-187.0,1163.325405894671,2021-09-24 12:46:13.719
157,-235.0,1085.0,-28.0,1110.510693329875,2021-09-24 12:46:13.729
158,-488.0,645.0,31.0,809.4010130954865,2021-09-24 12:46:13.739
159,-431.0,1040.0,1.0,1125.7717352998343,2021-09-24 12:46:13.748
160,-183.0,1040.0,1.0,1055.9782194723523,2021-09-24 12:46:13.758
161,-183.0,1170.0,-195.0,1200.1724876033445,2021-09-24 12:46:13.759
162,44.0,1170.0,-195.0,1186.9545062890995,2021-09-24 12:46:13.767
163,44.0,1107.0,107.0,1113.0291999763529,2021-09-24 12:46:13.768
164,-238.0,799.0,-13.0,833.7949388188921,2021-09-24 12:46:13.777
165,200.0,901.0,-189.0,942.0838603861124,2021-09-24 12:46:13.787
166,-423.0,968.0,-191.0,1073.51478797453,2021-09-24 12:46:13.797
167,-555.0,670.0,130.0,879.673234786645,2021-09-24 12:46:13.807
168,-525.0,954.0,-127.0,1096.2983170652046,2021-09-24 12:46:13.818
169,-77.0,1228.0,5.0,1230.421878869195,2021-09-24 12:46:13.826
170,-152.0,1188.0,5.0,1197.6948693218988,2021-09-24 12:46:13.836
171,-152.0,1188.0,-33.0,1198.1389735752691,2021-09-24 12:46:13.837
172,-100.0,674.0,37.0,682.3818579065537,2021-09-24 12:46:13.846
173,127.0,1025.0,37.0,1033.5003628446389,2021-09-24 12:46:13.855
174,127.0,1025.0,-139.0,1042.1492215609048,2021-09-24 12:46:13.856
175,-280.0,939.0,-239.0,1008.5841561317528,2021-09-24 12:46:13.866
176,-266.0,1022.0,-121.0,1062.9586069080958,2021-09-24 12:46:13.875
177,287.0,1104.0,72.0,1142.9650038387,2021-09-24 12:46:13.885
178,-1.0,1156.0,-172.0,1168.7262297048012,2021-09-24 12:46:13.895
179,151.0,1211.0,16.0,1220.4826913971374,2021-09-24 12:46:13.904
180,-553.0,1211.0,16.0,1331.3849931556235,2021-09-24 12:46:13.914
181,-553.0,742.0,102.0,931.0085928711936,2021-09-24 12:46:13.917
182,-594.0,758.0,102.0,968.4028087526387,2021-09-24 12:46:13.933
183,-594.0,758.0,52.0,964.4189960800232,2021-09-24 12:46:13.934
184,-293.0,876.0,-69.0,926.2753370353764,2021-09-24 12:46:13.936
185,-174.0,876.0,-69.0,895.7750833775184,2021-09-24 12:46:13.944
186,-174.0,1048.0,-93.0,1066.4093960576304,2021-09-24 12:46:13.945
187,266.0,1168.0,48.0,1198.8677992172447,2021-09-24 12:46:13.954
188,-20.0,1179.0,-107.0,1184.0143580210504,2021-09-24 12:46:13.963
189,78.0,1122.0,35.0,1125.252416127155,2021-09-24 12:46:13.973
190,-562.0,793.0,35.0,972.5831583982934,2021-09-24 12:46:13.982
191,-562.0,793.0,188.0,989.968181306854,2021-09-24 12:46:13.983
192,-466.0,905.0,188.0,1035.144917390797,2021-09-24 12:46:13.992
193,-466.0,905.0,66.0,1020.0671546520848,2021-09-24 12:46:13.993
194,-437.0,1007.0,-130.0,1105.4039985453282,2021-09-24 12:46:14.004
195,-358.0,989.0,6.0,1051.817950027475,2021-09-24 12:46:14.012
196,-426.0,989.0,6.0,1076.8625724761723,2021-09-24 12:46:14.021
197,-426.0,738.0,28.0,852.5866524875931,2021-09-24 12:46:14.022
198,76.0,1110.0,36.0,1113.181027506308,2021-09-24 12:46:14.031
199,-29.0,1130.0,-112.0,1135.9071264852598,2021-09-24 12:46:14.041
200,-472.0,1130.0,-112.0,1229.7267989273064,2021-09-24 12:46:14.051
201,-472.0,843.0,301.0,1011.9456507145036,2021-09-24 12:46:14.052
202,-593.0,843.0,301.0,1073.7313444246656,2021-09-24 12:46:14.060
203,-593.0,849.0,-16.0,1035.715211822246,2021-09-24 12:46:14.061
204,-329.0,1013.0,-30.0,1065.5092679090126,2021-09-24 12:46:14.070
205,-207.0,920.0,-66.0,945.3068284953832,2021-09-24 12:46:14.080
206,-453.0,764.0,51.0,889.6662295490371,2021-09-24 12:46:14.090
207,94.0,764.0,51.0,771.4486373051676,2021-09-24 12:46:14.100
208,94.0,1216.0,64.0,1221.3058584973708,2021-09-24 12:46:14.101
209,-196.0,1144.0,64.0,1162.4319334911615,2021-09-24 12:46:14.110
210,-196.0,1144.0,-95.0,1164.5501277317348,2021-09-24 12:46:14.111
211,-2.0,1144.0,-95.0,1147.9394583339315,2021-09-24 12:46:14.120
212,-2.0,1069.0,21.0,1069.2081181884096,2021-09-24 12:46:14.121
213,28.0,1081.0,-27.0,1081.6995886104423,2021-09-24 12:46:14.129
214,-186.0,1058.0,-165.0,1086.8233527119298,2021-09-24 12:46:14.139
215,194.0,1207.0,59.0,1223.9142126799577,2021-09-24 12:46:14.149
216,-329.0,774.0,-67.0,843.6859605327091,2021-09-24 12:46:14.159
217,-6.0,1011.0,44.0,1011.9748020578378,2021-09-24 12:46:14.168
218,-185.0,962.0,-19.0,979.8112063045616,2021-09-24 12:46:14.178
219,86.0,962.0,-19.0,966.0232916446683,2021-09-24 12:46:14.187
220,86.0,1004.0,-162.0,1020.615500568162,2021-09-24 12:46:14.188
221,-133.0,961.0,104.0,975.7181970220704,2021-09-24 12:46:14.197
222,-54.0,961.0,104.0,968.1182778979024,2021-09-24 12:46:14.207
223,-54.0,1195.0,-214.0,1215.2106813223788,2021-09-24 12:46:14.208
224,158.0,1037.0,-63.0,1050.857744892238,2021-09-24 12:46:14.217
225,-181.0,1037.0,-63.0,1054.5610461229828,2021-09-24 12:46:14.226
226,-181.0,850.0,129.0,878.5795353865237,2021-09-24 12:46:14.227
227,-124.0,901.0,129.0,918.5956673096168,2021-09-24 12:46:14.236
228,-124.0,901.0,-68.0,912.0312494646222,2021-09-24 12:46:14.237
229,-392.0,967.0,-68.0,1045.6466898527435,2021-09-24 12:46:14.246
230,-392.0,967.0,-43.0,1044.3189168065471,2021-09-24 12:46:14.247
231,-375.0,1025.0,-31.0,1091.884151364054,2021-09-24 12:46:14.257
232,-456.0,640.0,33.0,786.5271768985481,2021-09-24 12:46:14.267
233,-366.0,1092.0,33.0,1152.1757678410008,2021-09-24 12:46:14.275
234,-366.0,1092.0,-6.0,1151.7187156593402,2021-09-24 12:46:14.276
235,-165.0,1188.0,-148.0,1208.5003103019874,2021-09-24 12:46:14.285
236,-97.0,1190.0,104.0,1198.4677717819532,2021-09-24 12:46:14.295
237,-150.0,724.0,-27.0,739.8682315115307,2021-09-24 12:46:14.319
238,-246.0,1039.0,2.0,1067.72702503964,2021-09-24 12:46:14.332
239,-661.0,739.0,-58.0,993.1797420406842,2021-09-24 12:46:14.334
240,-223.0,1098.0,42.0,1121.20337138273,2021-09-24 12:46:14.344
241,-226.0,1190.0,-11.0,1211.3203539939384,2021-09-24 12:46:14.354
242,-20.0,1181.0,32.0,1181.602725115341,2021-09-24 12:46:14.364
243,-239.0,729.0,50.0,768.8055670974294,2021-09-24 12:46:14.373
244,39.0,1019.0,-170.0,1033.8191331175874,2021-09-24 12:46:14.383
245,-375.0,956.0,-73.0,1029.5095919902835,2021-09-24 12:46:14.393
246,-264.0,1118.0,-49.0,1149.7917202693711,2021-09-24 12:46:14.403
247,292.0,1126.0,73.0,1165.533783294161,2021-09-24 12:46:14.413
248,-70.0,1112.0,-194.0,1130.964190414533,2021-09-24 12:46:14.422
249,-28.0,1097.0,61.0,1099.051409170654,2021-09-24 12:46:14.432
250,-315.0,808.0,61.0,869.3733375253695,2021-09-24 12:46:14.441
251,-315.0,808.0,44.0,868.3461291443638,2021-09-24 12:46:14.442
252,228.0,994.0,-172.0,1034.2166117405,2021-09-24 12:46:14.451
253,-269.0,912.0,-172.0,966.2758405341614,2021-09-24 12:46:14.469
254,-269.0,912.0,-193.0,970.2339923956488,2021-09-24 12:46:14.470
255,-92.0,1036.0,-99.0,1044.7779668427163,2021-09-24 12:46:14.472
256,584.0,1036.0,-99.0,1193.3788166378688,2021-09-24 12:46:14.480
257,584.0,1107.0,29.0,1251.9368993683347,2021-09-24 12:46:14.481
258,-173.0,1107.0,29.0,1120.811759395841,2021-09-24 12:46:14.491
259,-173.0,1295.0,-156.0,1315.7849368342838,2021-09-24 12:46:14.492
260,121.0,1084.0,-52.0,1091.971153465145,2021-09-24 12:46:14.500
261,-560.0,717.0,187.0,928.7938414955172,2021-09-24 12:46:14.512
262,-742.0,717.0,187.0,1048.628628256925,2021-09-24 12:46:14.519
263,-742.0,896.0,0.0,1163.3486149903647,2021-09-24 12:46:14.520
264,-329.0,874.0,0.0,933.872046910068,2021-09-24 12:46:14.529
265,-329.0,874.0,-139.0,944.1599440772734,2021-09-24 12:46:14.530
266,-351.0,874.0,-139.0,952.0493684678332,2021-09-24 12:46:14.539
267,-351.0,997.0,126.0,1064.465123900262,2021-09-24 12:46:14.540
268,-414.0,747.0,126.0,863.2965886646373,2021-09-24 12:46:14.549
269,-414.0,747.0,-32.0,854.651390919128,2021-09-24 12:46:14.550
270,-156.0,1138.0,-192.0,1164.578893849618,2021-09-24 12:46:14.559
271,200.0,1045.0,118.0,1070.490074685422,2021-09-24 12:46:14.570
272,-471.0,780.0,170.0,926.8985920800612,2021-09-24 12:46:14.578
273,-723.0,793.0,-1.0,1073.116489482852,2021-09-24 12:46:14.588
274,-227.0,1054.0,3.0,1078.171600442156,2021-09-24 12:46:14.598
275,-371.0,1054.0,3.0,1117.3925004223,2021-09-24 12:46:14.607
276,-371.0,876.0,-61.0,953.2775041927716,2021-09-24 12:46:14.608
277,-500.0,790.0,-28.0,935.3523400302156,2021-09-24 12:46:14.618
278,-101.0,1256.0,41.0,1260.721222158174,2021-09-24 12:46:14.627
279,6.0,1159.0,-98.0,1163.1513229154666,2021-09-24 12:46:14.637
280,-47.0,1078.0,-98.0,1083.465274016662,2021-09-24 12:46:14.646
281,-47.0,1078.0,-68.0,1081.1646498105642,2021-09-24 12:46:14.647
282,-190.0,860.0,-68.0,883.3594964678877,2021-09-24 12:46:14.656
283,-190.0,860.0,-18.0,880.9222440147598,2021-09-24 12:46:14.657
284,-64.0,1079.0,-159.0,1092.5282605040477,2021-09-24 12:46:14.666
285,55.0,1063.0,40.0,1065.1732253488162,2021-09-24 12:46:14.676
286,-389.0,841.0,11.0,926.6730815125688,2021-09-24 12:46:14.686
287,10.0,1178.0,11.0,1178.093799321599,2021-09-24 12:46:14.695
288,10.0,1178.0,-20.0,1178.212204995348,2021-09-24 12:46:14.696
289,-171.0,1189.0,-106.0,1205.9013226628454,2021-09-24 12:46:14.706
290,40.0,1087.0,-40.0,1088.470945868561,2021-09-24 12:46:14.715
291,-110.0,925.0,-84.0,935.297278943973,2021-09-24 12:46:14.726
292,19.0,1106.0,-249.0,1133.8421406880236,2021-09-24 12:46:14.734
293,216.0,1060.0,156.0,1092.973924666092,2021-09-24 12:46:14.744
294,-443.0,900.0,-119.0,1010.1534536890916,2021-09-24 12:46:14.754
295,41.0,796.0,19.0,797.2816315455913,2021-09-24 12:46:14.764
296,-264.0,1048.0,130.0,1088.5311203635845,2021-09-24 12:46:14.774
297,-101.0,1256.0,-188.0,1274.0019623218795,2021-09-24 12:46:14.783
298,-525.0,667.0,71.0,851.7951631701134,2021-09-24 12:46:14.793
299,-90.0,1080.0,-280.0,1119.330156834881,2021-09-24 12:46:14.804
300,163.0,1080.0,-280.0,1127.5499988914016,2021-09-24 12:46:14.812
301,163.0,1152.0,116.0,1169.242917447012,2021-09-24 12:46:14.813
302,-262.0,882.0,-242.0,951.3842546521358,2021-09-24 12:46:14.823
303,-113.0,908.0,6.0,915.0240433999536,2021-09-24 12:46:14.832
304,-145.0,950.0,-13.0,961.0900061908874,2021-09-24 12:46:14.842
305,-232.0,950.0,-13.0,978.0046012161702,2021-09-24 12:46:14.851
306,-232.0,1230.0,-177.0,1264.1412104666156,2021-09-24 12:46:14.852
307,-742.0,715.0,136.0,1039.3675961852955,2021-09-24 12:46:14.862
308,-468.0,831.0,-142.0,964.234929879643,2021-09-24 12:46:14.871
309,-224.0,1184.0,-66.0,1206.8090155447132,2021-09-24 12:46:14.882
310,69.0,997.0,56.0,1000.9525463277467,2021-09-24 12:46:14.891
311,-231.0,708.0,56.0,746.833984229427,2021-09-24 12:46:14.900
312,-231.0,708.0,-79.0,748.9098744174762,2021-09-24 12:46:14.901
313,96.0,1057.0,-143.0,1070.9407079759364,2021-09-24 12:46:14.910
314,-236.0,823.0,-211.0,881.7856882485676,2021-09-24 12:46:14.922
315,-445.0,669.0,85.0,807.967202304648,2021-09-24 12:46:14.930
316,-630.0,669.0,85.0,922.8683546421992,2021-09-24 12:46:14.947
317,-630.0,875.0,73.0,1080.67293849712,2021-09-24 12:46:14.948
318,-185.0,1155.0,-87.0,1172.9531107422836,2021-09-24 12:46:14.950
319,-158.0,986.0,-87.0,1002.3617111601978,2021-09-24 12:46:14.959
320,-158.0,986.0,-6.0,998.597015817692,2021-09-24 12:46:14.960
321,-39.0,882.0,185.0,902.0365846239276,2021-09-24 12:46:14.970
322,106.0,882.0,185.0,907.4056424774976,2021-09-24 12:46:14.978
323,106.0,960.0,-213.0,989.0424662268048,2021-09-24 12:46:14.979
324,-86.0,903.0,78.0,910.4334132708444,2021-09-24 12:46:14.988
325,-33.0,1105.0,-154.0,1116.1675501464822,2021-09-24 12:46:14.998
326,122.0,1014.0,-17.0,1021.4543553189246,2021-09-24 12:46:15.008
327,9.0,1268.0,-122.0,1273.887357657654,2021-09-24 12:46:15.018
328,111.0,1093.0,-8.0,1098.650990988494,2021-09-24 12:46:15.029
329,-408.0,644.0,208.0,790.2303461649648,2021-09-24 12:46:15.037
330,-727.0,861.0,19.0,1127.036379182145,2021-09-24 12:46:15.047
331,-149.0,1024.0,-29.0,1035.1898376626386,2021-09-24 12:46:15.057
332,-95.0,971.0,-29.0,976.0671083486012,2021-09-24 12:46:15.066
333,-95.0,971.0,-87.0,979.5075293227716,2021-09-24 12:46:15.067
334,165.0,971.0,-87.0,988.754266741742,2021-09-24 12:46:15.077
335,165.0,1151.0,25.0,1163.035253120042,2021-09-24 12:46:15.078
336,-118.0,1084.0,-169.0,1103.4224032527163,2021-09-24 12:46:15.086
337,210.0,1113.0,-18.0,1132.781090943877,2021-09-24 12:46:15.096
338,-499.0,1113.0,-18.0,1219.874583717523,2021-09-24 12:46:15.105
339,-499.0,762.0,130.0,920.0788009730472,2021-09-24 12:46:15.106
340,-515.0,762.0,130.0,928.8535944916184,2021-09-24 12:46:15.116
341,-515.0,788.0,112.0,948.0047468235588,2021-09-24 12:46:15.117
342,-338.0,787.0,112.0,863.8037971669261,2021-09-24 12:46:15.125
343,-338.0,787.0,80.0,860.2400827675957,2021-09-24 12:46:15.126
344,-478.0,931.0,-43.0,1047.4225508360987,2021-09-24 12:46:15.135
345,-509.0,843.0,-2.0,984.7507298804098,2021-09-24 12:46:15.145
346,158.0,1227.0,42.0,1237.843689647445,2021-09-24 12:46:15.154
347,-111.0,1189.0,-198.0,1210.473461088677,2021-09-24 12:46:15.165
348,-229.0,1043.0,180.0,1082.9081216797665,2021-09-24 12:46:15.174
349,-547.0,906.0,-30.0,1058.7469008219102,2021-09-24 12:46:15.184
350,-449.0,958.0,-30.0,1058.4257177525496,2021-09-24 12:46:15.193
351,-449.0,958.0,9.0,1058.0387516532653,2021-09-24 12:46:15.194
352,-383.0,888.0,8.0,967.1075431408856,2021-09-24 12:46:15.203
353,-381.0,801.0,-11.0,887.0642592281577,2021-09-24 12:46:15.213
354,-2.0,1114.0,-7.0,1114.0237878968294,2021-09-24 12:46:15.224
355,32.0,1114.0,-7.0,1114.4814937898252,2021-09-24 12:46:15.232
356,32.0,1346.0,-8.0,1346.4040998155049,2021-09-24 12:46:15.233
357,2.0,1346.0,-8.0,1346.025259792698,2021-09-24 12:46:15.242
358,2.0,1010.0,-48.0,1011.1419287122852,2021-09-24 12:46:15.243
359,-210.0,893.0,-15.0,917.4824248997908,2021-09-24 12:46:15.252
360,110.0,1122.0,-204.0,1145.6875664857323,2021-09-24 12:46:15.262
361,28.0,1053.0,-7.0,1053.3954623027385,2021-09-24 12:46:15.273
362,-365.0,955.0,-69.0,1024.7004440323035,2021-09-24 12:46:15.281
363,207.0,885.0,-46.0,910.049449205921,2021-09-24 12:46:15.292
364,-166.0,893.0,-20.0,908.5180240369476,2021-09-24 12:46:15.301
365,70.0,1047.0,-5.0,1049.3493221992378,2021-09-24 12:46:15.311
366,-52.0,1017.0,-76.0,1021.16061420327,2021-09-24 12:46:15.342
367,175.0,1124.0,-249.0,1164.4749889971874,2021-09-24 12:46:15.347
368,175.0,1173.0,252.0,1212.4594838591515,2021-09-24 12:46:15.349
369,-240.0,796.0,252.0,868.7462230133723,2021-09-24 12:46:15.351
370,-240.0,796.0,-15.0,831.5293139751599,2021-09-24 12:46:15.352
371,-102.0,907.0,43.0,913.7297193371792,2021-09-24 12:46:15.360
372,-311.0,1012.0,-103.0,1063.707666607701,2021-09-24 12:46:15.369
373,-265.0,973.0,-156.0,1020.4361812479996,2021-09-24 12:46:15.379
374,-637.0,750.0,115.0,990.7037902420684,2021-09-24 12:46:15.390
375,-489.0,970.0,-20.0,1086.471812795896,2021-09-24 12:46:15.399
376,-106.0,1042.0,-58.0,1048.9823640080897,2021-09-24 12:46:15.408
377,-57.0,1145.0,56.0,1147.78482303958,2021-09-24 12:46:15.418
378,30.0,915.0,47.0,916.6973328203808,2021-09-24 12:46:15.428
379,-199.0,941.0,-68.0,964.2126321512284,2021-09-24 12:46:15.438
380,-313.0,1214.0,-23.0,1253.9114801292792,2021-09-24 12:46:15.447
381,-583.0,1214.0,-23.0,1346.927614981592,2021-09-24 12:46:15.457
382,-583.0,707.0,21.0,916.6127862952818,2021-09-24 12:46:15.458
383,-494.0,998.0,-37.0,1114.185352623162,2021-09-24 12:46:15.467
384,-205.0,1165.0,-178.0,1196.2165355820823,2021-09-24 12:46:15.477
385,-52.0,1049.0,-3.0,1050.2923402557976,2021-09-24 12:46:15.494
386,-254.0,838.0,13.0,875.7448258482605,2021-09-24 12:46:15.497
387,290.0,1111.0,-67.0,1150.1782470556466,2021-09-24 12:46:15.506
388,-256.0,908.0,-67.0,945.7742859689092,2021-09-24 12:46:15.516
389,-256.0,908.0,-144.0,954.3248922667792,2021-09-24 12:46:15.517
390,81.0,908.0,-144.0,922.908987928929,2021-09-24 12:46:15.525
391,81.0,1031.0,-46.0,1035.1994976814856,2021-09-24 12:46:15.526
392,122.0,1130.0,-4.0,1136.573798747798,2021-09-24 12:46:15.535
393,-34.0,1130.0,-67.0,1132.495033101691,2021-09-24 12:46:15.545
394,-103.0,1034.0,34.0,1039.6735064432487,2021-09-24 12:46:15.555
395,-49.0,1034.0,34.0,1035.7185911240565,2021-09-24 12:46:15.565
396,-49.0,827.0,31.0,829.0301562669479,2021-09-24 12:46:15.566
397,211.0,1199.0,31.0,1217.81895206143,2021-09-24 12:46:15.575
398,211.0,1199.0,-145.0,1226.0289556123869,2021-09-24 12:46:15.576
399,-379.0,933.0,-102.0,1012.1926694063734,2021-09-24 12:46:15.584
400,101.0,1101.0,-118.0,1111.9019740966378,2021-09-24 12:46:15.594
401,19.0,1101.0,-118.0,1107.4682839702457,2021-09-24 12:46:15.603
402,19.0,1195.0,-14.0,1195.2330316720668,2021-09-24 12:46:15.604
403,-8.0,1165.0,-192.0,1180.742562966204,2021-09-24 12:46:15.613
404,200.0,1133.0,112.0,1155.9554489685145,2021-09-24 12:46:15.624
405,-721.0,703.0,-27.0,1007.3623975511496,2021-09-24 12:46:15.633
406,-514.0,703.0,-27.0,871.2829620737456,2021-09-24 12:46:15.642
407,-514.0,776.0,143.0,941.7117393342828,2021-09-24 12:46:15.643
408,-331.0,1082.0,-48.0,1132.5144590688456,2021-09-24 12:46:15.652
409,-609.0,852.0,-92.0,1051.308232632086,2021-09-24 12:46:15.663
410,-235.0,773.0,145.0,820.8404229812272,2021-09-24 12:46:15.673
411,-2.0,1074.0,-76.0,1076.68751269809,2021-09-24 12:46:15.682
412,80.0,1115.0,-76.0,1120.446785884988,2021-09-24 12:46:15.691
413,80.0,1115.0,1.0,1117.866718352416,2021-09-24 12:46:15.692
414,-494.0,722.0,163.0,889.8814527789642,2021-09-24 12:46:15.703
415,-423.0,908.0,72.0,1004.2793436091374,2021-09-24 12:46:15.711
416,-538.0,878.0,-140.0,1039.1958429478054,2021-09-24 12:46:15.721
417,-465.0,1010.0,-33.0,1112.3911182673116,2021-09-24 12:46:15.732
418,-275.0,840.0,-89.0,888.3388992946329,2021-09-24 12:46:15.740
419,-213.0,1188.0,-110.0,1211.9459558907731,2021-09-24 12:46:15.750
420,270.0,1309.0,47.0,1337.3817704754315,2021-09-24 12:46:15.761
421,-31.0,1309.0,47.0,1310.210288465176,2021-09-24 12:46:15.769
422,-31.0,980.0,-82.0,983.91310591942,2021-09-24 12:46:15.770
423,-95.0,783.0,-43.0,789.9132863802204,2021-09-24 12:46:15.780
424,-418.0,1070.0,-131.0,1156.1941878421635,2021-09-24 12:46:15.789
425,-51.0,1033.0,122.0,1041.4288261806469,2021-09-24 12:46:15.799
426,-285.0,875.0,-237.0,950.273118634848,2021-09-24 12:46:15.809
427,40.0,875.0,-237.0,907.4106016572651,2021-09-24 12:46:15.818
428,40.0,1045.0,46.0,1046.7764804388758,2021-09-24 12:46:15.819
429,-83.0,1060.0,-67.0,1065.3534624714937,2021-09-24 12:46:15.829
430,-257.0,1060.0,-67.0,1092.7662147046824,2021-09-24 12:46:15.838
431,-257.0,905.0,14.0,940.8878785487674,2021-09-24 12:46:15.839
432,-251.0,824.0,82.0,865.2751007627575,2021-09-24 12:46:15.848
433,-185.0,1027.0,82.0,1046.7463876221402,2021-09-24 12:46:15.857
434,-185.0,1027.0,3.0,1043.533899784765,2021-09-24 12:46:15.858
435,-126.0,1140.0,-34.0,1147.4458592892302,2021-09-24 12:46:15.868
436,-125.0,1026.0,-46.0,1034.6095882022355,2021-09-24 12:46:15.877
437,-191.0,930.0,-32.0,949.9499986841412,2021-09-24 12:46:15.888
438,-184.0,930.0,-32.0,948.5673407829304,2021-09-24 12:46:15.896
439,-184.0,1021.0,-51.0,1038.7001492249822,2021-09-24 12:46:15.897
440,-268.0,1022.0,-41.0,1057.349989360193,2021-09-24 12:46:15.906
441,-162.0,971.0,-2.0,984.4231813605368,2021-09-24 12:46:15.916
442,-180.0,924.0,-36.0,942.0573230966362,2021-09-24 12:46:15.928
443,-125.0,924.0,-36.0,933.111461723625,2021-09-24 12:46:15.935
444,-125.0,1049.0,24.0,1056.693900805716,2021-09-24 12:46:15.936
445,-293.0,969.0,59.0,1014.0468430994696,2021-09-24 12:46:15.945
446,-217.0,884.0,59.0,912.1545921607806,2021-09-24 12:46:15.963
447,-217.0,884.0,-54.0,911.8448332912787,2021-09-24 12:46:15.964
448,-91.0,1074.0,-46.0,1078.8294582555668,2021-09-24 12:46:15.965
449,-196.0,1074.0,-46.0,1092.706731012489,2021-09-24 12:46:15.974
450,-196.0,1070.0,-74.0,1090.3173849847576,2021-09-24 12:46:15.975
451,-143.0,901.0,-74.0,915.2737295476146,2021-09-24 12:46:15.984
452,-143.0,901.0,45.0,913.3865556269152,2021-09-24 12:46:15.985
453,-230.0,1058.0,-27.0,1083.0480137094569,2021-09-24 12:46:15.996
454,-140.0,1074.0,-62.0,1084.8594378996756,2021-09-24 12:46:16.004
