,Acceleration_X,Acceleration_Y,Acceleration_Z,magnitude,time_stamp
0,-196.0,1001.0,-21.0,1020.2244851011958,2021-09-24 12:47:15.985
1,-80.0,1049.0,-35.0,1052.628139468065,2021-09-24 12:47:15.994
2,-216.0,1049.0,-35.0,1071.5792084582456,2021-09-24 12:47:16.004
3,-216.0,1053.0,-1.0,1074.9260439676768,2021-09-24 12:47:16.005
4,-209.0,898.0,18.0,922.17623044622,2021-09-24 12:47:16.014
5,-173.0,995.0,-26.0,1010.2623421666276,2021-09-24 12:47:16.024
6,-180.0,1103.0,18.0,1117.7356574789944,2021-09-24 12:47:16.033
7,-179.0,954.0,-31.0,971.1426259824044,2021-09-24 12:47:16.044
8,-193.0,964.0,-17.0,983.2771735375536,2021-09-24 12:47:16.053
9,-187.0,1142.0,-27.0,1157.5240818229229,2021-09-24 12:47:16.062
10,-111.0,998.0,-76.0,1007.0258189341522,2021-09-24 12:47:16.073
11,-170.0,874.0,-19.0,890.5823937177289,2021-09-24 12:47:16.082
12,-237.0,980.0,8.0,1008.2822025603743,2021-09-24 12:47:16.092
13,-130.0,980.0,8.0,988.6172161155196,2021-09-24 12:47:16.101
14,-130.0,1035.0,-86.0,1046.6713906475136,2021-09-24 12:47:16.102
15,-192.0,952.0,-8.0,971.201317956272,2021-09-24 12:47:16.112
16,-253.0,852.0,-8.0,888.8065031265241,2021-09-24 12:47:16.121
17,-253.0,852.0,-12.0,888.8515061583684,2021-09-24 12:47:16.122
18,-179.0,1017.0,-52.0,1033.941004119674,2021-09-24 12:47:16.131
19,-157.0,1074.0,-52.0,1086.659560303962,2021-09-24 12:47:16.140
20,-157.0,1074.0,24.0,1085.67997126225,2021-09-24 12:47:16.141
21,-198.0,968.0,31.0,988.528704691978,2021-09-24 12:47:16.150
22,-129.0,946.0,-24.0,955.056542828748,2021-09-24 12:47:16.161
23,-167.0,1009.0,-37.0,1023.3958178534832,2021-09-24 12:47:16.170
24,-162.0,1009.0,-37.0,1022.5918051695896,2021-09-24 12:47:16.180
25,-162.0,915.0,0.0,929.2303266682594,2021-09-24 12:47:16.181
26,-228.0,937.0,57.0,966.0238092303936,2021-09-24 12:47:16.189
27,-153.0,1057.0,-45.0,1068.963516683334,2021-09-24 12:47:16.199
28,-165.0,1034.0,-9.0,1047.120814424009,2021-09-24 12:47:16.209
29,-185.0,980.0,40.0,998.1107153016644,2021-09-24 12:47:16.219
30,-231.0,915.0,9.0,943.7515562901076,2021-09-24 12:47:16.229
31,-183.0,1047.0,-61.0,1064.6215289951635,2021-09-24 12:47:16.239
32,-187.0,1051.0,-8.0,1067.536416240683,2021-09-24 12:47:16.248
33,-246.0,964.0,31.0,995.375808426144,2021-09-24 12:47:16.258
34,-183.0,974.0,5.0,991.05499342872,2021-09-24 12:47:16.277
35,-139.0,1098.0,-44.0,1107.6375761051086,2021-09-24 12:47:16.280
36,-127.0,943.0,27.0,951.8965279903064,2021-09-24 12:47:16.287
37,-237.0,983.0,65.0,1013.2536701142512,2021-09-24 12:47:16.298
38,-157.0,983.0,65.0,997.5785683343444,2021-09-24 12:47:16.306
39,-157.0,1013.0,-82.0,1028.3686109562077,2021-09-24 12:47:16.307
40,-158.0,1003.0,0.0,1015.3684060477754,2021-09-24 12:47:16.316
41,-198.0,946.0,-10.0,966.5505677407676,2021-09-24 12:47:16.326
42,-225.0,915.0,-53.0,943.7473178769834,2021-09-24 12:47:16.336
43,-151.0,1125.0,-14.0,1135.1748763957032,2021-09-24 12:47:16.347
44,-162.0,990.0,-11.0,1003.2272922922302,2021-09-24 12:47:16.355
45,-180.0,899.0,3.0,916.8478608798736,2021-09-24 12:47:16.365
46,-789.0,1005.0,-109.0,1282.352135725597,2021-09-24 12:47:16.375
47,390.0,1026.0,-281.0,1133.021182502781,2021-09-24 12:47:16.385
48,-455.0,802.0,-127.0,930.7835408944444,2021-09-24 12:47:16.395
49,-91.0,758.0,162.0,780.4415416929061,2021-09-24 12:47:16.405
50,-362.0,960.0,-266.0,1059.9056561788884,2021-09-24 12:47:16.414
51,99.0,1159.0,-144.0,1172.0998251002345,2021-09-24 12:47:16.424
52,318.0,1226.0,-144.0,1274.7297752857269,2021-09-24 12:47:16.433
53,318.0,1226.0,43.0,1267.299885583519,2021-09-24 12:47:16.434
54,-244.0,1049.0,-404.0,1150.283878005773,2021-09-24 12:47:16.444
55,307.0,1169.0,130.0,1215.6109575024404,2021-09-24 12:47:16.454
56,-260.0,830.0,61.0,871.9065316878869,2021-09-24 12:47:16.463
57,-130.0,830.0,61.0,842.3306951548186,2021-09-24 12:47:16.472
58,-130.0,819.0,41.0,830.2662223648508,2021-09-24 12:47:16.473
59,-381.0,910.0,152.0,998.1808453381582,2021-09-24 12:47:16.482
60,-405.0,987.0,-77.0,1069.6368542641003,2021-09-24 12:47:16.493
61,-680.0,603.0,-56.0,910.5739947966888,2021-09-24 12:47:16.503
62,-102.0,603.0,-56.0,614.1245801952565,2021-09-24 12:47:16.511
63,-102.0,1278.0,-18.0,1282.1903134870424,2021-09-24 12:47:16.512
64,-215.0,1152.0,-196.0,1188.1687590573993,2021-09-24 12:47:16.521
65,33.0,1176.0,8.0,1176.4901189555312,2021-09-24 12:47:16.531
66,-215.0,908.0,-6.0,933.1264651696468,2021-09-24 12:47:16.541
67,-249.0,908.0,-6.0,941.5418206325196,2021-09-24 12:47:16.551
68,-249.0,991.0,128.0,1029.7892988373883,2021-09-24 12:47:16.552
69,-491.0,1050.0,-70.0,1161.241146360221,2021-09-24 12:47:16.561
70,-594.0,596.0,20.0,841.6959070828372,2021-09-24 12:47:16.570
71,-47.0,1250.0,-76.0,1253.1899297393034,2021-09-24 12:47:16.580
72,-244.0,1209.0,-146.0,1241.9875200661236,2021-09-24 12:47:16.591
73,-83.0,1209.0,-146.0,1220.608864460684,2021-09-24 12:47:16.599
74,-83.0,1160.0,-10.0,1163.0085984204932,2021-09-24 12:47:16.600
75,-123.0,737.0,-10.0,747.260329470259,2021-09-24 12:47:16.610
76,-123.0,737.0,172.0,766.7346346683447,2021-09-24 12:47:16.611
77,-41.0,939.0,-356.0,1005.05621733314,2021-09-24 12:47:16.619
78,20.0,1036.0,32.0,1036.6870308825128,2021-09-24 12:47:16.629
79,-309.0,1036.0,32.0,1081.573390944877,2021-09-24 12:47:16.638
80,-309.0,965.0,-52.0,1014.5984427348584,2021-09-24 12:47:16.639
81,257.0,1015.0,47.0,1048.085397284019,2021-09-24 12:47:16.649
82,-84.0,1129.0,47.0,1133.095759413122,2021-09-24 12:47:16.659
83,-84.0,1129.0,115.0,1137.9463959255727,2021-09-24 12:47:16.660
84,15.0,1190.0,115.0,1195.637905053198,2021-09-24 12:47:16.668
85,15.0,1190.0,-79.0,1192.713712506065,2021-09-24 12:47:16.669
86,-231.0,1190.0,-79.0,1214.7847545964676,2021-09-24 12:47:16.677
87,-231.0,778.0,88.0,816.3265278061225,2021-09-24 12:47:16.678
88,42.0,879.0,-345.0,945.2142614243608,2021-09-24 12:47:16.689
89,-91.0,1045.0,28.0,1049.3283566167456,2021-09-24 12:47:16.697
90,-272.0,866.0,-43.0,908.729332639813,2021-09-24 12:47:16.707
91,297.0,959.0,58.0,1005.6112568980122,2021-09-24 12:47:16.718
92,-21.0,1077.0,115.0,1083.3258974103776,2021-09-24 12:47:16.726
93,-7.0,1120.0,-63.0,1121.792315894524,2021-09-24 12:47:16.736
94,-674.0,787.0,241.0,1063.8261136106785,2021-09-24 12:47:16.746
95,-663.0,844.0,47.0,1074.2969794242183,2021-09-24 12:47:16.756
96,-205.0,1090.0,47.0,1110.1054004012412,2021-09-24 12:47:16.766
97,-205.0,1090.0,-111.0,1114.650617906795,2021-09-24 12:47:16.767
98,-143.0,1041.0,106.0,1056.108895900418,2021-09-24 12:47:16.784
99,-270.0,725.0,106.0,780.8719485293348,2021-09-24 12:47:16.786
100,-270.0,725.0,-14.0,773.7706378507781,2021-09-24 12:47:16.787
101,88.0,1062.0,-14.0,1065.731673546395,2021-09-24 12:47:16.798
102,88.0,1062.0,0.0,1065.6397139746623,2021-09-24 12:47:16.799
103,14.0,1247.0,-33.0,1247.5151301687688,2021-09-24 12:47:16.806
104,-772.0,656.0,195.0,1031.670974681366,2021-09-24 12:47:16.825
105,-637.0,656.0,195.0,934.94919648075,2021-09-24 12:47:16.826
106,-637.0,844.0,90.0,1061.2280621996383,2021-09-24 12:47:16.827
107,-458.0,1113.0,-101.0,1207.7806092167568,2021-09-24 12:47:16.835
108,-3.0,1011.0,36.0,1011.645194719967,2021-09-24 12:47:16.844
109,-373.0,774.0,31.0,859.7476373913452,2021-09-24 12:47:16.863
110,371.0,1237.0,-196.0,1306.22586102098,2021-09-24 12:47:16.866
111,-229.0,803.0,-126.0,844.4678797917657,2021-09-24 12:47:16.875
112,-107.0,803.0,-126.0,819.8377888338644,2021-09-24 12:47:16.882
113,-107.0,946.0,-138.0,961.9818085598084,2021-09-24 12:47:16.883
114,95.0,1301.0,19.0,1304.6022382320214,2021-09-24 12:47:16.893
115,-65.0,1149.0,-219.0,1171.4892231685276,2021-09-24 12:47:16.902
116,234.0,1206.0,64.0,1230.1577134660415,2021-09-24 12:47:16.912
117,-327.0,728.0,161.0,814.1461785207863,2021-09-24 12:47:16.922
118,-539.0,873.0,115.0,1032.4122238718408,2021-09-24 12:47:16.933
119,-159.0,964.0,36.0,977.6875779102444,2021-09-24 12:47:16.941
120,-162.0,927.0,-166.0,955.5778356575668,2021-09-24 12:47:16.951
121,191.0,1254.0,12.0,1268.5192154634474,2021-09-24 12:47:16.961
122,-3.0,1216.0,-230.0,1237.5641397519564,2021-09-24 12:47:16.971
123,241.0,1144.0,-6.0,1169.12488640008,2021-09-24 12:47:16.981
124,-271.0,804.0,186.0,868.5925396870502,2021-09-24 12:47:16.990
125,-610.0,925.0,114.0,1113.8765640770075,2021-09-24 12:47:17.000
126,-576.0,925.0,114.0,1095.6263049050986,2021-09-24 12:47:17.009
127,-576.0,874.0,-3.0,1046.7382671900364,2021-09-24 12:47:17.010
128,-443.0,970.0,-3.0,1066.3761062589504,2021-09-24 12:47:17.019
129,-443.0,970.0,-99.0,1070.95751549723,2021-09-24 12:47:17.020
130,-256.0,970.0,-99.0,1008.0858098396188,2021-09-24 12:47:17.030
131,-256.0,698.0,41.0,744.5945205277836,2021-09-24 12:47:17.031
132,-84.0,1389.0,-162.0,1400.9357586984495,2021-09-24 12:47:17.039
133,85.0,1389.0,-162.0,1400.9960742271908,2021-09-24 12:47:17.048
134,85.0,1297.0,16.0,1299.8807637625846,2021-09-24 12:47:17.049
135,20.0,952.0,33.0,952.7817168690844,2021-09-24 12:47:17.058
136,-591.0,954.0,96.0,1126.327217108776,2021-09-24 12:47:17.068
137,-530.0,977.0,-17.0,1111.6285350781527,2021-09-24 12:47:17.078
138,-425.0,784.0,-71.0,894.6071763628995,2021-09-24 12:47:17.088
139,-665.0,784.0,-71.0,1030.495997081017,2021-09-24 12:47:17.097
140,-665.0,732.0,20.0,989.165810165313,2021-09-24 12:47:17.098
141,53.0,1337.0,-76.0,1340.206700475714,2021-09-24 12:47:17.107
142,-35.0,1333.0,-83.0,1336.0400443100498,2021-09-24 12:47:17.117
143,84.0,1333.0,-83.0,1338.2204601634216,2021-09-24 12:47:17.127
144,84.0,1018.0,-64.0,1023.4627496885269,2021-09-24 12:47:17.128
145,62.0,1018.0,-64.0,1021.892362237824,2021-09-24 12:47:17.136
146,62.0,754.0,47.0,758.003298145859,2021-09-24 12:47:17.137
147,-33.0,1158.0,-323.0,1202.6562268578664,2021-09-24 12:47:17.146
148,69.0,1008.0,47.0,1011.4514323485828,2021-09-24 12:47:17.156
149,-402.0,862.0,-44.0,952.147047466934,2021-09-24 12:47:17.166
150,201.0,862.0,-44.0,886.2172419897956,2021-09-24 12:47:17.175
151,201.0,946.0,94.0,971.6753573081908,2021-09-24 12:47:17.176
152,-279.0,924.0,31.0,965.7007818159826,2021-09-24 12:47:17.186
153,11.0,928.0,31.0,928.5827911392716,2021-09-24 12:47:17.196
154,11.0,928.0,37.0,928.802454777118,2021-09-24 12:47:17.197
155,-169.0,882.0,4.0,898.0540072846399,2021-09-24 12:47:17.205
156,9.0,1057.0,-365.0,1118.2821647509184,2021-09-24 12:47:17.215
157,94.0,1043.0,184.0,1063.2690158186683,2021-09-24 12:47:17.225
158,-404.0,797.0,-13.0,893.6408674629871,2021-09-24 12:47:17.235
159,122.0,714.0,40.0,725.4515834981684,2021-09-24 12:47:17.244
160,-491.0,1002.0,30.0,1116.236982006957,2021-09-24 12:47:17.254
161,-302.0,1230.0,-42.0,1267.2284719023637,2021-09-24 12:47:17.264
162,-582.0,558.0,184.0,827.0090688740964,2021-09-24 12:47:17.273
163,-768.0,1008.0,46.0,1268.0709759315523,2021-09-24 12:47:17.293
164,-192.0,1146.0,-194.0,1178.056025832388,2021-09-24 12:47:17.296
165,-24.0,1146.0,-194.0,1162.5523644120294,2021-09-24 12:47:17.302
166,-24.0,1189.0,53.0,1190.4226140325125,2021-09-24 12:47:17.303
167,-256.0,860.0,25.0,897.6419107862556,2021-09-24 12:47:17.314
168,366.0,906.0,-277.0,1015.6382229908444,2021-09-24 12:47:17.322
169,-153.0,1180.0,-101.0,1194.156606145107,2021-09-24 12:47:17.332
170,-617.0,1180.0,-101.0,1335.3988168333833,2021-09-24 12:47:17.341
171,-617.0,627.0,170.0,895.9453108309681,2021-09-24 12:47:17.342
172,-573.0,1060.0,-25.0,1205.2194820861469,2021-09-24 12:47:17.352
173,-114.0,1140.0,-72.0,1147.9459917609363,2021-09-24 12:47:17.363
174,41.0,1170.0,62.0,1172.358733494147,2021-09-24 12:47:17.371
175,-207.0,742.0,-5.0,770.3492714347175,2021-09-24 12:47:17.381
176,288.0,1000.0,-273.0,1075.859191530193,2021-09-24 12:47:17.390
177,-165.0,967.0,-102.0,986.264670359838,2021-09-24 12:47:17.401
178,-195.0,940.0,-139.0,970.0237110504052,2021-09-24 12:47:17.411
179,351.0,1334.0,51.0,1380.347057808289,2021-09-24 12:47:17.420
180,11.0,1193.0,51.0,1194.1402765169594,2021-09-24 12:47:17.429
181,11.0,1193.0,-241.0,1217.1487172897157,2021-09-24 12:47:17.430
182,145.0,1055.0,-7.0,1064.9408434274646,2021-09-24 12:47:17.439
183,-653.0,748.0,311.0,1040.496996631898,2021-09-24 12:47:17.449
184,145.0,904.0,-233.0,944.7380589348564,2021-09-24 12:47:17.460
185,-219.0,940.0,-75.0,968.0836740695506,2021-09-24 12:47:17.470
186,-98.0,887.0,-59.0,894.3455707946454,2021-09-24 12:47:17.478
187,194.0,1199.0,44.0,1215.3900608446656,2021-09-24 12:47:17.489
188,-75.0,1224.0,-261.0,1253.76313552441,2021-09-24 12:47:17.499
189,286.0,1153.0,21.0,1188.127097578369,2021-09-24 12:47:17.508
190,-619.0,658.0,264.0,941.1806415348756,2021-09-24 12:47:17.518
191,-812.0,899.0,23.0,1211.6410359508295,2021-09-24 12:47:17.527
192,-486.0,811.0,-9.0,945.514674661372,2021-09-24 12:47:17.537
193,-439.0,937.0,-9.0,1034.780653085474,2021-09-24 12:47:17.547
194,-439.0,937.0,24.0,1035.019806573768,2021-09-24 12:47:17.548
195,-478.0,629.0,-82.0,794.2600329866788,2021-09-24 12:47:17.556
196,109.0,1273.0,39.0,1278.2531048270523,2021-09-24 12:47:17.566
197,-120.0,1300.0,-46.0,1306.3368631405913,2021-09-24 12:47:17.577
198,-794.0,693.0,217.0,1075.9990706315689,2021-09-24 12:47:17.586
199,-595.0,839.0,85.0,1032.0712184728338,2021-09-24 12:47:17.596
200,-476.0,1015.0,-73.0,1123.4455928081252,2021-09-24 12:47:17.605
201,-321.0,873.0,-51.0,931.5422695723474,2021-09-24 12:47:17.615
202,-366.0,720.0,147.0,820.9537136769649,2021-09-24 12:47:17.626
203,112.0,720.0,147.0,743.3390881690535,2021-09-24 12:47:17.634
204,112.0,1366.0,-44.0,1371.2899037038082,2021-09-24 12:47:17.635
205,-201.0,1047.0,-197.0,1084.1674224952528,2021-09-24 12:47:17.644
206,81.0,1080.0,-178.0,1097.5632100248258,2021-09-24 12:47:17.655
207,166.0,1261.0,-2.0,1271.8808906497495,2021-09-24 12:47:17.664
208,11.0,1140.0,-217.0,1160.5214345284624,2021-09-24 12:47:17.674
209,161.0,1250.0,86.0,1263.2565060192644,2021-09-24 12:47:17.683
210,-192.0,727.0,28.0,752.4473403501404,2021-09-24 12:47:17.698
211,-208.0,915.0,77.0,941.497742960651,2021-09-24 12:47:17.703
212,-276.0,1121.0,-95.0,1158.379039865622,2021-09-24 12:47:17.713
213,-33.0,1120.0,-88.0,1123.9363861002098,2021-09-24 12:47:17.723
214,256.0,1088.0,-88.0,1121.170816602002,2021-09-24 12:47:17.733
215,-284.0,1277.0,-189.0,1321.7813737528609,2021-09-24 12:47:17.742
216,383.0,1245.0,103.0,1306.6457056141885,2021-09-24 12:47:17.752
217,-242.0,654.0,103.0,704.9035395002638,2021-09-24 12:47:17.761
218,-242.0,654.0,67.0,700.5490703726613,2021-09-24 12:47:17.762
219,-434.0,984.0,25.0,1075.7495061583809,2021-09-24 12:47:17.771
220,-450.0,816.0,-30.0,932.3389941432248,2021-09-24 12:47:17.782
221,-530.0,816.0,-30.0,973.4762452160812,2021-09-24 12:47:17.801
222,-530.0,1011.0,-111.0,1146.883603509964,2021-09-24 12:47:17.802
223,-620.0,723.0,22.0,952.6872519352822,2021-09-24 12:47:17.806
224,-18.0,1280.0,-67.0,1281.8786994095817,2021-09-24 12:47:17.811
225,-179.0,1280.0,-67.0,1294.1908669126049,2021-09-24 12:47:17.820
226,-179.0,1381.0,-85.0,1395.1440785811335,2021-09-24 12:47:17.821
227,-181.0,1183.0,52.0,1197.8956548881877,2021-09-24 12:47:17.841
228,-20.0,650.0,52.0,652.3833229014979,2021-09-24 12:47:17.842
229,-20.0,650.0,168.0,671.65765089069,2021-09-24 12:47:17.843
230,-97.0,650.0,168.0,678.3310401271639,2021-09-24 12:47:17.850
231,-97.0,957.0,-313.0,1011.5468352973083,2021-09-24 12:47:17.851
232,-542.0,951.0,-32.0,1095.0748832842437,2021-09-24 12:47:17.859
233,-652.0,610.0,4.0,892.8717713087361,2021-09-24 12:47:17.882
234,-183.0,1247.0,4.0,1260.362646225284,2021-09-24 12:47:17.888
235,-183.0,1247.0,-213.0,1278.2280704162306,2021-09-24 12:47:17.889
236,-12.0,1046.0,152.0,1057.0543978433657,2021-09-24 12:47:17.899
237,-179.0,745.0,28.0,766.7137666691527,2021-09-24 12:47:17.908
238,1.0,992.0,-356.0,1053.945444508396,2021-09-24 12:47:17.918
239,-196.0,997.0,-356.0,1076.6433950013347,2021-09-24 12:47:17.927
240,-196.0,997.0,-40.0,1016.8701982062412,2021-09-24 12:47:17.928
241,-299.0,997.0,-40.0,1041.63813294253,2021-09-24 12:47:17.938
242,-299.0,780.0,-35.0,836.0777475809292,2021-09-24 12:47:17.939
243,469.0,975.0,100.0,1086.5477440039165,2021-09-24 12:47:17.947
244,-426.0,1090.0,1.0,1170.2892804772673,2021-09-24 12:47:17.957
245,-20.0,1090.0,1.0,1090.1839294357626,2021-09-24 12:47:17.966
246,-20.0,1271.0,-24.0,1271.3838916708046,2021-09-24 12:47:17.967
247,-702.0,764.0,161.0,1049.9623802784556,2021-09-24 12:47:17.976
248,-41.0,1067.0,-413.0,1144.8751023583316,2021-09-24 12:47:17.986
249,135.0,980.0,-413.0,1072.0046641689578,2021-09-24 12:47:17.996
250,135.0,980.0,50.0,990.517541490306,2021-09-24 12:47:17.997
251,-447.0,980.0,50.0,1078.2898497157432,2021-09-24 12:47:18.006
252,-447.0,930.0,-9.0,1031.8866216789518,2021-09-24 12:47:18.007
253,332.0,967.0,-9.0,1022.4451085510656,2021-09-24 12:47:18.015
254,332.0,967.0,59.0,1024.1064397805533,2021-09-24 12:47:18.016
255,-103.0,910.0,181.0,933.5255754396876,2021-09-24 12:47:18.025
256,-85.0,1261.0,-43.0,1264.5928198436047,2021-09-24 12:47:18.035
257,-596.0,462.0,81.0,758.433253490378,2021-09-24 12:47:18.045
258,-671.0,911.0,52.0,1132.6367467109656,2021-09-24 12:47:18.056
259,-171.0,1273.0,-180.0,1296.9849652174075,2021-09-24 12:47:18.064
260,60.0,991.0,90.0,996.885650413326,2021-09-24 12:47:18.082
261,-522.0,821.0,75.0,975.7817378901902,2021-09-24 12:47:18.084
262,331.0,943.0,-293.0,1041.4696346989672,2021-09-24 12:47:18.094
263,-198.0,823.0,-123.0,855.3724335048447,2021-09-24 12:47:18.105
264,-61.0,988.0,-220.0,1014.0340230978446,2021-09-24 12:47:18.113
265,-764.0,940.0,40.0,1211.9801978580342,2021-09-24 12:47:18.123
266,-85.0,940.0,40.0,944.6824863413104,2021-09-24 12:47:18.132
267,-85.0,991.0,-150.0,1005.8856793890644,2021-09-24 12:47:18.133
268,-40.0,1086.0,81.0,1089.7508889649964,2021-09-24 12:47:18.142
269,-182.0,723.0,-4.0,745.56622777591,2021-09-24 12:47:18.153
270,217.0,967.0,-245.0,1020.8834409471044,2021-09-24 12:47:18.162
271,-324.0,967.0,-245.0,1048.8517531090845,2021-09-24 12:47:18.171
272,-324.0,1011.0,-61.0,1063.3992665034143,2021-09-24 12:47:18.172
273,36.0,940.0,-61.0,942.6648396964852,2021-09-24 12:47:18.181
274,36.0,940.0,-243.0,971.568319779932,2021-09-24 12:47:18.182
275,380.0,1277.0,-26.0,1332.5933363183233,2021-09-24 12:47:18.191
276,-99.0,1236.0,-210.0,1257.6156010482694,2021-09-24 12:47:18.202
277,264.0,1064.0,79.0,1099.1055454322848,2021-09-24 12:47:18.212
278,-602.0,1064.0,79.0,1225.047346023818,2021-09-24 12:47:18.220
279,-602.0,721.0,312.0,989.7418855439028,2021-09-24 12:47:18.221
280,-810.0,813.0,68.0,1149.649076892597,2021-09-24 12:47:18.230
281,-482.0,853.0,73.0,982.4774806579538,2021-09-24 12:47:18.240
282,98.0,917.0,-236.0,951.9395989242174,2021-09-24 12:47:18.250
283,235.0,1314.0,60.0,1336.1964675900024,2021-09-24 12:47:18.261
284,-52.0,1110.0,-245.0,1137.9055321071253,2021-09-24 12:47:18.269
285,275.0,1131.0,129.0,1171.0794166067474,2021-09-24 12:47:18.279
286,-670.0,650.0,195.0,953.637771902938,2021-09-24 12:47:18.289
287,-678.0,735.0,112.0,1006.2072351161066,2021-09-24 12:47:18.305
288,-597.0,735.0,112.0,953.5082590098524,2021-09-24 12:47:18.308
289,-597.0,1014.0,-12.0,1176.753585080581,2021-09-24 12:47:18.309
290,-393.0,960.0,-93.0,1041.488358072235,2021-09-24 12:47:18.318
291,-322.0,738.0,113.0,813.0787169764069,2021-09-24 12:47:18.328
292,149.0,1323.0,-2.0,1331.365464476227,2021-09-24 12:47:18.338
293,-88.0,1218.0,-135.0,1228.614260050729,2021-09-24 12:47:18.349
294,37.0,1110.0,-117.0,1116.7622844634395,2021-09-24 12:47:18.357
295,-61.0,1037.0,-4.0,1038.800269541744,2021-09-24 12:47:18.367
296,-11.0,1106.0,-260.0,1136.2028868120342,2021-09-24 12:47:18.377
297,-426.0,1106.0,-260.0,1213.3886434279827,2021-09-24 12:47:18.386
298,-426.0,901.0,-16.0,996.7612552662748,2021-09-24 12:47:18.387
299,-406.0,712.0,-6.0,819.6438250850183,2021-09-24 12:47:18.398
300,101.0,1311.0,-10.0,1314.922811422785,2021-09-24 12:47:18.406
301,-211.0,1201.0,-88.0,1222.5653356774026,2021-09-24 12:47:18.416
302,210.0,1201.0,-88.0,1222.393144614285,2021-09-24 12:47:18.425
303,210.0,1032.0,-173.0,1067.264259684545,2021-09-24 12:47:18.426
304,-24.0,1199.0,16.0,1199.3469056115498,2021-09-24 12:47:18.435
305,-38.0,1105.0,-290.0,1143.0524922329682,2021-09-24 12:47:18.446
306,277.0,1164.0,72.0,1198.6696792694809,2021-09-24 12:47:18.455
307,-350.0,859.0,58.0,929.3788248071936,2021-09-24 12:47:18.465
308,60.0,906.0,58.0,909.8351499035416,2021-09-24 12:47:18.474
309,60.0,906.0,-51.0,909.4157465098128,2021-09-24 12:47:18.475
310,-294.0,1069.0,-83.0,1111.7940456757267,2021-09-24 12:47:18.485
311,-493.0,1124.0,-83.0,1230.16828117132,2021-09-24 12:47:18.494
312,-493.0,1124.0,-176.0,1239.919755468071,2021-09-24 12:47:18.495
313,-492.0,610.0,130.0,794.3953675595044,2021-09-24 12:47:18.506
314,-499.0,610.0,130.0,798.7496478872463,2021-09-24 12:47:18.513
315,-499.0,1255.0,-63.0,1352.03365342731,2021-09-24 12:47:18.514
316,-83.0,902.0,88.0,910.0752716121892,2021-09-24 12:47:18.523
317,-465.0,694.0,99.0,841.2264855554656,2021-09-24 12:47:18.533
318,-432.0,1106.0,-83.0,1190.2726578393708,2021-09-24 12:47:18.543
319,66.0,1106.0,-83.0,1111.072004867371,2021-09-24 12:47:18.553
320,66.0,1174.0,111.0,1181.0812842476168,2021-09-24 12:47:18.554
321,-49.0,899.0,-132.0,909.9593397509584,2021-09-24 12:47:18.562
322,-217.0,979.0,21.0,1002.9810566506228,2021-09-24 12:47:18.572
323,-128.0,917.0,-115.0,933.0048231386588,2021-09-24 12:47:18.582
324,-181.0,917.0,-115.0,941.7404100918682,2021-09-24 12:47:18.591
325,-181.0,1091.0,-94.0,1109.8999954950896,2021-09-24 12:47:18.592
326,-147.0,1061.0,-19.0,1071.30341173731,2021-09-24 12:47:18.602
327,-205.0,798.0,-81.0,827.8828419528937,2021-09-24 12:47:18.612
328,-216.0,1027.0,41.0,1050.2694892264556,2021-09-24 12:47:18.621
329,-142.0,1125.0,-13.0,1134.0008818338722,2021-09-24 12:47:18.631
330,-253.0,832.0,-13.0,869.7137460107205,2021-09-24 12:47:18.640
331,-253.0,832.0,24.0,869.9476995773941,2021-09-24 12:47:18.641
332,-166.0,903.0,-45.0,919.2333762434868,2021-09-24 12:47:18.650
333,-172.0,903.0,-45.0,920.3358082786956,2021-09-24 12:47:18.661
334,-172.0,1179.0,-63.0,1193.144584700446,2021-09-24 12:47:18.662
335,-207.0,865.0,-69.0,892.0958468684853,2021-09-24 12:47:18.670
