,Acceleration_X,Acceleration_Y,Acceleration_Z,magnitude,time_stamp
0,-166.0,1065.0,-28.0,1078.2230752492733,2021-08-31 13:41:36.956
1,-166.0,1065.0,5.0,1077.871049801413,2021-08-31 13:41:36.957
2,-245.0,1070.0,-22.0,1097.9111985948591,2021-08-31 13:41:36.967
3,-159.0,864.0,13.0,878.6045754490469,2021-08-31 13:41:36.976
4,-146.0,864.0,13.0,876.3452515989346,2021-08-31 13:41:36.986
5,-146.0,1093.0,-61.0,1104.3939514502963,2021-08-31 13:41:36.987
6,-231.0,932.0,-2.0,960.2025827917772,2021-08-31 13:41:36.995
7,-217.0,957.0,-7.0,981.319010312141,2021-08-31 13:41:37.005
8,-243.0,957.0,-7.0,987.3940449486212,2021-08-31 13:41:37.015
9,-243.0,1020.0,-3.0,1048.550427971874,2021-08-31 13:41:37.016
10,-216.0,920.0,-84.0,948.7423253971544,2021-08-31 13:41:37.042
11,-206.0,1029.0,-84.0,1052.7739548450086,2021-08-31 13:41:37.046
12,-206.0,1029.0,-36.0,1050.034761329357,2021-08-31 13:41:37.047
13,-226.0,1079.0,-52.0,1103.639886919642,2021-08-31 13:41:37.054
14,-193.0,1064.0,-12.0,1081.4291470087164,2021-08-31 13:41:37.069
15,-171.0,900.0,59.0,917.9989106747348,2021-08-31 13:41:37.074
16,-93.0,1119.0,-141.0,1131.6761904361158,2021-08-31 13:41:37.083
17,-225.0,955.0,45.0,982.1787006446434,2021-08-31 13:41:37.093
18,-228.0,955.0,45.0,982.8702864569668,2021-08-31 13:41:37.103
19,-228.0,1064.0,-58.0,1089.6990410200424,2021-08-31 13:41:37.104
20,-205.0,1071.0,38.0,1091.1049445401666,2021-08-31 13:41:37.114
21,-160.0,879.0,29.0,893.9138660967286,2021-08-31 13:41:37.122
22,-148.0,879.0,29.0,891.8441567897387,2021-08-31 13:41:37.134
23,-148.0,1128.0,-100.0,1142.0542894276086,2021-08-31 13:41:37.135
24,-159.0,847.0,36.0,862.5462306450594,2021-08-31 13:41:37.142
25,-130.0,984.0,-14.0,992.648981261755,2021-08-31 13:41:37.152
26,-199.0,1003.0,28.0,1022.9340154672734,2021-08-31 13:41:37.163
27,-141.0,808.0,7.0,820.2402087193726,2021-08-31 13:41:37.171
28,-144.0,990.0,7.0,1000.4424021401732,2021-08-31 13:41:37.189
29,-144.0,990.0,-106.0,1006.0178924850194,2021-08-31 13:41:37.190
30,-124.0,968.0,-4.0,975.918029344678,2021-08-31 13:41:37.192
31,-98.0,968.0,-4.0,972.9563196773018,2021-08-31 13:41:37.200
32,-98.0,884.0,-129.0,898.7218702134716,2021-08-31 13:41:37.201
33,-113.0,1010.0,-105.0,1021.7113095194748,2021-08-31 13:41:37.211
34,-195.0,868.0,-105.0,895.8091314560262,2021-08-31 13:41:37.228
35,-195.0,868.0,13.0,889.7291722765979,2021-08-31 13:41:37.229
36,-181.0,983.0,-134.0,1008.4671536544956,2021-08-31 13:41:37.232
37,-183.0,983.0,-134.0,1008.8280329174046,2021-08-31 13:41:37.239
38,-183.0,1010.0,106.0,1031.903580767118,2021-08-31 13:41:37.240
39,-180.0,1018.0,-120.0,1040.7324343941625,2021-08-31 13:41:37.250
40,-147.0,1081.0,-23.0,1091.1915505537972,2021-08-31 13:41:37.260
41,-233.0,884.0,34.0,914.82293368717,2021-08-31 13:41:37.269
42,-88.0,884.0,34.0,889.019684821433,2021-08-31 13:41:37.278
43,-88.0,1126.0,-112.0,1134.973127435183,2021-08-31 13:41:37.279
44,-177.0,916.0,-112.0,939.64301732094,2021-08-31 13:41:37.288
45,-177.0,916.0,46.0,934.0776199010444,2021-08-31 13:41:37.289
46,-178.0,1098.0,-98.0,1116.643183832687,2021-08-31 13:41:37.299
47,-179.0,1098.0,-98.0,1116.8030265001971,2021-08-31 13:41:37.308
48,-179.0,1055.0,24.0,1070.3466728121314,2021-08-31 13:41:37.309
49,-209.0,1020.0,20.0,1041.384175028601,2021-08-31 13:41:37.318
50,-209.0,1020.0,20.0,1041.384175028601,2021-08-31 13:41:37.327
51,-209.0,1008.0,-49.0,1030.6046768766382,2021-08-31 13:41:37.328
52,-184.0,1036.0,6.0,1052.2300128774127,2021-08-31 13:41:37.337
53,-221.0,1036.0,6.0,1059.3266729389948,2021-08-31 13:41:37.347
54,-221.0,945.0,-73.0,973.2394361101486,2021-08-31 13:41:37.348
55,-188.0,1087.0,-50.0,1104.270347333478,2021-08-31 13:41:37.358
56,-267.0,1011.0,-50.0,1046.8572013412336,2021-08-31 13:41:37.366
57,-267.0,1011.0,-41.0,1046.4659574013865,2021-08-31 13:41:37.367
58,-186.0,1075.0,-90.0,1094.6784916129484,2021-08-31 13:41:37.376
59,-179.0,1077.0,11.0,1091.8291990966352,2021-08-31 13:41:37.387
60,-206.0,964.0,-110.0,991.883057623226,2021-08-31 13:41:37.396
61,-232.0,1036.0,-110.0,1067.342494235098,2021-08-31 13:41:37.406
62,-232.0,1036.0,-49.0,1062.7892547443262,2021-08-31 13:41:37.407
63,-202.0,883.0,12.0,905.8901699433546,2021-08-31 13:41:37.416
64,-107.0,1086.0,-144.0,1100.7184017722243,2021-08-31 13:41:37.425
65,-160.0,991.0,63.0,1005.808132796708,2021-08-31 13:41:37.435
66,-145.0,991.0,63.0,1003.5312650834552,2021-08-31 13:41:37.444
67,-145.0,851.0,5.0,863.2792132328914,2021-08-31 13:41:37.445
68,-128.0,1010.0,-74.0,1020.7644194426058,2021-08-31 13:41:37.455
69,-212.0,909.0,3.0,933.3991643450298,2021-08-31 13:41:37.465
70,-147.0,979.0,-52.0,991.3394978512658,2021-08-31 13:41:37.474
71,-192.0,979.0,-52.0,999.00400399598,2021-08-31 13:41:37.483
72,-192.0,1006.0,-14.0,1024.2538747790998,2021-08-31 13:41:37.484
73,-184.0,931.0,-18.0,949.1791190286478,2021-08-31 13:41:37.493
74,-178.0,1036.0,-66.0,1053.2502076904614,2021-08-31 13:41:37.504
75,-241.0,1036.0,-66.0,1065.707746054236,2021-08-31 13:41:37.513
76,-241.0,1004.0,-1.0,1032.520217719731,2021-08-31 13:41:37.514
77,-264.0,995.0,41.0,1030.2436604997868,2021-08-31 13:41:37.523
78,-249.0,995.0,41.0,1026.5023136846794,2021-08-31 13:41:37.532
79,-249.0,1088.0,27.0,1116.4560000286622,2021-08-31 13:41:37.533
80,-177.0,891.0,-117.0,915.91429730079,2021-08-31 13:41:37.542
81,-176.0,1053.0,-86.0,1071.065357482913,2021-08-31 13:41:37.552
82,-185.0,1053.0,-86.0,1072.580999272316,2021-08-31 13:41:37.562
83,-185.0,932.0,53.0,951.6606538047056,2021-08-31 13:41:37.563
84,-185.0,1076.0,53.0,1093.0736480219437,2021-08-31 13:41:37.572
85,-185.0,1076.0,-81.0,1094.7885640615723,2021-08-31 13:41:37.573
86,-130.0,1052.0,0.0,1060.0018867907736,2021-08-31 13:41:37.581
87,-175.0,852.0,16.0,869.9339055353573,2021-08-31 13:41:37.591
88,-140.0,1070.0,-144.0,1088.685445847422,2021-08-31 13:41:37.601
89,-109.0,848.0,36.0,855.7341877008304,2021-08-31 13:41:37.611
90,-151.0,966.0,36.0,978.3930702943476,2021-08-31 13:41:37.621
91,-151.0,966.0,-60.0,979.5698035362258,2021-08-31 13:41:37.622
92,-183.0,1003.0,14.0,1019.653862837777,2021-08-31 13:41:37.630
93,-202.0,867.0,71.0,893.0475911170691,2021-08-31 13:41:37.640
94,-90.0,995.0,-101.0,1004.1543706024488,2021-08-31 13:41:37.650
95,-174.0,867.0,10.0,884.3443899296246,2021-08-31 13:41:37.660
96,-260.0,947.0,-29.0,982.4713736287688,2021-08-31 13:41:37.670
97,-158.0,1071.0,-29.0,1082.980147555808,2021-08-31 13:41:37.679
98,-158.0,1071.0,-107.0,1087.8667197777493,2021-08-31 13:41:37.680
99,-230.0,938.0,24.0,966.084882399057,2021-08-31 13:41:37.689
100,-129.0,1040.0,24.0,1048.244723335157,2021-08-31 13:41:37.698
101,-129.0,1040.0,-86.0,1051.4927484295838,2021-08-31 13:41:37.699
102,-218.0,1019.0,68.0,1044.274389229191,2021-08-31 13:41:37.708
103,-262.0,1062.0,-90.0,1097.5372431038502,2021-08-31 13:41:37.719
104,-185.0,1062.0,-90.0,1081.7435000960256,2021-08-31 13:41:37.728
105,-185.0,1017.0,-5.0,1033.701601043551,2021-08-31 13:41:37.729
106,-247.0,1017.0,-5.0,1046.5768008130124,2021-08-31 13:41:37.737
107,-247.0,913.0,29.0,946.2658188902312,2021-08-31 13:41:37.738
108,-36.0,1199.0,-109.0,1204.482461474637,2021-08-31 13:41:37.747
109,-196.0,930.0,57.0,952.1370699641938,2021-08-31 13:41:37.757
110,-187.0,1148.0,-77.0,1165.676627542991,2021-08-31 13:41:37.767
111,-232.0,1078.0,76.0,1105.2981498220288,2021-08-31 13:41:37.778
112,-183.0,890.0,36.0,909.3321725310284,2021-08-31 13:41:37.786
113,-183.0,1163.0,-92.0,1180.8988102288863,2021-08-31 13:41:37.796
114,-245.0,1033.0,-7.0,1061.6793301180917,2021-08-31 13:41:37.806
115,-240.0,963.0,-59.0,994.2082276867357,2021-08-31 13:41:37.816
116,-194.0,1068.0,-59.0,1087.0791139562934,2021-08-31 13:41:37.826
117,-194.0,1068.0,-56.0,1086.9204202700398,2021-08-31 13:41:37.827
118,-193.0,951.0,31.0,970.8815581727772,2021-08-31 13:41:37.836
119,-95.0,1030.0,-66.0,1036.4752770809346,2021-08-31 13:41:37.845
120,-211.0,1048.0,63.0,1070.8846809997797,2021-08-31 13:41:37.855
121,-176.0,1048.0,63.0,1064.5416854214775,2021-08-31 13:41:37.864
122,-176.0,925.0,-111.0,948.1149719311472,2021-08-31 13:41:37.865
123,-135.0,1030.0,-62.0,1040.6579649433334,2021-08-31 13:41:37.875
124,-185.0,921.0,18.0,939.5690501501208,2021-08-31 13:41:37.885
125,-126.0,1040.0,-117.0,1054.118114823951,2021-08-31 13:41:37.894
126,-174.0,1040.0,-117.0,1060.92648190155,2021-08-31 13:41:37.903
127,-174.0,975.0,76.0,993.3161631625652,2021-08-31 13:41:37.904
128,-196.0,1026.0,76.0,1047.314661407927,2021-08-31 13:41:37.913
129,-196.0,1026.0,-111.0,1050.434671933481,2021-08-31 13:41:37.914
130,-210.0,1045.0,32.0,1066.3718863510985,2021-08-31 13:41:37.924
131,-180.0,850.0,-3.0,868.8549936554431,2021-08-31 13:41:37.935
132,-184.0,923.0,-75.0,944.1451159647016,2021-08-31 13:41:37.943
133,-159.0,946.0,-75.0,962.196445638831,2021-08-31 13:41:37.952
134,-159.0,946.0,-17.0,959.4196162263934,2021-08-31 13:41:37.953
135,-183.0,924.0,-22.0,942.204330280858,2021-08-31 13:41:37.962
136,-142.0,1025.0,-62.0,1036.6450694427674,2021-08-31 13:41:37.972
137,-191.0,983.0,-62.0,1003.3015498841812,2021-08-31 13:41:37.982
138,-191.0,983.0,-26.0,1001.7215181875648,2021-08-31 13:41:37.983
139,-169.0,956.0,-83.0,974.3644082169668,2021-08-31 13:41:37.992
140,-267.0,1046.0,-14.0,1079.630029222974,2021-08-31 13:41:38.001
141,-174.0,858.0,-114.0,882.8567267682793,2021-08-31 13:41:38.011
142,-195.0,1010.0,-126.0,1036.3401951096946,2021-08-31 13:41:38.021
143,-207.0,948.0,-32.0,970.8640481550442,2021-08-31 13:41:38.031
144,-121.0,976.0,-99.0,988.4422087304852,2021-08-31 13:41:38.041
145,-160.0,981.0,-1.0,993.9627759629632,2021-08-31 13:41:38.062
146,-196.0,981.0,-1.0,1000.3889243689176,2021-08-31 13:41:38.064
147,-196.0,880.0,19.0,901.763272705204,2021-08-31 13:41:38.065
148,-134.0,1106.0,19.0,1114.2499719542288,2021-08-31 13:41:38.071
149,-134.0,1106.0,-127.0,1121.3032596046442,2021-08-31 13:41:38.072
150,-242.0,944.0,41.0,975.3876152586724,2021-08-31 13:41:38.085
151,-225.0,1013.0,-62.0,1039.5373971146971,2021-08-31 13:41:38.090
152,-196.0,1022.0,-28.0,1041.0014409211929,2021-08-31 13:41:38.099
153,-121.0,925.0,60.0,934.8080016773498,2021-08-31 13:41:38.111
154,-153.0,925.0,60.0,939.486029699218,2021-08-31 13:41:38.119
155,-153.0,1042.0,-96.0,1057.5391245717578,2021-08-31 13:41:38.120
156,-223.0,922.0,-1.0,948.5852623776104,2021-08-31 13:41:38.128
157,-268.0,986.0,-20.0,1021.9686883657444,2021-08-31 13:41:38.138
158,-149.0,1005.0,-19.0,1016.1628806446336,2021-08-31 13:41:38.148
159,-226.0,948.0,-19.0,974.7517632710392,2021-08-31 13:41:38.157
160,-226.0,948.0,-24.0,974.8620415217734,2021-08-31 13:41:38.158
161,-264.0,1031.0,-97.0,1068.6748804009571,2021-08-31 13:41:38.168
162,-192.0,997.0,-97.0,1019.94215522254,2021-08-31 13:41:38.178
163,-192.0,997.0,41.0,1016.1466429605522,2021-08-31 13:41:38.179
164,-197.0,1022.0,-97.0,1045.3238732565137,2021-08-31 13:41:38.187
165,-197.0,1022.0,-97.0,1045.3238732565137,2021-08-31 13:41:38.196
166,-197.0,1042.0,3.0,1060.4631063832442,2021-08-31 13:41:38.197
167,-242.0,1042.0,3.0,1069.7368835372556,2021-08-31 13:41:38.214
168,-242.0,895.0,22.0,927.4012076765912,2021-08-31 13:41:38.215
169,-128.0,1144.0,-117.0,1157.0691422728376,2021-08-31 13:41:38.217
170,-204.0,963.0,-117.0,991.2991475836142,2021-08-31 13:41:38.226
171,-204.0,963.0,82.0,987.7798337686388,2021-08-31 13:41:38.227
172,-222.0,1094.0,-51.0,1117.4618561722812,2021-08-31 13:41:38.244
173,-177.0,1047.0,-51.0,1063.0799593633585,2021-08-31 13:41:38.249
174,-177.0,1047.0,66.0,1063.9050709532312,2021-08-31 13:41:38.250
175,-222.0,882.0,32.0,910.0725245825192,2021-08-31 13:41:38.255
176,-141.0,1071.0,-114.0,1086.2403049049506,2021-08-31 13:41:38.266
177,-164.0,861.0,40.0,877.392158615519,2021-08-31 13:41:38.275
178,-235.0,1044.0,-22.0,1070.348074226324,2021-08-31 13:41:38.285
179,-125.0,1016.0,-110.0,1029.5537868416588,2021-08-31 13:41:38.294
180,-154.0,986.0,-9.0,997.9944889627398,2021-08-31 13:41:38.304
181,-119.0,976.0,-101.0,988.4017401846276,2021-08-31 13:41:38.314
182,-126.0,987.0,-101.0,1000.1229924364304,2021-08-31 13:41:38.323
183,-126.0,987.0,15.0,995.123107962025,2021-08-31 13:41:38.324
184,-213.0,905.0,-119.0,937.3126479462444,2021-08-31 13:41:38.333
185,-144.0,937.0,-99.0,953.1558109774078,2021-08-31 13:41:38.343
186,-196.0,833.0,16.0,855.8977742698014,2021-08-31 13:41:38.353
187,-97.0,833.0,16.0,838.7812587319771,2021-08-31 13:41:38.362
188,-97.0,1041.0,-134.0,1054.0616680251685,2021-08-31 13:41:38.363
189,-134.0,1041.0,-134.0,1058.108217527867,2021-08-31 13:41:38.373
190,-134.0,929.0,88.0,942.7306083924506,2021-08-31 13:41:38.374
191,-162.0,1012.0,-126.0,1032.6006004259343,2021-08-31 13:41:38.383
192,-229.0,1021.0,-17.0,1046.5041805936562,2021-08-31 13:41:38.392
193,-227.0,1021.0,-17.0,1046.068353407176,2021-08-31 13:41:38.401
194,-227.0,824.0,70.0,857.5575782418344,2021-08-31 13:41:38.402
195,-31.0,1162.0,70.0,1164.51921409653,2021-08-31 13:41:38.411
196,-31.0,1162.0,-157.0,1172.9680302548743,2021-08-31 13:41:38.412
197,-155.0,968.0,-8.0,980.3637080186109,2021-08-31 13:41:38.422
198,-192.0,949.0,-20.0,968.4343033990484,2021-08-31 13:41:38.431
199,-163.0,1066.0,-66.0,1080.4077933817398,2021-08-31 13:41:38.441
200,-235.0,1026.0,-66.0,1054.6359561479023,2021-08-31 13:41:38.450
201,-235.0,1026.0,10.0,1052.6162643622793,2021-08-31 13:41:38.451
202,-233.0,1014.0,-36.0,1041.0480296316784,2021-08-31 13:41:38.460
203,-239.0,1066.0,4.0,1092.4710522480675,2021-08-31 13:41:38.470
204,-253.0,994.0,4.0,1025.7002486106749,2021-08-31 13:41:38.480
205,-253.0,994.0,-73.0,1028.2869249387547,2021-08-31 13:41:38.481
206,-162.0,1057.0,-93.0,1073.3787775058718,2021-08-31 13:41:38.490
207,-246.0,1014.0,0.0,1043.4136284331348,2021-08-31 13:41:38.500
208,-130.0,1014.0,0.0,1022.29936906955,2021-08-31 13:41:38.509
209,-130.0,1021.0,-110.0,1035.1043425664873,2021-08-31 13:41:38.510
210,-209.0,1058.0,18.0,1078.5958464596458,2021-08-31 13:41:38.519
211,-211.0,959.0,18.0,982.1028459382449,2021-08-31 13:41:38.529
212,-211.0,959.0,-145.0,992.5860164237656,2021-08-31 13:41:38.530
213,-189.0,1036.0,-43.0,1053.9762805680211,2021-08-31 13:41:38.538
214,-192.0,832.0,44.0,854.9994152044784,2021-08-31 13:41:38.548
215,-186.0,1056.0,-36.0,1072.8597298808452,2021-08-31 13:41:38.558
216,-146.0,957.0,45.0,969.1181558509776,2021-08-31 13:41:38.568
217,-179.0,903.0,45.0,921.6696805255124,2021-08-31 13:41:38.577
218,-179.0,903.0,-3.0,920.575363563462,2021-08-31 13:41:38.578
219,-146.0,1036.0,-64.0,1048.192730369754,2021-08-31 13:41:38.587
220,-215.0,1036.0,-64.0,1060.0080188375937,2021-08-31 13:41:38.597
221,-215.0,882.0,-22.0,908.0930569055134,2021-08-31 13:41:38.598
222,-230.0,967.0,-64.0,996.034637951914,2021-08-31 13:41:38.607
223,-240.0,980.0,-64.0,1010.987635928353,2021-08-31 13:41:38.616
224,-240.0,980.0,39.0,1009.7133256523854,2021-08-31 13:41:38.617
225,-164.0,891.0,-42.0,906.9404611108714,2021-08-31 13:41:38.626
226,-150.0,1034.0,-90.0,1048.6925192829403,2021-08-31 13:41:38.637
227,-167.0,1049.0,-22.0,1062.4377628830782,2021-08-31 13:41:38.646
228,-306.0,958.0,-22.0,1005.9244504434714,2021-08-31 13:41:38.655
229,-306.0,958.0,0.0,1005.6838469419702,2021-08-31 13:41:38.656
230,-293.0,1087.0,8.0,1125.8250308107383,2021-08-31 13:41:38.666
231,-264.0,833.0,33.0,874.4564025724782,2021-08-31 13:41:38.675
232,-65.0,1118.0,-149.0,1129.7566109565369,2021-08-31 13:41:38.685
233,-194.0,1118.0,-149.0,1144.4479018286504,2021-08-31 13:41:38.694
234,-194.0,893.0,59.0,915.7324936901606,2021-08-31 13:41:38.695
235,-101.0,893.0,59.0,900.6281141514515,2021-08-31 13:41:38.706
236,-101.0,1044.0,-79.0,1051.8450456222151,2021-08-31 13:41:38.707
237,-167.0,1032.0,-14.0,1045.5185316387272,2021-08-31 13:41:38.714
238,-195.0,844.0,26.0,866.623909201679,2021-08-31 13:41:38.724
239,-111.0,1099.0,-128.0,1111.9829135377936,2021-08-31 13:41:38.734
240,-131.0,832.0,-128.0,851.9207709640609,2021-08-31 13:41:38.743
241,-131.0,832.0,10.0,842.3093256043175,2021-08-31 13:41:38.744
242,-150.0,973.0,-49.0,985.7129399576736,2021-08-31 13:41:38.754
243,-161.0,960.0,16.0,973.5383916415418,2021-08-31 13:41:38.766
244,-164.0,803.0,11.0,819.649925272979,2021-08-31 13:41:38.773
245,-98.0,1037.0,11.0,1041.6784532666495,2021-08-31 13:41:38.782
246,-98.0,1037.0,-84.0,1045.0019138738455,2021-08-31 13:41:38.783
247,-117.0,1016.0,9.0,1022.7541249000172,2021-08-31 13:41:38.793
248,-212.0,982.0,-94.0,1009.0113973588208,2021-08-31 13:41:38.802
249,-97.0,1050.0,-71.0,1056.8585525035978,2021-08-31 13:41:38.812
250,-211.0,876.0,-3.0,901.0582667064324,2021-08-31 13:41:38.822
251,-145.0,1078.0,-87.0,1091.181928002842,2021-08-31 13:41:38.831
252,-228.0,967.0,64.0,995.5747083971148,2021-08-31 13:41:38.841
253,-213.0,987.0,-66.0,1011.8764746746511,2021-08-31 13:41:38.851
254,-114.0,987.0,-66.0,995.7514750177376,2021-08-31 13:41:38.860
255,-114.0,1117.0,-50.0,1123.9150323756685,2021-08-31 13:41:38.861
256,-259.0,945.0,-28.0,980.2499681203768,2021-08-31 13:41:38.870
257,-145.0,1057.0,-86.0,1070.359752606571,2021-08-31 13:41:38.880
258,-287.0,960.0,23.0,1002.2464766712828,2021-08-31 13:41:38.890
259,-247.0,1016.0,-94.0,1049.8099828064123,2021-08-31 13:41:38.900
260,-148.0,1087.0,-91.0,1100.7969840074963,2021-08-31 13:41:38.910
261,-178.0,940.0,61.0,958.6474847408716,2021-08-31 13:41:38.919
262,-155.0,940.0,61.0,954.6444364264636,2021-08-31 13:41:38.929
263,-155.0,1051.0,-63.0,1064.2344666472704,2021-08-31 13:41:38.930
264,-223.0,943.0,15.0,969.1248629562652,2021-08-31 13:41:38.939
265,-212.0,943.0,15.0,966.652988408974,2021-08-31 13:41:38.948
266,-212.0,930.0,-25.0,954.1849925459948,2021-08-31 13:41:38.949
267,-161.0,1032.0,-71.0,1046.8934998365405,2021-08-31 13:41:38.958
268,-175.0,936.0,13.0,952.3077233751704,2021-08-31 13:41:38.968
269,-176.0,1112.0,-68.0,1127.8936120042529,2021-08-31 13:41:38.978
270,-256.0,1112.0,-68.0,1143.1115431137944,2021-08-31 13:41:38.987
271,-256.0,970.0,-12.0,1003.2846056827544,2021-08-31 13:41:38.988
272,-250.0,932.0,-83.0,968.5107123826768,2021-08-31 13:41:38.998
273,-185.0,1050.0,-100.0,1070.8524641611466,2021-08-31 13:41:39.007
274,-279.0,853.0,-5.0,897.4825903603925,2021-08-31 13:41:39.017
275,-123.0,1040.0,-102.0,1052.203877582667,2021-08-31 13:41:39.027
276,-246.0,997.0,37.0,1027.5670294438216,2021-08-31 13:41:39.036
277,-186.0,885.0,-54.0,905.9453625909237,2021-08-31 13:41:39.046
278,-144.0,1021.0,-122.0,1038.2971636289874,2021-08-31 13:41:39.056
279,-200.0,837.0,-42.0,861.5874883028421,2021-08-31 13:41:39.082
280,-200.0,920.0,-131.0,950.5582570258384,2021-08-31 13:41:39.083
281,-172.0,923.0,-35.0,939.541377481588,2021-08-31 13:41:39.087
282,-150.0,910.0,-79.0,925.6570639281052,2021-08-31 13:41:39.106
283,-129.0,1016.0,-164.0,1037.2044157252706,2021-08-31 13:41:39.108
284,-187.0,942.0,-164.0,974.2838395457456,2021-08-31 13:41:39.115
285,-187.0,942.0,-46.0,961.4827091529,2021-08-31 13:41:39.116
286,-196.0,942.0,-46.0,963.2735852290356,2021-08-31 13:41:39.125
287,-196.0,1026.0,-126.0,1052.1254678031514,2021-08-31 13:41:39.126
288,-198.0,976.0,-41.0,996.7251376382558,2021-08-31 13:41:39.134
289,-143.0,923.0,-121.0,941.8168611784351,2021-08-31 13:41:39.144
290,-159.0,1005.0,-166.0,1030.9519872428589,2021-08-31 13:41:39.154
291,-226.0,921.0,-16.0,948.4582225907476,2021-08-31 13:41:39.163
292,-221.0,1017.0,-37.0,1041.3928173364743,2021-08-31 13:41:39.174
