,Acceleration_X,Acceleration_Y,Acceleration_Z,magnitude,time_stamp
0,-319.0,834.0,263.0,930.8522976283616,2021-09-23 15:14:46.374
1,-337.0,794.0,-91.0,867.3442223246777,2021-09-23 15:14:46.384
2,-278.0,1036.0,-91.0,1076.504064088938,2021-09-23 15:14:46.394
3,-238.0,1068.0,-135.0,1102.4939909133293,2021-09-23 15:14:46.405
4,-240.0,941.0,-64.0,973.2301885987712,2021-09-23 15:14:46.414
5,-360.0,1176.0,-130.0,1236.7198551005802,2021-09-23 15:14:46.423
6,-411.0,799.0,40.0,899.4009117184617,2021-09-23 15:14:46.433
7,-237.0,1032.0,-35.0,1059.4423061214802,2021-09-23 15:14:46.456
8,-114.0,1091.0,-46.0,1097.903912006875,2021-09-23 15:14:46.458
9,-92.0,987.0,-29.0,991.7025763806404,2021-09-23 15:14:46.463
10,-204.0,1251.0,43.0,1268.2531293081836,2021-09-23 15:14:46.472
11,-239.0,1251.0,43.0,1274.3512074777502,2021-09-23 15:14:46.481
12,-239.0,801.0,-42.0,836.950416691455,2021-09-23 15:14:46.482
13,-87.0,1172.0,-163.0,1186.474609926399,2021-09-23 15:14:46.491
14,-104.0,820.0,64.0,829.042821571962,2021-09-23 15:14:46.503
15,-160.0,1199.0,-130.0,1216.5940160957557,2021-09-23 15:14:46.512
16,-101.0,1055.0,-94.0,1063.9840224364273,2021-09-23 15:14:46.521
17,-248.0,894.0,69.0,930.3230621671162,2021-09-23 15:14:46.546
18,-248.0,1120.0,-88.0,1150.499022163861,2021-09-23 15:14:46.547
19,-52.0,1120.0,-88.0,1124.654613648119,2021-09-23 15:14:46.550
20,-52.0,924.0,1.0,925.4625870341816,2021-09-23 15:14:46.551
21,-373.0,1009.0,-41.0,1076.5179979916732,2021-09-23 15:14:46.560
22,-115.0,1125.0,-41.0,1131.6054966285733,2021-09-23 15:14:46.570
23,-115.0,1125.0,-145.0,1140.1206076551723,2021-09-23 15:14:46.571
24,-294.0,770.0,49.0,825.6736643492997,2021-09-23 15:14:46.581
25,-292.0,1031.0,-38.0,1072.2261888239814,2021-09-23 15:14:46.590
26,-328.0,885.0,180.0,960.8376553820108,2021-09-23 15:14:46.599
27,-144.0,975.0,-109.0,991.585598927294,2021-09-23 15:14:46.609
28,-105.0,1047.0,-25.0,1052.5488112196983,2021-09-23 15:14:46.618
29,-310.0,730.0,-13.0,793.2017397862917,2021-09-23 15:14:46.629
30,6.0,1228.0,-160.0,1238.394121433076,2021-09-23 15:14:46.639
31,-217.0,1228.0,-160.0,1257.2481855226515,2021-09-23 15:14:46.647
32,-217.0,798.0,178.0,845.9178447107024,2021-09-23 15:14:46.648
33,-181.0,1218.0,-162.0,1241.9859097429407,2021-09-23 15:14:46.657
34,-77.0,1119.0,-61.0,1123.3036098936032,2021-09-23 15:14:46.668
35,-350.0,859.0,33.0,928.1540820359515,2021-09-23 15:14:46.678
36,-198.0,1120.0,33.0,1137.8457716228504,2021-09-23 15:14:46.688
37,-198.0,1120.0,-153.0,1147.611868185407,2021-09-23 15:14:46.689
38,-16.0,814.0,58.0,816.2205584276838,2021-09-23 15:14:46.696
39,-312.0,1067.0,-121.0,1118.245947902339,2021-09-23 15:14:46.706
40,-225.0,1047.0,0.0,1070.9033569841863,2021-09-23 15:14:46.716
41,-321.0,847.0,118.0,913.44074794154,2021-09-23 15:14:46.727
42,-12.0,1024.0,118.0,1030.8462542978948,2021-09-23 15:14:46.743
43,-12.0,1024.0,-103.0,1029.2370961056545,2021-09-23 15:14:46.744
44,-290.0,1024.0,-103.0,1069.2450607788655,2021-09-23 15:14:46.748
45,-290.0,973.0,150.0,1026.3181767853475,2021-09-23 15:14:46.749
46,-156.0,921.0,-144.0,945.1523686686712,2021-09-23 15:14:46.755
47,0.0,1008.0,1.0,1008.000496031624,2021-09-23 15:14:46.765
48,-315.0,718.0,-22.0,784.3678983742259,2021-09-23 15:14:46.776
49,-40.0,1200.0,-160.0,1211.2803143781375,2021-09-23 15:14:46.786
50,-254.0,853.0,182.0,908.4321658770124,2021-09-23 15:14:46.794
51,-241.0,1095.0,-181.0,1135.7231176655691,2021-09-23 15:14:46.804
52,-101.0,1095.0,-181.0,1114.4447047745348,2021-09-23 15:14:46.813
53,-101.0,1091.0,-51.0,1096.8514028800805,2021-09-23 15:14:46.814
54,-36.0,1123.0,-40.0,1124.288664000487,2021-09-23 15:14:46.824
55,-221.0,984.0,-67.0,1010.7353758526511,2021-09-23 15:14:46.835
56,-290.0,1196.0,-53.0,1231.797467118682,2021-09-23 15:14:46.844
57,-339.0,771.0,56.0,844.0959661081197,2021-09-23 15:14:46.853
58,-214.0,771.0,56.0,802.105354676055,2021-09-23 15:14:46.862
59,-214.0,1032.0,-61.0,1055.7182389255197,2021-09-23 15:14:46.863
60,-206.0,990.0,-9.0,1011.2452719296144,2021-09-23 15:14:46.872
61,-18.0,1010.0,-67.0,1012.3798694166138,2021-09-23 15:14:46.883
62,-214.0,1071.0,119.0,1098.634607137423,2021-09-23 15:14:46.893
63,-294.0,823.0,-71.0,876.8158301490685,2021-09-23 15:14:46.907
64,-179.0,1006.0,-3.0,1021.8052652046767,2021-09-23 15:14:46.911
65,-360.0,761.0,4.0,841.8651911084102,2021-09-23 15:14:46.921
66,-5.0,1138.0,-217.0,1158.515429331867,2021-09-23 15:14:46.932
67,-95.0,1068.0,-112.0,1078.0505554008123,2021-09-23 15:14:46.946
68,-171.0,878.0,78.0,897.8914188252386,2021-09-23 15:14:46.951
69,-256.0,1119.0,-98.0,1152.0855002993485,2021-09-23 15:14:46.960
70,-86.0,1084.0,7.0,1087.42861834697,2021-09-23 15:14:46.970
71,-291.0,931.0,-74.0,978.221856226899,2021-09-23 15:14:46.980
72,-196.0,1179.0,-74.0,1197.469415058272,2021-09-23 15:14:46.990
73,-196.0,1179.0,-156.0,1205.318630072563,2021-09-23 15:14:46.991
74,-407.0,795.0,48.0,894.4148925414871,2021-09-23 15:14:47.000
75,-250.0,795.0,48.0,834.7628405720992,2021-09-23 15:14:47.009
76,-250.0,999.0,-51.0,1031.0683779459052,2021-09-23 15:14:47.010
77,-87.0,1056.0,-27.0,1059.9216952209254,2021-09-23 15:14:47.019
78,-130.0,1009.0,-90.0,1021.3133701269164,2021-09-23 15:14:47.029
79,-225.0,1009.0,-90.0,1037.6926327193423,2021-09-23 15:14:47.038
80,-225.0,1216.0,44.0,1237.4235329910289,2021-09-23 15:14:47.039
81,-249.0,1216.0,44.0,1242.0116746633262,2021-09-23 15:14:47.048
82,-249.0,812.0,-13.0,849.4198019825062,2021-09-23 15:14:47.049
83,11.0,1188.0,-13.0,1188.1220476028543,2021-09-23 15:14:47.058
84,11.0,1188.0,-171.0,1200.2941306196578,2021-09-23 15:14:47.059
85,-177.0,818.0,104.0,843.3676541105901,2021-09-23 15:14:47.068
86,-120.0,1233.0,104.0,1243.1834136602693,2021-09-23 15:14:47.077
87,-120.0,1233.0,-138.0,1246.4882670927957,2021-09-23 15:14:47.078
88,-26.0,1058.0,-64.0,1060.252800043461,2021-09-23 15:14:47.087
89,-294.0,1058.0,-64.0,1099.952726256906,2021-09-23 15:14:47.097
90,-294.0,882.0,96.0,934.6528767408786,2021-09-23 15:14:47.098
91,-220.0,1149.0,-87.0,1173.1027235498177,2021-09-23 15:14:47.107
92,0.0,874.0,101.0,879.8164581320357,2021-09-23 15:14:47.116
93,-271.0,1019.0,-152.0,1065.3196703337453,2021-09-23 15:14:47.126
94,-8.0,1154.0,-136.0,1162.0137692815863,2021-09-23 15:14:47.136
95,-249.0,778.0,52.0,818.5285578402259,2021-09-23 15:14:47.147
96,-34.0,1079.0,-77.0,1082.278152786981,2021-09-23 15:14:47.159
97,-332.0,918.0,179.0,992.466120328548,2021-09-23 15:14:47.171
98,-113.0,896.0,-115.0,910.3900263074064,2021-09-23 15:14:47.176
99,-33.0,1069.0,-65.0,1071.4826176844867,2021-09-23 15:14:47.186
100,-321.0,679.0,-33.0,751.778557821384,2021-09-23 15:14:47.196
101,3.0,1186.0,-154.0,1195.9602836214922,2021-09-23 15:14:47.205
102,-285.0,846.0,208.0,916.6269688373784,2021-09-23 15:14:47.215
103,-140.0,1146.0,-159.0,1165.4170927183109,2021-09-23 15:14:47.224
104,-73.0,1088.0,-46.0,1091.4160526581968,2021-09-23 15:14:47.234
105,-262.0,823.0,108.0,870.4234601617767,2021-09-23 15:14:47.244
106,-173.0,823.0,108.0,847.8926818884569,2021-09-23 15:14:47.253
107,-173.0,1121.0,-173.0,1147.3879030214673,2021-09-23 15:14:47.254
108,20.0,810.0,58.0,812.3201339373535,2021-09-23 15:14:47.264
109,-337.0,756.0,58.0,829.7403208233285,2021-09-23 15:14:47.273
110,-185.0,989.0,58.0,1007.824389464752,2021-09-23 15:14:47.282
111,-185.0,989.0,-64.0,1008.187482564627,2021-09-23 15:14:47.283
112,-162.0,966.0,-16.0,979.6203346194892,2021-09-23 15:14:47.292
113,38.0,966.0,-16.0,966.8795167961724,2021-09-23 15:14:47.302
114,38.0,1019.0,-61.0,1021.5312036350138,2021-09-23 15:14:47.303
115,-313.0,1052.0,122.0,1104.3355468334794,2021-09-23 15:14:47.312
116,-198.0,850.0,122.0,881.2423049309424,2021-09-23 15:14:47.321
117,-198.0,850.0,-91.0,877.4878916543521,2021-09-23 15:14:47.322
118,-148.0,1006.0,-40.0,1017.6148583820894,2021-09-23 15:14:47.331
119,-303.0,785.0,-40.0,842.3977682781455,2021-09-23 15:14:47.341
120,-303.0,785.0,38.0,842.3051703509839,2021-09-23 15:14:47.342
121,-48.0,1154.0,-151.0,1164.8265965370124,2021-09-23 15:14:47.352
122,-325.0,864.0,190.0,942.4547734506946,2021-09-23 15:14:47.367
123,-193.0,1089.0,-138.0,1114.5465445642008,2021-09-23 15:14:47.371
124,-140.0,1083.0,-95.0,1096.135940474538,2021-09-23 15:14:47.380
125,-14.0,1032.0,9.0,1032.1341967011847,2021-09-23 15:14:47.391
126,-318.0,1032.0,9.0,1079.9208304315646,2021-09-23 15:14:47.399
127,-318.0,952.0,-51.0,1005.001990047781,2021-09-23 15:14:47.400
128,-165.0,1170.0,-87.0,1184.7759281822027,2021-09-23 15:14:47.410
129,-322.0,773.0,31.0,837.9582328493467,2021-09-23 15:14:47.420
130,-256.0,1047.0,-33.0,1078.3478103098275,2021-09-23 15:14:47.429
131,-57.0,1081.0,-33.0,1083.00461679533,2021-09-23 15:14:47.439
132,-57.0,1081.0,-31.0,1082.9455203287005,2021-09-23 15:14:47.440
133,-180.0,1008.0,-65.0,1026.0063352630918,2021-09-23 15:14:47.451
134,-312.0,1240.0,-65.0,1280.300355385407,2021-09-23 15:14:47.471
135,-312.0,1240.0,-12.0,1278.705595514464,2021-09-23 15:14:47.472
136,-312.0,830.0,20.0,886.9295349688159,2021-09-23 15:14:47.473
137,-361.0,1035.0,-25.0,1096.4355886234266,2021-09-23 15:14:47.478
138,-314.0,837.0,-25.0,894.3097897261329,2021-09-23 15:14:47.487
139,-314.0,837.0,53.0,895.5300106640759,2021-09-23 15:14:47.488
140,4.0,1069.0,-91.0,1072.873711114221,2021-09-23 15:14:47.497
141,-61.0,1090.0,-37.0,1092.3323670019122,2021-09-23 15:14:47.508
142,-286.0,827.0,56.0,876.8471930730007,2021-09-23 15:14:47.519
143,-196.0,1119.0,56.0,1137.4150517730984,2021-09-23 15:14:47.526
144,-196.0,1119.0,-116.0,1141.9426430429858,2021-09-23 15:14:47.527
145,17.0,835.0,92.0,840.2249698741404,2021-09-23 15:14:47.536
146,-241.0,1026.0,-107.0,1059.3422487562743,2021-09-23 15:14:47.546
147,1.0,1097.0,-138.0,1105.646417260057,2021-09-23 15:14:47.568
148,-155.0,853.0,55.0,868.7111142376389,2021-09-23 15:14:47.570
149,-244.0,1045.0,-61.0,1074.8404532766713,2021-09-23 15:14:47.575
150,10.0,1098.0,-30.0,1098.4552790168564,2021-09-23 15:14:47.587
151,-266.0,946.0,-35.0,983.309208743618,2021-09-23 15:14:47.595
152,-226.0,946.0,-35.0,973.2507385047288,2021-09-23 15:14:47.604
153,-226.0,1186.0,-53.0,1208.5036201848964,2021-09-23 15:14:47.605
154,-349.0,748.0,50.0,826.9250268313325,2021-09-23 15:14:47.614
155,-242.0,952.0,-61.0,984.1691927712428,2021-09-23 15:14:47.625
156,-368.0,822.0,270.0,940.2169962301256,2021-09-23 15:14:47.635
157,-207.0,1123.0,-167.0,1154.0654227555733,2021-09-23 15:14:47.644
158,-59.0,1050.0,-167.0,1064.833320290082,2021-09-23 15:14:47.653
159,-59.0,1050.0,-33.0,1052.173939992813,2021-09-23 15:14:47.654
160,-226.0,788.0,13.0,819.8713313685264,2021-09-23 15:14:47.663
161,-45.0,788.0,13.0,789.3909044320184,2021-09-23 15:14:47.673
162,-45.0,1185.0,-188.0,1200.6639829694234,2021-09-23 15:14:47.674
163,-118.0,748.0,-188.0,780.2384250983798,2021-09-23 15:14:47.683
164,-118.0,748.0,54.0,759.1732345123871,2021-09-23 15:14:47.684
165,-100.0,1150.0,-226.0,1176.2550743780023,2021-09-23 15:14:47.694
166,-15.0,1022.0,-226.0,1046.797497131131,2021-09-23 15:14:47.702
167,-15.0,1022.0,-121.0,1029.2472977861055,2021-09-23 15:14:47.703
168,-228.0,912.0,70.0,942.6706742017597,2021-09-23 15:14:47.712
169,-189.0,1122.0,-100.0,1142.19306599191,2021-09-23 15:14:47.722
170,27.0,927.0,20.0,927.6087537318738,2021-09-23 15:14:47.734
171,-349.0,832.0,-80.0,905.7731504079816,2021-09-23 15:14:47.742
172,-262.0,1008.0,-45.0,1042.4648675135293,2021-09-23 15:14:47.751
173,-357.0,856.0,-45.0,928.5526371724976,2021-09-23 15:14:47.764
174,-357.0,856.0,16.0,927.5995903405736,2021-09-23 15:14:47.765
175,-40.0,1142.0,-132.0,1150.2990915409782,2021-09-23 15:14:47.771
176,-361.0,934.0,179.0,1017.2108925881594,2021-09-23 15:14:47.782
177,-130.0,1007.0,-131.0,1023.7724356515954,2021-09-23 15:14:47.792
178,-105.0,1060.0,-61.0,1066.9329875863807,2021-09-23 15:14:47.800
179,-318.0,719.0,-40.0,787.200736788273,2021-09-23 15:14:47.810
180,-12.0,1230.0,-40.0,1230.7087388980383,2021-09-23 15:14:47.819
181,-12.0,1230.0,-195.0,1245.4192065324833,2021-09-23 15:14:47.820
182,-244.0,864.0,156.0,911.2453017711532,2021-09-23 15:14:47.830
183,-174.0,864.0,156.0,895.0463675139964,2021-09-23 15:14:47.840
184,-174.0,1184.0,-206.0,1214.3179155394191,2021-09-23 15:14:47.841
185,-76.0,1184.0,-206.0,1204.187693011351,2021-09-23 15:14:47.849
186,-76.0,1125.0,-53.0,1128.8091069795637,2021-09-23 15:14:47.850
187,53.0,1125.0,-53.0,1127.4941241532038,2021-09-23 15:14:47.858
188,53.0,1090.0,43.0,1092.1346070883387,2021-09-23 15:14:47.859
189,-186.0,1005.0,-70.0,1024.461321866277,2021-09-23 15:14:47.868
190,-234.0,1243.0,-44.0,1265.5990676355605,2021-09-23 15:14:47.878
191,-349.0,781.0,5.0,855.4454979716709,2021-09-23 15:14:47.890
192,-256.0,979.0,-41.0,1012.7477474672556,2021-09-23 15:14:47.899
193,-292.0,979.0,-41.0,1022.4411963531204,2021-09-23 15:14:47.913
194,-292.0,958.0,38.0,1002.2335057260858,2021-09-23 15:14:47.914
195,-40.0,1029.0,-63.0,1031.702476492133,2021-09-23 15:14:47.917
196,-293.0,1034.0,135.0,1083.1574216151594,2021-09-23 15:14:47.927
197,-200.0,943.0,-64.0,966.0978211340712,2021-09-23 15:14:47.938
198,-122.0,1062.0,-12.0,1069.0519164194038,2021-09-23 15:14:47.948
199,-363.0,801.0,36.0,880.151123387342,2021-09-23 15:14:47.956
200,-44.0,1257.0,-162.0,1268.1596902598662,2021-09-23 15:14:47.974
201,-46.0,1066.0,-112.0,1072.8541373364787,2021-09-23 15:14:47.977
202,-158.0,904.0,51.0,919.1196875271468,2021-09-23 15:14:47.987
203,-115.0,1059.0,-75.0,1067.862818905125,2021-09-23 15:14:47.996
204,10.0,1095.0,-18.0,1095.1935901930765,2021-09-23 15:14:48.006
205,-326.0,971.0,-46.0,1025.2965424695433,2021-09-23 15:14:48.015
206,-216.0,1099.0,-85.0,1123.2461885090015,2021-09-23 15:14:48.025
207,-424.0,1099.0,-85.0,1181.0173580434794,2021-09-23 15:14:48.035
208,-424.0,779.0,33.0,887.5280277264487,2021-09-23 15:14:48.036
209,-225.0,779.0,33.0,811.5140171309428,2021-09-23 15:14:48.045
210,-225.0,988.0,-6.0,1013.3138704271248,2021-09-23 15:14:48.046
211,-19.0,981.0,-28.0,981.5834146928116,2021-09-23 15:14:48.054
212,-145.0,981.0,-28.0,992.0534259806776,2021-09-23 15:14:48.063
213,-145.0,1001.0,-73.0,1014.0783993360672,2021-09-23 15:14:48.064
214,-171.0,1190.0,53.0,1203.3910420141908,2021-09-23 15:14:48.073
215,-319.0,813.0,-52.0,874.8908503350575,2021-09-23 15:14:48.083
216,55.0,1219.0,-174.0,1232.5834657336598,2021-09-23 15:14:48.094
217,-66.0,749.0,70.0,755.1536267541857,2021-09-23 15:14:48.103
218,-73.0,1145.0,70.0,1149.4581332088612,2021-09-23 15:14:48.112
219,-73.0,1145.0,-156.0,1157.8816865293277,2021-09-23 15:14:48.113
220,-26.0,1005.0,-86.0,1009.0079286110688,2021-09-23 15:14:48.122
221,-252.0,839.0,69.0,878.7411450478463,2021-09-23 15:14:48.133
222,-164.0,1088.0,-58.0,1101.81849684964,2021-09-23 15:14:48.142
223,-25.0,833.0,29.0,833.879487695914,2021-09-23 15:14:48.154
224,-292.0,967.0,-135.0,1019.1064713757831,2021-09-23 15:14:48.161
225,-15.0,1064.0,-163.0,1076.5175335311544,2021-09-23 15:14:48.171
226,-305.0,758.0,27.0,817.5071865127547,2021-09-23 15:14:48.189
227,-313.0,972.0,-73.0,1023.7587606462764,2021-09-23 15:14:48.193
228,15.0,1124.0,-11.0,1124.1539040540667,2021-09-23 15:14:48.201
229,-107.0,976.0,-118.0,988.913039655156,2021-09-23 15:14:48.211
230,-105.0,1066.0,-82.0,1074.2927906301895,2021-09-23 15:14:48.220
231,-262.0,721.0,-41.0,768.2226239834388,2021-09-23 15:14:48.230
232,36.0,1179.0,-205.0,1197.2309718680017,2021-09-23 15:14:48.239
233,-328.0,792.0,210.0,882.5803079606977,2021-09-23 15:14:48.250
234,-165.0,1213.0,-163.0,1234.9748985303304,2021-09-23 15:14:48.260
235,-27.0,1082.0,-54.0,1083.683071751146,2021-09-23 15:14:48.270
236,-292.0,1082.0,-54.0,1122.0089126205728,2021-09-23 15:14:48.278
237,-292.0,832.0,48.0,883.0583219697327,2021-09-23 15:14:48.279
238,-142.0,1127.0,-133.0,1143.6704070666513,2021-09-23 15:14:48.288
239,-26.0,739.0,51.0,741.2138692712111,2021-09-23 15:14:48.298
240,-192.0,1020.0,-156.0,1049.5713410721542,2021-09-23 15:14:48.308
241,24.0,1037.0,-156.0,1048.942801109765,2021-09-23 15:14:48.318
242,24.0,1037.0,-131.0,1045.5170969429437,2021-09-23 15:14:48.319
243,-204.0,988.0,23.0,1009.1030670848246,2021-09-23 15:14:48.327
244,-72.0,1057.0,23.0,1059.6990138713918,2021-09-23 15:14:48.337
245,-72.0,1057.0,-55.0,1060.8760530806603,2021-09-23 15:14:48.338
246,-247.0,984.0,142.0,1024.4164192358496,2021-09-23 15:14:48.347
247,-208.0,928.0,-54.0,952.5565600005071,2021-09-23 15:14:48.357
248,-61.0,1089.0,-32.0,1091.1764293641977,2021-09-23 15:14:48.367
249,-295.0,779.0,29.0,833.4908517794302,2021-09-23 15:14:48.376
250,-23.0,779.0,29.0,779.8788367432469,2021-09-23 15:14:48.388
251,-23.0,1241.0,-147.0,1249.8875949460416,2021-09-23 15:14:48.389
252,-394.0,895.0,240.0,1006.9066490991108,2021-09-23 15:14:48.396
253,-154.0,1145.0,-122.0,1161.7336183480272,2021-09-23 15:14:48.406
254,-201.0,1111.0,-76.0,1131.5909154813855,2021-09-23 15:14:48.416
255,-254.0,856.0,17.0,893.0515102725038,2021-09-23 15:14:48.426
256,-35.0,1235.0,-191.0,1250.172388112935,2021-09-23 15:14:48.435
257,-209.0,1235.0,-191.0,1267.038673442922,2021-09-23 15:14:48.444
258,-209.0,1208.0,-57.0,1227.2709562276784,2021-09-23 15:14:48.445
259,-492.0,785.0,56.0,928.12984005472,2021-09-23 15:14:48.454
260,-260.0,1001.0,9.0,1034.254320754813,2021-09-23 15:14:48.464
261,-74.0,1001.0,9.0,1003.7718864363555,2021-09-23 15:14:48.486
262,-74.0,1065.0,-1.0,1067.5682647962144,2021-09-23 15:14:48.487
263,-74.0,1046.0,-66.0,1050.6892975566088,2021-09-23 15:14:48.488
264,-189.0,1236.0,74.0,1252.5545896287315,2021-09-23 15:14:48.495
265,-287.0,847.0,-2.0,894.3053169919096,2021-09-23 15:14:48.503
266,-323.0,950.0,20.0,1003.6079911997512,2021-09-23 15:14:48.513
267,-291.0,843.0,61.0,893.8965264503493,2021-09-23 15:14:48.523
268,-88.0,1091.0,61.0,1096.2417616566156,2021-09-23 15:14:48.533
269,-88.0,1091.0,-104.0,1099.4730556043655,2021-09-23 15:14:48.534
270,-359.0,899.0,186.0,985.7372875163036,2021-09-23 15:14:48.544
271,-118.0,899.0,186.0,925.5922428369848,2021-09-23 15:14:48.552
272,-118.0,1048.0,-59.0,1056.2712719751494,2021-09-23 15:14:48.553
273,-135.0,1069.0,-63.0,1079.330811197383,2021-09-23 15:14:48.562
274,-277.0,841.0,-63.0,887.681812362966,2021-09-23 15:14:48.588
275,-277.0,841.0,23.0,885.7420617764519,2021-09-23 15:14:48.589
276,-277.0,908.0,-110.0,955.6636437575722,2021-09-23 15:14:48.590
277,-44.0,908.0,-110.0,915.6964562561112,2021-09-23 15:14:48.593
278,-44.0,1067.0,-131.0,1075.911706414611,2021-09-23 15:14:48.594
279,-255.0,798.0,22.0,838.0411684398326,2021-09-23 15:14:48.601
280,-214.0,1057.0,-75.0,1081.0504151056043,2021-09-23 15:14:48.611
281,25.0,1095.0,-40.0,1096.0155108391486,2021-09-23 15:14:48.622
282,-292.0,949.0,-20.0,993.1087553737506,2021-09-23 15:14:48.630
283,-209.0,1151.0,-41.0,1170.5396191500738,2021-09-23 15:14:48.640
284,-342.0,766.0,46.0,840.1404644462734,2021-09-23 15:14:48.650
285,-208.0,918.0,-68.0,943.7224168154532,2021-09-23 15:14:48.661
286,-90.0,901.0,-68.0,908.0335896870776,2021-09-23 15:14:48.670
287,-90.0,901.0,-60.0,907.4695587180872,2021-09-23 15:14:48.671
288,-201.0,1143.0,-158.0,1171.2446371275305,2021-09-23 15:14:48.679
289,-115.0,1054.0,-33.0,1060.7685892785476,2021-09-23 15:14:48.689
290,-214.0,1054.0,-33.0,1076.01161703766,2021-09-23 15:14:48.698
291,-214.0,794.0,-21.0,822.6013615354645,2021-09-23 15:14:48.699
292,-55.0,794.0,-21.0,796.1796279734868,2021-09-23 15:14:48.708
293,-55.0,1171.0,-205.0,1190.0802493949725,2021-09-23 15:14:48.709
294,-99.0,738.0,30.0,745.2147341538545,2021-09-23 15:14:48.718
295,-127.0,1040.0,-171.0,1061.588432491613,2021-09-23 15:14:48.729
296,-48.0,1054.0,-171.0,1068.8596727353877,2021-09-23 15:14:48.737
297,-48.0,1054.0,-129.0,1062.949199162406,2021-09-23 15:14:48.738
298,-190.0,848.0,57.0,870.8920713842789,2021-09-23 15:14:48.747
299,-166.0,1098.0,57.0,1111.939296904287,2021-09-23 15:14:48.757
300,-166.0,1098.0,-61.0,1112.1515184542077,2021-09-23 15:14:48.758
301,-29.0,1098.0,-61.0,1100.0754519577283,2021-09-23 15:14:48.767
302,-29.0,1006.0,-20.0,1006.6166102345024,2021-09-23 15:14:48.768
303,-287.0,1006.0,-20.0,1046.329298070163,2021-09-23 15:14:48.777
304,-287.0,912.0,-96.0,960.9000988656416,2021-09-23 15:14:48.778
305,-69.0,1115.0,-173.0,1130.4490258300018,2021-09-23 15:14:48.790
306,-315.0,833.0,21.0,890.817040699155,2021-09-23 15:14:48.796
307,-58.0,1211.0,-140.0,1220.4445911224318,2021-09-23 15:14:48.806
308,-422.0,895.0,232.0,1016.333114682386,2021-09-23 15:14:48.816
309,-135.0,1055.0,-141.0,1072.907731354379,2021-09-23 15:14:48.826
310,-184.0,1110.0,-114.0,1130.9076001159424,2021-09-23 15:14:48.836
311,-351.0,762.0,-23.0,839.2699208240457,2021-09-23 15:14:48.845
312,-81.0,762.0,-23.0,766.6381154103937,2021-09-23 15:14:48.854
313,-81.0,1246.0,-171.0,1260.2848884280093,2021-09-23 15:14:48.855
314,-265.0,845.0,-171.0,901.9373592439777,2021-09-23 15:14:48.864
315,-265.0,845.0,115.0,893.0145575521152,2021-09-23 15:14:48.865
316,-244.0,1216.0,-196.0,1255.6305189027544,2021-09-23 15:14:48.875
317,-32.0,1073.0,158.0,1085.0423954850796,2021-09-23 15:14:48.885
318,-234.0,1065.0,10.0,1090.449907148421,2021-09-23 15:14:48.894
319,-108.0,1065.0,10.0,1070.5087575540892,2021-09-23 15:14:48.903
320,-108.0,1024.0,-118.0,1036.418834255727,2021-09-23 15:14:48.904
321,-197.0,1062.0,-8.0,1080.146749289188,2021-09-23 15:14:48.914
322,-202.0,924.0,112.0,952.4305748977192,2021-09-23 15:14:48.931
323,-116.0,1128.0,-97.0,1138.0900667346148,2021-09-23 15:14:48.933
324,-149.0,975.0,127.0,994.4621661983928,2021-09-23 15:14:48.943
325,-160.0,1050.0,-64.0,1064.046991443517,2021-09-23 15:14:48.953
326,-209.0,971.0,38.0,993.9647881087136,2021-09-23 15:14:48.962
327,-227.0,993.0,-45.0,1019.6092388753644,2021-09-23 15:14:48.973
328,-170.0,1038.0,-60.0,1053.5387985261862,2021-09-23 15:14:48.982
329,-192.0,902.0,-2.0,922.2103881436166,2021-09-23 15:14:48.993
330,-244.0,1102.0,-69.0,1130.7966218555837,2021-09-23 15:14:49.002
