,Acceleration_X,Acceleration_Y,Acceleration_Z,magnitude,time_stamp
0,-57.0,1105.0,145.0,1115.929657281318,2021-09-23 17:23:34.973
1,-281.0,1353.0,-229.0,1400.7180301545347,2021-09-23 17:23:34.983
2,-76.0,898.0,67.0,903.6974051085904,2021-09-23 17:23:34.992
3,-265.0,1092.0,34.0,1124.2086105345395,2021-09-23 17:23:35.002
4,-528.0,726.0,-270.0,937.42199675493,2021-09-23 17:23:35.012
5,-40.0,1294.0,-200.0,1309.975572291331,2021-09-23 17:23:35.022
6,-241.0,849.0,332.0,942.9241751063548,2021-09-23 17:23:35.033
7,-271.0,1321.0,-222.0,1366.6623577167843,2021-09-23 17:23:35.041
8,-270.0,1055.0,25.0,1089.288758777947,2021-09-23 17:23:35.051
9,-373.0,811.0,89.0,897.0902964585003,2021-09-23 17:23:35.060
10,-112.0,1228.0,89.0,1236.3045741240303,2021-09-23 17:23:35.071
11,-112.0,1228.0,-159.0,1243.3056744019148,2021-09-23 17:23:35.072
12,-62.0,833.0,118.0,843.5976529128089,2021-09-23 17:23:35.080
13,-245.0,1203.0,-141.0,1235.7649452869264,2021-09-23 17:23:35.098
14,5.0,1073.0,-50.0,1074.1759632387982,2021-09-23 17:23:35.101
15,-282.0,882.0,-50.0,927.3338126047169,2021-09-23 17:23:35.110
16,-282.0,882.0,94.0,930.7437885906088,2021-09-23 17:23:35.111
17,-101.0,1133.0,-97.0,1141.6212156402842,2021-09-23 17:23:35.120
18,-59.0,998.0,-97.0,1004.4371558240964,2021-09-23 17:23:35.129
19,-59.0,998.0,69.0,1002.1207512071588,2021-09-23 17:23:35.130
20,-526.0,1062.0,-193.0,1200.736857100672,2021-09-23 17:23:35.139
21,-244.0,1062.0,-193.0,1106.6295676512534,2021-09-23 17:23:35.148
22,-244.0,1040.0,44.0,1069.14545315406,2021-09-23 17:23:35.149
23,-306.0,711.0,29.0,774.5953782459588,2021-09-23 17:23:35.158
24,58.0,1190.0,-151.0,1200.94337918155,2021-09-23 17:23:35.168
25,-409.0,919.0,232.0,1032.3109996507835,2021-09-23 17:23:35.180
26,-82.0,1078.0,-190.0,1097.6830143534153,2021-09-23 17:23:35.187
27,-205.0,902.0,25.0,925.339937536471,2021-09-23 17:23:35.197
28,-420.0,689.0,-27.0,807.3722809212612,2021-09-23 17:23:35.208
29,19.0,1240.0,-189.0,1254.464826131048,2021-09-23 17:23:35.217
30,-234.0,708.0,-189.0,769.2470344434224,2021-09-23 17:23:35.227
31,-234.0,708.0,254.0,787.7410742115711,2021-09-23 17:23:35.228
32,-19.0,1318.0,-151.0,1326.757702069221,2021-09-23 17:23:35.236
33,142.0,1318.0,-151.0,1334.1997601558771,2021-09-23 17:23:35.247
34,142.0,1057.0,-67.0,1068.5981471067596,2021-09-23 17:23:35.248
35,-384.0,779.0,108.0,875.1919789394782,2021-09-23 17:23:35.256
36,-232.0,931.0,108.0,965.5304241710876,2021-09-23 17:23:35.265
37,-232.0,931.0,-126.0,967.7091505199276,2021-09-23 17:23:35.266
38,-167.0,1254.0,-81.0,1267.6616267758525,2021-09-23 17:23:35.276
39,-506.0,664.0,20.0,835.0640693982708,2021-09-23 17:23:35.286
40,-433.0,921.0,-49.0,1018.887138008916,2021-09-23 17:23:35.295
41,-216.0,856.0,-49.0,884.1905903141019,2021-09-23 17:23:35.304
42,-216.0,856.0,-30.0,883.3413836111156,2021-09-23 17:23:35.305
43,97.0,856.0,-30.0,862.0005800462086,2021-09-23 17:23:35.314
44,97.0,1016.0,-56.0,1022.155076297134,2021-09-23 17:23:35.315
45,-329.0,1021.0,81.0,1075.7522949080796,2021-09-23 17:23:35.324
46,-217.0,786.0,-148.0,828.727337548364,2021-09-23 17:23:35.335
47,-150.0,786.0,-148.0,813.7567204023571,2021-09-23 17:23:35.343
48,-150.0,1108.0,-75.0,1120.619917724114,2021-09-23 17:23:35.344
49,-386.0,748.0,48.0,843.0919285582089,2021-09-23 17:23:35.353
50,-48.0,1236.0,-147.0,1245.6359821392443,2021-09-23 17:23:35.363
51,-295.0,795.0,243.0,882.0992007705256,2021-09-23 17:23:35.373
52,-151.0,1131.0,-188.0,1156.419474066396,2021-09-23 17:23:35.383
53,-83.0,1198.0,-93.0,1204.467517204179,2021-09-23 17:23:35.392
54,48.0,1168.0,62.0,1170.6288908104054,2021-09-23 17:23:35.403
55,-288.0,964.0,-29.0,1006.5192496917284,2021-09-23 17:23:35.412
56,-113.0,1191.0,-167.0,1207.9482604813834,2021-09-23 17:23:35.422
57,-588.0,683.0,-8.0,901.275207691857,2021-09-23 17:23:35.432
58,-339.0,933.0,-160.0,1005.4899303324725,2021-09-23 17:23:35.442
59,40.0,1079.0,-65.0,1081.6958907197532,2021-09-23 17:23:35.457
60,-156.0,1003.0,-92.0,1019.2197996506936,2021-09-23 17:23:35.461
61,-176.0,1302.0,-92.0,1317.058844547198,2021-09-23 17:23:35.470
62,-176.0,1302.0,-77.0,1316.0961211097008,2021-09-23 17:23:35.471
63,-253.0,780.0,66.0,822.6572797951769,2021-09-23 17:23:35.482
64,-508.0,1076.0,-52.0,1191.0264480690594,2021-09-23 17:23:35.491
65,-179.0,801.0,99.0,826.706114650182,2021-09-23 17:23:35.500
66,-153.0,1283.0,-304.0,1327.371086019279,2021-09-23 17:23:35.510
67,-74.0,1100.0,-134.0,1110.5998379254338,2021-09-23 17:23:35.519
68,-527.0,868.0,83.0,1018.8434619704834,2021-09-23 17:23:35.531
69,-230.0,1089.0,-121.0,1119.5811716887704,2021-09-23 17:23:35.541
70,23.0,886.0,181.0,904.5916205669828,2021-09-23 17:23:35.549
71,-208.0,1083.0,-101.0,1107.4086869805565,2021-09-23 17:23:35.559
72,50.0,1184.0,-117.0,1190.816946469943,2021-09-23 17:23:35.569
73,-278.0,868.0,23.0,911.7219971021868,2021-09-23 17:23:35.579
74,-179.0,868.0,23.0,886.5630265243414,2021-09-23 17:23:35.589
75,-179.0,1057.0,-179.0,1086.8905188656308,2021-09-23 17:23:35.590
76,86.0,1243.0,-179.0,1258.7636791709554,2021-09-23 17:23:35.597
77,86.0,1243.0,9.0,1246.0040128346295,2021-09-23 17:23:35.598
78,-242.0,1243.0,9.0,1266.370403949808,2021-09-23 17:23:35.607
79,-242.0,950.0,-22.0,980.5855393590098,2021-09-23 17:23:35.608
80,-299.0,1193.0,-37.0,1230.4547939684742,2021-09-23 17:23:35.617
81,-297.0,737.0,-2.0,794.5954945756991,2021-09-23 17:23:35.627
82,37.0,1172.0,-2.0,1172.5856045509,2021-09-23 17:23:35.636
83,37.0,1172.0,-148.0,1181.8870504409465,2021-09-23 17:23:35.637
84,-245.0,1172.0,-148.0,1206.4464347827466,2021-09-23 17:23:35.646
85,-245.0,802.0,217.0,866.2089817128427,2021-09-23 17:23:35.647
86,-86.0,1111.0,217.0,1135.2559182845073,2021-09-23 17:23:35.662
87,-86.0,1111.0,-163.0,1126.1820456746768,2021-09-23 17:23:35.663
88,-121.0,874.0,-29.0,882.8125508849542,2021-09-23 17:23:35.666
89,-287.0,874.0,-29.0,920.3727505744616,2021-09-23 17:23:35.675
90,-287.0,701.0,58.0,759.6933591917202,2021-09-23 17:23:35.676
91,116.0,1183.0,-119.0,1194.6154192877304,2021-09-23 17:23:35.688
92,-63.0,734.0,58.0,738.978348803265,2021-09-23 17:23:35.696
93,-2.0,1139.0,-104.0,1143.739917988351,2021-09-23 17:23:35.705
94,-83.0,1139.0,-104.0,1146.745830600661,2021-09-23 17:23:35.714
95,-83.0,1014.0,-135.0,1026.3089203548802,2021-09-23 17:23:35.715
96,-368.0,859.0,117.0,941.8035888655342,2021-09-23 17:23:35.725
97,-116.0,976.0,-85.0,986.537885739823,2021-09-23 17:23:35.741
98,-232.0,1172.0,-31.0,1195.1439243873515,2021-09-23 17:23:35.744
99,-259.0,734.0,-139.0,790.6693367015064,2021-09-23 17:23:35.754
100,-262.0,1034.0,-14.0,1066.7689534289982,2021-09-23 17:23:35.764
101,-365.0,797.0,20.0,876.8317968687039,2021-09-23 17:23:35.775
102,40.0,1199.0,-193.0,1215.092589064718,2021-09-23 17:23:35.783
103,-419.0,842.0,143.0,951.3012141272606,2021-09-23 17:23:35.793
104,-213.0,1035.0,143.0,1066.3221839575504,2021-09-23 17:23:35.802
105,-213.0,1035.0,-157.0,1068.2897547014106,2021-09-23 17:23:35.803
106,-278.0,1070.0,-142.0,1114.6066570768362,2021-09-23 17:23:35.812
107,-170.0,738.0,21.0,757.617977611408,2021-09-23 17:23:35.825
108,134.0,1319.0,-107.0,1330.099996240884,2021-09-23 17:23:35.832
109,-259.0,741.0,170.0,803.1575187969045,2021-09-23 17:23:35.842
110,46.0,1268.0,170.0,1280.17186346209,2021-09-23 17:23:35.851
111,46.0,1268.0,-158.0,1278.6336457328189,2021-09-23 17:23:35.852
112,-172.0,1268.0,-158.0,1289.330058596324,2021-09-23 17:23:35.909
113,-172.0,1098.0,-93.0,1115.2744056957465,2021-09-23 17:23:35.910
114,-346.0,1301.0,-54.0,1347.3058301662618,2021-09-23 17:23:35.913
115,-346.0,813.0,33.0,884.1798459589542,2021-09-23 17:23:35.926
116,-259.0,995.0,7.0,1028.1804316363932,2021-09-23 17:23:35.933
117,-177.0,957.0,18.0,973.397144027041,2021-09-23 17:23:35.936
118,-177.0,1014.0,18.0,1029.4896794043154,2021-09-23 17:23:35.938
119,-177.0,1014.0,-102.0,1034.3737235641672,2021-09-23 17:23:35.939
120,-318.0,1100.0,-102.0,1149.577313624447,2021-09-23 17:23:35.943
121,-318.0,1100.0,126.0,1151.9548602267364,2021-09-23 17:23:35.944
122,-258.0,855.0,-208.0,916.9803705641688,2021-09-23 17:23:35.949
123,-194.0,1188.0,0.0,1203.7358514225618,2021-09-23 17:23:35.959
124,-417.0,1188.0,0.0,1259.0603639222386,2021-09-23 17:23:35.968
125,-417.0,705.0,56.0,821.0054811022884,2021-09-23 17:23:35.969
126,-138.0,1347.0,-186.0,1366.7658907069638,2021-09-23 17:23:35.980
127,-7.0,1006.0,-32.0,1006.5331589172808,2021-09-23 17:23:35.989
128,-345.0,936.0,92.0,1001.7908963451404,2021-09-23 17:23:35.998
129,-110.0,1046.0,-133.0,1060.1438581626553,2021-09-23 17:23:36.008
130,-25.0,1060.0,77.0,1063.0870143125633,2021-09-23 17:23:36.018
131,-295.0,1049.0,-156.0,1100.8006177323848,2021-09-23 17:23:36.028
132,-71.0,1175.0,-78.0,1179.7245441203638,2021-09-23 17:23:36.038
133,-564.0,1175.0,-78.0,1305.681814225809,2021-09-23 17:23:36.046
134,-564.0,700.0,50.0,900.3310502254157,2021-09-23 17:23:36.047
135,-278.0,1017.0,50.0,1055.4965656031288,2021-09-23 17:23:36.056
136,-278.0,1017.0,-82.0,1057.4956264684974,2021-09-23 17:23:36.057
137,-36.0,1017.0,-82.0,1020.9353554461712,2021-09-23 17:23:36.066
138,-36.0,1111.0,34.0,1112.102962859105,2021-09-23 17:23:36.067
139,-155.0,987.0,-141.0,1008.9970267547868,2021-09-23 17:23:36.077
140,-6.0,1350.0,29.0,1350.3247757484123,2021-09-23 17:23:36.087
141,-359.0,1350.0,29.0,1397.219381485957,2021-09-23 17:23:36.095
142,-359.0,788.0,14.0,866.0375280552223,2021-09-23 17:23:36.096
143,86.0,1143.0,-205.0,1164.4183097151986,2021-09-23 17:23:36.105
144,-123.0,728.0,182.0,760.418963466851,2021-09-23 17:23:36.122
145,-14.0,1142.0,182.0,1156.4964331981314,2021-09-23 17:23:36.132
146,-14.0,1142.0,-180.0,1156.183376458942,2021-09-23 17:23:36.133
147,64.0,1019.0,-108.0,1026.703949539496,2021-09-23 17:23:36.135
148,-339.0,1019.0,-108.0,1079.3266419393158,2021-09-23 17:23:36.144
149,-339.0,819.0,258.0,923.171706672166,2021-09-23 17:23:36.145
150,-116.0,1129.0,-112.0,1140.4564875522433,2021-09-23 17:23:36.154
151,150.0,769.0,131.0,794.3689319201752,2021-09-23 17:23:36.166
152,-244.0,1033.0,-187.0,1077.7727033099327,2021-09-23 17:23:36.175
153,48.0,1005.0,-122.0,1013.5151700887362,2021-09-23 17:23:36.183
154,-365.0,1005.0,-122.0,1076.166344019362,2021-09-23 17:23:36.193
155,-365.0,802.0,43.0,882.2006574470458,2021-09-23 17:23:36.194
156,-276.0,1034.0,-176.0,1084.5773370304212,2021-09-23 17:23:36.203
157,122.0,1086.0,-176.0,1106.9128240290652,2021-09-23 17:23:36.213
158,122.0,1086.0,43.0,1093.6768261236955,2021-09-23 17:23:36.214
159,-162.0,995.0,-114.0,1014.5269833769823,2021-09-23 17:23:36.224
160,-155.0,1090.0,-114.0,1106.8518419373029,2021-09-23 17:23:36.232
161,-155.0,1090.0,-85.0,1104.2418213416845,2021-09-23 17:23:36.233
162,-380.0,749.0,-23.0,840.1964056100217,2021-09-23 17:23:36.242
163,36.0,1197.0,-82.0,1200.3453669673574,2021-09-23 17:23:36.252
164,-361.0,853.0,224.0,952.9459585936656,2021-09-23 17:23:36.262
165,-139.0,1163.0,-200.0,1188.2297757588808,2021-09-23 17:23:36.273
166,-247.0,1006.0,-101.0,1040.7910453112097,2021-09-23 17:23:36.281
167,-268.0,693.0,86.0,747.9766039121812,2021-09-23 17:23:36.291
168,-91.0,693.0,86.0,704.2201360370208,2021-09-23 17:23:36.300
169,-91.0,1191.0,-255.0,1221.387325953565,2021-09-23 17:23:36.301
170,-244.0,709.0,112.0,758.1299360927518,2021-09-23 17:23:36.310
171,-98.0,1248.0,-147.0,1260.4431760297646,2021-09-23 17:23:36.322
172,-44.0,1138.0,-70.0,1140.9995617878212,2021-09-23 17:23:36.330
173,-57.0,1126.0,-25.0,1127.7189366149703,2021-09-23 17:23:36.340
174,-112.0,1033.0,-82.0,1042.2845101026878,2021-09-23 17:23:36.350
175,-4.0,1309.0,20.0,1309.1588902803203,2021-09-23 17:23:36.359
176,-419.0,1309.0,20.0,1374.5697508675214,2021-09-23 17:23:36.370
177,-419.0,795.0,-78.0,902.0365846239276,2021-09-23 17:23:36.371
178,-454.0,1011.0,-5.0,1108.2698227417366,2021-09-23 17:23:36.380
179,-351.0,880.0,-5.0,947.4312639975524,2021-09-23 17:23:36.388
180,-351.0,880.0,69.0,949.9273656443424,2021-09-23 17:23:36.389
181,-59.0,1106.0,-73.0,1109.9756754091509,2021-09-23 17:23:36.398
182,-338.0,1032.0,219.0,1107.803682969144,2021-09-23 17:23:36.408
183,-57.0,1023.0,-157.0,1036.545705697535,2021-09-23 17:23:36.418
184,-146.0,1159.0,-113.0,1173.6123721229255,2021-09-23 17:23:36.428
185,-387.0,756.0,28.0,849.7582009018801,2021-09-23 17:23:36.437
186,8.0,1253.0,-111.0,1257.9324306177975,2021-09-23 17:23:36.447
187,-269.0,893.0,193.0,952.3964510643664,2021-09-23 17:23:36.457
188,-257.0,837.0,30.0,876.0810464791485,2021-09-23 17:23:36.467
189,-271.0,991.0,30.0,1027.823914880365,2021-09-23 17:23:36.477
190,-271.0,991.0,-176.0,1042.3521477888362,2021-09-23 17:23:36.478
191,89.0,1117.0,48.0,1121.567652885906,2021-09-23 17:23:36.486
192,-259.0,951.0,-58.0,987.3428988958192,2021-09-23 17:23:36.496
193,-138.0,1126.0,-17.0,1134.5523346236612,2021-09-23 17:23:36.506
194,-383.0,799.0,-79.0,889.5678726213082,2021-09-23 17:23:36.516
195,-174.0,884.0,-88.0,905.2491369783238,2021-09-23 17:23:36.526
196,-60.0,949.0,-40.0,951.7357826623942,2021-09-23 17:23:36.538
197,-16.0,919.0,-36.0,919.8440085144872,2021-09-23 17:23:36.545
198,-54.0,1243.0,84.0,1247.0048115384318,2021-09-23 17:23:36.560
199,-254.0,793.0,-43.0,833.7949388188921,2021-09-23 17:23:36.566
200,-341.0,890.0,7.0,953.1159425799152,2021-09-23 17:23:36.576
201,-336.0,811.0,28.0,878.2943697872598,2021-09-23 17:23:36.585
202,44.0,1223.0,-204.0,1240.677637422389,2021-09-23 17:23:36.594
203,-7.0,1223.0,-204.0,1239.916932701542,2021-09-23 17:23:36.603
204,-7.0,1082.0,-101.0,1086.7262764836414,2021-09-23 17:23:36.604
205,-323.0,784.0,103.0,854.1627479584906,2021-09-23 17:23:36.613
206,-192.0,1098.0,-24.0,1114.9188311262842,2021-09-23 17:23:36.624
207,-42.0,1098.0,-24.0,1099.065057219089,2021-09-23 17:23:36.633
208,-42.0,813.0,114.0,822.0273718070464,2021-09-23 17:23:36.634
209,-386.0,1063.0,-143.0,1139.9184181335083,2021-09-23 17:23:36.642
210,14.0,1148.0,-252.0,1175.4165219189324,2021-09-23 17:23:36.652
211,-398.0,769.0,-252.0,901.8142824329186,2021-09-23 17:23:36.662
212,-398.0,769.0,19.0,866.0981468632756,2021-09-23 17:23:36.663
213,-279.0,1016.0,19.0,1053.782710049847,2021-09-23 17:23:36.672
214,-279.0,1016.0,-117.0,1060.0877322184235,2021-09-23 17:23:36.673
215,129.0,1153.0,-112.0,1165.5874055599606,2021-09-23 17:23:36.682
216,-238.0,995.0,-53.0,1024.4403350122443,2021-09-23 17:23:36.692
217,-209.0,1175.0,-93.0,1197.0609842443282,2021-09-23 17:23:36.701
218,-562.0,730.0,-24.0,921.585590165124,2021-09-23 17:23:36.711
219,-31.0,1243.0,-24.0,1243.6181085847857,2021-09-23 17:23:36.720
220,-31.0,1243.0,-130.0,1250.1639892430112,2021-09-23 17:23:36.721
221,-257.0,851.0,221.0,916.0191046042652,2021-09-23 17:23:36.731
222,-158.0,1243.0,-156.0,1262.6753343595494,2021-09-23 17:23:36.755
223,-91.0,1173.0,1.0,1176.524967860861,2021-09-23 17:23:36.758
224,-456.0,698.0,82.0,837.7732390092202,2021-09-23 17:23:36.760
225,-82.0,698.0,82.0,707.5676646088344,2021-09-23 17:23:36.769
226,-82.0,1249.0,-176.0,1264.001977846554,2021-09-23 17:23:36.770
227,-64.0,809.0,91.0,816.6137397815445,2021-09-23 17:23:36.780
228,-112.0,1231.0,-135.0,1243.4347590444784,2021-09-23 17:23:36.791
229,-145.0,1133.0,-156.0,1152.84430865577,2021-09-23 17:23:36.799
230,-366.0,861.0,-156.0,948.4793092102748,2021-09-23 17:23:36.808
231,-366.0,861.0,149.0,947.353154847758,2021-09-23 17:23:36.809
232,-88.0,1101.0,-91.0,1108.2535810905372,2021-09-23 17:23:36.818
233,-2.0,991.0,97.0,995.7379173256384,2021-09-23 17:23:36.829
234,-335.0,724.0,-17.0,797.9285682315178,2021-09-23 17:23:36.839
235,-298.0,974.0,-13.0,1018.6505779706798,2021-09-23 17:23:36.848
236,-305.0,829.0,112.0,890.3987870611685,2021-09-23 17:23:36.857
237,91.0,1043.0,-93.0,1051.0846778447492,2021-09-23 17:23:36.867
238,-381.0,1009.0,214.0,1099.5626403256888,2021-09-23 17:23:36.877
239,-160.0,1016.0,-189.0,1045.7423200769872,2021-09-23 17:23:36.888
240,-147.0,1062.0,-59.0,1073.7476426050955,2021-09-23 17:23:36.897
241,-426.0,695.0,30.0,815.721153336114,2021-09-23 17:23:36.906
242,-325.0,1249.0,-63.0,1292.1280896257924,2021-09-23 17:23:36.929
243,-325.0,727.0,209.0,823.3073545159183,2021-09-23 17:23:36.931
244,-99.0,1215.0,-181.0,1232.3907659504755,2021-09-23 17:23:36.936
245,-111.0,1133.0,-67.0,1140.394230080107,2021-09-23 17:23:36.945
246,166.0,1196.0,-9.0,1207.4986542435563,2021-09-23 17:23:36.955
247,-228.0,1196.0,-9.0,1217.5717637987505,2021-09-23 17:23:36.964
248,-228.0,907.0,-48.0,936.4491443746424,2021-09-23 17:23:36.965
249,-164.0,1171.0,-55.0,1183.7068893944986,2021-09-23 17:23:36.976
250,-416.0,1171.0,-55.0,1243.9139841645,2021-09-23 17:23:36.984
251,-416.0,775.0,-34.0,880.2482604356569,2021-09-23 17:23:36.985
252,-295.0,914.0,-191.0,979.2354160261974,2021-09-23 17:23:36.994
253,-206.0,914.0,-191.0,956.1971554025874,2021-09-23 17:23:37.003
254,-206.0,947.0,-11.0,969.2089557984904,2021-09-23 17:23:37.004
255,107.0,869.0,-34.0,876.2225744638174,2021-09-23 17:23:37.013
256,-83.0,1159.0,137.0,1170.01666654796,2021-09-23 17:23:37.024
257,-291.0,871.0,-83.0,922.0688694452276,2021-09-23 17:23:37.035
258,-158.0,829.0,121.0,852.5526376711293,2021-09-23 17:23:37.043
259,-315.0,829.0,121.0,895.0458088835453,2021-09-23 17:23:37.052
260,-315.0,789.0,75.0,852.8604809697774,2021-09-23 17:23:37.053
261,12.0,1183.0,-167.0,1194.789521212837,2021-09-23 17:23:37.062
262,-105.0,1107.0,-63.0,1113.7517676753648,2021-09-23 17:23:37.072
263,-303.0,955.0,139.0,1011.5112456122276,2021-09-23 17:23:37.084
264,-35.0,1184.0,12.0,1184.577983925077,2021-09-23 17:23:37.092
265,1.0,988.0,10.0,988.0511120382388,2021-09-23 17:23:37.101
266,-464.0,828.0,-230.0,976.6166085010022,2021-09-23 17:23:37.113
267,1.0,1144.0,-116.0,1149.8665139919503,2021-09-23 17:23:37.121
268,-335.0,708.0,74.0,786.7432872290682,2021-09-23 17:23:37.131
269,-211.0,1002.0,-42.0,1024.8360844544848,2021-09-23 17:23:37.150
270,21.0,1138.0,-75.0,1140.662088438114,2021-09-23 17:23:37.153
271,-291.0,960.0,-87.0,1006.9011868103048,2021-09-23 17:23:37.161
272,-195.0,1200.0,-96.0,1219.5249074947178,2021-09-23 17:23:37.172
273,-327.0,781.0,7.0,846.7225047204072,2021-09-23 17:23:37.180
274,201.0,1378.0,7.0,1392.5997271290844,2021-09-23 17:23:37.189
275,201.0,1378.0,-91.0,1395.552220448952,2021-09-23 17:23:37.190
276,-399.0,669.0,220.0,809.4207805585423,2021-09-23 17:23:37.199
277,-168.0,1344.0,-247.0,1376.7966443887055,2021-09-23 17:23:37.209
278,-81.0,1122.0,-56.0,1126.3130115558463,2021-09-23 17:23:37.220
279,-339.0,814.0,94.0,886.765470685457,2021-09-23 17:23:37.228
280,-274.0,1055.0,-142.0,1099.2110807301754,2021-09-23 17:23:37.238
281,6.0,804.0,79.0,807.8941762384477,2021-09-23 17:23:37.248
282,-123.0,804.0,79.0,817.181742331533,2021-09-23 17:23:37.258
283,-123.0,1102.0,-64.0,1110.6885251950705,2021-09-23 17:23:37.259
284,-50.0,1101.0,-121.0,1108.75696164669,2021-09-23 17:23:37.268
285,-228.0,873.0,-121.0,910.3592697391508,2021-09-23 17:23:37.277
286,-228.0,873.0,101.0,907.9173971237692,2021-09-23 17:23:37.278
287,-89.0,1131.0,-85.0,1137.6761402086272,2021-09-23 17:23:37.287
288,69.0,1129.0,-32.0,1131.5591014171553,2021-09-23 17:23:37.297
289,-318.0,933.0,-203.0,1006.3905802420848,2021-09-23 17:23:37.307
290,-219.0,1081.0,-37.0,1103.5809893252058,2021-09-23 17:23:37.318
291,-448.0,1081.0,-37.0,1170.7407911232956,2021-09-23 17:23:37.330
292,-448.0,727.0,6.0,853.9724819922478,2021-09-23 17:23:37.331
293,-56.0,1224.0,-133.0,1232.4775860030884,2021-09-23 17:23:37.336
294,-305.0,927.0,220.0,1000.3769289622788,2021-09-23 17:23:37.346
295,-32.0,1016.0,-76.0,1019.340963564204,2021-09-23 17:23:37.356
296,-191.0,1107.0,-67.0,1125.3528335593242,2021-09-23 17:23:37.367
297,-162.0,711.0,47.0,730.7352461733319,2021-09-23 17:23:37.375
298,122.0,1236.0,-86.0,1244.9803211296153,2021-09-23 17:23:37.385
299,-200.0,752.0,34.0,778.8838167531792,2021-09-23 17:23:37.394
300,-117.0,1271.0,-230.0,1296.9309927671557,2021-09-23 17:23:37.404
301,33.0,991.0,-136.0,1000.8326533442042,2021-09-23 17:23:37.415
302,-495.0,788.0,14.0,930.679859027797,2021-09-23 17:23:37.424
303,40.0,973.0,-136.0,983.2725969943432,2021-09-23 17:23:37.434
304,-46.0,1254.0,-136.0,1262.1917445459703,2021-09-23 17:23:37.443
305,-46.0,1254.0,22.0,1255.03625445642,2021-09-23 17:23:37.444
306,-311.0,758.0,-11.0,819.3936782768097,2021-09-23 17:23:37.453
307,-454.0,920.0,-11.0,1025.9809939760094,2021-09-23 17:23:37.463
308,-454.0,920.0,47.0,1026.9980525784847,2021-09-23 17:23:37.464
309,-378.0,822.0,3.0,904.7524523315756,2021-09-23 17:23:37.472
310,-17.0,1072.0,-69.0,1074.352828450691,2021-09-23 17:23:37.483
311,-410.0,1044.0,132.0,1129.3626521184417,2021-09-23 17:23:37.492
312,-300.0,949.0,-240.0,1023.8168781574174,2021-09-23 17:23:37.502
313,-80.0,1084.0,-41.0,1087.7210120246828,2021-09-23 17:23:37.512
314,-457.0,707.0,51.0,843.3854397604929,2021-09-23 17:23:37.522
315,24.0,1265.0,51.0,1266.2551085780465,2021-09-23 17:23:37.531
316,24.0,1265.0,-126.0,1271.4861383436314,2021-09-23 17:23:37.534
317,-371.0,839.0,246.0,949.7778687672186,2021-09-23 17:23:37.541
318,-187.0,1221.0,246.0,1259.4943429805471,2021-09-23 17:23:37.550
319,-187.0,1221.0,-253.0,1260.8802480806812,2021-09-23 17:23:37.551
320,-255.0,1052.0,-253.0,1111.6375308525708,2021-09-23 17:23:37.561
321,-255.0,1052.0,-127.0,1089.8889851723432,2021-09-23 17:23:37.562
322,38.0,1173.0,63.0,1175.305066780536,2021-09-23 17:23:37.571
323,-230.0,1015.0,-23.0,1040.9870316195106,2021-09-23 17:23:37.581
324,-219.0,1015.0,-23.0,1038.6120546190475,2021-09-23 17:23:37.596
325,-219.0,1174.0,-52.0,1195.383202157367,2021-09-23 17:23:37.597
326,-447.0,712.0,1.0,840.6866241352957,2021-09-23 17:23:37.601
327,-202.0,956.0,-124.0,984.9446684966624,2021-09-23 17:23:37.610
328,-58.0,1019.0,-42.0,1021.5130934060512,2021-09-23 17:23:37.619
329,-133.0,1019.0,-42.0,1028.5008507531727,2021-09-23 17:23:37.629
330,-133.0,995.0,-164.0,1017.1578048660888,2021-09-23 17:23:37.630
331,-18.0,1288.0,27.0,1288.408708446198,2021-09-23 17:23:37.639
332,-207.0,776.0,-12.0,803.2241281236514,2021-09-23 17:23:37.648
333,-313.0,973.0,76.0,1024.9263388166,2021-09-23 17:23:37.658
334,-305.0,813.0,47.0,869.5993330264231,2021-09-23 17:23:37.669
335,-8.0,1181.0,-182.0,1194.968200413718,2021-09-23 17:23:37.678
336,-78.0,1053.0,-139.0,1064.9948356682298,2021-09-23 17:23:37.687
337,-309.0,807.0,135.0,874.6170590607069,2021-09-23 17:23:37.697
338,-189.0,1052.0,-59.0,1070.4699902379327,2021-09-23 17:23:37.707
339,43.0,976.0,21.0,977.1724515150844,2021-09-23 17:23:37.717
340,-275.0,988.0,-93.0,1029.7659928352657,2021-09-23 17:23:37.726
341,56.0,1134.0,-143.0,1144.3517815776756,2021-09-23 17:23:37.740
342,-375.0,870.0,19.0,947.5684671832428,2021-09-23 17:23:37.746
343,-207.0,1022.0,-89.0,1046.5438356800923,2021-09-23 17:23:37.756
344,-38.0,1230.0,-101.0,1234.724665664374,2021-09-23 17:23:37.773
345,-266.0,940.0,-42.0,977.8138882220892,2021-09-23 17:23:37.775
346,-361.0,1245.0,-66.0,1297.9607081880406,2021-09-23 17:23:37.785
347,-335.0,815.0,22.0,881.4385968404152,2021-09-23 17:23:37.795
348,71.0,1379.0,-52.0,1381.8053408494266,2021-09-23 17:23:37.806
349,-252.0,1379.0,-52.0,1402.800413458736,2021-09-23 17:23:37.814
350,-252.0,715.0,172.0,777.3757135388267,2021-09-23 17:23:37.815
351,-238.0,1264.0,-267.0,1313.6319880392682,2021-09-23 17:23:37.824
352,-72.0,1124.0,-138.0,1134.7263987411238,2021-09-23 17:23:37.834
353,-190.0,823.0,-138.0,855.8463647174065,2021-09-23 17:23:37.843
354,-190.0,823.0,194.0,866.6400636942652,2021-09-23 17:23:37.844
355,-338.0,1007.0,-175.0,1076.530538349935,2021-09-23 17:23:37.854
356,122.0,991.0,417.0,1082.0600722695574,2021-09-23 17:23:37.865
357,-465.0,1144.0,-228.0,1255.7647072600823,2021-09-23 17:23:37.873
358,227.0,887.0,122.0,923.6785155020116,2021-09-23 17:23:37.883
359,-219.0,1005.0,42.0,1029.4415962064093,2021-09-23 17:23:37.892
360,45.0,814.0,-188.0,836.6391097719494,2021-09-23 17:23:37.903
361,-198.0,1173.0,-30.0,1189.9718484065074,2021-09-23 17:23:37.913
362,-158.0,1173.0,-30.0,1183.9733949713566,2021-09-23 17:23:37.921
363,-158.0,895.0,71.0,911.6084685872548,2021-09-23 17:23:37.922
364,-204.0,895.0,71.0,920.6964755010198,2021-09-23 17:23:37.947
365,-204.0,1277.0,-106.0,1297.5288050752476,2021-09-23 17:23:37.948
366,-204.0,935.0,63.0,959.067255201636,2021-09-23 17:23:37.949
367,-213.0,1091.0,-103.0,1116.359709054389,2021-09-23 17:23:37.951
368,-209.0,1091.0,-103.0,1115.6034241611128,2021-09-23 17:23:37.960
369,-209.0,979.0,33.0,1001.6042132499244,2021-09-23 17:23:37.961
370,-251.0,1012.0,-33.0,1043.1845474315655,2021-09-23 17:23:37.971
371,-122.0,1114.0,-27.0,1120.9857269385725,2021-09-23 17:23:37.981
372,-186.0,953.0,26.0,971.3295012507342,2021-09-23 17:23:37.991
373,-130.0,1122.0,-50.0,1130.612223532012,2021-09-23 17:23:38.000
374,-251.0,1122.0,-50.0,1150.819273387442,2021-09-23 17:23:38.009
375,-251.0,911.0,33.0,945.5215491991707,2021-09-23 17:23:38.010
376,-217.0,1027.0,-101.0,1054.52311496714,2021-09-23 17:23:38.019
377,-208.0,1090.0,-108.0,1114.9116556929523,2021-09-23 17:23:38.030
378,-228.0,906.0,64.0,936.437931739205,2021-09-23 17:23:38.040
379,-144.0,906.0,64.0,919.6020878619188,2021-09-23 17:23:38.048
380,-144.0,1055.0,-67.0,1066.887997870442,2021-09-23 17:23:38.049
381,-204.0,997.0,53.0,1019.0358188012824,2021-09-23 17:23:38.059
