,Acceleration_X,Acceleration_Y,Acceleration_Z,magnitude,time_stamp
0,-124.0,1145.0,-194.0,1167.919945886703,2021-09-23 17:24:16.934
1,-151.0,606.0,-194.0,653.9671245559673,2021-09-23 17:24:16.937
2,-151.0,606.0,402.0,742.7253866672393,2021-09-23 17:24:16.938
3,-96.0,1030.0,-208.0,1055.1682330320602,2021-09-23 17:24:16.945
4,-20.0,1002.0,-133.0,1010.986152229594,2021-09-23 17:24:16.955
5,37.0,1002.0,-133.0,1011.465273748931,2021-09-23 17:24:16.965
6,37.0,963.0,27.0,964.0886888663304,2021-09-23 17:24:16.966
7,-290.0,861.0,-43.0,909.543841714076,2021-09-23 17:24:16.974
8,-34.0,1327.0,-233.0,1347.729201286371,2021-09-23 17:24:16.985
9,-349.0,631.0,55.0,723.1784012261428,2021-09-23 17:24:16.994
10,-300.0,918.0,-23.0,966.050205734671,2021-09-23 17:24:17.005
11,110.0,1194.0,-55.0,1200.3170414519657,2021-09-23 17:24:17.014
12,-94.0,947.0,-97.0,956.5845493211774,2021-09-23 17:24:17.023
13,-205.0,1401.0,-100.0,1419.445666448702,2021-09-23 17:24:17.033
14,-478.0,779.0,127.0,922.7426510138132,2021-09-23 17:24:17.043
15,-329.0,905.0,91.0,967.23678590095,2021-09-23 17:24:17.053
16,-168.0,897.0,59.0,914.5020502984124,2021-09-23 17:24:17.063
17,183.0,956.0,11.0,973.41974502267,2021-09-23 17:24:17.072
18,-92.0,1063.0,-126.0,1074.387732617978,2021-09-23 17:24:17.082
19,-373.0,1063.0,-126.0,1133.5669367090768,2021-09-23 17:24:17.091
20,-373.0,795.0,77.0,881.5231137071789,2021-09-23 17:24:17.092
21,-137.0,1186.0,-217.0,1213.447155833331,2021-09-23 17:24:17.102
22,-198.0,1344.0,-32.0,1358.8833651200532,2021-09-23 17:24:17.116
23,-175.0,1344.0,-32.0,1355.7230543145602,2021-09-23 17:24:17.120
24,-175.0,1040.0,-120.0,1061.425927702918,2021-09-23 17:24:17.121
25,36.0,1040.0,-120.0,1047.5189735751806,2021-09-23 17:24:17.130
26,36.0,1088.0,-126.0,1095.8631301398912,2021-09-23 17:24:17.131
27,-53.0,891.0,-126.0,901.4244283355094,2021-09-23 17:24:17.141
28,-53.0,891.0,190.0,912.5732847284102,2021-09-23 17:24:17.142
29,-13.0,1104.0,-40.0,1104.800887038022,2021-09-23 17:24:17.152
30,221.0,1187.0,26.0,1207.677937200146,2021-09-23 17:24:17.160
31,-375.0,915.0,-20.0,989.0652152411388,2021-09-23 17:24:17.170
32,-123.0,1210.0,-125.0,1222.642220766157,2021-09-23 17:24:17.180
33,-597.0,650.0,-125.0,891.366366877279,2021-09-23 17:24:17.189
34,-597.0,650.0,105.0,888.7823130553397,2021-09-23 17:24:17.190
35,-267.0,953.0,-126.0,997.6843188103138,2021-09-23 17:24:17.199
36,-373.0,813.0,246.0,927.6928370964174,2021-09-23 17:24:17.210
37,-89.0,1083.0,-201.0,1105.0841596910166,2021-09-23 17:24:17.219
38,-175.0,963.0,-201.0,999.197177738208,2021-09-23 17:24:17.228
39,-175.0,963.0,-146.0,989.6009296681162,2021-09-23 17:24:17.229
40,-390.0,681.0,-8.0,784.8088939353325,2021-09-23 17:24:17.238
41,81.0,1202.0,-92.0,1208.2338349839406,2021-09-23 17:24:17.248
42,-142.0,1202.0,-92.0,1213.8500731144684,2021-09-23 17:24:17.263
43,-142.0,745.0,213.0,787.7550380670377,2021-09-23 17:24:17.264
44,36.0,1310.0,213.0,1327.6916057579035,2021-09-23 17:24:17.274
45,36.0,1310.0,-50.0,1311.4480546327409,2021-09-23 17:24:17.275
46,74.0,1106.0,-77.0,1111.14400506865,2021-09-23 17:24:17.277
47,-456.0,819.0,127.0,945.9524300936068,2021-09-23 17:24:17.288
48,-170.0,1127.0,-86.0,1142.989501264119,2021-09-23 17:24:17.300
49,-6.0,880.0,118.0,887.8963903519374,2021-09-23 17:24:17.307
50,-392.0,1087.0,-164.0,1167.1028232336687,2021-09-23 17:24:17.317
51,-533.0,1063.0,36.0,1189.6865133302974,2021-09-23 17:24:17.326
52,-335.0,830.0,107.0,901.4288657459334,2021-09-23 17:24:17.336
53,79.0,1084.0,-20.0,1087.0588760504188,2021-09-23 17:24:17.345
54,-371.0,984.0,191.0,1068.8208456050995,2021-09-23 17:24:17.357
55,-172.0,931.0,-38.0,947.5172821642884,2021-09-23 17:24:17.366
56,-91.0,1097.0,108.0,1106.0533441023538,2021-09-23 17:24:17.379
57,-269.0,779.0,69.0,827.0205559718573,2021-09-23 17:24:17.385
58,156.0,1216.0,-101.0,1230.1190999248813,2021-09-23 17:24:17.394
59,-329.0,795.0,254.0,897.0964273699901,2021-09-23 17:24:17.405
60,-76.0,1224.0,-34.0,1226.8284313627555,2021-09-23 17:24:17.414
61,-158.0,974.0,-8.0,986.7644095730246,2021-09-23 17:24:17.423
62,-283.0,711.0,74.0,768.8211755668544,2021-09-23 17:24:17.433
63,-197.0,912.0,-75.0,936.0438023938837,2021-09-23 17:24:17.443
64,-158.0,1233.0,-107.0,1247.678644523501,2021-09-23 17:24:17.453
65,-504.0,604.0,-31.0,787.2693312964757,2021-09-23 17:24:17.463
66,-202.0,944.0,-74.0,968.2024581666792,2021-09-23 17:24:17.479
67,-16.0,1031.0,-133.0,1039.666292615087,2021-09-23 17:24:17.483
68,-75.0,874.0,-136.0,887.6919510731186,2021-09-23 17:24:17.494
69,-195.0,874.0,-136.0,905.7576938674052,2021-09-23 17:24:17.501
70,-195.0,1281.0,-7.0,1295.775829377906,2021-09-23 17:24:17.502
71,-318.0,639.0,-35.0,714.6117827184212,2021-09-23 17:24:17.513
72,-379.0,966.0,44.0,1038.6207199935884,2021-09-23 17:24:17.521
73,-164.0,765.0,98.0,788.4954026498823,2021-09-23 17:24:17.531
74,46.0,1026.0,98.0,1031.6956915680128,2021-09-23 17:24:17.541
75,46.0,1026.0,-77.0,1029.9131031305506,2021-09-23 17:24:17.542
76,-354.0,894.0,191.0,980.3229059855736,2021-09-23 17:24:17.551
77,33.0,857.0,191.0,878.6461176150499,2021-09-23 17:24:17.560
78,33.0,857.0,-39.0,858.5214033441449,2021-09-23 17:24:17.561
79,-357.0,1196.0,-185.0,1261.78048804061,2021-09-23 17:24:17.570
80,106.0,791.0,131.0,808.7508887166678,2021-09-23 17:24:17.580
81,-225.0,1016.0,131.0,1048.8288706934034,2021-09-23 17:24:17.590
82,-225.0,1016.0,-214.0,1062.3921121695134,2021-09-23 17:24:17.591
83,24.0,1159.0,-184.0,1173.7601969738112,2021-09-23 17:24:17.599
84,-180.0,845.0,128.0,873.3893747922515,2021-09-23 17:24:17.609
85,-76.0,845.0,128.0,858.0122376749646,2021-09-23 17:24:17.619
86,-76.0,1113.0,-60.0,1117.204099527029,2021-09-23 17:24:17.620
87,216.0,1159.0,-60.0,1180.481681348762,2021-09-23 17:24:17.628
88,216.0,1159.0,12.0,1179.0169634063795,2021-09-23 17:24:17.629
89,-279.0,1159.0,12.0,1192.168612235702,2021-09-23 17:24:17.638
90,-279.0,894.0,-32.0,937.070434919382,2021-09-23 17:24:17.639
91,-151.0,1168.0,-101.0,1182.0431464206372,2021-09-23 17:24:17.648
92,-442.0,618.0,169.0,778.36302584334,2021-09-23 17:24:17.658
93,-290.0,942.0,-146.0,996.3834603203728,2021-09-23 17:24:17.668
94,-84.0,942.0,-146.0,956.940959516312,2021-09-23 17:24:17.677
95,-84.0,1018.0,-35.0,1022.0591959373,2021-09-23 17:24:17.678
96,-104.0,1056.0,-89.0,1064.834728960321,2021-09-23 17:24:17.687
97,-110.0,1045.0,-5.0,1050.7854205307572,2021-09-23 17:24:17.698
98,-301.0,1045.0,-5.0,1087.4975862042177,2021-09-23 17:24:17.706
99,-301.0,664.0,9.0,729.0939582797268,2021-09-23 17:24:17.707
100,195.0,1251.0,-54.0,1267.25766914231,2021-09-23 17:24:17.717
101,-237.0,759.0,185.0,816.3792011069365,2021-09-23 17:24:17.727
102,-165.0,1211.0,-262.0,1249.955999225573,2021-09-23 17:24:17.736
103,0.0,1118.0,-152.0,1128.285424881488,2021-09-23 17:24:17.746
104,-363.0,856.0,-152.0,942.1300334879468,2021-09-23 17:24:17.755
105,-363.0,856.0,222.0,955.9231140630504,2021-09-23 17:24:17.756
106,-137.0,1179.0,-31.0,1187.3377783933263,2021-09-23 17:24:17.766
107,125.0,906.0,104.0,920.476507033178,2021-09-23 17:24:17.776
108,-278.0,1035.0,-68.0,1073.8403047008433,2021-09-23 17:24:17.785
109,99.0,1144.0,-158.0,1159.0949055189571,2021-09-23 17:24:17.795
110,-262.0,804.0,85.0,849.873520001653,2021-09-23 17:24:17.805
111,-168.0,1064.0,-36.0,1077.7829094952283,2021-09-23 17:24:17.814
112,-465.0,1064.0,-36.0,1161.730175212816,2021-09-23 17:24:17.824
113,-465.0,933.0,253.0,1072.7175769977855,2021-09-23 17:24:17.825
114,-106.0,933.0,253.0,972.488560344028,2021-09-23 17:24:17.833
115,-106.0,955.0,-206.0,982.6988348420894,2021-09-23 17:24:17.834
116,-20.0,1067.0,-23.0,1067.435243937542,2021-09-23 17:24:17.844
117,-406.0,656.0,10.0,771.5387222946105,2021-09-23 17:24:17.854
118,94.0,1240.0,-130.0,1250.334355282618,2021-09-23 17:24:17.863
119,-439.0,747.0,236.0,898.0122493596622,2021-09-23 17:24:17.873
120,-43.0,1170.0,-210.0,1189.4742536095516,2021-09-23 17:24:17.883
121,-194.0,1170.0,-210.0,1204.4235135532683,2021-09-23 17:24:17.892
122,-194.0,1061.0,-49.0,1079.7027368678844,2021-09-23 17:24:17.893
123,-183.0,584.0,135.0,626.7136507209652,2021-09-23 17:24:17.903
124,40.0,1176.0,-127.0,1183.5138359985488,2021-09-23 17:24:17.912
125,-59.0,830.0,39.0,833.007803084701,2021-09-23 17:24:17.921
126,-393.0,658.0,44.0,767.6906929226119,2021-09-23 17:24:17.932
127,-254.0,658.0,44.0,706.6937101743583,2021-09-23 17:24:17.941
128,-254.0,961.0,-131.0,1002.5956313489502,2021-09-23 17:24:17.942
129,-132.0,1019.0,-75.0,1030.2475430691402,2021-09-23 17:24:17.951
130,46.0,952.0,-89.0,957.2570187781336,2021-09-23 17:24:17.968
131,-149.0,1328.0,19.0,1336.4677324948775,2021-09-23 17:24:17.972
132,-377.0,749.0,-117.0,846.6516402866057,2021-09-23 17:24:17.980
133,-493.0,962.0,-148.0,1091.053160941299,2021-09-23 17:24:17.990
134,-488.0,962.0,-148.0,1088.8030124866482,2021-09-23 17:24:17.999
135,-488.0,763.0,86.0,909.7851394697542,2021-09-23 17:24:18.000
136,-87.0,1161.0,-99.0,1168.4566744214353,2021-09-23 17:24:18.009
137,-430.0,1161.0,-99.0,1242.023349216914,2021-09-23 17:24:18.019
138,-430.0,912.0,196.0,1027.161136336456,2021-09-23 17:24:18.020
139,152.0,930.0,-101.0,947.7367778027822,2021-09-23 17:24:18.030
140,-11.0,1131.0,23.0,1131.2873198264003,2021-09-23 17:24:18.039
141,-284.0,1131.0,23.0,1166.3387158111489,2021-09-23 17:24:18.049
142,-284.0,701.0,86.0,761.2181027800113,2021-09-23 17:24:18.050
143,-497.0,1098.0,-143.0,1213.69765592589,2021-09-23 17:24:18.058
144,9.0,1142.0,-223.0,1163.6038844899067,2021-09-23 17:24:18.068
145,-305.0,776.0,33.0,834.4399319303936,2021-09-23 17:24:18.078
146,-244.0,1014.0,-47.0,1044.002394633269,2021-09-23 17:24:18.088
147,255.0,1308.0,-2.0,1332.6263542343745,2021-09-23 17:24:18.099
148,-204.0,1010.0,-190.0,1047.7671497045517,2021-09-23 17:24:18.107
149,-272.0,1219.0,-147.0,1257.59850508817,2021-09-23 17:24:18.117
150,-568.0,627.0,-101.0,852.0293422177431,2021-09-23 17:24:18.128
151,-440.0,874.0,-266.0,1014.0177513239104,2021-09-23 17:24:18.136
152,-176.0,972.0,-78.0,990.8804165992988,2021-09-23 17:24:18.147
153,-242.0,940.0,-115.0,977.440023735472,2021-09-23 17:24:18.157
154,-135.0,940.0,-115.0,956.5824585470924,2021-09-23 17:24:18.165
155,-135.0,1261.0,83.0,1270.918958864018,2021-09-23 17:24:18.166
156,-366.0,691.0,83.0,786.3370778489336,2021-09-23 17:24:18.175
157,-366.0,691.0,46.0,783.29624025652,2021-09-23 17:24:18.176
158,87.0,1265.0,46.0,1268.822288581029,2021-09-23 17:24:18.186
159,87.0,1265.0,-193.0,1282.5922968737962,2021-09-23 17:24:18.187
160,-60.0,707.0,119.0,719.4511797196527,2021-09-23 17:24:18.196
161,-188.0,1136.0,-233.0,1174.7889172102366,2021-09-23 17:24:18.206
162,-74.0,943.0,-103.0,951.4904098308084,2021-09-23 17:24:18.214
163,-401.0,845.0,-103.0,940.9755575996649,2021-09-23 17:24:18.224
164,-401.0,845.0,139.0,945.5934644444196,2021-09-23 17:24:18.225
165,-155.0,1147.0,-14.0,1157.5102591338014,2021-09-23 17:24:18.234
166,240.0,1032.0,100.0,1064.248091377194,2021-09-23 17:24:18.244
167,-277.0,970.0,100.0,1013.7203756460656,2021-09-23 17:24:18.254
168,-277.0,970.0,-115.0,1015.3098049364046,2021-09-23 17:24:18.255
169,96.0,1128.0,-173.0,1145.220066188154,2021-09-23 17:24:18.263
170,-425.0,709.0,-173.0,844.5324150084472,2021-09-23 17:24:18.282
171,-425.0,709.0,-16.0,826.7780838895042,2021-09-23 17:24:18.283
172,-339.0,709.0,-16.0,786.0394392140893,2021-09-23 17:24:18.284
173,-339.0,917.0,-156.0,990.0232320506424,2021-09-23 17:24:18.285
174,223.0,1170.0,7.0,1191.0827007391215,2021-09-23 17:24:18.293
175,-183.0,920.0,-32.0,938.5696564453808,2021-09-23 17:24:18.304
176,-183.0,1118.0,-132.0,1140.5424148184932,2021-09-23 17:24:18.312
177,-360.0,629.0,2.0,724.7378836517379,2021-09-23 17:24:18.322
178,108.0,1304.0,-127.0,1314.6136314522223,2021-09-23 17:24:18.333
179,-361.0,677.0,-127.0,777.6753821486186,2021-09-23 17:24:18.343
180,-361.0,677.0,243.0,804.7974900557282,2021-09-23 17:24:18.344
181,-74.0,1220.0,243.0,1246.164114392643,2021-09-23 17:24:18.351
182,-74.0,1220.0,-195.0,1237.699882847211,2021-09-23 17:24:18.352
183,-68.0,1049.0,-81.0,1054.3177889042754,2021-09-23 17:24:18.361
184,-282.0,745.0,167.0,813.9029426166243,2021-09-23 17:24:18.371
185,70.0,1211.0,167.0,1224.4631476692143,2021-09-23 17:24:18.380
186,70.0,1211.0,-109.0,1217.9088635854491,2021-09-23 17:24:18.381
187,0.0,716.0,88.0,721.3875518748573,2021-09-23 17:24:18.398
188,-6.0,1147.0,-162.0,1158.399326657263,2021-09-23 17:24:18.400
189,-162.0,925.0,-101.0,944.4945738330103,2021-09-23 17:24:18.410
190,-313.0,889.0,172.0,958.0574095533108,2021-09-23 17:24:18.420
191,-169.0,1151.0,172.0,1175.9872448287863,2021-09-23 17:24:18.430
192,-169.0,1151.0,-150.0,1172.971440402536,2021-09-23 17:24:18.431
193,-24.0,1250.0,76.0,1252.5382229696625,2021-09-23 17:24:18.439
194,-244.0,829.0,0.0,864.1626004404495,2021-09-23 17:24:18.449
195,-290.0,1060.0,2.0,1098.9558680857026,2021-09-23 17:24:18.459
196,-309.0,726.0,162.0,805.4818433707864,2021-09-23 17:24:18.469
197,-101.0,1243.0,-140.0,1254.9302769476876,2021-09-23 17:24:18.489
198,-478.0,1243.0,-140.0,1339.0791612148998,2021-09-23 17:24:18.491
199,-478.0,930.0,209.0,1066.332499739176,2021-09-23 17:24:18.492
200,-68.0,1070.0,-142.0,1081.5211509720923,2021-09-23 17:24:18.499
201,-84.0,1074.0,-61.0,1079.005560690027,2021-09-23 17:24:18.507
202,-342.0,724.0,52.0,802.3989032893801,2021-09-23 17:24:18.517
203,217.0,724.0,52.0,757.6074181263011,2021-09-23 17:24:18.530
204,217.0,1396.0,-63.0,1414.1690139442314,2021-09-23 17:24:18.531
205,-362.0,721.0,299.0,860.3987447689589,2021-09-23 17:24:18.537
206,-77.0,1150.0,-122.0,1159.0138049220984,2021-09-23 17:24:18.547
207,-375.0,989.0,-218.0,1079.939813137751,2021-09-23 17:24:18.556
208,-115.0,1219.0,-68.0,1226.2993109351405,2021-09-23 17:24:18.566
209,-236.0,1219.0,-68.0,1243.4954764694562,2021-09-23 17:24:18.577
210,-236.0,992.0,-27.0,1020.0436265180034,2021-09-23 17:24:18.578
211,-98.0,992.0,-27.0,997.1945647665756,2021-09-23 17:24:18.585
212,-98.0,1262.0,-32.0,1266.2037750694,2021-09-23 17:24:18.586
213,-489.0,679.0,-146.0,849.3986107829468,2021-09-23 17:24:18.595
214,-326.0,832.0,-79.0,897.073575577834,2021-09-23 17:24:18.605
215,-176.0,928.0,-104.0,950.2504932911112,2021-09-23 17:24:18.615
216,-100.0,928.0,-104.0,939.1485505499116,2021-09-23 17:24:18.624
217,-100.0,973.0,-218.0,1002.1242437941517,2021-09-23 17:24:18.625
218,-256.0,1178.0,45.0,1206.3353596740833,2021-09-23 17:24:18.635
219,-270.0,663.0,-119.0,725.6927724595306,2021-09-23 17:24:18.644
220,-348.0,976.0,-55.0,1037.6439659150917,2021-09-23 17:24:18.654
221,-241.0,976.0,-55.0,1006.8177590805598,2021-09-23 17:24:18.664
222,-241.0,731.0,123.0,779.4684085965255,2021-09-23 17:24:18.665
223,-90.0,1183.0,-329.0,1231.1904807949093,2021-09-23 17:24:18.673
224,-293.0,972.0,-203.0,1035.2980247252478,2021-09-23 17:24:18.684
225,-478.0,763.0,73.0,903.3172200284904,2021-09-23 17:24:18.693
226,-230.0,1174.0,-119.0,1202.221693366078,2021-09-23 17:24:18.703
227,17.0,972.0,-119.0,979.4049213680725,2021-09-23 17:24:18.712
228,17.0,972.0,97.0,976.9759464797482,2021-09-23 17:24:18.713
229,-212.0,981.0,-137.0,1012.9531084902204,2021-09-23 17:24:18.723
230,161.0,1138.0,-162.0,1160.6933272833096,2021-09-23 17:24:18.737
231,-320.0,771.0,-6.0,834.791590757837,2021-09-23 17:24:18.742
232,-87.0,996.0,-15.0,999.9049954870712,2021-09-23 17:24:18.752
233,282.0,1167.0,-106.0,1205.258893350304,2021-09-23 17:24:18.762
234,-353.0,939.0,-204.0,1023.6923365933732,2021-09-23 17:24:18.771
235,-104.0,1237.0,-11.0,1241.412904717846,2021-09-23 17:24:18.781
236,-428.0,710.0,41.0,830.0391557029102,2021-09-23 17:24:18.791
237,58.0,1403.0,41.0,1404.796782456452,2021-09-23 17:24:18.800
238,58.0,1403.0,-185.0,1416.3325880597397,2021-09-23 17:24:18.801
239,-313.0,673.0,275.0,791.5320587316726,2021-09-23 17:24:18.810
240,27.0,1365.0,-208.0,1381.0206370652106,2021-09-23 17:24:18.821
241,-67.0,1137.0,34.0,1139.4797058306915,2021-09-23 17:24:18.830
242,-443.0,790.0,164.0,920.4591245677344,2021-09-23 17:24:18.840
243,-137.0,1171.0,164.0,1190.338607287859,2021-09-23 17:24:18.849
244,-137.0,1171.0,2.0,1178.9885495627173,2021-09-23 17:24:18.850
245,90.0,837.0,190.0,863.0,2021-09-23 17:24:18.859
246,-190.0,837.0,190.0,879.0728069960986,2021-09-23 17:24:18.869
247,-190.0,1109.0,-158.0,1136.19760605275,2021-09-23 17:24:18.870
248,-106.0,1070.0,-158.0,1086.7842472174502,2021-09-23 17:24:18.878
249,-106.0,1070.0,-132.0,1083.3097433329028,2021-09-23 17:24:18.879
250,-244.0,822.0,47.0,858.7368630727343,2021-09-23 17:24:18.889
251,-97.0,1077.0,-122.0,1088.2196469463322,2021-09-23 17:24:18.899
252,13.0,1192.0,13.0,1192.1417700928023,2021-09-23 17:24:18.908
253,-20.0,797.0,13.0,797.3568837101741,2021-09-23 17:24:18.917
254,-20.0,797.0,-16.0,797.4114370887842,2021-09-23 17:24:18.918
255,-87.0,1071.0,-16.0,1074.6469187598316,2021-09-23 17:24:18.927
256,-87.0,1071.0,20.0,1074.7139154212157,2021-09-23 17:24:18.928
257,-261.0,692.0,176.0,760.2374629022172,2021-09-23 17:24:18.938
258,6.0,692.0,176.0,714.0560202112997,2021-09-23 17:24:18.947
259,6.0,1208.0,-142.0,1216.332191467446,2021-09-23 17:24:18.948
260,-427.0,791.0,250.0,933.0112539514192,2021-09-23 17:24:18.958
261,-117.0,1096.0,-154.0,1112.9335110418772,2021-09-23 17:24:18.967
262,-385.0,1096.0,-154.0,1171.8178186049229,2021-09-23 17:24:18.984
263,-385.0,1034.0,-94.0,1107.3468291371046,2021-09-23 17:24:18.985
264,-281.0,684.0,76.0,743.3659933034332,2021-09-23 17:24:18.988
265,190.0,1368.0,-56.0,1382.2662551042763,2021-09-23 17:24:18.996
266,-272.0,671.0,-56.0,726.1962544656919,2021-09-23 17:24:19.006
267,-272.0,671.0,264.0,770.6627018352451,2021-09-23 17:24:19.007
268,12.0,1259.0,-184.0,1272.4311376259227,2021-09-23 17:24:19.016
269,42.0,1011.0,-61.0,1013.709031231349,2021-09-23 17:24:19.025
270,-405.0,732.0,74.0,839.8362935715508,2021-09-23 17:24:19.035
271,-116.0,917.0,-116.0,931.5583717620706,2021-09-23 17:24:19.045
272,-240.0,1223.0,-14.0,1246.4048299007832,2021-09-23 17:24:19.055
273,-324.0,667.0,19.0,741.7722022292288,2021-09-23 17:24:19.064
274,-325.0,842.0,-49.0,903.8749913566588,2021-09-23 17:24:19.074
275,-155.0,856.0,29.0,870.4033547729466,2021-09-23 17:24:19.084
276,82.0,995.0,-69.0,1000.7547152024816,2021-09-23 17:24:19.094
277,-267.0,1021.0,260.0,1086.890058837599,2021-09-23 17:24:19.104
278,-270.0,885.0,-142.0,936.1030926132014,2021-09-23 17:24:19.114
279,-215.0,885.0,-142.0,921.7450840660882,2021-09-23 17:24:19.122
280,-215.0,1010.0,-35.0,1033.223112401189,2021-09-23 17:24:19.123
281,-453.0,650.0,-35.0,793.0535921361179,2021-09-23 17:24:19.132
282,-453.0,650.0,8.0,792.3212732219172,2021-09-23 17:24:19.133
283,-128.0,1320.0,-216.0,1343.6666253204328,2021-09-23 17:24:19.143
284,-381.0,717.0,317.0,871.6300820875791,2021-09-23 17:24:19.154
285,64.0,1118.0,-274.0,1152.86425913895,2021-09-23 17:24:19.164
286,-108.0,1138.0,-274.0,1175.493088027318,2021-09-23 17:24:19.171
287,-108.0,1138.0,-56.0,1144.4841632805585,2021-09-23 17:24:19.172
288,66.0,1097.0,77.0,1101.6778113405026,2021-09-23 17:24:19.181
289,-447.0,1126.0,-54.0,1212.683388193307,2021-09-23 17:24:19.191
290,-141.0,1189.0,-162.0,1208.2408700255094,2021-09-23 17:24:19.202
291,-742.0,1189.0,-162.0,1410.861084586289,2021-09-23 17:24:19.210
292,-742.0,794.0,-82.0,1089.8275092875936,2021-09-23 17:24:19.211
293,-554.0,942.0,-168.0,1105.669028235846,2021-09-23 17:24:19.220
294,128.0,1149.0,73.0,1158.410117359133,2021-09-23 17:24:19.230
295,-138.0,1008.0,-118.0,1024.2226320483255,2021-09-23 17:24:19.240
296,-65.0,1378.0,9.0,1379.5615245432152,2021-09-23 17:24:19.250
297,-308.0,746.0,44.0,808.2796545750734,2021-09-23 17:24:19.260
298,-447.0,991.0,-59.0,1088.747445461986,2021-09-23 17:24:19.270
299,-318.0,913.0,53.0,968.2468693468624,2021-09-23 17:24:19.279
300,53.0,913.0,53.0,916.0715037593956,2021-09-23 17:24:19.296
301,53.0,1369.0,-89.0,1372.9133257420149,2021-09-23 17:24:19.297
302,17.0,1138.0,-15.0,1138.2258123940082,2021-09-23 17:24:19.300
303,-259.0,1138.0,-15.0,1167.197498283817,2021-09-23 17:24:19.308
304,-259.0,814.0,305.0,907.0292167289872,2021-09-23 17:24:19.309
305,-45.0,1125.0,42.0,1126.6827415026823,2021-09-23 17:24:19.318
306,117.0,827.0,230.0,866.3244196027259,2021-09-23 17:24:19.328
307,-275.0,1067.0,-103.0,1106.6720381395746,2021-09-23 17:24:19.338
308,18.0,1009.0,-229.0,1034.816892015201,2021-09-23 17:24:19.347
309,-426.0,890.0,34.0,987.285166504592,2021-09-23 17:24:19.360
310,-261.0,890.0,34.0,928.1039812434811,2021-09-23 17:24:19.367
311,-261.0,1053.0,-138.0,1093.6059619442462,2021-09-23 17:24:19.368
312,92.0,1189.0,49.0,1193.560220516753,2021-09-23 17:24:19.378
313,-313.0,1047.0,-74.0,1095.2871769540625,2021-09-23 17:24:19.387
314,-179.0,1331.0,-64.0,1344.5066009506982,2021-09-23 17:24:19.396
315,-465.0,603.0,8.0,761.5103413611663,2021-09-23 17:24:19.411
316,-107.0,603.0,8.0,612.4720401781619,2021-09-23 17:24:19.415
317,-107.0,1254.0,-206.0,1275.3042774177463,2021-09-23 17:24:19.416
318,-36.0,1254.0,-206.0,1271.3174269237404,2021-09-23 17:24:19.426
319,-36.0,921.0,107.0,927.8933128328924,2021-09-23 17:24:19.427
320,-187.0,1054.0,-308.0,1113.8891327237195,2021-09-23 17:24:19.435
321,-48.0,959.0,265.0,996.0973847972898,2021-09-23 17:24:19.445
322,-388.0,1013.0,-227.0,1108.260799631567,2021-09-23 17:24:19.456
323,49.0,1058.0,129.0,1066.9611051954987,2021-09-23 17:24:19.465
324,-347.0,832.0,12.0,901.5414577267092,2021-09-23 17:24:19.474
325,-66.0,1048.0,-165.0,1062.9604884472424,2021-09-23 17:24:19.485
326,-124.0,989.0,41.0,997.5860865108334,2021-09-23 17:24:19.503
327,-249.0,836.0,41.0,873.257121356591,2021-09-23 17:24:19.506
328,-249.0,836.0,-105.0,878.590917321594,2021-09-23 17:24:19.507
329,-170.0,1037.0,-159.0,1062.802898001318,2021-09-23 17:24:19.514
330,-225.0,854.0,3.0,883.1477792532799,2021-09-23 17:24:19.523
331,-227.0,928.0,-64.0,957.5014360302548,2021-09-23 17:24:19.533
332,-61.0,928.0,-64.0,932.2022312781706,2021-09-23 17:24:19.542
333,-61.0,1095.0,-124.0,1103.685643650401,2021-09-23 17:24:19.543
334,-202.0,933.0,10.0,954.6690526040948,2021-09-23 17:24:19.553
335,-192.0,1108.0,-77.0,1127.1455096836432,2021-09-23 17:24:19.563
336,-190.0,943.0,44.0,962.9563853051706,2021-09-23 17:24:19.573
337,-176.0,1003.0,-68.0,1020.5924749869558,2021-09-23 17:24:19.582
338,-168.0,1023.0,-94.0,1040.9558107816104,2021-09-23 17:24:19.591
339,-209.0,897.0,18.0,921.2024750292412,2021-09-23 17:24:19.601
340,-181.0,1017.0,-109.0,1038.716034342399,2021-09-23 17:24:19.611
341,-174.0,998.0,31.0,1013.5289833053616,2021-09-23 17:24:19.622
342,-150.0,994.0,31.0,1005.732071677144,2021-09-23 17:24:19.630
343,-150.0,994.0,-89.0,1009.186305892029,2021-09-23 17:24:19.631
344,-168.0,1093.0,-45.0,1106.7511011966512,2021-09-23 17:24:19.640
345,-260.0,949.0,27.0,984.3424200957712,2021-09-23 17:24:19.650
346,-239.0,1057.0,-102.0,1088.4732426660748,2021-09-23 17:24:19.661
347,-245.0,993.0,36.0,1023.4109633964256,2021-09-23 17:24:19.671
348,-283.0,951.0,-32.0,992.730577750076,2021-09-23 17:24:19.680
349,-176.0,1090.0,-81.0,1107.0849109259868,2021-09-23 17:24:19.689
350,-285.0,955.0,20.0,996.8199436207124,2021-09-23 17:24:19.699
351,-206.0,955.0,20.0,977.1698931096884,2021-09-23 17:24:19.708
352,-206.0,1079.0,-75.0,1101.0458664379064,2021-09-23 17:24:19.709
353,-173.0,1026.0,-75.0,1043.1826302234906,2021-09-23 17:24:19.720
354,-173.0,1026.0,7.0,1040.5066073793091,2021-09-23 17:24:19.721
355,-273.0,947.0,7.0,985.5896712121124,2021-09-23 17:24:19.729
356,-273.0,947.0,-23.0,985.8331501831332,2021-09-23 17:24:19.730
357,-142.0,1071.0,-97.0,1084.7183966357352,2021-09-23 17:24:19.738
358,-225.0,1071.0,-97.0,1098.6696500768555,2021-09-23 17:24:19.747
359,-225.0,960.0,17.0,986.1612444220266,2021-09-23 17:24:19.748
360,-161.0,1120.0,-97.0,1135.6628020675855,2021-09-23 17:24:19.758
