,Acceleration_X,Acceleration_Y,Acceleration_Z,magnitude,time_stamp
0,-201.0,1014.0,-114.0,1039.9966346099395,2021-09-24 12:48:01.622
1,-20.0,1023.0,23.0,1023.4539559745714,2021-09-24 12:48:01.629
2,57.0,1149.0,-59.0,1151.924910747224,2021-09-24 12:48:01.638
3,-112.0,917.0,258.0,959.1647408031636,2021-09-24 12:48:01.648
4,-119.0,1163.0,-168.0,1181.0817075884293,2021-09-24 12:48:01.659
5,-260.0,836.0,369.0,950.0826279855874,2021-09-24 12:48:01.668
6,-175.0,1278.0,-160.0,1299.8111401276726,2021-09-24 12:48:01.677
7,-11.0,1093.0,10.0,1093.1010932205677,2021-09-24 12:48:01.687
8,-441.0,854.0,62.0,963.1412149835558,2021-09-24 12:48:01.697
9,22.0,1342.0,-51.0,1343.1489120719266,2021-09-24 12:48:01.707
10,-244.0,825.0,305.0,912.79022781798,2021-09-24 12:48:01.718
11,-281.0,1343.0,-190.0,1385.175079186743,2021-09-24 12:48:01.726
12,-57.0,1138.0,-109.0,1144.628323954986,2021-09-24 12:48:01.736
13,-379.0,824.0,79.0,910.4163882531992,2021-09-24 12:48:01.746
14,-101.0,1220.0,-148.0,1233.0875881298944,2021-09-24 12:48:01.756
15,8.0,894.0,0.0,894.035793466906,2021-09-24 12:48:01.766
16,-336.0,741.0,48.0,815.0343551041269,2021-09-24 12:48:01.775
17,-300.0,943.0,-97.0,994.3128280375348,2021-09-24 12:48:01.785
18,-333.0,752.0,117.0,830.7117430252205,2021-09-24 12:48:01.796
19,-57.0,950.0,-89.0,955.8608685368388,2021-09-24 12:48:01.804
20,-298.0,1104.0,-89.0,1146.9703570711845,2021-09-24 12:48:01.835
21,-298.0,1104.0,200.0,1160.870363132766,2021-09-24 12:48:01.836
22,-298.0,853.0,-10.0,903.6110889093824,2021-09-24 12:48:01.838
23,-259.0,1028.0,49.0,1061.2568020983422,2021-09-24 12:48:01.841
24,-227.0,798.0,123.0,838.7264154657346,2021-09-24 12:48:01.843
25,-68.0,1126.0,-98.0,1132.300313521108,2021-09-24 12:48:01.853
26,-264.0,943.0,168.0,993.5637875848736,2021-09-24 12:48:01.863
27,-227.0,877.0,-267.0,944.429457397428,2021-09-24 12:48:01.874
28,155.0,1219.0,-68.0,1230.6949256416067,2021-09-24 12:48:01.883
29,-346.0,1219.0,-68.0,1268.976359117852,2021-09-24 12:48:01.892
30,-346.0,659.0,-19.0,744.5522144215273,2021-09-24 12:48:01.893
31,-251.0,659.0,-19.0,705.4381617122793,2021-09-24 12:48:01.902
32,-251.0,1117.0,-284.0,1179.5533052812832,2021-09-24 12:48:01.903
33,-38.0,1117.0,-169.0,1130.3512728351309,2021-09-24 12:48:01.912
34,-273.0,825.0,43.0,870.0591933885878,2021-09-24 12:48:01.922
35,-377.0,1063.0,-137.0,1136.163280519134,2021-09-24 12:48:01.931
36,260.0,1122.0,40.0,1152.4252687267838,2021-09-24 12:48:01.941
37,-255.0,1066.0,-218.0,1117.5441825717676,2021-09-24 12:48:01.951
38,-102.0,1239.0,-72.0,1245.2746684968745,2021-09-24 12:48:01.969
39,-541.0,692.0,93.0,883.2859106767186,2021-09-24 12:48:01.970
40,-132.0,1032.0,-90.0,1044.2930623153636,2021-09-24 12:48:01.980
41,-6.0,1067.0,9.0,1067.054825208152,2021-09-24 12:48:01.990
42,-185.0,877.0,-91.0,900.9078754234532,2021-09-24 12:48:02.000
43,-53.0,1219.0,53.0,1221.3021739111086,2021-09-24 12:48:02.010
44,-319.0,711.0,136.0,791.0613124151629,2021-09-24 12:48:02.019
45,-189.0,1039.0,22.0,1056.2793191197109,2021-09-24 12:48:02.029
46,-220.0,818.0,104.0,853.4283801233704,2021-09-24 12:48:02.039
47,-69.0,1282.0,-245.0,1307.023335675381,2021-09-24 12:48:02.049
48,-143.0,1124.0,-149.0,1142.814945649557,2021-09-24 12:48:02.059
49,-289.0,860.0,132.0,916.8124126559368,2021-09-24 12:48:02.068
50,-175.0,1246.0,-104.0,1262.5200988499153,2021-09-24 12:48:02.078
51,69.0,1246.0,-104.0,1252.235201549613,2021-09-24 12:48:02.087
52,69.0,839.0,138.0,853.0685787203746,2021-09-24 12:48:02.088
53,-371.0,1177.0,138.0,1241.7785631907163,2021-09-24 12:48:02.098
54,-371.0,1177.0,-217.0,1253.019951956073,2021-09-24 12:48:02.099
55,8.0,1122.0,-217.0,1142.8197583171195,2021-09-24 12:48:02.107
56,8.0,1122.0,-170.0,1134.8339085522605,2021-09-24 12:48:02.108
57,-295.0,887.0,162.0,948.7033255976286,2021-09-24 12:48:02.117
58,-344.0,887.0,162.0,965.0642465659994,2021-09-24 12:48:02.126
59,-344.0,1160.0,-153.0,1219.5675463048367,2021-09-24 12:48:02.127
60,130.0,1160.0,-153.0,1177.2463633411658,2021-09-24 12:48:02.136
61,130.0,1142.0,33.0,1149.8491205371251,2021-09-24 12:48:02.137
62,-354.0,985.0,-106.0,1052.0346952453613,2021-09-24 12:48:02.147
63,-194.0,1167.0,-106.0,1187.7546042849087,2021-09-24 12:48:02.156
64,-547.0,1167.0,-106.0,1293.187534737325,2021-09-24 12:48:02.166
65,-547.0,769.0,109.0,949.9742101762552,2021-09-24 12:48:02.167
66,-15.0,769.0,109.0,776.8313845359236,2021-09-24 12:48:02.175
67,-15.0,1107.0,-61.0,1108.7808620282008,2021-09-24 12:48:02.176
68,-391.0,846.0,197.0,952.578605680392,2021-09-24 12:48:02.185
69,25.0,895.0,-184.0,914.0601730739612,2021-09-24 12:48:02.195
70,-164.0,952.0,-163.0,979.6780083272258,2021-09-24 12:48:02.205
71,-220.0,646.0,10.0,682.5071428197657,2021-09-24 12:48:02.215
72,-25.0,1220.0,-57.0,1221.5866731427616,2021-09-24 12:48:02.227
73,-298.0,693.0,158.0,770.7249833760419,2021-09-24 12:48:02.234
74,-4.0,1251.0,-194.0,1265.959320041525,2021-09-24 12:48:02.245
75,-57.0,919.0,-115.0,927.9197163548148,2021-09-24 12:48:02.254
76,-362.0,734.0,-7.0,818.4430340591824,2021-09-24 12:48:02.264
77,-303.0,734.0,-7.0,794.1120827691768,2021-09-24 12:48:02.273
78,-303.0,1088.0,-172.0,1142.425927576926,2021-09-24 12:48:02.274
79,134.0,775.0,192.0,809.595578051165,2021-09-24 12:48:02.283
80,-179.0,1205.0,-333.0,1262.9152782352426,2021-09-24 12:48:02.293
81,-114.0,989.0,-333.0,1049.7647355479226,2021-09-24 12:48:02.302
82,-114.0,989.0,76.0,998.4452914406478,2021-09-24 12:48:02.303
83,-328.0,1002.0,-90.0,1058.1531080141474,2021-09-24 12:48:02.312
84,-30.0,1015.0,73.0,1018.0638486853368,2021-09-24 12:48:02.323
85,-204.0,1234.0,84.0,1253.5661131348438,2021-09-24 12:48:02.332
86,-316.0,755.0,46.0,819.7542314620889,2021-09-24 12:48:02.342
87,-44.0,1128.0,141.0,1137.6295530619798,2021-09-24 12:48:02.352
88,-360.0,1128.0,141.0,1192.4198086244626,2021-09-24 12:48:02.361
89,-360.0,820.0,41.0,896.4825709404506,2021-09-24 12:48:02.362
90,69.0,1134.0,44.0,1136.9489874220392,2021-09-24 12:48:02.371
91,-488.0,1134.0,44.0,1235.3282964459286,2021-09-24 12:48:02.380
92,-488.0,933.0,148.0,1063.267134825487,2021-09-24 12:48:02.381
93,-119.0,884.0,-30.0,892.4780109336028,2021-09-24 12:48:02.390
94,48.0,1169.0,-30.0,1170.3695997418936,2021-09-24 12:48:02.400
95,48.0,1169.0,-80.0,1172.716930891679,2021-09-24 12:48:02.401
96,-410.0,756.0,-80.0,863.7337552741585,2021-09-24 12:48:02.410
97,-410.0,756.0,-85.0,864.2112010382647,2021-09-24 12:48:02.411
98,43.0,756.0,-85.0,761.9776899621143,2021-09-24 12:48:02.419
99,43.0,1275.0,-89.0,1278.8256331494142,2021-09-24 12:48:02.420
100,-444.0,806.0,231.0,948.7533926158052,2021-09-24 12:48:02.430
101,-402.0,801.0,77.0,899.5187602268226,2021-09-24 12:48:02.440
102,-505.0,906.0,-194.0,1055.2236729717545,2021-09-24 12:48:02.449
103,250.0,1087.0,99.0,1119.7633678594775,2021-09-24 12:48:02.459
104,-273.0,1009.0,99.0,1049.957618192277,2021-09-24 12:48:02.468
105,-273.0,1009.0,-82.0,1048.4912970549635,2021-09-24 12:48:02.469
106,-172.0,1214.0,-5.0,1226.1341688412406,2021-09-24 12:48:02.479
107,-579.0,718.0,81.0,925.919002937082,2021-09-24 12:48:02.488
108,-193.0,948.0,-168.0,981.9251498968748,2021-09-24 12:48:02.498
109,-67.0,981.0,38.0,984.0193087536444,2021-09-24 12:48:02.508
110,-126.0,907.0,-52.0,917.18536839616,2021-09-24 12:48:02.518
111,-78.0,907.0,-52.0,911.8316730625232,2021-09-24 12:48:02.527
112,-78.0,1192.0,142.0,1202.9596834474546,2021-09-24 12:48:02.528
113,-285.0,667.0,50.0,727.0584570720569,2021-09-24 12:48:02.537
114,-371.0,667.0,50.0,764.8725384010071,2021-09-24 12:48:02.546
115,-371.0,996.0,-77.0,1065.6387755707842,2021-09-24 12:48:02.547
116,-274.0,738.0,151.0,801.574076427126,2021-09-24 12:48:02.556
117,-8.0,738.0,151.0,753.3319321520893,2021-09-24 12:48:02.566
118,-8.0,1138.0,-149.0,1147.7408244024432,2021-09-24 12:48:02.567
119,22.0,1103.0,-143.0,1112.4486505003276,2021-09-24 12:48:02.576
120,-453.0,787.0,9.0,908.107372506137,2021-09-24 12:48:02.587
121,-130.0,1120.0,-48.0,1128.5406505748915,2021-09-24 12:48:02.595
122,0.0,834.0,-48.0,835.3801529842566,2021-09-24 12:48:02.605
123,0.0,834.0,77.0,837.5470136058035,2021-09-24 12:48:02.606
124,-211.0,834.0,77.0,863.7163886369183,2021-09-24 12:48:02.626
125,-211.0,1028.0,-202.0,1068.6949985847225,2021-09-24 12:48:02.627
126,89.0,1136.0,-193.0,1155.7101712799797,2021-09-24 12:48:02.629
127,-232.0,785.0,115.0,826.6038954662627,2021-09-24 12:48:02.636
128,-285.0,1117.0,-173.0,1165.6942137627689,2021-09-24 12:48:02.644
129,82.0,1138.0,-173.0,1153.991767734935,2021-09-24 12:48:02.654
130,82.0,1138.0,26.0,1141.2466867421786,2021-09-24 12:48:02.655
131,-222.0,963.0,-116.0,995.042210159951,2021-09-24 12:48:02.664
132,-243.0,1116.0,-116.0,1148.024825515546,2021-09-24 12:48:02.673
133,-243.0,1116.0,-90.0,1145.6897485794311,2021-09-24 12:48:02.674
134,-430.0,691.0,56.0,815.7922529664032,2021-09-24 12:48:02.684
135,-402.0,996.0,-78.0,1076.8955381094306,2021-09-24 12:48:02.694
136,-394.0,849.0,257.0,970.6111476796464,2021-09-24 12:48:02.703
137,-202.0,849.0,257.0,909.7549120504927,2021-09-24 12:48:02.712
138,-202.0,1023.0,-162.0,1055.2615789461872,2021-09-24 12:48:02.713
139,-103.0,1112.0,-110.0,1122.1644264545191,2021-09-24 12:48:02.722
140,-386.0,742.0,-19.0,836.6128136718921,2021-09-24 12:48:02.733
141,-8.0,1368.0,-172.0,1378.7936756454897,2021-09-24 12:48:02.743
142,-321.0,1368.0,-172.0,1415.6443762470856,2021-09-24 12:48:02.751
143,-321.0,748.0,200.0,838.1795750315084,2021-09-24 12:48:02.752
144,43.0,1218.0,-272.0,1248.7421671426011,2021-09-24 12:48:02.761
145,2.0,1230.0,-73.0,1232.1659790791175,2021-09-24 12:48:02.771
146,-472.0,1230.0,-73.0,1319.4745166163689,2021-09-24 12:48:02.781
147,-472.0,813.0,65.0,942.3258459789798,2021-09-24 12:48:02.782
148,-149.0,1237.0,-156.0,1255.669542515068,2021-09-24 12:48:02.792
149,132.0,1237.0,-156.0,1253.7659271171792,2021-09-24 12:48:02.800
150,132.0,915.0,85.0,928.3716928041268,2021-09-24 12:48:02.801
151,-289.0,1113.0,-226.0,1171.9069928966203,2021-09-24 12:48:02.810
152,107.0,1139.0,-172.0,1156.872508101044,2021-09-24 12:48:02.820
153,-190.0,926.0,66.0,947.592739524739,2021-09-24 12:48:02.830
154,-69.0,983.0,-14.0,985.518137834104,2021-09-24 12:48:02.840
155,-33.0,983.0,-14.0,983.6533942400646,2021-09-24 12:48:02.892
156,-33.0,1156.0,134.0,1164.2083146928646,2021-09-24 12:48:02.893
157,-256.0,689.0,-23.0,735.3815336272729,2021-09-24 12:48:02.907
158,-256.0,689.0,-23.0,735.3815336272729,2021-09-24 12:48:02.919
159,-256.0,1002.0,-84.0,1037.5914417534486,2021-09-24 12:48:02.920
160,-422.0,873.0,196.0,989.2567917381208,2021-09-24 12:48:02.928
161,-197.0,662.0,196.0,717.9616981427351,2021-09-24 12:48:02.933
162,-197.0,662.0,-26.0,691.1794267771575,2021-09-24 12:48:02.934
163,26.0,1242.0,-131.0,1249.1601178391825,2021-09-24 12:48:02.938
164,-393.0,705.0,271.0,851.4194031145872,2021-09-24 12:48:02.947
165,-126.0,1124.0,-426.0,1208.6058083593675,2021-09-24 12:48:02.957
166,-297.0,1080.0,-81.0,1123.0182545266127,2021-09-24 12:48:02.967
167,107.0,1192.0,-49.0,1197.795475029022,2021-09-24 12:48:02.984
168,-279.0,1042.0,-48.0,1079.772661257915,2021-09-24 12:48:02.987
169,-241.0,1193.0,-95.0,1220.8009665789095,2021-09-24 12:48:02.996
170,-522.0,1193.0,-95.0,1305.6638158423475,2021-09-24 12:48:03.005
171,-522.0,727.0,-27.0,895.4004690639825,2021-09-24 12:48:03.006
172,-308.0,1054.0,-63.0,1099.8859031735974,2021-09-24 12:48:03.016
173,6.0,1052.0,-26.0,1052.3383486312755,2021-09-24 12:48:03.025
174,-144.0,969.0,-39.0,980.4172581100356,2021-09-24 12:48:03.035
175,-216.0,969.0,-39.0,993.5481870548604,2021-09-24 12:48:03.044
176,-216.0,1387.0,83.0,1406.1699755008283,2021-09-24 12:48:03.045
177,-374.0,699.0,71.0,795.938439830619,2021-09-24 12:48:03.054
178,-409.0,1095.0,71.0,1171.0452595864945,2021-09-24 12:48:03.064
179,-409.0,1095.0,-67.0,1170.8095489873665,2021-09-24 12:48:03.065
180,-320.0,851.0,54.0,910.7782386508804,2021-09-24 12:48:03.075
181,-36.0,851.0,54.0,853.471147725569,2021-09-24 12:48:03.083
182,-36.0,1088.0,-13.0,1088.673045500806,2021-09-24 12:48:03.084
183,43.0,1202.0,-49.0,1203.766588670744,2021-09-24 12:48:03.094
184,-274.0,822.0,177.0,884.3579591997801,2021-09-24 12:48:03.103
185,-166.0,1136.0,-138.0,1156.3286729991607,2021-09-24 12:48:03.116
186,117.0,813.0,154.0,835.6877407261638,2021-09-24 12:48:03.124
187,-114.0,1074.0,154.0,1090.9573777192215,2021-09-24 12:48:03.132
188,-114.0,1074.0,-199.0,1098.213549360961,2021-09-24 12:48:03.133
189,-35.0,1067.0,-150.0,1078.0602951597837,2021-09-24 12:48:03.142
190,-226.0,858.0,71.0,890.1016795849787,2021-09-24 12:48:03.152
191,-319.0,1110.0,-136.0,1162.9088528341333,2021-09-24 12:48:03.162
192,22.0,1014.0,49.0,1015.4215873222314,2021-09-24 12:48:03.172
193,-326.0,1024.0,-129.0,1082.3553021073994,2021-09-24 12:48:03.181
194,-16.0,1162.0,-134.0,1169.8102410220215,2021-09-24 12:48:03.191
195,-569.0,655.0,112.0,874.8314123303986,2021-09-24 12:48:03.201
196,-302.0,655.0,112.0,729.9130085153984,2021-09-24 12:48:03.210
197,-302.0,934.0,-54.0,983.0951123874028,2021-09-24 12:48:03.211
198,81.0,1063.0,-21.0,1066.288422519911,2021-09-24 12:48:03.220
199,-186.0,951.0,-207.0,990.8814258023006,2021-09-24 12:48:03.231
200,-91.0,1126.0,-114.0,1135.408736975368,2021-09-24 12:48:03.240
201,-270.0,1126.0,-114.0,1163.5170819545367,2021-09-24 12:48:03.250
202,-270.0,724.0,90.0,777.9305881632371,2021-09-24 12:48:03.251
203,148.0,1273.0,90.0,1284.730711083066,2021-09-24 12:48:03.259
204,148.0,1273.0,-103.0,1285.7068095020732,2021-09-24 12:48:03.260
205,-341.0,733.0,202.0,833.2910655947296,2021-09-24 12:48:03.269
206,-202.0,1162.0,-244.0,1204.4019262688016,2021-09-24 12:48:03.280
207,-71.0,1148.0,-64.0,1151.9726559254782,2021-09-24 12:48:03.289
208,-290.0,824.0,63.0,875.8110526820268,2021-09-24 12:48:03.299
209,-63.0,1229.0,-169.0,1242.1638378249463,2021-09-24 12:48:03.308
210,67.0,859.0,142.0,873.2319279549964,2021-09-24 12:48:03.318
211,-87.0,1253.0,-84.0,1258.8224656400123,2021-09-24 12:48:03.332
212,8.0,1253.0,-84.0,1255.8379672553303,2021-09-24 12:48:03.337
213,8.0,1140.0,-205.0,1158.312997423408,2021-09-24 12:48:03.338
214,-246.0,915.0,92.0,951.9480027816644,2021-09-24 12:48:03.347
215,-143.0,915.0,92.0,930.6653533897132,2021-09-24 12:48:03.357
216,-143.0,921.0,-7.0,932.0616932370948,2021-09-24 12:48:03.358
217,-181.0,1177.0,89.0,1194.1570248505848,2021-09-24 12:48:03.367
218,-366.0,1177.0,89.0,1235.8017640382295,2021-09-24 12:48:03.377
219,-366.0,772.0,-61.0,856.5401333270963,2021-09-24 12:48:03.378
220,-535.0,1075.0,-112.0,1205.9825869389658,2021-09-24 12:48:03.387
221,-321.0,739.0,88.0,810.497378157388,2021-09-24 12:48:03.396
222,-128.0,739.0,88.0,755.1483298001791,2021-09-24 12:48:03.406
223,-128.0,1122.0,-82.0,1132.250855596939,2021-09-24 12:48:03.407
224,-464.0,907.0,155.0,1030.5192865735216,2021-09-24 12:48:03.416
225,-52.0,920.0,-141.0,932.1936494098208,2021-09-24 12:48:03.426
226,-48.0,1161.0,-45.0,1162.8628465988584,2021-09-24 12:48:03.435
227,-322.0,700.0,54.0,772.3988606931007,2021-09-24 12:48:03.445
228,167.0,1334.0,-52.0,1345.4177789816813,2021-09-24 12:48:03.455
229,-467.0,1334.0,-52.0,1414.336947123987,2021-09-24 12:48:03.464
230,-467.0,757.0,264.0,927.8114032496044,2021-09-24 12:48:03.465
231,-111.0,1214.0,-251.0,1244.6356896698728,2021-09-24 12:48:03.475
232,-125.0,1082.0,-114.0,1095.1461089735926,2021-09-24 12:48:03.484
233,142.0,1176.0,63.0,1186.216253471516,2021-09-24 12:48:03.494
234,-366.0,922.0,-120.0,999.2196955624923,2021-09-24 12:48:03.504
235,-160.0,1143.0,-50.0,1155.226817555756,2021-09-24 12:48:03.514
236,-495.0,630.0,71.0,804.3419670761933,2021-09-24 12:48:03.523
237,-126.0,971.0,-80.0,982.4036848465096,2021-09-24 12:48:03.534
238,-44.0,1037.0,2.0,1037.9349690611643,2021-09-24 12:48:03.543
239,-290.0,973.0,-186.0,1032.194264661454,2021-09-24 12:48:03.552
240,-173.0,1261.0,80.0,1275.3234883746163,2021-09-24 12:48:03.562
241,-488.0,655.0,-16.0,816.9608313744301,2021-09-24 12:48:03.572
242,-401.0,1019.0,-35.0,1095.6217412957812,2021-09-24 12:48:03.582
243,-285.0,824.0,-35.0,872.5972725146463,2021-09-24 12:48:03.591
244,-285.0,824.0,115.0,879.4464167872878,2021-09-24 12:48:03.592
245,-135.0,949.0,-120.0,966.0362312046066,2021-09-24 12:48:03.601
246,-366.0,993.0,158.0,1070.0322425048696,2021-09-24 12:48:03.611
247,-263.0,817.0,201.0,881.5095007996227,2021-09-24 12:48:03.621
248,-171.0,1179.0,-114.0,1196.7781749346868,2021-09-24 12:48:03.642
249,53.0,834.0,127.0,845.277469237173,2021-09-24 12:48:03.645
250,-290.0,1066.0,-181.0,1119.4717504251726,2021-09-24 12:48:03.651
251,40.0,1040.0,-161.0,1053.1481377280215,2021-09-24 12:48:03.660
252,-285.0,876.0,99.0,926.4998650836384,2021-09-24 12:48:03.670
253,-225.0,1195.0,-124.0,1222.3035629498918,2021-09-24 12:48:03.679
254,37.0,1123.0,27.0,1123.933716906829,2021-09-24 12:48:03.689
255,-236.0,1023.0,27.0,1050.216168224428,2021-09-24 12:48:03.699
256,-236.0,1023.0,-37.0,1050.5208232110394,2021-09-24 12:48:03.700
257,7.0,1191.0,-236.0,1214.1770875782497,2021-09-24 12:48:03.709
258,-656.0,697.0,115.0,964.0383809786828,2021-09-24 12:48:03.719
259,-123.0,1033.0,-71.0,1042.7171236725712,2021-09-24 12:48:03.728
260,69.0,1142.0,29.0,1144.4500862859857,2021-09-24 12:48:03.738
261,-214.0,946.0,-92.0,974.2566397002385,2021-09-24 12:48:03.748
262,-138.0,1039.0,-39.0,1048.8498462601783,2021-09-24 12:48:03.759
263,-175.0,687.0,-27.0,709.4526058871022,2021-09-24 12:48:03.767
264,-40.0,1207.0,-81.0,1210.375974645895,2021-09-24 12:48:03.777
265,-272.0,754.0,224.0,832.2715902876897,2021-09-24 12:48:03.787
266,-37.0,1252.0,-123.0,1258.5714123560888,2021-09-24 12:48:03.799
267,93.0,1118.0,-72.0,1124.169471209746,2021-09-24 12:48:03.806
268,-360.0,833.0,53.0,909.0093508869973,2021-09-24 12:48:03.816
269,-74.0,1171.0,-39.0,1173.9838159020762,2021-09-24 12:48:03.826
270,82.0,821.0,154.0,839.3336642837579,2021-09-24 12:48:03.836
271,-75.0,999.0,-119.0,1008.8543006797364,2021-09-24 12:48:03.846
272,-25.0,1115.0,-227.0,1138.1471785318452,2021-09-24 12:48:03.856
273,-478.0,844.0,22.0,970.2082250733604,2021-09-24 12:48:03.866
274,-71.0,1093.0,9.0,1095.3405863018131,2021-09-24 12:48:03.875
275,-327.0,1016.0,9.0,1067.3640428644765,2021-09-24 12:48:03.884
276,-327.0,1016.0,221.0,1089.9660545172956,2021-09-24 12:48:03.885
277,-225.0,876.0,-113.0,911.4658523499386,2021-09-24 12:48:03.894
278,-385.0,876.0,-113.0,963.519589837176,2021-09-24 12:48:03.904
279,-385.0,1047.0,-19.0,1115.7038137426975,2021-09-24 12:48:03.905
280,-337.0,749.0,27.0,821.7657817164207,2021-09-24 12:48:03.914
281,-13.0,1129.0,27.0,1129.3976270561222,2021-09-24 12:48:03.923
282,-13.0,1129.0,-80.0,1131.9054730850985,2021-09-24 12:48:03.924
283,-480.0,840.0,244.0,997.7655035127242,2021-09-24 12:48:03.933
284,-23.0,1061.0,-127.0,1068.8213134102446,2021-09-24 12:48:03.949
285,-480.0,918.0,-98.0,1040.5421663728962,2021-09-24 12:48:03.966
286,-101.0,682.0,-13.0,689.560729740318,2021-09-24 12:48:03.969
287,-76.0,1373.0,-153.0,1383.5873662331555,2021-09-24 12:48:03.974
288,-450.0,720.0,338.0,913.8621340224136,2021-09-24 12:48:03.982
289,25.0,1349.0,-243.0,1370.9394589112972,2021-09-24 12:48:04.001
290,-154.0,1349.0,-243.0,1379.3353471871878,2021-09-24 12:48:04.005
291,-154.0,1065.0,-80.0,1079.0463382079568,2021-09-24 12:48:04.006
292,-36.0,1065.0,-80.0,1068.607037221822,2021-09-24 12:48:04.011
293,-36.0,841.0,149.0,854.8555433522088,2021-09-24 12:48:04.012
294,-294.0,911.0,-35.0,957.9050057286474,2021-09-24 12:48:04.023
295,-115.0,1270.0,-85.0,1278.025821335391,2021-09-24 12:48:04.031
296,-743.0,1270.0,-85.0,1473.8297052237751,2021-09-24 12:48:04.040
297,-743.0,585.0,72.0,948.3975959480284,2021-09-24 12:48:04.041
298,-151.0,1043.0,-191.0,1071.0420159825665,2021-09-24 12:48:04.050
299,-146.0,1002.0,-29.0,1012.9960513249792,2021-09-24 12:48:04.060
300,-22.0,971.0,-29.0,971.6820467622111,2021-09-24 12:48:04.070
301,-22.0,971.0,-56.0,972.8622718555798,2021-09-24 12:48:04.071
302,-19.0,1225.0,159.0,1235.4217903210224,2021-09-24 12:48:04.080
303,-389.0,643.0,159.0,768.1477722417739,2021-09-24 12:48:04.089
304,-389.0,643.0,-4.0,751.5224547543473,2021-09-24 12:48:04.090
305,-140.0,1025.0,-74.0,1037.1600647923156,2021-09-24 12:48:04.100
306,-499.0,726.0,71.0,883.8088028527437,2021-09-24 12:48:04.109
307,-128.0,1025.0,-121.0,1040.0240381837334,2021-09-24 12:48:04.119
308,-396.0,935.0,-121.0,1022.5859377089048,2021-09-24 12:48:04.129
309,-396.0,935.0,167.0,1029.0432449610655,2021-09-24 12:48:04.130
310,-198.0,904.0,-188.0,944.3325685371652,2021-09-24 12:48:04.139
311,-213.0,1121.0,-188.0,1156.4402275950106,2021-09-24 12:48:04.148
312,-213.0,1121.0,-91.0,1144.6794311072424,2021-09-24 12:48:04.149
313,81.0,853.0,208.0,881.7221784666642,2021-09-24 12:48:04.158
314,-181.0,1102.0,-159.0,1128.027481934727,2021-09-24 12:48:04.168
315,-113.0,1021.0,-149.0,1037.9841039245257,2021-09-24 12:48:04.178
316,-186.0,876.0,119.0,903.4007969888004,2021-09-24 12:48:04.187
317,-437.0,988.0,-194.0,1097.610586683638,2021-09-24 12:48:04.197
318,76.0,1137.0,10.0,1139.5810633737294,2021-09-24 12:48:04.207
319,-226.0,1137.0,10.0,1159.2864184488662,2021-09-24 12:48:04.216
320,-226.0,1150.0,-75.0,1174.3938862238683,2021-09-24 12:48:04.217
321,-220.0,1144.0,-47.0,1165.909516214702,2021-09-24 12:48:04.227
322,-420.0,690.0,59.0,809.926539878772,2021-09-24 12:48:04.237
323,-430.0,1041.0,-64.0,1128.129868410548,2021-09-24 12:48:04.246
324,36.0,1071.0,31.0,1072.0531703231889,2021-09-24 12:48:04.256
325,-136.0,996.0,-168.0,1019.1839873153424,2021-09-24 12:48:04.265
326,-273.0,996.0,-168.0,1046.3120949315266,2021-09-24 12:48:04.275
327,-273.0,1338.0,123.0,1371.095182691559,2021-09-24 12:48:04.276
328,-350.0,711.0,52.0,794.1819690725797,2021-09-24 12:48:04.286
329,227.0,711.0,52.0,748.1670936361743,2021-09-24 12:48:04.294
330,227.0,1325.0,-157.0,1353.4411697595135,2021-09-24 12:48:04.295
331,-255.0,802.0,145.0,853.9636994626879,2021-09-24 12:48:04.304
332,-168.0,1125.0,-225.0,1159.5145535955985,2021-09-24 12:48:04.314
333,236.0,1206.0,-135.0,1236.2673659043176,2021-09-24 12:48:04.324
334,-465.0,838.0,188.0,976.6335034187596,2021-09-24 12:48:04.334
335,-46.0,1217.0,188.0,1232.294201885248,2021-09-24 12:48:04.347
336,-46.0,1217.0,-63.0,1219.4974374716824,2021-09-24 12:48:04.348
337,131.0,858.0,121.0,876.336693286319,2021-09-24 12:48:04.353
338,-297.0,1024.0,-179.0,1081.122564744627,2021-09-24 12:48:04.363
339,195.0,1190.0,-184.0,1219.8282666014918,2021-09-24 12:48:04.373
340,-273.0,715.0,159.0,781.6872776244986,2021-09-24 12:48:04.383
341,-289.0,1111.0,-183.0,1162.4676339580385,2021-09-24 12:48:04.393
342,168.0,1093.0,64.0,1107.6863274411216,2021-09-24 12:48:04.402
343,-92.0,845.0,-113.0,857.4718654276652,2021-09-24 12:48:04.412
344,-48.0,1149.0,5.0,1150.0130434042912,2021-09-24 12:48:04.422
345,-298.0,649.0,2.0,714.1491440868637,2021-09-24 12:48:04.431
346,29.0,1183.0,-40.0,1184.0312495876112,2021-09-24 12:48:04.442
347,-420.0,764.0,243.0,905.0662959142828,2021-09-24 12:48:04.451
348,-43.0,1093.0,-209.0,1113.6332430382995,2021-09-24 12:48:04.461
349,-234.0,1076.0,-164.0,1113.2960073583306,2021-09-24 12:48:04.471
350,-124.0,691.0,106.0,709.9950704054219,2021-09-24 12:48:04.480
351,162.0,1262.0,106.0,1276.7630947047303,2021-09-24 12:48:04.491
352,162.0,1262.0,-60.0,1273.7692098649582,2021-09-24 12:48:04.492
353,-207.0,792.0,114.0,826.5040834744859,2021-09-24 12:48:04.500
354,-73.0,1295.0,114.0,1302.0560663811675,2021-09-24 12:48:04.509
355,-73.0,1295.0,-358.0,1345.5549041194863,2021-09-24 12:48:04.510
356,-23.0,1151.0,-189.0,1166.640904477466,2021-09-24 12:48:04.520
357,77.0,1183.0,21.0,1185.6892510265918,2021-09-24 12:48:04.529
358,-263.0,982.0,-185.0,1033.3044081973133,2021-09-24 12:48:04.539
359,-158.0,1320.0,23.0,1329.621374677769,2021-09-24 12:48:04.549
360,-507.0,752.0,79.0,910.3812388225056,2021-09-24 12:48:04.558
361,-430.0,1046.0,79.0,1133.6917570486255,2021-09-24 12:48:04.568
362,-430.0,1046.0,-197.0,1147.965591818849,2021-09-24 12:48:04.569
363,-422.0,919.0,39.0,1012.0108695068448,2021-09-24 12:48:04.578
364,49.0,919.0,39.0,921.1313695667952,2021-09-24 12:48:04.587
365,49.0,1042.0,-15.0,1043.25931579833,2021-09-24 12:48:04.588
366,-384.0,1051.0,142.0,1127.9277459128311,2021-09-24 12:48:04.598
367,-149.0,891.0,-86.0,907.4568860282012,2021-09-24 12:48:04.607
368,-117.0,1177.0,-19.0,1182.9535071168266,2021-09-24 12:48:04.617
369,-374.0,1177.0,-19.0,1235.1380489645685,2021-09-24 12:48:04.626
370,-374.0,738.0,65.0,829.9066212532588,2021-09-24 12:48:04.627
371,-5.0,1189.0,-134.0,1196.537504635772,2021-09-24 12:48:04.636
372,-325.0,1189.0,-134.0,1239.8798328870423,2021-09-24 12:48:04.657
373,-325.0,900.0,324.0,1010.2479893570688,2021-09-24 12:48:04.658
374,-164.0,989.0,324.0,1053.5620532270514,2021-09-24 12:48:04.659
375,-164.0,989.0,-246.0,1032.246579069168,2021-09-24 12:48:04.660
376,-364.0,1127.0,-108.0,1189.2388321947783,2021-09-24 12:48:04.667
377,49.0,1127.0,-108.0,1133.2228377508106,2021-09-24 12:48:04.675
378,49.0,1020.0,47.0,1022.2573061612228,2021-09-24 12:48:04.676
379,-275.0,1091.0,-247.0,1151.9179658291644,2021-09-24 12:48:04.686
380,-31.0,1109.0,-157.0,1120.486947715144,2021-09-24 12:48:04.695
381,-340.0,733.0,64.0,810.5461121984363,2021-09-24 12:48:04.705
382,-463.0,733.0,64.0,869.3411298218899,2021-09-24 12:48:04.715
383,-463.0,969.0,-95.0,1078.1256884055774,2021-09-24 12:48:04.716
384,334.0,1149.0,56.0,1197.870193301428,2021-09-24 12:48:04.726
385,-241.0,990.0,-145.0,1029.1773413751391,2021-09-24 12:48:04.734
386,-215.0,1169.0,79.0,1191.2291970901315,2021-09-24 12:48:04.744
387,-385.0,1169.0,79.0,1233.2992337628366,2021-09-24 12:48:04.753
388,-385.0,656.0,73.0,764.1269528030011,2021-09-24 12:48:04.754
389,-318.0,987.0,-224.0,1060.8812374625163,2021-09-24 12:48:04.763
390,-99.0,929.0,20.0,934.4741836990468,2021-09-24 12:48:04.775
391,-123.0,984.0,-121.0,999.0125124341536,2021-09-24 12:48:04.783
392,107.0,984.0,-121.0,997.1689926988304,2021-09-24 12:48:04.792
393,107.0,1107.0,-169.0,1124.9262198028812,2021-09-24 12:48:04.793
394,-439.0,706.0,73.0,834.5573677105726,2021-09-24 12:48:04.802
395,201.0,1244.0,59.0,1261.51416955974,2021-09-24 12:48:04.812
396,-132.0,880.0,-6.0,889.8651583245633,2021-09-24 12:48:04.823
397,-205.0,1124.0,-78.0,1145.2008557454014,2021-09-24 12:48:04.832
398,215.0,1121.0,-160.0,1152.590994238633,2021-09-24 12:48:04.841
399,-552.0,720.0,61.0,909.2991806880724,2021-09-24 12:48:04.851
400,19.0,1323.0,-12.0,1323.1908403552377,2021-09-24 12:48:04.861
401,22.0,947.0,63.0,949.3481974491762,2021-09-24 12:48:04.871
402,-386.0,931.0,-127.0,1015.8178970662016,2021-09-24 12:48:04.882
403,236.0,1261.0,-164.0,1293.334063573677,2021-09-24 12:48:04.890
404,-691.0,598.0,9.0,913.8741707696964,2021-09-24 12:48:04.900
405,-136.0,1160.0,-107.0,1172.836305713632,2021-09-24 12:48:04.910
406,-7.0,1221.0,-69.0,1222.9681107862134,2021-09-24 12:48:04.920
407,87.0,984.0,-194.0,1006.7080013588846,2021-09-24 12:48:04.931
408,-243.0,993.0,12.0,1022.3707742301714,2021-09-24 12:48:04.939
409,-261.0,746.0,54.0,792.1824284847524,2021-09-24 12:48:04.949
410,82.0,746.0,54.0,752.4333857558422,2021-09-24 12:48:04.958
411,82.0,1309.0,-38.0,1312.116229607728,2021-09-24 12:48:04.959
412,-521.0,695.0,258.0,906.107057692412,2021-09-24 12:48:04.984
413,-56.0,1177.0,-240.0,1202.5244280263084,2021-09-24 12:48:04.990
414,-70.0,1096.0,-101.0,1102.8676257828952,2021-09-24 12:48:04.992
415,-219.0,778.0,150.0,822.0371037854678,2021-09-24 12:48:05.005
416,-30.0,1285.0,-127.0,1291.6090739848494,2021-09-24 12:48:05.017
417,40.0,792.0,152.0,807.4453541881333,2021-09-24 12:48:05.019
418,-243.0,1251.0,-318.0,1313.4587926539607,2021-09-24 12:48:05.027
419,-124.0,981.0,-96.0,993.455082024346,2021-09-24 12:48:05.038
420,-387.0,854.0,98.0,942.7030285301942,2021-09-24 12:48:05.048
421,-41.0,1009.0,-6.0,1009.8504839826536,2021-09-24 12:48:05.056
422,-166.0,1189.0,30.0,1200.9067407588318,2021-09-24 12:48:05.066
423,-183.0,717.0,121.0,749.8126432649692,2021-09-24 12:48:05.076
424,-230.0,1059.0,3.0,1083.6927608875128,2021-09-24 12:48:05.086
425,-399.0,734.0,91.0,840.3796760988453,2021-09-24 12:48:05.096
426,27.0,1057.0,91.0,1061.253504116712,2021-09-24 12:48:05.105
427,27.0,1057.0,5.0,1057.3566096639297,2021-09-24 12:48:05.106
428,-466.0,915.0,139.0,1036.1959274191345,2021-09-24 12:48:05.115
429,8.0,915.0,139.0,925.5322792858173,2021-09-24 12:48:05.124
430,8.0,874.0,-71.0,876.9156173771796,2021-09-24 12:48:05.125
431,-17.0,1131.0,-71.0,1133.3538723629083,2021-09-24 12:48:05.134
432,-17.0,1131.0,11.0,1131.1812410042876,2021-09-24 12:48:05.135
433,-389.0,625.0,-59.0,738.5302972796716,2021-09-24 12:48:05.146
434,-8.0,1301.0,-143.0,1308.8598091468773,2021-09-24 12:48:05.155
435,-397.0,683.0,253.0,829.5221516029575,2021-09-24 12:48:05.164
436,-231.0,683.0,253.0,764.1066679463019,2021-09-24 12:48:05.173
437,-231.0,848.0,122.0,887.3268845245252,2021-09-24 12:48:05.174
438,-343.0,1099.0,-240.0,1176.031462164172,2021-09-24 12:48:05.183
439,145.0,1166.0,35.0,1175.502445765214,2021-09-24 12:48:05.194
440,-379.0,1028.0,-144.0,1105.0615367480673,2021-09-24 12:48:05.204
441,-65.0,1190.0,-144.0,1200.4420019309557,2021-09-24 12:48:05.212
442,-65.0,1190.0,-53.0,1192.951801205732,2021-09-24 12:48:05.213
443,-414.0,755.0,38.0,861.896165439898,2021-09-24 12:48:05.222
444,-244.0,1114.0,-159.0,1151.439533801059,2021-09-24 12:48:05.232
445,151.0,1068.0,31.0,1079.067189752334,2021-09-24 12:48:05.243
446,-173.0,992.0,-144.0,1017.2162995154964,2021-09-24 12:48:05.253
447,-112.0,1379.0,105.0,1387.519369234174,2021-09-24 12:48:05.262
448,-367.0,684.0,48.0,777.7203867714926,2021-09-24 12:48:05.271
449,-196.0,1042.0,60.0,1061.969867745785,2021-09-24 12:48:05.281
450,-352.0,811.0,120.0,892.2023313128026,2021-09-24 12:48:05.291
451,102.0,1088.0,1.0,1092.7712477915952,2021-09-24 12:48:05.300
452,-91.0,1001.0,-133.0,1013.889047184158,2021-09-24 12:48:05.311
453,-393.0,872.0,116.0,963.4775555247772,2021-09-24 12:48:05.320
454,-288.0,1120.0,-190.0,1171.9402715155752,2021-09-24 12:48:05.330
455,69.0,875.0,-190.0,898.0456558549794,2021-09-24 12:48:05.339
456,69.0,875.0,146.0,889.7763764002729,2021-09-24 12:48:05.340
457,-222.0,1130.0,-203.0,1169.3558055613355,2021-09-24 12:48:05.350
458,-79.0,1130.0,-203.0,1150.804066728998,2021-09-24 12:48:05.363
459,-79.0,996.0,-120.0,1006.3086007781112,2021-09-24 12:48:05.364
460,-258.0,719.0,154.0,779.2566971159118,2021-09-24 12:48:05.369
461,-359.0,719.0,154.0,818.2652381715845,2021-09-24 12:48:05.378
462,-359.0,1057.0,-318.0,1160.7127120868454,2021-09-24 12:48:05.379
463,160.0,715.0,232.0,768.5369216895178,2021-09-24 12:48:05.388
464,-392.0,1001.0,-192.0,1092.0297614992005,2021-09-24 12:48:05.398
465,-74.0,1026.0,-38.0,1029.3667956564366,2021-09-24 12:48:05.409
466,13.0,1026.0,-38.0,1026.785761490682,2021-09-24 12:48:05.418
467,13.0,905.0,338.0,966.1459517070908,2021-09-24 12:48:05.419
468,-141.0,1235.0,-188.0,1257.1594966431269,2021-09-24 12:48:05.427
469,-380.0,1005.0,-109.0,1079.9564806046585,2021-09-24 12:48:05.437
470,-45.0,765.0,-67.0,769.2457344698116,2021-09-24 12:48:05.447
471,-133.0,1071.0,-105.0,1084.3223690397613,2021-09-24 12:48:05.457
472,-194.0,1071.0,-105.0,1093.481595638445,2021-09-24 12:48:05.467
473,-194.0,735.0,-118.0,769.2756333070741,2021-09-24 12:48:05.468
474,-98.0,1013.0,-103.0,1022.9281499694883,2021-09-24 12:48:05.476
475,-260.0,864.0,-26.0,902.6472179096328,2021-09-24 12:48:05.486
476,-163.0,982.0,-140.0,1005.2328088557396,2021-09-24 12:48:05.496
477,-115.0,982.0,-140.0,998.5734825239452,2021-09-24 12:48:05.505
478,-115.0,1096.0,-16.0,1102.1329320912246,2021-09-24 12:48:05.506
479,-196.0,915.0,-4.0,935.765462068354,2021-09-24 12:48:05.516
480,-232.0,1110.0,-4.0,1133.9929453043349,2021-09-24 12:48:05.525
481,-232.0,1110.0,-131.0,1141.5274854334432,2021-09-24 12:48:05.526
482,-260.0,891.0,55.0,929.788147913276,2021-09-24 12:48:05.535
483,-254.0,891.0,55.0,928.1282239001248,2021-09-24 12:48:05.544
484,-254.0,1039.0,-123.0,1076.6457170304443,2021-09-24 12:48:05.545
485,-140.0,1153.0,-65.0,1163.2858634058955,2021-09-24 12:48:05.554
486,-163.0,942.0,42.0,956.9205818666458,2021-09-24 12:48:05.565
487,-99.0,942.0,42.0,948.1186634593796,2021-09-24 12:48:05.578
488,-99.0,1080.0,-44.0,1085.4201951318207,2021-09-24 12:48:05.579
489,-298.0,1028.0,65.0,1072.2933367320716,2021-09-24 12:48:05.584
490,-194.0,892.0,1.0,912.8532193074636,2021-09-24 12:48:05.593
491,-113.0,1110.0,-69.0,1117.868507473039,2021-09-24 12:48:05.604
492,-179.0,900.0,27.0,918.0250541243414,2021-09-24 12:48:05.614
493,-140.0,1058.0,-42.0,1068.0486880287808,2021-09-24 12:48:05.623
494,-259.0,935.0,80.0,973.5019260381564,2021-09-24 12:48:05.632
495,-204.0,972.0,-53.0,994.5898652208356,2021-09-24 12:48:05.642
496,-209.0,1077.0,-1.0,1097.092065416572,2021-09-24 12:48:05.652
497,-247.0,904.0,-1.0,937.1371297734393,2021-09-24 12:48:05.672
498,-247.0,904.0,18.0,937.3094473011568,2021-09-24 12:48:05.673
499,-169.0,1123.0,-78.0,1138.3206929508046,2021-09-24 12:48:05.675
500,-240.0,948.0,84.0,981.5090422405694,2021-09-24 12:48:05.681
501,-202.0,885.0,-24.0,908.0776398524524,2021-09-24 12:48:05.693
502,-133.0,1024.0,-84.0,1036.012065566806,2021-09-24 12:48:05.702
503,-195.0,1024.0,-84.0,1045.7805697181411,2021-09-24 12:48:05.710
504,-195.0,895.0,39.0,916.8265921099802,2021-09-24 12:48:05.711
505,-165.0,1018.0,-84.0,1034.7004397408944,2021-09-24 12:48:05.721
506,-158.0,1018.0,-84.0,1033.6072755161897,2021-09-24 12:48:05.730
507,-158.0,969.0,27.0,982.168010067524,2021-09-24 12:48:05.731
508,-118.0,873.0,-52.0,882.4720958761246,2021-09-24 12:48:05.742
509,-162.0,873.0,-52.0,889.4250952160053,2021-09-24 12:48:05.749
510,-162.0,1062.0,-91.0,1078.1321811355044,2021-09-24 12:48:05.750
511,-201.0,844.0,11.0,867.6739018778887,2021-09-24 12:48:05.759
512,-151.0,1042.0,-111.0,1058.719037327657,2021-09-24 12:48:05.769
513,-200.0,982.0,-111.0,1008.2881532577876,2021-09-24 12:48:05.780
514,-200.0,982.0,-12.0,1002.2315101811556,2021-09-24 12:48:05.781
515,-175.0,912.0,-47.0,929.8268656045598,2021-09-24 12:48:05.789
516,-128.0,996.0,-93.0,1008.488472913796,2021-09-24 12:48:05.800
517,-144.0,861.0,-18.0,873.1443179681123,2021-09-24 12:48:05.808
518,-199.0,1000.0,-61.0,1021.431348647573,2021-09-24 12:48:05.818
519,-96.0,1086.0,-6.0,1090.2513471672485,2021-09-24 12:48:05.828
