time_range,Acceleration_Y
0,890.5
1,1035.5
2,988.0
3,1000.0
4,995.0
5,973.0
6,1044.0
7,719.0
8,921.0
9,936.0
10,797.0
11,973.0
12,920.0
13,1113.0
14,1044.0
15,1064.0
16,1216.0
17,1001.0
18,953.8333333333333
19,906.6666666666666
20,971.0
21,1216.0
22,879.0
23,1027.0
24,1110.0
25,1055.0
26,990.0
27,817.0
28,1023.0
29,912.0
30,883.0
31,1257.0
32,1035.5
33,1059.0
34,1041.25
35,1023.5
36,1052.0
37,846.0
38,1025.0
39,756.0
40,847.5
41,840.0
42,943.0
43,972.0
44,953.5
45,1054.0
46,842.0
47,1027.0
48,895.0
49,1009.0
50,1058.0
51,1120.0
52,1011.0
53,1069.0
54,915.0
55,1003.0
56,945.0
57,863.0
58,1061.0
59,794.0
60,913.0
61,1077.0
62,917.0
63,1088.5
64,1161.0
65,1088.5
66,1067.0
67,1026.0
68,1324.0
69,954.0
70,1181.0
71,1122.0
72,928.0
73,929.0
74,894.0
75,989.0
76,936.0
77,1114.0
78,813.0
79,1121.0
80,996.0
81,888.0
82,1190.0
83,1091.5
84,854.0
85,1143.0
86,851.0
87,979.0
88,886.0
89,870.0
90,905.0
91,778.0
92,948.0
93,898.0
94,947.5
95,857.0
96,972.0
97,1044.5
98,1117.0
99,962.0
100,1283.0
101,887.0
102,958.5
103,1030.0
104,893.0
105,1111.0
106,888.0
107,938.0
108,972.0
109,968.0
110,1155.0
111,1045.0
112,1050.0
113,1005.0
114,1097.0
115,1093.25
116,1089.5
117,1018.0
118,947.0
119,954.6666666666666
120,962.3333333333334
121,970.0
122,964.0
123,828.0
124,1078.0
125,931.0
126,1072.0
127,990.5
128,913.0
129,1081.0
130,844.0
131,1141.0
132,1079.0
133,727.0
134,944.0
135,1054.0
136,841.0
137,1083.0
138,904.0
139,1015.0
140,920.0
141,889.0
142,923.5
143,745.0
144,870.5
145,1093.0
146,1094.0
147,1148.5
148,1023.0
149,1098.0
150,1083.0
151,1023.0
152,997.0
153,983.0
154,1064.0
155,872.0
156,944.5
157,1022.0
158,1077.0
159,992.0
160,1035.5
161,1160.0
162,941.0
163,1187.0
164,1027.0
165,1028.0
166,1039.1666666666665
167,1050.3333333333333
168,1083.0
169,1026.0
170,862.0
171,927.0
172,821.0
173,920.5
174,985.0
175,775.0
176,1101.0
177,862.0
178,1076.0
179,925.0
180,956.0
181,1055.0
182,1099.0
183,1040.0
184,956.0
185,732.0
186,945.0
187,979.0
188,777.0
189,1060.0
190,936.0
191,971.0
192,890.5
193,810.0
194,898.5
195,987.0
196,1020.1666666666666
197,1053.3333333333333
198,1086.5
199,1201.0
