time_range,Acceleration_Y
0,798.0
1,976.0
2,1131.0
3,1141.0
4,1129.0
5,1270.0
6,1173.0
7,1119.0
8,880.0
9,1083.0
10,1090.0
11,957.0
12,1247.0
13,904.0
14,914.5
15,925.0
16,971.5
17,1058.0
18,856.0
19,1158.0
20,1087.0
21,928.0
22,1147.0
23,1148.0
24,1040.0
25,1159.0
26,889.0
27,946.0
28,845.0
29,810.0
30,853.0
31,772.5
32,927.0
33,861.0
34,919.0
35,902.0
36,922.0
37,969.0
38,944.0
39,1112.0
40,995.5
41,1037.0
42,1019.0
43,967.0
44,1221.0
45,904.0
46,1008.0
47,973.0
48,833.0
49,955.0
50,757.0
51,1106.0
52,1043.0
53,958.0
54,1138.0
55,1127.5
56,1117.0
57,1098.5
58,1135.5
59,1159.0
60,923.0
61,1133.0
62,1040.0
63,711.0
64,990.0
65,844.0
66,872.0
67,885.5
68,933.0
69,987.0
70,1252.0
71,1106.0
72,942.0
73,905.0
74,1127.0
75,1091.0
76,1042.0
77,1273.0
78,930.0
79,993.0
80,871.0
81,945.0
82,725.0
83,873.0
84,862.0
85,901.5
86,941.0
87,855.0
88,1106.0
89,1136.0
90,1137.0
91,1123.0
92,860.0
93,1084.0
94,1088.0
95,1098.75
96,1109.5
97,1032.0
98,1065.0
99,1087.0
100,952.0
101,1028.0
102,797.0
103,1067.0
104,967.0
105,938.0
106,1112.0
107,1100.0
108,1054.0
109,1049.0
110,1151.0
111,1105.0
112,967.0
113,858.0
114,946.0
115,751.0
116,862.0
117,969.0
118,887.0
119,886.0
120,885.0
121,767.0
122,944.0
123,883.0
124,818.0
125,1019.0
126,1037.0
127,935.0
128,1086.0
129,981.0
130,1070.0
131,1066.0
132,968.5
133,953.0
134,859.5
135,919.0
136,863.0
137,955.0
138,870.0
139,1088.0
140,1069.0
141,1079.0
142,1119.0
143,1124.0
144,959.0
145,1169.0
146,1127.0
147,954.0
148,1313.0
149,1045.0
150,1022.0
151,905.0
152,865.0
153,928.0
154,820.0
155,972.0
156,901.0
157,876.5
158,852.0
159,1034.0
160,996.0
161,1006.0
162,1056.0
163,1121.0
164,949.0
165,994.0
166,699.0
167,873.0
168,875.0
169,929.0
170,914.0
171,855.5
172,933.0
173,771.0
174,878.5
175,883.0
176,713.0
177,1230.0
178,1113.0
179,971.0
180,1312.0
181,1061.0
182,1032.0
183,1198.0
184,1015.0
185,1079.0
186,746.0
187,835.5
188,925.0
189,830.0
190,999.0
191,1034.0
192,1083.0
193,1016.0
194,1066.0
195,1150.0
196,937.0
197,1176.0
198,1123.0
199,1157.0
