time_range,Acceleration_Y
0,1164.0
1,894.0
2,1203.0
3,1153.0
4,752.0
5,869.0
6,886.0
7,823.0
8,1040.0
9,908.5
10,1061.0
11,774.0
12,790.0
13,842.0
14,669.0
15,927.0
16,1243.0
17,1189.0
18,1135.0
19,1081.0
20,1263.0
21,1310.0
22,1227.0
23,1244.0
24,814.0
25,1059.0
26,1018.0
27,822.0
28,1066.0
29,895.0
30,1023.0
31,968.6666666666666
32,1143.0
33,916.0
34,1149.0
35,1129.5
36,976.0
37,1217.0
38,1115.0
39,1047.0
40,1179.0
41,763.0
42,1023.0
43,862.0
44,686.0
45,808.0
46,849.8333333333333
47,891.6666666666666
48,794.0
49,956.0
50,942.5
51,898.0
52,1071.0
53,1332.0
54,1185.0
55,1125.0
56,830.0
57,1051.0
58,986.0
59,908.5
60,1133.0
61,751.0
62,957.0
63,859.0
64,793.0
65,818.0
66,921.0
67,1228.0
68,1166.0
69,1002.0
70,1198.0
71,1094.0
72,1210.0
73,1186.0
74,1128.5
75,1071.0
76,1159.0
77,820.0
78,706.0
79,1011.0
80,904.0
81,1045.0
82,963.0
83,1006.0
84,1089.0
85,842.0
86,1174.0
87,1057.0
88,909.0
89,1185.0
90,1109.5555555555557
91,1034.111111111111
92,958.6666666666666
93,745.0
94,977.0
95,781.0
96,787.0
97,853.0
98,655.0
99,902.0
100,837.0
101,940.0
102,953.0
103,1057.0
104,1123.0
105,1312.0
106,1107.0
107,1181.0
108,805.0
109,1060.0
110,1038.0
111,1211.0
112,829.0
113,953.0
114,966.0
115,975.0
116,1178.0
117,935.0
118,1187.0
119,1164.3333333333333
120,1141.6666666666665
121,1119.0
122,1096.3333333333333
123,1116.0
124,1211.0
125,1181.1666666666665
126,1151.3333333333333
127,802.0
128,843.0
129,812.0
130,718.0
131,949.0
132,810.0
133,982.0
134,997.0
135,956.0
136,1139.0
137,856.0
138,1089.0
139,1089.0
140,741.0
141,995.0
142,1029.0
143,898.0
144,1222.0
145,847.0
146,889.0
147,850.0
148,879.0
149,849.0
150,672.0
151,959.0
152,769.0
153,1138.0
154,1138.0
155,1132.0
156,1275.0
157,1138.0
158,1142.0
159,893.0
160,1152.0
161,1068.0
162,936.0
163,1266.0
164,915.0
165,901.0
166,848.0
167,904.0
168,1177.0
169,941.0
170,1127.0
171,1006.0
172,979.0
173,1174.0
174,1095.0
175,1181.0
176,1194.0
177,798.0
178,981.0
179,841.0
180,833.0
181,857.0
182,704.0
183,946.0
184,771.0
185,907.0
186,764.0
187,824.0
188,1113.0
189,868.0
190,1111.0
191,1114.0
192,847.0
193,1011.0
194,1055.375
195,1099.75
196,813.0
197,1053.0
198,975.0
199,836.0
