time_range,Acceleration_Y
0,923.0
1,966.5
2,922.0
3,926.0
4,922.0
5,918.0
6,901.0
7,935.0
8,969.0
9,1157.0
10,951.0
11,1069.0
12,1081.0
13,1093.0
14,935.0
15,1000.0
16,1135.0
17,1093.0
18,1005.0
19,917.0
20,1137.5
21,903.0
22,858.0
23,944.0
24,793.0
25,958.0
26,1003.0
27,871.0
28,879.0
29,993.0
30,1099.0
31,1069.0
32,996.0
33,1015.0
34,846.0
35,900.0
36,1061.0
37,916.0
38,947.5
39,894.0
40,829.0
41,818.75
42,808.5
43,1034.5
44,827.0
45,872.0
46,1061.0
47,960.0
48,991.0
49,1119.0
50,959.0
51,1080.0
52,1086.5
53,1093.0
54,1119.0
55,962.0
56,882.5
57,1196.0
58,884.0
59,738.0
60,939.0
61,936.0
62,976.0
63,1190.0
64,1023.0
65,1121.0
66,1152.0
67,1077.0
68,908.0
69,1103.0
70,1271.0
71,1042.0
72,1057.0
73,979.0
74,1106.0
75,875.0
76,1053.0
77,1018.0
78,838.5
79,709.0
80,971.0
81,940.75
82,910.5
83,1056.0
84,1118.0
85,1064.0
86,926.0
87,1144.0
88,956.0
89,949.5
90,1015.0
91,865.0
92,851.0
93,962.0
94,1026.0
95,887.0
96,868.0
97,727.0
98,911.0
99,1000.0
100,915.0
101,1138.0
102,940.0
103,1099.0
104,1231.0
105,887.0
106,878.0
107,1220.0
108,1075.0
109,1056.3333333333335
110,1037.6666666666667
111,1111.0
112,1145.0
113,795.0
114,1030.0
115,1144.0
116,976.0
117,1114.0
118,916.0
119,1025.5
120,1135.0
121,1001.0
122,1105.0
123,1068.0
124,1101.0
125,1068.5
126,1087.0
127,1232.0
128,1101.5
129,1015.0
130,1038.0
131,931.0
132,842.0
133,956.0
134,893.0
135,982.0
136,774.0
137,809.0
138,1125.0
139,820.0
140,940.0
141,1044.0
142,1045.0
143,1068.5
144,1092.0
145,1071.0
146,974.0
147,988.0
148,1089.0
149,788.0
150,828.0
151,1058.0
152,931.0
153,940.5
154,855.0
155,907.0
156,848.0
157,956.0
158,975.0
159,982.0
160,1119.0
161,1111.0
162,982.0
163,1087.0
164,1206.0
165,1043.0
166,1003.0
167,992.0
168,1052.0
169,1182.0
170,951.0
171,839.0
172,881.0
173,816.0
174,1045.0
175,982.0
176,970.25
177,958.5
178,1196.0
179,1020.0
180,918.0
181,1181.0
182,1142.0
183,1101.5
184,1082.0
185,1148.0
186,922.0
187,953.0
188,882.0
189,809.5
190,827.0
191,1084.0
192,832.0
193,876.0
194,764.0
195,819.5
196,1045.0
197,885.0
198,930.0
199,891.0
