time_range,Acceleration_Y
0,1010.0
1,973.5
2,937.0
3,1055.0
4,874.0
5,936.0
6,998.0
7,1126.0
8,1003.0
9,1080.0
10,1036.0
11,934.0
12,911.0
13,1044.0
14,1030.0
15,904.0
16,973.0
17,1098.0
18,1031.0
19,791.0
20,938.0
21,965.0
22,909.0
23,957.0
24,1140.0
25,1018.0
26,874.0
27,906.0
28,998.0
29,1122.0
30,942.0
31,932.5
32,1098.0
33,1004.0
34,1027.0
35,1116.0
36,947.0
37,952.5
38,958.0
39,1009.3333333333334
40,828.0
41,999.0
42,1177.0
43,1016.0
44,914.0
45,966.0
46,954.0
47,954.5
48,1010.0
49,948.0
50,910.0
51,1014.0
52,1075.0
53,1038.0
54,880.0
55,910.0
56,1121.0
57,810.0
58,1149.0
59,922.0
60,996.0
61,950.0
62,1009.0
63,1130.0
64,905.0
65,857.0
66,989.0
67,1134.0
68,941.0
69,1149.0
70,956.0
71,936.0
72,1075.0
73,1006.0
74,1005.0
75,998.0
76,1082.0
77,1008.0
78,963.0
79,991.75
80,1020.5
81,1090.0
82,1111.0
83,1099.0
84,876.0
85,895.0
86,1098.0
87,1075.0
88,997.0
89,961.0
90,1064.0
91,957.0
92,895.0
93,980.0
94,1039.0
95,828.0
96,976.0
97,1056.5
98,974.0
99,796.0
100,911.0
101,1026.0
102,996.0
103,921.0
104,962.0
105,1036.0
106,970.0
107,990.0
108,1099.0
109,972.0
110,939.0
111,1029.0
112,982.0
113,875.0
114,1040.5
115,1065.0
116,994.6666666666666
117,886.0
118,952.5
119,1019.0
120,974.0
121,1012.0
122,971.5
123,963.0
124,1073.0
125,1068.0
126,880.0
127,899.0
128,1068.0
129,1103.0
130,1010.0
131,978.0
132,961.0
133,1012.25
134,1063.5
135,955.0
136,903.0
137,963.0
138,1037.0
139,1072.0
140,961.0
141,883.0
142,956.5
143,1049.0
144,1077.0
145,1092.0
146,977.0
147,870.0
148,1032.0
149,1014.0
150,1037.0
151,965.0
152,993.0
153,1145.0
154,960.0
155,930.0
156,996.0
157,913.0
158,1019.0
159,1022.5
160,1026.0
161,954.0
162,1052.0
163,977.0
164,936.0
165,955.0
166,1079.0
167,1010.0
168,955.0
169,939.0
170,1037.0
171,943.0
172,902.0
173,1172.0
174,1021.0
175,935.0
176,977.5
177,1019.0
178,1086.0
179,895.0
180,933.0
181,1091.0
182,1023.0
183,1021.0
184,1110.0
185,1041.5
186,910.0
187,1075.0
188,1017.0
189,975.0
190,1011.0
191,1042.0
192,1007.0
193,967.0
194,975.0
195,905.0
196,908.0
197,974.0
198,1063.0
199,863.0
