time_range,Acceleration_Y
0,987.0
1,1036.5
2,974.0
3,1066.0
4,916.0
5,958.0
6,956.0
7,1098.0
8,1061.0
9,838.0
10,822.0
11,1021.0
12,1067.0
13,924.0
14,919.0
15,939.0
16,956.3333333333334
17,973.6666666666667
18,991.0
19,1008.3333333333334
20,915.0
21,1091.0
22,1152.0
23,949.0
24,874.0
25,1022.0
26,1062.0
27,969.0
28,1108.0
29,1027.0
30,1046.0
31,961.0
32,1019.0
33,1110.0
34,904.0
35,1039.5
36,1107.0
37,930.0
38,1133.0
39,1133.0
40,882.0
41,900.3333333333334
42,1028.0
43,1053.5
44,946.0
45,970.0
46,1061.0
47,1048.0
48,975.0
49,980.3333333333333
50,985.6666666666666
51,901.0
52,1017.0
53,1106.0
54,1034.0
55,836.0
56,865.0
57,1051.0
58,1006.0
59,974.0
60,969.0
61,1005.0
62,1039.0
63,1046.0
64,1045.0
65,877.0
66,894.5
67,1058.0
68,1074.5
69,1066.5
70,815.0
71,975.0
72,978.0
73,953.0
74,1040.0
75,1078.0
76,906.0
77,955.0
78,1112.0
79,870.0
80,833.0
81,1149.0
82,1194.0
83,961.0
84,1037.0
85,1058.0
86,902.0
87,902.0
88,995.0
89,1073.0
90,1018.0
91,1003.0
92,1129.0
93,1123.0
94,877.0
95,992.5
96,939.0
97,855.0
98,826.0
99,962.5
100,1052.0
101,925.0
102,917.0
103,984.0
104,971.0
105,930.0
106,992.0
107,910.0
108,983.0
109,1040.0
110,1069.0
111,1070.0
112,807.0
113,1033.0
114,1103.0
115,931.3333333333334
116,977.0
117,982.0
118,992.5
119,1005.875
120,1019.25
121,1032.625
122,1046.0
123,979.5
124,1192.0
125,830.0
126,917.0
127,1089.0
128,1009.0
129,927.0
130,983.0
131,1000.0
132,969.0
133,1018.0
134,1101.0
135,1054.0
136,817.0
137,955.0
138,1100.0
139,1001.0
140,933.0
141,967.3333333333333
142,1001.6666666666666
143,886.0
144,890.0
145,1045.0
146,977.0
147,925.0
148,961.0
149,1057.0
150,919.0
151,911.0
152,1012.25
153,1113.5
154,940.0
155,1029.0
156,1097.0
157,889.6666666666666
158,981.0
159,1031.0
160,1027.0
161,937.0
162,922.0
163,907.0
164,910.0
165,994.0
166,1111.0
167,893.0
168,917.0
169,1157.0
170,1088.0
171,881.0
172,874.0
173,1075.0
174,1112.0
175,916.0
176,1019.0
177,1086.0
178,1057.5
179,996.0
180,1088.0
181,1051.0
182,889.0
183,1047.0
184,1128.0
185,1019.0
186,909.0
187,951.0
188,1002.0
189,876.0
190,924.0
191,1010.0
192,971.3333333333334
193,910.0
194,1080.0
195,1142.0
196,870.0
197,951.0
198,1044.0
199,1096.0
