time_range,Acceleration_Y
0,1016.0
1,991.0
2,978.75
3,966.5
4,963.0
5,924.0
6,1087.0
7,897.0
8,949.0
9,1087.0
10,930.0
11,864.0
12,1055.0
13,1037.0
14,1051.0
15,919.0
16,1082.0
17,1007.75
18,933.5
19,1048.0
20,1054.0
21,947.0
22,884.0
23,1096.0
24,1058.0
25,831.0
26,879.0
27,1037.0
28,1054.0
29,945.0
30,1024.0
31,1023.5
32,979.0
33,896.0
34,980.0
35,1049.5
36,858.0
37,1047.0
38,1092.5
39,992.25
40,892.0
41,929.0
42,975.0
43,1042.0
44,992.0
45,986.1666666666667
46,980.3333333333334
47,909.0
48,1052.0
49,1045.0
50,934.0
51,1112.0
52,1022.0
53,1010.0
54,1038.0
55,873.0
56,859.0
57,1048.0
58,1072.0
59,1062.0
60,984.0
61,803.0
62,1036.0
63,1108.0
64,915.0
65,1017.0
66,1009.0
67,909.0
68,994.0
69,1073.0
70,893.0
71,879.0
72,906.0
73,1062.0
74,1143.0
75,819.0
76,856.0
77,1031.0
78,1053.0
79,1045.75
80,1038.5
81,986.5
82,1031.0
83,965.0
84,1048.0
85,1006.0
86,964.0
87,1050.0
88,961.0
89,1175.0
90,944.0
91,911.0
92,945.0
93,1081.0
94,1000.0
95,947.0
96,1093.0
97,1001.0
98,953.0
99,995.0
100,970.0
101,1166.0
102,907.0
103,1038.5
104,1107.0
105,873.0
106,851.0
107,975.0
108,1097.0
109,972.0
110,1027.0
111,967.0
112,1011.0
113,996.0
114,822.0
115,925.0
116,770.0
117,971.0
118,1091.0
119,1057.0
120,1023.0
121,987.6666666666666
122,989.0
123,1023.0
124,1003.0
125,995.0
126,1018.0
127,1117.0
128,1071.0
129,973.0
130,983.0
131,1140.0
132,1005.0
133,931.0
134,964.0
135,1074.0
136,976.0
137,933.0
138,1003.0
139,1028.0
140,830.0
141,958.0
142,1169.0
143,992.0
144,856.0
145,1074.0
146,1165.0
147,991.0
148,756.0
149,947.0
150,1185.0
151,951.0
152,938.0
153,1070.0
154,1027.0
155,886.0
156,1084.0
157,982.0
158,876.0
159,985.5
160,1082.0
161,1093.0
162,900.0
163,1016.3333333333334
164,996.0
165,912.0
166,1021.0
167,954.0
168,894.0
169,1054.0
170,1093.0
171,1039.0
172,838.0
173,927.0
174,762.0
175,976.0
176,1135.0
177,1048.0
178,1015.0
179,994.0
180,989.6666666666666
181,985.3333333333334
182,981.0
183,878.5
184,961.5
185,1038.0
186,898.0
187,1085.0
188,867.0
189,927.0
190,1062.0
191,1062.0
192,1021.0
193,918.0
194,926.0
195,1221.0
196,1113.5
197,915.0
198,897.0
199,973.0
