time_range,Acceleration_Y
0,1014.0
1,1050.0
2,959.0
3,1229.0
4,1027.0
5,965.0
6,1185.0
7,1060.0
8,848.0
9,976.0
10,885.0
11,877.0
12,989.5
13,1053.0
14,1129.0
15,1049.5
16,1050.0
17,1416.0
18,1039.0
19,965.5
20,951.0
21,736.0
22,754.5
23,844.0
24,933.5
25,856.0
26,781.0
27,826.0
28,1067.0
29,963.0
30,881.0
31,1081.0
32,955.0
33,1022.0
34,988.0
35,1059.5
36,796.5
37,973.0
38,1002.0
39,1031.0
40,943.0
41,823.6666666666666
42,928.0
43,928.0
44,1078.3333333333333
45,1079.0
46,1136.0
47,900.0
48,1198.0
49,1057.0
50,953.0
51,1105.0
52,899.0
53,983.0
54,986.0
55,986.0
56,895.0
57,1090.0
58,1000.0
59,1234.0
60,1190.0
61,945.0
62,1056.0
63,1318.0
64,1043.0
65,955.0
66,1101.0
67,815.0
68,823.5
69,882.0
70,846.0
71,810.0
72,811.0
73,959.0
74,1133.0
75,958.0
76,856.0
77,1149.5
78,1096.25
79,1043.0
80,1076.3333333333333
81,882.0
82,908.0
83,859.0
84,898.0
85,956.0
86,780.5
87,887.0
88,917.0
89,801.0
90,996.0
91,1016.0
92,1155.0
93,1344.0
94,969.0
95,959.0
96,1007.5
97,1056.0
98,1019.0
99,958.0
100,731.0
101,983.0
102,787.0
103,595.0
104,1199.0
105,1078.0
106,1001.0
107,1115.0
108,1166.0
109,1250.0
110,1087.0
111,948.0
112,1129.0
113,1082.0
114,1022.0
115,928.5
116,871.0
117,877.0
118,974.5
119,1016.0
120,1053.0
121,1137.0
122,1044.0
123,1241.0
124,1173.0
125,1105.0
126,1065.0
127,1200.0
128,834.0
129,956.0
130,854.0
131,686.0
132,848.0
133,787.0
134,864.0
135,1124.0
136,887.0
137,1134.0
138,949.0
139,924.6666666666667
140,900.3333333333334
141,829.0
142,977.0
143,1257.0
144,853.0
145,846.0
146,872.0
147,879.0
148,946.0
149,880.0
150,755.5
151,998.0
152,953.0
153,1257.0
154,1304.0
155,1002.0
156,1014.5
157,1155.5
158,1100.9166666666665
159,1046.3333333333333
160,971.0
161,971.0
162,1024.5
163,1136.0
164,982.0
165,927.0
166,1197.0
167,1152.0
168,1106.0
169,1133.0
170,1029.0
171,1133.0
172,1129.0
173,1242.0
174,1088.0
175,840.0
176,760.0
177,981.0
178,774.0
179,727.0
180,860.0
181,1016.0
182,1154.0
183,881.0
184,1014.0
185,1068.0
186,1172.0
187,836.0
188,972.0
189,1132.0
190,869.0
191,835.0
192,972.0
193,939.0
194,817.5
195,690.0
196,970.0
197,832.0
198,813.0
199,1182.0
