time_range,Acceleration_Y
0,950.0
1,998.0
2,1012.0
3,992.5
4,1056.0
5,897.0
6,1002.0
7,982.0
8,887.0
9,1062.0
10,1070.0
11,882.0
12,1003.0
13,1002.0
14,952.0
15,1036.0
16,1156.0
17,977.0
18,992.5
19,1008.0
20,1023.5
21,1071.0
22,736.0
23,1097.0
24,937.0
25,855.0
26,959.0
27,1135.0
28,991.0
29,951.0
30,1075.0
31,1147.0
32,1054.0
33,903.0
34,1109.0
35,845.0
36,864.0
37,883.0
38,1049.75
39,867.0
40,976.0
41,948.0
42,1030.0
43,1071.0
44,1060.0
45,1049.0
46,1023.0
47,932.0
48,980.0
49,978.0
50,889.5
51,1084.0
52,1037.0
53,840.0
54,900.5
55,855.0
56,932.0
57,965.0
58,1102.0
59,998.0
60,928.0
61,1041.0
62,1236.0
63,1066.0
64,787.0
65,1104.0
66,975.0
67,1008.0
68,1049.0
69,1112.5
70,993.0
71,977.0
72,983.0
73,1077.0
74,1068.0
75,984.0
76,1103.0
77,1032.0
78,959.5
79,799.0
80,849.5
81,824.0
82,963.0
83,1008.0
84,1097.0
85,1023.0
86,956.0
87,1001.0
88,1042.0
89,1088.0
90,951.0
91,1105.0
92,1013.6666666666667
93,922.3333333333334
94,1054.0
95,867.0
96,943.0
97,876.5
98,953.0
99,999.0
100,993.5
101,997.0
102,998.0
103,1054.0
104,1136.0
105,921.0
106,853.0
107,1105.0
108,960.0
109,990.0
110,1072.0
111,777.0
112,872.0
113,882.5
114,932.0
115,1119.0
116,919.0
117,1010.5
118,1102.0
119,1035.0
120,1003.5
121,972.0
122,908.5
123,961.05
124,1013.6
125,980.0
126,1000.0
127,894.0
128,968.0
129,1009.5
130,1035.0
131,1050.0
132,984.0
133,999.5
134,1216.0
135,958.0
136,881.0
137,1117.0
138,1070.0
139,1023.0
140,960.0
141,969.0
142,893.0
143,1020.0
144,975.0
145,993.0
146,1011.5
147,882.0
148,1138.0
149,975.0
150,950.5
151,940.0
152,1011.0
153,922.0
154,972.0
155,880.5
156,912.4166666666667
157,944.3333333333334
158,935.0
159,957.0
160,803.0
161,1140.0
162,1021.0
163,973.0
164,1072.0
165,1089.0
166,927.0
167,1010.0
168,1009.0
169,1087.0
170,863.0
171,758.0
172,1146.0
173,1032.0
174,989.0
175,998.0
176,1191.0
177,1016.0
178,960.0
179,974.0
180,1068.0
181,971.0
182,904.0
183,1214.0
184,1275.0
185,902.0
186,993.0
187,940.0
188,984.0
189,859.0
190,1016.0
191,980.0
192,975.5
193,1128.0
194,1098.0
195,1023.0
196,900.0
197,1057.0
198,824.0
199,996.6666666666666
