time_range,Acceleration_Y
0,972.3333333333334
1,972.3333333333334
2,1020.0
3,1032.0
4,1023.0
5,1003.0
6,1032.0
7,978.0
8,988.0
9,1053.0
10,967.5
11,882.0
12,1002.0
13,988.0
14,991.5
15,1007.0
16,1040.0
17,994.0
18,930.0
19,1026.0
20,1052.5
21,945.0
22,1012.0
23,1046.0
24,1001.0
25,1005.0
26,1063.0
27,996.0
28,859.0
29,978.0
30,956.0
31,976.0
32,1112.0
33,949.0
34,946.0
35,945.0
36,1044.5
37,1105.0
38,980.3333333333334
39,952.9166666666667
40,925.5
41,936.0
42,1000.0
43,955.0
44,919.0
45,959.0
46,948.0
47,981.0
48,1035.0
49,1019.0
50,922.0
51,970.0
52,1018.0
53,992.0
54,1085.0
55,1066.5
56,1007.0
57,984.0
58,985.0
59,986.0
60,930.0
61,965.0
62,989.0
63,899.0
64,1069.0
65,1039.5
66,975.0
67,1002.0
68,1029.0
69,1005.0
70,970.0
71,1070.0
72,1039.0
73,1005.0
74,1018.0
75,1015.0
76,970.5
77,981.5
78,954.0
79,915.0
80,860.0
81,981.6666666666666
82,828.0
83,1010.0
84,989.5
85,976.5
86,1012.0
87,1019.0
88,1114.0
89,921.0
90,1006.0
91,982.0
92,965.0
93,986.0
94,1038.0
95,960.0
96,1047.0
97,935.0
98,966.0
99,987.0
100,994.5
101,1020.0
102,915.0
103,942.5
104,983.0
105,934.0
106,1066.0
107,985.0
108,1019.0
109,987.0
110,1012.0
111,1023.0
112,1034.0
113,1088.0
114,1022.0
115,962.0
116,1023.0
117,997.3333333333334
118,1033.0
119,1033.0
120,971.5
121,936.0
122,937.0
123,960.0
124,904.0
125,1051.0
126,968.0
127,903.0
128,978.0
129,987.0
130,986.0
131,905.0
132,1065.0
133,956.0
134,851.0
135,1101.0
136,1037.0
137,973.0
138,991.0
139,971.0
140,884.0
141,1010.0
142,1038.0
143,1037.0
144,917.0
145,996.0
146,1044.0
147,973.0
148,923.0
149,908.0
150,1031.0
151,1009.5
152,994.0
153,1061.0
154,885.0
155,997.0
156,959.0
157,1024.5
158,1090.0
159,987.0
160,1004.0
161,1021.0
162,1038.0
163,977.0
164,948.5
165,920.0
166,972.0
167,910.0
168,1054.0
169,1013.0
170,938.0
171,1046.0
172,956.0
173,915.0
174,1057.0
175,1012.0
176,916.0
177,1039.0
178,1018.0
179,973.0
180,1052.0
181,1057.0
182,1000.0
183,1027.0
184,1043.0
185,1036.5
186,940.0
187,954.5
188,1004.0
189,1007.0
190,964.0
191,949.0
192,1036.0
193,994.0
194,1028.0
195,956.0
196,910.0
197,1025.5
198,954.5
199,1075.0
