time_range,Acceleration_Y
0,1096.0
1,1133.0
2,1046.0
3,973.0
4,1101.0
5,1130.0
6,962.0
7,978.0
8,1245.0
9,1148.0
10,770.0
11,887.0
12,882.5
13,878.0
14,812.0
15,929.5
16,1061.0
17,874.0
18,933.0
19,981.5
20,1030.0
21,982.0
22,1050.0
23,1148.0
24,1046.0
25,883.0
26,1173.0
27,890.0
28,817.5
29,824.0
30,985.0
31,982.0
32,850.0
33,876.0
34,1077.0
35,955.0
36,1039.5
37,989.5
38,939.5
39,1093.0
40,1107.0
41,1022.0
42,912.0
43,1074.0
44,992.0
45,813.0
46,896.0
47,1069.0
48,1069.0
49,955.0
50,1161.0
51,1161.0
52,994.5
53,1022.0
54,1219.0
55,1036.0
56,907.0
57,1086.0
58,1082.0
59,861.0
60,984.0
61,1000.0
62,1118.0
63,888.0
64,982.0
65,1079.5
66,1032.0
67,988.0
68,1016.0
69,1087.0
70,1014.0
71,867.0
72,922.0
73,998.0
74,853.0
75,862.0
76,1044.0
77,924.5
78,902.0
79,977.5
80,939.0
81,996.0
82,1025.0
83,1036.0
84,1047.0
85,1085.0
86,977.0
87,977.5
88,978.0
89,979.0
90,979.0
91,840.0
92,975.0
93,932.0
94,930.0
95,1003.0
96,1085.0
97,1058.0
98,1031.0
99,964.5
100,1216.0
101,1053.0
102,721.0
103,953.0
104,1058.0
105,920.0
106,795.0
107,1056.0
108,1070.0
109,1058.0
110,1031.0
111,1021.5
112,1010.0
113,988.0
114,1015.0
115,1042.0
116,992.0
117,1059.5
118,1127.0
119,852.3333333333334
120,945.1666666666667
121,1038.0
122,965.5
123,1103.0
124,1031.0
125,1036.0
126,1003.0
127,981.25
128,959.5
129,784.0
130,915.0
131,976.0
132,974.0
133,856.0
134,995.0
135,990.0
136,899.0
137,833.0
138,888.0
139,985.0
140,945.0
141,984.0
142,1107.5
143,1231.0
144,988.0
145,997.0
146,1006.0
147,1066.5
148,893.0
149,1016.0
150,985.0
151,1034.0
152,1033.0
153,1070.0
154,1098.0
155,1012.0
156,992.0
157,1090.0
158,1001.0
159,1057.0
160,997.0
161,1073.5
162,958.0
163,1019.0
164,968.0
165,903.0
166,1006.0
167,1096.0
168,970.0
169,1027.0
170,1102.0
171,985.0
172,1079.0
173,1045.0
174,922.0
175,828.0
176,854.0
177,975.0
178,917.0
179,753.0
180,823.0
181,989.0
182,981.0
183,1057.0
184,947.0
185,1002.0
186,1081.0
187,988.0
188,1287.0
189,898.0
190,867.5
191,1084.0
192,1036.0
193,995.0
194,830.0
195,900.0
196,932.0
197,892.0
198,907.0
199,907.0
