time_range,Acceleration_Y
0,994.0
1,1086.5
2,1026.0
3,927.0
4,1034.0
5,1179.0
6,871.0
7,1009.0
8,1071.0
9,1006.8333333333333
10,942.6666666666666
11,939.0
12,1026.5
13,1123.0
14,961.0
15,1019.0
16,1093.0
17,1066.0
18,989.0
19,1118.0
20,772.0
21,802.0
22,951.0
23,1002.0
24,970.0
25,724.0
26,810.0
27,1044.0
28,1011.0
29,959.0
30,1126.0
31,1110.0
32,1001.0
33,965.0
34,1060.5
35,1009.0
36,976.0
37,984.0
38,992.0
39,819.0
40,918.0
41,901.0
42,1097.0
43,1164.0
44,1062.0
45,1035.0
46,1051.5
47,1149.0
48,942.0
49,898.0
50,1079.0
51,1262.0
52,931.0
53,953.5
54,976.0
55,1002.0
56,929.0
57,902.0
58,1151.0
59,1149.5
60,991.0
61,1018.0
62,1165.0
63,1103.5
64,918.0
65,939.0
66,915.5
67,729.0
68,909.0
69,1057.0
70,961.0
71,849.0
72,1024.0
73,1010.0
74,1093.0
75,1080.0
76,1025.0
77,1094.0
78,991.0
79,1171.0
80,833.0
81,852.0
82,927.0
83,954.0
84,870.0
85,870.0
86,879.5
87,964.0
88,1034.0
89,1064.0
90,955.0
91,967.0
92,1000.5
93,1034.0
94,1067.5
95,1070.0
96,1018.0
97,959.0
98,882.0
99,923.0
100,1170.0
101,1117.0
102,953.0
103,922.0
104,1164.0
105,1128.0
106,919.0
107,1031.0
108,1083.0
109,1059.0
110,975.0
111,1045.0
112,935.0
113,838.5
114,973.0
115,1060.0
116,961.0
117,1012.0
118,1016.0
119,1069.0
120,1102.0
121,1036.0
122,970.0
123,842.0
124,975.0
125,1011.0
126,871.0
127,842.0
128,843.0
129,998.0
130,942.0
131,1024.0
132,997.0
133,991.0
134,1051.0
135,1152.0
136,990.0
137,1107.0
138,1077.5
139,1025.0
140,900.0
141,955.0
142,987.0
143,894.0
144,966.0
145,928.0
146,1200.0
147,1139.0
148,927.0
149,981.0
150,1032.0
151,1072.0
152,1005.0
153,1022.0
154,1083.0
155,1173.0
156,1010.0
157,1092.0
158,966.5
159,998.0
160,998.0
161,1134.0
162,1112.0
163,904.0
164,964.0
165,1107.0
166,964.0
167,951.0
168,998.0
169,836.0
170,839.0
171,911.0
172,1023.0
173,1013.0
174,806.0
175,921.0
176,1026.0
177,1071.0
178,1026.0
179,1106.0
180,1093.5
181,933.0
182,865.0
183,909.0
184,1097.0
185,870.0
186,953.0
187,1056.0
188,838.0
189,919.0
190,960.0
191,987.0
192,1071.0
193,1094.0
194,1058.75
195,1023.5
196,1098.0
197,1163.0
198,946.0
199,1104.0
