time_range,Acceleration_Y
0,749.0
1,832.0
2,864.8888888888889
3,897.7777777777777
4,930.6666666666666
5,997.0
6,976.0
7,934.0
8,1023.5
9,1011.0
10,1095.0
11,1011.0
12,1057.0
13,924.0
14,1041.0
15,953.0
16,774.0
17,808.0
18,930.0
19,930.0
20,887.0
21,924.0
22,987.0
23,1190.0
24,1085.0
25,1015.5
26,946.0
27,1085.0
28,1101.5
29,972.0
30,954.0
31,996.0
32,1025.0
33,805.0
34,829.0
35,1111.0
36,1023.0
37,930.0
38,1086.5
39,1148.0
40,688.0
41,989.0
42,1289.0
43,1016.0
44,787.0
45,1019.0
46,974.0
47,975.0
48,984.0
49,895.0
50,1133.0
51,1038.0
52,1016.0
53,1036.25
54,1056.5
55,1044.0
56,955.0
57,973.0
58,862.0
59,840.0
60,986.0
61,964.0
62,863.0
63,864.0
64,996.0
65,911.0
66,1091.0
67,1034.0
68,1014.0
69,1046.0
70,1119.5
71,1115.5
72,991.0
73,927.0
74,991.5
75,863.0
76,770.0
77,921.0
78,914.0
79,906.5
80,899.0
81,1122.5
82,822.0
83,1003.0
84,1158.0
85,1060.0
86,962.0
87,1076.0
88,1012.0
89,1010.0
90,926.5
91,1000.0
92,1107.0
93,1058.0
94,946.0
95,1022.0
96,1058.0
97,1105.0
98,855.0
99,1001.0
100,1287.0
101,955.0
102,960.5
103,974.5
104,968.975
105,963.45
106,957.925
107,952.4
108,1138.0
109,1032.0
110,918.0
111,1019.0
112,1050.0
113,892.0
114,1090.0
115,954.0
116,881.0
117,902.5
118,924.0
119,858.25
120,912.0
121,1057.0
122,894.0
123,1103.0
124,981.0
125,1092.0
126,1081.0
127,1070.0
128,1049.3333333333333
129,1035.0
130,930.0
131,1020.0
132,942.0
133,789.0
134,915.0
135,1215.0
136,934.0
137,839.0
138,1134.0
139,1140.0
140,1010.5
141,1007.0
142,1121.0
143,1057.0
144,898.0
145,1095.0
146,1027.0
147,923.0
148,839.0
149,1086.0
150,1163.0
151,1060.0
152,949.0
153,983.5
154,1107.0
155,1030.5
156,954.0
157,956.0
158,882.0
159,897.0
160,912.0
161,837.0
162,959.0
163,1047.0
164,972.0
165,1076.0
166,1037.0
167,937.0
168,1133.0
169,1000.0
170,902.0
171,1005.5
172,983.0
173,933.0
174,768.0
175,787.0
176,1003.0
177,853.0
178,870.0
179,1060.0
180,893.0
181,1087.0
182,897.0
183,946.0
184,1112.0
185,1104.5
186,963.0
187,1144.0
188,1027.0
189,982.0
190,906.0
191,770.0
192,977.0
193,992.0
194,898.0
195,1034.0
196,1163.0
197,1087.0
198,963.6666666666666
199,1018.0
