time_range,Acceleration_Y
0,810.5
1,873.5
2,665.0
3,715.0
4,1008.0
5,1044.0
6,911.0
7,880.0
8,1170.0
9,1164.0
10,974.0
11,1083.0
12,1024.0
13,802.0
14,870.0
15,1014.0
16,936.0
17,877.0
18,683.5
19,724.0
20,944.0
21,702.0
22,795.5
23,867.75
24,940.0
25,1146.0
26,848.0
27,1037.0
28,1163.0
29,892.0
30,1059.0
31,1089.0
32,901.0
33,1192.0
34,644.0
35,819.0
36,928.5
37,897.0
38,1040.0
39,1164.5
40,1254.0
41,879.0
42,1107.0
43,1213.0
44,1101.0
45,920.0
46,1096.0
47,1151.0
48,1116.0
49,936.0
50,888.0
51,963.0
52,827.0
53,1122.0
54,968.0
55,1042.0
56,1151.0
57,929.0
58,1266.0
59,1149.0
60,1015.0
61,840.0
62,1135.0
63,819.0
64,926.0
65,813.0
66,711.0
67,1002.0
68,755.0
69,850.0
70,952.0
71,775.0
72,1061.0
73,1015.0
74,982.0
75,1182.0
76,826.5
77,959.0
78,1202.0
79,850.0
80,900.5
81,951.0
82,1001.5
83,1052.0
84,876.0
85,873.1111111111111
86,870.2222222222223
87,867.3333333333334
88,1119.0
89,1197.0
90,1213.0
91,831.0
92,1243.0
93,1162.5
94,1056.75
95,951.0
96,1165.5
97,1112.5
98,955.0
99,870.0
100,944.0
101,1050.5
102,1023.0
103,1141.0
104,1084.0
105,1143.0
106,1361.0
107,956.0
108,1021.0
109,1264.0
110,1185.0
111,714.0
112,1109.0
113,922.0
114,754.0
115,838.0
116,922.0
117,924.0
118,839.0
119,910.0
120,1157.0
121,1135.0
122,1144.5
123,1142.0
124,1134.0
125,538.0
126,765.0
127,926.0
128,1087.0
129,784.0
130,870.0
131,989.0
132,937.5
133,517.0
134,869.0
135,967.0
136,1127.0
137,1180.0
138,969.0
139,1076.5
140,1258.0
141,748.0
142,1075.0
143,1066.0
144,815.0
145,1125.0
146,1222.0
147,783.0
148,1091.0
149,955.0
150,1042.0
151,1110.5
152,1096.0
153,1072.0
154,976.0
155,1251.0
156,1339.0
157,912.0
158,1169.0
159,1167.5
160,808.0
161,988.0
162,924.0
163,920.0
164,822.0
165,1028.0
166,1066.0
167,907.0
168,1058.0
169,1076.0
170,1268.0
171,1151.0
172,1254.0
173,787.0
174,807.5
175,828.0
176,926.0
177,1168.0
178,711.0
179,793.0
180,944.0
181,841.0
182,1015.0
183,704.0
184,1037.0
185,1261.0
186,1192.0
187,1119.5
188,947.0
189,1094.5
190,1242.0
191,702.0
192,909.0
193,1084.5
194,828.0
195,915.0
196,882.0
197,1251.0
198,985.0
199,1173.0
