time_range,Acceleration_Y
0,1015.0
1,895.0
2,1052.0
3,934.0
4,895.0
5,1071.0
6,994.0
7,988.0
8,909.0
9,1006.0
10,1078.0
11,945.0
12,1141.0
13,1073.0
14,926.0
15,969.5
16,1013.0
17,1020.0
18,956.0
19,1036.0
20,1079.0
21,970.0
22,1005.0
23,988.0
24,991.0
25,957.0
26,961.0
27,892.0
28,963.0
29,944.0
30,904.0
31,978.0
32,1028.0
33,967.0
34,971.0
35,1044.5
36,949.0
37,1096.0
38,1050.0
39,968.0
40,1015.0
41,1115.0
42,1000.0
43,875.0
44,995.0
45,1074.0
46,906.0
47,1018.0
48,991.0
49,981.5
50,946.0
51,1070.0
52,1038.0
53,889.0
54,1031.0
55,1056.0
56,970.0
57,1022.0
58,1053.0
59,1031.5
60,966.0
61,1015.0
62,1088.0
63,946.0
64,983.0
65,948.0
66,915.0
67,987.0
68,945.0
69,955.0
70,969.5
71,1053.0
72,922.0
73,1002.0
74,995.0
75,987.375
76,979.75
77,1028.375
78,1077.0
79,1051.6666666666667
80,1052.0
81,994.0
82,1039.0
83,1077.0
84,1069.0
85,988.0
86,934.0
87,947.0
88,942.0
89,1046.0
90,970.0
91,1003.0
92,933.0
93,1025.0
94,1020.0
95,975.0
96,1097.0
97,1043.0
98,960.0
99,1009.0
100,1027.0
101,1019.0
102,1028.0
103,1007.0
104,955.0
105,961.0
106,874.0
107,932.0
108,912.0
109,958.0
110,997.0
111,997.0
112,991.0
113,996.0
114,951.0
115,984.0
116,996.5
117,1009.0
118,1021.5
119,1034.0
120,1008.5
121,1010.0
122,1044.0
123,1078.0
124,915.0
125,1008.75
126,1029.0
127,910.0
128,945.0
129,941.0
130,914.0
131,1011.0
132,1057.0
133,1006.0
134,955.0
135,1095.0
136,1019.0
137,927.0
138,1205.0
139,1081.0
140,979.0
141,1071.0
142,1106.0
143,935.0
144,1011.0
145,1154.0
146,968.0
147,988.0
148,1073.0
149,954.0
150,916.0
151,929.0
152,943.0
153,943.5
154,1030.0
155,1017.0
156,915.0
157,952.5
158,961.0
159,921.0
160,1014.0
161,1119.0
162,874.0
163,1040.0
164,1012.0
165,874.0
166,1035.0
167,1019.0
168,976.0
169,855.0
170,969.0
171,873.0
172,881.0
173,900.0
174,903.5
175,957.0
176,957.0
177,1072.0
178,1053.0
179,1019.25
180,985.5
181,1058.0
182,1013.0
183,1023.0
184,1079.0
185,1010.0
186,1042.0
187,1095.0
188,967.0
189,867.0
190,1011.0
191,941.0
192,880.0
193,1005.0
194,951.0
195,933.0
196,1049.0
197,1079.0
198,943.0
199,1062.0
