time_range,Acceleration_Y
0,667.0
1,667.0
2,902.3333333333334
3,811.0
4,916.0
5,911.0
6,1028.0
7,1138.0
8,690.0
9,987.0
10,1147.0
11,1005.0
12,992.0
13,854.0
14,796.0
15,967.0
16,772.0
17,616.0
18,822.0
19,868.0
20,896.0
21,997.0
22,1329.0
23,1328.0
24,693.0
25,1242.0
26,1401.0
27,924.0
28,887.0
29,1283.0
30,1050.0
31,1050.0
32,748.0
33,907.0
34,1069.0
35,979.0
36,1080.0
37,1107.5
38,1152.0
39,1151.5
40,1219.0
41,1219.0
42,1035.5
43,1193.0
44,1067.0
45,802.0
46,855.0
47,718.0
48,678.0
49,865.0
50,801.0
51,992.0
52,693.0
53,1129.0
54,1379.0
55,918.0
56,1226.0
57,1216.0
58,831.0
59,867.0
60,1355.0
61,836.0
62,808.0
63,708.0
64,729.0
65,1060.0
66,571.0
67,711.0
68,1206.0
69,1077.0
70,1117.0
71,1138.0
72,1159.0
73,1278.0
74,539.0
75,1001.0
76,897.0
77,853.5
78,823.0
79,929.0
80,832.0
81,1043.0
82,1055.0
83,1071.0
84,1238.0
85,1219.0
86,1110.0
87,1148.0
88,1238.0
89,816.0
90,1208.0
91,1143.5
92,716.0
93,784.0
94,737.0
95,909.0
96,1081.0
97,772.0
98,1031.0
99,1043.0
100,1115.5
101,1072.0
102,1055.5
103,1039.0
104,1525.0
105,1108.0
106,1040.0
107,1042.0
108,454.0
109,669.0
110,1085.0
111,805.0
112,879.0
113,686.0
114,858.0
115,1178.0
116,959.5
117,1197.5
118,1099.25
119,1001.0
120,1130.0
121,1208.0
122,976.0
123,645.0
124,913.0
125,1274.0
126,703.0
127,685.0
128,839.0
129,1187.0
130,1103.3333333333333
131,1019.6666666666666
132,1085.0
133,1123.0
134,1271.0
135,1138.0
136,992.0
137,1123.0
138,1299.0
139,629.0
140,1087.0
141,1155.0
142,646.0
143,862.0
144,918.0
145,1213.0
146,1249.5
147,762.0
148,1205.0
149,1317.0
150,1052.0
151,1128.0
152,955.0
153,706.0
154,649.0
155,1004.0
156,831.0
157,948.0
158,719.0
159,780.0
160,884.0
161,902.5
162,924.0
163,960.0
164,1097.0
165,764.0
166,922.0
167,1182.0
168,846.0
169,1057.0
170,1092.75
171,1128.5
172,961.9166666666667
173,795.3333333333334
174,736.0
175,997.0
176,913.5
177,1257.0
178,865.0
179,1308.0
180,1390.5
181,656.0
182,1076.0
183,1148.5
184,1016.0
185,1105.0
186,1149.0
187,1112.0
188,1059.0
189,480.0
190,926.0
191,1232.0
192,1104.5
193,1080.0
194,1150.0
195,1267.0
196,1194.0
197,811.0
198,1286.0
199,1346.0
