time_range,Acceleration_Y
0,967.0
1,982.0
2,894.0
3,954.0
4,1121.0
5,929.0
6,1003.0
7,1010.5
8,949.0
9,1098.0
10,1061.0
11,944.0
12,1002.5
13,1061.0
14,1157.0
15,837.0
16,956.0
17,902.0
18,973.0
19,1063.0
20,881.0
21,826.0
22,989.0
23,929.0
24,910.0
25,1071.0
26,1088.0
27,976.0
28,921.0
29,1012.0
30,996.0
31,1050.0
32,1096.0
33,981.0
34,1020.0
35,1134.0
36,973.0
37,955.5
38,1057.0
39,1031.0
40,1019.0
41,924.25
42,829.5
43,1047.0
44,907.0
45,967.0
46,1012.0
47,1009.0
48,981.0
49,991.0
50,1153.0
51,1048.0
52,1055.5
53,1061.5
54,1003.0
55,1003.0
56,1180.0
57,1036.8333333333333
58,893.6666666666666
59,1031.0
60,976.5
61,813.0
62,986.0
63,847.0
64,915.25
65,983.5
66,996.5
67,980.0
68,1104.0
69,1005.0
70,983.0
71,1044.0
72,1119.0
73,989.0
74,986.0
75,1061.0
76,917.0
77,1132.0
78,1012.3333333333334
79,935.5
80,989.25
81,1043.0
82,939.5
83,935.0
84,905.0
85,862.0
86,989.0
87,980.0
88,957.0
89,1117.0
90,976.0
91,988.0
92,1136.0
93,1033.0
94,1037.0
95,1012.0
96,1155.0
97,1017.0
98,1160.0
99,991.0
100,845.0
101,1049.0
102,949.0
103,888.5
104,921.0
105,1028.0
106,892.0
107,972.0
108,1126.0
109,923.0
110,1052.0
111,1001.0
112,930.0
113,1142.0
114,1032.0
115,1036.0
116,981.0
117,1018.0
118,1057.6666666666667
119,923.0
120,893.0
121,1024.0
122,1022.0
123,848.0
124,873.0
125,1036.0
126,925.0
127,899.0
128,1047.0
129,1088.0
130,1006.0
131,961.0
132,977.0
133,1000.0
134,1112.0
135,1038.0
136,1005.0
137,1066.0
138,1060.0
139,976.0
140,885.0
141,1105.0
142,976.0
143,748.0
144,930.0
145,851.0
146,865.0
147,1072.0
148,910.0
149,980.0
150,1049.0
151,932.0
152,1014.0
153,1061.0
154,1084.0
155,1052.0
156,1052.0
157,1082.0
158,991.0
159,900.0
160,1009.0
161,1014.0
162,1019.0
163,924.0
164,793.0
165,996.0
166,921.0
167,846.0
168,966.3333333333334
169,896.0
170,949.0
171,1105.0
172,981.0
173,929.0
174,1157.0
175,1042.0
176,988.0
177,1019.0
178,1023.0
179,1011.0
180,1028.5
181,1089.0
182,1007.3333333333333
183,925.6666666666666
184,1014.0
185,783.0
186,930.0
187,961.0
188,939.0
189,877.0
190,865.0
191,929.5
192,965.0
193,1005.0
194,977.0
195,1112.0
196,1084.0
197,1032.0
198,1040.0
199,1062.5
