time_range,Acceleration_Y
0,950.0
1,973.5
2,997.0
3,681.0
4,927.0
5,932.0
6,842.0
7,1152.0
8,872.0
9,872.0
10,962.75
11,1053.5
12,918.0
13,1083.0
14,967.0
15,1174.0
16,1067.0
17,1102.5
18,1148.5
19,1035.0
20,955.0
21,878.0
22,877.0
23,763.0
24,893.0
25,1013.0
26,964.5
27,1001.0
28,918.0
29,994.0
30,845.0
31,913.0
32,1087.0
33,792.0
34,1156.0
35,1059.0
36,930.0
37,1143.5
38,1141.0
39,902.0
40,1060.0
41,875.0
42,812.0
43,834.0
44,885.0
45,930.0
46,860.0
47,847.0
48,1040.5
49,892.0
50,784.0
51,1133.0
52,951.0
53,933.0
54,1027.3333333333335
55,1121.6666666666667
56,938.0
57,1275.0
58,1097.0
59,1200.0
60,1178.0
61,1031.0
62,1006.0
63,1060.0
64,712.0
65,916.0
66,880.0
67,881.0
68,961.0
69,1083.0
70,759.0
71,925.0
72,1011.0
73,920.0
74,1051.0
75,828.0
76,1067.0
77,1167.0
78,1041.0
79,1307.0
80,1003.0
81,833.0
82,1117.0
83,824.0
84,785.0
85,931.0
86,890.0
87,973.0
88,954.0
89,702.0
90,1052.0
91,1004.0
92,879.0
93,938.5
94,1139.0
95,1009.0
96,1028.0
97,1235.0
98,1039.0
99,1064.0
100,1234.0
101,1092.5
102,1255.0
103,1087.0
104,919.0
105,914.0
106,890.0
107,778.0
108,874.0
109,914.0
110,921.0
111,1050.0
112,982.0
113,914.0
114,1091.0
115,1171.0
116,985.5
117,938.0
118,938.0
119,1113.0
120,1003.0
121,1178.0
122,1066.0
123,950.0
124,950.0
125,971.5
126,774.0
127,805.0
128,1031.0
129,932.0
130,922.5
131,1003.0
132,1000.0
133,952.0
134,953.5
135,942.0
136,1054.0
137,1051.0
138,1009.0
139,1168.0
140,1091.0
141,1147.0
142,1102.0
143,927.0
144,926.0
145,910.0
146,920.5
147,883.0
148,908.0
149,726.0
150,915.0
151,801.0
152,950.0
153,1094.0
154,933.0
155,995.0
156,995.0
157,1005.0
158,926.0
159,926.0
160,1214.0
161,1252.0
162,1056.0
163,1093.0
164,1026.0
165,974.0
166,1013.0
167,756.0
168,772.0
169,818.0
170,917.0
171,951.0
172,1017.0
173,838.0
174,966.0
175,919.0
176,980.6666666666666
177,1042.3333333333333
178,1006.5
179,1051.0
180,1117.0
181,1084.0
182,1048.0
183,1273.0
184,1113.0
185,977.0
186,1100.0
187,795.0
188,828.0
189,866.0
190,918.0
191,790.0
192,1085.0
193,873.5
194,1162.0
195,955.0
196,776.0
197,1062.0
198,1037.0
199,1012.0
