time_range,Acceleration_Y
0,1105.0
1,1017.0
2,906.0
3,1080.0
4,899.0
5,931.1666666666667
6,963.3333333333334
7,939.0
8,888.5
9,989.0
10,1190.0
11,830.0
12,972.5
13,911.0
14,960.0
15,1067.0
16,1013.0
17,933.0
18,1129.0
19,1060.5
20,964.0
21,1058.5
22,971.0
23,902.0
24,1040.0
25,972.0
26,1085.0
27,984.0
28,853.0
29,884.0
30,944.5
31,942.0
32,1050.0
33,1048.5
34,1098.0
35,981.3333333333334
36,1037.5
37,995.0
38,1081.0
39,1013.0
40,964.0
41,996.0
42,1102.0
43,871.0
44,1048.0
45,981.0
46,797.0
47,1008.0
48,972.0
49,932.0
50,1016.0
51,874.0
52,955.0
53,1165.0
54,931.0
55,1001.5
56,1018.5
57,1075.0
58,870.0
59,1078.0
60,1103.0
61,988.5
62,1092.0
63,1047.0
64,1071.0
65,1025.5
66,973.0
67,941.0
68,990.0
69,885.0
70,888.0
71,936.5
72,991.0
73,1046.0
74,898.0
75,1123.0
76,1136.5
77,1150.0
78,929.0
79,1008.6666666666666
80,1091.0
81,1000.0
82,1067.0
83,1109.6666666666667
84,791.0
85,1043.0
86,1056.0
87,788.0
88,882.0
89,1041.0
90,915.0
91,982.0
92,954.0
93,924.0
94,994.5
95,1065.0
96,997.0
97,960.0
98,1103.0
99,1014.5
100,1000.0
101,1105.0
102,1015.0
103,1072.0
104,976.0
105,989.0
106,993.0
107,988.0
108,931.0
109,886.0
110,943.5
111,878.0
112,982.0
113,1079.0
114,1108.0
115,1017.6666666666666
116,938.0
117,1013.5
118,1108.5
119,902.0
120,942.5
121,1099.0
122,991.0
123,950.0
124,1198.0
125,895.0
126,906.0
127,1102.0
128,837.0
129,1092.0
130,825.0
131,857.0
132,945.0
133,1023.0
134,893.0
135,1154.0
136,971.0
137,1008.0
138,997.5
139,1063.0
140,997.0
141,919.0
142,1127.0
143,996.0
144,1035.0
145,1054.0
146,1007.0
147,914.0
148,1116.0
149,897.0
150,884.5
151,995.0
152,925.0
153,874.0
154,988.0
155,1235.0
156,1084.0
157,1033.6666666666667
158,1065.0
159,1012.0
160,1045.0
161,874.0
162,1146.0
163,976.0
164,950.5
165,1197.0
166,926.0
167,1088.0
168,984.0
169,904.0
170,1012.0
171,943.0
172,874.0
173,899.0
174,970.0
175,1040.0
176,1034.0
177,1035.5
178,1037.0
179,929.0
180,961.0
181,959.0
182,913.0
183,1082.0
184,1056.0
185,895.0
186,1101.0
187,1106.0
188,840.0
189,1080.0
190,1061.0
191,741.0
192,953.0
193,983.0
194,875.0
195,992.0
196,957.5
197,923.0
198,1068.0
199,1068.0
