time_range,Acceleration_Y
0,1057.0
1,831.0
2,865.0
3,885.0
4,1018.0
5,822.0
6,1316.0
7,924.0
8,1054.0
9,984.0
10,1189.0
11,878.0
12,1001.0
13,983.0
14,947.0
15,945.0
16,1059.0
17,1239.0
18,838.0
19,971.0
20,1098.0
21,885.5
22,991.0
23,766.0
24,886.0
25,954.0
26,864.0
27,960.0
28,1179.0
29,1098.6666666666667
30,1018.3333333333334
31,971.0
32,894.0
33,869.0
34,1091.0
35,948.0
36,988.0
37,1249.0
38,856.0
39,867.8333333333334
40,879.6666666666666
41,891.5
42,845.5
43,1048.0
44,942.0
45,960.0
46,963.0
47,861.0
48,1292.0
49,951.0
50,904.0
51,1211.0
52,1027.0
53,879.0
54,934.0
55,1023.0
56,1030.0
57,1028.0
58,1052.5
59,1049.0
60,1045.5
61,922.0
62,1000.0
63,706.0
64,926.0
65,1016.0
66,913.6666666666666
67,1164.0
68,852.0
69,1361.0
70,1169.0
71,977.0
72,1085.0
73,917.0
74,920.0
75,968.0
76,1034.0
77,1025.0
78,1091.5
79,855.0
80,968.0
81,840.0
82,1135.0
83,929.0
84,757.0
85,959.0
86,982.0
87,899.5
88,1120.0
89,1144.0
90,904.0
91,1231.0
92,911.0
93,1193.0
94,1065.0
95,815.0
96,971.0
97,1068.0
98,982.0
99,1142.0
100,989.0
101,869.0
102,1114.0
103,800.0
104,1085.0
105,828.5
106,901.5
107,974.5
108,894.0
109,1370.0
110,882.0
111,884.0
112,1211.0
113,1051.0
114,809.0
115,922.0
116,910.5
117,965.0
118,1032.0
119,1040.0
120,1156.0
121,931.0
122,1016.0
123,966.0
124,841.5
125,1006.0
126,759.0
127,919.0
128,997.0
129,853.0
130,987.5
131,1122.0
132,918.0
133,1076.0
134,1016.0
135,960.0
136,821.0
137,1109.0
138,963.0
139,1075.0
140,937.0
141,977.4444444444445
142,1017.8888888888888
143,1058.3333333333333
144,1123.0
145,839.0
146,819.0
147,946.5
148,892.75
149,839.0
150,858.0
151,1305.0
152,1107.0
153,909.0
154,1189.0
155,1043.0
156,857.0
157,1028.0
158,1030.0
159,1032.0
160,1070.5
161,1069.0
162,1071.0
163,1073.0
164,989.0
165,996.0
166,867.5
167,982.0
168,1025.0
169,850.0
170,952.0
171,1141.5
172,924.0
173,1322.0
174,906.0
175,1149.0
176,984.0
177,1007.0
178,858.0
179,1030.0
180,1038.5
181,956.0
182,1255.0
183,1053.0
184,1040.0
185,938.0
186,1174.0
187,838.5
188,1077.0
189,887.0
190,808.0
191,1230.0
192,966.0
193,893.0
194,1274.0
195,859.0
196,1253.0
197,1082.0
198,850.0
199,914.0
