time_range,Acceleration_Y
0,925.0
1,1196.0
2,964.0
3,1000.5
4,1077.0
5,1108.0
6,1034.0
7,1089.0
8,1062.0
9,1019.0
10,1181.0
11,1075.0
12,1068.0
13,1024.0
14,1170.0
15,972.8333333333333
16,775.6666666666666
17,814.0
18,698.0
19,855.0
20,812.0
21,876.0
22,1045.0
23,953.5
24,862.0
25,1157.0
26,1015.0
27,1074.0
28,1121.5
29,1169.0
30,1123.5
31,1084.5
32,1185.25
33,1286.0
34,947.0
35,1096.0
36,861.0
37,699.0
38,767.0
39,883.0
40,994.6666666666666
41,1106.3333333333333
42,1011.5
43,1065.0
44,830.0
45,1058.0
46,1106.0
47,959.0
48,1082.0
49,1183.0
50,1010.0
51,1037.0
52,1449.0
53,864.0
54,892.0
55,1217.0
56,904.0
57,1154.0
58,775.0
59,612.0
60,831.0
61,885.0
62,866.0
63,1150.0
64,923.0
65,1037.0
66,1009.5
67,990.5
68,971.5
69,1111.0
70,1072.0
71,1191.0
72,1072.0
73,1462.0
74,779.0
75,1046.0
76,1067.0
77,642.0
78,663.0
79,630.0
80,732.0
81,935.0
82,782.0
83,943.0
84,1101.0
85,980.0
86,1006.0
87,1055.5
88,1098.0
89,1041.0
90,1129.0
91,1112.5
92,1096.0
93,1031.0
94,1240.0
95,1216.0
96,839.0
97,1296.0
98,846.0
99,642.0
100,795.0
101,840.0
102,686.0
103,1039.0
104,1098.0
105,1068.6666666666667
106,831.0
107,1085.0
108,1074.0
109,1014.0
110,1025.5
111,1247.0
112,1077.0
113,1163.0
114,1224.0
115,923.0
116,1136.0
117,1066.25
118,996.5
119,821.0
120,663.0
121,820.0
122,832.0
123,902.0
124,1055.0
125,835.0
126,902.0
127,1045.5
128,1011.0
129,1193.0
130,958.0
131,1003.0
132,1190.0
133,1053.0
134,1096.1666666666665
135,1139.3333333333333
136,1011.0
137,806.0
138,1202.0
139,871.0
140,671.0
141,842.0
142,622.0
143,819.0
144,896.0
145,927.0
146,967.5
147,1053.0
148,1047.5
149,1001.0
150,1119.0
151,1090.0
152,1125.0
153,1104.0
154,1176.0
155,1046.0
156,1364.0
157,908.0
158,872.0
159,1199.0
160,676.0
161,600.0
162,880.0
163,900.0
164,856.0
165,1018.5
166,804.0
167,1167.0
168,940.0
169,992.0
170,1021.5
171,1081.0
172,1049.0
173,1058.0
174,1239.0
175,1045.0
176,1383.0
177,830.0
178,1064.0
179,814.0
180,1170.0
181,1070.5
182,652.0
183,706.0
184,912.0
185,714.0
186,879.5
187,970.0
188,907.5
189,1153.0
190,1040.0
191,1109.0
192,1056.0
193,1003.0
194,1099.5
195,1254.0
196,1125.5
197,1421.0
198,928.0
199,950.5
