time_range,Acceleration_Y
0,1083.0
1,1173.0
2,1041.0
3,1091.0
4,1268.0
5,1048.0
6,1048.0
7,1169.0
8,964.1666666666667
9,759.3333333333334
10,933.0
11,911.5
12,655.0
13,802.0
14,700.0
15,909.5
16,1047.0
17,850.0
18,1003.0
19,1037.0
20,1103.0
21,1068.0
22,1217.0
23,1079.0
24,1213.0
25,1000.0
26,1297.0
27,854.0
28,944.0
29,1140.0
30,728.0
31,687.0
32,795.0
33,722.0
34,863.0
35,1274.0
36,840.0
37,905.0
38,868.0
39,1192.0
40,1120.25
41,1048.5
42,1077.0
43,1338.0
44,974.0
45,1139.0
46,1304.0
47,922.3333333333334
48,1088.0
49,1055.0
50,1022.0
51,878.0
52,745.0
53,790.0
54,754.0
55,1064.0
56,1159.0
57,959.0
58,1077.0
59,1098.0
60,891.0
61,1084.0
62,837.0
63,1142.0
64,1205.0
65,1022.0
66,1034.0
67,1435.0
68,903.0
69,913.0
70,1030.0
71,854.0
72,753.0
73,748.0
74,822.0
75,805.0
76,837.0
77,1029.0
78,994.0
79,1023.5
80,927.0
81,1044.0
82,1077.75
83,1111.5
84,1061.0
85,1117.0
86,974.0
87,1119.8333333333335
88,1265.6666666666667
89,793.0
90,1196.0
91,1016.0
92,629.0
93,738.0
94,857.0
95,827.0
96,920.0
97,1037.0
98,1027.0
99,953.0
100,987.0
101,1078.0
102,971.0
103,1169.0
104,1136.0
105,1125.0
106,1068.5
107,1340.0
108,1012.0
109,855.0
110,1119.0
111,913.0
112,1084.5
113,804.0
114,532.0
115,907.0
116,824.0
117,1164.0
118,1071.5
119,979.0
120,913.0
121,1036.5
122,1036.0
123,1017.5
124,1153.0
125,956.0
126,1292.0
127,1074.0
128,1243.0
129,981.0
130,916.0
131,1064.0
132,939.5
133,675.0
134,706.0
135,708.0
136,835.0
137,667.0
138,922.0
139,1300.0
140,807.0
141,904.0
142,1041.0
143,997.0
144,930.0
145,1291.0
146,1097.0
147,968.0
148,1152.0
149,1053.0
150,1316.0
151,1235.0
152,1154.0
153,981.0
154,800.0
155,783.0
156,691.0
157,799.0
158,1073.5
159,1104.0
160,1097.0
161,844.0
162,1175.0
163,1054.0
164,976.0
165,1109.0
166,1189.0
167,1069.0
168,1028.0
169,1250.0
170,849.0
171,1365.0
172,862.0
173,919.5
174,1020.0
175,728.0
176,738.0
177,820.0
178,819.0
179,939.0
180,971.0
181,1077.0
182,995.0
183,1006.0
184,1092.0
185,898.0
186,1101.0
187,1154.0
188,1105.5
189,1057.0
190,1131.5
191,1308.0
192,762.0
193,1216.0
194,934.0
195,677.0
196,712.0
197,610.0
198,783.0
199,1007.0
