time_range,Acceleration_Y
0,995.0
1,1008.5
2,934.0
3,1008.0
4,1034.0
5,871.0
6,991.0
7,1069.0
8,1035.0
9,943.0
10,1029.0
11,960.0
12,972.3333333333334
13,984.6666666666666
14,997.0
15,1021.75
16,1003.5
17,916.0
18,1120.0
19,934.0
20,956.0
21,1017.0
22,986.0
23,970.0
24,954.0
25,973.5
26,1066.0
27,970.0
28,954.0
29,1012.5
30,1071.0
31,930.0
32,1023.0
33,990.0
34,1017.5
35,1045.0
36,1001.3333333333333
37,957.6666666666666
38,934.0
39,1043.0
40,982.0
41,919.0
42,1063.0
43,1064.0
44,968.0
45,976.0
46,1055.0
47,958.0
48,973.0
49,965.0
50,1044.0
51,979.0
52,970.0
53,1079.0
54,985.0
55,977.0
56,901.0
57,991.0
58,1063.0
59,918.0
60,1069.0
61,1037.0
62,951.0
63,895.0
64,1103.0
65,1008.5
66,928.0
67,1105.0
68,1031.5
69,978.0
70,1004.0
71,962.0
72,1128.0
73,897.0
74,982.0
75,1021.5
76,927.0
77,1065.0
78,1065.0
79,932.3333333333334
80,1051.0
81,963.0
82,984.5
83,1006.0
84,993.0
85,1083.0
86,897.0
87,943.0
88,1088.0
89,902.0
90,962.0
91,1076.0
92,1012.0
93,974.0
94,950.5
95,951.5
96,1035.0
97,896.0
98,1010.0
99,1061.0
100,1002.0
101,934.0
102,1059.0
103,954.0
104,911.0
105,1055.0
106,1011.0
107,1020.0
108,897.0
109,975.0
110,1015.0
111,980.0
112,956.0
113,1031.0
114,874.0
115,906.0625
116,938.125
117,970.1875
118,1002.25
119,939.0
120,1111.0
121,945.0
122,959.0
123,1081.0
124,947.0
125,970.0
126,989.5
127,1009.0
128,925.0
129,1031.0
130,1033.0
131,1002.0
132,971.0
133,911.0
134,1000.5
135,951.0
136,1013.0
137,1025.0
138,986.0
139,1002.0
140,962.0
141,1029.0
142,988.0
143,886.0
144,1004.0
145,1040.5
146,938.0
147,1007.0
148,1019.0
149,997.0
150,976.0
151,979.0
152,1043.0
153,994.0
154,909.0
155,939.0
156,980.0
157,930.5
158,1093.0
159,994.5
160,986.0
161,1091.0
162,1012.0
163,1012.0
164,928.0
165,1004.0
166,1004.0
167,995.0
168,976.0
169,1089.0
170,1014.0
171,896.0
172,1054.0
173,982.0
174,912.0
175,1030.0
176,1048.0
177,974.0
178,873.0
179,995.0
180,1016.0
181,956.0
182,985.0
183,1019.0
184,973.0
185,944.0
186,995.0
187,1044.0
188,971.0
189,855.0
190,1021.0
191,1054.0
192,1008.5
193,1039.0
194,1077.0
195,928.0
196,926.0
197,1037.5
198,1024.0
199,985.0
