time_range,Acceleration_Y
0,991.5
1,931.0
2,1081.0
3,958.0
4,932.0
5,1094.0
6,990.0
7,987.0
8,1000.0
9,1008.0
10,1016.0
11,1002.0
12,1071.0
13,1066.5
14,996.0
15,926.0
16,1041.0
17,1024.5
18,916.0
19,1044.0
20,1015.0
21,1005.5
22,992.0
23,1012.25
24,1032.5
25,975.0
26,1028.0
27,1016.0
28,975.0
29,989.0
30,1017.0
31,1017.5
32,922.0
33,922.0
34,1003.0
35,1008.0
36,1010.5
37,1060.0
38,893.0
39,922.5
40,952.0
41,981.5
42,927.0
43,932.0
44,1071.0
45,1028.0
46,931.5
47,1086.0
48,1034.0
49,884.0
50,935.0
51,1119.0
52,1021.5
53,976.0
54,966.0
55,1034.0
56,1067.0
57,808.0
58,1070.0
59,1129.0
60,862.0
61,940.0
62,1128.0
63,988.0
64,856.0
65,1081.0
66,962.0
67,948.5
68,967.5
69,946.0
70,1116.0
71,899.0
72,905.0
73,1053.0
74,889.0
75,942.3333333333334
76,1031.5
77,974.0
78,916.5
79,975.5833333333334
80,1034.6666666666667
81,1006.0
82,1028.0
83,1015.0
84,959.0
85,876.0
86,1005.0
87,940.0
88,996.0
89,978.0
90,1057.0
91,940.0
92,941.5
93,1036.0
94,991.5
95,957.5
96,1044.0
97,953.0
98,1044.0
99,1037.0
100,927.0
101,920.0
102,976.0
103,903.0
104,1111.0
105,992.0
106,916.5
107,1114.0
108,967.0
109,1016.0
110,1011.0
111,964.25
112,917.5
113,981.0
114,1096.0
115,1059.0
116,1034.5
117,1010.0
118,966.0
119,889.0
120,1114.0
121,971.0
122,1073.0
123,986.0
124,1000.3333333333334
125,1014.6666666666666
126,1029.0
127,1007.0
128,995.0
129,1026.0
130,953.0
131,943.0
132,1057.0
133,1022.0
134,932.0
135,1098.0
136,1031.0
137,960.0
138,1012.0
139,1106.0
140,905.0
141,994.0
142,996.75
143,999.5
144,1004.0
145,938.5
146,994.0
147,1013.0
148,828.0
149,931.0
150,1102.0
151,903.0
152,923.0
153,976.0
154,928.0
155,1015.0
156,984.0
157,1086.0
158,936.5
159,1059.0
160,1101.5
161,918.0
162,947.5
163,1159.0
164,877.0
165,930.0
166,1048.0
167,1001.0
168,1020.0
169,875.0
170,1017.0
171,1045.0
172,926.0
173,980.0
174,969.0
175,959.0
176,830.0
177,1058.0
178,1032.0
179,932.0
180,966.0
181,1037.0
182,1034.0
183,942.0
184,943.0
185,1041.0
186,1039.0
187,1009.0
188,991.0
189,1074.0
190,943.0
191,874.0
192,1107.0
193,958.0
194,993.0
195,1118.0
196,965.0
197,963.0
198,938.3333333333334
199,1083.0
