time_range,Acceleration_Y
0,1103.5
1,915.0
2,1024.0
3,949.0
4,973.0
5,977.0
6,1042.0
7,1104.0
8,897.0
9,965.0
10,1015.5
11,988.0
12,931.5
13,1043.0
14,1096.0
15,853.0
16,1062.0
17,1028.0
18,1007.0
19,939.0
20,941.0
21,956.0
22,955.0
23,960.0
24,1038.0
25,1106.0
26,756.0
27,1047.0
28,1033.0
29,930.0
30,999.5
31,1069.0
32,1108.0
33,901.0
34,1057.0
35,988.0
36,1038.0
37,1037.0
38,1049.5
39,987.5
40,925.5
41,1014.0
42,968.75
43,923.5
44,1181.0
45,1080.0
46,979.0
47,948.0
48,1028.0
49,937.0
50,930.0
51,1144.0
52,1038.0
53,1116.0
54,780.0
55,1014.0
56,1155.0
57,807.0
58,972.0
59,979.0
60,975.0
61,790.0
62,1176.0
63,993.0
64,1006.0
65,951.0
66,939.0
67,1165.0
68,764.0
69,955.0
70,1133.0
71,980.0
72,924.0
73,1142.0
74,1091.0
75,776.0
76,1030.0
77,1008.0
78,1045.0
79,885.0
80,916.0
81,1031.0
82,980.5
83,1054.0
84,1084.0
85,843.0
86,864.0
87,965.5
88,948.0
89,951.0
90,1139.0
91,1021.0
92,888.0
93,1029.0
94,895.0
95,967.0
96,892.0
97,1120.0
98,1086.0
99,977.0
100,920.0
101,949.0
102,955.0
103,818.0
104,990.5
105,1063.0
106,993.0
107,960.0
108,1037.0
109,1154.0
110,907.0
111,1098.0
112,1046.0
113,1042.0
114,947.0
115,1063.0
116,1121.0
117,882.5
118,919.0
119,992.0
120,974.3333333333334
121,1033.0
122,1057.0
123,770.0
124,1107.0
125,935.0
126,1006.0
127,874.0
128,974.0
129,1099.0
130,1014.0
131,968.5
132,923.0
133,976.0
134,1089.0
135,895.0
136,1067.0
137,1047.0
138,1002.0
139,921.0
140,1053.0
141,947.0
142,960.5
143,1123.0
144,1001.0
145,892.0
146,1001.0
147,989.5
148,958.0
149,956.0
150,1026.0
151,1129.0
152,995.5
153,905.0
154,968.0
155,998.0
156,871.0
157,1015.0
158,1007.5
159,904.0
160,959.0
161,959.0
162,1054.0
163,955.0
164,1002.0
165,911.0
166,978.0
167,926.0
168,1160.0
169,875.0
170,813.0
171,1085.0
172,960.0
173,873.0
174,1098.0
175,1108.0
176,817.0
177,1011.0
178,942.0
179,1002.5
180,880.0
181,929.0
182,1118.0
183,1099.0
184,802.0
185,992.0
186,997.0
187,785.0
188,1003.0
189,1106.0
190,1060.0
191,865.0
192,993.0
193,961.0
194,1040.0
195,1051.0
196,993.0
197,1107.0
198,839.0
199,906.0
