time_range,Acceleration_Y
0,1003.0
1,1063.0
2,1164.0
3,996.0
4,1031.0
5,1141.0
6,957.0
7,1079.0
8,1005.0
9,990.0
10,1057.5
11,1039.0
12,1080.5
13,977.0
14,920.0
15,934.5
16,838.0
17,943.0
18,915.0
19,899.0
20,963.5
21,1056.0
22,1119.0
23,1009.0
24,1032.0
25,1055.0
26,1078.0
27,1101.0
28,1074.0
29,892.0
30,950.0
31,907.5
32,865.0
33,1016.0
34,953.0
35,907.0
36,1018.0
37,1174.0
38,894.0
39,1096.0
40,1057.0
41,953.0
42,1112.0
43,992.0
44,1057.0
45,1081.5
46,1069.5
47,1029.0
48,927.0
49,938.0
50,939.0
51,827.0
52,1043.0
53,1026.0
54,1093.0
55,1040.0
56,985.0
57,1031.5
58,973.0
59,1060.0
60,997.0
61,953.0
62,1024.0
63,969.0
64,828.0
65,944.0
66,940.0
67,1017.0
68,951.0
69,1013.0
70,890.0
71,1130.0
72,1017.5
73,905.0
74,928.0
75,1060.0
76,913.0
77,1002.0
78,1025.0
79,988.0
80,752.0
81,1012.0
82,960.0
83,833.0
84,1008.0
85,1005.0
86,1069.0
87,1038.0
88,1021.0
89,1101.0
90,1031.5
91,1133.0
92,1086.8333333333335
93,1040.6666666666667
94,1137.0
95,986.0
96,979.0
97,1071.0
98,862.0
99,1182.0
100,918.0
101,1101.0
102,928.0
103,888.0
104,1036.0
105,974.0
106,1103.0
107,1009.5
108,1098.5
109,955.0
110,916.0
111,1052.0
112,856.0
113,925.5
114,932.0
115,931.0
116,982.0
117,950.0
118,1130.0
119,905.0
120,953.0
121,1129.0
122,895.0
123,1113.0
124,976.0
125,924.0
126,1126.0
127,1028.75
128,931.5
129,933.0
130,963.0
131,1064.0
132,812.0
133,931.0
134,979.0
135,891.0
136,1139.0
137,955.0
138,1015.5
139,1054.0
140,1102.0
141,1016.0
142,1031.0
143,1108.0
144,1087.0
145,1018.0
146,963.5
147,939.0
148,965.0
149,992.0
150,1006.0
151,883.0
152,949.5
153,866.0
154,923.75
155,981.5
156,988.0
157,1158.0
158,1104.5
159,933.0
160,884.0
161,987.0
162,978.0
163,997.0
164,794.0
165,866.0
166,938.0
167,938.0
168,943.0
169,850.0
170,1101.0
171,975.0
172,1000.0
173,1141.0
174,976.0
175,1068.25
176,1160.5
177,1087.0
178,1134.0
179,1007.0
180,1004.0
181,860.0
182,976.0
183,1079.0
184,948.0
185,1125.0
186,1056.0
187,972.0
188,1035.0
189,980.0
190,1096.0
191,1103.0
192,1083.0
193,980.1666666666667
194,877.3333333333334
195,825.0
196,778.0
197,965.5
198,870.0
199,965.0
