time_range,Acceleration_Y
0,824.0
1,945.0
2,945.0
3,873.0
4,895.5
5,918.0
6,1062.0
7,874.5
8,1003.0
9,929.0
10,965.5
11,873.0
12,1138.0
13,1179.0
14,984.0
15,966.0
16,1186.0
17,1141.0
18,787.0
19,982.0
20,1187.0
21,999.0
22,919.0
23,1084.0
24,1121.0
25,844.0
26,921.0
27,969.0
28,1080.0
29,842.0
30,1142.0
31,1103.0
32,900.0
33,948.0
34,961.0
35,1118.0
36,776.0
37,986.0
38,1019.0
39,1010.0
40,1027.0
41,1044.0
42,901.5
43,813.0
44,1068.0
45,1076.0
46,781.0
47,1096.0
48,965.0
49,972.0
50,1125.0
51,1097.0
52,1158.0
53,796.0
54,1199.0
55,906.0
56,1061.0
57,966.0
58,1092.0
59,1204.0
60,710.0
61,856.5
62,860.0
63,933.0
64,907.0
65,1135.0
66,1226.0
67,833.0
68,944.0
69,792.0
70,1035.0
71,907.0
72,1253.0
73,1255.0
74,1012.0
75,935.0
76,1133.0
77,976.0
78,941.5
79,828.0
80,1174.0
81,844.0
82,1070.0
83,1004.0
84,972.0
85,917.0
86,923.0
87,976.1666666666666
88,1029.3333333333333
89,993.0
90,945.0
91,881.0
92,795.0
93,1078.0
94,997.0
95,884.0
96,859.0
97,908.5
98,1167.0
99,630.0
100,1115.0
101,1033.0
102,1016.5
103,877.0
104,1141.0
105,913.0
106,827.0
107,1110.0
108,1042.0
109,1099.0
110,904.0
111,1111.0
112,1131.0
113,904.0
114,1030.5
115,1094.0
116,1046.0
117,1031.0
118,1118.0
119,996.5
120,904.0
121,874.5
122,1074.0
123,715.0
124,1118.0
125,1127.5
126,1153.0
127,922.0
128,916.0
129,1139.0
130,650.0
131,1218.0
132,1077.0
133,1064.0
134,836.0
135,848.0
136,1045.0
137,1060.0
138,929.0
139,1318.0
140,1193.0
141,701.0
142,893.0
143,950.0
144,958.0
145,1123.0
146,1045.0
147,1111.0
148,846.0
149,888.0
150,879.0
151,1029.0
152,1143.0
153,1146.0
154,1195.0
155,767.0
156,852.0
157,932.5
158,982.0
159,1031.5
160,1174.0
161,1052.6666666666667
162,931.3333333333334
163,713.0
164,857.0
165,919.0
166,1067.5
167,1216.0
168,1111.0
169,1006.5
170,902.0
171,1063.0
172,827.0
173,932.0
174,950.8333333333333
175,969.6666666666666
176,922.0
177,1146.0
178,1133.0
179,1120.0
180,900.0
181,1067.0
182,1204.0
183,702.0
184,997.0
185,1117.0
186,1063.0
187,753.0
188,1055.0
189,1230.0
190,701.0
191,955.0
192,993.0
193,1136.0
194,786.0
195,1115.0
196,1126.5
197,913.0
198,1038.0
199,1174.0
