time_range,Acceleration_Y
0,969.5
1,907.0
2,997.0
3,986.0
4,991.0
5,1013.0
6,955.5
7,1158.0
8,902.0
9,997.0
10,1049.0
11,1047.0
12,1115.0
13,1115.0
14,1035.0
15,1104.0
16,1098.0
17,1092.0
18,1080.0
19,1118.0
20,814.0
21,1085.0
22,902.0
23,845.0
24,991.0
25,901.5
26,978.0
27,914.0
28,946.0
29,985.0
30,973.0
31,988.0
32,965.0
33,909.5
34,1127.0
35,989.0
36,1128.0
37,895.0
38,790.0
39,934.5
40,831.0
41,1037.0
42,895.0
43,807.0
44,943.0
45,828.0
46,1005.0
47,1057.0
48,999.0
49,1031.0
50,990.0
51,1063.0
52,1004.0
53,1174.0
54,1050.0
55,926.0
56,1037.6666666666667
57,1022.0
58,1006.0
59,1088.0
60,967.0
61,996.0
62,1037.0
63,1004.0
64,1093.0
65,1015.0
66,1024.0
67,930.0
68,1003.5
69,972.0
70,892.0
71,953.5
72,924.0
73,1007.0
74,907.0
75,871.0
76,983.0
77,963.0
78,979.0
79,1071.0
80,931.0
81,946.0
82,914.0
83,1082.0
84,1042.0
85,950.5
86,1151.0
87,822.0
88,1070.0
89,947.0
90,890.0
91,1010.0
92,954.5
93,1020.0
94,1035.0
95,1016.5
96,998.0
97,1054.6666666666667
98,967.0
99,890.0
100,935.6666666666667
101,981.3333333333334
102,1135.0
103,983.0
104,815.0
105,1123.0
106,1025.0
107,990.0
108,1007.0
109,951.0
110,991.0
111,1002.0
112,1013.0
113,1024.0
114,972.5
115,1053.0
116,990.0
117,1053.0
118,976.0
119,882.0
120,990.0
121,996.0
122,975.0
123,1035.0
124,1009.0
125,1012.0
126,1131.0
127,958.0
128,1018.0
129,1020.0
130,1037.0
131,909.5
132,834.0
133,997.0
134,1023.0
135,949.0
136,884.0
137,962.0
138,915.0
139,956.5
140,982.0
141,964.0
142,1018.5
143,939.0
144,1079.0
145,963.0
146,936.5
147,1142.0
148,880.0
149,1125.0
150,941.0
151,815.0
152,1092.0
153,845.0
154,916.0
155,997.0
156,1006.0
157,1034.0
158,1057.0
159,997.0
160,1012.5
161,931.0
162,1130.0
163,1003.0
164,1055.0
165,1001.0
166,939.0
167,1016.0
168,964.0
169,916.0
170,1031.0
171,1032.0
172,982.0
173,1037.0
174,937.0
175,998.5
176,975.0
177,1074.0
178,981.0
179,999.0
180,907.5
181,1042.0
182,880.0
183,878.5
184,988.0
185,904.0
186,937.0
187,930.0
188,952.0
189,972.5
190,1032.0
191,952.0
192,1044.0
193,992.0
194,1206.0
195,915.0
196,1033.5
197,969.75
198,906.0
199,1132.0
