time_range,Acceleration_Y
0,1098.0
1,1063.0
2,1028.0
3,1085.0
4,793.0
5,1042.0
6,1054.5
7,943.0
8,1181.0
9,836.0
10,1070.0
11,866.0
12,1095.0
13,1094.0
14,931.0
15,1010.5
16,876.0
17,1063.0
18,1053.0
19,920.0
20,1067.0
21,1095.0
22,946.0
23,1137.0
24,799.0
25,1196.0
26,872.0
27,1054.0
28,1019.0
29,860.0
30,1163.0
31,818.0
32,1145.0
33,1022.0
34,904.0
35,1127.0
36,919.0
37,940.0
38,769.0
39,1164.0
40,968.0
41,968.0
42,1026.0
43,755.0
44,968.5
45,826.0
46,983.6666666666666
47,1141.3333333333333
48,1109.0
49,948.0
50,1173.0
51,857.0
52,1037.0
53,950.0
54,1038.0
55,1072.0
56,883.0
57,1122.0
58,770.0
59,1164.0
60,1010.0
61,965.0
62,1101.0
63,981.0
64,981.0
65,1019.0
66,837.0
67,1019.0
68,1035.0
69,992.0
70,1169.0
71,794.0
72,1163.0
73,1052.0
74,941.0
75,1067.0
76,833.0
77,1065.0
78,906.0
79,1009.0
80,994.4
81,979.8
82,1007.0
83,948.0
84,1091.0
85,837.0
86,925.5
87,1014.0
88,1087.0
89,1004.0
90,904.5
91,1204.0
92,801.0
93,1154.0
94,1127.0
95,1017.0
96,1065.0
97,1186.0
98,822.0
99,1044.0
100,887.0
101,1110.0
102,1049.25
103,988.5
104,1102.0
105,766.0
106,1225.0
107,1059.5
108,889.0
109,1048.0
110,1001.0
111,988.0
112,1123.0
113,728.0
114,1008.0
115,901.0
116,1055.5
117,832.0
118,961.0
119,892.5
120,966.0
121,1039.5
122,911.0
123,972.5
124,970.0
125,1037.0
126,1003.0
127,819.0
128,1060.0
129,1053.0
130,986.0
131,1074.0
132,825.0
133,1201.0
134,848.0
135,995.0
136,1148.0
137,845.0
138,1074.0
139,850.0
140,1096.0
141,1068.0
142,967.0
143,1081.0
144,1014.0
145,974.0
146,1135.0
147,976.0
148,1199.0
149,942.0
150,1082.0
151,1089.0
152,828.0
153,981.5
154,829.0
155,738.0
156,994.0
157,986.0
158,1033.0
159,836.0
160,938.5
161,809.0
162,1093.0
163,902.0
164,922.0
165,1068.0
166,873.0
167,1021.0
168,1027.5
169,846.0
170,1056.0
171,999.0
172,949.0
173,1086.0
174,981.0
175,876.0
176,915.0
177,1008.0
178,1041.0
179,902.0
180,1181.0
181,1090.75
182,1000.5
183,1078.0
184,923.0
185,1140.0
186,1011.0
187,1016.0
188,1102.0
189,885.0
190,1012.0
191,978.0
192,978.0
193,1052.0
194,851.0
195,1179.0
196,871.0
197,1209.0
198,1087.0
199,863.0
