time_range,Acceleration_Y
0,1017.0
1,1052.0
2,1030.0
3,1030.0
4,1018.6666666666666
5,1143.0
6,808.0
7,1016.0
8,1043.0
9,1066.5
10,1090.0
11,780.0
12,937.0
13,816.0
14,1182.0
15,1042.0
16,977.0
17,1030.5
18,902.0
19,1020.0
20,1087.0
21,912.0
22,976.0
23,1042.5
24,1109.0
25,1045.3333333333333
26,787.0
27,1230.0
28,1078.5
29,927.0
30,1032.0
31,819.0
32,1141.0
33,990.0
34,1037.0
35,892.0
36,1101.0
37,917.0
38,818.0
39,1089.0
40,737.0
41,1151.0
42,880.0
43,952.0
44,1081.0
45,895.5
46,1187.0
47,993.0
48,1217.0
49,1043.0
50,1053.375
51,1063.75
52,1232.0
53,1012.5
54,988.0
55,893.0
56,1040.0
57,1031.5
58,860.0
59,1067.0
60,925.0
61,1199.0
62,929.0
63,924.5
64,1045.0
65,984.0
66,1003.0
67,1128.0
68,844.0
69,1004.0
70,1012.5
71,1085.5
72,922.75
73,760.0
74,889.5
75,1159.0
76,1043.0
77,912.0
78,1093.0
79,823.0
80,917.5
81,1034.0
82,923.0
83,1058.0
84,1019.0
85,963.0
86,1074.0
87,956.5
88,1175.0
89,1122.3333333333335
90,1069.6666666666667
91,1030.0
92,795.0
93,1201.0
94,893.0
95,1142.0
96,1110.0
97,873.0
98,924.5
99,976.0
100,816.0
101,978.0
102,957.0
103,1025.0
104,1015.5
105,903.0
106,958.0
107,806.0
108,1191.0
109,942.0
110,1057.0
111,1070.0
112,978.0
113,1001.0
114,939.5
115,881.0
116,1032.0
117,946.0
118,1129.0
119,1040.0
120,951.0
121,888.0
122,1002.0
123,972.0
124,856.0
125,1106.0
126,834.0
127,1107.0
128,1077.0
129,923.0
130,1084.0
131,1101.0
132,984.0
133,1151.0
134,850.0
135,920.5
136,946.0
137,1015.0
138,1090.0
139,939.0
140,1243.0
141,813.0
142,1226.0
143,1067.0
144,862.0
145,1131.0
146,823.0
147,1071.0
148,905.0
149,853.0
150,965.0
151,891.0
152,967.0
153,1043.0
154,936.0
155,943.25
156,950.5
157,917.25
158,884.0
159,1158.0
160,1127.0
161,798.0
162,989.0
163,1072.0
164,1002.5
165,1204.0
166,779.0
167,972.0
168,827.0
169,998.0
170,1014.0
171,943.0
172,1134.0
173,892.0
174,1053.0
175,1148.0
176,944.0
177,1112.0
178,1168.0
179,1084.5
180,1071.5
181,773.0
182,1026.0
183,1036.5
184,1049.0
185,1033.0
186,798.0
187,1185.0
188,781.0
189,1146.0
190,1029.0
191,992.75
192,956.5
193,925.5
194,1072.0
195,822.0
196,1020.0
197,978.75
198,937.5
199,937.5
