,Acceleration_X,Acceleration_Y,Acceleration_Z,magnitude,time_stamp
0,-380.0,958.0,-86.0,1034.1953393822655,2021-08-12 09:14:10.918
1,-331.0,954.0,48.0,1010.9307592510972,2021-08-12 09:14:10.922
2,-102.0,954.0,48.0,960.6372884705236,2021-08-12 09:14:10.930
3,-102.0,953.0,51.0,959.7989372780114,2021-08-12 09:14:10.931
4,-95.0,953.0,51.0,959.0802886098744,2021-08-12 09:14:10.940
5,-95.0,968.0,-36.0,973.3164952881464,2021-08-12 09:14:10.941
6,10.0,1167.0,-152.0,1176.8997408445632,2021-08-12 09:14:10.950
7,-98.0,1167.0,-152.0,1180.9305652746905,2021-08-12 09:14:10.959
8,-98.0,1144.0,-137.0,1156.3342942246416,2021-08-12 09:14:10.960
9,-199.0,1144.0,-137.0,1169.2330819815184,2021-08-12 09:14:10.970
10,-199.0,1153.0,-160.0,1180.9360693957992,2021-08-12 09:14:10.971
11,-124.0,1029.0,-10.0,1036.4926434857125,2021-08-12 09:14:10.979
12,-189.0,892.0,-18.0,911.9808112016392,2021-08-12 09:14:10.994
13,-85.0,1096.0,-109.0,1104.6818546531847,2021-08-12 09:14:10.999
14,-281.0,1009.0,-109.0,1053.0541296628585,2021-08-12 09:14:11.008
15,-281.0,1009.0,-213.0,1068.8362830667754,2021-08-12 09:14:11.009
16,-287.0,1009.0,-213.0,1070.429353110237,2021-08-12 09:14:11.019
17,-287.0,1070.0,-162.0,1119.6039478315536,2021-08-12 09:14:11.020
18,-370.0,996.0,-162.0,1074.783699169279,2021-08-12 09:14:11.029
19,-370.0,996.0,-64.0,1064.4303640915173,2021-08-12 09:14:11.030
20,-366.0,1022.0,-129.0,1093.1976033636372,2021-08-12 09:14:11.038
21,-345.0,871.0,32.0,937.3846595715124,2021-08-12 09:14:11.048
22,-296.0,876.0,100.0,930.049461050325,2021-08-12 09:14:11.057
23,-219.0,983.0,-36.0,1007.7430227989672,2021-08-12 09:14:11.067
24,-284.0,983.0,-36.0,1023.8364127144532,2021-08-12 09:14:11.077
25,-284.0,825.0,172.0,889.3059091223897,2021-08-12 09:14:11.078
26,-229.0,825.0,172.0,873.2983453551254,2021-08-12 09:14:11.086
27,-229.0,893.0,-53.0,923.4170238846584,2021-08-12 09:14:11.087
28,-93.0,972.0,-89.0,980.4866138810872,2021-08-12 09:14:11.097
29,-287.0,931.0,-130.0,982.8682515983512,2021-08-12 09:14:11.106
30,-222.0,931.0,-130.0,965.8907805751124,2021-08-12 09:14:11.116
31,-222.0,1032.0,-150.0,1066.2119864267142,2021-08-12 09:14:11.117
32,-100.0,1032.0,-150.0,1047.6277965002646,2021-08-12 09:14:11.126
33,-100.0,943.0,-9.0,948.330111300912,2021-08-12 09:14:11.127
34,-20.0,943.0,-9.0,943.2550026371448,2021-08-12 09:14:11.135
35,-20.0,1018.0,26.0,1018.5283501208988,2021-08-12 09:14:11.136
36,-20.0,1037.0,0.0,1037.192846099509,2021-08-12 09:14:11.145
37,-149.0,1001.0,-86.0,1015.6761294822282,2021-08-12 09:14:11.155
38,-2.0,1145.0,-81.0,1147.863232271162,2021-08-12 09:14:11.164
39,-258.0,920.0,-81.0,958.918661826956,2021-08-12 09:14:11.182
40,-258.0,920.0,-162.0,969.1274425997852,2021-08-12 09:14:11.183
41,-354.0,1092.0,-162.0,1159.3204906323358,2021-08-12 09:14:11.185
42,-354.0,1092.0,-187.0,1163.0773834960423,2021-08-12 09:14:11.186
43,-236.0,1125.0,-109.0,1154.6436679772685,2021-08-12 09:14:11.194
44,-340.0,1017.0,-99.0,1076.8890379235922,2021-08-12 09:14:11.205
45,-345.0,1012.0,-116.0,1075.46501570251,2021-08-12 09:14:11.213
46,-345.0,986.0,-13.0,1044.6961280678702,2021-08-12 09:14:11.223
47,-351.0,1003.0,-126.0,1070.086912358057,2021-08-12 09:14:11.233
48,-539.0,998.0,-126.0,1141.2278475396577,2021-08-12 09:14:11.243
49,-539.0,998.0,-94.0,1138.1392709154711,2021-08-12 09:14:11.244
50,-293.0,1053.0,-23.0,1093.2460839170658,2021-08-12 09:14:11.253
51,-29.0,1031.0,-79.0,1034.428827904559,2021-08-12 09:14:11.262
52,33.0,936.0,53.0,938.0799539484894,2021-08-12 09:14:11.272
53,-46.0,1016.0,-52.0,1018.3692846899892,2021-08-12 09:14:11.282
54,44.0,1016.0,-52.0,1018.2809042695438,2021-08-12 09:14:11.297
55,44.0,1057.0,0.0,1057.9154030450638,2021-08-12 09:14:11.298
56,-10.0,916.0,52.0,917.5292910855762,2021-08-12 09:14:11.302
57,-79.0,1110.0,-106.0,1117.8448013923935,2021-08-12 09:14:11.312
58,-196.0,1016.0,-89.0,1038.553320730332,2021-08-12 09:14:11.322
59,-67.0,1016.0,-89.0,1022.089037217404,2021-08-12 09:14:11.336
60,-67.0,1035.0,-40.0,1037.9373776871128,2021-08-12 09:14:11.337
61,-85.0,1114.0,-154.0,1127.8018442971263,2021-08-12 09:14:11.347
62,-203.0,1030.0,-99.0,1054.4714315712872,2021-08-12 09:14:11.350
63,-27.0,1182.0,-99.0,1186.4459532570372,2021-08-12 09:14:11.360
64,-27.0,1182.0,-98.0,1186.3629292927185,2021-08-12 09:14:11.361
65,-48.0,930.0,-164.0,945.568612000208,2021-08-12 09:14:11.370
66,-258.0,1080.0,-203.0,1128.7927179070566,2021-08-12 09:14:11.380
67,-97.0,1080.0,-203.0,1103.185387865521,2021-08-12 09:14:11.390
68,-97.0,936.0,33.0,941.5912064160328,2021-08-12 09:14:11.391
69,-442.0,850.0,122.0,965.788796787372,2021-08-12 09:14:11.399
70,-245.0,875.0,122.0,916.806413590132,2021-08-12 09:14:11.409
71,-245.0,875.0,64.0,910.9039466376244,2021-08-12 09:14:11.410
72,-63.0,942.0,60.0,946.0089851581748,2021-08-12 09:14:11.419
73,-232.0,898.0,-47.0,928.67486237111,2021-08-12 09:14:11.428
74,-140.0,885.0,-1.0,896.0055803397655,2021-08-12 09:14:11.440
75,-112.0,857.0,65.0,866.7283311395792,2021-08-12 09:14:11.448
76,-201.0,857.0,65.0,882.6522531552276,2021-08-12 09:14:11.457
77,-201.0,1009.0,-159.0,1041.0393844615105,2021-08-12 09:14:11.458
78,-146.0,917.0,173.0,944.52845377998,2021-08-12 09:14:11.468
79,-74.0,907.0,95.0,914.9590154755568,2021-08-12 09:14:11.477
80,-136.0,1012.0,-160.0,1033.5569650483712,2021-08-12 09:14:11.488
81,-36.0,741.0,187.0,765.0790808798787,2021-08-12 09:14:11.497
82,-40.0,1107.0,187.0,1123.3957450515825,2021-08-12 09:14:11.506
83,-40.0,1107.0,-70.0,1109.9319798978674,2021-08-12 09:14:11.507
84,-1.0,1107.0,-70.0,1109.211431603551,2021-08-12 09:14:11.516
85,-1.0,1044.0,-20.0,1044.192032147344,2021-08-12 09:14:11.517
86,-256.0,1014.0,-49.0,1046.9637051970808,2021-08-12 09:14:11.526
87,-244.0,1095.0,-136.0,1130.069466891306,2021-08-12 09:14:11.536
88,-239.0,962.0,-157.0,1003.6005181345812,2021-08-12 09:14:11.546
89,-257.0,1008.0,-159.0,1052.3278956675051,2021-08-12 09:14:11.555
90,-458.0,1047.0,-159.0,1153.7998093256906,2021-08-12 09:14:11.565
91,-458.0,1047.0,-96.0,1146.8168990732563,2021-08-12 09:14:11.566
92,-409.0,1038.0,17.0,1115.8019537534428,2021-08-12 09:14:11.575
93,-160.0,1038.0,17.0,1050.3965917690327,2021-08-12 09:14:11.584
94,-160.0,1003.0,-33.0,1016.217496405174,2021-08-12 09:14:11.585
95,-298.0,935.0,-33.0,981.895106414122,2021-08-12 09:14:11.595
96,-298.0,935.0,-98.0,986.2215775372184,2021-08-12 09:14:11.596
97,-243.0,932.0,-87.0,967.0791074157274,2021-08-12 09:14:11.604
98,-244.0,904.0,108.0,942.5582210134288,2021-08-12 09:14:11.614
99,-431.0,838.0,108.0,948.508829690056,2021-08-12 09:14:11.623
100,-431.0,838.0,46.0,943.4622408978538,2021-08-12 09:14:11.624
101,-286.0,898.0,-20.0,942.6558226627576,2021-08-12 09:14:11.633
102,-93.0,960.0,-49.0,965.7380597242712,2021-08-12 09:14:11.644
103,30.0,1008.0,-27.0,1008.8077121037488,2021-08-12 09:14:11.653
104,-82.0,1036.0,-66.0,1041.3337601364897,2021-08-12 09:14:11.663
105,-142.0,974.0,0.0,984.2967032353608,2021-08-12 09:14:11.673
106,-22.0,1220.0,-139.0,1228.0899804167443,2021-08-12 09:14:11.682
107,12.0,913.0,-81.0,916.66460605829,2021-08-12 09:14:11.693
108,-111.0,1036.0,-178.0,1057.0245976324295,2021-08-12 09:14:11.703
109,-53.0,1185.0,-139.0,1194.3010508242885,2021-08-12 09:14:11.711
110,-14.0,1017.0,-139.0,1026.5505345573592,2021-08-12 09:14:11.721
111,-14.0,1017.0,-2.0,1017.0983236639416,2021-08-12 09:14:11.722
112,-273.0,1081.0,-112.0,1120.5507574402866,2021-08-12 09:14:11.731
113,-332.0,991.0,-50.0,1046.329298070163,2021-08-12 09:14:11.741
114,-145.0,1111.0,-50.0,1121.5373377645526,2021-08-12 09:14:11.751
115,-145.0,1111.0,-198.0,1137.782931845965,2021-08-12 09:14:11.752
116,-472.0,1116.0,-168.0,1223.3004536907522,2021-08-12 09:14:11.761
117,-292.0,1003.0,-168.0,1058.0628525754034,2021-08-12 09:14:11.770
118,-292.0,1003.0,-67.0,1046.7865111855426,2021-08-12 09:14:11.771
119,-230.0,965.0,-77.0,995.0145727576054,2021-08-12 09:14:11.780
120,-225.0,950.0,126.0,984.3784841208184,2021-08-12 09:14:11.790
121,-96.0,923.0,55.0,929.6074440321572,2021-08-12 09:14:11.800
122,-88.0,968.0,-90.0,976.1495787019528,2021-08-12 09:14:11.810
123,-181.0,819.0,129.0,848.6241806594954,2021-08-12 09:14:11.819
124,-61.0,1000.0,-2.0,1001.8607687697928,2021-08-12 09:14:11.829
125,31.0,1000.0,-2.0,1000.4823836530056,2021-08-12 09:14:11.838
126,31.0,963.0,57.0,965.183402260938,2021-08-12 09:14:11.839
127,3.0,992.0,-12.0,992.077113938226,2021-08-12 09:14:11.849
128,39.0,1015.0,-12.0,1015.8198659211188,2021-08-12 09:14:11.859
129,39.0,1015.0,-16.0,1015.8749923095852,2021-08-12 09:14:11.860
130,-85.0,991.0,16.0,994.7673094749345,2021-08-12 09:14:11.868
131,-58.0,1115.0,16.0,1116.6221384156772,2021-08-12 09:14:11.877
132,-58.0,1115.0,-98.0,1120.8001605995605,2021-08-12 09:14:11.878
133,22.0,876.0,-10.0,876.3332699378701,2021-08-12 09:14:11.888
134,-83.0,1042.0,-150.0,1056.0080492117472,2021-08-12 09:14:11.897
135,-173.0,1053.0,-60.0,1068.802133231404,2021-08-12 09:14:11.908
136,-401.0,1060.0,-216.0,1153.7144360715956,2021-08-12 09:14:11.917
137,-271.0,1013.0,-125.0,1056.0468739596745,2021-08-12 09:14:11.940
138,-271.0,1010.0,33.0,1046.245669047189,2021-08-12 09:14:11.942
139,-356.0,882.0,1.0,951.1366883892136,2021-08-12 09:14:11.946
140,-346.0,943.0,-30.0,1004.9203948572246,2021-08-12 09:14:11.956
141,-285.0,859.0,116.0,912.448354702884,2021-08-12 09:14:11.967
142,-270.0,971.0,-38.0,1008.5558983021218,2021-08-12 09:14:11.975
143,-119.0,898.0,134.0,915.707922866238,2021-08-12 09:14:11.985
144,-152.0,918.0,1.0,930.499328317866,2021-08-12 09:14:11.996
145,-242.0,934.0,1.0,964.84247418944,2021-08-12 09:14:12.004
146,-242.0,934.0,-78.0,967.9896693663626,2021-08-12 09:14:12.005
147,-271.0,914.0,132.0,962.4245424967093,2021-08-12 09:14:12.015
148,-90.0,1036.0,-28.0,1040.2788087815688,2021-08-12 09:14:12.024
149,-38.0,916.0,-28.0,917.2153509400068,2021-08-12 09:14:12.034
150,-38.0,916.0,144.0,928.028016818458,2021-08-12 09:14:12.035
151,-107.0,937.0,144.0,954.0199159346728,2021-08-12 09:14:12.044
152,-107.0,937.0,-21.0,943.3233803950797,2021-08-12 09:14:12.045
153,-281.0,1101.0,-213.0,1156.0843394839324,2021-08-12 09:14:12.053
154,-415.0,1049.0,-126.0,1135.1220198727535,2021-08-12 09:14:12.063
155,-226.0,1026.0,-92.0,1054.6165179817733,2021-08-12 09:14:12.073
156,-549.0,1026.0,-92.0,1167.279315331168,2021-08-12 09:14:12.082
157,-549.0,1077.0,-141.0,1217.0501222217597,2021-08-12 09:14:12.083
158,-402.0,1018.0,-12.0,1094.5647536806582,2021-08-12 09:14:12.093
159,-78.0,1151.0,-60.0,1155.1991170356737,2021-08-12 09:14:12.102
160,-344.0,942.0,-118.0,1009.764328940174,2021-08-12 09:14:12.112
161,-435.0,942.0,-118.0,1044.2763044328833,2021-08-12 09:14:12.122
162,-435.0,1092.0,-275.0,1207.1926109780493,2021-08-12 09:14:12.123
163,-272.0,1057.0,-18.0,1091.5846279606542,2021-08-12 09:14:12.132
164,-395.0,1052.0,-137.0,1132.0326850404983,2021-08-12 09:14:12.142
165,-365.0,927.0,-48.0,997.4256864548856,2021-08-12 09:14:12.152
166,-342.0,941.0,-82.0,1004.5740390832324,2021-08-12 09:14:12.161
167,-1.0,993.0,-8.0,993.0327285643712,2021-08-12 09:14:12.170
168,-85.0,1019.0,-104.0,1027.814185541336,2021-08-12 09:14:12.180
169,-189.0,986.0,34.0,1004.5262565010432,2021-08-12 09:14:12.198
170,-53.0,986.0,34.0,988.0086032014094,2021-08-12 09:14:12.201
171,-53.0,1141.0,-80.0,1145.028383927665,2021-08-12 09:14:12.202
172,20.0,930.0,53.0,931.7236714820548,2021-08-12 09:14:12.209
173,81.0,1044.0,-125.0,1054.5719510777822,2021-08-12 09:14:12.219
174,-1.0,1229.0,-135.0,1236.3927369569913,2021-08-12 09:14:12.230
175,-134.0,884.0,32.0,894.670889210105,2021-08-12 09:14:12.239
176,-225.0,1057.0,-132.0,1088.7139201828918,2021-08-12 09:14:12.248
177,-234.0,1033.0,-112.0,1065.0769925221368,2021-08-12 09:14:12.259
178,-170.0,1100.0,-136.0,1121.336702333425,2021-08-12 09:14:12.268
179,-374.0,1100.0,-136.0,1169.7743372120967,2021-08-12 09:14:12.278
180,-374.0,1118.0,-185.0,1193.3251861919282,2021-08-12 09:14:12.279
181,-254.0,889.0,134.0,934.233910752548,2021-08-12 09:14:12.288
182,-264.0,1026.0,-29.0,1059.8174371088635,2021-08-12 09:14:12.298
183,-264.0,899.0,62.0,939.0106495668726,2021-08-12 09:14:12.308
184,-189.0,884.0,62.0,906.1020913782288,2021-08-12 09:14:12.321
185,-189.0,884.0,29.0,904.443475292956,2021-08-12 09:14:12.322
186,-211.0,856.0,-58.0,883.5275887033749,2021-08-12 09:14:12.327
187,-251.0,866.0,151.0,914.1980091861938,2021-08-12 09:14:12.337
188,-78.0,966.0,-28.0,969.5483484592196,2021-08-12 09:14:12.363
189,-78.0,921.0,233.0,953.2124632000988,2021-08-12 09:14:12.365
190,-39.0,905.0,98.0,911.1256773903368,2021-08-12 09:14:12.369
191,53.0,1063.0,98.0,1068.8227168244507,2021-08-12 09:14:12.376
192,53.0,1063.0,-1.0,1064.3209102521664,2021-08-12 09:14:12.377
193,-16.0,923.0,40.0,924.0048701170356,2021-08-12 09:14:12.385
194,-35.0,1095.0,-126.0,1102.781029942028,2021-08-12 09:14:12.395
195,37.0,1005.0,83.0,1009.1000941432916,2021-08-12 09:14:12.405
196,-57.0,1005.0,83.0,1010.0311876372928,2021-08-12 09:14:12.415
197,-57.0,1028.0,-103.0,1034.718319157441,2021-08-12 09:14:12.416
198,-64.0,1095.0,-52.0,1098.10063291121,2021-08-12 09:14:12.425
199,-345.0,1003.0,-156.0,1072.0867502212682,2021-08-12 09:14:12.434
200,-456.0,1054.0,-126.0,1155.3042889213214,2021-08-12 09:14:12.444
201,-271.0,969.0,70.0,1008.6139003602916,2021-08-12 09:14:12.454
202,-354.0,935.0,-49.0,1000.9705290366944,2021-08-12 09:14:12.464
203,-401.0,941.0,-23.0,1023.1378206282866,2021-08-12 09:14:12.475
204,-312.0,905.0,6.0,957.2904470431114,2021-08-12 09:14:12.483
205,-341.0,968.0,-119.0,1033.1824621043468,2021-08-12 09:14:12.493
206,-324.0,968.0,-119.0,1027.6969397638586,2021-08-12 09:14:12.502
207,-324.0,881.0,32.0,939.234262577766,2021-08-12 09:14:12.503
208,-232.0,866.0,128.0,905.6290631378832,2021-08-12 09:14:12.514
209,-84.0,919.0,-6.0,922.850475429254,2021-08-12 09:14:12.523
210,-293.0,908.0,44.0,955.1172702867434,2021-08-12 09:14:12.533
211,-231.0,941.0,-21.0,969.1661364286311,2021-08-12 09:14:12.542
212,40.0,1169.0,-97.0,1173.6992800543076,2021-08-12 09:14:12.551
213,-58.0,833.0,110.0,842.2309659469901,2021-08-12 09:14:12.562
214,-161.0,1191.0,-170.0,1213.7965233102293,2021-08-12 09:14:12.571
215,-287.0,1116.0,-148.0,1161.778378177181,2021-08-12 09:14:12.582
216,-141.0,1095.0,-148.0,1113.916513927323,2021-08-12 09:14:12.590
217,-141.0,1095.0,-102.0,1108.742530978225,2021-08-12 09:14:12.591
218,-258.0,1118.0,-177.0,1160.9552101610122,2021-08-12 09:14:12.600
219,-247.0,1008.0,-107.0,1043.3225771543523,2021-08-12 09:14:12.610
220,-83.0,1008.0,-107.0,1017.0555540382246,2021-08-12 09:14:12.620
221,-83.0,1153.0,-71.0,1158.1619057800165,2021-08-12 09:14:12.621
222,-269.0,871.0,-154.0,924.5095997338263,2021-08-12 09:14:12.630
223,-330.0,1119.0,-255.0,1194.188427343022,2021-08-12 09:14:12.640
224,-145.0,1123.0,-37.0,1132.9267407913012,2021-08-12 09:14:12.649
225,-322.0,957.0,-61.0,1011.5601811063937,2021-08-12 09:14:12.659
226,-273.0,1011.0,-61.0,1048.985700569841,2021-08-12 09:14:12.669
227,-273.0,1011.0,-94.0,1051.4209432953105,2021-08-12 09:14:12.670
228,-296.0,956.0,-42.0,1001.656627792179,2021-08-12 09:14:12.679
229,-150.0,910.0,7.0,922.3063482379376,2021-08-12 09:14:12.689
230,29.0,951.0,-29.0,951.8839214946328,2021-08-12 09:14:12.698
231,-110.0,887.0,168.0,909.4465349870766,2021-08-12 09:14:12.708
232,-51.0,1065.0,-101.0,1070.993464032344,2021-08-12 09:14:12.720
233,-7.0,973.0,79.0,976.226920341782,2021-08-12 09:14:12.727
234,-142.0,935.0,29.0,946.16594738978,2021-08-12 09:14:12.738
235,-97.0,1120.0,-69.0,1126.3081283556469,2021-08-12 09:14:12.747
236,14.0,879.0,59.0,881.0890987862691,2021-08-12 09:14:12.756
237,-85.0,1116.0,-107.0,1124.3353592233948,2021-08-12 09:14:12.766
238,-168.0,1116.0,-107.0,1133.635302908303,2021-08-12 09:14:12.776
239,-168.0,1041.0,-51.0,1055.701662402783,2021-08-12 09:14:12.777
240,-24.0,1080.0,-8.0,1080.2962556632324,2021-08-12 09:14:12.786
241,-120.0,1103.0,-115.0,1115.452374599651,2021-08-12 09:14:12.796
242,-209.0,1047.0,-66.0,1069.6943488679372,2021-08-12 09:14:12.805
243,-351.0,1025.0,-134.0,1091.6876842760478,2021-08-12 09:14:12.816
244,-495.0,925.0,-134.0,1057.641716272576,2021-08-12 09:14:12.825
245,-495.0,925.0,-33.0,1049.6375564927162,2021-08-12 09:14:12.826
246,-211.0,857.0,43.0,883.6396324294197,2021-08-12 09:14:12.835
247,-211.0,1015.0,-118.0,1043.393501992417,2021-08-12 09:14:12.845
248,-442.0,895.0,74.0,1000.9320656268336,2021-08-12 09:14:12.854
249,-285.0,859.0,33.0,905.6461781512688,2021-08-12 09:14:12.865
250,-248.0,909.0,30.0,942.7009069689072,2021-08-12 09:14:12.874
251,-369.0,877.0,30.0,951.9401241674816,2021-08-12 09:14:12.883
252,-369.0,877.0,-17.0,951.6191465076772,2021-08-12 09:14:12.884
253,-157.0,925.0,57.0,939.9590416608588,2021-08-12 09:14:12.894
254,-242.0,956.0,94.0,990.6240457408652,2021-08-12 09:14:12.903
255,-149.0,956.0,94.0,972.097217360486,2021-08-12 09:14:12.912
256,-149.0,960.0,-16.0,971.6259568373008,2021-08-12 09:14:12.913
257,-77.0,885.0,123.0,896.8182647560207,2021-08-12 09:14:12.924
258,-119.0,931.0,-6.0,938.5936287872404,2021-08-12 09:14:12.933
259,33.0,1181.0,-37.0,1182.0401854421025,2021-08-12 09:14:12.958
260,-320.0,1134.0,-134.0,1185.8802637703352,2021-08-12 09:14:12.963
261,-126.0,1099.0,-34.0,1106.7217355776477,2021-08-12 09:14:12.971
262,-232.0,1023.0,-69.0,1051.244024953293,2021-08-12 09:14:12.983
263,-257.0,1131.0,-162.0,1171.0909443762257,2021-08-12 09:14:12.991
264,-400.0,982.0,-113.0,1066.3456287714598,2021-08-12 09:14:13.001
265,-383.0,935.0,-113.0,1016.702021243196,2021-08-12 09:14:13.010
266,-383.0,935.0,-153.0,1021.9212298411262,2021-08-12 09:14:13.011
267,-581.0,1030.0,-113.0,1187.9520192331,2021-08-12 09:14:13.021
268,-473.0,1030.0,-113.0,1139.0338010787916,2021-08-12 09:14:13.031
269,-473.0,1010.0,-40.0,1115.9879031602447,2021-08-12 09:14:13.032
270,-253.0,1015.0,-49.0,1047.2034186346032,2021-08-12 09:14:13.040
271,-431.0,957.0,-49.0,1050.7192774475968,2021-08-12 09:14:13.049
272,-431.0,957.0,-80.0,1052.6205394157953,2021-08-12 09:14:13.050
273,-268.0,952.0,-86.0,992.7356143505682,2021-08-12 09:14:13.059
274,-31.0,1090.0,-44.0,1091.3280899894403,2021-08-12 09:14:13.069
275,70.0,870.0,-44.0,873.9199047967726,2021-08-12 09:14:13.079
276,70.0,870.0,89.0,877.3374493317837,2021-08-12 09:14:13.080
277,48.0,1110.0,-39.0,1111.7216378212668,2021-08-12 09:14:13.089
278,-40.0,996.0,3.0,996.8074036643188,2021-08-12 09:14:13.098
279,65.0,1084.0,-59.0,1087.5486196028205,2021-08-12 09:14:13.108
280,20.0,1016.0,-14.0,1016.2932647617024,2021-08-12 09:14:13.118
281,-185.0,1025.0,-21.0,1041.773007905273,2021-08-12 09:14:13.128
282,-9.0,1232.0,-63.0,1233.642573843818,2021-08-12 09:14:13.139
283,-123.0,1054.0,-127.0,1068.725409073818,2021-08-12 09:14:13.147
284,-304.0,1057.0,-154.0,1110.576877122876,2021-08-12 09:14:13.157
285,-71.0,1145.0,-80.0,1149.985217296292,2021-08-12 09:14:13.167
286,-186.0,966.0,-48.0,984.9142094619206,2021-08-12 09:14:13.176
287,-320.0,1104.0,-142.0,1158.179606106065,2021-08-12 09:14:13.188
288,-282.0,905.0,111.0,954.395096383044,2021-08-12 09:14:13.196
289,-300.0,837.0,55.0,890.8389304470253,2021-08-12 09:14:13.206
290,-72.0,856.0,35.0,859.7354244184661,2021-08-12 09:14:13.222
291,8.0,852.0,35.0,852.7561198842258,2021-08-12 09:14:13.225
292,8.0,852.0,39.0,852.9296571230244,2021-08-12 09:14:13.226
293,-164.0,1008.0,-95.0,1025.6632000808063,2021-08-12 09:14:13.235
294,-102.0,1008.0,-95.0,1017.591764903785,2021-08-12 09:14:13.245
295,-102.0,946.0,149.0,963.0789168079632,2021-08-12 09:14:13.246
296,-78.0,972.0,42.0,976.0286881029676,2021-08-12 09:14:13.255
297,-39.0,1019.0,-109.0,1025.5549717104393,2021-08-12 09:14:13.264
298,-64.0,895.0,105.0,903.4079919947576,2021-08-12 09:14:13.274
299,49.0,895.0,105.0,902.4693900626214,2021-08-12 09:14:13.285
300,49.0,1022.0,-3.0,1023.1783813196992,2021-08-12 09:14:13.286
301,-65.0,1001.0,12.0,1003.179943978148,2021-08-12 09:14:13.295
302,0.0,1007.0,12.0,1007.0714969653346,2021-08-12 09:14:13.303
303,0.0,1007.0,17.0,1007.1434853088214,2021-08-12 09:14:13.304
304,-36.0,997.0,-52.0,999.00400399598,2021-08-12 09:14:13.313
305,-101.0,1044.0,-52.0,1050.1623683983348,2021-08-12 09:14:13.325
306,-101.0,1044.0,-18.0,1049.0285982755663,2021-08-12 09:14:13.326
307,-290.0,922.0,-102.0,971.8991717251332,2021-08-12 09:14:13.333
308,-573.0,1078.0,-144.0,1229.288005310391,2021-08-12 09:14:13.343
309,-441.0,1005.0,-58.0,1099.0313917263693,2021-08-12 09:14:13.352
310,-168.0,1007.0,-12.0,1020.9882467491974,2021-08-12 09:14:13.362
311,-336.0,950.0,-12.0,1007.7400458451574,2021-08-12 09:14:13.377
312,-336.0,950.0,-103.0,1012.9190490853648,2021-08-12 09:14:13.378
313,-303.0,951.0,-83.0,1001.5483013814162,2021-08-12 09:14:13.388
314,-444.0,992.0,-12.0,1086.8964992123215,2021-08-12 09:14:13.391
315,-412.0,992.0,-12.0,1074.2215786326394,2021-08-12 09:14:13.401
316,-412.0,902.0,14.0,991.737868592301,2021-08-12 09:14:13.402
317,-209.0,902.0,14.0,926.0026997800816,2021-08-12 09:14:13.410
318,-209.0,887.0,42.0,912.2576390472155,2021-08-12 09:14:13.411
319,-277.0,835.0,110.0,886.596864420352,2021-08-12 09:14:13.421
320,-241.0,1025.0,110.0,1058.681255147176,2021-08-12 09:14:13.430
321,-241.0,1025.0,-30.0,1053.3783745644298,2021-08-12 09:14:13.431
322,-169.0,932.0,74.0,950.08473306332,2021-08-12 09:14:13.440
323,-100.0,880.0,74.0,888.7496835442474,2021-08-12 09:14:13.450
324,-100.0,880.0,52.0,887.1888186851771,2021-08-12 09:14:13.451
325,0.0,1217.0,-115.0,1222.4213676142936,2021-08-12 09:14:13.460
326,-71.0,932.0,-60.0,936.6242576401702,2021-08-12 09:14:13.470
327,-209.0,996.0,-111.0,1023.727502805312,2021-08-12 09:14:13.479
328,10.0,1199.0,-85.0,1202.0507476808125,2021-08-12 09:14:13.489
329,-93.0,988.0,-35.0,992.9843906124609,2021-08-12 09:14:13.498
330,-284.0,1069.0,-113.0,1111.8390171243318,2021-08-12 09:14:13.508
331,-269.0,1069.0,-113.0,1108.1024320882975,2021-08-12 09:14:13.519
332,-269.0,1069.0,-144.0,1111.6915039704136,2021-08-12 09:14:13.520
333,-198.0,1021.0,-144.0,1049.9433318041504,2021-08-12 09:14:13.528
334,-198.0,1021.0,-115.0,1046.3603585763367,2021-08-12 09:14:13.529
335,-308.0,1045.0,-173.0,1103.0947375452392,2021-08-12 09:14:13.537
336,-368.0,1084.0,-183.0,1159.2967695978457,2021-08-12 09:14:13.548
337,-115.0,1084.0,-183.0,1105.3370526676467,2021-08-12 09:14:13.557
338,-115.0,1084.0,-67.0,1092.14010090281,2021-08-12 09:14:13.558
339,-467.0,948.0,-106.0,1062.0870962402282,2021-08-12 09:14:13.568
340,-478.0,1005.0,-35.0,1113.4334286341505,2021-08-12 09:14:13.578
341,-192.0,1005.0,-35.0,1023.7743892088724,2021-08-12 09:14:13.586
342,-192.0,982.0,-118.0,1007.5276671139112,2021-08-12 09:14:13.587
343,-103.0,919.0,79.0,928.1222979758649,2021-08-12 09:14:13.596
344,-86.0,919.0,79.0,926.389766782859,2021-08-12 09:14:13.606
345,-86.0,1022.0,-99.0,1030.3790564641731,2021-08-12 09:14:13.607
346,-74.0,944.0,83.0,950.5266961006408,2021-08-12 09:14:13.616
347,-42.0,944.0,83.0,948.572084767415,2021-08-12 09:14:13.625
348,-42.0,927.0,25.0,928.2876709296532,2021-08-12 09:14:13.626
349,53.0,965.0,50.0,967.7468677293664,2021-08-12 09:14:13.636
350,-138.0,904.0,119.0,922.1827367718396,2021-08-12 09:14:13.645
351,-106.0,1077.0,-23.0,1082.4481511832334,2021-08-12 09:14:13.655
352,51.0,985.0,109.0,992.3240398176396,2021-08-12 09:14:13.664
353,3.0,985.0,109.0,991.0171542410352,2021-08-12 09:14:13.674
354,3.0,1081.0,-64.0,1082.8970403505589,2021-08-12 09:14:13.675
355,-30.0,1212.0,-62.0,1213.9555181307098,2021-08-12 09:14:13.684
356,-59.0,911.0,25.0,913.2507870240244,2021-08-12 09:14:13.694
357,-227.0,1111.0,-129.0,1141.2672780729324,2021-08-12 09:14:13.704
358,-273.0,1045.0,0.0,1080.071293943136,2021-08-12 09:14:13.714
359,-397.0,894.0,0.0,978.1845429161104,2021-08-12 09:14:13.726
360,-397.0,894.0,-40.0,979.002042898788,2021-08-12 09:14:13.727
361,-320.0,904.0,-22.0,959.218431849597,2021-08-12 09:14:13.734
362,-298.0,880.0,61.0,931.0880731703096,2021-08-12 09:14:13.743
363,-289.0,1019.0,-80.0,1062.206194672202,2021-08-12 09:14:13.753
364,-328.0,953.0,40.0,1008.6590107662748,2021-08-12 09:14:13.763
365,-154.0,1013.0,40.0,1025.4194263812246,2021-08-12 09:14:13.772
366,-154.0,1013.0,-56.0,1026.1681148817672,2021-08-12 09:14:13.773
367,-272.0,1013.0,-56.0,1050.3756470901255,2021-08-12 09:14:13.782
368,-272.0,998.0,-105.0,1039.7177501610713,2021-08-12 09:14:13.783
369,-263.0,910.0,128.0,955.851975987914,2021-08-12 09:14:13.792
370,-130.0,901.0,48.0,911.5947564570564,2021-08-12 09:14:13.801
371,-20.0,935.0,89.0,939.439194413348,2021-08-12 09:14:13.811
372,-134.0,974.0,-35.0,983.7972352065236,2021-08-12 09:14:13.822
373,-72.0,939.0,10.0,941.8094287062536,2021-08-12 09:14:13.830
374,-114.0,840.0,52.0,849.2938243034621,2021-08-12 09:14:13.841
375,-75.0,1090.0,-110.0,1098.10063291121,2021-08-12 09:14:13.850
376,-307.0,1089.0,-164.0,1143.269871902518,2021-08-12 09:14:13.860
377,-380.0,1070.0,-138.0,1143.8286584974169,2021-08-12 09:14:13.871
378,-112.0,1091.0,-34.0,1097.2606800573872,2021-08-12 09:14:13.879
379,-406.0,994.0,-135.0,1082.1723522618752,2021-08-12 09:14:13.890
380,-381.0,1052.0,-165.0,1130.9686114123592,2021-08-12 09:14:13.899
381,-159.0,985.0,20.0,997.950900595816,2021-08-12 09:14:13.909
382,-344.0,932.0,-28.0,993.8531078585004,2021-08-12 09:14:13.919
383,-333.0,986.0,-24.0,1040.990393807743,2021-08-12 09:14:13.931
384,-248.0,898.0,30.0,932.0987072193587,2021-08-12 09:14:13.939
385,-304.0,925.0,-83.0,977.2051985125744,2021-08-12 09:14:13.948
386,-507.0,937.0,-76.0,1068.0795850497284,2021-08-12 09:14:13.973
387,-148.0,972.0,-10.0,983.253782092904,2021-08-12 09:14:13.978
388,-9.0,997.0,44.0,998.0110219832244,2021-08-12 09:14:13.987
389,-141.0,1071.0,-55.0,1081.640883103075,2021-08-12 09:14:13.998
390,22.0,1161.0,-28.0,1161.5459525993797,2021-08-12 09:14:14.007
391,29.0,882.0,39.0,883.337987409123,2021-08-12 09:14:14.016
392,-187.0,1100.0,-74.0,1118.23298109115,2021-08-12 09:14:14.026
393,-228.0,1008.0,30.0,1033.8994148368593,2021-08-12 09:14:14.036
394,-22.0,1033.0,-5.0,1033.2463404241992,2021-08-12 09:14:14.047
395,60.0,1048.0,-26.0,1050.0380945470502,2021-08-12 09:14:14.057
396,-207.0,1061.0,-132.0,1089.0335164722892,2021-08-12 09:14:14.065
397,5.0,1158.0,-118.0,1164.0073023825923,2021-08-12 09:14:14.075
398,-284.0,895.0,-84.0,942.7284868932304,2021-08-12 09:14:14.085
399,-322.0,1067.0,-163.0,1126.3844814271902,2021-08-12 09:14:14.095
400,-220.0,1132.0,-133.0,1160.824276107284,2021-08-12 09:14:14.106
401,-427.0,1014.0,-63.0,1102.040834089191,2021-08-12 09:14:14.114
402,-152.0,1014.0,-63.0,1027.2628680138305,2021-08-12 09:14:14.123
403,-152.0,928.0,-42.0,941.3033517416158,2021-08-12 09:14:14.124
404,-90.0,985.0,-42.0,989.9944444288564,2021-08-12 09:14:14.133
405,-90.0,985.0,89.0,993.0991894065768,2021-08-12 09:14:14.134
406,-277.0,894.0,-2.0,935.9321556608684,2021-08-12 09:14:14.144
407,-119.0,912.0,19.0,919.9271710304027,2021-08-12 09:14:14.154
408,-126.0,926.0,0.0,934.533038474296,2021-08-12 09:14:14.163
409,-175.0,926.0,0.0,942.3911077678948,2021-08-12 09:14:14.172
410,-175.0,1037.0,-169.0,1065.154918310008,2021-08-12 09:14:14.173
411,-47.0,843.0,196.0,866.7606359312817,2021-08-12 09:14:14.182
412,-49.0,843.0,196.0,866.8713860775426,2021-08-12 09:14:14.192
413,-49.0,911.0,114.0,919.411768469384,2021-08-12 09:14:14.193
414,-10.0,1053.0,-81.0,1056.1581320995451,2021-08-12 09:14:14.203
415,0.0,1053.0,-81.0,1056.110789642829,2021-08-12 09:14:14.211
416,0.0,831.0,106.0,837.7332511008501,2021-08-12 09:14:14.212
417,52.0,1154.0,-73.0,1157.4752697142171,2021-08-12 09:14:14.221
418,-44.0,1055.0,-48.0,1057.007568563253,2021-08-12 09:14:14.231
419,32.0,1028.0,-38.0,1029.1996890788494,2021-08-12 09:14:14.247
420,-253.0,1043.0,-112.0,1079.0746035376794,2021-08-12 09:14:14.251
421,-310.0,906.0,-112.0,964.0954309610642,2021-08-12 09:14:14.260
422,-310.0,906.0,-90.0,961.7879184102908,2021-08-12 09:14:14.261
423,-427.0,943.0,-144.0,1045.138268364526,2021-08-12 09:14:14.271
424,-412.0,974.0,-74.0,1060.13961344721,2021-08-12 09:14:14.280
425,-327.0,974.0,-74.0,1030.0878603303702,2021-08-12 09:14:14.289
426,-327.0,929.0,-20.0,985.07360131109,2021-08-12 09:14:14.290
427,-219.0,1019.0,-80.0,1045.333439625845,2021-08-12 09:14:14.299
428,-369.0,898.0,-30.0,971.3212650817442,2021-08-12 09:14:14.310
429,-289.0,916.0,-36.0,961.1831251119632,2021-08-12 09:14:14.319
430,-289.0,939.0,58.0,984.1778294596968,2021-08-12 09:14:14.329
431,-328.0,912.0,-13.0,969.276534328568,2021-08-12 09:14:14.339
432,-226.0,975.0,-123.0,1008.379888732416,2021-08-12 09:14:14.348
433,-205.0,863.0,48.0,888.3118821675189,2021-08-12 09:14:14.359
434,-217.0,1009.0,-108.0,1037.7061241025804,2021-08-12 09:14:14.368
435,-56.0,975.0,28.0,977.008188297314,2021-08-12 09:14:14.378
436,-142.0,1016.0,-42.0,1026.734629785126,2021-08-12 09:14:14.391
437,24.0,1181.0,-91.0,1184.7438541727067,2021-08-12 09:14:14.403
438,-7.0,888.0,-125.0,896.7820247975536,2021-08-12 09:14:14.407
439,-211.0,1072.0,-167.0,1105.257436075415,2021-08-12 09:14:14.417
440,-31.0,1142.0,-88.0,1145.804957224396,2021-08-12 09:14:14.429
441,-255.0,1033.0,-49.0,1065.1361415330905,2021-08-12 09:14:14.436
442,-387.0,1114.0,-135.0,1187.0088457968627,2021-08-12 09:14:14.446
443,-318.0,1028.0,-118.0,1082.5118936990946,2021-08-12 09:14:14.456
444,-205.0,1028.0,-118.0,1054.8616022967185,2021-08-12 09:14:14.465
445,-205.0,1007.0,-135.0,1036.4839603196954,2021-08-12 09:14:14.466
446,-417.0,1054.0,-135.0,1141.5033946511066,2021-08-12 09:14:14.476
447,-417.0,1054.0,-132.0,1141.1524876194242,2021-08-12 09:14:14.477
448,-388.0,995.0,-30.0,1068.3955260108496,2021-08-12 09:14:14.486
449,-175.0,1099.0,-44.0,1113.7154035030674,2021-08-12 09:14:14.495
450,-418.0,955.0,-44.0,1043.4006900515258,2021-08-12 09:14:14.504
451,-418.0,955.0,-54.0,1043.8702026593153,2021-08-12 09:14:14.505
452,-83.0,955.0,-54.0,960.1197841936182,2021-08-12 09:14:14.515
453,-83.0,917.0,18.0,920.9245354533672,2021-08-12 09:14:14.516
454,-133.0,986.0,-106.0,1000.5603430078568,2021-08-12 09:14:14.525
455,-118.0,936.0,53.0,944.8962906054822,2021-08-12 09:14:14.534
456,-7.0,936.0,53.0,937.525466320782,2021-08-12 09:14:14.543
457,-7.0,1051.0,27.0,1051.3700585426618,2021-08-12 09:14:14.544
458,-123.0,974.0,86.0,985.495306939612,2021-08-12 09:14:14.553
459,32.0,974.0,86.0,978.3128334024858,2021-08-12 09:14:14.563
460,32.0,967.0,28.0,967.9343986035416,2021-08-12 09:14:14.564
461,109.0,995.0,24.0,1001.2402309136404,2021-08-12 09:14:14.573
462,-160.0,975.0,24.0,988.3324339512492,2021-08-12 09:14:14.583
463,-160.0,975.0,-35.0,988.6607102540283,2021-08-12 09:14:14.584
464,-32.0,1094.0,-37.0,1095.093146723145,2021-08-12 09:14:14.593
465,-59.0,983.0,40.0,985.5810468956878,2021-08-12 09:14:14.602
466,-92.0,1079.0,-99.0,1087.430917346017,2021-08-12 09:14:14.612
467,-40.0,1161.0,-43.0,1162.4844084975937,2021-08-12 09:14:14.622
468,-59.0,853.0,-43.0,856.1185665548902,2021-08-12 09:14:14.632
469,-59.0,853.0,38.0,855.882001212784,2021-08-12 09:14:14.633
470,-126.0,1132.0,-120.0,1145.294721894762,2021-08-12 09:14:14.642
471,-236.0,971.0,95.0,1003.7738789189524,2021-08-12 09:14:14.651
472,-383.0,898.0,-1.0,976.2653327861232,2021-08-12 09:14:14.661
473,-281.0,914.0,-18.0,956.3895649786232,2021-08-12 09:14:14.671
474,-249.0,927.0,0.0,959.8593646988083,2021-08-12 09:14:14.681
475,-264.0,1071.0,-124.0,1110.0058558404096,2021-08-12 09:14:14.691
476,-290.0,928.0,-1.0,972.2576818930256,2021-08-12 09:14:14.700
477,-111.0,904.0,75.0,913.8719822819824,2021-08-12 09:14:14.710
478,-213.0,960.0,-60.0,985.1746038139636,2021-08-12 09:14:14.722
479,-328.0,960.0,-60.0,1016.2598093007516,2021-08-12 09:14:14.728
480,-328.0,917.0,60.0,975.7422815477456,2021-08-12 09:14:14.729
481,-162.0,869.0,88.0,888.3405878377955,2021-08-12 09:14:14.740
482,-58.0,926.0,100.0,933.1880839359234,2021-08-12 09:14:14.749
483,-29.0,902.0,100.0,907.9895373846553,2021-08-12 09:14:14.758
484,-29.0,902.0,13.0,902.5596933167355,2021-08-12 09:14:14.759
485,18.0,924.0,8.0,924.2099328615766,2021-08-12 09:14:14.770
486,-316.0,1016.0,-69.0,1066.2424677342392,2021-08-12 09:14:14.778
487,-232.0,1032.0,-69.0,1060.0042452745176,2021-08-12 09:14:14.788
488,-232.0,1032.0,-85.0,1061.1658682788473,2021-08-12 09:14:14.789
489,-258.0,1112.0,-174.0,1154.722477481061,2021-08-12 09:14:14.798
490,-224.0,995.0,-111.0,1025.924948522064,2021-08-12 09:14:14.807
491,-44.0,1044.0,-24.0,1045.2023727489332,2021-08-12 09:14:14.817
492,-321.0,1044.0,-24.0,1092.4985125847998,2021-08-12 09:14:14.827
493,-321.0,912.0,-72.0,969.5199843221386,2021-08-12 09:14:14.828
494,-391.0,1066.0,-156.0,1146.11212365981,2021-08-12 09:14:14.837
495,-297.0,1025.0,-98.0,1071.6519957523524,2021-08-12 09:14:14.847
496,-532.0,956.0,-116.0,1100.1890746594424,2021-08-12 09:14:14.856
497,-300.0,984.0,-88.0,1032.4727599312246,2021-08-12 09:14:14.866
498,-266.0,905.0,-88.0,947.3779604782876,2021-08-12 09:14:14.876
499,-266.0,905.0,-1.0,943.282566360685,2021-08-12 09:14:14.877
500,-306.0,975.0,-51.0,1023.1627436532274,2021-08-12 09:14:14.885
501,-379.0,974.0,20.0,1045.3310480417197,2021-08-12 09:14:14.896
502,-230.0,976.0,40.0,1003.531763323912,2021-08-12 09:14:14.905
503,-32.0,1078.0,-95.0,1082.6509132679842,2021-08-12 09:14:14.915
504,-36.0,976.0,77.0,979.6943400877644,2021-08-12 09:14:14.926
505,-125.0,1022.0,14.0,1029.711124539305,2021-08-12 09:14:14.934
506,184.0,1075.0,75.0,1093.209037650165,2021-08-12 09:14:14.945
507,82.0,896.0,72.0,902.620629057413,2021-08-12 09:14:14.954
508,-124.0,896.0,72.0,907.4006832706266,2021-08-12 09:14:14.963
509,-124.0,1123.0,-53.0,1131.0676372348385,2021-08-12 09:14:14.964
510,-37.0,1007.0,-53.0,1009.0723462666092,2021-08-12 09:14:14.985
511,-37.0,1007.0,-62.0,1009.58506328095,2021-08-12 09:14:14.986
512,-37.0,1104.0,-96.0,1108.7835676993054,2021-08-12 09:14:14.987
513,-288.0,1125.0,-146.0,1170.420864475681,2021-08-12 09:14:14.996
514,-178.0,1125.0,-146.0,1148.313981452808,2021-08-12 09:14:15.002
515,-178.0,1024.0,-98.0,1043.965516671887,2021-08-12 09:14:15.003
516,-41.0,1154.0,-98.0,1158.8791999168852,2021-08-12 09:14:15.012
517,-41.0,1154.0,-84.0,1157.7793399434972,2021-08-12 09:14:15.013
518,-287.0,913.0,-65.0,959.2512705230054,2021-08-12 09:14:15.022
519,-305.0,994.0,-148.0,1050.2214052284403,2021-08-12 09:14:15.033
520,-230.0,972.0,-148.0,1009.7465028411834,2021-08-12 09:14:15.042
521,-230.0,972.0,-71.0,1001.361573059402,2021-08-12 09:14:15.043
522,-320.0,883.0,51.0,940.5796085393304,2021-08-12 09:14:15.051
523,-245.0,956.0,5.0,986.9072904786954,2021-08-12 09:14:15.061
524,-97.0,873.0,83.0,882.2851013136286,2021-08-12 09:14:15.071
525,-123.0,861.0,-13.0,869.8384907556115,2021-08-12 09:14:15.082
526,-152.0,967.0,-13.0,978.9596518753978,2021-08-12 09:14:15.090
527,-152.0,967.0,-88.0,982.8209399478624,2021-08-12 09:14:15.091
528,-38.0,907.0,30.0,908.2912528478956,2021-08-12 09:14:15.100
529,-148.0,1036.0,-96.0,1050.9119848969276,2021-08-12 09:14:15.110
530,-45.0,947.0,170.0,963.1894932981776,2021-08-12 09:14:15.121
531,-13.0,999.0,28.0,999.4768631639254,2021-08-12 09:14:15.130
532,-17.0,1106.0,28.0,1106.4849750448489,2021-08-12 09:14:15.139
533,-17.0,1106.0,-81.0,1109.0924217575375,2021-08-12 09:14:15.140
534,24.0,1106.0,-81.0,1109.2217992809192,2021-08-12 09:14:15.149
535,24.0,777.0,90.0,782.5630964976563,2021-08-12 09:14:15.150
536,-44.0,1114.0,-116.0,1120.887148646107,2021-08-12 09:14:15.159
537,-122.0,1031.0,8.0,1038.2239642774578,2021-08-12 09:14:15.169
538,-266.0,1035.0,-127.0,1076.155193269075,2021-08-12 09:14:15.179
539,-230.0,1082.0,-157.0,1117.261383920522,2021-08-12 09:14:15.189
540,-270.0,956.0,-93.0,997.7399460781352,2021-08-12 09:14:15.199
541,-336.0,985.0,-93.0,1044.877983307142,2021-08-12 09:14:15.207
542,-336.0,985.0,-155.0,1052.2100550745558,2021-08-12 09:14:15.208
543,-470.0,982.0,-105.0,1093.7316855609515,2021-08-12 09:14:15.217
544,-401.0,1012.0,3.0,1088.5559241490537,2021-08-12 09:14:15.228
545,-326.0,976.0,-35.0,1029.600407925327,2021-08-12 09:14:15.238
546,-402.0,1018.0,-135.0,1102.793271651582,2021-08-12 09:14:15.246
547,-307.0,950.0,-101.0,1003.4689830782016,2021-08-12 09:14:15.256
548,-285.0,894.0,33.0,938.9089412717296,2021-08-12 09:14:15.273
549,-397.0,896.0,-38.0,980.7492034154296,2021-08-12 09:14:15.276
550,-263.0,910.0,-3.0,947.2475917097915,2021-08-12 09:14:15.287
551,-113.0,910.0,-3.0,916.99400216141,2021-08-12 09:14:15.295
552,-113.0,842.0,135.0,860.2081143537301,2021-08-12 09:14:15.296
553,-34.0,1099.0,-76.0,1102.1492639384196,2021-08-12 09:14:15.305
554,-51.0,1101.0,-35.0,1102.7361425109816,2021-08-12 09:14:15.315
555,-169.0,1062.0,-76.0,1078.0449897847493,2021-08-12 09:14:15.324
556,74.0,1211.0,-76.0,1215.636870121995,2021-08-12 09:14:15.335
557,74.0,1211.0,-28.0,1213.5818884607663,2021-08-12 09:14:15.336
558,-244.0,947.0,-76.0,980.877668213524,2021-08-12 09:14:15.345
559,-233.0,1026.0,-132.0,1060.3721044991703,2021-08-12 09:14:15.354
560,29.0,1107.0,-63.0,1109.1704107124388,2021-08-12 09:14:15.364
561,-214.0,976.0,-62.0,1001.1073868471854,2021-08-12 09:14:15.374
562,-329.0,1010.0,-79.0,1065.1675924473109,2021-08-12 09:14:15.389
563,-382.0,961.0,-38.0,1034.8376684292082,2021-08-12 09:14:15.399
564,-355.0,980.0,-144.0,1052.217182904746,2021-08-12 09:14:15.403
565,-521.0,982.0,-107.0,1116.7873566619564,2021-08-12 09:14:15.413
566,-447.0,944.0,-27.0,1044.8320439190215,2021-08-12 09:14:15.429
567,-167.0,1039.0,-27.0,1052.6818132750277,2021-08-12 09:14:15.432
568,-167.0,1039.0,-89.0,1056.09232550947,2021-08-12 09:14:15.433
569,69.0,996.0,224.0,1023.2072126407242,2021-08-12 09:14:15.443
570,15.0,992.0,41.0,992.9602207540844,2021-08-12 09:14:15.452
571,-20.0,992.0,41.0,993.0483371921026,2021-08-12 09:14:15.461
572,-20.0,994.0,-74.0,996.9513528753548,2021-08-12 09:14:15.462
573,-32.0,994.0,-74.0,997.2642578574648,2021-08-12 09:14:15.472
574,-32.0,835.0,94.0,840.8834639829707,2021-08-12 09:14:15.473
575,11.0,1119.0,-52.0,1120.2615765971802,2021-08-12 09:14:15.481
576,-72.0,1119.0,-52.0,1122.5190421547422,2021-08-12 09:14:15.491
577,-72.0,931.0,52.0,935.226710482544,2021-08-12 09:14:15.492
578,38.0,1040.0,52.0,1041.9923224285292,2021-08-12 09:14:15.500
579,38.0,1040.0,-12.0,1040.7631815163331,2021-08-12 09:14:15.501
580,-162.0,1104.0,-12.0,1115.887091062532,2021-08-12 09:14:15.510
581,-162.0,1104.0,-87.0,1119.2090957457413,2021-08-12 09:14:15.511
582,-232.0,1043.0,0.0,1068.4909920069515,2021-08-12 09:14:15.521
583,-64.0,1043.0,0.0,1044.9617217869752,2021-08-12 09:14:15.530
584,-64.0,1160.0,-28.0,1162.1015446164763,2021-08-12 09:14:15.531
585,-85.0,951.0,74.0,957.6544261893222,2021-08-12 09:14:15.539
586,-48.0,1096.0,-169.0,1109.9914414084462,2021-08-12 09:14:15.550
587,-25.0,1171.0,-76.0,1173.7299519054627,2021-08-12 09:14:15.559
588,-307.0,919.0,-100.0,974.0687860721132,2021-08-12 09:14:15.570
589,-314.0,946.0,-66.0,998.933431215514,2021-08-12 09:14:15.579
590,-277.0,946.0,-66.0,987.9276289283542,2021-08-12 09:14:15.588
591,-277.0,973.0,61.0,1013.4983966440204,2021-08-12 09:14:15.589
592,-346.0,887.0,-26.0,952.4499986875952,2021-08-12 09:14:15.599
593,-163.0,988.0,-88.0,1005.2149023964976,2021-08-12 09:14:15.608
594,-201.0,945.0,47.0,967.2822752433748,2021-08-12 09:14:15.619
595,-114.0,1090.0,-122.0,1102.714831676803,2021-08-12 09:14:15.627
596,-104.0,974.0,-33.0,980.092342588187,2021-08-12 09:14:15.637
597,-133.0,969.0,36.0,978.7471583611368,2021-08-12 09:14:15.648
598,-145.0,982.0,-126.0,1000.6123125366788,2021-08-12 09:14:15.657
599,-184.0,982.0,-126.0,1007.0034756643096,2021-08-12 09:14:15.666
600,-184.0,916.0,107.0,940.4047001158596,2021-08-12 09:14:15.667
601,-74.0,916.0,107.0,925.192412420249,2021-08-12 09:14:15.675
602,-74.0,1088.0,7.0,1090.5361066924836,2021-08-12 09:14:15.676
603,50.0,1145.0,-69.0,1148.1663642521496,2021-08-12 09:14:15.686
604,-247.0,979.0,-56.0,1011.229944176892,2021-08-12 09:14:15.696
605,-348.0,951.0,-83.0,1016.0679111161812,2021-08-12 09:14:15.707
606,-317.0,938.0,-57.0,991.7570266955512,2021-08-12 09:14:15.716
607,-321.0,938.0,-57.0,993.0427986748608,2021-08-12 09:14:15.726
608,-321.0,935.0,-132.0,997.341466098748,2021-08-12 09:14:15.727
609,-478.0,1013.0,-144.0,1129.3312180224189,2021-08-12 09:14:15.735
610,-342.0,1012.0,-118.0,1074.724150654483,2021-08-12 09:14:15.745
611,-55.0,1101.0,-70.0,1104.5931377661188,2021-08-12 09:14:15.755
612,-404.0,952.0,-71.0,1036.6103414494764,2021-08-12 09:14:15.764
613,-299.0,1009.0,-147.0,1062.5869376196945,2021-08-12 09:14:15.775
614,-218.0,1041.0,-22.0,1063.8087234084894,2021-08-12 09:14:15.784
615,-412.0,1041.0,-22.0,1119.780782117643,2021-08-12 09:14:15.793
616,-412.0,883.0,-5.0,974.4013546788613,2021-08-12 09:14:15.794
617,-317.0,883.0,-5.0,938.1913450890496,2021-08-12 09:14:15.803
618,-317.0,927.0,-38.0,980.439697278726,2021-08-12 09:14:15.804
619,-290.0,948.0,22.0,991.608793829502,2021-08-12 09:14:15.813
620,81.0,1006.0,-3.0,1009.2601250421023,2021-08-12 09:14:15.823
621,-55.0,1057.0,-10.0,1058.47720806827,2021-08-12 09:14:15.834
622,-295.0,926.0,213.0,994.922107503899,2021-08-12 09:14:15.842
623,3.0,1115.0,6.0,1115.0201791895963,2021-08-12 09:14:15.852
624,2.0,953.0,6.0,953.0209861277978,2021-08-12 09:14:15.862
625,2.0,953.0,0.0,953.002098633576,2021-08-12 09:14:15.863
626,-105.0,1076.0,-137.0,1089.7568536146034,2021-08-12 09:14:15.872
627,54.0,1139.0,5.0,1140.2903139113305,2021-08-12 09:14:15.882
628,-190.0,957.0,101.0,980.89245078143,2021-08-12 09:14:15.891
629,-160.0,1085.0,-83.0,1099.8699923172735,2021-08-12 09:14:15.901
630,-271.0,970.0,-83.0,1010.5592511080188,2021-08-12 09:14:15.911
631,-271.0,970.0,-68.0,1009.4379624325608,2021-08-12 09:14:15.912
632,-162.0,1017.0,-117.0,1036.4468148438684,2021-08-12 09:14:15.921
633,-119.0,1104.0,-150.0,1120.4807004138893,2021-08-12 09:14:15.930
634,-302.0,943.0,-109.0,996.1596257628594,2021-08-12 09:14:15.941
635,-225.0,1039.0,-64.0,1065.0079811907517,2021-08-12 09:14:15.950
636,-223.0,950.0,-37.0,976.5234252182588,2021-08-12 09:14:15.960
637,-182.0,937.0,-39.0,955.3083271907556,2021-08-12 09:14:15.969
638,-226.0,957.0,-39.0,984.0965399796912,2021-08-12 09:14:15.979
639,-226.0,957.0,-150.0,994.6984467666572,2021-08-12 09:14:15.980
640,-113.0,845.0,9.0,852.5696452489966,2021-08-12 09:14:16.006
641,-113.0,977.0,9.0,983.5542689653682,2021-08-12 09:14:16.007
642,-113.0,977.0,20.0,983.71642255276,2021-08-12 09:14:16.008
643,-77.0,911.0,83.0,918.0081698982858,2021-08-12 09:14:16.010
644,-37.0,933.0,12.0,933.8104732760283,2021-08-12 09:14:16.018
645,-38.0,1004.0,18.0,1004.880092349331,2021-08-12 09:14:16.028
646,-87.0,893.0,18.0,897.4084911566192,2021-08-12 09:14:16.039
647,-87.0,893.0,153.0,910.1796525961234,2021-08-12 09:14:16.040
648,46.0,1093.0,-78.0,1096.744728731349,2021-08-12 09:14:16.048
649,35.0,995.0,149.0,1006.7030346631524,2021-08-12 09:14:16.057
650,-54.0,1018.0,14.0,1019.5273414676038,2021-08-12 09:14:16.067
651,105.0,1176.0,-48.0,1181.6535025124751,2021-08-12 09:14:16.077
652,-413.0,883.0,-58.0,976.5357136326352,2021-08-12 09:14:16.087
653,-282.0,1008.0,-114.0,1052.8931569727292,2021-08-12 09:14:16.098
654,-220.0,926.0,-2.0,951.7772848728844,2021-08-12 09:14:16.106
655,-537.0,834.0,-52.0,993.2920013772384,2021-08-12 09:14:16.116
656,-354.0,969.0,-78.0,1034.5825244996167,2021-08-12 09:14:16.126
657,-398.0,928.0,-3.0,1009.7509593954344,2021-08-12 09:14:16.137
658,-428.0,977.0,-124.0,1073.819817287798,2021-08-12 09:14:16.146
659,-292.0,954.0,-58.0,999.371802684066,2021-08-12 09:14:16.155
660,-157.0,909.0,26.0,922.8250104976566,2021-08-12 09:14:16.165
661,-135.0,1000.0,26.0,1009.4062611258164,2021-08-12 09:14:16.174
662,-135.0,1000.0,-83.0,1012.4791355874944,2021-08-12 09:14:16.175
663,-270.0,936.0,-1.0,974.1647704572364,2021-08-12 09:14:16.186
664,-186.0,964.0,-65.0,983.9293673836552,2021-08-12 09:14:16.194
665,-195.0,951.0,34.0,971.3814904557324,2021-08-12 09:14:16.204
666,-196.0,927.0,34.0,948.1038972602106,2021-08-12 09:14:16.213
667,-196.0,927.0,-10.0,947.546832615676,2021-08-12 09:14:16.214
668,-158.0,1042.0,-40.0,1054.6696165150488,2021-08-12 09:14:16.223
669,-108.0,984.0,174.0,1005.0850710263286,2021-08-12 09:14:16.234
670,-39.0,1097.0,-60.0,1099.3316151189322,2021-08-12 09:14:16.243
671,-217.0,1049.0,-129.0,1078.949025672668,2021-08-12 09:14:16.253
672,-216.0,1009.0,-162.0,1044.5003590233946,2021-08-12 09:14:16.262
673,64.0,1138.0,-21.0,1139.9916666362085,2021-08-12 09:14:16.272
674,-293.0,1138.0,-21.0,1175.3016634039109,2021-08-12 09:14:16.282
675,-293.0,839.0,3.0,888.6951108226037,2021-08-12 09:14:16.283
676,-318.0,971.0,-131.0,1030.1097028957645,2021-08-12 09:14:16.299
677,-117.0,1074.0,-49.0,1081.464747460591,2021-08-12 09:14:16.302
678,-312.0,982.0,-61.0,1032.1768259363316,2021-08-12 09:14:16.311
679,-301.0,1025.0,-147.0,1078.3482739820192,2021-08-12 09:14:16.322
680,-272.0,950.0,-123.0,995.7976702121772,2021-08-12 09:14:16.331
681,-344.0,1034.0,-279.0,1124.8702147359045,2021-08-12 09:14:16.341
682,-594.0,997.0,-140.0,1168.9503838914636,2021-08-12 09:14:16.350
683,-29.0,879.0,69.0,882.1808204670967,2021-08-12 09:14:16.360
684,-146.0,1028.0,-139.0,1047.5786366664795,2021-08-12 09:14:16.371
685,-80.0,985.0,166.0,1002.0883194609146,2021-08-12 09:14:16.380
686,-66.0,947.0,42.0,950.225762648014,2021-08-12 09:14:16.389
687,-53.0,979.0,-88.0,984.374928571426,2021-08-12 09:14:16.408
688,-5.0,845.0,170.0,861.9454739135185,2021-08-12 09:14:16.411
689,70.0,1099.0,170.0,1114.2715108984885,2021-08-12 09:14:16.419
690,70.0,1099.0,3.0,1101.2311292367283,2021-08-12 09:14:16.420
691,1.0,916.0,190.0,935.4982629593708,2021-08-12 09:14:16.428
692,110.0,916.0,190.0,941.9426734148952,2021-08-12 09:14:16.441
693,110.0,998.0,21.0,1004.2634116605066,2021-08-12 09:14:16.442
694,-129.0,1051.0,-36.0,1059.498938177854,2021-08-12 09:14:16.467
695,-31.0,1174.0,-41.0,1175.1246742367382,2021-08-12 09:14:16.476
696,-36.0,983.0,-45.0,984.6877677720994,2021-08-12 09:14:16.480
697,-139.0,1046.0,-80.0,1058.2235113623208,2021-08-12 09:14:16.501
698,-425.0,915.0,-113.0,1015.1940701166452,2021-08-12 09:14:16.508
699,-374.0,948.0,-55.0,1020.5905153390364,2021-08-12 09:14:16.516
700,-442.0,1035.0,-49.0,1126.494562792027,2021-08-12 09:14:16.526
701,-506.0,900.0,-27.0,1032.843163311836,2021-08-12 09:14:16.536
702,-390.0,949.0,-77.0,1028.897468166775,2021-08-12 09:14:16.545
703,-248.0,955.0,30.0,987.1317034722368,2021-08-12 09:14:16.556
704,-283.0,1159.0,-181.0,1206.7025316953636,2021-08-12 09:14:16.565
705,-234.0,923.0,60.0,954.088570312002,2021-08-12 09:14:16.575
706,-93.0,884.0,43.0,889.9179737481427,2021-08-12 09:14:16.584
707,-175.0,983.0,-139.0,1008.0848178600846,2021-08-12 09:14:16.594
708,-164.0,893.0,29.0,908.3974900890028,2021-08-12 09:14:16.605
709,-96.0,952.0,29.0,957.267465236336,2021-08-12 09:14:16.614
710,-96.0,952.0,-11.0,956.8913208928168,2021-08-12 09:14:16.615
711,-190.0,952.0,-11.0,970.8372675170644,2021-08-12 09:14:16.623
712,-190.0,1037.0,2.0,1054.2641983867231,2021-08-12 09:14:16.624
713,-81.0,916.0,13.0,919.6662438080458,2021-08-12 09:14:16.633
714,-283.0,1112.0,-172.0,1160.265917796433,2021-08-12 09:14:16.643
715,-328.0,992.0,-172.0,1058.882429734293,2021-08-12 09:14:16.653
716,-328.0,992.0,-34.0,1045.372660824837,2021-08-12 09:14:16.654
717,-214.0,958.0,-144.0,992.1169285925928,2021-08-12 09:14:16.664
718,-366.0,958.0,-144.0,1035.5945152423317,2021-08-12 09:14:16.672
719,-366.0,1066.0,-259.0,1156.4570895627733,2021-08-12 09:14:16.673
720,-355.0,941.0,-88.0,1009.5791202278303,2021-08-12 09:14:16.684
721,-116.0,1076.0,-76.0,1084.8999953912803,2021-08-12 09:14:16.693
722,-451.0,918.0,-76.0,1025.6222501486598,2021-08-12 09:14:16.702
723,-451.0,918.0,-62.0,1024.67995003318,2021-08-12 09:14:16.703
724,-393.0,1004.0,-122.0,1085.0571413524726,2021-08-12 09:14:16.712
725,-289.0,985.0,-20.0,1026.7161243498613,2021-08-12 09:14:16.721
726,-433.0,955.0,-117.0,1055.0843568170271,2021-08-12 09:14:16.731
727,-346.0,994.0,-97.0,1056.958371933351,2021-08-12 09:14:16.741
728,-321.0,916.0,-17.0,970.7656771847674,2021-08-12 09:14:16.750
729,-349.0,970.0,-54.0,1032.2872662200189,2021-08-12 09:14:16.761
730,2.0,992.0,44.0,992.9773411312062,2021-08-12 09:14:16.771
731,-37.0,904.0,41.0,905.6853758342352,2021-08-12 09:14:16.780
732,-65.0,1086.0,-106.0,1093.0951468193423,2021-08-12 09:14:16.790
733,-25.0,1001.0,-106.0,1006.9071456693512,2021-08-12 09:14:16.799
734,-25.0,1001.0,107.0,1007.012909549823,2021-08-12 09:14:16.800
735,-52.0,1069.0,107.0,1075.5993677945337,2021-08-12 09:14:16.810
736,-52.0,1069.0,-23.0,1070.5110928897468,2021-08-12 09:14:16.811
737,148.0,1131.0,11.0,1140.695401936906,2021-08-12 09:14:16.820
738,60.0,744.0,193.0,770.9636826725368,2021-08-12 09:14:16.828
739,-184.0,1075.0,-104.0,1095.580667956495,2021-08-12 09:14:16.838
740,-205.0,967.0,-111.0,994.7034734030036,2021-08-12 09:14:16.848
741,-99.0,1067.0,-122.0,1078.5054473668642,2021-08-12 09:14:16.859
742,-168.0,1114.0,-120.0,1132.9695494584132,2021-08-12 09:14:16.869
743,-277.0,1053.0,-160.0,1100.5171511612166,2021-08-12 09:14:16.878
744,-85.0,1185.0,-108.0,1192.9434186079404,2021-08-12 09:14:16.887
745,-310.0,939.0,-39.0,989.6170976695988,2021-08-12 09:14:16.897
746,-249.0,992.0,3.0,1022.7775906813758,2021-08-12 09:14:16.907
747,-305.0,943.0,-52.0,992.4605785621916,2021-08-12 09:14:16.918
748,-232.0,893.0,35.0,923.308182569612,2021-08-12 09:14:16.927
749,-199.0,982.0,-57.0,1003.5805896887404,2021-08-12 09:14:16.936
750,-383.0,1013.0,22.0,1083.2091210841977,2021-08-12 09:14:16.946
751,-267.0,878.0,69.0,920.2901716306656,2021-08-12 09:14:16.956
752,19.0,943.0,49.0,944.4633396802652,2021-08-12 09:14:16.966
753,-5.0,943.0,49.0,944.2854441322283,2021-08-12 09:14:16.976
754,-5.0,921.0,67.0,923.4473455481908,2021-08-12 09:14:16.977
755,-60.0,996.0,67.0,1000.0524986219474,2021-08-12 09:14:16.984
756,-60.0,996.0,-80.0,1001.007492479452,2021-08-12 09:14:16.985
757,20.0,1032.0,131.0,1040.4734499255617,2021-08-12 09:14:16.995
758,-27.0,970.0,29.0,970.8089410383488,2021-08-12 09:14:17.005
759,19.0,1047.0,-145.0,1057.1636580965126,2021-08-12 09:14:17.027
760,19.0,891.0,-145.0,902.9213697770144,2021-08-12 09:14:17.028
761,19.0,891.0,118.0,898.9805337158308,2021-08-12 09:14:17.029
762,-406.0,1017.0,-134.0,1103.2139411736964,2021-08-12 09:14:17.035
763,-174.0,1017.0,-134.0,1040.4426942412542,2021-08-12 09:14:17.043
764,-174.0,1077.0,-42.0,1091.7733281226465,2021-08-12 09:14:17.044
765,-252.0,1018.0,-89.0,1052.4965558138422,2021-08-12 09:14:17.053
766,-337.0,996.0,-116.0,1057.847342483782,2021-08-12 09:14:17.063
767,-195.0,996.0,-116.0,1021.517009158438,2021-08-12 09:14:17.073
768,-195.0,1033.0,-73.0,1053.7755928090194,2021-08-12 09:14:17.074
769,-340.0,964.0,-125.0,1029.8160029830572,2021-08-12 09:14:17.083
770,-530.0,925.0,-18.0,1066.2312131990884,2021-08-12 09:14:17.096
771,-396.0,910.0,54.0,993.8973790085172,2021-08-12 09:14:17.102
772,-166.0,999.0,-46.0,1013.742077650918,2021-08-12 09:14:17.112
773,-394.0,905.0,-62.0,988.9919109881536,2021-08-12 09:14:17.121
774,-307.0,905.0,-62.0,957.662779896974,2021-08-12 09:14:17.132
775,-307.0,935.0,-66.0,986.3214486160178,2021-08-12 09:14:17.133
776,-198.0,967.0,-6.0,987.0810503702318,2021-08-12 09:14:17.141
777,-495.0,1061.0,-141.0,1179.2484895050743,2021-08-12 09:14:17.151
778,-237.0,902.0,13.0,932.7068135271662,2021-08-12 09:14:17.161
779,-217.0,981.0,11.0,1004.7741039656626,2021-08-12 09:14:17.171
780,-42.0,981.0,50.0,983.1708905373472,2021-08-12 09:14:17.181
781,13.0,1090.0,-37.0,1090.7052764152193,2021-08-12 09:14:17.190
782,-162.0,1006.0,-28.0,1019.3448876606976,2021-08-12 09:14:17.200
783,-79.0,1006.0,-28.0,1009.485512526059,2021-08-12 09:14:17.209
784,-79.0,1121.0,-53.0,1125.0293329509236,2021-08-12 09:14:17.210
785,-56.0,965.0,-53.0,968.0754102857896,2021-08-12 09:14:17.219
786,-56.0,965.0,-21.0,966.8515915071972,2021-08-12 09:14:17.220
787,-105.0,1093.0,-21.0,1098.23267115853,2021-08-12 09:14:17.230
788,-105.0,1093.0,-163.0,1110.0644125455062,2021-08-12 09:14:17.231
789,46.0,1093.0,-163.0,1106.0443029101502,2021-08-12 09:14:17.239
790,46.0,1158.0,-92.0,1162.5592458021226,2021-08-12 09:14:17.240
791,-271.0,936.0,-76.0,977.4011458966067,2021-08-12 09:14:17.249
792,-365.0,1020.0,-76.0,1086.002302023343,2021-08-12 09:14:17.258
793,-365.0,1020.0,-160.0,1095.0913203929615,2021-08-12 09:14:17.259
794,-264.0,896.0,2.0,934.085649177847,2021-08-12 09:14:17.268
795,-174.0,984.0,2.0,999.2677318917088,2021-08-12 09:14:17.278
796,-174.0,984.0,-162.0,1012.3122048064026,2021-08-12 09:14:17.279
797,-333.0,1101.0,-202.0,1167.8587243326997,2021-08-12 09:14:17.288
798,-146.0,1101.0,-202.0,1128.8582727694386,2021-08-12 09:14:17.297
799,-146.0,945.0,49.0,957.4664484983272,2021-08-12 09:14:17.298
800,-125.0,1082.0,-157.0,1100.4535428631234,2021-08-12 09:14:17.307
801,-66.0,967.0,-157.0,981.8828850733676,2021-08-12 09:14:17.320
802,-66.0,967.0,86.0,973.0575522547472,2021-08-12 09:14:17.321
803,-75.0,894.0,120.0,905.1303773490314,2021-08-12 09:14:17.327
804,-149.0,978.0,-84.0,992.8449022883684,2021-08-12 09:14:17.336
805,-174.0,932.0,207.0,970.4375301893472,2021-08-12 09:14:17.347
806,18.0,1059.0,26.0,1059.4720383285253,2021-08-12 09:14:17.356
807,-63.0,1059.0,26.0,1061.19084051833,2021-08-12 09:14:17.366
808,-63.0,927.0,52.0,930.5922845156196,2021-08-12 09:14:17.367
809,38.0,971.0,-57.0,973.4135811668132,2021-08-12 09:14:17.377
810,11.0,963.0,-57.0,964.7481536649864,2021-08-12 09:14:17.385
811,11.0,963.0,45.0,964.113582520234,2021-08-12 09:14:17.386
812,-75.0,1016.0,32.0,1019.2668934091796,2021-08-12 09:14:17.395
813,67.0,1189.0,-55.0,1192.1556106482074,2021-08-12 09:14:17.405
814,-19.0,1076.0,108.0,1081.573390944877,2021-08-12 09:14:17.424
815,-46.0,1058.0,108.0,1064.4923672812313,2021-08-12 09:14:17.426
816,-46.0,1058.0,4.0,1059.0070821292934,2021-08-12 09:14:17.427
817,-201.0,1057.0,-85.0,1079.2937505609862,2021-08-12 09:14:17.435
818,-484.0,864.0,-86.0,994.0563364316934,2021-08-12 09:14:17.444
819,-352.0,980.0,-94.0,1045.5333567132136,2021-08-12 09:14:17.454
820,-180.0,956.0,18.0,972.9645420055142,2021-08-12 09:14:17.464
821,-362.0,898.0,-82.0,971.6851341869958,2021-08-12 09:14:17.477
822,-296.0,941.0,-63.0,988.46648906273,2021-08-12 09:14:17.483
823,-315.0,1008.0,14.0,1056.1652332850197,2021-08-12 09:14:17.493
824,-316.0,1069.0,-60.0,1116.340897754803,2021-08-12 09:14:17.503
825,-259.0,950.0,21.0,984.8969489240992,2021-08-12 09:14:17.514
826,-166.0,919.0,16.0,934.0091005980617,2021-08-12 09:14:17.522
827,-392.0,970.0,-167.0,1059.4588241172944,2021-08-12 09:14:17.532
828,-318.0,874.0,102.0,935.63026885624,2021-08-12 09:14:17.542
829,-109.0,908.0,19.0,914.7163494767108,2021-08-12 09:14:17.551
830,49.0,1219.0,-50.0,1221.0085994783165,2021-08-12 09:14:17.563
831,-74.0,968.0,20.0,971.0303805751907,2021-08-12 09:14:17.571
832,-265.0,968.0,20.0,1003.8172144369712,2021-08-12 09:14:17.580
833,-265.0,1097.0,-128.0,1135.7895931905698,2021-08-12 09:14:17.581
834,-238.0,993.0,-128.0,1029.1146680521078,2021-08-12 09:14:17.590
835,-238.0,993.0,-83.0,1024.491093177486,2021-08-12 09:14:17.591
836,-85.0,1093.0,-119.0,1102.739769845996,2021-08-12 09:14:17.600
837,-202.0,1093.0,-119.0,1117.8613509733664,2021-08-12 09:14:17.610
838,-202.0,986.0,-87.0,1010.2321515374572,2021-08-12 09:14:17.611
839,-308.0,986.0,-87.0,1036.643140140328,2021-08-12 09:14:17.621
840,-308.0,943.0,-64.0,994.0870183238488,2021-08-12 09:14:17.622
841,-37.0,943.0,-64.0,945.89322864687,2021-08-12 09:14:17.629
842,-37.0,1127.0,-49.0,1128.671342774326,2021-08-12 09:14:17.630
843,-219.0,846.0,-133.0,883.9490935568632,2021-08-12 09:14:17.639
844,-427.0,1041.0,-233.0,1149.0426449875563,2021-08-12 09:14:17.649
845,-182.0,1044.0,-81.0,1062.836299718823,2021-08-12 09:14:17.659
846,-425.0,878.0,-3.0,975.457841221239,2021-08-12 09:14:17.669
847,-433.0,870.0,-55.0,973.351940461414,2021-08-12 09:14:17.678
848,-290.0,935.0,22.0,979.1879288471648,2021-08-12 09:14:17.690
849,-303.0,1004.0,-77.0,1051.5483821489147,2021-08-12 09:14:17.698
850,8.0,1008.0,-67.0,1010.2559081737656,2021-08-12 09:14:17.708
851,26.0,901.0,29.0,901.841449479896,2021-08-12 09:14:17.718
852,-92.0,1003.0,-59.0,1008.9370644396012,2021-08-12 09:14:17.728
853,-8.0,984.0,287.0,1025.0312190367667,2021-08-12 09:14:17.737
854,-8.0,1007.0,41.0,1007.866062530136,2021-08-12 09:14:17.747
855,89.0,1105.0,41.0,1109.3362880569623,2021-08-12 09:14:17.756
856,89.0,1105.0,-81.0,1111.5336252223772,2021-08-12 09:14:17.757
857,18.0,1105.0,-81.0,1108.1110052697788,2021-08-12 09:14:17.767
858,18.0,844.0,157.0,858.6669901655705,2021-08-12 09:14:17.768
859,-12.0,1116.0,30.0,1116.4676439557038,2021-08-12 09:14:17.777
860,-139.0,973.0,15.0,982.9928789162208,2021-08-12 09:14:17.786
861,-140.0,973.0,15.0,983.1347822145242,2021-08-12 09:14:17.795
862,-140.0,1006.0,1.0,1015.6953283342402,2021-08-12 09:14:17.796
863,-152.0,1107.0,1.0,1117.3871307653403,2021-08-12 09:14:17.805
864,-152.0,1107.0,-97.0,1121.589051301768,2021-08-12 09:14:17.806
865,-200.0,1076.0,-141.0,1103.474965733251,2021-08-12 09:14:17.816
866,22.0,1187.0,-141.0,1195.547573290164,2021-08-12 09:14:17.825
867,22.0,1187.0,-84.0,1190.1718363328885,2021-08-12 09:14:17.826
868,-463.0,960.0,-5.0,1065.8301928543776,2021-08-12 09:14:17.835
869,-193.0,1073.0,17.0,1090.351778097326,2021-08-12 09:14:17.844
870,-230.0,962.0,-8.0,989.1450854146726,2021-08-12 09:14:17.854
871,-273.0,886.0,-21.0,927.343517796938,2021-08-12 09:14:17.865
872,-205.0,909.0,-38.0,932.603881613196,2021-08-12 09:14:17.874
873,-92.0,884.0,97.0,894.0520119098218,2021-08-12 09:14:17.884
874,-148.0,893.0,97.0,910.3636635982348,2021-08-12 09:14:17.893
875,-148.0,893.0,17.0,905.340819802134,2021-08-12 09:14:17.894
876,-60.0,929.0,32.0,931.4853729393716,2021-08-12 09:14:17.903
877,-110.0,849.0,93.0,861.132974632838,2021-08-12 09:14:17.913
878,-95.0,849.0,93.0,859.3456813180595,2021-08-12 09:14:17.923
879,-95.0,1041.0,-113.0,1051.4157122660856,2021-08-12 09:14:17.924
880,26.0,980.0,58.0,982.0590613603644,2021-08-12 09:14:17.933
881,-74.0,866.0,68.0,871.8119063192473,2021-08-12 09:14:17.942
882,-26.0,964.0,-20.0,964.5579298310704,2021-08-12 09:14:17.952
883,-45.0,902.0,104.0,909.0902045451816,2021-08-12 09:14:17.961
884,-406.0,1032.0,-151.0,1119.2233914639205,2021-08-12 09:14:17.972
885,-132.0,1084.0,-16.0,1092.1245350233644,2021-08-12 09:14:17.981
886,-298.0,1023.0,-65.0,1067.5008196718163,2021-08-12 09:14:17.991
887,-265.0,1023.0,-65.0,1058.7629574177593,2021-08-12 09:14:18.000
888,-265.0,989.0,-90.0,1027.8355899656326,2021-08-12 09:14:18.001
889,-257.0,987.0,-57.0,1021.502325009591,2021-08-12 09:14:18.010
890,-322.0,995.0,-145.0,1055.8096419336205,2021-08-12 09:14:18.021
891,-534.0,955.0,-83.0,1097.3012348484804,2021-08-12 09:14:18.045
892,-154.0,1033.0,-100.0,1049.1925466757757,2021-08-12 09:14:18.051
893,-295.0,874.0,-72.0,925.2486152380884,2021-08-12 09:14:18.059
894,-199.0,897.0,-37.0,919.5536960939256,2021-08-12 09:14:18.070
895,-154.0,971.0,65.0,985.2827005484264,2021-08-12 09:14:18.079
896,-39.0,971.0,65.0,973.9543110433876,2021-08-12 09:14:18.088
897,-39.0,932.0,115.0,939.877651612166,2021-08-12 09:14:18.089
898,-36.0,1109.0,-79.0,1112.392916194633,2021-08-12 09:14:18.098
899,-200.0,959.0,2.0,979.6351361603972,2021-08-12 09:14:18.108
900,-36.0,1074.0,2.0,1074.605043725368,2021-08-12 09:14:18.118
901,-36.0,1074.0,-11.0,1074.6594809519895,2021-08-12 09:14:18.119
902,-27.0,1074.0,-11.0,1074.395644071587,2021-08-12 09:14:18.127
903,-27.0,1079.0,-63.0,1081.1748239762153,2021-08-12 09:14:18.128
904,-147.0,1014.0,-27.0,1024.9556087948397,2021-08-12 09:14:18.137
905,-29.0,1184.0,-56.0,1185.6782868889857,2021-08-12 09:14:18.147
906,1.0,895.0,-66.0,897.4307772747712,2021-08-12 09:14:18.157
907,-222.0,954.0,-66.0,981.710751698279,2021-08-12 09:14:18.167
908,-222.0,954.0,-186.0,996.9934804200076,2021-08-12 09:14:18.168
909,36.0,1105.0,-43.0,1106.4221617447836,2021-08-12 09:14:18.177
910,-219.0,1021.0,-28.0,1044.5984874582196,2021-08-12 09:14:18.186
911,-378.0,1091.0,-147.0,1163.9475933219674,2021-08-12 09:14:18.196
912,-389.0,916.0,-77.0,998.1512911377714,2021-08-12 09:14:18.206
913,-302.0,956.0,-159.0,1015.0965471323406,2021-08-12 09:14:18.216
914,-179.0,899.0,34.0,917.2774934554974,2021-08-12 09:14:18.226
915,-251.0,880.0,42.0,916.0594958844104,2021-08-12 09:14:18.235
916,-121.0,1065.0,-96.0,1076.1421839143748,2021-08-12 09:14:18.245
917,-16.0,1065.0,-96.0,1069.437702720453,2021-08-12 09:14:18.254
918,-16.0,969.0,153.0,981.135056962088,2021-08-12 09:14:18.255
919,-27.0,882.0,69.0,885.1067732200449,2021-08-12 09:14:18.265
920,-68.0,960.0,-113.0,969.0165117272254,2021-08-12 09:14:18.275
921,-203.0,939.0,41.0,961.5669503471923,2021-08-12 09:14:18.284
922,-76.0,939.0,41.0,942.962353437294,2021-08-12 09:14:18.293
923,-76.0,1024.0,6.0,1026.8339690524465,2021-08-12 09:14:18.294
924,-40.0,925.0,131.0,935.0860922931108,2021-08-12 09:14:18.303
925,65.0,925.0,131.0,936.4886544961448,2021-08-12 09:14:18.313
926,65.0,976.0,-6.0,978.1804536996228,2021-08-12 09:14:18.314
927,-40.0,1000.0,2.0,1000.8016786556664,2021-08-12 09:14:18.328
928,-153.0,1000.0,2.0,1011.6387695220068,2021-08-12 09:14:18.332
929,-153.0,951.0,31.0,963.7276586256098,2021-08-12 09:14:18.333
930,10.0,1162.0,-40.0,1162.731267318463,2021-08-12 09:14:18.342
931,-484.0,993.0,-40.0,1105.3981183266055,2021-08-12 09:14:18.352
932,-484.0,993.0,-75.0,1107.2172325248555,2021-08-12 09:14:18.353
933,-453.0,1027.0,-38.0,1123.1126390527354,2021-08-12 09:14:18.363
934,-215.0,974.0,-24.0,997.7359370093872,2021-08-12 09:14:18.372
935,-485.0,974.0,-24.0,1088.3368044865524,2021-08-12 09:14:18.381
936,-485.0,955.0,-143.0,1080.6012215428964,2021-08-12 09:14:18.382
937,-278.0,940.0,7.0,980.2719010560284,2021-08-12 09:14:18.391
938,-145.0,890.0,134.0,911.6364406933282,2021-08-12 09:14:18.401
939,-381.0,821.0,30.0,905.5948321407316,2021-08-12 09:14:18.412
940,-325.0,908.0,-51.0,965.758769051568,2021-08-12 09:14:18.421
941,-55.0,913.0,-51.0,916.0758702203656,2021-08-12 09:14:18.438
942,-55.0,913.0,63.0,916.822229224401,2021-08-12 09:14:18.439
943,10.0,931.0,-66.0,933.3900578000604,2021-08-12 09:14:18.441
944,-235.0,931.0,-66.0,962.4666227979026,2021-08-12 09:14:18.449
945,-235.0,1095.0,-142.0,1128.8994640799508,2021-08-12 09:14:18.450
946,-251.0,1112.0,-93.0,1143.763087356818,2021-08-12 09:14:18.460
947,-213.0,937.0,-93.0,965.3947379181222,2021-08-12 09:14:18.469
948,-213.0,937.0,88.0,964.9259038910708,2021-08-12 09:14:18.470
949,-354.0,901.0,191.0,986.7106972157544,2021-08-12 09:14:18.486
950,-108.0,943.0,-149.0,960.7882180793018,2021-08-12 09:14:18.489
951,-242.0,1072.0,-107.0,1104.1725408648776,2021-08-12 09:14:18.499
952,-244.0,1082.0,-107.0,1114.319972000861,2021-08-12 09:14:18.508
953,-244.0,1082.0,-218.0,1130.3910827673758,2021-08-12 09:14:18.509
954,-335.0,1041.0,-33.0,1094.0726666908374,2021-08-12 09:14:18.519
955,-296.0,963.0,70.0,1009.8935587476534,2021-08-12 09:14:18.528
956,-166.0,963.0,70.0,979.7065887295032,2021-08-12 09:14:18.537
957,-166.0,1045.0,-36.0,1058.7147868996635,2021-08-12 09:14:18.538
958,-71.0,915.0,19.0,917.9471662356171,2021-08-12 09:14:18.548
959,-128.0,892.0,96.0,906.2361723083006,2021-08-12 09:14:18.557
960,-140.0,975.0,0.0,985.0,2021-08-12 09:14:18.568
961,-13.0,973.0,-97.0,977.9095050156736,2021-08-12 09:14:18.577
962,-269.0,973.0,-97.0,1014.14939727833,2021-08-12 09:14:18.586
963,-269.0,1025.0,-113.0,1065.7180677834076,2021-08-12 09:14:18.587
964,-326.0,1081.0,-129.0,1136.432136117243,2021-08-12 09:14:18.597
965,-92.0,1007.0,-108.0,1016.9449345957725,2021-08-12 09:14:18.606
966,-118.0,937.0,62.0,946.4338328694722,2021-08-12 09:14:18.617
967,-65.0,940.0,51.0,943.6238657431254,2021-08-12 09:14:18.626
968,-134.0,965.0,0.0,974.25920575584,2021-08-12 09:14:18.635
969,-76.0,934.0,25.0,937.4203966204276,2021-08-12 09:14:18.645
970,-148.0,968.0,-9.0,979.290048964044,2021-08-12 09:14:18.655
971,-248.0,968.0,-9.0,999.3042579715147,2021-08-12 09:14:18.664
972,-248.0,973.0,-3.0,1004.1125434930092,2021-08-12 09:14:18.665
973,-173.0,887.0,12.0,903.793117920246,2021-08-12 09:14:18.676
974,-225.0,975.0,-22.0,1000.8666244810044,2021-08-12 09:14:18.686
975,-158.0,985.0,5.0,997.6041299032396,2021-08-12 09:14:18.694
976,-196.0,1050.0,-62.0,1069.9345774392002,2021-08-12 09:14:18.705
977,-223.0,966.0,-62.0,993.3423377667942,2021-08-12 09:14:18.713
978,-223.0,966.0,-60.0,993.2195124945944,2021-08-12 09:14:18.714
979,-133.0,966.0,-60.0,976.9570103131458,2021-08-12 09:14:18.724
980,-133.0,990.0,-54.0,1000.3524378937656,2021-08-12 09:14:18.725
981,-193.0,991.0,-35.0,1010.2252224132992,2021-08-12 09:14:18.733
982,-132.0,1027.0,-61.0,1037.243462259464,2021-08-12 09:14:18.743
983,-127.0,1027.0,-61.0,1036.6190235568706,2021-08-12 09:14:18.752
984,-127.0,989.0,-77.0,1000.0894959952334,2021-08-12 09:14:18.753
985,-182.0,963.0,-14.0,980.1474378888108,2021-08-12 09:14:18.762
986,-192.0,970.0,-7.0,988.8442748987324,2021-08-12 09:14:18.773
987,-192.0,953.0,-40.0,972.9712225960232,2021-08-12 09:14:18.782
988,-218.0,939.0,-40.0,964.8030887181072,2021-08-12 09:14:18.791
989,-218.0,939.0,9.0,964.0155600403968,2021-08-12 09:14:18.792
990,-208.0,1016.0,15.0,1037.18127634469,2021-08-12 09:14:18.801
991,-134.0,1025.0,15.0,1033.8307404986565,2021-08-12 09:14:18.811
992,-134.0,1025.0,-25.0,1034.024177667041,2021-08-12 09:14:18.812
993,-133.0,979.0,-73.0,990.686125874386,2021-08-12 09:14:18.821
994,-200.0,955.0,-23.0,975.9887294431222,2021-08-12 09:14:18.831
995,-145.0,1003.0,-23.0,1013.6878217676287,2021-08-12 09:14:18.840
996,-145.0,1003.0,-27.0,1013.7864666684004,2021-08-12 09:14:18.841
997,-145.0,991.0,-43.0,1002.4744385768648,2021-08-12 09:14:18.850
998,-208.0,954.0,1.0,976.4123104508668,2021-08-12 09:14:18.861
999,-122.0,991.0,-49.0,999.6829497395662,2021-08-12 09:14:18.870
1000,-162.0,990.0,-4.0,1003.1749598150864,2021-08-12 09:14:18.880
1001,-182.0,990.0,-4.0,1006.5982316694184,2021-08-12 09:14:18.892
1002,-182.0,979.0,5.0,995.786121614476,2021-08-12 09:14:18.893
1003,-230.0,999.0,-30.0,1025.5734980975278,2021-08-12 09:14:18.899
1004,-328.0,1034.0,-27.0,1085.112436570515,2021-08-12 09:14:18.909
1005,-246.0,942.0,-27.0,973.965605142194,2021-08-12 09:14:18.918
1006,-246.0,942.0,8.0,973.624157465292,2021-08-12 09:14:18.919
1007,-130.0,950.0,-34.0,959.4560959210172,2021-08-12 09:14:18.930
1008,-158.0,992.0,2.0,1004.505848663909,2021-08-12 09:14:18.938
1009,-232.0,974.0,14.0,1001.3470926706684,2021-08-12 09:14:18.948
1010,-181.0,965.0,-1.0,981.8283964115114,2021-08-12 09:14:18.958
1011,-118.0,1039.0,-26.0,1046.0023900546307,2021-08-12 09:14:18.968
1012,-98.0,1021.0,-34.0,1026.255816061473,2021-08-12 09:14:18.978
1013,-136.0,999.0,-71.0,1010.711630486164,2021-08-12 09:14:18.987
1014,-193.0,953.0,-5.0,972.3595014190996,2021-08-12 09:14:18.997
