,Acceleration_X,Acceleration_Y,Acceleration_Z,magnitude,time_stamp
0,-184.0,994.0,-48.0,1012.0256913734949,2021-09-24 07:25:41.707
1,-184.0,994.0,-29.0,1011.3026253303212,2021-09-24 07:25:41.708
2,-177.0,1018.0,-29.0,1033.6798343781309,2021-09-24 07:25:41.717
3,-177.0,1018.0,-10.0,1033.3213440164682,2021-09-24 07:25:41.718
4,-194.0,1018.0,-10.0,1036.3686602749042,2021-09-24 07:25:41.726
5,-194.0,960.0,-4.0,979.41411057836,2021-09-24 07:25:41.727
6,-179.0,999.0,-11.0,1014.9694576685548,2021-09-24 07:25:41.736
7,152.0,1096.0,61.0,1108.1701132948858,2021-09-24 07:25:41.746
8,-388.0,1045.0,61.0,1116.3735933817138,2021-09-24 07:25:41.755
9,-388.0,1045.0,41.0,1115.4595465546925,2021-09-24 07:25:41.756
10,-346.0,757.0,56.0,834.2068088909368,2021-09-24 07:25:41.766
11,-240.0,1023.0,-254.0,1081.0388522157748,2021-09-24 07:25:41.776
12,-182.0,1438.0,-603.0,1569.8971303878482,2021-09-24 07:25:41.785
13,-325.0,1146.0,-603.0,1335.1217172977151,2021-09-24 07:25:41.794
14,-325.0,1146.0,-247.0,1216.5319560126648,2021-09-24 07:25:41.795
15,-512.0,1306.0,-262.0,1427.0332862270593,2021-09-24 07:25:41.805
16,-565.0,791.0,200.0,992.424304418226,2021-09-24 07:25:41.815
17,186.0,816.0,127.0,846.5110749423187,2021-09-24 07:25:41.826
18,73.0,1368.0,127.0,1375.8204824758209,2021-09-24 07:25:41.833
19,73.0,1368.0,-142.0,1377.2860995450435,2021-09-24 07:25:41.834
20,-299.0,1081.0,-142.0,1130.5423477251968,2021-09-24 07:25:41.844
21,-278.0,999.0,-228.0,1061.7292498561014,2021-09-24 07:25:41.853
22,-370.0,672.0,198.0,792.2676315488346,2021-09-24 07:25:41.863
23,-696.0,736.0,82.0,1016.2853929876194,2021-09-24 07:25:41.874
24,-416.0,1349.0,-549.0,1514.680824464349,2021-09-24 07:25:41.887
25,-340.0,606.0,-549.0,885.5715668425674,2021-09-24 07:25:41.893
26,-340.0,606.0,184.0,718.8129102902924,2021-09-24 07:25:41.894
27,-289.0,1014.0,-302.0,1096.7775526514024,2021-09-24 07:25:41.902
28,-76.0,1014.0,-302.0,1060.743135730795,2021-09-24 07:25:41.912
29,-76.0,914.0,-93.0,921.8573642380908,2021-09-24 07:25:41.913
30,-441.0,914.0,-93.0,1019.080958511148,2021-09-24 07:25:41.922
31,-441.0,983.0,-397.0,1148.2068628953582,2021-09-24 07:25:41.923
32,-808.0,982.0,-417.0,1338.311249298907,2021-09-24 07:25:41.942
33,-40.0,989.0,217.0,1013.3163375767708,2021-09-24 07:25:41.946
34,296.0,943.0,183.0,1005.1636682650244,2021-09-24 07:25:41.951
35,451.0,943.0,183.0,1061.1969656948704,2021-09-24 07:25:41.960
36,451.0,1139.0,14.0,1225.1195859996687,2021-09-24 07:25:41.961
37,-191.0,909.0,77.0,932.03594351291,2021-09-24 07:25:41.971
38,455.0,1455.0,95.0,1527.4406698788664,2021-09-24 07:25:41.980
39,-315.0,886.0,158.0,953.5119296579356,2021-09-24 07:25:41.991
40,-53.0,886.0,158.0,901.5370208704688,2021-09-24 07:25:41.999
41,-53.0,940.0,-9.0,941.5359791319712,2021-09-24 07:25:42.000
42,93.0,1136.0,29.0,1140.1692856764737,2021-09-24 07:25:42.009
43,-236.0,1136.0,29.0,1160.6175080533635,2021-09-24 07:25:42.019
44,-236.0,882.0,-36.0,913.7373802138118,2021-09-24 07:25:42.020
45,86.0,1054.0,-36.0,1058.1153056259984,2021-09-24 07:25:42.029
46,86.0,1054.0,14.0,1057.5953857690567,2021-09-24 07:25:42.030
47,-423.0,810.0,-76.0,916.9541973293976,2021-09-24 07:25:42.039
48,-385.0,1034.0,-406.0,1175.677251629885,2021-09-24 07:25:42.050
49,-165.0,1188.0,-308.0,1238.318618127015,2021-09-24 07:25:42.058
50,-97.0,1188.0,-308.0,1231.103976112497,2021-09-24 07:25:42.068
51,-97.0,793.0,101.0,805.2695200987058,2021-09-24 07:25:42.069
52,-262.0,1296.0,-349.0,1367.5017367447838,2021-09-24 07:25:42.078
53,82.0,1007.0,-349.0,1068.912531501058,2021-09-24 07:25:42.087
54,82.0,1007.0,299.0,1053.6479487950423,2021-09-24 07:25:42.088
55,133.0,1191.0,-76.0,1200.810559580486,2021-09-24 07:25:42.098
56,-1.0,1260.0,-114.0,1265.1470270288746,2021-09-24 07:25:42.107
57,125.0,783.0,227.0,824.7684523549625,2021-09-24 07:25:42.117
58,113.0,1223.0,227.0,1249.0104082832936,2021-09-24 07:25:42.126
59,113.0,1223.0,28.0,1228.5283879503966,2021-09-24 07:25:42.127
60,85.0,994.0,181.0,1013.9141975532248,2021-09-24 07:25:42.137
61,217.0,1054.0,91.0,1079.9472209325788,2021-09-24 07:25:42.147
62,114.0,1131.0,160.0,1147.9359738243245,2021-09-24 07:25:42.156
63,-136.0,1131.0,160.0,1150.32908334963,2021-09-24 07:25:42.165
64,-136.0,862.0,166.0,888.3107564360571,2021-09-24 07:25:42.166
65,-620.0,1091.0,166.0,1265.7950071002808,2021-09-24 07:25:42.175
66,-620.0,1091.0,-345.0,1301.4246040397422,2021-09-24 07:25:42.176
67,-593.0,816.0,24.0,1009.0,2021-09-24 07:25:42.185
68,-437.0,946.0,-180.0,1057.4899526709462,2021-09-24 07:25:42.195
69,-520.0,946.0,-180.0,1094.4021198809878,2021-09-24 07:25:42.205
70,-520.0,1044.0,-338.0,1214.3228565748072,2021-09-24 07:25:42.206
71,-446.0,907.0,-81.0,1013.9654826472153,2021-09-24 07:25:42.214
72,-437.0,1081.0,-256.0,1193.7612826691943,2021-09-24 07:25:42.227
73,-249.0,1008.0,97.0,1042.8202146103613,2021-09-24 07:25:42.234
74,-334.0,1001.0,58.0,1056.844832508538,2021-09-24 07:25:42.245
75,-157.0,1091.0,-142.0,1111.3478303393588,2021-09-24 07:25:42.254
76,-211.0,825.0,-37.0,852.3584926543525,2021-09-24 07:25:42.263
77,-111.0,1249.0,-204.0,1270.4085956888043,2021-09-24 07:25:42.273
78,-100.0,951.0,163.0,970.036081803146,2021-09-24 07:25:42.283
79,-305.0,969.0,18.0,1016.0265744556094,2021-09-24 07:25:42.295
80,231.0,1220.0,65.0,1243.3768535725603,2021-09-24 07:25:42.303
81,-452.0,1220.0,65.0,1302.6622739605227,2021-09-24 07:25:42.312
82,-452.0,867.0,-113.0,984.2570802386946,2021-09-24 07:25:42.313
83,-183.0,804.0,-106.0,831.3489038905386,2021-09-24 07:25:42.322
84,-235.0,804.0,-106.0,844.3204368010998,2021-09-24 07:25:42.331
85,-235.0,830.0,53.0,864.2534350524735,2021-09-24 07:25:42.332
86,-582.0,740.0,-109.0,947.7367778027822,2021-09-24 07:25:42.342
87,-350.0,866.0,-206.0,956.4998693152028,2021-09-24 07:25:42.351
88,-372.0,815.0,-24.0,896.2058915227013,2021-09-24 07:25:42.362
89,-422.0,815.0,-24.0,918.0876864439476,2021-09-24 07:25:42.370
90,-422.0,1150.0,-354.0,1275.1078385768003,2021-09-24 07:25:42.371
91,-436.0,872.0,-354.0,1037.2058619194167,2021-09-24 07:25:42.380
92,-436.0,872.0,-38.0,975.6659264317884,2021-09-24 07:25:42.381
93,-511.0,955.0,-124.0,1090.1935607955131,2021-09-24 07:25:42.390
94,-455.0,1083.0,-124.0,1181.2239415115157,2021-09-24 07:25:42.400
95,-455.0,1083.0,-260.0,1203.1267597389729,2021-09-24 07:25:42.401
96,11.0,1083.0,-260.0,1113.8267369748312,2021-09-24 07:25:42.410
97,11.0,931.0,40.0,931.9238166288058,2021-09-24 07:25:42.411
98,76.0,1013.0,-9.0,1015.8868047179272,2021-09-24 07:25:42.419
99,236.0,1263.0,125.0,1290.9260242167247,2021-09-24 07:25:42.430
100,-99.0,976.0,125.0,988.9398363904652,2021-09-24 07:25:42.439
101,-99.0,976.0,126.0,989.0667318234904,2021-09-24 07:25:42.440
102,-10.0,1135.0,57.0,1136.4743727862938,2021-09-24 07:25:42.449
103,-177.0,1135.0,57.0,1150.1317315855606,2021-09-24 07:25:42.459
104,-177.0,856.0,95.0,879.2553667734988,2021-09-24 07:25:42.460
105,67.0,989.0,-180.0,1007.4770468849404,2021-09-24 07:25:42.477
106,-251.0,971.0,-76.0,1005.7922250644016,2021-09-24 07:25:42.480
107,-452.0,811.0,88.0,932.6140680903328,2021-09-24 07:25:42.488
108,252.0,1128.0,-40.0,1156.498162557987,2021-09-24 07:25:42.499
109,-467.0,779.0,-60.0,910.2362330735906,2021-09-24 07:25:42.507
110,-223.0,1014.0,-67.0,1040.391272550861,2021-09-24 07:25:42.517
111,-169.0,1188.0,-348.0,1249.4034576548922,2021-09-24 07:25:42.527
112,-232.0,965.0,-348.0,1051.7380852664792,2021-09-24 07:25:42.548
113,-232.0,965.0,81.0,995.796163880942,2021-09-24 07:25:42.549
114,-211.0,1193.0,-141.0,1219.692994158776,2021-09-24 07:25:42.552
115,-73.0,963.0,187.0,983.7006658531852,2021-09-24 07:25:42.557
116,299.0,1065.0,-13.0,1106.2526836125642,2021-09-24 07:25:42.566
117,142.0,1163.0,12.0,1171.6983400176002,2021-09-24 07:25:42.576
118,-59.0,929.0,98.0,936.0160255038372,2021-09-24 07:25:42.587
119,282.0,929.0,98.0,975.7914736253848,2021-09-24 07:25:42.596
120,282.0,1353.0,25.0,1382.301703681219,2021-09-24 07:25:42.597
121,-202.0,882.0,117.0,912.3688946911768,2021-09-24 07:25:42.605
122,111.0,983.0,0.0,989.2471885226664,2021-09-24 07:25:42.615
123,-236.0,968.0,-175.0,1011.605160129188,2021-09-24 07:25:42.625
124,-599.0,829.0,-172.0,1037.1239077371613,2021-09-24 07:25:42.634
125,-516.0,994.0,-219.0,1141.163003255889,2021-09-24 07:25:42.645
126,-325.0,918.0,27.0,974.2063436459443,2021-09-24 07:25:42.654
127,-456.0,918.0,27.0,1025.3726151989822,2021-09-24 07:25:42.663
128,-456.0,976.0,-52.0,1078.5249185809291,2021-09-24 07:25:42.664
129,-344.0,1060.0,-278.0,1148.5730277174368,2021-09-24 07:25:42.673
130,-289.0,906.0,-278.0,990.7779771472516,2021-09-24 07:25:42.687
131,-289.0,906.0,95.0,955.7102071234774,2021-09-24 07:25:42.688
132,-320.0,1229.0,-239.0,1292.2700956069516,2021-09-24 07:25:42.693
133,-22.0,1061.0,266.0,1094.0571283072927,2021-09-24 07:25:42.703
134,40.0,1060.0,-179.0,1075.75136532565,2021-09-24 07:25:42.712
135,137.0,1252.0,-183.0,1272.698707471647,2021-09-24 07:25:42.723
136,-63.0,903.0,43.0,906.215757973784,2021-09-24 07:25:42.733
137,-243.0,962.0,-81.0,995.5169511364436,2021-09-24 07:25:42.742
138,-111.0,924.0,-81.0,934.1616562458556,2021-09-24 07:25:42.751
139,-111.0,924.0,40.0,931.502549647611,2021-09-24 07:25:42.752
140,-575.0,711.0,-34.0,915.0420755353276,2021-09-24 07:25:42.761
141,-244.0,883.0,-83.0,919.8445520847532,2021-09-24 07:25:42.771
142,-512.0,727.0,54.0,890.8361240991521,2021-09-24 07:25:42.781
143,-322.0,988.0,-262.0,1071.6678589936344,2021-09-24 07:25:42.792
144,-520.0,837.0,-96.0,990.0429283622,2021-09-24 07:25:42.800
145,-466.0,893.0,-138.0,1016.6853003756866,2021-09-24 07:25:42.810
146,-435.0,1032.0,-284.0,1155.3808895771126,2021-09-24 07:25:42.822
147,-564.0,1032.0,-284.0,1209.8661082946328,2021-09-24 07:25:42.829
148,-564.0,859.0,-90.0,1031.5410801320518,2021-09-24 07:25:42.830
149,-508.0,859.0,-90.0,1002.0204588729712,2021-09-24 07:25:42.840
150,-508.0,1049.0,-199.0,1182.3984100124628,2021-09-24 07:25:42.841
151,280.0,1247.0,26.0,1278.3133418688865,2021-09-24 07:25:42.849
152,63.0,859.0,170.0,877.9236868885587,2021-09-24 07:25:42.859
153,9.0,1151.0,86.0,1154.2434751819046,2021-09-24 07:25:42.869
154,-68.0,956.0,86.0,962.2660754697736,2021-09-24 07:25:42.878
155,-68.0,956.0,71.0,961.0416224076874,2021-09-24 07:25:42.879
156,-43.0,1053.0,-54.0,1055.2601574967189,2021-09-24 07:25:42.889
157,61.0,1037.0,60.0,1040.5239065009512,2021-09-24 07:25:42.899
158,-239.0,782.0,109.0,824.9399978180231,2021-09-24 07:25:42.908
159,184.0,1200.0,-177.0,1226.8598126925503,2021-09-24 07:25:42.918
160,-379.0,815.0,3.0,898.8186691430035,2021-09-24 07:25:42.927
161,-307.0,896.0,-250.0,979.5738869528934,2021-09-24 07:25:42.937
162,-386.0,843.0,61.0,929.1749028035572,2021-09-24 07:25:42.958
163,-387.0,728.0,-131.0,834.8137516835716,2021-09-24 07:25:42.965
164,-348.0,1085.0,-177.0,1153.1079741290491,2021-09-24 07:25:42.969
165,-177.0,959.0,117.0,982.190918304583,2021-09-24 07:25:42.977
166,-23.0,1045.0,-36.0,1045.8728412192372,2021-09-24 07:25:42.986
167,-120.0,1045.0,-36.0,1052.4832540235498,2021-09-24 07:25:42.996
168,-120.0,1110.0,-89.0,1120.0093749607634,2021-09-24 07:25:42.997
169,-4.0,1110.0,-89.0,1113.5694859325124,2021-09-24 07:25:43.005
170,-4.0,832.0,87.0,836.5458744145476,2021-09-24 07:25:43.006
171,204.0,1341.0,-41.0,1357.0475304866811,2021-09-24 07:25:43.018
172,153.0,1001.0,28.0,1013.0123395102352,2021-09-24 07:25:43.025
173,122.0,1036.0,66.0,1045.244469011915,2021-09-24 07:25:43.035
174,293.0,1336.0,17.0,1367.8574487131325,2021-09-24 07:25:43.045
175,-70.0,880.0,239.0,914.5605502097716,2021-09-24 07:25:43.054
176,242.0,1255.0,74.0,1280.259739271684,2021-09-24 07:25:43.065
177,-214.0,906.0,1.0,930.9312541750868,2021-09-24 07:25:43.074
178,-703.0,956.0,1.0,1186.6532770780182,2021-09-24 07:25:43.083
179,-703.0,956.0,-314.0,1227.493788171655,2021-09-24 07:25:43.084
180,-541.0,940.0,-238.0,1110.371559434048,2021-09-24 07:25:43.093
181,-148.0,973.0,-39.0,984.9639587314856,2021-09-24 07:25:43.104
182,-660.0,1184.0,-351.0,1400.234623197127,2021-09-24 07:25:43.113
183,-227.0,1184.0,-351.0,1255.6217583332968,2021-09-24 07:25:43.122
184,-227.0,947.0,148.0,985.008629403824,2021-09-24 07:25:43.123
185,-394.0,1017.0,-16.0,1090.770828359468,2021-09-24 07:25:43.132
186,47.0,1231.0,-185.0,1245.7106405582315,2021-09-24 07:25:43.142
187,-103.0,918.0,161.0,937.6854483247567,2021-09-24 07:25:43.153
188,29.0,1218.0,-183.0,1232.012175264514,2021-09-24 07:25:43.162
189,-110.0,973.0,192.0,997.8441762118972,2021-09-24 07:25:43.172
190,328.0,994.0,63.0,1048.6128933023854,2021-09-24 07:25:43.181
191,-184.0,981.0,1.0,998.1072086704914,2021-09-24 07:25:43.191
192,-349.0,821.0,-47.0,893.3370024800271,2021-09-24 07:25:43.201
193,-289.0,1010.0,-362.0,1111.1548046964474,2021-09-24 07:25:43.211
194,-630.0,768.0,-362.0,1057.2454776446198,2021-09-24 07:25:43.224
195,-630.0,768.0,-50.0,994.597405988976,2021-09-24 07:25:43.225
196,-486.0,848.0,-24.0,977.6891121414824,2021-09-24 07:25:43.230
197,-285.0,972.0,-260.0,1045.7576201013312,2021-09-24 07:25:43.240
198,-588.0,972.0,-260.0,1165.387489206916,2021-09-24 07:25:43.250
199,-588.0,780.0,16.0,976.933979345585,2021-09-24 07:25:43.251
200,-489.0,923.0,-262.0,1076.8908951235496,2021-09-24 07:25:43.260
201,-439.0,914.0,-33.0,1014.497905369942,2021-09-24 07:25:43.270
202,-429.0,913.0,-50.0,1010.0049504829173,2021-09-24 07:25:43.279
203,-377.0,1014.0,-135.0,1090.206402476155,2021-09-24 07:25:43.289
204,57.0,912.0,184.0,932.1207003387492,2021-09-24 07:25:43.299
205,362.0,1073.0,40.0,1133.125324048492,2021-09-24 07:25:43.308
206,82.0,1195.0,-24.0,1198.050499770356,2021-09-24 07:25:43.319
207,-220.0,959.0,96.0,988.583329821012,2021-09-24 07:25:43.328
208,330.0,1341.0,96.0,1384.3399149052952,2021-09-24 07:25:43.337
209,330.0,1341.0,122.0,1386.3855884998227,2021-09-24 07:25:43.338
210,-285.0,870.0,77.0,918.7241152816224,2021-09-24 07:25:43.348
211,-20.0,956.0,-137.0,965.9736021237848,2021-09-24 07:25:43.358
212,102.0,1078.0,41.0,1083.590789920254,2021-09-24 07:25:43.368
213,-389.0,1078.0,41.0,1146.771991286847,2021-09-24 07:25:43.376
214,-389.0,930.0,-29.0,1008.494918182536,2021-09-24 07:25:43.377
215,-223.0,933.0,17.0,959.4305602804196,2021-09-24 07:25:43.386
216,-466.0,819.0,-13.0,942.3831492551212,2021-09-24 07:25:43.396
217,-257.0,819.0,-13.0,858.474810346815,2021-09-24 07:25:43.406
218,-257.0,932.0,-263.0,1001.919158415488,2021-09-24 07:25:43.407
219,-279.0,1038.0,-170.0,1088.2026465691029,2021-09-24 07:25:43.417
220,-180.0,922.0,126.0,947.8185480354348,2021-09-24 07:25:43.426
221,-40.0,1325.0,-114.0,1330.4965238586683,2021-09-24 07:25:43.435
222,76.0,1053.0,184.0,1071.6533954595582,2021-09-24 07:25:43.446
223,81.0,1053.0,184.0,1072.019589373254,2021-09-24 07:25:43.455
224,81.0,1063.0,-11.0,1066.1383587508706,2021-09-24 07:25:43.456
225,172.0,1306.0,-11.0,1317.323422702261,2021-09-24 07:25:43.464
226,172.0,1306.0,-112.0,1322.030256839835,2021-09-24 07:25:43.465
227,-58.0,908.0,48.0,911.115799445932,2021-09-24 07:25:43.475
228,7.0,1152.0,93.0,1155.7690080634625,2021-09-24 07:25:43.484
229,7.0,1000.0,61.0,1001.8832267285444,2021-09-24 07:25:43.500
230,250.0,1065.0,-28.0,1094.3075436091997,2021-09-24 07:25:43.505
231,-44.0,1089.0,-23.0,1090.1311847663103,2021-09-24 07:25:43.513
232,-273.0,897.0,-18.0,937.7963531598958,2021-09-24 07:25:43.524
233,-419.0,1090.0,-253.0,1194.851455202696,2021-09-24 07:25:43.535
234,-488.0,1090.0,-253.0,1220.7591900125103,2021-09-24 07:25:43.542
235,-488.0,880.0,9.0,1006.2927009573308,2021-09-24 07:25:43.543
236,-354.0,935.0,-106.0,1005.3740597409504,2021-09-24 07:25:43.565
237,-354.0,1052.0,-234.0,1134.361494409961,2021-09-24 07:25:43.567
238,-369.0,1052.0,-234.0,1139.131686856265,2021-09-24 07:25:43.573
239,-369.0,870.0,89.0,949.2007163924816,2021-09-24 07:25:43.574
240,-277.0,870.0,89.0,917.3603435945986,2021-09-24 07:25:43.581
241,-277.0,1170.0,-227.0,1223.5840796610587,2021-09-24 07:25:43.582
242,-118.0,1047.0,114.0,1059.7778069010503,2021-09-24 07:25:43.591
243,-158.0,1058.0,-129.0,1077.4827144785202,2021-09-24 07:25:43.602
244,-234.0,1070.0,-180.0,1109.9801800032287,2021-09-24 07:25:43.612
245,-9.0,934.0,104.0,939.8154074072206,2021-09-24 07:25:43.622
246,-66.0,1262.0,-125.0,1269.8917276681505,2021-09-24 07:25:43.630
247,-95.0,999.0,-54.0,1004.9587056192906,2021-09-24 07:25:43.640
248,-289.0,922.0,-41.0,967.1018560627416,2021-09-24 07:25:43.650
249,18.0,1090.0,-137.0,1098.723350074986,2021-09-24 07:25:43.660
250,-479.0,780.0,18.0,915.5135171039256,2021-09-24 07:25:43.671
251,-444.0,947.0,-264.0,1078.7219289511083,2021-09-24 07:25:43.679
252,-448.0,826.0,52.0,941.1078577931436,2021-09-24 07:25:43.689
253,-606.0,826.0,52.0,1025.7758039649796,2021-09-24 07:25:43.702
254,-606.0,698.0,-35.0,925.0216213689278,2021-09-24 07:25:43.703
255,-290.0,698.0,-35.0,756.6564610178123,2021-09-24 07:25:43.708
256,-290.0,916.0,-195.0,980.398388411568,2021-09-24 07:25:43.709
257,-362.0,901.0,-66.0,973.2425185944148,2021-09-24 07:25:43.718
258,-554.0,1133.0,-371.0,1314.62770395272,2021-09-24 07:25:43.728
259,-442.0,850.0,55.0,959.6296160498592,2021-09-24 07:25:43.738
260,-367.0,983.0,-104.0,1054.416426275691,2021-09-24 07:25:43.749
261,180.0,1276.0,120.0,1294.2086385123537,2021-09-24 07:25:43.759
262,-25.0,810.0,191.0,832.5899350820907,2021-09-24 07:25:43.767
263,75.0,1055.0,-37.0,1058.309501044,2021-09-24 07:25:43.777
264,141.0,1214.0,52.0,1223.2665286028223,2021-09-24 07:25:43.787
265,-30.0,988.0,52.0,989.8222062572652,2021-09-24 07:25:43.796
266,-30.0,988.0,134.0,997.4968671630002,2021-09-24 07:25:43.797
267,1.0,1085.0,20.0,1085.1847768928571,2021-09-24 07:25:43.808
268,-216.0,859.0,155.0,899.20075622744,2021-09-24 07:25:43.816
269,-184.0,949.0,-108.0,972.6875140557732,2021-09-24 07:25:43.826
270,-294.0,949.0,-108.0,999.3502889377678,2021-09-24 07:25:43.835
271,-294.0,902.0,21.0,948.9367734469984,2021-09-24 07:25:43.836
272,-338.0,968.0,22.0,1025.5496087464517,2021-09-24 07:25:43.845
273,81.0,1037.0,-5.0,1040.17065907475,2021-09-24 07:25:43.862
274,-409.0,734.0,-10.0,840.3195820638717,2021-09-24 07:25:43.867
275,-144.0,734.0,-10.0,748.0588212166207,2021-09-24 07:25:43.874
276,-144.0,999.0,49.0,1010.5137307330366,2021-09-24 07:25:43.875
277,-111.0,846.0,107.0,859.9337183760153,2021-09-24 07:25:43.894
278,-22.0,1105.0,6.0,1105.2352690717032,2021-09-24 07:25:43.905
279,44.0,906.0,6.0,907.0876473638036,2021-09-24 07:25:43.914
280,44.0,906.0,181.0,924.9502689334169,2021-09-24 07:25:43.915
281,290.0,1031.0,-29.0,1071.4018853819514,2021-09-24 07:25:43.923
282,188.0,1183.0,-2.0,1197.846818253486,2021-09-24 07:25:43.934
283,-62.0,984.0,57.0,987.5975901145164,2021-09-24 07:25:43.943
284,307.0,1418.0,89.0,1453.579719176076,2021-09-24 07:25:43.953
285,-168.0,861.0,89.0,881.740324585419,2021-09-24 07:25:43.963
286,-168.0,861.0,140.0,888.3383364461988,2021-09-24 07:25:43.964
287,-27.0,995.0,-93.0,999.7014554355716,2021-09-24 07:25:43.979
288,245.0,1172.0,109.0,1202.2853238728317,2021-09-24 07:25:43.985
289,-576.0,852.0,-129.0,1036.494573068282,2021-09-24 07:25:43.992
290,-386.0,1101.0,-232.0,1189.5465522626678,2021-09-24 07:25:44.003
291,-391.0,1028.0,15.0,1099.9499988635846,2021-09-24 07:25:44.013
292,-702.0,916.0,37.0,1154.6553598368648,2021-09-24 07:25:44.021
293,-491.0,906.0,-138.0,1039.6927430736448,2021-09-24 07:25:44.031
294,-394.0,852.0,64.0,940.8698103350964,2021-09-24 07:25:44.041
295,-202.0,1388.0,-320.0,1438.6618782743917,2021-09-24 07:25:44.051
296,-170.0,999.0,83.0,1016.7546410024396,2021-09-24 07:25:44.063
297,57.0,1043.0,-162.0,1057.0439915159634,2021-09-24 07:25:44.070
298,25.0,1043.0,-162.0,1055.802064782978,2021-09-24 07:25:44.079
299,25.0,1249.0,-190.0,1263.61623921189,2021-09-24 07:25:44.080
300,-270.0,881.0,109.0,927.86960290765,2021-09-24 07:25:44.089
301,97.0,1244.0,-111.0,1252.703476485956,2021-09-24 07:25:44.099
302,57.0,995.0,121.0,1003.9496999352108,2021-09-24 07:25:44.111
303,-388.0,846.0,-106.0,936.747564715276,2021-09-24 07:25:44.119
304,-353.0,841.0,-89.0,916.4120252375566,2021-09-24 07:25:44.128
305,-341.0,904.0,-122.0,973.8485508537764,2021-09-24 07:25:44.139
306,-337.0,1059.0,-415.0,1186.286221786294,2021-09-24 07:25:44.148
307,-663.0,744.0,-61.0,998.4117387130422,2021-09-24 07:25:44.159
308,-500.0,744.0,-61.0,898.474818790154,2021-09-24 07:25:44.167
309,-500.0,806.0,-61.0,950.4509456042432,2021-09-24 07:25:44.168
310,-427.0,986.0,-289.0,1112.6751547509273,2021-09-24 07:25:44.177
311,-572.0,795.0,5.0,979.4049213680725,2021-09-24 07:25:44.187
312,-438.0,1104.0,-218.0,1207.552897392077,2021-09-24 07:25:44.198
313,-339.0,1019.0,46.0,1074.8944134192902,2021-09-24 07:25:44.208
314,-462.0,966.0,-76.0,1073.4877735680086,2021-09-24 07:25:44.217
315,171.0,1163.0,92.0,1179.0988084125945,2021-09-24 07:25:44.227
316,-216.0,1163.0,92.0,1186.4607030997695,2021-09-24 07:25:44.236
317,-216.0,1009.0,80.0,1034.957487049589,2021-09-24 07:25:44.237
318,-13.0,997.0,-24.0,997.3735508825166,2021-09-24 07:25:44.246
319,-29.0,1024.0,30.0,1024.8497450846148,2021-09-24 07:25:44.257
320,-295.0,888.0,-53.0,937.2182243213156,2021-09-24 07:25:44.266
321,244.0,1194.0,20.0,1218.8404325423403,2021-09-24 07:25:44.275
322,-242.0,862.0,-7.0,895.3530030105444,2021-09-24 07:25:44.285
323,-318.0,862.0,-7.0,918.8128209815098,2021-09-24 07:25:44.294
324,-318.0,865.0,-123.0,929.7730905979156,2021-09-24 07:25:44.295
325,-424.0,1082.0,-134.0,1169.8102410220215,2021-09-24 07:25:44.305
326,-337.0,796.0,-79.0,868.0011520729681,2021-09-24 07:25:44.315
327,-51.0,903.0,-119.0,912.2340708392776,2021-09-24 07:25:44.324
328,-512.0,760.0,-119.0,924.0698025582268,2021-09-24 07:25:44.333
329,-512.0,760.0,19.0,916.5724193973982,2021-09-24 07:25:44.334
330,-103.0,1009.0,-37.0,1014.918223306686,2021-09-24 07:25:44.343
331,-160.0,1009.0,-37.0,1022.2768705199194,2021-09-24 07:25:44.353
332,-160.0,1008.0,-151.0,1031.72913111921,2021-09-24 07:25:44.354
333,-181.0,917.0,37.0,935.4245025655464,2021-09-24 07:25:44.365
334,161.0,1376.0,-94.0,1388.5722883595222,2021-09-24 07:25:44.374
335,-69.0,909.0,142.0,922.6082592303192,2021-09-24 07:25:44.382
336,46.0,955.0,61.0,958.0511468601246,2021-09-24 07:25:44.392
337,225.0,1319.0,28.0,1338.3459941285737,2021-09-24 07:25:44.402
338,120.0,1319.0,28.0,1324.7433713742446,2021-09-24 07:25:44.413
339,120.0,879.0,183.0,905.8311100862014,2021-09-24 07:25:44.414
340,121.0,1165.0,123.0,1177.7075188687554,2021-09-24 07:25:44.422
341,-155.0,1165.0,123.0,1181.6848141530804,2021-09-24 07:25:44.431
342,-155.0,938.0,-64.0,952.87197461149,2021-09-24 07:25:44.432
343,135.0,985.0,5.0,994.2208004261428,2021-09-24 07:25:44.441
344,-550.0,817.0,-118.0,991.923888209171,2021-09-24 07:25:44.451
345,-321.0,936.0,-17.0,989.6595374167824,2021-09-24 07:25:44.461
346,-477.0,1107.0,-350.0,1255.1804651124874,2021-09-24 07:25:44.472
347,-402.0,823.0,246.0,948.392851090728,2021-09-24 07:25:44.484
348,-180.0,1058.0,246.0,1101.0358758914265,2021-09-24 07:25:44.491
349,-180.0,1058.0,-68.0,1075.354825162374,2021-09-24 07:25:44.492
350,-111.0,1249.0,-324.0,1295.1054011160636,2021-09-24 07:25:44.500
351,-196.0,820.0,101.0,849.1271989519591,2021-09-24 07:25:44.519
352,-176.0,1101.0,101.0,1119.543657031739,2021-09-24 07:25:44.522
353,-176.0,1101.0,-135.0,1123.1215428438722,2021-09-24 07:25:44.523
354,-54.0,1002.0,121.0,1010.723008543884,2021-09-24 07:25:44.529
355,359.0,1049.0,69.0,1110.8748804433378,2021-09-24 07:25:44.541
356,-81.0,1205.0,-194.0,1223.2015369512908,2021-09-24 07:25:44.548
357,-362.0,948.0,-69.0,1017.1081555075644,2021-09-24 07:25:44.558
358,-427.0,899.0,-138.0,1004.7755968374232,2021-09-24 07:25:44.582
359,-427.0,894.0,-19.0,990.9217930795548,2021-09-24 07:25:44.583
360,-358.0,949.0,-28.0,1014.6669404292228,2021-09-24 07:25:44.588
361,-69.0,1016.0,-169.0,1032.268375956563,2021-09-24 07:25:44.597
362,-662.0,763.0,-70.0,1012.5774044486672,2021-09-24 07:25:44.607
363,-415.0,906.0,-70.0,998.9799797793748,2021-09-24 07:25:44.617
364,-415.0,906.0,-147.0,1007.3082944163618,2021-09-24 07:25:44.618
365,-322.0,906.0,-147.0,972.6916263646972,2021-09-24 07:25:44.627
366,-322.0,985.0,-42.0,1037.1465663058427,2021-09-24 07:25:44.628
367,-766.0,985.0,-42.0,1248.4970965124428,2021-09-24 07:25:44.637
368,-766.0,894.0,-83.0,1180.2037959606807,2021-09-24 07:25:44.638
369,-644.0,859.0,-189.0,1090.109168845029,2021-09-24 07:25:44.646
370,-372.0,828.0,6.0,907.7466606933896,2021-09-24 07:25:44.656
371,141.0,828.0,6.0,839.9410693614166,2021-09-24 07:25:44.665
372,141.0,1042.0,45.0,1052.4590253306776,2021-09-24 07:25:44.666
373,81.0,1194.0,13.0,1196.814939746325,2021-09-24 07:25:44.682
374,-265.0,1194.0,13.0,1223.1230518635482,2021-09-24 07:25:44.686
375,-265.0,1006.0,73.0,1042.8758315350874,2021-09-24 07:25:44.687
376,474.0,1006.0,73.0,1114.468931823584,2021-09-24 07:25:44.695
377,474.0,1362.0,153.0,1450.216880332042,2021-09-24 07:25:44.696
378,-300.0,1362.0,153.0,1403.0156805966212,2021-09-24 07:25:44.704
379,-300.0,894.0,72.0,945.7378072172012,2021-09-24 07:25:44.705
380,-203.0,912.0,-27.0,934.7095805650008,2021-09-24 07:25:44.714
381,88.0,1054.0,80.0,1060.688455673955,2021-09-24 07:25:44.724
382,-389.0,836.0,80.0,925.5360608857982,2021-09-24 07:25:44.734
383,-389.0,836.0,-9.0,922.1160447579252,2021-09-24 07:25:44.735
384,-234.0,883.0,-16.0,913.6197239552132,2021-09-24 07:25:44.747
385,-431.0,789.0,-37.0,899.8060902216655,2021-09-24 07:25:44.760
386,-630.0,789.0,-37.0,1010.3415264156968,2021-09-24 07:25:44.763
387,-630.0,946.0,-197.0,1153.527199505933,2021-09-24 07:25:44.764
388,-389.0,731.0,34.0,828.7569004237612,2021-09-24 07:25:44.773
389,-21.0,802.0,129.0,812.5798422309035,2021-09-24 07:25:44.783
390,-40.0,1268.0,-92.0,1271.9622635911803,2021-09-24 07:25:44.795
391,-79.0,828.0,235.0,864.3205423915366,2021-09-24 07:25:44.803
392,79.0,1031.0,-57.0,1035.59210116725,2021-09-24 07:25:44.812
393,187.0,1160.0,225.0,1196.3252066223465,2021-09-24 07:25:44.822
394,15.0,829.0,127.0,838.8056985977146,2021-09-24 07:25:44.832
395,294.0,1243.0,-6.0,1277.3100641582685,2021-09-24 07:25:44.842
396,-34.0,1045.0,22.0,1045.7843946053126,2021-09-24 07:25:44.851
397,264.0,1046.0,23.0,1079.0463382079568,2021-09-24 07:25:44.861
398,139.0,1046.0,23.0,1055.4458773428412,2021-09-24 07:25:44.870
399,139.0,1038.0,118.0,1053.8923094889724,2021-09-24 07:25:44.871
400,-224.0,911.0,118.0,945.5268372711586,2021-09-24 07:25:44.884
401,-224.0,911.0,89.0,942.3470698208808,2021-09-24 07:25:44.885
402,170.0,1250.0,111.0,1266.3810642930507,2021-09-24 07:25:44.892
403,-466.0,866.0,33.0,983.9720524486456,2021-09-24 07:25:44.901
404,-387.0,866.0,33.0,949.1122167583768,2021-09-24 07:25:44.909
405,-387.0,979.0,-57.0,1054.257558663916,2021-09-24 07:25:44.910
406,-361.0,1067.0,-231.0,1149.8569476243556,2021-09-24 07:25:44.920
407,-503.0,860.0,61.0,998.1633132909664,2021-09-24 07:25:44.929
408,-231.0,1207.0,61.0,1230.4190343131074,2021-09-24 07:25:44.939
409,-231.0,1207.0,-331.0,1272.7022432603787,2021-09-24 07:25:44.940
410,-185.0,1081.0,97.0,1100.997275200988,2021-09-24 07:25:44.949
411,-156.0,965.0,72.0,980.1760046032548,2021-09-24 07:25:44.959
412,-34.0,1127.0,-141.0,1136.2948561002993,2021-09-24 07:25:44.968
413,0.0,891.0,123.0,899.4498318416653,2021-09-24 07:25:44.978
414,75.0,1251.0,5.0,1253.256158971501,2021-09-24 07:25:44.994
415,206.0,892.0,214.0,940.157433624816,2021-09-24 07:25:44.999
416,-347.0,880.0,-65.0,948.1740346581952,2021-09-24 07:25:45.007
417,314.0,1024.0,-25.0,1071.3528830408775,2021-09-24 07:25:45.018
418,-430.0,782.0,-108.0,898.9371501946063,2021-09-24 07:25:45.028
419,-608.0,782.0,-108.0,996.4195903333092,2021-09-24 07:25:45.036
420,-608.0,853.0,-310.0,1092.4161295037711,2021-09-24 07:25:45.037
421,-322.0,792.0,96.0,860.3278444872047,2021-09-24 07:25:45.046
422,-628.0,786.0,-125.0,1013.8071808780998,2021-09-24 07:25:45.056
423,-579.0,786.0,-125.0,984.2062791915116,2021-09-24 07:25:45.066
424,-579.0,894.0,-302.0,1107.1047827554537,2021-09-24 07:25:45.067
425,-424.0,894.0,-302.0,1034.5124455510431,2021-09-24 07:25:45.078
426,-424.0,874.0,-30.0,971.8806511089724,2021-09-24 07:25:45.079
427,-606.0,874.0,-30.0,1063.9605255835388,2021-09-24 07:25:45.086
428,-606.0,1159.0,-332.0,1349.3483612470131,2021-09-24 07:25:45.087
429,-444.0,927.0,113.0,1034.037716913653,2021-09-24 07:25:45.095
430,-297.0,954.0,-74.0,1001.8986974739512,2021-09-24 07:25:45.105
431,-96.0,1268.0,-334.0,1314.7608147492076,2021-09-24 07:25:45.115
432,-101.0,799.0,159.0,820.9037702435043,2021-09-24 07:25:45.125
433,134.0,1043.0,-145.0,1061.5224915186675,2021-09-24 07:25:45.135
434,-51.0,1304.0,-77.0,1307.2666139697749,2021-09-24 07:25:45.144
435,-278.0,963.0,-16.0,1002.4514950859218,2021-09-24 07:25:45.154
436,-105.0,901.0,151.0,919.5797953413288,2021-09-24 07:25:45.164
437,-230.0,944.0,-163.0,985.1928745174724,2021-09-24 07:25:45.174
438,-340.0,944.0,-163.0,1016.5161090705844,2021-09-24 07:25:45.183
439,-340.0,900.0,-236.0,990.6038562412324,2021-09-24 07:25:45.184
440,-413.0,894.0,-106.0,990.4751385067674,2021-09-24 07:25:45.193
441,-326.0,883.0,-99.0,946.4491534150158,2021-09-24 07:25:45.203
442,82.0,1072.0,-220.0,1097.409677376685,2021-09-24 07:25:45.212
443,-559.0,801.0,-107.0,982.6143699335972,2021-09-24 07:25:45.222
444,108.0,1039.0,-97.0,1049.0919883403933,2021-09-24 07:25:45.232
445,135.0,1269.0,-212.0,1293.6498753526782,2021-09-24 07:25:45.243
446,114.0,1269.0,-212.0,1291.627268216338,2021-09-24 07:25:45.252
447,114.0,859.0,275.0,909.1215540289428,2021-09-24 07:25:45.253
448,110.0,1275.0,-29.0,1280.0648421076176,2021-09-24 07:25:45.261
449,102.0,1002.0,255.0,1038.957650724995,2021-09-24 07:25:45.271
450,457.0,1079.0,255.0,1199.2143261319054,2021-09-24 07:25:45.287
451,457.0,1079.0,116.0,1177.516878859917,2021-09-24 07:25:45.288
452,379.0,1079.0,116.0,1149.4946715839965,2021-09-24 07:25:45.293
453,379.0,1291.0,77.0,1347.6835682013786,2021-09-24 07:25:45.294
454,-104.0,979.0,2.0,984.5105382879352,2021-09-24 07:25:45.300
455,257.0,1219.0,226.0,1266.1303250455696,2021-09-24 07:25:45.310
456,-76.0,798.0,181.0,821.7913360458359,2021-09-24 07:25:45.320
457,-271.0,798.0,181.0,861.9779579548424,2021-09-24 07:25:45.330
458,-271.0,959.0,-199.0,1016.2297968471502,2021-09-24 07:25:45.331
459,-435.0,959.0,-199.0,1071.684188555565,2021-09-24 07:25:45.339
460,-435.0,1135.0,-325.0,1258.2030837666866,2021-09-24 07:25:45.340
461,-484.0,903.0,-26.0,1024.8614540512292,2021-09-24 07:25:45.350
462,-351.0,1138.0,-196.0,1206.9221184484109,2021-09-24 07:25:45.359
463,-154.0,1138.0,-196.0,1164.978969767266,2021-09-24 07:25:45.368
464,-154.0,1064.0,120.0,1081.7633752350837,2021-09-24 07:25:45.369
465,-168.0,1071.0,-29.0,1084.484209198087,2021-09-24 07:25:45.378
466,-263.0,1059.0,-183.0,1106.4081525368474,2021-09-24 07:25:45.388
467,-121.0,896.0,45.0,905.252450977074,2021-09-24 07:25:45.399
468,98.0,1319.0,-123.0,1328.3425762957386,2021-09-24 07:25:45.408
469,-31.0,1073.0,152.0,1084.1558928493632,2021-09-24 07:25:45.418
470,198.0,1016.0,89.0,1038.9326253419902,2021-09-24 07:25:45.427
471,272.0,1238.0,93.0,1270.935482233461,2021-09-24 07:25:45.438
472,231.0,832.0,93.0,868.4664645223787,2021-09-24 07:25:45.447
473,231.0,832.0,352.0,932.4639403215548,2021-09-24 07:25:45.448
474,-660.0,874.0,-218.0,1116.6915420114904,2021-09-24 07:25:45.457
475,-323.0,818.0,48.0,880.7706852524101,2021-09-24 07:25:45.466
476,-639.0,831.0,-229.0,1072.9972040970097,2021-09-24 07:25:45.476
477,-527.0,831.0,-229.0,1010.3123279461654,2021-09-24 07:25:45.486
478,-527.0,845.0,-207.0,1017.1543638996,2021-09-24 07:25:45.487
479,-447.0,814.0,-32.0,929.2088032299308,2021-09-24 07:25:45.498
480,-427.0,1127.0,-323.0,1247.7127073168726,2021-09-24 07:25:45.506
481,-477.0,918.0,-14.0,1034.625052857314,2021-09-24 07:25:45.515
482,-462.0,975.0,-151.0,1089.4356337113268,2021-09-24 07:25:45.525
483,-390.0,1103.0,-303.0,1208.5189282754325,2021-09-24 07:25:45.543
484,-467.0,929.0,-90.0,1043.6618226226349,2021-09-24 07:25:45.547
485,-225.0,1100.0,-149.0,1132.6190886613203,2021-09-24 07:25:45.554
486,298.0,1207.0,-149.0,1252.1397685562104,2021-09-24 07:25:45.564
487,298.0,1207.0,142.0,1251.3260965871366,2021-09-24 07:25:45.565
488,-52.0,998.0,43.0,1000.2784612296716,2021-09-24 07:25:45.574
489,-70.0,1016.0,-30.0,1018.8503324826468,2021-09-24 07:25:45.594
490,-337.0,817.0,53.0,885.3626375672287,2021-09-24 07:25:45.598
491,-42.0,915.0,-229.0,944.1557074974444,2021-09-24 07:25:45.603
492,-319.0,956.0,-18.0,1007.9786704092504,2021-09-24 07:25:45.614
493,-505.0,860.0,-18.0,997.47130284535,2021-09-24 07:25:45.622
494,-505.0,860.0,-37.0,997.9949899673844,2021-09-24 07:25:45.623
495,31.0,960.0,-123.0,968.3439471592724,2021-09-24 07:25:45.633
496,-392.0,753.0,-123.0,857.7890183489178,2021-09-24 07:25:45.642
497,-392.0,753.0,-184.0,868.6362875219985,2021-09-24 07:25:45.643
498,-407.0,929.0,-231.0,1040.2168043249446,2021-09-24 07:25:45.653
499,-572.0,871.0,-94.0,1046.2604838184418,2021-09-24 07:25:45.663
500,-871.0,823.0,-79.0,1200.92089664557,2021-09-24 07:25:45.672
501,62.0,1247.0,-98.0,1252.3805332246266,2021-09-24 07:25:45.681
502,-60.0,961.0,150.0,974.4849921881814,2021-09-24 07:25:45.691
503,248.0,985.0,136.0,1024.804859473256,2021-09-24 07:25:45.701
504,78.0,1211.0,53.0,1214.6662092937302,2021-09-24 07:25:45.711
505,-154.0,833.0,128.0,856.7315799011964,2021-09-24 07:25:45.720
506,324.0,1276.0,137.0,1323.6015261399482,2021-09-24 07:25:45.730
507,85.0,839.0,149.0,856.3568181546755,2021-09-24 07:25:45.740
508,5.0,948.0,3.0,948.017932319848,2021-09-24 07:25:45.750
509,123.0,1172.0,3.0,1178.4404948914475,2021-09-24 07:25:45.760
510,123.0,1172.0,68.0,1180.3969671258903,2021-09-24 07:25:45.761
511,-225.0,931.0,199.0,978.2571236643258,2021-09-24 07:25:45.775
512,-625.0,980.0,-227.0,1184.2947268311211,2021-09-24 07:25:45.779
513,-311.0,980.0,-227.0,1052.924498717738,2021-09-24 07:25:45.788
514,-311.0,1076.0,35.0,1120.5900231574435,2021-09-24 07:25:45.789
515,-343.0,1025.0,-55.0,1082.2656790271046,2021-09-24 07:25:45.799
516,-258.0,1096.0,-190.0,1141.8756499724475,2021-09-24 07:25:45.808
517,-244.0,876.0,76.0,912.5173970944336,2021-09-24 07:25:45.819
518,-59.0,876.0,76.0,881.2678366989232,2021-09-24 07:25:45.827
519,-59.0,1227.0,-214.0,1246.9186019945328,2021-09-24 07:25:45.828
520,-87.0,1040.0,-214.0,1065.347361192583,2021-09-24 07:25:45.837
521,-87.0,1040.0,131.0,1051.8222283256805,2021-09-24 07:25:45.838
522,349.0,1010.0,78.0,1071.4406189798854,2021-09-24 07:25:45.847
523,136.0,1212.0,77.0,1222.0347785558315,2021-09-24 07:25:45.858
524,109.0,780.0,361.0,866.3728989297853,2021-09-24 07:25:45.868
525,68.0,1270.0,361.0,1322.0608911846684,2021-09-24 07:25:45.876
526,68.0,1270.0,64.0,1273.4284432193274,2021-09-24 07:25:45.877
527,43.0,797.0,305.0,854.4489452272734,2021-09-24 07:25:45.889
528,-694.0,761.0,-55.0,1031.3980802774456,2021-09-24 07:25:45.896
529,-225.0,761.0,-55.0,795.4690440237131,2021-09-24 07:25:45.906
530,-225.0,910.0,-98.0,942.512068888245,2021-09-24 07:25:45.907
531,-595.0,910.0,-98.0,1091.6634096643525,2021-09-24 07:25:45.917
532,-595.0,776.0,-43.0,978.8002860645272,2021-09-24 07:25:45.918
533,-475.0,1056.0,-358.0,1211.9921616908257,2021-09-24 07:25:45.926
534,-627.0,841.0,-182.0,1064.6755374291267,2021-09-24 07:25:45.935
535,-453.0,799.0,-2.0,918.4846215370184,2021-09-24 07:25:45.945
536,-436.0,1161.0,-364.0,1292.4832687505088,2021-09-24 07:25:45.955
537,-446.0,951.0,-364.0,1111.6712643583085,2021-09-24 07:25:45.965
538,-446.0,951.0,40.0,1051.15032226604,2021-09-24 07:25:45.966
539,-334.0,1199.0,-302.0,1280.7657865511555,2021-09-24 07:25:45.975
540,-303.0,1059.0,53.0,1102.76878809658,2021-09-24 07:25:45.984
541,-176.0,1059.0,53.0,1074.833010285784,2021-09-24 07:25:45.993
542,-176.0,1026.0,30.0,1041.4182637154008,2021-09-24 07:25:45.994
543,-173.0,1155.0,-228.0,1189.9319308262973,2021-09-24 07:25:46.008
544,-133.0,852.0,116.0,870.0856279700291,2021-09-24 07:25:46.013
545,21.0,984.0,-220.0,1008.5122706244084,2021-09-24 07:25:46.023
546,-54.0,888.0,45.0,890.7777500589021,2021-09-24 07:25:46.033
547,-359.0,791.0,45.0,869.8200963417665,2021-09-24 07:25:46.042
548,-359.0,791.0,126.0,877.7459769204299,2021-09-24 07:25:46.043
549,225.0,1118.0,126.0,1147.355655409429,2021-09-24 07:25:46.053
550,225.0,1118.0,-81.0,1143.28911479118,2021-09-24 07:25:46.054
551,-538.0,810.0,-138.0,982.1344103532876,2021-09-24 07:25:46.062
552,-449.0,852.0,-215.0,986.7775838556528,2021-09-24 07:25:46.072
553,-291.0,801.0,-21.0,852.4804983106652,2021-09-24 07:25:46.082
554,-479.0,780.0,-87.0,919.4617990977112,2021-09-24 07:25:46.091
555,-433.0,933.0,-87.0,1032.2533603723457,2021-09-24 07:25:46.102
556,-433.0,933.0,-281.0,1066.2734170933832,2021-09-24 07:25:46.103
557,-497.0,861.0,-27.0,994.514454394706,2021-09-24 07:25:46.111
558,310.0,861.0,-27.0,915.5053249435526,2021-09-24 07:25:46.120
559,310.0,1002.0,85.0,1052.297011304318,2021-09-24 07:25:46.121
560,103.0,1164.0,157.0,1179.047920993884,2021-09-24 07:25:46.130
561,44.0,845.0,226.0,875.8064854749592,2021-09-24 07:25:46.140
562,466.0,845.0,226.0,991.0887952146368,2021-09-24 07:25:46.150
563,466.0,1311.0,43.0,1392.0222699367996,2021-09-24 07:25:46.151
564,-119.0,865.0,112.0,880.3010848567665,2021-09-24 07:25:46.161
565,77.0,960.0,112.0,969.5736176278724,2021-09-24 07:25:46.169
566,77.0,960.0,-82.0,966.567638605804,2021-09-24 07:25:46.170
567,154.0,1211.0,102.0,1225.0065305948374,2021-09-24 07:25:46.179
568,-86.0,1211.0,102.0,1218.3271317671622,2021-09-24 07:25:46.189
569,-86.0,906.0,152.0,922.6787089772909,2021-09-24 07:25:46.190
570,-51.0,1126.0,122.0,1133.7376239677326,2021-09-24 07:25:46.200
571,-303.0,864.0,-23.0,915.878812944158,2021-09-24 07:25:46.210
572,3.0,1111.0,-23.0,1111.2420978346709,2021-09-24 07:25:46.218
573,3.0,1111.0,-332.0,1159.549050277736,2021-09-24 07:25:46.219
574,-358.0,868.0,2.0,938.9313073915472,2021-09-24 07:25:46.228
575,-277.0,887.0,0.0,929.2459308493096,2021-09-24 07:25:46.238
576,-471.0,887.0,0.0,1004.2957731664512,2021-09-24 07:25:46.248
577,-471.0,1186.0,-236.0,1297.7414996831997,2021-09-24 07:25:46.249
578,-274.0,997.0,232.0,1059.6740064755763,2021-09-24 07:25:46.259
579,-4.0,997.0,232.0,1023.6449579810376,2021-09-24 07:25:46.267
580,-4.0,1007.0,-56.0,1008.5638304044024,2021-09-24 07:25:46.268
581,94.0,1233.0,-145.0,1245.050199791157,2021-09-24 07:25:46.277
582,189.0,1233.0,-145.0,1255.8005414873812,2021-09-24 07:25:46.286
583,189.0,922.0,154.0,953.6881041514569,2021-09-24 07:25:46.287
584,2.0,1208.0,35.0,1208.5085849922625,2021-09-24 07:25:46.298
585,154.0,950.0,152.0,974.3305393961538,2021-09-24 07:25:46.307
586,487.0,1053.0,87.0,1163.4203883377668,2021-09-24 07:25:46.316
587,138.0,1200.0,96.0,1211.717788926118,2021-09-24 07:25:46.326
588,-488.0,1200.0,96.0,1298.9842185338512,2021-09-24 07:25:46.335
589,-488.0,800.0,-73.0,939.9324443809778,2021-09-24 07:25:46.336
590,-557.0,866.0,-346.0,1086.2416858139811,2021-09-24 07:25:46.345
591,-663.0,843.0,-202.0,1091.339543863412,2021-09-24 07:25:46.357
592,-594.0,924.0,-202.0,1116.8777909869996,2021-09-24 07:25:46.366
593,-421.0,1130.0,-202.0,1222.679434684333,2021-09-24 07:25:46.374
594,-421.0,1130.0,-474.0,1295.691707158767,2021-09-24 07:25:46.375
595,-668.0,825.0,-83.0,1064.7713369545595,2021-09-24 07:25:46.384
596,-464.0,1186.0,-273.0,1302.4672740610415,2021-09-24 07:25:46.394
597,-370.0,934.0,66.0,1006.7829954861176,2021-09-24 07:25:46.405
598,-491.0,915.0,-85.0,1041.8881897785386,2021-09-24 07:25:46.415
599,-385.0,915.0,-85.0,996.3307683696212,2021-09-24 07:25:46.423
600,-385.0,1060.0,-295.0,1165.6972162615814,2021-09-24 07:25:46.424
601,-224.0,915.0,-71.0,944.6914840306332,2021-09-24 07:25:46.433
602,-178.0,1319.0,-241.0,1352.5997190595597,2021-09-24 07:25:46.443
603,90.0,1017.0,210.0,1042.3478306208538,2021-09-24 07:25:46.453
604,-180.0,900.0,45.0,918.9260035497962,2021-09-24 07:25:46.464
605,342.0,1187.0,61.0,1236.7918175667237,2021-09-24 07:25:46.474
606,-479.0,722.0,57.0,868.3167624778414,2021-09-24 07:25:46.482
607,-303.0,923.0,-230.0,998.3175847394456,2021-09-24 07:25:46.492
608,-265.0,846.0,-19.0,886.7367140250819,2021-09-24 07:25:46.502
609,-480.0,829.0,-149.0,969.4544857805342,2021-09-24 07:25:46.512
610,-356.0,917.0,-218.0,1007.5460287252388,2021-09-24 07:25:46.522
611,-392.0,957.0,-208.0,1054.882457907041,2021-09-24 07:25:46.531
612,-367.0,957.0,-208.0,1045.8498936271878,2021-09-24 07:25:46.540
613,-367.0,1162.0,-420.0,1288.92707318917,2021-09-24 07:25:46.541
614,-735.0,761.0,-24.0,1058.2636722480838,2021-09-24 07:25:46.550
615,-512.0,859.0,-135.0,1009.0837428082964,2021-09-24 07:25:46.568
616,358.0,1275.0,49.0,1325.2131903961715,2021-09-24 07:25:46.573
617,0.0,1275.0,49.0,1275.9412212167142,2021-09-24 07:25:46.579
618,0.0,913.0,229.0,941.2810419848048,2021-09-24 07:25:46.580
619,284.0,1079.0,70.0,1117.943200703864,2021-09-24 07:25:46.590
620,486.0,1357.0,70.0,1443.102560457849,2021-09-24 07:25:46.610
621,486.0,1357.0,215.0,1457.350335368953,2021-09-24 07:25:46.611
622,60.0,1357.0,215.0,1375.2359797503846,2021-09-24 07:25:46.612
623,60.0,1030.0,57.0,1033.3194085083276,2021-09-24 07:25:46.613
624,292.0,1238.0,164.0,1282.4991228067177,2021-09-24 07:25:46.620
625,-132.0,899.0,164.0,923.3206376985192,2021-09-24 07:25:46.628
626,-132.0,899.0,16.0,908.779951363365,2021-09-24 07:25:46.629
627,90.0,1033.0,-13.0,1036.9946962255883,2021-09-24 07:25:46.638
628,-71.0,949.0,58.0,953.4180615029276,2021-09-24 07:25:46.648
629,-254.0,932.0,57.0,967.6719485445468,2021-09-24 07:25:46.658
630,216.0,1161.0,-74.0,1183.23835299571,2021-09-24 07:25:46.669
631,-558.0,1161.0,-74.0,1290.2561761138754,2021-09-24 07:25:46.682
632,-558.0,712.0,-19.0,904.8032935395404,2021-09-24 07:25:46.683
633,-332.0,1071.0,-47.0,1122.2628925523643,2021-09-24 07:25:46.687
634,-95.0,1198.0,-130.0,1208.771690601662,2021-09-24 07:25:46.697
635,-96.0,1198.0,-130.0,1208.8506938410549,2021-09-24 07:25:46.706
636,-96.0,967.0,64.0,973.858819336766,2021-09-24 07:25:46.707
637,-46.0,1160.0,-129.0,1168.056933543909,2021-09-24 07:25:46.718
638,-2.0,999.0,-129.0,1007.296381409166,2021-09-24 07:25:46.728
639,-2.0,999.0,270.0,1034.845399081428,2021-09-24 07:25:46.729
640,417.0,993.0,146.0,1086.855096137475,2021-09-24 07:25:46.736
641,87.0,993.0,146.0,1007.4393281979814,2021-09-24 07:25:46.745
642,87.0,1171.0,123.0,1180.6519385492068,2021-09-24 07:25:46.746
643,-216.0,894.0,101.0,925.2529383903624,2021-09-24 07:25:46.756
644,164.0,1273.0,94.0,1286.9580412740736,2021-09-24 07:25:46.766
645,-144.0,842.0,127.0,863.6139183686191,2021-09-24 07:25:46.776
646,234.0,1064.0,49.0,1090.5287708263363,2021-09-24 07:25:46.790
647,276.0,1294.0,49.0,1324.0139727359376,2021-09-24 07:25:46.794
648,276.0,1294.0,224.0,1341.9344246273736,2021-09-24 07:25:46.795
649,-353.0,767.0,-192.0,865.8879835174987,2021-09-24 07:25:46.805
650,-613.0,938.0,-323.0,1166.1655114090795,2021-09-24 07:25:46.815
651,-496.0,835.0,-74.0,974.0210470005256,2021-09-24 07:25:46.824
652,-682.0,835.0,-74.0,1080.6595208482645,2021-09-24 07:25:46.833
653,-682.0,921.0,-317.0,1189.055928037029,2021-09-24 07:25:46.834
654,-713.0,870.0,-326.0,1171.1297963932093,2021-09-24 07:25:46.843
655,-293.0,884.0,44.0,932.3309498241492,2021-09-24 07:25:46.853
656,-295.0,1353.0,-542.0,1487.076998678952,2021-09-24 07:25:46.863
657,-260.0,960.0,-542.0,1132.6800077691846,2021-09-24 07:25:46.877
658,-260.0,960.0,79.0,997.717896000668,2021-09-24 07:25:46.878
659,-123.0,834.0,159.0,857.8846076250582,2021-09-24 07:25:46.885
660,-317.0,1129.0,159.0,1183.389623074328,2021-09-24 07:25:46.892
661,-317.0,1129.0,-222.0,1193.4881650020666,2021-09-24 07:25:46.893
662,-218.0,886.0,188.0,931.5921854545584,2021-09-24 07:25:46.902
663,-49.0,1162.0,-73.0,1165.3214148894715,2021-09-24 07:25:46.914
664,109.0,1044.0,99.0,1054.332964485129,2021-09-24 07:25:46.921
665,-315.0,877.0,-25.0,932.190431188821,2021-09-24 07:25:46.931
666,36.0,1010.0,-2.0,1010.6433594498112,2021-09-24 07:25:46.941
667,-345.0,852.0,-78.0,922.5036585293308,2021-09-24 07:25:46.951
668,-379.0,852.0,-78.0,935.7505009349449,2021-09-24 07:25:46.961
669,-379.0,956.0,-252.0,1058.8111257443416,2021-09-24 07:25:46.962
670,-497.0,828.0,-29.0,966.143881624264,2021-09-24 07:25:46.970
671,-454.0,900.0,-153.0,1019.5709882102374,2021-09-24 07:25:46.981
672,-184.0,954.0,-255.0,1004.4884270114812,2021-09-24 07:25:46.990
