,Acceleration_X,Acceleration_Y,Acceleration_Z,magnitude,time_stamp
0,-395.0,949.0,10.0,1027.9717894961905,2021-08-31 07:25:55.179
1,-222.0,818.0,78.0,851.1709581511813,2021-08-31 07:25:55.187
2,-64.0,1096.0,78.0,1100.6343625382592,2021-08-31 07:25:55.196
3,-64.0,1096.0,-23.0,1098.1079181938358,2021-08-31 07:25:55.197
4,-173.0,922.0,-17.0,938.244104697706,2021-08-31 07:25:55.206
5,-208.0,916.0,24.0,939.6254572966826,2021-08-31 07:25:55.216
6,-173.0,1014.0,-217.0,1051.291586573392,2021-08-31 07:25:55.228
7,-40.0,1027.0,-217.0,1050.437051897923,2021-08-31 07:25:55.235
8,-40.0,1027.0,-161.0,1040.312453063982,2021-08-31 07:25:55.236
9,-51.0,895.0,-189.0,916.1588290247494,2021-08-31 07:25:55.246
10,-126.0,960.0,-25.0,968.5561418936952,2021-08-31 07:25:55.255
11,-152.0,1069.0,29.0,1080.1416573764757,2021-08-31 07:25:55.265
12,-298.0,1098.0,-111.0,1143.122478127344,2021-08-31 07:25:55.275
13,-273.0,937.0,-27.0,976.3334471378106,2021-08-31 07:25:55.285
14,-141.0,877.0,21.0,888.5105514286254,2021-08-31 07:25:55.294
15,-195.0,1118.0,-56.0,1136.2592133839885,2021-08-31 07:25:55.304
16,-193.0,1118.0,-56.0,1135.9176906800951,2021-08-31 07:25:55.313
17,-193.0,1014.0,-48.0,1033.3194085083276,2021-08-31 07:25:55.314
18,-147.0,865.0,-10.0,877.4588309430819,2021-08-31 07:25:55.323
19,-177.0,964.0,-38.0,980.851160982134,2021-08-31 07:25:55.334
20,-164.0,966.0,-58.0,981.537569326819,2021-08-31 07:25:55.343
21,-203.0,966.0,-58.0,988.8018001601736,2021-08-31 07:25:55.352
22,-203.0,1014.0,52.0,1035.4269650728631,2021-08-31 07:25:55.353
23,-195.0,990.0,52.0,1010.3608266357124,2021-08-31 07:25:55.362
24,-195.0,990.0,-7.0,1009.0460841804996,2021-08-31 07:25:55.363
25,-219.0,1031.0,30.0,1054.4297036787232,2021-08-31 07:25:55.372
26,-67.0,969.0,-114.0,977.980572404176,2021-08-31 07:25:55.383
27,-147.0,984.0,-86.0,998.629560948403,2021-08-31 07:25:55.393
28,-130.0,1047.0,-86.0,1058.539087610845,2021-08-31 07:25:55.401
29,-130.0,1047.0,-36.0,1055.6538258349656,2021-08-31 07:25:55.402
30,-189.0,1030.0,-70.0,1049.533705985663,2021-08-31 07:25:55.411
31,-288.0,1013.0,3.0,1053.1486124949315,2021-08-31 07:25:55.421
32,-272.0,895.0,-59.0,937.277973708974,2021-08-31 07:25:55.431
33,-85.0,1014.0,-21.0,1017.7730591836277,2021-08-31 07:25:55.441
34,-141.0,1130.0,28.0,1139.1071064654104,2021-08-31 07:25:55.450
35,-221.0,986.0,-44.0,1011.4212772134072,2021-08-31 07:25:55.460
36,-199.0,998.0,-32.0,1018.1497925158164,2021-08-31 07:25:55.470
37,-188.0,995.0,65.0,1014.6891149509784,2021-08-31 07:25:55.480
38,-146.0,974.0,-103.0,990.25299797577,2021-08-31 07:25:55.490
39,-66.0,989.0,-144.0,1001.6052116477828,2021-08-31 07:25:55.500
40,-181.0,1097.0,5.0,1111.8430644654848,2021-08-31 07:25:55.509
41,-236.0,960.0,-57.0,990.2247219697152,2021-08-31 07:25:55.519
42,-169.0,901.0,-57.0,918.4829884107816,2021-08-31 07:25:55.528
43,-169.0,901.0,-97.0,921.830244676318,2021-08-31 07:25:55.529
44,-79.0,1007.0,-21.0,1010.3123279461654,2021-08-31 07:25:55.539
45,-195.0,1129.0,-52.0,1146.895810437897,2021-08-31 07:25:55.549
46,-286.0,1166.0,-31.0,1200.963363304643,2021-08-31 07:25:55.558
47,-352.0,1166.0,-31.0,1218.3681709565462,2021-08-31 07:25:55.567
48,-352.0,826.0,-9.0,897.9203750890165,2021-08-31 07:25:55.568
49,-102.0,865.0,-34.0,871.6564690289404,2021-08-31 07:25:55.577
50,-175.0,1153.0,-153.0,1176.1985376627536,2021-08-31 07:25:55.588
51,-288.0,931.0,-76.0,977.4870843136496,2021-08-31 07:25:55.597
52,-151.0,931.0,-76.0,946.2230181093672,2021-08-31 07:25:55.606
53,-151.0,946.0,-81.0,961.3937798841846,2021-08-31 07:25:55.607
54,-138.0,1066.0,54.0,1076.2509001157675,2021-08-31 07:25:55.616
55,-155.0,984.0,-4.0,996.1410542689224,2021-08-31 07:25:55.626
56,-119.0,904.0,-48.0,913.0613341939304,2021-08-31 07:25:55.636
57,-302.0,1052.0,-48.0,1095.541875055445,2021-08-31 07:25:55.646
58,-302.0,1052.0,70.0,1096.726036893444,2021-08-31 07:25:55.647
59,-227.0,1001.0,-27.0,1026.7711526917767,2021-08-31 07:25:55.656
60,-138.0,1010.0,-84.0,1022.839185796086,2021-08-31 07:25:55.665
61,-223.0,904.0,-26.0,931.4617544483508,2021-08-31 07:25:55.675
62,-76.0,975.0,-25.0,978.2770568709052,2021-08-31 07:25:55.685
63,-81.0,975.0,-25.0,978.6781902137188,2021-08-31 07:25:55.710
64,-81.0,1185.0,-35.0,1188.280690746088,2021-08-31 07:25:55.711
65,-268.0,794.0,7.0,838.0387819188322,2021-08-31 07:25:55.715
66,-361.0,952.0,49.0,1019.3262480678108,2021-08-31 07:25:55.724
67,-337.0,952.0,49.0,1011.0756648243494,2021-08-31 07:25:55.734
68,-337.0,938.0,89.0,1000.6667777037468,2021-08-31 07:25:55.735
69,-131.0,951.0,-180.0,976.7097828935676,2021-08-31 07:25:55.743
70,-116.0,1104.0,-1.0,1110.0779251926415,2021-08-31 07:25:55.753
71,-200.0,1040.0,100.0,1063.766891757776,2021-08-31 07:25:55.763
72,-200.0,927.0,-61.0,950.289429595005,2021-08-31 07:25:55.787
73,-200.0,904.0,-84.0,929.6623042804306,2021-08-31 07:25:55.788
74,-147.0,957.0,71.0,970.8238769210408,2021-08-31 07:25:55.792
75,-162.0,980.0,71.0,995.8338214782624,2021-08-31 07:25:55.802
76,-162.0,980.0,-45.0,994.3183594805035,2021-08-31 07:25:55.803
77,-166.0,984.0,-68.0,1000.2179762431788,2021-08-31 07:25:55.812
78,-104.0,874.0,-68.0,882.7887629552157,2021-08-31 07:25:55.821
79,-104.0,874.0,-74.0,883.2711927828282,2021-08-31 07:25:55.822
80,-177.0,1065.0,-44.0,1080.5045117906727,2021-08-31 07:25:55.832
81,-258.0,1060.0,-51.0,1092.1378118168054,2021-08-31 07:25:55.841
82,-57.0,1212.0,-180.0,1226.6185226059486,2021-08-31 07:25:55.851
83,-236.0,1050.0,-180.0,1091.1443534198395,2021-08-31 07:25:55.860
84,-236.0,1050.0,-31.0,1076.641537374441,2021-08-31 07:25:55.861
85,-338.0,891.0,128.0,961.5139104557978,2021-08-31 07:25:55.870
86,-156.0,891.0,128.0,913.564994951098,2021-08-31 07:25:55.880
87,-156.0,898.0,-131.0,920.8153995237049,2021-08-31 07:25:55.881
88,-165.0,1029.0,-90.0,1046.023900300562,2021-08-31 07:25:55.890
89,-214.0,1029.0,-90.0,1054.8634982783317,2021-08-31 07:25:55.899
90,-214.0,1131.0,72.0,1153.317389099809,2021-08-31 07:25:55.900
91,-92.0,1040.0,36.0,1044.6817697270303,2021-08-31 07:25:55.909
92,-98.0,932.0,-55.0,938.7507656454934,2021-08-31 07:25:55.919
93,-249.0,1027.0,-76.0,1059.4838365921398,2021-08-31 07:25:55.929
94,-198.0,941.0,-49.0,962.853052132048,2021-08-31 07:25:55.940
95,-151.0,1024.0,-49.0,1036.232599371396,2021-08-31 07:25:55.948
96,-151.0,1024.0,-8.0,1035.1043425664873,2021-08-31 07:25:55.949
97,-201.0,856.0,-58.0,881.1929414152158,2021-08-31 07:25:55.959
98,-130.0,993.0,-58.0,1003.151533916985,2021-08-31 07:25:55.968
99,-130.0,993.0,0.0,1001.4734145248192,2021-08-31 07:25:55.969
100,-223.0,817.0,50.0,848.3619510562694,2021-08-31 07:25:55.978
101,-54.0,1044.0,-17.0,1045.533834937923,2021-08-31 07:25:55.988
102,-68.0,1170.0,-142.0,1180.5456365596376,2021-08-31 07:25:55.997
103,-305.0,1047.0,63.0,1092.338317555509,2021-08-31 07:25:56.007
104,-309.0,854.0,23.0,908.4745455982792,2021-08-31 07:25:56.017
105,-90.0,854.0,23.0,859.0372518115847,2021-08-31 07:25:56.026
106,-90.0,915.0,-149.0,931.410757936583,2021-08-31 07:25:56.027
107,-58.0,1086.0,-32.0,1088.018382197654,2021-08-31 07:25:56.044
108,-202.0,1031.0,21.0,1050.8120669272885,2021-08-31 07:25:56.046
109,-196.0,935.0,-41.0,956.2018615334316,2021-08-31 07:25:56.056
110,-239.0,935.0,-41.0,965.9332275059182,2021-08-31 07:25:56.066
111,-239.0,1062.0,21.0,1088.763518859812,2021-08-31 07:25:56.067
112,-73.0,1012.0,23.0,1014.8901418380218,2021-08-31 07:25:56.075
113,-162.0,1085.0,-61.0,1098.7219848533114,2021-08-31 07:25:56.085
114,-145.0,1067.0,-39.0,1077.513340984695,2021-08-31 07:25:56.099
115,-173.0,1032.0,-39.0,1047.1265444061669,2021-08-31 07:25:56.107
116,-173.0,1032.0,-34.0,1046.9522434189632,2021-08-31 07:25:56.108
117,-272.0,854.0,-16.0,896.4128513135005,2021-08-31 07:25:56.116
118,-220.0,793.0,-64.0,825.436248295409,2021-08-31 07:25:56.124
119,-56.0,1072.0,-145.0,1083.2105058574718,2021-08-31 07:25:56.134
120,-223.0,1072.0,-145.0,1104.5080352808666,2021-08-31 07:25:56.143
121,-223.0,1068.0,21.0,1091.235080081281,2021-08-31 07:25:56.144
122,-374.0,960.0,101.0,1035.2183344589682,2021-08-31 07:25:56.156
123,-151.0,899.0,-116.0,918.9439591182914,2021-08-31 07:25:56.164
124,-110.0,988.0,-95.0,998.6335664296488,2021-08-31 07:25:56.173
125,-160.0,1079.0,18.0,1090.946836468212,2021-08-31 07:25:56.183
126,-18.0,1022.0,18.0,1022.3169762847529,2021-08-31 07:25:56.192
127,-18.0,1022.0,0.0,1022.158500429361,2021-08-31 07:25:56.193
128,-195.0,1002.0,-59.0,1022.501833739187,2021-08-31 07:25:56.202
129,-154.0,1002.0,-59.0,1015.4806743606696,2021-08-31 07:25:56.212
130,-154.0,1046.0,20.0,1057.4648930342794,2021-08-31 07:25:56.213
131,-135.0,1153.0,-20.0,1161.048663924127,2021-08-31 07:25:56.224
132,-112.0,1153.0,-20.0,1158.5995857068135,2021-08-31 07:25:56.231
133,-112.0,948.0,0.0,954.5931070356626,2021-08-31 07:25:56.232
134,-103.0,1126.0,-71.0,1132.9280647949363,2021-08-31 07:25:56.241
135,-245.0,976.0,21.0,1006.4998758072452,2021-08-31 07:25:56.252
136,-271.0,847.0,72.0,892.2073749975394,2021-08-31 07:25:56.261
137,-131.0,1014.0,72.0,1024.9590235711864,2021-08-31 07:25:56.271
138,-131.0,1014.0,-122.0,1029.6800473933638,2021-08-31 07:25:56.272
139,-206.0,1049.0,-144.0,1078.6904097098482,2021-08-31 07:25:56.280
140,-339.0,993.0,86.0,1052.7896276084791,2021-08-31 07:25:56.290
141,-309.0,828.0,-10.0,883.8353919141279,2021-08-31 07:25:56.300
142,-40.0,947.0,-155.0,960.4342767727524,2021-08-31 07:25:56.310
143,-35.0,1172.0,-64.0,1174.26785700708,2021-08-31 07:25:56.320
144,-334.0,966.0,51.0,1023.383114967215,2021-08-31 07:25:56.329
145,-236.0,922.0,-1.0,951.7252754865764,2021-08-31 07:25:56.339
146,-161.0,1149.0,-7.0,1160.24609458511,2021-08-31 07:25:56.349
147,-213.0,1002.0,-25.0,1024.694100695422,2021-08-31 07:25:56.359
148,-248.0,887.0,-1.0,921.0179151352052,2021-08-31 07:25:56.368
149,-97.0,887.0,-1.0,892.2886304330007,2021-08-31 07:25:56.378
150,-97.0,1121.0,-36.0,1125.7646290410798,2021-08-31 07:25:56.379
151,-103.0,1058.0,-70.0,1065.3041819123775,2021-08-31 07:25:56.388
152,-331.0,904.0,21.0,962.921595977575,2021-08-31 07:25:56.398
153,-241.0,929.0,-1.0,959.7515303452244,2021-08-31 07:25:56.408
154,-62.0,1096.0,-99.0,1102.207330768581,2021-08-31 07:25:56.418
155,-278.0,1162.0,-27.0,1195.097067187431,2021-08-31 07:25:56.427
156,-407.0,1162.0,-27.0,1231.5120787064982,2021-08-31 07:25:56.436
157,-407.0,907.0,47.0,995.2421815819504,2021-08-31 07:25:56.437
158,-196.0,815.0,47.0,839.5534527354408,2021-08-31 07:25:56.446
159,-196.0,815.0,-75.0,841.5854086187569,2021-08-31 07:25:56.447
160,-99.0,1069.0,-97.0,1077.947586851977,2021-08-31 07:25:56.456
161,-296.0,975.0,-97.0,1023.547751695054,2021-08-31 07:25:56.466
162,-296.0,975.0,-99.0,1023.7392246075168,2021-08-31 07:25:56.467
163,-62.0,938.0,-106.0,946.00422832036,2021-08-31 07:25:56.476
164,-44.0,1011.0,-106.0,1017.4934889226564,2021-08-31 07:25:56.485
165,-44.0,1011.0,23.0,1012.2183558896766,2021-08-31 07:25:56.486
166,-107.0,1127.0,-26.0,1132.3665484285557,2021-08-31 07:25:56.495
167,-190.0,955.0,-65.0,975.8842144434964,2021-08-31 07:25:56.505
168,-176.0,986.0,-9.0,1001.6251793959656,2021-08-31 07:25:56.515
169,-110.0,1016.0,-9.0,1021.9770056121616,2021-08-31 07:25:56.524
170,-110.0,1016.0,-55.0,1023.4163375674632,2021-08-31 07:25:56.525
171,-106.0,1042.0,-8.0,1047.408229870283,2021-08-31 07:25:56.535
172,-253.0,913.0,27.0,947.7905886850745,2021-08-31 07:25:56.544
173,-130.0,915.0,-166.0,938.9787005039038,2021-08-31 07:25:56.554
174,-181.0,1083.0,-166.0,1110.4980864458976,2021-08-31 07:25:56.567
175,-181.0,1083.0,-89.0,1101.6219859824876,2021-08-31 07:25:56.568
176,-376.0,1012.0,186.0,1095.4980602447454,2021-08-31 07:25:56.574
177,-126.0,1066.0,-85.0,1076.7808504983732,2021-08-31 07:25:56.583
178,-399.0,979.0,82.0,1060.3612591942426,2021-08-31 07:25:56.593
179,-260.0,976.0,-5.0,1010.0499987624376,2021-08-31 07:25:56.603
180,-124.0,937.0,-5.0,945.1825220559256,2021-08-31 07:25:56.612
181,-124.0,937.0,-110.0,951.5487375852064,2021-08-31 07:25:56.613
182,-134.0,1001.0,-64.0,1011.95503852691,2021-08-31 07:25:56.622
183,-172.0,1126.0,-4.0,1139.068040109984,2021-08-31 07:25:56.632
184,-186.0,892.0,-65.0,913.5015051985408,2021-08-31 07:25:56.642
185,-126.0,892.0,-65.0,903.197099198176,2021-08-31 07:25:56.651
186,-126.0,929.0,42.0,938.4460559883024,2021-08-31 07:25:56.652
187,-51.0,1084.0,-63.0,1087.0262186350428,2021-08-31 07:25:56.662
188,-202.0,1048.0,28.0,1067.657248371405,2021-08-31 07:25:56.671
189,-320.0,1048.0,28.0,1096.124080567524,2021-08-31 07:25:56.681
190,-320.0,973.0,95.0,1028.666126593075,2021-08-31 07:25:56.682
191,-61.0,920.0,-112.0,928.797609816046,2021-08-31 07:25:56.691
192,-104.0,1072.0,-170.0,1090.366910723175,2021-08-31 07:25:56.700
193,-224.0,874.0,-62.0,904.3760279883584,2021-08-31 07:25:56.710
194,-217.0,874.0,-62.0,902.6677129486797,2021-08-31 07:25:56.731
195,-217.0,1010.0,-135.0,1041.8320402060976,2021-08-31 07:25:56.732
196,-217.0,978.0,-8.0,1001.8168495288946,2021-08-31 07:25:56.733
197,-213.0,1059.0,26.0,1080.52117054688,2021-08-31 07:25:56.741
198,-299.0,901.0,-37.0,950.0373676861348,2021-08-31 07:25:56.749
199,-147.0,831.0,-13.0,844.0017772493136,2021-08-31 07:25:56.759
200,-61.0,1101.0,-6.0,1102.704856251209,2021-08-31 07:25:56.769
201,-116.0,1101.0,-6.0,1107.110202283404,2021-08-31 07:25:56.778
202,-116.0,1105.0,-113.0,1116.8034742066304,2021-08-31 07:25:56.779
203,-174.0,998.0,-8.0,1013.086373415416,2021-08-31 07:25:56.799
204,-247.0,964.0,-63.0,997.1328898396642,2021-08-31 07:25:56.803
205,-74.0,930.0,-158.0,946.2240749420828,2021-08-31 07:25:56.808
206,-160.0,930.0,-158.0,956.798829430722,2021-08-31 07:25:56.818
207,-160.0,1069.0,-4.0,1080.914890266574,2021-08-31 07:25:56.819
208,-111.0,1016.0,-79.0,1025.0941420181855,2021-08-31 07:25:56.828
209,-193.0,1008.0,-79.0,1029.3463945630742,2021-08-31 07:25:56.837
210,-193.0,1008.0,92.0,1030.425640208938,2021-08-31 07:25:56.838
211,-282.0,952.0,3.0,992.8932470311196,2021-08-31 07:25:56.847
212,-191.0,952.0,3.0,970.975797844622,2021-08-31 07:25:56.856
213,-191.0,950.0,-105.0,974.6825124110928,2021-08-31 07:25:56.857
214,-145.0,937.0,6.0,948.1719253384376,2021-08-31 07:25:56.867
215,-295.0,1107.0,53.0,1146.8578813436302,2021-08-31 07:25:56.876
216,-255.0,1036.0,-38.0,1067.5977706983094,2021-08-31 07:25:56.886
217,-189.0,812.0,-93.0,838.8766297853338,2021-08-31 07:25:56.896
218,-151.0,915.0,-93.0,932.027360113425,2021-08-31 07:25:56.905
219,-151.0,915.0,-69.0,929.9392453273492,2021-08-31 07:25:56.906
220,-151.0,1069.0,-84.0,1082.8748773519496,2021-08-31 07:25:56.915
221,-188.0,1068.0,-20.0,1084.6049972224912,2021-08-31 07:25:56.925
222,-254.0,965.0,17.0,998.0130259670964,2021-08-31 07:25:56.935
223,-135.0,965.0,17.0,974.5455351085448,2021-08-31 07:25:56.948
224,-135.0,1038.0,0.0,1046.7420885776974,2021-08-31 07:25:56.949
225,15.0,979.0,-85.0,982.797537644453,2021-08-31 07:25:56.954
226,-156.0,1053.0,-77.0,1067.2740978773916,2021-08-31 07:25:56.964
227,-182.0,1053.0,-77.0,1071.3832180877205,2021-08-31 07:25:56.974
228,-182.0,1074.0,-62.0,1091.0746995508605,2021-08-31 07:25:56.975
229,-248.0,1006.0,-62.0,1037.9710978635196,2021-08-31 07:25:56.983
230,-248.0,1006.0,33.0,1036.643140140328,2021-08-31 07:25:56.984
231,-163.0,972.0,-58.0,987.2775698859972,2021-08-31 07:25:56.993
232,-163.0,929.0,-164.0,957.3431986492618,2021-08-31 07:25:57.003
233,-187.0,1021.0,8.0,1038.014450766462,2021-08-31 07:25:57.013
234,-179.0,1112.0,36.0,1126.8899680092995,2021-08-31 07:25:57.023
235,-255.0,941.0,-7.0,974.9641019032445,2021-08-31 07:25:57.032
236,-206.0,866.0,66.0,892.6074165051509,2021-08-31 07:25:57.042
237,-104.0,1017.0,-109.0,1028.0982443327098,2021-08-31 07:25:57.059
238,-259.0,902.0,24.0,938.7550266177008,2021-08-31 07:25:57.062
239,-128.0,888.0,24.0,897.4987465172305,2021-08-31 07:25:57.071
240,-128.0,888.0,-200.0,919.1996518711264,2021-08-31 07:25:57.072
241,-36.0,1133.0,-44.0,1134.4254052162266,2021-08-31 07:25:57.081
242,-108.0,995.0,0.0,1000.8441437106978,2021-08-31 07:25:57.092
243,-162.0,982.0,4.0,995.2808648818684,2021-08-31 07:25:57.101
244,-55.0,1039.0,-11.0,1040.5128543175235,2021-08-31 07:25:57.120
245,-207.0,1043.0,87.0,1066.895964937538,2021-08-31 07:25:57.123
246,-288.0,1087.0,27.0,1124.8297648977823,2021-08-31 07:25:57.135
247,-287.0,898.0,-91.0,947.1293470271102,2021-08-31 07:25:57.140
248,-175.0,898.0,-91.0,919.4074178513029,2021-08-31 07:25:57.149
249,-175.0,883.0,-35.0,900.8545942603612,2021-08-31 07:25:57.150
250,-98.0,1183.0,-87.0,1190.2361110300762,2021-08-31 07:25:57.159
251,-148.0,1100.0,-28.0,1110.264833271774,2021-08-31 07:25:57.170
252,-93.0,1054.0,-28.0,1058.4653985841956,2021-08-31 07:25:57.179
253,-93.0,1054.0,-140.0,1067.316728998473,2021-08-31 07:25:57.180
254,-203.0,1054.0,-140.0,1082.4624704810783,2021-08-31 07:25:57.188
255,-203.0,1129.0,49.0,1148.1511224573185,2021-08-31 07:25:57.189
256,-337.0,955.0,83.0,1016.1117064575136,2021-08-31 07:25:57.198
257,-101.0,868.0,-80.0,877.510683695646,2021-08-31 07:25:57.208
258,-261.0,1043.0,-23.0,1075.4064347957008,2021-08-31 07:25:57.219
259,-158.0,1043.0,-23.0,1055.150226271122,2021-08-31 07:25:57.229
260,-158.0,991.0,-65.0,1005.619212226974,2021-08-31 07:25:57.230
261,-81.0,1036.0,-65.0,1041.1925854518945,2021-08-31 07:25:57.237
262,-81.0,1036.0,-98.0,1043.772484787753,2021-08-31 07:25:57.238
263,-273.0,959.0,-42.0,997.9849698267004,2021-08-31 07:25:57.248
264,-147.0,959.0,21.0,970.428255977741,2021-08-31 07:25:57.257
265,-94.0,1164.0,36.0,1168.3441273871324,2021-08-31 07:25:57.267
266,-352.0,976.0,36.0,1038.1599106110773,2021-08-31 07:25:57.276
267,-352.0,976.0,-62.0,1039.386357424418,2021-08-31 07:25:57.277
268,-212.0,811.0,-46.0,839.5123584557883,2021-08-31 07:25:57.287
269,-143.0,1056.0,-4.0,1065.6458135797277,2021-08-31 07:25:57.296
270,-370.0,833.0,75.0,914.55672322716,2021-08-31 07:25:57.306
271,-135.0,833.0,75.0,847.1947827979112,2021-08-31 07:25:57.315
272,-135.0,965.0,-209.0,996.559581761171,2021-08-31 07:25:57.316
273,-161.0,1127.0,-86.0,1141.6855959501286,2021-08-31 07:25:57.326
274,-334.0,992.0,120.0,1053.574866822477,2021-08-31 07:25:57.336
275,-293.0,872.0,-32.0,920.4656430307434,2021-08-31 07:25:57.345
276,-105.0,872.0,-32.0,878.8816757675631,2021-08-31 07:25:57.354
277,-105.0,946.0,-165.0,966.00517596957,2021-08-31 07:25:57.355
278,-82.0,1034.0,-7.0,1037.2699745003708,2021-08-31 07:25:57.364
279,-128.0,1008.0,-25.0,1016.4019874045898,2021-08-31 07:25:57.375
280,-203.0,1040.0,-62.0,1061.4391174250177,2021-08-31 07:25:57.384
281,-172.0,895.0,-89.0,915.712837083766,2021-08-31 07:25:57.394
282,-190.0,986.0,-22.0,1004.3804060215432,2021-08-31 07:25:57.403
283,-221.0,1020.0,-45.0,1044.6367789810963,2021-08-31 07:25:57.413
284,-270.0,862.0,-45.0,904.4163864061728,2021-08-31 07:25:57.423
285,-197.0,1056.0,-27.0,1074.5575833802486,2021-08-31 07:25:57.433
286,-337.0,863.0,97.0,931.5293876201652,2021-08-31 07:25:57.443
287,-141.0,859.0,-60.0,872.5605996147202,2021-08-31 07:25:57.452
288,-66.0,1069.0,-133.0,1079.2617847399213,2021-08-31 07:25:57.462
289,-256.0,1132.0,20.0,1160.7583727891003,2021-08-31 07:25:57.472
290,-277.0,1132.0,20.0,1165.5698177286506,2021-08-31 07:25:57.482
291,-277.0,946.0,87.0,989.5524240786842,2021-08-31 07:25:57.483
292,-73.0,878.0,-89.0,885.5134104009944,2021-08-31 07:25:57.491
293,-145.0,1068.0,-158.0,1089.3176763460694,2021-08-31 07:25:57.501
294,-200.0,1027.0,-49.0,1047.43973573662,2021-08-31 07:25:57.511
295,-201.0,1027.0,-49.0,1047.6311373761282,2021-08-31 07:25:57.520
296,-201.0,1023.0,36.0,1043.1807130118923,2021-08-31 07:25:57.521
297,-246.0,935.0,-102.0,972.185681853009,2021-08-31 07:25:57.531
298,-256.0,982.0,2.0,1014.8221519064314,2021-08-31 07:25:57.540
299,-128.0,924.0,2.0,932.8258143940916,2021-08-31 07:25:57.550
300,-128.0,924.0,-6.0,932.842966420394,2021-08-31 07:25:57.551
301,-166.0,1031.0,61.0,1046.0583157740298,2021-08-31 07:25:57.560
302,-109.0,1107.0,-36.0,1112.9357573552932,2021-08-31 07:25:57.570
303,-253.0,1047.0,6.0,1077.1508715124355,2021-08-31 07:25:57.579
304,-279.0,1047.0,6.0,1083.5524906528524,2021-08-31 07:25:57.589
305,-279.0,794.0,31.0,842.1626921207089,2021-08-31 07:25:57.590
306,-86.0,940.0,31.0,944.434751584248,2021-08-31 07:25:57.599
307,-86.0,940.0,-108.0,950.084206794324,2021-08-31 07:25:57.600
308,-25.0,940.0,-108.0,946.5141309034958,2021-08-31 07:25:57.608
309,-25.0,1228.0,-84.0,1231.1234706559696,2021-08-31 07:25:57.609
310,-301.0,1024.0,115.0,1073.4998835584474,2021-08-31 07:25:57.618
311,-234.0,792.0,36.0,826.6293002307624,2021-08-31 07:25:57.628
312,-40.0,1007.0,-81.0,1011.0440148678,2021-08-31 07:25:57.639
313,2.0,1108.0,-27.0,1108.3307268139777,2021-08-31 07:25:57.648
314,-247.0,1053.0,59.0,1083.189272472729,2021-08-31 07:25:57.657
315,-205.0,931.0,17.0,953.4542464114364,2021-08-31 07:25:57.667
316,-187.0,1004.0,11.0,1021.3256091962054,2021-08-31 07:25:57.677
317,-222.0,965.0,-90.0,994.2881875995512,2021-08-31 07:25:57.687
318,-219.0,947.0,-90.0,976.1506031345778,2021-08-31 07:25:57.696
319,-219.0,947.0,-93.0,976.431769249649,2021-08-31 07:25:57.697
320,-148.0,985.0,0.0,996.0567252922898,2021-08-31 07:25:57.707
321,-205.0,1012.0,-37.0,1033.2173053138436,2021-08-31 07:25:57.716
322,-275.0,953.0,-3.0,991.8886026162414,2021-08-31 07:25:57.726
323,-72.0,953.0,-3.0,955.7206704890294,2021-08-31 07:25:57.752
324,-72.0,863.0,-16.0,866.146061585458,2021-08-31 07:25:57.753
325,-72.0,1082.0,-18.0,1084.5422997744256,2021-08-31 07:25:57.754
326,-166.0,1133.0,-18.0,1145.2375299473904,2021-08-31 07:25:57.756
327,-166.0,1133.0,-15.0,1145.1943066571716,2021-08-31 07:25:57.757
328,-223.0,896.0,72.0,926.136598996066,2021-08-31 07:25:57.765
329,-121.0,896.0,72.0,906.9955898459484,2021-08-31 07:25:57.774
330,-121.0,858.0,-87.0,870.8467144107509,2021-08-31 07:25:57.775
331,12.0,1083.0,-170.0,1096.3270497438252,2021-08-31 07:25:57.786
332,-110.0,1040.0,24.0,1046.0764790396545,2021-08-31 07:25:57.794
333,-155.0,961.0,-42.0,974.3254076539316,2021-08-31 07:25:57.814
334,-168.0,1042.0,63.0,1057.33485708171,2021-08-31 07:25:57.816
335,-180.0,997.0,0.0,1013.1184530942076,2021-08-31 07:25:57.824
336,-150.0,927.0,-58.0,940.846958862067,2021-08-31 07:25:57.833
337,-285.0,1036.0,-72.0,1076.8960024069177,2021-08-31 07:25:57.843
338,-247.0,988.0,-58.0,1020.0573513288358,2021-08-31 07:25:57.853
339,-241.0,970.0,-58.0,1001.1718134266466,2021-08-31 07:25:57.862
340,-241.0,970.0,-16.0,999.6184272010996,2021-08-31 07:25:57.863
341,-221.0,824.0,-25.0,853.4881370001577,2021-08-31 07:25:57.872
342,-143.0,963.0,-17.0,973.7078617326656,2021-08-31 07:25:57.884
343,-39.0,1192.0,-23.0,1192.8595893901345,2021-08-31 07:25:57.892
344,-351.0,1192.0,-23.0,1242.8169615836437,2021-08-31 07:25:57.901
345,-351.0,925.0,35.0,989.9752522159328,2021-08-31 07:25:57.902
346,-217.0,772.0,33.0,802.5970346319502,2021-08-31 07:25:57.911
347,22.0,1070.0,-122.0,1077.15737011822,2021-08-31 07:25:57.923
348,-301.0,836.0,-122.0,896.8729006944072,2021-08-31 07:25:57.932
349,-301.0,836.0,28.0,888.9775025274824,2021-08-31 07:25:57.933
350,-93.0,836.0,28.0,841.6228371426241,2021-08-31 07:25:57.940
351,-93.0,873.0,-117.0,885.7014169572046,2021-08-31 07:25:57.941
352,-122.0,1099.0,-38.0,1106.403633399674,2021-08-31 07:25:57.950
353,-152.0,1060.0,-6.0,1070.859467904169,2021-08-31 07:25:57.960
354,-204.0,915.0,-61.0,939.447710093542,2021-08-31 07:25:57.970
355,-271.0,915.0,-61.0,956.2358495685048,2021-08-31 07:25:57.980
356,-271.0,974.0,-13.0,1011.081599080905,2021-08-31 07:25:57.981
357,-203.0,1005.0,-13.0,1025.3794419628275,2021-08-31 07:25:57.989
358,-203.0,1005.0,40.0,1026.0769951616692,2021-08-31 07:25:57.990
359,-278.0,1095.0,-46.0,1130.6745774094331,2021-08-31 07:25:57.999
360,-339.0,955.0,-26.0,1013.7169230115476,2021-08-31 07:25:58.009
361,-199.0,866.0,10.0,888.6264682080993,2021-08-31 07:25:58.019
362,-166.0,1161.0,-13.0,1172.8793629355066,2021-08-31 07:25:58.029
363,-171.0,1082.0,-16.0,1095.5459826041078,2021-08-31 07:25:58.040
364,-312.0,839.0,57.0,896.9470441447477,2021-08-31 07:25:58.048
365,-147.0,1058.0,5.0,1068.175079282418,2021-08-31 07:25:58.058
366,-270.0,911.0,133.0,959.4321237065184,2021-08-31 07:25:58.073
367,-119.0,904.0,-105.0,917.8246019801388,2021-08-31 07:25:58.077
368,-93.0,1007.0,-89.0,1015.1940701166452,2021-08-31 07:25:58.087
369,-137.0,1094.0,52.0,1103.7703565506731,2021-08-31 07:25:58.097
370,-47.0,1036.0,13.0,1037.1470483976705,2021-08-31 07:25:58.108
371,-175.0,1062.0,13.0,1076.400483091679,2021-08-31 07:25:58.116
372,-175.0,1062.0,-59.0,1077.937846074624,2021-08-31 07:25:58.117
373,-253.0,949.0,-128.0,990.4514122358552,2021-08-31 07:25:58.126
374,-227.0,969.0,-33.0,995.7805983247516,2021-08-31 07:25:58.136
375,-181.0,1014.0,-28.0,1030.4081715514487,2021-08-31 07:25:58.146
376,-221.0,1014.0,-28.0,1038.1815833465744,2021-08-31 07:25:58.159
377,-221.0,938.0,-91.0,967.9700408587034,2021-08-31 07:25:58.160
378,-148.0,990.0,12.0,1001.0734238805863,2021-08-31 07:25:58.165
379,-248.0,807.0,36.0,845.0142010641005,2021-08-31 07:25:58.175
380,-8.0,1033.0,-81.0,1036.2017178136698,2021-08-31 07:25:58.185
381,-64.0,1214.0,-81.0,1218.3813032051994,2021-08-31 07:25:58.194
382,-64.0,1214.0,-110.0,1220.6522846412895,2021-08-31 07:25:58.195
383,-291.0,1038.0,83.0,1081.2095079123194,2021-08-31 07:25:58.205
384,-262.0,860.0,-12.0,899.1039984339965,2021-08-31 07:25:58.214
385,-13.0,884.0,-235.0,914.7950590159523,2021-08-31 07:25:58.224
386,-89.0,884.0,-235.0,919.0223065845572,2021-08-31 07:25:58.233
387,-89.0,1136.0,-102.0,1144.0371497464582,2021-08-31 07:25:58.234
388,-202.0,993.0,63.0,1015.2940460772928,2021-08-31 07:25:58.243
389,-185.0,1004.0,27.0,1021.25902688789,2021-08-31 07:25:58.254
390,-111.0,1011.0,-46.0,1018.1149247506394,2021-08-31 07:25:58.264
391,-166.0,1011.0,-46.0,1025.569597833321,2021-08-31 07:25:58.272
392,-166.0,1016.0,-13.0,1029.5537868416588,2021-08-31 07:25:58.273
393,-247.0,1111.0,0.0,1138.125652114036,2021-08-31 07:25:58.282
394,-229.0,1088.0,-20.0,1112.018435098987,2021-08-31 07:25:58.292
395,-256.0,1042.0,-80.0,1075.9646834352882,2021-08-31 07:25:58.302
396,-367.0,905.0,-80.0,979.8540707676832,2021-08-31 07:25:58.313
397,-367.0,905.0,-4.0,976.5910095838484,2021-08-31 07:25:58.314
398,-244.0,840.0,-4.0,874.7296725274615,2021-08-31 07:25:58.321
399,-244.0,840.0,-45.0,875.8772745082498,2021-08-31 07:25:58.322
400,27.0,1110.0,-112.0,1115.9628130005049,2021-08-31 07:25:58.331
401,-139.0,1178.0,2.0,1186.174101892298,2021-08-31 07:25:58.341
402,-406.0,917.0,79.0,1005.965208145888,2021-08-31 07:25:58.351
403,-112.0,834.0,79.0,845.1869615653095,2021-08-31 07:25:58.361
404,-112.0,834.0,-94.0,846.7207331818444,2021-08-31 07:25:58.362
405,-112.0,1053.0,-106.0,1064.2316477158531,2021-08-31 07:25:58.370
406,-210.0,995.0,-81.0,1020.1401864449808,2021-08-31 07:25:58.380
407,-140.0,968.0,7.0,978.0966209940613,2021-08-31 07:25:58.390
408,-213.0,968.0,7.0,991.1821225183594,2021-08-31 07:25:58.399
409,-213.0,947.0,18.0,970.8254219992388,2021-08-31 07:25:58.400
410,-217.0,953.0,-17.0,977.5413034752036,2021-08-31 07:25:58.410
411,-125.0,953.0,-17.0,961.3131643746484,2021-08-31 07:25:58.420
412,-125.0,1087.0,46.0,1095.1301292540536,2021-08-31 07:25:58.421
413,-189.0,1004.0,-23.0,1021.893340814001,2021-08-31 07:25:58.429
414,-211.0,1028.0,12.0,1049.499404478154,2021-08-31 07:25:58.439
415,-284.0,983.0,12.0,1023.2736681846162,2021-08-31 07:25:58.448
416,-284.0,983.0,-49.0,1024.3759075651867,2021-08-31 07:25:58.449
417,-295.0,845.0,11.0,895.0815605295419,2021-08-31 07:25:58.458
418,-122.0,992.0,11.0,999.534391604411,2021-08-31 07:25:58.469
419,-122.0,992.0,-61.0,1001.3336107411956,2021-08-31 07:25:58.470
420,-101.0,1115.0,-123.0,1126.301469412164,2021-08-31 07:25:58.478
421,-305.0,961.0,-123.0,1015.7140345589402,2021-08-31 07:25:58.487
422,-305.0,961.0,97.0,1012.894367641562,2021-08-31 07:25:58.488
423,-264.0,827.0,0.0,868.1157756889343,2021-08-31 07:25:58.497
424,-75.0,973.0,-130.0,984.5069832154568,2021-08-31 07:25:58.510
425,-81.0,973.0,-130.0,984.9822333423076,2021-08-31 07:25:58.517
426,-81.0,1091.0,5.0,1094.0141680983843,2021-08-31 07:25:58.518
427,-261.0,1030.0,5.0,1062.565762670716,2021-08-31 07:25:58.526
428,-261.0,1030.0,63.0,1064.4200298754247,2021-08-31 07:25:58.527
429,-269.0,949.0,-63.0,988.3981991080316,2021-08-31 07:25:58.536
430,-235.0,1087.0,55.0,1113.4715982008702,2021-08-31 07:25:58.546
431,-204.0,1005.0,-22.0,1025.731446334761,2021-08-31 07:25:58.556
432,-170.0,961.0,-50.0,977.2005935323616,2021-08-31 07:25:58.566
433,-155.0,1054.0,-85.0,1068.7216662910882,2021-08-31 07:25:58.577
434,-183.0,1030.0,-27.0,1046.4788578848595,2021-08-31 07:25:58.585
435,-293.0,919.0,26.0,964.927976586854,2021-08-31 07:25:58.595
436,-163.0,919.0,26.0,933.7055210289806,2021-08-31 07:25:58.604
437,-163.0,865.0,-39.0,881.0873963461287,2021-08-31 07:25:58.605
438,-47.0,1060.0,-39.0,1061.7579761885474,2021-08-31 07:25:58.614
439,-47.0,1060.0,-88.0,1064.6844602979795,2021-08-31 07:25:58.615
440,-204.0,1139.0,27.0,1157.4394152611185,2021-08-31 07:25:58.625
441,-313.0,966.0,136.0,1024.5101268411163,2021-08-31 07:25:58.634
442,-74.0,841.0,-110.0,851.3853416638085,2021-08-31 07:25:58.644
443,-49.0,1035.0,-110.0,1041.9817656753885,2021-08-31 07:25:58.653
444,-49.0,1035.0,-271.0,1071.0121381198255,2021-08-31 07:25:58.654
445,-222.0,884.0,-75.0,914.5299339004712,2021-08-31 07:25:58.663
446,-43.0,884.0,-75.0,888.2173157510498,2021-08-31 07:25:58.673
447,-43.0,862.0,-126.0,872.2207289442277,2021-08-31 07:25:58.674
448,-79.0,1106.0,15.0,1108.9192937270052,2021-08-31 07:25:58.684
449,-254.0,976.0,15.0,1008.6213362803704,2021-08-31 07:25:58.692
450,-254.0,976.0,-56.0,1010.0633643489896,2021-08-31 07:25:58.693
451,-153.0,924.0,-58.0,938.3757243236848,2021-08-31 07:25:58.702
452,-264.0,963.0,29.0,998.9524513208823,2021-08-31 07:25:58.712
453,-108.0,1039.0,5.0,1044.6099750624633,2021-08-31 07:25:58.722
454,-129.0,1090.0,5.0,1097.6183307507213,2021-08-31 07:25:58.733
455,-129.0,1090.0,-40.0,1098.3355589254134,2021-08-31 07:25:58.734
456,-163.0,880.0,37.0,895.7332192120598,2021-08-31 07:25:58.741
457,-62.0,970.0,-64.0,974.0841852735316,2021-08-31 07:25:58.751
458,-278.0,1219.0,-97.0,1254.055022716308,2021-08-31 07:25:58.773
459,-278.0,1000.0,62.0,1039.773052160903,2021-08-31 07:25:58.774
460,-267.0,760.0,57.0,807.5506176085806,2021-08-31 07:25:58.782
461,-255.0,988.0,46.0,1021.4132366481256,2021-08-31 07:25:58.790
462,-273.0,911.0,26.0,951.3811013468788,2021-08-31 07:25:58.800
463,-43.0,937.0,-203.0,959.7015160975832,2021-08-31 07:25:58.810
464,-96.0,1058.0,-31.0,1062.7986639058215,2021-08-31 07:25:58.828
465,-232.0,1034.0,25.0,1060.0023584879425,2021-08-31 07:25:58.831
466,-264.0,985.0,-51.0,1021.0396662226204,2021-08-31 07:25:58.839
467,-299.0,903.0,-89.0,955.369562002056,2021-08-31 07:25:58.850
468,-115.0,903.0,-89.0,914.633806504002,2021-08-31 07:25:58.858
469,-115.0,933.0,-16.0,940.1967879119776,2021-08-31 07:25:58.859
470,-132.0,997.0,-54.0,1007.1489462835176,2021-08-31 07:25:58.868
471,-189.0,1035.0,-28.0,1052.4875296173348,2021-08-31 07:25:58.878
472,-100.0,933.0,-13.0,938.433801607764,2021-08-31 07:25:58.888
473,-183.0,1023.0,-43.0,1040.1283574636354,2021-08-31 07:25:58.902
474,-133.0,962.0,23.0,971.4226680492894,2021-08-31 07:25:58.907
475,-28.0,1124.0,-195.0,1141.1332087008948,2021-08-31 07:25:58.917
476,-231.0,1060.0,-65.0,1086.8238127681966,2021-08-31 07:25:58.927
477,-411.0,908.0,122.0,1004.1259881110536,2021-08-31 07:25:58.938
478,-212.0,895.0,-149.0,931.7564059345124,2021-08-31 07:25:58.946
479,-79.0,1034.0,-113.0,1043.1519544150794,2021-08-31 07:25:58.957
480,-165.0,1133.0,56.0,1146.320199595209,2021-08-31 07:25:58.966
481,-304.0,1031.0,21.0,1075.0897636941763,2021-08-31 07:25:58.976
482,-266.0,936.0,21.0,973.289782130687,2021-08-31 07:25:58.985
483,-266.0,936.0,-50.0,974.3469607896358,2021-08-31 07:25:58.986
484,-300.0,949.0,-88.0,999.1721573382636,2021-08-31 07:25:58.997
485,-239.0,992.0,-71.0,1022.8518954374578,2021-08-31 07:25:59.005
486,-232.0,1032.0,25.0,1058.0515110333713,2021-08-31 07:25:59.015
487,-206.0,1032.0,25.0,1052.656164186578,2021-08-31 07:25:59.024
488,-206.0,884.0,59.0,909.6004617413076,2021-08-31 07:25:59.025
489,-111.0,990.0,-41.0,997.0466388288966,2021-08-31 07:25:59.034
490,-235.0,809.0,64.0,844.8680370330031,2021-08-31 07:25:59.045
491,-15.0,1016.0,-57.0,1017.7082096554002,2021-08-31 07:25:59.054
492,0.0,1016.0,-57.0,1017.5976611608344,2021-08-31 07:25:59.063
493,0.0,1206.0,-38.0,1206.5985247794729,2021-08-31 07:25:59.064
494,-303.0,1077.0,64.0,1120.6399957167332,2021-08-31 07:25:59.073
495,-304.0,828.0,1.0,882.0436497135502,2021-08-31 07:25:59.093
496,-106.0,880.0,1.0,886.3616643334706,2021-08-31 07:25:59.096
497,-106.0,880.0,-159.0,900.5093003406462,2021-08-31 07:25:59.097
498,-122.0,1062.0,-53.0,1070.2976221593692,2021-08-31 07:25:59.103
499,-185.0,1097.0,42.0,1113.2825337711895,2021-08-31 07:25:59.113
500,-349.0,974.0,-40.0,1035.4115123949512,2021-08-31 07:25:59.122
501,-365.0,974.0,-40.0,1040.9135410782203,2021-08-31 07:25:59.132
502,-365.0,927.0,-22.0,996.5129201370146,2021-08-31 07:25:59.133
503,-151.0,924.0,-2.0,936.2590453501638,2021-08-31 07:25:59.142
504,-232.0,1087.0,-2.0,1111.4841429368212,2021-08-31 07:25:59.151
505,-232.0,1087.0,-100.0,1115.9717738365966,2021-08-31 07:25:59.152
506,-187.0,1000.0,-13.0,1017.4173185079956,2021-08-31 07:25:59.161
507,-149.0,1072.0,-69.0,1084.502650988,2021-08-31 07:25:59.175
508,-321.0,1014.0,-37.0,1064.239634668809,2021-08-31 07:25:59.181
509,-174.0,1014.0,-37.0,1029.4857939767794,2021-08-31 07:25:59.190
510,-174.0,897.0,-29.0,914.1805073397704,2021-08-31 07:25:59.191
511,39.0,974.0,-145.0,985.5059614228622,2021-08-31 07:25:59.200
512,-81.0,993.0,57.0,997.9273520652694,2021-08-31 07:25:59.210
513,-253.0,978.0,57.0,1011.801363904991,2021-08-31 07:25:59.220
514,-253.0,978.0,152.0,1021.56595479685,2021-08-31 07:25:59.221
515,-155.0,983.0,-125.0,1002.9651040789006,2021-08-31 07:25:59.230
516,-34.0,968.0,-139.0,978.5198005150432,2021-08-31 07:25:59.239
