,Acceleration_X,Acceleration_Y,Acceleration_Z,magnitude,time_stamp
0,-216.0,1097.0,30.0,1118.465466610391,2021-08-31 10:43:55.935
1,-70.0,966.0,30.0,968.9974200172052,2021-08-31 10:43:55.943
2,-70.0,966.0,-68.0,970.9170922380551,2021-08-31 10:43:55.944
3,-24.0,974.0,-159.0,987.184379941255,2021-08-31 10:43:55.953
4,-145.0,977.0,-24.0,987.9929149543532,2021-08-31 10:43:55.963
5,-71.0,1014.0,15.0,1016.5933306883338,2021-08-31 10:43:55.973
6,-179.0,1043.0,-22.0,1058.47720806827,2021-08-31 10:43:55.983
7,-253.0,848.0,-49.0,886.2922768477677,2021-08-31 10:43:55.994
8,-118.0,989.0,-44.0,996.985957774732,2021-08-31 10:43:56.002
9,-143.0,1140.0,-111.0,1154.283327437419,2021-08-31 10:43:56.012
10,-299.0,907.0,-50.0,956.3210757899252,2021-08-31 10:43:56.023
11,-121.0,1110.0,-114.0,1122.380060407347,2021-08-31 10:43:56.032
12,-376.0,966.0,79.0,1039.6023278157854,2021-08-31 10:43:56.043
13,-286.0,944.0,8.0,986.405596091182,2021-08-31 10:43:56.051
14,-23.0,917.0,-108.0,923.624382527876,2021-08-31 10:43:56.061
15,-119.0,1036.0,65.0,1044.8358722785124,2021-08-31 10:43:56.070
16,-145.0,1003.0,-24.0,1013.7110041821584,2021-08-31 10:43:56.080
17,-102.0,925.0,-105.0,936.511612314551,2021-08-31 10:43:56.091
18,-119.0,973.0,-57.0,981.9057999625016,2021-08-31 10:43:56.100
19,-115.0,967.0,-35.0,974.442917774048,2021-08-31 10:43:56.109
20,-263.0,1090.0,-206.0,1140.0460517014214,2021-08-31 10:43:56.119
21,-341.0,896.0,-23.0,958.9713238674032,2021-08-31 10:43:56.129
22,-402.0,750.0,77.0,854.4196861027957,2021-08-31 10:43:56.139
23,-315.0,928.0,77.0,983.0249233869912,2021-08-31 10:43:56.149
24,-315.0,928.0,-39.0,980.780301596642,2021-08-31 10:43:56.150
25,-187.0,989.0,-17.0,1006.6672737305012,2021-08-31 10:43:56.164
26,-112.0,1184.0,-31.0,1189.6894552781412,2021-08-31 10:43:56.168
27,-206.0,926.0,122.0,956.449685033144,2021-08-31 10:43:56.178
28,-55.0,1019.0,97.0,1025.0829234749742,2021-08-31 10:43:56.189
29,-91.0,1033.0,-102.0,1042.0047984534428,2021-08-31 10:43:56.198
30,-161.0,1047.0,-118.0,1065.8583395554965,2021-08-31 10:43:56.207
31,-208.0,1039.0,21.0,1059.8235702228933,2021-08-31 10:43:56.219
32,-27.0,980.0,54.0,981.8579326969864,2021-08-31 10:43:56.227
33,-106.0,1124.0,-107.0,1134.0462953512963,2021-08-31 10:43:56.237
34,-249.0,923.0,9.0,956.0392251367095,2021-08-31 10:43:56.246
35,-315.0,885.0,106.0,945.3496707568052,2021-08-31 10:43:56.256
36,-331.0,994.0,-31.0,1048.1211762005385,2021-08-31 10:43:56.266
37,-136.0,879.0,-31.0,889.9988764037852,2021-08-31 10:43:56.275
38,-136.0,879.0,-114.0,896.7346318727742,2021-08-31 10:43:56.276
39,-270.0,940.0,-104.0,983.5222417413852,2021-08-31 10:43:56.285
40,-191.0,810.0,-35.0,832.9501785821286,2021-08-31 10:43:56.296
41,-249.0,1024.0,94.0,1058.023156646394,2021-08-31 10:43:56.309
42,-78.0,1224.0,-200.0,1242.682582158453,2021-08-31 10:43:56.315
43,-305.0,981.0,116.0,1033.8481513259092,2021-08-31 10:43:56.324
44,-189.0,903.0,17.0,922.7236856177476,2021-08-31 10:43:56.335
45,47.0,1090.0,-95.0,1095.1410868011485,2021-08-31 10:43:56.345
46,-171.0,1180.0,-27.0,1192.6315441073996,2021-08-31 10:43:56.354
47,-144.0,1013.0,-80.0,1026.30648443825,2021-08-31 10:43:56.363
48,-55.0,927.0,-22.0,928.890736308636,2021-08-31 10:43:56.373
49,20.0,1150.0,-40.0,1150.8692367076287,2021-08-31 10:43:56.383
50,-182.0,1087.0,-40.0,1102.8567450036292,2021-08-31 10:43:56.393
51,-182.0,1087.0,-3.0,1102.1352004178073,2021-08-31 10:43:56.394
52,-222.0,996.0,80.0,1023.5721762533408,2021-08-31 10:43:56.402
53,-210.0,997.0,88.0,1022.6695458455775,2021-08-31 10:43:56.413
54,-267.0,995.0,88.0,1033.952610132592,2021-08-31 10:43:56.424
55,-267.0,995.0,-47.0,1031.2725149057353,2021-08-31 10:43:56.425
56,-271.0,849.0,-125.0,899.9261080777688,2021-08-31 10:43:56.432
57,-273.0,885.0,33.0,926.7378270039484,2021-08-31 10:43:56.442
58,-158.0,1067.0,12.0,1078.7015342531038,2021-08-31 10:43:56.451
59,-303.0,1058.0,-154.0,1111.255596161387,2021-08-31 10:43:56.462
60,-298.0,949.0,-32.0,995.2029943684856,2021-08-31 10:43:56.471
61,-259.0,949.0,-32.0,984.228631975315,2021-08-31 10:43:56.480
62,-259.0,724.0,-97.0,775.0264511615071,2021-08-31 10:43:56.481
63,-50.0,1085.0,-62.0,1087.919574233316,2021-08-31 10:43:56.490
64,-104.0,1078.0,-97.0,1087.340333106429,2021-08-31 10:43:56.501
65,-200.0,953.0,-103.0,979.1925244812688,2021-08-31 10:43:56.511
66,-96.0,953.0,-103.0,963.3452133062166,2021-08-31 10:43:56.519
67,-96.0,1088.0,-94.0,1096.264566607897,2021-08-31 10:43:56.520
68,-232.0,1095.0,34.0,1119.8236468301604,2021-08-31 10:43:56.529
69,-253.0,1050.0,-45.0,1080.987511491229,2021-08-31 10:43:56.552
70,-253.0,998.0,-19.0,1029.7446285366095,2021-08-31 10:43:56.554
71,-397.0,996.0,33.0,1072.7133820364131,2021-08-31 10:43:56.559
72,-162.0,834.0,-59.0,851.6343111923098,2021-08-31 10:43:56.569
73,-212.0,889.0,-93.0,918.6479194990864,2021-08-31 10:43:56.578
74,-278.0,921.0,-46.0,963.1412149835558,2021-08-31 10:43:56.588
75,-225.0,1009.0,19.0,1033.9569623538496,2021-08-31 10:43:56.598
76,-341.0,1049.0,106.0,1108.1146150105592,2021-08-31 10:43:56.609
77,-292.0,818.0,-61.0,870.6945503447233,2021-08-31 10:43:56.617
78,-101.0,999.0,-61.0,1005.9438354103077,2021-08-31 10:43:56.627
79,-101.0,999.0,-95.0,1008.5767199375564,2021-08-31 10:43:56.628
80,-293.0,1052.0,-77.0,1094.7520267165528,2021-08-31 10:43:56.637
81,-27.0,1100.0,-78.0,1103.0924711917855,2021-08-31 10:43:56.646
82,-11.0,1054.0,-90.0,1057.8927166778303,2021-08-31 10:43:56.657
83,-83.0,1034.0,-90.0,1041.2228387814014,2021-08-31 10:43:56.676
84,-83.0,1034.0,95.0,1041.6669333332993,2021-08-31 10:43:56.677
85,-154.0,969.0,-24.0,981.4545328236046,2021-08-31 10:43:56.679
86,-53.0,1078.0,-21.0,1079.5063686704216,2021-08-31 10:43:56.685
87,-176.0,1078.0,-21.0,1092.474713666179,2021-08-31 10:43:56.696
88,-176.0,1196.0,151.0,1218.2745995874657,2021-08-31 10:43:56.697
89,-317.0,964.0,-32.0,1015.2876439709094,2021-08-31 10:43:56.705
90,-319.0,874.0,-7.0,930.4224846810184,2021-08-31 10:43:56.715
91,-123.0,866.0,38.0,875.5164190350744,2021-08-31 10:43:56.736
92,-105.0,1076.0,-95.0,1085.2769231859672,2021-08-31 10:43:56.738
93,-276.0,1065.0,-95.0,1104.276233557528,2021-08-31 10:43:56.745
94,-276.0,1065.0,9.0,1100.219069094878,2021-08-31 10:43:56.746
95,-378.0,786.0,132.0,882.1020349143289,2021-08-31 10:43:56.754
96,-220.0,824.0,-20.0,853.0978841844586,2021-08-31 10:43:56.764
97,-296.0,824.0,-20.0,875.7807944914069,2021-08-31 10:43:56.773
98,-296.0,935.0,-29.0,981.1635949218662,2021-08-31 10:43:56.774
99,-93.0,1078.0,-69.0,1084.2020106972686,2021-08-31 10:43:56.784
100,0.0,914.0,-72.0,916.8315003314405,2021-08-31 10:43:56.793
101,-54.0,914.0,-72.0,918.4203830490698,2021-08-31 10:43:56.803
102,-54.0,1096.0,-20.0,1097.5117311445924,2021-08-31 10:43:56.804
103,-128.0,1096.0,-20.0,1103.6303729057115,2021-08-31 10:43:56.812
104,-128.0,1083.0,-135.0,1098.8621387599082,2021-08-31 10:43:56.813
105,11.0,883.0,7.0,883.0962574940514,2021-08-31 10:43:56.822
106,-185.0,883.0,7.0,902.1989802698736,2021-08-31 10:43:56.831
107,-185.0,1048.0,70.0,1066.503164552267,2021-08-31 10:43:56.832
108,-179.0,1187.0,-23.0,1200.6410787575112,2021-08-31 10:43:56.843
109,-246.0,1044.0,40.0,1073.3368529962995,2021-08-31 10:43:56.853
110,-297.0,858.0,17.0,908.1090242916872,2021-08-31 10:43:56.861
111,-39.0,970.0,-10.0,970.83520743739,2021-08-31 10:43:56.871
112,30.0,1225.0,-9.0,1225.400342745178,2021-08-31 10:43:56.881
113,-210.0,1057.0,57.0,1079.165418274696,2021-08-31 10:43:56.891
114,-280.0,1057.0,57.0,1094.9420075967494,2021-08-31 10:43:56.901
115,-280.0,1087.0,-41.0,1123.2319439901985,2021-08-31 10:43:56.902
116,-221.0,881.0,52.0,909.7834907273268,2021-08-31 10:43:56.910
117,-300.0,970.0,-61.0,1017.1632120756236,2021-08-31 10:43:56.920
118,-163.0,954.0,-266.0,1003.7136045705467,2021-08-31 10:43:56.930
119,-69.0,1010.0,-21.0,1012.5719727505792,2021-08-31 10:43:56.940
120,-137.0,1040.0,-21.0,1049.19492945782,2021-08-31 10:43:56.949
121,-137.0,1040.0,25.0,1049.2826120736015,2021-08-31 10:43:56.950
122,-140.0,1040.0,25.0,1049.678522215254,2021-08-31 10:43:56.959
123,-140.0,993.0,-163.0,1015.9812990404891,2021-08-31 10:43:56.960
124,-241.0,1109.0,-152.0,1145.0179037901546,2021-08-31 10:43:56.969
125,-183.0,971.0,18.0,988.2580634631828,2021-08-31 10:43:56.979
126,-156.0,993.0,-5.0,1005.1915240390758,2021-08-31 10:43:56.989
127,-182.0,993.0,-5.0,1009.5533665933664,2021-08-31 10:43:56.999
128,-182.0,1063.0,-83.0,1081.6570621042513,2021-08-31 10:43:57.000
129,-182.0,872.0,-83.0,894.649093220353,2021-08-31 10:43:57.009
130,-182.0,872.0,-51.0,892.249404594926,2021-08-31 10:43:57.010
131,-403.0,722.0,72.0,829.9861444626652,2021-08-31 10:43:57.018
132,-257.0,787.0,72.0,831.0246687072532,2021-08-31 10:43:57.027
133,-257.0,787.0,-10.0,827.9601439682951,2021-08-31 10:43:57.028
134,101.0,1145.0,-129.0,1156.6620076755353,2021-08-31 10:43:57.037
135,-186.0,1047.0,0.0,1063.3931540121932,2021-08-31 10:43:57.048
136,-594.0,880.0,149.0,1072.1179972372445,2021-08-31 10:43:57.058
137,-145.0,822.0,149.0,847.8856054916843,2021-08-31 10:43:57.066
138,-145.0,822.0,-80.0,838.5159509514414,2021-08-31 10:43:57.067
139,-87.0,956.0,-223.0,985.5120496472888,2021-08-31 10:43:57.076
140,-259.0,1074.0,-98.0,1109.1262326714664,2021-08-31 10:43:57.086
141,-172.0,866.0,-35.0,883.6090764585887,2021-08-31 10:43:57.096
142,-205.0,924.0,30.0,946.9429761078542,2021-08-31 10:43:57.107
143,-332.0,989.0,-68.0,1045.4515770708847,2021-08-31 10:43:57.116
144,-153.0,1076.0,-48.0,1087.88280618824,2021-08-31 10:43:57.125
145,-82.0,881.0,0.0,884.8078887532592,2021-08-31 10:43:57.135
146,-23.0,1295.0,2.0,1295.2057751569826,2021-08-31 10:43:57.145
147,-307.0,1044.0,-4.0,1088.2099981161723,2021-08-31 10:43:57.156
148,-295.0,719.0,75.0,780.7758961443418,2021-08-31 10:43:57.165
149,-35.0,965.0,75.0,968.5427197599496,2021-08-31 10:43:57.179
150,-35.0,965.0,-63.0,967.6874495414312,2021-08-31 10:43:57.180
151,-73.0,1084.0,-149.0,1096.624821896714,2021-08-31 10:43:57.184
152,-262.0,992.0,151.0,1037.0675002139446,2021-08-31 10:43:57.194
153,-349.0,871.0,-5.0,938.332030786544,2021-08-31 10:43:57.205
154,-167.0,871.0,-5.0,886.8793604543969,2021-08-31 10:43:57.213
155,-167.0,846.0,-165.0,877.9692477530178,2021-08-31 10:43:57.214
156,-115.0,1024.0,33.0,1030.9655668352848,2021-08-31 10:43:57.223
157,-283.0,988.0,33.0,1028.261639856316,2021-08-31 10:43:57.232
158,-283.0,988.0,-60.0,1029.4819085345794,2021-08-31 10:43:57.233
159,-305.0,922.0,-114.0,977.8062180207282,2021-08-31 10:43:57.242
160,-344.0,922.0,-114.0,990.66442350576,2021-08-31 10:43:57.252
161,-344.0,888.0,-33.0,952.8740735270322,2021-08-31 10:43:57.253
162,-129.0,1132.0,-88.0,1142.720000700084,2021-08-31 10:43:57.263
163,-222.0,885.0,-68.0,914.9497253947892,2021-08-31 10:43:57.272
164,-82.0,1077.0,-62.0,1081.895096578222,2021-08-31 10:43:57.281
165,-128.0,1072.0,21.0,1079.8189663087048,2021-08-31 10:43:57.291
166,-203.0,927.0,21.0,949.1991361142298,2021-08-31 10:43:57.301
167,-203.0,927.0,117.0,956.1521845396788,2021-08-31 10:43:57.302
168,-143.0,1048.0,-37.0,1058.3581624384062,2021-08-31 10:43:57.313
169,82.0,1062.0,-168.0,1078.328335897745,2021-08-31 10:43:57.321
170,-185.0,980.0,75.0,1000.1249921884764,2021-08-31 10:43:57.330
171,-319.0,1043.0,106.0,1095.8311913794023,2021-08-31 10:43:57.340
172,-103.0,928.0,-79.0,937.0346845234706,2021-08-31 10:43:57.350
173,-229.0,973.0,9.0,999.6254298486008,2021-08-31 10:43:57.360
174,-233.0,978.0,2.0,1005.3740597409504,2021-08-31 10:43:57.369
175,-235.0,978.0,2.0,1005.8394504094578,2021-08-31 10:43:57.379
176,-235.0,964.0,-88.0,996.1249921571087,2021-08-31 10:43:57.380
177,-53.0,1052.0,-24.0,1053.6076119694656,2021-08-31 10:43:57.389
178,-271.0,1090.0,88.0,1126.625492344284,2021-08-31 10:43:57.401
179,-267.0,837.0,-19.0,878.7599217078576,2021-08-31 10:43:57.409
180,-63.0,837.0,-19.0,839.5826344083113,2021-08-31 10:43:57.418
181,-63.0,1049.0,-136.0,1059.6537170226884,2021-08-31 10:43:57.419
182,-136.0,1213.0,-187.0,1234.84169025831,2021-08-31 10:43:57.429
183,-209.0,1213.0,-187.0,1244.997590359114,2021-08-31 10:43:57.437
184,-209.0,1022.0,31.0,1043.6119968647351,2021-08-31 10:43:57.438
185,-188.0,879.0,31.0,899.4142538341273,2021-08-31 10:43:57.447
186,-188.0,879.0,176.0,915.9481426369072,2021-08-31 10:43:57.448
187,102.0,1105.0,-122.0,1116.383894545241,2021-08-31 10:43:57.457
188,2.0,1192.0,-122.0,1198.2286926960146,2021-08-31 10:43:57.467
189,2.0,1192.0,-92.0,1195.54673685306,2021-08-31 10:43:57.468
190,-254.0,1192.0,-92.0,1222.2291110916972,2021-08-31 10:43:57.477
191,-254.0,1059.0,252.0,1117.8108068899674,2021-08-31 10:43:57.478
192,-225.0,881.0,23.0,909.5685790527288,2021-08-31 10:43:57.486
193,-192.0,1031.0,-24.0,1049.0,2021-08-31 10:43:57.496
194,-259.0,955.0,-100.0,994.538083735359,2021-08-31 10:43:57.508
195,-203.0,857.0,-100.0,886.373510434512,2021-08-31 10:43:57.534
196,-203.0,857.0,-31.0,881.2598935614851,2021-08-31 10:43:57.535
197,-203.0,838.0,20.0,862.4691298823396,2021-08-31 10:43:57.537
198,-273.0,1055.0,-120.0,1096.3366271360271,2021-08-31 10:43:57.568
199,-107.0,1055.0,-120.0,1067.1803971213114,2021-08-31 10:43:57.577
200,-107.0,990.0,-51.0,997.070709628961,2021-08-31 10:43:57.578
201,-149.0,1074.0,-74.0,1086.8086308085706,2021-08-31 10:43:57.580
202,-149.0,1088.0,-123.0,1105.0221717232646,2021-08-31 10:43:57.581
203,-350.0,976.0,3.0,1036.8630574960223,2021-08-31 10:43:57.585
204,-153.0,886.0,3.0,899.1184571567865,2021-08-31 10:43:57.594
205,-153.0,886.0,-94.0,904.0138273278787,2021-08-31 10:43:57.595
206,198.0,886.0,-94.0,912.7080584721492,2021-08-31 10:43:57.603
207,198.0,895.0,-162.0,930.8453147542828,2021-08-31 10:43:57.604
208,-167.0,1074.0,-23.0,1087.1494837417713,2021-08-31 10:43:57.614
209,-184.0,877.0,-112.0,903.066442738296,2021-08-31 10:43:57.624
210,-162.0,934.0,-67.0,950.3099494375506,2021-08-31 10:43:57.633
211,-142.0,934.0,-67.0,947.1055907342115,2021-08-31 10:43:57.642
212,-142.0,1074.0,4.0,1083.3540510839473,2021-08-31 10:43:57.643
213,-273.0,1057.0,-3.0,1091.6899743058923,2021-08-31 10:43:57.652
214,-329.0,794.0,-68.0,862.1490590379369,2021-08-31 10:43:57.662
215,-230.0,997.0,-45.0,1024.174789769793,2021-08-31 10:43:57.673
216,-289.0,1025.0,-45.0,1065.913223484914,2021-08-31 10:43:57.683
217,-289.0,1025.0,-19.0,1065.132386137986,2021-08-31 10:43:57.684
218,-224.0,896.0,-13.0,923.667147840606,2021-08-31 10:43:57.697
219,-300.0,977.0,-66.0,1024.1508677924362,2021-08-31 10:43:57.702
220,-202.0,915.0,-110.0,943.4664805916532,2021-08-31 10:43:57.711
221,-182.0,974.0,144.0,1001.2671971057476,2021-08-31 10:43:57.722
222,-270.0,974.0,144.0,1020.9368246860332,2021-08-31 10:43:57.731
223,-270.0,925.0,18.0,963.7681256401872,2021-08-31 10:43:57.732
224,-119.0,977.0,-260.0,1017.983300452419,2021-08-31 10:43:57.751
225,-186.0,961.0,17.0,978.9821244537616,2021-08-31 10:43:57.753
226,-114.0,1079.0,-80.0,1087.9508260946357,2021-08-31 10:43:57.762
227,-80.0,1079.0,-80.0,1084.9152040597455,2021-08-31 10:43:57.769
228,-80.0,976.0,-19.0,979.4575029065836,2021-08-31 10:43:57.770
229,-51.0,1059.0,-73.0,1062.7375028670062,2021-08-31 10:43:57.780
230,-192.0,1181.0,-53.0,1197.6785879358451,2021-08-31 10:43:57.789
231,-169.0,908.0,59.0,925.4760936944832,2021-08-31 10:43:57.799
232,-139.0,1012.0,-26.0,1021.832178001848,2021-08-31 10:43:57.810
233,-232.0,1043.0,-93.0,1072.5306522426297,2021-08-31 10:43:57.820
234,-276.0,944.0,7.0,983.5451184363634,2021-08-31 10:43:57.828
235,-391.0,990.0,7.0,1064.4388192846031,2021-08-31 10:43:57.838
236,-68.0,950.0,-70.0,954.9994764396472,2021-08-31 10:43:57.848
237,-193.0,986.0,-110.0,1010.7150933868556,2021-08-31 10:43:57.858
238,-17.0,949.0,-87.0,953.1311557178268,2021-08-31 10:43:57.869
239,-191.0,1082.0,-109.0,1104.122275837237,2021-08-31 10:43:57.877
240,-186.0,1142.0,-60.0,1158.602606591233,2021-08-31 10:43:57.887
241,-191.0,1038.0,-60.0,1057.1305501214124,2021-08-31 10:43:57.896
242,-191.0,1038.0,43.0,1056.3020401381416,2021-08-31 10:43:57.897
243,-191.0,862.0,3.0,882.9122266680873,2021-08-31 10:43:57.906
244,98.0,1066.0,-56.0,1071.9589544380883,2021-08-31 10:43:57.917
245,-104.0,1263.0,-62.0,1268.790368815905,2021-08-31 10:43:57.930
246,-347.0,1263.0,-62.0,1311.2673259103194,2021-08-31 10:43:57.935
247,-347.0,996.0,8.0,1054.745940973465,2021-08-31 10:43:57.936
248,-215.0,816.0,57.0,845.7718368449023,2021-08-31 10:43:57.945
249,-31.0,1087.0,6.0,1087.4585049554764,2021-08-31 10:43:57.956
250,-153.0,1071.0,6.0,1081.8900128941018,2021-08-31 10:43:57.966
251,-153.0,1071.0,-132.0,1089.896325344755,2021-08-31 10:43:57.967
252,-279.0,957.0,89.0,1000.8051758459286,2021-08-31 10:43:57.975
253,-210.0,996.0,89.0,1021.7812877519336,2021-08-31 10:43:57.984
254,-210.0,996.0,113.0,1024.1508677924362,2021-08-31 10:43:57.985
255,-282.0,980.0,-101.0,1024.756068535337,2021-08-31 10:43:57.994
256,-218.0,951.0,-238.0,1004.2753606456748,2021-08-31 10:43:58.004
257,-121.0,993.0,-66.0,1002.519825240379,2021-08-31 10:43:58.015
258,-170.0,993.0,-66.0,1009.6063589340156,2021-08-31 10:43:58.024
259,-170.0,1016.0,53.0,1031.4867909963752,2021-08-31 10:43:58.025
260,-193.0,1040.0,-119.0,1064.429424621473,2021-08-31 10:43:58.033
261,-198.0,955.0,-101.0,980.5253693811292,2021-08-31 10:43:58.043
262,-180.0,763.0,57.0,786.0139947863524,2021-08-31 10:43:58.053
263,20.0,1155.0,6.0,1155.1887291693945,2021-08-31 10:43:58.063
264,-70.0,1228.0,-66.0,1231.7629642102413,2021-08-31 10:43:58.074
265,-378.0,888.0,0.0,965.1051756155906,2021-08-31 10:43:58.082
266,-184.0,970.0,-39.0,988.067305399789,2021-08-31 10:43:58.092
267,86.0,970.0,-39.0,974.5855529403256,2021-08-31 10:43:58.101
268,86.0,1004.0,-137.0,1016.9469012686944,2021-08-31 10:43:58.102
269,-166.0,892.0,-52.0,908.803609147763,2021-08-31 10:43:58.111
270,-326.0,933.0,-113.0,994.75323573236,2021-08-31 10:43:58.122
271,-390.0,956.0,6.0,1032.5076270904733,2021-08-31 10:43:58.132
272,-142.0,883.0,-6.0,894.3651379610008,2021-08-31 10:43:58.141
273,-181.0,969.0,-6.0,985.7778654443404,2021-08-31 10:43:58.150
274,-181.0,969.0,-55.0,987.2927630647356,2021-08-31 10:43:58.151
275,-236.0,969.0,-55.0,998.8403275799392,2021-08-31 10:43:58.160
276,-236.0,940.0,-44.0,970.1711189269654,2021-08-31 10:43:58.161
277,-181.0,987.0,2.0,1003.4610107024588,2021-08-31 10:43:58.171
278,-220.0,1106.0,87.0,1131.0194516452846,2021-08-31 10:43:58.189
279,-266.0,771.0,-119.0,824.2317635228577,2021-08-31 10:43:58.193
280,-84.0,1018.0,-120.0,1028.484321708406,2021-08-31 10:43:58.200
281,-246.0,1128.0,-83.0,1157.492548572128,2021-08-31 10:43:58.210
282,-352.0,875.0,53.0,944.6364380014144,2021-08-31 10:43:58.219
283,6.0,1210.0,-198.0,1226.1076624831933,2021-08-31 10:43:58.229
284,-308.0,947.0,145.0,1006.3289720563548,2021-08-31 10:43:58.238
285,-352.0,845.0,61.0,917.4148461846472,2021-08-31 10:43:58.249
286,-172.0,981.0,61.0,997.8306469536802,2021-08-31 10:43:58.258
287,-172.0,981.0,-136.0,1005.2069438677788,2021-08-31 10:43:58.259
288,-136.0,1070.0,87.0,1082.111362106507,2021-08-31 10:43:58.268
289,-258.0,930.0,-31.0,965.621561482551,2021-08-31 10:43:58.277
290,-239.0,996.0,74.0,1026.9435232767185,2021-08-31 10:43:58.288
291,-165.0,996.0,74.0,1012.2830631794646,2021-08-31 10:43:58.297
292,-165.0,887.0,-9.0,902.2610486993218,2021-08-31 10:43:58.298
293,-102.0,953.0,-30.0,958.9124047586412,2021-08-31 10:43:58.309
294,-236.0,1021.0,-66.0,1049.9966666613757,2021-08-31 10:43:58.317
295,-288.0,1021.0,-66.0,1062.8927509396233,2021-08-31 10:43:58.327
296,-288.0,874.0,-17.0,920.3852454271528,2021-08-31 10:43:58.328
297,-220.0,837.0,38.0,866.2638166286296,2021-08-31 10:43:58.337
298,7.0,1132.0,-47.0,1132.9969108519228,2021-08-31 10:43:58.346
299,-49.0,938.0,21.0,939.513703997978,2021-08-31 10:43:58.356
300,166.0,1113.0,-147.0,1134.8717989270858,2021-08-31 10:43:58.366
301,-84.0,1171.0,-12.0,1174.0702704693615,2021-08-31 10:43:58.375
302,-367.0,1025.0,55.0,1090.1096275145908,2021-08-31 10:43:58.385
303,-112.0,824.0,-65.0,834.1133016563158,2021-08-31 10:43:58.395
304,-110.0,1040.0,-35.0,1046.3866398229673,2021-08-31 10:43:58.405
305,-62.0,1100.0,23.0,1101.9859345744844,2021-08-31 10:43:58.414
306,-100.0,1040.0,83.0,1048.088259642288,2021-08-31 10:43:58.424
307,-216.0,991.0,-75.0,1017.0358892389196,2021-08-31 10:43:58.434
308,-159.0,906.0,-92.0,924.4355034289844,2021-08-31 10:43:58.444
309,-135.0,1097.0,45.0,1106.1912131272784,2021-08-31 10:43:58.454
310,-159.0,1085.0,-92.0,1100.440820762298,2021-08-31 10:43:58.463
311,-142.0,1085.0,-92.0,1098.1133821240865,2021-08-31 10:43:58.473
312,-142.0,721.0,-33.0,735.5909189216517,2021-08-31 10:43:58.474
313,-204.0,721.0,-33.0,750.0306660397293,2021-08-31 10:43:58.482
314,-204.0,891.0,-24.0,914.3702751074096,2021-08-31 10:43:58.483
315,-277.0,818.0,-7.0,863.6561815907995,2021-08-31 10:43:58.493
316,-80.0,1050.0,-234.0,1078.7288816009332,2021-08-31 10:43:58.502
317,20.0,1118.0,-144.0,1127.4129678161414,2021-08-31 10:43:58.512
318,-334.0,1047.0,155.0,1109.8603515758186,2021-08-31 10:43:58.522
319,-274.0,967.0,-51.0,1006.362757657496,2021-08-31 10:43:58.532
320,-131.0,967.0,-51.0,977.1647762788014,2021-08-31 10:43:58.541
321,-131.0,1053.0,-148.0,1071.3888183101408,2021-08-31 10:43:58.542
322,-30.0,974.0,45.0,975.5003844181712,2021-08-31 10:43:58.551
323,-81.0,949.0,15.0,952.568632697928,2021-08-31 10:43:58.561
324,-140.0,1150.0,-67.0,1160.4262148021303,2021-08-31 10:43:58.586
325,-140.0,1048.0,-23.0,1057.5599273800044,2021-08-31 10:43:58.587
326,-53.0,1026.0,41.0,1028.185780878145,2021-08-31 10:43:58.591
327,-207.0,865.0,62.0,891.5817405039204,2021-08-31 10:43:58.600
328,6.0,1110.0,-12.0,1110.0810781199723,2021-08-31 10:43:58.609
329,-229.0,1054.0,-21.0,1078.7946977993545,2021-08-31 10:43:58.621
330,-556.0,802.0,113.0,982.3996131921062,2021-08-31 10:43:58.629
331,-178.0,797.0,-45.0,817.8740734367364,2021-08-31 10:43:58.639
332,-27.0,797.0,-45.0,798.7258603551034,2021-08-31 10:43:58.648
333,-27.0,1020.0,-263.0,1053.7067903359075,2021-08-31 10:43:58.649
334,-307.0,1128.0,-77.0,1171.5639120423605,2021-08-31 10:43:58.659
335,-390.0,798.0,-77.0,891.534071138058,2021-08-31 10:43:58.672
336,-390.0,798.0,96.0,893.3756208896681,2021-08-31 10:43:58.673
337,-162.0,849.0,3.0,864.3228563447805,2021-08-31 10:43:58.678
338,-110.0,1066.0,-164.0,1084.1365227682352,2021-08-31 10:43:58.688
339,-143.0,1066.0,-164.0,1087.980238791128,2021-08-31 10:43:58.697
340,-143.0,1109.0,-89.0,1121.717878969574,2021-08-31 10:43:58.698
341,-266.0,979.0,139.0,1023.971679295868,2021-08-31 10:43:58.717
342,-87.0,934.0,-114.0,944.9449719428112,2021-08-31 10:43:58.722
343,-42.0,1087.0,-71.0,1090.1256808276742,2021-08-31 10:43:58.727
344,-175.0,791.0,-72.0,813.3203550877108,2021-08-31 10:43:58.736
345,-225.0,909.0,29.0,936.8815293301496,2021-08-31 10:43:58.747
346,-197.0,1018.0,-96.0,1041.3207959125757,2021-08-31 10:43:58.766
347,-126.0,990.0,0.0,997.985971845296,2021-08-31 10:43:58.769
348,-388.0,990.0,0.0,1063.317450247103,2021-08-31 10:43:58.775
349,-388.0,810.0,27.0,898.5393703116185,2021-08-31 10:43:58.776
350,-250.0,902.0,-112.0,942.6812823006512,2021-08-31 10:43:58.786
351,-91.0,1144.0,-12.0,1147.6763481051617,2021-08-31 10:43:58.795
352,-430.0,990.0,6.0,1079.3683337952805,2021-08-31 10:43:58.805
353,-423.0,779.0,-7.0,886.4643252833133,2021-08-31 10:43:58.814
354,-140.0,902.0,-99.0,918.1530373527064,2021-08-31 10:43:58.825
355,-74.0,1020.0,-99.0,1027.4614347993795,2021-08-31 10:43:58.835
356,-74.0,1020.0,-50.0,1023.902339092943,2021-08-31 10:43:58.836
357,-79.0,970.0,-183.0,990.2676405901587,2021-08-31 10:43:58.844
358,23.0,1021.0,-14.0,1021.3549823641142,2021-08-31 10:43:58.854
359,-78.0,1049.0,28.0,1052.2685018568218,2021-08-31 10:43:58.863
360,-45.0,1098.0,-32.0,1099.3875567787732,2021-08-31 10:43:58.874
361,-170.0,1060.0,-32.0,1074.0223461362432,2021-08-31 10:43:58.884
362,-170.0,1060.0,-6.0,1073.5622944198442,2021-08-31 10:43:58.885
363,45.0,999.0,1.0,1000.0134999088764,2021-08-31 10:43:58.893
364,-196.0,999.0,1.0,1018.0461679118488,2021-08-31 10:43:58.902
365,-196.0,1043.0,-1.0,1061.2568020983422,2021-08-31 10:43:58.903
366,-345.0,1034.0,22.0,1090.259143506717,2021-08-31 10:43:58.912
367,-94.0,819.0,4.0,824.386438510484,2021-08-31 10:43:58.922
368,-135.0,993.0,-176.0,1017.4723583468988,2021-08-31 10:43:58.933
369,-362.0,1138.0,-176.0,1207.0890605087927,2021-08-31 10:43:58.942
370,-362.0,1138.0,-80.0,1196.865907276166,2021-08-31 10:43:58.943
371,-411.0,871.0,166.0,977.301386471952,2021-08-31 10:43:58.951
372,-141.0,1078.0,-15.0,1087.2856110516684,2021-08-31 10:43:58.961
373,-351.0,1031.0,208.0,1108.7948412578403,2021-08-31 10:43:58.971
374,-154.0,954.0,-66.0,968.6010530657088,2021-08-31 10:43:58.982
375,-96.0,1057.0,-66.0,1063.4006770733222,2021-08-31 10:43:58.991
376,-96.0,1057.0,-120.0,1068.112821756204,2021-08-31 10:43:58.992
377,-176.0,1052.0,-55.0,1068.037920675104,2021-08-31 10:43:59.000
378,44.0,1070.0,-87.0,1074.4324082975158,2021-08-31 10:43:59.010
379,-19.0,1003.0,58.0,1004.8552134511718,2021-08-31 10:43:59.020
380,-65.0,1052.0,20.0,1054.1959020978975,2021-08-31 10:43:59.030
381,-51.0,1052.0,20.0,1053.4253651778088,2021-08-31 10:43:59.039
382,-51.0,1160.0,-50.0,1162.1966270816656,2021-08-31 10:43:59.040
383,-160.0,1051.0,-50.0,1064.2842665378455,2021-08-31 10:43:59.049
384,-160.0,1051.0,152.0,1073.920388110776,2021-08-31 10:43:59.050
385,-305.0,873.0,97.0,929.8187995518266,2021-08-31 10:43:59.059
386,-68.0,873.0,97.0,881.0005675367071,2021-08-31 10:43:59.068
387,-68.0,1089.0,-130.0,1098.83802264028,2021-08-31 10:43:59.069
388,12.0,1089.0,-130.0,1096.7976112300755,2021-08-31 10:43:59.078
389,12.0,1168.0,-55.0,1169.3558055613355,2021-08-31 10:43:59.079
390,-246.0,1168.0,-55.0,1194.8912084369856,2021-08-31 10:43:59.089
391,-246.0,886.0,-136.0,929.5203063946478,2021-08-31 10:43:59.090
392,-207.0,924.0,-86.0,950.8001893142427,2021-08-31 10:43:59.102
393,-312.0,924.0,-86.0,979.0383036429168,2021-08-31 10:43:59.107
394,-312.0,1037.0,14.0,1083.0092335709794,2021-08-31 10:43:59.108
395,-267.0,1109.0,-39.0,1141.3548966031556,2021-08-31 10:43:59.117
396,-149.0,1109.0,-39.0,1119.6441398944578,2021-08-31 10:43:59.126
397,-149.0,737.0,41.0,753.0278879297897,2021-08-31 10:43:59.127
398,-93.0,1086.0,-131.0,1097.818746424017,2021-08-31 10:43:59.138
399,-186.0,1085.0,-131.0,1108.5946057960052,2021-08-31 10:43:59.147
400,-186.0,1085.0,-55.0,1102.200526220161,2021-08-31 10:43:59.148
401,-169.0,1053.0,-20.0,1066.6630208271026,2021-08-31 10:43:59.156
402,-178.0,870.0,57.0,889.8499873574196,2021-08-31 10:43:59.166
403,83.0,965.0,-36.0,969.2316544562502,2021-08-31 10:43:59.176
404,-224.0,1108.0,-136.0,1138.5675210544168,2021-08-31 10:43:59.186
