,Acceleration_X,Acceleration_Y,Acceleration_Z,magnitude,time_stamp
0,-56.0,1033.0,87.0,1038.1685797595687,2021-09-27 07:29:02.289
1,21.0,1148.0,-18.0,1148.3331398161424,2021-09-27 07:29:02.299
2,-175.0,1051.0,10.0,1065.516776029359,2021-09-27 07:29:02.317
3,-125.0,1050.0,-54.0,1058.7922364656818,2021-09-27 07:29:02.321
4,-292.0,932.0,-6.0,976.6903296337074,2021-09-27 07:29:02.328
5,-305.0,932.0,-6.0,980.6553930917833,2021-09-27 07:29:02.338
6,-305.0,896.0,21.0,946.7217120146764,2021-09-27 07:29:02.339
7,-118.0,1019.0,-92.0,1029.9266964206724,2021-09-27 07:29:02.348
8,-111.0,899.0,-28.0,906.259344779407,2021-09-27 07:29:02.358
9,-100.0,1052.0,-57.0,1058.2783187800835,2021-09-27 07:29:02.367
10,-39.0,1148.0,-57.0,1150.0756496857066,2021-09-27 07:29:02.377
11,-39.0,1148.0,-7.0,1148.6835943809765,2021-09-27 07:29:02.378
12,-156.0,990.0,-18.0,1002.3771745206492,2021-09-27 07:29:02.387
13,-132.0,990.0,-18.0,998.9234204882774,2021-09-27 07:29:02.396
14,-132.0,1038.0,-52.0,1047.6507051493832,2021-09-27 07:29:02.397
15,-109.0,887.0,21.0,893.9189001246142,2021-09-27 07:29:02.407
16,-248.0,856.0,-18.0,891.3831948157874,2021-09-27 07:29:02.416
17,-209.0,1008.0,-92.0,1033.5419681851338,2021-09-27 07:29:02.427
18,-235.0,926.0,51.0,956.7141683909568,2021-09-27 07:29:02.437
19,-228.0,1023.0,51.0,1049.3397924409423,2021-09-27 07:29:02.445
20,-228.0,1023.0,-67.0,1050.239020413925,2021-09-27 07:29:02.446
21,-255.0,960.0,-96.0,997.9183333319417,2021-09-27 07:29:02.455
22,-291.0,938.0,-47.0,983.226321860842,2021-09-27 07:29:02.465
23,-105.0,972.0,23.0,977.9253550246052,2021-09-27 07:29:02.475
24,-207.0,897.0,23.0,920.8620960817098,2021-09-27 07:29:02.484
25,-207.0,897.0,175.0,937.0608304693992,2021-09-27 07:29:02.485
26,-167.0,860.0,61.0,878.1856295795326,2021-09-27 07:29:02.494
27,-81.0,979.0,175.0,997.811104367956,2021-09-27 07:29:02.504
28,-201.0,953.0,17.0,974.1144696594954,2021-09-27 07:29:02.514
29,-91.0,929.0,19.0,933.6396521142404,2021-09-27 07:29:02.524
30,-217.0,915.0,91.0,944.7724593784474,2021-09-27 07:29:02.534
31,-129.0,1037.0,-101.0,1049.8623719326265,2021-09-27 07:29:02.544
32,-244.0,996.0,-47.0,1026.5286162596735,2021-09-27 07:29:02.553
33,-203.0,1104.0,-35.0,1123.05387226081,2021-09-27 07:29:02.563
34,-215.0,1104.0,-35.0,1125.2848528261634,2021-09-27 07:29:02.572
35,-215.0,1191.0,-96.0,1214.051893454312,2021-09-27 07:29:02.573
36,-346.0,1064.0,-145.0,1128.200780003276,2021-09-27 07:29:02.583
37,-248.0,1016.0,-57.0,1047.3819742577205,2021-09-27 07:29:02.594
38,-326.0,1016.0,-57.0,1068.541529375438,2021-09-27 07:29:02.601
39,-326.0,1069.0,-26.0,1117.9056310798333,2021-09-27 07:29:02.602
40,-390.0,969.0,1.0,1044.5391328236583,2021-09-27 07:29:02.612
41,-344.0,995.0,-23.0,1053.0384608360705,2021-09-27 07:29:02.621
42,-347.0,1068.0,-91.0,1126.6383625636045,2021-09-27 07:29:02.631
43,-155.0,1034.0,-53.0,1046.8954102487985,2021-09-27 07:29:02.644
44,-246.0,956.0,-53.0,988.5651217800474,2021-09-27 07:29:02.650
45,-246.0,956.0,-29.0,987.569238079032,2021-09-27 07:29:02.651
46,-259.0,983.0,-76.0,1019.3851087788167,2021-09-27 07:29:02.660
47,-138.0,1025.0,-42.0,1035.1004782145549,2021-09-27 07:29:02.672
48,-212.0,965.0,-23.0,988.2803246043098,2021-09-27 07:29:02.680
49,-253.0,934.0,-23.0,967.9328489105015,2021-09-27 07:29:02.689
50,-253.0,934.0,-1.0,967.6600642787736,2021-09-27 07:29:02.690
51,94.0,1048.0,-101.0,1057.0435184986472,2021-09-27 07:29:02.700
52,-1.0,793.0,40.0,794.0088160719628,2021-09-27 07:29:02.709
53,-139.0,1059.0,-156.0,1079.4155826186686,2021-09-27 07:29:02.719
54,-90.0,957.0,-17.0,961.3729765288808,2021-09-27 07:29:02.729
55,-140.0,1010.0,-68.0,1021.9217191155104,2021-09-27 07:29:02.739
56,-151.0,1029.0,-129.0,1047.989980868138,2021-09-27 07:29:02.748
57,-146.0,900.0,16.0,911.9056968787946,2021-09-27 07:29:02.758
58,-111.0,1124.0,-120.0,1135.8243702263128,2021-09-27 07:29:02.774
59,-110.0,920.0,-38.0,927.3316558815404,2021-09-27 07:29:02.779
60,-57.0,1037.0,-156.0,1050.216168224428,2021-09-27 07:29:02.787
61,-81.0,1171.0,-203.0,1191.222481319086,2021-09-27 07:29:02.797
62,-155.0,944.0,-33.0,957.2094859538324,2021-09-27 07:29:02.807
63,-243.0,1082.0,-33.0,1109.4422021899113,2021-09-27 07:29:02.816
64,-243.0,1082.0,-114.0,1114.795496941031,2021-09-27 07:29:02.817
65,-105.0,1005.0,12.0,1010.5414390315718,2021-09-27 07:29:02.827
66,-141.0,1092.0,-121.0,1107.6940010670817,2021-09-27 07:29:02.839
67,-197.0,837.0,64.0,862.2493838791652,2021-09-27 07:29:02.846
68,-257.0,837.0,64.0,877.9031837281375,2021-09-27 07:29:02.855
69,-257.0,922.0,107.0,963.1105855507976,2021-09-27 07:29:02.856
70,-114.0,951.0,-41.0,958.685558460124,2021-09-27 07:29:02.867
71,-192.0,864.0,109.0,891.7628608548351,2021-09-27 07:29:02.875
72,-322.0,934.0,109.0,993.9421512341652,2021-09-27 07:29:02.885
73,-322.0,934.0,9.0,987.988360255322,2021-09-27 07:29:02.886
74,-115.0,934.0,9.0,941.0961693684658,2021-09-27 07:29:02.894
75,-115.0,982.0,43.0,989.6453910366076,2021-09-27 07:29:02.895
76,-184.0,876.0,43.0,896.1478672629869,2021-09-27 07:29:02.904
77,-184.0,876.0,107.0,901.4882140105882,2021-09-27 07:29:02.905
78,-216.0,892.0,-43.0,918.7866999472728,2021-09-27 07:29:02.915
79,-121.0,951.0,153.0,970.799155335438,2021-09-27 07:29:02.924
80,-213.0,882.0,41.0,908.2807935875336,2021-09-27 07:29:02.934
81,-114.0,871.0,41.0,879.3850123808115,2021-09-27 07:29:02.943
82,-114.0,871.0,55.0,880.1488510473669,2021-09-27 07:29:02.944
83,-228.0,871.0,55.0,902.0254985309452,2021-09-27 07:29:02.953
84,-228.0,948.0,71.0,977.613931979286,2021-09-27 07:29:02.954
85,-142.0,1036.0,71.0,1048.0939843353744,2021-09-27 07:29:02.963
86,-142.0,1036.0,-95.0,1049.9928571185617,2021-09-27 07:29:02.964
87,-132.0,907.0,122.0,924.638848415964,2021-09-27 07:29:02.973
88,-146.0,901.0,122.0,920.8696976228504,2021-09-27 07:29:02.982
89,-146.0,901.0,-53.0,914.2898883833288,2021-09-27 07:29:02.983
90,-3.0,980.0,-55.0,981.5467385713224,2021-09-27 07:29:02.993
91,-151.0,848.0,54.0,863.0301269364819,2021-09-27 07:29:03.002
92,-203.0,1060.0,-129.0,1086.9452608112333,2021-09-27 07:29:03.020
93,-202.0,1186.0,-128.0,1209.8694144410792,2021-09-27 07:29:03.023
94,-160.0,1035.0,-93.0,1051.4152367166837,2021-09-27 07:29:03.035
95,-292.0,1075.0,-93.0,1117.8273569742332,2021-09-27 07:29:03.042
96,-292.0,1075.0,-56.0,1115.3586867012782,2021-09-27 07:29:03.043
97,-167.0,1004.0,-113.0,1024.0478504444995,2021-09-27 07:29:03.052
98,-158.0,1004.0,-113.0,1022.6186972669724,2021-09-27 07:29:03.060
99,-158.0,1095.0,-72.0,1108.6807475553996,2021-09-27 07:29:03.061
100,-244.0,1039.0,-72.0,1069.6920117491763,2021-09-27 07:29:03.070
101,-244.0,1039.0,-21.0,1067.4727162789688,2021-09-27 07:29:03.071
102,-284.0,1039.0,-21.0,1077.3198225225412,2021-09-27 07:29:03.080
103,-284.0,1057.0,-30.0,1094.8995387705668,2021-09-27 07:29:03.081
104,-129.0,1133.0,38.0,1140.9531103424015,2021-09-27 07:29:03.091
105,-275.0,1013.0,-22.0,1049.8942803920784,2021-09-27 07:29:03.101
106,-216.0,949.0,-22.0,973.51990221053,2021-09-27 07:29:03.109
107,-216.0,949.0,-23.0,973.5430139444276,2021-09-27 07:29:03.110
108,-158.0,1016.0,-37.0,1028.877543733947,2021-09-27 07:29:03.119
109,-373.0,937.0,50.0,1009.7514545669148,2021-09-27 07:29:03.129
110,-301.0,793.0,133.0,858.5679938129537,2021-09-27 07:29:03.139
111,-366.0,793.0,133.0,883.4557147927676,2021-09-27 07:29:03.149
112,-366.0,985.0,21.0,1051.0099904377694,2021-09-27 07:29:03.150
113,-241.0,974.0,-45.0,1004.381401659748,2021-09-27 07:29:03.158
114,-179.0,915.0,-71.0,935.043849239168,2021-09-27 07:29:03.168
115,-180.0,844.0,78.0,866.498701672426,2021-09-27 07:29:03.183
116,-111.0,1068.0,78.0,1076.5820916214425,2021-09-27 07:29:03.188
117,-111.0,1068.0,-140.0,1082.841170255361,2021-09-27 07:29:03.189
118,-40.0,955.0,64.0,957.9775571483916,2021-09-27 07:29:03.197
119,-186.0,1025.0,-94.0,1045.9717969429196,2021-09-27 07:29:03.208
120,-200.0,1035.0,-169.0,1067.607605817793,2021-09-27 07:29:03.217
121,-110.0,869.0,-169.0,892.0885606261297,2021-09-27 07:29:03.230
122,-110.0,869.0,-40.0,876.8471930730007,2021-09-27 07:29:03.231
123,-138.0,1126.0,-192.0,1150.558125433044,2021-09-27 07:29:03.237
124,-66.0,942.0,-28.0,944.7242984066831,2021-09-27 07:29:03.246
125,-26.0,1045.0,-125.0,1052.7706302894285,2021-09-27 07:29:03.256
126,-73.0,1077.0,-128.0,1087.0335781382284,2021-09-27 07:29:03.266
127,-79.0,1077.0,-128.0,1087.4529874895743,2021-09-27 07:29:03.275
128,-79.0,853.0,53.0,858.288413064047,2021-09-27 07:29:03.276
129,-106.0,1201.0,-152.0,1215.2123271264163,2021-09-27 07:29:03.287
130,-138.0,904.0,-46.0,915.6287457261268,2021-09-27 07:29:03.295
131,-121.0,1029.0,-96.0,1040.5277507111475,2021-09-27 07:29:03.305
132,-218.0,933.0,22.0,958.3824914928276,2021-09-27 07:29:03.315
133,-318.0,850.0,40.0,908.4184058020842,2021-09-27 07:29:03.335
134,-146.0,903.0,-39.0,915.5577535032947,2021-09-27 07:29:03.339
135,-140.0,1003.0,130.0,1021.0333001425564,2021-09-27 07:29:03.344
136,-207.0,1003.0,130.0,1032.3555589040047,2021-09-27 07:29:03.353
137,-207.0,843.0,18.0,868.2292324035168,2021-09-27 07:29:03.354
138,-143.0,859.0,25.0,871.1802339355502,2021-09-27 07:29:03.363
139,-227.0,931.0,54.0,959.794769729446,2021-09-27 07:29:03.373
140,-104.0,990.0,-72.0,998.0480950335008,2021-09-27 07:29:03.383
141,-169.0,990.0,-72.0,1006.8987039419604,2021-09-27 07:29:03.392
142,-169.0,895.0,93.0,915.551746216455,2021-09-27 07:29:03.393
143,-331.0,889.0,93.0,953.168925217351,2021-09-27 07:29:03.402
144,-331.0,889.0,48.0,949.834722464914,2021-09-27 07:29:03.403
145,4.0,932.0,92.0,936.5383067445772,2021-09-27 07:29:03.412
146,-162.0,927.0,92.0,945.535298124824,2021-09-27 07:29:03.422
147,-162.0,927.0,75.0,944.0328384118848,2021-09-27 07:29:03.423
148,-155.0,915.0,-106.0,934.069590555222,2021-09-27 07:29:03.432
149,-94.0,923.0,109.0,934.155233352573,2021-09-27 07:29:03.443
150,-166.0,949.0,-20.0,963.6166250122504,2021-09-27 07:29:03.451
151,-177.0,919.0,-46.0,937.0197436553832,2021-09-27 07:29:03.461
152,-133.0,989.0,-62.0,999.8269850329106,2021-09-27 07:29:03.471
153,-172.0,989.0,-62.0,1005.7579231604392,2021-09-27 07:29:03.480
154,-172.0,993.0,-80.0,1010.9564777971405,2021-09-27 07:29:03.481
155,-259.0,1070.0,-158.0,1112.1802911398852,2021-09-27 07:29:03.491
156,-220.0,1116.0,-143.0,1146.431419667134,2021-09-27 07:29:03.500
157,-203.0,1176.0,-22.0,1193.594989935866,2021-09-27 07:29:03.510
158,-311.0,1030.0,-79.0,1078.8243601254098,2021-09-27 07:29:03.520
159,-265.0,1030.0,-79.0,1066.4736283659338,2021-09-27 07:29:03.529
160,-265.0,1099.0,-117.0,1136.53640504825,2021-09-27 07:29:03.530
161,-365.0,1109.0,-156.0,1177.8972790528044,2021-09-27 07:29:03.540
162,-222.0,968.0,-27.0,993.4973578223548,2021-09-27 07:29:03.550
163,-261.0,1031.0,-35.0,1064.0991495156832,2021-09-27 07:29:03.559
164,-304.0,989.0,-35.0,1035.259387786462,2021-09-27 07:29:03.568
165,-304.0,989.0,-101.0,1039.5854943197312,2021-09-27 07:29:03.569
166,-191.0,1010.0,-48.0,1029.0213797584577,2021-09-27 07:29:03.579
167,-294.0,992.0,8.0,1034.680627053585,2021-09-27 07:29:03.589
168,-255.0,1052.0,-21.0,1082.668000820196,2021-09-27 07:29:03.599
169,-97.0,1052.0,-21.0,1056.6711882132493,2021-09-27 07:29:03.607
170,-97.0,1020.0,31.0,1025.0707292670102,2021-09-27 07:29:03.608
171,-275.0,951.0,35.0,990.581142562284,2021-09-27 07:29:03.617
172,-145.0,973.0,-76.0,986.6762386923078,2021-09-27 07:29:03.627
173,59.0,1072.0,-63.0,1075.4691999308952,2021-09-27 07:29:03.637
174,-100.0,853.0,-63.0,861.1492321311098,2021-09-27 07:29:03.647
175,-100.0,853.0,53.0,860.475449969376,2021-09-27 07:29:03.648
176,-179.0,1014.0,-89.0,1033.517295452766,2021-09-27 07:29:03.656
177,24.0,1016.0,46.0,1017.3239405420478,2021-09-27 07:29:03.666
178,-140.0,1013.0,-62.0,1024.5062225286872,2021-09-27 07:29:03.677
179,-158.0,1008.0,-124.0,1027.8151584793834,2021-09-27 07:29:03.686
180,-64.0,847.0,-124.0,858.4177304785824,2021-09-27 07:29:03.696
181,-64.0,847.0,3.0,849.4198019825062,2021-09-27 07:29:03.697
182,-35.0,1115.0,-166.0,1127.832434362481,2021-09-27 07:29:03.706
183,-104.0,872.0,-37.0,878.9590434144244,2021-09-27 07:29:03.715
184,-154.0,1056.0,-171.0,1080.7835120874115,2021-09-27 07:29:03.725
185,-230.0,1185.0,-249.0,1232.5282958212358,2021-09-27 07:29:03.735
186,-180.0,909.0,-76.0,929.7617974513688,2021-09-27 07:29:03.745
187,-83.0,909.0,-76.0,915.9399543638218,2021-09-27 07:29:03.754
188,-83.0,1118.0,-210.0,1140.5757318126666,2021-09-27 07:29:03.755
189,-90.0,1013.0,-118.0,1023.8129712012834,2021-09-27 07:29:03.764
190,-104.0,1052.0,-118.0,1063.6935648954543,2021-09-27 07:29:03.773
191,-104.0,1052.0,-139.0,1066.2274616609725,2021-09-27 07:29:03.774
192,-222.0,935.0,22.0,961.245546153531,2021-09-27 07:29:03.788
193,-308.0,977.0,-34.0,1024.9629261587952,2021-09-27 07:29:03.793
194,-115.0,966.0,-63.0,974.8589641584058,2021-09-27 07:29:03.803
195,-226.0,966.0,-63.0,994.0829945230932,2021-09-27 07:29:03.812
196,-226.0,870.0,65.0,901.2219482458248,2021-09-27 07:29:03.813
197,-264.0,885.0,65.0,925.8217971078452,2021-09-27 07:29:03.822
198,-264.0,885.0,68.0,926.0372562699624,2021-09-27 07:29:03.823
199,-69.0,885.0,68.0,890.2864707497245,2021-09-27 07:29:03.833
200,-69.0,963.0,35.0,966.1029965795572,2021-09-27 07:29:03.834
201,-348.0,855.0,96.0,928.0867416357158,2021-09-27 07:29:03.842
202,-307.0,855.0,96.0,913.5042419168068,2021-09-27 07:29:03.851
203,-307.0,876.0,-34.0,928.8600540447414,2021-09-27 07:29:03.852
204,-89.0,960.0,224.0,989.7964437196164,2021-09-27 07:29:03.861
205,-219.0,882.0,0.0,908.7821521134754,2021-09-27 07:29:03.872
206,-202.0,859.0,29.0,882.9076961947948,2021-09-27 07:29:03.882
207,-219.0,938.0,12.0,963.3010951929828,2021-09-27 07:29:03.891
208,-142.0,1022.0,12.0,1031.8875907772126,2021-09-27 07:29:03.900
209,-142.0,1022.0,-40.0,1032.5928529677126,2021-09-27 07:29:03.901
210,-127.0,874.0,193.0,904.0210174547934,2021-09-27 07:29:03.910
211,-181.0,874.0,6.0,892.565403766021,2021-09-27 07:29:03.920
212,-74.0,1221.0,-116.0,1228.728204282786,2021-09-27 07:29:03.931
213,-134.0,1040.0,-128.0,1056.3806132261232,2021-09-27 07:29:03.941
214,-228.0,1070.0,-113.0,1099.842261417518,2021-09-27 07:29:03.949
215,-316.0,1146.0,-108.0,1193.664944613856,2021-09-27 07:29:03.959
216,-117.0,1009.0,-5.0,1015.7731045858616,2021-09-27 07:29:03.969
217,-216.0,1009.0,-5.0,1031.873054207735,2021-09-27 07:29:03.978
218,-216.0,1034.0,-8.0,1056.3503206796504,2021-09-27 07:29:03.979
219,-259.0,1034.0,-8.0,1065.9742023144838,2021-09-27 07:29:03.989
220,-259.0,1064.0,-166.0,1107.5797939652025,2021-09-27 07:29:03.990
221,-265.0,1041.0,-56.0,1075.6588678572775,2021-09-27 07:29:03.998
222,-389.0,1021.0,-69.0,1094.7707522582068,2021-09-27 07:29:04.008
223,-287.0,1007.0,-7.0,1047.123201920385,2021-09-27 07:29:04.018
224,-46.0,1156.0,-5.0,1156.9256674479998,2021-09-27 07:29:04.037
225,-219.0,1017.0,-39.0,1041.043226768226,2021-09-27 07:29:04.041
226,-340.0,943.0,-10.0,1002.4714459773904,2021-09-27 07:29:04.048
227,-243.0,996.0,25.0,1025.5193806067246,2021-09-27 07:29:04.057
228,-151.0,996.0,25.0,1007.6914210213364,2021-09-27 07:29:04.066
229,-151.0,984.0,50.0,996.7732941847912,2021-09-27 07:29:04.067
230,-274.0,915.0,-13.0,955.2329558803968,2021-09-27 07:29:04.076
231,-80.0,996.0,44.0,1000.1759845147252,2021-09-27 07:29:04.086
232,-229.0,1071.0,-88.0,1098.7383674014484,2021-09-27 07:29:04.097
233,-158.0,1028.0,-197.0,1058.5636494798034,2021-09-27 07:29:04.107
234,-265.0,837.0,41.0,878.905569444181,2021-09-27 07:29:04.115
235,-162.0,1099.0,-195.0,1127.8608070147664,2021-09-27 07:29:04.125
236,-38.0,841.0,-5.0,841.8729120241368,2021-09-27 07:29:04.135
237,-83.0,841.0,-5.0,845.1005857292965,2021-09-27 07:29:04.144
238,-83.0,982.0,-123.0,993.147521771061,2021-09-27 07:29:04.145
239,-127.0,1102.0,-142.0,1118.3456531859906,2021-09-27 07:29:04.156
240,-184.0,905.0,-59.0,925.398292628639,2021-09-27 07:29:04.164
241,-187.0,1054.0,-29.0,1070.8529310787733,2021-09-27 07:29:04.174
242,-89.0,996.0,47.0,1001.0724249523608,2021-09-27 07:29:04.184
243,5.0,1022.0,-94.0,1026.3259716094103,2021-09-27 07:29:04.199
244,-34.0,1081.0,-55.0,1082.932130837385,2021-09-27 07:29:04.203
245,-24.0,897.0,-102.0,903.099662274325,2021-09-27 07:29:04.213
246,-111.0,1208.0,-209.0,1230.9614128801927,2021-09-27 07:29:04.223
247,-142.0,939.0,-101.0,955.0319366387702,2021-09-27 07:29:04.233
248,-222.0,1005.0,-37.0,1029.8922273713886,2021-09-27 07:29:04.243
249,-30.0,941.0,48.0,942.7009069689072,2021-09-27 07:29:04.252
250,-257.0,854.0,-3.0,891.8374291315654,2021-09-27 07:29:04.262
251,-264.0,864.0,-71.0,906.2190684376488,2021-09-27 07:29:04.272
252,-243.0,927.0,131.0,967.2326504000988,2021-09-27 07:29:04.282
253,-241.0,858.0,-12.0,891.2850273621789,2021-09-27 07:29:04.293
254,-69.0,1003.0,13.0,1005.4546235410128,2021-09-27 07:29:04.301
255,-350.0,975.0,10.0,1035.9657330240225,2021-09-27 07:29:04.311
256,-179.0,951.0,-61.0,969.6200286710254,2021-09-27 07:29:04.320
257,-155.0,891.0,-61.0,906.4364291002432,2021-09-27 07:29:04.331
258,-155.0,891.0,126.0,913.1166409610548,2021-09-27 07:29:04.332
259,-309.0,885.0,13.0,937.4833331851826,2021-09-27 07:29:04.349
260,-137.0,916.0,9.0,926.232152324675,2021-09-27 07:29:04.354
261,-170.0,887.0,9.0,903.1887953246542,2021-09-27 07:29:04.359
262,-170.0,887.0,96.0,908.2317986065012,2021-09-27 07:29:04.360
263,-211.0,909.0,-92.0,937.691847037181,2021-09-27 07:29:04.370
264,-184.0,923.0,-92.0,945.6473972892855,2021-09-27 07:29:04.379
265,-184.0,923.0,160.0,954.6648626612376,2021-09-27 07:29:04.380
266,-249.0,938.0,-20.0,970.6930513813312,2021-09-27 07:29:04.390
267,-157.0,1073.0,-139.0,1093.2973063169964,2021-09-27 07:29:04.399
268,-162.0,1073.0,-139.0,1094.0265079055443,2021-09-27 07:29:04.411
269,-162.0,1032.0,-37.0,1045.2927819515448,2021-09-27 07:29:04.412
270,-156.0,1074.0,-40.0,1086.007366457521,2021-09-27 07:29:04.418
271,-229.0,1085.0,-32.0,1109.3646830506189,2021-09-27 07:29:04.428
272,-205.0,1126.0,-32.0,1144.956331044988,2021-09-27 07:29:04.438
273,-205.0,1126.0,-120.0,1150.782777069591,2021-09-27 07:29:04.439
274,-162.0,1163.0,47.0,1175.1689240275205,2021-09-27 07:29:04.447
275,-211.0,1002.0,-72.0,1026.5032878661425,2021-09-27 07:29:04.457
276,-244.0,990.0,-74.0,1022.3071945359673,2021-09-27 07:29:04.467
277,-313.0,1030.0,-36.0,1077.109558030194,2021-09-27 07:29:04.477
278,-240.0,1027.0,32.0,1055.1554387861534,2021-09-27 07:29:04.487
279,-275.0,949.0,63.0,990.0479786353792,2021-09-27 07:29:04.497
280,-269.0,1071.0,-114.0,1110.1342261186255,2021-09-27 07:29:04.506
281,-153.0,966.0,2.0,978.0434550673094,2021-09-27 07:29:04.516
282,-454.0,979.0,-122.0,1086.0207180344214,2021-09-27 07:29:04.526
283,-314.0,1068.0,-113.0,1118.923143026365,2021-09-27 07:29:04.535
284,-192.0,1098.0,-121.0,1121.2087227630725,2021-09-27 07:29:04.546
285,-227.0,887.0,-121.0,923.546966862,2021-09-27 07:29:04.555
286,-227.0,887.0,114.0,922.6559488780202,2021-09-27 07:29:04.556
287,-202.0,887.0,114.0,916.8255013905318,2021-09-27 07:29:04.564
288,-202.0,965.0,-47.0,987.0349537883652,2021-09-27 07:29:04.565
289,-15.0,1080.0,-179.0,1094.8360607871848,2021-09-27 07:29:04.574
290,-212.0,790.0,-179.0,837.3081869897129,2021-09-27 07:29:04.586
291,-212.0,790.0,38.0,818.8333163715312,2021-09-27 07:29:04.587
292,-292.0,790.0,38.0,843.0943007754233,2021-09-27 07:29:04.594
293,-292.0,1090.0,-206.0,1147.0832576583095,2021-09-27 07:29:04.595
294,86.0,1090.0,-206.0,1112.623925681989,2021-09-27 07:29:04.603
295,86.0,985.0,35.0,989.366463955596,2021-09-27 07:29:04.604
296,8.0,1041.0,-81.0,1044.1771880289284,2021-09-27 07:29:04.613
297,-44.0,1060.0,-109.0,1066.4975386750782,2021-09-27 07:29:04.623
298,-120.0,947.0,20.0,954.782174110933,2021-09-27 07:29:04.633
299,-107.0,1135.0,-109.0,1145.23141766195,2021-09-27 07:29:04.643
300,9.0,969.0,-109.0,975.152808538231,2021-09-27 07:29:04.652
301,9.0,969.0,-68.0,971.4247268831488,2021-09-27 07:29:04.653
302,-40.0,1067.0,-109.0,1073.2986536840526,2021-09-27 07:29:04.663
303,-147.0,1105.0,-121.0,1121.2827475708343,2021-09-27 07:29:04.675
304,-203.0,834.0,79.0,861.9779579548424,2021-09-27 07:29:04.682
305,-180.0,1076.0,79.0,1093.808484150676,2021-09-27 07:29:04.691
306,-180.0,1076.0,-54.0,1092.2875079391872,2021-09-27 07:29:04.692
307,-101.0,1023.0,-61.0,1029.782015768386,2021-09-27 07:29:04.702
308,-282.0,951.0,-16.0,992.0589700214398,2021-09-27 07:29:04.711
309,-244.0,767.0,79.0,808.7434698345329,2021-09-27 07:29:04.721
310,-199.0,767.0,79.0,796.3234267557373,2021-09-27 07:29:04.730
311,-199.0,956.0,3.0,976.496799789943,2021-09-27 07:29:04.731
312,-202.0,952.0,-86.0,976.9872056480576,2021-09-27 07:29:04.740
313,-341.0,811.0,115.0,887.2581360573708,2021-09-27 07:29:04.751
314,-320.0,935.0,39.0,989.0126389485628,2021-09-27 07:29:04.760
315,-38.0,965.0,39.0,966.5350485109168,2021-09-27 07:29:04.769
316,-38.0,965.0,36.0,966.4186463432916,2021-09-27 07:29:04.770
317,-269.0,965.0,36.0,1002.438028009712,2021-09-27 07:29:04.779
318,-269.0,874.0,45.0,915.5664913047004,2021-09-27 07:29:04.780
319,-125.0,850.0,-92.0,864.0538177683147,2021-09-27 07:29:04.802
320,-125.0,956.0,-92.0,968.5169074414756,2021-09-27 07:29:04.803
321,-125.0,956.0,57.0,965.8208943691372,2021-09-27 07:29:04.804
322,-224.0,870.0,-31.0,898.9087829140396,2021-09-27 07:29:04.810
323,-146.0,851.0,29.0,863.920135197693,2021-09-27 07:29:04.819
324,-271.0,882.0,113.0,929.5880808185956,2021-09-27 07:29:04.828
325,-199.0,1046.0,-44.0,1065.6702116508652,2021-09-27 07:29:04.839
326,-190.0,934.0,155.0,965.6505579141972,2021-09-27 07:29:04.848
327,-203.0,879.0,-51.0,903.5767814635344,2021-09-27 07:29:04.859
328,-205.0,1210.0,-98.0,1231.149462900423,2021-09-27 07:29:04.867
329,-264.0,966.0,-136.0,1010.6176329354242,2021-09-27 07:29:04.877
330,-210.0,1038.0,-153.0,1070.0247660685245,2021-09-27 07:29:04.887
331,-197.0,1038.0,-153.0,1067.549530466854,2021-09-27 07:29:04.896
332,-197.0,1145.0,-91.0,1165.3819116495674,2021-09-27 07:29:04.897
333,-147.0,1014.0,-60.0,1026.3552016724034,2021-09-27 07:29:04.907
334,-285.0,1051.0,-115.0,1095.0118720817595,2021-09-27 07:29:04.916
335,-139.0,1060.0,-112.0,1074.9255788192968,2021-09-27 07:29:04.926
336,63.0,1060.0,-112.0,1067.7607409902275,2021-09-27 07:29:04.935
337,63.0,1022.0,-41.0,1024.760459814878,2021-09-27 07:29:04.936
338,-330.0,1048.0,-75.0,1101.285158349099,2021-09-27 07:29:04.946
339,-282.0,1048.0,-75.0,1087.8662601625256,2021-09-27 07:29:04.955
340,-282.0,969.0,92.0,1013.3849219324312,2021-09-27 07:29:04.956
341,-79.0,1024.0,40.0,1027.821482554242,2021-09-27 07:29:04.965
342,-102.0,974.0,-27.0,979.6984229853592,2021-09-27 07:29:04.975
343,-200.0,974.0,-27.0,994.6883934177578,2021-09-27 07:29:04.984
344,-200.0,837.0,59.0,862.5833293079573,2021-09-27 07:29:04.985
345,-159.0,933.0,156.0,959.2215593907384,2021-09-27 07:29:04.994
346,-174.0,933.0,156.0,961.8217090500711,2021-09-27 07:29:05.004
347,-174.0,931.0,1.0,947.1209004134583,2021-09-27 07:29:05.005
348,-236.0,1067.0,-133.0,1100.8514886214216,2021-09-27 07:29:05.018
349,-34.0,1068.0,-133.0,1076.7864226484285,2021-09-27 07:29:05.023
350,-34.0,1068.0,31.0,1068.9906454221198,2021-09-27 07:29:05.024
351,-97.0,1047.0,-68.0,1053.6802171437023,2021-09-27 07:29:05.033
352,-106.0,1029.0,-163.0,1047.2086707051274,2021-09-27 07:29:05.052
353,-23.0,853.0,27.0,853.7370789651811,2021-09-27 07:29:05.056
354,-163.0,1182.0,-149.0,1202.4533254975013,2021-09-27 07:29:05.063
355,-80.0,912.0,17.0,915.6598713496186,2021-09-27 07:29:05.073
356,-175.0,1014.0,-78.0,1031.9423433506352,2021-09-27 07:29:05.082
357,-95.0,1074.0,-109.0,1083.6890697981594,2021-09-27 07:29:05.092
358,16.0,1074.0,-109.0,1079.63558666802,2021-09-27 07:29:05.101
359,16.0,924.0,-107.0,930.3123131508042,2021-09-27 07:29:05.102
360,-193.0,1137.0,-215.0,1173.1338372069915,2021-09-27 07:29:05.112
361,-118.0,931.0,-31.0,938.9600630484772,2021-09-27 07:29:05.122
362,-48.0,1053.0,-83.0,1057.356136786466,2021-09-27 07:29:05.132
363,-203.0,1110.0,-125.0,1135.3122918386816,2021-09-27 07:29:05.141
364,-324.0,961.0,-88.0,1017.9592329754664,2021-09-27 07:29:05.150
365,-93.0,875.0,-47.0,881.1827279287764,2021-09-27 07:29:05.160
366,-255.0,830.0,114.0,875.7402582958032,2021-09-27 07:29:05.171
367,-328.0,908.0,51.0,966.7724654746844,2021-09-27 07:29:05.181
368,32.0,911.0,51.0,912.9874040752152,2021-09-27 07:29:05.189
369,32.0,911.0,153.0,924.3127176448456,2021-09-27 07:29:05.190
370,-298.0,866.0,122.0,923.9285686675132,2021-09-27 07:29:05.199
371,-226.0,901.0,-24.0,929.2217173527532,2021-09-27 07:29:05.216
372,-119.0,974.0,106.0,986.951366582974,2021-09-27 07:29:05.219
373,-169.0,974.0,106.0,994.2197946128412,2021-09-27 07:29:05.228
374,-169.0,847.0,62.0,865.9180099755404,2021-09-27 07:29:05.229
375,-201.0,887.0,-52.0,910.9742038060134,2021-09-27 07:29:05.239
376,-332.0,960.0,113.0,1022.0533254189822,2021-09-27 07:29:05.250
377,-153.0,997.0,8.0,1008.7031277833928,2021-09-27 07:29:05.258
378,-154.0,927.0,137.0,949.6388787323316,2021-09-27 07:29:05.268
379,-200.0,955.0,-34.0,976.3098893281784,2021-09-27 07:29:05.277
380,-3.0,1037.0,-38.0,1037.700342102671,2021-09-27 07:29:05.287
381,-239.0,993.0,-103.0,1026.537383634907,2021-09-27 07:29:05.298
382,-258.0,1000.0,-94.0,1037.0149468546729,2021-09-27 07:29:05.307
383,-264.0,1162.0,-92.0,1195.1585668855828,2021-09-27 07:29:05.317
384,-93.0,1098.0,-13.0,1102.0081669388844,2021-09-27 07:29:05.326
385,-123.0,1113.0,-70.0,1121.961674924772,2021-09-27 07:29:05.336
386,-167.0,1059.0,-112.0,1077.9211473943722,2021-09-27 07:29:05.347
387,-128.0,1082.0,-81.0,1092.5516006120718,2021-09-27 07:29:05.357
388,-329.0,1058.0,-53.0,1109.2402805524148,2021-09-27 07:29:05.373
389,-253.0,1011.0,-15.0,1042.2835506713132,2021-09-27 07:29:05.378
390,-63.0,1097.0,11.0,1098.8625937759462,2021-09-27 07:29:05.385
391,-297.0,986.0,11.0,1029.8184305983264,2021-09-27 07:29:05.396
392,-297.0,986.0,-97.0,1034.3181328778878,2021-09-27 07:29:05.397
393,-414.0,883.0,-24.0,975.531137381068,2021-09-27 07:29:05.405
394,-397.0,974.0,-77.0,1054.6155697693828,2021-09-27 07:29:05.414
395,-291.0,854.0,57.0,904.0165927680752,2021-09-27 07:29:05.424
396,-247.0,837.0,52.0,874.2322345921591,2021-09-27 07:29:05.434
397,-52.0,944.0,67.0,947.8021945532728,2021-09-27 07:29:05.444
398,-85.0,996.0,-69.0,1001.999001995511,2021-09-27 07:29:05.454
399,-4.0,1004.0,-71.0,1006.5152755919804,2021-09-27 07:29:05.463
400,-177.0,806.0,107.0,832.1141748582343,2021-09-27 07:29:05.473
401,-133.0,1083.0,107.0,1096.3699193246775,2021-09-27 07:29:05.482
402,-133.0,1083.0,-116.0,1097.2848308438424,2021-09-27 07:29:05.483
403,-41.0,959.0,0.0,959.8760336626808,2021-09-27 07:29:05.493
404,-137.0,1032.0,-37.0,1041.711092385984,2021-09-27 07:29:05.502
405,-121.0,1063.0,-175.0,1084.0825614315545,2021-09-27 07:29:05.512
406,-114.0,1063.0,-175.0,1083.323589699772,2021-09-27 07:29:05.521
407,-114.0,957.0,-55.0,965.334139042021,2021-09-27 07:29:05.522
408,-96.0,1115.0,-157.0,1130.084067669304,2021-09-27 07:29:05.531
409,-11.0,994.0,-127.0,1002.140708683167,2021-09-27 07:29:05.542
410,-11.0,1048.0,-127.0,1055.7243958533877,2021-09-27 07:29:05.551
411,-11.0,1048.0,-95.0,1052.3545030074229,2021-09-27 07:29:05.552
412,-212.0,1039.0,-95.0,1064.6548736562474,2021-09-27 07:29:05.561
413,-212.0,1039.0,-92.0,1064.3913753878317,2021-09-27 07:29:05.562
414,-119.0,974.0,-54.0,982.7273273904618,2021-09-27 07:29:05.571
415,-87.0,1186.0,-54.0,1190.4121135136352,2021-09-27 07:29:05.580
416,-72.0,1186.0,-54.0,1189.4099377422403,2021-09-27 07:29:05.591
417,-72.0,1020.0,-115.0,1028.9844508057447,2021-09-27 07:29:05.592
418,-241.0,1010.0,-10.0,1038.403100919869,2021-09-27 07:29:05.601
419,-31.0,952.0,43.0,953.4746981435848,2021-09-27 07:29:05.612
420,-318.0,876.0,106.0,937.9424289368724,2021-09-27 07:29:05.619
421,-321.0,897.0,-27.0,953.089187851798,2021-09-27 07:29:05.629
422,-257.0,937.0,127.0,979.870909865172,2021-09-27 07:29:05.639
423,-266.0,837.0,127.0,887.3860490226336,2021-09-27 07:29:05.649
424,-266.0,837.0,62.0,880.436823400748,2021-09-27 07:29:05.650
425,-72.0,860.0,-21.0,863.2641542424891,2021-09-27 07:29:05.658
426,48.0,1039.0,-9.0,1040.1471049808292,2021-09-27 07:29:05.673
427,-292.0,927.0,-21.0,972.1285923168808,2021-09-27 07:29:05.678
428,-172.0,927.0,-21.0,943.0556717394792,2021-09-27 07:29:05.687
429,-172.0,900.0,139.0,926.7712770689432,2021-09-27 07:29:05.688
430,-159.0,955.0,-11.0,968.2081387800868,2021-09-27 07:29:05.698
431,-155.0,1005.0,20.0,1017.0791512955124,2021-09-27 07:29:05.707
432,-250.0,922.0,20.0,955.501962321376,2021-09-27 07:29:05.718
433,-160.0,922.0,20.0,935.9935897216392,2021-09-27 07:29:05.726
434,-160.0,1017.0,-102.0,1034.5496604803463,2021-09-27 07:29:05.727
435,-33.0,1021.0,68.0,1023.7939245766212,2021-09-27 07:29:05.736
436,-120.0,1006.0,-22.0,1013.3706133493314,2021-09-27 07:29:05.746
437,-207.0,1082.0,-52.0,1102.849491091146,2021-09-27 07:29:05.757
438,-110.0,1187.0,-197.0,1208.2541123455778,2021-09-27 07:29:05.766
439,-158.0,1187.0,-197.0,1213.5658202174286,2021-09-27 07:29:05.775
440,-158.0,1059.0,-81.0,1073.781169512671,2021-09-27 07:29:05.776
441,-418.0,1031.0,-122.0,1119.18229078198,2021-09-27 07:29:05.785
442,-149.0,1077.0,-181.0,1102.2209397393972,2021-09-27 07:29:05.795
443,-92.0,1077.0,-181.0,1095.971714963484,2021-09-27 07:29:05.819
444,-92.0,1081.0,24.0,1085.173258056058,2021-09-27 07:29:05.820
445,-349.0,984.0,-91.0,1048.0162212485072,2021-09-27 07:29:05.822
446,-326.0,955.0,-36.0,1009.7509593954344,2021-09-27 07:29:05.826
447,-252.0,1024.0,-23.0,1054.8028251763456,2021-09-27 07:29:05.834
448,-284.0,973.0,-28.0,1013.986686303129,2021-09-27 07:29:05.844
449,-137.0,973.0,-28.0,982.9964394645588,2021-09-27 07:29:05.854
450,-137.0,977.0,36.0,987.2152754085604,2021-09-27 07:29:05.855
451,-269.0,1117.0,-166.0,1160.864333158703,2021-09-27 07:29:05.863
452,-214.0,882.0,24.0,907.9074842735904,2021-09-27 07:29:05.873
453,-329.0,876.0,44.0,936.7779886397844,2021-09-27 07:29:05.883
454,-169.0,876.0,44.0,893.2373704676713,2021-09-27 07:29:05.892
455,-169.0,964.0,-3.0,978.70628893453,2021-09-27 07:29:05.893
456,-153.0,964.0,-3.0,976.0706941610326,2021-09-27 07:29:05.902
457,-153.0,1188.0,-140.0,1205.9655882321022,2021-09-27 07:29:05.903
458,-36.0,972.0,-25.0,972.987666931087,2021-09-27 07:29:05.912
459,-16.0,1007.0,-69.0,1009.4879890320638,2021-09-27 07:29:05.922
460,5.0,1127.0,-97.0,1131.1777048722274,2021-09-27 07:29:05.933
461,-65.0,949.0,-97.0,956.1563679649892,2021-09-27 07:29:05.941
462,-65.0,949.0,-55.0,952.8121535748796,2021-09-27 07:29:05.942
463,-458.0,989.0,-103.0,1094.7575073960445,2021-09-27 07:29:05.951
464,-90.0,877.0,-16.0,881.7510986667382,2021-09-27 07:29:05.962
465,19.0,1021.0,-174.0,1035.8947823017547,2021-09-27 07:29:05.971
466,-235.0,1038.0,-157.0,1075.7871536693492,2021-09-27 07:29:05.981
467,-181.0,1020.0,-77.0,1038.7925683215103,2021-09-27 07:29:05.990
468,-147.0,1232.0,-86.0,1243.715803549991,2021-09-27 07:29:06.000
469,-150.0,998.0,-86.0,1012.8672173587216,2021-09-27 07:29:06.012
470,-150.0,998.0,16.0,1009.3364156712072,2021-09-27 07:29:06.013
471,-132.0,998.0,16.0,1006.8187523084778,2021-09-27 07:29:06.019
472,-132.0,1135.0,-47.0,1143.616194358929,2021-09-27 07:29:06.020
473,-267.0,1262.0,-152.0,1298.8598846680884,2021-09-27 07:29:06.030
474,-153.0,903.0,-21.0,916.1108011588992,2021-09-27 07:29:06.040
475,-383.0,947.0,-55.0,1022.9970674444772,2021-09-27 07:29:06.049
476,-365.0,926.0,114.0,1001.8467946747148,2021-09-27 07:29:06.067
477,-357.0,898.0,17.0,966.5102172248362,2021-09-27 07:29:06.071
478,-250.0,843.0,17.0,879.4532392344689,2021-09-27 07:29:06.078
479,-250.0,843.0,52.0,880.8251812930872,2021-09-27 07:29:06.079
480,-288.0,896.0,101.0,946.5521644368048,2021-09-27 07:29:06.089
481,-299.0,896.0,101.0,949.9568411249008,2021-09-27 07:29:06.099
482,-299.0,963.0,-101.0,1013.3957765848444,2021-09-27 07:29:06.100
483,-391.0,827.0,-101.0,920.3320053111267,2021-09-27 07:29:06.107
484,-391.0,827.0,60.0,916.738785041846,2021-09-27 07:29:06.108
485,-196.0,887.0,-14.0,908.5048156173968,2021-09-27 07:29:06.117
486,-13.0,999.0,32.0,999.596918762758,2021-09-27 07:29:06.127
487,-231.0,891.0,84.0,924.2824243703868,2021-09-27 07:29:06.138
488,-258.0,929.0,84.0,967.8124818372615,2021-09-27 07:29:06.147
489,-258.0,929.0,-36.0,964.8321097475977,2021-09-27 07:29:06.148
490,-67.0,937.0,-36.0,940.0819113247526,2021-09-27 07:29:06.156
491,-67.0,937.0,108.0,945.5802451405168,2021-09-27 07:29:06.157
492,-162.0,1080.0,-75.0,1094.6547400893123,2021-09-27 07:29:06.166
493,-226.0,948.0,-119.0,981.8049704498344,2021-09-27 07:29:06.176
494,6.0,1033.0,-128.0,1040.917383849458,2021-09-27 07:29:06.186
495,-67.0,1114.0,-52.0,1117.223791368587,2021-09-27 07:29:06.196
496,-265.0,1114.0,-52.0,1146.2656760105835,2021-09-27 07:29:06.209
497,-265.0,1094.0,-52.0,1126.8384977449075,2021-09-27 07:29:06.210
498,-242.0,1100.0,-84.0,1129.4334863107256,2021-09-27 07:29:06.215
499,-223.0,1100.0,-84.0,1125.5154374774252,2021-09-27 07:29:06.224
500,-223.0,1162.0,18.0,1183.3414553711875,2021-09-27 07:29:06.225
501,-371.0,1033.0,-81.0,1100.586661740001,2021-09-27 07:29:06.240
502,-328.0,1024.0,-55.0,1076.6545406953894,2021-09-27 07:29:06.244
503,-309.0,1050.0,-39.0,1095.2177865611934,2021-09-27 07:29:06.254
504,-300.0,1023.0,7.0,1066.1041224946089,2021-09-27 07:29:06.264
505,-230.0,980.0,7.0,1006.6523729669544,2021-09-27 07:29:06.273
506,-230.0,980.0,12.0,1006.69955796156,2021-09-27 07:29:06.274
507,-219.0,1056.0,-146.0,1088.3074014266374,2021-09-27 07:29:06.285
508,-128.0,1007.0,-90.0,1019.0843929724368,2021-09-27 07:29:06.293
509,-285.0,1025.0,-28.0,1064.2527895194826,2021-09-27 07:29:06.303
510,-275.0,958.0,-28.0,997.08224334806,2021-09-27 07:29:06.312
511,-275.0,958.0,-11.0,996.7497178329172,2021-09-27 07:29:06.313
512,-92.0,950.0,61.0,956.391656174394,2021-09-27 07:29:06.323
513,-194.0,928.0,0.0,948.061179460482,2021-09-27 07:29:06.333
514,-259.0,912.0,1.0,948.0643438079506,2021-09-27 07:29:06.342
515,-3.0,912.0,1.0,912.0054824396616,2021-09-27 07:29:06.351
516,-3.0,1126.0,-258.0,1155.1835352012251,2021-09-27 07:29:06.352
517,-24.0,893.0,-258.0,929.832780665427,2021-09-27 07:29:06.361
518,-24.0,893.0,-22.0,893.5933079427128,2021-09-27 07:29:06.362
519,-305.0,1057.0,-83.0,1103.2511046901336,2021-09-27 07:29:06.371
520,-161.0,944.0,-14.0,957.7332614042388,2021-09-27 07:29:06.413
521,12.0,1074.0,-183.0,1089.5453180111415,2021-09-27 07:29:06.425
522,12.0,933.0,-40.0,933.9341518544012,2021-09-27 07:29:06.427
523,-57.0,1130.0,-126.0,1138.4309377384295,2021-09-27 07:29:06.432
524,-43.0,888.0,-35.0,889.7291722765979,2021-09-27 07:29:06.447
525,-20.0,1045.0,-139.0,1054.393664624366,2021-09-27 07:29:06.452
526,-81.0,1233.0,-138.0,1243.3398569980775,2021-09-27 07:29:06.457
527,-125.0,1014.0,-28.0,1022.0591959373,2021-09-27 07:29:06.462
528,-213.0,1114.0,-61.0,1135.819527918058,2021-09-27 07:29:06.470
529,-211.0,1057.0,-181.0,1092.9460187950729,2021-09-27 07:29:06.479
530,-122.0,1080.0,-142.0,1096.1058343061586,2021-09-27 07:29:06.488
531,-208.0,877.0,13.0,901.422209622106,2021-09-27 07:29:06.498
532,-244.0,1003.0,13.0,1032.3342481967748,2021-09-27 07:29:06.508
533,-244.0,1003.0,0.0,1032.2523916174764,2021-09-27 07:29:06.509
534,-231.0,1046.0,-64.0,1073.1136938833647,2021-09-27 07:29:06.518
535,-258.0,924.0,-64.0,961.4759487371484,2021-09-27 07:29:06.527
536,-258.0,924.0,96.0,964.1348453406296,2021-09-27 07:29:06.528
537,-311.0,835.0,49.0,892.3827654095522,2021-09-27 07:29:06.538
538,-10.0,1004.0,-26.0,1004.3863798359672,2021-09-27 07:29:06.547
539,-233.0,914.0,0.0,943.2311487647128,2021-09-27 07:29:06.557
540,-209.0,914.0,0.0,937.5910622440896,2021-09-27 07:29:06.566
541,-209.0,916.0,-34.0,940.155838145996,2021-09-27 07:29:06.567
542,-53.0,1007.0,128.0,1016.485120402655,2021-09-27 07:29:06.577
543,-241.0,967.0,-20.0,996.7798152049428,2021-09-27 07:29:06.589
544,-222.0,891.0,-38.0,919.0261149717128,2021-09-27 07:29:06.596
545,-183.0,891.0,-38.0,910.3922231653784,2021-09-27 07:29:06.605
546,-183.0,850.0,82.0,873.3344147576001,2021-09-27 07:29:06.606
547,-166.0,1107.0,-176.0,1133.1288541026568,2021-09-27 07:29:06.615
548,-257.0,985.0,114.0,1024.3388111362374,2021-09-27 07:29:06.626
549,-104.0,925.0,-31.0,931.3441898675268,2021-09-27 07:29:06.635
550,-103.0,1192.0,3.0,1196.4455691756311,2021-09-27 07:29:06.645
551,-260.0,1072.0,-175.0,1116.8746572467296,2021-09-27 07:29:06.655
552,-239.0,1072.0,-175.0,1112.1735476084657,2021-09-27 07:29:06.664
553,-239.0,998.0,-161.0,1038.7713896714715,2021-09-27 07:29:06.665
554,-249.0,1117.0,-50.0,1145.508620657217,2021-09-27 07:29:06.676
555,-204.0,1007.0,21.0,1027.670180554053,2021-09-27 07:29:06.684
556,-241.0,955.0,16.0,985.0695406924324,2021-09-27 07:29:06.694
557,-219.0,1063.0,-31.0,1085.767470501857,2021-09-27 07:29:06.703
558,-109.0,1060.0,-41.0,1066.377981768191,2021-09-27 07:29:06.713
559,-318.0,1026.0,-17.0,1074.285343844921,2021-09-27 07:29:06.723
560,-348.0,1026.0,-17.0,1083.5446460575586,2021-09-27 07:29:06.733
561,-348.0,999.0,31.0,1058.3317060354943,2021-09-27 07:29:06.734
562,71.0,946.0,55.0,950.2536503481584,2021-09-27 07:29:06.742
563,-272.0,938.0,-72.0,979.2915806847316,2021-09-27 07:29:06.752
564,-345.0,896.0,-44.0,961.1331853598648,2021-09-27 07:29:06.762
565,-239.0,950.0,15.0,979.717306165406,2021-09-27 07:29:06.772
566,-258.0,907.0,-48.0,944.2017792823736,2021-09-27 07:29:06.782
567,-276.0,845.0,108.0,895.4691507807513,2021-09-27 07:29:06.791
568,-63.0,969.0,-49.0,972.2813378852852,2021-09-27 07:29:06.801
569,-126.0,967.0,-84.0,978.78547189872,2021-09-27 07:29:06.811
570,-66.0,1019.0,-106.0,1026.622131068681,2021-09-27 07:29:06.821
571,-21.0,924.0,20.0,924.4549745660952,2021-09-27 07:29:06.837
572,-102.0,1136.0,-118.0,1146.6577519033306,2021-09-27 07:29:06.840
573,-47.0,918.0,-77.0,922.4218124047154,2021-09-27 07:29:06.852
574,81.0,1114.0,-178.0,1131.0353663789651,2021-09-27 07:29:06.860
575,-93.0,1173.0,-158.0,1187.2413402505829,2021-09-27 07:29:06.870
576,-62.0,913.0,-18.0,915.2797386591708,2021-09-27 07:29:06.880
577,-143.0,1099.0,-137.0,1116.70004925226,2021-09-27 07:29:06.889
578,-155.0,952.0,-137.0,974.21660835771,2021-09-27 07:29:06.898
579,-155.0,952.0,-47.0,965.6800712451304,2021-09-27 07:29:06.899
580,-46.0,1025.0,-27.0,1026.3868666346038,2021-09-27 07:29:06.908
581,-223.0,1030.0,-107.0,1059.2818321863167,2021-09-27 07:29:06.919
582,-215.0,1055.0,-92.0,1080.6081621013234,2021-09-27 07:29:06.930
583,-193.0,1185.0,-92.0,1204.1337135052734,2021-09-27 07:29:06.937
584,-193.0,1185.0,-26.0,1200.8954992004924,2021-09-27 07:29:06.938
585,-354.0,851.0,161.0,935.6484382501797,2021-09-27 07:29:06.947
586,-317.0,909.0,59.0,964.4952047573902,2021-09-27 07:29:06.957
587,-66.0,897.0,86.0,903.526978014492,2021-09-27 07:29:06.967
588,-358.0,798.0,82.0,878.4600161646516,2021-09-27 07:29:06.978
589,-279.0,912.0,-54.0,955.2491821509192,2021-09-27 07:29:06.986
590,-132.0,964.0,106.0,978.7522669194692,2021-09-27 07:29:06.996
591,-274.0,921.0,-56.0,962.524285407906,2021-09-27 07:29:07.006
592,-191.0,929.0,-13.0,948.52042677003,2021-09-27 07:29:07.016
593,-255.0,970.0,-13.0,1003.0423719863484,2021-09-27 07:29:07.026
594,-255.0,970.0,43.0,1003.8794748374926,2021-09-27 07:29:07.027
595,-289.0,1142.0,-74.0,1180.3224135802895,2021-09-27 07:29:07.037
596,-200.0,950.0,159.0,983.7586086027404,2021-09-27 07:29:07.045
597,-81.0,879.0,-25.0,883.0781392379726,2021-09-27 07:29:07.057
598,-146.0,1077.0,-25.0,1087.1384456452638,2021-09-27 07:29:07.064
599,-146.0,1077.0,-133.0,1094.9584467001475,2021-09-27 07:29:07.065
600,-203.0,896.0,1.0,918.7088766306769,2021-09-27 07:29:07.081
601,-204.0,1060.0,-181.0,1094.521356575558,2021-09-27 07:29:07.085
602,-148.0,1213.0,4.0,1222.0020458248014,2021-09-27 07:29:07.094
603,-144.0,1213.0,4.0,1221.524048064548,2021-09-27 07:29:07.103
604,-144.0,1070.0,-61.0,1081.36811493589,2021-09-27 07:29:07.104
605,-253.0,970.0,-16.0,1002.579173930917,2021-09-27 07:29:07.115
606,-201.0,1047.0,-163.0,1078.507765386972,2021-09-27 07:29:07.123
607,-197.0,956.0,11.0,976.1485542682528,2021-09-27 07:29:07.133
608,-354.0,988.0,-30.0,1049.933331216797,2021-09-27 07:29:07.143
609,-300.0,1035.0,-30.0,1078.019016529857,2021-09-27 07:29:07.152
610,-300.0,1035.0,-81.0,1080.641476161266,2021-09-27 07:29:07.153
611,20.0,1035.0,-81.0,1038.3573565974289,2021-09-27 07:29:07.163
612,20.0,1116.0,11.0,1116.233398532762,2021-09-27 07:29:07.164
613,-368.0,1080.0,11.0,1141.028045229389,2021-09-27 07:29:07.172
614,-368.0,1080.0,-175.0,1154.3175472979694,2021-09-27 07:29:07.173
615,-414.0,939.0,-65.0,1028.271364961604,2021-09-27 07:29:07.182
616,-225.0,1042.0,-65.0,1067.9953183417988,2021-09-27 07:29:07.191
617,-225.0,1042.0,16.0,1066.1355448534675,2021-09-27 07:29:07.192
618,-187.0,1042.0,16.0,1058.7676798996083,2021-09-27 07:29:07.201
619,-187.0,1034.0,-68.0,1052.9715095860856,2021-09-27 07:29:07.202
620,-189.0,1034.0,-68.0,1053.3285337443394,2021-09-27 07:29:07.212
621,-189.0,989.0,58.0,1008.5663091735714,2021-09-27 07:29:07.213
622,-222.0,1098.0,-111.0,1125.703779863957,2021-09-27 07:29:07.222
623,-190.0,993.0,-111.0,1017.088983324468,2021-09-27 07:29:07.230
624,-190.0,993.0,-31.0,1011.4890014231496,2021-09-27 07:29:07.231
625,-287.0,945.0,-31.0,988.106775606766,2021-09-27 07:29:07.251
626,-287.0,945.0,35.0,988.2403553791962,2021-09-27 07:29:07.252
627,-294.0,953.0,14.0,997.4171644803392,2021-09-27 07:29:07.255
628,-128.0,1188.0,-215.0,1214.064660551488,2021-09-27 07:29:07.260
629,-45.0,1188.0,-215.0,1208.136581682717,2021-09-27 07:29:07.269
630,-45.0,998.0,-80.0,1002.212053409856,2021-09-27 07:29:07.270
631,-120.0,1025.0,-104.0,1037.2275545896375,2021-09-27 07:29:07.279
632,0.0,1089.0,-134.0,1097.2132882899296,2021-09-27 07:29:07.290
633,-138.0,867.0,25.0,878.2698901818279,2021-09-27 07:29:07.300
634,-224.0,1028.0,-91.0,1056.049714738847,2021-09-27 07:29:07.309
635,-20.0,958.0,-117.0,965.3253337605928,2021-09-27 07:29:07.318
636,39.0,1067.0,-142.0,1077.1137358700798,2021-09-27 07:29:07.328
637,-203.0,1023.0,-76.0,1045.7121974998663,2021-09-27 07:29:07.338
638,-64.0,1055.0,-51.0,1058.169173620173,2021-09-27 07:29:07.348
639,-60.0,1268.0,-88.0,1272.4653236925556,2021-09-27 07:29:07.359
640,-247.0,941.0,-84.0,976.496799789943,2021-09-27 07:29:07.367
641,-146.0,1042.0,-95.0,1056.458707191152,2021-09-27 07:29:07.377
642,-210.0,1254.0,-141.0,1279.2564246467557,2021-09-27 07:29:07.387
643,-200.0,1254.0,-141.0,1277.652926267537,2021-09-27 07:29:07.396
644,-200.0,1025.0,-59.0,1045.995219874355,2021-09-27 07:29:07.397
645,-210.0,1029.0,-56.0,1051.7019539774565,2021-09-27 07:29:07.408
646,-334.0,922.0,99.0,985.6170655990084,2021-09-27 07:29:07.416
647,-315.0,918.0,-29.0,970.9737380588622,2021-09-27 07:29:07.426
648,-162.0,918.0,-29.0,932.6355129416852,2021-09-27 07:29:07.435
649,-162.0,899.0,-65.0,915.7892770719692,2021-09-27 07:29:07.436
650,-344.0,955.0,-65.0,1017.1460072182362,2021-09-27 07:29:07.445
651,-344.0,955.0,-18.0,1015.2265756962828,2021-09-27 07:29:07.446
652,-373.0,955.0,-18.0,1025.4160131380825,2021-09-27 07:29:07.456
653,-373.0,971.0,-75.0,1042.8782287496465,2021-09-27 07:29:07.457
654,-292.0,891.0,-38.0,938.3970375059802,2021-09-27 07:29:07.471
655,-287.0,891.0,-38.0,936.853243576602,2021-09-27 07:29:07.474
656,-287.0,868.0,12.0,914.2959039610754,2021-09-27 07:29:07.475
657,-98.0,1033.0,-74.0,1040.2735217239742,2021-09-27 07:29:07.484
658,-200.0,953.0,-38.0,974.5014109789682,2021-09-27 07:29:07.494
659,-212.0,911.0,-38.0,936.1137751363344,2021-09-27 07:29:07.505
660,-212.0,911.0,-84.0,939.1064902342011,2021-09-27 07:29:07.506
661,32.0,981.0,106.0,987.228950142772,2021-09-27 07:29:07.514
662,-4.0,981.0,106.0,986.7182981986298,2021-09-27 07:29:07.523
663,-4.0,1028.0,-59.0,1029.699470719491,2021-09-27 07:29:07.524
664,-75.0,945.0,14.0,948.074891556569,2021-09-27 07:29:07.533
665,-220.0,818.0,202.0,870.8203029328151,2021-09-27 07:29:07.543
666,-326.0,1051.0,-108.0,1105.6857600602443,2021-09-27 07:29:07.554
667,-192.0,1094.0,-109.0,1116.056002179102,2021-09-27 07:29:07.564
668,-44.0,1128.0,-98.0,1133.1037022267644,2021-09-27 07:29:07.572
669,-48.0,1221.0,8.0,1221.969312216964,2021-09-27 07:29:07.582
670,-192.0,1022.0,-55.0,1041.3323196751362,2021-09-27 07:29:07.592
671,-309.0,1022.0,-55.0,1069.1071040826546,2021-09-27 07:29:07.601
672,-309.0,1026.0,-40.0,1072.2672241563666,2021-09-27 07:29:07.602
673,-430.0,1048.0,-40.0,1133.49194968469,2021-09-27 07:29:07.613
674,-430.0,1048.0,48.0,1133.8024519289063,2021-09-27 07:29:07.614
675,-311.0,999.0,91.0,1050.2394964959185,2021-09-27 07:29:07.621
676,-235.0,935.0,-21.0,964.3085605759186,2021-09-27 07:29:07.631
677,-307.0,1002.0,-143.0,1057.6870992878753,2021-09-27 07:29:07.641
678,-179.0,935.0,-42.0,952.9060814162118,2021-09-27 07:29:07.653
679,-493.0,960.0,-116.0,1085.4054541967255,2021-09-27 07:29:07.660
680,-356.0,1023.0,-95.0,1087.3315961563887,2021-09-27 07:29:07.672
681,-150.0,1096.0,-115.0,1112.178492868838,2021-09-27 07:29:07.680
682,-332.0,1096.0,-115.0,1150.940919422018,2021-09-27 07:29:07.689
683,-332.0,1018.0,-77.0,1073.534815457794,2021-09-27 07:29:07.690
684,-351.0,867.0,-77.0,938.5195789113832,2021-09-27 07:29:07.699
685,-351.0,867.0,24.0,935.6634010155576,2021-09-27 07:29:07.700
686,-195.0,935.0,214.0,978.7982427446424,2021-09-27 07:29:07.710
687,-208.0,834.0,4.0,859.5556991841773,2021-09-27 07:29:07.720
688,-208.0,834.0,4.0,859.5556991841773,2021-09-27 07:29:07.728
689,-208.0,1088.0,-116.0,1113.761195229929,2021-09-27 07:29:07.729
690,22.0,969.0,66.0,971.494209967306,2021-09-27 07:29:07.738
691,-44.0,1031.0,-126.0,1039.6023278157854,2021-09-27 07:29:07.748
692,-56.0,1073.0,-98.0,1078.9202936269205,2021-09-27 07:29:07.759
693,-100.0,905.0,-27.0,910.9083378694038,2021-09-27 07:29:07.768
694,-72.0,1117.0,-122.0,1125.947156841741,2021-09-27 07:29:07.777
695,-48.0,931.0,-84.0,936.0133546055848,2021-09-27 07:29:07.787
696,-43.0,946.0,-47.0,948.142394369116,2021-09-27 07:29:07.797
697,-100.0,1148.0,-63.0,1154.0680222586536,2021-09-27 07:29:07.808
698,-142.0,937.0,-5.0,947.7119815640192,2021-09-27 07:29:07.817
699,-234.0,1091.0,-164.0,1127.8000709345606,2021-09-27 07:29:07.827
700,-110.0,1108.0,-190.0,1129.541499901619,2021-09-27 07:29:07.836
701,-2.0,1079.0,-52.0,1080.2541367659742,2021-09-27 07:29:07.856
702,-230.0,1038.0,-98.0,1067.6834736943342,2021-09-27 07:29:07.859
703,-63.0,924.0,-19.0,926.3401103266552,2021-09-27 07:29:07.866
704,-260.0,959.0,-18.0,993.7831755468594,2021-09-27 07:29:07.876
705,-446.0,799.0,44.0,916.1075264399916,2021-09-27 07:29:07.885
706,-518.0,799.0,44.0,953.2371163566806,2021-09-27 07:29:07.894
707,-518.0,881.0,7.0,1022.024461546787,2021-09-27 07:29:07.895
708,-118.0,972.0,-37.0,979.8351902233354,2021-09-27 07:29:07.904
709,-282.0,896.0,24.0,939.6360997748012,2021-09-27 07:29:07.914
710,-438.0,880.0,-20.0,983.1805531030402,2021-09-27 07:29:07.925
711,-180.0,981.0,120.0,1004.5700572881914,2021-09-27 07:29:07.935
712,-266.0,941.0,-43.0,978.8186757515408,2021-09-27 07:29:07.943
713,-108.0,898.0,-4.0,904.4799610826102,2021-09-27 07:29:07.953
714,-177.0,915.0,33.0,932.5465135852472,2021-09-27 07:29:07.963
715,-284.0,1098.0,-162.0,1145.6456694807518,2021-09-27 07:29:07.974
716,-203.0,959.0,87.0,984.1031450005636,2021-09-27 07:29:07.984
717,-98.0,952.0,-61.0,958.9728880422012,2021-09-27 07:29:07.992
718,27.0,1136.0,-129.0,1143.619692030528,2021-09-27 07:29:08.002
719,-133.0,905.0,85.0,918.661526352334,2021-09-27 07:29:08.012
720,-140.0,905.0,85.0,919.7010383814948,2021-09-27 07:29:08.021
721,-140.0,1003.0,-105.0,1018.1522479472312,2021-09-27 07:29:08.022
722,-219.0,1073.0,14.0,1095.210482053564,2021-09-27 07:29:08.033
723,-196.0,1073.0,14.0,1090.8441685227087,2021-09-27 07:29:08.041
724,-196.0,1015.0,61.0,1035.5491296891712,2021-09-27 07:29:08.042
725,-366.0,943.0,-9.0,1011.5759981336054,2021-09-27 07:29:08.055
726,-410.0,1066.0,-159.0,1153.1422288685817,2021-09-27 07:29:08.061
727,-216.0,884.0,54.0,911.6073716244292,2021-09-27 07:29:08.070
728,-173.0,884.0,54.0,902.386280924084,2021-09-27 07:29:08.080
729,-173.0,1041.0,-66.0,1057.3391130569228,2021-09-27 07:29:08.081
730,-42.0,1104.0,-108.0,1110.0648629697275,2021-09-27 07:29:08.097
731,-229.0,1104.0,-108.0,1132.6610260797358,2021-09-27 07:29:08.100
732,-229.0,934.0,-141.0,971.9454717215364,2021-09-27 07:29:08.101
733,-401.0,943.0,-28.0,1025.1019461497476,2021-09-27 07:29:08.109
734,-420.0,943.0,-28.0,1032.6824294041223,2021-09-27 07:29:08.120
735,-420.0,856.0,63.0,955.5652777283192,2021-09-27 07:29:08.121
736,-281.0,917.0,102.0,964.4967599738218,2021-09-27 07:29:08.130
737,-354.0,895.0,81.0,965.8685210731325,2021-09-27 07:29:08.139
738,-220.0,895.0,81.0,925.1951145569242,2021-09-27 07:29:08.148
739,-220.0,884.0,-30.0,911.4581723809382,2021-09-27 07:29:08.149
740,-79.0,985.0,11.0,988.2241648532988,2021-09-27 07:29:08.158
741,-238.0,1067.0,-64.0,1095.093146723145,2021-09-27 07:29:08.168
742,-131.0,941.0,-22.0,950.3294165709068,2021-09-27 07:29:08.179
743,-106.0,943.0,1.0,948.9394079708144,2021-09-27 07:29:08.189
744,-146.0,995.0,-56.0,1007.2124899940428,2021-09-27 07:29:08.197
745,-41.0,909.0,-55.0,911.584883595598,2021-09-27 07:29:08.207
746,-132.0,1035.0,-137.0,1052.339298895561,2021-09-27 07:29:08.217
747,-149.0,1015.0,-110.0,1031.7586927184088,2021-09-27 07:29:08.227
748,-66.0,951.0,-95.0,958.009394525962,2021-09-27 07:29:08.238
749,-316.0,1038.0,-147.0,1094.9470306823066,2021-09-27 07:29:08.252
750,-331.0,1074.0,-33.0,1124.3335803932923,2021-09-27 07:29:08.256
751,-232.0,1003.0,-33.0,1030.010679556285,2021-09-27 07:29:08.269
752,-232.0,1003.0,-35.0,1030.0766961736392,2021-09-27 07:29:08.270
753,-165.0,1003.0,-35.0,1017.0835757203045,2021-09-27 07:29:08.275
754,-165.0,968.0,-55.0,983.5008896793128,2021-09-27 07:29:08.276
755,-164.0,1019.0,-38.0,1032.8121804084226,2021-09-27 07:29:08.285
756,-177.0,1018.0,-41.0,1034.0860699187472,2021-09-27 07:29:08.295
757,-225.0,959.0,-19.0,985.2243399348192,2021-09-27 07:29:08.305
758,-177.0,1026.0,-40.0,1041.923701621189,2021-09-27 07:29:08.316
759,-182.0,1004.0,-44.0,1021.3109222954585,2021-09-27 07:29:08.326
760,-194.0,986.0,-38.0,1005.6221954591098,2021-09-27 07:29:08.334
761,-302.0,982.0,-50.0,1028.6048804084105,2021-09-27 07:29:08.344
762,-240.0,982.0,-50.0,1012.13833046674,2021-09-27 07:29:08.353
763,-240.0,1011.0,-2.0,1039.098166681089,2021-09-27 07:29:08.354
764,-218.0,977.0,18.0,1001.1877945720272,2021-09-27 07:29:08.363
765,-198.0,991.0,-49.0,1011.77369011059,2021-09-27 07:29:08.375
766,-171.0,998.0,-40.0,1013.3336074561032,2021-09-27 07:29:08.383
767,-179.0,1008.0,-23.0,1024.0283199208898,2021-09-27 07:29:08.393
768,-145.0,1028.0,-55.0,1039.6316655431383,2021-09-27 07:29:08.402
769,-114.0,984.0,11.0,990.6427206616924,2021-09-27 07:29:08.412
770,-122.0,1008.0,-20.0,1015.553051297666,2021-09-27 07:29:08.423
771,-117.0,1038.0,-30.0,1045.003827744186,2021-09-27 07:29:08.432
772,-148.0,1003.0,-27.0,1014.219897260944,2021-09-27 07:29:08.441
773,-237.0,945.0,-24.0,974.5614398281926,2021-09-27 07:29:08.452
774,-256.0,945.0,-24.0,979.3554002505934,2021-09-27 07:29:08.461
775,-256.0,948.0,-23.0,982.2265522780372,2021-09-27 07:29:08.462
776,-203.0,988.0,-30.0,1009.0852293042446,2021-09-27 07:29:08.471
777,-195.0,988.0,-30.0,1007.5063275235544,2021-09-27 07:29:08.486
778,-195.0,992.0,7.0,1011.0084074823512,2021-09-27 07:29:08.487
