,Acceleration_X,Acceleration_Y,Acceleration_Z,magnitude,time_stamp
0,-229.0,1320.0,-320.0,1377.4037171432346,2021-09-02 08:18:03.576
1,203.0,1092.0,-24.0,1110.9675962871283,2021-09-02 08:18:03.586
2,-237.0,1336.0,-139.0,1363.959676823329,2021-09-02 08:18:03.609
3,-237.0,1167.0,0.0,1190.8224048950372,2021-09-02 08:18:03.611
4,-151.0,934.0,79.0,949.4198228391906,2021-09-02 08:18:03.615
5,-160.0,1010.0,460.0,1121.2938954618455,2021-09-02 08:18:03.625
6,217.0,1052.0,68.0,1076.297821237226,2021-09-02 08:18:03.635
7,-183.0,1048.0,68.0,1066.0286112483095,2021-09-02 08:18:03.644
8,-183.0,1048.0,-235.0,1089.5035566715696,2021-09-02 08:18:03.645
9,-283.0,1048.0,-235.0,1110.683573300695,2021-09-02 08:18:03.654
10,-283.0,883.0,-58.0,929.0543579360682,2021-09-02 08:18:03.655
11,-248.0,1054.0,113.0,1088.663859967805,2021-09-02 08:18:03.665
12,-310.0,1084.0,-18.0,1127.5992195811418,2021-09-02 08:18:03.674
13,-208.0,895.0,-18.0,919.028291185859,2021-09-02 08:18:03.683
14,-208.0,895.0,91.0,923.3471719781244,2021-09-02 08:18:03.684
15,-387.0,768.0,-76.0,863.347554580425,2021-09-02 08:18:03.694
16,-244.0,913.0,163.0,958.9963503580188,2021-09-02 08:18:03.703
17,-253.0,1041.0,-220.0,1093.658996214085,2021-09-02 08:18:03.714
18,-166.0,1041.0,-220.0,1076.8644297217734,2021-09-02 08:18:03.722
19,-166.0,1196.0,-253.0,1233.685940586177,2021-09-02 08:18:03.723
20,-86.0,986.0,72.0,992.358806077721,2021-09-02 08:18:03.732
21,-13.0,988.0,25.0,988.4017401846276,2021-09-02 08:18:03.742
22,4.0,1097.0,-85.0,1100.2954148772956,2021-09-02 08:18:03.752
23,-208.0,1026.0,-63.0,1048.7654647250738,2021-09-02 08:18:03.762
24,46.0,1140.0,-35.0,1141.4644103080918,2021-09-02 08:18:03.771
25,0.0,982.0,176.0,997.6472322419384,2021-09-02 08:18:03.781
26,-27.0,1061.0,83.0,1064.5839562946644,2021-09-02 08:18:03.791
27,-120.0,1102.0,-131.0,1116.228023299899,2021-09-02 08:18:03.804
28,-563.0,801.0,27.0,979.4381042209864,2021-09-02 08:18:03.811
29,-100.0,878.0,-118.0,891.5200502512548,2021-09-02 08:18:03.822
30,-246.0,1003.0,-200.0,1051.914920514012,2021-09-02 08:18:03.830
31,-478.0,1038.0,-104.0,1147.4946622969535,2021-09-02 08:18:03.840
32,-362.0,933.0,-104.0,1006.1555545739436,2021-09-02 08:18:03.849
33,-362.0,933.0,-62.0,1002.684895667627,2021-09-02 08:18:03.850
34,-201.0,933.0,-62.0,956.4172729515084,2021-09-02 08:18:03.870
35,-201.0,848.0,-36.0,872.2390727317826,2021-09-02 08:18:03.871
36,-270.0,1024.0,-173.0,1073.0354141406517,2021-09-02 08:18:03.873
37,-170.0,1215.0,-145.0,1235.3744371647003,2021-09-02 08:18:03.879
38,-346.0,1215.0,-145.0,1271.5997798049511,2021-09-02 08:18:03.888
39,-346.0,966.0,-12.0,1026.1656786308924,2021-09-02 08:18:03.889
40,-114.0,866.0,5.0,873.4855465318244,2021-09-02 08:18:03.899
41,38.0,1077.0,-162.0,1089.7784178446552,2021-09-02 08:18:03.908
42,-183.0,1078.0,-171.0,1106.713151634153,2021-09-02 08:18:03.918
43,-281.0,866.0,19.0,910.6470227261492,2021-09-02 08:18:03.929
44,-342.0,978.0,0.0,1036.073356476268,2021-09-02 08:18:03.937
45,-45.0,1018.0,155.0,1030.715285614801,2021-09-02 08:18:03.947
46,-358.0,867.0,-82.0,941.582179100688,2021-09-02 08:18:03.957
47,-482.0,824.0,-51.0,955.9816943854104,2021-09-02 08:18:03.967
48,-226.0,815.0,59.0,847.8101202509911,2021-09-02 08:18:03.977
49,-164.0,1114.0,-161.0,1137.4590102504794,2021-09-02 08:18:03.986
50,-388.0,912.0,-90.0,995.1823953426828,2021-09-02 08:18:03.997
51,-409.0,772.0,44.0,874.7576807322129,2021-09-02 08:18:04.006
52,-30.0,1005.0,44.0,1006.4099562305612,2021-09-02 08:18:04.015
53,-30.0,1005.0,0.0,1005.4476614921336,2021-09-02 08:18:04.016
54,-184.0,1153.0,-195.0,1183.760955598722,2021-09-02 08:18:04.026
55,25.0,1037.0,-77.0,1040.1552768697566,2021-09-02 08:18:04.036
56,-42.0,1009.0,164.0,1023.1036115662968,2021-09-02 08:18:04.045
57,62.0,1009.0,164.0,1024.1196219192366,2021-09-02 08:18:04.054
58,62.0,1191.0,107.0,1197.4030232131536,2021-09-02 08:18:04.055
59,-143.0,1094.0,-64.0,1105.1610742330731,2021-09-02 08:18:04.064
60,-84.0,846.0,-13.0,850.2593721918035,2021-09-02 08:18:04.074
61,-257.0,846.0,-13.0,884.2703206599213,2021-09-02 08:18:04.084
62,-257.0,901.0,124.0,945.1063432228144,2021-09-02 08:18:04.085
63,-247.0,901.0,124.0,942.4362047374876,2021-09-02 08:18:04.093
64,-247.0,1094.0,24.0,1121.793653039631,2021-09-02 08:18:04.094
65,-161.0,937.0,114.0,957.5416440030168,2021-09-02 08:18:04.104
66,-308.0,762.0,-65.0,824.4592166990433,2021-09-02 08:18:04.113
67,-231.0,1003.0,-119.0,1036.1134107808855,2021-09-02 08:18:04.123
68,-240.0,1003.0,-119.0,1038.1570208788264,2021-09-02 08:18:04.134
69,-240.0,923.0,151.0,965.5723691158524,2021-09-02 08:18:04.135
70,-399.0,846.0,151.0,947.4798150884272,2021-09-02 08:18:04.142
71,-399.0,846.0,35.0,936.0245723270305,2021-09-02 08:18:04.143
72,-118.0,955.0,130.0,971.0041194557313,2021-09-02 08:18:04.153
73,-66.0,1053.0,-19.0,1055.2374140448203,2021-09-02 08:18:04.162
74,-1.0,1115.0,-125.0,1121.985294021272,2021-09-02 08:18:04.172
75,-253.0,996.0,24.0,1027.910988364265,2021-09-02 08:18:04.182
76,16.0,1065.0,8.0,1065.1502241468102,2021-09-02 08:18:04.192
77,0.0,1052.0,108.0,1057.52919581447,2021-09-02 08:18:04.201
78,29.0,1052.0,108.0,1057.9267460462468,2021-09-02 08:18:04.211
79,29.0,1037.0,110.0,1043.2209737155404,2021-09-02 08:18:04.212
80,-78.0,1037.0,110.0,1045.7308449118252,2021-09-02 08:18:04.220
81,-78.0,1118.0,-92.0,1124.487438791559,2021-09-02 08:18:04.221
82,-29.0,1015.0,-21.0,1015.6313307495,2021-09-02 08:18:04.231
83,-367.0,913.0,162.0,997.2472110765716,2021-09-02 08:18:04.241
84,-378.0,883.0,69.0,962.9818274505496,2021-09-02 08:18:04.250
85,39.0,1031.0,-2.0,1031.7393081588004,2021-09-02 08:18:04.260
86,-338.0,892.0,-2.0,953.8930757689774,2021-09-02 08:18:04.269
87,-338.0,892.0,-32.0,954.4275771372074,2021-09-02 08:18:04.270
88,-166.0,946.0,-22.0,960.7059904049728,2021-09-02 08:18:04.279
89,-180.0,1017.0,-22.0,1033.040657476752,2021-09-02 08:18:04.289
90,-180.0,1017.0,-165.0,1045.9034372254448,2021-09-02 08:18:04.290
91,-142.0,1214.0,-148.0,1231.2042884915566,2021-09-02 08:18:04.299
92,-208.0,1214.0,-148.0,1240.5498780782657,2021-09-02 08:18:04.308
93,-208.0,1026.0,-15.0,1046.978987372717,2021-09-02 08:18:04.309
94,-141.0,857.0,17.0,868.6880913193181,2021-09-02 08:18:04.318
95,53.0,1061.0,-185.0,1078.3111795766563,2021-09-02 08:18:04.328
96,-116.0,1102.0,-165.0,1120.3057618346877,2021-09-02 08:18:04.338
97,43.0,1102.0,-165.0,1115.1134471433836,2021-09-02 08:18:04.348
98,43.0,1196.0,-35.0,1197.2844273605165,2021-09-02 08:18:04.349
99,55.0,999.0,101.0,1005.5978321376792,2021-09-02 08:18:04.357
100,23.0,1157.0,-60.0,1158.7829822706235,2021-09-02 08:18:04.368
101,-261.0,1160.0,-27.0,1189.3065206245192,2021-09-02 08:18:04.377
102,-488.0,852.0,-130.0,990.4281902288524,2021-09-02 08:18:04.387
103,-369.0,838.0,101.0,921.1981328682772,2021-09-02 08:18:04.397
104,-304.0,838.0,101.0,897.140457230639,2021-09-02 08:18:04.406
105,-304.0,1058.0,-144.0,1110.187371572925,2021-09-02 08:18:04.407
106,-415.0,1058.0,-144.0,1145.5675449313323,2021-09-02 08:18:04.416
107,-415.0,960.0,-172.0,1059.909901831283,2021-09-02 08:18:04.417
108,-102.0,978.0,-172.0,998.2344414014176,2021-09-02 08:18:04.448
109,-102.0,978.0,-47.0,984.4272446453318,2021-09-02 08:18:04.449
110,-181.0,1228.0,-226.0,1261.6738881343308,2021-09-02 08:18:04.451
111,-325.0,1072.0,-67.0,1122.1844768129704,2021-09-02 08:18:04.455
112,-425.0,868.0,-65.0,968.6454459708154,2021-09-02 08:18:04.465
113,-64.0,985.0,-65.0,989.2148401636522,2021-09-02 08:18:04.474
114,-64.0,985.0,-201.0,1007.3341054486342,2021-09-02 08:18:04.475
115,-8.0,1111.0,-168.0,1123.6587560287153,2021-09-02 08:18:04.485
116,-323.0,1088.0,-172.0,1147.8924165617611,2021-09-02 08:18:04.494
117,-172.0,1088.0,-172.0,1114.8596324201535,2021-09-02 08:18:04.504
118,-172.0,962.0,59.0,979.0347286996514,2021-09-02 08:18:04.505
119,-245.0,962.0,59.0,994.459652273535,2021-09-02 08:18:04.513
120,-245.0,1101.0,-90.0,1131.5149137329124,2021-09-02 08:18:04.514
121,-115.0,992.0,44.0,999.612424892768,2021-09-02 08:18:04.523
122,-367.0,702.0,20.0,792.3969964607387,2021-09-02 08:18:04.533
123,-337.0,979.0,-113.0,1041.5272440027672,2021-09-02 08:18:04.543
124,-289.0,953.0,62.0,997.7845458815244,2021-09-02 08:18:04.554
125,-418.0,827.0,-3.0,926.640167486819,2021-09-02 08:18:04.562
126,-202.0,778.0,-209.0,830.5233289920278,2021-09-02 08:18:04.572
127,-163.0,991.0,-179.0,1020.1426370856184,2021-09-02 08:18:04.582
128,-231.0,991.0,-179.0,1033.1906890792231,2021-09-02 08:18:04.592
129,-231.0,948.0,72.0,978.3910261240136,2021-09-02 08:18:04.593
130,-320.0,1003.0,72.0,1055.2691599776808,2021-09-02 08:18:04.601
131,-320.0,1003.0,-65.0,1054.8146756658252,2021-09-02 08:18:04.602
132,-190.0,1031.0,-172.0,1062.377051709985,2021-09-02 08:18:04.611
133,34.0,1090.0,113.0,1096.3690072233892,2021-09-02 08:18:04.625
134,10.0,1129.0,60.0,1130.637430832714,2021-09-02 08:18:04.631
135,-244.0,1059.0,60.0,1088.4011209108523,2021-09-02 08:18:04.641
136,-244.0,1059.0,-9.0,1086.7833270712244,2021-09-02 08:18:04.642
137,-173.0,869.0,-9.0,886.0987529615421,2021-09-02 08:18:04.650
138,-173.0,869.0,8.0,886.089160299346,2021-09-02 08:18:04.651
139,-243.0,916.0,126.0,956.023535275152,2021-09-02 08:18:04.660
140,-293.0,955.0,48.0,1000.0889960398524,2021-09-02 08:18:04.670
141,42.0,955.0,48.0,957.127473223917,2021-09-02 08:18:04.679
142,42.0,937.0,0.0,937.9408296902316,2021-09-02 08:18:04.680
143,-181.0,928.0,-50.0,946.807794644721,2021-09-02 08:18:04.690
144,-310.0,969.0,108.0,1023.095792191523,2021-09-02 08:18:04.699
145,-146.0,947.0,47.0,959.3403983988164,2021-09-02 08:18:04.709
146,-191.0,947.0,47.0,967.211972630612,2021-09-02 08:18:04.718
147,-191.0,911.0,-186.0,949.2091444987244,2021-09-02 08:18:04.719
148,-197.0,797.0,-162.0,836.816586833698,2021-09-02 08:18:04.729
149,-194.0,855.0,-21.0,876.9846064783577,2021-09-02 08:18:04.738
150,107.0,855.0,-21.0,861.925170766001,2021-09-02 08:18:04.748
151,107.0,1031.0,-126.0,1044.167611066346,2021-09-02 08:18:04.749
152,-47.0,1184.0,-167.0,1196.6428038474974,2021-09-02 08:18:04.758
153,44.0,1158.0,-167.0,1170.806986654931,2021-09-02 08:18:04.767
154,44.0,1158.0,5.0,1158.846409150065,2021-09-02 08:18:04.768
155,71.0,1158.0,5.0,1160.1853300227513,2021-09-02 08:18:04.780
156,71.0,957.0,156.0,972.2273396690714,2021-09-02 08:18:04.781
157,-84.0,1164.0,-28.0,1167.3628399088263,2021-09-02 08:18:04.787
158,-204.0,1164.0,-28.0,1182.0727557980515,2021-09-02 08:18:04.797
159,-204.0,1099.0,-35.0,1118.3210630226008,2021-09-02 08:18:04.798
160,-166.0,885.0,-35.0,901.1137553050668,2021-09-02 08:18:04.806
161,-166.0,885.0,170.0,916.3410936981928,2021-09-02 08:18:04.807
162,-116.0,917.0,38.0,925.088644401173,2021-09-02 08:18:04.816
163,-84.0,1008.0,45.0,1012.4944444292028,2021-09-02 08:18:04.826
164,-41.0,1055.0,101.0,1060.6163302533107,2021-09-02 08:18:04.836
165,-343.0,728.0,29.0,805.2788336967512,2021-09-02 08:18:04.846
166,-112.0,1046.0,-52.0,1053.2634997948044,2021-09-02 08:18:04.855
167,-141.0,1249.0,-176.0,1269.195808376312,2021-09-02 08:18:04.865
168,-311.0,1107.0,-42.0,1150.6233093415065,2021-09-02 08:18:04.886
169,-401.0,859.0,-42.0,948.918331575484,2021-09-02 08:18:04.888
170,-401.0,859.0,35.0,948.6342814804872,2021-09-02 08:18:04.889
171,70.0,932.0,-176.0,951.0520490488416,2021-09-02 08:18:04.896
172,97.0,1178.0,-159.0,1192.6332210700823,2021-09-02 08:18:04.904
173,-204.0,1118.0,-97.0,1140.5915132070727,2021-09-02 08:18:04.914
174,-67.0,1102.0,-46.0,1104.992760157278,2021-09-02 08:18:04.924
175,-23.0,881.0,-46.0,882.4998583569292,2021-09-02 08:18:04.933
176,-23.0,881.0,44.0,882.3978694443907,2021-09-02 08:18:04.934
177,82.0,1146.0,61.0,1150.548130240539,2021-09-02 08:18:04.944
178,-178.0,1157.0,-127.0,1177.4812100411625,2021-09-02 08:18:04.953
179,-326.0,929.0,-63.0,986.552583494666,2021-09-02 08:18:04.963
180,-189.0,962.0,-63.0,982.4123370560856,2021-09-02 08:18:04.973
181,-189.0,962.0,50.0,981.6644029402308,2021-09-02 08:18:04.974
182,-384.0,939.0,-21.0,1014.70094116444,2021-09-02 08:18:04.982
183,-277.0,939.0,-21.0,979.2297993831684,2021-09-02 08:18:04.992
184,-277.0,814.0,-154.0,873.5221805998975,2021-09-02 08:18:04.993
185,-156.0,964.0,-138.0,986.2433776710492,2021-09-02 08:18:05.003
186,-354.0,964.0,-138.0,1036.1737306069865,2021-09-02 08:18:05.011
187,-354.0,1011.0,31.0,1071.633332814914,2021-09-02 08:18:05.012
188,-421.0,870.0,-14.0,966.611090356406,2021-09-02 08:18:05.022
189,-195.0,967.0,-182.0,1003.114151031676,2021-09-02 08:18:05.031
190,-374.0,919.0,-116.0,998.945944483484,2021-09-02 08:18:05.041
191,-182.0,1001.0,25.0,1017.7180356071126,2021-09-02 08:18:05.052
192,-139.0,1162.0,25.0,1170.5511522355612,2021-09-02 08:18:05.060
193,-139.0,1162.0,-136.0,1178.1600061112242,2021-09-02 08:18:05.061
194,-289.0,1044.0,-270.0,1116.4036008540995,2021-09-02 08:18:05.070
195,-122.0,1048.0,32.0,1055.562409334474,2021-09-02 08:18:05.080
196,-235.0,1043.0,10.0,1069.1931537379016,2021-09-02 08:18:05.090
197,-109.0,966.0,14.0,972.2309396434572,2021-09-02 08:18:05.100
198,-232.0,937.0,-43.0,966.2515200505508,2021-09-02 08:18:05.109
199,-297.0,974.0,30.0,1018.7173307645256,2021-09-02 08:18:05.119
200,-223.0,915.0,128.0,950.4409502962296,2021-09-02 08:18:05.131
201,-146.0,976.0,-108.0,992.7517313004296,2021-09-02 08:18:05.139
202,-225.0,858.0,-161.0,901.5042983813222,2021-09-02 08:18:05.149
203,-233.0,858.0,-161.0,903.5341720156466,2021-09-02 08:18:05.159
204,-233.0,880.0,48.0,911.5881745612984,2021-09-02 08:18:05.160
205,-412.0,1004.0,-13.0,1085.3243754749085,2021-09-02 08:18:05.168
206,-254.0,790.0,-111.0,837.2198038747053,2021-09-02 08:18:05.179
207,-286.0,892.0,-37.0,937.4587990946588,2021-09-02 08:18:05.187
208,-124.0,844.0,166.0,869.0615628366037,2021-09-02 08:18:05.197
209,90.0,1042.0,81.0,1049.0114394037846,2021-09-02 08:18:05.208
210,-104.0,1178.0,-138.0,1190.606568098799,2021-09-02 08:18:05.217
211,-143.0,1058.0,-138.0,1076.5022062216128,2021-09-02 08:18:05.226
212,-143.0,1058.0,159.0,1079.3952010269454,2021-09-02 08:18:05.227
213,-132.0,895.0,107.0,910.9873764218688,2021-09-02 08:18:05.236
214,-109.0,1060.0,20.0,1065.7771812156611,2021-09-02 08:18:05.246
215,-64.0,1045.0,81.0,1050.0866630902424,2021-09-02 08:18:05.256
216,-161.0,1045.0,81.0,1060.4277438845138,2021-09-02 08:18:05.265
217,-161.0,939.0,97.0,957.6277982598458,2021-09-02 08:18:05.266
218,-172.0,978.0,-32.0,993.5250374298575,2021-09-02 08:18:05.275
219,-64.0,978.0,-32.0,980.6140933109212,2021-09-02 08:18:05.285
220,-64.0,916.0,39.0,919.0609337796924,2021-09-02 08:18:05.286
221,-164.0,1033.0,-27.0,1046.285811812432,2021-09-02 08:18:05.295
222,-163.0,1057.0,-107.0,1074.8334754742243,2021-09-02 08:18:05.305
223,-21.0,1016.0,-170.0,1030.3382939598043,2021-09-02 08:18:05.316
224,82.0,1204.0,-183.0,1220.5855152343895,2021-09-02 08:18:05.324
225,-307.0,1133.0,-95.0,1177.693933074294,2021-09-02 08:18:05.334
226,-233.0,996.0,5.0,1022.9027324237628,2021-09-02 08:18:05.344
227,129.0,950.0,5.0,958.7314535363904,2021-09-02 08:18:05.353
228,129.0,950.0,-64.0,960.8522258911617,2021-09-02 08:18:05.354
229,-25.0,1190.0,59.0,1191.7239613266152,2021-09-02 08:18:05.364
230,-271.0,1122.0,-49.0,1155.3034233481696,2021-09-02 08:18:05.373
231,-111.0,953.0,151.0,971.252284424598,2021-09-02 08:18:05.385
232,-56.0,953.0,151.0,966.5122865230426,2021-09-02 08:18:05.392
233,-56.0,947.0,32.0,949.193868501056,2021-09-02 08:18:05.393
234,42.0,1143.0,-33.0,1144.2473508817925,2021-09-02 08:18:05.402
235,-46.0,1200.0,-33.0,1201.3346744350636,2021-09-02 08:18:05.412
236,-46.0,1200.0,-7.0,1200.9017445236725,2021-09-02 08:18:05.413
237,-340.0,876.0,37.0,940.3961931016096,2021-09-02 08:18:05.423
238,-261.0,876.0,37.0,914.8038041022784,2021-09-02 08:18:05.431
239,-261.0,1028.0,23.0,1060.864741614123,2021-09-02 08:18:05.432
240,-406.0,887.0,33.0,976.0604489477072,2021-09-02 08:18:05.442
241,-317.0,887.0,33.0,942.5216177892156,2021-09-02 08:18:05.475
242,-317.0,1008.0,-191.0,1073.7942074718042,2021-09-02 08:18:05.476
243,-165.0,1008.0,-191.0,1039.1198198475477,2021-09-02 08:18:05.477
244,-165.0,925.0,-155.0,952.2998477370456,2021-09-02 08:18:05.478
245,-165.0,998.0,-47.0,1012.6391262438956,2021-09-02 08:18:05.479
246,-179.0,1149.0,-109.0,1167.9567628983532,2021-09-02 08:18:05.484
247,-298.0,1061.0,-286.0,1138.560933810747,2021-09-02 08:18:05.490
248,-219.0,941.0,-92.0,970.5184181662912,2021-09-02 08:18:05.500
249,49.0,917.0,11.0,918.3741067778424,2021-09-02 08:18:05.510
250,19.0,1249.0,-118.0,1254.7055431454824,2021-09-02 08:18:05.520
251,-184.0,1077.0,-91.0,1096.387705148138,2021-09-02 08:18:05.530
252,-69.0,1077.0,-91.0,1083.0378571407373,2021-09-02 08:18:05.539
253,-69.0,979.0,101.0,986.6118791095108,2021-09-02 08:18:05.540
254,-177.0,937.0,61.0,955.5202771265506,2021-09-02 08:18:05.549
255,-196.0,937.0,61.0,959.2215593907384,2021-09-02 08:18:05.558
256,-196.0,967.0,-42.0,987.5570869575084,2021-09-02 08:18:05.559
257,-224.0,889.0,-155.0,929.7967519840022,2021-09-02 08:18:05.568
258,-278.0,888.0,59.0,932.3674168481008,2021-09-02 08:18:05.579
259,-340.0,936.0,-8.0,995.8714776516094,2021-09-02 08:18:05.589
260,-111.0,936.0,-8.0,942.5927010114176,2021-09-02 08:18:05.597
261,-111.0,817.0,-83.0,828.6730356419231,2021-09-02 08:18:05.598
262,-293.0,912.0,-36.0,958.5869809255704,2021-09-02 08:18:05.607
263,-471.0,1024.0,-113.0,1132.7780011988227,2021-09-02 08:18:05.617
264,-206.0,935.0,-53.0,958.8899832618964,2021-09-02 08:18:05.637
265,-412.0,962.0,-14.0,1046.605943036824,2021-09-02 08:18:05.640
266,-327.0,1007.0,-14.0,1058.8550420147226,2021-09-02 08:18:05.646
267,-327.0,1007.0,-246.0,1086.965500832478,2021-09-02 08:18:05.647
268,-45.0,1093.0,-175.0,1107.835276564165,2021-09-02 08:18:05.656
269,-128.0,1078.0,-175.0,1099.5876499852116,2021-09-02 08:18:05.666
270,-128.0,1078.0,-37.0,1086.203019697515,2021-09-02 08:18:05.667
271,-62.0,1066.0,-1.0,1067.8019479285472,2021-09-02 08:18:05.676
272,-136.0,956.0,-1.0,965.6257038832388,2021-09-02 08:18:05.685
273,-136.0,956.0,56.0,967.2476415065586,2021-09-02 08:18:05.686
274,-164.0,1048.0,25.0,1061.0490092356715,2021-09-02 08:18:05.695
275,-8.0,1048.0,25.0,1048.328669835944,2021-09-02 08:18:05.705
276,-8.0,1009.0,83.0,1012.4396278297288,2021-09-02 08:18:05.706
277,-177.0,1025.0,9.0,1040.20911359207,2021-09-02 08:18:05.715
278,-172.0,938.0,9.0,953.6818127656624,2021-09-02 08:18:05.724
279,-172.0,938.0,-7.0,953.6650355339656,2021-09-02 08:18:05.725
280,-223.0,897.0,61.0,926.3147413271582,2021-09-02 08:18:05.734
281,-477.0,774.0,47.0,910.3922231653784,2021-09-02 08:18:05.745
282,-33.0,885.0,-95.0,890.6957954318635,2021-09-02 08:18:05.754
283,-239.0,885.0,-95.0,921.6132594532264,2021-09-02 08:18:05.763
284,-239.0,1050.0,-146.0,1086.7092527442655,2021-09-02 08:18:05.764
285,64.0,942.0,-137.0,954.0592224804496,2021-09-02 08:18:05.773
286,-51.0,942.0,-137.0,953.2754061655004,2021-09-02 08:18:05.783
287,-51.0,1181.0,-116.0,1187.7785988979597,2021-09-02 08:18:05.784
288,-343.0,1120.0,-61.0,1172.9322231058366,2021-09-02 08:18:05.793
289,-146.0,1120.0,-61.0,1131.1220093340949,2021-09-02 08:18:05.802
290,-146.0,1008.0,114.0,1024.878529387751,2021-09-02 08:18:05.803
291,-106.0,993.0,2.0,998.6435800624764,2021-09-02 08:18:05.812
292,-6.0,1147.0,0.0,1147.0156930051132,2021-09-02 08:18:05.823
293,-17.0,1237.0,27.0,1237.4114109704983,2021-09-02 08:18:05.832
294,-221.0,993.0,-44.0,1018.2465320343596,2021-09-02 08:18:05.842
295,-118.0,949.0,-44.0,957.3196958174422,2021-09-02 08:18:05.851
296,-118.0,949.0,49.0,957.5625305952608,2021-09-02 08:18:05.852
297,110.0,1123.0,34.0,1128.886619639014,2021-09-02 08:18:05.862
298,-129.0,1108.0,-15.0,1115.5850483042518,2021-09-02 08:18:05.871
299,-344.0,867.0,183.0,950.5335343900288,2021-09-02 08:18:05.881
300,-189.0,997.0,183.0,1031.1251136501332,2021-09-02 08:18:05.900
301,-189.0,997.0,-34.0,1015.3255635509232,2021-09-02 08:18:05.901
302,-278.0,1028.0,-21.0,1065.1333249880036,2021-09-02 08:18:05.903
303,-391.0,994.0,-295.0,1108.1254441623475,2021-09-02 08:18:05.911
304,-176.0,908.0,-68.0,927.3963553950382,2021-09-02 08:18:05.920
305,-1.0,908.0,-68.0,910.5432444425692,2021-09-02 08:18:05.929
306,-1.0,923.0,24.0,923.3125148074188,2021-09-02 08:18:05.930
307,-15.0,1229.0,-174.0,1241.346849192441,2021-09-02 08:18:05.939
308,-251.0,1133.0,-101.0,1164.856643540311,2021-09-02 08:18:05.951
309,-160.0,885.0,150.0,911.7702561500896,2021-09-02 08:18:05.959
310,-63.0,885.0,150.0,899.829983941411,2021-09-02 08:18:05.969
311,-63.0,1120.0,-11.0,1121.8244069371997,2021-09-02 08:18:05.970
312,97.0,1129.0,-11.0,1133.2126896571535,2021-09-02 08:18:05.978
313,97.0,1129.0,-6.0,1133.175185044219,2021-09-02 08:18:05.979
314,-83.0,1084.0,82.0,1090.260977931431,2021-09-02 08:18:05.988
315,-278.0,898.0,78.0,943.2772657071728,2021-09-02 08:18:05.998
316,-297.0,965.0,28.0,1010.0584141523696,2021-09-02 08:18:06.008
317,-171.0,965.0,28.0,980.4335775563789,2021-09-02 08:18:06.018
318,-171.0,888.0,-193.0,924.6804853569693,2021-09-02 08:18:06.019
319,-261.0,929.0,-26.0,965.3175643279262,2021-09-02 08:18:06.027
320,-431.0,1020.0,5.0,1107.33283162742,2021-09-02 08:18:06.037
321,-160.0,1046.0,-35.0,1058.7450117946248,2021-09-02 08:18:06.047
322,-326.0,1046.0,-35.0,1096.1829226912814,2021-09-02 08:18:06.056
323,-326.0,943.0,-40.0,998.5614653089714,2021-09-02 08:18:06.057
324,-326.0,900.0,-258.0,991.3828725573184,2021-09-02 08:18:06.067
325,-104.0,900.0,-258.0,942.0084925307202,2021-09-02 08:18:06.076
326,-104.0,1101.0,-186.0,1121.433457678163,2021-09-02 08:18:06.077
327,-216.0,1092.0,22.0,1113.3750491186695,2021-09-02 08:18:06.086
328,-267.0,1092.0,22.0,1124.382941884125,2021-09-02 08:18:06.095
329,-267.0,939.0,-74.0,979.0229823655828,2021-09-02 08:18:06.096
330,-188.0,1064.0,-215.0,1101.6646495190812,2021-09-02 08:18:06.106
331,-276.0,1025.0,37.0,1062.1534729030452,2021-09-02 08:18:06.115
332,-85.0,1025.0,37.0,1029.1836570797266,2021-09-02 08:18:06.125
333,-85.0,1001.0,26.0,1004.9388041069964,2021-09-02 08:18:06.126
334,-282.0,1001.0,26.0,1040.2889021805431,2021-09-02 08:18:06.134
335,-282.0,1016.0,-51.0,1055.642458410991,2021-09-02 08:18:06.135
336,-204.0,867.0,8.0,890.7126360392559,2021-09-02 08:18:06.144
337,-297.0,829.0,111.0,887.5646455329324,2021-09-02 08:18:06.155
338,-442.0,829.0,111.0,946.0052853974972,2021-09-02 08:18:06.164
339,-442.0,891.0,31.0,995.090950617078,2021-09-02 08:18:06.165
340,-165.0,909.0,-105.0,929.8015917387968,2021-09-02 08:18:06.174
341,-213.0,1045.0,-105.0,1071.643130897595,2021-09-02 08:18:06.183
342,-213.0,1045.0,-145.0,1076.2987503476904,2021-09-02 08:18:06.184
343,-669.0,833.0,147.0,1078.452131529258,2021-09-02 08:18:06.193
344,-302.0,770.0,173.0,845.0047337145514,2021-09-02 08:18:06.203
345,-64.0,770.0,173.0,791.7859559249583,2021-09-02 08:18:06.213
346,-64.0,966.0,-188.0,986.2028188968028,2021-09-02 08:18:06.214
347,-137.0,966.0,-188.0,993.614110205768,2021-09-02 08:18:06.222
348,-137.0,1128.0,-190.0,1152.064668323788,2021-09-02 08:18:06.223
349,-68.0,1001.0,-66.0,1005.475509398414,2021-09-02 08:18:06.233
350,122.0,1134.0,-39.0,1141.2103224208936,2021-09-02 08:18:06.242
351,-53.0,1234.0,64.0,1236.7946474657788,2021-09-02 08:18:06.252
352,-251.0,1082.0,-76.0,1113.328792405909,2021-09-02 08:18:06.262
353,-241.0,861.0,-76.0,897.3171122852834,2021-09-02 08:18:06.271
354,-241.0,861.0,99.0,899.5571132507374,2021-09-02 08:18:06.272
355,162.0,1032.0,58.0,1046.246624845213,2021-09-02 08:18:06.282
356,-137.0,1064.0,-103.0,1077.7170315068793,2021-09-02 08:18:06.291
357,-201.0,956.0,80.0,980.171923695022,2021-09-02 08:18:06.301
358,-312.0,828.0,80.0,888.441331771547,2021-09-02 08:18:06.310
359,-312.0,828.0,78.0,888.2634744263663,2021-09-02 08:18:06.311
360,-339.0,857.0,-95.0,926.4960874175348,2021-09-02 08:18:06.321
361,-117.0,930.0,69.0,939.8670118692324,2021-09-02 08:18:06.330
362,-377.0,862.0,36.0,941.5248270757388,2021-09-02 08:18:06.340
363,-127.0,862.0,36.0,872.0487371701194,2021-09-02 08:18:06.349
364,-127.0,900.0,12.0,908.9955995493048,2021-09-02 08:18:06.350
365,-52.0,1220.0,-183.0,1234.7441030432176,2021-09-02 08:18:06.360
366,-227.0,1112.0,-115.0,1140.7444937408202,2021-09-02 08:18:06.369
367,-116.0,843.0,122.0,859.6446940451619,2021-09-02 08:18:06.379
368,-14.0,1073.0,-24.0,1073.3596787656968,2021-09-02 08:18:06.390
369,232.0,1287.0,-71.0,1309.6694239387282,2021-09-02 08:18:06.398
370,-176.0,1125.0,147.0,1148.1332675260307,2021-09-02 08:18:06.408
371,-226.0,995.0,-2.0,1020.3455297104016,2021-09-02 08:18:06.418
372,-1.0,932.0,-17.0,932.155566415821,2021-09-02 08:18:06.429
373,91.0,1187.0,137.0,1198.3401019743935,2021-09-02 08:18:06.438
374,-165.0,1078.0,-8.0,1090.5837886196548,2021-09-02 08:18:06.447
375,-318.0,883.0,21.0,938.751298268077,2021-09-02 08:18:06.457
376,-211.0,1054.0,-12.0,1074.9795346889168,2021-09-02 08:18:06.467
377,-333.0,1006.0,-135.0,1068.2462262980384,2021-09-02 08:18:06.497
378,-333.0,1006.0,-135.0,1068.2462262980384,2021-09-02 08:18:06.499
379,-333.0,906.0,-158.0,978.1048001109084,2021-09-02 08:18:06.500
380,-140.0,1069.0,-164.0,1090.5306047974996,2021-09-02 08:18:06.502
381,-178.0,1131.0,5.0,1144.9323124097773,2021-09-02 08:18:06.506
382,-270.0,862.0,5.0,903.3100242995204,2021-09-02 08:18:06.515
383,-270.0,862.0,-47.0,904.5181037436454,2021-09-02 08:18:06.516
384,-74.0,977.0,-120.0,987.119546964804,2021-09-02 08:18:06.525
385,35.0,1037.0,-30.0,1038.0240844990062,2021-09-02 08:18:06.535
386,-98.0,1128.0,-16.0,1132.3621328885915,2021-09-02 08:18:06.547
387,80.0,1128.0,-16.0,1130.9465062504062,2021-09-02 08:18:06.554
388,80.0,1199.0,24.0,1201.9055703340423,2021-09-02 08:18:06.555
389,-109.0,1028.0,-87.0,1037.4169846305776,2021-09-02 08:18:06.564
390,-3.0,992.0,48.0,993.165142360524,2021-09-02 08:18:06.574
391,-345.0,798.0,257.0,906.5748728042269,2021-09-02 08:18:06.584
392,-131.0,798.0,257.0,848.5363869628692,2021-09-02 08:18:06.594
393,-131.0,917.0,-112.0,933.0562683997144,2021-09-02 08:18:06.595
394,-40.0,1232.0,-280.0,1264.0506318973144,2021-09-02 08:18:06.605
395,-447.0,1145.0,-101.0,1233.3024770914878,2021-09-02 08:18:06.613
396,-430.0,782.0,159.0,906.4794537108936,2021-09-02 08:18:06.623
397,79.0,889.0,66.0,894.9402214673336,2021-09-02 08:18:06.633
398,14.0,989.0,-53.0,990.5180462767956,2021-09-02 08:18:06.652
399,-233.0,957.0,82.0,988.3632935312804,2021-09-02 08:18:06.656
400,-229.0,980.0,-70.0,1008.8315022837064,2021-09-02 08:18:06.662
401,-185.0,782.0,-169.0,821.1638082623954,2021-09-02 08:18:06.672
402,-90.0,917.0,-60.0,923.357460575264,2021-09-02 08:18:06.682
403,-135.0,1115.0,-60.0,1124.744415411786,2021-09-02 08:18:06.691
404,-135.0,1115.0,-25.0,1123.4211142754973,2021-09-02 08:18:06.692
405,-154.0,896.0,-7.0,909.1650015261256,2021-09-02 08:18:06.702
406,-15.0,1036.0,-136.0,1044.9961722417934,2021-09-02 08:18:06.712
407,-166.0,1036.0,-136.0,1057.9924385363065,2021-09-02 08:18:06.720
408,-166.0,1172.0,63.0,1185.3729370961698,2021-09-02 08:18:06.721
409,-217.0,954.0,32.0,978.891720263278,2021-09-02 08:18:06.731
410,-193.0,990.0,-78.0,1011.648654425043,2021-09-02 08:18:06.740
411,-282.0,969.0,-40.0,1009.9925742301276,2021-09-02 08:18:06.750
412,-183.0,975.0,16.0,992.1542218828685,2021-09-02 08:18:06.761
413,-164.0,1034.0,-30.0,1047.3547632010846,2021-09-02 08:18:06.770
414,-139.0,924.0,-16.0,934.5335735007064,2021-09-02 08:18:06.779
415,-82.0,958.0,-11.0,961.5659103774426,2021-09-02 08:18:06.789
416,-155.0,1159.0,-29.0,1169.678160863064,2021-09-02 08:18:06.799
417,-57.0,1159.0,-29.0,1160.763111060995,2021-09-02 08:18:06.808
418,-57.0,998.0,-58.0,1001.3076450322347,2021-09-02 08:18:06.809
419,-20.0,1195.0,-101.0,1199.427363369704,2021-09-02 08:18:06.818
420,-367.0,1026.0,86.0,1093.0512339318775,2021-09-02 08:18:06.828
421,-303.0,872.0,7.0,923.1695402254128,2021-09-02 08:18:06.838
422,-52.0,872.0,7.0,873.5771288214911,2021-09-02 08:18:06.847
423,-52.0,927.0,-164.0,942.8303134710932,2021-09-02 08:18:06.848
424,-132.0,1047.0,-4.0,1055.295693159031,2021-09-02 08:18:06.858
