,Acceleration_X,Acceleration_Y,Acceleration_Z,magnitude,time_stamp
0,-148.0,977.0,-172.0,1003.003988027964,2021-09-02 13:24:46.049
1,-350.0,1098.0,233.0,1175.7520997217057,2021-09-02 13:24:46.059
2,-360.0,899.0,233.0,996.0371479016231,2021-09-02 13:24:46.069
3,-360.0,899.0,158.0,981.2058907283424,2021-09-02 13:24:46.070
4,249.0,905.0,-14.0,938.7342541955098,2021-09-02 13:24:46.079
5,356.0,1294.0,-145.0,1349.8877731130096,2021-09-02 13:24:46.089
6,11.0,1290.0,-31.0,1290.419311696783,2021-09-02 13:24:46.098
7,310.0,1214.0,35.0,1253.443656491986,2021-09-02 13:24:46.108
8,-63.0,821.0,81.0,827.3880588937697,2021-09-02 13:24:46.118
9,-235.0,968.0,-93.0,1000.448899244734,2021-09-02 13:24:46.131
10,-501.0,736.0,-40.0,891.2334149929524,2021-09-02 13:24:46.137
11,-447.0,820.0,-217.0,958.8002920316618,2021-09-02 13:24:46.147
12,-301.0,1041.0,-119.0,1090.1573280953537,2021-09-02 13:24:46.163
13,-314.0,1106.0,-230.0,1172.4896588030106,2021-09-02 13:24:46.167
14,-389.0,1083.0,-63.0,1152.4664854129164,2021-09-02 13:24:46.176
15,-263.0,1029.0,-157.0,1073.6195788080618,2021-09-02 13:24:46.187
16,-168.0,1029.0,-157.0,1054.3784899171644,2021-09-02 13:24:46.196
17,-168.0,1015.0,-37.0,1029.474623290929,2021-09-02 13:24:46.197
18,-272.0,1015.0,-37.0,1051.4646927025178,2021-09-02 13:24:46.205
19,-272.0,1006.0,115.0,1048.448854260426,2021-09-02 13:24:46.206
20,-183.0,1095.0,-126.0,1117.3137428672396,2021-09-02 13:24:46.215
21,-136.0,1095.0,-126.0,1110.5840805630162,2021-09-02 13:24:46.225
22,-136.0,916.0,-95.0,930.9011762802752,2021-09-02 13:24:46.226
23,-188.0,1065.0,-45.0,1082.4019586087231,2021-09-02 13:24:46.236
24,-69.0,1096.0,66.0,1100.151353223728,2021-09-02 13:24:46.245
25,-273.0,811.0,-81.0,859.5411566644148,2021-09-02 13:24:46.254
26,-67.0,1079.0,-92.0,1084.985714191666,2021-09-02 13:24:46.264
27,-61.0,1137.0,83.0,1141.6562529938683,2021-09-02 13:24:46.274
28,-461.0,819.0,85.0,943.6667844106838,2021-09-02 13:24:46.284
29,-266.0,819.0,85.0,865.2987923255181,2021-09-02 13:24:46.294
30,-266.0,786.0,-86.0,834.2349788878431,2021-09-02 13:24:46.295
31,-385.0,927.0,-162.0,1016.7585750806334,2021-09-02 13:24:46.303
32,-375.0,824.0,38.0,906.1153348222288,2021-09-02 13:24:46.313
33,-48.0,1007.0,-55.0,1009.6425109908952,2021-09-02 13:24:46.323
34,-222.0,861.0,-231.0,918.676221527476,2021-09-02 13:24:46.332
35,-571.0,910.0,-61.0,1076.0399620831934,2021-09-02 13:24:46.343
36,-282.0,995.0,81.0,1037.3572190908974,2021-09-02 13:24:46.352
37,-124.0,1053.0,81.0,1063.3654122642884,2021-09-02 13:24:46.362
38,-124.0,1053.0,-15.0,1060.3820066372307,2021-09-02 13:24:46.363
39,145.0,1064.0,150.0,1084.2605775365994,2021-09-02 13:24:46.371
40,-69.0,1112.0,32.0,1114.5981338581184,2021-09-02 13:24:46.382
41,-149.0,860.0,67.0,875.3799175215296,2021-09-02 13:24:46.391
42,173.0,1207.0,67.0,1221.1744347143858,2021-09-02 13:24:46.401
43,173.0,1207.0,30.0,1219.7040624676135,2021-09-02 13:24:46.402
44,-150.0,1161.0,30.0,1171.034158340396,2021-09-02 13:24:46.410
45,-150.0,1161.0,-107.0,1175.5296678519007,2021-09-02 13:24:46.411
46,-284.0,893.0,-107.0,943.1617040571568,2021-09-02 13:24:46.427
47,-284.0,893.0,85.0,940.9197627853292,2021-09-02 13:24:46.428
48,-73.0,1043.0,185.0,1061.792352581238,2021-09-02 13:24:46.430
49,-229.0,1020.0,-132.0,1053.691131214456,2021-09-02 13:24:46.440
50,-60.0,933.0,-132.0,944.1996610886916,2021-09-02 13:24:46.452
51,-60.0,933.0,-20.0,935.1411658140177,2021-09-02 13:24:46.453
52,-306.0,1033.0,-20.0,1077.555102999378,2021-09-02 13:24:46.459
53,-306.0,1033.0,20.0,1077.555102999378,2021-09-02 13:24:46.460
54,-359.0,838.0,-68.0,914.1930868257537,2021-09-02 13:24:46.469
55,81.0,1000.0,-109.0,1009.1788741348088,2021-09-02 13:24:46.479
56,-209.0,976.0,-151.0,1009.48402661954,2021-09-02 13:24:46.489
57,-145.0,884.0,52.0,897.3210127930806,2021-09-02 13:24:46.499
58,77.0,1155.0,-183.0,1171.9398448725942,2021-09-02 13:24:46.509
59,-242.0,1139.0,-183.0,1178.71709922271,2021-09-02 13:24:46.517
60,-242.0,1139.0,-124.0,1171.0085396785114,2021-09-02 13:24:46.518
61,-104.0,835.0,73.0,844.6123371109376,2021-09-02 13:24:46.528
62,-1.0,900.0,-18.0,900.1805374479055,2021-09-02 13:24:46.541
63,100.0,1220.0,8.0,1224.117641405433,2021-09-02 13:24:46.547
64,-120.0,1204.0,-69.0,1211.9311036523486,2021-09-02 13:24:46.559
65,-166.0,903.0,61.0,920.1554216544072,2021-09-02 13:24:46.567
66,13.0,921.0,61.0,923.1094192997924,2021-09-02 13:24:46.576
67,13.0,921.0,139.0,931.5207995530748,2021-09-02 13:24:46.577
68,162.0,1283.0,57.0,1294.4427372425555,2021-09-02 13:24:46.586
69,-251.0,1088.0,64.0,1118.4100321438466,2021-09-02 13:24:46.596
70,-550.0,912.0,-65.0,1066.9906278876117,2021-09-02 13:24:46.606
71,-305.0,951.0,105.0,1004.2166100996338,2021-09-02 13:24:46.616
72,-357.0,802.0,-129.0,887.2958920224978,2021-09-02 13:24:46.625
73,-206.0,1120.0,-275.0,1171.5208064733636,2021-09-02 13:24:46.635
74,-407.0,963.0,-93.0,1049.6032583790886,2021-09-02 13:24:46.645
75,-348.0,916.0,-93.0,984.280955825114,2021-09-02 13:24:46.655
76,-348.0,916.0,97.0,984.666948769989,2021-09-02 13:24:46.656
77,-225.0,1082.0,-244.0,1131.761900754748,2021-09-02 13:24:46.665
78,-196.0,1082.0,-244.0,1126.355183767536,2021-09-02 13:24:46.674
79,-196.0,908.0,-205.0,951.264947320146,2021-09-02 13:24:46.675
80,-311.0,990.0,42.0,1038.5494692117463,2021-09-02 13:24:46.700
81,-203.0,931.0,-32.0,953.4117683351722,2021-09-02 13:24:46.704
82,-270.0,1046.0,-169.0,1093.424437261213,2021-09-02 13:24:46.713
83,-41.0,1050.0,-81.0,1053.9174540731356,2021-09-02 13:24:46.723
84,-395.0,904.0,-81.0,989.8494835074674,2021-09-02 13:24:46.737
85,-395.0,904.0,62.0,988.476099862814,2021-09-02 13:24:46.738
86,155.0,1075.0,62.0,1087.885104227464,2021-09-02 13:24:46.742
87,155.0,1075.0,44.0,1087.007819659086,2021-09-02 13:24:46.743
88,-337.0,1018.0,-94.0,1076.4427527741548,2021-09-02 13:24:46.752
89,-382.0,819.0,-49.0,905.0337010299672,2021-09-02 13:24:46.762
90,-81.0,922.0,-14.0,925.6570639281052,2021-09-02 13:24:46.772
91,-241.0,936.0,-168.0,981.020387147994,2021-09-02 13:24:46.783
92,-266.0,847.0,-168.0,903.5424727150352,2021-09-02 13:24:46.791
93,-266.0,847.0,-72.0,890.7014090030395,2021-09-02 13:24:46.792
94,-529.0,878.0,48.0,1026.1720128711363,2021-09-02 13:24:46.801
95,-442.0,830.0,-96.0,945.2407100839448,2021-09-02 13:24:46.811
96,-80.0,975.0,-96.0,982.9755846408394,2021-09-02 13:24:46.821
97,-80.0,975.0,-150.0,989.709553353912,2021-09-02 13:24:46.822
98,-499.0,1018.0,-46.0,1134.6545729868628,2021-09-02 13:24:46.831
99,-654.0,844.0,-35.0,1068.305667868518,2021-09-02 13:24:46.841
100,-162.0,894.0,-108.0,914.955736634292,2021-09-02 13:24:46.850
101,-186.0,1112.0,-25.0,1127.7255871886564,2021-09-02 13:24:46.860
102,20.0,894.0,117.0,901.845330419801,2021-09-02 13:24:46.870
103,107.0,925.0,0.0,931.1680836454824,2021-09-02 13:24:46.879
104,62.0,1184.0,77.0,1188.1199434400553,2021-09-02 13:24:46.890
105,12.0,1260.0,69.0,1261.9449274829706,2021-09-02 13:24:46.899
106,-260.0,939.0,5.0,974.3438817994396,2021-09-02 13:24:46.914
107,-5.0,1025.0,42.0,1025.8723117425482,2021-09-02 13:24:46.918
108,69.0,1134.0,64.0,1137.8985016248157,2021-09-02 13:24:46.928
109,-425.0,934.0,43.0,1027.049171169521,2021-09-02 13:24:46.938
110,-101.0,778.0,2.0,784.5310701304314,2021-09-02 13:24:46.950
111,-176.0,914.0,-212.0,954.628723640767,2021-09-02 13:24:46.958
112,-562.0,900.0,102.0,1065.9493421359198,2021-09-02 13:24:46.967
113,-230.0,973.0,122.0,1007.2303609403364,2021-09-02 13:24:46.977
114,-364.0,973.0,122.0,1045.996653914342,2021-09-02 13:24:46.986
115,-364.0,869.0,-161.0,955.8127431667774,2021-09-02 13:24:46.987
116,-268.0,896.0,111.0,941.7860691261046,2021-09-02 13:24:46.997
117,-109.0,896.0,111.0,909.4053001824874,2021-09-02 13:24:47.007
118,-109.0,1118.0,-183.0,1138.1098365272132,2021-09-02 13:24:47.008
119,-88.0,947.0,-175.0,967.046017519332,2021-09-02 13:24:47.016
120,59.0,986.0,108.0,993.6503409147506,2021-09-02 13:24:47.026
121,57.0,1114.0,108.0,1120.673458238393,2021-09-02 13:24:47.035
122,57.0,1114.0,12.0,1115.5218509737942,2021-09-02 13:24:47.036
123,80.0,1114.0,12.0,1116.933301500139,2021-09-02 13:24:47.046
124,80.0,959.0,-26.0,962.6821905488852,2021-09-02 13:24:47.047
125,7.0,1098.0,-28.0,1098.3792605471026,2021-09-02 13:24:47.056
126,22.0,1128.0,16.0,1128.3279665061928,2021-09-02 13:24:47.065
127,143.0,953.0,16.0,963.8018468544248,2021-09-02 13:24:47.074
128,143.0,953.0,166.0,977.8619534474178,2021-09-02 13:24:47.075
129,67.0,1219.0,106.0,1225.432984703774,2021-09-02 13:24:47.084
130,-182.0,1023.0,-78.0,1041.987044065328,2021-09-02 13:24:47.094
131,83.0,1036.0,58.0,1040.936597492854,2021-09-02 13:24:47.104
132,-273.0,1036.0,58.0,1072.934760365233,2021-09-02 13:24:47.114
133,-273.0,1077.0,29.0,1111.440056863167,2021-09-02 13:24:47.115
134,-395.0,770.0,29.0,865.890293282007,2021-09-02 13:24:47.123
135,-395.0,770.0,94.0,870.4946869453024,2021-09-02 13:24:47.124
136,-537.0,1016.0,-101.0,1153.6143202994665,2021-09-02 13:24:47.133
137,-502.0,760.0,-20.0,911.0455531969848,2021-09-02 13:24:47.143
138,-180.0,980.0,-57.0,998.0225448355362,2021-09-02 13:24:47.154
139,-79.0,1143.0,-57.0,1147.1438445112278,2021-09-02 13:24:47.162
140,-79.0,1143.0,-243.0,1171.212619467533,2021-09-02 13:24:47.163
141,-376.0,1100.0,-17.0,1162.6112849959784,2021-09-02 13:24:47.179
142,-425.0,928.0,-17.0,1020.8320136045892,2021-09-02 13:24:47.182
143,-425.0,928.0,-24.0,1020.9725755376586,2021-09-02 13:24:47.183
144,-15.0,939.0,-131.0,948.2125289195455,2021-09-02 13:24:47.192
145,30.0,939.0,-131.0,948.5683950037552,2021-09-02 13:24:47.202
146,30.0,1024.0,-14.0,1024.5350164830872,2021-09-02 13:24:47.203
147,-216.0,1094.0,-194.0,1131.8692503995326,2021-09-02 13:24:47.212
148,-57.0,972.0,-106.0,979.422789197801,2021-09-02 13:24:47.221
149,13.0,931.0,97.0,936.1297986924676,2021-09-02 13:24:47.231
150,88.0,931.0,97.0,940.167006440877,2021-09-02 13:24:47.241
151,88.0,1273.0,43.0,1276.762311473831,2021-09-02 13:24:47.242
152,-295.0,1119.0,-14.0,1157.316724151172,2021-09-02 13:24:47.251
153,-340.0,1119.0,-14.0,1169.5969391204817,2021-09-02 13:24:47.260
154,-340.0,1021.0,-78.0,1078.946245185551,2021-09-02 13:24:47.261
155,-232.0,1041.0,68.0,1068.7043557504574,2021-09-02 13:24:47.270
156,-544.0,715.0,-78.0,901.8009758255976,2021-09-02 13:24:47.279
157,-283.0,715.0,-78.0,772.915260555774,2021-09-02 13:24:47.288
158,-283.0,755.0,-106.0,813.2342835862246,2021-09-02 13:24:47.289
159,-388.0,1008.0,-176.0,1094.341811318566,2021-09-02 13:24:47.300
160,-544.0,851.0,7.0,1010.042573360153,2021-09-02 13:24:47.309
161,-178.0,851.0,7.0,869.4446503372138,2021-09-02 13:24:47.318
162,-178.0,884.0,-33.0,902.3463858186612,2021-09-02 13:24:47.319
163,-260.0,884.0,-33.0,922.0330796668848,2021-09-02 13:24:47.328
164,-260.0,813.0,-189.0,874.2368100234627,2021-09-02 13:24:47.329
165,-590.0,932.0,-96.0,1107.2217483413158,2021-09-02 13:24:47.338
166,-191.0,1036.0,-96.0,1057.8246546569048,2021-09-02 13:24:47.348
167,-191.0,1036.0,-20.0,1053.649372419497,2021-09-02 13:24:47.349
168,-381.0,822.0,-20.0,906.2256893290986,2021-09-02 13:24:47.357
169,-381.0,822.0,-61.0,908.0561656637766,2021-09-02 13:24:47.358
170,-296.0,1153.0,-259.0,1218.238892828496,2021-09-02 13:24:47.368
171,-295.0,1089.0,-150.0,1138.176611954401,2021-09-02 13:24:47.377
172,-340.0,883.0,96.0,951.0546777131166,2021-09-02 13:24:47.387
173,32.0,1190.0,96.0,1194.294770984115,2021-09-02 13:24:47.397
174,32.0,1190.0,91.0,1193.9032624128306,2021-09-02 13:24:47.398
175,-298.0,1083.0,73.0,1125.6207176487114,2021-09-02 13:24:47.407
176,0.0,936.0,21.0,936.2355472849767,2021-09-02 13:24:47.417
177,203.0,1183.0,117.0,1205.9796847376824,2021-09-02 13:24:47.426
178,-206.0,1118.0,67.0,1138.7927818527828,2021-09-02 13:24:47.436
179,-56.0,976.0,21.0,977.8307624532988,2021-09-02 13:24:47.446
180,-341.0,976.0,21.0,1034.0686630973787,2021-09-02 13:24:47.464
181,-341.0,1005.0,-60.0,1062.9703664731203,2021-09-02 13:24:47.465
182,-496.0,793.0,-13.0,935.4325202813936,2021-09-02 13:24:47.467
183,168.0,1056.0,19.0,1069.448923511544,2021-09-02 13:24:47.476
184,-326.0,1059.0,19.0,1108.204854708731,2021-09-02 13:24:47.484
185,-326.0,1059.0,-126.0,1115.1829446328527,2021-09-02 13:24:47.485
186,-425.0,809.0,-77.0,917.0796039603106,2021-09-02 13:24:47.495
187,-249.0,819.0,72.0,859.0378338583231,2021-09-02 13:24:47.504
188,-380.0,819.0,72.0,905.728988163678,2021-09-02 13:24:47.513
189,-380.0,969.0,-135.0,1049.5646716615418,2021-09-02 13:24:47.514
190,-132.0,951.0,34.0,960.719001581628,2021-09-02 13:24:47.524
191,48.0,1057.0,34.0,1058.6354424446597,2021-09-02 13:24:47.534
192,48.0,1057.0,-94.0,1062.2565603468872,2021-09-02 13:24:47.535
193,-164.0,1025.0,-94.0,1042.2845101026878,2021-09-02 13:24:47.546
194,-164.0,1025.0,134.0,1046.650371423046,2021-09-02 13:24:47.547
195,-132.0,1025.0,134.0,1042.1156365778224,2021-09-02 13:24:47.555
196,-132.0,884.0,-70.0,896.5377850375298,2021-09-02 13:24:47.556
197,122.0,1047.0,-152.0,1064.9868543789637,2021-09-02 13:24:47.563
198,142.0,999.0,158.0,1021.3368690104162,2021-09-02 13:24:47.574
199,141.0,1303.0,158.0,1320.0962086151146,2021-09-02 13:24:47.583
200,141.0,1303.0,179.0,1322.7739791816286,2021-09-02 13:24:47.584
201,-256.0,1013.0,24.0,1045.122480860497,2021-09-02 13:24:47.592
202,24.0,936.0,107.0,942.4017190137124,2021-09-02 13:24:47.602
203,6.0,993.0,-26.0,993.3584448727458,2021-09-02 13:24:47.612
204,-117.0,1119.0,52.0,1126.3010254811988,2021-09-02 13:24:47.622
205,-1.0,1224.0,107.0,1228.6683848785235,2021-09-02 13:24:47.631
206,-379.0,1033.0,-60.0,1101.9664241709002,2021-09-02 13:24:47.641
207,-332.0,892.0,37.0,952.500393700706,2021-09-02 13:24:47.651
208,-287.0,892.0,37.0,937.764362726586,2021-09-02 13:24:47.660
209,-287.0,1010.0,-136.0,1058.7563459077826,2021-09-02 13:24:47.661
210,-188.0,1014.0,-256.0,1062.5798793502538,2021-09-02 13:24:47.671
211,-464.0,1014.0,-256.0,1144.1276152597663,2021-09-02 13:24:47.680
212,-464.0,1003.0,17.0,1105.257436075415,2021-09-02 13:24:47.681
213,-253.0,986.0,69.0,1020.2774132558262,2021-09-02 13:24:47.690
214,-101.0,986.0,69.0,993.558251940972,2021-09-02 13:24:47.715
215,-101.0,848.0,-113.0,861.4371712434981,2021-09-02 13:24:47.716
216,-180.0,1193.0,3.0,1206.5065271269775,2021-09-02 13:24:47.720
217,-23.0,814.0,195.0,837.3470009500243,2021-09-02 13:24:47.729
218,66.0,1176.0,195.0,1193.8831601124125,2021-09-02 13:24:47.743
219,66.0,1176.0,-198.0,1194.3768249593593,2021-09-02 13:24:47.744
220,-31.0,986.0,-165.0,1000.1909817629833,2021-09-02 13:24:47.748
221,207.0,991.0,157.0,1024.4896290348672,2021-09-02 13:24:47.758
222,-117.0,1107.0,76.0,1115.757142034054,2021-09-02 13:24:47.768
223,-380.0,931.0,-78.0,1008.585643364013,2021-09-02 13:24:47.778
224,-331.0,858.0,-162.0,933.7928035704708,2021-09-02 13:24:47.788
225,-544.0,854.0,-72.0,1015.1039355652208,2021-09-02 13:24:47.798
226,-639.0,826.0,14.0,1044.4103599639368,2021-09-02 13:24:47.807
227,-158.0,1075.0,-202.0,1105.1665032926037,2021-09-02 13:24:47.817
228,-386.0,1074.0,-113.0,1146.8395702974326,2021-09-02 13:24:47.828
229,-782.0,783.0,-44.0,1107.4967268574658,2021-09-02 13:24:47.836
230,-30.0,923.0,-159.0,937.0752371074587,2021-09-02 13:24:47.846
231,-101.0,1074.0,-146.0,1088.5738376426286,2021-09-02 13:24:47.856
232,-376.0,1140.0,-148.0,1209.495762704442,2021-09-02 13:24:47.866
233,-358.0,867.0,-148.0,949.6088668499258,2021-09-02 13:24:47.876
234,-358.0,867.0,30.0,938.48441649289,2021-09-02 13:24:47.877
235,-142.0,867.0,30.0,879.0637064513584,2021-09-02 13:24:47.885
236,-142.0,986.0,-96.0,1000.7876897724112,2021-09-02 13:24:47.886
237,-3.0,986.0,-96.0,990.6669470614228,2021-09-02 13:24:47.894
238,-3.0,1236.0,-314.0,1275.265070485348,2021-09-02 13:24:47.895
239,-81.0,965.0,-195.0,987.831463357996,2021-09-02 13:24:47.905
240,36.0,1015.0,139.0,1025.105848193249,2021-09-02 13:24:47.920
241,74.0,1284.0,162.0,1296.293176715823,2021-09-02 13:24:47.924
242,-279.0,1001.0,-78.0,1042.0777322253844,2021-09-02 13:24:47.935
243,-96.0,874.0,-35.0,879.9528396453983,2021-09-02 13:24:47.944
244,-267.0,894.0,-20.0,933.2336256265096,2021-09-02 13:24:47.955
245,-470.0,933.0,-24.0,1044.9712914716845,2021-09-02 13:24:47.963
246,32.0,1007.0,76.0,1010.3707240414284,2021-09-02 13:24:47.973
247,-360.0,800.0,-97.0,882.6148650459044,2021-09-02 13:24:47.983
248,-235.0,1020.0,-97.0,1051.205974107834,2021-09-02 13:24:47.992
249,-235.0,1020.0,-106.0,1052.0746171256103,2021-09-02 13:24:47.993
250,-219.0,1034.0,18.0,1057.0908191825336,2021-09-02 13:24:48.003
251,-589.0,684.0,-36.0,903.3675885263982,2021-09-02 13:24:48.013
252,-104.0,1014.0,75.0,1022.074850487967,2021-09-02 13:24:48.022
253,-151.0,1014.0,75.0,1027.921203205771,2021-09-02 13:24:48.032
254,-151.0,912.0,134.0,934.0776199010444,2021-09-02 13:24:48.033
255,92.0,917.0,-60.0,923.5545463046566,2021-09-02 13:24:48.041
256,112.0,1180.0,-168.0,1197.1499488368197,2021-09-02 13:24:48.051
257,-77.0,1130.0,37.0,1133.2246026273874,2021-09-02 13:24:48.062
258,2.0,1130.0,37.0,1130.607358900516,2021-09-02 13:24:48.070
259,2.0,848.0,149.0,860.9930313306838,2021-09-02 13:24:48.071
260,132.0,1265.0,149.0,1280.5662809866578,2021-09-02 13:24:48.080
261,132.0,1265.0,50.0,1272.8507375179545,2021-09-02 13:24:48.081
262,-310.0,1265.0,50.0,1303.389811223028,2021-09-02 13:24:48.090
263,-310.0,1008.0,18.0,1054.7454669255517,2021-09-02 13:24:48.091
264,37.0,917.0,178.0,934.8486508521044,2021-09-02 13:24:48.100
265,-4.0,1115.0,8.0,1115.0358738623615,2021-09-02 13:24:48.112
266,-229.0,1115.0,8.0,1138.3013660713932,2021-09-02 13:24:48.119
267,-229.0,879.0,8.0,908.375473028637,2021-09-02 13:24:48.120
268,133.0,1143.0,74.0,1153.0888950987255,2021-09-02 13:24:48.129
269,-315.0,1107.0,-134.0,1158.719120408393,2021-09-02 13:24:48.142
270,-227.0,906.0,-60.0,935.930018751402,2021-09-02 13:24:48.149
271,-37.0,1199.0,-316.0,1240.4942563349498,2021-09-02 13:24:48.159
272,-359.0,1199.0,-316.0,1290.8671504070433,2021-09-02 13:24:48.169
273,-359.0,1041.0,-51.0,1102.344320074268,2021-09-02 13:24:48.170
274,-541.0,835.0,47.0,996.0496975552976,2021-09-02 13:24:48.178
275,115.0,940.0,-96.0,951.861859725454,2021-09-02 13:24:48.195
276,17.0,1123.0,-49.0,1124.1970467849487,2021-09-02 13:24:48.198
277,-282.0,1118.0,-161.0,1164.2031609646144,2021-09-02 13:24:48.208
278,-295.0,915.0,-29.0,961.8165105673744,2021-09-02 13:24:48.219
279,-53.0,924.0,66.0,927.8690640386714,2021-09-02 13:24:48.227
280,245.0,1159.0,66.0,1186.4493246658285,2021-09-02 13:24:48.236
281,245.0,1159.0,-109.0,1189.6163247030531,2021-09-02 13:24:48.237
282,-162.0,1082.0,-9.0,1094.0973448464265,2021-09-02 13:24:48.246
283,127.0,1008.0,108.0,1021.6932024830154,2021-09-02 13:24:48.257
284,32.0,1008.0,0.0,1008.5078085964432,2021-09-02 13:24:48.267
285,29.0,1099.0,159.0,1110.8208676469849,2021-09-02 13:24:48.276
286,-263.0,1099.0,159.0,1141.1621269565512,2021-09-02 13:24:48.285
287,-263.0,783.0,-108.0,833.0198076876684,2021-09-02 13:24:48.286
288,-415.0,1004.0,-108.0,1091.7440176158511,2021-09-02 13:24:48.295
289,-415.0,1004.0,-49.0,1087.4934482561264,2021-09-02 13:24:48.296
290,-506.0,1004.0,-49.0,1125.3679398312358,2021-09-02 13:24:48.304
291,-506.0,863.0,-46.0,1001.4594350247044,2021-09-02 13:24:48.305
292,-275.0,883.0,-95.0,929.6983381721192,2021-09-02 13:24:48.316
293,-271.0,805.0,-81.0,853.244982405405,2021-09-02 13:24:48.325
294,-468.0,1061.0,-161.0,1170.7544576041553,2021-09-02 13:24:48.334
295,-316.0,1105.0,20.0,1149.4698778132465,2021-09-02 13:24:48.344
296,-447.0,753.0,-15.0,875.8099108824928,2021-09-02 13:24:48.354
297,-364.0,1087.0,-227.0,1168.586325437706,2021-09-02 13:24:48.365
298,-321.0,1057.0,-227.0,1127.7495289291855,2021-09-02 13:24:48.373
299,-321.0,1057.0,-145.0,1114.1431685380471,2021-09-02 13:24:48.374
300,-193.0,1057.0,-145.0,1084.2153845062337,2021-09-02 13:24:48.383
301,-193.0,871.0,127.0,901.1209685719226,2021-09-02 13:24:48.384
302,-72.0,1124.0,127.0,1133.4412203550742,2021-09-02 13:24:48.392
303,-72.0,1124.0,-152.0,1136.5139682379622,2021-09-02 13:24:48.393
304,-8.0,1026.0,-224.0,1050.198076555085,2021-09-02 13:24:48.403
305,-139.0,998.0,101.0,1012.6825761313364,2021-09-02 13:24:48.414
306,210.0,1154.0,1.0,1172.9522581929753,2021-09-02 13:24:48.422
307,-338.0,1063.0,44.0,1116.3104406929106,2021-09-02 13:24:48.432
308,-239.0,858.0,20.0,890.8900044337685,2021-09-02 13:24:48.442
309,-307.0,965.0,-114.0,1019.0534824041376,2021-09-02 13:24:48.451
310,-426.0,768.0,-156.0,891.9843047946528,2021-09-02 13:24:48.462
311,4.0,984.0,0.0,984.0081300477146,2021-09-02 13:24:48.471
312,-461.0,984.0,0.0,1086.6356335037058,2021-09-02 13:24:48.480
313,-461.0,1015.0,-130.0,1122.339520822465,2021-09-02 13:24:48.481
314,-596.0,845.0,-165.0,1047.1227244215456,2021-09-02 13:24:48.498
315,-319.0,737.0,9.0,803.1257684821226,2021-09-02 13:24:48.501
316,-410.0,906.0,-86.0,998.16431513053,2021-09-02 13:24:48.511
317,-251.0,906.0,-86.0,944.0513757206226,2021-09-02 13:24:48.520
318,-251.0,994.0,-171.0,1039.364228747555,2021-09-02 13:24:48.521
319,-465.0,1025.0,-97.0,1129.716336077336,2021-09-02 13:24:48.530
320,-437.0,917.0,-20.0,1016.0009842514918,2021-09-02 13:24:48.539
321,-170.0,1124.0,-20.0,1136.9591021668282,2021-09-02 13:24:48.549
322,-170.0,1124.0,-41.0,1137.5223074735725,2021-09-02 13:24:48.550
323,11.0,988.0,-63.0,990.0676744546304,2021-09-02 13:24:48.561
324,120.0,994.0,33.0,1001.7609495283792,2021-09-02 13:24:48.569
325,137.0,1237.0,118.0,1250.144791614155,2021-09-02 13:24:48.579
326,-316.0,928.0,15.0,980.4412272033444,2021-09-02 13:24:48.589
327,105.0,928.0,15.0,934.0417549553124,2021-09-02 13:24:48.597
328,105.0,920.0,66.0,928.3216037559396,2021-09-02 13:24:48.598
329,58.0,1026.0,-23.0,1027.8954226962974,2021-09-02 13:24:48.608
330,-263.0,1095.0,206.0,1144.827497922722,2021-09-02 13:24:48.619
331,-142.0,1095.0,206.0,1123.220815334189,2021-09-02 13:24:48.627
332,-142.0,1203.0,157.0,1221.4835242441873,2021-09-02 13:24:48.628
333,-248.0,928.0,-181.0,977.4707156738764,2021-09-02 13:24:48.637
334,-174.0,956.0,41.0,972.5703059419408,2021-09-02 13:24:48.647
335,2.0,956.0,41.0,956.880870328172,2021-09-02 13:24:48.656
336,2.0,1154.0,36.0,1154.563120838354,2021-09-02 13:24:48.657
337,-228.0,910.0,-99.0,943.3371613585464,2021-09-02 13:24:48.668
338,-305.0,1027.0,-99.0,1075.8972999315502,2021-09-02 13:24:48.676
339,-187.0,1003.0,-63.0,1022.2264915369784,2021-09-02 13:24:48.686
340,-79.0,782.0,20.0,786.2346977843193,2021-09-02 13:24:48.696
341,-29.0,1213.0,-268.0,1242.591646519483,2021-09-02 13:24:48.705
342,-111.0,1149.0,-61.0,1155.959774386635,2021-09-02 13:24:48.728
343,-111.0,780.0,195.0,811.6316898692411,2021-09-02 13:24:48.730
344,25.0,1076.0,-133.0,1084.4768323943115,2021-09-02 13:24:48.735
345,18.0,1093.0,-271.0,1126.2388734189562,2021-09-02 13:24:48.744
346,96.0,1018.0,157.0,1034.4993958432262,2021-09-02 13:24:48.754
347,-301.0,980.0,74.0,1027.8506700878297,2021-09-02 13:24:48.764
348,62.0,927.0,-23.0,929.355690787978,2021-09-02 13:24:48.775
349,131.0,1179.0,-7.0,1186.276106140556,2021-09-02 13:24:48.784
350,-157.0,1143.0,46.0,1154.6488643739274,2021-09-02 13:24:48.793
351,-586.0,847.0,46.0,1030.9806011754051,2021-09-02 13:24:48.803
352,-586.0,847.0,-40.0,1030.730323605549,2021-09-02 13:24:48.804
353,0.0,953.0,-41.0,953.8815440084792,2021-09-02 13:24:48.813
354,-370.0,1052.0,-70.0,1117.3647569169166,2021-09-02 13:24:48.824
355,-623.0,876.0,-70.0,1077.2209615487436,2021-09-02 13:24:48.832
356,-623.0,876.0,-143.0,1084.4141275361549,2021-09-02 13:24:48.833
357,-258.0,873.0,-24.0,910.642081171302,2021-09-02 13:24:48.842
358,-303.0,997.0,-77.0,1044.866977179392,2021-09-02 13:24:48.852
359,-287.0,997.0,-77.0,1040.3398483188078,2021-09-02 13:24:48.861
360,-287.0,1050.0,-240.0,1114.6609349932382,2021-09-02 13:24:48.862
361,-360.0,830.0,-59.0,906.631678246464,2021-09-02 13:24:48.873
362,-250.0,1009.0,65.0,1041.5402056569876,2021-09-02 13:24:48.881
363,-97.0,1009.0,65.0,1015.7337249496052,2021-09-02 13:24:48.890
364,-97.0,1251.0,-234.0,1276.3878720827772,2021-09-02 13:24:48.891
365,-393.0,1088.0,-22.0,1157.012100196018,2021-09-02 13:24:48.901
366,-403.0,1088.0,-22.0,1160.4468966738634,2021-09-02 13:24:48.910
367,-403.0,800.0,83.0,899.6099154633634,2021-09-02 13:24:48.911
368,116.0,981.0,-49.0,989.0490382180247,2021-09-02 13:24:48.926
369,-442.0,802.0,72.0,918.5597422051544,2021-09-02 13:24:48.930
370,-99.0,852.0,-53.0,859.3683727017186,2021-09-02 13:24:48.940
371,-175.0,1053.0,-53.0,1068.7576900308134,2021-09-02 13:24:48.949
372,-175.0,1053.0,-133.0,1075.6965185404292,2021-09-02 13:24:48.950
373,-423.0,810.0,18.0,913.9764767213652,2021-09-02 13:24:48.960
374,-1.0,1083.0,26.0,1083.312512620435,2021-09-02 13:24:48.970
375,-416.0,917.0,-178.0,1022.560022688155,2021-09-02 13:24:48.979
376,-386.0,954.0,-32.0,1029.6290594189734,2021-09-02 13:24:48.989
377,-208.0,954.0,-32.0,976.9360265646876,2021-09-02 13:24:48.998
378,-208.0,975.0,15.0,997.0526565833924,2021-09-02 13:24:48.999
379,-311.0,810.0,-122.0,876.1877652649573,2021-09-02 13:24:49.008
380,-285.0,948.0,-129.0,998.2835268599798,2021-09-02 13:24:49.019
381,-481.0,1045.0,-99.0,1154.6371724485575,2021-09-02 13:24:49.028
382,-478.0,951.0,-17.0,1064.5064584115964,2021-09-02 13:24:49.038
383,-293.0,960.0,-85.0,1007.3102799038636,2021-09-02 13:24:49.047
384,-344.0,896.0,-63.0,961.8321059311756,2021-09-02 13:24:49.057
385,-101.0,761.0,232.0,801.9638395838057,2021-09-02 13:24:49.067
386,171.0,761.0,232.0,813.7481182773943,2021-09-02 13:24:49.076
387,171.0,1149.0,47.0,1162.605264051389,2021-09-02 13:24:49.077
388,-119.0,1214.0,-90.0,1223.1340891333214,2021-09-02 13:24:49.086
389,113.0,975.0,-90.0,985.6439519420792,2021-09-02 13:24:49.096
390,113.0,975.0,166.0,995.4647155976952,2021-09-02 13:24:49.097
391,-172.0,975.0,166.0,1003.8749922176564,2021-09-02 13:24:49.105
392,-172.0,1011.0,127.0,1033.3605372763177,2021-09-02 13:24:49.106
393,-219.0,1011.0,127.0,1042.21446929123,2021-09-02 13:24:49.116
394,-219.0,979.0,-77.0,1006.1466095952418,2021-09-02 13:24:49.117
395,65.0,1129.0,51.0,1132.0189927735312,2021-09-02 13:24:49.126
396,-294.0,1007.0,-57.0,1050.5874547128385,2021-09-02 13:24:49.135
397,-106.0,924.0,-60.0,931.9935622095252,2021-09-02 13:24:49.145
398,116.0,1148.0,-10.0,1153.8890761247374,2021-09-02 13:24:49.157
399,-366.0,1148.0,-10.0,1204.9730287437972,2021-09-02 13:24:49.164
400,-366.0,1086.0,-34.0,1146.519951854306,2021-09-02 13:24:49.165
401,-378.0,832.0,-4.0,913.8511913873068,2021-09-02 13:24:49.175
402,-344.0,964.0,-114.0,1029.8679527007334,2021-09-02 13:24:49.184
403,-158.0,1076.0,-8.0,1087.5679289129484,2021-09-02 13:24:49.194
404,-222.0,1171.0,-201.0,1208.6877181472476,2021-09-02 13:24:49.211
405,-262.0,850.0,-36.0,890.1909907429978,2021-09-02 13:24:49.214
406,34.0,850.0,-36.0,851.4411312592316,2021-09-02 13:24:49.223
407,34.0,920.0,154.0,933.419519830178,2021-09-02 13:24:49.224
408,125.0,1277.0,-202.0,1298.9064631450565,2021-09-02 13:24:49.234
409,-209.0,1277.0,-202.0,1309.6617884018758,2021-09-02 13:24:49.242
410,-209.0,1066.0,-86.0,1089.6939937431976,2021-09-02 13:24:49.243
411,-101.0,888.0,120.0,901.7455295148404,2021-09-02 13:24:49.253
412,93.0,975.0,-18.0,979.5907308667228,2021-09-02 13:24:49.262
413,244.0,1042.0,-18.0,1070.3382642884444,2021-09-02 13:24:49.272
414,244.0,1042.0,131.0,1078.1748466737663,2021-09-02 13:24:49.273
415,-103.0,1171.0,-4.0,1175.5279664899513,2021-09-02 13:24:49.282
416,-33.0,1027.0,-51.0,1028.7949261150154,2021-09-02 13:24:49.292
417,41.0,973.0,108.0,979.8336593524432,2021-09-02 13:24:49.302
418,40.0,1220.0,137.0,1228.3195838217348,2021-09-02 13:24:49.311
419,-402.0,954.0,72.0,1037.7398517933095,2021-09-02 13:24:49.321
420,-673.0,860.0,72.0,1094.4007492687497,2021-09-02 13:24:49.332
421,-673.0,860.0,48.0,1093.084168762863,2021-09-02 13:24:49.333
422,-426.0,840.0,54.0,943.3938732046122,2021-09-02 13:24:49.341
423,-320.0,840.0,54.0,900.5087450991246,2021-09-02 13:24:49.349
424,-320.0,837.0,-260.0,933.0428714694732,2021-09-02 13:24:49.350
425,-252.0,837.0,-260.0,911.961073730672,2021-09-02 13:24:49.361
426,-252.0,1102.0,-203.0,1148.52818859617,2021-09-02 13:24:49.362
427,-366.0,1102.0,-203.0,1178.7998133695137,2021-09-02 13:24:49.370
428,-366.0,1128.0,49.0,1186.9039556762796,2021-09-02 13:24:49.371
429,-273.0,937.0,49.0,977.189336822706,2021-09-02 13:24:49.380
430,-273.0,937.0,-10.0,976.0112704267302,2021-09-02 13:24:49.381
431,-222.0,979.0,-262.0,1037.4820480374588,2021-09-02 13:24:49.389
432,-122.0,959.0,-161.0,980.0438765687992,2021-09-02 13:24:49.399
433,-296.0,994.0,-80.0,1040.2172849938613,2021-09-02 13:24:49.409
434,-61.0,1060.0,-44.0,1062.6650460046194,2021-09-02 13:24:49.418
435,-6.0,884.0,33.0,884.6360833698793,2021-09-02 13:24:49.428
436,23.0,1198.0,33.0,1198.675101935466,2021-09-02 13:24:49.438
437,23.0,1198.0,-138.0,1206.1413681654403,2021-09-02 13:24:49.439
438,-267.0,920.0,44.0,958.970802475237,2021-09-02 13:24:49.448
439,-341.0,914.0,-87.0,979.4110475178436,2021-09-02 13:24:49.458
440,7.0,1124.0,30.0,1124.4220737783478,2021-09-02 13:24:49.467
441,-571.0,889.0,-6.0,1056.5973689158989,2021-09-02 13:24:49.477
442,-274.0,791.0,-119.0,845.5282372576329,2021-09-02 13:24:49.488
443,65.0,947.0,-126.0,957.5541760130336,2021-09-02 13:24:49.497
444,-418.0,963.0,61.0,1051.5769111196764,2021-09-02 13:24:49.506
445,-392.0,871.0,61.0,957.092472021382,2021-09-02 13:24:49.516
446,-392.0,871.0,-42.0,956.0695581389464,2021-09-02 13:24:49.517
447,-404.0,859.0,-162.0,962.9854619878744,2021-09-02 13:24:49.525
448,-468.0,902.0,-70.0,1018.5911839398572,2021-09-02 13:24:49.542
449,-153.0,1054.0,-113.0,1071.0247429448118,2021-09-02 13:24:49.545
450,-283.0,1068.0,-131.0,1112.5978608643825,2021-09-02 13:24:49.556
451,-571.0,957.0,-131.0,1122.0744182094163,2021-09-02 13:24:49.565
452,-571.0,957.0,-93.0,1118.275010898482,2021-09-02 13:24:49.566
453,281.0,1295.0,70.0,1326.9837979417837,2021-09-02 13:24:49.576
454,-249.0,930.0,7.0,962.7824260963636,2021-09-02 13:24:49.584
455,87.0,881.0,233.0,915.4337769604092,2021-09-02 13:24:49.594
456,-13.0,1218.0,-54.0,1219.265762662103,2021-09-02 13:24:49.604
457,-328.0,961.0,131.0,1023.8486216233337,2021-09-02 13:24:49.614
458,-95.0,1027.0,198.0,1050.218072592545,2021-09-02 13:24:49.624
459,-203.0,982.0,-212.0,1024.9278023353645,2021-09-02 13:24:49.633
460,-108.0,1054.0,-7.0,1059.5418821358596,2021-09-02 13:24:49.643
461,-77.0,1017.0,184.0,1036.3754146061165,2021-09-02 13:24:49.653
462,-407.0,760.0,-40.0,863.0463486974497,2021-09-02 13:24:49.663
463,-125.0,814.0,-40.0,824.5125832878477,2021-09-02 13:24:49.673
464,-125.0,814.0,-204.0,848.4320833160425,2021-09-02 13:24:49.674
465,-230.0,1021.0,-204.0,1066.2818576717884,2021-09-02 13:24:49.682
466,-230.0,1021.0,-77.0,1049.414122260607,2021-09-02 13:24:49.683
467,-480.0,851.0,-1.0,977.0373585487916,2021-09-02 13:24:49.692
468,-61.0,1007.0,-15.0,1008.9573826480482,2021-09-02 13:24:49.702
469,-173.0,1139.0,-36.0,1152.6256981344811,2021-09-02 13:24:49.711
470,-86.0,940.0,43.0,944.9047571051804,2021-09-02 13:24:49.721
471,-123.0,1094.0,-158.0,1112.1730980382506,2021-09-02 13:24:49.747
472,10.0,982.0,63.0,984.0696113588712,2021-09-02 13:24:49.757
473,-105.0,936.0,-11.0,941.9352419354528,2021-09-02 13:24:49.762
474,165.0,880.0,119.0,903.2087244928496,2021-09-02 13:24:49.771
475,123.0,1265.0,-60.0,1272.3812321784694,2021-09-02 13:24:49.780
476,-152.0,1194.0,-60.0,1205.1306983062043,2021-09-02 13:24:49.789
477,-152.0,1194.0,0.0,1203.63615764898,2021-09-02 13:24:49.790
478,-145.0,768.0,246.0,819.3686593957569,2021-09-02 13:24:49.799
479,250.0,1173.0,36.0,1199.885411195586,2021-09-02 13:24:49.810
480,31.0,1245.0,-105.0,1249.8043846938608,2021-09-02 13:24:49.821
481,-49.0,1245.0,-105.0,1250.380342135944,2021-09-02 13:24:49.828
482,-49.0,1007.0,111.0,1014.2834909432372,2021-09-02 13:24:49.829
483,-158.0,1007.0,111.0,1025.345795329556,2021-09-02 13:24:49.838
484,-158.0,958.0,-128.0,979.3426366701289,2021-09-02 13:24:49.839
485,-445.0,976.0,-49.0,1073.7793069341576,2021-09-02 13:24:49.848
486,-373.0,976.0,-49.0,1045.995219874355,2021-09-02 13:24:49.858
487,-373.0,1058.0,-108.0,1127.0124222917864,2021-09-02 13:24:49.859
488,-374.0,957.0,-134.0,1036.1857941508367,2021-09-02 13:24:49.869
489,-473.0,951.0,2.0,1062.1365260643286,2021-09-02 13:24:49.878
490,-236.0,1079.0,-209.0,1124.1076460908894,2021-09-02 13:24:49.887
491,-265.0,1076.0,-76.0,1110.755148536346,2021-09-02 13:24:49.897
492,-330.0,1076.0,-76.0,1128.030141441265,2021-09-02 13:24:49.906
493,-330.0,946.0,-23.0,1002.17014523483,2021-09-02 13:24:49.907
494,62.0,1023.0,-24.0,1025.1580365972848,2021-09-02 13:24:49.917
495,159.0,1093.0,-39.0,1105.1927433710375,2021-09-02 13:24:49.933
496,-172.0,1099.0,-149.0,1122.3127906247882,2021-09-02 13:24:49.936
497,-96.0,790.0,50.0,797.3807120817509,2021-09-02 13:24:49.946
498,-542.0,784.0,50.0,954.4212906258956,2021-09-02 13:24:49.955
499,-542.0,784.0,74.0,955.9790792689972,2021-09-02 13:24:49.956
500,11.0,917.0,119.0,924.7545620325428,2021-09-02 13:24:49.967
501,-247.0,886.0,-267.0,957.754665872216,2021-09-02 13:24:49.975
502,-236.0,966.0,-33.0,994.9577880493222,2021-09-02 13:24:49.985
503,-271.0,966.0,-33.0,1003.8356439178676,2021-09-02 13:24:49.994
504,-271.0,967.0,150.0,1015.396474289723,2021-09-02 13:24:49.995
505,-511.0,815.0,-121.0,969.5292672219854,2021-09-02 13:24:50.005
506,-408.0,815.0,-121.0,919.4182943579054,2021-09-02 13:24:50.014
507,-408.0,806.0,-197.0,924.6128919715536,2021-09-02 13:24:50.015
508,-499.0,960.0,-41.0,1082.7197236588977,2021-09-02 13:24:50.024
509,-406.0,960.0,-41.0,1043.1284676395328,2021-09-02 13:24:50.033
510,-406.0,894.0,36.0,982.5314244338448,2021-09-02 13:24:50.034
511,-248.0,1010.0,36.0,1040.6248123122955,2021-09-02 13:24:50.043
512,-248.0,1010.0,-197.0,1058.4956306003346,2021-09-02 13:24:50.044
513,-251.0,912.0,-138.0,955.9231140630504,2021-09-02 13:24:50.053
514,-531.0,1054.0,-17.0,1180.324531643734,2021-09-02 13:24:50.064
515,-244.0,1116.0,-19.0,1142.5204593354115,2021-09-02 13:24:50.073
516,-284.0,793.0,-19.0,842.5354591944484,2021-09-02 13:24:50.082
517,-284.0,793.0,-62.0,844.5999052806009,2021-09-02 13:24:50.083
518,134.0,1078.0,151.0,1096.7410815684802,2021-09-02 13:24:50.092
519,-124.0,960.0,54.0,969.4802731360758,2021-09-02 13:24:50.102
520,-137.0,905.0,-23.0,915.5998034075805,2021-09-02 13:24:50.113
521,220.0,905.0,-23.0,931.6404886006188,2021-09-02 13:24:50.121
522,220.0,1237.0,20.0,1256.5703322934216,2021-09-02 13:24:50.122
523,-390.0,957.0,-16.0,1033.5400330901557,2021-09-02 13:24:50.131
524,-288.0,813.0,33.0,863.1349836497186,2021-09-02 13:24:50.141
525,-170.0,936.0,30.0,951.7856901634948,2021-09-02 13:24:50.151
526,-528.0,844.0,30.0,996.0020080301044,2021-09-02 13:24:50.161
527,-528.0,844.0,-77.0,998.5234098407508,2021-09-02 13:24:50.162
528,-354.0,748.0,-86.0,831.9951922938017,2021-09-02 13:24:50.170
529,-406.0,748.0,-86.0,855.415688422886,2021-09-02 13:24:50.180
530,-406.0,852.0,-146.0,955.0162302285758,2021-09-02 13:24:50.181
531,-479.0,740.0,-127.0,890.6009207271235,2021-09-02 13:24:50.190
532,-108.0,1002.0,-115.0,1014.3436301372428,2021-09-02 13:24:50.200
533,-44.0,880.0,-131.0,890.7844857203116,2021-09-02 13:24:50.210
534,123.0,889.0,-131.0,906.9790515772676,2021-09-02 13:24:50.227
535,123.0,889.0,128.0,906.5506053166586,2021-09-02 13:24:50.228
536,298.0,1320.0,-154.0,1361.954477947042,2021-09-02 13:24:50.231
537,-191.0,1027.0,-20.0,1044.8014165380905,2021-09-02 13:24:50.239
538,102.0,832.0,198.0,861.2966968472595,2021-09-02 13:24:50.250
539,109.0,1016.0,-43.0,1022.7345696709386,2021-09-02 13:24:50.258
540,209.0,1172.0,67.0,1192.3732637056237,2021-09-02 13:24:50.268
541,-90.0,1142.0,67.0,1147.4985838771215,2021-09-02 13:24:50.278
542,-90.0,1142.0,141.0,1154.185860249553,2021-09-02 13:24:50.279
543,-285.0,883.0,141.0,938.5067927298128,2021-09-02 13:24:50.287
544,-285.0,883.0,-61.0,929.857515966828,2021-09-02 13:24:50.288
545,33.0,883.0,-61.0,885.7194815515802,2021-09-02 13:24:50.298
546,33.0,962.0,116.0,969.5302986498152,2021-09-02 13:24:50.299
547,167.0,1249.0,104.0,1264.3994621953934,2021-09-02 13:24:50.307
548,-362.0,1098.0,63.0,1157.8501630176506,2021-09-02 13:24:50.317
549,-13.0,1098.0,63.0,1099.882721020746,2021-09-02 13:24:50.326
550,-13.0,888.0,59.0,890.0528074221214,2021-09-02 13:24:50.327
551,-184.0,935.0,5.0,952.9459585936656,2021-09-02 13:24:50.337
552,-245.0,908.0,-103.0,946.0961896128744,2021-09-02 13:24:50.347
553,-390.0,1098.0,-195.0,1181.40975110247,2021-09-02 13:24:50.356
554,-334.0,1091.0,-69.0,1143.065177494267,2021-09-02 13:24:50.366
555,-233.0,963.0,74.0,993.546174065403,2021-09-02 13:24:50.375
556,-298.0,963.0,74.0,1010.7665407996052,2021-09-02 13:24:50.386
557,-298.0,1025.0,-247.0,1095.6450155045657,2021-09-02 13:24:50.387
558,-186.0,917.0,-82.0,939.2598149606956,2021-09-02 13:24:50.395
559,-68.0,1089.0,-44.0,1092.007783855042,2021-09-02 13:24:50.405
560,-54.0,1156.0,-44.0,1158.0967144414149,2021-09-02 13:24:50.414
561,-54.0,1156.0,3.0,1157.2644468746114,2021-09-02 13:24:50.415
562,-73.0,822.0,146.0,838.0507144558735,2021-09-02 13:24:50.424
563,-121.0,1128.0,146.0,1143.8273471114424,2021-09-02 13:24:50.434
564,-121.0,1128.0,-110.0,1139.791647626881,2021-09-02 13:24:50.435
565,37.0,1160.0,-103.0,1165.1514922961735,2021-09-02 13:24:50.444
566,-510.0,773.0,-102.0,931.6828859649618,2021-09-02 13:24:50.454
567,11.0,999.0,-35.0,999.6734466814652,2021-09-02 13:24:50.463
568,-421.0,925.0,-80.0,1019.4439660913198,2021-09-02 13:24:50.473
569,-314.0,925.0,-80.0,980.1127486161988,2021-09-02 13:24:50.483
570,-314.0,854.0,-115.0,917.1352135863063,2021-09-02 13:24:50.484
571,-153.0,799.0,-64.0,816.0306366797756,2021-09-02 13:24:50.494
572,-399.0,864.0,-25.0,952.009453734573,2021-09-02 13:24:50.502
573,-387.0,1054.0,-138.0,1131.2510773475533,2021-09-02 13:24:50.513
574,-414.0,974.0,-115.0,1064.564230096052,2021-09-02 13:24:50.522
575,-546.0,813.0,-61.0,981.2267831648298,2021-09-02 13:24:50.532
576,-214.0,1010.0,-227.0,1057.0832512153431,2021-09-02 13:24:50.543
577,-244.0,1200.0,-181.0,1237.859846670858,2021-09-02 13:24:50.563
578,-601.0,939.0,-42.0,1115.6549645835848,2021-09-02 13:24:50.568
579,-195.0,939.0,-42.0,959.953123855535,2021-09-02 13:24:50.570
580,-195.0,822.0,-11.0,844.884607505664,2021-09-02 13:24:50.571
581,3.0,983.0,-117.0,989.9429276478518,2021-09-02 13:24:50.581
582,-104.0,847.0,150.0,866.4438816218856,2021-09-02 13:24:50.591
583,-89.0,1011.0,-3.0,1014.9142820947984,2021-09-02 13:24:50.600
584,-166.0,1022.0,92.0,1039.472943370822,2021-09-02 13:24:50.610
585,106.0,1192.0,92.0,1200.2349769940884,2021-09-02 13:24:50.619
586,106.0,1192.0,130.0,1203.7441588643328,2021-09-02 13:24:50.620
587,-388.0,924.0,-140.0,1011.8893220110588,2021-09-02 13:24:50.630
588,-204.0,897.0,-61.0,921.925159652344,2021-09-02 13:24:50.640
589,-6.0,1001.0,80.0,1004.2096394677756,2021-09-02 13:24:50.649
590,-427.0,901.0,80.0,1000.2649648968018,2021-09-02 13:24:50.659
591,-427.0,901.0,-103.0,1002.366699367053,2021-09-02 13:24:50.660
592,-325.0,746.0,-103.0,820.213386869539,2021-09-02 13:24:50.668
593,-325.0,746.0,-144.0,826.3637213721329,2021-09-02 13:24:50.669
594,-400.0,805.0,-83.0,902.7258720120964,2021-09-02 13:24:50.678
595,-497.0,963.0,0.0,1083.6872242487682,2021-09-02 13:24:50.689
596,-307.0,1064.0,-161.0,1119.0469159065674,2021-09-02 13:24:50.698
597,-539.0,774.0,-86.0,947.0971439086912,2021-09-02 13:24:50.707
598,70.0,920.0,98.0,927.8491256664524,2021-09-02 13:24:50.717
599,65.0,1166.0,61.0,1169.402411490587,2021-09-02 13:24:50.727
600,-140.0,930.0,-71.0,943.1548123187412,2021-09-02 13:24:50.738
601,175.0,977.0,166.0,1006.334934303684,2021-09-02 13:24:50.766
602,53.0,968.0,83.0,972.9964028710486,2021-09-02 13:24:50.771
603,251.0,1290.0,23.0,1314.3933962098258,2021-09-02 13:24:50.776
604,-297.0,1290.0,23.0,1323.9478841706723,2021-09-02 13:24:50.785
605,-297.0,1078.0,-4.0,1118.1721692118797,2021-09-02 13:24:50.786
606,-155.0,920.0,141.0,943.5602789435342,2021-09-02 13:24:50.795
607,69.0,1079.0,60.0,1082.8674895849445,2021-09-02 13:24:50.805
608,-325.0,908.0,-139.0,974.3767238599248,2021-09-02 13:24:50.815
609,-221.0,837.0,21.0,865.9393743213205,2021-09-02 13:24:50.825
610,-204.0,869.0,21.0,892.8706513263834,2021-09-02 13:24:50.834
611,-204.0,869.0,-92.0,897.352216245104,2021-09-02 13:24:50.835
612,-146.0,974.0,-92.0,989.1693484939776,2021-09-02 13:24:50.844
613,-146.0,974.0,-62.0,986.8312925723424,2021-09-02 13:24:50.845
614,-252.0,1255.0,-62.0,1281.551013420847,2021-09-02 13:24:50.853
615,-252.0,1255.0,-286.0,1311.6116040962736,2021-09-02 13:24:50.854
616,-332.0,1004.0,-5.0,1057.4804962740448,2021-09-02 13:24:50.865
617,-258.0,900.0,146.0,947.5653011798184,2021-09-02 13:24:50.875
618,91.0,1112.0,-250.0,1143.3831378851098,2021-09-02 13:24:50.883
619,-24.0,1168.0,-70.0,1170.341830406826,2021-09-02 13:24:50.893
620,-18.0,960.0,59.0,961.9797295161682,2021-09-02 13:24:50.903
621,-24.0,968.0,-72.0,970.9706483720298,2021-09-02 13:24:50.913
622,247.0,1013.0,-72.0,1045.1612315810416,2021-09-02 13:24:50.929
623,247.0,1013.0,-49.0,1043.829008985667,2021-09-02 13:24:50.930
624,-3.0,1134.0,-59.0,1135.5377580688366,2021-09-02 13:24:50.939
625,-80.0,971.0,88.0,978.2561014376552,2021-09-02 13:24:50.942
626,136.0,966.0,78.0,978.639872476081,2021-09-02 13:24:50.955
627,203.0,1325.0,-19.0,1340.5950171472368,2021-09-02 13:24:50.961
628,-337.0,861.0,-216.0,949.4977619773518,2021-09-02 13:24:50.971
629,-481.0,832.0,-88.0,965.0538845059378,2021-09-02 13:24:50.981
630,-301.0,942.0,-88.0,992.8287868509856,2021-09-02 13:24:50.991
631,-301.0,942.0,97.0,993.6669462148774,2021-09-02 13:24:50.992
632,-523.0,942.0,97.0,1081.8049731813956,2021-09-02 13:24:51.001
633,-523.0,889.0,-107.0,1036.9662482453325,2021-09-02 13:24:51.002
634,-509.0,878.0,-201.0,1034.5849409304196,2021-09-02 13:24:51.010
635,-360.0,841.0,-94.0,919.6287294337862,2021-09-02 13:24:51.020
636,-320.0,1043.0,-6.0,1091.0018331790282,2021-09-02 13:24:51.030
637,-355.0,1089.0,-209.0,1164.3139610946869,2021-09-02 13:24:51.040
638,-297.0,936.0,-90.0,986.1059780774071,2021-09-02 13:24:51.052
639,-352.0,1025.0,-55.0,1085.151602311861,2021-09-02 13:24:51.059
640,-125.0,1067.0,-42.0,1075.1176679787195,2021-09-02 13:24:51.069
641,-140.0,944.0,-42.0,955.24865872714,2021-09-02 13:24:51.078
642,-140.0,944.0,-1.0,954.3254161972214,2021-09-02 13:24:51.079
643,-145.0,1106.0,-195.0,1132.3806780407374,2021-09-02 13:24:51.088
644,-294.0,1017.0,103.0,1063.641857017671,2021-09-02 13:24:51.099
645,-283.0,850.0,-55.0,897.5600258478538,2021-09-02 13:24:51.108
646,225.0,850.0,-55.0,880.9937570720919,2021-09-02 13:24:51.117
647,225.0,1137.0,-43.0,1159.8461104819037,2021-09-02 13:24:51.118
648,-548.0,984.0,-81.0,1129.2125574930524,2021-09-02 13:24:51.127
649,-477.0,831.0,67.0,960.5097604917922,2021-09-02 13:24:51.137
650,-100.0,890.0,43.0,896.6320315491746,2021-09-02 13:24:51.147
651,-283.0,862.0,43.0,908.2851975013134,2021-09-02 13:24:51.157
652,-283.0,862.0,-148.0,919.2589406690588,2021-09-02 13:24:51.158
653,-305.0,858.0,-59.0,912.5075342154717,2021-09-02 13:24:51.166
654,-512.0,953.0,-63.0,1083.661386227266,2021-09-02 13:24:51.176
655,-639.0,726.0,-127.0,975.4619418511415,2021-09-02 13:24:51.186
656,-185.0,899.0,-152.0,930.3386480201711,2021-09-02 13:24:51.197
657,-348.0,939.0,-103.0,1006.6945912241706,2021-09-02 13:24:51.207
658,-652.0,938.0,-119.0,1148.5247058727125,2021-09-02 13:24:51.215
659,250.0,1280.0,-65.0,1305.8043498166178,2021-09-02 13:24:51.225
660,-89.0,1280.0,-65.0,1284.7357704991327,2021-09-02 13:24:51.234
661,-89.0,1104.0,25.0,1107.863710029352,2021-09-02 13:24:51.235
662,183.0,1104.0,25.0,1119.3435576265224,2021-09-02 13:24:51.252
663,183.0,854.0,252.0,909.015401409679,2021-09-02 13:24:51.253
664,14.0,1056.0,-88.0,1059.752801364545,2021-09-02 13:24:51.257
665,166.0,1056.0,-88.0,1072.583796260227,2021-09-02 13:24:51.263
666,166.0,1218.0,38.0,1229.8471449737158,2021-09-02 13:24:51.264
667,42.0,1286.0,256.0,1311.905484400458,2021-09-02 13:24:51.274
668,-341.0,1286.0,256.0,1354.847961949975,2021-09-02 13:24:51.283
669,-341.0,829.0,0.0,896.3938866368958,2021-09-02 13:24:51.284
670,129.0,996.0,20.0,1004.5182925163684,2021-09-02 13:24:51.294
671,247.0,1231.0,107.0,1260.0869017651123,2021-09-02 13:24:51.303
672,-425.0,1231.0,107.0,1306.6885627417116,2021-09-02 13:24:51.313
673,-425.0,1041.0,118.0,1130.5883424129229,2021-09-02 13:24:51.314
674,-198.0,795.0,118.0,827.7396933819231,2021-09-02 13:24:51.323
675,-198.0,795.0,-38.0,820.1664465216801,2021-09-02 13:24:51.324
676,-289.0,871.0,-126.0,926.3034060177044,2021-09-02 13:24:51.332
677,-497.0,790.0,-109.0,939.6754758958008,2021-09-02 13:24:51.343
678,-307.0,1171.0,-242.0,1234.5258199000943,2021-09-02 13:24:51.352
679,11.0,1113.0,-61.0,1114.7246296731762,2021-09-02 13:24:51.362
680,-75.0,1113.0,-61.0,1117.190673072417,2021-09-02 13:24:51.371
681,-75.0,1014.0,7.0,1016.7939810994162,2021-09-02 13:24:51.372
682,-127.0,1017.0,-145.0,1035.1053086522163,2021-09-02 13:24:51.381
683,-154.0,939.0,-145.0,962.5289606032642,2021-09-02 13:24:51.391
684,-154.0,939.0,-31.0,952.0493684678332,2021-09-02 13:24:51.392
685,260.0,1100.0,63.0,1132.0640441247128,2021-09-02 13:24:51.401
686,-28.0,1167.0,5.0,1167.3465637932893,2021-09-02 13:24:51.411
687,-67.0,1167.0,5.0,1168.932418919075,2021-09-02 13:24:51.420
688,-67.0,851.0,218.0,881.0300789416897,2021-09-02 13:24:51.421
689,12.0,851.0,218.0,878.5607548712837,2021-09-02 13:24:51.430
690,12.0,1100.0,-44.0,1100.9450485832615,2021-09-02 13:24:51.431
691,129.0,1137.0,-98.0,1148.4833477242933,2021-09-02 13:24:51.440
692,80.0,936.0,214.0,963.4791123838648,2021-09-02 13:24:51.450
693,84.0,1198.0,214.0,1219.8590082464448,2021-09-02 13:24:51.459
694,84.0,1198.0,179.0,1214.2079723012855,2021-09-02 13:24:51.460
695,-274.0,994.0,-118.0,1037.8034495992003,2021-09-02 13:24:51.470
696,-400.0,825.0,-99.0,922.1854477272996,2021-09-02 13:24:51.479
697,-136.0,842.0,27.0,853.3399088288324,2021-09-02 13:24:51.490
698,-415.0,845.0,27.0,941.7956253880138,2021-09-02 13:24:51.498
699,-415.0,845.0,-79.0,944.7174180674346,2021-09-02 13:24:51.499
700,-416.0,1022.0,-101.0,1108.034746747592,2021-09-02 13:24:51.508
701,-408.0,967.0,9.0,1049.5875380357752,2021-09-02 13:24:51.518
702,-449.0,967.0,9.0,1066.194635139382,2021-09-02 13:24:51.527
703,-449.0,884.0,16.0,991.6213995270574,2021-09-02 13:24:51.528
704,-297.0,985.0,-169.0,1042.590523647707,2021-09-02 13:24:51.538
705,-278.0,1159.0,-133.0,1199.2722793427688,2021-09-02 13:24:51.548
706,-448.0,996.0,-133.0,1100.1858933834772,2021-09-02 13:24:51.556
707,-448.0,996.0,-77.0,1094.8282970402254,2021-09-02 13:24:51.557
708,-131.0,838.0,-13.0,848.2770773750756,2021-09-02 13:24:51.567
709,107.0,990.0,-88.0,999.6464374967782,2021-09-02 13:24:51.579
710,0.0,1321.0,-254.0,1345.197754978799,2021-09-02 13:24:51.587
711,-147.0,1063.0,23.0,1073.3624737245102,2021-09-02 13:24:51.596
712,-122.0,772.0,157.0,797.1932011752233,2021-09-02 13:24:51.606
713,-16.0,1139.0,165.0,1151.0004344047834,2021-09-02 13:24:51.616
714,-497.0,825.0,-25.0,963.4619867955352,2021-09-02 13:24:51.625
715,-193.0,881.0,-71.0,904.6828173453944,2021-09-02 13:24:51.636
716,62.0,1012.0,-4.0,1013.9053210236152,2021-09-02 13:24:51.645
717,-419.0,908.0,-119.0,1007.0680215357849,2021-09-02 13:24:51.655
718,-416.0,777.0,-119.0,889.351449090853,2021-09-02 13:24:51.664
719,-416.0,777.0,-164.0,896.4825709404506,2021-09-02 13:24:51.665
720,-457.0,868.0,-157.0,993.4394797872692,2021-09-02 13:24:51.675
721,-637.0,802.0,17.0,1024.3349061708284,2021-09-02 13:24:51.684
722,-214.0,977.0,-103.0,1005.4521371005186,2021-09-02 13:24:51.694
723,-422.0,886.0,-148.0,992.4636013476768,2021-09-02 13:24:51.703
724,-628.0,849.0,-80.0,1059.0491017889583,2021-09-02 13:24:51.713
725,-195.0,1040.0,-41.0,1058.9173716584312,2021-09-02 13:24:51.723
726,-380.0,1034.0,-138.0,1110.2252023801298,2021-09-02 13:24:51.733
727,343.0,1034.0,-138.0,1098.1115608170237,2021-09-02 13:24:51.743
728,343.0,1058.0,140.0,1120.9875110811895,2021-09-02 13:24:51.744
729,-60.0,1155.0,140.0,1165.0,2021-09-02 13:24:51.752
730,-60.0,1155.0,31.0,1156.972774096262,2021-09-02 13:24:51.753
731,-87.0,886.0,209.0,914.4648708397716,2021-09-02 13:24:51.783
732,-87.0,886.0,209.0,914.4648708397716,2021-09-02 13:24:51.784
733,-87.0,1088.0,-54.0,1092.807851362718,2021-09-02 13:24:51.785
734,-38.0,1048.0,165.0,1061.5898454676365,2021-09-02 13:24:51.793
735,121.0,1253.0,131.0,1265.6267222210504,2021-09-02 13:24:51.801
736,-330.0,976.0,-117.0,1036.9016346790086,2021-09-02 13:24:51.812
737,-206.0,976.0,-117.0,1004.3410775229696,2021-09-02 13:24:51.820
738,-206.0,840.0,-19.0,865.0994162522594,2021-09-02 13:24:51.821
739,-424.0,945.0,16.0,1035.8846460875843,2021-09-02 13:24:51.831
740,-411.0,791.0,-64.0,893.6990544920588,2021-09-02 13:24:51.841
741,210.0,1016.0,-85.0,1040.9519681522297,2021-09-02 13:24:51.850
742,-159.0,990.0,-112.0,1008.9226927768052,2021-09-02 13:24:51.860
743,-93.0,990.0,-112.0,1000.6462911538722,2021-09-02 13:24:51.869
744,-93.0,894.0,94.0,903.726175342952,2021-09-02 13:24:51.870
745,16.0,1152.0,-168.0,1164.295495138584,2021-09-02 13:24:51.879
746,-82.0,1245.0,-168.0,1258.957108085895,2021-09-02 13:24:51.889
747,-82.0,1245.0,-130.0,1254.451673042848,2021-09-02 13:24:51.890
748,-41.0,902.0,79.0,906.3807147109871,2021-09-02 13:24:51.900
749,-69.0,880.0,-56.0,884.4755508209371,2021-09-02 13:24:51.908
750,265.0,1038.0,32.0,1071.77096433893,2021-09-02 13:24:51.918
751,79.0,1234.0,-24.0,1236.7590711209682,2021-09-02 13:24:51.928
752,-25.0,1234.0,-24.0,1234.48653293586,2021-09-02 13:24:51.953
753,-25.0,1036.0,56.0,1037.8135670726222,2021-09-02 13:24:51.954
754,-25.0,918.0,168.0,933.580741018151,2021-09-02 13:24:51.955
755,220.0,918.0,168.0,958.8263659286804,2021-09-02 13:24:51.957
756,220.0,1371.0,64.0,1390.0133092887995,2021-09-02 13:24:51.958
757,-284.0,1122.0,73.0,1159.6848709886665,2021-09-02 13:24:51.967
758,-52.0,1122.0,73.0,1125.5740757497929,2021-09-02 13:24:51.977
759,-52.0,861.0,186.0,882.3950362507713,2021-09-02 13:24:51.978
760,-26.0,861.0,186.0,881.2451418305806,2021-09-02 13:24:51.987
761,-26.0,983.0,-135.0,992.56737806559,2021-09-02 13:24:51.988
762,-498.0,839.0,-135.0,984.9619281982426,2021-09-02 13:24:51.996
763,-498.0,839.0,-82.0,979.1062250848984,2021-09-02 13:24:51.997
764,-404.0,977.0,-272.0,1091.6634096643525,2021-09-02 13:24:52.007
765,-248.0,988.0,-125.0,1026.2908944349062,2021-09-02 13:24:52.016
766,-326.0,1030.0,29.0,1080.748351837744,2021-09-02 13:24:52.026
767,-321.0,1082.0,29.0,1128.9844994507232,2021-09-02 13:24:52.036
768,-321.0,1082.0,-207.0,1147.4380157550995,2021-09-02 13:24:52.037
769,-246.0,941.0,-131.0,981.4061340749812,2021-09-02 13:24:52.045
770,-347.0,944.0,-53.0,1007.1514285349548,2021-09-02 13:24:52.055
771,-258.0,1035.0,-52.0,1067.938668650967,2021-09-02 13:24:52.065
772,-108.0,943.0,-67.0,951.5261425730772,2021-09-02 13:24:52.075
773,-25.0,943.0,-67.0,945.70767153492,2021-09-02 13:24:52.084
774,-25.0,1124.0,-233.0,1148.1681061586758,2021-09-02 13:24:52.085
775,-298.0,1024.0,-96.0,1070.79223008014,2021-09-02 13:24:52.095
776,-373.0,1013.0,35.0,1080.0569429432876,2021-09-02 13:24:52.104
777,-277.0,961.0,86.0,1003.815720139907,2021-09-02 13:24:52.114
778,-239.0,1045.0,-81.0,1075.0381388583385,2021-09-02 13:24:52.123
779,-191.0,907.0,34.0,927.5160375971944,2021-09-02 13:24:52.133
780,-60.0,907.0,34.0,909.618051711816,2021-09-02 13:24:52.143
781,-60.0,974.0,-105.0,981.4789860205872,2021-09-02 13:24:52.144
782,-146.0,1104.0,-204.0,1132.1431004956926,2021-09-02 13:24:52.153
783,-101.0,1119.0,-31.0,1123.9764232402742,2021-09-02 13:24:52.163
784,-329.0,1049.0,148.0,1109.2997791399762,2021-09-02 13:24:52.172
785,-315.0,924.0,-32.0,976.7420334970744,2021-09-02 13:24:52.182
786,-26.0,930.0,-20.0,930.578314812891,2021-09-02 13:24:52.193
787,-66.0,983.0,113.0,991.6723249138296,2021-09-02 13:24:52.201
788,-231.0,983.0,113.0,1016.0802133690036,2021-09-02 13:24:52.211
789,-231.0,967.0,106.0,999.8429876735648,2021-09-02 13:24:52.212
790,-189.0,967.0,106.0,990.9823409122888,2021-09-02 13:24:52.221
791,-189.0,910.0,-58.0,931.2276842963807,2021-09-02 13:24:52.222
792,-129.0,908.0,17.0,917.2753130876248,2021-09-02 13:24:52.231
793,-140.0,1020.0,9.0,1029.6023504246675,2021-09-02 13:24:52.243
794,-275.0,1025.0,4.0,1061.2568020983422,2021-09-02 13:24:52.250
795,-186.0,1025.0,4.0,1041.7470902287178,2021-09-02 13:24:52.267
796,-186.0,1060.0,-11.0,1076.251364691353,2021-09-02 13:24:52.268
797,-76.0,1092.0,22.0,1094.8625484507177,2021-09-02 13:24:52.271
798,-249.0,915.0,23.0,948.5541629237626,2021-09-02 13:24:52.280
