,Acceleration_X,Acceleration_Y,Acceleration_Z,magnitude,time_stamp
0,-211.0,1013.0,-136.0,1043.640742784604,2021-09-02 13:25:13.364
1,-32.0,1170.0,-211.0,1189.3044185573349,2021-09-02 13:25:13.374
2,-763.0,785.0,43.0,1095.5560232137834,2021-09-02 13:25:13.383
3,-402.0,659.0,123.0,781.6738450274513,2021-09-02 13:25:13.394
4,-303.0,875.0,-87.0,930.055374695507,2021-09-02 13:25:13.404
5,-653.0,748.0,27.0,993.2985452521312,2021-09-02 13:25:13.412
6,-587.0,805.0,-228.0,1022.045987223667,2021-09-02 13:25:13.423
7,-188.0,992.0,-372.0,1076.007434918551,2021-09-02 13:25:13.432
8,-282.0,1321.0,-368.0,1399.9960714230594,2021-09-02 13:25:13.446
9,-551.0,1105.0,-368.0,1288.4292762895448,2021-09-02 13:25:13.452
10,-551.0,1105.0,-147.0,1243.4769800844726,2021-09-02 13:25:13.453
11,292.0,902.0,302.0,995.0236178101504,2021-09-02 13:25:13.462
12,306.0,1293.0,124.0,1334.489040794266,2021-09-02 13:25:13.471
13,-252.0,1145.0,-29.0,1172.761697873869,2021-09-02 13:25:13.481
14,76.0,871.0,171.0,890.8748509190278,2021-09-02 13:25:13.491
15,6.0,1082.0,73.0,1084.4763713424095,2021-09-02 13:25:13.501
16,-162.0,1052.0,18.0,1064.5524881376211,2021-09-02 13:25:13.510
17,27.0,1173.0,83.0,1176.2427470552157,2021-09-02 13:25:13.520
18,-360.0,838.0,-82.0,915.7335857114776,2021-09-02 13:25:13.530
19,-303.0,846.0,-68.0,901.193098065004,2021-09-02 13:25:13.539
20,-3.0,846.0,-68.0,848.7337627312819,2021-09-02 13:25:13.549
21,-3.0,996.0,23.0,996.2700437130488,2021-09-02 13:25:13.550
22,-499.0,816.0,-36.0,957.1588164980772,2021-09-02 13:25:13.561
23,-372.0,650.0,-149.0,763.6000261917229,2021-09-02 13:25:13.569
24,-320.0,1057.0,-193.0,1121.1146239345912,2021-09-02 13:25:13.579
25,-682.0,823.0,-52.0,1070.1200867192429,2021-09-02 13:25:13.588
26,-40.0,1259.0,-374.0,1313.985159733549,2021-09-02 13:25:13.599
27,-157.0,1122.0,18.0,1133.0741370272292,2021-09-02 13:25:13.609
28,-82.0,824.0,213.0,855.02573060698,2021-09-02 13:25:13.618
29,127.0,824.0,213.0,860.5079895038743,2021-09-02 13:25:13.627
30,127.0,1127.0,-210.0,1153.4114617082666,2021-09-02 13:25:13.628
31,-130.0,1085.0,-203.0,1111.4558020902136,2021-09-02 13:25:13.638
32,136.0,1044.0,226.0,1076.8045319369714,2021-09-02 13:25:13.647
33,89.0,1068.0,78.0,1074.5366443262883,2021-09-02 13:25:13.658
34,142.0,1089.0,108.0,1103.5166514375758,2021-09-02 13:25:13.667
35,65.0,1273.0,65.0,1276.3146163857875,2021-09-02 13:25:13.676
36,-35.0,1140.0,39.0,1141.2037504319726,2021-09-02 13:25:13.686
37,144.0,979.0,173.0,1004.5426820200324,2021-09-02 13:25:13.696
38,240.0,1177.0,173.0,1213.6136123165395,2021-09-02 13:25:13.705
39,240.0,1177.0,104.0,1205.713481719434,2021-09-02 13:25:13.706
40,-490.0,921.0,-184.0,1059.3380008288195,2021-09-02 13:25:13.716
41,-778.0,700.0,-28.0,1046.932662591057,2021-09-02 13:25:13.725
42,-151.0,967.0,-28.0,979.1189917471728,2021-09-02 13:25:13.734
43,-151.0,967.0,-55.0,980.262719886868,2021-09-02 13:25:13.735
44,-243.0,1091.0,-197.0,1134.9621139051294,2021-09-02 13:25:13.745
45,-595.0,1196.0,-197.0,1350.2777492056955,2021-09-02 13:25:13.754
46,-595.0,1196.0,-200.0,1350.7186975828831,2021-09-02 13:25:13.755
47,-460.0,1196.0,-200.0,1296.9255953985949,2021-09-02 13:25:13.765
48,-460.0,879.0,-30.0,992.5426942958172,2021-09-02 13:25:13.766
49,-153.0,930.0,-25.0,942.8329650579684,2021-09-02 13:25:13.781
50,-32.0,1201.0,-266.0,1230.520621525702,2021-09-02 13:25:13.784
51,-158.0,1089.0,-129.0,1107.9377238816269,2021-09-02 13:25:13.793
52,-154.0,937.0,-24.0,949.8742021973226,2021-09-02 13:25:13.804
53,88.0,1006.0,-39.0,1010.5943795608604,2021-09-02 13:25:13.814
54,51.0,1038.0,40.0,1040.021634390362,2021-09-02 13:25:13.823
55,-18.0,1237.0,-89.0,1240.3281823775512,2021-09-02 13:25:13.832
56,62.0,1076.0,-76.0,1080.4610127163312,2021-09-02 13:25:13.842
57,-456.0,905.0,0.0,1013.3908426663428,2021-09-02 13:25:13.854
58,-36.0,883.0,21.0,883.983031511352,2021-09-02 13:25:13.863
59,-378.0,758.0,-171.0,864.1116825966421,2021-09-02 13:25:13.872
60,-558.0,925.0,-251.0,1109.049142283605,2021-09-02 13:25:13.881
61,-323.0,931.0,9.0,985.480086049434,2021-09-02 13:25:13.892
62,-676.0,675.0,36.0,955.9796022928524,2021-09-02 13:25:13.901
63,-352.0,836.0,-225.0,934.5720945973084,2021-09-02 13:25:13.912
64,-479.0,836.0,-225.0,989.4250855926384,2021-09-02 13:25:13.920
65,-479.0,966.0,-177.0,1092.669208864238,2021-09-02 13:25:13.921
66,-504.0,976.0,66.0,1100.430824722754,2021-09-02 13:25:13.930
67,-175.0,1057.0,-124.0,1078.540680734853,2021-09-02 13:25:13.940
68,-382.0,1054.0,-259.0,1150.6176602155904,2021-09-02 13:25:13.950
69,-503.0,1054.0,-259.0,1196.2466300892972,2021-09-02 13:25:13.959
70,-503.0,893.0,-50.0,1026.1374176980391,2021-09-02 13:25:13.960
71,274.0,893.0,-50.0,935.427709660132,2021-09-02 13:25:13.969
72,274.0,1272.0,78.0,1303.5121786926272,2021-09-02 13:25:13.970
73,-216.0,1065.0,22.0,1086.9061597028513,2021-09-02 13:25:13.979
74,181.0,997.0,112.0,1019.467508064872,2021-09-02 13:25:13.989
75,-82.0,989.0,112.0,998.6936467205546,2021-09-02 13:25:13.998
76,-82.0,989.0,33.0,992.9420929742076,2021-09-02 13:25:13.999
77,-331.0,839.0,142.0,913.0421677009228,2021-09-02 13:25:14.009
78,302.0,1181.0,175.0,1231.4990864795636,2021-09-02 13:25:14.019
79,-344.0,1078.0,175.0,1145.008733591146,2021-09-02 13:25:14.027
80,-344.0,1078.0,-143.0,1140.556443145187,2021-09-02 13:25:14.028
81,-488.0,876.0,127.0,1010.7665407996052,2021-09-02 13:25:14.038
82,-189.0,806.0,158.0,842.8054342492103,2021-09-02 13:25:14.048
83,-217.0,878.0,-181.0,922.3524272207452,2021-09-02 13:25:14.057
84,-217.0,906.0,-221.0,957.4789814925444,2021-09-02 13:25:14.077
85,-683.0,906.0,-221.0,1155.9264682496027,2021-09-02 13:25:14.079
86,-683.0,850.0,-1.0,1090.40818045354,2021-09-02 13:25:14.080
87,-723.0,684.0,18.0,995.4441219877688,2021-09-02 13:25:14.088
88,-124.0,1175.0,-151.0,1191.1347530821188,2021-09-02 13:25:14.096
89,-76.0,1129.0,-87.0,1134.8947087725803,2021-09-02 13:25:14.106
90,88.0,873.0,82.0,881.2474113437156,2021-09-02 13:25:14.115
91,319.0,873.0,82.0,933.0669858054137,2021-09-02 13:25:14.125
92,319.0,1326.0,0.0,1363.8317344892662,2021-09-02 13:25:14.126
93,-155.0,1165.0,-84.0,1178.2639772139348,2021-09-02 13:25:14.136
94,225.0,914.0,224.0,967.5727362839448,2021-09-02 13:25:14.145
95,44.0,1023.0,79.0,1026.988802275857,2021-09-02 13:25:14.155
96,164.0,1164.0,59.0,1176.9762104647657,2021-09-02 13:25:14.164
97,17.0,1355.0,132.0,1361.52047358826,2021-09-02 13:25:14.175
98,-399.0,1355.0,132.0,1418.6789629792922,2021-09-02 13:25:14.195
99,-399.0,889.0,53.0,975.8744796335234,2021-09-02 13:25:14.196
100,-11.0,903.0,132.0,912.6631361022532,2021-09-02 13:25:14.204
101,298.0,1286.0,88.0,1323.005668922095,2021-09-02 13:25:14.207
102,-444.0,928.0,-185.0,1045.2487742159758,2021-09-02 13:25:14.214
103,-542.0,1034.0,-209.0,1186.0021079239275,2021-09-02 13:25:14.223
104,-222.0,1034.0,-209.0,1078.0171612734189,2021-09-02 13:25:14.232
105,-222.0,1040.0,29.0,1063.8256436089516,2021-09-02 13:25:14.233
106,-272.0,939.0,29.0,978.0316968278688,2021-09-02 13:25:14.243
107,-272.0,939.0,-55.0,979.1475884666212,2021-09-02 13:25:14.244
108,-307.0,1121.0,-380.0,1222.8205101322108,2021-09-02 13:25:14.253
109,-319.0,966.0,-89.0,1021.1943987312112,2021-09-02 13:25:14.271
110,-59.0,966.0,-89.0,971.883737902842,2021-09-02 13:25:14.274
111,-59.0,933.0,99.0,940.0909530465656,2021-09-02 13:25:14.275
112,47.0,1140.0,-292.0,1177.74063358619,2021-09-02 13:25:14.282
113,-137.0,1140.0,-292.0,1184.7501846380949,2021-09-02 13:25:14.292
114,-137.0,1078.0,-236.0,1112.0022481991662,2021-09-02 13:25:14.293
115,104.0,914.0,-236.0,949.6883699403716,2021-09-02 13:25:14.301
116,104.0,914.0,141.0,930.6411768238067,2021-09-02 13:25:14.302
117,40.0,914.0,141.0,925.6765093703092,2021-09-02 13:25:14.310
118,40.0,1126.0,-13.0,1126.785250169703,2021-09-02 13:25:14.311
119,108.0,1037.0,88.0,1046.3159178756673,2021-09-02 13:25:14.321
120,-75.0,1008.0,36.0,1011.4272094421824,2021-09-02 13:25:14.331
121,144.0,1094.0,2.0,1103.4382628856042,2021-09-02 13:25:14.341
122,-731.0,605.0,2.0,948.8888238355428,2021-09-02 13:25:14.350
123,-731.0,605.0,43.0,949.8605160759132,2021-09-02 13:25:14.351
124,110.0,953.0,-146.0,970.373639378152,2021-09-02 13:25:14.360
125,-303.0,941.0,-156.0,1000.8126697839112,2021-09-02 13:25:14.369
126,-794.0,906.0,-84.0,1207.612520637311,2021-09-02 13:25:14.380
127,-324.0,906.0,-84.0,965.8509201735018,2021-09-02 13:25:14.389
128,-324.0,859.0,-14.0,918.1791764138412,2021-09-02 13:25:14.390
129,-427.0,798.0,-191.0,924.9940540349436,2021-09-02 13:25:14.399
130,-400.0,1165.0,-191.0,1246.4774366188904,2021-09-02 13:25:14.408
131,-400.0,1165.0,-213.0,1250.037599434513,2021-09-02 13:25:14.409
132,-315.0,962.0,-133.0,1020.959352765819,2021-09-02 13:25:14.418
133,-345.0,919.0,-20.0,981.8278871574182,2021-09-02 13:25:14.428
134,-194.0,1044.0,-277.0,1097.4064880435144,2021-09-02 13:25:14.439
135,-285.0,1162.0,-113.0,1201.764536005286,2021-09-02 13:25:14.448
136,-294.0,1028.0,61.0,1070.9533136416358,2021-09-02 13:25:14.457
137,-67.0,884.0,-44.0,887.626610687174,2021-09-02 13:25:14.470
138,-343.0,1148.0,23.0,1198.3663880466609,2021-09-02 13:25:14.477
139,-209.0,695.0,184.0,748.7068852361383,2021-09-02 13:25:14.487
140,-275.0,922.0,-32.0,962.6697252952332,2021-09-02 13:25:14.497
141,-320.0,885.0,-32.0,941.6204118433288,2021-09-02 13:25:14.506
142,-320.0,885.0,-101.0,946.4808503081296,2021-09-02 13:25:14.507
143,110.0,1129.0,44.0,1135.19910147956,2021-09-02 13:25:14.517
144,-569.0,728.0,-48.0,925.2291608028792,2021-09-02 13:25:14.525
145,-391.0,728.0,-112.0,833.9118658467452,2021-09-02 13:25:14.536
146,-196.0,875.0,40.0,897.5750664986189,2021-09-02 13:25:14.546
147,-392.0,869.0,-23.0,953.6005453018576,2021-09-02 13:25:14.557
148,-366.0,869.0,-23.0,943.2104749206296,2021-09-02 13:25:14.565
149,-366.0,833.0,-164.0,924.5220386772831,2021-09-02 13:25:14.566
150,-628.0,904.0,-166.0,1113.1738408712272,2021-09-02 13:25:14.575
151,-605.0,804.0,0.0,1006.201272112096,2021-09-02 13:25:14.584
152,-37.0,1049.0,-165.0,1062.541763885072,2021-09-02 13:25:14.594
153,29.0,1069.0,61.0,1071.131644570358,2021-09-02 13:25:14.605
154,108.0,987.0,160.0,1005.700253554706,2021-09-02 13:25:14.614
155,279.0,1292.0,47.0,1322.6163464890335,2021-09-02 13:25:14.624
156,-87.0,1292.0,47.0,1295.7785304595843,2021-09-02 13:25:14.633
157,-87.0,947.0,90.0,955.2371433314348,2021-09-02 13:25:14.634
158,289.0,1007.0,162.0,1060.1009385902837,2021-09-02 13:25:14.643
159,70.0,1007.0,162.0,1022.3468100405069,2021-09-02 13:25:14.653
160,70.0,1244.0,58.0,1247.3171208638162,2021-09-02 13:25:14.654
161,-136.0,1057.0,144.0,1075.3980658342286,2021-09-02 13:25:14.663
162,12.0,1074.0,176.0,1088.3914736894992,2021-09-02 13:25:14.673
163,-168.0,982.0,-116.0,1002.9975074744702,2021-09-02 13:25:14.683
164,32.0,1023.0,23.0,1023.7587606462764,2021-09-02 13:25:14.692
165,78.0,1023.0,23.0,1026.2270703893948,2021-09-02 13:25:14.701
166,78.0,1080.0,151.0,1093.2909036482467,2021-09-02 13:25:14.702
167,-441.0,958.0,20.0,1054.819889839019,2021-09-02 13:25:14.712
168,-244.0,748.0,-86.0,791.4771001109256,2021-09-02 13:25:14.722
169,-216.0,748.0,-86.0,783.2981552384762,2021-09-02 13:25:14.730
170,-216.0,932.0,-125.0,964.834182644873,2021-09-02 13:25:14.731
171,-91.0,951.0,-96.0,960.1551957886808,2021-09-02 13:25:14.741
172,-259.0,1197.0,-131.0,1231.686242514708,2021-09-02 13:25:14.750
173,-283.0,1197.0,-131.0,1236.9555367918445,2021-09-02 13:25:14.760
174,-283.0,1006.0,-10.0,1045.0956893988223,2021-09-02 13:25:14.761
175,92.0,874.0,30.0,879.3406620872255,2021-09-02 13:25:14.770
176,228.0,1199.0,-248.0,1245.4272359315096,2021-09-02 13:25:14.780
177,-210.0,1122.0,-248.0,1168.1130082316522,2021-09-02 13:25:14.795
178,-210.0,1122.0,-146.0,1150.782342582645,2021-09-02 13:25:14.796
179,133.0,1038.0,121.0,1053.4581149718294,2021-09-02 13:25:14.800
180,108.0,892.0,61.0,900.5825892165582,2021-09-02 13:25:14.809
181,296.0,1028.0,151.0,1080.3707696897395,2021-09-02 13:25:14.820
182,-8.0,1298.0,37.0,1298.5518857558216,2021-09-02 13:25:14.829
183,-92.0,1111.0,-32.0,1115.261852660621,2021-09-02 13:25:14.838
184,62.0,878.0,260.0,917.7842883815348,2021-09-02 13:25:14.848
185,-126.0,1001.0,-45.0,1009.9019754411812,2021-09-02 13:25:14.858
186,-501.0,980.0,-45.0,1101.5561719676396,2021-09-02 13:25:14.868
187,-501.0,980.0,-208.0,1120.1182973239925,2021-09-02 13:25:14.869
188,-619.0,784.0,-220.0,1022.8474959640856,2021-09-02 13:25:14.879
189,-409.0,946.0,-220.0,1053.8486608617009,2021-09-02 13:25:14.887
190,-409.0,946.0,5.0,1030.641547774977,2021-09-02 13:25:14.888
191,-600.0,793.0,42.0,995.2954335271512,2021-09-02 13:25:14.898
192,-343.0,1031.0,-258.0,1116.7694480061675,2021-09-02 13:25:14.908
193,-287.0,1046.0,-171.0,1098.0555541501533,2021-09-02 13:25:14.916
194,-335.0,990.0,102.0,1050.109041957072,2021-09-02 13:25:14.926
195,-221.0,1163.0,-170.0,1195.955684797727,2021-09-02 13:25:14.936
196,-262.0,1019.0,-246.0,1080.5188568460987,2021-09-02 13:25:14.946
197,-252.0,871.0,-56.0,908.4497784687936,2021-09-02 13:25:14.956
198,166.0,998.0,79.0,1014.7911115101472,2021-09-02 13:25:14.966
199,171.0,1101.0,0.0,1114.2001615508768,2021-09-02 13:25:14.975
200,-32.0,880.0,-2.0,880.5838971954915,2021-09-02 13:25:14.985
201,-284.0,932.0,-45.0,975.34865560988,2021-09-02 13:25:14.995
202,-634.0,761.0,-45.0,991.5150024079312,2021-09-02 13:25:15.005
203,-634.0,761.0,26.0,990.8344967753192,2021-09-02 13:25:15.006
204,43.0,1006.0,26.0,1007.2541883755064,2021-09-02 13:25:15.014
205,43.0,1006.0,5.0,1006.9309807529014,2021-09-02 13:25:15.015
206,-396.0,974.0,-158.0,1063.2290439975764,2021-09-02 13:25:15.024
207,-650.0,937.0,-135.0,1148.3440251074587,2021-09-02 13:25:15.034
208,-224.0,647.0,43.0,686.0276962339057,2021-09-02 13:25:15.044
209,-385.0,773.0,-239.0,896.0329235022562,2021-09-02 13:25:15.053
210,-382.0,1033.0,-239.0,1127.0022182764326,2021-09-02 13:25:15.063
211,-382.0,1033.0,-296.0,1140.451226488884,2021-09-02 13:25:15.064
212,-658.0,1033.0,-296.0,1260.0273806548807,2021-09-02 13:25:15.072
213,-658.0,926.0,33.0,1136.4545745431271,2021-09-02 13:25:15.073
214,-616.0,795.0,98.0,1010.4875061078192,2021-09-02 13:25:15.082
215,-122.0,1017.0,-396.0,1098.1753047669574,2021-09-02 13:25:15.093
216,-283.0,1075.0,-210.0,1131.288645748732,2021-09-02 13:25:15.112
217,162.0,825.0,105.0,847.2862562322134,2021-09-02 13:25:15.115
218,386.0,1333.0,139.0,1394.7064207208628,2021-09-02 13:25:15.123
219,-280.0,1140.0,139.0,1182.0833303959582,2021-09-02 13:25:15.131
220,-280.0,1140.0,0.0,1173.882447266335,2021-09-02 13:25:15.132
221,81.0,949.0,256.0,986.2545310415562,2021-09-02 13:25:15.141
222,-92.0,1015.0,27.0,1019.5185138093374,2021-09-02 13:25:15.151
223,-12.0,1015.0,27.0,1015.4299581950496,2021-09-02 13:25:15.161
224,-12.0,1009.0,106.0,1014.6235755195124,2021-09-02 13:25:15.162
225,120.0,1364.0,106.0,1373.36520998604,2021-09-02 13:25:15.171
226,120.0,1364.0,175.0,1380.4060996677754,2021-09-02 13:25:15.172
227,-331.0,896.0,175.0,971.0829006835615,2021-09-02 13:25:15.180
228,-331.0,896.0,-34.0,955.7892027010976,2021-09-02 13:25:15.181
229,-136.0,803.0,94.0,819.8420579599464,2021-09-02 13:25:15.190
230,192.0,1247.0,-4.0,1261.7008361731398,2021-09-02 13:25:15.200
231,-334.0,1052.0,-97.0,1108.002256315392,2021-09-02 13:25:15.220
232,-432.0,688.0,38.0,813.2724020892385,2021-09-02 13:25:15.223
233,-404.0,834.0,-172.0,942.5263922034226,2021-09-02 13:25:15.230
234,-285.0,879.0,31.0,924.5685480265917,2021-09-02 13:25:15.239
235,-199.0,1147.0,-373.0,1222.4315931781214,2021-09-02 13:25:15.249
236,-40.0,1023.0,-120.0,1030.7904733746816,2021-09-02 13:25:15.259
237,34.0,933.0,-120.0,941.2996334855336,2021-09-02 13:25:15.276
238,34.0,933.0,227.0,960.8194419348516,2021-09-02 13:25:15.277
239,8.0,1183.0,227.0,1204.6086501432735,2021-09-02 13:25:15.280
240,8.0,1183.0,-144.0,1191.7587843183703,2021-09-02 13:25:15.281
241,-254.0,1041.0,-144.0,1081.1720492132602,2021-09-02 13:25:15.287
242,-254.0,1041.0,-85.0,1074.9055772485322,2021-09-02 13:25:15.288
243,35.0,815.0,134.0,826.6837363829047,2021-09-02 13:25:15.302
244,-21.0,991.0,3.0,991.2270173880452,2021-09-02 13:25:15.308
245,263.0,991.0,3.0,1025.309221649742,2021-09-02 13:25:15.316
246,263.0,1097.0,48.0,1129.1067265763677,2021-09-02 13:25:15.317
247,107.0,1137.0,23.0,1142.2552254203083,2021-09-02 13:25:15.327
248,18.0,1069.0,-21.0,1069.3577511759102,2021-09-02 13:25:15.336
249,188.0,1025.0,159.0,1054.1584321154007,2021-09-02 13:25:15.348
250,271.0,1314.0,159.0,1351.0433005644193,2021-09-02 13:25:15.356
251,-283.0,1314.0,159.0,1353.5013852966683,2021-09-02 13:25:15.365
252,-283.0,1033.0,74.0,1073.6172502339928,2021-09-02 13:25:15.366
253,-983.0,894.0,-130.0,1335.0749042656746,2021-09-02 13:25:15.376
254,-413.0,894.0,-130.0,993.3302572659306,2021-09-02 13:25:15.385
255,-413.0,755.0,112.0,867.8352378187924,2021-09-02 13:25:15.386
256,-296.0,847.0,-245.0,930.0806416650116,2021-09-02 13:25:15.396
257,-271.0,1250.0,-274.0,1308.0584849310064,2021-09-02 13:25:15.405
258,-513.0,946.0,-59.0,1077.7597134797718,2021-09-02 13:25:15.414
259,-430.0,855.0,42.0,957.9608551501464,2021-09-02 13:25:15.424
260,-98.0,1117.0,-321.0,1166.3335714965938,2021-09-02 13:25:15.434
261,-154.0,1117.0,-321.0,1172.3676897629002,2021-09-02 13:25:15.444
262,-154.0,1042.0,-168.0,1066.632082772687,2021-09-02 13:25:15.445
263,-306.0,1041.0,61.0,1086.7557223221786,2021-09-02 13:25:15.454
264,-13.0,943.0,61.0,945.0603155354688,2021-09-02 13:25:15.463
265,-13.0,943.0,-18.0,943.2613635679138,2021-09-02 13:25:15.464
266,62.0,927.0,-20.0,929.2862852748876,2021-09-02 13:25:15.473
267,38.0,1207.0,-81.0,1210.3115301442022,2021-09-02 13:25:15.483
268,114.0,1131.0,-30.0,1137.1266420236575,2021-09-02 13:25:15.493
269,-466.0,828.0,-105.0,955.9105606697732,2021-09-02 13:25:15.504
270,79.0,828.0,-105.0,838.3614972074994,2021-09-02 13:25:15.513
271,79.0,1169.0,6.0,1171.6816973905495,2021-09-02 13:25:15.514
272,-581.0,780.0,-111.0,978.9187913203016,2021-09-02 13:25:15.522
273,-448.0,780.0,-111.0,906.3249968968086,2021-09-02 13:25:15.531
274,-448.0,694.0,-26.0,826.4478204944339,2021-09-02 13:25:15.532
275,109.0,1042.0,57.0,1049.2349593870763,2021-09-02 13:25:15.542
276,-333.0,1045.0,-20.0,1096.9566992365742,2021-09-02 13:25:15.552
277,-566.0,780.0,-71.0,966.331723581504,2021-09-02 13:25:15.561
278,-650.0,889.0,-126.0,1108.466057216007,2021-09-02 13:25:15.571
279,-639.0,835.0,-61.0,1053.2174514315643,2021-09-02 13:25:15.581
280,-330.0,1026.0,-61.0,1079.4892310718064,2021-09-02 13:25:15.590
281,-330.0,1026.0,-133.0,1085.9396852496,2021-09-02 13:25:15.591
282,-375.0,1047.0,-183.0,1127.0860659239827,2021-09-02 13:25:15.601
283,-307.0,972.0,-135.0,1028.2305189012825,2021-09-02 13:25:15.610
284,382.0,1245.0,117.0,1307.5312615765636,2021-09-02 13:25:15.620
285,-112.0,1245.0,117.0,1255.4911389571812,2021-09-02 13:25:15.629
286,-112.0,1158.0,-32.0,1163.8436321087124,2021-09-02 13:25:15.630
287,93.0,851.0,334.0,918.9156653360524,2021-09-02 13:25:15.639
288,-141.0,1161.0,78.0,1172.1288325094645,2021-09-02 13:25:15.650
289,-208.0,1038.0,0.0,1058.634970138433,2021-09-02 13:25:15.660
290,91.0,1085.0,76.0,1091.4586570273746,2021-09-02 13:25:15.670
291,-262.0,951.0,-123.0,994.0694140752948,2021-09-02 13:25:15.678
292,-253.0,951.0,-123.0,991.73534776169,2021-09-02 13:25:15.687
293,-253.0,1057.0,10.0,1086.9029395488817,2021-09-02 13:25:15.688
294,-37.0,1054.0,61.0,1056.411851504895,2021-09-02 13:25:15.698
295,-549.0,857.0,-26.0,1018.0992093111556,2021-09-02 13:25:15.709
296,-200.0,733.0,-154.0,775.2451225257724,2021-09-02 13:25:15.718
297,-266.0,1044.0,-101.0,1082.0780933001092,2021-09-02 13:25:15.730
298,-659.0,812.0,11.0,1045.8231208000711,2021-09-02 13:25:15.737
299,-14.0,983.0,-98.0,987.972165599821,2021-09-02 13:25:15.746
300,-99.0,1042.0,-56.0,1048.189391283846,2021-09-02 13:25:15.758
301,-42.0,1042.0,-56.0,1044.3486008033908,2021-09-02 13:25:15.767
302,-42.0,829.0,94.0,835.3687808387383,2021-09-02 13:25:15.768
303,209.0,829.0,94.0,860.0918555596256,2021-09-02 13:25:15.775
304,209.0,1196.0,-238.0,1237.231182924194,2021-09-02 13:25:15.776
305,-135.0,1044.0,-138.0,1061.6991099176828,2021-09-02 13:25:15.786
306,160.0,1044.0,-138.0,1065.166653627497,2021-09-02 13:25:15.795
307,160.0,979.0,193.0,1010.5889372044402,2021-09-02 13:25:15.796
308,50.0,923.0,-30.0,924.839986159768,2021-09-02 13:25:15.810
309,111.0,1011.0,122.0,1024.3661454772898,2021-09-02 13:25:15.815
310,-13.0,1310.0,84.0,1312.7547371843684,2021-09-02 13:25:15.826
311,-162.0,1124.0,-20.0,1135.7904736349922,2021-09-02 13:25:15.835
312,-97.0,803.0,212.0,836.1590757744605,2021-09-02 13:25:15.845
313,363.0,1286.0,200.0,1351.134708310019,2021-09-02 13:25:15.854
314,-173.0,1207.0,-63.0,1220.961506354725,2021-09-02 13:25:15.864
315,-80.0,1011.0,112.0,1020.3259283189856,2021-09-02 13:25:15.875
316,-152.0,1020.0,-39.0,1032.0004844960104,2021-09-02 13:25:15.883
317,-405.0,966.0,-174.0,1061.8177809775084,2021-09-02 13:25:15.893
318,-373.0,1098.0,-174.0,1172.6077775624722,2021-09-02 13:25:15.902
319,-373.0,1098.0,-161.0,1170.7493326925282,2021-09-02 13:25:15.903
320,-362.0,1002.0,-1.0,1065.386784224396,2021-09-02 13:25:15.912
321,-230.0,937.0,60.0,966.679367732652,2021-09-02 13:25:15.923
322,-177.0,1168.0,60.0,1182.8579796408358,2021-09-02 13:25:15.932
323,-177.0,1168.0,-195.0,1197.3211766272238,2021-09-02 13:25:15.933
324,-275.0,1031.0,-167.0,1080.0347216640769,2021-09-02 13:25:15.943
325,-117.0,873.0,-16.0,880.9506229068687,2021-09-02 13:25:15.953
326,31.0,980.0,-1.0,980.4906934795456,2021-09-02 13:25:15.961
327,121.0,1058.0,33.0,1065.4079031056604,2021-09-02 13:25:15.971
328,-161.0,1142.0,33.0,1153.7651407457238,2021-09-02 13:25:15.981
329,-161.0,1142.0,-102.0,1157.7948868430883,2021-09-02 13:25:15.982
330,-29.0,974.0,35.0,975.0599981539598,2021-09-02 13:25:15.990
331,-640.0,974.0,35.0,1165.9764148558063,2021-09-02 13:25:16.001
332,-640.0,805.0,41.0,1029.2259227205657,2021-09-02 13:25:16.002
333,-141.0,857.0,103.0,874.60791215264,2021-09-02 13:25:16.010
334,-429.0,857.0,103.0,963.8978161610286,2021-09-02 13:25:16.019
335,-429.0,917.0,-235.0,1039.3050562755866,2021-09-02 13:25:16.020
336,-398.0,917.0,-235.0,1026.8972684743103,2021-09-02 13:25:16.030
337,-398.0,969.0,-126.0,1055.1023647021177,2021-09-02 13:25:16.031
338,-283.0,826.0,17.0,873.3006355202085,2021-09-02 13:25:16.040
339,-586.0,823.0,17.0,1010.4523739395142,2021-09-02 13:25:16.050
340,-586.0,823.0,-134.0,1019.157004587615,2021-09-02 13:25:16.051
341,-363.0,920.0,-246.0,1019.1589669919016,2021-09-02 13:25:16.059
342,-436.0,920.0,-246.0,1047.383406399013,2021-09-02 13:25:16.068
343,-436.0,965.0,12.0,1058.9924456765498,2021-09-02 13:25:16.069
344,-443.0,965.0,12.0,1061.8935916559624,2021-09-02 13:25:16.079
345,-443.0,1000.0,30.0,1094.143043664767,2021-09-02 13:25:16.080
346,-237.0,1044.0,30.0,1070.9831931454387,2021-09-02 13:25:16.089
347,-237.0,1044.0,-311.0,1114.821061874954,2021-09-02 13:25:16.090
348,-366.0,1016.0,-167.0,1092.749285060393,2021-09-02 13:25:16.099
349,-482.0,1030.0,12.0,1137.263381983259,2021-09-02 13:25:16.108
350,238.0,1259.0,112.0,1286.1838904293584,2021-09-02 13:25:16.118
351,-187.0,1259.0,112.0,1277.730018431124,2021-09-02 13:25:16.127
352,-187.0,1215.0,-25.0,1229.5604905818989,2021-09-02 13:25:16.128
353,-94.0,1045.0,-25.0,1049.517031781762,2021-09-02 13:25:16.143
354,-94.0,1045.0,116.0,1055.6121446819377,2021-09-02 13:25:16.144
355,-330.0,867.0,116.0,934.9037383602656,2021-09-02 13:25:16.150
356,-330.0,867.0,40.0,928.541329182498,2021-09-02 13:25:16.151
357,-321.0,772.0,46.0,837.3416268166775,2021-09-02 13:25:16.158
358,155.0,772.0,46.0,788.7490095080944,2021-09-02 13:25:16.167
359,155.0,1238.0,22.0,1247.8593670762743,2021-09-02 13:25:16.168
360,-314.0,959.0,-147.0,1019.7480080882729,2021-09-02 13:25:16.177
361,-462.0,822.0,-65.0,945.1735290410962,2021-09-02 13:25:16.186
362,-87.0,850.0,-31.0,855.0029239716084,2021-09-02 13:25:16.196
363,-530.0,841.0,-31.0,994.5561824251056,2021-09-02 13:25:16.206
364,-530.0,841.0,-157.0,1006.394554834236,2021-09-02 13:25:16.207
365,-600.0,890.0,-127.0,1080.8464275742415,2021-09-02 13:25:16.215
366,-633.0,831.0,-164.0,1057.424228963948,2021-09-02 13:25:16.240
367,-633.0,831.0,-164.0,1057.424228963948,2021-09-02 13:25:16.241
368,-633.0,786.0,-113.0,1015.506770041441,2021-09-02 13:25:16.242
369,-262.0,786.0,-113.0,836.1871800021811,2021-09-02 13:25:16.244
370,-262.0,1075.0,-117.0,1112.635609712362,2021-09-02 13:25:16.245
371,19.0,947.0,42.0,948.1213002564598,2021-09-02 13:25:16.255
372,232.0,866.0,42.0,897.5210303942744,2021-09-02 13:25:16.264
373,232.0,866.0,196.0,917.7123732412024,2021-09-02 13:25:16.265
374,412.0,1547.0,14.0,1600.9837600675403,2021-09-02 13:25:16.275
375,-221.0,1088.0,14.0,1110.306714381211,2021-09-02 13:25:16.292
376,92.0,1088.0,14.0,1091.972527126942,2021-09-02 13:25:16.295
377,92.0,737.0,255.0,785.2757477472484,2021-09-02 13:25:16.296
378,153.0,737.0,255.0,794.7345468771318,2021-09-02 13:25:16.303
379,153.0,1096.0,-83.0,1109.7360046425456,2021-09-02 13:25:16.304
380,147.0,1096.0,-83.0,1108.9247043870923,2021-09-02 13:25:16.314
381,147.0,1200.0,-13.0,1209.040115132662,2021-09-02 13:25:16.315
382,94.0,1255.0,230.0,1279.359605427653,2021-09-02 13:25:16.322
383,-393.0,1004.0,-115.0,1084.2923959892,2021-09-02 13:25:16.332
384,-104.0,1004.0,-115.0,1015.9020622087544,2021-09-02 13:25:16.342
385,-104.0,882.0,26.0,888.4908553271665,2021-09-02 13:25:16.343
386,207.0,1203.0,172.0,1232.7376038719676,2021-09-02 13:25:16.353
387,-466.0,1014.0,-43.0,1116.7815363803254,2021-09-02 13:25:16.362
388,-680.0,1014.0,-43.0,1221.6566620781798,2021-09-02 13:25:16.371
389,-680.0,991.0,9.0,1201.8993302269537,2021-09-02 13:25:16.372
390,-183.0,997.0,-47.0,1014.7447955027905,2021-09-02 13:25:16.381
391,-285.0,885.0,-133.0,939.2225508365948,2021-09-02 13:25:16.391
392,-215.0,1037.0,-306.0,1102.374709434138,2021-09-02 13:25:16.401
393,-115.0,1074.0,-41.0,1080.917203119647,2021-09-02 13:25:16.411
394,-87.0,992.0,75.0,998.6280588887936,2021-09-02 13:25:16.421
395,8.0,1031.0,-114.0,1037.3143207340772,2021-09-02 13:25:16.430
396,-54.0,971.0,-123.0,980.2479278223444,2021-09-02 13:25:16.440
397,262.0,1114.0,84.0,1147.4737469763743,2021-09-02 13:25:16.450
398,87.0,1098.0,9.0,1101.4780978303654,2021-09-02 13:25:16.460
399,134.0,959.0,9.0,968.3584047242013,2021-09-02 13:25:16.469
400,134.0,959.0,168.0,982.7822749724376,2021-09-02 13:25:16.470
401,83.0,1124.0,-67.0,1129.050043177892,2021-09-02 13:25:16.479
402,90.0,1087.0,1.0,1090.7199457239242,2021-09-02 13:25:16.489
403,-583.0,1087.0,1.0,1233.4743613063065,2021-09-02 13:25:16.498
404,-583.0,696.0,-150.0,920.2200823716032,2021-09-02 13:25:16.499
405,-206.0,696.0,-150.0,741.182838441366,2021-09-02 13:25:16.508
406,-206.0,978.0,-109.0,1005.3859955260964,2021-09-02 13:25:16.509
407,-585.0,916.0,-151.0,1097.306702795531,2021-09-02 13:25:16.518
408,-742.0,859.0,-87.0,1138.426106517239,2021-09-02 13:25:16.528
409,-278.0,890.0,-31.0,932.9228263902648,2021-09-02 13:25:16.538
410,-437.0,933.0,-25.0,1030.5741118425206,2021-09-02 13:25:16.548
411,-478.0,1256.0,-25.0,1344.1149504413677,2021-09-02 13:25:16.558
412,-478.0,1256.0,-197.0,1358.244823292178,2021-09-02 13:25:16.559
413,-306.0,931.0,-148.0,991.1109927752794,2021-09-02 13:25:16.567
414,-329.0,751.0,52.0,821.5509722470055,2021-09-02 13:25:16.577
415,-147.0,1113.0,-305.0,1163.3585002053323,2021-09-02 13:25:16.587
416,-162.0,1183.0,-234.0,1216.753467223332,2021-09-02 13:25:16.597
417,-345.0,930.0,103.0,997.2632551137136,2021-09-02 13:25:16.606
418,339.0,1399.0,114.0,1443.9937672995684,2021-09-02 13:25:16.616
419,-379.0,1097.0,45.0,1161.4968790315363,2021-09-02 13:25:16.626
420,-148.0,762.0,-14.0,776.3658931199901,2021-09-02 13:25:16.636
421,-422.0,975.0,-65.0,1064.3937241453466,2021-09-02 13:25:16.645
422,-549.0,770.0,-32.0,946.2161486679456,2021-09-02 13:25:16.655
423,10.0,1077.0,10.0,1077.0928465086006,2021-09-02 13:25:16.665
424,-463.0,1077.0,10.0,1172.3472181909249,2021-09-02 13:25:16.674
425,-463.0,800.0,-173.0,940.3712033021852,2021-09-02 13:25:16.675
426,-501.0,748.0,-159.0,914.2133230269618,2021-09-02 13:25:16.684
427,-185.0,914.0,-159.0,945.9926003938932,2021-09-02 13:25:16.693
428,-185.0,914.0,147.0,944.0497868227078,2021-09-02 13:25:16.694
429,-648.0,880.0,147.0,1102.6844516905096,2021-09-02 13:25:16.703
430,-648.0,880.0,-142.0,1102.0290377299502,2021-09-02 13:25:16.704
431,-464.0,776.0,-244.0,936.4870527668816,2021-09-02 13:25:16.714
432,-545.0,868.0,-244.0,1053.558256576256,2021-09-02 13:25:16.723
433,-545.0,868.0,-109.0,1030.6939409931545,2021-09-02 13:25:16.724
434,-471.0,978.0,-45.0,1086.439137733909,2021-09-02 13:25:16.733
435,-385.0,1121.0,-297.0,1221.9144814593203,2021-09-02 13:25:16.742
436,162.0,1144.0,-27.0,1155.7287744103285,2021-09-02 13:25:16.753
437,139.0,1035.0,-27.0,1044.6410866895865,2021-09-02 13:25:16.762
438,139.0,1035.0,182.0,1060.0330183536737,2021-09-02 13:25:16.763
439,230.0,1247.0,158.0,1277.8391917608412,2021-09-02 13:25:16.774
440,-204.0,1247.0,158.0,1273.4162712954471,2021-09-02 13:25:16.781
441,-204.0,1077.0,47.0,1097.1572357688756,2021-09-02 13:25:16.782
442,67.0,939.0,151.0,953.4206836438992,2021-09-02 13:25:16.792
443,-274.0,983.0,44.0,1021.4210689035154,2021-09-02 13:25:16.801
444,-264.0,955.0,44.0,991.7948376554498,2021-09-02 13:25:16.810
445,-264.0,955.0,30.0,991.2724146267766,2021-09-02 13:25:16.811
446,200.0,1204.0,0.0,1220.4982589090407,2021-09-02 13:25:16.821
447,-475.0,873.0,-86.0,997.5720525355548,2021-09-02 13:25:16.832
448,-511.0,833.0,25.0,977.5658545591698,2021-09-02 13:25:16.841
449,17.0,857.0,-40.0,858.1013926104537,2021-09-02 13:25:16.850
450,-530.0,812.0,-195.0,989.0748202234248,2021-09-02 13:25:16.864
451,-319.0,813.0,-122.0,881.824245527418,2021-09-02 13:25:16.869
452,34.0,824.0,27.0,825.143017906593,2021-09-02 13:25:16.881
453,175.0,985.0,-45.0,1001.4364682794412,2021-09-02 13:25:16.889
454,-20.0,1296.0,-230.0,1316.4026739565672,2021-09-02 13:25:16.899
455,42.0,1055.0,70.0,1058.153580535453,2021-09-02 13:25:16.909
456,117.0,1055.0,70.0,1063.7734721264674,2021-09-02 13:25:16.918
457,117.0,772.0,186.0,802.6636904706728,2021-09-02 13:25:16.919
458,278.0,1300.0,-151.0,1337.940581640306,2021-09-02 13:25:16.929
459,-121.0,1072.0,-72.0,1081.2071956845275,2021-09-02 13:25:16.938
460,252.0,1050.0,296.0,1119.6517315665617,2021-09-02 13:25:16.948
461,120.0,1050.0,296.0,1097.5044419044507,2021-09-02 13:25:16.957
462,120.0,1054.0,29.0,1061.2054466501763,2021-09-02 13:25:16.958
463,264.0,1171.0,29.0,1200.7406047935583,2021-09-02 13:25:16.967
464,264.0,1171.0,128.0,1207.1955102633542,2021-09-02 13:25:16.968
465,111.0,1381.0,250.0,1407.8288248221088,2021-09-02 13:25:16.979
466,-153.0,1033.0,18.0,1044.4242433034576,2021-09-02 13:25:16.987
467,-703.0,797.0,22.0,1062.968484951459,2021-09-02 13:25:16.997
468,-224.0,1018.0,-133.0,1050.8039779140545,2021-09-02 13:25:17.007
469,-467.0,853.0,-243.0,1002.3706899146642,2021-09-02 13:25:17.016
470,-744.0,819.0,-91.0,1110.2152944361735,2021-09-02 13:25:17.026
471,-291.0,1079.0,-73.0,1119.9334801674606,2021-09-02 13:25:17.037
472,-492.0,1052.0,-171.0,1173.8862806933216,2021-09-02 13:25:17.045
473,-501.0,1016.0,-220.0,1153.9744364586245,2021-09-02 13:25:17.055
474,-264.0,1016.0,-220.0,1072.5446377657202,2021-09-02 13:25:17.064
475,-264.0,939.0,-19.0,975.5911028704596,2021-09-02 13:25:17.065
476,-151.0,1076.0,-39.0,1087.2433030375491,2021-09-02 13:25:17.075
477,-246.0,1159.0,-285.0,1218.6147873713005,2021-09-02 13:25:17.085
478,-244.0,1014.0,-107.0,1048.4183325371605,2021-09-02 13:25:17.094
479,45.0,849.0,52.0,851.7804881540784,2021-09-02 13:25:17.104
480,45.0,968.0,-2.0,969.0474704574592,2021-09-02 13:25:17.114
481,229.0,1022.0,-2.0,1047.3437831008498,2021-09-02 13:25:17.123
482,229.0,1022.0,79.0,1050.31709497656,2021-09-02 13:25:17.124
483,-298.0,810.0,9.0,863.1251357711697,2021-09-02 13:25:17.134
484,-375.0,810.0,9.0,892.6399050008912,2021-09-02 13:25:17.143
485,-375.0,995.0,-89.0,1067.038424800157,2021-09-02 13:25:17.144
486,-467.0,802.0,-71.0,930.770648441387,2021-09-02 13:25:17.153
487,50.0,970.0,-164.0,985.036039949808,2021-09-02 13:25:17.163
488,-404.0,933.0,-168.0,1030.4993934981233,2021-09-02 13:25:17.173
489,-783.0,933.0,-168.0,1229.5535775231594,2021-09-02 13:25:17.182
490,-783.0,864.0,-184.0,1180.441019280506,2021-09-02 13:25:17.183
491,-393.0,780.0,-7.0,873.4403242351477,2021-09-02 13:25:17.192
492,-633.0,670.0,-146.0,933.2229101345508,2021-09-02 13:25:17.202
493,-473.0,985.0,-208.0,1112.3030162684986,2021-09-02 13:25:17.211
494,-535.0,1017.0,-108.0,1154.200155952164,2021-09-02 13:25:17.222
495,-589.0,949.0,4.0,1116.9324061911714,2021-09-02 13:25:17.231
496,-277.0,1058.0,-232.0,1117.996869405277,2021-09-02 13:25:17.241
497,-248.0,1119.0,-176.0,1159.5865642546917,2021-09-02 13:25:17.261
498,101.0,922.0,261.0,963.5382711651883,2021-09-02 13:25:17.264
499,360.0,1489.0,55.0,1532.8881237715948,2021-09-02 13:25:17.271
500,-233.0,1145.0,55.0,1169.7602318424065,2021-09-02 13:25:17.279
501,-233.0,1145.0,72.0,1170.6827067997544,2021-09-02 13:25:17.280
502,-88.0,794.0,241.0,834.4225548245925,2021-09-02 13:25:17.289
503,-166.0,1003.0,-136.0,1025.7002486106749,2021-09-02 13:25:17.308
504,-82.0,1003.0,-136.0,1015.494460841614,2021-09-02 13:25:17.311
505,-82.0,1007.0,-11.0,1010.392992849812,2021-09-02 13:25:17.312
506,-9.0,1283.0,206.0,1299.4637355463217,2021-09-02 13:25:17.319
507,-554.0,899.0,-81.0,1059.093008191443,2021-09-02 13:25:17.330
508,-390.0,751.0,-171.0,863.3319176307568,2021-09-02 13:25:17.338
509,-107.0,931.0,56.0,938.8002982530415,2021-09-02 13:25:17.348
510,-516.0,931.0,56.0,1065.9047799874058,2021-09-02 13:25:17.361
511,-516.0,923.0,-105.0,1062.6429315626203,2021-09-02 13:25:17.362
512,-17.0,996.0,2.0,996.1470774940816,2021-09-02 13:25:17.367
513,166.0,1074.0,-218.0,1108.4024539850136,2021-09-02 13:25:17.378
514,-284.0,1108.0,-215.0,1163.8492170380148,2021-09-02 13:25:17.388
515,-64.0,1108.0,-215.0,1130.479986554384,2021-09-02 13:25:17.397
516,-64.0,1135.0,-65.0,1138.6597384644808,2021-09-02 13:25:17.398
517,-165.0,937.0,-65.0,953.6346260492012,2021-09-02 13:25:17.406
518,-165.0,937.0,95.0,956.1480010960646,2021-09-02 13:25:17.407
519,68.0,937.0,95.0,944.2552620981256,2021-09-02 13:25:17.416
520,68.0,955.0,247.0,988.7658974701748,2021-09-02 13:25:17.417
521,-224.0,900.0,-10.0,927.5106468391616,2021-09-02 13:25:17.426
522,-245.0,913.0,-122.0,953.141122814455,2021-09-02 13:25:17.438
523,85.0,980.0,-230.0,1010.210374130062,2021-09-02 13:25:17.446
524,-260.0,1104.0,-165.0,1146.1417887853142,2021-09-02 13:25:17.456
525,-638.0,954.0,-165.0,1159.4761748306862,2021-09-02 13:25:17.465
526,-638.0,954.0,-19.0,1147.833176032127,2021-09-02 13:25:17.466
527,-257.0,910.0,-107.0,951.629129440666,2021-09-02 13:25:17.475
528,-79.0,1067.0,-117.0,1076.2987503476904,2021-09-02 13:25:17.485
