,Acceleration_X,Acceleration_Y,Acceleration_Z,magnitude,time_stamp
0,-178.0,1171.0,-32.0,1184.883538580902,2021-08-31 07:27:56.926
1,-177.0,959.0,-32.0,975.722296557786,2021-08-31 07:27:56.935
2,-177.0,959.0,-9.0,975.2389450796148,2021-08-31 07:27:56.936
3,-89.0,1035.0,-80.0,1041.8953882228293,2021-08-31 07:27:56.949
4,-179.0,1064.0,-134.0,1087.2410036417868,2021-08-31 07:27:56.956
5,-159.0,1185.0,5.0,1195.6299594774296,2021-08-31 07:27:56.965
6,-181.0,1185.0,5.0,1198.753936385612,2021-08-31 07:27:56.974
7,-181.0,1013.0,-21.0,1029.2574993654407,2021-08-31 07:27:56.975
8,-297.0,847.0,-73.0,900.5259574271028,2021-08-31 07:27:56.985
9,-205.0,1131.0,-52.0,1150.604189111095,2021-08-31 07:27:56.994
10,-253.0,981.0,-101.0,1018.1213090786382,2021-08-31 07:27:57.005
11,-239.0,1033.0,-31.0,1060.7407788899227,2021-08-31 07:27:57.014
12,-263.0,961.0,8.0,996.3704130492836,2021-08-31 07:27:57.023
13,-209.0,924.0,-29.0,947.7858407889412,2021-08-31 07:27:57.033
14,-178.0,951.0,-29.0,967.949378841683,2021-08-31 07:27:57.053
15,-178.0,951.0,27.0,967.8915228474729,2021-08-31 07:27:57.054
16,-177.0,1006.0,36.0,1022.0865912436186,2021-08-31 07:27:57.056
17,-190.0,881.0,-25.0,901.6019077175912,2021-08-31 07:27:57.063
18,-152.0,861.0,-31.0,874.863417911619,2021-08-31 07:27:57.073
19,-170.0,1011.0,65.0,1027.2516731551232,2021-08-31 07:27:57.082
20,-246.0,1005.0,5.0,1034.6815935349389,2021-08-31 07:27:57.092
21,-86.0,1005.0,5.0,1008.6852829302112,2021-08-31 07:27:57.101
22,-86.0,868.0,-101.0,878.078014757231,2021-08-31 07:27:57.102
23,-266.0,1079.0,-101.0,1115.884402615253,2021-08-31 07:27:57.119
24,-266.0,1079.0,-33.0,1111.7940456757267,2021-08-31 07:27:57.120
25,-114.0,896.0,-54.0,904.8358967238204,2021-08-31 07:27:57.122
26,-269.0,1037.0,-87.0,1074.848361398016,2021-08-31 07:27:57.131
27,-238.0,1037.0,-87.0,1067.512060821797,2021-08-31 07:27:57.140
28,-238.0,1077.0,19.0,1103.1473156383058,2021-08-31 07:27:57.141
29,-108.0,1017.0,-83.0,1026.080893497194,2021-08-31 07:27:57.150
30,-207.0,1010.0,-105.0,1036.3271684173874,2021-08-31 07:27:57.160
31,-257.0,1167.0,-11.0,1195.0142258567469,2021-08-31 07:27:57.170
32,-156.0,1018.0,-27.0,1030.2373512933802,2021-08-31 07:27:57.180
33,-183.0,957.0,-28.0,974.742017151205,2021-08-31 07:27:57.190
34,-191.0,988.0,-79.0,1009.3889240525676,2021-08-31 07:27:57.199
35,-220.0,1004.0,8.0,1027.852129442752,2021-08-31 07:27:57.210
36,-206.0,905.0,-29.0,928.6021753151346,2021-08-31 07:27:57.219
37,-202.0,937.0,-16.0,958.66000229487,2021-08-31 07:27:57.229
38,-142.0,890.0,-7.0,901.2840839602128,2021-08-31 07:27:57.238
39,-186.0,939.0,-86.0,961.099890750176,2021-08-31 07:27:57.248
40,-145.0,939.0,-86.0,954.0136267370608,2021-08-31 07:27:57.258
41,-145.0,1045.0,13.0,1055.0919391218947,2021-08-31 07:27:57.259
42,-130.0,1045.0,13.0,1053.1353189405434,2021-08-31 07:27:57.267
43,-130.0,987.0,38.0,996.249466750171,2021-08-31 07:27:57.268
44,-124.0,809.0,-108.0,825.5428517042589,2021-08-31 07:27:57.277
45,-207.0,978.0,43.0,1000.5908254626364,2021-08-31 07:27:57.287
46,-218.0,1052.0,62.0,1076.137537678154,2021-08-31 07:27:57.297
47,-251.0,1052.0,62.0,1083.3046662873746,2021-08-31 07:27:57.306
48,-251.0,851.0,-29.0,887.7178605840935,2021-08-31 07:27:57.307
49,-134.0,981.0,-86.0,993.837511870024,2021-08-31 07:27:57.316
50,-165.0,1128.0,-34.0,1140.5108504525506,2021-08-31 07:27:57.326
51,-223.0,966.0,-49.0,992.6157363249888,2021-08-31 07:27:57.336
52,-118.0,965.0,-106.0,977.9493851933238,2021-08-31 07:27:57.346
53,-117.0,945.0,-106.0,958.0970723261812,2021-08-31 07:27:57.355
54,-117.0,945.0,-56.0,953.8605768140332,2021-08-31 07:27:57.356
55,-121.0,1043.0,-76.0,1052.7421336680698,2021-08-31 07:27:57.366
56,-169.0,1127.0,-115.0,1145.388580351664,2021-08-31 07:27:57.375
57,-162.0,1053.0,-16.0,1065.5087986497342,2021-08-31 07:27:57.385
58,-80.0,1013.0,-75.0,1018.9180536235484,2021-08-31 07:27:57.395
59,-242.0,961.0,-93.0,995.3562176427092,2021-08-31 07:27:57.404
60,-285.0,1055.0,-93.0,1096.767523224498,2021-08-31 07:27:57.414
61,-285.0,1055.0,-10.0,1092.8632119345953,2021-08-31 07:27:57.415
62,-131.0,935.0,-22.0,944.3886911648192,2021-08-31 07:27:57.424
63,-256.0,935.0,-22.0,969.6623123541516,2021-08-31 07:27:57.433
64,-256.0,892.0,-41.0,928.913881907252,2021-08-31 07:27:57.434
65,-179.0,1033.0,22.0,1048.6248137441723,2021-08-31 07:27:57.443
66,-216.0,984.0,71.0,1009.927225100898,2021-08-31 07:27:57.453
67,-122.0,890.0,-61.0,900.3915814799692,2021-08-31 07:27:57.463
68,-171.0,961.0,-25.0,976.4153829185608,2021-08-31 07:27:57.473
69,-91.0,922.0,0.0,926.4798972454826,2021-08-31 07:27:57.482
70,-178.0,893.0,-39.0,911.4022163677242,2021-08-31 07:27:57.493
71,-153.0,893.0,-39.0,906.8511454478072,2021-08-31 07:27:57.502
72,-153.0,1031.0,71.0,1044.7061787890411,2021-08-31 07:27:57.503
73,-164.0,924.0,-14.0,938.5456834912192,2021-08-31 07:27:57.512
74,-124.0,869.0,-72.0,880.7502483678333,2021-08-31 07:27:57.522
75,-186.0,1154.0,-16.0,1169.002994008142,2021-08-31 07:27:57.531
76,-119.0,1154.0,-16.0,1160.2297186333403,2021-08-31 07:27:57.541
77,-119.0,1009.0,-59.0,1017.704770549888,2021-08-31 07:27:57.542
78,-146.0,909.0,-69.0,923.2323651172547,2021-08-31 07:27:57.551
79,-187.0,909.0,-69.0,930.5971201330896,2021-08-31 07:27:57.560
80,-187.0,1133.0,-127.0,1155.32982303756,2021-08-31 07:27:57.561
81,-194.0,1118.0,-43.0,1135.521466111495,2021-08-31 07:27:57.570
82,-174.0,989.0,-43.0,1005.1099442349578,2021-08-31 07:27:57.588
83,-174.0,989.0,-61.0,1006.0407546416797,2021-08-31 07:27:57.589
84,-256.0,1105.0,-70.0,1136.4246565434948,2021-08-31 07:27:57.591
85,-145.0,1105.0,-70.0,1116.669154226085,2021-08-31 07:27:57.599
86,-145.0,1000.0,-49.0,1011.645194719967,2021-08-31 07:27:57.600
87,-191.0,1000.0,-49.0,1019.2556107277506,2021-08-31 07:27:57.610
88,-191.0,1016.0,-43.0,1034.6912582988225,2021-08-31 07:27:57.611
89,-201.0,992.0,-45.0,1013.1584278877611,2021-08-31 07:27:57.619
90,-236.0,1056.0,2.0,1082.0517547696136,2021-08-31 07:27:57.629
91,-188.0,1056.0,2.0,1072.6061719009451,2021-08-31 07:27:57.638
92,-188.0,869.0,-56.0,890.8653096849152,2021-08-31 07:27:57.639
93,-210.0,974.0,-56.0,997.9539067512086,2021-08-31 07:27:57.648
94,-210.0,974.0,0.0,996.381453059018,2021-08-31 07:27:57.649
95,-200.0,1023.0,40.0,1043.1342195518273,2021-08-31 07:27:57.659
96,-95.0,888.0,-38.0,893.875270941086,2021-08-31 07:27:57.668
97,-171.0,909.0,-51.0,926.349286176656,2021-08-31 07:27:57.678
98,-197.0,1033.0,-51.0,1052.8527912296192,2021-08-31 07:27:57.687
99,-197.0,1033.0,58.0,1053.2150777500292,2021-08-31 07:27:57.688
100,-226.0,949.0,47.0,976.6708759863784,2021-08-31 07:27:57.697
101,-244.0,1057.0,74.0,1087.3182606762382,2021-08-31 07:27:57.707
102,-216.0,1057.0,74.0,1081.379211932613,2021-08-31 07:27:57.717
103,-216.0,935.0,49.0,960.8756423179848,2021-08-31 07:27:57.718
104,-213.0,905.0,49.0,931.0182597564884,2021-08-31 07:27:57.726
105,-213.0,905.0,-46.0,930.8651889505804,2021-08-31 07:27:57.727
106,-183.0,957.0,-35.0,974.9682046097709,2021-08-31 07:27:57.737
107,-163.0,1137.0,-27.0,1148.9416869449904,2021-08-31 07:27:57.746
108,-185.0,960.0,-91.0,981.8889957627594,2021-08-31 07:27:57.756
109,-185.0,947.0,-36.0,965.5723691158524,2021-08-31 07:27:57.767
110,-103.0,1239.0,-61.0,1244.7694565661548,2021-08-31 07:27:57.775
111,-224.0,957.0,-78.0,985.9558813658956,2021-08-31 07:27:57.785
112,-164.0,1054.0,-37.0,1067.3242244041874,2021-08-31 07:27:57.795
113,-159.0,1016.0,-57.0,1029.9446587074472,2021-08-31 07:27:57.805
114,-296.0,1009.0,4.0,1051.5288869070598,2021-08-31 07:27:57.815
115,-225.0,1064.0,-49.0,1088.633087867533,2021-08-31 07:27:57.824
116,-278.0,980.0,-14.0,1018.763956959609,2021-08-31 07:27:57.834
117,-172.0,988.0,26.0,1003.1968899473324,2021-08-31 07:27:57.844
118,-280.0,908.0,26.0,950.5472108212196,2021-08-31 07:27:57.853
119,-280.0,908.0,-99.0,955.3350197705516,2021-08-31 07:27:57.854
120,-212.0,1033.0,54.0,1055.9114546210776,2021-08-31 07:27:57.863
121,-224.0,959.0,31.0,985.300969247468,2021-08-31 07:27:57.880
122,-155.0,849.0,-62.0,865.2571871992743,2021-08-31 07:27:57.883
123,-149.0,1004.0,37.0,1015.6702220701364,2021-08-31 07:27:57.893
124,-172.0,941.0,40.0,957.4262373676628,2021-08-31 07:27:57.902
125,-191.0,930.0,-15.0,949.5293571027702,2021-08-31 07:27:57.913
126,-169.0,968.0,-12.0,982.715116399458,2021-08-31 07:27:57.922
127,-138.0,968.0,-12.0,977.8609308076482,2021-08-31 07:27:57.931
128,-138.0,1010.0,-32.0,1019.8862681691522,2021-08-31 07:27:57.932
129,-191.0,985.0,-117.0,1010.1460290472858,2021-08-31 07:27:57.941
130,-180.0,1099.0,-117.0,1119.7722982821106,2021-08-31 07:27:57.952
131,-180.0,1099.0,-34.0,1114.162016943676,2021-08-31 07:27:57.953
132,-132.0,925.0,-84.0,938.1391154834128,2021-08-31 07:27:57.961
133,-165.0,1010.0,-69.0,1025.7124353345826,2021-08-31 07:27:57.971
134,-237.0,1131.0,-47.0,1156.5202116694718,2021-08-31 07:27:57.980
135,-188.0,1094.0,-52.0,1111.253346451654,2021-08-31 07:27:57.990
136,-215.0,952.0,-68.0,978.3419647546556,2021-08-31 07:27:58.001
137,-270.0,1064.0,-50.0,1098.8612287272674,2021-08-31 07:27:58.010
138,-165.0,1057.0,-50.0,1070.9687203648853,2021-08-31 07:27:58.019
139,-165.0,1057.0,-5.0,1069.8126004118665,2021-08-31 07:27:58.020
140,-224.0,917.0,0.0,943.9623933187167,2021-08-31 07:27:58.029
141,-249.0,948.0,-49.0,981.3796411175442,2021-08-31 07:27:58.039
142,-188.0,995.0,0.0,1012.6050562781128,2021-08-31 07:27:58.049
143,-249.0,1010.0,0.0,1040.2408374987017,2021-08-31 07:27:58.072
144,-249.0,1010.0,64.0,1042.2077528017146,2021-08-31 07:27:58.073
145,-249.0,1061.0,-10.0,1089.8724696036688,2021-08-31 07:27:58.074
146,-182.0,984.0,6.0,1000.7077495452904,2021-08-31 07:27:58.078
147,-93.0,866.0,-34.0,871.6427020287613,2021-08-31 07:27:58.088
148,-175.0,866.0,-34.0,884.1589223663357,2021-08-31 07:27:58.097
149,-175.0,932.0,-94.0,952.9349400667392,2021-08-31 07:27:58.098
150,-199.0,1073.0,-94.0,1095.3383039043235,2021-08-31 07:27:58.107
151,-199.0,1073.0,82.0,1094.3737935458798,2021-08-31 07:27:58.108
152,-138.0,871.0,82.0,885.6686739407689,2021-08-31 07:27:58.118
153,-138.0,871.0,-5.0,881.8786764629248,2021-08-31 07:27:58.119
154,-191.0,849.0,-32.0,870.8076710732399,2021-08-31 07:27:58.127
155,-155.0,1147.0,21.0,1157.6160848917054,2021-08-31 07:27:58.149
156,-155.0,932.0,-83.0,948.439771414084,2021-08-31 07:27:58.150
157,-171.0,932.0,-83.0,951.1855760050192,2021-08-31 07:27:58.157
158,-171.0,967.0,-108.0,987.9240861523724,2021-08-31 07:27:58.158
159,-196.0,1078.0,-46.0,1096.6385001448746,2021-08-31 07:27:58.166
160,-127.0,1131.0,1.0,1138.108518551724,2021-08-31 07:27:58.176
161,-106.0,975.0,1.0,980.7456347086128,2021-08-31 07:27:58.185
162,-106.0,975.0,-152.0,992.4540291620564,2021-08-31 07:27:58.186
163,-102.0,1188.0,-64.0,1194.0870990007388,2021-08-31 07:27:58.195
164,-117.0,952.0,-115.0,966.0320905642836,2021-08-31 07:27:58.206
165,-191.0,1034.0,-66.0,1053.5620532270514,2021-08-31 07:27:58.215
166,-176.0,1105.0,-25.0,1119.2077555128003,2021-08-31 07:27:58.225
167,-183.0,981.0,0.0,997.9228427087938,2021-08-31 07:27:58.234
168,-182.0,919.0,-96.0,941.7542142194004,2021-08-31 07:27:58.244
169,-220.0,994.0,-25.0,1018.3619199479132,2021-08-31 07:27:58.254
170,-222.0,1031.0,-25.0,1054.9265377266795,2021-08-31 07:27:58.265
171,-222.0,1031.0,50.0,1055.8148511931436,2021-08-31 07:27:58.266
172,-169.0,897.0,0.0,912.7814634401818,2021-08-31 07:27:58.273
173,-217.0,874.0,-95.0,905.5329922206038,2021-08-31 07:27:58.283
174,-126.0,1010.0,60.0,1019.5959984229048,2021-08-31 07:27:58.293
175,-171.0,923.0,60.0,940.6221345471304,2021-08-31 07:27:58.303
176,-171.0,923.0,16.0,938.8429048568242,2021-08-31 07:27:58.306
177,-150.0,1032.0,37.0,1043.5003593674512,2021-08-31 07:27:58.314
178,-106.0,913.0,-3.0,919.1376393119804,2021-08-31 07:27:58.322
179,-147.0,882.0,-15.0,894.2918986550197,2021-08-31 07:27:58.332
180,-158.0,986.0,-14.0,998.6771250008684,2021-08-31 07:27:58.342
181,-141.0,986.0,-14.0,996.1290077093428,2021-08-31 07:27:58.351
182,-141.0,1030.0,-26.0,1039.931247727464,2021-08-31 07:27:58.352
183,-134.0,957.0,-128.0,974.7763846134148,2021-08-31 07:27:58.362
184,-168.0,957.0,-128.0,980.0290812011652,2021-08-31 07:27:58.371
185,-168.0,1025.0,-37.0,1039.3353645479403,2021-08-31 07:27:58.372
186,-199.0,1130.0,-12.0,1147.451524030536,2021-08-31 07:27:58.381
187,-89.0,1130.0,-12.0,1133.5629669321418,2021-08-31 07:27:58.390
188,-89.0,997.0,-120.0,1008.1319358099912,2021-08-31 07:27:58.391
189,-206.0,1049.0,-96.0,1073.3373188331802,2021-08-31 07:27:58.400
190,-228.0,1097.0,-80.0,1123.2955977835932,2021-08-31 07:27:58.410
191,-186.0,1041.0,8.0,1057.5164301324116,2021-08-31 07:27:58.421
192,-254.0,1143.0,-52.0,1172.0362622376497,2021-08-31 07:27:58.430
193,-174.0,992.0,-52.0,1008.485993953312,2021-08-31 07:27:58.439
194,-174.0,992.0,-31.0,1007.6214566988934,2021-08-31 07:27:58.440
195,-186.0,965.0,-10.0,982.8128000794454,2021-08-31 07:27:58.449
196,-224.0,996.0,-57.0,1022.46809241169,2021-08-31 07:27:58.459
197,-177.0,1005.0,11.0,1020.5268247331866,2021-08-31 07:27:58.470
198,-194.0,1005.0,11.0,1023.61223126729,2021-08-31 07:27:58.478
199,-194.0,953.0,1.0,972.546142864183,2021-08-31 07:27:58.479
200,-182.0,859.0,-87.0,882.368403786083,2021-08-31 07:27:58.488
201,-141.0,1030.0,43.0,1040.4950744717632,2021-08-31 07:27:58.498
202,-122.0,916.0,43.0,925.088644401173,2021-08-31 07:27:58.508
203,-122.0,916.0,-21.0,924.3273229760116,2021-08-31 07:27:58.509
204,-150.0,854.0,-33.0,867.7009853630454,2021-08-31 07:27:58.518
205,-156.0,1040.0,24.0,1051.908741288901,2021-08-31 07:27:58.528
206,-216.0,970.0,42.0,994.6456655513058,2021-08-31 07:27:58.537
207,-209.0,1004.0,30.0,1025.9615002523242,2021-08-31 07:27:58.547
208,-283.0,1057.0,22.0,1094.4505470783045,2021-08-31 07:27:58.557
209,-127.0,812.0,-83.0,826.0520564710192,2021-08-31 07:27:58.568
210,-231.0,1093.0,-73.0,1119.5262390850874,2021-08-31 07:27:58.577
211,-196.0,1098.0,0.0,1115.3564452676103,2021-08-31 07:27:58.586
212,-96.0,958.0,-46.0,963.89625997822,2021-08-31 07:27:58.604
213,-102.0,1077.0,-117.0,1088.1277498529298,2021-08-31 07:27:58.607
214,-271.0,1138.0,-40.0,1170.5063007092274,2021-08-31 07:27:58.615
215,-121.0,1138.0,-40.0,1145.1135314893454,2021-08-31 07:27:58.625
216,-121.0,1087.0,-31.0,1094.1530971486577,2021-08-31 07:27:58.626
217,-91.0,876.0,-116.0,888.3203251080097,2021-08-31 07:27:58.637
218,-275.0,876.0,-116.0,925.449620454836,2021-08-31 07:27:58.644
219,-275.0,1034.0,-17.0,1070.0794363036794,2021-08-31 07:27:58.645
220,-147.0,1058.0,9.0,1068.2012918921228,2021-08-31 07:27:58.654
221,-226.0,879.0,-47.0,908.8047094948396,2021-08-31 07:27:58.664
222,-178.0,1144.0,35.0,1158.2940041284855,2021-08-31 07:27:58.674
223,-219.0,1144.0,35.0,1165.2991032348734,2021-08-31 07:27:58.684
224,-219.0,879.0,-24.0,906.1887220662152,2021-08-31 07:27:58.685
225,-175.0,946.0,-30.0,962.5180517787704,2021-08-31 07:27:58.693
226,-303.0,984.0,8.0,1029.6256601309042,2021-08-31 07:27:58.703
227,-142.0,960.0,14.0,970.5462379505676,2021-08-31 07:27:58.713
228,-111.0,858.0,-19.0,865.3588850875688,2021-08-31 07:27:58.723
229,-182.0,941.0,30.0,958.908233357082,2021-08-31 07:27:58.733
230,-213.0,1087.0,88.0,1111.162454369297,2021-08-31 07:27:58.743
231,-99.0,840.0,-52.0,847.4107622634964,2021-08-31 07:27:58.752
232,-197.0,982.0,-49.0,1002.7631824114804,2021-08-31 07:27:58.762
233,-163.0,1127.0,-49.0,1139.7802419764962,2021-08-31 07:27:58.771
234,-163.0,1127.0,-77.0,1141.3268594053152,2021-08-31 07:27:58.772
235,-102.0,953.0,-58.0,960.1963340900652,2021-08-31 07:27:58.782
236,-122.0,1096.0,-14.0,1102.8581051069082,2021-08-31 07:27:58.792
237,-184.0,996.0,-87.0,1016.5830020219696,2021-08-31 07:27:58.801
238,-142.0,996.0,-87.0,1009.8262226739806,2021-08-31 07:27:58.810
239,-142.0,1004.0,-70.0,1016.4054309181942,2021-08-31 07:27:58.811
240,-166.0,1145.0,-47.0,1157.92486802901,2021-08-31 07:27:58.820
241,-205.0,1026.0,-55.0,1047.7242003504548,2021-08-31 07:27:58.830
242,-206.0,1026.0,-55.0,1047.9203213985309,2021-08-31 07:27:58.840
243,-206.0,1014.0,-64.0,1036.6908893204377,2021-08-31 07:27:58.841
244,-190.0,1014.0,-64.0,1033.6304949061823,2021-08-31 07:27:58.849
245,-190.0,961.0,-90.0,983.7281128441944,2021-08-31 07:27:58.850
246,-270.0,1067.0,25.0,1100.91507392714,2021-08-31 07:27:58.859
247,-232.0,988.0,36.0,1015.5116936795952,2021-08-31 07:27:58.869
248,-162.0,863.0,-33.0,878.6933481027382,2021-08-31 07:27:58.879
249,-249.0,1017.0,-5.0,1047.0506195977346,2021-08-31 07:27:58.899
250,-223.0,986.0,72.0,1013.4638622072324,2021-08-31 07:27:58.901
251,-203.0,935.0,4.0,956.7915133402888,2021-08-31 07:27:58.909
252,-214.0,1018.0,59.0,1041.9217820930703,2021-08-31 07:27:58.918
253,-150.0,864.0,-65.0,879.3298584717796,2021-08-31 07:27:58.928
254,-147.0,864.0,-65.0,878.8230766200896,2021-08-31 07:27:58.937
255,-147.0,961.0,6.0,972.1964821989432,2021-08-31 07:27:58.938
256,-218.0,981.0,47.0,1006.0288266247644,2021-08-31 07:27:58.947
257,-233.0,981.0,47.0,1009.3854566021844,2021-08-31 07:27:58.957
258,-233.0,923.0,36.0,952.635292228878,2021-08-31 07:27:58.958
259,-243.0,935.0,-49.0,967.302951510022,2021-08-31 07:27:58.968
260,-224.0,935.0,-49.0,962.7055624644536,2021-08-31 07:27:58.976
261,-224.0,1025.0,-27.0,1049.5379935952772,2021-08-31 07:27:58.977
262,-170.0,1079.0,-83.0,1095.4588079886894,2021-08-31 07:27:58.986
263,-171.0,892.0,-54.0,909.8466903825062,2021-08-31 07:27:58.996
264,-213.0,1190.0,-18.0,1209.0463183848665,2021-08-31 07:27:59.006
265,-152.0,1090.0,-18.0,1100.6943263231622,2021-08-31 07:27:59.017
266,-152.0,1090.0,-68.0,1102.645908712312,2021-08-31 07:27:59.018
267,-154.0,1177.0,-83.0,1189.9302500566998,2021-08-31 07:27:59.025
268,-179.0,1124.0,12.0,1138.2271302336806,2021-08-31 07:27:59.035
269,-154.0,927.0,-112.0,946.3556413949252,2021-08-31 07:27:59.045
270,-165.0,1017.0,-99.0,1035.043477347691,2021-08-31 07:27:59.055
271,-256.0,1057.0,0.0,1087.5591937913082,2021-08-31 07:27:59.065
272,-181.0,976.0,8.0,992.673662388602,2021-08-31 07:27:59.095
273,-181.0,913.0,-72.0,933.5491417167068,2021-08-31 07:27:59.096
274,-216.0,991.0,-23.0,1014.5274762173768,2021-08-31 07:27:59.098
275,-273.0,1021.0,91.0,1060.778487715508,2021-08-31 07:27:59.104
276,-155.0,814.0,-57.0,830.5841318012282,2021-08-31 07:27:59.113
277,-194.0,961.0,-7.0,980.4111382476232,2021-08-31 07:27:59.123
278,-225.0,1029.0,59.0,1054.9630325276803,2021-08-31 07:27:59.133
279,-149.0,1029.0,59.0,1041.404340302075,2021-08-31 07:27:59.142
280,-149.0,895.0,14.0,907.4260300432206,2021-08-31 07:27:59.143
281,-184.0,1026.0,85.0,1045.828379802346,2021-08-31 07:27:59.163
282,-157.0,1026.0,85.0,1041.4173034859753,2021-08-31 07:27:59.165
283,-157.0,973.0,33.0,986.1374143596825,2021-08-31 07:27:59.166
284,-111.0,818.0,-78.0,829.173685062424,2021-08-31 07:27:59.172
285,-155.0,818.0,-78.0,836.201530732873,2021-08-31 07:27:59.181
286,-155.0,1077.0,-21.0,1088.2991316729056,2021-08-31 07:27:59.182
287,-193.0,1052.0,-21.0,1069.763525270889,2021-08-31 07:27:59.192
288,-193.0,1052.0,-86.0,1073.0093196240189,2021-08-31 07:27:59.193
289,-131.0,936.0,-45.0,946.1934263140914,2021-08-31 07:27:59.201
290,-157.0,936.0,-45.0,950.142094636376,2021-08-31 07:27:59.211
291,-157.0,1053.0,-92.0,1068.6075051205655,2021-08-31 07:27:59.212
292,-149.0,1114.0,-30.0,1124.3206837908835,2021-08-31 07:27:59.221
293,-147.0,1046.0,-30.0,1056.7047837499365,2021-08-31 07:27:59.230
294,-147.0,1046.0,-65.0,1058.2769013826205,2021-08-31 07:27:59.231
295,-241.0,985.0,-99.0,1018.8753603851652,2021-08-31 07:27:59.240
296,-294.0,1098.0,-40.0,1137.3829610118132,2021-08-31 07:27:59.250
297,-204.0,981.0,34.0,1002.5632149645228,2021-08-31 07:27:59.260
298,-249.0,981.0,34.0,1012.6786262186044,2021-08-31 07:27:59.269
299,-249.0,1033.0,-56.0,1064.0610884718978,2021-08-31 07:27:59.270
300,-248.0,1083.0,29.0,1111.4108151354296,2021-08-31 07:27:59.280
301,-192.0,876.0,-32.0,897.3650316342843,2021-08-31 07:27:59.289
302,-141.0,934.0,-42.0,945.516261097608,2021-08-31 07:27:59.299
303,-234.0,934.0,-42.0,963.7821330570514,2021-08-31 07:27:59.308
304,-234.0,1091.0,5.0,1115.8234627395143,2021-08-31 07:27:59.309
305,-170.0,930.0,5.0,945.4231856687248,2021-08-31 07:27:59.319
306,-170.0,930.0,31.0,945.9180725623124,2021-08-31 07:27:59.320
307,-94.0,851.0,-78.0,859.7214665227337,2021-08-31 07:27:59.328
308,-166.0,973.0,-40.0,987.8689184299708,2021-08-31 07:27:59.338
309,-164.0,1042.0,59.0,1056.4757451072885,2021-08-31 07:27:59.348
310,-98.0,838.0,59.0,845.7712456687092,2021-08-31 07:27:59.357
311,-98.0,838.0,-44.0,844.8573844146715,2021-08-31 07:27:59.358
312,-216.0,838.0,-44.0,866.5079341817939,2021-08-31 07:27:59.367
313,-216.0,969.0,-12.0,992.854974303901,2021-08-31 07:27:59.368
314,-183.0,1038.0,-68.0,1056.199318310706,2021-08-31 07:27:59.377
315,-173.0,933.0,-54.0,950.438846007464,2021-08-31 07:27:59.387
316,-215.0,1072.0,-54.0,1094.6803186318823,2021-08-31 07:27:59.396
317,-215.0,1072.0,-16.0,1093.4646770700915,2021-08-31 07:27:59.397
318,-155.0,1014.0,-109.0,1031.5531978526362,2021-08-31 07:27:59.406
319,-157.0,918.0,-73.0,934.1852064767456,2021-08-31 07:27:59.416
320,-216.0,918.0,-73.0,945.8905856387408,2021-08-31 07:27:59.426
321,-216.0,1163.0,-12.0,1182.9492804004742,2021-08-31 07:27:59.427
322,-97.0,1076.0,-58.0,1081.9191282161528,2021-08-31 07:27:59.436
323,-175.0,926.0,-58.0,944.1742423938496,2021-08-31 07:27:59.445
324,-146.0,926.0,-58.0,939.2316008312326,2021-08-31 07:27:59.455
325,-146.0,1099.0,-108.0,1113.9034967177363,2021-08-31 07:27:59.456
326,-233.0,1070.0,19.0,1095.2396997917854,2021-08-31 07:27:59.465
327,-183.0,927.0,-32.0,945.4321763088032,2021-08-31 07:27:59.476
328,-157.0,900.0,-76.0,916.7469661798724,2021-08-31 07:27:59.484
329,-247.0,959.0,3.0,990.3024790436506,2021-08-31 07:27:59.494
330,-190.0,901.0,-50.0,922.1718928703044,2021-08-31 07:27:59.504
331,-148.0,1005.0,8.0,1015.8705626210456,2021-08-31 07:27:59.514
332,-217.0,1033.0,8.0,1055.576619672869,2021-08-31 07:27:59.523
333,-217.0,1033.0,46.0,1056.5481531856462,2021-08-31 07:27:59.524
334,-162.0,809.0,-86.0,829.5305901532505,2021-08-31 07:27:59.533
335,-183.0,1006.0,-86.0,1026.1193887652644,2021-08-31 07:27:59.543
336,-183.0,1006.0,34.0,1023.0742886027388,2021-08-31 07:27:59.544
337,-243.0,975.0,4.0,1004.833319511251,2021-08-31 07:27:59.553
338,-140.0,887.0,4.0,897.989420873097,2021-08-31 07:27:59.563
339,-140.0,887.0,5.0,897.9944320540078,2021-08-31 07:27:59.564
340,-122.0,901.0,-31.0,909.7505152512967,2021-08-31 07:27:59.572
341,-187.0,1050.0,17.0,1066.6573957930448,2021-08-31 07:27:59.583
342,-177.0,1050.0,17.0,1064.9497640734046,2021-08-31 07:27:59.592
343,-177.0,1045.0,-61.0,1061.6378855334808,2021-08-31 07:27:59.593
344,-127.0,1045.0,-61.0,1054.4548354481572,2021-08-31 07:27:59.601
345,-127.0,905.0,-118.0,921.4542853554916,2021-08-31 07:27:59.602
346,-220.0,905.0,-118.0,938.80189603558,2021-08-31 07:27:59.618
347,-220.0,1091.0,-32.0,1113.420405776722,2021-08-31 07:27:59.619
348,-186.0,954.0,-86.0,975.7602164466432,2021-08-31 07:27:59.621
349,-170.0,1042.0,-91.0,1059.6909926955125,2021-08-31 07:27:59.631
350,-127.0,1148.0,-9.0,1155.038527495945,2021-08-31 07:27:59.641
351,-122.0,981.0,-107.0,994.330930827358,2021-08-31 07:27:59.652
352,-226.0,1080.0,-52.0,1104.617580884896,2021-08-31 07:27:59.660
353,-266.0,1085.0,-50.0,1118.249077799754,2021-08-31 07:27:59.670
354,-186.0,960.0,27.0,978.225434140822,2021-08-31 07:27:59.680
355,-296.0,929.0,-58.0,976.739985871368,2021-08-31 07:27:59.690
356,-193.0,985.0,-17.0,1003.8739960771968,2021-08-31 07:27:59.699
357,-166.0,1059.0,44.0,1072.834097146432,2021-08-31 07:27:59.709
358,-176.0,858.0,-90.0,880.4771433717061,2021-08-31 07:27:59.719
359,-161.0,858.0,-90.0,877.6018459415409,2021-08-31 07:27:59.728
360,-161.0,932.0,-21.0,946.0369971623732,2021-08-31 07:27:59.729
361,-181.0,1060.0,45.0,1076.2834199224662,2021-08-31 07:27:59.739
362,-152.0,907.0,-71.0,922.3849521756088,2021-08-31 07:27:59.748
363,-126.0,1056.0,38.0,1064.1691594854644,2021-08-31 07:27:59.758
364,-209.0,1056.0,38.0,1077.1541208202289,2021-08-31 07:27:59.767
365,-209.0,922.0,8.0,945.4253011211408,2021-08-31 07:27:59.768
366,-132.0,775.0,-35.0,786.9396419040027,2021-08-31 07:27:59.777
367,-195.0,775.0,-35.0,799.9218711849302,2021-08-31 07:27:59.787
368,-195.0,1127.0,26.0,1144.041083178397,2021-08-31 07:27:59.788
369,-256.0,944.0,-20.0,978.3005673104764,2021-08-31 07:27:59.797
370,-207.0,934.0,-59.0,958.4810900586408,2021-08-31 07:27:59.807
371,-192.0,1108.0,-70.0,1126.6889544146602,2021-08-31 07:27:59.816
372,-288.0,986.0,3.0,1027.2044587130645,2021-08-31 07:27:59.826
373,-78.0,1044.0,-82.0,1050.1161840482223,2021-08-31 07:27:59.836
374,-158.0,1044.0,-82.0,1059.0675143729034,2021-08-31 07:27:59.846
375,-158.0,1049.0,-100.0,1065.5350768510627,2021-08-31 07:27:59.847
376,-233.0,1161.0,-100.0,1188.364422220726,2021-08-31 07:27:59.855
377,-233.0,1161.0,-8.0,1184.1765071136988,2021-08-31 07:27:59.856
378,-87.0,1024.0,-81.0,1030.8763262389916,2021-08-31 07:27:59.865
379,-218.0,1110.0,-51.0,1132.353743315224,2021-08-31 07:27:59.878
380,-115.0,1059.0,-41.0,1066.0145402385467,2021-08-31 07:27:59.885
381,-194.0,831.0,-41.0,854.3289764487682,2021-08-31 07:27:59.895
382,-194.0,831.0,-75.0,856.6341109248452,2021-08-31 07:27:59.896
383,-220.0,1071.0,-17.0,1093.4943987053614,2021-08-31 07:27:59.904
384,-250.0,1008.0,-5.0,1038.5513949728247,2021-08-31 07:27:59.915
385,-81.0,862.0,32.0,866.3884809945248,2021-08-31 07:27:59.924
386,-248.0,1001.0,-40.0,1032.039243439899,2021-08-31 07:27:59.940
387,-304.0,967.0,-40.0,1014.4481258300002,2021-08-31 07:27:59.943
388,-304.0,967.0,20.0,1013.8564987215892,2021-08-31 07:27:59.944
389,-132.0,915.0,33.0,925.0610790645125,2021-08-31 07:27:59.953
390,-234.0,828.0,-49.0,861.8242280186836,2021-08-31 07:27:59.963
391,-231.0,1063.0,81.0,1090.8212502513877,2021-08-31 07:27:59.973
392,-164.0,964.0,45.0,978.8855908634064,2021-08-31 07:27:59.983
393,-215.0,1038.0,42.0,1060.8642703004,2021-08-31 07:27:59.992
394,-173.0,981.0,43.0,997.0651934552724,2021-08-31 07:28:00.002
395,-219.0,927.0,-54.0,954.0471686452404,2021-08-31 07:28:00.012
396,-186.0,1019.0,-62.0,1037.6902235253062,2021-08-31 07:28:00.023
397,-139.0,1112.0,-12.0,1120.7180733797416,2021-08-31 07:28:00.031
398,-172.0,934.0,-97.0,954.6460076908088,2021-08-31 07:28:00.041
399,-172.0,1059.0,-59.0,1074.4980223341502,2021-08-31 07:28:00.051
400,-117.0,1059.0,-59.0,1067.0759110766207,2021-08-31 07:28:00.060
401,-117.0,1145.0,-42.0,1151.7282665629075,2021-08-31 07:28:00.061
402,-288.0,1059.0,-44.0,1098.3446635733249,2021-08-31 07:28:00.071
403,-177.0,965.0,-85.0,984.773578037104,2021-08-31 07:28:00.080
404,-240.0,1021.0,-18.0,1048.982840660418,2021-08-31 07:28:00.090
405,-249.0,1063.0,10.0,1091.8195821654786,2021-08-31 07:28:00.115
406,-249.0,1034.0,-65.0,1065.5430540339512,2021-08-31 07:28:00.116
407,-273.0,952.0,13.0,990.4554507901908,2021-08-31 07:28:00.119
408,-195.0,928.0,20.0,948.477200569418,2021-08-31 07:28:00.129
409,-117.0,976.0,-43.0,983.9278428828,2021-08-31 07:28:00.139
410,-265.0,1039.0,69.0,1074.479874171685,2021-08-31 07:28:00.149
411,-122.0,945.0,7.0,952.868301498166,2021-08-31 07:28:00.160
412,-151.0,844.0,-27.0,857.8263227483754,2021-08-31 07:28:00.176
413,-206.0,979.0,0.0,1000.4384039010098,2021-08-31 07:28:00.179
414,-160.0,995.0,0.0,1007.7822185373188,2021-08-31 07:28:00.187
415,-160.0,995.0,56.0,1009.336911046059,2021-08-31 07:28:00.188
416,-137.0,995.0,56.0,1005.947314723788,2021-08-31 07:28:00.198
417,-137.0,936.0,-16.0,946.1083447470484,2021-08-31 07:28:00.199
418,-201.0,937.0,-95.0,963.0134993861716,2021-08-31 07:28:00.207
419,-251.0,1146.0,-22.0,1173.3716376323405,2021-08-31 07:28:00.217
420,-222.0,971.0,-22.0,996.2976462884976,2021-08-31 07:28:00.226
421,-222.0,971.0,-68.0,998.3731767230128,2021-08-31 07:28:00.227
422,-154.0,1100.0,-61.0,1112.4014563097264,2021-08-31 07:28:00.236
423,-157.0,949.0,-35.0,962.5357136231362,2021-08-31 07:28:00.247
424,-239.0,999.0,-159.0,1039.4243599223562,2021-08-31 07:28:00.257
425,-113.0,999.0,-159.0,1017.865904724193,2021-08-31 07:28:00.265
426,-113.0,1162.0,-60.0,1169.0222410202468,2021-08-31 07:28:00.266
427,-137.0,1072.0,-8.0,1080.748351837744,2021-08-31 07:28:00.276
428,-185.0,982.0,-113.0,1005.6430778362668,2021-08-31 07:28:00.285
429,-204.0,1030.0,-61.0,1051.7780184050246,2021-08-31 07:28:00.295
430,-204.0,1032.0,5.0,1051.9814637150218,2021-08-31 07:28:00.306
431,-231.0,945.0,5.0,972.8365741479912,2021-08-31 07:28:00.314
432,-231.0,945.0,-13.0,972.9105817083088,2021-08-31 07:28:00.315
433,-178.0,916.0,-71.0,935.8317156412256,2021-08-31 07:28:00.324
434,-190.0,1039.0,56.0,1057.7130990963476,2021-08-31 07:28:00.334
435,-119.0,919.0,-38.0,927.4513464327928,2021-08-31 07:28:00.344
436,-313.0,1057.0,-7.0,1102.3914912588905,2021-08-31 07:28:00.355
437,-206.0,918.0,33.0,941.407988068935,2021-08-31 07:28:00.363
438,-108.0,854.0,16.0,860.9506373770798,2021-08-31 07:28:00.373
439,-157.0,898.0,-68.0,914.1537069880536,2021-08-31 07:28:00.383
440,-274.0,898.0,-68.0,941.330972612715,2021-08-31 07:28:00.392
441,-274.0,1041.0,76.0,1079.135301989514,2021-08-31 07:28:00.393
442,-114.0,878.0,8.0,885.406121505832,2021-08-31 07:28:00.403
443,-158.0,938.0,-35.0,951.8576574257308,2021-08-31 07:28:00.413
444,-198.0,1115.0,-22.0,1132.6574945675325,2021-08-31 07:28:00.422
445,-88.0,971.0,-65.0,977.1437969920293,2021-08-31 07:28:00.432
446,-147.0,955.0,-87.0,970.1561729948432,2021-08-31 07:28:00.441
447,-189.0,1103.0,-84.0,1122.2236853675831,2021-08-31 07:28:00.451
448,-91.0,914.0,-111.0,925.201599652746,2021-08-31 07:28:00.462
449,-211.0,1109.0,-121.0,1135.3602952367148,2021-08-31 07:28:00.471
450,-73.0,1160.0,-121.0,1168.5760565748385,2021-08-31 07:28:00.480
451,-73.0,1160.0,-2.0,1162.2964337895903,2021-08-31 07:28:00.481
452,-104.0,1063.0,-66.0,1070.112610896629,2021-08-31 07:28:00.490
453,-207.0,930.0,-132.0,961.8591372961012,2021-08-31 07:28:00.500
454,-216.0,1081.0,8.0,1102.3978410719062,2021-08-31 07:28:00.511
455,-309.0,1081.0,8.0,1124.3246862005656,2021-08-31 07:28:00.519
456,-309.0,957.0,-20.0,1005.8479010267904,2021-08-31 07:28:00.520
457,-226.0,862.0,-70.0,893.879186467612,2021-08-31 07:28:00.529
458,-165.0,1071.0,30.0,1084.050736820007,2021-08-31 07:28:00.539
459,-231.0,976.0,30.0,1003.4126768184664,2021-08-31 07:28:00.549
460,-219.0,892.0,-1.0,918.4911540129278,2021-08-31 07:28:00.559
461,-87.0,891.0,-51.0,896.6889092656382,2021-08-31 07:28:00.571
462,-94.0,884.0,-18.0,889.1659012805203,2021-08-31 07:28:00.578
463,-172.0,872.0,-20.0,889.02643380273,2021-08-31 07:28:00.588
464,-202.0,938.0,-13.0,959.5921008428528,2021-08-31 07:28:00.598
465,-143.0,999.0,-13.0,1009.2665653830012,2021-08-31 07:28:00.607
466,-143.0,999.0,44.0,1010.1415742360076,2021-08-31 07:28:00.608
467,-107.0,999.0,44.0,1005.6768864799468,2021-08-31 07:28:00.618
468,-107.0,904.0,-34.0,910.9451136045463,2021-08-31 07:28:00.619
469,-170.0,967.0,-64.0,983.91310591942,2021-08-31 07:28:00.635
470,-220.0,1118.0,-9.0,1139.475756653032,2021-08-31 07:28:00.637
471,-118.0,933.0,-9.0,940.475411693469,2021-08-31 07:28:00.646
472,-118.0,933.0,-69.0,942.9602324594606,2021-08-31 07:28:00.647
473,-211.0,974.0,-98.0,1001.3995206709458,2021-08-31 07:28:00.656
474,-170.0,1170.0,-98.0,1186.3405919043653,2021-08-31 07:28:00.667
475,-170.0,1170.0,-66.0,1184.1266824119791,2021-08-31 07:28:00.668
476,-153.0,1043.0,22.0,1054.391767797909,2021-08-31 07:28:00.676
477,-161.0,1043.0,22.0,1055.5823037546622,2021-08-31 07:28:00.685
478,-161.0,1036.0,-96.0,1052.8214473499293,2021-08-31 07:28:00.686
479,-209.0,1021.0,-10.0,1042.219746502627,2021-08-31 07:28:00.695
480,-145.0,1027.0,-83.0,1040.5013214792184,2021-08-31 07:28:00.705
481,-208.0,1027.0,-83.0,1051.133673706632,2021-08-31 07:28:00.715
482,-208.0,1003.0,-58.0,1025.9809939760094,2021-08-31 07:28:00.716
483,-251.0,1003.0,-58.0,1035.5549237003318,2021-08-31 07:28:00.724
484,-251.0,1025.0,36.0,1055.898669380732,2021-08-31 07:28:00.725
485,-219.0,999.0,-24.0,1023.0043988175222,2021-08-31 07:28:00.734
486,-151.0,831.0,-89.0,849.2838159296338,2021-08-31 07:28:00.744
487,-185.0,1151.0,55.0,1167.069406676398,2021-08-31 07:28:00.754
488,-236.0,903.0,-5.0,933.3434523260984,2021-08-31 07:28:00.764
489,-164.0,868.0,-5.0,883.3713828283096,2021-08-31 07:28:00.774
490,-164.0,868.0,-35.0,884.0503379333102,2021-08-31 07:28:00.775
491,-164.0,989.0,36.0,1003.151533916985,2021-08-31 07:28:00.783
492,-266.0,945.0,20.0,981.9271867098904,2021-08-31 07:28:00.793
493,-194.0,929.0,0.0,949.0400413048968,2021-08-31 07:28:00.803
494,-269.0,929.0,0.0,967.1618272037002,2021-08-31 07:28:00.812
495,-269.0,1008.0,27.0,1043.625411725874,2021-08-31 07:28:00.813
496,-149.0,1008.0,27.0,1019.3105513041646,2021-08-31 07:28:00.823
497,-149.0,864.0,-15.0,876.8819760948448,2021-08-31 07:28:00.824
498,-187.0,974.0,-13.0,991.8739839314268,2021-08-31 07:28:00.832
499,-193.0,1067.0,-45.0,1085.2478979477453,2021-08-31 07:28:00.842
500,-154.0,1025.0,-27.0,1036.8558241144233,2021-08-31 07:28:00.854
501,-170.0,912.0,-127.0,936.3615754611036,2021-08-31 07:28:00.861
502,-206.0,1121.0,-76.0,1142.3016239155052,2021-08-31 07:28:00.872
503,-136.0,1118.0,-31.0,1126.668096646035,2021-08-31 07:28:00.881
504,-139.0,1001.0,-44.0,1011.5621582483204,2021-08-31 07:28:00.891
505,-223.0,1049.0,-72.0,1074.8553391038256,2021-08-31 07:28:00.900
506,-187.0,1060.0,-17.0,1076.5026706887447,2021-08-31 07:28:00.910
507,-279.0,961.0,-17.0,1000.8251595558536,2021-08-31 07:28:00.920
508,-279.0,961.0,-8.0,1000.7127459965722,2021-08-31 07:28:00.921
509,-224.0,1125.0,9.0,1147.1189999298242,2021-08-31 07:28:00.931
510,-256.0,1125.0,9.0,1153.7946091051042,2021-08-31 07:28:00.939
511,-256.0,970.0,-32.0,1003.7230693772062,2021-08-31 07:28:00.940
512,-253.0,970.0,-32.0,1002.962112943455,2021-08-31 07:28:00.955
513,-253.0,924.0,-20.0,958.2197034083572,2021-08-31 07:28:00.956
514,-204.0,1037.0,-5.0,1056.8869381348225,2021-08-31 07:28:00.960
515,-156.0,1025.0,46.0,1037.823202669896,2021-08-31 07:28:00.970
516,-175.0,869.0,-82.0,890.230307280088,2021-08-31 07:28:00.979
517,-110.0,901.0,-26.0,908.0622225376408,2021-08-31 07:28:00.988
518,-190.0,1061.0,69.0,1080.0842559726532,2021-08-31 07:28:00.998
519,-202.0,1061.0,69.0,1082.2596730914445,2021-08-31 07:28:01.009
520,-202.0,825.0,-28.0,849.8311597017374,2021-08-31 07:28:01.010
521,-119.0,825.0,-28.0,834.0083932431376,2021-08-31 07:28:01.017
522,-119.0,948.0,-21.0,955.6704452895884,2021-08-31 07:28:01.018
523,-202.0,1034.0,5.0,1053.558256576256,2021-08-31 07:28:01.027
524,-273.0,1034.0,-20.0,1069.6190910786886,2021-08-31 07:28:01.038
525,-216.0,1031.0,-36.0,1053.998576849134,2021-08-31 07:28:01.047
526,-199.0,1087.0,-40.0,1105.7893108544683,2021-08-31 07:28:01.057
527,-88.0,943.0,-40.0,947.9414538883716,2021-08-31 07:28:01.066
528,-88.0,943.0,-46.0,948.213583534849,2021-08-31 07:28:01.067
529,-225.0,964.0,-134.0,998.9379360100406,2021-08-31 07:28:01.076
530,-169.0,964.0,-134.0,987.8324756759114,2021-08-31 07:28:01.086
531,-169.0,1193.0,-30.0,1205.284198851043,2021-08-31 07:28:01.087
532,-181.0,1041.0,-49.0,1057.7537520614144,2021-08-31 07:28:01.096
533,-179.0,1041.0,-49.0,1057.4133534242887,2021-08-31 07:28:01.105
534,-179.0,929.0,-89.0,950.2646999652256,2021-08-31 07:28:01.106
535,-190.0,1167.0,-17.0,1182.4880549079555,2021-08-31 07:28:01.126
536,-171.0,953.0,-5.0,968.2329265212994,2021-08-31 07:28:01.135
537,-167.0,941.0,-5.0,955.7170083241168,2021-08-31 07:28:01.137
538,-167.0,941.0,-79.0,958.9635029551438,2021-08-31 07:28:01.138
539,-236.0,967.0,-98.0,1000.1944810885532,2021-08-31 07:28:01.145
540,-132.0,1032.0,63.0,1042.3132926332655,2021-08-31 07:28:01.156
541,-209.0,881.0,-38.0,906.2483103432525,2021-08-31 07:28:01.165
542,-181.0,1122.0,22.0,1136.7185227663003,2021-08-31 07:28:01.174
543,-114.0,893.0,-15.0,900.3721452821605,2021-08-31 07:28:01.195
544,-168.0,853.0,-73.0,872.4459868668089,2021-08-31 07:28:01.197
545,-119.0,995.0,-1.0,1002.0913132045404,2021-08-31 07:28:01.204
546,-193.0,977.0,37.0,996.5676093472032,2021-08-31 07:28:01.213
547,-132.0,1024.0,47.0,1033.5419681851338,2021-08-31 07:28:01.227
548,-120.0,973.0,0.0,980.3718682214418,2021-08-31 07:28:01.237
549,-209.0,1084.0,10.0,1104.009510828598,2021-08-31 07:28:01.242
550,-179.0,942.0,-66.0,961.1248618155709,2021-08-31 07:28:01.253
551,-119.0,1026.0,-109.0,1038.6134988531585,2021-08-31 07:28:01.262
552,-209.0,1076.0,-109.0,1101.5162277515478,2021-08-31 07:28:01.271
553,-209.0,1076.0,-63.0,1097.9189405416048,2021-08-31 07:28:01.272
554,-108.0,942.0,-69.0,950.678178985928,2021-08-31 07:28:01.281
555,-227.0,1138.0,-66.0,1162.2947130568907,2021-08-31 07:28:01.291
556,-88.0,1067.0,-61.0,1072.3590816512908,2021-08-31 07:28:01.302
557,-117.0,1014.0,-55.0,1022.2083936262704,2021-08-31 07:28:01.311
558,-228.0,1064.0,-98.0,1092.5584652548348,2021-08-31 07:28:01.320
559,-251.0,1105.0,38.0,1133.785694035694,2021-08-31 07:28:01.330
560,-162.0,922.0,-48.0,937.3537219214528,2021-08-31 07:28:01.340
561,-224.0,912.0,-96.0,944.0,2021-08-31 07:28:01.350
562,-275.0,1101.0,8.0,1134.852413311969,2021-08-31 07:28:01.359
563,-82.0,976.0,-9.0,979.4799640625632,2021-08-31 07:28:01.369
564,-220.0,874.0,-24.0,901.5830521920872,2021-08-31 07:28:01.379
565,-179.0,964.0,-22.0,980.7247320221918,2021-08-31 07:28:01.389
566,-207.0,860.0,-22.0,884.835012869631,2021-08-31 07:28:01.398
567,-207.0,860.0,-70.0,887.3268845245252,2021-08-31 07:28:01.399
568,-193.0,860.0,-70.0,884.1657084506274,2021-08-31 07:28:01.409
569,-193.0,994.0,74.0,1015.2640050745422,2021-08-31 07:28:01.410
570,-141.0,994.0,74.0,1006.6742273446758,2021-08-31 07:28:01.418
571,-141.0,984.0,24.0,994.3404849446692,2021-08-31 07:28:01.419
572,-179.0,805.0,-20.0,824.9036307351302,2021-08-31 07:28:01.428
573,-171.0,932.0,-20.0,947.7684316329596,2021-08-31 07:28:01.439
574,-171.0,932.0,-8.0,947.5911565648976,2021-08-31 07:28:01.440
575,-140.0,1076.0,2.0,1085.0714262204124,2021-08-31 07:28:01.447
576,-230.0,986.0,-34.0,1013.0409665951324,2021-08-31 07:28:01.458
577,-153.0,963.0,-94.0,979.598897508567,2021-08-31 07:28:01.467
578,-156.0,963.0,-94.0,980.0719361353024,2021-08-31 07:28:01.476
579,-156.0,1063.0,-15.0,1074.4905769712454,2021-08-31 07:28:01.477
580,-265.0,1094.0,-42.0,1126.421324372013,2021-08-31 07:28:01.486
581,-119.0,1004.0,-81.0,1014.2672231714874,2021-08-31 07:28:01.496
582,-206.0,988.0,-90.0,1013.252189733632,2021-08-31 07:28:01.506
583,-146.0,988.0,-90.0,1002.7761465052906,2021-08-31 07:28:01.515
584,-146.0,1011.0,-83.0,1024.854135962772,2021-08-31 07:28:01.516
585,-218.0,973.0,-65.0,999.2387102189348,2021-08-31 07:28:01.525
586,-227.0,1161.0,-26.0,1183.269200140019,2021-08-31 07:28:01.535
587,-134.0,936.0,-26.0,945.9006290303438,2021-08-31 07:28:01.545
588,-249.0,979.0,-65.0,1012.2583662287016,2021-08-31 07:28:01.555
589,-168.0,1011.0,-52.0,1026.1817577797804,2021-08-31 07:28:01.566
590,-179.0,1031.0,57.0,1047.974713435396,2021-08-31 07:28:01.575
591,-188.0,887.0,-60.0,908.6875150457388,2021-08-31 07:28:01.584
592,-236.0,914.0,-8.0,944.010593160903,2021-08-31 07:28:01.594
593,-207.0,914.0,-8.0,937.1814125344144,2021-08-31 07:28:01.603
594,-207.0,1089.0,61.0,1110.1761121551842,2021-08-31 07:28:01.604
595,-183.0,882.0,22.0,901.0532725649466,2021-08-31 07:28:01.614
596,-236.0,873.0,-20.0,904.5579030664647,2021-08-31 07:28:01.623
597,-194.0,939.0,53.0,960.2947464190356,2021-08-31 07:28:01.643
598,-198.0,814.0,-55.0,839.5385637360562,2021-08-31 07:28:01.645
599,-265.0,969.0,21.0,1004.801970539469,2021-08-31 07:28:01.652
600,-153.0,1035.0,-8.0,1046.2781656901764,2021-08-31 07:28:01.663
601,-287.0,955.0,-25.0,997.5063909569702,2021-08-31 07:28:01.672
602,-132.0,955.0,-25.0,964.403442548812,2021-08-31 07:28:01.681
603,-132.0,1015.0,-62.0,1025.4233272166184,2021-08-31 07:28:01.682
604,-153.0,1089.0,-62.0,1101.4417823925148,2021-08-31 07:28:01.691
605,-153.0,1089.0,-25.0,1099.9795452643657,2021-08-31 07:28:01.692
606,-194.0,1040.0,-89.0,1061.6765044023532,2021-08-31 07:28:01.701
607,-106.0,980.0,-103.0,991.0827412481764,2021-08-31 07:28:01.711
608,-223.0,1152.0,-2.0,1173.386977940355,2021-08-31 07:28:01.721
609,-251.0,1020.0,-2.0,1050.430863979158,2021-08-31 07:28:01.730
610,-251.0,1020.0,-61.0,1052.1986504458175,2021-08-31 07:28:01.731
611,-106.0,945.0,-47.0,952.0871808820872,2021-08-31 07:28:01.740
612,-243.0,945.0,-47.0,976.8740962887696,2021-08-31 07:28:01.750
613,-243.0,1100.0,-6.0,1126.5367282072964,2021-08-31 07:28:01.751
614,-97.0,886.0,-75.0,894.4439613525266,2021-08-31 07:28:01.760
615,-276.0,1007.0,-85.0,1047.5924780180508,2021-08-31 07:28:01.771
616,-266.0,1060.0,7.0,1092.88837490386,2021-08-31 07:28:01.779
617,-112.0,932.0,6.0,938.7246667686964,2021-08-31 07:28:01.789
618,-298.0,887.0,-63.0,937.8390053735236,2021-08-31 07:28:01.799
619,-150.0,887.0,-63.0,901.79709469481,2021-08-31 07:28:01.808
620,-150.0,978.0,14.0,989.5352444455932,2021-08-31 07:28:01.809
621,-177.0,988.0,82.0,1007.0734829196924,2021-08-31 07:28:01.819
622,-140.0,812.0,-38.0,824.8563511303043,2021-08-31 07:28:01.828
623,-255.0,965.0,18.0,998.2855302968184,2021-08-31 07:28:01.838
624,-150.0,1025.0,13.0,1035.999034748585,2021-08-31 07:28:01.848
625,-125.0,927.0,13.0,935.4800906486464,2021-08-31 07:28:01.857
626,-125.0,927.0,-40.0,936.244626152802,2021-08-31 07:28:01.858
627,-140.0,1081.0,1.0,1090.028439995948,2021-08-31 07:28:01.867
628,-152.0,943.0,-48.0,956.3770177079748,2021-08-31 07:28:01.877
629,-147.0,972.0,-60.0,984.8822264616211,2021-08-31 07:28:01.887
630,-155.0,1089.0,-60.0,1101.6106390190682,2021-08-31 07:28:01.896
631,-155.0,1089.0,-28.0,1100.331768149952,2021-08-31 07:28:01.897
632,-162.0,1011.0,-62.0,1025.7723919076784,2021-08-31 07:28:01.907
633,-148.0,1007.0,-102.0,1022.9159300744124,2021-08-31 07:28:01.916
634,-215.0,986.0,-102.0,1014.3101103705908,2021-08-31 07:28:01.927
635,-245.0,1197.0,-102.0,1226.066066735394,2021-08-31 07:28:01.935
636,-245.0,1197.0,21.0,1221.9963175067264,2021-08-31 07:28:01.936
637,-129.0,918.0,-102.0,932.6140680903328,2021-08-31 07:28:01.945
638,-109.0,929.0,-77.0,938.53662688251,2021-08-31 07:28:01.955
639,-315.0,1164.0,28.0,1206.1944287717463,2021-08-31 07:28:01.970
640,-203.0,1164.0,28.0,1181.900588036067,2021-08-31 07:28:01.974
641,-203.0,880.0,-24.0,903.4295766688182,2021-08-31 07:28:01.975
642,-232.0,1040.0,-26.0,1065.8799181896618,2021-08-31 07:28:01.984
643,-213.0,1008.0,40.0,1031.0349169645033,2021-08-31 07:28:01.994
644,-89.0,898.0,-34.0,903.0398662296144,2021-08-31 07:28:02.004
645,-253.0,1005.0,-56.0,1037.8680070220876,2021-08-31 07:28:02.014
646,-142.0,1026.0,36.0,1036.405326115222,2021-08-31 07:28:02.023
647,-104.0,889.0,16.0,895.2055629853961,2021-08-31 07:28:02.034
648,-233.0,849.0,-27.0,880.8058809976237,2021-08-31 07:28:02.043
649,-219.0,1007.0,13.0,1030.620686770841,2021-08-31 07:28:02.053
650,-183.0,997.0,13.0,1013.7391183139772,2021-08-31 07:28:02.063
651,-183.0,997.0,44.0,1014.6102700051878,2021-08-31 07:28:02.064
652,-123.0,884.0,-103.0,898.4397586928129,2021-08-31 07:28:02.072
653,-172.0,1069.0,-68.0,1084.882021235489,2021-08-31 07:28:02.082
654,-98.0,1066.0,-23.0,1070.7422659071603,2021-08-31 07:28:02.092
655,-123.0,1066.0,-23.0,1073.3191510450188,2021-08-31 07:28:02.101
656,-123.0,1047.0,-91.0,1058.120503534451,2021-08-31 07:28:02.102
657,-145.0,1099.0,-20.0,1108.70464957986,2021-08-31 07:28:02.112
658,-143.0,1005.0,-115.0,1021.6158769322254,2021-08-31 07:28:02.121
659,-150.0,1035.0,-90.0,1049.678522215254,2021-08-31 07:28:02.131
660,-183.0,1133.0,-21.0,1147.8758643686172,2021-08-31 07:28:02.155
661,-183.0,1027.0,-21.0,1043.3882307175982,2021-08-31 07:28:02.156
662,-183.0,1027.0,-39.0,1043.9056470773592,2021-08-31 07:28:02.157
663,-170.0,954.0,-74.0,971.8497826310402,2021-08-31 07:28:02.160
664,-198.0,989.0,-44.0,1009.5845680278596,2021-08-31 07:28:02.171
665,-295.0,1067.0,5.0,1107.040649660165,2021-08-31 07:28:02.180
666,-124.0,880.0,5.0,888.7074884347493,2021-08-31 07:28:02.189
667,-124.0,880.0,-55.0,890.3937331315849,2021-08-31 07:28:02.190
668,-208.0,952.0,-21.0,974.684051372546,2021-08-31 07:28:02.208
669,-322.0,1037.0,18.0,1085.9912522667942,2021-08-31 07:28:02.210
670,-278.0,1037.0,18.0,1073.767665745249,2021-08-31 07:28:02.219
671,-278.0,877.0,-70.0,922.666245182948,2021-08-31 07:28:02.220
672,-253.0,1041.0,-70.0,1073.5874440398416,2021-08-31 07:28:02.229
673,-253.0,1041.0,83.0,1074.5133782322116,2021-08-31 07:28:02.230
674,-107.0,940.0,49.0,947.3383767165776,2021-08-31 07:28:02.238
675,-151.0,853.0,-7.0,866.2903670248215,2021-08-31 07:28:02.248
676,-198.0,1006.0,-17.0,1025.440880792257,2021-08-31 07:28:02.258
677,-168.0,1006.0,-17.0,1020.0730366008112,2021-08-31 07:28:02.268
678,-168.0,965.0,34.0,980.1045862559772,2021-08-31 07:28:02.269
679,-148.0,967.0,-10.0,978.3113001493952,2021-08-31 07:28:02.278
680,-212.0,987.0,-115.0,1016.0403535293271,2021-08-31 07:28:02.287
681,-143.0,1088.0,-14.0,1097.4465818435085,2021-08-31 07:28:02.297
682,-200.0,962.0,-69.0,984.9898476634164,2021-08-31 07:28:02.307
683,-165.0,1041.0,-85.0,1057.4171362333789,2021-08-31 07:28:02.316
684,-215.0,1097.0,-54.0,1119.1738024096169,2021-08-31 07:28:02.326
685,-212.0,1097.0,-54.0,1118.6013588405835,2021-08-31 07:28:02.336
686,-212.0,1040.0,-30.0,1061.811659382209,2021-08-31 07:28:02.337
687,-270.0,1043.0,-44.0,1078.2787209251603,2021-08-31 07:28:02.346
688,-212.0,1175.0,-44.0,1194.7824069678963,2021-08-31 07:28:02.355
689,-212.0,1175.0,14.0,1194.054018878543,2021-08-31 07:28:02.356
690,-153.0,884.0,-112.0,904.1067414857606,2021-08-31 07:28:02.365
691,-277.0,999.0,-14.0,1036.7863810833935,2021-08-31 07:28:02.376
692,-232.0,999.0,-14.0,1025.6807495512433,2021-08-31 07:28:02.385
693,-232.0,1113.0,36.0,1137.4924175571457,2021-08-31 07:28:02.386
694,-270.0,1113.0,36.0,1145.8468484051436,2021-08-31 07:28:02.394
695,-270.0,859.0,-10.0,900.4893114301801,2021-08-31 07:28:02.395
696,-168.0,960.0,-29.0,975.0205126047348,2021-08-31 07:28:02.404
697,-162.0,1094.0,52.0,1107.1512995069825,2021-08-31 07:28:02.417
698,-238.0,927.0,52.0,958.4763951188364,2021-08-31 07:28:02.424
699,-238.0,927.0,-11.0,957.1279956202304,2021-08-31 07:28:02.425
700,-48.0,834.0,-55.0,837.1887481327016,2021-08-31 07:28:02.434
701,-164.0,1016.0,20.0,1029.3454230723523,2021-08-31 07:28:02.443
702,-256.0,965.0,-4.0,998.3871994371724,2021-08-31 07:28:02.453
703,-104.0,905.0,-8.0,910.991218398948,2021-08-31 07:28:02.463
704,-280.0,1051.0,48.0,1088.717134980432,2021-08-31 07:28:02.473
705,-106.0,900.0,48.0,907.4910467877908,2021-08-31 07:28:02.482
706,-106.0,900.0,1.0,906.2212754068402,2021-08-31 07:28:02.483
707,-219.0,900.0,-61.0,928.2682801862832,2021-08-31 07:28:02.493
708,-254.0,1130.0,-102.0,1162.67794337039,2021-08-31 07:28:02.502
709,-120.0,1020.0,12.0,1027.1046684734715,2021-08-31 07:28:02.512
710,-170.0,1020.0,12.0,1034.139255613092,2021-08-31 07:28:02.521
711,-170.0,959.0,-102.0,979.277795112296,2021-08-31 07:28:02.522
712,-222.0,1070.0,-135.0,1101.0944555304964,2021-08-31 07:28:02.532
713,-172.0,1070.0,-135.0,1092.112173725758,2021-08-31 07:28:02.541
714,-172.0,1174.0,61.0,1188.0997432875745,2021-08-31 07:28:02.542
715,-176.0,980.0,-127.0,1003.7454856685532,2021-08-31 07:28:02.551
716,-206.0,980.0,-127.0,1009.4379624325608,2021-08-31 07:28:02.560
717,-206.0,987.0,-83.0,1011.6788027827804,2021-08-31 07:28:02.561
718,-191.0,1094.0,39.0,1111.2326489084094,2021-08-31 07:28:02.570
719,-219.0,902.0,39.0,929.0242192752564,2021-08-31 07:28:02.580
720,-219.0,902.0,-37.0,928.9424094097544,2021-08-31 07:28:02.581
721,-230.0,1014.0,21.0,1039.9697110973957,2021-08-31 07:28:02.590
722,-244.0,1014.0,21.0,1043.155309625561,2021-08-31 07:28:02.599
723,-244.0,1021.0,-14.0,1049.844274166412,2021-08-31 07:28:02.600
724,-206.0,852.0,-47.0,877.8092047819958,2021-08-31 07:28:02.609
725,-267.0,1064.0,-47.0,1097.9954462564951,2021-08-31 07:28:02.619
726,-267.0,1064.0,47.0,1097.9954462564951,2021-08-31 07:28:02.621
727,-217.0,985.0,11.0,1008.679830273214,2021-08-31 07:28:02.629
728,-143.0,834.0,1.0,846.1713774407641,2021-08-31 07:28:02.639
729,-112.0,916.0,-59.0,924.7058991917376,2021-08-31 07:28:02.657
730,-192.0,1050.0,-59.0,1069.039288333221,2021-08-31 07:28:02.659
731,-192.0,1050.0,54.0,1068.7749997076091,2021-08-31 07:28:02.660
732,-194.0,927.0,21.0,947.3151534732252,2021-08-31 07:28:02.668
733,-95.0,893.0,21.0,898.2844760987468,2021-08-31 07:28:02.679
734,-95.0,893.0,-65.0,900.3882495901421,2021-08-31 07:28:02.680
735,-203.0,1045.0,-65.0,1066.5172291154045,2021-08-31 07:28:02.687
736,-203.0,1045.0,-41.0,1065.3238944095829,2021-08-31 07:28:02.688
737,-194.0,1090.0,-36.0,1107.7147647296213,2021-08-31 07:28:02.697
738,-156.0,973.0,-95.0,989.9949494820668,2021-08-31 07:28:02.707
739,-178.0,1119.0,-33.0,1133.5492931496185,2021-08-31 07:28:02.717
740,-120.0,1119.0,-33.0,1125.8996402877124,2021-08-31 07:28:02.727
741,-120.0,931.0,-59.0,940.5540920117248,2021-08-31 07:28:02.728
742,-220.0,1037.0,-87.0,1063.643737348178,2021-08-31 07:28:02.736
743,-219.0,1165.0,-72.0,1187.5899965897322,2021-08-31 07:28:02.746
744,-162.0,980.0,-81.0,996.5967088045194,2021-08-31 07:28:02.756
745,-213.0,1080.0,-78.0,1103.5637725115844,2021-08-31 07:28:02.766
746,-222.0,1033.0,-78.0,1059.4607118718466,2021-08-31 07:28:02.775
747,-222.0,1033.0,-11.0,1056.642796786123,2021-08-31 07:28:02.776
748,-222.0,1004.0,24.0,1028.530991268615,2021-08-31 07:28:02.787
749,-140.0,911.0,-111.0,928.354458167784,2021-08-31 07:28:02.795
750,-250.0,993.0,19.0,1024.1630729527403,2021-08-31 07:28:02.805
751,-120.0,1057.0,10.0,1063.8369235930852,2021-08-31 07:28:02.817
752,-190.0,825.0,-65.0,849.0877457601188,2021-08-31 07:28:02.824
753,-130.0,1041.0,13.0,1049.1663357161246,2021-08-31 07:28:02.835
754,-154.0,822.0,-64.0,838.7466840470966,2021-08-31 07:28:02.844
755,-113.0,922.0,-64.0,931.100961228158,2021-08-31 07:28:02.853
756,-113.0,922.0,-46.0,930.0370960343464,2021-08-31 07:28:02.854
757,-163.0,1049.0,61.0,1063.3395506610295,2021-08-31 07:28:02.863
758,-114.0,896.0,-21.0,903.467210251706,2021-08-31 07:28:02.873
759,-228.0,874.0,-21.0,903.4937741899498,2021-08-31 07:28:02.883
760,-228.0,874.0,17.0,903.40965237261,2021-08-31 07:28:02.884
761,-207.0,1016.0,-35.0,1037.4632523612584,2021-08-31 07:28:02.893
762,-245.0,1058.0,10.0,1086.0428168355058,2021-08-31 07:28:02.902
763,-203.0,942.0,-51.0,964.973574767724,2021-08-31 07:28:02.912
764,-34.0,986.0,-107.0,992.3714022481704,2021-08-31 07:28:02.922
765,-206.0,1185.0,-42.0,1203.505297038613,2021-08-31 07:28:02.932
766,-194.0,1014.0,-49.0,1033.5535786789187,2021-08-31 07:28:02.942
767,-184.0,1128.0,-70.0,1145.0502172394013,2021-08-31 07:28:02.951
768,-191.0,1094.0,-22.0,1110.765951944873,2021-08-31 07:28:02.961
769,-183.0,933.0,-99.0,955.9178835025529,2021-08-31 07:28:02.971
770,-168.0,1087.0,-54.0,1101.2306751993426,2021-08-31 07:28:02.987
771,-174.0,1099.0,-38.0,1113.33777444224,2021-08-31 07:28:02.990
772,-148.0,857.0,-96.0,874.9679994148357,2021-08-31 07:28:03.000
773,-248.0,1065.0,-96.0,1097.6998679056128,2021-08-31 07:28:03.012
774,-248.0,1065.0,-42.0,1094.3002330256536,2021-08-31 07:28:03.013
775,-167.0,1026.0,45.0,1040.4758526751114,2021-08-31 07:28:03.021
776,-197.0,880.0,-25.0,902.1274854475946,2021-08-31 07:28:03.029
777,-286.0,839.0,-100.0,892.029708025467,2021-08-31 07:28:03.039
778,-215.0,1037.0,130.0,1067.0023430152344,2021-08-31 07:28:03.049
779,-138.0,894.0,45.0,905.70690623402,2021-08-31 07:28:03.059
780,-241.0,970.0,32.0,1000.002499996875,2021-08-31 07:28:03.070
781,-170.0,996.0,50.0,1011.6402522636196,2021-08-31 07:28:03.078
782,-131.0,873.0,-6.0,882.7944268061506,2021-08-31 07:28:03.088
783,-137.0,903.0,-22.0,913.59838003359,2021-08-31 07:28:03.098
784,-214.0,903.0,-22.0,928.2720506403282,2021-08-31 07:28:03.107
785,-214.0,1061.0,8.0,1082.395953429243,2021-08-31 07:28:03.108
786,-112.0,963.0,-10.0,969.542675698187,2021-08-31 07:28:03.118
787,-155.0,965.0,-85.0,981.0581022549072,2021-08-31 07:28:03.128
788,-169.0,1010.0,-61.0,1025.856715141057,2021-08-31 07:28:03.137
789,-91.0,1157.0,-61.0,1162.1751158926093,2021-08-31 07:28:03.146
790,-91.0,1157.0,3.0,1160.5770116627332,2021-08-31 07:28:03.147
791,-219.0,947.0,-166.0,986.0659207172712,2021-08-31 07:28:03.172
792,-216.0,1141.0,-13.0,1161.3380214218423,2021-08-31 07:28:03.178
793,-132.0,1140.0,-71.0,1149.8108540103456,2021-08-31 07:28:03.186
794,-272.0,1052.0,-27.0,1086.9300805479625,2021-08-31 07:28:03.200
795,-201.0,961.0,-61.0,983.6884669446928,2021-08-31 07:28:03.205
796,-117.0,979.0,-55.0,987.4993670884048,2021-08-31 07:28:03.215
797,-242.0,1073.0,0.0,1099.9513625610907,2021-08-31 07:28:03.225
798,-177.0,993.0,0.0,1008.6515751239374,2021-08-31 07:28:03.234
799,-177.0,993.0,-3.0,1008.6560365159175,2021-08-31 07:28:03.235
800,-189.0,858.0,0.0,878.5698606257786,2021-08-31 07:28:03.248
801,-286.0,858.0,0.0,904.4114108081563,2021-08-31 07:28:03.254
802,-286.0,980.0,-16.0,1021.0053868614016,2021-08-31 07:28:03.255
803,-132.0,933.0,36.0,942.9787908537498,2021-08-31 07:28:03.264
804,-139.0,886.0,36.0,897.5594687818741,2021-08-31 07:28:03.273
805,-139.0,886.0,22.0,897.1070170275116,2021-08-31 07:28:03.274
806,-208.0,919.0,-21.0,942.4786469729698,2021-08-31 07:28:03.283
807,-225.0,919.0,-21.0,946.3757182007578,2021-08-31 07:28:03.293
808,-225.0,1042.0,48.0,1067.0955908446065,2021-08-31 07:28:03.294
809,-228.0,1042.0,48.0,1067.732176156549,2021-08-31 07:28:03.303
810,-228.0,1011.0,6.0,1036.407738296082,2021-08-31 07:28:03.304
811,-215.0,980.0,6.0,1003.3249722796696,2021-08-31 07:28:03.312
812,-215.0,980.0,15.0,1003.4191546906007,2021-08-31 07:28:03.313
813,-175.0,982.0,18.0,997.6337003128954,2021-08-31 07:28:03.322
814,-148.0,957.0,-130.0,977.063457509286,2021-08-31 07:28:03.332
815,-176.0,1037.0,-35.0,1052.4115164706247,2021-08-31 07:28:03.342
816,-151.0,1143.0,-35.0,1153.4621797007478,2021-08-31 07:28:03.352
817,-151.0,1143.0,-16.0,1153.0420634131262,2021-08-31 07:28:03.353
818,-146.0,935.0,-96.0,951.18715298305,2021-08-31 07:28:03.361
819,-214.0,1065.0,-73.0,1088.7378013093878,2021-08-31 07:28:03.371
820,-168.0,1122.0,-37.0,1135.111007787344,2021-08-31 07:28:03.381
821,-209.0,1010.0,-83.0,1034.7318493213593,2021-08-31 07:28:03.393
822,-192.0,961.0,-114.0,986.6007297787692,2021-08-31 07:28:03.401
823,-173.0,1078.0,27.0,1092.1272819593878,2021-08-31 07:28:03.411
824,-190.0,957.0,-83.0,979.2027369242796,2021-08-31 07:28:03.420
825,-231.0,1118.0,31.0,1142.0359013621244,2021-08-31 07:28:03.430
826,-202.0,929.0,31.0,951.212909920802,2021-08-31 07:28:03.439
827,-202.0,929.0,3.0,950.712364493068,2021-08-31 07:28:03.440
828,-205.0,908.0,-42.0,931.8009444081928,2021-08-31 07:28:03.450
829,-255.0,971.0,-2.0,1003.9272882036826,2021-08-31 07:28:03.460
830,-317.0,996.0,94.0,1049.4479501147257,2021-08-31 07:28:03.469
831,-128.0,996.0,94.0,1008.5811816606534,2021-08-31 07:28:03.478
832,-128.0,801.0,-12.0,811.2515023098571,2021-08-31 07:28:03.479
833,-168.0,903.0,-6.0,918.5145616700912,2021-08-31 07:28:03.488
834,-186.0,1038.0,-12.0,1054.601346481219,2021-08-31 07:28:03.498
835,-179.0,1038.0,-12.0,1053.389291762547,2021-08-31 07:28:03.508
836,-179.0,980.0,53.0,997.622172969306,2021-08-31 07:28:03.509
837,-136.0,913.0,-36.0,923.7754056046308,2021-08-31 07:28:03.518
838,-152.0,982.0,-87.0,997.4953633977452,2021-08-31 07:28:03.527
839,-137.0,873.0,-37.0,884.4585914558126,2021-08-31 07:28:03.537
840,-167.0,1033.0,-104.0,1051.5674015487548,2021-08-31 07:28:03.547
841,-147.0,1033.0,-104.0,1048.5771311639407,2021-08-31 07:28:03.557
842,-147.0,1047.0,-42.0,1058.1030195590597,2021-08-31 07:28:03.558
843,-102.0,1074.0,-21.0,1079.0370707255613,2021-08-31 07:28:03.568
844,-164.0,1015.0,-173.0,1042.6168999205795,2021-08-31 07:28:03.576
845,-270.0,1108.0,-3.0,1140.426674538964,2021-08-31 07:28:03.586
846,-149.0,1102.0,-60.0,1113.644916479216,2021-08-31 07:28:03.596
847,-281.0,893.0,-60.0,938.0884819674528,2021-08-31 07:28:03.605
848,-281.0,893.0,-94.0,940.875124551606,2021-08-31 07:28:03.606
849,-283.0,1118.0,9.0,1153.29701291558,2021-08-31 07:28:03.616
850,-151.0,1008.0,52.0,1020.572878338436,2021-08-31 07:28:03.625
851,-246.0,871.0,-58.0,906.9294349617284,2021-08-31 07:28:03.635
852,-173.0,871.0,-58.0,889.9067366864912,2021-08-31 07:28:03.644
853,-173.0,998.0,-22.0,1013.1224012921635,2021-08-31 07:28:03.645
854,-194.0,988.0,58.0,1008.5355720052714,2021-08-31 07:28:03.655
855,-137.0,965.0,28.0,975.0784583816832,2021-08-31 07:28:03.672
856,-222.0,979.0,0.0,1003.855069220652,2021-08-31 07:28:03.674
857,-161.0,900.0,47.0,915.4944019490234,2021-08-31 07:28:03.684
858,-109.0,875.0,47.0,883.0147224140717,2021-08-31 07:28:03.693
859,-109.0,875.0,-15.0,881.8905827822406,2021-08-31 07:28:03.694
860,-215.0,923.0,-9.0,947.7526048500208,2021-08-31 07:28:03.704
861,-236.0,999.0,49.0,1027.6662882473083,2021-08-31 07:28:03.713
862,-110.0,999.0,49.0,1006.2315836824046,2021-08-31 07:28:03.722
863,-110.0,874.0,-24.0,881.221878983948,2021-08-31 07:28:03.723
864,-225.0,1019.0,-24.0,1043.820865857739,2021-08-31 07:28:03.732
865,-225.0,1019.0,-58.0,1045.1554908242122,2021-08-31 07:28:03.733
866,-154.0,1104.0,-39.0,1115.3712386465772,2021-08-31 07:28:03.742
867,-117.0,1010.0,-39.0,1017.501842750174,2021-08-31 07:28:03.752
868,-117.0,1010.0,-3.0,1016.7585750806334,2021-08-31 07:28:03.753
869,-125.0,1010.0,-3.0,1017.7101748533322,2021-08-31 07:28:03.762
870,-125.0,986.0,-111.0,1000.0709974796788,2021-08-31 07:28:03.763
871,-133.0,1121.0,-111.0,1134.306395997131,2021-08-31 07:28:03.771
872,-133.0,1121.0,-35.0,1129.4047104559108,2021-08-31 07:28:03.772
873,-84.0,944.0,-92.0,952.1848560022364,2021-08-31 07:28:03.781
874,-194.0,944.0,-92.0,968.1094979391536,2021-08-31 07:28:03.791
875,-194.0,1092.0,-48.0,1110.136928491256,2021-08-31 07:28:03.792
876,-163.0,1127.0,-45.0,1139.6152859627673,2021-08-31 07:28:03.802
877,-183.0,1127.0,-45.0,1142.647364675559,2021-08-31 07:28:03.811
878,-183.0,969.0,-102.0,991.3899333763684,2021-08-31 07:28:03.812
879,-185.0,974.0,-94.0,995.8599299098242,2021-08-31 07:28:03.820
880,-229.0,1124.0,31.0,1147.5094770850478,2021-08-31 07:28:03.830
881,-129.0,936.0,-44.0,945.8715557621975,2021-08-31 07:28:03.840
882,-215.0,934.0,-38.0,959.17933672489,2021-08-31 07:28:03.851
883,-249.0,1048.0,21.0,1077.379227570311,2021-08-31 07:28:03.860
884,-101.0,867.0,-1.0,872.8636777870872,2021-08-31 07:28:03.869
885,-216.0,839.0,-24.0,866.6908329964036,2021-08-31 07:28:03.879
886,-160.0,979.0,2.0,991.9904233408708,2021-08-31 07:28:03.889
887,-159.0,798.0,2.0,813.6885153423268,2021-08-31 07:28:03.898
888,-159.0,798.0,-55.0,815.542764053486,2021-08-31 07:28:03.899
889,-143.0,1008.0,12.0,1018.1635428554688,2021-08-31 07:28:03.908
890,-173.0,1008.0,12.0,1022.8083887024,2021-08-31 07:28:03.918
891,-173.0,999.0,17.0,1014.0113411594566,2021-08-31 07:28:03.919
892,-143.0,934.0,3.0,944.8883531931168,2021-08-31 07:28:03.928
893,-144.0,934.0,3.0,945.0402107847052,2021-08-31 07:28:03.937
894,-144.0,872.0,-87.0,888.0816403912424,2021-08-31 07:28:03.938
895,-174.0,1062.0,-49.0,1077.2748024529303,2021-08-31 07:28:03.947
896,-190.0,1100.0,-35.0,1116.8370516776383,2021-08-31 07:28:03.958
897,-55.0,1100.0,-35.0,1101.9301248264337,2021-08-31 07:28:03.967
898,-55.0,897.0,-102.0,904.4545317482798,2021-08-31 07:28:03.968
899,-135.0,897.0,-102.0,912.8187114646588,2021-08-31 07:28:03.976
900,-135.0,1111.0,-58.0,1120.673904398599,2021-08-31 07:28:03.977
901,-225.0,1095.0,-36.0,1118.4569727977917,2021-08-31 07:28:03.986
902,-133.0,1092.0,-48.0,1101.1162518099532,2021-08-31 07:28:04.005
903,-168.0,1092.0,-48.0,1105.8896870845665,2021-08-31 07:28:04.007
904,-168.0,968.0,-133.0,991.4317929136628,2021-08-31 07:28:04.008
905,-202.0,968.0,-133.0,997.7559821920388,2021-08-31 07:28:04.016
906,-202.0,1080.0,-92.0,1102.5733535688223,2021-08-31 07:28:04.017
907,-235.0,1007.0,-117.0,1040.6550821477788,2021-08-31 07:28:04.025
908,-320.0,1128.0,-9.0,1172.5463743494329,2021-08-31 07:28:04.036
909,-181.0,1089.0,0.0,1103.9393099260485,2021-08-31 07:28:04.045
910,-251.0,969.0,-74.0,1003.7121101192314,2021-08-31 07:28:04.055
911,-211.0,1080.0,3.0,1100.422646077406,2021-08-31 07:28:04.065
912,-177.0,1010.0,43.0,1026.2933303885395,2021-08-31 07:28:04.074
913,-136.0,810.0,43.0,822.4627651146282,2021-08-31 07:28:04.084
914,-136.0,810.0,-28.0,821.8150643545055,2021-08-31 07:28:04.085
915,-185.0,902.0,16.0,920.915305552036,2021-08-31 07:28:04.094
916,-172.0,1032.0,16.0,1046.3574914913163,2021-08-31 07:28:04.103
917,-172.0,1032.0,19.0,1046.40766434502,2021-08-31 07:28:04.104
918,-173.0,968.0,61.0,985.2278924188048,2021-08-31 07:28:04.113
919,-215.0,943.0,-33.0,967.7618508703472,2021-08-31 07:28:04.124
920,-165.0,943.0,-33.0,957.895088201208,2021-08-31 07:28:04.133
921,-165.0,1066.0,-63.0,1080.532276241668,2021-08-31 07:28:04.134
922,-145.0,932.0,-31.0,943.7213571812392,2021-08-31 07:28:04.143
923,-230.0,1135.0,-49.0,1159.1056897453311,2021-08-31 07:28:04.152
924,-286.0,1065.0,-4.0,1102.7406766778852,2021-08-31 07:28:04.162
925,-187.0,1065.0,-4.0,1081.3001433459629,2021-08-31 07:28:04.172
926,-187.0,1019.0,-54.0,1037.4227682097594,2021-08-31 07:28:04.173
927,-243.0,1050.0,-54.0,1079.1037948223516,2021-08-31 07:28:04.197
928,-243.0,1050.0,-118.0,1084.1923261119312,2021-08-31 07:28:04.198
929,-243.0,1175.0,20.0,1200.0308329372208,2021-08-31 07:28:04.199
930,-150.0,1175.0,20.0,1184.704604532286,2021-08-31 07:28:04.201
931,-150.0,1077.0,-68.0,1089.5196189146848,2021-08-31 07:28:04.202
932,-169.0,962.0,-91.0,980.961772955501,2021-08-31 07:28:04.211
933,-235.0,1150.0,-18.0,1173.9033179951405,2021-08-31 07:28:04.221
934,-141.0,951.0,-61.0,963.3291234048723,2021-08-31 07:28:04.231
935,-241.0,846.0,-42.0,880.6594120316889,2021-08-31 07:28:04.241
936,-279.0,936.0,-30.0,977.1576126705456,2021-08-31 07:28:04.250
937,-240.0,769.0,-65.0,808.1992328627886,2021-08-31 07:28:04.270
938,-272.0,965.0,0.0,1002.6011170949292,2021-08-31 07:28:04.273
939,-283.0,935.0,9.0,976.931420315674,2021-08-31 07:28:04.279
940,-202.0,811.0,38.0,836.6415002855166,2021-08-31 07:28:04.289
941,-246.0,813.0,-42.0,850.4404741073887,2021-08-31 07:28:04.299
942,-281.0,918.0,72.0,962.7403595985784,2021-08-31 07:28:04.309
943,-133.0,903.0,54.0,914.338011897132,2021-08-31 07:28:04.319
944,-156.0,903.0,54.0,917.9656856331832,2021-08-31 07:28:04.329
945,-156.0,816.0,-29.0,831.2839466752621,2021-08-31 07:28:04.330
946,-258.0,974.0,-4.0,1007.599126637176,2021-08-31 07:28:04.338
947,-187.0,927.0,10.0,945.726176015024,2021-08-31 07:28:04.348
948,-177.0,857.0,10.0,875.1445594871741,2021-08-31 07:28:04.357
949,-177.0,857.0,-20.0,875.3159429600263,2021-08-31 07:28:04.358
950,-193.0,1026.0,33.0,1044.516155930582,2021-08-31 07:28:04.368
951,-183.0,924.0,33.0,942.5253312245776,2021-08-31 07:28:04.378
952,-183.0,924.0,-60.0,943.8564509500372,2021-08-31 07:28:04.379
953,-117.0,800.0,-84.0,812.8622269487,2021-08-31 07:28:04.387
954,-88.0,1087.0,-84.0,1093.7865422467037,2021-08-31 07:28:04.396
955,-88.0,1087.0,-84.0,1093.7865422467037,2021-08-31 07:28:04.397
956,-234.0,925.0,-81.0,957.5708851045964,2021-08-31 07:28:04.406
957,-83.0,923.0,-108.0,932.9962486526942,2021-08-31 07:28:04.416
958,-118.0,940.0,-44.0,948.3986503575384,2021-08-31 07:28:04.428
959,-251.0,940.0,-44.0,973.9286421499268,2021-08-31 07:28:04.435
960,-251.0,1084.0,17.0,1112.8099568210198,2021-08-31 07:28:04.436
961,-49.0,924.0,-49.0,926.5948413411334,2021-08-31 07:28:04.445
962,-195.0,945.0,-8.0,964.9424853326752,2021-08-31 07:28:04.455
963,-221.0,1072.0,13.0,1094.620482176357,2021-08-31 07:28:04.465
964,-53.0,1072.0,13.0,1073.3880938411792,2021-08-31 07:28:04.475
965,-53.0,871.0,26.0,872.9982817852507,2021-08-31 07:28:04.476
966,-174.0,793.0,-80.0,815.7971561607701,2021-08-31 07:28:04.484
967,-112.0,903.0,4.0,909.9280191311838,2021-08-31 07:28:04.494
968,-100.0,711.0,-48.0,719.6005836573509,2021-08-31 07:28:04.504
969,-140.0,941.0,46.0,952.4688971299796,2021-08-31 07:28:04.514
970,-147.0,865.0,63.0,879.660730054491,2021-08-31 07:28:04.524
971,-102.0,865.0,63.0,873.2685726625,2021-08-31 07:28:04.534
972,-102.0,909.0,52.0,916.1817505276996,2021-08-31 07:28:04.535
973,-81.0,889.0,-66.0,895.118986504029,2021-08-31 07:28:04.543
974,-220.0,1082.0,3.0,1104.1435595066432,2021-08-31 07:28:04.553
975,-205.0,1138.0,-14.0,1156.4017467990957,2021-08-31 07:28:04.567
976,-194.0,963.0,-95.0,986.9295820878002,2021-08-31 07:28:04.572
977,-189.0,1171.0,-76.0,1188.5865555356077,2021-08-31 07:28:04.583
978,-131.0,1147.0,-61.0,1156.0670395785878,2021-08-31 07:28:04.592
979,-193.0,1147.0,-61.0,1164.722713782126,2021-08-31 07:28:04.601
980,-193.0,1037.0,-82.0,1057.989602973489,2021-08-31 07:28:04.602
981,-169.0,1136.0,-107.0,1153.4756174276074,2021-08-31 07:28:04.611
982,-187.0,990.0,-145.0,1017.8870271302212,2021-08-31 07:28:04.621
983,-155.0,990.0,-145.0,1012.4969135755427,2021-08-31 07:28:04.631
984,-155.0,1166.0,-53.0,1177.4506359079348,2021-08-31 07:28:04.632
985,-196.0,1163.0,-38.0,1180.0122880716117,2021-08-31 07:28:04.644
986,-183.0,994.0,-69.0,1013.0577476136294,2021-08-31 07:28:04.702
987,-270.0,1101.0,29.0,1133.9938271436931,2021-08-31 07:28:04.706
988,-270.0,969.0,-5.0,1005.9254445534222,2021-08-31 07:28:04.708
989,-253.0,1025.0,15.0,1055.868836551207,2021-08-31 07:28:04.714
990,-130.0,932.0,75.0,944.0068855681086,2021-08-31 07:28:04.719
991,-146.0,932.0,75.0,946.3429610875752,2021-08-31 07:28:04.728
992,-146.0,965.0,-30.0,976.4430346927568,2021-08-31 07:28:04.729
993,-127.0,884.0,4.0,893.08510232788,2021-08-31 07:28:04.739
994,-150.0,935.0,4.0,946.9640964682876,2021-08-31 07:28:04.749
995,-150.0,935.0,-9.0,946.9984160493616,2021-08-31 07:28:04.750
996,-208.0,1057.0,5.0,1077.2826927041945,2021-08-31 07:28:04.758
997,-102.0,919.0,4.0,924.6518263649295,2021-08-31 07:28:04.768
998,-133.0,971.0,-60.0,981.9012170274564,2021-08-31 07:28:04.777
999,-161.0,997.0,-121.0,1017.1386336188395,2021-08-31 07:28:04.787
1000,-97.0,1108.0,13.0,1112.313804643276,2021-08-31 07:28:04.798
1001,-43.0,1011.0,-124.0,1019.4832024118888,2021-08-31 07:28:04.807
1002,-207.0,980.0,-124.0,1009.2695378341704,2021-08-31 07:28:04.816
1003,-207.0,980.0,-89.0,1005.5694903884068,2021-08-31 07:28:04.817
1004,-149.0,1209.0,-5.0,1218.1572148126038,2021-08-31 07:28:04.826
1005,-181.0,969.0,-97.0,990.5205702053844,2021-08-31 07:28:04.836
1006,-274.0,954.0,-97.0,997.2968464805252,2021-08-31 07:28:04.846
1007,-258.0,987.0,-66.0,1022.295945409156,2021-08-31 07:28:04.857
1008,-199.0,896.0,-113.0,924.76267225705,2021-08-31 07:28:04.865
1009,-234.0,1078.0,32.0,1103.5687563536765,2021-08-31 07:28:04.875
1010,-245.0,981.0,14.0,1011.227966385424,2021-08-31 07:28:04.885
1011,-129.0,902.0,-19.0,911.3758829374408,2021-08-31 07:28:04.895
1012,-184.0,925.0,-32.0,943.6657247140006,2021-08-31 07:28:04.906
1013,-250.0,1022.0,28.0,1052.5055819329416,2021-08-31 07:28:04.914
1014,-162.0,884.0,20.0,898.9438247187641,2021-08-31 07:28:04.924
1015,-101.0,832.0,-62.0,840.3981199407814,2021-08-31 07:28:04.934
1016,-195.0,1077.0,-62.0,1096.2654787960807,2021-08-31 07:28:04.943
1017,-195.0,1077.0,0.0,1094.510849649285,2021-08-31 07:28:04.944
1018,-102.0,991.0,-13.0,996.3202296450676,2021-08-31 07:28:04.954
1019,-109.0,915.0,-24.0,921.7819698822492,2021-08-31 07:28:04.964
1020,-164.0,1071.0,48.0,1084.546448982246,2021-08-31 07:28:04.973
1021,-156.0,913.0,48.0,927.4745279521156,2021-08-31 07:28:04.982
1022,-156.0,913.0,-13.0,926.3228378918444,2021-08-31 07:28:04.983
1023,-165.0,928.0,-98.0,947.6354784409456,2021-08-31 07:28:04.992
1024,-222.0,1096.0,-26.0,1118.5597882992215,2021-08-31 07:28:05.002
1025,-115.0,1096.0,-26.0,1102.323455252586,2021-08-31 07:28:05.018
1026,-115.0,1029.0,-36.0,1036.031852792181,2021-08-31 07:28:05.019
1027,-164.0,1029.0,-36.0,1042.608747325669,2021-08-31 07:28:05.021
1028,-164.0,985.0,-92.0,1002.788611822053,2021-08-31 07:28:05.022
1029,-208.0,1118.0,-39.0,1137.8528024309646,2021-08-31 07:28:05.031
1030,-164.0,1081.0,2.0,1093.3713916140298,2021-08-31 07:28:05.041
1031,-165.0,919.0,2.0,933.6969529777848,2021-08-31 07:28:05.052
1032,-165.0,919.0,-125.0,942.0249465911188,2021-08-31 07:28:05.053
1033,-226.0,1053.0,-35.0,1077.548142775997,2021-08-31 07:28:05.061
1034,-225.0,1065.0,34.0,1089.0390259306596,2021-08-31 07:28:05.070
1035,-130.0,874.0,-23.0,883.9145886339924,2021-08-31 07:28:05.080
1036,-205.0,1047.0,64.0,1068.7983907173514,2021-08-31 07:28:05.090
1037,-244.0,952.0,-18.0,982.9364170687746,2021-08-31 07:28:05.101
1038,-197.0,874.0,-8.0,895.9626108270367,2021-08-31 07:28:05.109
1039,-185.0,1037.0,-2.0,1053.374577251606,2021-08-31 07:28:05.119
1040,-274.0,899.0,-2.0,939.8303038314948,2021-08-31 07:28:05.129
1041,-162.0,874.0,5.0,888.9010068618439,2021-08-31 07:28:05.139
1042,-190.0,874.0,5.0,894.4277500167356,2021-08-31 07:28:05.148
1043,-190.0,945.0,4.0,963.9196024565534,2021-08-31 07:28:05.149
1044,-232.0,1037.0,10.0,1062.6819844149047,2021-08-31 07:28:05.159
1045,-154.0,952.0,4.0,964.383741049174,2021-08-31 07:28:05.168
1046,-118.0,916.0,-40.0,924.4349625582104,2021-08-31 07:28:05.178
1047,-217.0,916.0,-40.0,942.2022075966496,2021-08-31 07:28:05.187
1048,-217.0,1072.0,-67.0,1095.7928636380143,2021-08-31 07:28:05.188
1049,-154.0,976.0,-48.0,989.24011240952,2021-08-31 07:28:05.199
1050,-172.0,976.0,-48.0,992.201592419605,2021-08-31 07:28:05.217
1051,-172.0,1032.0,-61.0,1048.0119274130425,2021-08-31 07:28:05.218
1052,-142.0,1032.0,-61.0,1043.5080258435964,2021-08-31 07:28:05.219
1053,-142.0,1076.0,-16.0,1085.4473732060897,2021-08-31 07:28:05.220
1054,-85.0,1001.0,-110.0,1010.6067484437258,2021-08-31 07:28:05.230
1055,-218.0,1071.0,-79.0,1095.812940241171,2021-08-31 07:28:05.236
1056,-209.0,1151.0,13.0,1169.8935849041998,2021-08-31 07:28:05.246
1057,-199.0,1009.0,-61.0,1030.244145821756,2021-08-31 07:28:05.256
1058,-305.0,911.0,-81.0,964.1094336225532,2021-08-31 07:28:05.266
1059,-256.0,1055.0,23.0,1085.8591068826563,2021-08-31 07:28:05.277
1060,-270.0,970.0,8.0,1006.9081388090972,2021-08-31 07:28:05.295
1061,-185.0,899.0,-54.0,919.4248202001075,2021-08-31 07:28:05.298
1062,-189.0,1032.0,26.0,1049.4860647002415,2021-08-31 07:28:05.309
1063,-204.0,1032.0,26.0,1052.2908343229071,2021-08-31 07:28:05.314
1064,-204.0,961.0,0.0,982.413863908689,2021-08-31 07:28:05.315
1065,-161.0,967.0,-14.0,980.4111382476232,2021-08-31 07:28:05.324
1066,-206.0,1031.0,47.0,1052.4286199073076,2021-08-31 07:28:05.334
1067,-203.0,823.0,-42.0,848.7060739737875,2021-08-31 07:28:05.344
1068,-131.0,869.0,-10.0,878.8754177925333,2021-08-31 07:28:05.355
1069,-192.0,1049.0,20.0,1066.6138007732695,2021-08-31 07:28:05.363
1070,-171.0,946.0,23.0,961.6059484009028,2021-08-31 07:28:05.373
1071,-96.0,943.0,-55.0,949.4682722450498,2021-08-31 07:28:05.383
1072,-181.0,995.0,-50.0,1012.5640720468014,2021-08-31 07:28:05.393
1073,-239.0,995.0,-50.0,1024.5223277215582,2021-08-31 07:28:05.403
1074,-239.0,1080.0,-16.0,1106.2445480091642,2021-08-31 07:28:05.404
1075,-130.0,1018.0,-79.0,1029.3031623384825,2021-08-31 07:28:05.412
1076,-197.0,983.0,-79.0,1005.6535188622372,2021-08-31 07:28:05.422
1077,-231.0,1136.0,-33.0,1159.7180691875074,2021-08-31 07:28:05.432
1078,-152.0,1136.0,-33.0,1146.5988836554832,2021-08-31 07:28:05.441
1079,-152.0,955.0,-151.0,978.738984612343,2021-08-31 07:28:05.442
1080,-211.0,1141.0,-3.0,1160.3495163096334,2021-08-31 07:28:05.452
1081,-139.0,1076.0,-3.0,1084.945159904407,2021-08-31 07:28:05.461
1082,-139.0,1076.0,-41.0,1085.7154323302216,2021-08-31 07:28:05.462
1083,-143.0,896.0,-104.0,913.28035126132,2021-08-31 07:28:05.471
1084,-214.0,896.0,-104.0,927.0533965203946,2021-08-31 07:28:05.480
1085,-214.0,1131.0,-42.0,1151.8337553657643,2021-08-31 07:28:05.481
1086,-183.0,999.0,17.0,1015.7652287807454,2021-08-31 07:28:05.490
1087,-141.0,911.0,-27.0,922.242375951138,2021-08-31 07:28:05.501
1088,-206.0,962.0,-82.0,987.220340147021,2021-08-31 07:28:05.511
1089,-175.0,962.0,-82.0,981.2201587819116,2021-08-31 07:28:05.519
1090,-175.0,1019.0,62.0,1035.7750721078394,2021-08-31 07:28:05.520
1091,-143.0,892.0,62.0,905.5147707243652,2021-08-31 07:28:05.529
1092,-143.0,892.0,-41.0,904.3196337578876,2021-08-31 07:28:05.530
1093,-237.0,847.0,-25.0,879.8880610623149,2021-08-31 07:28:05.539
1094,-177.0,930.0,16.0,946.8289180205684,2021-08-31 07:28:05.550
1095,-188.0,865.0,-24.0,885.5196214652727,2021-08-31 07:28:05.559
1096,-154.0,865.0,-24.0,878.9294624712497,2021-08-31 07:28:05.568
1097,-154.0,913.0,-13.0,925.9881208741288,2021-08-31 07:28:05.569
1098,-225.0,1071.0,24.0,1094.6424073641583,2021-08-31 07:28:05.578
1099,-98.0,870.0,-27.0,875.9183751925747,2021-08-31 07:28:05.588
1100,-111.0,956.0,-38.0,963.1723625603051,2021-08-31 07:28:05.598
1101,-191.0,956.0,-38.0,975.6336402564232,2021-08-31 07:28:05.607
1102,-191.0,1107.0,-63.0,1125.121771187457,2021-08-31 07:28:05.608
1103,-176.0,986.0,-20.0,1001.7844079441444,2021-08-31 07:28:05.618
1104,-68.0,1040.0,-114.0,1048.436931818028,2021-08-31 07:28:05.627
1105,-179.0,1049.0,-76.0,1066.8730008768616,2021-08-31 07:28:05.637
1106,-163.0,1049.0,-76.0,1064.3054072962327,2021-08-31 07:28:05.646
1107,-163.0,1127.0,-14.0,1138.812539446243,2021-08-31 07:28:05.647
1108,-90.0,989.0,-88.0,996.9779335572076,2021-08-31 07:28:05.658
1109,-260.0,1036.0,-73.0,1070.618979842969,2021-08-31 07:28:05.666
1110,-161.0,1007.0,-77.0,1022.6920357566104,2021-08-31 07:28:05.676
1111,-231.0,1007.0,-77.0,1036.0207526878987,2021-08-31 07:28:05.685
1112,-231.0,894.0,-102.0,928.9784712252484,2021-08-31 07:28:05.686
1113,-274.0,1152.0,-102.0,1188.5217709406925,2021-08-31 07:28:05.695
1114,-274.0,1152.0,14.0,1184.2195742344406,2021-08-31 07:28:05.696
1115,-209.0,930.0,-20.0,953.4049506898943,2021-08-31 07:28:05.718
1116,-209.0,902.0,-10.0,925.9508626271698,2021-08-31 07:28:05.719
1117,-212.0,1052.0,-8.0,1073.178456734946,2021-08-31 07:28:05.725
1118,-154.0,1052.0,-8.0,1063.242211351675,2021-08-31 07:28:05.735
1119,-154.0,952.0,9.0,964.4174407381898,2021-08-31 07:28:05.736
1120,-175.0,883.0,-27.0,900.579258033406,2021-08-31 07:28:05.744
1121,-219.0,864.0,-16.0,891.4667688702704,2021-08-31 07:28:05.754
1122,-162.0,1087.0,37.0,1099.628118956586,2021-08-31 07:28:05.764
1123,-128.0,883.0,37.0,892.9960806184986,2021-08-31 07:28:05.773
1124,-128.0,883.0,-20.0,892.4533601258947,2021-08-31 07:28:05.774
1125,-143.0,906.0,-48.0,918.4710120629828,2021-08-31 07:28:05.783
1126,-220.0,999.0,20.0,1023.1329336894596,2021-08-31 07:28:05.794
1127,-77.0,885.0,-52.0,889.8640345580891,2021-08-31 07:28:05.803
1128,-186.0,885.0,-52.0,905.8283501856188,2021-08-31 07:28:05.812
1129,-186.0,1032.0,-17.0,1048.7654647250738,2021-08-31 07:28:05.813
1130,-297.0,1099.0,-22.0,1138.6369043729435,2021-08-31 07:28:05.823
1131,-101.0,977.0,-51.0,983.529867365501,2021-08-31 07:28:05.832
1132,-203.0,976.0,-88.0,1000.7642079930716,2021-08-31 07:28:05.843
1133,-275.0,1113.0,-36.0,1147.0353089595803,2021-08-31 07:28:05.852
1134,-214.0,1089.0,-36.0,1110.4111851021676,2021-08-31 07:28:05.861
1135,-214.0,1089.0,36.0,1110.4111851021676,2021-08-31 07:28:05.862
1136,-135.0,1089.0,36.0,1097.926227029849,2021-08-31 07:28:05.871
1137,-135.0,922.0,-112.0,938.5376923704237,2021-08-31 07:28:05.872
1138,-247.0,1096.0,-20.0,1123.6658756053776,2021-08-31 07:28:05.881
1139,-194.0,1041.0,-8.0,1058.9527845942896,2021-08-31 07:28:05.891
1140,-189.0,1021.0,-91.0,1042.325764816355,2021-08-31 07:28:05.900
1141,-232.0,1049.0,38.0,1075.0204649214822,2021-08-31 07:28:05.910
1142,-186.0,922.0,-35.0,941.2252652792528,2021-08-31 07:28:05.920
1143,-202.0,931.0,-35.0,953.3047781271212,2021-08-31 07:28:05.930
1144,-202.0,931.0,-36.0,953.3420162774744,2021-08-31 07:28:05.931
1145,-213.0,931.0,-36.0,955.733226376482,2021-08-31 07:28:05.939
1146,-213.0,1034.0,22.0,1055.9398657120585,2021-08-31 07:28:05.940
1147,-118.0,895.0,-21.0,902.9894794514496,2021-08-31 07:28:05.950
1148,-219.0,862.0,-33.0,889.9966292070999,2021-08-31 07:28:05.959
1149,-241.0,951.0,-14.0,981.161556523695,2021-08-31 07:28:05.969
1150,-204.0,951.0,-14.0,972.734804558776,2021-08-31 07:28:05.978
1151,-204.0,1049.0,68.0,1070.8132423536797,2021-08-31 07:28:05.979
1152,-197.0,892.0,-31.0,914.0207875097808,2021-08-31 07:28:05.988
1153,-142.0,904.0,-62.0,917.1826426617548,2021-08-31 07:28:05.998
1154,-201.0,1171.0,9.0,1188.1595010771912,2021-08-31 07:28:06.008
1155,-100.0,958.0,-68.0,965.602402648212,2021-08-31 07:28:06.018
1156,-169.0,958.0,-68.0,975.1661396910785,2021-08-31 07:28:06.034
1157,-169.0,1082.0,-11.0,1095.1739587846307,2021-08-31 07:28:06.035
1158,-275.0,1025.0,-26.0,1061.5677086271985,2021-08-31 07:28:06.037
1159,-57.0,1013.0,-83.0,1017.9916502604528,2021-08-31 07:28:06.047
1160,-164.0,1074.0,-65.0,1088.3919330829312,2021-08-31 07:28:06.057
1161,-233.0,1066.0,-67.0,1093.2218439090943,2021-08-31 07:28:06.068
1162,-95.0,1074.0,-30.0,1078.6106804588949,2021-08-31 07:28:06.076
1163,-264.0,958.0,-78.0,996.7667731219776,2021-08-31 07:28:06.086
1164,-248.0,1069.0,-14.0,1097.479384772215,2021-08-31 07:28:06.096
1165,-179.0,1069.0,-14.0,1083.9732469023393,2021-08-31 07:28:06.105
1166,-179.0,963.0,-40.0,980.311175086768,2021-08-31 07:28:06.106
1167,-207.0,872.0,-88.0,900.5426142054578,2021-08-31 07:28:06.116
1168,-225.0,1099.0,53.0,1123.0471940216937,2021-08-31 07:28:06.125
1169,-239.0,951.0,-52.0,981.9501005651967,2021-08-31 07:28:06.135
1170,-172.0,951.0,-52.0,967.8269473413106,2021-08-31 07:28:06.144
1171,-172.0,1030.0,6.0,1044.279656030893,2021-08-31 07:28:06.145
1172,-176.0,977.0,21.0,992.948135604272,2021-08-31 07:28:06.155
1173,-143.0,857.0,-51.0,870.3441847912814,2021-08-31 07:28:06.170
1174,-198.0,900.0,-16.0,921.6615430840108,2021-08-31 07:28:06.174
1175,-180.0,1006.0,28.0,1022.3600148675612,2021-08-31 07:28:06.184
1176,-98.0,903.0,-12.0,908.3815277734352,2021-08-31 07:28:06.194
1177,-157.0,922.0,-53.0,936.77211743305,2021-08-31 07:28:06.203
1178,-113.0,1068.0,-54.0,1075.3180924731064,2021-08-31 07:28:06.213
1179,-187.0,837.0,-54.0,859.3334626325219,2021-08-31 07:28:06.240
1180,-187.0,837.0,-85.0,861.8369915477056,2021-08-31 07:28:06.241
1181,-187.0,920.0,-108.0,945.0042327947532,2021-08-31 07:28:06.242
1182,-134.0,1062.0,-69.0,1072.642065182976,2021-08-31 07:28:06.244
1183,-157.0,954.0,-61.0,968.754870955496,2021-08-31 07:28:06.252
1184,-129.0,1018.0,-101.0,1031.0994132478206,2021-08-31 07:28:06.262
1185,-270.0,1018.0,-101.0,1058.0288275845796,2021-08-31 07:28:06.271
1186,-270.0,1107.0,-28.0,1139.7951570348068,2021-08-31 07:28:06.272
1187,-174.0,1070.0,-51.0,1085.2543480677698,2021-08-31 07:28:06.283
1188,-103.0,940.0,-86.0,949.5288305259614,2021-08-31 07:28:06.292
1189,-206.0,1134.0,-38.0,1153.185154257546,2021-08-31 07:28:06.305
1190,-155.0,999.0,-56.0,1012.5028395021913,2021-08-31 07:28:06.314
1191,-166.0,924.0,-44.0,939.8233876638736,2021-08-31 07:28:06.320
1192,-225.0,1008.0,-31.0,1033.2715035265417,2021-08-31 07:28:06.330
1193,-146.0,1016.0,62.0,1028.3073470514544,2021-08-31 07:28:06.340
1194,-108.0,850.0,-57.0,858.7275470136032,2021-08-31 07:28:06.350
1195,-218.0,908.0,-69.0,936.3487598112148,2021-08-31 07:28:06.363
1196,-75.0,908.0,-69.0,913.701264090184,2021-08-31 07:28:06.370
1197,-75.0,879.0,-16.0,882.3389371437713,2021-08-31 07:28:06.371
1198,-193.0,911.0,-77.0,934.397666949142,2021-08-31 07:28:06.379
1199,-275.0,951.0,37.0,990.6538245017782,2021-08-31 07:28:06.389
1200,-191.0,951.0,37.0,970.6961419517438,2021-08-31 07:28:06.398
1201,-191.0,1031.0,84.0,1051.9020866981868,2021-08-31 07:28:06.399
1202,-186.0,857.0,84.0,880.9659471284915,2021-08-31 07:28:06.408
1203,-186.0,857.0,-40.0,877.8638846654987,2021-08-31 07:28:06.409
1204,-205.0,958.0,-40.0,980.5044619990264,2021-08-31 07:28:06.419
1205,-205.0,958.0,-31.0,980.1785551622723,2021-08-31 07:28:06.420
1206,-176.0,1136.0,18.0,1149.693872298187,2021-08-31 07:28:06.428
1207,-178.0,1136.0,18.0,1150.0017391291196,2021-08-31 07:28:06.437
1208,-178.0,961.0,-5.0,977.3586854374396,2021-08-31 07:28:06.438
1209,-168.0,924.0,-114.0,946.0422823531726,2021-08-31 07:28:06.447
1210,-50.0,1161.0,-72.0,1164.3045134328047,2021-08-31 07:28:06.457
1211,-244.0,1033.0,-43.0,1062.296568760344,2021-08-31 07:28:06.468
1212,-117.0,1033.0,-43.0,1040.4936328493318,2021-08-31 07:28:06.476
1213,-117.0,1016.0,-67.0,1024.9068250333785,2021-08-31 07:28:06.477
1214,-273.0,995.0,-61.0,1033.5738967292082,2021-08-31 07:28:06.486
1215,-101.0,1094.0,-29.0,1099.035031288812,2021-08-31 07:28:06.496
1216,-216.0,929.0,-73.0,956.5699138066176,2021-08-31 07:28:06.506
1217,-315.0,1102.0,-21.0,1146.3289231280871,2021-08-31 07:28:06.516
1218,-148.0,961.0,-45.0,973.370433082904,2021-08-31 07:28:06.527
1219,-241.0,895.0,-37.0,927.617917032654,2021-08-31 07:28:06.535
1220,-295.0,1108.0,19.0,1146.756294946751,2021-08-31 07:28:06.545
1221,-160.0,909.0,29.0,923.4294775455244,2021-08-31 07:28:06.555
1222,-166.0,886.0,-49.0,902.7474729956324,2021-08-31 07:28:06.565
1223,-248.0,918.0,-49.0,952.1706779774308,2021-08-31 07:28:06.575
1224,-248.0,918.0,-28.0,951.32118656109,2021-08-31 07:28:06.576
1225,-209.0,1036.0,101.0,1061.6863943745348,2021-08-31 07:28:06.592
1226,-124.0,1036.0,101.0,1048.2714343146054,2021-08-31 07:28:06.594
1227,-124.0,847.0,-15.0,856.1600317697621,2021-08-31 07:28:06.595
1228,-173.0,847.0,-15.0,864.6172563626058,2021-08-31 07:28:06.603
1229,-173.0,961.0,38.0,977.186778461518,2021-08-31 07:28:06.604
1230,-129.0,972.0,19.0,980.7068879129992,2021-08-31 07:28:06.615
1231,-157.0,909.0,-67.0,924.8886419456128,2021-08-31 07:28:06.623
1232,-201.0,1027.0,20.0,1046.6756899823365,2021-08-31 07:28:06.633
1233,-149.0,1087.0,11.0,1097.2196680701636,2021-08-31 07:28:06.643
1234,-188.0,885.0,-68.0,907.2998401851509,2021-08-31 07:28:06.652
1235,-210.0,1061.0,-78.0,1084.3915344560746,2021-08-31 07:28:06.663
1236,-219.0,1062.0,-28.0,1084.7068728463005,2021-08-31 07:28:06.672
1237,-260.0,1041.0,-35.0,1073.5483221541544,2021-08-31 07:28:06.682
1238,-147.0,985.0,-62.0,997.8366599799788,2021-08-31 07:28:06.691
1239,-184.0,1141.0,29.0,1156.1046665419185,2021-08-31 07:28:06.701
1240,-235.0,1036.0,29.0,1062.7144489466584,2021-08-31 07:28:06.711
1241,-235.0,1036.0,-47.0,1063.3578889536673,2021-08-31 07:28:06.712
1242,-230.0,1084.0,-57.0,1109.5967736074217,2021-08-31 07:28:06.733
1243,-230.0,1004.0,-27.0,1030.3615870169074,2021-08-31 07:28:06.734
1244,-157.0,920.0,-60.0,935.226710482544,2021-08-31 07:28:06.742
1245,-201.0,986.0,14.0,1006.3761722139492,2021-08-31 07:28:06.750
1246,-231.0,1038.0,36.0,1064.0023496214658,2021-08-31 07:28:06.760
1247,-97.0,1038.0,36.0,1043.143806001838,2021-08-31 07:28:06.769
1248,-97.0,849.0,-19.0,854.734461689711,2021-08-31 07:28:06.770
1249,-226.0,898.0,-16.0,926.1403781284996,2021-08-31 07:28:06.779
1250,-254.0,984.0,28.0,1016.6395624802332,2021-08-31 07:28:06.790
1251,-142.0,891.0,90.0,906.7221184023252,2021-08-31 07:28:06.799
1252,-132.0,910.0,-45.0,920.6242447383188,2021-08-31 07:28:06.809
1253,-245.0,989.0,-45.0,1019.8877389203186,2021-08-31 07:28:06.818
1254,-245.0,989.0,-10.0,1018.943570567085,2021-08-31 07:28:06.819
1255,-207.0,1154.0,62.0,1174.0566425858678,2021-08-31 07:28:06.828
1256,-214.0,1154.0,62.0,1175.3110226659155,2021-08-31 07:28:06.838
1257,-214.0,981.0,-65.0,1006.1719534950277,2021-08-31 07:28:06.839
1258,-142.0,1098.0,26.0,1107.4493216395954,2021-08-31 07:28:06.848
1259,-169.0,1018.0,26.0,1032.2601416309749,2021-08-31 07:28:06.857
1260,-169.0,1018.0,-51.0,1033.1921408915189,2021-08-31 07:28:06.858
1261,-157.0,857.0,-121.0,879.6243516410855,2021-08-31 07:28:06.867
1262,-83.0,1209.0,-20.0,1212.0107260251457,2021-08-31 07:28:06.877
1263,-182.0,1031.0,-95.0,1051.2421224437308,2021-08-31 07:28:06.887
1264,-181.0,1038.0,-95.0,1057.9366710725174,2021-08-31 07:28:06.897
1265,-181.0,1038.0,-53.0,1054.9947867169772,2021-08-31 07:28:06.898
1266,-75.0,1050.0,-95.0,1056.9531683097412,2021-08-31 07:28:06.906
1267,-262.0,1004.0,-53.0,1038.974975637046,2021-08-31 07:28:06.916
1268,-173.0,1019.0,-76.0,1036.3715549936712,2021-08-31 07:28:06.926
1269,-152.0,1019.0,-76.0,1033.073569500256,2021-08-31 07:28:06.935
1270,-152.0,877.0,-71.0,892.9020103012424,2021-08-31 07:28:06.936
1271,-302.0,1131.0,39.0,1171.2753732577153,2021-08-31 07:28:06.947
1272,-228.0,953.0,-49.0,981.118749183808,2021-08-31 07:28:06.955
1273,-179.0,1073.0,7.0,1087.8506331293834,2021-08-31 07:28:06.965
1274,-123.0,1073.0,7.0,1080.049535901016,2021-08-31 07:28:06.974
1275,-123.0,977.0,65.0,986.8551058792776,2021-08-31 07:28:06.975
1276,-129.0,820.0,65.0,832.6259664459186,2021-08-31 07:28:06.984
1277,-129.0,820.0,-56.0,831.9717543282344,2021-08-31 07:28:06.985
1278,-286.0,937.0,-56.0,981.2751907594526,2021-08-31 07:28:06.995
1279,-286.0,937.0,-20.0,979.8800947054696,2021-08-31 07:28:06.996
