,Acceleration_X,Acceleration_Y,Acceleration_Z,magnitude,time_stamp
0,-184.0,881.0,66.0,902.4261742657956,2021-09-27 07:15:38.748
1,74.0,852.0,-186.0,875.2005484458977,2021-09-27 07:15:38.758
2,-429.0,1187.0,-105.0,1266.5050335470444,2021-09-27 07:15:38.768
3,-224.0,1074.0,-8.0,1097.1399181508257,2021-09-27 07:15:38.782
4,-14.0,1003.0,28.0,1003.488415478724,2021-09-27 07:15:38.788
5,-85.0,1153.0,-188.0,1171.3146460281284,2021-09-27 07:15:38.797
6,-168.0,1091.0,-90.0,1107.52200881066,2021-09-27 07:15:38.807
7,-108.0,1091.0,-90.0,1100.0204543552816,2021-09-27 07:15:38.816
8,-108.0,1127.0,-126.0,1139.1527553405645,2021-09-27 07:15:38.817
9,-182.0,1084.0,-61.0,1100.8637517876589,2021-09-27 07:15:38.827
10,-76.0,1034.0,-57.0,1038.3549489456868,2021-09-27 07:15:38.843
11,-234.0,1027.0,-55.0,1054.755895930428,2021-09-27 07:15:38.853
12,-276.0,961.0,43.0,1000.772701466222,2021-09-27 07:15:38.856
13,-108.0,1013.0,-86.0,1022.3644164386786,2021-09-27 07:15:38.865
14,-297.0,896.0,-182.0,961.3266874481328,2021-09-27 07:15:38.875
15,-260.0,1184.0,132.0,1219.3768900549164,2021-09-27 07:15:38.886
16,-121.0,948.0,-29.0,956.1307441976752,2021-09-27 07:15:38.895
17,-99.0,800.0,-29.0,806.6238280636148,2021-09-27 07:15:38.904
18,-99.0,800.0,-75.0,809.5838437123112,2021-09-27 07:15:38.905
19,-274.0,862.0,138.0,914.96666605948,2021-09-27 07:15:38.914
20,-152.0,1029.0,138.0,1049.2802294906733,2021-09-27 07:15:38.924
21,-152.0,1029.0,18.0,1040.3215848957475,2021-09-27 07:15:38.925
22,-435.0,1029.0,18.0,1117.3137428672396,2021-09-27 07:15:38.934
23,-435.0,926.0,119.0,1029.9815532328723,2021-09-27 07:15:38.935
24,-138.0,926.0,119.0,943.7589734672724,2021-09-27 07:15:38.943
25,-138.0,1085.0,-73.0,1096.1742562202417,2021-09-27 07:15:38.944
26,-412.0,835.0,82.0,934.7154647271008,2021-09-27 07:15:38.953
27,-236.0,930.0,81.0,962.8899210190124,2021-09-27 07:15:38.963
28,-98.0,951.0,-52.0,957.4492153634052,2021-09-27 07:15:38.973
29,-258.0,887.0,-89.0,928.0377147508608,2021-09-27 07:15:38.983
30,-28.0,1167.0,-57.0,1168.7266575209107,2021-09-27 07:15:38.994
31,-142.0,1196.0,-27.0,1204.7028679305115,2021-09-27 07:15:39.002
32,-168.0,1075.0,-88.0,1091.6011176249317,2021-09-27 07:15:39.012
33,-55.0,928.0,-88.0,933.7842363201468,2021-09-27 07:15:39.022
34,-120.0,1338.0,-88.0,1346.2496053852717,2021-09-27 07:15:39.031
35,-120.0,1338.0,-33.0,1343.7756509179649,2021-09-27 07:15:39.032
36,-405.0,1027.0,16.0,1104.0878588228384,2021-09-27 07:15:39.043
37,-137.0,883.0,9.0,893.6100939447808,2021-09-27 07:15:39.051
38,-175.0,1036.0,-177.0,1065.4811119865053,2021-09-27 07:15:39.061
39,-379.0,1015.0,-177.0,1097.8137364780966,2021-09-27 07:15:39.070
40,-379.0,1015.0,-36.0,1084.048891886339,2021-09-27 07:15:39.071
41,-291.0,990.0,-60.0,1033.625173842046,2021-09-27 07:15:39.080
42,-340.0,994.0,-43.0,1051.4204677482744,2021-09-27 07:15:39.091
43,-102.0,931.0,-3.0,936.575677668388,2021-09-27 07:15:39.100
44,-337.0,931.0,-3.0,990.1206997129188,2021-09-27 07:15:39.109
45,-337.0,966.0,21.0,1023.3112918364576,2021-09-27 07:15:39.110
46,-160.0,923.0,13.0,936.8553783802492,2021-09-27 07:15:39.119
47,-135.0,768.0,90.0,784.9515908640482,2021-09-27 07:15:39.132
48,-157.0,895.0,-18.0,908.8443211023548,2021-09-27 07:15:39.146
49,-370.0,1104.0,114.0,1169.9196553609995,2021-09-27 07:15:39.156
50,-101.0,779.0,50.0,787.109903380716,2021-09-27 07:15:39.165
51,-108.0,770.0,50.0,779.1431190737682,2021-09-27 07:15:39.173
52,-108.0,770.0,-118.0,786.4400803621342,2021-09-27 07:15:39.174
53,-413.0,1141.0,-111.0,1218.5117972346432,2021-09-27 07:15:39.191
54,-58.0,1188.0,138.0,1197.393836630204,2021-09-27 07:15:39.194
55,-105.0,913.0,-91.0,923.5123171891104,2021-09-27 07:15:39.200
56,-118.0,913.0,-91.0,925.080537034479,2021-09-27 07:15:39.208
57,-118.0,1095.0,-251.0,1129.57956780388,2021-09-27 07:15:39.209
58,-168.0,944.0,-136.0,968.42965671235,2021-09-27 07:15:39.217
59,-102.0,1219.0,-198.0,1239.1807777721538,2021-09-27 07:15:39.227
60,-196.0,1219.0,-198.0,1250.4323252379554,2021-09-27 07:15:39.236
61,-196.0,1016.0,5.0,1034.744896097584,2021-09-27 07:15:39.237
62,-201.0,1191.0,-17.0,1207.961506009194,2021-09-27 07:15:39.247
63,-232.0,1088.0,-86.0,1115.7795481187134,2021-09-27 07:15:39.258
64,-292.0,868.0,4.0,915.8078401062093,2021-09-27 07:15:39.266
65,-152.0,1023.0,-103.0,1039.3469103239784,2021-09-27 07:15:39.276
66,-231.0,1023.0,-103.0,1053.8021635961848,2021-09-27 07:15:39.285
67,-231.0,899.0,-165.0,942.7550052903458,2021-09-27 07:15:39.286
68,-362.0,1204.0,151.0,1266.2784054069623,2021-09-27 07:15:39.295
69,-71.0,860.0,8.0,862.9629192497207,2021-09-27 07:15:39.306
70,-80.0,821.0,-106.0,831.6712090724315,2021-09-27 07:15:39.315
71,-250.0,952.0,-106.0,989.9696965059082,2021-09-27 07:15:39.324
72,-250.0,952.0,112.0,990.6301025105184,2021-09-27 07:15:39.325
73,-273.0,939.0,191.0,996.3588710901308,2021-09-27 07:15:39.334
74,-255.0,881.0,-7.0,917.188639266754,2021-09-27 07:15:39.344
75,-213.0,979.0,111.0,1008.0332335791315,2021-09-27 07:15:39.355
76,-255.0,846.0,-8.0,883.6317106125153,2021-09-27 07:15:39.365
77,-277.0,808.0,95.0,859.4288801291239,2021-09-27 07:15:39.373
78,-82.0,916.0,-90.0,924.0562753425788,2021-09-27 07:15:39.383
79,-214.0,1036.0,-99.0,1062.4937646875862,2021-09-27 07:15:39.393
80,-109.0,1078.0,26.0,1083.8085624315763,2021-09-27 07:15:39.403
81,-112.0,1078.0,26.0,1084.1143851088775,2021-09-27 07:15:39.413
82,-112.0,1120.0,-52.0,1126.7865813897502,2021-09-27 07:15:39.414
83,-59.0,1043.0,-227.0,1069.045836248381,2021-09-27 07:15:39.422
84,-101.0,1055.0,9.0,1059.8617834415957,2021-09-27 07:15:39.432
85,-99.0,1243.0,6.0,1246.9506806606266,2021-09-27 07:15:39.442
86,-169.0,994.0,-138.0,1017.6644830198212,2021-09-27 07:15:39.452
87,-219.0,825.0,-35.0,854.2897634877759,2021-09-27 07:15:39.462
88,-205.0,825.0,-35.0,850.8084390742724,2021-09-27 07:15:39.471
89,-205.0,1104.0,-112.0,1128.4436184409035,2021-09-27 07:15:39.472
90,-358.0,1132.0,-26.0,1187.545367554436,2021-09-27 07:15:39.481
91,-275.0,1132.0,-26.0,1165.214572514436,2021-09-27 07:15:39.490
92,-275.0,1120.0,-125.0,1160.021551523936,2021-09-27 07:15:39.491
93,-340.0,1003.0,-62.0,1060.8736965350777,2021-09-27 07:15:39.501
94,-199.0,992.0,64.0,1013.7854802669054,2021-09-27 07:15:39.511
95,-118.0,936.0,64.0,945.5770724800808,2021-09-27 07:15:39.520
96,-118.0,936.0,-22.0,943.6651948652128,2021-09-27 07:15:39.521
97,-193.0,936.0,-22.0,955.9440360188456,2021-09-27 07:15:39.529
98,-193.0,897.0,13.0,917.6202918418924,2021-09-27 07:15:39.530
99,-197.0,915.0,111.0,942.5258617141494,2021-09-27 07:15:39.539
100,-109.0,909.0,7.0,915.5386392719862,2021-09-27 07:15:39.549
101,-278.0,1017.0,67.0,1056.438355986756,2021-09-27 07:15:39.560
102,-111.0,665.0,-11.0,674.2899969597651,2021-09-27 07:15:39.569
103,-91.0,935.0,-11.0,939.482304250591,2021-09-27 07:15:39.578
104,-91.0,935.0,-44.0,940.4477656946184,2021-09-27 07:15:39.579
105,-284.0,1100.0,-62.0,1137.7609590770817,2021-09-27 07:15:39.591
106,-160.0,1062.0,53.0,1075.2920533510885,2021-09-27 07:15:39.598
107,-11.0,893.0,-155.0,906.4187773871412,2021-09-27 07:15:39.609
108,-129.0,893.0,-155.0,915.4862096176,2021-09-27 07:15:39.618
109,-129.0,1266.0,62.0,1274.0647550262113,2021-09-27 07:15:39.619
110,-81.0,883.0,-81.0,890.3993486071292,2021-09-27 07:15:39.628
111,-171.0,1215.0,-217.0,1246.0156499819736,2021-09-27 07:15:39.637
112,-209.0,1110.0,2.0,1129.5065294189317,2021-09-27 07:15:39.647
113,-138.0,1119.0,8.0,1127.5056540878188,2021-09-27 07:15:39.659
114,-213.0,974.0,-152.0,1008.5380508438936,2021-09-27 07:15:39.667
115,-252.0,977.0,1.0,1008.9767093446708,2021-09-27 07:15:39.686
116,-200.0,1043.0,-58.0,1063.5849754486003,2021-09-27 07:15:39.688
117,-197.0,958.0,-58.0,979.7637470329264,2021-09-27 07:15:39.707
118,-197.0,958.0,-141.0,988.1568701375304,2021-09-27 07:15:39.708
119,-282.0,1125.0,75.0,1162.228032702705,2021-09-27 07:15:39.713
120,-22.0,810.0,74.0,813.6706950603542,2021-09-27 07:15:39.716
121,-171.0,835.0,-122.0,861.0168407179966,2021-09-27 07:15:39.725
122,-158.0,1004.0,113.0,1022.6186972669724,2021-09-27 07:15:39.736
123,-297.0,1023.0,113.0,1071.2175315966408,2021-09-27 07:15:39.744
124,-297.0,1023.0,221.0,1087.9241701515782,2021-09-27 07:15:39.745
125,-199.0,850.0,132.0,882.9071298839987,2021-09-27 07:15:39.756
126,-169.0,988.0,59.0,1004.084657785388,2021-09-27 07:15:39.764
127,-317.0,906.0,20.0,960.0651019592368,2021-09-27 07:15:39.774
128,-234.0,906.0,20.0,935.944442795618,2021-09-27 07:15:39.783
129,-234.0,637.0,35.0,679.5218907437787,2021-09-27 07:15:39.784
130,-168.0,1038.0,35.0,1052.08982506248,2021-09-27 07:15:39.800
131,-168.0,1038.0,-8.0,1051.5379213323693,2021-09-27 07:15:39.801
132,-144.0,1115.0,-8.0,1124.288664000487,2021-09-27 07:15:39.806
133,-144.0,1115.0,-105.0,1129.1527797424048,2021-09-27 07:15:39.807
134,-96.0,994.0,-8.0,998.657098307522,2021-09-27 07:15:39.813
135,-35.0,994.0,-8.0,994.6481790060242,2021-09-27 07:15:39.822
136,-35.0,1168.0,-61.0,1170.115378926369,2021-09-27 07:15:39.823
137,-108.0,1143.0,-61.0,1149.7103983177676,2021-09-27 07:15:39.832
138,-108.0,1143.0,-153.0,1158.2409075835649,2021-09-27 07:15:39.833
139,-117.0,1049.0,-49.0,1056.6413771947416,2021-09-27 07:15:39.842
140,-75.0,1174.0,-79.0,1179.0428321312163,2021-09-27 07:15:39.853
141,-303.0,1125.0,17.0,1165.2137143030886,2021-09-27 07:15:39.871
142,-225.0,1125.0,17.0,1147.4053337857551,2021-09-27 07:15:39.874
143,-225.0,759.0,-37.0,792.5118295647075,2021-09-27 07:15:39.875
144,-426.0,1141.0,-4.0,1217.9380115588806,2021-09-27 07:15:39.881
145,-144.0,800.0,54.0,814.6483904114707,2021-09-27 07:15:39.892
146,-77.0,800.0,54.0,805.5091557518139,2021-09-27 07:15:39.900
147,-77.0,1008.0,-225.0,1035.6727282303034,2021-09-27 07:15:39.901
148,-366.0,1073.0,-40.0,1134.4095380417075,2021-09-27 07:15:39.910
149,-257.0,1085.0,81.0,1117.9601960713985,2021-09-27 07:15:39.920
150,-68.0,755.0,-45.0,759.3905451083783,2021-09-27 07:15:39.930
151,-231.0,1021.0,9.0,1046.8443055201667,2021-09-27 07:15:39.941
152,-188.0,899.0,86.0,922.4646334684056,2021-09-27 07:15:39.949
153,-99.0,892.0,69.0,900.1255467988896,2021-09-27 07:15:39.959
154,-297.0,942.0,27.0,988.0799562788428,2021-09-27 07:15:39.969
155,-162.0,757.0,95.0,779.9474341261724,2021-09-27 07:15:39.979
156,-23.0,937.0,-18.0,937.4550655898126,2021-09-27 07:15:39.989
157,-174.0,902.0,93.0,923.3249698778864,2021-09-27 07:15:39.999
158,20.0,758.0,-71.0,761.5805932401377,2021-09-27 07:15:40.008
159,-302.0,758.0,-71.0,819.02930350507,2021-09-27 07:15:40.017
160,-302.0,1029.0,-195.0,1089.9862384452383,2021-09-27 07:15:40.018
161,-46.0,1233.0,-195.0,1249.1717255845972,2021-09-27 07:15:40.027
162,-46.0,1233.0,129.0,1240.5829274981984,2021-09-27 07:15:40.028
163,-153.0,1067.0,-27.0,1078.251825873715,2021-09-27 07:15:40.038
164,55.0,1067.0,-27.0,1068.7576900308134,2021-09-27 07:15:40.051
165,55.0,1029.0,-247.0,1059.657963684509,2021-09-27 07:15:40.052
166,-146.0,1075.0,47.0,1085.8867344249122,2021-09-27 07:15:40.057
167,-192.0,1214.0,47.0,1229.98739830943,2021-09-27 07:15:40.066
168,-192.0,1214.0,-24.0,1229.3233911383936,2021-09-27 07:15:40.067
169,-237.0,1079.0,-162.0,1116.5366093415837,2021-09-27 07:15:40.076
170,-221.0,854.0,-14.0,882.2431637592892,2021-09-27 07:15:40.087
171,-220.0,1126.0,-84.0,1150.3616822547594,2021-09-27 07:15:40.096
172,-221.0,1126.0,-84.0,1150.5533451344184,2021-09-27 07:15:40.105
173,-221.0,1021.0,-164.0,1057.4393599634925,2021-09-27 07:15:40.106
174,-190.0,979.0,20.0,997.4672926968584,2021-09-27 07:15:40.115
175,-103.0,1003.0,49.0,1009.4647096357554,2021-09-27 07:15:40.125
176,-186.0,1056.0,101.0,1077.001857008613,2021-09-27 07:15:40.136
177,-140.0,974.0,-35.0,984.632418722845,2021-09-27 07:15:40.145
178,-121.0,927.0,-5.0,934.8769972568584,2021-09-27 07:15:40.155
179,-183.0,771.0,34.0,793.1494184578338,2021-09-27 07:15:40.164
180,-136.0,984.0,65.0,995.4782770106036,2021-09-27 07:15:40.174
181,-348.0,1060.0,77.0,1118.3170391262042,2021-09-27 07:15:40.184
182,-215.0,610.0,83.0,652.0843503719439,2021-09-27 07:15:40.194
183,-105.0,951.0,-151.0,968.6211849840988,2021-09-27 07:15:40.204
184,-262.0,1049.0,-92.0,1085.1308676837093,2021-09-27 07:15:40.213
185,-25.0,1116.0,94.0,1120.2307797949493,2021-09-27 07:15:40.223
186,-4.0,1037.0,94.0,1041.2593336916602,2021-09-27 07:15:40.232
187,-4.0,1037.0,-170.0,1050.849656230614,2021-09-27 07:15:40.233
188,-219.0,1173.0,-76.0,1195.686413738987,2021-09-27 07:15:40.243
189,-135.0,1057.0,0.0,1065.5862236346711,2021-09-27 07:15:40.259
190,-167.0,1134.0,-103.0,1150.8492516398487,2021-09-27 07:15:40.262
191,-121.0,1134.0,-103.0,1145.0790365734586,2021-09-27 07:15:40.271
192,-121.0,940.0,34.0,948.3654358948348,2021-09-27 07:15:40.272
193,-22.0,1161.0,34.0,1161.706072980597,2021-09-27 07:15:40.281
194,-22.0,1161.0,-150.0,1170.856524088242,2021-09-27 07:15:40.282
195,-394.0,1142.0,-13.0,1208.1262351261146,2021-09-27 07:15:40.291
196,-304.0,873.0,81.0,927.957973186286,2021-09-27 07:15:40.301
197,-19.0,904.0,-233.0,933.7376505207444,2021-09-27 07:15:40.312
198,-372.0,1157.0,-111.0,1220.390920975734,2021-09-27 07:15:40.320
199,-294.0,1143.0,94.0,1183.942988492267,2021-09-27 07:15:40.330
200,-129.0,1143.0,94.0,1154.0909842815686,2021-09-27 07:15:40.340
201,-129.0,819.0,-26.0,829.5046714756946,2021-09-27 07:15:40.341
202,-208.0,929.0,-64.0,954.1493593772414,2021-09-27 07:15:40.350
203,-207.0,1042.0,189.0,1079.0430945981725,2021-09-27 07:15:40.360
204,-61.0,912.0,122.0,922.1436981295268,2021-09-27 07:15:40.369
205,-185.0,764.0,-136.0,797.7574819454845,2021-09-27 07:15:40.379
206,-194.0,764.0,-136.0,799.892492776373,2021-09-27 07:15:40.389
207,-194.0,899.0,93.0,924.3841192924076,2021-09-27 07:15:40.390
208,-11.0,899.0,93.0,903.8644809925876,2021-09-27 07:15:40.398
209,-11.0,931.0,42.0,932.011802500376,2021-09-27 07:15:40.399
210,-172.0,799.0,60.0,819.5028981034783,2021-09-27 07:15:40.409
211,-98.0,884.0,-31.0,889.955616870864,2021-09-27 07:15:40.419
212,-263.0,1013.0,-163.0,1059.2011140477523,2021-09-27 07:15:40.428
213,-123.0,1013.0,-163.0,1033.3765044745307,2021-09-27 07:15:40.437
214,-123.0,1225.0,86.0,1234.1596331107253,2021-09-27 07:15:40.438
215,-181.0,1048.0,86.0,1066.9868790196062,2021-09-27 07:15:40.447
216,-181.0,1048.0,-23.0,1063.7640715873044,2021-09-27 07:15:40.448
217,-88.0,1005.0,-236.0,1036.0815604960835,2021-09-27 07:15:40.457
218,-164.0,1181.0,-11.0,1192.38332762581,2021-09-27 07:15:40.468
219,-289.0,1095.0,61.0,1134.1371169307529,2021-09-27 07:15:40.477
220,-214.0,1032.0,61.0,1055.7182389255197,2021-09-27 07:15:40.486
221,-214.0,1032.0,-97.0,1058.4087112264335,2021-09-27 07:15:40.487
222,-135.0,776.0,-66.0,790.4157134065592,2021-09-27 07:15:40.497
223,-236.0,1196.0,5.0,1219.0721881824718,2021-09-27 07:15:40.506
224,-220.0,1047.0,-155.0,1081.0337645050686,2021-09-27 07:15:40.517
225,-183.0,1047.0,-155.0,1074.1149845337789,2021-09-27 07:15:40.525
226,-183.0,1089.0,-52.0,1105.4926503600102,2021-09-27 07:15:40.526
227,-207.0,1005.0,-145.0,1036.2909823017858,2021-09-27 07:15:40.535
228,-188.0,1005.0,-145.0,1032.6635463692903,2021-09-27 07:15:40.545
229,-188.0,1026.0,36.0,1043.703022894923,2021-09-27 07:15:40.546
230,21.0,935.0,44.0,936.2702601279184,2021-09-27 07:15:40.555
231,-112.0,1067.0,44.0,1073.7639405381426,2021-09-27 07:15:40.564
232,-112.0,1067.0,-25.0,1073.153297530227,2021-09-27 07:15:40.565
233,-186.0,840.0,49.0,861.7406802513156,2021-09-27 07:15:40.575
234,-217.0,930.0,164.0,968.9607835201588,2021-09-27 07:15:40.584
235,-305.0,1041.0,14.0,1084.851141862329,2021-09-27 07:15:40.594
236,-294.0,1041.0,14.0,1081.8100572651374,2021-09-27 07:15:40.603
237,-294.0,564.0,99.0,643.6870357557312,2021-09-27 07:15:40.604
238,-180.0,932.0,-134.0,958.6344454483158,2021-09-27 07:15:40.613
239,-269.0,1171.0,-39.0,1202.132688183796,2021-09-27 07:15:40.624
240,-180.0,1075.0,62.0,1091.727530109963,2021-09-27 07:15:40.633
241,83.0,1009.0,-153.0,1023.9038040753632,2021-09-27 07:15:40.643
242,-197.0,1213.0,-125.0,1235.2339859314104,2021-09-27 07:15:40.653
243,-20.0,1052.0,-181.0,1067.6446037891074,2021-09-27 07:15:40.662
244,0.0,1102.0,40.0,1102.7257138563516,2021-09-27 07:15:40.677
245,-284.0,1071.0,73.0,1110.4170387741715,2021-09-27 07:15:40.682
246,46.0,1071.0,73.0,1074.4701019572392,2021-09-27 07:15:40.691
247,46.0,1045.0,-110.0,1051.779919945233,2021-09-27 07:15:40.692
248,-399.0,1108.0,-110.0,1182.7785084283532,2021-09-27 07:15:40.701
249,-399.0,1108.0,-49.0,1178.67128581297,2021-09-27 07:15:40.702
250,-111.0,914.0,24.0,921.0282297519442,2021-09-27 07:15:40.723
251,-111.0,935.0,-180.0,958.6167117258076,2021-09-27 07:15:40.724
252,-342.0,1096.0,-160.0,1159.2152517975253,2021-09-27 07:15:40.740
253,-246.0,1192.0,116.0,1222.634859637169,2021-09-27 07:15:40.742
254,-144.0,931.0,5.0,942.0838603861124,2021-09-27 07:15:40.750
255,-139.0,796.0,-131.0,818.5951380261185,2021-09-27 07:15:40.762
256,-294.0,796.0,-131.0,858.611087745785,2021-09-27 07:15:40.769
257,-294.0,1090.0,200.0,1146.5321626539746,2021-09-27 07:15:40.770
258,-129.0,834.0,216.0,871.121690695393,2021-09-27 07:15:40.779
259,-234.0,944.0,138.0,982.3115595369932,2021-09-27 07:15:40.789
260,-112.0,1042.0,127.0,1055.6689822098592,2021-09-27 07:15:40.799
261,-282.0,849.0,-48.0,895.8956412440011,2021-09-27 07:15:40.810
262,-127.0,795.0,-4.0,805.0900570743623,2021-09-27 07:15:40.823
263,-232.0,966.0,48.0,994.6275684898344,2021-09-27 07:15:40.828
264,-256.0,990.0,-183.0,1038.8094146666174,2021-09-27 07:15:40.838
265,-69.0,1172.0,5.0,1174.040033388981,2021-09-27 07:15:40.848
266,-184.0,1038.0,-42.0,1055.018483250412,2021-09-27 07:15:40.861
267,-121.0,1055.0,-194.0,1079.49154697941,2021-09-27 07:15:40.867
268,-64.0,973.0,-40.0,975.9226403767872,2021-09-27 07:15:40.886
269,-219.0,973.0,-40.0,998.1432762885296,2021-09-27 07:15:40.888
270,-219.0,1146.0,0.0,1166.7377597386655,2021-09-27 07:15:40.889
271,-240.0,1131.0,-122.0,1162.6026836370197,2021-09-27 07:15:40.897
272,-201.0,732.0,-28.0,759.6110847005855,2021-09-27 07:15:40.908
273,-255.0,1130.0,-39.0,1159.071179867742,2021-09-27 07:15:40.916
274,-251.0,726.0,-35.0,768.9616375346692,2021-09-27 07:15:40.926
275,-184.0,726.0,-35.0,749.7712984637382,2021-09-27 07:15:40.935
276,-184.0,1104.0,-86.0,1122.527505230941,2021-09-27 07:15:40.936
277,-261.0,1083.0,-86.0,1117.320902874371,2021-09-27 07:15:40.945
278,-261.0,1083.0,-69.0,1116.1411201098183,2021-09-27 07:15:40.946
279,-254.0,968.0,17.0,1000.9140822268412,2021-09-27 07:15:40.956
280,-97.0,882.0,-3.0,887.3229400843867,2021-09-27 07:15:40.966
281,-168.0,972.0,-57.0,988.057184579921,2021-09-27 07:15:40.975
282,-225.0,833.0,179.0,881.223581164281,2021-09-27 07:15:40.984
283,-114.0,800.0,58.0,810.1604779301445,2021-09-27 07:15:40.994
284,-315.0,1028.0,-25.0,1075.4691999308952,2021-09-27 07:15:41.004
285,-245.0,1028.0,-25.0,1057.0875082035543,2021-09-27 07:15:41.015
286,-245.0,724.0,196.0,789.0608341566574,2021-09-27 07:15:41.016
287,-95.0,724.0,196.0,756.0535695306253,2021-09-27 07:15:41.023
288,-95.0,835.0,-74.0,843.6385481946637,2021-09-27 07:15:41.024
289,-261.0,1200.0,-131.0,1235.023076707476,2021-09-27 07:15:41.033
290,-180.0,1094.0,-131.0,1116.4215153784885,2021-09-27 07:15:41.043
291,-180.0,1094.0,111.0,1114.251766882153,2021-09-27 07:15:41.046
292,-361.0,1080.0,-135.0,1146.710948757358,2021-09-27 07:15:41.053
293,-194.0,1225.0,159.0,1250.4167305342646,2021-09-27 07:15:41.064
294,33.0,934.0,-150.0,946.5437126725844,2021-09-27 07:15:41.072
295,-66.0,1133.0,-177.0,1148.6400654687263,2021-09-27 07:15:41.082
296,-286.0,1224.0,-6.0,1256.983691222762,2021-09-27 07:15:41.092
297,-32.0,1139.0,-111.0,1144.8432207075343,2021-09-27 07:15:41.102
298,-215.0,974.0,-112.0,1003.7155971688396,2021-09-27 07:15:41.112
299,-224.0,935.0,-112.0,967.9591933547612,2021-09-27 07:15:41.122
300,-224.0,935.0,-47.0,962.6058383367514,2021-09-27 07:15:41.123
301,-215.0,1116.0,-58.0,1138.0004393672264,2021-09-27 07:15:41.131
302,-281.0,948.0,-119.0,995.904613906372,2021-09-27 07:15:41.141
303,-299.0,948.0,-119.0,1001.1323588816816,2021-09-27 07:15:41.150
304,-299.0,1118.0,65.0,1159.1160425082555,2021-09-27 07:15:41.151
305,-197.0,835.0,65.0,860.38305422643,2021-09-27 07:15:41.160
306,-197.0,835.0,49.0,859.3224074816158,2021-09-27 07:15:41.161
307,-238.0,835.0,49.0,869.6378556617691,2021-09-27 07:15:41.171
308,-238.0,1060.0,27.0,1086.7258163860836,2021-09-27 07:15:41.172
309,-276.0,932.0,99.0,977.0368467974992,2021-09-27 07:15:41.180
310,-111.0,807.0,99.0,820.5918595745391,2021-09-27 07:15:41.189
311,-111.0,807.0,-44.0,815.7855110260294,2021-09-27 07:15:41.190
312,-226.0,867.0,92.0,900.6825189821328,2021-09-27 07:15:41.199
313,-227.0,1095.0,143.0,1127.3876884195604,2021-09-27 07:15:41.209
314,-215.0,830.0,29.0,857.8846076250582,2021-09-27 07:15:41.220
315,-60.0,830.0,29.0,832.6710034581486,2021-09-27 07:15:41.228
316,-60.0,709.0,-12.0,711.6354403766018,2021-09-27 07:15:41.229
317,-179.0,921.0,-31.0,938.7454394030364,2021-09-27 07:15:41.238
318,-312.0,1102.0,-126.0,1152.2256723402754,2021-09-27 07:15:41.248
319,26.0,1103.0,-58.0,1104.829851153561,2021-09-27 07:15:41.259
320,-175.0,1025.0,-58.0,1041.4480303884586,2021-09-27 07:15:41.269
321,-175.0,1025.0,-30.0,1040.2643894702924,2021-09-27 07:15:41.270
322,-119.0,1203.0,-165.0,1220.0799154153797,2021-09-27 07:15:41.277
323,-121.0,1046.0,-65.0,1054.9796206562476,2021-09-27 07:15:41.287
324,-282.0,1078.0,-44.0,1115.143040152249,2021-09-27 07:15:41.297
325,-196.0,1102.0,-54.0,1120.5962698492262,2021-09-27 07:15:41.307
326,-198.0,1102.0,-54.0,1120.9478132366378,2021-09-27 07:15:41.316
327,-198.0,1176.0,-80.0,1195.2321950148432,2021-09-27 07:15:41.317
328,-266.0,1197.0,-44.0,1226.9885900039983,2021-09-27 07:15:41.326
329,-244.0,789.0,-20.0,826.1095568990835,2021-09-27 07:15:41.336
330,-266.0,1092.0,-122.0,1130.5326178399278,2021-09-27 07:15:41.346
331,-202.0,1092.0,-122.0,1117.207232343221,2021-09-27 07:15:41.355
332,-202.0,1079.0,-89.0,1101.347356650026,2021-09-27 07:15:41.356
333,-291.0,996.0,90.0,1041.5358851235037,2021-09-27 07:15:41.367
334,-57.0,996.0,90.0,1001.681086973294,2021-09-27 07:15:41.375
335,-57.0,832.0,-38.0,834.815548489605,2021-09-27 07:15:41.376
336,-168.0,948.0,-42.0,963.6866710710487,2021-09-27 07:15:41.385
337,-291.0,948.0,-42.0,992.5467243409752,2021-09-27 07:15:41.394
338,-291.0,960.0,214.0,1025.708048130656,2021-09-27 07:15:41.395
339,-56.0,791.0,214.0,821.3482817903742,2021-09-27 07:15:41.404
340,-56.0,791.0,56.0,794.9547156914034,2021-09-27 07:15:41.405
341,-216.0,921.0,56.0,947.6460309630384,2021-09-27 07:15:41.415
342,-216.0,921.0,-81.0,949.4514205582084,2021-09-27 07:15:41.416
343,-248.0,779.0,159.0,832.8421218934594,2021-09-27 07:15:41.424
344,-364.0,901.0,2.0,971.7515114472424,2021-09-27 07:15:41.434
345,-313.0,827.0,209.0,908.6137793364132,2021-09-27 07:15:41.443
346,-139.0,904.0,-111.0,921.3349011081692,2021-09-27 07:15:41.453
347,-300.0,990.0,-102.0,1039.472943370822,2021-09-27 07:15:41.467
348,-184.0,1167.0,79.0,1184.054897375962,2021-09-27 07:15:41.473
349,-12.0,1045.0,79.0,1048.0505712989236,2021-09-27 07:15:41.482
350,-12.0,1045.0,-72.0,1047.546180366288,2021-09-27 07:15:41.483
351,-64.0,1022.0,-229.0,1049.2954779279285,2021-09-27 07:15:41.492
352,-221.0,1210.0,1.0,1230.0170730522402,2021-09-27 07:15:41.502
353,-87.0,1232.0,9.0,1235.1008056025223,2021-09-27 07:15:41.512
354,-192.0,879.0,-77.0,903.0138426402996,2021-09-27 07:15:41.522
355,-200.0,948.0,-62.0,970.8491128903604,2021-09-27 07:15:41.532
356,-164.0,1126.0,-62.0,1139.5683393285371,2021-09-27 07:15:41.541
357,-236.0,1007.0,-55.0,1035.7461078855183,2021-09-27 07:15:41.551
358,-207.0,1015.0,-20.0,1036.0859037743926,2021-09-27 07:15:41.561
359,-262.0,899.0,-20.0,936.6135809393328,2021-09-27 07:15:41.570
360,-262.0,899.0,-136.0,946.2246033579976,2021-09-27 07:15:41.571
361,-237.0,1024.0,12.0,1051.1370034396086,2021-09-27 07:15:41.580
362,-310.0,940.0,59.0,991.5548396331894,2021-09-27 07:15:41.591
363,-182.0,827.0,0.0,846.7898204395233,2021-09-27 07:15:41.600
364,-207.0,873.0,52.0,898.711299584021,2021-09-27 07:15:41.610
365,-195.0,1019.0,122.0,1044.638693520396,2021-09-27 07:15:41.619
366,-358.0,934.0,122.0,1007.672565866512,2021-09-27 07:15:41.629
367,-358.0,934.0,72.0,1002.8479446057612,2021-09-27 07:15:41.630
368,17.0,657.0,-5.0,657.2389215498425,2021-09-27 07:15:41.639
369,-195.0,657.0,-5.0,685.345898068997,2021-09-27 07:15:41.648
370,-195.0,953.0,8.0,972.7784948280878,2021-09-27 07:15:41.649
371,-284.0,1139.0,-76.0,1176.3303107545942,2021-09-27 07:15:41.659
372,-59.0,1022.0,-55.0,1025.1780333190914,2021-09-27 07:15:41.669
373,-52.0,980.0,-115.0,988.0936190462926,2021-09-27 07:15:41.678
374,-161.0,1261.0,-165.0,1281.8997620719024,2021-09-27 07:15:41.688
375,-128.0,969.0,-87.0,981.281814770864,2021-09-27 07:15:41.697
376,-20.0,1336.0,-106.0,1340.347716079675,2021-09-27 07:15:41.707
377,-80.0,948.0,-27.0,951.752593902428,2021-09-27 07:15:41.717
378,-206.0,1113.0,-100.0,1136.3120170094128,2021-09-27 07:15:41.737
379,-213.0,1122.0,-100.0,1146.408740371426,2021-09-27 07:15:41.739
380,-213.0,1122.0,-80.0,1144.8375430601498,2021-09-27 07:15:41.740
381,-258.0,846.0,0.0,884.4659405539594,2021-09-27 07:15:41.755
382,-184.0,846.0,0.0,865.7782626053856,2021-09-27 07:15:41.757
383,-184.0,1021.0,-83.0,1040.762220682515,2021-09-27 07:15:41.758
384,-244.0,991.0,-120.0,1027.6268778112023,2021-09-27 07:15:41.766
385,-322.0,1057.0,-120.0,1111.4553522296792,2021-09-27 07:15:41.777
386,-322.0,1057.0,64.0,1106.8102818459902,2021-09-27 07:15:41.778
387,-60.0,766.0,-3.0,768.3521328141154,2021-09-27 07:15:41.785
388,-218.0,893.0,-118.0,926.7669609993658,2021-09-27 07:15:41.795
389,-235.0,986.0,175.0,1028.6136300866326,2021-09-27 07:15:41.805
390,-108.0,874.0,111.0,887.6153446172503,2021-09-27 07:15:41.815
391,-212.0,841.0,-145.0,879.3463481473043,2021-09-27 07:15:41.826
392,-242.0,822.0,197.0,879.2366006940339,2021-09-27 07:15:41.834
393,-296.0,883.0,-70.0,933.9191613838964,2021-09-27 07:15:41.847
394,-230.0,783.0,159.0,831.4264850243827,2021-09-27 07:15:41.857
395,-113.0,915.0,-1.0,921.9517340945785,2021-09-27 07:15:41.865
396,-236.0,915.0,-1.0,944.9455010740036,2021-09-27 07:15:41.873
397,-236.0,1016.0,-177.0,1057.9607743201068,2021-09-27 07:15:41.874
398,-105.0,1128.0,99.0,1137.1939148623685,2021-09-27 07:15:41.891
399,-46.0,1066.0,-86.0,1070.452240877658,2021-09-27 07:15:41.894
400,-1.0,997.0,-86.0,1000.702753069062,2021-09-27 07:15:41.902
401,-1.0,997.0,-216.0,1020.130383823558,2021-09-27 07:15:41.903
402,-145.0,1245.0,21.0,1253.5912411946726,2021-09-27 07:15:41.914
403,-146.0,1287.0,-96.0,1298.8075300058897,2021-09-27 07:15:41.923
404,-110.0,1018.0,-132.0,1032.3991476168508,2021-09-27 07:15:41.932
405,-259.0,956.0,-132.0,999.220195952824,2021-09-27 07:15:41.941
406,-259.0,956.0,-75.0,993.2985452521312,2021-09-27 07:15:41.942
407,-197.0,1217.0,-95.0,1236.4962595980628,2021-09-27 07:15:41.951
408,-241.0,1026.0,-48.0,1055.0170614734152,2021-09-27 07:15:41.962
409,-230.0,1181.0,-60.0,1204.682945840938,2021-09-27 07:15:41.972
410,-200.0,1181.0,-60.0,1199.316888899677,2021-09-27 07:15:41.980
411,-200.0,954.0,-59.0,976.5229131976372,2021-09-27 07:15:41.981
412,-225.0,983.0,-59.0,1010.1460290472858,2021-09-27 07:15:41.990
413,-225.0,983.0,-28.0,1008.8101902736709,2021-09-27 07:15:41.991
414,-238.0,872.0,-4.0,903.9048622504472,2021-09-27 07:15:42.000
415,-293.0,902.0,5.0,948.4081399903736,2021-09-27 07:15:42.010
416,-169.0,895.0,5.0,910.829841408372,2021-09-27 07:15:42.020
417,-169.0,895.0,127.0,919.6276420377978,2021-09-27 07:15:42.021
418,-153.0,935.0,127.0,955.9095145462252,2021-09-27 07:15:42.029
419,-153.0,935.0,175.0,963.4619867955352,2021-09-27 07:15:42.030
420,-201.0,871.0,61.0,895.9704236189942,2021-09-27 07:15:42.039
421,-110.0,706.0,-19.0,714.770592567993,2021-09-27 07:15:42.050
422,-169.0,996.0,33.0,1010.7749502238368,2021-09-27 07:15:42.059
423,-295.0,1046.0,33.0,1087.3040053269372,2021-09-27 07:15:42.068
424,-295.0,1046.0,-33.0,1087.3040053269372,2021-09-27 07:15:42.069
425,-154.0,961.0,-33.0,973.820311967254,2021-09-27 07:15:42.079
426,-154.0,961.0,-80.0,976.5433938130964,2021-09-27 07:15:42.080
427,30.0,995.0,-146.0,1006.1018835088224,2021-09-27 07:15:42.088
428,-332.0,995.0,-146.0,1059.039659314041,2021-09-27 07:15:42.098
429,-332.0,1284.0,-104.0,1330.2992144626712,2021-09-27 07:15:42.099
430,-50.0,1008.0,-104.0,1014.5836584530622,2021-09-27 07:15:42.108
431,-50.0,1008.0,-103.0,1014.4816410364458,2021-09-27 07:15:42.109
432,-203.0,1322.0,-192.0,1351.2057578326107,2021-09-27 07:15:42.117
433,-62.0,1208.0,-20.0,1209.7553471673518,2021-09-27 07:15:42.128
434,-172.0,985.0,-110.0,1005.936876747244,2021-09-27 07:15:42.137
435,-245.0,985.0,-110.0,1020.955434874608,2021-09-27 07:15:42.146
436,-245.0,1076.0,-106.0,1108.6194117008777,2021-09-27 07:15:42.147
437,-181.0,1020.0,-27.0,1036.2866398830008,2021-09-27 07:15:42.157
438,-191.0,991.0,-72.0,1011.803340575628,2021-09-27 07:15:42.166
439,-269.0,1082.0,-59.0,1116.497201071279,2021-09-27 07:15:42.176
440,-198.0,1028.0,0.0,1046.8944550431052,2021-09-27 07:15:42.186
441,-111.0,795.0,0.0,802.7116543317408,2021-09-27 07:15:42.195
442,-111.0,795.0,48.0,804.1455092208126,2021-09-27 07:15:42.196
443,-288.0,895.0,-103.0,945.821336194104,2021-09-27 07:15:42.206
444,-215.0,1077.0,179.0,1112.7421084869577,2021-09-27 07:15:42.216
445,-132.0,755.0,163.0,783.5930066048318,2021-09-27 07:15:42.225
446,-136.0,755.0,163.0,784.2767368728975,2021-09-27 07:15:42.235
447,-136.0,760.0,-145.0,785.5704933358941,2021-09-27 07:15:42.236
448,-130.0,781.0,96.0,797.5443561332498,2021-09-27 07:15:42.244
449,-153.0,874.0,-115.0,894.7122442439245,2021-09-27 07:15:42.255
450,-163.0,828.0,90.0,848.6772060094462,2021-09-27 07:15:42.264
451,-203.0,828.0,90.0,857.2590040355365,2021-09-27 07:15:42.273
452,-203.0,973.0,88.0,997.8386643140262,2021-09-27 07:15:42.274
453,-116.0,970.0,-198.0,996.7747990393818,2021-09-27 07:15:42.284
454,-157.0,1084.0,15.0,1095.413164061853,2021-09-27 07:15:42.293
455,-110.0,1095.0,-58.0,1102.0385655683742,2021-09-27 07:15:42.303
456,-89.0,1058.0,-58.0,1063.3198013768013,2021-09-27 07:15:42.313
457,-89.0,1058.0,-244.0,1089.4131447710736,2021-09-27 07:15:42.314
458,-196.0,1261.0,-244.0,1299.2586347606084,2021-09-27 07:15:42.322
459,-196.0,1261.0,69.0,1278.0054772965568,2021-09-27 07:15:42.323
460,-132.0,1029.0,-23.0,1037.6868506442586,2021-09-27 07:15:42.332
461,-50.0,1062.0,-178.0,1077.974025661101,2021-09-27 07:15:42.342
462,-250.0,1062.0,-178.0,1105.4537529901463,2021-09-27 07:15:42.351
463,-250.0,938.0,-72.0,973.4104992242482,2021-09-27 07:15:42.352
464,-276.0,938.0,-72.0,980.4101182668404,2021-09-27 07:15:42.361
465,-276.0,1209.0,0.0,1240.1036247023876,2021-09-27 07:15:42.362
466,-187.0,906.0,-64.0,927.3084707905996,2021-09-27 07:15:42.371
467,-221.0,1206.0,-81.0,1228.7546541112265,2021-09-27 07:15:42.381
468,-223.0,1001.0,-3.0,1025.5432706619454,2021-09-27 07:15:42.392
469,-252.0,923.0,-3.0,956.7873326920668,2021-09-27 07:15:42.400
470,-252.0,923.0,-38.0,957.536944456975,2021-09-27 07:15:42.401
471,-194.0,862.0,8.0,883.5971932956782,2021-09-27 07:15:42.410
472,-336.0,988.0,38.0,1044.2624191265336,2021-09-27 07:15:42.421
473,-246.0,839.0,120.0,882.5174219243494,2021-09-27 07:15:42.430
474,-106.0,894.0,132.0,909.8879051839298,2021-09-27 07:15:42.440
475,-199.0,928.0,-52.0,950.520383789848,2021-09-27 07:15:42.449
476,-239.0,766.0,52.0,804.1026053931178,2021-09-27 07:15:42.461
477,-105.0,933.0,6.0,938.9089412717296,2021-09-27 07:15:42.470
478,-246.0,933.0,6.0,964.90465850259,2021-09-27 07:15:42.478
479,-246.0,999.0,-17.0,1028.9829930567366,2021-09-27 07:15:42.479
480,-168.0,981.0,-74.0,998.0285567056686,2021-09-27 07:15:42.488
481,132.0,987.0,-118.0,1002.7547057979832,2021-09-27 07:15:42.499
482,15.0,935.0,-58.0,936.9172855700764,2021-09-27 07:15:42.508
483,25.0,1016.0,-151.0,1027.4638679778477,2021-09-27 07:15:42.518
484,-318.0,1240.0,-151.0,1289.0015515894463,2021-09-27 07:15:42.527
485,-318.0,1240.0,-112.0,1285.0167314085836,2021-09-27 07:15:42.528
486,-49.0,1252.0,95.0,1256.5548137665942,2021-09-27 07:15:42.537
487,-85.0,900.0,-159.0,917.881255936736,2021-09-27 07:15:42.548
488,-335.0,1097.0,-96.0,1151.021285641582,2021-09-27 07:15:42.557
489,-230.0,1097.0,-96.0,1124.955554677606,2021-09-27 07:15:42.566
490,-230.0,1027.0,-24.0,1052.7131613122351,2021-09-27 07:15:42.567
491,-154.0,1006.0,-63.0,1019.6671025388628,2021-09-27 07:15:42.577
492,-235.0,1064.0,-1.0,1089.6430608231303,2021-09-27 07:15:42.587
493,-264.0,894.0,-43.0,933.1564713380068,2021-09-27 07:15:42.596
494,-101.0,894.0,-43.0,900.7141610966268,2021-09-27 07:15:42.605
495,-101.0,998.0,36.0,1003.7434931295944,2021-09-27 07:15:42.606
496,-321.0,832.0,-82.0,895.5383855536288,2021-09-27 07:15:42.615
497,-122.0,1154.0,117.0,1166.3142801149268,2021-09-27 07:15:42.626
498,-138.0,894.0,-24.0,904.9066250171892,2021-09-27 07:15:42.635
499,-300.0,894.0,-24.0,943.2984681425067,2021-09-27 07:15:42.644
500,-300.0,1076.0,88.0,1120.499888442654,2021-09-27 07:15:42.645
501,-188.0,763.0,178.0,805.727621470184,2021-09-27 07:15:42.655
502,2.0,833.0,-168.0,849.7746760171193,2021-09-27 07:15:42.664
503,-300.0,942.0,78.0,991.689467524991,2021-09-27 07:15:42.675
504,-246.0,942.0,78.0,976.710806738617,2021-09-27 07:15:42.683
505,-246.0,1014.0,154.0,1054.717023660849,2021-09-27 07:15:42.684
506,-99.0,839.0,-110.0,851.9518765751972,2021-09-27 07:15:42.694
507,-161.0,1089.0,-54.0,1102.1606053565877,2021-09-27 07:15:42.703
508,-264.0,1057.0,-22.0,1089.6921583640033,2021-09-27 07:15:42.713
509,-139.0,962.0,-81.0,975.3594209315868,2021-09-27 07:15:42.723
510,-114.0,1131.0,-81.0,1139.6130922378877,2021-09-27 07:15:42.733
511,-114.0,1131.0,-104.0,1141.478427303819,2021-09-27 07:15:42.734
512,-253.0,1071.0,-104.0,1105.3804774827531,2021-09-27 07:15:42.751
513,-253.0,1071.0,-44.0,1101.356436400133,2021-09-27 07:15:42.752
514,-83.0,1119.0,-106.0,1127.0696517961967,2021-09-27 07:15:42.754
515,-140.0,1030.0,-152.0,1050.5255827441804,2021-09-27 07:15:42.762
516,-334.0,1104.0,35.0,1153.9484390560958,2021-09-27 07:15:42.773
517,-199.0,1029.0,-75.0,1050.745925521484,2021-09-27 07:15:42.781
518,-266.0,1055.0,-15.0,1088.1203977501757,2021-09-27 07:15:42.799
519,-120.0,1029.0,-15.0,1036.0820430834617,2021-09-27 07:15:42.801
520,-120.0,1029.0,8.0,1036.004343620238,2021-09-27 07:15:42.802
521,-153.0,896.0,-46.0,910.1324079495248,2021-09-27 07:15:42.811
522,-288.0,896.0,-46.0,942.2717230183658,2021-09-27 07:15:42.821
523,-288.0,965.0,11.0,1007.1196552545284,2021-09-27 07:15:42.822
524,-244.0,1001.0,58.0,1031.94040525604,2021-09-27 07:15:42.830
525,-123.0,770.0,-20.0,780.0185895220703,2021-09-27 07:15:42.840
526,-317.0,925.0,44.0,978.8002860645272,2021-09-27 07:15:42.850
527,-169.0,934.0,68.0,951.5991803275158,2021-09-27 07:15:42.870
528,-154.0,893.0,-67.0,908.6550500602524,2021-09-27 07:15:42.879
529,-80.0,1032.0,-67.0,1037.2622619183635,2021-09-27 07:15:42.889
530,-80.0,1032.0,-7.0,1035.119799829952,2021-09-27 07:15:42.890
531,-142.0,960.0,-53.0,971.891454844624,2021-09-27 07:15:42.907
532,-152.0,960.0,-53.0,973.4027943251448,2021-09-27 07:15:42.909
533,-152.0,1077.0,12.0,1087.73939893708,2021-09-27 07:15:42.910
534,-131.0,891.0,-54.0,902.1962092582744,2021-09-27 07:15:42.918
535,-91.0,1059.0,-157.0,1074.4352004658076,2021-09-27 07:15:42.928
536,-209.0,1119.0,-4.0,1138.3575888094217,2021-09-27 07:15:42.939
537,-124.0,1084.0,-12.0,1091.1351886911173,2021-09-27 07:15:42.947
538,-68.0,901.0,-197.0,924.7886244975118,2021-09-27 07:15:42.957
539,-292.0,1169.0,-12.0,1204.9767632614332,2021-09-27 07:15:42.967
540,-262.0,1037.0,2.0,1069.5873035895668,2021-09-27 07:15:42.977
541,-169.0,971.0,-38.0,986.3295595286596,2021-09-27 07:15:42.987
542,-141.0,1013.0,-51.0,1024.0366204389372,2021-09-27 07:15:42.997
