,Acceleration_X,Acceleration_Y,Acceleration_Z,magnitude,time_stamp
0,-27.0,1232.0,45.0,1233.117188267198,2021-09-27 12:44:53.316
1,-73.0,858.0,109.0,867.971197678817,2021-09-27 12:44:53.326
2,-61.0,962.0,109.0,970.0752548127388,2021-09-27 12:44:53.335
3,-61.0,962.0,-168.0,978.4625695446914,2021-09-27 12:44:53.336
4,-250.0,1228.0,-283.0,1284.746278453454,2021-09-27 12:44:53.345
5,-68.0,1109.0,98.0,1115.396342113421,2021-09-27 12:44:53.356
6,-92.0,955.0,-66.0,961.6886190446468,2021-09-27 12:44:53.366
7,-241.0,825.0,-127.0,868.8124078303671,2021-09-27 12:44:53.375
8,-384.0,1164.0,-66.0,1227.4803460748362,2021-09-27 12:44:53.384
9,-281.0,740.0,-103.0,798.2292903671225,2021-09-27 12:44:53.394
10,-217.0,1034.0,-230.0,1081.2700865186273,2021-09-27 12:44:53.404
11,-205.0,1110.0,74.0,1131.1945014010632,2021-09-27 12:44:53.414
12,-142.0,847.0,74.0,862.0029002271397,2021-09-27 12:44:53.423
13,-142.0,847.0,94.0,863.9496513107694,2021-09-27 12:44:53.424
14,-95.0,925.0,-142.0,940.6455230319232,2021-09-27 12:44:53.433
15,-177.0,929.0,127.0,954.2007126385936,2021-09-27 12:44:53.443
16,-322.0,885.0,191.0,960.931839414222,2021-09-27 12:44:53.453
17,-304.0,821.0,196.0,897.1471451216908,2021-09-27 12:44:53.462
18,-135.0,839.0,43.0,850.8789573141411,2021-09-27 12:44:53.473
19,-239.0,882.0,-40.0,914.6830051990688,2021-09-27 12:44:53.482
20,-257.0,978.0,134.0,1020.0436265180034,2021-09-27 12:44:53.492
21,-236.0,767.0,134.0,813.5975663680417,2021-09-27 12:44:53.501
22,-236.0,767.0,15.0,802.6269370012446,2021-09-27 12:44:53.502
23,-242.0,1014.0,15.0,1042.5857278900378,2021-09-27 12:44:53.514
24,-242.0,1014.0,-201.0,1061.6783882136813,2021-09-27 12:44:53.515
25,-27.0,1215.0,-201.0,1231.8096443850404,2021-09-27 12:44:53.521
26,-27.0,1215.0,43.0,1216.060442576766,2021-09-27 12:44:53.522
27,-204.0,1014.0,-88.0,1038.0539485017143,2021-09-27 12:44:53.532
28,-217.0,1042.0,-88.0,1067.987359475757,2021-09-27 12:44:53.540
29,-217.0,1042.0,-371.0,1127.16192270676,2021-09-27 12:44:53.541
30,-110.0,1320.0,81.0,1327.0497353151463,2021-09-27 12:44:53.550
31,-232.0,921.0,98.0,954.8135943732682,2021-09-27 12:44:53.561
32,-146.0,984.0,-207.0,1016.0811975427948,2021-09-27 12:44:53.570
33,-230.0,906.0,24.0,935.0465229067482,2021-09-27 12:44:53.580
34,-437.0,945.0,24.0,1041.4269057403883,2021-09-27 12:44:53.589
35,-437.0,945.0,-18.0,1041.3059108638538,2021-09-27 12:44:53.590
36,-352.0,1049.0,-136.0,1114.8098492568138,2021-09-27 12:44:53.599
37,-387.0,1049.0,-136.0,1126.350744661715,2021-09-27 12:44:53.610
38,-387.0,1047.0,-112.0,1121.8386693281705,2021-09-27 12:44:53.611
39,-33.0,918.0,-118.0,926.1409180033024,2021-09-27 12:44:53.619
40,-245.0,1137.0,3.0,1163.1005975409005,2021-09-27 12:44:53.629
41,-66.0,944.0,131.0,955.3287392306378,2021-09-27 12:44:53.638
42,-184.0,785.0,-235.0,839.8249817670346,2021-09-27 12:44:53.648
43,-124.0,1082.0,74.0,1091.5933308700637,2021-09-27 12:44:53.658
44,-194.0,814.0,74.0,840.0642832545615,2021-09-27 12:44:53.667
45,-194.0,814.0,214.0,863.7291242050369,2021-09-27 12:44:53.668
46,-194.0,790.0,214.0,841.1492138734958,2021-09-27 12:44:53.677
47,-194.0,790.0,-103.0,819.9664627288118,2021-09-27 12:44:53.678
48,-114.0,756.0,-103.0,771.453822338058,2021-09-27 12:44:53.696
49,-114.0,756.0,-2.0,764.5495405792877,2021-09-27 12:44:53.697
50,-167.0,1010.0,182.0,1039.7658390233833,2021-09-27 12:44:53.699
51,-220.0,1010.0,182.0,1049.5827742488916,2021-09-27 12:44:53.707
52,-220.0,983.0,-120.0,1014.4402397381524,2021-09-27 12:44:53.708
53,-185.0,983.0,-120.0,1007.4294019930132,2021-09-27 12:44:53.716
54,-185.0,993.0,-193.0,1028.359372982033,2021-09-27 12:44:53.717
55,0.0,1184.0,53.0,1185.1856394675056,2021-09-27 12:44:53.727
56,-297.0,1073.0,-208.0,1132.6084936993896,2021-09-27 12:44:53.736
57,-170.0,1213.0,-141.0,1232.9436321259784,2021-09-27 12:44:53.746
58,-61.0,993.0,80.0,998.083162867704,2021-09-27 12:44:53.756
59,-181.0,1171.0,-164.0,1196.2014880445518,2021-09-27 12:44:53.766
60,-132.0,874.0,169.0,899.9227744645648,2021-09-27 12:44:53.775
61,-80.0,1075.0,-193.0,1095.1136927278374,2021-09-27 12:44:53.785
62,-306.0,1075.0,-193.0,1134.2442417751126,2021-09-27 12:44:53.794
63,-306.0,962.0,-124.0,1017.0821009141788,2021-09-27 12:44:53.795
64,-294.0,1044.0,-124.0,1091.672111945707,2021-09-27 12:44:53.804
65,-294.0,1044.0,49.0,1085.7131296986329,2021-09-27 12:44:53.805
66,-463.0,867.0,-58.0,984.5923014121124,2021-09-27 12:44:53.815
67,-163.0,984.0,-287.0,1037.8795691215817,2021-09-27 12:44:53.824
68,-121.0,1076.0,38.0,1083.448660528038,2021-09-27 12:44:53.834
69,-187.0,988.0,21.0,1005.7604088449694,2021-09-27 12:44:53.843
70,-129.0,1070.0,21.0,1077.9526891287946,2021-09-27 12:44:53.853
71,-129.0,1070.0,-116.0,1083.972785636245,2021-09-27 12:44:53.854
72,-168.0,719.0,126.0,749.0400523336519,2021-09-27 12:44:53.864
73,-248.0,719.0,126.0,770.9351464293219,2021-09-27 12:44:53.873
74,-248.0,1024.0,109.0,1059.2266046507707,2021-09-27 12:44:53.874
75,-223.0,874.0,-26.0,902.375199127281,2021-09-27 12:44:53.882
76,-152.0,817.0,47.0,832.3472832898537,2021-09-27 12:44:53.892
77,-325.0,884.0,30.0,942.3274377837038,2021-09-27 12:44:53.902
78,-287.0,884.0,30.0,929.9059092187769,2021-09-27 12:44:53.915
79,-287.0,843.0,68.0,893.108056172376,2021-09-27 12:44:53.916
80,-255.0,969.0,-88.0,1005.8479010267904,2021-09-27 12:44:53.921
81,-273.0,1053.0,-210.0,1107.8980097463846,2021-09-27 12:44:53.931
82,-47.0,1170.0,-210.0,1189.6255713458752,2021-09-27 12:44:53.949
83,-47.0,1170.0,131.0,1178.2487004024235,2021-09-27 12:44:53.950
84,12.0,995.0,15.0,995.1854098608962,2021-09-27 12:44:53.952
85,-47.0,995.0,15.0,996.2223647359058,2021-09-27 12:44:53.961
86,-47.0,1170.0,-280.0,1203.9555639640523,2021-09-27 12:44:53.962
87,-6.0,1170.0,-280.0,1203.0527835469231,2021-09-27 12:44:53.970
88,-6.0,1060.0,-7.0,1060.0400935813702,2021-09-27 12:44:53.971
89,-156.0,1059.0,16.0,1070.5479905170062,2021-09-27 12:44:53.980
90,-199.0,1107.0,-178.0,1138.7422886676336,2021-09-27 12:44:53.990
91,-97.0,1107.0,-178.0,1125.4074817593848,2021-09-27 12:44:53.999
92,-97.0,693.0,29.0,700.3563378737998,2021-09-27 12:44:54.000
93,-294.0,1079.0,-48.0,1119.366338604123,2021-09-27 12:44:54.009
94,-181.0,1155.0,-137.0,1177.096002881668,2021-09-27 12:44:54.020
95,-218.0,1005.0,-111.0,1034.3452034983293,2021-09-27 12:44:54.029
96,-68.0,996.0,93.0,1002.6410125264176,2021-09-27 12:44:54.039
97,-278.0,894.0,-65.0,938.480154292034,2021-09-27 12:44:54.048
98,-154.0,970.0,124.0,989.9454530427422,2021-09-27 12:44:54.058
99,-119.0,863.0,242.0,904.1537479875864,2021-09-27 12:44:54.070
100,-142.0,925.0,88.0,939.9643610265232,2021-09-27 12:44:54.078
101,-161.0,850.0,300.0,915.6533186747046,2021-09-27 12:44:54.088
102,-238.0,872.0,-44.0,904.9662977150032,2021-09-27 12:44:54.097
103,-76.0,775.0,-76.0,782.4174077818054,2021-09-27 12:44:54.107
104,-213.0,943.0,15.0,966.8727941151308,2021-09-27 12:44:54.121
105,-297.0,1077.0,-109.0,1122.505679272938,2021-09-27 12:44:54.127
106,-125.0,935.0,-101.0,948.7101770298452,2021-09-27 12:44:54.136
107,76.0,996.0,62.0,1000.8176657113922,2021-09-27 12:44:54.146
108,-415.0,1173.0,-201.0,1260.378911280255,2021-09-27 12:44:54.156
109,-82.0,1220.0,-51.0,1223.8157541068017,2021-09-27 12:44:54.177
110,6.0,854.0,73.0,857.1353452051782,2021-09-27 12:44:54.180
111,-204.0,1175.0,-129.0,1199.5340762145945,2021-09-27 12:44:54.187
112,-305.0,986.0,-69.0,1034.3993426138668,2021-09-27 12:44:54.195
113,-220.0,923.0,59.0,950.6892236688076,2021-09-27 12:44:54.205
114,-233.0,1048.0,-118.0,1080.0541653083883,2021-09-27 12:44:54.216
115,-309.0,986.0,-156.0,1044.9942583574325,2021-09-27 12:44:54.224
116,-298.0,1087.0,-56.0,1128.4985600345267,2021-09-27 12:44:54.234
117,-215.0,986.0,-265.0,1043.3820009948415,2021-09-27 12:44:54.244
118,-22.0,960.0,59.0,962.062887757344,2021-09-27 12:44:54.261
119,-284.0,960.0,59.0,1002.8643976131568,2021-09-27 12:44:54.263
120,-284.0,1008.0,40.0,1048.0076335599852,2021-09-27 12:44:54.264
121,-115.0,1004.0,-56.0,1012.1151120302472,2021-09-27 12:44:54.273
122,-199.0,692.0,103.0,727.3747314830231,2021-09-27 12:44:54.285
123,-111.0,692.0,103.0,708.3741948998425,2021-09-27 12:44:54.292
124,-111.0,1030.0,61.0,1037.7581606520855,2021-09-27 12:44:54.293
125,-301.0,1013.0,-32.0,1057.2577736767887,2021-09-27 12:44:54.322
126,-301.0,655.0,54.0,722.8706661637336,2021-09-27 12:44:54.325
127,-252.0,655.0,54.0,703.878540658827,2021-09-27 12:44:54.327
128,-252.0,841.0,1.0,877.9441895701572,2021-09-27 12:44:54.328
129,-411.0,1046.0,-136.0,1132.0481438525485,2021-09-27 12:44:54.338
130,20.0,1066.0,92.0,1070.1495222631274,2021-09-27 12:44:54.353
131,-12.0,1081.0,-71.0,1083.395587954834,2021-09-27 12:44:54.362
132,-89.0,1148.0,-265.0,1181.545597935179,2021-09-27 12:44:54.366
133,-30.0,1138.0,43.0,1139.207180454899,2021-09-27 12:44:54.371
134,-103.0,1138.0,43.0,1143.4605371415316,2021-09-27 12:44:54.380
135,-103.0,1221.0,-179.0,1238.342036757212,2021-09-27 12:44:54.381
136,-15.0,1022.0,-23.0,1022.3688179908462,2021-09-27 12:44:54.392
137,-312.0,996.0,3.0,1043.7284129504187,2021-09-27 12:44:54.400
138,-238.0,1151.0,-83.0,1178.2758590415065,2021-09-27 12:44:54.410
139,-278.0,704.0,-5.0,756.9180933231812,2021-09-27 12:44:54.420
140,-254.0,1015.0,-56.0,1047.7962588213416,2021-09-27 12:44:54.430
141,-376.0,1086.0,-252.0,1176.5525912597363,2021-09-27 12:44:54.441
142,-198.0,967.0,60.0,988.884725334556,2021-09-27 12:44:54.449
143,-65.0,967.0,60.0,971.0375893857045,2021-09-27 12:44:54.458
144,-65.0,868.0,7.0,870.4584998723374,2021-09-27 12:44:54.459
145,-334.0,868.0,7.0,930.0693522528306,2021-09-27 12:44:54.468
146,-334.0,928.0,-112.0,992.614728885281,2021-09-27 12:44:54.469
147,-180.0,1058.0,233.0,1098.2044436260492,2021-09-27 12:44:54.478
148,-126.0,757.0,152.0,782.3228233919806,2021-09-27 12:44:54.488
149,-300.0,924.0,-25.0,971.8029635682328,2021-09-27 12:44:54.498
150,-100.0,924.0,-25.0,929.7316817232808,2021-09-27 12:44:54.507
151,-100.0,812.0,-70.0,821.1236204129071,2021-09-27 12:44:54.508
152,-194.0,844.0,114.0,873.4803947427785,2021-09-27 12:44:54.517
153,-314.0,947.0,-38.0,998.4232569406624,2021-09-27 12:44:54.527
154,-196.0,833.0,36.0,856.5051079824335,2021-09-27 12:44:54.537
155,-297.0,833.0,36.0,885.0954750759943,2021-09-27 12:44:54.547
156,-297.0,1066.0,-53.0,1107.8691258447452,2021-09-27 12:44:54.548
157,-150.0,1051.0,-92.0,1065.6289222801715,2021-09-27 12:44:54.556
158,55.0,884.0,37.0,886.4818103040807,2021-09-27 12:44:54.566
159,-274.0,1261.0,37.0,1290.9554601147167,2021-09-27 12:44:54.576
160,-274.0,1261.0,-238.0,1312.189391818117,2021-09-27 12:44:54.577
161,-137.0,1261.0,-238.0,1290.5556942650712,2021-09-27 12:44:54.587
162,-137.0,1217.0,-27.0,1224.9844896977268,2021-09-27 12:44:54.588
163,-49.0,750.0,126.0,762.0872653443305,2021-09-27 12:44:54.596
164,-239.0,1032.0,-207.0,1079.3488777962389,2021-09-27 12:44:54.605
165,-364.0,1025.0,-40.0,1088.448896365833,2021-09-27 12:44:54.615
166,-192.0,1025.0,-40.0,1043.5942698194542,2021-09-27 12:44:54.624
167,-192.0,880.0,0.0,900.7019484824044,2021-09-27 12:44:54.625
168,-278.0,1009.0,-89.0,1050.374219028628,2021-09-27 12:44:54.635
169,-326.0,1068.0,-146.0,1126.1509667890891,2021-09-27 12:44:54.646
170,15.0,923.0,41.0,924.0319258553786,2021-09-27 12:44:54.654
171,-335.0,1000.0,-19.0,1054.7919226084357,2021-09-27 12:44:54.664
172,-109.0,1000.0,-19.0,1006.1023804762616,2021-09-27 12:44:54.673
173,-109.0,1065.0,-72.0,1072.981826500337,2021-09-27 12:44:54.674
174,-44.0,594.0,176.0,621.0861453936966,2021-09-27 12:44:54.683
175,-138.0,1177.0,43.0,1185.842316667777,2021-09-27 12:44:54.693
176,-81.0,645.0,43.0,651.4867611855209,2021-09-27 12:44:54.713
177,-81.0,645.0,136.0,664.1400454723386,2021-09-27 12:44:54.714
178,-122.0,645.0,136.0,670.3767597403717,2021-09-27 12:44:54.716
179,-122.0,874.0,58.0,884.3777473455559,2021-09-27 12:44:54.717
180,-290.0,1063.0,-23.0,1102.0880182635142,2021-09-27 12:44:54.723
181,-187.0,617.0,70.0,648.5044332924795,2021-09-27 12:44:54.733
182,-92.0,912.0,-101.0,922.17623044622,2021-09-27 12:44:54.742
183,-388.0,912.0,-101.0,996.2374215015212,2021-09-27 12:44:54.751
184,-388.0,1133.0,-236.0,1220.6264784937282,2021-09-27 12:44:54.752
185,9.0,1087.0,119.0,1093.5314353049023,2021-09-27 12:44:54.761
186,-2.0,974.0,-153.0,985.945738872074,2021-09-27 12:44:54.772
187,-164.0,1255.0,-258.0,1291.6984942315291,2021-09-27 12:44:54.782
188,-3.0,1160.0,81.0,1162.8284482244146,2021-09-27 12:44:54.791
189,-127.0,1160.0,81.0,1169.7392871918084,2021-09-27 12:44:54.800
190,-127.0,913.0,-40.0,922.6581165307116,2021-09-27 12:44:54.801
191,-257.0,1233.0,-142.0,1267.4785994248582,2021-09-27 12:44:54.811
192,-115.0,960.0,-61.0,968.7858380467792,2021-09-27 12:44:54.820
193,-286.0,909.0,-58.0,954.6941918750736,2021-09-27 12:44:54.830
194,-244.0,1315.0,-58.0,1338.7027302579163,2021-09-27 12:44:54.839
195,-244.0,1315.0,-160.0,1346.9821825102215,2021-09-27 12:44:54.840
196,-166.0,988.0,-142.0,1011.8616506222578,2021-09-27 12:44:54.849
197,-254.0,1109.0,-241.0,1162.960876384068,2021-09-27 12:44:54.860
198,-241.0,1144.0,84.0,1172.123287030848,2021-09-27 12:44:54.870
199,18.0,1144.0,84.0,1147.220990045074,2021-09-27 12:44:54.878
200,18.0,664.0,112.0,673.6200709598846,2021-09-27 12:44:54.879
201,-371.0,1014.0,-138.0,1088.522392971316,2021-09-27 12:44:54.889
202,-234.0,1037.0,178.0,1077.872441432659,2021-09-27 12:44:54.898
203,-175.0,703.0,220.0,757.1221830061512,2021-09-27 12:44:54.908
204,-309.0,860.0,-83.0,917.5892327179956,2021-09-27 12:44:54.918
205,-132.0,837.0,8.0,847.3824402240112,2021-09-27 12:44:54.927
206,-173.0,841.0,79.0,862.2360465672958,2021-09-27 12:44:54.938
207,-256.0,1092.0,-164.0,1133.532531513763,2021-09-27 12:44:54.947
208,-170.0,1116.0,-65.0,1130.7435606714726,2021-09-27 12:44:54.957
209,187.0,902.0,8.0,921.2149586280068,2021-09-27 12:44:54.974
210,-197.0,1088.0,-257.0,1135.1660671461248,2021-09-27 12:44:54.976
211,-121.0,1336.0,-33.0,1341.8740626452245,2021-09-27 12:44:54.986
212,-270.0,1275.0,-359.0,1351.8158158565834,2021-09-27 12:44:54.996
213,-203.0,1240.0,10.0,1256.54645755738,2021-09-27 12:44:55.006
214,-49.0,909.0,147.0,922.1122491323928,2021-09-27 12:44:55.019
215,-153.0,981.0,-195.0,1011.8275544775404,2021-09-27 12:44:55.025
216,-357.0,1191.0,-103.0,1247.613321506307,2021-09-27 12:44:55.035
217,-168.0,899.0,-7.0,914.5895254156368,2021-09-27 12:44:55.045
218,-291.0,982.0,-60.0,1025.9653990266922,2021-09-27 12:44:55.055
219,-320.0,1148.0,-152.0,1201.4191608260624,2021-09-27 12:44:55.065
220,11.0,931.0,30.0,931.5481737408968,2021-09-27 12:44:55.074
221,-148.0,931.0,30.0,943.1675354887911,2021-09-27 12:44:55.083
222,-148.0,987.0,-42.0,998.9179145455346,2021-09-27 12:44:55.084
223,-122.0,1087.0,-25.0,1094.1105977002508,2021-09-27 12:44:55.093
224,-118.0,618.0,213.0,664.2416728872105,2021-09-27 12:44:55.103
225,-70.0,918.0,-40.0,921.5335045455482,2021-09-27 12:44:55.113
226,-255.0,1046.0,-22.0,1076.8588579753616,2021-09-27 12:44:55.123
227,-292.0,779.0,-22.0,832.2193220539883,2021-09-27 12:44:55.132
228,-292.0,779.0,127.0,841.5663966675476,2021-09-27 12:44:55.133
229,-193.0,731.0,127.0,766.6413763944652,2021-09-27 12:44:55.142
230,-193.0,731.0,-103.0,763.0327646962481,2021-09-27 12:44:55.143
231,-385.0,1242.0,-184.0,1313.257400512177,2021-09-27 12:44:55.152
232,-117.0,896.0,-111.0,910.3988137074872,2021-09-27 12:44:55.162
233,-357.0,1022.0,-255.0,1112.1861355007084,2021-09-27 12:44:55.172
234,50.0,1174.0,168.0,1187.0130580579137,2021-09-27 12:44:55.192
235,4.0,1037.0,-213.0,1058.656696006784,2021-09-27 12:44:55.195
236,-81.0,1313.0,-201.0,1330.763314793431,2021-09-27 12:44:55.202
237,-98.0,1313.0,-201.0,1331.9061528501172,2021-09-27 12:44:55.210
238,-98.0,1026.0,111.0,1036.6296349227143,2021-09-27 12:44:55.211
239,-115.0,932.0,-8.0,939.1022308566836,2021-09-27 12:44:55.221
240,-225.0,1212.0,-189.0,1247.112665319377,2021-09-27 12:44:55.230
241,-252.0,872.0,51.0,909.1144042418424,2021-09-27 12:44:55.241
242,-137.0,872.0,51.0,884.1685359703771,2021-09-27 12:44:55.249
243,-137.0,916.0,-50.0,927.5370612541582,2021-09-27 12:44:55.250
244,-284.0,916.0,-50.0,960.3186971000824,2021-09-27 12:44:55.259
245,-284.0,1166.0,-276.0,1231.4170698833111,2021-09-27 12:44:55.260
246,-342.0,1116.0,74.0,1169.5708614701375,2021-09-27 12:44:55.277
247,-72.0,790.0,50.0,794.8484132210367,2021-09-27 12:44:55.279
248,-297.0,890.0,-195.0,958.2974486035116,2021-09-27 12:44:55.289
249,-332.0,1138.0,-195.0,1201.3712998070164,2021-09-27 12:44:55.298
250,-332.0,1138.0,212.0,1204.247482870527,2021-09-27 12:44:55.299
251,-286.0,924.0,212.0,990.2100787206724,2021-09-27 12:44:55.310
252,-286.0,924.0,-160.0,980.3937984299982,2021-09-27 12:44:55.311
253,-251.0,976.0,180.0,1023.7074777493812,2021-09-27 12:44:55.318
254,-168.0,767.0,211.0,813.0399744170024,2021-09-27 12:44:55.328
255,-267.0,854.0,211.0,919.3073479527944,2021-09-27 12:44:55.337
256,-267.0,854.0,-136.0,905.0419879762484,2021-09-27 12:44:55.338
257,-209.0,854.0,-136.0,889.6589234082913,2021-09-27 12:44:55.347
258,-209.0,833.0,51.0,860.3319126941648,2021-09-27 12:44:55.348
259,-232.0,848.0,36.0,879.8999943175361,2021-09-27 12:44:55.359
260,-146.0,1003.0,-190.0,1031.2249996969624,2021-09-27 12:44:55.367
261,-260.0,1003.0,-190.0,1053.4272637443937,2021-09-27 12:44:55.376
262,-260.0,1151.0,-36.0,1180.5494483502164,2021-09-27 12:44:55.377
263,110.0,965.0,59.0,973.0395675408066,2021-09-27 12:44:55.386
264,-155.0,1138.0,-319.0,1191.9857381697148,2021-09-27 12:44:55.397
265,-238.0,1318.0,18.0,1339.4371952428378,2021-09-27 12:44:55.406
266,-53.0,908.0,129.0,918.6479194990864,2021-09-27 12:44:55.417
267,-119.0,983.0,129.0,998.5444406735236,2021-09-27 12:44:55.425
268,-119.0,983.0,-284.0,1030.0999951461024,2021-09-27 12:44:55.426
269,-334.0,1059.0,-284.0,1146.1644733632254,2021-09-27 12:44:55.435
270,-334.0,1059.0,-98.0,1114.7380858300305,2021-09-27 12:44:55.436
271,-147.0,1062.0,104.0,1077.1578343028473,2021-09-27 12:44:55.445
272,-217.0,990.0,-164.0,1026.686417558935,2021-09-27 12:44:55.456
273,-198.0,928.0,-8.0,948.9214930646264,2021-09-27 12:44:55.465
274,-237.0,1034.0,-114.0,1066.9212716972138,2021-09-27 12:44:55.474
275,-349.0,1085.0,-216.0,1160.03534428913,2021-09-27 12:44:55.484
276,-7.0,890.0,202.0,912.662588254827,2021-09-27 12:44:55.494
277,-215.0,938.0,-193.0,981.4876463817566,2021-09-27 12:44:55.504
278,-211.0,1126.0,92.0,1149.2871703799708,2021-09-27 12:44:55.514
279,-99.0,636.0,257.0,693.0699820364463,2021-09-27 12:44:55.523
280,-31.0,865.0,-32.0,866.1466388551075,2021-09-27 12:44:55.533
281,-426.0,865.0,-32.0,964.7408978580726,2021-09-27 12:44:55.542
282,-426.0,1000.0,-50.0,1088.1066124236172,2021-09-27 12:44:55.543
283,-348.0,861.0,-50.0,930.0134407630892,2021-09-27 12:44:55.552
284,-348.0,861.0,173.0,944.6449068300744,2021-09-27 12:44:55.553
285,-139.0,845.0,-21.0,856.6136818893334,2021-09-27 12:44:55.563
286,-354.0,1015.0,-21.0,1075.166033689681,2021-09-27 12:44:55.573
287,-354.0,1015.0,-279.0,1110.5773273392538,2021-09-27 12:44:55.574
288,-227.0,1015.0,-279.0,1076.8449284832054,2021-09-27 12:44:55.586
289,-227.0,894.0,-89.0,926.65311740694,2021-09-27 12:44:55.587
290,-28.0,935.0,-108.0,941.6331557459092,2021-09-27 12:44:55.592
291,-138.0,1170.0,-108.0,1183.0502947888565,2021-09-27 12:44:55.601
292,-138.0,1170.0,-320.0,1220.7964613316997,2021-09-27 12:44:55.602
293,-117.0,1034.0,-198.0,1059.268143578386,2021-09-27 12:44:55.612
294,-106.0,1292.0,-218.0,1314.5432666899935,2021-09-27 12:44:55.622
295,-133.0,976.0,-218.0,1008.8552919026594,2021-09-27 12:44:55.630
296,-133.0,976.0,176.0,1000.6203076092348,2021-09-27 12:44:55.631
297,-63.0,1065.0,-81.0,1069.9322408451856,2021-09-27 12:44:55.640
298,-233.0,1132.0,-223.0,1177.0480024196124,2021-09-27 12:44:55.650
299,-470.0,903.0,132.0,1026.5149779715832,2021-09-27 12:44:55.662
300,-103.0,1003.0,-40.0,1009.0678867152596,2021-09-27 12:44:55.670
301,-106.0,1006.0,-212.0,1033.5453545926275,2021-09-27 12:44:55.679
302,-309.0,1205.0,85.0,1246.8885274955417,2021-09-27 12:44:55.689
303,11.0,871.0,52.0,872.6201922944483,2021-09-27 12:44:55.699
304,-263.0,822.0,-238.0,895.2636483181924,2021-09-27 12:44:55.709
305,-314.0,1069.0,-238.0,1139.298468356734,2021-09-27 12:44:55.729
306,-314.0,1069.0,129.0,1121.6050998457522,2021-09-27 12:44:55.730
307,-129.0,767.0,311.0,837.6461066584145,2021-09-27 12:44:55.732
308,-240.0,845.0,-118.0,886.3120218072189,2021-09-27 12:44:55.739
309,-65.0,845.0,-118.0,855.6716660027957,2021-09-27 12:44:55.747
310,-65.0,816.0,32.0,819.2099852907068,2021-09-27 12:44:55.748
311,-232.0,950.0,-108.0,983.863811713796,2021-09-27 12:44:55.757
312,-258.0,742.0,137.0,797.4315017604961,2021-09-27 12:44:55.767
313,-110.0,838.0,53.0,846.8488649103806,2021-09-27 12:44:55.777
314,-287.0,838.0,53.0,887.3680183554059,2021-09-27 12:44:55.787
315,-287.0,1098.0,-235.0,1158.9641927169278,2021-09-27 12:44:55.788
316,-160.0,1077.0,79.0,1091.6821881848216,2021-09-27 12:44:55.797
317,185.0,1061.0,50.0,1078.1678904512044,2021-09-27 12:44:55.806
318,-254.0,1044.0,-392.0,1143.7289888780472,2021-09-27 12:44:55.816
319,-151.0,1162.0,35.0,1172.292625584585,2021-09-27 12:44:55.826
320,-52.0,1023.0,131.0,1032.6635463692903,2021-09-27 12:44:55.836
321,-186.0,1041.0,-358.0,1116.4412210233013,2021-09-27 12:44:55.846
322,-165.0,995.0,-163.0,1021.674605733156,2021-09-27 12:44:55.855
323,-240.0,1082.0,-39.0,1108.9837690426311,2021-09-27 12:44:55.865
324,-305.0,1052.0,-81.0,1098.3123417316224,2021-09-27 12:44:55.875
325,-202.0,961.0,-119.0,989.1845126163269,2021-09-27 12:44:55.885
326,25.0,950.0,172.0,965.7686058264682,2021-09-27 12:44:55.895
327,-201.0,1056.0,7.0,1074.9818603120705,2021-09-27 12:44:55.904
328,-19.0,940.0,92.0,944.6824863413104,2021-09-27 12:44:55.914
329,-192.0,898.0,92.0,922.89327660353,2021-09-27 12:44:55.923
330,-192.0,898.0,-168.0,933.5373586525608,2021-09-27 12:44:55.924
331,-298.0,973.0,105.0,1023.0141738998536,2021-09-27 12:44:55.934
332,-100.0,778.0,224.0,815.7573168534867,2021-09-27 12:44:55.943
333,-144.0,847.0,-32.0,859.7493820875942,2021-09-27 12:44:55.954
334,-239.0,808.0,-32.0,843.2134960969256,2021-09-27 12:44:55.962
335,-239.0,808.0,-42.0,843.6521795147571,2021-09-27 12:44:55.963
336,-184.0,933.0,99.0,956.1098263274988,2021-09-27 12:44:55.972
337,-261.0,983.0,-7.0,1017.0835757203045,2021-09-27 12:44:55.982
338,-377.0,884.0,-177.0,977.1970118660822,2021-09-27 12:44:55.992
339,91.0,1047.0,83.0,1054.2196165884982,2021-09-27 12:44:56.002
340,-227.0,1131.0,-229.0,1176.065899514139,2021-09-27 12:44:56.020
341,-163.0,1226.0,-117.0,1242.3099452230108,2021-09-27 12:44:56.024
342,-66.0,833.0,74.0,838.8808020213598,2021-09-27 12:44:56.032
343,-25.0,833.0,74.0,836.6540503696854,2021-09-27 12:44:56.041
344,-25.0,1277.0,-130.0,1283.8434484001543,2021-09-27 12:44:56.042
345,-406.0,1094.0,-229.0,1189.164832981534,2021-09-27 12:44:56.050
346,-80.0,1283.0,-184.0,1298.5934698742328,2021-09-27 12:44:56.060
347,-403.0,935.0,-124.0,1025.675387244912,2021-09-27 12:44:56.070
348,-340.0,935.0,-124.0,1002.5971274644668,2021-09-27 12:44:56.080
349,-340.0,793.0,-45.0,863.9872684247147,2021-09-27 12:44:56.081
350,-149.0,1142.0,-29.0,1152.044269982712,2021-09-27 12:44:56.090
351,-327.0,975.0,-150.0,1039.2564649786884,2021-09-27 12:44:56.099
352,-184.0,994.0,20.0,1011.0845661961218,2021-09-27 12:44:56.109
353,-171.0,1090.0,14.0,1103.4205907087287,2021-09-27 12:44:56.119
354,-252.0,893.0,-92.0,932.4253321312116,2021-09-27 12:44:56.129
355,-328.0,644.0,200.0,749.8799903984637,2021-09-27 12:44:56.139
356,-151.0,1026.0,107.0,1042.5574324707488,2021-09-27 12:44:56.148
357,-394.0,918.0,-3.0,998.9839838555972,2021-09-27 12:44:56.158
358,-210.0,918.0,-3.0,941.7181106891808,2021-09-27 12:44:56.167
359,-210.0,710.0,68.0,743.5213514082834,2021-09-27 12:44:56.168
360,-47.0,710.0,68.0,714.7957750294835,2021-09-27 12:44:56.177
361,-47.0,924.0,-102.0,930.8001933820168,2021-09-27 12:44:56.178
362,-322.0,1125.0,-89.0,1173.554429926452,2021-09-27 12:44:56.188
363,-182.0,1000.0,2.0,1016.4290432686386,2021-09-27 12:44:56.208
364,85.0,1037.0,-115.0,1046.8137370134193,2021-09-27 12:44:56.211
365,-21.0,1098.0,125.0,1105.2918166710544,2021-09-27 12:44:56.218
366,-42.0,1081.0,125.0,1089.0133148864618,2021-09-27 12:44:56.226
367,-42.0,1081.0,-175.0,1095.8786429162674,2021-09-27 12:44:56.227
368,-153.0,1145.0,-143.0,1163.9944157941652,2021-09-27 12:44:56.236
369,-41.0,1081.0,37.0,1082.409811485465,2021-09-27 12:44:56.246
370,-24.0,1081.0,37.0,1081.8992559383707,2021-09-27 12:44:56.255
371,-24.0,955.0,-35.0,955.9424668880444,2021-09-27 12:44:56.256
372,-431.0,1233.0,-128.0,1312.415330602321,2021-09-27 12:44:56.267
373,-238.0,704.0,-67.0,746.1561498774904,2021-09-27 12:44:56.286
374,-183.0,704.0,-67.0,730.4751878058556,2021-09-27 12:44:56.288
375,-183.0,949.0,-159.0,979.4748592996146,2021-09-27 12:44:56.289
376,-386.0,949.0,-159.0,1036.7632323727537,2021-09-27 12:44:56.294
377,-386.0,1265.0,-133.0,1329.2516691732983,2021-09-27 12:44:56.295
378,-98.0,1064.0,118.0,1074.9995348836203,2021-09-27 12:44:56.305
379,134.0,1064.0,118.0,1078.8771941235943,2021-09-27 12:44:56.316
380,134.0,917.0,4.0,926.7475384375186,2021-09-27 12:44:56.317
381,-309.0,1034.0,-140.0,1088.226538915496,2021-09-27 12:44:56.324
382,-223.0,1034.0,-140.0,1066.998125584108,2021-09-27 12:44:56.333
383,-223.0,1004.0,166.0,1041.777807404247,2021-09-27 12:44:56.334
384,-5.0,710.0,129.0,721.6411850774593,2021-09-27 12:44:56.343
385,-276.0,911.0,129.0,960.5925254758127,2021-09-27 12:44:56.353
386,-276.0,911.0,-29.0,952.3329249794948,2021-09-27 12:44:56.354
387,-105.0,768.0,223.0,806.5841555597283,2021-09-27 12:44:56.364
388,-360.0,768.0,223.0,877.0136829035223,2021-09-27 12:44:56.372
389,-360.0,896.0,-54.0,967.1256381670378,2021-09-27 12:44:56.373
390,-186.0,757.0,-54.0,781.3840285032705,2021-09-27 12:44:56.382
391,-186.0,757.0,30.0,780.0929431804905,2021-09-27 12:44:56.383
392,-146.0,897.0,-21.0,909.0467534731092,2021-09-27 12:44:56.392
393,-300.0,1096.0,-229.0,1159.1621974512454,2021-09-27 12:44:56.402
394,-394.0,1096.0,-229.0,1186.9679860889255,2021-09-27 12:44:56.411
395,-394.0,1102.0,32.0,1170.7536034537754,2021-09-27 12:44:56.412
396,240.0,931.0,83.0,965.0129532809392,2021-09-27 12:44:56.422
397,-339.0,1163.0,-299.0,1247.7543828815028,2021-09-27 12:44:56.431
398,-187.0,1260.0,46.0,1274.6313192449022,2021-09-27 12:44:56.441
399,147.0,843.0,76.0,859.0890524270461,2021-09-27 12:44:56.451
400,-141.0,1164.0,-170.0,1184.7687538081009,2021-09-27 12:44:56.461
401,-416.0,1098.0,-64.0,1175.9064588648198,2021-09-27 12:44:56.471
402,-228.0,914.0,-95.0,946.7866707975984,2021-09-27 12:44:56.480
403,-102.0,1091.0,-92.0,1099.6131137813882,2021-09-27 12:44:56.490
404,-412.0,1091.0,-92.0,1169.8243457887172,2021-09-27 12:44:56.499
405,-412.0,1074.0,-97.0,1154.3955128117918,2021-09-27 12:44:56.500
406,46.0,1047.0,161.0,1060.3046731953982,2021-09-27 12:44:56.510
407,-467.0,1121.0,161.0,1225.010612198931,2021-09-27 12:44:56.519
408,-467.0,1121.0,-107.0,1219.0894142760817,2021-09-27 12:44:56.520
409,190.0,926.0,146.0,956.4998693152028,2021-09-27 12:44:56.529
410,-231.0,964.0,-228.0,1017.1730432920448,2021-09-27 12:44:56.539
411,-317.0,1040.0,-228.0,1110.8883832320869,2021-09-27 12:44:56.548
412,-317.0,1040.0,53.0,1088.530201694009,2021-09-27 12:44:56.549
413,-83.0,749.0,244.0,792.1022661247725,2021-09-27 12:44:56.559
414,-114.0,800.0,-67.0,810.8544875623493,2021-09-27 12:44:56.568
415,-544.0,1026.0,12.0,1161.359548115914,2021-09-27 12:44:56.579
416,-136.0,813.0,12.0,824.3840124602126,2021-09-27 12:44:56.587
417,-136.0,813.0,155.0,838.7431072742119,2021-09-27 12:44:56.588
418,-51.0,787.0,-81.0,792.7994702319118,2021-09-27 12:44:56.597
419,-461.0,1047.0,-164.0,1155.6928657736016,2021-09-27 12:44:56.608
420,31.0,1132.0,118.0,1138.5556639883707,2021-09-27 12:44:56.617
421,-41.0,1069.0,-61.0,1071.5236814928544,2021-09-27 12:44:56.628
422,-162.0,1165.0,-61.0,1177.7903039166183,2021-09-27 12:44:56.636
423,-162.0,1165.0,-256.0,1203.7462357158172,2021-09-27 12:44:56.637
424,-58.0,1112.0,129.0,1120.9589644585567,2021-09-27 12:44:56.646
425,-1.0,957.0,129.0,965.6557357567964,2021-09-27 12:44:56.656
426,-1.0,957.0,-72.0,959.705163057905,2021-09-27 12:44:56.657
427,22.0,1051.0,178.0,1066.1936972239143,2021-09-27 12:44:56.666
428,-84.0,1057.0,-130.0,1068.271969116479,2021-09-27 12:44:56.676
429,-459.0,1117.0,-130.0,1214.6069323036156,2021-09-27 12:44:56.685
430,-459.0,1117.0,-46.0,1208.505688857111,2021-09-27 12:44:56.686
431,-288.0,941.0,93.0,988.4705357267864,2021-09-27 12:44:56.695
432,-232.0,839.0,-129.0,879.9920454185935,2021-09-27 12:44:56.705
433,-463.0,839.0,-129.0,966.918300581802,2021-09-27 12:44:56.714
434,-463.0,956.0,-180.0,1077.3601997475123,2021-09-27 12:44:56.715
435,-196.0,1222.0,-180.0,1250.6398362438324,2021-09-27 12:44:56.729
436,-196.0,1222.0,175.0,1249.9299980398905,2021-09-27 12:44:56.730
437,24.0,840.0,-40.0,841.2942410357983,2021-09-27 12:44:56.735
438,-254.0,894.0,-137.0,939.425888508508,2021-09-27 12:44:56.744
439,-162.0,1145.0,213.0,1175.856283735389,2021-09-27 12:44:56.762
440,-17.0,670.0,245.0,713.5923205864816,2021-09-27 12:44:56.766
441,-403.0,843.0,-140.0,944.8058001515444,2021-09-27 12:44:56.773
442,-143.0,899.0,63.0,912.4795888128128,2021-09-27 12:44:56.783
443,-251.0,822.0,91.0,864.2719479423129,2021-09-27 12:44:56.793
444,-323.0,1012.0,-132.0,1070.4657864686756,2021-09-27 12:44:56.802
445,-85.0,887.0,-17.0,891.2255606747374,2021-09-27 12:44:56.813
446,-309.0,962.0,-156.0,1022.3800663158491,2021-09-27 12:44:56.822
447,-210.0,1153.0,11.0,1172.0196244090796,2021-09-27 12:44:56.832
448,137.0,983.0,11.0,992.5618368645856,2021-09-27 12:44:56.841
449,137.0,983.0,-20.0,992.7023723150862,2021-09-27 12:44:56.842
450,-318.0,1085.0,-263.0,1160.8264297473588,2021-09-27 12:44:56.851
451,-75.0,1277.0,53.0,1280.298012183101,2021-09-27 12:44:56.862
452,32.0,998.0,187.0,1015.8725313738923,2021-09-27 12:44:56.872
453,-271.0,998.0,187.0,1050.9110333420238,2021-09-27 12:44:56.880
454,-271.0,949.0,-307.0,1033.581636833782,2021-09-27 12:44:56.881
455,-207.0,1117.0,-21.0,1136.2125681403106,2021-09-27 12:44:56.890
456,-279.0,1039.0,-8.0,1075.8373483013129,2021-09-27 12:44:56.900
457,-215.0,893.0,-167.0,933.5753852796248,2021-09-27 12:44:56.910
458,-326.0,1167.0,-203.0,1228.5658305520303,2021-09-27 12:44:56.920
459,33.0,1050.0,97.0,1054.987203713865,2021-09-27 12:44:56.934
460,-224.0,847.0,97.0,881.4726314526164,2021-09-27 12:44:56.939
461,-224.0,847.0,-119.0,884.1640119344374,2021-09-27 12:44:56.940
462,-372.0,1079.0,-43.0,1142.1357187304843,2021-09-27 12:44:56.949
463,-249.0,805.0,-198.0,865.5807299148936,2021-09-27 12:44:56.959
464,-287.0,1038.0,36.0,1077.5476787595062,2021-09-27 12:44:56.969
465,-131.0,921.0,211.0,953.8988415969484,2021-09-27 12:44:56.979
466,-169.0,703.0,-16.0,723.2053650243477,2021-09-27 12:44:56.988
467,-374.0,891.0,-82.0,969.783996568308,2021-09-27 12:44:56.998
468,-216.0,849.0,-82.0,879.8755593832574,2021-09-27 12:44:57.007
469,-216.0,849.0,123.0,884.6389093861969,2021-09-27 12:44:57.008
470,-135.0,904.0,-12.0,914.103385837729,2021-09-27 12:44:57.018
471,-304.0,999.0,-244.0,1072.35861538946,2021-09-27 12:44:57.029
472,46.0,1162.0,61.0,1164.5089093690954,2021-09-27 12:44:57.045
473,-105.0,1162.0,61.0,1168.327864942029,2021-09-27 12:44:57.048
474,-105.0,1147.0,-145.0,1160.8871607524998,2021-09-27 12:44:57.049
475,-58.0,1133.0,-206.0,1153.0346915856437,2021-09-27 12:44:57.056
476,-40.0,1136.0,94.0,1140.5840609091467,2021-09-27 12:44:57.067
477,-102.0,1001.0,-70.0,1008.6153875486928,2021-09-27 12:44:57.076
478,-242.0,1001.0,-70.0,1032.2136406771613,2021-09-27 12:44:57.085
479,-242.0,1027.0,-135.0,1063.7283487808345,2021-09-27 12:44:57.086
480,-261.0,1044.0,-135.0,1084.5653507281154,2021-09-27 12:44:57.095
481,-261.0,1044.0,-54.0,1077.4845706551905,2021-09-27 12:44:57.096
482,-201.0,967.0,-59.0,989.4296336779084,2021-09-27 12:44:57.105
483,-228.0,1068.0,-220.0,1114.0053859833893,2021-09-27 12:44:57.116
484,-141.0,1053.0,-62.0,1064.2058071632573,2021-09-27 12:44:57.125
485,-337.0,950.0,-237.0,1035.4892563421408,2021-09-27 12:44:57.135
486,-273.0,1283.0,80.0,1314.1605685760017,2021-09-27 12:44:57.144
487,-47.0,871.0,56.0,874.0629267964636,2021-09-27 12:44:57.154
488,-116.0,728.0,-178.0,758.3693031762296,2021-09-27 12:44:57.164
489,-293.0,1074.0,-178.0,1127.3903494353674,2021-09-27 12:44:57.173
490,-293.0,1074.0,26.0,1113.5533215791688,2021-09-27 12:44:57.174
491,-346.0,789.0,215.0,887.9538276284414,2021-09-27 12:44:57.183
492,-161.0,783.0,0.0,799.3810105325244,2021-09-27 12:44:57.193
493,5.0,999.0,-55.0,1000.525361997386,2021-09-27 12:44:57.203
494,-460.0,1003.0,-55.0,1104.8230627571097,2021-09-27 12:44:57.222
495,-460.0,1003.0,175.0,1117.2439303930007,2021-09-27 12:44:57.223
496,-103.0,986.0,-62.0,993.3020688592168,2021-09-27 12:44:57.226
497,-101.0,945.0,-40.0,951.2234227561892,2021-09-27 12:44:57.233
498,-20.0,1035.0,-21.0,1035.4062004836555,2021-09-27 12:44:57.242
499,-266.0,1043.0,-21.0,1076.589986949535,2021-09-27 12:44:57.251
500,-266.0,1043.0,-175.0,1090.5182254322942,2021-09-27 12:44:57.252
501,-217.0,1082.0,-32.0,1104.009510828598,2021-09-27 12:44:57.261
502,-93.0,936.0,-45.0,941.6846605950424,2021-09-27 12:44:57.271
503,-196.0,1080.0,-120.0,1104.181144559171,2021-09-27 12:44:57.282
504,-199.0,1078.0,32.0,1096.6809016300049,2021-09-27 12:44:57.298
505,-147.0,1031.0,-84.0,1044.8090734674925,2021-09-27 12:44:57.301
506,-151.0,972.0,-103.0,989.0369052770478,2021-09-27 12:44:57.310
507,-226.0,972.0,-103.0,1003.2292858564288,2021-09-27 12:44:57.325
508,-226.0,1128.0,-8.0,1150.4451312426856,2021-09-27 12:44:57.326
509,-97.0,901.0,-29.0,906.6702818555376,2021-09-27 12:44:57.330
510,-196.0,912.0,-29.0,933.2743433739084,2021-09-27 12:44:57.339
511,-196.0,912.0,-95.0,937.6486548809208,2021-09-27 12:44:57.340
512,-165.0,1090.0,25.0,1102.7012288013468,2021-09-27 12:44:57.350
513,-192.0,854.0,-5.0,875.3313658266794,2021-09-27 12:44:57.360
514,-202.0,851.0,-28.0,875.093709267756,2021-09-27 12:44:57.369
515,-228.0,1072.0,40.0,1096.7078006470092,2021-09-27 12:44:57.378
