,Acceleration_X,Acceleration_Y,Acceleration_Z,magnitude,time_stamp
0,-122.0,1025.0,-85.0,1035.7287289633323,2021-08-31 10:46:06.112
1,-279.0,1036.0,75.0,1075.5287071947453,2021-08-31 10:46:06.120
2,-107.0,973.0,-135.0,988.1310641812654,2021-08-31 10:46:06.130
3,-417.0,954.0,-48.0,1042.2614835059387,2021-08-31 10:46:06.140
4,-109.0,1061.0,97.0,1070.9859943061813,2021-08-31 10:46:06.150
5,-165.0,1061.0,97.0,1078.1256884055774,2021-08-31 10:46:06.159
6,-165.0,880.0,-28.0,895.7728506714188,2021-08-31 10:46:06.160
7,-225.0,880.0,-28.0,908.7403369500004,2021-08-31 10:46:06.169
8,-225.0,930.0,-45.0,957.8883024653762,2021-08-31 10:46:06.170
9,-96.0,1005.0,-18.0,1009.7351137798468,2021-08-31 10:46:06.179
10,-165.0,1009.0,77.0,1025.2975177966637,2021-08-31 10:46:06.189
11,-152.0,809.0,-7.0,823.1852768362661,2021-08-31 10:46:06.199
12,-190.0,885.0,96.0,910.2422754409948,2021-08-31 10:46:06.209
13,-159.0,876.0,-25.0,890.663797400568,2021-08-31 10:46:06.219
14,-172.0,1045.0,-46.0,1060.058960624361,2021-08-31 10:46:06.228
15,-250.0,930.0,-46.0,964.1141011311888,2021-08-31 10:46:06.237
16,-250.0,930.0,-15.0,963.132908792966,2021-08-31 10:46:06.238
17,-312.0,1020.0,-133.0,1074.910693964852,2021-08-31 10:46:06.247
18,-140.0,1020.0,0.0,1029.5630140987,2021-08-31 10:46:06.258
19,-194.0,1146.0,0.0,1162.3046072351258,2021-08-31 10:46:06.268
20,-194.0,1146.0,-39.0,1162.9587266966955,2021-08-31 10:46:06.269
21,-136.0,1038.0,-39.0,1047.5977281380483,2021-08-31 10:46:06.276
22,-136.0,1038.0,-178.0,1061.8964167940298,2021-08-31 10:46:06.277
23,-148.0,1025.0,20.0,1035.8228613039971,2021-08-31 10:46:06.286
24,-222.0,1115.0,-20.0,1137.0615638565926,2021-08-31 10:46:06.296
25,-99.0,975.0,-10.0,980.0642836059276,2021-08-31 10:46:06.307
26,-185.0,909.0,45.0,928.7254707393354,2021-08-31 10:46:06.317
27,-196.0,1031.0,-6.0,1049.4822533039803,2021-08-31 10:46:06.326
28,-175.0,776.0,-22.0,795.7920582664796,2021-08-31 10:46:06.335
29,-282.0,1059.0,-35.0,1096.4624936585838,2021-08-31 10:46:06.345
30,-213.0,993.0,3.0,1015.5919456159546,2021-08-31 10:46:06.355
31,-51.0,929.0,55.0,932.0230683840396,2021-08-31 10:46:06.366
32,-344.0,948.0,55.0,1009.9826731187026,2021-08-31 10:46:06.375
33,-344.0,948.0,-123.0,1015.9571841372056,2021-08-31 10:46:06.376
34,-9.0,1057.0,-123.0,1064.1705690348704,2021-08-31 10:46:06.395
35,-9.0,1057.0,32.0,1057.5225765911573,2021-08-31 10:46:06.396
36,-9.0,907.0,38.0,907.8402943249434,2021-08-31 10:46:06.397
37,-188.0,835.0,-94.0,861.0487791060388,2021-08-31 10:46:06.405
38,-285.0,1074.0,61.0,1112.8441040864618,2021-08-31 10:46:06.413
39,-70.0,991.0,13.0,993.5542259987624,2021-08-31 10:46:06.423
40,-274.0,831.0,-136.0,885.512845756627,2021-08-31 10:46:06.433
41,-321.0,831.0,-136.0,901.164801798206,2021-08-31 10:46:06.442
42,-321.0,1139.0,-124.0,1189.8478894379734,2021-08-31 10:46:06.443
43,16.0,1072.0,52.0,1073.3797091430413,2021-08-31 10:46:06.454
44,-247.0,1111.0,-93.0,1141.918998878642,2021-08-31 10:46:06.462
45,-66.0,1078.0,51.0,1081.2219938569508,2021-08-31 10:46:06.472
46,-196.0,1078.0,51.0,1096.8596081541157,2021-08-31 10:46:06.481
47,-196.0,976.0,-149.0,1006.5748854407208,2021-08-31 10:46:06.482
48,-194.0,1138.0,-67.0,1156.3602379881452,2021-08-31 10:46:06.494
49,-99.0,1101.0,36.0,1106.028028577938,2021-08-31 10:46:06.502
50,-228.0,962.0,-86.0,992.3829905837766,2021-08-31 10:46:06.512
51,-330.0,962.0,-86.0,1020.6566513769455,2021-08-31 10:46:06.520
52,-330.0,965.0,-21.0,1020.0813693034492,2021-08-31 10:46:06.521
53,-120.0,956.0,8.0,963.5351576356724,2021-08-31 10:46:06.530
54,-293.0,971.0,29.0,1014.6580704848308,2021-08-31 10:46:06.540
55,-268.0,971.0,29.0,1007.7231762741194,2021-08-31 10:46:06.550
56,-268.0,897.0,-73.0,939.0218314821012,2021-08-31 10:46:06.551
57,-56.0,1028.0,96.0,1033.9903287748875,2021-08-31 10:46:06.561
58,-298.0,1028.0,96.0,1074.618071688728,2021-08-31 10:46:06.569
59,-298.0,976.0,-66.0,1022.6123410168684,2021-08-31 10:46:06.570
60,-110.0,894.0,-59.0,902.6721442472898,2021-08-31 10:46:06.595
61,-103.0,915.0,-16.0,920.918020238501,2021-08-31 10:46:06.600
62,-65.0,915.0,-16.0,917.4453662207904,2021-08-31 10:46:06.608
63,-65.0,904.0,19.0,906.5329558267588,2021-08-31 10:46:06.609
64,-218.0,1065.0,19.0,1087.248821567538,2021-08-31 10:46:06.624
65,-218.0,1065.0,77.0,1089.8064048261049,2021-08-31 10:46:06.625
66,-165.0,901.0,-19.0,916.1806590405628,2021-08-31 10:46:06.629
67,-133.0,921.0,-65.0,932.8209903298704,2021-08-31 10:46:06.638
68,-323.0,1086.0,-30.0,1133.4129873969152,2021-08-31 10:46:06.648
69,-284.0,1007.0,-98.0,1050.8610754995163,2021-08-31 10:46:06.659
70,-93.0,972.0,2.0,976.4409864400408,2021-08-31 10:46:06.667
71,-218.0,1161.0,-144.0,1190.0340331267842,2021-08-31 10:46:06.681
72,-155.0,1161.0,-144.0,1180.119485475941,2021-08-31 10:46:06.686
73,-155.0,1109.0,-60.0,1121.3857498648715,2021-08-31 10:46:06.687
74,-72.0,975.0,2.0,977.656892779875,2021-08-31 10:46:06.697
75,-196.0,1074.0,-39.0,1092.4344373920112,2021-08-31 10:46:06.715
76,-319.0,1006.0,-38.0,1056.049714738847,2021-08-31 10:46:06.718
77,-271.0,1094.0,-62.0,1128.769684213746,2021-08-31 10:46:06.726
78,-252.0,973.0,-27.0,1005.4660610880908,2021-08-31 10:46:06.737
79,-142.0,973.0,-27.0,983.6777927756629,2021-08-31 10:46:06.746
80,-142.0,894.0,25.0,905.5523176492896,2021-08-31 10:46:06.747
81,-272.0,964.0,-67.0,1003.8769844956104,2021-08-31 10:46:06.755
82,-238.0,997.0,-2.0,1025.0156096372386,2021-08-31 10:46:06.765
83,-114.0,990.0,56.0,998.1142219205176,2021-08-31 10:46:06.775
84,-285.0,857.0,56.0,904.8812076731398,2021-08-31 10:46:06.785
85,-285.0,857.0,-105.0,909.2298939212238,2021-08-31 10:46:06.786
86,-195.0,1060.0,-105.0,1082.8896527347558,2021-08-31 10:46:06.793
87,-195.0,1060.0,29.0,1078.1771654046472,2021-08-31 10:46:06.794
88,-40.0,930.0,51.0,932.2558661655072,2021-08-31 10:46:06.804
89,-119.0,930.0,51.0,938.9685830740024,2021-08-31 10:46:06.813
90,-119.0,874.0,-33.0,882.6811428822981,2021-08-31 10:46:06.814
91,-223.0,1029.0,27.0,1053.2326428667125,2021-08-31 10:46:06.824
92,-67.0,998.0,13.0,1000.3309452376247,2021-08-31 10:46:06.833
93,-195.0,896.0,-145.0,928.3673841750366,2021-08-31 10:46:06.844
94,-349.0,1027.0,-146.0,1094.4615114292508,2021-08-31 10:46:06.853
95,-261.0,831.0,-150.0,883.845009037218,2021-08-31 10:46:06.862
96,-275.0,1088.0,-117.0,1128.2987193115127,2021-08-31 10:46:06.873
97,-46.0,1093.0,1.0,1093.9680068448072,2021-08-31 10:46:06.883
98,-153.0,983.0,-142.0,1004.9189022005706,2021-08-31 10:46:06.892
99,-196.0,1098.0,-118.0,1121.5810269436622,2021-08-31 10:46:06.902
100,-153.0,1129.0,34.0,1139.8271798829855,2021-08-31 10:46:06.911
101,-185.0,1042.0,34.0,1058.841347889286,2021-08-31 10:46:06.921
102,-185.0,1042.0,-10.0,1058.3425721381525,2021-08-31 10:46:06.922
103,-253.0,1042.0,-10.0,1072.3213137861244,2021-08-31 10:46:06.931
104,-253.0,844.0,-101.0,886.8742864690576,2021-08-31 10:46:06.932
105,-150.0,993.0,19.0,1004.4451204520832,2021-08-31 10:46:06.941
106,-258.0,1000.0,16.0,1032.8697885019196,2021-08-31 10:46:06.950
107,-244.0,1000.0,16.0,1029.461995413138,2021-08-31 10:46:06.960
108,-244.0,833.0,-51.0,869.4975560632704,2021-08-31 10:46:06.961
109,-94.0,1071.0,0.0,1075.1172029132451,2021-08-31 10:46:06.970
110,-225.0,996.0,-16.0,1021.223286064316,2021-08-31 10:46:06.980
111,-49.0,985.0,8.0,986.2504752850566,2021-08-31 10:46:06.990
112,-274.0,1036.0,-6.0,1071.6379985797444,2021-08-31 10:46:07.000
113,-71.0,1036.0,-6.0,1038.447398764136,2021-08-31 10:46:07.009
114,-71.0,894.0,-37.0,897.5778517766579,2021-08-31 10:46:07.010
115,-17.0,928.0,18.0,928.330221419081,2021-08-31 10:46:07.019
116,-157.0,1060.0,16.0,1071.6832554444434,2021-08-31 10:46:07.029
117,-178.0,879.0,-13.0,896.9358951452439,2021-08-31 10:46:07.039
118,-150.0,953.0,-13.0,964.8201905018364,2021-08-31 10:46:07.048
119,-150.0,953.0,-65.0,966.9198519008698,2021-08-31 10:46:07.049
120,-217.0,1039.0,-31.0,1061.8714611477228,2021-08-31 10:46:07.058
121,-262.0,1013.0,-31.0,1046.7922429976256,2021-08-31 10:46:07.067
122,-262.0,1013.0,-123.0,1053.5378493438193,2021-08-31 10:46:07.068
123,-125.0,984.0,-85.0,995.54306787803,2021-08-31 10:46:07.078
124,-175.0,1095.0,-49.0,1109.977927708475,2021-08-31 10:46:07.088
125,-152.0,1166.0,-101.0,1180.1953228173716,2021-08-31 10:46:07.097
126,-136.0,922.0,-40.0,932.8343904466644,2021-08-31 10:46:07.107
127,-125.0,1100.0,-29.0,1107.4592543294764,2021-08-31 10:46:07.117
128,-73.0,1025.0,30.0,1028.0340461288235,2021-08-31 10:46:07.126
129,-179.0,1033.0,30.0,1048.8231500114784,2021-08-31 10:46:07.136
130,-179.0,1033.0,-111.0,1054.2537645178224,2021-08-31 10:46:07.137
131,-249.0,1032.0,-26.0,1061.9326720654187,2021-08-31 10:46:07.146
132,-130.0,862.0,19.0,871.9547006582395,2021-08-31 10:46:07.156
133,-202.0,862.0,19.0,885.5557577024724,2021-08-31 10:46:07.165
134,-202.0,929.0,-34.0,951.3154051102084,2021-08-31 10:46:07.166
135,-310.0,1003.0,-67.0,1051.949618565452,2021-08-31 10:46:07.175
136,-73.0,1014.0,56.0,1018.1655071745456,2021-08-31 10:46:07.185
137,-244.0,860.0,-34.0,894.5904090699833,2021-08-31 10:46:07.195
138,-192.0,1018.0,-81.0,1039.1097150926846,2021-08-31 10:46:07.205
139,-52.0,949.0,76.0,953.4573928603209,2021-08-31 10:46:07.213
140,-54.0,868.0,-39.0,870.5521236548676,2021-08-31 10:46:07.224
141,-266.0,987.0,13.0,1022.298390882036,2021-08-31 10:46:07.234
142,-208.0,1057.0,40.0,1078.0134507509636,2021-08-31 10:46:07.244
143,-114.0,839.0,40.0,847.6538208490539,2021-08-31 10:46:07.252
144,-114.0,839.0,-129.0,856.480005604334,2021-08-31 10:46:07.253
145,-88.0,995.0,-5.0,998.8963910236135,2021-08-31 10:46:07.264
146,-165.0,871.0,-109.0,893.1668377184634,2021-08-31 10:46:07.273
147,-315.0,1081.0,-109.0,1131.2236737268188,2021-08-31 10:46:07.282
148,-315.0,1081.0,-152.0,1136.1734022586518,2021-08-31 10:46:07.283
149,-16.0,1132.0,29.0,1132.484436979158,2021-08-31 10:46:07.293
150,-117.0,959.0,-99.0,971.1699130430268,2021-08-31 10:46:07.302
151,-206.0,959.0,-99.0,985.8590162898548,2021-08-31 10:46:07.313
152,-206.0,1126.0,-143.0,1153.5861476283426,2021-08-31 10:46:07.314
153,-182.0,1105.0,49.0,1120.9594105051262,2021-08-31 10:46:07.322
154,-118.0,995.0,-89.0,1005.917491646308,2021-08-31 10:46:07.331
155,-315.0,915.0,-98.0,972.6530727859754,2021-08-31 10:46:07.341
156,-215.0,991.0,41.0,1014.882751848705,2021-08-31 10:46:07.351
157,-166.0,959.0,-9.0,973.3026250863604,2021-08-31 10:46:07.361
158,-257.0,919.0,-70.0,956.8228676197074,2021-08-31 10:46:07.370
159,-116.0,1013.0,-70.0,1022.0200585115734,2021-08-31 10:46:07.380
160,-116.0,1013.0,0.0,1019.6200272650592,2021-08-31 10:46:07.381
161,-206.0,1027.0,83.0,1050.7397394217085,2021-08-31 10:46:07.390
162,-90.0,998.0,24.0,1002.3372685877742,2021-08-31 10:46:07.410
163,-297.0,1012.0,-20.0,1054.8710821707075,2021-08-31 10:46:07.412
164,-118.0,1012.0,-20.0,1019.0525011009,2021-08-31 10:46:07.419
165,-118.0,900.0,-24.0,908.0198235721508,2021-08-31 10:46:07.420
166,1.0,884.0,-56.0,885.7725441669548,2021-08-31 10:46:07.430
167,-124.0,1060.0,14.0,1067.32000824495,2021-08-31 10:46:07.439
168,-199.0,939.0,14.0,959.9572907166234,2021-08-31 10:46:07.448
169,-199.0,939.0,33.0,960.4223029480312,2021-08-31 10:46:07.449
170,-140.0,861.0,33.0,872.9318415546543,2021-08-31 10:46:07.458
171,-140.0,861.0,-91.0,877.0416181687161,2021-08-31 10:46:07.459
172,-256.0,1024.0,-13.0,1055.5950928267905,2021-08-31 10:46:07.469
173,-331.0,1055.0,-108.0,1110.9680463451682,2021-08-31 10:46:07.480
174,-89.0,951.0,-108.0,961.2419050374364,2021-08-31 10:46:07.487
175,-89.0,951.0,-67.0,957.5024804145418,2021-08-31 10:46:07.488
176,-259.0,1068.0,-26.0,1099.2638445796351,2021-08-31 10:46:07.497
177,-131.0,1192.0,-112.0,1204.3956990956087,2021-08-31 10:46:07.507
178,-92.0,981.0,-18.0,985.46892391389,2021-08-31 10:46:07.518
179,-184.0,1195.0,-56.0,1210.3788663059183,2021-08-31 10:46:07.528
180,-89.0,970.0,-26.0,974.4213667608076,2021-08-31 10:46:07.536
181,-144.0,1084.0,-87.0,1096.9781219331587,2021-08-31 10:46:07.546
182,-286.0,1025.0,-65.0,1066.1360138368836,2021-08-31 10:46:07.556
183,-142.0,870.0,26.0,881.8956854413111,2021-08-31 10:46:07.566
184,-227.0,990.0,-60.0,1017.462038603898,2021-08-31 10:46:07.575
185,-274.0,961.0,-87.0,1003.0782621510648,2021-08-31 10:46:07.586
186,-146.0,1074.0,80.0,1086.826573101707,2021-08-31 10:46:07.595
187,-129.0,851.0,-42.0,861.7459022240837,2021-08-31 10:46:07.617
188,-129.0,971.0,-82.0,982.9577813924664,2021-08-31 10:46:07.618
189,-142.0,971.0,-82.0,984.7481911636092,2021-08-31 10:46:07.624
190,-142.0,1041.0,85.0,1054.0730524968371,2021-08-31 10:46:07.625
191,-104.0,1041.0,85.0,1049.6294584280683,2021-08-31 10:46:07.640
192,-104.0,832.0,-32.0,839.0852161729463,2021-08-31 10:46:07.641
193,-281.0,978.0,32.0,1018.0712155836644,2021-08-31 10:46:07.645
194,-203.0,1037.0,52.0,1057.9612469273154,2021-08-31 10:46:07.655
195,-218.0,896.0,-31.0,922.659742266888,2021-08-31 10:46:07.663
196,-124.0,1047.0,63.0,1056.1978981232637,2021-08-31 10:46:07.675
197,-193.0,920.0,-84.0,943.7716884925082,2021-08-31 10:46:07.683
198,-317.0,966.0,-84.0,1020.1475383492332,2021-08-31 10:46:07.692
199,-317.0,966.0,-138.0,1026.0063352630918,2021-08-31 10:46:07.693
200,-151.0,1190.0,-138.0,1207.4539328686624,2021-08-31 10:46:07.702
201,-151.0,1190.0,9.0,1199.5757583412562,2021-08-31 10:46:07.703
202,-110.0,975.0,9.0,981.2267831648298,2021-08-31 10:46:07.711
203,-110.0,975.0,-61.0,983.0798543353434,2021-08-31 10:46:07.712
204,-172.0,1088.0,-117.0,1107.7079940128626,2021-08-31 10:46:07.728
205,-242.0,1088.0,-117.0,1120.7127196565586,2021-08-31 10:46:07.732
206,-242.0,1130.0,-18.0,1155.7629514740468,2021-08-31 10:46:07.733
207,-145.0,1130.0,-18.0,1139.4073020654205,2021-08-31 10:46:07.741
208,-145.0,1007.0,-26.0,1017.7180356071126,2021-08-31 10:46:07.742
209,-263.0,1007.0,-26.0,1041.102300448904,2021-08-31 10:46:07.751
210,-263.0,953.0,-85.0,992.27163619646,2021-08-31 10:46:07.752
211,-225.0,894.0,25.0,922.2179785712268,2021-08-31 10:46:07.762
212,-214.0,894.0,25.0,919.5961069948046,2021-08-31 10:46:07.770
213,-214.0,1051.0,15.0,1072.670499268065,2021-08-31 10:46:07.771
214,-255.0,897.0,-40.0,933.3991643450298,2021-08-31 10:46:07.780
215,-239.0,897.0,-40.0,929.1555305760172,2021-08-31 10:46:07.789
216,-239.0,984.0,-14.0,1012.7057815575064,2021-08-31 10:46:07.790
217,-266.0,906.0,-14.0,944.345275839298,2021-08-31 10:46:07.800
218,-266.0,906.0,2.0,944.2436126339431,2021-08-31 10:46:07.801
219,-106.0,906.0,2.0,912.1819993838948,2021-08-31 10:46:07.810
220,-106.0,970.0,-20.0,975.979507981597,2021-08-31 10:46:07.811
221,-265.0,970.0,-20.0,1005.7459917891794,2021-08-31 10:46:07.819
222,-265.0,1005.0,4.0,1039.3584559717594,2021-08-31 10:46:07.820
223,-149.0,996.0,-11.0,1007.1434853088214,2021-08-31 10:46:07.829
224,-25.0,839.0,-80.0,843.1761381822898,2021-08-31 10:46:07.839
225,-165.0,1069.0,42.0,1082.4740181639463,2021-08-31 10:46:07.852
226,-213.0,984.0,42.0,1007.665122945118,2021-08-31 10:46:07.860
227,-213.0,984.0,64.0,1008.821589776904,2021-08-31 10:46:07.861
228,-134.0,831.0,-74.0,844.9810648766043,2021-08-31 10:46:07.868
229,-307.0,1032.0,-41.0,1077.4757537875273,2021-08-31 10:46:07.878
230,-313.0,1047.0,-77.0,1095.493952516398,2021-08-31 10:46:07.888
231,-99.0,1013.0,-65.0,1019.8995048532968,2021-08-31 10:46:07.898
232,-238.0,999.0,-52.0,1028.2747687267251,2021-08-31 10:46:07.908
233,-153.0,999.0,-52.0,1011.9851777570658,2021-08-31 10:46:07.917
234,-153.0,1266.0,-54.0,1276.3545745599065,2021-08-31 10:46:07.918
235,-203.0,1000.0,-58.0,1022.0435411468536,2021-08-31 10:46:07.927
236,-186.0,1000.0,-58.0,1018.803219468804,2021-08-31 10:46:07.936
237,-186.0,1235.0,-118.0,1254.489936189207,2021-08-31 10:46:07.937
238,-166.0,1235.0,-118.0,1251.680869870591,2021-08-31 10:46:07.946
239,-166.0,1023.0,27.0,1036.7323666212028,2021-08-31 10:46:07.947
240,-169.0,983.0,-52.0,998.7762512194612,2021-08-31 10:46:07.957
241,-247.0,1031.0,-66.0,1062.226906079864,2021-08-31 10:46:07.967
242,-230.0,989.0,58.0,1017.0471965449784,2021-08-31 10:46:07.976
243,-227.0,889.0,58.0,919.3552088284484,2021-08-31 10:46:07.985
244,-227.0,889.0,-49.0,918.8313229314724,2021-08-31 10:46:07.986
245,-257.0,944.0,-62.0,980.3208658393436,2021-08-31 10:46:07.995
246,-196.0,1109.0,53.0,1127.4333683193877,2021-08-31 10:46:08.006
247,-186.0,855.0,53.0,876.601391739712,2021-08-31 10:46:08.016
248,-186.0,855.0,0.0,874.9977142827289,2021-08-31 10:46:08.017
249,-168.0,902.0,0.0,917.511852784475,2021-08-31 10:46:08.024
250,-168.0,902.0,-92.0,922.1127913655682,2021-08-31 10:46:08.025
251,-77.0,1053.0,34.0,1056.358840546147,2021-08-31 10:46:08.034
252,-127.0,930.0,68.0,941.0913876983468,2021-08-31 10:46:08.044
253,-122.0,1080.0,122.0,1093.6946557426345,2021-08-31 10:46:08.056
254,-126.0,901.0,13.0,909.8604288570856,2021-08-31 10:46:08.065
255,-219.0,888.0,-30.0,915.0983553695198,2021-08-31 10:46:08.074
256,-178.0,1062.0,12.0,1076.8806804841472,2021-08-31 10:46:08.083
257,-165.0,904.0,-39.0,919.761925717737,2021-08-31 10:46:08.093
258,-368.0,984.0,-155.0,1061.9345554223198,2021-08-31 10:46:08.103
259,-102.0,1148.0,5.0,1152.5332966990584,2021-08-31 10:46:08.114
260,-173.0,1028.0,5.0,1042.467265673124,2021-08-31 10:46:08.123
261,-173.0,1028.0,-19.0,1042.6284093578115,2021-08-31 10:46:08.124
262,-163.0,1074.0,-149.0,1096.4697898255108,2021-08-31 10:46:08.132
263,-235.0,1087.0,-15.0,1112.2135586298164,2021-08-31 10:46:08.142
264,-174.0,1059.0,-15.0,1073.3042439122282,2021-08-31 10:46:08.151
265,-174.0,1059.0,-5.0,1073.2110696410095,2021-08-31 10:46:08.152
266,-246.0,941.0,-124.0,980.49630289971,2021-08-31 10:46:08.162
267,-209.0,997.0,48.0,1019.8009609722868,2021-08-31 10:46:08.171
268,-294.0,959.0,-74.0,1005.7797969734728,2021-08-31 10:46:08.181
269,-148.0,905.0,-74.0,920.0027173872912,2021-08-31 10:46:08.190
270,-148.0,905.0,-16.0,917.1613816553768,2021-08-31 10:46:08.191
271,-291.0,1011.0,5.0,1052.0584584518106,2021-08-31 10:46:08.200
272,-256.0,1011.0,5.0,1042.919939400911,2021-08-31 10:46:08.210
273,-256.0,949.0,8.0,982.9552380449478,2021-08-31 10:46:08.211
274,-60.0,954.0,9.0,955.9272984908424,2021-08-31 10:46:08.221
275,-281.0,954.0,9.0,994.564226181497,2021-08-31 10:46:08.230
276,-281.0,945.0,-34.0,986.479599383586,2021-08-31 10:46:08.231
277,-117.0,1037.0,6.0,1043.5966653837104,2021-08-31 10:46:08.239
278,-41.0,887.0,1.0,887.9476335910806,2021-08-31 10:46:08.249
279,-173.0,887.0,1.0,903.7140034325018,2021-08-31 10:46:08.261
280,-173.0,900.0,-34.0,917.1068640022274,2021-08-31 10:46:08.262
281,-235.0,1074.0,105.0,1104.412060781663,2021-08-31 10:46:08.270
282,-177.0,915.0,10.0,932.0160942816384,2021-08-31 10:46:08.280
283,-246.0,883.0,-101.0,922.1746038576424,2021-08-31 10:46:08.288
284,-348.0,1138.0,-62.0,1191.6341720511375,2021-08-31 10:46:08.298
285,-275.0,890.0,-62.0,933.5785987264276,2021-08-31 10:46:08.308
286,-275.0,890.0,-65.0,933.7826299519604,2021-08-31 10:46:08.309
287,-351.0,1138.0,-82.0,1193.720654089557,2021-08-31 10:46:08.318
288,-102.0,1030.0,-82.0,1038.2812721030848,2021-08-31 10:46:08.327
289,-102.0,1030.0,31.0,1035.5022935754416,2021-08-31 10:46:08.328
290,-167.0,1030.0,31.0,1043.910915739461,2021-08-31 10:46:08.337
291,-167.0,940.0,-118.0,961.9838875989556,2021-08-31 10:46:08.338
292,-192.0,1239.0,-84.0,1256.5989813779097,2021-08-31 10:46:08.347
293,-174.0,1239.0,-84.0,1253.974880131177,2021-08-31 10:46:08.356
294,-174.0,1069.0,-26.0,1083.380357953752,2021-08-31 10:46:08.357
295,-152.0,918.0,-75.0,933.5164701278708,2021-08-31 10:46:08.367
296,-245.0,918.0,-75.0,953.086564798812,2021-08-31 10:46:08.377
297,-245.0,1046.0,-89.0,1077.9897958700722,2021-08-31 10:46:08.378
298,-203.0,998.0,46.0,1019.474864820119,2021-08-31 10:46:08.387
299,-210.0,962.0,16.0,984.7842403288143,2021-08-31 10:46:08.396
300,-235.0,886.0,16.0,916.775326893127,2021-08-31 10:46:08.405
301,-235.0,886.0,-138.0,926.9654794003928,2021-08-31 10:46:08.406
302,-151.0,1067.0,19.0,1077.7991464090144,2021-08-31 10:46:08.424
303,-317.0,960.0,81.0,1014.2238411711688,2021-08-31 10:46:08.428
304,-172.0,812.0,-115.0,837.9457022981859,2021-08-31 10:46:08.436
305,-283.0,955.0,45.0,997.0651934552724,2021-08-31 10:46:08.445
306,-145.0,866.0,-62.0,880.2414441504104,2021-08-31 10:46:08.458
307,-90.0,949.0,13.0,953.3467365025172,2021-08-31 10:46:08.464
308,-187.0,1036.0,89.0,1056.4970421160676,2021-08-31 10:46:08.474
309,-162.0,1036.0,89.0,1052.3597293701428,2021-08-31 10:46:08.484
310,-162.0,863.0,7.0,878.1013608917823,2021-08-31 10:46:08.485
311,-91.0,863.0,7.0,867.8127678249497,2021-08-31 10:46:08.493
312,-91.0,929.0,-31.0,933.9609199532924,2021-08-31 10:46:08.494
313,-264.0,1085.0,-25.0,1116.935987422735,2021-08-31 10:46:08.503
314,-277.0,933.0,-160.0,986.3153653877648,2021-08-31 10:46:08.513
315,-19.0,933.0,-160.0,946.810435092474,2021-08-31 10:46:08.522
316,-19.0,1051.0,16.0,1051.29348899344,2021-08-31 10:46:08.523
317,-241.0,1099.0,-15.0,1125.2142018300335,2021-08-31 10:46:08.533
318,-145.0,1105.0,-94.0,1118.4301498082032,2021-08-31 10:46:08.542
319,-157.0,1006.0,-36.0,1018.813525626746,2021-08-31 10:46:08.552
320,-177.0,1080.0,-128.0,1101.867959421636,2021-08-31 10:46:08.562
321,-117.0,1023.0,-128.0,1037.5943330608548,2021-08-31 10:46:08.571
322,-117.0,1023.0,-1.0,1029.669364407818,2021-08-31 10:46:08.572
323,-307.0,1062.0,-41.0,1106.243192069447,2021-08-31 10:46:08.581
324,-251.0,962.0,-43.0,995.1351666984742,2021-08-31 10:46:08.592
325,-135.0,979.0,58.0,989.9646458333752,2021-08-31 10:46:08.601
326,-250.0,979.0,58.0,1012.0795423285662,2021-08-31 10:46:08.610
327,-250.0,942.0,-73.0,977.3397566864862,2021-08-31 10:46:08.611
328,-115.0,996.0,-73.0,1005.2711077117456,2021-08-31 10:46:08.635
329,-115.0,1040.0,-37.0,1046.9928366517129,2021-08-31 10:46:08.636
330,-115.0,1040.0,74.0,1048.9523344747367,2021-08-31 10:46:08.637
331,-264.0,847.0,-82.0,890.9708188262958,2021-08-31 10:46:08.645
332,-89.0,1052.0,-82.0,1058.9376752198402,2021-08-31 10:46:08.655
333,-89.0,1052.0,14.0,1055.8508417385478,2021-08-31 10:46:08.656
334,-65.0,952.0,7.0,954.2421076435476,2021-08-31 10:46:08.660
335,-125.0,846.0,-47.0,856.4753353132827,2021-08-31 10:46:08.672
336,-220.0,1000.0,20.0,1024.1093691593687,2021-08-31 10:46:08.679
337,-199.0,799.0,-81.0,827.3832243887955,2021-08-31 10:46:08.689
338,-207.0,982.0,-81.0,1006.8435826879964,2021-08-31 10:46:08.698
339,-207.0,982.0,35.0,1004.1902210238854,2021-08-31 10:46:08.699
340,-142.0,982.0,35.0,992.830801294964,2021-08-31 10:46:08.708
341,-142.0,1089.0,28.0,1098.5758963312458,2021-08-31 10:46:08.709
342,-200.0,793.0,-112.0,825.465323317703,2021-08-31 10:46:08.719
343,-318.0,1111.0,-131.0,1163.0159070279306,2021-08-31 10:46:08.728
344,-147.0,1102.0,-131.0,1119.4525447735602,2021-08-31 10:46:08.737
345,-147.0,1102.0,47.0,1112.754240612005,2021-08-31 10:46:08.738
346,-161.0,925.0,-82.0,942.480769034573,2021-08-31 10:46:08.752
347,-164.0,1137.0,-150.0,1158.5184504357278,2021-08-31 10:46:08.758
348,-176.0,1134.0,32.0,1148.022647860224,2021-08-31 10:46:08.768
349,-86.0,1134.0,32.0,1137.7064647790307,2021-08-31 10:46:08.776
350,-86.0,992.0,-34.0,996.3011592886962,2021-08-31 10:46:08.777
351,-169.0,876.0,-156.0,905.6892403026548,2021-08-31 10:46:08.786
352,-152.0,1023.0,17.0,1034.3703398686566,2021-08-31 10:46:08.796
353,-258.0,1003.0,12.0,1035.7205221487118,2021-08-31 10:46:08.806
354,-244.0,869.0,-77.0,905.8840985468285,2021-08-31 10:46:08.816
355,-264.0,1032.0,25.0,1065.5256918535565,2021-08-31 10:46:08.830
356,-202.0,925.0,-77.0,949.9252602178764,2021-08-31 10:46:08.835
357,-130.0,939.0,-32.0,948.4961781683676,2021-08-31 10:46:08.845
358,-377.0,1039.0,57.0,1106.7515529693194,2021-08-31 10:46:08.855
359,-113.0,910.0,-21.0,917.229524165026,2021-08-31 10:46:08.866
360,-53.0,910.0,-21.0,911.7839656409844,2021-08-31 10:46:08.874
361,-53.0,914.0,-3.0,915.5402776503064,2021-08-31 10:46:08.875
362,-190.0,1042.0,37.0,1059.8268726542085,2021-08-31 10:46:08.884
363,-223.0,901.0,59.0,930.0596755047496,2021-08-31 10:46:08.894
364,-85.0,893.0,-65.0,899.3881253385548,2021-08-31 10:46:08.903
365,-135.0,893.0,-65.0,905.4827441757242,2021-08-31 10:46:08.914
366,-135.0,1030.0,-63.0,1040.71802136794,2021-08-31 10:46:08.915
367,-268.0,1049.0,-63.0,1084.524780721953,2021-08-31 10:46:08.922
368,-268.0,1049.0,-138.0,1091.452701677906,2021-08-31 10:46:08.923
369,-23.0,980.0,-68.0,982.6255644954492,2021-08-31 10:46:08.933
370,-209.0,980.0,-68.0,1004.3430688763676,2021-08-31 10:46:08.942
371,-209.0,1037.0,-9.0,1057.8898808477186,2021-08-31 10:46:08.943
372,-41.0,961.0,-9.0,961.9163165265468,2021-08-31 10:46:08.952
373,-41.0,961.0,5.0,961.887207524874,2021-08-31 10:46:08.953
374,-322.0,1097.0,-93.0,1147.057975866957,2021-08-31 10:46:08.962
375,-150.0,1172.0,-70.0,1183.6316994741228,2021-08-31 10:46:08.973
376,-83.0,1032.0,-19.0,1035.5066392833992,2021-08-31 10:46:08.982
377,-282.0,975.0,-92.0,1019.123643136592,2021-08-31 10:46:08.991
378,-269.0,1048.0,-13.0,1082.0508305990063,2021-08-31 10:46:09.001
379,-110.0,924.0,65.0,932.7920454206286,2021-08-31 10:46:09.011
380,-276.0,925.0,-19.0,965.4853701636292,2021-08-31 10:46:09.022
381,-225.0,915.0,-85.0,946.0840343225332,2021-08-31 10:46:09.031
382,-91.0,1034.0,89.0,1041.8051641261911,2021-08-31 10:46:09.040
383,-257.0,856.0,-25.0,894.097310140233,2021-08-31 10:46:09.050
384,-60.0,924.0,-90.0,930.3096258773204,2021-08-31 10:46:09.060
385,-18.0,1113.0,107.0,1118.2763522493,2021-08-31 10:46:09.071
386,-88.0,909.0,-30.0,913.7423050291586,2021-08-31 10:46:09.079
387,-63.0,1067.0,-30.0,1069.27919646835,2021-08-31 10:46:09.089
388,-63.0,1067.0,20.0,1069.0453685414852,2021-08-31 10:46:09.090
389,-208.0,879.0,-13.0,903.3681420107752,2021-08-31 10:46:09.099
390,-175.0,879.0,-13.0,896.3453575491982,2021-08-31 10:46:09.108
391,-175.0,890.0,-37.0,907.7962326425464,2021-08-31 10:46:09.109
392,-157.0,1025.0,-37.0,1037.6140901125043,2021-08-31 10:46:09.118
393,-157.0,1025.0,40.0,1037.7253972029405,2021-08-31 10:46:09.119
394,-256.0,1025.0,40.0,1057.2421671499865,2021-08-31 10:46:09.129
395,-256.0,995.0,-65.0,1029.4590812654965,2021-08-31 10:46:09.130
396,-277.0,941.0,-156.0,993.2502202365728,2021-08-31 10:46:09.138
397,-114.0,941.0,-156.0,960.6315630875346,2021-08-31 10:46:09.147
398,-114.0,1131.0,41.0,1137.469999604385,2021-08-31 10:46:09.148
399,-184.0,997.0,-90.0,1017.8236585971068,2021-08-31 10:46:09.157
400,-86.0,1091.0,-130.0,1102.0784908526252,2021-08-31 10:46:09.168
401,-167.0,1145.0,-25.0,1157.3845514780296,2021-08-31 10:46:09.178
402,-125.0,1044.0,-96.0,1055.830005256528,2021-08-31 10:46:09.187
403,-139.0,940.0,-78.0,953.4175370738676,2021-08-31 10:46:09.196
404,-140.0,944.0,-13.0,954.4134324285257,2021-08-31 10:46:09.206
405,-96.0,902.0,-44.0,908.1607787170728,2021-08-31 10:46:09.216
406,-137.0,907.0,10.0,917.3429020818768,2021-08-31 10:46:09.227
407,-300.0,1085.0,-40.0,1126.421324372013,2021-08-31 10:46:09.238
408,-165.0,942.0,-48.0,957.5452991895474,2021-08-31 10:46:09.245
409,-77.0,941.0,20.0,944.3569240493766,2021-08-31 10:46:09.255
410,-349.0,939.0,-71.0,1004.2723734127112,2021-08-31 10:46:09.265
411,-161.0,1037.0,102.0,1054.3690056142584,2021-08-31 10:46:09.275
412,-34.0,1037.0,102.0,1042.5588712394135,2021-08-31 10:46:09.285
413,-34.0,858.0,-43.0,859.7493820875942,2021-08-31 10:46:09.286
414,-167.0,940.0,-23.0,954.9963350715016,2021-08-31 10:46:09.294
415,-231.0,1054.0,79.0,1081.904801727028,2021-08-31 10:46:09.304
416,-8.0,828.0,-59.0,830.1379403448561,2021-08-31 10:46:09.314
417,-287.0,960.0,-73.0,1004.6382433493162,2021-08-31 10:46:09.324
418,-213.0,1141.0,-73.0,1163.004299218193,2021-08-31 10:46:09.333
419,-213.0,1141.0,-87.0,1163.9669239286827,2021-08-31 10:46:09.334
420,-252.0,899.0,-124.0,941.8497757073576,2021-08-31 10:46:09.343
421,-194.0,899.0,-124.0,928.0156248684608,2021-08-31 10:46:09.352
422,-194.0,1124.0,-73.0,1142.9527549290915,2021-08-31 10:46:09.353
423,8.0,1015.0,-73.0,1017.6531825725305,2021-08-31 10:46:09.362
424,8.0,1015.0,-10.0,1015.080784962458,2021-08-31 10:46:09.363
425,-255.0,962.0,-107.0,1000.9585405999592,2021-08-31 10:46:09.372
426,-185.0,1196.0,-39.0,1210.851766319891,2021-08-31 10:46:09.383
427,-26.0,1075.0,-20.0,1075.5003486749783,2021-08-31 10:46:09.393
428,-282.0,989.0,-20.0,1028.6131439953506,2021-08-31 10:46:09.401
429,-282.0,989.0,-95.0,1032.7971727304448,2021-08-31 10:46:09.402
430,-201.0,957.0,-110.0,984.0477630684396,2021-08-31 10:46:09.411
431,-148.0,1013.0,55.0,1025.230705743834,2021-08-31 10:46:09.421
432,-304.0,961.0,5.0,1007.9494034920602,2021-08-31 10:46:09.441
433,-172.0,870.0,-70.0,889.5976618674309,2021-08-31 10:46:09.444
434,-96.0,1119.0,19.0,1123.271115982246,2021-08-31 10:46:09.451
435,-270.0,956.0,19.0,993.5778781756366,2021-08-31 10:46:09.460
436,-270.0,956.0,-26.0,993.736383554512,2021-08-31 10:46:09.461
437,-62.0,841.0,-54.0,845.0094674025847,2021-08-31 10:46:09.470
438,-328.0,944.0,30.0,999.8099819465696,2021-08-31 10:46:09.480
439,-47.0,890.0,30.0,891.74491868471,2021-08-31 10:46:09.489
440,-47.0,890.0,-49.0,892.5861302977993,2021-08-31 10:46:09.490
441,-17.0,1039.0,19.0,1039.3127536983272,2021-08-31 10:46:09.500
442,-245.0,973.0,24.0,1003.6583083898624,2021-08-31 10:46:09.511
443,-177.0,785.0,-70.0,807.7462472831428,2021-08-31 10:46:09.519
444,-153.0,1016.0,-70.0,1029.8373658010278,2021-08-31 10:46:09.528
445,-153.0,1016.0,26.0,1027.7845104884584,2021-08-31 10:46:09.529
446,-260.0,1019.0,-52.0,1052.9316217114956,2021-08-31 10:46:09.538
447,-262.0,980.0,-124.0,1021.9686883657444,2021-08-31 10:46:09.548
448,-115.0,980.0,-124.0,994.485294008916,2021-08-31 10:46:09.559
449,-115.0,1045.0,-4.0,1051.3163177654951,2021-08-31 10:46:09.560
450,-193.0,1045.0,-4.0,1062.6805728910265,2021-08-31 10:46:09.567
451,-193.0,1024.0,-50.0,1043.2281629634049,2021-08-31 10:46:09.568
452,-116.0,1092.0,-114.0,1104.0452889261385,2021-08-31 10:46:09.577
453,-84.0,1042.0,0.0,1045.380313570138,2021-08-31 10:46:09.587
454,-241.0,1121.0,-55.0,1147.9316181724414,2021-08-31 10:46:09.597
455,-49.0,1032.0,20.0,1033.3561825430766,2021-08-31 10:46:09.608
456,-263.0,1048.0,-125.0,1087.7030844858352,2021-08-31 10:46:09.617
457,-158.0,1048.0,-125.0,1067.1892990467998,2021-08-31 10:46:09.628
458,-158.0,1008.0,-18.0,1020.4665599616676,2021-08-31 10:46:09.629
459,-136.0,862.0,3.0,872.6677489170778,2021-08-31 10:46:09.646
460,-176.0,1050.0,0.0,1064.6482987353147,2021-08-31 10:46:09.658
461,-43.0,930.0,8.0,931.0279265414116,2021-08-31 10:46:09.666
462,-373.0,889.0,8.0,964.1130639090004,2021-08-31 10:46:09.682
463,-373.0,889.0,-87.0,967.9974173519266,2021-08-31 10:46:09.683
464,-170.0,1016.0,34.0,1030.685208975078,2021-08-31 10:46:09.687
465,-42.0,925.0,34.0,926.5770340344076,2021-08-31 10:46:09.694
466,-42.0,925.0,33.0,926.540878752794,2021-08-31 10:46:09.695
467,-174.0,879.0,-49.0,897.395119220068,2021-08-31 10:46:09.705
468,-274.0,879.0,-49.0,922.0184379935145,2021-08-31 10:46:09.716
469,-274.0,1018.0,44.0,1055.1473830702514,2021-08-31 10:46:09.717
470,-63.0,986.0,20.0,988.2130337128732,2021-08-31 10:46:09.724
471,-179.0,986.0,20.0,1002.3158184923552,2021-08-31 10:46:09.733
472,-179.0,1094.0,71.0,1110.8186170568083,2021-08-31 10:46:09.734
473,-76.0,942.0,-12.0,945.1370271024196,2021-08-31 10:46:09.743
474,-292.0,882.0,-132.0,938.4092923666092,2021-08-31 10:46:09.753
475,-234.0,1147.0,-74.0,1172.962488743779,2021-08-31 10:46:09.767
476,5.0,1147.0,-74.0,1149.3954932920174,2021-08-31 10:46:09.772
477,5.0,1058.0,-1.0,1058.0122872632437,2021-08-31 10:46:09.773
478,-245.0,941.0,-136.0,981.8360351912124,2021-08-31 10:46:09.782
479,-136.0,1137.0,-106.0,1150.0004347825266,2021-08-31 10:46:09.793
480,-99.0,1158.0,-106.0,1167.0479853030895,2021-08-31 10:46:09.803
481,-99.0,1158.0,6.0,1162.2396482653653,2021-08-31 10:46:09.804
482,-241.0,911.0,6.0,942.3576815625796,2021-08-31 10:46:09.812
483,-241.0,911.0,-86.0,946.254722577383,2021-08-31 10:46:09.813
484,-216.0,957.0,-83.0,984.5780822260872,2021-08-31 10:46:09.821
485,-180.0,1021.0,54.0,1038.1507597646885,2021-08-31 10:46:09.831
486,-264.0,941.0,7.0,977.3566391036592,2021-08-31 10:46:09.841
487,-200.0,888.0,-87.0,914.3921478228036,2021-08-31 10:46:09.851
488,-290.0,1052.0,29.0,1091.6249355891428,2021-08-31 10:46:09.862
489,-104.0,847.0,-57.0,855.2625327932939,2021-08-31 10:46:09.870
490,-119.0,1040.0,2.0,1046.7879441415057,2021-08-31 10:46:09.880
491,-351.0,1021.0,-19.0,1079.8161880616533,2021-08-31 10:46:09.890
492,-12.0,876.0,9.0,876.1284152451626,2021-08-31 10:46:09.899
493,-32.0,952.0,-63.0,954.6187720760576,2021-08-31 10:46:09.910
494,-271.0,952.0,-63.0,991.823573020928,2021-08-31 10:46:09.919
495,-271.0,1002.0,30.0,1038.4339170115738,2021-08-31 10:46:09.920
496,-167.0,927.0,30.0,942.4001273344566,2021-08-31 10:46:09.929
497,-108.0,899.0,-89.0,909.827456169575,2021-08-31 10:46:09.939
498,-297.0,1062.0,-42.0,1103.5474615982766,2021-08-31 10:46:09.949
499,-242.0,1062.0,-42.0,1090.033027022576,2021-08-31 10:46:09.959
500,-242.0,1029.0,-149.0,1067.5233018534068,2021-08-31 10:46:09.960
501,-70.0,955.0,-9.0,957.6043024130583,2021-08-31 10:46:09.969
502,-260.0,1117.0,-44.0,1147.7042301917336,2021-08-31 10:46:09.978
503,-115.0,1138.0,-44.0,1144.6418653884716,2021-08-31 10:46:09.987
504,-115.0,1138.0,-74.0,1146.1871574921786,2021-08-31 10:46:09.988
505,-255.0,1119.0,-84.0,1150.757142059088,2021-08-31 10:46:10.000
506,-87.0,1129.0,-60.0,1133.935624275029,2021-08-31 10:46:10.008
507,-68.0,1129.0,-60.0,1132.6363052630795,2021-08-31 10:46:10.018
508,-68.0,930.0,-82.0,936.081193059662,2021-08-31 10:46:10.019
509,-270.0,1087.0,-82.0,1123.0284947408948,2021-08-31 10:46:10.026
510,-270.0,1087.0,-64.0,1121.8578341305106,2021-08-31 10:46:10.027
511,-124.0,1054.0,-1.0,1061.269522788627,2021-08-31 10:46:10.036
512,-131.0,846.0,20.0,856.3159463655924,2021-08-31 10:46:10.046
513,-252.0,1038.0,-87.0,1071.6888540989871,2021-08-31 10:46:10.057
514,-189.0,997.0,-40.0,1015.5441890927248,2021-08-31 10:46:10.067
515,-100.0,1034.0,79.0,1041.8238814694162,2021-08-31 10:46:10.076
516,-339.0,836.0,-156.0,915.5069633814916,2021-08-31 10:46:10.085
517,-171.0,1015.0,41.0,1030.119895934449,2021-08-31 10:46:10.095
518,-39.0,1017.0,65.0,1019.8210627360075,2021-08-31 10:46:10.105
519,-117.0,820.0,65.0,830.8513705832108,2021-08-31 10:46:10.115
520,-117.0,820.0,-69.0,831.17386869415,2021-08-31 10:46:10.116
521,-81.0,955.0,77.0,961.5170305304008,2021-08-31 10:46:10.125
522,-167.0,865.0,-37.0,881.7499645591147,2021-08-31 10:46:10.134
523,-57.0,865.0,-37.0,867.6652580344565,2021-08-31 10:46:10.143
524,-57.0,954.0,-2.0,955.7034058744376,2021-08-31 10:46:10.144
525,-155.0,1121.0,-7.0,1131.6867941263608,2021-08-31 10:46:10.153
526,-168.0,876.0,-61.0,894.0475378859896,2021-08-31 10:46:10.163
527,-174.0,990.0,-105.0,1010.6438541840542,2021-08-31 10:46:10.173
528,-136.0,1111.0,11.0,1119.3471311438643,2021-08-31 10:46:10.183
529,-140.0,939.0,11.0,949.4429946026248,2021-08-31 10:46:10.192
530,-140.0,939.0,-97.0,954.321748678086,2021-08-31 10:46:10.193
531,-168.0,1084.0,-67.0,1098.9854412138498,2021-08-31 10:46:10.205
532,-165.0,1094.0,-83.0,1109.4818610504635,2021-08-31 10:46:10.212
533,-264.0,1076.0,-81.0,1110.870379477282,2021-08-31 10:46:10.223
534,-192.0,915.0,-58.0,936.7246126797352,2021-08-31 10:46:10.232
535,-191.0,984.0,-35.0,1002.9765700154716,2021-08-31 10:46:10.241
536,-239.0,1120.0,6.0,1145.2322908475817,2021-08-31 10:46:10.251
537,-229.0,1073.0,-77.0,1099.8631733083894,2021-08-31 10:46:10.261
538,-159.0,1073.0,-77.0,1087.4460906178292,2021-08-31 10:46:10.271
539,-159.0,1025.0,12.0,1037.3282990451962,2021-08-31 10:46:10.272
540,-122.0,1025.0,12.0,1032.3047030794737,2021-08-31 10:46:10.281
541,-122.0,941.0,-19.0,949.0658565136564,2021-08-31 10:46:10.282
542,-272.0,957.0,-101.0,1000.0169998555024,2021-08-31 10:46:10.290
543,-218.0,1033.0,114.0,1061.8893539347685,2021-08-31 10:46:10.300
544,-209.0,900.0,-1.0,923.949132798987,2021-08-31 10:46:10.312
545,-125.0,828.0,-101.0,843.451243404146,2021-08-31 10:46:10.320
546,-223.0,828.0,-101.0,863.4315259474836,2021-08-31 10:46:10.329
547,-223.0,1045.0,44.0,1069.4344299675413,2021-08-31 10:46:10.330
548,-164.0,955.0,44.0,969.9778347983008,2021-08-31 10:46:10.339
549,-164.0,955.0,41.0,969.8463795880252,2021-08-31 10:46:10.340
550,-223.0,856.0,-34.0,885.2237005412812,2021-08-31 10:46:10.349
551,-229.0,856.0,-34.0,886.7541936748876,2021-08-31 10:46:10.358
552,-229.0,1023.0,-26.0,1048.6400717119293,2021-08-31 10:46:10.359
553,-139.0,1061.0,2.0,1070.0682221241784,2021-08-31 10:46:10.369
554,-162.0,921.0,-81.0,938.640506264246,2021-08-31 10:46:10.380
555,-175.0,921.0,-81.0,940.9713066826214,2021-08-31 10:46:10.388
556,-175.0,1123.0,-27.0,1136.8742234741712,2021-08-31 10:46:10.389
557,-147.0,912.0,-100.0,929.1679073235364,2021-08-31 10:46:10.398
558,-137.0,1057.0,-100.0,1070.522302429987,2021-08-31 10:46:10.407
559,-137.0,1057.0,-31.0,1066.2921738435484,2021-08-31 10:46:10.408
560,-183.0,1152.0,-31.0,1166.856460752564,2021-08-31 10:46:10.417
561,-183.0,1152.0,-34.0,1166.9400155963458,2021-08-31 10:46:10.418
562,-173.0,1017.0,-74.0,1034.260122019601,2021-08-31 10:46:10.428
563,-165.0,1023.0,-74.0,1038.859952062837,2021-08-31 10:46:10.438
564,-165.0,1023.0,-129.0,1044.2198044473205,2021-08-31 10:46:10.439
565,-219.0,1023.0,-55.0,1047.6235010727853,2021-08-31 10:46:10.457
566,-216.0,1026.0,0.0,1048.4903433031704,2021-08-31 10:46:10.460
567,-120.0,1026.0,0.0,1032.9937076284637,2021-08-31 10:46:10.466
568,-120.0,947.0,-69.0,957.0632163028732,2021-08-31 10:46:10.467
569,-230.0,999.0,-35.0,1025.7319337916706,2021-08-31 10:46:10.476
570,-243.0,1068.0,42.0,1096.1008165310343,2021-08-31 10:46:10.486
571,-228.0,856.0,19.0,886.0479670988473,2021-08-31 10:46:10.495
572,-229.0,1054.0,42.0,1079.407707958397,2021-08-31 10:46:10.505
573,-248.0,871.0,-3.0,905.6235420968252,2021-08-31 10:46:10.516
574,-169.0,848.0,-43.0,865.7447660829374,2021-08-31 10:46:10.526
575,-192.0,1049.0,39.0,1067.1391661821808,2021-08-31 10:46:10.534
576,-176.0,864.0,-17.0,881.9075915309949,2021-08-31 10:46:10.544
577,-112.0,904.0,3.0,910.9165713719342,2021-08-31 10:46:10.554
578,-186.0,1059.0,13.0,1075.2887984164995,2021-08-31 10:46:10.564
579,-179.0,964.0,-24.0,980.7716349895118,2021-08-31 10:46:10.575
580,-94.0,994.0,-41.0,999.2762380843448,2021-08-31 10:46:10.583
581,-185.0,1060.0,-31.0,1076.4692285430178,2021-08-31 10:46:10.593
582,-190.0,1084.0,-18.0,1100.6725216884447,2021-08-31 10:46:10.605
583,-71.0,1008.0,-91.0,1014.586615326656,2021-08-31 10:46:10.613
584,-256.0,1057.0,-99.0,1092.0558593771657,2021-08-31 10:46:10.623
585,-289.0,1145.0,-29.0,1181.264999904763,2021-08-31 10:46:10.633
586,-267.0,1005.0,-114.0,1046.0927301152608,2021-08-31 10:46:10.642
587,-228.0,1177.0,-114.0,1204.287756310758,2021-08-31 10:46:10.651
588,-228.0,1177.0,-6.0,1198.8949078213652,2021-08-31 10:46:10.652
589,-121.0,999.0,-16.0,1006.428338233776,2021-08-31 10:46:10.674
590,-121.0,914.0,-85.0,925.8844420336698,2021-08-31 10:46:10.676
591,-141.0,1098.0,-20.0,1107.1969111228589,2021-08-31 10:46:10.682
592,-121.0,1098.0,-20.0,1104.8280409185857,2021-08-31 10:46:10.690
593,-121.0,1032.0,22.0,1039.302169727361,2021-08-31 10:46:10.691
594,-162.0,910.0,13.0,924.3987234954404,2021-08-31 10:46:10.705
595,-253.0,933.0,-8.0,966.7274693521438,2021-08-31 10:46:10.710
596,-174.0,985.0,50.0,1001.4993759359014,2021-08-31 10:46:10.721
597,-162.0,985.0,50.0,999.4843670613362,2021-08-31 10:46:10.731
598,-162.0,860.0,-5.0,875.1394174644404,2021-08-31 10:46:10.732
599,-179.0,838.0,-5.0,856.9188993131147,2021-08-31 10:46:10.739
600,-179.0,838.0,-50.0,858.3618118252932,2021-08-31 10:46:10.740
601,-226.0,1102.0,116.0,1130.900526129509,2021-08-31 10:46:10.749
602,-222.0,926.0,116.0,959.27889583791,2021-08-31 10:46:10.759
603,-222.0,926.0,-3.0,952.2441913711,2021-08-31 10:46:10.760
604,-204.0,1043.0,67.0,1064.8727623523855,2021-08-31 10:46:10.769
605,-174.0,973.0,2.0,988.4376561017898,2021-08-31 10:46:10.788
606,-216.0,873.0,-98.0,904.6485505432482,2021-08-31 10:46:10.791
607,-138.0,873.0,-98.0,889.2564309579099,2021-08-31 10:46:10.798
608,-138.0,1072.0,-29.0,1081.2349420916808,2021-08-31 10:46:10.799
609,-165.0,1064.0,-30.0,1077.1355532151,2021-08-31 10:46:10.808
610,-198.0,1064.0,-30.0,1082.6818553942796,2021-08-31 10:46:10.817
611,-198.0,994.0,-82.0,1016.8402037685174,2021-08-31 10:46:10.818
612,-162.0,1164.0,-82.0,1178.0763982017463,2021-08-31 10:46:10.827
613,-162.0,1164.0,-58.0,1176.6494805166064,2021-08-31 10:46:10.828
614,-226.0,1161.0,-104.0,1187.3554648882532,2021-08-31 10:46:10.837
615,-218.0,1131.0,-96.0,1155.8118358971758,2021-08-31 10:46:10.848
616,-227.0,1085.0,-126.0,1115.629866936163,2021-08-31 10:46:10.858
617,-195.0,1078.0,-36.0,1096.0862192364248,2021-08-31 10:46:10.866
618,-216.0,1069.0,-28.0,1090.9633357725638,2021-08-31 10:46:10.876
619,-191.0,879.0,-44.0,900.5875859681834,2021-08-31 10:46:10.886
620,-184.0,952.0,4.0,969.6267323047564,2021-08-31 10:46:10.896
621,-193.0,952.0,4.0,971.3747989319056,2021-08-31 10:46:10.906
622,-193.0,928.0,-48.0,949.071651668092,2021-08-31 10:46:10.907
623,-300.0,1077.0,-49.0,1119.075511303862,2021-08-31 10:46:10.915
624,-303.0,1003.0,84.0,1051.1298682845998,2021-08-31 10:46:10.925
625,-183.0,894.0,-31.0,913.0640722315164,2021-08-31 10:46:10.935
626,-192.0,1003.0,-71.0,1023.6767067780726,2021-08-31 10:46:10.945
627,-237.0,1003.0,-71.0,1033.0629216073917,2021-08-31 10:46:10.954
628,-237.0,1118.0,56.0,1144.2154517397498,2021-08-31 10:46:10.955
629,-94.0,928.0,56.0,934.428167383668,2021-08-31 10:46:10.964
630,-94.0,928.0,-35.0,933.4050567679608,2021-08-31 10:46:10.965
631,-245.0,980.0,-35.0,1010.7670354735556,2021-08-31 10:46:10.974
632,-248.0,980.0,-35.0,1011.4983934737612,2021-08-31 10:46:10.983
633,-248.0,1103.0,-43.0,1131.3540559877797,2021-08-31 10:46:10.984
634,-57.0,977.0,-29.0,979.0909048704314,2021-08-31 10:46:10.994
635,-206.0,1032.0,-96.0,1056.7289150960146,2021-08-31 10:46:11.004
636,-215.0,1032.0,-96.0,1058.520193477668,2021-08-31 10:46:11.013
637,-215.0,1103.0,-22.0,1123.97419899213,2021-08-31 10:46:11.014
638,-74.0,1103.0,-22.0,1105.698421813109,2021-08-31 10:46:11.022
639,-74.0,1074.0,-4.0,1076.5537608498703,2021-08-31 10:46:11.023
640,-247.0,1119.0,-4.0,1145.9432795736443,2021-08-31 10:46:11.032
641,-247.0,1119.0,-15.0,1146.034467195468,2021-08-31 10:46:11.033
642,-192.0,998.0,-91.0,1020.3670908060492,2021-08-31 10:46:11.042
643,-330.0,910.0,-107.0,973.8834632542028,2021-08-31 10:46:11.053
644,-285.0,1056.0,-107.0,1099.0040946238553,2021-08-31 10:46:11.063
645,-285.0,1056.0,-95.0,1097.900724109425,2021-08-31 10:46:11.064
646,-277.0,993.0,-95.0,1035.2791893977198,2021-08-31 10:46:11.071
647,-277.0,993.0,-20.0,1031.1052322629344,2021-08-31 10:46:11.072
648,-234.0,938.0,13.0,966.8345256557608,2021-08-31 10:46:11.081
649,-159.0,865.0,-81.0,883.2140170989136,2021-08-31 10:46:11.091
650,-206.0,1009.0,-81.0,1032.994675688118,2021-08-31 10:46:11.101
651,-206.0,1009.0,21.0,1030.0281549549993,2021-08-31 10:46:11.102
652,-180.0,925.0,14.0,942.4547734506946,2021-08-31 10:46:11.112
653,-220.0,747.0,29.0,779.2624718283307,2021-08-31 10:46:11.120
654,-278.0,881.0,29.0,924.2759328252577,2021-08-31 10:46:11.130
655,-197.0,860.0,45.0,883.4217565806267,2021-08-31 10:46:11.140
656,-176.0,843.0,-36.0,861.928651339541,2021-08-31 10:46:11.150
657,-181.0,882.0,65.0,902.72365649738,2021-08-31 10:46:11.160
658,-141.0,670.0,-42.0,685.962826981171,2021-08-31 10:46:11.170
659,-204.0,670.0,-42.0,701.6266813626745,2021-08-31 10:46:11.182
660,-204.0,888.0,56.0,912.8504806374372,2021-08-31 10:46:11.183
661,-196.0,978.0,26.0,997.7855481013944,2021-08-31 10:46:11.189
662,-239.0,755.0,26.0,792.3521944186184,2021-08-31 10:46:11.198
663,-239.0,755.0,-61.0,794.2713642074729,2021-08-31 10:46:11.199
664,-92.0,903.0,-100.0,913.1664689419996,2021-08-31 10:46:11.209
665,-103.0,960.0,-27.0,965.8871569702126,2021-08-31 10:46:11.220
666,-94.0,960.0,-27.0,964.9689114163212,2021-08-31 10:46:11.227
667,-94.0,968.0,6.0,972.5718482456708,2021-08-31 10:46:11.228
668,-47.0,968.0,6.0,969.1589136978516,2021-08-31 10:46:11.237
669,-47.0,974.0,-91.0,979.3702057955408,2021-08-31 10:46:11.238
670,-192.0,1131.0,-40.0,1147.8784778886657,2021-08-31 10:46:11.247
671,-136.0,1131.0,-40.0,1139.8495514759832,2021-08-31 10:46:11.257
672,-136.0,1114.0,-61.0,1123.9274887642885,2021-08-31 10:46:11.258
673,-117.0,892.0,-130.0,908.9845983293668,2021-08-31 10:46:11.268
674,-177.0,1048.0,-130.0,1070.7628122044582,2021-08-31 10:46:11.276
675,-177.0,1048.0,-58.0,1064.4233180459737,2021-08-31 10:46:11.277
676,-119.0,924.0,-74.0,934.565674524803,2021-08-31 10:46:11.286
677,-148.0,968.0,-81.0,982.5929981431784,2021-08-31 10:46:11.296
678,-73.0,829.0,-90.0,837.0603323536482,2021-08-31 10:46:11.308
679,-104.0,847.0,6.0,853.3820949609852,2021-08-31 10:46:11.317
680,-180.0,847.0,6.0,865.935909868623,2021-08-31 10:46:11.326
681,-180.0,857.0,-6.0,875.719704014932,2021-08-31 10:46:11.327
682,-264.0,968.0,-6.0,1003.3723137499858,2021-08-31 10:46:11.335
683,-264.0,968.0,71.0,1005.8633107932708,2021-08-31 10:46:11.336
684,-164.0,907.0,40.0,922.5752001869548,2021-08-31 10:46:11.345
685,-177.0,888.0,-17.0,905.6279589323642,2021-08-31 10:46:11.355
686,-203.0,888.0,-17.0,911.0664081174324,2021-08-31 10:46:11.364
687,-203.0,1012.0,-16.0,1032.2833913223635,2021-08-31 10:46:11.365
688,-182.0,1062.0,64.0,1079.3813042664765,2021-08-31 10:46:11.376
689,-182.0,956.0,64.0,975.2722696765248,2021-08-31 10:46:11.384
690,-182.0,956.0,-18.0,973.336529675117,2021-08-31 10:46:11.386
691,-153.0,1009.0,-53.0,1021.9094871856312,2021-08-31 10:46:11.394
692,-133.0,1145.0,-53.0,1153.9163747863188,2021-08-31 10:46:11.403
693,-133.0,1145.0,-64.0,1154.4739061581254,2021-08-31 10:46:11.404
694,-198.0,1040.0,-76.0,1061.4047295918745,2021-08-31 10:46:11.414
695,-81.0,1114.0,-48.0,1117.9718243319014,2021-08-31 10:46:11.425
696,-207.0,1015.0,-48.0,1037.0043394316149,2021-08-31 10:46:11.433
697,-186.0,1015.0,-48.0,1033.017424828836,2021-08-31 10:46:11.442
698,-186.0,1115.0,-95.0,1134.3923483521917,2021-08-31 10:46:11.443
699,-180.0,1201.0,-43.0,1215.1748845330865,2021-08-31 10:46:11.452
700,-231.0,1073.0,-119.0,1104.015851335478,2021-08-31 10:46:11.472
701,-192.0,1102.0,-112.0,1124.193933447428,2021-08-31 10:46:11.475
702,-318.0,1102.0,-112.0,1152.4200623036722,2021-08-31 10:46:11.482
703,-318.0,1136.0,-21.0,1179.8563471880805,2021-08-31 10:46:11.483
704,-198.0,1089.0,9.0,1106.8902384608873,2021-08-31 10:46:11.492
705,-208.0,1001.0,-58.0,1024.0258785792475,2021-08-31 10:46:11.501
706,-211.0,1021.0,-59.0,1044.2427878611372,2021-08-31 10:46:11.511
707,-214.0,1021.0,-59.0,1044.8530997226358,2021-08-31 10:46:11.520
708,-214.0,1103.0,84.0,1126.7035990001984,2021-08-31 10:46:11.521
709,-183.0,1009.0,-24.0,1025.741682881221,2021-08-31 10:46:11.530
710,-246.0,1009.0,-24.0,1038.8325177813797,2021-08-31 10:46:11.541
711,-246.0,1075.0,14.0,1102.8766930169484,2021-08-31 10:46:11.542
712,-180.0,887.0,-1.0,905.0801069518652,2021-08-31 10:46:11.550
713,-136.0,879.0,-43.0,890.4976136969711,2021-08-31 10:46:11.560
714,-168.0,879.0,-43.0,895.9430785490783,2021-08-31 10:46:11.569
715,-168.0,991.0,-16.0,1005.2666312973888,2021-08-31 10:46:11.570
716,-231.0,929.0,55.0,958.8675612408628,2021-08-31 10:46:11.582
717,-95.0,816.0,-33.0,822.173947531786,2021-08-31 10:46:11.590
718,-224.0,1029.0,2.0,1053.1006599561126,2021-08-31 10:46:11.599
719,-287.0,1019.0,-8.0,1058.6755877038065,2021-08-31 10:46:11.609
720,-108.0,936.0,-26.0,942.56883037792,2021-08-31 10:46:11.618
721,-244.0,985.0,-73.0,1017.3937290941004,2021-08-31 10:46:11.628
722,-178.0,1152.0,-73.0,1167.9541943072938,2021-08-31 10:46:11.638
723,-178.0,1152.0,-21.0,1165.8597685828258,2021-08-31 10:46:11.639
724,-90.0,1030.0,-32.0,1034.419644051678,2021-08-31 10:46:11.649
725,-244.0,993.0,-32.0,1023.0390999370454,2021-08-31 10:46:11.657
726,-244.0,993.0,-145.0,1032.7681249922462,2021-08-31 10:46:11.658
727,-112.0,993.0,-145.0,1009.7613579455297,2021-08-31 10:46:11.667
728,-112.0,983.0,-101.0,994.5018853677452,2021-08-31 10:46:11.668
729,-206.0,1033.0,-111.0,1059.1723183693955,2021-08-31 10:46:11.695
730,-119.0,970.0,-48.0,978.4503053298108,2021-08-31 10:46:11.700
731,-193.0,1008.0,-78.0,1029.2701297521462,2021-08-31 10:46:11.706
732,-203.0,1002.0,-45.0,1023.346471142594,2021-08-31 10:46:11.718
733,-213.0,1031.0,21.0,1052.9819561606932,2021-08-31 10:46:11.733
734,-236.0,902.0,-53.0,933.8677636582172,2021-08-31 10:46:11.737
735,-244.0,934.0,-28.0,965.7515208375288,2021-08-31 10:46:11.746
736,-243.0,934.0,-28.0,965.499352666795,2021-08-31 10:46:11.755
737,-243.0,996.0,35.0,1025.8118735908647,2021-08-31 10:46:11.756
738,-183.0,883.0,0.0,901.7638271742774,2021-08-31 10:46:11.767
739,-200.0,883.0,0.0,905.366776505522,2021-08-31 10:46:11.774
740,-200.0,919.0,15.0,940.630639517978,2021-08-31 10:46:11.775
741,-163.0,1003.0,48.0,1017.291501979644,2021-08-31 10:46:11.784
742,-165.0,832.0,-41.0,849.1937352571556,2021-08-31 10:46:11.801
743,-166.0,1063.0,-41.0,1076.664293083039,2021-08-31 10:46:11.805
744,-166.0,1063.0,50.0,1077.0445673230054,2021-08-31 10:46:11.806
745,-183.0,962.0,-3.0,979.2558399111032,2021-08-31 10:46:11.815
746,-175.0,906.0,-3.0,922.7513207793312,2021-08-31 10:46:11.823
747,-175.0,906.0,-45.0,923.843060265108,2021-08-31 10:46:11.824
748,-185.0,1073.0,-54.0,1090.1697115587097,2021-08-31 10:46:11.833
749,-131.0,1024.0,-43.0,1033.2405334674013,2021-08-31 10:46:11.843
750,-116.0,1024.0,-43.0,1031.4460722694134,2021-08-31 10:46:11.853
751,-116.0,1057.0,-57.0,1064.8727623523855,2021-08-31 10:46:11.854
752,-183.0,1016.0,-111.0,1038.299571414724,2021-08-31 10:46:11.864
753,-222.0,1135.0,-25.0,1156.777420249894,2021-08-31 10:46:11.872
754,-187.0,985.0,-75.0,1005.3949472719664,2021-08-31 10:46:11.882
755,-254.0,924.0,-89.0,962.3996051537011,2021-08-31 10:46:11.892
756,-243.0,1132.0,16.0,1157.8985275057569,2021-08-31 10:46:11.902
