,Acceleration_X,Acceleration_Y,Acceleration_Z,magnitude,time_stamp
0,-83.0,1127.0,-149.0,1139.832882487604,2021-09-02 08:18:32.815
1,-327.0,837.0,-78.0,901.987804795608,2021-09-02 08:18:32.824
2,-229.0,1224.0,-86.0,1248.203909623744,2021-09-02 08:18:32.834
3,30.0,958.0,-20.0,958.6782567681402,2021-09-02 08:18:32.844
4,-145.0,1140.0,-75.0,1151.6292806281022,2021-09-02 08:18:32.855
5,-2.0,1094.0,-58.0,1095.5382238881489,2021-09-02 08:18:32.864
6,-148.0,1009.0,-110.0,1025.7119478684062,2021-09-02 08:18:32.874
7,-314.0,908.0,-7.0,960.785616045536,2021-09-02 08:18:32.883
8,-96.0,1039.0,-24.0,1043.7015857035,2021-09-02 08:18:32.893
9,-330.0,804.0,-20.0,869.3192739149408,2021-09-02 08:18:32.903
10,-212.0,887.0,-98.0,917.2333399958814,2021-09-02 08:18:32.912
11,-60.0,1094.0,45.0,1096.56782735953,2021-09-02 08:18:32.922
12,-329.0,991.0,21.0,1044.395997694361,2021-09-02 08:18:32.932
13,-171.0,991.0,21.0,1005.8643049636466,2021-09-02 08:18:32.941
14,-171.0,889.0,-92.0,909.9593397509584,2021-09-02 08:18:32.942
15,-41.0,889.0,-92.0,894.6876549947473,2021-09-02 08:18:32.951
16,-41.0,1025.0,62.0,1027.6915879776384,2021-09-02 08:18:32.952
17,-123.0,1023.0,9.0,1030.4072010617938,2021-09-02 08:18:32.963
18,-186.0,837.0,-34.0,858.0914869639483,2021-09-02 08:18:32.986
19,-186.0,1017.0,-34.0,1034.427861187043,2021-09-02 08:18:32.987
20,-186.0,1017.0,21.0,1034.0822017615428,2021-09-02 08:18:32.988
21,-280.0,855.0,-41.0,900.6142348419771,2021-09-02 08:18:32.992
22,-50.0,955.0,-40.0,957.1441897645308,2021-09-02 08:18:33.000
23,-297.0,1074.0,-51.0,1115.4756832849382,2021-09-02 08:18:33.010
24,-350.0,996.0,-51.0,1056.9375572851975,2021-09-02 08:18:33.026
25,-350.0,996.0,-197.0,1073.9296997476138,2021-09-02 08:18:33.027
26,58.0,1025.0,0.0,1026.6396641470658,2021-09-02 08:18:33.036
27,-267.0,1147.0,-164.0,1189.0306976693244,2021-09-02 08:18:33.039
28,-284.0,1115.0,-90.0,1154.1148123128826,2021-09-02 08:18:33.049
29,12.0,997.0,34.0,997.651742844165,2021-09-02 08:18:33.059
30,-262.0,996.0,-89.0,1033.7219161844253,2021-09-02 08:18:33.069
31,-444.0,1043.0,58.0,1135.0546242362084,2021-09-02 08:18:33.078
32,-41.0,900.0,98.0,906.247758617918,2021-09-02 08:18:33.088
33,-182.0,1080.0,57.0,1096.7100801943966,2021-09-02 08:18:33.098
34,-177.0,1080.0,57.0,1095.8914179789897,2021-09-02 08:18:33.107
35,-177.0,870.0,86.0,891.9781387455637,2021-09-02 08:18:33.108
36,-371.0,874.0,-56.0,951.1324828855336,2021-09-02 08:18:33.118
37,-169.0,993.0,0.0,1007.2785116341954,2021-09-02 08:18:33.129
38,24.0,976.0,54.0,977.7872979334512,2021-09-02 08:18:33.138
39,-376.0,897.0,-105.0,978.2688791942631,2021-09-02 08:18:33.147
40,15.0,1034.0,5.0,1034.120882682484,2021-09-02 08:18:33.157
41,-8.0,1031.0,71.0,1033.4727862890247,2021-09-02 08:18:33.166
42,-196.0,872.0,-73.0,896.7324015557818,2021-09-02 08:18:33.177
43,-185.0,885.0,-36.0,904.8458432241372,2021-09-02 08:18:33.186
44,-161.0,1087.0,8.0,1098.887619367877,2021-09-02 08:18:33.195
45,-113.0,833.0,-45.0,841.833118854325,2021-09-02 08:18:33.215
46,-178.0,833.0,-45.0,852.9935521444462,2021-09-02 08:18:33.217
47,-178.0,1023.0,-35.0,1038.9600569800557,2021-09-02 08:18:33.218
48,-329.0,1056.0,-147.0,1115.789406653424,2021-09-02 08:18:33.226
49,-206.0,987.0,-105.0,1013.720868878608,2021-09-02 08:18:33.235
50,-28.0,1093.0,-76.0,1095.9968065646906,2021-09-02 08:18:33.244
51,-338.0,1166.0,-128.0,1220.730928583363,2021-09-02 08:18:33.255
52,-84.0,1054.0,-68.0,1059.526309253338,2021-09-02 08:18:33.264
53,-19.0,895.0,-25.0,895.5506685833025,2021-09-02 08:18:33.275
54,-352.0,1129.0,-106.0,1187.3419894874432,2021-09-02 08:18:33.283
55,-187.0,931.0,76.0,952.6310933409636,2021-09-02 08:18:33.306
56,-187.0,852.0,-5.0,872.2946749808805,2021-09-02 08:18:33.307
57,-313.0,852.0,-5.0,907.6882724812524,2021-09-02 08:18:33.312
58,-313.0,1036.0,-129.0,1089.9110055412782,2021-09-02 08:18:33.313
59,-119.0,982.0,81.0,992.4948362586074,2021-09-02 08:18:33.322
60,-294.0,951.0,-122.0,1002.8564204311602,2021-09-02 08:18:33.335
61,-48.0,1128.0,88.0,1132.445142159213,2021-09-02 08:18:33.342
62,-145.0,922.0,-9.0,933.375594281316,2021-09-02 08:18:33.353
63,-244.0,863.0,-150.0,909.2881831410766,2021-09-02 08:18:33.363
64,58.0,1090.0,58.0,1093.081881653886,2021-09-02 08:18:33.371
65,-181.0,991.0,103.0,1012.6455450946298,2021-09-02 08:18:33.381
66,-218.0,842.0,-73.0,872.821287549748,2021-09-02 08:18:33.391
67,-231.0,842.0,-73.0,876.1586614306794,2021-09-02 08:18:33.400
68,-231.0,943.0,38.0,971.624413032114,2021-09-02 08:18:33.401
69,-159.0,943.0,38.0,957.06530602671,2021-09-02 08:18:33.411
70,-159.0,1010.0,-33.0,1022.971162838914,2021-09-02 08:18:33.412
71,-296.0,967.0,-159.0,1023.7118735269216,2021-09-02 08:18:33.420
72,-72.0,967.0,-159.0,982.6260733361394,2021-09-02 08:18:33.430
73,-72.0,1060.0,-54.0,1063.8138934982942,2021-09-02 08:18:33.431
74,-71.0,1060.0,-54.0,1063.7466803708485,2021-09-02 08:18:33.439
75,-71.0,1154.0,-27.0,1156.4972978783824,2021-09-02 08:18:33.440
76,-2.0,1025.0,-4.0,1025.0097560511315,2021-09-02 08:18:33.449
77,-125.0,1120.0,-96.0,1131.0353663789651,2021-09-02 08:18:33.461
78,-213.0,1107.0,-142.0,1136.2138883150478,2021-09-02 08:18:33.470
79,-48.0,1007.0,16.0,1008.270301060187,2021-09-02 08:18:33.479
80,-139.0,1075.0,16.0,1084.0673410817244,2021-09-02 08:18:33.488
81,-139.0,1075.0,-97.0,1088.2807542174032,2021-09-02 08:18:33.489
82,-360.0,1070.0,-11.0,1128.9911425693294,2021-09-02 08:18:33.498
83,-120.0,1070.0,-11.0,1076.7641338751955,2021-09-02 08:18:33.508
84,-120.0,813.0,54.0,823.5805971488157,2021-09-02 08:18:33.509
85,-289.0,919.0,-67.0,965.6971574981466,2021-09-02 08:18:33.519
86,-329.0,985.0,-67.0,1040.65123840795,2021-09-02 08:18:33.527
87,-329.0,985.0,-29.0,1038.8970112576126,2021-09-02 08:18:33.528
88,-53.0,1032.0,85.0,1036.8500373728111,2021-09-02 08:18:33.537
89,-155.0,858.0,-68.0,874.5358769084319,2021-09-02 08:18:33.547
90,-183.0,946.0,-52.0,964.9398945012068,2021-09-02 08:18:33.558
91,-251.0,946.0,-52.0,980.1127486161988,2021-09-02 08:18:33.568
92,-251.0,871.0,-98.0,911.726932803896,2021-09-02 08:18:33.569
93,-101.0,1013.0,14.0,1018.1188535726072,2021-09-02 08:18:33.576
94,-16.0,1043.0,72.0,1045.6046097832584,2021-09-02 08:18:33.586
95,-104.0,906.0,-41.0,912.8707466010728,2021-09-02 08:18:33.596
96,-249.0,906.0,-41.0,940.4881711111524,2021-09-02 08:18:33.605
97,-249.0,905.0,-39.0,939.4397266456216,2021-09-02 08:18:33.606
98,-127.0,1032.0,-39.0,1040.5162180379507,2021-09-02 08:18:33.616
99,-127.0,1032.0,60.0,1041.5147622573577,2021-09-02 08:18:33.617
100,-224.0,912.0,-99.0,944.309800859866,2021-09-02 08:18:33.625
101,-400.0,1024.0,-207.0,1118.6710866023132,2021-09-02 08:18:33.635
102,-69.0,1024.0,-207.0,1046.989016179253,2021-09-02 08:18:33.644
103,-69.0,1123.0,14.0,1125.2048702347497,2021-09-02 08:18:33.645
104,-250.0,1061.0,14.0,1090.1454031458372,2021-09-02 08:18:33.654
105,-250.0,1061.0,-94.0,1094.1010008221365,2021-09-02 08:18:33.655
106,-170.0,1092.0,-175.0,1118.923143026365,2021-09-02 08:18:33.665
107,-92.0,1047.0,-175.0,1065.5036367840328,2021-09-02 08:18:33.675
108,-92.0,1047.0,16.0,1051.15603028285,2021-09-02 08:18:33.676
109,-190.0,1088.0,-102.0,1109.1654520404068,2021-09-02 08:18:33.684
110,-59.0,1012.0,-102.0,1018.8370821677036,2021-09-02 08:18:33.693
111,-59.0,1012.0,28.0,1014.1050241469076,2021-09-02 08:18:33.694
112,-262.0,1073.0,-60.0,1106.152340322073,2021-09-02 08:18:33.703
113,-264.0,953.0,0.0,988.8907927572184,2021-09-02 08:18:33.713
114,-163.0,795.0,0.0,811.5380459350012,2021-09-02 08:18:33.724
115,-163.0,795.0,26.0,811.9544322189515,2021-09-02 08:18:33.725
116,-278.0,795.0,26.0,842.6060764081873,2021-09-02 08:18:33.732
117,-278.0,1088.0,-33.0,1123.439807021275,2021-09-02 08:18:33.733
118,-287.0,879.0,-52.0,926.1285008032092,2021-09-02 08:18:33.742
119,78.0,939.0,60.0,944.1424680629508,2021-09-02 08:18:33.753
120,-382.0,980.0,-72.0,1054.280797510796,2021-09-02 08:18:33.762
121,-177.0,1037.0,114.0,1058.1559431388173,2021-09-02 08:18:33.772
122,17.0,919.0,38.0,919.94238950056,2021-09-02 08:18:33.781
123,-233.0,864.0,-43.0,895.8984317432418,2021-09-02 08:18:33.791
124,7.0,862.0,39.0,862.9101923143567,2021-09-02 08:18:33.801
125,-413.0,863.0,-62.0,958.7397978596696,2021-09-02 08:18:33.811
126,-185.0,1033.0,40.0,1050.1971243533285,2021-09-02 08:18:33.821
127,-125.0,1019.0,0.0,1026.638203068637,2021-09-02 08:18:33.832
128,-346.0,972.0,-203.0,1051.526984912893,2021-09-02 08:18:33.840
129,-177.0,1109.0,-68.0,1125.092885054385,2021-09-02 08:18:33.850
130,48.0,1102.0,-13.0,1103.1214801643562,2021-09-02 08:18:33.860
131,-374.0,964.0,-147.0,1044.4046150798072,2021-09-02 08:18:33.869
132,-105.0,1127.0,-110.0,1137.213260562855,2021-09-02 08:18:33.880
133,-133.0,1122.0,68.0,1131.8997305415353,2021-09-02 08:18:33.889
134,-354.0,1122.0,68.0,1178.483771632007,2021-09-02 08:18:33.898
135,-354.0,978.0,-113.0,1046.2165167879923,2021-09-02 08:18:33.899
136,-147.0,888.0,2.0,900.0872179961228,2021-09-02 08:18:33.908
137,-316.0,1020.0,-115.0,1074.0023277442183,2021-09-02 08:18:33.918
138,-152.0,1020.0,-115.0,1037.655530510969,2021-09-02 08:18:33.928
139,-152.0,931.0,74.0,946.2246033579976,2021-09-02 08:18:33.929
140,-347.0,846.0,-47.0,915.6058103791172,2021-09-02 08:18:33.938
141,-335.0,1121.0,-47.0,1170.9291182646368,2021-09-02 08:18:33.947
142,-335.0,1121.0,-75.0,1172.386881536978,2021-09-02 08:18:33.948
143,-72.0,894.0,49.0,898.2321526198002,2021-09-02 08:18:33.957
144,-33.0,889.0,-22.0,889.8842621374985,2021-09-02 08:18:33.967
145,-304.0,1019.0,-44.0,1064.2899041144758,2021-09-02 08:18:33.977
146,-3.0,1044.0,75.0,1046.6947979234444,2021-09-02 08:18:34.004
147,-258.0,1044.0,75.0,1078.019016529857,2021-09-02 08:18:34.008
148,-258.0,949.0,-24.0,983.7382782020836,2021-09-02 08:18:34.009
149,-232.0,1004.0,21.0,1030.6701703260844,2021-09-02 08:18:34.016
150,-125.0,1004.0,21.0,1011.9693671253098,2021-09-02 08:18:34.026
151,-125.0,900.0,-21.0,908.8817304798245,2021-09-02 08:18:34.027
152,-108.0,1001.0,-21.0,1007.0283014890892,2021-09-02 08:18:34.041
153,-108.0,1001.0,16.0,1006.9364428800856,2021-09-02 08:18:34.042
154,-162.0,921.0,-75.0,938.1417803296046,2021-09-02 08:18:34.050
155,-367.0,998.0,-171.0,1077.0023212602655,2021-09-02 08:18:34.056
156,-110.0,1198.0,-31.0,1203.4388227076606,2021-09-02 08:18:34.066
157,-92.0,985.0,-117.0,996.1817103320057,2021-09-02 08:18:34.074
158,-256.0,1102.0,-178.0,1145.2615421815228,2021-09-02 08:18:34.085
159,-57.0,1116.0,-31.0,1117.8846094297926,2021-09-02 08:18:34.094
160,-85.0,1076.0,59.0,1080.96345914189,2021-09-02 08:18:34.104
161,-270.0,959.0,-163.0,1009.5295934245812,2021-09-02 08:18:34.114
162,-176.0,908.0,77.0,928.0996713715612,2021-09-02 08:18:34.123
163,-316.0,982.0,24.0,1031.8701468692657,2021-09-02 08:18:34.133
164,-216.0,892.0,-120.0,925.5917026421532,2021-09-02 08:18:34.143
165,-29.0,983.0,39.0,984.200690916238,2021-09-02 08:18:34.154
166,-260.0,881.0,-81.0,922.1290582125692,2021-09-02 08:18:34.162
167,72.0,881.0,-81.0,887.640693073498,2021-09-02 08:18:34.172
168,72.0,948.0,8.0,950.76390339558,2021-09-02 08:18:34.173
169,-302.0,1016.0,-24.0,1060.205640430195,2021-09-02 08:18:34.182
170,-137.0,993.0,-24.0,1002.693372871288,2021-09-02 08:18:34.191
171,-137.0,993.0,-30.0,1002.8549247024716,2021-09-02 08:18:34.192
172,-47.0,896.0,51.0,898.6801433213043,2021-09-02 08:18:34.202
173,-134.0,968.0,-32.0,977.75457043166,2021-09-02 08:18:34.212
174,-263.0,951.0,21.0,986.919956227454,2021-09-02 08:18:34.221
175,-71.0,951.0,21.0,953.8778747827208,2021-09-02 08:18:34.230
176,-71.0,884.0,-36.0,887.5770389098627,2021-09-02 08:18:34.231
177,-165.0,884.0,-36.0,899.9872221315145,2021-09-02 08:18:34.250
178,-165.0,960.0,-94.0,978.6015532380889,2021-09-02 08:18:34.251
179,-418.0,1090.0,-124.0,1173.9676315810416,2021-09-02 08:18:34.253
180,-35.0,1089.0,-124.0,1096.5956410637425,2021-09-02 08:18:34.260
181,-35.0,1089.0,-11.0,1089.617822908565,2021-09-02 08:18:34.261
182,-123.0,1089.0,-11.0,1095.9794706106495,2021-09-02 08:18:34.270
183,-123.0,996.0,-120.0,1010.7150933868556,2021-09-02 08:18:34.271
184,55.0,1090.0,-120.0,1097.9640249115632,2021-09-02 08:18:34.279
185,55.0,1090.0,3.0,1091.3908557432576,2021-09-02 08:18:34.280
186,-212.0,963.0,-201.0,1006.3369217116104,2021-09-02 08:18:34.289
187,-211.0,1140.0,-112.0,1164.7596318554313,2021-09-02 08:18:34.299
188,-204.0,1140.0,-112.0,1163.5119251644996,2021-09-02 08:18:34.321
189,-204.0,1133.0,76.0,1153.7248372120623,2021-09-02 08:18:34.322
190,-204.0,962.0,-99.0,988.362787644294,2021-09-02 08:18:34.323
191,-248.0,948.0,-54.0,981.3888118375916,2021-09-02 08:18:34.328
192,-171.0,971.0,68.0,988.2843720306416,2021-09-02 08:18:34.342
193,-318.0,920.0,-28.0,973.811069971994,2021-09-02 08:18:34.348
194,-282.0,920.0,-28.0,962.6567404843744,2021-09-02 08:18:34.357
195,-282.0,871.0,-93.0,920.2249724931398,2021-09-02 08:18:34.358
196,-79.0,1055.0,59.0,1059.5975651161152,2021-09-02 08:18:34.368
197,-335.0,972.0,2.0,1028.111375289662,2021-09-02 08:18:34.378
198,-53.0,951.0,22.0,952.729762314582,2021-09-02 08:18:34.387
199,-354.0,991.0,-32.0,1052.8157483624568,2021-09-02 08:18:34.397
200,49.0,1006.0,25.0,1007.5028535939736,2021-09-02 08:18:34.406
201,-45.0,904.0,44.0,906.1881703046008,2021-09-02 08:18:34.416
202,-239.0,985.0,0.0,1013.5807811911196,2021-09-02 08:18:34.428
203,-105.0,985.0,0.0,990.5806378079476,2021-09-02 08:18:34.435
204,-105.0,910.0,33.0,916.6318781277464,2021-09-02 08:18:34.436
205,-170.0,885.0,33.0,901.7837878338688,2021-09-02 08:18:34.445
206,-170.0,885.0,-51.0,902.6217369418932,2021-09-02 08:18:34.446
207,-300.0,1075.0,-135.0,1124.210834318901,2021-09-02 08:18:34.455
208,-267.0,1125.0,-92.0,1159.9043063977304,2021-09-02 08:18:34.465
209,5.0,988.0,-37.0,988.7052139035172,2021-09-02 08:18:34.475
210,-272.0,1062.0,-37.0,1096.9033685790191,2021-09-02 08:18:34.484
211,-272.0,1062.0,-161.0,1108.038356736805,2021-09-02 08:18:34.485
212,-205.0,1180.0,-92.0,1201.203146849025,2021-09-02 08:18:34.494
213,-40.0,1013.0,70.0,1016.2032277059544,2021-09-02 08:18:34.505
214,-126.0,1193.0,9.0,1199.6691210496335,2021-09-02 08:18:34.514
215,-66.0,981.0,69.0,985.6358353874924,2021-09-02 08:18:34.524
216,-328.0,992.0,-142.0,1054.4249617682617,2021-09-02 08:18:34.534
217,-159.0,920.0,37.0,934.3714464815372,2021-09-02 08:18:34.550
218,-244.0,989.0,67.0,1020.8555235683452,2021-09-02 08:18:34.554
219,-324.0,895.0,-115.0,958.7627443742274,2021-09-02 08:18:34.563
220,-43.0,995.0,10.0,995.9789154394786,2021-09-02 08:18:34.574
221,-158.0,1065.0,51.0,1077.863627737758,2021-09-02 08:18:34.582
222,-334.0,847.0,-59.0,912.3847872471353,2021-09-02 08:18:34.592
223,55.0,1009.0,8.0,1010.529564139516,2021-09-02 08:18:34.602
224,-215.0,931.0,8.0,955.5364985179792,2021-09-02 08:18:34.611
225,-215.0,931.0,61.0,957.4481709210164,2021-09-02 08:18:34.612
226,-327.0,963.0,3.0,1017.0088495190196,2021-09-02 08:18:34.622
227,-244.0,972.0,41.0,1002.9960119561792,2021-09-02 08:18:34.631
228,-230.0,978.0,-23.0,1004.9442770621664,2021-09-02 08:18:34.641
229,-142.0,978.0,-23.0,988.5226350468664,2021-09-02 08:18:34.650
230,-142.0,910.0,14.0,921.1188848351768,2021-09-02 08:18:34.651
231,-170.0,935.0,-59.0,952.1586002342256,2021-09-02 08:18:34.661
232,-326.0,935.0,-59.0,991.9586684938038,2021-09-02 08:18:34.670
233,-326.0,1110.0,-96.0,1160.8583031533176,2021-09-02 08:18:34.671
234,-110.0,1110.0,-96.0,1119.5606281037217,2021-09-02 08:18:34.680
235,-110.0,1053.0,-30.0,1059.1548517568149,2021-09-02 08:18:34.681
236,-152.0,1053.0,-30.0,1064.336882758462,2021-09-02 08:18:34.689
237,-152.0,962.0,-103.0,979.3656109951992,2021-09-02 08:18:34.690
238,-256.0,1143.0,-153.0,1181.267962826386,2021-09-02 08:18:34.699
239,-77.0,1141.0,36.0,1144.1617018586142,2021-09-02 08:18:34.709
240,-86.0,1043.0,-57.0,1048.090644934874,2021-09-02 08:18:34.719
241,-381.0,939.0,-61.0,1015.1861898193848,2021-09-02 08:18:34.730
242,-154.0,966.0,-61.0,980.0984644412008,2021-09-02 08:18:34.738
243,-154.0,966.0,-128.0,986.5373789167847,2021-09-02 08:18:34.739
244,-393.0,975.0,-58.0,1052.8238219189382,2021-09-02 08:18:34.748
245,-166.0,972.0,88.0,989.9919191589394,2021-09-02 08:18:34.759
246,-353.0,944.0,20.0,1008.0401777707076,2021-09-02 08:18:34.768
247,-198.0,842.0,-103.0,871.0780676839476,2021-09-02 08:18:34.778
248,-77.0,1042.0,30.0,1045.2717350048265,2021-09-02 08:18:34.787
249,-363.0,967.0,10.0,1032.9365905030184,2021-09-02 08:18:34.797
250,-68.0,975.0,18.0,977.5341426262308,2021-09-02 08:18:34.807
251,-27.0,975.0,18.0,975.5398505443025,2021-09-02 08:18:34.816
252,-27.0,929.0,-26.0,929.75588193891,2021-09-02 08:18:34.817
253,-153.0,1018.0,36.0,1030.06261945573,2021-09-02 08:18:34.827
254,-213.0,985.0,36.0,1008.409638986062,2021-09-02 08:18:34.837
255,-213.0,985.0,-56.0,1009.3215543125988,2021-09-02 08:18:34.838
256,-115.0,899.0,-47.0,907.5433873925808,2021-09-02 08:18:34.846
257,-116.0,929.0,-24.0,936.5217562875944,2021-09-02 08:18:34.856
258,-162.0,897.0,5.0,911.5250956501416,2021-09-02 08:18:34.866
259,-269.0,973.0,-112.0,1015.693851512354,2021-09-02 08:18:34.875
260,-191.0,1147.0,-119.0,1168.8674005206922,2021-09-02 08:18:34.886
261,-14.0,972.0,-48.0,973.2851586251584,2021-09-02 08:18:34.895
262,-306.0,1025.0,-48.0,1070.7777547185035,2021-09-02 08:18:34.904
263,-306.0,1025.0,-174.0,1083.7605824166149,2021-09-02 08:18:34.905
264,-218.0,1172.0,-99.0,1196.2060859233245,2021-09-02 08:18:34.914
265,-109.0,1030.0,123.0,1043.029242159586,2021-09-02 08:18:34.924
266,-177.0,987.0,-125.0,1010.5063087383472,2021-09-02 08:18:34.934
267,-270.0,987.0,-125.0,1030.8705059317583,2021-09-02 08:18:34.943
268,-270.0,990.0,-9.0,1026.1973494411295,2021-09-02 08:18:34.944
269,-196.0,934.0,125.0,962.4951947932,2021-09-02 08:18:34.953
270,-247.0,937.0,-85.0,972.7296643980792,2021-09-02 08:18:34.963
271,-259.0,941.0,78.0,979.1046930742392,2021-09-02 08:18:34.973
272,-269.0,986.0,-95.0,1026.4414255085385,2021-09-02 08:18:34.983
273,-17.0,922.0,-29.0,922.6125947547,2021-09-02 08:18:34.994
274,-111.0,1057.0,20.0,1063.000470366782,2021-09-02 08:18:35.002
275,57.0,870.0,-78.0,875.3473596235954,2021-09-02 08:18:35.025
276,57.0,1029.0,32.0,1031.0741971361713,2021-09-02 08:18:35.027
277,-203.0,967.0,1.0,988.0784381819088,2021-09-02 08:18:35.033
278,-307.0,965.0,16.0,1012.783293701076,2021-09-02 08:18:35.041
279,-58.0,881.0,-42.0,883.9055379394339,2021-09-02 08:18:35.051
280,-200.0,881.0,-42.0,904.3920610000952,2021-09-02 08:18:35.067
281,-200.0,929.0,-31.0,950.7901976777,2021-09-02 08:18:35.068
282,-321.0,929.0,-31.0,983.3834450508102,2021-09-02 08:18:35.071
283,-321.0,1069.0,-101.0,1120.715396521347,2021-09-02 08:18:35.072
284,-43.0,1083.0,-35.0,1084.4182772343888,2021-09-02 08:18:35.080
285,-305.0,1088.0,-119.0,1136.19100506913,2021-09-02 08:18:35.091
286,-52.0,1071.0,-10.0,1072.308257918403,2021-09-02 08:18:35.102
287,-107.0,1071.0,-10.0,1076.3781863267204,2021-09-02 08:18:35.109
288,-107.0,940.0,-111.0,952.5597094145858,2021-09-02 08:18:35.110
289,-240.0,1117.0,-159.0,1153.503359336244,2021-09-02 08:18:35.119
290,15.0,1155.0,100.0,1159.41795742519,2021-09-02 08:18:35.132
291,-109.0,1051.0,-9.0,1056.6754468615234,2021-09-02 08:18:35.139
292,-283.0,935.0,-154.0,988.9539928631664,2021-09-02 08:18:35.150
293,-181.0,935.0,-154.0,964.7289774853868,2021-09-02 08:18:35.158
294,-181.0,979.0,153.0,1007.2790080211142,2021-09-02 08:18:35.159
295,-332.0,819.0,-40.0,884.6383441836557,2021-09-02 08:18:35.168
296,-293.0,928.0,-115.0,979.9275483422232,2021-09-02 08:18:35.178
297,-82.0,1091.0,97.0,1098.3687905252953,2021-09-02 08:18:35.188
298,-171.0,953.0,97.0,973.0668014067688,2021-09-02 08:18:35.198
299,-171.0,953.0,-13.0,968.307285937682,2021-09-02 08:18:35.199
300,4.0,953.0,-13.0,953.0970569674424,2021-09-02 08:18:35.208
301,4.0,1051.0,40.0,1051.7685106524154,2021-09-02 08:18:35.209
302,-356.0,963.0,-19.0,1026.8719491738004,2021-09-02 08:18:35.217
303,-79.0,913.0,5.0,916.425119690638,2021-09-02 08:18:35.227
304,6.0,913.0,5.0,913.0334057415424,2021-09-02 08:18:35.236
305,6.0,990.0,-8.0,990.050503762308,2021-09-02 08:18:35.237
306,-142.0,1018.0,-5.0,1027.868182210151,2021-09-02 08:18:35.246
307,-216.0,909.0,6.0,934.3302414028992,2021-09-02 08:18:35.266
308,-75.0,909.0,6.0,912.1085461720004,2021-09-02 08:18:35.268
309,-75.0,909.0,-57.0,913.8681524158724,2021-09-02 08:18:35.269
310,-320.0,909.0,-57.0,965.3652158639236,2021-09-02 08:18:35.276
311,-320.0,970.0,-13.0,1021.5033039594146,2021-09-02 08:18:35.277
312,-407.0,1076.0,-122.0,1156.8530589491477,2021-09-02 08:18:35.285
313,-15.0,1069.0,-24.0,1069.3745835767745,2021-09-02 08:18:35.295
314,-291.0,973.0,-138.0,1024.9165819714306,2021-09-02 08:18:35.306
315,-211.0,1223.0,-95.0,1244.698758736426,2021-09-02 08:18:35.315
316,-237.0,973.0,-137.0,1010.7754448936718,2021-09-02 08:18:35.336
317,-237.0,1236.0,-137.0,1265.951815828707,2021-09-02 08:18:35.338
318,-237.0,1236.0,-109.0,1263.2284037338616,2021-09-02 08:18:35.339
319,-120.0,1001.0,46.0,1009.216032373644,2021-09-02 08:18:35.348
320,-235.0,955.0,-71.0,986.0481732653836,2021-09-02 08:18:35.354
321,-247.0,1001.0,-47.0,1032.0944724200397,2021-09-02 08:18:35.365
322,-224.0,932.0,94.0,963.1386193066916,2021-09-02 08:18:35.373
323,-294.0,890.0,-37.0,938.0325154279036,2021-09-02 08:18:35.383
324,-181.0,889.0,-82.0,910.936880359995,2021-09-02 08:18:35.393
325,-81.0,1137.0,62.0,1141.5664676224508,2021-09-02 08:18:35.403
326,-263.0,831.0,-69.0,874.351759876996,2021-09-02 08:18:35.413
327,-133.0,959.0,-10.0,968.230344494532,2021-09-02 08:18:35.422
328,-76.0,1019.0,-10.0,1021.8791513677144,2021-09-02 08:18:35.433
329,-76.0,1019.0,85.0,1025.3594491689244,2021-09-02 08:18:35.434
330,-66.0,1019.0,85.0,1024.6667751030088,2021-09-02 08:18:35.441
331,-66.0,943.0,21.0,945.5400573217404,2021-09-02 08:18:35.442
332,-101.0,1025.0,67.0,1032.1409787427297,2021-09-02 08:18:35.451
333,-269.0,866.0,3.0,906.8219229815742,2021-09-02 08:18:35.461
334,-212.0,898.0,3.0,922.6900888163912,2021-09-02 08:18:35.471
335,-212.0,898.0,-16.0,922.8239268679588,2021-09-02 08:18:35.472
336,-128.0,898.0,-16.0,907.217724694574,2021-09-02 08:18:35.480
337,-128.0,965.0,-52.0,974.83998686964,2021-09-02 08:18:35.481
338,-303.0,1054.0,-27.0,1097.0205102913983,2021-09-02 08:18:35.491
339,-230.0,1011.0,-129.0,1044.8263013534834,2021-09-02 08:18:35.500
340,24.0,1088.0,-26.0,1088.575215591463,2021-09-02 08:18:35.510
341,-344.0,1088.0,-116.0,1146.9681774138287,2021-09-02 08:18:35.521
342,-194.0,1101.0,-116.0,1123.9630776853835,2021-09-02 08:18:35.529
343,-194.0,1101.0,-47.0,1118.9486136548005,2021-09-02 08:18:35.530
344,29.0,1011.0,7.0,1011.4400624851676,2021-09-02 08:18:35.539
345,-285.0,957.0,-142.0,1008.5821731519944,2021-09-02 08:18:35.549
346,-253.0,1092.0,63.0,1122.6940812171408,2021-09-02 08:18:35.560
347,-404.0,1041.0,-88.0,1120.107584118597,2021-09-02 08:18:35.569
348,-28.0,1009.0,60.0,1011.1701142735578,2021-09-02 08:18:35.578
349,-315.0,839.0,14.0,896.293478722232,2021-09-02 08:18:35.588
350,-376.0,908.0,-46.0,983.847549166028,2021-09-02 08:18:35.598
351,-110.0,1061.0,74.0,1069.2506721999289,2021-09-02 08:18:35.608
352,-123.0,891.0,9.0,899.4948582398902,2021-09-02 08:18:35.618
353,-284.0,891.0,9.0,935.2101368141816,2021-09-02 08:18:35.628
354,-284.0,856.0,-95.0,906.8720968251256,2021-09-02 08:18:35.629
355,-31.0,1178.0,90.0,1181.8396676368584,2021-09-02 08:18:35.637
356,-108.0,1178.0,90.0,1186.3591361809458,2021-09-02 08:18:35.646
357,-108.0,926.0,57.0,934.0176657858244,2021-09-02 08:18:35.647
358,-223.0,864.0,-45.0,893.4483756770729,2021-09-02 08:18:35.656
359,-162.0,977.0,-38.0,991.068615182622,2021-09-02 08:18:35.667
360,-174.0,991.0,42.0,1007.03574911718,2021-09-02 08:18:35.677
361,-265.0,955.0,-105.0,996.6318277077048,2021-09-02 08:18:35.686
362,-182.0,1008.0,-105.0,1029.6664508470692,2021-09-02 08:18:35.695
363,-182.0,1008.0,-23.0,1024.5569774297571,2021-09-02 08:18:35.696
364,-226.0,979.0,-121.0,1012.0069169724088,2021-09-02 08:18:35.705
365,-154.0,1048.0,-133.0,1067.5715432700515,2021-09-02 08:18:35.715
366,-119.0,1095.0,-42.0,1102.247703558506,2021-09-02 08:18:35.725
367,-318.0,1119.0,-42.0,1164.0657197942048,2021-09-02 08:18:35.734
368,-318.0,1119.0,-150.0,1172.938617319764,2021-09-02 08:18:35.735
369,-124.0,1049.0,-78.0,1059.1793993464942,2021-09-02 08:18:35.744
370,-57.0,1047.0,28.0,1048.9242107988546,2021-09-02 08:18:35.754
371,-406.0,1067.0,-69.0,1143.7158738078265,2021-09-02 08:18:35.766
372,-101.0,952.0,57.0,959.0380597244304,2021-09-02 08:18:35.774
373,-268.0,806.0,7.0,849.4168587919597,2021-09-02 08:18:35.785
374,-397.0,1093.0,0.0,1162.8662863803388,2021-09-02 08:18:35.793
375,-91.0,915.0,8.0,919.5488024025695,2021-09-02 08:18:35.803
376,-294.0,1042.0,-64.0,1084.571804907356,2021-09-02 08:18:35.813
377,24.0,978.0,-64.0,980.3856384097026,2021-09-02 08:18:35.822
378,24.0,978.0,65.0,980.4514266397904,2021-09-02 08:18:35.823
379,-115.0,899.0,-72.0,909.1809500863952,2021-09-02 08:18:35.833
380,-360.0,945.0,-58.0,1012.9111510887814,2021-09-02 08:18:35.842
381,84.0,1157.0,74.0,1162.403114242215,2021-09-02 08:18:35.852
382,-211.0,805.0,74.0,835.4771092016824,2021-09-02 08:18:35.861
383,-211.0,805.0,32.0,832.8085013975301,2021-09-02 08:18:35.862
384,-333.0,936.0,-15.0,993.5844201677078,2021-09-02 08:18:35.872
385,-110.0,936.0,-15.0,942.5608733657472,2021-09-02 08:18:35.881
386,-110.0,983.0,33.0,989.6858087292148,2021-09-02 08:18:35.882
387,-225.0,934.0,-24.0,961.018730306543,2021-09-02 08:18:35.891
388,-328.0,934.0,-24.0,990.2100787206724,2021-09-02 08:18:35.900
389,-328.0,994.0,-194.0,1064.5449732162565,2021-09-02 08:18:35.901
390,-107.0,1127.0,-19.0,1132.227450647616,2021-09-02 08:18:35.910
391,-135.0,1042.0,-64.0,1052.656164186578,2021-09-02 08:18:35.920
392,-273.0,1007.0,-64.0,1045.3104801923685,2021-09-02 08:18:35.930
393,-273.0,1007.0,-207.0,1063.6855738421953,2021-09-02 08:18:35.931
394,-194.0,1050.0,-207.0,1087.6511389227703,2021-09-02 08:18:35.941
395,-194.0,1050.0,-51.0,1068.9887744967202,2021-09-02 08:18:35.942
396,-142.0,1019.0,-199.0,1047.9150728947457,2021-09-02 08:18:35.949
397,11.0,1051.0,-8.0,1051.0880077329396,2021-09-02 08:18:35.959
398,-129.0,1131.0,-33.0,1138.8112222840095,2021-09-02 08:18:35.971
399,-256.0,1131.0,-33.0,1160.0801696434603,2021-09-02 08:18:35.978
400,-256.0,932.0,-142.0,976.8950813674926,2021-09-02 08:18:35.979
401,-170.0,953.0,78.0,971.1812395222636,2021-09-02 08:18:35.989
402,-348.0,992.0,-33.0,1051.7875260716871,2021-09-02 08:18:35.998
403,-285.0,939.0,-57.0,982.9521860192386,2021-09-02 08:18:36.008
404,-61.0,910.0,-14.0,912.1496587731642,2021-09-02 08:18:36.018
405,-219.0,961.0,-9.0,985.6789538181284,2021-09-02 08:18:36.045
406,29.0,981.0,48.0,982.6016486857734,2021-09-02 08:18:36.051
407,-81.0,1008.0,0.0,1011.2492274409904,2021-09-02 08:18:36.057
408,9.0,928.0,27.0,928.436319841054,2021-09-02 08:18:36.068
409,-128.0,928.0,27.0,937.1750103369168,2021-09-02 08:18:36.083
410,-128.0,940.0,-17.0,948.8271707745304,2021-09-02 08:18:36.084
411,-275.0,990.0,31.0,1027.9523335252468,2021-09-02 08:18:36.087
412,-45.0,919.0,-16.0,920.240186038406,2021-09-02 08:18:36.096
413,-245.0,927.0,-91.0,963.1381001704792,2021-09-02 08:18:36.107
414,-299.0,1090.0,-186.0,1145.468026616195,2021-09-02 08:18:36.118
415,-25.0,1177.0,26.0,1177.5525465982398,2021-09-02 08:18:36.125
416,-295.0,874.0,-159.0,936.045939043592,2021-09-02 08:18:36.136
417,-219.0,1143.0,-154.0,1173.9361141050224,2021-09-02 08:18:36.145
418,-82.0,1137.0,-154.0,1150.3082195655215,2021-09-02 08:18:36.154
419,-82.0,1137.0,88.0,1143.3446549488042,2021-09-02 08:18:36.155
420,-191.0,971.0,-86.0,993.3368008888024,2021-09-02 08:18:36.167
421,-102.0,1088.0,121.0,1099.449407658215,2021-09-02 08:18:36.174
422,-189.0,1017.0,-27.0,1034.7651907558543,2021-09-02 08:18:36.184
423,-136.0,866.0,-27.0,877.0296460211594,2021-09-02 08:18:36.193
424,-136.0,866.0,-71.0,879.4845081068796,2021-09-02 08:18:36.194
425,-208.0,973.0,94.0,999.4143284944438,2021-09-02 08:18:36.204
426,-270.0,1029.0,2.0,1063.8350436040355,2021-09-02 08:18:36.214
427,-209.0,779.0,-83.0,810.8088554030475,2021-09-02 08:18:36.224
428,-4.0,779.0,-83.0,783.4194278928753,2021-09-02 08:18:36.232
429,-4.0,1069.0,11.0,1069.064076657709,2021-09-02 08:18:36.233
430,-336.0,961.0,-23.0,1018.30545515577,2021-09-02 08:18:36.242
431,-58.0,962.0,40.0,964.5765910491504,2021-09-02 08:18:36.252
432,-33.0,944.0,22.0,944.832789439486,2021-09-02 08:18:36.263
433,-221.0,1040.0,-60.0,1064.9136115197325,2021-09-02 08:18:36.273
434,-272.0,885.0,14.0,925.9616622733364,2021-09-02 08:18:36.290
435,-341.0,945.0,-32.0,1005.1517298398288,2021-09-02 08:18:36.293
436,-198.0,987.0,30.0,1007.1112153084188,2021-09-02 08:18:36.302
437,-54.0,917.0,-64.0,920.8153995237049,2021-09-02 08:18:36.312
438,-386.0,996.0,-64.0,1070.0971918475443,2021-09-02 08:18:36.320
439,-386.0,996.0,-165.0,1080.8501283711817,2021-09-02 08:18:36.321
440,-198.0,1158.0,-85.0,1177.8764790927785,2021-09-02 08:18:36.330
441,-372.0,1158.0,-85.0,1219.250999589502,2021-09-02 08:18:36.355
442,-372.0,1050.0,-7.0,1113.9717231599732,2021-09-02 08:18:36.356
443,-372.0,945.0,-223.0,1039.7778608914502,2021-09-02 08:18:36.357
444,-120.0,1197.0,-74.0,1205.2738278084362,2021-09-02 08:18:36.361
445,-32.0,1120.0,44.0,1121.3206499480868,2021-09-02 08:18:36.369
446,-372.0,838.0,-132.0,926.3109629060858,2021-09-02 08:18:36.380
447,-91.0,1092.0,24.0,1096.0479004131162,2021-09-02 08:18:36.390
448,-259.0,859.0,72.0,900.0811074564336,2021-09-02 08:18:36.399
449,-85.0,980.0,108.0,989.590319273587,2021-09-02 08:18:36.408
450,-464.0,931.0,56.0,1041.725971645135,2021-09-02 08:18:36.418
451,-237.0,906.0,-95.0,941.2916657444704,2021-09-02 08:18:36.429
452,-117.0,956.0,54.0,964.6455307520996,2021-09-02 08:18:36.439
453,-208.0,1043.0,-12.0,1063.6056600075049,2021-09-02 08:18:36.449
454,-247.0,922.0,-42.0,955.4355027944064,2021-09-02 08:18:36.457
455,88.0,995.0,30.0,999.3342784073806,2021-09-02 08:18:36.467
456,-136.0,969.0,0.0,978.4973173187548,2021-09-02 08:18:36.477
457,-271.0,971.0,5.0,1008.1205285083724,2021-09-02 08:18:36.487
458,-106.0,877.0,16.0,883.5275887033749,2021-09-02 08:18:36.497
459,-220.0,954.0,-40.0,979.855091327284,2021-09-02 08:18:36.506
460,-326.0,1040.0,-107.0,1095.136977733836,2021-09-02 08:18:36.516
461,-179.0,1040.0,-107.0,1060.7025973381983,2021-09-02 08:18:36.525
462,-179.0,942.0,-81.0,962.271271523784,2021-09-02 08:18:36.526
463,-345.0,1072.0,-124.0,1132.9541032186607,2021-09-02 08:18:36.535
464,-64.0,1116.0,-13.0,1117.9092091936625,2021-09-02 08:18:36.546
465,-127.0,971.0,-146.0,990.0939349374886,2021-09-02 08:18:36.559
466,-369.0,971.0,-146.0,1048.9604377668395,2021-09-02 08:18:36.564
467,-369.0,1078.0,-184.0,1154.1667990372969,2021-09-02 08:18:36.565
468,-48.0,1228.0,41.0,1229.621486474598,2021-09-02 08:18:36.574
469,-140.0,891.0,-30.0,902.430606750458,2021-09-02 08:18:36.584
470,-353.0,1032.0,-30.0,1091.115484263696,2021-09-02 08:18:36.595
471,-353.0,1032.0,-95.0,1094.832407266062,2021-09-02 08:18:36.596
472,-137.0,1049.0,157.0,1069.494740520027,2021-09-02 08:18:36.604
473,-303.0,821.0,157.0,889.1001068496169,2021-09-02 08:18:36.613
474,-303.0,821.0,-29.0,875.6089309731829,2021-09-02 08:18:36.614
475,-313.0,948.0,-94.0,1002.750716778602,2021-09-02 08:18:36.623
476,-22.0,1057.0,65.0,1059.2251885222518,2021-09-02 08:18:36.633
477,-117.0,973.0,13.0,980.0954035194736,2021-09-02 08:18:36.644
478,-31.0,1152.0,13.0,1152.4903470311583,2021-09-02 08:18:36.652
479,-31.0,1152.0,56.0,1153.7768415079236,2021-09-02 08:18:36.653
480,-8.0,1117.0,-49.0,1118.1028575225089,2021-09-02 08:18:36.662
481,-207.0,812.0,-58.0,839.9744043719428,2021-09-02 08:18:36.672
482,-193.0,945.0,63.0,966.5624656482372,2021-09-02 08:18:36.682
483,-344.0,945.0,63.0,1007.6358469209002,2021-09-02 08:18:36.692
484,-344.0,974.0,34.0,1033.5221332898489,2021-09-02 08:18:36.693
485,-106.0,875.0,9.0,881.4431348646377,2021-09-02 08:18:36.703
486,-145.0,971.0,-118.0,988.8326450921816,2021-09-02 08:18:36.711
487,-240.0,1007.0,116.0,1041.6837331935255,2021-09-02 08:18:36.721
488,-166.0,1007.0,116.0,1027.1616231148826,2021-09-02 08:18:36.730
489,-166.0,1078.0,-65.0,1092.64129521083,2021-09-02 08:18:36.731
490,-88.0,946.0,-75.0,953.039873247704,2021-09-02 08:18:36.740
491,-114.0,1076.0,-75.0,1084.6183660624597,2021-09-02 08:18:36.751
492,-114.0,1076.0,-63.0,1083.8546950583366,2021-09-02 08:18:36.752
493,-277.0,1194.0,-53.0,1226.855329694581,2021-09-02 08:18:36.760
494,-103.0,1194.0,-53.0,1199.60576857566,2021-09-02 08:18:36.769
495,-103.0,990.0,-69.0,997.7324290610184,2021-09-02 08:18:36.770
496,-159.0,1120.0,-69.0,1133.3322549014476,2021-09-02 08:18:36.779
497,-159.0,1120.0,-57.0,1132.6649990178032,2021-09-02 08:18:36.780
498,-116.0,998.0,-78.0,1007.742030482008,2021-09-02 08:18:36.790
499,-173.0,1080.0,-156.0,1104.8370920638029,2021-09-02 08:18:36.800
500,-129.0,1080.0,-156.0,1098.8070804285892,2021-09-02 08:18:36.809
501,-129.0,1127.0,24.0,1134.6127092536906,2021-09-02 08:18:36.810
502,-265.0,1127.0,24.0,1157.9853194233508,2021-09-02 08:18:36.818
503,-265.0,1047.0,-108.0,1085.402229590487,2021-09-02 08:18:36.819
