,Acceleration_X,Acceleration_Y,Acceleration_Z,magnitude,time_stamp
0,-696.0,950.0,-138.0,1185.731841522357,2021-09-02 13:26:03.677
1,-134.0,1029.0,-202.0,1057.1664958747035,2021-09-02 13:26:03.686
2,-128.0,1029.0,-202.0,1056.4227373547012,2021-09-02 13:26:03.696
3,-128.0,927.0,205.0,957.986429966521,2021-09-02 13:26:03.697
4,-175.0,967.0,205.0,1003.8620423145802,2021-09-02 13:26:03.705
5,-175.0,967.0,-17.0,982.8545161925034,2021-09-02 13:26:03.706
6,-503.0,779.0,-148.0,939.0175717205724,2021-09-02 13:26:03.716
7,195.0,955.0,96.0,979.4212576823112,2021-09-02 13:26:03.725
8,-214.0,955.0,96.0,983.3803943540872,2021-09-02 13:26:03.734
9,-214.0,800.0,3.0,828.1334433531832,2021-09-02 13:26:03.735
10,-451.0,800.0,3.0,918.3735623372442,2021-09-02 13:26:03.744
11,-451.0,779.0,110.0,906.8307449574038,2021-09-02 13:26:03.745
12,-230.0,962.0,115.0,995.7755771256896,2021-09-02 13:26:03.756
13,-393.0,601.0,36.0,718.9895687699509,2021-09-02 13:26:03.764
14,-100.0,601.0,36.0,610.3253230859752,2021-09-02 13:26:03.781
15,-100.0,1047.0,126.0,1059.2851363065563,2021-09-02 13:26:03.782
16,-264.0,773.0,-6.0,816.8604531987088,2021-09-02 13:26:03.785
17,-298.0,868.0,-108.0,924.0627684308032,2021-09-02 13:26:03.794
18,134.0,1173.0,32.0,1181.062657101646,2021-09-02 13:26:03.805
19,-158.0,1088.0,-82.0,1102.466326016355,2021-09-02 13:26:03.816
20,-81.0,1088.0,-82.0,1094.0882048537037,2021-09-02 13:26:03.822
21,-81.0,1170.0,-249.0,1198.9420336279816,2021-09-02 13:26:03.823
22,187.0,1150.0,-45.0,1165.973413075959,2021-09-02 13:26:03.832
23,-79.0,1150.0,-45.0,1153.5883147813174,2021-09-02 13:26:03.843
24,-79.0,1140.0,8.0,1142.7620049686636,2021-09-02 13:26:03.844
25,-261.0,1001.0,-180.0,1050.0104761382145,2021-09-02 13:26:03.853
26,-207.0,988.0,-62.0,1011.3540428554188,2021-09-02 13:26:03.862
27,-281.0,1061.0,-62.0,1099.3297958301685,2021-09-02 13:26:03.871
28,-281.0,1061.0,-88.0,1101.1021750954812,2021-09-02 13:26:03.872
29,-119.0,968.0,-86.0,979.0714989212994,2021-09-02 13:26:03.881
30,-371.0,968.0,-86.0,1040.2216110041168,2021-09-02 13:26:03.890
31,-371.0,1066.0,-120.0,1135.0757683961017,2021-09-02 13:26:03.891
32,-465.0,1064.0,-145.0,1170.1905827684652,2021-09-02 13:26:03.901
33,71.0,982.0,110.0,990.6891540740718,2021-09-02 13:26:03.912
34,-259.0,844.0,-56.0,884.6202575116624,2021-09-02 13:26:03.920
35,-276.0,1031.0,-47.0,1068.3379615084357,2021-09-02 13:26:03.930
36,-12.0,955.0,257.0,989.0490382180247,2021-09-02 13:26:03.942
37,-122.0,695.0,42.0,706.8755194516217,2021-09-02 13:26:03.950
38,-377.0,695.0,42.0,791.7815355260566,2021-09-02 13:26:03.960
39,-377.0,893.0,0.0,969.3183171693394,2021-09-02 13:26:03.961
40,19.0,883.0,171.0,899.6060248797803,2021-09-02 13:26:03.969
41,-261.0,796.0,-94.0,842.9549216891731,2021-09-02 13:26:03.979
42,-14.0,850.0,148.0,862.9020801921849,2021-09-02 13:26:03.989
43,-406.0,837.0,-76.0,933.3707730585954,2021-09-02 13:26:03.999
44,-299.0,837.0,-76.0,892.0459629413722,2021-09-02 13:26:04.009
45,-299.0,1009.0,-124.0,1059.649942197894,2021-09-02 13:26:04.010
46,175.0,1162.0,119.0,1181.1138810461928,2021-09-02 13:26:04.019
47,-347.0,986.0,-290.0,1084.7603421954548,2021-09-02 13:26:04.028
48,46.0,1288.0,-149.0,1297.405487887268,2021-09-02 13:26:04.048
49,87.0,1115.0,21.0,1118.586161187416,2021-09-02 13:26:04.050
50,-121.0,1185.0,-30.0,1191.5393405171312,2021-09-02 13:26:04.058
51,-315.0,893.0,-165.0,961.1966500149696,2021-09-02 13:26:04.067
52,-120.0,1036.0,-45.0,1043.897025572925,2021-09-02 13:26:04.077
53,-318.0,1148.0,-50.0,1192.2784909575446,2021-09-02 13:26:04.086
54,-453.0,861.0,-204.0,994.0553304519824,2021-09-02 13:26:04.096
55,64.0,1057.0,114.0,1065.0544587015258,2021-09-02 13:26:04.107
56,-295.0,1057.0,114.0,1103.299596664478,2021-09-02 13:26:04.116
57,-295.0,950.0,-24.0,995.0381902218628,2021-09-02 13:26:04.117
58,170.0,938.0,-24.0,953.5827179642048,2021-09-02 13:26:04.125
59,170.0,938.0,119.0,960.6794470581746,2021-09-02 13:26:04.126
60,-413.0,947.0,-108.0,1038.7694643182383,2021-09-02 13:26:04.136
61,-257.0,978.0,-24.0,1011.4885071022804,2021-09-02 13:26:04.145
62,44.0,893.0,286.0,938.7124160252704,2021-09-02 13:26:04.156
63,-452.0,787.0,-23.0,907.8557154085664,2021-09-02 13:26:04.165
64,-241.0,845.0,58.0,880.607744685453,2021-09-02 13:26:04.175
65,17.0,726.0,101.0,733.1889251754966,2021-09-02 13:26:04.184
66,-388.0,936.0,-74.0,1015.9311000259812,2021-09-02 13:26:04.194
67,-212.0,936.0,-74.0,962.5570112985516,2021-09-02 13:26:04.204
68,-212.0,1113.0,-92.0,1136.7396359765062,2021-09-02 13:26:04.205
69,298.0,1037.0,53.0,1080.2694108415733,2021-09-02 13:26:04.213
70,-265.0,1084.0,-311.0,1158.4480998301133,2021-09-02 13:26:04.232
71,5.0,1337.0,-120.0,1342.3837007353748,2021-09-02 13:26:04.235
72,-321.0,1056.0,-368.0,1163.4435955386923,2021-09-02 13:26:04.243
73,103.0,1056.0,-368.0,1123.0178092977867,2021-09-02 13:26:04.252
74,103.0,1379.0,17.0,1382.945769001807,2021-09-02 13:26:04.253
75,29.0,1379.0,17.0,1379.4096563385367,2021-09-02 13:26:04.263
76,29.0,1121.0,-39.0,1122.0530290498752,2021-09-02 13:26:04.264
77,-284.0,975.0,-39.0,1016.2686652652436,2021-09-02 13:26:04.271
78,-284.0,975.0,-170.0,1029.6509117171702,2021-09-02 13:26:04.272
79,-259.0,1079.0,-89.0,1113.2129176397475,2021-09-02 13:26:04.282
80,-219.0,996.0,-89.0,1023.6688917809312,2021-09-02 13:26:04.295
81,-219.0,996.0,-27.0,1020.14998897221,2021-09-02 13:26:04.296
82,-356.0,1034.0,-180.0,1108.28335726925,2021-09-02 13:26:04.301
83,-274.0,1034.0,-180.0,1084.7266936883225,2021-09-02 13:26:04.311
84,-274.0,1053.0,-148.0,1098.084240848579,2021-09-02 13:26:04.312
85,46.0,1014.0,231.0,1040.9961575337345,2021-09-02 13:26:04.323
86,-402.0,788.0,231.0,914.2805915035055,2021-09-02 13:26:04.330
87,-402.0,788.0,-156.0,898.2672208201744,2021-09-02 13:26:04.331
88,-249.0,955.0,-8.0,986.959978925184,2021-09-02 13:26:04.341
89,102.0,963.0,290.0,1010.8773417185688,2021-09-02 13:26:04.350
90,-405.0,749.0,0.0,851.4845858851469,2021-09-02 13:26:04.361
91,-48.0,875.0,218.0,903.0243629050104,2021-09-02 13:26:04.369
92,-462.0,853.0,-24.0,970.3757004377222,2021-09-02 13:26:04.379
93,-20.0,807.0,-24.0,807.6044824045988,2021-09-02 13:26:04.389
94,-20.0,807.0,101.0,813.5416399914635,2021-09-02 13:26:04.390
95,-270.0,807.0,101.0,856.9422384268382,2021-09-02 13:26:04.399
96,-270.0,724.0,60.0,775.0329025273701,2021-09-02 13:26:04.400
97,-308.0,1025.0,-143.0,1079.7860899270745,2021-09-02 13:26:04.410
98,-75.0,1025.0,-143.0,1037.6410747459836,2021-09-02 13:26:04.418
99,-75.0,1056.0,39.0,1059.3781194644337,2021-09-02 13:26:04.419
100,99.0,955.0,-55.0,961.6917385524324,2021-09-02 13:26:04.428
101,-306.0,955.0,-55.0,1004.3336099125628,2021-09-02 13:26:04.437
102,-306.0,1221.0,-244.0,1282.1907034446942,2021-09-02 13:26:04.438
103,111.0,1319.0,-73.0,1325.6737909455703,2021-09-02 13:26:04.448
104,-12.0,978.0,-45.0,979.1082677620489,2021-09-02 13:26:04.458
105,-317.0,978.0,-45.0,1029.0762848302354,2021-09-02 13:26:04.467
106,-317.0,1167.0,-97.0,1213.1722878470312,2021-09-02 13:26:04.468
107,-165.0,1029.0,-68.0,1044.361048680005,2021-09-02 13:26:04.477
108,-278.0,1077.0,-164.0,1124.3260203339598,2021-09-02 13:26:04.487
109,-305.0,1110.0,0.0,1151.140738571961,2021-09-02 13:26:04.497
110,-198.0,976.0,-56.0,997.4547608789082,2021-09-02 13:26:04.506
111,-384.0,985.0,-270.0,1091.1374798805143,2021-09-02 13:26:04.517
112,-144.0,1080.0,64.0,1091.4357516592536,2021-09-02 13:26:04.526
113,8.0,1007.0,30.0,1007.4785357515068,2021-09-02 13:26:04.535
114,-416.0,785.0,-209.0,912.6675188698237,2021-09-02 13:26:04.552
115,-122.0,900.0,234.0,937.891251691794,2021-09-02 13:26:04.573
116,-462.0,721.0,-84.0,860.4307061001484,2021-09-02 13:26:04.579
117,-40.0,914.0,-84.0,918.7230268149372,2021-09-02 13:26:04.588
118,-40.0,914.0,171.0,930.7185396240908,2021-09-02 13:26:04.589
119,-1.0,739.0,20.0,739.2712627987105,2021-09-02 13:26:04.607
120,-1.0,772.0,182.0,793.1639174849042,2021-09-02 13:26:04.609
121,-344.0,856.0,-4.0,922.5443078790308,2021-09-02 13:26:04.615
122,-385.0,914.0,-141.0,1001.749469677923,2021-09-02 13:26:04.624
123,104.0,1125.0,75.0,1132.2835333961189,2021-09-02 13:26:04.633
124,-151.0,1095.0,-141.0,1114.3190745921925,2021-09-02 13:26:04.643
125,-82.0,1256.0,-167.0,1269.7042962831936,2021-09-02 13:26:04.653
126,169.0,1256.0,-167.0,1278.2746183821378,2021-09-02 13:26:04.663
127,169.0,1129.0,-36.0,1142.1462253144298,2021-09-02 13:26:04.664
128,-129.0,1022.0,-69.0,1032.4175511875028,2021-09-02 13:26:04.673
129,-314.0,1115.0,-123.0,1164.881968269747,2021-09-02 13:26:04.682
130,-158.0,961.0,-79.0,977.1008136318382,2021-09-02 13:26:04.692
131,-288.0,996.0,-98.0,1041.4240250733608,2021-09-02 13:26:04.702
132,-475.0,1069.0,-193.0,1185.594787437934,2021-09-02 13:26:04.712
133,-268.0,975.0,-142.0,1021.0842276717432,2021-09-02 13:26:04.723
134,-560.0,975.0,-142.0,1133.3088722850448,2021-09-02 13:26:04.730
135,-560.0,1062.0,-96.0,1204.4334767848327,2021-09-02 13:26:04.731
136,-82.0,1053.0,133.0,1064.5290038322112,2021-09-02 13:26:04.741
137,-264.0,777.0,133.0,831.3326650625488,2021-09-02 13:26:04.750
138,-264.0,777.0,29.0,821.1370165812767,2021-09-02 13:26:04.751
139,-311.0,996.0,-112.0,1049.4193632671354,2021-09-02 13:26:04.761
140,-101.0,953.0,-112.0,964.859575275076,2021-09-02 13:26:04.771
141,-101.0,953.0,278.0,997.8446772920122,2021-09-02 13:26:04.772
142,-76.0,757.0,105.0,768.016926896797,2021-09-02 13:26:04.780
143,-398.0,814.0,-106.0,912.269696964664,2021-09-02 13:26:04.797
144,-15.0,924.0,224.0,950.8822219391842,2021-09-02 13:26:04.801
145,-250.0,924.0,224.0,983.0829059647004,2021-09-02 13:26:04.809
146,-250.0,815.0,-39.0,853.3733063554308,2021-09-02 13:26:04.810
147,-396.0,852.0,-134.0,949.03951445659,2021-09-02 13:26:04.820
148,158.0,1191.0,73.0,1203.6502814356004,2021-09-02 13:26:04.832
149,-342.0,980.0,-135.0,1046.703874073274,2021-09-02 13:26:04.839
150,-75.0,1246.0,-135.0,1255.5341492767132,2021-09-02 13:26:04.848
151,-75.0,1246.0,-207.0,1265.302335412371,2021-09-02 13:26:04.849
152,-333.0,1075.0,-207.0,1144.2740056472487,2021-09-02 13:26:04.858
153,-333.0,1075.0,-212.0,1145.1890673596215,2021-09-02 13:26:04.859
154,36.0,1259.0,-140.0,1267.2714784133666,2021-09-02 13:26:04.868
155,34.0,1109.0,-140.0,1118.31882752639,2021-09-02 13:26:04.878
156,34.0,1109.0,14.0,1109.6093907317115,2021-09-02 13:26:04.879
157,-129.0,1163.0,-59.0,1171.6189653637398,2021-09-02 13:26:04.887
158,-422.0,1008.0,-131.0,1100.59483916653,2021-09-02 13:26:04.897
159,-145.0,930.0,-67.0,943.6175072559856,2021-09-02 13:26:04.907
160,-285.0,1204.0,-44.0,1238.0537145051503,2021-09-02 13:26:04.917
161,-510.0,1204.0,-44.0,1308.3011885647738,2021-09-02 13:26:04.927
162,-510.0,978.0,-193.0,1119.7468463898435,2021-09-02 13:26:04.928
163,121.0,964.0,112.0,977.998466256466,2021-09-02 13:26:04.936
164,-395.0,858.0,-12.0,944.6337914768876,2021-09-02 13:26:04.946
165,-310.0,1047.0,-20.0,1092.112173725758,2021-09-02 13:26:04.956
166,-9.0,849.0,242.0,882.8623901832041,2021-09-02 13:26:04.967
167,-344.0,1087.0,60.0,1141.7114346453748,2021-09-02 13:26:04.975
168,70.0,802.0,345.0,875.859006918351,2021-09-02 13:26:04.985
169,-452.0,725.0,-60.0,856.4630756781054,2021-09-02 13:26:04.995
170,-335.0,873.0,-60.0,936.9919956968682,2021-09-02 13:26:05.004
171,-335.0,873.0,44.0,936.1036267422534,2021-09-02 13:26:05.005
172,-139.0,873.0,44.0,885.0909557779923,2021-09-02 13:26:05.014
173,-139.0,740.0,226.0,786.1278521970838,2021-09-02 13:26:05.015
174,-386.0,841.0,-70.0,927.9962284406116,2021-09-02 13:26:05.025
175,-194.0,1038.0,-87.0,1059.5513201350843,2021-09-02 13:26:05.035
176,146.0,1038.0,-87.0,1051.821752960073,2021-09-02 13:26:05.043
177,146.0,1156.0,101.0,1169.5524785147522,2021-09-02 13:26:05.044
178,27.0,1156.0,101.0,1160.7178813131122,2021-09-02 13:26:05.066
179,27.0,1061.0,-314.0,1106.8179615456193,2021-09-02 13:26:05.067
180,27.0,1284.0,-137.0,1291.5703620012346,2021-09-02 13:26:05.068
181,66.0,1171.0,10.0,1172.901104100427,2021-09-02 13:26:05.073
182,-139.0,1065.0,-95.0,1078.2258576012728,2021-09-02 13:26:05.083
183,-387.0,1006.0,-205.0,1097.1918701849736,2021-09-02 13:26:05.093
184,-306.0,1000.0,-187.0,1062.358225835335,2021-09-02 13:26:05.103
185,-191.0,1060.0,-142.0,1086.3908136577738,2021-09-02 13:26:05.113
186,-254.0,1048.0,-21.0,1078.5457802059216,2021-09-02 13:26:05.123
187,-373.0,992.0,-141.0,1069.1463884800808,2021-09-02 13:26:05.131
188,-184.0,1107.0,-171.0,1135.141400883608,2021-09-02 13:26:05.142
189,-76.0,970.0,85.0,976.678555103981,2021-09-02 13:26:05.151
190,-494.0,883.0,-67.0,1014.0088757007998,2021-09-02 13:26:05.161
191,-211.0,934.0,60.0,959.414925879309,2021-09-02 13:26:05.172
192,32.0,934.0,60.0,936.472103161648,2021-09-02 13:26:05.180
193,32.0,880.0,316.0,935.564001017568,2021-09-02 13:26:05.181
194,-406.0,789.0,20.0,887.5567587484194,2021-09-02 13:26:05.190
195,-158.0,892.0,84.0,909.7713998582282,2021-09-02 13:26:05.200
196,-110.0,725.0,60.0,735.7479187874064,2021-09-02 13:26:05.210
197,19.0,912.0,60.0,914.1690215709564,2021-09-02 13:26:05.220
198,19.0,912.0,109.0,918.6871066908471,2021-09-02 13:26:05.221
199,-243.0,912.0,109.0,950.0915745337394,2021-09-02 13:26:05.229
200,-243.0,625.0,46.0,672.1532563337025,2021-09-02 13:26:05.230
201,16.0,625.0,46.0,626.8947280046308,2021-09-02 13:26:05.251
202,16.0,1053.0,-206.0,1073.0801461214348,2021-09-02 13:26:05.252
203,16.0,1103.0,108.0,1108.390274226547,2021-09-02 13:26:05.253
204,4.0,997.0,-111.0,1003.1679819451974,2021-09-02 13:26:05.260
205,-239.0,1087.0,-359.0,1169.4319133664858,2021-09-02 13:26:05.273
206,128.0,1391.0,-24.0,1397.0830326075827,2021-09-02 13:26:05.278
207,-105.0,1008.0,-27.0,1013.813592333423,2021-09-02 13:26:05.288
208,-276.0,1063.0,-107.0,1103.4464191794723,2021-09-02 13:26:05.300
209,-192.0,1102.0,-81.0,1121.5297588561791,2021-09-02 13:26:05.309
210,-264.0,931.0,-7.0,967.7324010283008,2021-09-02 13:26:05.323
211,-463.0,1057.0,-267.0,1184.4437513026949,2021-09-02 13:26:05.327
212,-286.0,1078.0,10.0,1115.3385136361069,2021-09-02 13:26:05.337
213,-315.0,912.0,-282.0,1005.2328088557396,2021-09-02 13:26:05.347
214,-183.0,912.0,-282.0,971.9861110118808,2021-09-02 13:26:05.356
215,-183.0,1081.0,-25.0,1096.665400201903,2021-09-02 13:26:05.357
216,-68.0,1013.0,87.0,1019.0004906770164,2021-09-02 13:26:05.366
217,-375.0,799.0,87.0,886.9019111491417,2021-09-02 13:26:05.375
218,-375.0,799.0,-160.0,897.0094759811626,2021-09-02 13:26:05.376
219,25.0,955.0,79.0,958.5880241271534,2021-09-02 13:26:05.385
220,-139.0,896.0,192.0,926.8230683361307,2021-09-02 13:26:05.395
221,-385.0,848.0,-75.0,934.3200736364386,2021-09-02 13:26:05.406
222,-44.0,759.0,138.0,772.6972240146848,2021-09-02 13:26:05.415
223,-339.0,750.0,138.0,834.544786095989,2021-09-02 13:26:05.424
224,-339.0,750.0,-28.0,823.5320273067708,2021-09-02 13:26:05.425
225,-430.0,1019.0,-127.0,1113.278940787079,2021-09-02 13:26:05.434
226,26.0,1117.0,100.0,1121.768692734826,2021-09-02 13:26:05.444
227,-368.0,1117.0,100.0,1180.3020799778335,2021-09-02 13:26:05.454
228,-368.0,1045.0,-144.0,1117.2220012155149,2021-09-02 13:26:05.455
229,164.0,1147.0,76.0,1161.155028409213,2021-09-02 13:26:05.465
230,-123.0,944.0,-174.0,967.7504843708424,2021-09-02 13:26:05.473
231,-175.0,1259.0,-244.0,1294.3113999343434,2021-09-02 13:26:05.483
232,225.0,1273.0,31.0,1293.1028574711297,2021-09-02 13:26:05.493
233,-134.0,989.0,-152.0,1009.5449469934462,2021-09-02 13:26:05.503
234,-270.0,1098.0,-164.0,1142.5410277097274,2021-09-02 13:26:05.514
235,-184.0,1126.0,19.0,1141.092897182346,2021-09-02 13:26:05.522
236,-211.0,928.0,-116.0,958.728845920472,2021-09-02 13:26:05.532
237,-456.0,1032.0,-205.0,1146.7279537885174,2021-09-02 13:26:05.542
238,-94.0,1142.0,56.0,1147.229706728343,2021-09-02 13:26:05.552
239,-190.0,1142.0,56.0,1159.0513362228612,2021-09-02 13:26:05.561
240,-190.0,792.0,47.0,815.82657470813,2021-09-02 13:26:05.562
241,-334.0,874.0,-167.0,950.4320070368,2021-09-02 13:26:05.571
242,-369.0,773.0,-30.0,857.0822597627372,2021-09-02 13:26:05.581
243,-255.0,921.0,-85.0,959.4222219648656,2021-09-02 13:26:05.590
244,-52.0,997.0,212.0,1020.6159904685012,2021-09-02 13:26:05.601
245,-130.0,815.0,86.0,829.7716553365751,2021-09-02 13:26:05.611
246,-311.0,792.0,-63.0,853.2022034664468,2021-09-02 13:26:05.621
247,20.0,820.0,182.0,840.1928350087259,2021-09-02 13:26:05.630
248,-423.0,905.0,-51.0,1000.277461507556,2021-09-02 13:26:05.639
249,-237.0,969.0,-51.0,998.864855723736,2021-09-02 13:26:05.649
250,-237.0,969.0,-133.0,1006.3890897659812,2021-09-02 13:26:05.650
251,168.0,1101.0,19.0,1113.9057410750695,2021-09-02 13:26:05.660
252,-190.0,1101.0,19.0,1117.4354567490689,2021-09-02 13:26:05.669
253,-190.0,1044.0,-169.0,1074.5217540841134,2021-09-02 13:26:05.670
254,-122.0,1296.0,-238.0,1323.307976247404,2021-09-02 13:26:05.678
255,60.0,1063.0,-90.0,1068.489120206659,2021-09-02 13:26:05.689
256,-118.0,1097.0,-37.0,1103.9483683578685,2021-09-02 13:26:05.698
257,34.0,986.0,-6.0,986.6042773067628,2021-09-02 13:26:05.709
258,-146.0,1135.0,-124.0,1151.050389861365,2021-09-02 13:26:05.719
259,-304.0,990.0,-101.0,1040.5368806534443,2021-09-02 13:26:05.728
260,-115.0,990.0,-101.0,1001.761448649328,2021-09-02 13:26:05.736
261,-115.0,999.0,-78.0,1008.6178661911556,2021-09-02 13:26:05.737
262,-342.0,1051.0,-123.0,1112.06744399789,2021-09-02 13:26:05.747
263,-447.0,1078.0,-184.0,1181.4182155358872,2021-09-02 13:26:05.756
264,151.0,1078.0,-184.0,1103.9660320861326,2021-09-02 13:26:05.766
265,151.0,1027.0,134.0,1046.6546708442092,2021-09-02 13:26:05.767
266,-238.0,740.0,134.0,788.7965517166008,2021-09-02 13:26:05.777
267,-238.0,740.0,-63.0,779.8801189926564,2021-09-02 13:26:05.778
268,-384.0,1080.0,-74.0,1148.6217828336703,2021-09-02 13:26:05.786
269,89.0,974.0,267.0,1013.8471285159316,2021-09-02 13:26:05.795
270,-231.0,701.0,11.0,738.1619063593027,2021-09-02 13:26:05.805
271,-341.0,781.0,-51.0,853.7230229998486,2021-09-02 13:26:05.821
272,-527.0,589.0,-35.0,791.1226200785818,2021-09-02 13:26:05.825
273,-161.0,589.0,-35.0,611.6101699612262,2021-09-02 13:26:05.834
274,-161.0,915.0,33.0,929.6424043684756,2021-09-02 13:26:05.835
275,-163.0,758.0,33.0,776.029638609248,2021-09-02 13:26:05.844
276,-163.0,758.0,186.0,797.3261566009232,2021-09-02 13:26:05.845
277,-443.0,877.0,-39.0,983.3102257171944,2021-09-02 13:26:05.855
278,-72.0,1016.0,-39.0,1019.2943637634812,2021-09-02 13:26:05.864
279,-72.0,1016.0,-79.0,1021.6070673208952,2021-09-02 13:26:05.865
280,103.0,1109.0,48.0,1114.8067097035253,2021-09-02 13:26:05.874
281,-334.0,1105.0,-297.0,1191.968959327381,2021-09-02 13:26:05.884
282,162.0,1105.0,-297.0,1155.6288331466983,2021-09-02 13:26:05.893
283,162.0,1245.0,-106.0,1259.9623010233283,2021-09-02 13:26:05.894
284,83.0,1122.0,-10.0,1125.110216823223,2021-09-02 13:26:05.904
285,-285.0,1122.0,-10.0,1157.6739610097482,2021-09-02 13:26:05.912
286,-285.0,1121.0,-115.0,1162.3644006936895,2021-09-02 13:26:05.913
287,-268.0,1121.0,-115.0,1158.313429085582,2021-09-02 13:26:05.922
288,-268.0,950.0,-116.0,993.871219021861,2021-09-02 13:26:05.923
289,-11.0,1013.0,-107.0,1018.6947531032052,2021-09-02 13:26:05.933
290,-429.0,1136.0,-35.0,1214.809450078489,2021-09-02 13:26:05.942
291,-212.0,1136.0,-35.0,1156.1422922806692,2021-09-02 13:26:05.952
292,-212.0,962.0,-75.0,987.9337022290514,2021-09-02 13:26:05.953
293,-458.0,1099.0,-167.0,1202.2703522918628,2021-09-02 13:26:05.963
294,-232.0,1099.0,-167.0,1135.5676994349567,2021-09-02 13:26:05.972
295,-232.0,1118.0,-39.0,1142.483697914329,2021-09-02 13:26:05.973
296,-102.0,1118.0,-39.0,1123.320524160402,2021-09-02 13:26:05.981
297,-102.0,840.0,113.0,853.6820251123951,2021-09-02 13:26:05.982
298,-389.0,817.0,-80.0,908.4107000690822,2021-09-02 13:26:05.991
299,-194.0,1020.0,63.0,1040.1946933146698,2021-09-02 13:26:06.001
300,0.0,1020.0,63.0,1021.943736220346,2021-09-02 13:26:06.011
301,0.0,814.0,212.0,841.1539692588985,2021-09-02 13:26:06.012
302,-511.0,772.0,-40.0,926.66336929869,2021-09-02 13:26:06.020
303,52.0,933.0,73.0,937.2950442630112,2021-09-02 13:26:06.030
304,-162.0,933.0,73.0,949.7694457077464,2021-09-02 13:26:06.039
305,-162.0,711.0,147.0,743.8911210654419,2021-09-02 13:26:06.040
306,-374.0,930.0,-159.0,1014.9172380051488,2021-09-02 13:26:06.050
307,-29.0,1129.0,-20.0,1129.549467708254,2021-09-02 13:26:06.060
308,-398.0,1129.0,-20.0,1197.2656346859706,2021-09-02 13:26:06.080
309,-398.0,835.0,-162.0,939.0809336793076,2021-09-02 13:26:06.081
310,51.0,1172.0,50.0,1174.174177879926,2021-09-02 13:26:06.084
311,-118.0,1020.0,-37.0,1027.4692209501948,2021-09-02 13:26:06.088
312,-196.0,1167.0,-37.0,1183.9231393971486,2021-09-02 13:26:06.098
313,-196.0,1167.0,-342.0,1231.7747358993852,2021-09-02 13:26:06.099
314,255.0,1226.0,-99.0,1256.145692187017,2021-09-02 13:26:06.108
315,-138.0,1117.0,44.0,1126.3520763952984,2021-09-02 13:26:06.117
316,-377.0,1071.0,44.0,1136.2684541955743,2021-09-02 13:26:06.129
317,-377.0,1071.0,-136.0,1143.5322470311014,2021-09-02 13:26:06.130
318,-157.0,991.0,-105.0,1008.8384409805168,2021-09-02 13:26:06.137
319,-296.0,1041.0,-1.0,1082.2652170332371,2021-09-02 13:26:06.147
320,-341.0,1027.0,-168.0,1095.0954296315915,2021-09-02 13:26:06.157
321,-280.0,953.0,-168.0,1007.3891998626946,2021-09-02 13:26:06.166
322,-280.0,953.0,-65.0,995.4064496475798,2021-09-02 13:26:06.167
323,-61.0,993.0,86.0,998.581994630386,2021-09-02 13:26:06.178
324,-46.0,962.0,25.0,963.4235828543954,2021-09-02 13:26:06.186
325,-304.0,1010.0,30.0,1055.1852917852864,2021-09-02 13:26:06.196
326,-332.0,952.0,-68.0,1010.5206578788976,2021-09-02 13:26:06.206
327,6.0,957.0,198.0,977.2865495851256,2021-09-02 13:26:06.216
328,-165.0,732.0,103.0,757.4021388932039,2021-09-02 13:26:06.227
329,-446.0,898.0,103.0,1007.9330334898248,2021-09-02 13:26:06.234
330,-446.0,898.0,-72.0,1005.2382802102196,2021-09-02 13:26:06.235
331,-305.0,858.0,253.0,945.0915299588712,2021-09-02 13:26:06.260
332,-305.0,706.0,-61.0,771.4803950846709,2021-09-02 13:26:06.262
333,-454.0,968.0,-190.0,1085.9281744203895,2021-09-02 13:26:06.265
334,137.0,1221.0,148.0,1237.5435345877736,2021-09-02 13:26:06.274
335,-120.0,1016.0,-177.0,1038.2605645983092,2021-09-02 13:26:06.284
336,-150.0,1103.0,-318.0,1157.684326576118,2021-09-02 13:26:06.295
337,-285.0,964.0,-196.0,1024.1762543624998,2021-09-02 13:26:06.305
338,-44.0,1200.0,-226.0,1221.8887019692097,2021-09-02 13:26:06.313
339,157.0,1209.0,13.0,1219.2206527122153,2021-09-02 13:26:06.323
340,-201.0,1112.0,-44.0,1130.8762089636514,2021-09-02 13:26:06.336
341,-324.0,1112.0,-44.0,1159.075493658631,2021-09-02 13:26:06.342
342,-324.0,904.0,-187.0,978.3460532960718,2021-09-02 13:26:06.343
343,-110.0,1106.0,-22.0,1111.6744127666157,2021-09-02 13:26:06.354
344,-336.0,1110.0,-71.0,1161.910926017997,2021-09-02 13:26:06.363
345,-463.0,862.0,-168.0,992.792526160426,2021-09-02 13:26:06.372
346,62.0,1114.0,87.0,1119.1108077397876,2021-09-02 13:26:06.381
347,-409.0,855.0,4.0,947.7985017924432,2021-09-02 13:26:06.392
348,-271.0,954.0,-55.0,993.2683423929304,2021-09-02 13:26:06.402
349,-4.0,861.0,152.0,874.3231667981811,2021-09-02 13:26:06.411
350,-238.0,941.0,-17.0,970.780098683528,2021-09-02 13:26:06.421
351,38.0,911.0,247.0,944.6554927591328,2021-09-02 13:26:06.431
352,-525.0,772.0,-55.0,935.2186910022704,2021-09-02 13:26:06.440
353,-239.0,882.0,130.0,923.008667348254,2021-09-02 13:26:06.451
354,35.0,785.0,130.0,796.4609218285602,2021-09-02 13:26:06.459
355,35.0,785.0,228.0,818.1894646107343,2021-09-02 13:26:06.460
356,-439.0,776.0,228.0,920.2613759144735,2021-09-02 13:26:06.469
357,-439.0,776.0,-74.0,894.6356800396461,2021-09-02 13:26:06.470
358,-344.0,1064.0,-104.0,1123.0529818312225,2021-09-02 13:26:06.480
359,226.0,1127.0,136.0,1157.454534744238,2021-09-02 13:26:06.489
360,-329.0,945.0,-309.0,1047.2568930305497,2021-09-02 13:26:06.500
361,-17.0,1314.0,-145.0,1322.0854737875309,2021-09-02 13:26:06.509
362,21.0,1179.0,78.0,1181.7639358179788,2021-09-02 13:26:06.519
363,-228.0,1002.0,-130.0,1035.8030700862014,2021-09-02 13:26:06.528
364,25.0,1127.0,10.0,1127.3216045122172,2021-09-02 13:26:06.538
365,-461.0,1057.0,-77.0,1155.7244481276668,2021-09-02 13:26:06.547
366,-214.0,956.0,-143.0,990.0409082457148,2021-09-02 13:26:06.558
367,-147.0,1039.0,15.0,1049.4546202671177,2021-09-02 13:26:06.567
368,-459.0,1051.0,-208.0,1165.5668149016597,2021-09-02 13:26:06.577
369,-276.0,923.0,-123.0,971.2023476083652,2021-09-02 13:26:06.587
370,66.0,1085.0,180.0,1101.808059509459,2021-09-02 13:26:06.597
371,-472.0,796.0,-167.0,940.3664179456856,2021-09-02 13:26:06.607
372,-97.0,971.0,23.0,976.1039903616828,2021-09-02 13:26:06.616
373,1.0,917.0,200.0,938.5574036786456,2021-09-02 13:26:06.626
374,-590.0,766.0,65.0,969.0619175264292,2021-09-02 13:26:06.636
375,-42.0,830.0,63.0,833.4464589882184,2021-09-02 13:26:06.647
376,-124.0,700.0,96.0,717.3506813267832,2021-09-02 13:26:06.655
377,12.0,886.0,161.0,900.5892515458976,2021-09-02 13:26:06.665
378,-268.0,581.0,10.0,639.9101499429431,2021-09-02 13:26:06.674
379,-465.0,1040.0,-198.0,1156.2997016344857,2021-09-02 13:26:06.685
380,-40.0,1139.0,109.0,1144.9026159460027,2021-09-02 13:26:06.695
381,187.0,1139.0,109.0,1159.3838881060924,2021-09-02 13:26:06.703
382,187.0,1019.0,-41.0,1036.82737232386,2021-09-02 13:26:06.704
383,-330.0,1019.0,-41.0,1071.8871209227211,2021-09-02 13:26:06.713
384,-330.0,1121.0,-282.0,1202.108564148846,2021-09-02 13:26:06.714
385,148.0,1337.0,-55.0,1346.2904590020685,2021-09-02 13:26:06.723
386,29.0,1084.0,-27.0,1084.7239280111785,2021-09-02 13:26:06.733
387,-364.0,986.0,-176.0,1065.677249452197,2021-09-02 13:26:06.743
388,-110.0,1154.0,-43.0,1160.0280169030402,2021-09-02 13:26:06.753
389,-238.0,965.0,-67.0,996.1716719521792,2021-09-02 13:26:06.762
390,-340.0,970.0,-266.0,1061.7231277503563,2021-09-02 13:26:06.772
391,-303.0,1221.0,-29.0,1258.3683880326937,2021-09-02 13:26:06.782
392,-471.0,1005.0,-300.0,1149.7243147815914,2021-09-02 13:26:06.792
393,-140.0,1119.0,37.0,1128.3306253044805,2021-09-02 13:26:06.802
394,-113.0,1119.0,37.0,1125.299515684602,2021-09-02 13:26:06.811
395,-113.0,960.0,59.0,968.4265589088312,2021-09-02 13:26:06.812
396,-444.0,781.0,-165.0,913.4122836923094,2021-09-02 13:26:06.821
397,7.0,1013.0,91.0,1017.103239597633,2021-09-02 13:26:06.837
398,-76.0,1013.0,91.0,1019.9147023158358,2021-09-02 13:26:06.841
399,-76.0,919.0,182.0,939.9260609218152,2021-09-02 13:26:06.842
400,-501.0,919.0,182.0,1062.396347885289,2021-09-02 13:26:06.850
401,-501.0,762.0,-33.0,912.5426017452556,2021-09-02 13:26:06.851
402,53.0,762.0,-33.0,764.5534644483668,2021-09-02 13:26:06.860
403,53.0,905.0,131.0,915.9667024515684,2021-09-02 13:26:06.861
404,-251.0,905.0,131.0,948.2547126168158,2021-09-02 13:26:06.869
405,-251.0,714.0,53.0,758.6870237456286,2021-09-02 13:26:06.870
406,-466.0,1019.0,-110.0,1125.8849852449405,2021-09-02 13:26:06.880
407,92.0,1009.0,31.0,1013.659706213086,2021-09-02 13:26:06.889
408,98.0,1009.0,31.0,1014.2218692179734,2021-09-02 13:26:06.899
409,98.0,1074.0,-20.0,1078.647301021052,2021-09-02 13:26:06.900
410,-399.0,1130.0,-266.0,1227.5410380105425,2021-09-02 13:26:06.909
411,-153.0,966.0,-266.0,1013.5684486012772,2021-09-02 13:26:06.918
412,-153.0,966.0,-175.0,993.5743555466796,2021-09-02 13:26:06.919
413,-177.0,1311.0,-174.0,1334.2885744845453,2021-09-02 13:26:06.929
414,273.0,1311.0,-174.0,1350.3799465335674,2021-09-02 13:26:06.937
415,273.0,1154.0,-68.0,1187.800067351404,2021-09-02 13:26:06.938
416,-105.0,978.0,-68.0,985.9680522207605,2021-09-02 13:26:06.948
417,-105.0,978.0,-77.0,986.6296164214816,2021-09-02 13:26:06.949
418,-264.0,1214.0,-132.0,1249.3662393389698,2021-09-02 13:26:06.958
419,-259.0,1214.0,-132.0,1248.3192700587458,2021-09-02 13:26:06.967
420,-259.0,956.0,-40.0,991.2703970158698,2021-09-02 13:26:06.968
421,-241.0,975.0,-102.0,1009.509782022938,2021-09-02 13:26:06.977
422,-390.0,1057.0,-195.0,1143.4045653223534,2021-09-02 13:26:06.987
423,-105.0,1060.0,39.0,1065.9014963869786,2021-09-02 13:26:06.997
424,-116.0,1060.0,39.0,1067.0412363165726,2021-09-02 13:26:07.006
425,-116.0,912.0,-34.0,919.9760866457344,2021-09-02 13:26:07.007
426,-419.0,903.0,-90.0,999.5348918371984,2021-09-02 13:26:07.017
427,-73.0,903.0,-90.0,910.4054042018864,2021-09-02 13:26:07.025
428,-73.0,1001.0,68.0,1005.959243707219,2021-09-02 13:26:07.026
429,-267.0,927.0,-122.0,972.3692714190428,2021-09-02 13:26:07.037
430,-27.0,927.0,-122.0,935.383343875654,2021-09-02 13:26:07.045
431,-27.0,1047.0,234.0,1073.1700703989093,2021-09-02 13:26:07.046
432,-127.0,761.0,110.0,779.3266324205788,2021-09-02 13:26:07.056
433,-476.0,795.0,-121.0,934.4741836990468,2021-09-02 13:26:07.066
434,-4.0,901.0,263.0,938.6085446020614,2021-09-02 13:26:07.075
435,-492.0,780.0,-68.0,924.7096841711998,2021-09-02 13:26:07.097
436,-492.0,873.0,-154.0,1013.8584713854297,2021-09-02 13:26:07.101
437,227.0,1162.0,53.0,1185.150623338654,2021-09-02 13:26:07.106
438,-99.0,1126.0,-90.0,1133.9210730910684,2021-09-02 13:26:07.114
439,-191.0,1120.0,-304.0,1176.1364716732494,2021-09-02 13:26:07.124
440,281.0,1191.0,-52.0,1224.8044741916972,2021-09-02 13:26:07.133
441,-101.0,1179.0,-52.0,1184.460214612547,2021-09-02 13:26:07.143
442,-101.0,1179.0,1.0,1183.31863840641,2021-09-02 13:26:07.144
443,227.0,1083.0,-1.0,1106.5346808844267,2021-09-02 13:26:07.154
444,-102.0,1168.0,-122.0,1178.7756359884606,2021-09-02 13:26:07.163
445,-371.0,1051.0,-102.0,1119.2166903687596,2021-09-02 13:26:07.173
446,-24.0,907.0,-101.0,912.9216833880112,2021-09-02 13:26:07.183
447,-322.0,1166.0,-79.0,1212.2215144106294,2021-09-02 13:26:07.192
448,-464.0,980.0,-147.0,1094.2143300103503,2021-09-02 13:26:07.203
449,67.0,976.0,74.0,981.0917388297588,2021-09-02 13:26:07.212
450,-360.0,894.0,-18.0,963.92945799991,2021-09-02 13:26:07.221
451,-291.0,1031.0,-68.0,1073.4365374813733,2021-09-02 13:26:07.231
452,-2.0,888.0,143.0,899.4426051727814,2021-09-02 13:26:07.241
453,-178.0,888.0,143.0,916.8843983840056,2021-09-02 13:26:07.251
454,-178.0,769.0,59.0,791.533953788465,2021-09-02 13:26:07.252
455,-331.0,854.0,-46.0,917.0567048988846,2021-09-02 13:26:07.261
456,-343.0,854.0,213.0,944.634320782386,2021-09-02 13:26:07.283
457,-343.0,761.0,-69.0,837.5744743006439,2021-09-02 13:26:07.285
458,-5.0,822.0,170.0,839.4099117832717,2021-09-02 13:26:07.289
459,-406.0,787.0,-74.0,888.6399720921854,2021-09-02 13:26:07.303
460,-333.0,982.0,-134.0,1045.5472251409783,2021-09-02 13:26:07.310
461,201.0,1175.0,133.0,1199.464463833756,2021-09-02 13:26:07.319
462,-258.0,951.0,-212.0,1007.9231121469534,2021-09-02 13:26:07.329
463,-12.0,1268.0,-223.0,1287.515825145462,2021-09-02 13:26:07.340
464,79.0,1188.0,46.0,1191.512064563343,2021-09-02 13:26:07.354
465,-150.0,1096.0,-54.0,1107.534198117602,2021-09-02 13:26:07.359
466,-284.0,894.0,-233.0,966.53039269337,2021-09-02 13:26:07.368
467,-119.0,1075.0,-233.0,1106.3792297399657,2021-09-02 13:26:07.377
468,-119.0,1075.0,22.0,1081.7901829837429,2021-09-02 13:26:07.378
469,-310.0,1125.0,-63.0,1168.6291113950567,2021-09-02 13:26:07.388
470,-439.0,870.0,-235.0,1002.420071626661,2021-09-02 13:26:07.398
471,-405.0,1107.0,-111.0,1183.9742395846288,2021-09-02 13:26:07.407
472,-349.0,965.0,-185.0,1042.713287534018,2021-09-02 13:26:07.417
473,145.0,1021.0,223.0,1055.0805656441596,2021-09-02 13:26:07.426
474,-490.0,922.0,223.0,1067.6670829429931,2021-09-02 13:26:07.436
475,-490.0,922.0,-102.0,1049.0891287207205,2021-09-02 13:26:07.437
476,-177.0,895.0,-16.0,912.474657182324,2021-09-02 13:26:07.446
477,98.0,895.0,-16.0,900.4915324421435,2021-09-02 13:26:07.455
478,98.0,936.0,183.0,958.7434484782672,2021-09-02 13:26:07.456
479,-393.0,798.0,8.0,889.5600035972841,2021-09-02 13:26:07.465
480,-283.0,877.0,120.0,929.3104970891052,2021-09-02 13:26:07.475
481,11.0,877.0,120.0,885.2400804301622,2021-09-02 13:26:07.485
482,11.0,691.0,133.0,703.7691382832868,2021-09-02 13:26:07.486
483,-439.0,923.0,-106.0,1027.563136746351,2021-09-02 13:26:07.494
484,-289.0,923.0,-106.0,972.9779031406624,2021-09-02 13:26:07.505
485,-289.0,1045.0,8.0,1084.255504943369,2021-09-02 13:26:07.506
486,258.0,1009.0,105.0,1046.742566250174,2021-09-02 13:26:07.515
487,-467.0,963.0,105.0,1075.3989957220529,2021-09-02 13:26:07.523
488,-467.0,963.0,35.0,1070.832853436987,2021-09-02 13:26:07.524
489,245.0,1301.0,-152.0,1332.565195403212,2021-09-02 13:26:07.534
490,-197.0,1109.0,-218.0,1147.263701160287,2021-09-02 13:26:07.544
491,-44.0,994.0,-218.0,1018.5754758485008,2021-09-02 13:26:07.557
492,-44.0,994.0,-128.0,1003.172966142928,2021-09-02 13:26:07.558
493,-119.0,1015.0,-31.0,1022.422124173768,2021-09-02 13:26:07.563
494,-249.0,988.0,-172.0,1033.3097309132436,2021-09-02 13:26:07.573
495,-164.0,1235.0,-242.0,1269.1276531539293,2021-09-02 13:26:07.583
496,-172.0,1108.0,87.0,1124.6408315546792,2021-09-02 13:26:07.593
497,-128.0,1001.0,-97.0,1013.8017557688486,2021-09-02 13:26:07.603
498,-180.0,977.0,-97.0,998.1673206431876,2021-09-02 13:26:07.612
499,-237.0,977.0,-97.0,1010.00346534059,2021-09-02 13:26:07.621
500,-237.0,1125.0,43.0,1150.4968491916873,2021-09-02 13:26:07.622
501,-212.0,1125.0,43.0,1145.6081354459734,2021-09-02 13:26:07.631
502,-212.0,859.0,-15.0,884.9011244201241,2021-09-02 13:26:07.632
503,-288.0,859.0,-15.0,906.1180938486992,2021-09-02 13:26:07.641
504,-288.0,820.0,37.0,869.8925220968392,2021-09-02 13:26:07.642
505,-339.0,898.0,-1.0,959.8572810579706,2021-09-02 13:26:07.652
506,-232.0,898.0,-1.0,927.4853098567114,2021-09-02 13:26:07.660
507,-232.0,827.0,12.0,859.0093131043458,2021-09-02 13:26:07.661
508,-188.0,949.0,39.0,968.2282788681604,2021-09-02 13:26:07.670
509,-176.0,943.0,54.0,960.8022689398688,2021-09-02 13:26:07.681
510,-134.0,943.0,54.0,954.0026205414742,2021-09-02 13:26:07.690
511,-134.0,897.0,20.0,907.174183936029,2021-09-02 13:26:07.691
512,-191.0,970.0,-53.0,990.0454535020097,2021-09-02 13:26:07.701
513,-196.0,972.0,-37.0,992.2545036430926,2021-09-02 13:26:07.710
514,-130.0,1031.0,0.0,1039.1636059831965,2021-09-02 13:26:07.719
515,-103.0,975.0,-119.0,987.6208786776432,2021-09-02 13:26:07.730
516,-189.0,1133.0,-51.0,1149.7873716474712,2021-09-02 13:26:07.739
517,-69.0,1141.0,-143.0,1151.994357625071,2021-09-02 13:26:07.749
518,-196.0,929.0,-115.0,956.3900877779944,2021-09-02 13:26:07.759
519,-166.0,1125.0,-61.0,1138.8160518714162,2021-09-02 13:26:07.769
520,-210.0,896.0,-139.0,930.7185396240908,2021-09-02 13:26:07.778
521,-197.0,1156.0,-49.0,1173.6890559258018,2021-09-02 13:26:07.788
522,-303.0,1063.0,-13.0,1105.4171158436077,2021-09-02 13:26:07.799
523,-196.0,945.0,-46.0,966.2075346425322,2021-09-02 13:26:07.807
524,-196.0,1013.0,-10.0,1031.8357427420317,2021-09-02 13:26:07.817
525,-221.0,966.0,21.0,991.1801047236572,2021-09-02 13:26:07.827
526,-160.0,943.0,26.0,956.8307060290238,2021-09-02 13:26:07.836
527,-217.0,943.0,26.0,967.9948346969626,2021-09-02 13:26:07.852
528,-217.0,827.0,-33.0,855.6325145762052,2021-09-02 13:26:07.853
529,-202.0,973.0,-33.0,994.29472491812,2021-09-02 13:26:07.856
530,-202.0,973.0,63.0,995.7419344388384,2021-09-02 13:26:07.857
531,-160.0,944.0,42.0,958.3840566286566,2021-09-02 13:26:07.867
532,-138.0,837.0,42.0,849.3391548727752,2021-09-02 13:26:07.876
533,-138.0,837.0,2.0,848.3024224885839,2021-09-02 13:26:07.877
534,-173.0,981.0,73.0,998.8087905099754,2021-09-02 13:26:07.885
535,-172.0,981.0,73.0,998.6360698472693,2021-09-02 13:26:07.894
536,-172.0,876.0,24.0,893.0487108775199,2021-09-02 13:26:07.895
537,-166.0,902.0,-21.0,917.3881403201156,2021-09-02 13:26:07.905
538,-198.0,1081.0,-3.0,1098.9877160368992,2021-09-02 13:26:07.915
539,-223.0,943.0,-2.0,969.0108358527268,2021-09-02 13:26:07.924
540,-141.0,948.0,-91.0,962.7388015448428,2021-09-02 13:26:07.935
