,Acceleration_X,Acceleration_Y,Acceleration_Z,magnitude,time_stamp
0,-104.0,998.0,-63.0,1005.380027651236,2021-09-02 13:27:14.125
1,-104.0,998.0,-111.0,1009.5251358931088,2021-09-02 13:27:14.126
2,-193.0,1142.0,-74.0,1160.5554704536962,2021-09-02 13:27:14.136
3,-571.0,1034.0,-162.0,1192.242005634762,2021-09-02 13:27:14.146
4,-59.0,1080.0,-103.0,1086.5035664920756,2021-09-02 13:27:14.155
5,-280.0,865.0,-103.0,915.00491801957,2021-09-02 13:27:14.164
6,-280.0,865.0,151.0,921.6430979506111,2021-09-02 13:27:14.165
7,-414.0,1164.0,-279.0,1266.5437221035838,2021-09-02 13:27:14.174
8,-585.0,866.0,-77.0,1047.9074386604957,2021-09-02 13:27:14.190
9,65.0,1078.0,52.0,1081.2090454671566,2021-09-02 13:27:14.194
10,-587.0,947.0,21.0,1114.3693283647033,2021-09-02 13:27:14.204
11,-61.0,1002.0,40.0,1004.6516809322522,2021-09-02 13:27:14.214
12,-388.0,827.0,-143.0,924.619921913864,2021-09-02 13:27:14.224
13,-268.0,1101.0,13.0,1133.2228377508106,2021-09-02 13:27:14.233
14,107.0,758.0,13.0,765.6252346938415,2021-09-02 13:27:14.243
15,107.0,758.0,317.0,828.5541623816756,2021-09-02 13:27:14.244
16,-412.0,735.0,-17.0,842.7680582461583,2021-09-02 13:27:14.252
17,-308.0,916.0,-17.0,966.5448773854216,2021-09-02 13:27:14.262
18,-308.0,916.0,131.0,975.233818117481,2021-09-02 13:27:14.263
19,40.0,648.0,175.0,672.4053836786259,2021-09-02 13:27:14.272
20,-453.0,744.0,-28.0,871.509609815061,2021-09-02 13:27:14.283
21,-327.0,1041.0,-59.0,1092.7447094358315,2021-09-02 13:27:14.293
22,196.0,1008.0,-59.0,1028.5723115075575,2021-09-02 13:27:14.301
23,196.0,1008.0,182.0,1042.8825437219668,2021-09-02 13:27:14.302
24,-413.0,920.0,-318.0,1057.3991677696745,2021-09-02 13:27:14.311
25,231.0,1422.0,-27.0,1440.8934728146978,2021-09-02 13:27:14.326
26,-320.0,1078.0,-293.0,1162.0382954102674,2021-09-02 13:27:14.332
27,166.0,1414.0,-40.0,1424.2724458473526,2021-09-02 13:27:14.341
28,92.0,1073.0,-40.0,1077.6794514140092,2021-09-02 13:27:14.350
29,92.0,1073.0,116.0,1083.1661922345988,2021-09-02 13:27:14.351
30,-334.0,1003.0,-173.0,1071.2114637175985,2021-09-02 13:27:14.360
31,-167.0,973.0,-97.0,991.9813506311496,2021-09-02 13:27:14.370
32,-48.0,1019.0,33.0,1020.6635096837742,2021-09-02 13:27:14.380
33,-436.0,1098.0,-265.0,1210.7538973713856,2021-09-02 13:27:14.390
34,-393.0,1021.0,-144.0,1103.4609191086015,2021-09-02 13:27:14.399
35,-545.0,1135.0,170.0,1270.492030671582,2021-09-02 13:27:14.423
36,-545.0,823.0,170.0,1001.62567858457,2021-09-02 13:27:14.424
37,-545.0,823.0,-132.0,995.8805149213432,2021-09-02 13:27:14.425
38,-228.0,990.0,-132.0,1024.454977048772,2021-09-02 13:27:14.428
39,-228.0,990.0,-60.0,1017.6856096064246,2021-09-02 13:27:14.429
40,61.0,951.0,346.0,1013.8234560316704,2021-09-02 13:27:14.438
41,-646.0,764.0,23.0,1000.7702033933664,2021-09-02 13:27:14.448
42,-24.0,903.0,23.0,903.6116422446096,2021-09-02 13:27:14.457
43,-24.0,903.0,317.0,957.32648558368,2021-09-02 13:27:14.458
44,-708.0,738.0,16.0,1022.8215875703836,2021-09-02 13:27:14.469
45,-6.0,818.0,117.0,826.3467795060376,2021-09-02 13:27:14.477
46,-145.0,585.0,86.0,608.8070301827994,2021-09-02 13:27:14.487
47,-474.0,1113.0,86.0,1212.7823382618994,2021-09-02 13:27:14.496
48,-474.0,1113.0,-68.0,1211.6389726316993,2021-09-02 13:27:14.497
49,-142.0,933.0,32.0,944.2865031334504,2021-09-02 13:27:14.506
50,315.0,1053.0,42.0,1099.9081779857809,2021-09-02 13:27:14.521
51,-583.0,1142.0,-378.0,1336.7636290683556,2021-09-02 13:27:14.526
52,206.0,1142.0,-378.0,1220.4441814355953,2021-09-02 13:27:14.535
53,206.0,1311.0,-45.0,1327.8486359521555,2021-09-02 13:27:14.536
54,222.0,1098.0,49.0,1121.2889904034553,2021-09-02 13:27:14.545
55,-610.0,983.0,-215.0,1176.6962224805518,2021-09-02 13:27:14.558
56,-375.0,983.0,-215.0,1073.8430984087015,2021-09-02 13:27:14.565
57,-375.0,1103.0,-92.0,1168.630822800768,2021-09-02 13:27:14.566
58,-41.0,949.0,-65.0,952.1066116774948,2021-09-02 13:27:14.576
59,-81.0,1063.0,-15.0,1066.1871317925386,2021-09-02 13:27:14.584
60,-305.0,881.0,-72.0,935.0775368919948,2021-09-02 13:27:14.594
61,-788.0,994.0,-395.0,1328.5349073321331,2021-09-02 13:27:14.605
62,-155.0,1211.0,28.0,1221.2002292826512,2021-09-02 13:27:14.614
63,77.0,1038.0,135.0,1049.570388301804,2021-09-02 13:27:14.624
64,-498.0,757.0,-223.0,933.1570071536728,2021-09-02 13:27:14.633
65,-45.0,1150.0,39.0,1151.5407070529466,2021-09-02 13:27:14.643
66,44.0,883.0,320.0,940.2260366528892,2021-09-02 13:27:14.654
67,-637.0,580.0,320.0,919.00435254682,2021-09-02 13:27:14.662
68,-637.0,580.0,-99.0,867.1620379144834,2021-09-02 13:27:14.663
69,13.0,965.0,157.0,977.7745138834412,2021-09-02 13:27:14.674
70,-169.0,692.0,138.0,725.5818354947979,2021-09-02 13:27:14.682
71,-488.0,887.0,-127.0,1020.3146573484084,2021-09-02 13:27:14.692
72,-179.0,974.0,-66.0,992.5084382512824,2021-09-02 13:27:14.702
73,-395.0,910.0,-185.0,1009.1332914932495,2021-09-02 13:27:14.712
74,-59.0,1098.0,133.0,1107.5983026350302,2021-09-02 13:27:14.722
75,89.0,1089.0,-8.0,1092.6600569253,2021-09-02 13:27:14.732
76,-406.0,1089.0,-8.0,1162.2482523110111,2021-09-02 13:27:14.740
77,-406.0,1157.0,-329.0,1269.5377111374046,2021-09-02 13:27:14.741
78,241.0,1302.0,-95.0,1327.5202446667245,2021-09-02 13:27:14.759
79,-18.0,1107.0,58.0,1108.664511924144,2021-09-02 13:27:14.763
80,-433.0,1116.0,-138.0,1204.985062148075,2021-09-02 13:27:14.770
81,-95.0,956.0,-79.0,963.9512435802964,2021-09-02 13:27:14.780
82,-262.0,945.0,-79.0,983.8241712826537,2021-09-02 13:27:14.789
83,-262.0,945.0,-116.0,987.484177088423,2021-09-02 13:27:14.790
84,-488.0,1144.0,-282.0,1275.3054536070956,2021-09-02 13:27:14.799
85,-206.0,1124.0,5.0,1142.7322521045776,2021-09-02 13:27:14.810
86,257.0,966.0,71.0,1002.1207512071588,2021-09-02 13:27:14.819
87,49.0,966.0,71.0,969.8443174035716,2021-09-02 13:27:14.829
88,49.0,1150.0,142.0,1159.769373625636,2021-09-02 13:27:14.830
89,33.0,950.0,60.0,952.4646975085218,2021-09-02 13:27:14.838
90,-508.0,963.0,-220.0,1110.780356326128,2021-09-02 13:27:14.848
91,107.0,1099.0,241.0,1130.1906918746058,2021-09-02 13:27:14.858
92,-175.0,684.0,241.0,746.0308304621198,2021-09-02 13:27:14.868
93,-175.0,684.0,131.0,718.0821680002923,2021-09-02 13:27:14.869
94,-652.0,753.0,-65.0,998.1673206431876,2021-09-02 13:27:14.878
95,40.0,1000.0,297.0,1043.9391744733025,2021-09-02 13:27:14.887
96,-301.0,422.0,11.0,518.4650422159627,2021-09-02 13:27:14.897
97,-647.0,908.0,-207.0,1133.985008719251,2021-09-02 13:27:14.907
98,169.0,1172.0,258.0,1211.903048927595,2021-09-02 13:27:14.917
99,55.0,1047.0,-37.0,1049.096277755288,2021-09-02 13:27:14.927
100,-400.0,1050.0,-37.0,1124.219284659359,2021-09-02 13:27:14.937
101,-400.0,1050.0,-418.0,1198.842775346292,2021-09-02 13:27:14.938
102,513.0,1381.0,76.0,1475.1630418363932,2021-09-02 13:27:14.946
103,-101.0,1381.0,76.0,1386.7725119860145,2021-09-02 13:27:14.955
104,-101.0,1227.0,-321.0,1272.3093177368469,2021-09-02 13:27:14.956
105,241.0,1286.0,30.0,1308.7310648104904,2021-09-02 13:27:14.965
106,-146.0,1057.0,-14.0,1067.127452556629,2021-09-02 13:27:14.975
107,-473.0,1006.0,-271.0,1144.2054011408966,2021-09-02 13:27:14.987
108,-232.0,1006.0,-271.0,1067.3804382693174,2021-09-02 13:27:14.994
109,-232.0,958.0,-43.0,986.6291096455648,2021-09-02 13:27:14.995
110,-478.0,1021.0,-43.0,1128.1728590956263,2021-09-02 13:27:15.004
111,-478.0,1021.0,-120.0,1133.7217471672668,2021-09-02 13:27:15.005
112,-539.0,987.0,-225.0,1146.871832420694,2021-09-02 13:27:15.021
113,192.0,1176.0,158.0,1202.0,2021-09-02 13:27:15.024
114,-409.0,900.0,-25.0,988.8912983740933,2021-09-02 13:27:15.034
115,-488.0,1006.0,-132.0,1125.8792119938976,2021-09-02 13:27:15.043
116,177.0,873.0,159.0,904.8419751536728,2021-09-02 13:27:15.055
117,-141.0,732.0,152.0,760.7949789529371,2021-09-02 13:27:15.063
118,-531.0,899.0,-73.0,1046.6570594038908,2021-09-02 13:27:15.073
119,-300.0,697.0,-73.0,762.3240780665399,2021-09-02 13:27:15.082
120,-300.0,697.0,80.0,763.026211869553,2021-09-02 13:27:15.083
121,-397.0,697.0,80.0,806.1128953192599,2021-09-02 13:27:15.092
122,-397.0,815.0,-27.0,906.9525897201022,2021-09-02 13:27:15.093
123,56.0,750.0,-27.0,752.5722556671884,2021-09-02 13:27:15.103
124,56.0,750.0,283.0,803.5701587291554,2021-09-02 13:27:15.104
125,-438.0,715.0,-51.0,840.0416656333184,2021-09-02 13:27:15.112
126,-379.0,958.0,-51.0,1031.5066650293638,2021-09-02 13:27:15.121
127,-379.0,958.0,-125.0,1037.8005588743918,2021-09-02 13:27:15.122
128,344.0,1164.0,-125.0,1220.1872807073512,2021-09-02 13:27:15.131
129,344.0,1164.0,160.0,1224.2679445284843,2021-09-02 13:27:15.132
130,-406.0,905.0,-249.0,1022.6739460844792,2021-09-02 13:27:15.141
131,-187.0,1397.0,-305.0,1442.082868631342,2021-09-02 13:27:15.152
132,244.0,1196.0,96.0,1224.4051617009789,2021-09-02 13:27:15.162
133,-283.0,1029.0,-72.0,1069.6326472205303,2021-09-02 13:27:15.171
134,-318.0,928.0,-207.0,1002.5751842131342,2021-09-02 13:27:15.180
135,-78.0,1197.0,139.0,1207.5653191442689,2021-09-02 13:27:15.190
136,-248.0,985.0,-176.0,1030.875841214644,2021-09-02 13:27:15.200
137,-93.0,985.0,-176.0,1004.9129315517838,2021-09-02 13:27:15.210
138,-93.0,1001.0,-72.0,1007.885906241376,2021-09-02 13:27:15.211
139,-405.0,1151.0,-63.0,1221.7999017842487,2021-09-02 13:27:15.219
140,-373.0,1001.0,-206.0,1087.9181954540516,2021-09-02 13:27:15.230
141,192.0,1113.0,185.0,1144.4902795567991,2021-09-02 13:27:15.239
142,-466.0,919.0,-158.0,1042.4399263266926,2021-09-02 13:27:15.249
143,-256.0,1009.0,-61.0,1042.7550047830027,2021-09-02 13:27:15.259
144,79.0,895.0,394.0,981.0718628112826,2021-09-02 13:27:15.269
145,-472.0,731.0,51.0,871.6340975432295,2021-09-02 13:27:15.278
146,-400.0,811.0,-16.0,904.4208091369858,2021-09-02 13:27:15.288
147,132.0,711.0,138.0,736.1990220042404,2021-09-02 13:27:15.298
148,-577.0,887.0,1.0,1058.1583057369062,2021-09-02 13:27:15.308
149,-364.0,1000.0,1.0,1064.1884231657475,2021-09-02 13:27:15.319
150,-364.0,1000.0,-143.0,1073.7527648392809,2021-09-02 13:27:15.320
151,-589.0,979.0,-148.0,1152.0703103543638,2021-09-02 13:27:15.327
152,-63.0,1070.0,10.0,1071.8997154584938,2021-09-02 13:27:15.336
153,245.0,953.0,40.0,984.8015028420702,2021-09-02 13:27:15.346
154,-478.0,1090.0,40.0,1190.875308334168,2021-09-02 13:27:15.356
155,-478.0,1090.0,-404.0,1256.9009507514902,2021-09-02 13:27:15.357
156,189.0,1457.0,0.0,1469.2072692442002,2021-09-02 13:27:15.367
157,231.0,1037.0,68.0,1064.5910012770162,2021-09-02 13:27:15.376
158,-325.0,1044.0,-186.0,1109.124429448743,2021-09-02 13:27:15.385
159,-297.0,1014.0,-139.0,1065.7044618467166,2021-09-02 13:27:15.395
160,-171.0,1050.0,-67.0,1065.9408989245137,2021-09-02 13:27:15.406
161,-676.0,1037.0,-322.0,1279.0734928064142,2021-09-02 13:27:15.415
162,-419.0,1115.0,-150.0,1200.5357137544888,2021-09-02 13:27:15.440
163,-192.0,1115.0,-150.0,1141.3102119932162,2021-09-02 13:27:15.445
164,-192.0,1260.0,-48.0,1275.4481565316562,2021-09-02 13:27:15.446
165,40.0,979.0,165.0,993.612600564224,2021-09-02 13:27:15.454
166,-557.0,820.0,-244.0,1020.8746250152366,2021-09-02 13:27:15.464
167,-4.0,1062.0,-2.0,1062.009416154113,2021-09-02 13:27:15.473
168,82.0,990.0,335.0,1048.3553786765249,2021-09-02 13:27:15.484
169,-622.0,990.0,335.0,1216.2273636125772,2021-09-02 13:27:15.492
170,-622.0,657.0,-66.0,907.1322946516676,2021-09-02 13:27:15.493
171,33.0,865.0,-66.0,868.141693504004,2021-09-02 13:27:15.502
172,33.0,865.0,80.0,869.3181235888276,2021-09-02 13:27:15.503
173,-212.0,718.0,112.0,756.9755610321907,2021-09-02 13:27:15.513
174,-543.0,867.0,-132.0,1031.4853367838052,2021-09-02 13:27:15.522
175,6.0,1085.0,35.0,1085.580950459246,2021-09-02 13:27:15.532
176,237.0,1039.0,118.0,1072.2005409437172,2021-09-02 13:27:15.542
177,-477.0,1039.0,-343.0,1193.607556946587,2021-09-02 13:27:15.551
178,103.0,996.0,-4.0,1001.3196292892694,2021-09-02 13:27:15.561
179,-398.0,1200.0,-361.0,1314.8098721868496,2021-09-02 13:27:15.572
180,350.0,1200.0,-361.0,1301.0845475986562,2021-09-02 13:27:15.580
181,350.0,1329.0,-23.0,1374.507184411926,2021-09-02 13:27:15.581
182,-47.0,942.0,-10.0,943.224787630181,2021-09-02 13:27:15.591
183,-386.0,1095.0,-104.0,1165.691640186203,2021-09-02 13:27:15.600
184,-105.0,1112.0,-64.0,1118.7783515960612,2021-09-02 13:27:15.610
185,-255.0,828.0,-92.0,871.2479555212741,2021-09-02 13:27:15.621
186,-515.0,1151.0,-359.0,1311.0709362959733,2021-09-02 13:27:15.630
187,37.0,1255.0,89.0,1258.6957535480924,2021-09-02 13:27:15.640
188,145.0,977.0,76.0,990.6210173421518,2021-09-02 13:27:15.649
189,-448.0,858.0,-292.0,1011.0054401436224,2021-09-02 13:27:15.659
190,50.0,1153.0,84.0,1157.1365520110407,2021-09-02 13:27:15.669
191,-15.0,920.0,265.0,957.5228456804568,2021-09-02 13:27:15.679
192,61.0,1070.0,160.0,1083.6147839523046,2021-09-02 13:27:15.688
193,-223.0,789.0,140.0,831.7752100177066,2021-09-02 13:27:15.698
194,-557.0,789.0,140.0,975.8944615069807,2021-09-02 13:27:15.707
195,-557.0,745.0,-137.0,940.2356087704826,2021-09-02 13:27:15.708
196,32.0,745.0,-137.0,758.1675276612683,2021-09-02 13:27:15.717
197,32.0,898.0,266.0,937.11472083198,2021-09-02 13:27:15.718
198,-439.0,898.0,266.0,1034.350520858379,2021-09-02 13:27:15.729
199,-439.0,750.0,38.0,869.8649320440502,2021-09-02 13:27:15.730
200,-450.0,843.0,-222.0,981.0366965613468,2021-09-02 13:27:15.739
201,342.0,1105.0,227.0,1178.778180999292,2021-09-02 13:27:15.747
202,-141.0,1046.0,-98.0,1060.0004716980084,2021-09-02 13:27:15.756
203,-236.0,1187.0,-236.0,1233.0291967346109,2021-09-02 13:27:15.775
204,478.0,1231.0,26.0,1320.8031647448456,2021-09-02 13:27:15.778
205,-60.0,1087.0,-2.0,1088.6565114856016,2021-09-02 13:27:15.786
206,-554.0,991.0,-185.0,1150.3138702110828,2021-09-02 13:27:15.796
207,-19.0,1059.0,-79.0,1062.112517579941,2021-09-02 13:27:15.806
208,-261.0,1036.0,-184.0,1084.100087630289,2021-09-02 13:27:15.815
209,-154.0,1044.0,-102.0,1060.2150725206654,2021-09-02 13:27:15.825
210,-292.0,1050.0,-167.0,1102.566551279332,2021-09-02 13:27:15.835
211,-611.0,1092.0,-233.0,1272.8212757492704,2021-09-02 13:27:15.845
212,205.0,1105.0,118.0,1130.0327428884527,2021-09-02 13:27:15.854
213,-425.0,778.0,-96.0,891.6978187704622,2021-09-02 13:27:15.864
214,-362.0,1125.0,-96.0,1185.7002150628125,2021-09-02 13:27:15.873
215,-362.0,1125.0,-81.0,1184.5800943794388,2021-09-02 13:27:15.874
216,88.0,1125.0,-81.0,1131.3399135538357,2021-09-02 13:27:15.883
217,88.0,950.0,269.0,991.2643441585096,2021-09-02 13:27:15.884
218,-302.0,706.0,-43.0,769.0832204644696,2021-09-02 13:27:15.894
219,-372.0,813.0,-114.0,901.3040552443996,2021-09-02 13:27:15.903
220,63.0,842.0,326.0,905.1016517496804,2021-09-02 13:27:15.913
221,-459.0,678.0,-54.0,820.5370192745723,2021-09-02 13:27:15.922
222,-20.0,769.0,289.0,821.7554380714496,2021-09-02 13:27:15.932
223,-561.0,783.0,-2.0,963.2310210951472,2021-09-02 13:27:15.942
224,-295.0,930.0,-2.0,975.6684887808972,2021-09-02 13:27:15.953
225,-295.0,930.0,-98.0,980.5758512221277,2021-09-02 13:27:15.954
226,320.0,930.0,-98.0,988.3845405508932,2021-09-02 13:27:15.961
227,320.0,1153.0,166.0,1208.0418039124309,2021-09-02 13:27:15.962
228,-447.0,962.0,-264.0,1093.137228347841,2021-09-02 13:27:15.971
229,101.0,1241.0,-130.0,1251.8713991460943,2021-09-02 13:27:15.981
230,292.0,1179.0,147.0,1223.484368514776,2021-09-02 13:27:15.991
231,-283.0,1092.0,-59.0,1129.6167491676104,2021-09-02 13:27:16.000
232,-272.0,903.0,-135.0,952.6898760877016,2021-09-02 13:27:16.010
233,-131.0,879.0,-130.0,898.1659089500113,2021-09-02 13:27:16.020
234,-440.0,1234.0,-90.0,1313.185440065492,2021-09-02 13:27:16.037
235,-457.0,1076.0,-90.0,1172.4866736982558,2021-09-02 13:27:16.039
236,-457.0,1076.0,-189.0,1184.2069075968102,2021-09-02 13:27:16.040
237,-609.0,1076.0,-189.0,1250.750974414971,2021-09-02 13:27:16.049
238,-609.0,1121.0,-235.0,1297.2073851161963,2021-09-02 13:27:16.050
239,-353.0,1076.0,-74.0,1134.839636248223,2021-09-02 13:27:16.059
240,368.0,983.0,163.0,1062.206194672202,2021-09-02 13:27:16.071
241,-645.0,983.0,163.0,1186.9637736679244,2021-09-02 13:27:16.078
242,-645.0,833.0,-238.0,1080.0731456711624,2021-09-02 13:27:16.079
243,-177.0,1220.0,72.0,1234.8736777500767,2021-09-02 13:27:16.089
244,150.0,837.0,302.0,902.3707663704536,2021-09-02 13:27:16.098
245,-604.0,702.0,27.0,926.47126237137,2021-09-02 13:27:16.108
246,-114.0,906.0,55.0,914.7988850015068,2021-09-02 13:27:16.119
247,-48.0,658.0,218.0,694.8323538811359,2021-09-02 13:27:16.127
248,-571.0,828.0,-129.0,1014.0345161778272,2021-09-02 13:27:16.137
249,-231.0,1028.0,-31.0,1054.090128973799,2021-09-02 13:27:16.147
250,475.0,1110.0,215.0,1226.3563919187602,2021-09-02 13:27:16.157
251,-328.0,930.0,215.0,1009.3111512313732,2021-09-02 13:27:16.167
252,-328.0,930.0,-317.0,1035.8441002390273,2021-09-02 13:27:16.168
253,277.0,930.0,-317.0,1020.84180948862,2021-09-02 13:27:16.176
254,277.0,1028.0,55.0,1066.0853624358606,2021-09-02 13:27:16.177
255,-446.0,996.0,-373.0,1153.282706017913,2021-09-02 13:27:16.186
256,250.0,1367.0,-73.0,1391.588301186813,2021-09-02 13:27:16.196
257,253.0,1231.0,125.0,1262.9311145110014,2021-09-02 13:27:16.211
258,-446.0,929.0,125.0,1038.0664718600635,2021-09-02 13:27:16.216
259,-446.0,929.0,-198.0,1049.362187235656,2021-09-02 13:27:16.217
260,-82.0,1011.0,-198.0,1033.464561559805,2021-09-02 13:27:16.225
261,-82.0,1011.0,-26.0,1014.6531427044416,2021-09-02 13:27:16.226
262,-251.0,1066.0,-114.0,1101.069025992467,2021-09-02 13:27:16.235
263,-525.0,1050.0,-258.0,1201.9521621096242,2021-09-02 13:27:16.245
264,-434.0,1113.0,-154.0,1204.5086135017882,2021-09-02 13:27:16.254
265,148.0,1084.0,195.0,1111.298789705091,2021-09-02 13:27:16.264
266,-607.0,819.0,-144.0,1029.5367890464138,2021-09-02 13:27:16.276
267,-84.0,967.0,-61.0,972.5564250983076,2021-09-02 13:27:16.284
268,-465.0,919.0,-155.0,1041.542605945623,2021-09-02 13:27:16.293
269,193.0,1006.0,91.0,1028.380279857602,2021-09-02 13:27:16.303
270,-16.0,830.0,169.0,847.181798671336,2021-09-02 13:27:16.313
271,-627.0,792.0,-34.0,1010.7170721819238,2021-09-02 13:27:16.325
272,94.0,792.0,-34.0,798.2831577830012,2021-09-02 13:27:16.333
273,94.0,941.0,192.0,964.9772018032344,2021-09-02 13:27:16.334
274,-252.0,459.0,75.0,528.9706986213887,2021-09-02 13:27:16.342
275,-527.0,1013.0,75.0,1144.343916836193,2021-09-02 13:27:16.352
276,-527.0,1013.0,-221.0,1163.0730845480005,2021-09-02 13:27:16.353
277,85.0,1115.0,176.0,1132.0008833918814,2021-09-02 13:27:16.362
278,136.0,999.0,0.0,1008.2147588683672,2021-09-02 13:27:16.372
279,-476.0,1005.0,-368.0,1171.3347087831044,2021-09-02 13:27:16.382
280,266.0,1403.0,0.0,1427.9933473234391,2021-09-02 13:27:16.391
281,165.0,979.0,38.0,993.5340960430096,2021-09-02 13:27:16.401
282,304.0,1362.0,-51.0,1396.4458457097433,2021-09-02 13:27:16.411
283,-24.0,1010.0,4.0,1010.2930267996508,2021-09-02 13:27:16.421
284,-425.0,1010.0,4.0,1095.7832814931974,2021-09-02 13:27:16.430
285,-425.0,1068.0,-232.0,1172.635066847312,2021-09-02 13:27:16.431
286,-132.0,1185.0,55.0,1193.597084446841,2021-09-02 13:27:16.440
287,-403.0,969.0,-33.0,1049.980476008959,2021-09-02 13:27:16.461
288,-442.0,931.0,-348.0,1087.763301458548,2021-09-02 13:27:16.464
289,1.0,1220.0,69.0,1221.9500808134512,2021-09-02 13:27:16.471
290,-72.0,1015.0,51.0,1018.8277577687016,2021-09-02 13:27:16.479
291,-434.0,766.0,-181.0,898.8175565708539,2021-09-02 13:27:16.489
292,99.0,766.0,-181.0,793.2956573686762,2021-09-02 13:27:16.498
293,99.0,1008.0,101.0,1017.873273055148,2021-09-02 13:27:16.499
294,-78.0,931.0,250.0,967.1323590905228,2021-09-02 13:27:16.508
295,-581.0,707.0,-61.0,917.1319425251744,2021-09-02 13:27:16.519
296,-2.0,753.0,174.0,772.8447450814426,2021-09-02 13:27:16.529
297,-416.0,753.0,174.0,877.6907200147441,2021-09-02 13:27:16.537
298,-416.0,737.0,110.0,853.4195919944656,2021-09-02 13:27:16.538
299,-11.0,798.0,210.0,825.2423886349998,2021-09-02 13:27:16.548
300,-540.0,742.0,-61.0,919.7200661070736,2021-09-02 13:27:16.557
301,-507.0,956.0,-61.0,1083.8385488623294,2021-09-02 13:27:16.568
302,-507.0,956.0,-61.0,1083.8385488623294,2021-09-02 13:27:16.569
303,302.0,1021.0,174.0,1078.851704359779,2021-09-02 13:27:16.577
304,-85.0,986.0,-151.0,1001.1103835242146,2021-09-02 13:27:16.587
305,-337.0,1281.0,-151.0,1333.165781139015,2021-09-02 13:27:16.596
306,-337.0,1281.0,-271.0,1352.0247778794587,2021-09-02 13:27:16.597
307,379.0,1294.0,-14.0,1348.4335356256904,2021-09-02 13:27:16.606
308,-17.0,994.0,-51.0,995.4526608533426,2021-09-02 13:27:16.616
309,-476.0,1085.0,-206.0,1202.595942118549,2021-09-02 13:27:16.626
310,-125.0,1136.0,12.0,1142.9195072269963,2021-09-02 13:27:16.635
311,-107.0,902.0,-80.0,911.8404465694642,2021-09-02 13:27:16.645
312,-894.0,1031.0,-70.0,1366.417578926735,2021-09-02 13:27:16.655
313,-559.0,924.0,-28.0,1080.2967184991353,2021-09-02 13:27:16.665
314,-270.0,1191.0,-28.0,1221.542058219855,2021-09-02 13:27:16.675
315,-270.0,1191.0,-156.0,1231.1445893963876,2021-09-02 13:27:16.676
316,-159.0,1094.0,16.0,1105.6097864979308,2021-09-02 13:27:16.685
317,-45.0,838.0,57.0,841.1408918843501,2021-09-02 13:27:16.694
318,-461.0,838.0,57.0,958.1304712824866,2021-09-02 13:27:16.703
319,-461.0,1032.0,-53.0,1131.5272864584397,2021-09-02 13:27:16.704
320,-150.0,1066.0,175.0,1090.6333022606636,2021-09-02 13:27:16.713
321,-170.0,1066.0,175.0,1093.5634412323775,2021-09-02 13:27:16.724
322,-170.0,887.0,-45.0,904.2643418823944,2021-09-02 13:27:16.725
323,-168.0,891.0,8.0,906.735352790438,2021-09-02 13:27:16.734
324,-186.0,963.0,-20.0,981.0020387338652,2021-09-02 13:27:16.746
325,-220.0,1026.0,0.0,1049.321685661742,2021-09-02 13:27:16.753
326,-146.0,954.0,-76.0,968.0950366570422,2021-09-02 13:27:16.762
327,-154.0,1010.0,-76.0,1024.4959736377689,2021-09-02 13:27:16.772
328,-154.0,1010.0,-56.0,1023.206723981034,2021-09-02 13:27:16.773
329,-153.0,1113.0,-67.0,1125.4630158294851,2021-09-02 13:27:16.790
330,-151.0,1053.0,-67.0,1065.8794490935643,2021-09-02 13:27:16.792
331,-151.0,1053.0,-139.0,1072.8145226459233,2021-09-02 13:27:16.793
332,-155.0,1064.0,-23.0,1075.4766385189405,2021-09-02 13:27:16.801
333,-146.0,1107.0,-83.0,1119.6669147563484,2021-09-02 13:27:16.813
