,Acceleration_X,Acceleration_Y,Acceleration_Z,magnitude,time_stamp
0,-571.0,935.0,-112.0,1101.2765320299893,2021-09-23 13:33:17.545
1,-100.0,935.0,-112.0,946.978880440319,2021-09-23 13:33:17.554
2,-100.0,970.0,-224.0,1000.537855355808,2021-09-23 13:33:17.555
3,-193.0,1033.0,90.0,1054.7217642582332,2021-09-23 13:33:17.564
4,-189.0,1033.0,90.0,1053.9971536963465,2021-09-23 13:33:17.573
5,-189.0,973.0,103.0,996.523456823772,2021-09-23 13:33:17.574
6,-272.0,1177.0,99.0,1212.0701299842349,2021-09-23 13:33:17.583
7,-178.0,996.0,99.0,1016.6125122188886,2021-09-23 13:33:17.593
8,-178.0,996.0,43.0,1012.6939320446232,2021-09-23 13:33:17.594
9,-167.0,786.0,-17.0,803.7250773740981,2021-09-23 13:33:17.604
10,-17.0,927.0,-57.0,928.906346194276,2021-09-23 13:33:17.613
11,-182.0,1001.0,65.0,1019.485164188278,2021-09-23 13:33:17.622
12,-287.0,680.0,116.0,747.1445643247363,2021-09-23 13:33:17.632
13,-38.0,847.0,-64.0,850.2640766256093,2021-09-23 13:33:17.642
14,-286.0,847.0,-64.0,896.2706064576703,2021-09-23 13:33:17.661
15,-286.0,971.0,-13.0,1012.3270222610872,2021-09-23 13:33:17.662
16,-288.0,952.0,-47.0,995.7193379662764,2021-09-23 13:33:17.665
17,96.0,1070.0,-6.0,1074.3146652633948,2021-09-23 13:33:17.671
18,-143.0,1105.0,-166.0,1126.5123168434511,2021-09-23 13:33:17.682
19,-169.0,1201.0,-95.0,1216.5471630808236,2021-09-23 13:33:17.691
20,-221.0,1126.0,-95.0,1151.4087024163057,2021-09-23 13:33:17.700
21,-221.0,1126.0,-237.0,1171.7021805902727,2021-09-23 13:33:17.701
22,-169.0,1225.0,-142.0,1244.7288861434847,2021-09-23 13:33:17.710
23,49.0,1040.0,-142.0,1050.792558024656,2021-09-23 13:33:17.720
24,49.0,1040.0,8.0,1041.1844217044356,2021-09-23 13:33:17.721
25,-24.0,1054.0,-183.0,1070.037849797847,2021-09-23 13:33:17.731
26,-360.0,1203.0,-183.0,1268.9751770621835,2021-09-23 13:33:17.739
27,-360.0,1203.0,-60.0,1257.143189935021,2021-09-23 13:33:17.740
28,-273.0,1013.0,47.0,1050.193791640381,2021-09-23 13:33:17.750
29,-188.0,933.0,-166.0,966.12059288683,2021-09-23 13:33:17.759
30,-467.0,1033.0,-166.0,1145.7460451600955,2021-09-23 13:33:17.769
31,-467.0,1033.0,-185.0,1148.6526890231007,2021-09-23 13:33:17.770
32,71.0,1115.0,104.0,1122.088231824931,2021-09-23 13:33:17.779
33,-363.0,871.0,-108.0,949.7757630093536,2021-09-23 13:33:17.788
34,-157.0,996.0,-80.0,1011.4667567448768,2021-09-23 13:33:17.798
35,-145.0,894.0,272.0,945.6452823337088,2021-09-23 13:33:17.808
36,-83.0,896.0,-42.0,900.8157414255148,2021-09-23 13:33:17.818
37,1.0,814.0,-42.0,815.0834313124025,2021-09-23 13:33:17.827
38,1.0,814.0,274.0,858.878920453867,2021-09-23 13:33:17.828
39,-93.0,917.0,-70.0,924.3581556950749,2021-09-23 13:33:17.838
40,-359.0,866.0,83.0,941.1301716553348,2021-09-23 13:33:17.847
41,-234.0,758.0,206.0,819.6072230037995,2021-09-23 13:33:17.857
42,-177.0,916.0,206.0,955.4166630324175,2021-09-23 13:33:17.866
43,-177.0,916.0,57.0,934.6839037877992,2021-09-23 13:33:17.867
44,-143.0,881.0,-202.0,915.1032728605009,2021-09-23 13:33:17.877
45,23.0,1091.0,63.0,1093.0594677326574,2021-09-23 13:33:17.892
46,-246.0,1116.0,-137.0,1150.9739354129615,2021-09-23 13:33:17.896
47,69.0,1116.0,-137.0,1126.4927873714948,2021-09-23 13:33:17.905
48,69.0,1253.0,-98.0,1258.7191902882869,2021-09-23 13:33:17.906
49,62.0,905.0,-59.0,909.0379530030636,2021-09-23 13:33:17.916
50,-21.0,905.0,-59.0,907.1642629645416,2021-09-23 13:33:17.925
51,-21.0,1272.0,-149.0,1280.8692361049195,2021-09-23 13:33:17.926
52,-327.0,1008.0,-133.0,1068.027153212876,2021-09-23 13:33:17.935
53,-195.0,1008.0,-133.0,1035.267115289576,2021-09-23 13:33:17.944
54,-195.0,1205.0,-236.0,1243.2803384595124,2021-09-23 13:33:17.945
55,-260.0,994.0,-63.0,1029.371167266696,2021-09-23 13:33:17.954
56,-130.0,1001.0,-107.0,1015.0615744869864,2021-09-23 13:33:17.964
57,-420.0,1138.0,-107.0,1217.7409412514637,2021-09-23 13:33:17.974
58,-420.0,1138.0,-174.0,1225.4468572728888,2021-09-23 13:33:17.975
59,209.0,1093.0,-28.0,1113.1549757333885,2021-09-23 13:33:17.996
60,209.0,874.0,3.0,898.6467604125661,2021-09-23 13:33:17.997
61,-454.0,843.0,-194.0,976.9344911507628,2021-09-23 13:33:18.004
62,-349.0,1159.0,79.0,1212.9810385987078,2021-09-23 13:33:18.013
63,97.0,826.0,324.0,892.5586815442445,2021-09-23 13:33:18.024
64,-295.0,826.0,324.0,935.0278070731372,2021-09-23 13:33:18.032
65,-295.0,669.0,-133.0,743.1520705750607,2021-09-23 13:33:18.033
66,-215.0,887.0,94.0,917.5129426880036,2021-09-23 13:33:18.042
67,-160.0,892.0,163.0,920.7784749873338,2021-09-23 13:33:18.053
68,-85.0,862.0,22.0,866.4600394709498,2021-09-23 13:33:18.062
69,-223.0,800.0,95.0,835.9150674560185,2021-09-23 13:33:18.072
70,-159.0,1048.0,-164.0,1072.6047734370754,2021-09-23 13:33:18.081
71,-49.0,1011.0,16.0,1012.3131926434623,2021-09-23 13:33:18.091
72,-31.0,1129.0,-25.0,1129.702173141222,2021-09-23 13:33:18.102
73,-280.0,1129.0,-25.0,1163.4715295184494,2021-09-23 13:33:18.110
74,-280.0,1121.0,-248.0,1181.7550507613666,2021-09-23 13:33:18.111
75,0.0,1174.0,-248.0,1199.9083298319083,2021-09-23 13:33:18.120
76,0.0,1174.0,-3.0,1174.0038330431464,2021-09-23 13:33:18.121
77,-36.0,1076.0,-9.0,1076.6396797443424,2021-09-23 13:33:18.131
78,-457.0,1130.0,-105.0,1223.4271535322405,2021-09-23 13:33:18.140
79,-92.0,855.0,-79.0,863.5565991873376,2021-09-23 13:33:18.150
80,-201.0,954.0,-98.0,979.8576427216352,2021-09-23 13:33:18.160
81,-480.0,1286.0,-98.0,1376.154061142865,2021-09-23 13:33:18.169
82,-480.0,1286.0,-167.0,1382.7816168867737,2021-09-23 13:33:18.170
83,-239.0,943.0,-185.0,990.249968442312,2021-09-23 13:33:18.180
84,-387.0,1140.0,-132.0,1211.1122986742394,2021-09-23 13:33:18.189
85,-61.0,1140.0,-132.0,1149.2367032078291,2021-09-23 13:33:18.198
86,-61.0,1131.0,157.0,1143.4732178761335,2021-09-23 13:33:18.199
87,-103.0,817.0,-138.0,834.9502979219781,2021-09-23 13:33:18.209
88,-428.0,949.0,-6.0,1041.0672408639127,2021-09-23 13:33:18.218
89,-104.0,1029.0,236.0,1060.826564524098,2021-09-23 13:33:18.228
90,-121.0,1029.0,236.0,1062.6278746579162,2021-09-23 13:33:18.237
91,-121.0,834.0,90.0,847.5240409569512,2021-09-23 13:33:18.238
92,-394.0,829.0,-130.0,927.0258896061102,2021-09-23 13:33:18.247
93,-108.0,846.0,222.0,881.2854248199047,2021-09-23 13:33:18.258
94,-245.0,818.0,-27.0,854.3289764487682,2021-09-23 13:33:18.267
95,-306.0,939.0,-200.0,1007.6492445290672,2021-09-23 13:33:18.277
96,-15.0,1287.0,-200.0,1302.5336847851574,2021-09-23 13:33:18.287
97,-15.0,1287.0,83.0,1289.760830541849,2021-09-23 13:33:18.288
98,-298.0,928.0,-209.0,996.8294738820678,2021-09-23 13:33:18.308
99,104.0,1209.0,48.0,1214.4138503821505,2021-09-23 13:33:18.310
100,-244.0,1046.0,-74.0,1076.6280694836078,2021-09-23 13:33:18.317
101,40.0,1046.0,-74.0,1049.376958008894,2021-09-23 13:33:18.325
102,40.0,1106.0,-81.0,1109.683288150272,2021-09-23 13:33:18.326
103,196.0,1015.0,-4.0,1033.7586759007152,2021-09-23 13:33:18.335
104,-116.0,1232.0,-89.0,1240.6453965577757,2021-09-23 13:33:18.345
105,-278.0,1187.0,-89.0,1222.364102876062,2021-09-23 13:33:18.355
106,-278.0,1187.0,-129.0,1225.925772630627,2021-09-23 13:33:18.356
107,-345.0,838.0,-17.0,906.3983671653432,2021-09-23 13:33:18.365
108,-341.0,1133.0,-50.0,1184.25926215504,2021-09-23 13:33:18.374
109,-447.0,1040.0,-50.0,1133.0970832192625,2021-09-23 13:33:18.384
110,-447.0,1040.0,-203.0,1150.05130320347,2021-09-23 13:33:18.385
111,-52.0,966.0,66.0,969.6473585793962,2021-09-23 13:33:18.394
112,-312.0,1113.0,-32.0,1156.3464013867124,2021-09-23 13:33:18.404
113,-389.0,875.0,-49.0,958.8258444576888,2021-09-23 13:33:18.414
114,-326.0,1009.0,-58.0,1061.942088816523,2021-09-23 13:33:18.424
115,-396.0,1077.0,51.0,1148.6278770776896,2021-09-23 13:33:18.433
116,-52.0,711.0,168.0,732.4267881501877,2021-09-23 13:33:18.443
117,-151.0,957.0,168.0,983.2975134718891,2021-09-23 13:33:18.452
118,-151.0,957.0,-79.0,972.0550395939522,2021-09-23 13:33:18.453
119,-568.0,963.0,135.0,1126.1518547691514,2021-09-23 13:33:18.463
120,-135.0,653.0,331.0,744.4427446083413,2021-09-23 13:33:18.473
121,-142.0,828.0,-89.0,844.7893228491941,2021-09-23 13:33:18.482
122,-399.0,931.0,-89.0,1016.8003737214104,2021-09-23 13:33:18.491
123,-399.0,931.0,-164.0,1026.0886901238118,2021-09-23 13:33:18.492
124,136.0,1237.0,-164.0,1255.2135276517697,2021-09-23 13:33:18.502
125,136.0,1237.0,128.0,1251.0191845051777,2021-09-23 13:33:18.503
126,-127.0,889.0,-191.0,918.1127381754378,2021-09-23 13:33:18.511
127,-174.0,1211.0,-216.0,1242.3578389497932,2021-09-23 13:33:18.522
128,62.0,1211.0,-216.0,1231.6740640283044,2021-09-23 13:33:18.530
129,62.0,1193.0,58.0,1196.0171403454049,2021-09-23 13:33:18.531
130,-105.0,1082.0,-132.0,1095.0675778233965,2021-09-23 13:33:18.540
131,-15.0,1183.0,-132.0,1190.436054561521,2021-09-23 13:33:18.550
132,-15.0,1183.0,112.0,1188.3846178741965,2021-09-23 13:33:18.551
133,-117.0,988.0,-289.0,1036.0279918998328,2021-09-23 13:33:18.560
134,-253.0,999.0,-156.0,1042.2792332191984,2021-09-23 13:33:18.570
135,-211.0,1157.0,-15.0,1176.1781327673118,2021-09-23 13:33:18.580
136,-382.0,1152.0,-67.0,1215.5315709598003,2021-09-23 13:33:18.589
137,-413.0,833.0,-232.0,958.270316768708,2021-09-23 13:33:18.599
138,0.0,833.0,-232.0,864.7039955961809,2021-09-23 13:33:18.608
139,0.0,1043.0,80.0,1046.0635735938806,2021-09-23 13:33:18.609
140,-466.0,1057.0,-4.0,1155.1714158513446,2021-09-23 13:33:18.619
141,-206.0,859.0,-35.0,884.0486411957206,2021-09-23 13:33:18.629
142,-36.0,732.0,222.0,765.7702005171003,2021-09-23 13:33:18.638
143,-128.0,989.0,-87.0,1001.0364628723572,2021-09-23 13:33:18.648
144,-508.0,917.0,177.0,1063.1472146415097,2021-09-23 13:33:18.658
145,-315.0,1076.0,-218.0,1142.1580451058426,2021-09-23 13:33:18.667
146,-323.0,891.0,137.0,957.5902046282636,2021-09-23 13:33:18.686
147,-140.0,682.0,183.0,719.8701271757288,2021-09-23 13:33:18.689
148,-359.0,970.0,-79.0,1037.314802747941,2021-09-23 13:33:18.697
149,-275.0,970.0,-79.0,1011.3189407896996,2021-09-23 13:33:18.707
150,-275.0,1081.0,-5.0,1115.44206483349,2021-09-23 13:33:18.708
151,173.0,975.0,65.0,992.360317626617,2021-09-23 13:33:18.716
152,-233.0,951.0,-317.0,1029.1642240186936,2021-09-23 13:33:18.726
153,-91.0,1409.0,9.0,1411.964234674519,2021-09-23 13:33:18.736
154,70.0,985.0,9.0,987.5251895521452,2021-09-23 13:33:18.745
155,70.0,985.0,33.0,988.0354244661472,2021-09-23 13:33:18.746
156,-81.0,1070.0,-230.0,1097.433824884216,2021-09-23 13:33:18.756
157,-323.0,1048.0,-146.0,1106.3222857739058,2021-09-23 13:33:18.765
158,-144.0,1079.0,40.0,1089.3011521154283,2021-09-23 13:33:18.775
159,-226.0,938.0,40.0,965.6707513433344,2021-09-23 13:33:18.784
160,-226.0,938.0,-19.0,965.029015107836,2021-09-23 13:33:18.785
161,-61.0,1140.0,-15.0,1141.7293900044792,2021-09-23 13:33:18.795
162,-407.0,1027.0,-273.0,1137.9398050863674,2021-09-23 13:33:18.805
163,-273.0,1107.0,-13.0,1140.239887041319,2021-09-23 13:33:18.818
164,62.0,1044.0,-13.0,1045.9201690377713,2021-09-23 13:33:18.823
165,62.0,1044.0,87.0,1049.4517616355697,2021-09-23 13:33:18.824
166,-432.0,796.0,-167.0,920.9391945182916,2021-09-23 13:33:18.833
167,-111.0,996.0,64.0,1004.207647849786,2021-09-23 13:33:18.843
168,54.0,856.0,242.0,891.1879711935076,2021-09-23 13:33:18.854
169,-420.0,829.0,-158.0,942.6584747404544,2021-09-23 13:33:18.863
170,-240.0,864.0,174.0,913.4396531791248,2021-09-23 13:33:18.872
171,-155.0,773.0,86.0,793.0636796626108,2021-09-23 13:33:18.882
172,-330.0,1041.0,14.0,1092.143305615156,2021-09-23 13:33:18.892
173,-129.0,1020.0,-28.0,1028.5061983284302,2021-09-23 13:33:18.905
174,-343.0,1167.0,-151.0,1225.699392183907,2021-09-23 13:33:18.912
175,37.0,1074.0,98.0,1079.0963812375612,2021-09-23 13:33:18.921
176,-64.0,954.0,-32.0,956.6796747083112,2021-09-23 13:33:18.931
177,-248.0,1179.0,-284.0,1237.8210694603642,2021-09-23 13:33:18.941
178,34.0,1306.0,83.0,1309.076391964961,2021-09-23 13:33:18.952
179,-32.0,931.0,-89.0,935.79164347626,2021-09-23 13:33:18.961
180,-417.0,1141.0,-183.0,1228.5190271216804,2021-09-23 13:33:18.970
181,-139.0,981.0,32.0,991.3152878877638,2021-09-23 13:33:18.980
182,-91.0,930.0,32.0,934.989304751664,2021-09-23 13:33:18.989
183,-91.0,930.0,-57.0,936.178401801708,2021-09-23 13:33:18.990
184,-241.0,1141.0,-224.0,1187.4923157646117,2021-09-23 13:33:19.019
185,-241.0,1178.0,-59.0,1203.8463357090056,2021-09-23 13:33:19.023
186,-18.0,1178.0,-59.0,1179.6139198907413,2021-09-23 13:33:19.027
187,-18.0,871.0,25.0,871.5446058578987,2021-09-23 13:33:19.028
188,-144.0,1274.0,25.0,1282.3560348046872,2021-09-23 13:33:19.035
189,-144.0,1274.0,123.0,1287.9988354032002,2021-09-23 13:33:19.036
190,-55.0,818.0,-83.0,824.0376205004235,2021-09-23 13:33:19.043
191,-354.0,793.0,-83.0,872.3840897219527,2021-09-23 13:33:19.051
192,-354.0,793.0,-168.0,884.5275575130489,2021-09-23 13:33:19.052
193,-203.0,1089.0,152.0,1118.1386318341747,2021-09-23 13:33:19.073
194,-74.0,863.0,138.0,877.0912153248372,2021-09-23 13:33:19.078
195,-441.0,753.0,-103.0,878.6916410208987,2021-09-23 13:33:19.082
196,-126.0,764.0,197.0,798.9874842574194,2021-09-23 13:33:19.089
197,-127.0,871.0,16.0,880.3556099667907,2021-09-23 13:33:19.097
198,-332.0,839.0,-114.0,909.4729242808716,2021-09-23 13:33:19.108
199,136.0,839.0,-114.0,857.5622426389818,2021-09-23 13:33:19.116
200,136.0,1077.0,203.0,1104.3704088755728,2021-09-23 13:33:19.117
201,141.0,1098.0,-33.0,1107.5080135150265,2021-09-23 13:33:19.126
202,-272.0,1169.0,-247.0,1225.3791250058082,2021-09-23 13:33:19.137
203,167.0,1175.0,-129.0,1193.798559221781,2021-09-23 13:33:19.146
204,0.0,1214.0,-280.0,1245.871582467471,2021-09-23 13:33:19.156
205,142.0,1085.0,-78.0,1097.0291700770767,2021-09-23 13:33:19.165
206,-137.0,1098.0,-55.0,1107.879957396107,2021-09-23 13:33:19.177
207,-360.0,1248.0,-135.0,1305.8824602543675,2021-09-23 13:33:19.185
208,-293.0,1248.0,-135.0,1289.0221099732928,2021-09-23 13:33:19.194
209,-293.0,831.0,-3.0,881.1464123515456,2021-09-23 13:33:19.195
210,-200.0,831.0,-3.0,854.7338767125121,2021-09-23 13:33:19.204
211,-200.0,1068.0,-150.0,1096.8700925816147,2021-09-23 13:33:19.205
212,-465.0,1195.0,-203.0,1298.2522867301254,2021-09-23 13:33:19.215
213,17.0,963.0,43.0,964.1094336225532,2021-09-23 13:33:19.224
214,-124.0,874.0,-5.0,882.7666735893466,2021-09-23 13:33:19.234
215,-527.0,960.0,-110.0,1100.649353790752,2021-09-23 13:33:19.244
216,-113.0,1002.0,156.0,1020.3474898288327,2021-09-23 13:33:19.253
217,-11.0,774.0,7.0,774.1098113316999,2021-09-23 13:33:19.264
218,-478.0,952.0,-75.0,1067.9012126596729,2021-09-23 13:33:19.273
219,-77.0,837.0,-75.0,843.873805731639,2021-09-23 13:33:19.282
220,-77.0,837.0,224.0,869.870105245605,2021-09-23 13:33:19.283
221,-396.0,1022.0,-102.0,1100.7742729551776,2021-09-23 13:33:19.294
222,-87.0,614.0,-102.0,628.4655917391182,2021-09-23 13:33:19.302
223,-87.0,614.0,328.0,701.5333206626754,2021-09-23 13:33:19.303
224,-286.0,861.0,-80.0,910.7782386508804,2021-09-23 13:33:19.325
225,-286.0,951.0,-279.0,1031.5221762036915,2021-09-23 13:33:19.326
226,-6.0,1251.0,-279.0,1281.7480251593915,2021-09-23 13:33:19.331
227,-6.0,1251.0,162.0,1261.4598685649892,2021-09-23 13:33:19.332
228,-3.0,974.0,-129.0,982.5100508391758,2021-09-23 13:33:19.342
229,-68.0,1099.0,-297.0,1140.4534186015665,2021-09-23 13:33:19.351
230,-75.0,1283.0,38.0,1285.7519200841195,2021-09-23 13:33:19.361
231,-63.0,1135.0,30.0,1137.1429109834876,2021-09-23 13:33:19.371
232,-383.0,1052.0,-232.0,1143.3359086462735,2021-09-23 13:33:19.380
233,-208.0,1004.0,36.0,1025.9512658991166,2021-09-23 13:33:19.390
234,-218.0,1004.0,36.0,1028.0252915176748,2021-09-23 13:33:19.400
235,-218.0,1139.0,9.0,1159.7094463700812,2021-09-23 13:33:19.401
236,-263.0,1073.0,9.0,1104.798171613259,2021-09-23 13:33:19.409
237,-263.0,1073.0,31.0,1105.1963626433087,2021-09-23 13:33:19.410
238,-231.0,1018.0,-66.0,1045.9641485251775,2021-09-23 13:33:19.419
239,-371.0,1039.0,-348.0,1156.8344738984918,2021-09-23 13:33:19.430
240,36.0,1164.0,23.0,1164.7836709020264,2021-09-23 13:33:19.439
241,-283.0,966.0,83.0,1010.0168315429204,2021-09-23 13:33:19.449
242,-221.0,874.0,-101.0,907.1482789489268,2021-09-23 13:33:19.458
243,17.0,877.0,106.0,883.5462636444115,2021-09-23 13:33:19.468
244,-162.0,882.0,126.0,905.5628084235792,2021-09-23 13:33:19.479
245,-368.0,871.0,-39.0,946.354056365798,2021-09-23 13:33:19.488
246,-92.0,630.0,236.0,679.0139910193309,2021-09-23 13:33:19.501
247,-232.0,879.0,-183.0,927.3370476800762,2021-09-23 13:33:19.508
248,-383.0,1083.0,-153.0,1158.8731595821866,2021-09-23 13:33:19.517
249,159.0,1098.0,41.0,1110.209890065838,2021-09-23 13:33:19.527
250,-327.0,994.0,41.0,1047.2086707051274,2021-09-23 13:33:19.536
251,-327.0,994.0,-108.0,1051.9643530082187,2021-09-23 13:33:19.537
252,151.0,1087.0,107.0,1102.6418276122124,2021-09-23 13:33:19.546
253,-182.0,920.0,107.0,943.913661305948,2021-09-23 13:33:19.557
254,-182.0,920.0,-229.0,965.3833435480436,2021-09-23 13:33:19.558
255,40.0,1328.0,-89.0,1331.5798887036406,2021-09-23 13:33:19.566
256,17.0,1022.0,1.0,1022.1418688225232,2021-09-23 13:33:19.576
257,-33.0,973.0,-200.0,993.8903360029212,2021-09-23 13:33:19.586
258,-597.0,1315.0,55.0,1445.2193605124448,2021-09-23 13:33:19.595
259,-260.0,915.0,18.0,951.3931889602742,2021-09-23 13:33:19.605
260,-133.0,1025.0,18.0,1033.749486094189,2021-09-23 13:33:19.614
261,-133.0,1025.0,-75.0,1036.3102817206825,2021-09-23 13:33:19.615
262,-492.0,1014.0,-264.0,1157.5646850176452,2021-09-23 13:33:19.624
263,-185.0,1098.0,225.0,1135.9815139340956,2021-09-23 13:33:19.635
264,-110.0,851.0,-8.0,858.117124872823,2021-09-23 13:33:19.644
265,-265.0,818.0,-99.0,865.5345169315895,2021-09-23 13:33:19.654
266,-309.0,802.0,2.0,859.4701856376404,2021-09-23 13:33:19.664
267,-321.0,955.0,-166.0,1021.0886347423518,2021-09-23 13:33:19.673
268,21.0,870.0,217.0,896.9002174155161,2021-09-23 13:33:19.683
269,-153.0,993.0,-29.0,1005.1363091640854,2021-09-23 13:33:19.700
270,-251.0,762.0,-81.0,806.3535204858971,2021-09-23 13:33:19.703
271,-117.0,869.0,138.0,887.6339335559451,2021-09-23 13:33:19.715
272,-98.0,868.0,48.0,874.8325554070333,2021-09-23 13:33:19.722
273,-323.0,868.0,48.0,927.3925813807224,2021-09-23 13:33:19.733
274,-323.0,896.0,-189.0,971.0128732411326,2021-09-23 13:33:19.734
275,173.0,1073.0,-189.0,1103.1677116377184,2021-09-23 13:33:19.741
276,173.0,1073.0,5.0,1086.8684373004858,2021-09-23 13:33:19.742
277,-251.0,1058.0,-140.0,1096.341643831885,2021-09-23 13:33:19.751
278,-123.0,1172.0,-199.0,1195.1209143848166,2021-09-23 13:33:19.762
279,153.0,906.0,-108.0,925.1535007770332,2021-09-23 13:33:19.771
280,57.0,1213.0,-65.0,1216.07688901648,2021-09-23 13:33:19.781
281,3.0,1067.0,-83.0,1070.2275458985346,2021-09-23 13:33:19.790
282,-108.0,1024.0,-168.0,1043.2947809703642,2021-09-23 13:33:19.800
283,-327.0,1147.0,-104.0,1197.227630820472,2021-09-23 13:33:19.810
284,-70.0,897.0,-120.0,907.6943318099987,2021-09-23 13:33:19.820
285,-360.0,1078.0,-96.0,1140.570032922135,2021-09-23 13:33:19.829
286,-379.0,1208.0,-176.0,1278.233546735494,2021-09-23 13:33:19.840
287,30.0,970.0,88.0,974.4454833391144,2021-09-23 13:33:19.849
288,-334.0,844.0,-103.0,913.5102626681322,2021-09-23 13:33:19.859
289,-251.0,1041.0,-10.0,1070.879078140945,2021-09-23 13:33:19.869
290,-16.0,920.0,273.0,959.783829828363,2021-09-23 13:33:19.879
291,-74.0,752.0,-66.0,758.5090638878352,2021-09-23 13:33:19.889
292,-407.0,1065.0,-23.0,1140.3521385957936,2021-09-23 13:33:19.898
293,-232.0,848.0,-23.0,879.4640413342663,2021-09-23 13:33:19.907
294,-232.0,848.0,-89.0,883.6566075122169,2021-09-23 13:33:19.908
295,-16.0,954.0,-58.0,955.8953917662748,2021-09-23 13:33:19.920
296,-165.0,883.0,165.0,913.3121043761546,2021-09-23 13:33:19.929
297,-262.0,880.0,-141.0,928.9375651786293,2021-09-23 13:33:19.937
298,-316.0,880.0,-141.0,945.5881767450352,2021-09-23 13:33:19.946
299,-316.0,945.0,-155.0,1008.4175722388022,2021-09-23 13:33:19.947
300,112.0,1184.0,-155.0,1199.3435704584404,2021-09-23 13:33:19.956
301,112.0,1184.0,135.0,1196.9231387186062,2021-09-23 13:33:19.957
302,-184.0,1004.0,-168.0,1034.4544455895582,2021-09-23 13:33:19.967
303,70.0,1239.0,-126.0,1247.3560037134546,2021-09-23 13:33:19.977
304,1.0,1060.0,-4.0,1060.0080188375937,2021-09-23 13:33:19.986
305,-108.0,1391.0,-316.0,1430.5247289019508,2021-09-23 13:33:19.995
306,-436.0,780.0,31.0,894.1235932464817,2021-09-23 13:33:20.005
307,-265.0,1023.0,13.0,1056.8457787208122,2021-09-23 13:33:20.015
308,-212.0,1209.0,-78.0,1229.9223552728847,2021-09-23 13:33:20.036
309,-152.0,1119.0,-75.0,1131.764109697776,2021-09-23 13:33:20.038
310,-352.0,1254.0,-158.0,1312.015243813882,2021-09-23 13:33:20.046
311,-390.0,950.0,-174.0,1041.5738091945284,2021-09-23 13:33:20.054
312,130.0,940.0,63.0,951.0357511681672,2021-09-23 13:33:20.064
313,-553.0,1003.0,63.0,1147.077591098353,2021-09-23 13:33:20.073
314,-553.0,1003.0,-112.0,1150.8092804631008,2021-09-23 13:33:20.074
315,-327.0,991.0,42.0,1044.4012638828049,2021-09-23 13:33:20.084
316,183.0,991.0,42.0,1008.6297635901888,2021-09-23 13:33:20.094
317,183.0,731.0,283.0,804.9465820785874,2021-09-23 13:33:20.095
318,-369.0,731.0,283.0,866.3780929825037,2021-09-23 13:33:20.103
319,-369.0,955.0,-128.0,1031.780015313342,2021-09-23 13:33:20.104
320,-215.0,994.0,89.0,1020.873155685857,2021-09-23 13:33:20.113
321,8.0,606.0,108.0,615.6005198178442,2021-09-23 13:33:20.122
322,-293.0,992.0,-89.0,1038.187844274821,2021-09-23 13:33:20.132
323,-249.0,1105.0,-93.0,1136.5188075874505,2021-09-23 13:33:20.144
324,247.0,959.0,158.0,1002.8230152923296,2021-09-23 13:33:20.153
325,-179.0,1153.0,40.0,1167.4973233374028,2021-09-23 13:33:20.161
326,78.0,996.0,81.0,1002.3277906952396,2021-09-23 13:33:20.171
327,-307.0,1002.0,-340.0,1101.7499716360333,2021-09-23 13:33:20.181
328,-145.0,1389.0,61.0,1397.8794654761905,2021-09-23 13:33:20.191
329,95.0,922.0,23.0,927.1666516867396,2021-09-23 13:33:20.203
330,-139.0,972.0,-244.0,1011.7514516915704,2021-09-23 13:33:20.210
331,-233.0,1105.0,-92.0,1133.0392755769767,2021-09-23 13:33:20.220
332,-135.0,1007.0,51.0,1017.2880614653844,2021-09-23 13:33:20.230
333,-324.0,1085.0,-259.0,1161.585984763935,2021-09-23 13:33:20.240
334,-360.0,1057.0,-146.0,1126.12832306092,2021-09-23 13:33:20.250
335,-45.0,1057.0,-146.0,1067.984082278383,2021-09-23 13:33:20.259
336,-45.0,1135.0,138.0,1144.243855128792,2021-09-23 13:33:20.260
337,-412.0,859.0,-198.0,973.0513861045572,2021-09-23 13:33:20.269
338,-317.0,859.0,-198.0,936.7891972050062,2021-09-23 13:33:20.278
339,-317.0,1005.0,47.0,1054.8568623277758,2021-09-23 13:33:20.279
340,-455.0,851.0,47.0,966.1443991453864,2021-09-23 13:33:20.288
341,-455.0,851.0,-164.0,978.8370650930624,2021-09-23 13:33:20.289
342,-285.0,983.0,-164.0,1036.53750535135,2021-09-23 13:33:20.298
343,-285.0,983.0,13.0,1023.5638719689164,2021-09-23 13:33:20.299
344,83.0,833.0,272.0,880.2056577868607,2021-09-23 13:33:20.310
345,-344.0,820.0,-11.0,889.3014112211899,2021-09-23 13:33:20.318
346,-156.0,820.0,-11.0,834.7796116341127,2021-09-23 13:33:20.338
347,-156.0,821.0,-4.0,835.6991085312943,2021-09-23 13:33:20.339
348,-254.0,821.0,-4.0,859.4026995535911,2021-09-23 13:33:20.341
349,-254.0,819.0,117.0,865.4282177049695,2021-09-23 13:33:20.342
350,-179.0,819.0,117.0,846.4579138976727,2021-09-23 13:33:20.352
351,-179.0,935.0,-12.0,952.0556706411658,2021-09-23 13:33:20.353
352,-216.0,934.0,-108.0,964.7155021041176,2021-09-23 13:33:20.357
353,88.0,1078.0,14.0,1081.6764765862297,2021-09-23 13:33:20.367
354,-249.0,1114.0,-106.0,1146.4000174459177,2021-09-23 13:33:20.377
355,16.0,1198.0,-183.0,1212.0020627045153,2021-09-23 13:33:20.387
356,91.0,981.0,-17.0,985.3583104637622,2021-09-23 13:33:20.396
357,-91.0,981.0,-17.0,985.3583104637622,2021-09-23 13:33:20.405
358,-91.0,1237.0,-142.0,1248.4446323325676,2021-09-23 13:33:20.406
359,-323.0,929.0,-128.0,991.8437376925864,2021-09-23 13:33:20.415
360,-266.0,1174.0,-157.0,1213.9526349903442,2021-09-23 13:33:20.426
361,-283.0,995.0,-61.0,1036.2601024839275,2021-09-23 13:33:20.437
362,-21.0,995.0,-61.0,997.0892638074084,2021-09-23 13:33:20.444
363,-21.0,926.0,-70.0,928.8794324345868,2021-09-23 13:33:20.445
364,-407.0,1240.0,-135.0,1312.0495417475668,2021-09-23 13:33:20.454
365,-372.0,1050.0,-135.0,1122.100262899889,2021-09-23 13:33:20.465
366,-372.0,1050.0,-146.0,1123.4767465328332,2021-09-23 13:33:20.466
367,142.0,930.0,39.0,941.5864272598666,2021-09-23 13:33:20.474
368,-535.0,930.0,39.0,1073.6135245049777,2021-09-23 13:33:20.484
369,-535.0,948.0,-150.0,1098.8307421982695,2021-09-23 13:33:20.485
370,-350.0,1096.0,-150.0,1160.265486860658,2021-09-23 13:33:20.493
371,-350.0,1096.0,96.0,1154.526742869129,2021-09-23 13:33:20.494
372,156.0,715.0,325.0,800.7409069105936,2021-09-23 13:33:20.503
373,-256.0,699.0,-46.0,745.8237057106726,2021-09-23 13:33:20.513
374,-254.0,1055.0,52.0,1086.3908136577738,2021-09-23 13:33:20.523
375,-51.0,618.0,122.0,631.9881327999759,2021-09-23 13:33:20.534
376,-259.0,881.0,-47.0,919.4840944790724,2021-09-23 13:33:20.543
377,-70.0,768.0,145.0,784.6967567156117,2021-09-23 13:33:20.552
378,-190.0,886.0,-166.0,921.2231000143232,2021-09-23 13:33:20.562
379,-192.0,1130.0,11.0,1146.2482279157512,2021-09-23 13:33:20.574
380,105.0,1117.0,50.0,1123.0378444202136,2021-09-23 13:33:20.582
381,-261.0,911.0,-255.0,981.359770930111,2021-09-23 13:33:20.592
382,17.0,1330.0,-78.0,1332.393710582574,2021-09-23 13:33:20.601
383,-52.0,1330.0,-78.0,1333.2996662416142,2021-09-23 13:33:20.610
384,-52.0,1057.0,82.0,1061.450422770654,2021-09-23 13:33:20.611
385,-96.0,1004.0,-224.0,1033.1543931087938,2021-09-23 13:33:20.620
386,-281.0,1080.0,-169.0,1128.6815316997086,2021-09-23 13:33:20.630
387,-305.0,1129.0,94.0,1173.244220100828,2021-09-23 13:33:20.641
388,-242.0,1049.0,-198.0,1094.6090626337789,2021-09-23 13:33:20.650
389,-368.0,849.0,-198.0,946.2711028029968,2021-09-23 13:33:20.659
390,-368.0,849.0,-192.0,945.0338618271834,2021-09-23 13:33:20.660
391,-121.0,1166.0,159.0,1182.9953507939074,2021-09-23 13:33:20.669
392,-258.0,779.0,-20.0,820.856260255107,2021-09-23 13:33:20.679
393,57.0,1049.0,124.0,1057.8402525901536,2021-09-23 13:33:20.690
394,-432.0,920.0,124.0,1023.9140588936164,2021-09-23 13:33:20.699
395,-432.0,920.0,-86.0,1020.0098038744528,2021-09-23 13:33:20.700
396,-221.0,920.0,-86.0,950.0721025269607,2021-09-23 13:33:20.715
397,-221.0,948.0,-84.0,977.0368467974992,2021-09-23 13:33:20.716
398,-131.0,952.0,306.0,1008.5142537416116,2021-09-23 13:33:20.718
399,-289.0,952.0,306.0,1040.8943270092311,2021-09-23 13:33:20.728
400,-289.0,850.0,22.0,898.0562343194329,2021-09-23 13:33:20.729
401,-229.0,850.0,22.0,880.5821937786387,2021-09-23 13:33:20.738
402,-229.0,830.0,-8.0,861.0487791060388,2021-09-23 13:33:20.739
403,-247.0,695.0,187.0,760.9224664839381,2021-09-23 13:33:20.748
404,-206.0,967.0,33.0,989.249210259983,2021-09-23 13:33:20.757
405,-306.0,1027.0,-109.0,1077.147158005813,2021-09-23 13:33:20.767
406,205.0,991.0,28.0,1012.368509980432,2021-09-23 13:33:20.777
407,-307.0,1148.0,28.0,1188.6702654647336,2021-09-23 13:33:20.788
408,-307.0,1148.0,-113.0,1193.7009675794018,2021-09-23 13:33:20.791
409,36.0,1148.0,-113.0,1154.1096135116456,2021-09-23 13:33:20.796
410,36.0,1225.0,-96.0,1229.2831244265903,2021-09-23 13:33:20.797
411,73.0,1009.0,-59.0,1013.3563045641944,2021-09-23 13:33:20.806
412,18.0,1350.0,-18.0,1350.2399786704584,2021-09-23 13:33:20.816
413,46.0,902.0,-18.0,903.3515373319514,2021-09-23 13:33:20.825
414,46.0,902.0,-49.0,904.5004145936032,2021-09-23 13:33:20.826
415,-68.0,1254.0,-188.0,1269.836209910554,2021-09-23 13:33:20.835
416,-324.0,1127.0,-188.0,1187.6232567611669,2021-09-23 13:33:20.845
417,-324.0,1127.0,-127.0,1179.5058287265902,2021-09-23 13:33:20.846
418,-130.0,894.0,-63.0,905.5964885090932,2021-09-23 13:33:20.856
419,-359.0,1216.0,-63.0,1269.4510624675534,2021-09-23 13:33:20.864
420,-359.0,1216.0,-214.0,1285.819971846759,2021-09-23 13:33:20.865
421,-443.0,955.0,-68.0,1054.9398087094828,2021-09-23 13:33:20.874
422,150.0,1012.0,90.0,1027.0073027977942,2021-09-23 13:33:20.884
423,-421.0,838.0,-193.0,957.4622707971316,2021-09-23 13:33:20.895
424,-517.0,1107.0,157.0,1231.822633336472,2021-09-23 13:33:20.904
425,119.0,803.0,357.0,886.8026838028852,2021-09-23 13:33:20.913
426,-143.0,759.0,-162.0,789.1603132444003,2021-09-23 13:33:20.923
427,-435.0,1024.0,87.0,1115.9614688688853,2021-09-23 13:33:20.933
428,-297.0,836.0,-199.0,909.2337433245644,2021-09-23 13:33:20.946
429,-261.0,940.0,-199.0,995.6515454716072,2021-09-23 13:33:20.953
430,-261.0,940.0,154.0,987.6421416687322,2021-09-23 13:33:20.954
431,-135.0,844.0,178.0,873.0664350437486,2021-09-23 13:33:20.962
432,-192.0,826.0,-109.0,854.9976608155135,2021-09-23 13:33:20.972
433,-97.0,1086.0,-61.0,1092.0283879093986,2021-09-23 13:33:20.982
434,16.0,1104.0,80.0,1107.010388388474,2021-09-23 13:33:20.992
435,-316.0,1057.0,80.0,1106.1216027182545,2021-09-23 13:33:21.005
436,-316.0,1057.0,-246.0,1130.3189815268963,2021-09-23 13:33:21.006
437,10.0,1263.0,-103.0,1267.2324175146405,2021-09-23 13:33:21.011
438,-66.0,1038.0,115.0,1046.4344222167006,2021-09-23 13:33:21.021
439,-155.0,1125.0,-226.0,1157.8972320547275,2021-09-23 13:33:21.031
440,-204.0,934.0,-180.0,972.8165294648318,2021-09-23 13:33:21.051
441,-256.0,1143.0,-20.0,1171.4883695538765,2021-09-23 13:33:21.053
442,-277.0,1136.0,-20.0,1169.45500127196,2021-09-23 13:33:21.060
443,-277.0,1136.0,-203.0,1186.7746205577537,2021-09-23 13:33:21.061
444,-162.0,936.0,-50.0,951.2307816718296,2021-09-23 13:33:21.070
445,-402.0,1176.0,-122.0,1248.7850095192528,2021-09-23 13:33:21.080
446,-137.0,1002.0,-77.0,1014.249476213816,2021-09-23 13:33:21.089
447,-59.0,923.0,35.0,925.5457849290872,2021-09-23 13:33:21.099
448,-377.0,1017.0,-93.0,1088.6078265380972,2021-09-23 13:33:21.109
449,-296.0,1006.0,163.0,1061.2356006090258,2021-09-23 13:33:21.119
450,141.0,675.0,54.0,691.6805621094177,2021-09-23 13:33:21.129
451,-455.0,936.0,-165.0,1053.7295668244296,2021-09-23 13:33:21.138
452,-395.0,944.0,304.0,1067.5097189253129,2021-09-23 13:33:21.148
453,-67.0,574.0,128.0,591.9028636524747,2021-09-23 13:33:21.158
454,-339.0,956.0,-65.0,1016.4064147770812,2021-09-23 13:33:21.168
455,-265.0,956.0,-65.0,994.1760407493232,2021-09-23 13:33:21.177
456,-265.0,1131.0,70.0,1163.7379430095075,2021-09-23 13:33:21.178
457,85.0,1025.0,59.0,1030.2092020555824,2021-09-23 13:33:21.187
458,-24.0,1259.0,59.0,1260.61016971941,2021-09-23 13:33:21.196
459,-24.0,1259.0,122.0,1265.1248950202505,2021-09-23 13:33:21.197
460,-23.0,935.0,-43.0,936.2707941616036,2021-09-23 13:33:21.207
461,-162.0,1073.0,-241.0,1111.5997481108027,2021-09-23 13:33:21.217
462,53.0,1345.0,-17.0,1346.1511802171403,2021-09-23 13:33:21.226
463,-45.0,1044.0,30.0,1045.3999234742655,2021-09-23 13:33:21.236
464,-264.0,1060.0,30.0,1092.7927525381929,2021-09-23 13:33:21.245
465,-264.0,1060.0,-274.0,1126.2202271314434,2021-09-23 13:33:21.246
466,-284.0,916.0,-32.0,959.5498944817824,2021-09-23 13:33:21.255
467,-149.0,916.0,-32.0,928.5908679283896,2021-09-23 13:33:21.265
468,-149.0,1087.0,36.0,1097.7549817696115,2021-09-23 13:33:21.266
469,-172.0,1087.0,36.0,1101.112619126672,2021-09-23 13:33:21.275
470,-172.0,1122.0,-366.0,1192.6541829046676,2021-09-23 13:33:21.276
471,-344.0,981.0,-71.0,1041.987523917633,2021-09-23 13:33:21.285
472,28.0,1075.0,86.0,1078.7979421559903,2021-09-23 13:33:21.295
473,-520.0,810.0,-144.0,973.2604995580576,2021-09-23 13:33:21.304
474,-151.0,1006.0,66.0,1019.4081616310516,2021-09-23 13:33:21.314
475,-333.0,889.0,-158.0,962.3793430867062,2021-09-23 13:33:21.324
476,-106.0,887.0,90.0,897.8335034960546,2021-09-23 13:33:21.333
477,-327.0,887.0,90.0,949.6304544400416,2021-09-23 13:33:21.354
478,-327.0,900.0,151.0,969.3967196148334,2021-09-23 13:33:21.355
479,-327.0,887.0,-39.0,946.1601344381404,2021-09-23 13:33:21.356
480,-173.0,712.0,197.0,758.7371086219522,2021-09-23 13:33:21.364
481,-115.0,840.0,-31.0,848.4020273431694,2021-09-23 13:33:21.372
482,-325.0,1161.0,-142.0,1213.9645793844234,2021-09-23 13:33:21.383
483,-44.0,1005.0,58.0,1007.6333658628024,2021-09-23 13:33:21.392
484,43.0,932.0,-81.0,936.500934329486,2021-09-23 13:33:21.402
485,-205.0,932.0,-81.0,957.7108123019182,2021-09-23 13:33:21.412
486,-205.0,1257.0,-246.0,1297.1468690938586,2021-09-23 13:33:21.413
487,36.0,1257.0,-246.0,1281.3512399026272,2021-09-23 13:33:21.423
488,36.0,1166.0,-42.0,1167.3114408759986,2021-09-23 13:33:21.424
489,-55.0,1005.0,-29.0,1006.9215460997942,2021-09-23 13:33:21.431
490,63.0,1172.0,-12.0,1173.753381251786,2021-09-23 13:33:21.441
491,-82.0,1007.0,-158.0,1022.6128299605869,2021-09-23 13:33:21.451
492,-397.0,1152.0,-60.0,1219.9643437412424,2021-09-23 13:33:21.461
493,-205.0,951.0,40.0,973.6662672599888,2021-09-23 13:33:21.471
494,-150.0,945.0,-54.0,958.3532751548356,2021-09-23 13:33:21.480
495,-423.0,945.0,-54.0,1036.7593742040629,2021-09-23 13:33:21.489
496,-423.0,1096.0,-305.0,1213.742147245452,2021-09-23 13:33:21.490
497,-134.0,1233.0,154.0,1249.7843814034484,2021-09-23 13:33:21.499
498,-82.0,853.0,-18.0,857.121344968144,2021-09-23 13:33:21.510
499,-386.0,842.0,-245.0,958.1153375246636,2021-09-23 13:33:21.521
500,-201.0,1138.0,217.0,1175.8120598122814,2021-09-23 13:33:21.529
501,-13.0,750.0,127.0,760.7877496384915,2021-09-23 13:33:21.538
502,-372.0,771.0,-152.0,869.441774933779,2021-09-23 13:33:21.548
503,-177.0,848.0,186.0,886.0186228291142,2021-09-23 13:33:21.558
504,-240.0,810.0,-94.0,850.0211762068049,2021-09-23 13:33:21.569
505,-254.0,810.0,-94.0,854.0796215810327,2021-09-23 13:33:21.577
506,-254.0,673.0,209.0,749.0834399451105,2021-09-23 13:33:21.578
507,-177.0,912.0,36.0,929.7144722978126,2021-09-23 13:33:21.587
508,-257.0,820.0,-185.0,879.0187711306284,2021-09-23 13:33:21.597
509,106.0,1127.0,-8.0,1132.0022084784111,2021-09-23 13:33:21.607
510,-161.0,1035.0,-26.0,1047.7700129322277,2021-09-23 13:33:21.617
511,-21.0,1035.0,-26.0,1035.5394729318627,2021-09-23 13:33:21.627
512,-21.0,1256.0,-187.0,1270.0181101070962,2021-09-23 13:33:21.628
513,78.0,1031.0,-62.0,1035.8035528033297,2021-09-23 13:33:21.636
514,-194.0,1155.0,10.0,1171.2220114051818,2021-09-23 13:33:21.646
515,-258.0,1180.0,-168.0,1219.5031775276357,2021-09-23 13:33:21.656
516,-410.0,818.0,1.0,915.0,2021-09-23 13:33:21.666
517,-266.0,818.0,1.0,860.1633565782723,2021-09-23 13:33:21.676
518,-266.0,1002.0,-75.0,1039.4157012475807,2021-09-23 13:33:21.677
519,-377.0,1190.0,-212.0,1266.1646812322638,2021-09-23 13:33:21.685
520,-192.0,1254.0,-205.0,1285.0700370018749,2021-09-23 13:33:21.695
521,-514.0,1055.0,-162.0,1184.6792814935188,2021-09-23 13:33:21.704
522,-9.0,993.0,114.0,999.5629044737505,2021-09-23 13:33:21.714
523,-263.0,992.0,-129.0,1034.3471370869647,2021-09-23 13:33:21.732
524,-430.0,934.0,-64.0,1030.2193941098178,2021-09-23 13:33:21.736
525,-40.0,863.0,253.0,900.209975505715,2021-09-23 13:33:21.744
526,40.0,863.0,253.0,900.209975505715,2021-09-23 13:33:21.754
527,40.0,698.0,-51.0,701.0028530612411,2021-09-23 13:33:21.755
528,-487.0,1004.0,36.0,1116.4591349440427,2021-09-23 13:33:21.763
529,-172.0,671.0,310.0,758.8972262434486,2021-09-23 13:33:21.773
530,-122.0,671.0,310.0,749.1495177866699,2021-09-23 13:33:21.782
531,-122.0,802.0,-84.0,815.563608800687,2021-09-23 13:33:21.783
532,-331.0,1026.0,-226.0,1101.5048796986785,2021-09-23 13:33:21.792
533,45.0,1026.0,-226.0,1051.5593183458554,2021-09-23 13:33:21.802
534,45.0,1198.0,125.0,1205.3439343191635,2021-09-23 13:33:21.803
535,-327.0,905.0,-196.0,982.0234213092884,2021-09-23 13:33:21.812
536,89.0,905.0,-196.0,930.2483539356572,2021-09-23 13:33:21.821
537,89.0,1269.0,120.0,1277.764454036815,2021-09-23 13:33:21.822
538,-232.0,921.0,-163.0,963.6565778325804,2021-09-23 13:33:21.831
539,110.0,1196.0,-168.0,1212.7406977585931,2021-09-23 13:33:21.841
540,17.0,1196.0,-168.0,1207.8613331007828,2021-09-23 13:33:21.852
541,17.0,1209.0,-48.0,1210.0718986903216,2021-09-23 13:33:21.853
542,-175.0,1104.0,-48.0,1118.8141043086648,2021-09-23 13:33:21.860
543,-175.0,1104.0,-65.0,1119.6722734800571,2021-09-23 13:33:21.861
544,-249.0,999.0,-216.0,1051.9781366549405,2021-09-23 13:33:21.870
545,-262.0,1020.0,20.0,1053.301476311507,2021-09-23 13:33:21.880
546,-334.0,1112.0,-40.0,1161.765897244363,2021-09-23 13:33:21.890
547,-362.0,955.0,-216.0,1043.898941468953,2021-09-23 13:33:21.900
548,-75.0,1122.0,110.0,1129.8712316011945,2021-09-23 13:33:21.911
549,-319.0,1049.0,-76.0,1099.0623276229603,2021-09-23 13:33:21.919
550,-310.0,955.0,-14.0,1004.1518809423204,2021-09-23 13:33:21.929
551,-452.0,1090.0,-81.0,1182.7785084283532,2021-09-23 13:33:21.939
552,-257.0,963.0,-81.0,999.9894999448744,2021-09-23 13:33:21.948
553,-257.0,963.0,15.0,996.8164324488235,2021-09-23 13:33:21.949
554,67.0,731.0,233.0,770.1551791684582,2021-09-23 13:33:21.962
555,-215.0,961.0,-89.0,988.7704485875374,2021-09-23 13:33:21.968
556,-341.0,981.0,143.0,1048.3754098604184,2021-09-23 13:33:21.978
557,-95.0,506.0,137.0,532.7569802452147,2021-09-23 13:33:21.988
558,-359.0,913.0,-43.0,981.9872707932624,2021-09-23 13:33:21.998
559,-346.0,1089.0,-49.0,1143.6948893826534,2021-09-23 13:33:22.007
560,184.0,946.0,81.0,967.1261551628102,2021-09-23 13:33:22.017
561,-189.0,946.0,81.0,968.0898718610788,2021-09-23 13:33:22.026
562,-189.0,1007.0,-228.0,1049.644701791992,2021-09-23 13:33:22.027
563,-1.0,1354.0,-161.0,1363.5387783264546,2021-09-23 13:33:22.037
564,-29.0,1049.0,40.0,1050.162844515078,2021-09-23 13:33:22.048
565,-9.0,1009.0,-213.0,1031.2763936016377,2021-09-23 13:33:22.065
566,-41.0,983.0,16.0,983.9847559794816,2021-09-23 13:33:22.068
567,-14.0,1018.0,-279.0,1055.6329854641715,2021-09-23 13:33:22.076
568,-317.0,1125.0,-152.0,1178.6509237259352,2021-09-23 13:33:22.087
569,-203.0,952.0,71.0,975.9887294431222,2021-09-23 13:33:22.095
570,-304.0,1125.0,-174.0,1178.268645089056,2021-09-23 13:33:22.105
571,-461.0,916.0,-174.0,1040.1216275032457,2021-09-23 13:33:22.114
572,-461.0,916.0,-223.0,1049.4312745482669,2021-09-23 13:33:22.115
573,-155.0,1217.0,201.0,1243.1874355864445,2021-09-23 13:33:22.125
574,-358.0,898.0,201.0,987.4051853216084,2021-09-23 13:33:22.135
575,-358.0,898.0,-100.0,971.8888825375049,2021-09-23 13:33:22.136
576,-409.0,925.0,-161.0,1024.122551260346,2021-09-23 13:33:22.144
577,-51.0,940.0,-161.0,955.0507839900451,2021-09-23 13:33:22.153
578,-51.0,940.0,318.0,993.6422897602536,2021-09-23 13:33:22.154
579,-183.0,945.0,-22.0,962.8073535240578,2021-09-23 13:33:22.163
580,110.0,871.0,291.0,924.8902637610583,2021-09-23 13:33:22.176
581,-39.0,871.0,291.0,919.1534148334542,2021-09-23 13:33:22.184
582,-39.0,623.0,234.0,666.6378327097856,2021-09-23 13:33:22.185
583,-229.0,623.0,234.0,703.7940039528612,2021-09-23 13:33:22.192
584,-229.0,797.0,167.0,845.8953836024878,2021-09-23 13:33:22.193
585,-123.0,736.0,138.0,758.8603297050123,2021-09-23 13:33:22.202
586,-309.0,1015.0,5.0,1061.0047125248784,2021-09-23 13:33:22.212
587,-28.0,957.0,-151.0,969.2440353182474,2021-09-23 13:33:22.222
588,107.0,1032.0,22.0,1037.7653877442629,2021-09-23 13:33:22.232
589,-315.0,1114.0,-116.0,1163.476256740979,2021-09-23 13:33:22.246
590,57.0,1240.0,-141.0,1249.2917993807532,2021-09-23 13:33:22.251
591,136.0,923.0,-8.0,933.0,2021-09-23 13:33:22.261
592,-171.0,1200.0,-195.0,1227.7076199160776,2021-09-23 13:33:22.271
593,-327.0,1200.0,-195.0,1258.9495621350366,2021-09-23 13:33:22.280
594,-327.0,1068.0,-97.0,1121.143166593812,2021-09-23 13:33:22.281
595,-266.0,926.0,0.0,963.4479747241156,2021-09-23 13:33:22.291
596,-283.0,1142.0,-199.0,1193.2535355070188,2021-09-23 13:33:22.300
597,-339.0,1126.0,-109.0,1180.964859765099,2021-09-23 13:33:22.310
598,-322.0,1179.0,-223.0,1242.3582414102625,2021-09-23 13:33:22.320
599,-307.0,1072.0,-94.0,1119.0482563321386,2021-09-23 13:33:22.330
600,94.0,988.0,22.0,992.70539436431,2021-09-23 13:33:22.339
601,-294.0,865.0,-197.0,934.5961694764216,2021-09-23 13:33:22.349
602,-330.0,1105.0,45.0,1154.1013820284595,2021-09-23 13:33:22.369
603,77.0,766.0,273.0,816.8316840084009,2021-09-23 13:33:22.372
604,-76.0,766.0,273.0,816.7380240934053,2021-09-23 13:33:22.379
605,-76.0,828.0,-229.0,862.4389833489671,2021-09-23 13:33:22.380
606,-461.0,948.0,240.0,1081.1221022622744,2021-09-23 13:33:22.388
607,-147.0,763.0,179.0,797.3825932386535,2021-09-23 13:33:22.398
608,-277.0,807.0,179.0,871.7906858873866,2021-09-23 13:33:22.407
609,-277.0,807.0,-64.0,855.6132303792409,2021-09-23 13:33:22.408
610,-325.0,1003.0,-177.0,1069.0944766483456,2021-09-23 13:33:22.417
611,-8.0,1152.0,194.0,1168.2482612869578,2021-09-23 13:33:22.428
612,-321.0,865.0,-170.0,938.171626089811,2021-09-23 13:33:22.437
613,45.0,1192.0,-170.0,1204.902070709483,2021-09-23 13:33:22.446
614,45.0,1192.0,32.0,1193.2782575744857,2021-09-23 13:33:22.447
615,-170.0,935.0,-132.0,959.45244801397,2021-09-23 13:33:22.456
616,110.0,1244.0,-138.0,1256.4553314782029,2021-09-23 13:33:22.470
617,-101.0,1075.0,52.0,1080.9856613295108,2021-09-23 13:33:22.476
618,-216.0,1152.0,-187.0,1186.898900496584,2021-09-23 13:33:22.486
619,-102.0,818.0,-144.0,836.8177818378383,2021-09-23 13:33:22.496
620,-148.0,1140.0,-66.0,1151.4599428551564,2021-09-23 13:33:22.505
621,-301.0,1243.0,-163.0,1289.2707240917246,2021-09-23 13:33:22.515
622,-327.0,1243.0,-163.0,1295.5875115174583,2021-09-23 13:33:22.525
623,-327.0,842.0,-145.0,914.8322250555016,2021-09-23 13:33:22.526
624,88.0,1010.0,47.0,1014.915267399205,2021-09-23 13:33:22.534
625,-324.0,969.0,-61.0,1023.5516596635464,2021-09-23 13:33:22.544
626,-495.0,817.0,-31.0,955.758860801196,2021-09-23 13:33:22.554
627,-200.0,846.0,-50.0,870.7559933758711,2021-09-23 13:33:22.564
628,-91.0,958.0,60.0,964.1809996053646,2021-09-23 13:33:22.574
629,-306.0,792.0,57.0,850.9694471601199,2021-09-23 13:33:22.583
630,-153.0,880.0,43.0,894.235986750701,2021-09-23 13:33:22.593
631,-44.0,1154.0,-7.0,1154.8597317423446,2021-09-23 13:33:22.603
632,-358.0,646.0,-7.0,738.5993501215662,2021-09-23 13:33:22.612
633,-358.0,646.0,138.0,751.3481217118999,2021-09-23 13:33:22.613
634,-59.0,862.0,-56.0,865.8296599216269,2021-09-23 13:33:22.622
635,-56.0,1123.0,-46.0,1125.3359498389802,2021-09-23 13:33:22.632
636,-193.0,886.0,-45.0,907.893165521142,2021-09-23 13:33:22.642
637,-96.0,886.0,-45.0,892.3211305354143,2021-09-23 13:33:22.652
638,-96.0,1087.0,-107.0,1096.4643177048672,2021-09-23 13:33:22.653
639,-224.0,1141.0,-87.0,1166.0300167662924,2021-09-23 13:33:22.661
640,-243.0,1025.0,26.0,1053.7314648429171,2021-09-23 13:33:22.672
641,-89.0,1066.0,-219.0,1091.8965152430883,2021-09-23 13:33:22.681
642,-94.0,935.0,-116.0,946.8458163819492,2021-09-23 13:33:22.691
643,-112.0,1031.0,-116.0,1043.532941502088,2021-09-23 13:33:22.700
644,-112.0,1031.0,-192.0,1054.6890537025592,2021-09-23 13:33:22.701
645,-246.0,1057.0,-65.0,1087.1936350071223,2021-09-23 13:33:22.710
646,-237.0,1137.0,37.0,1162.0271081175345,2021-09-23 13:33:22.721
647,-146.0,907.0,-49.0,919.9815215535582,2021-09-23 13:33:22.730
648,-181.0,938.0,-40.0,956.1406800256958,2021-09-23 13:33:22.748
649,-253.0,1072.0,38.0,1102.1057118080823,2021-09-23 13:33:22.751
650,-147.0,851.0,15.0,863.7331763918762,2021-09-23 13:33:22.759
651,-169.0,831.0,-29.0,848.5063346846622,2021-09-23 13:33:22.770
652,-184.0,998.0,-1.0,1014.8206738138516,2021-09-23 13:33:22.779
653,-188.0,963.0,86.0,984.941114991145,2021-09-23 13:33:22.788
654,-114.0,863.0,-46.0,871.7115348554245,2021-09-23 13:33:22.798
655,-223.0,1005.0,-8.0,1029.474623290929,2021-09-23 13:33:22.808
656,-105.0,1005.0,-8.0,1010.5018555153672,2021-09-23 13:33:22.818
657,-105.0,867.0,-30.0,873.850101562047,2021-09-23 13:33:22.819
658,-222.0,984.0,-32.0,1009.2393175060116,2021-09-23 13:33:22.827
659,-197.0,984.0,-32.0,1004.036353923502,2021-09-23 13:33:22.837
660,-197.0,1012.0,41.0,1031.811029210291,2021-09-23 13:33:22.838
661,-62.0,963.0,-104.0,970.5817842922872,2021-09-23 13:33:22.847
662,-135.0,963.0,-104.0,977.962166957393,2021-09-23 13:33:22.856
663,-135.0,1000.0,-116.0,1015.716988141874,2021-09-23 13:33:22.857
664,-197.0,1252.0,13.0,1267.4707097207415,2021-09-23 13:33:22.867
665,-58.0,1252.0,13.0,1253.410148355278,2021-09-23 13:33:22.876
666,-58.0,1000.0,-107.0,1007.3792731637872,2021-09-23 13:33:22.877
667,-185.0,930.0,-138.0,958.2113545559768,2021-09-23 13:33:22.886
668,-194.0,1212.0,-79.0,1229.9678857596243,2021-09-23 13:33:22.896
669,-176.0,1039.0,-79.0,1056.7582505000848,2021-09-23 13:33:22.905
670,-176.0,1039.0,-8.0,1053.8315804719462,2021-09-23 13:33:22.906
671,-224.0,944.0,-59.0,972.0046296186042,2021-09-23 13:33:22.916
672,-130.0,1037.0,-64.0,1047.0744959170763,2021-09-23 13:33:22.926
673,-264.0,1032.0,21.0,1065.4393459976968,2021-09-23 13:33:22.935
674,-168.0,1053.0,21.0,1066.5242613274206,2021-09-23 13:33:22.944
675,-168.0,1053.0,-69.0,1068.547612416031,2021-09-23 13:33:22.945
676,-259.0,958.0,-69.0,994.7894249538442,2021-09-23 13:33:22.954
677,-259.0,958.0,14.0,992.492317350618,2021-09-23 13:33:22.955
