,Acceleration_X,Acceleration_Y,Acceleration_Z,magnitude,time_stamp
0,486.0,1354.0,-56.0,1439.6694064958108,2021-09-23 13:32:48.970
1,-116.0,1066.0,50.0,1073.4579637787406,2021-09-23 13:32:48.980
2,-127.0,1026.0,-165.0,1046.914514179644,2021-09-23 13:32:48.990
3,-387.0,1026.0,-165.0,1108.9048651710389,2021-09-23 13:32:49.000
4,-387.0,990.0,11.0,1063.0098776587167,2021-09-23 13:32:49.001
5,26.0,1094.0,-155.0,1105.2316499268377,2021-09-23 13:32:49.009
6,-264.0,967.0,-262.0,1036.064187200774,2021-09-23 13:32:49.019
7,-373.0,1103.0,31.0,1164.7742270500323,2021-09-23 13:32:49.029
8,-72.0,1103.0,31.0,1105.78207617957,2021-09-23 13:32:49.038
9,-72.0,1147.0,34.0,1149.760409824586,2021-09-23 13:32:49.039
10,-283.0,815.0,-68.0,865.4120405910701,2021-09-23 13:32:49.048
11,-364.0,1014.0,-132.0,1085.4105214157453,2021-09-23 13:32:49.059
12,-142.0,1151.0,375.0,1218.8478165874524,2021-09-23 13:32:49.068
13,-246.0,565.0,98.0,623.9751597619893,2021-09-23 13:32:49.083
14,-36.0,883.0,225.0,911.9265321285482,2021-09-23 13:32:49.088
15,-386.0,883.0,225.0,989.6009296681162,2021-09-23 13:32:49.097
16,-386.0,848.0,-60.0,933.648756224738,2021-09-23 13:32:49.098
17,-81.0,725.0,108.0,737.4618634207467,2021-09-23 13:32:49.108
18,-171.0,776.0,86.0,799.2577806940637,2021-09-23 13:32:49.117
19,-352.0,1023.0,-26.0,1082.177896651008,2021-09-23 13:32:49.134
20,-22.0,989.0,-19.0,989.4271069664504,2021-09-23 13:32:49.139
21,78.0,1081.0,-19.0,1083.976937024031,2021-09-23 13:32:49.146
22,78.0,1081.0,-46.0,1084.7861540414312,2021-09-23 13:32:49.147
23,-248.0,1135.0,-229.0,1184.1325939268795,2021-09-23 13:32:49.156
24,131.0,1258.0,-229.0,1285.3660957097009,2021-09-23 13:32:49.165
25,131.0,1258.0,-43.0,1265.5330892552752,2021-09-23 13:32:49.166
26,18.0,1046.0,-34.0,1046.707217898109,2021-09-23 13:32:49.176
27,-384.0,1131.0,-162.0,1205.3468380511893,2021-09-23 13:32:49.185
28,-172.0,1018.0,-153.0,1043.7035019582909,2021-09-23 13:32:49.196
29,-403.0,1018.0,-153.0,1105.5053143246305,2021-09-23 13:32:49.205
30,-403.0,1160.0,-157.0,1238.0056542681864,2021-09-23 13:32:49.206
31,-181.0,961.0,-8.0,977.929445307789,2021-09-23 13:32:49.215
32,-184.0,833.0,-102.0,859.1559811815314,2021-09-23 13:32:49.224
33,-418.0,1110.0,-264.0,1215.1213931126388,2021-09-23 13:32:49.234
34,-204.0,1258.0,-264.0,1301.4899154430664,2021-09-23 13:32:49.243
35,-204.0,1258.0,61.0,1275.8922368288006,2021-09-23 13:32:49.244
36,-32.0,792.0,-5.0,792.6619708299371,2021-09-23 13:32:49.254
37,-335.0,792.0,-5.0,859.9499985464271,2021-09-23 13:32:49.263
38,-335.0,925.0,-183.0,1000.6692760347946,2021-09-23 13:32:49.264
39,-205.0,1107.0,96.0,1129.9070758252644,2021-09-23 13:32:49.273
40,-61.0,764.0,281.0,816.3197902782953,2021-09-23 13:32:49.287
41,-362.0,808.0,-138.0,896.0758896432824,2021-09-23 13:32:49.292
42,-259.0,955.0,-138.0,999.0745717913152,2021-09-23 13:32:49.309
43,-259.0,955.0,200.0,1009.50780086139,2021-09-23 13:32:49.310
44,-204.0,791.0,90.0,821.8254072490093,2021-09-23 13:32:49.314
45,-178.0,854.0,-142.0,883.8348261977461,2021-09-23 13:32:49.322
46,-160.0,1100.0,-15.0,1111.6766616242332,2021-09-23 13:32:49.332
47,-305.0,924.0,-15.0,973.1526087926806,2021-09-23 13:32:49.341
48,-305.0,924.0,-223.0,998.2634922704526,2021-09-23 13:32:49.342
49,40.0,1120.0,49.0,1121.7847387088132,2021-09-23 13:32:49.351
50,-86.0,1111.0,-81.0,1117.263621532537,2021-09-23 13:32:49.361
51,-37.0,1124.0,-257.0,1153.6004507627413,2021-09-23 13:32:49.371
52,117.0,1128.0,-61.0,1135.6909790959862,2021-09-23 13:32:49.380
53,-114.0,1136.0,27.0,1142.0249559444835,2021-09-23 13:32:49.391
54,-279.0,1143.0,-103.0,1181.0584236184084,2021-09-23 13:32:49.400
55,-214.0,1143.0,-103.0,1167.413380084364,2021-09-23 13:32:49.409
56,-214.0,868.0,-158.0,907.8458018848796,2021-09-23 13:32:49.410
57,-227.0,1092.0,-62.0,1117.0662469164486,2021-09-23 13:32:49.420
58,-457.0,1131.0,-221.0,1239.697947082272,2021-09-23 13:32:49.429
59,-11.0,1010.0,-13.0,1010.1435541545568,2021-09-23 13:32:49.440
60,-90.0,1010.0,-13.0,1014.085302131926,2021-09-23 13:32:49.448
61,-90.0,991.0,-67.0,997.3314393921412,2021-09-23 13:32:49.449
62,14.0,1114.0,101.0,1118.6567838260312,2021-09-23 13:32:49.458
63,-271.0,1114.0,101.0,1150.9291898288095,2021-09-23 13:32:49.468
64,-271.0,896.0,-107.0,942.1815111749964,2021-09-23 13:32:49.469
65,-456.0,1016.0,-16.0,1113.7540123384515,2021-09-23 13:32:49.478
66,-40.0,877.0,186.0,897.3990193888112,2021-09-23 13:32:49.488
67,-81.0,804.0,186.0,829.2002170766721,2021-09-23 13:32:49.497
68,-81.0,804.0,-27.0,808.5208717157523,2021-09-23 13:32:49.498
69,-477.0,981.0,22.0,1091.0426206157117,2021-09-23 13:32:49.507
70,-125.0,709.0,396.0,821.6580797387683,2021-09-23 13:32:49.517
71,-123.0,709.0,396.0,821.3561955692549,2021-09-23 13:32:49.527
72,-123.0,594.0,-29.0,607.2939979943816,2021-09-23 13:32:49.528
73,-237.0,971.0,-29.0,999.9254972246682,2021-09-23 13:32:49.536
74,-237.0,971.0,-256.0,1031.7683848616414,2021-09-23 13:32:49.537
75,-18.0,1215.0,169.0,1226.829246472385,2021-09-23 13:32:49.547
76,-87.0,947.0,-112.0,957.5604419565378,2021-09-23 13:32:49.556
77,1.0,1165.0,-283.0,1198.880728012591,2021-09-23 13:32:49.566
78,40.0,1279.0,-283.0,1310.5456878720406,2021-09-23 13:32:49.576
79,40.0,1279.0,22.0,1279.8144396747523,2021-09-23 13:32:49.577
80,76.0,1173.0,22.0,1175.6653435395635,2021-09-23 13:32:49.585
81,76.0,1173.0,-213.0,1194.6020257809712,2021-09-23 13:32:49.586
82,28.0,1173.0,-213.0,1192.5107965968275,2021-09-23 13:32:49.601
83,28.0,1196.0,26.0,1196.6102122245154,2021-09-23 13:32:49.602
84,-13.0,1152.0,-160.0,1163.1306891317072,2021-09-23 13:32:49.605
85,-313.0,1152.0,-160.0,1204.4388735008515,2021-09-23 13:32:49.614
86,-313.0,1036.0,-181.0,1097.281185476175,2021-09-23 13:32:49.615
87,-355.0,989.0,20.0,1050.973834117672,2021-09-23 13:32:49.625
88,-330.0,1157.0,-60.0,1204.6364596839994,2021-09-23 13:32:49.635
89,-436.0,922.0,-213.0,1041.8968279057192,2021-09-23 13:32:49.644
90,94.0,922.0,-213.0,950.9411127930056,2021-09-23 13:32:49.653
91,94.0,1043.0,74.0,1049.8385590175285,2021-09-23 13:32:49.654
92,-343.0,1102.0,74.0,1156.5158883474105,2021-09-23 13:32:49.663
93,-343.0,1102.0,-110.0,1159.3761253363812,2021-09-23 13:32:49.664
94,-294.0,888.0,-14.0,935.5084179204376,2021-09-23 13:32:49.676
95,21.0,888.0,-14.0,888.3585987651609,2021-09-23 13:32:49.683
96,21.0,787.0,223.0,818.253628161831,2021-09-23 13:32:49.684
97,-62.0,949.0,-61.0,952.9774393971768,2021-09-23 13:32:49.693
98,214.0,949.0,-61.0,974.7399653240858,2021-09-23 13:32:49.702
99,214.0,649.0,237.0,723.3021498654625,2021-09-23 13:32:49.703
100,-261.0,887.0,-98.0,929.7816948079802,2021-09-23 13:32:49.712
101,-468.0,913.0,157.0,1037.902692934169,2021-09-23 13:32:49.722
102,-43.0,561.0,225.0,605.966170672918,2021-09-23 13:32:49.732
103,-238.0,809.0,-17.0,843.4536146107858,2021-09-23 13:32:49.743
104,-364.0,1032.0,-108.0,1099.629028354563,2021-09-23 13:32:49.751
105,190.0,1127.0,80.0,1145.7002225713322,2021-09-23 13:32:49.761
106,-264.0,844.0,-257.0,920.9131337971024,2021-09-23 13:32:49.771
107,108.0,1423.0,-129.0,1432.9110230576075,2021-09-23 13:32:49.781
108,42.0,1017.0,63.0,1019.8146890489468,2021-09-23 13:32:49.792
109,-36.0,1041.0,-153.0,1052.799126139455,2021-09-23 13:32:49.800
110,-268.0,1118.0,-192.0,1165.5951269630464,2021-09-23 13:32:49.810
111,-157.0,952.0,-209.0,987.2355342065032,2021-09-23 13:32:49.820
112,-311.0,1084.0,-199.0,1145.154138096702,2021-09-23 13:32:49.830
113,-235.0,1147.0,-10.0,1170.8689081190942,2021-09-23 13:32:49.840
114,-507.0,1159.0,-249.0,1289.3141587681414,2021-09-23 13:32:49.860
115,-507.0,1007.0,-249.0,1154.5990646107418,2021-09-23 13:32:49.861
116,-507.0,1007.0,-246.0,1153.9558050462765,2021-09-23 13:32:49.862
117,90.0,1117.0,107.0,1125.7166606211351,2021-09-23 13:32:49.876
118,-496.0,919.0,-136.0,1053.1253486646308,2021-09-23 13:32:49.878
119,-398.0,948.0,-107.0,1033.7103075813843,2021-09-23 13:32:49.888
120,-62.0,948.0,-107.0,956.0319032333596,2021-09-23 13:32:49.898
121,-62.0,891.0,352.0,960.0151040478478,2021-09-23 13:32:49.899
122,-241.0,965.0,-161.0,1007.584735890734,2021-09-23 13:32:49.908
123,-452.0,833.0,216.0,972.0334356389188,2021-09-23 13:32:49.917
124,-32.0,658.0,164.0,678.884378963016,2021-09-23 13:32:49.927
125,-236.0,1022.0,45.0,1049.859514411333,2021-09-23 13:32:49.937
126,-94.0,650.0,71.0,660.5883741029659,2021-09-23 13:32:49.947
127,-386.0,1023.0,-21.0,1093.6023043135929,2021-09-23 13:32:49.958
128,-183.0,1000.0,21.0,1016.8234851733116,2021-09-23 13:32:49.966
129,197.0,980.0,5.0,999.6169266273956,2021-09-23 13:32:49.976
130,-321.0,1073.0,-218.0,1141.0056967430094,2021-09-23 13:32:49.986
131,64.0,1367.0,18.0,1368.6157240072905,2021-09-23 13:32:49.996
132,131.0,1367.0,18.0,1373.3805008081335,2021-09-23 13:32:50.006
133,131.0,970.0,-40.0,979.6228866252565,2021-09-23 13:32:50.007
134,-319.0,1073.0,-245.0,1145.912300309234,2021-09-23 13:32:50.015
135,-264.0,1053.0,-61.0,1087.302165913413,2021-09-23 13:32:50.025
136,-108.0,1027.0,-61.0,1034.463145791091,2021-09-23 13:32:50.034
137,-108.0,1027.0,-45.0,1033.6430718579795,2021-09-23 13:32:50.035
138,-355.0,1041.0,-228.0,1123.2497496104772,2021-09-23 13:32:50.044
139,-332.0,1121.0,-67.0,1171.0482483655403,2021-09-23 13:32:50.055
140,148.0,996.0,150.0,1018.0471501850984,2021-09-23 13:32:50.064
141,-170.0,996.0,150.0,1021.4773614720984,2021-09-23 13:32:50.077
142,-170.0,1241.0,34.0,1253.051076373186,2021-09-23 13:32:50.078
143,-1.0,847.0,27.0,847.4308231354345,2021-09-23 13:32:50.083
144,-468.0,834.0,-194.0,975.8155563424884,2021-09-23 13:32:50.093
145,-228.0,1053.0,-194.0,1094.7278200539165,2021-09-23 13:32:50.103
146,-228.0,1053.0,134.0,1085.7020769990263,2021-09-23 13:32:50.104
147,-75.0,818.0,241.0,856.0549047812295,2021-09-23 13:32:50.115
148,-409.0,723.0,241.0,864.9225398843529,2021-09-23 13:32:50.122
149,-409.0,723.0,-106.0,837.4043228930694,2021-09-23 13:32:50.123
150,-153.0,774.0,211.0,816.7043528719557,2021-09-23 13:32:50.132
151,-331.0,779.0,103.0,852.6494003985459,2021-09-23 13:32:50.151
152,-252.0,922.0,-98.0,960.8288088936552,2021-09-23 13:32:50.153
153,-82.0,995.0,-1.0,998.3736775376242,2021-09-23 13:32:50.163
154,44.0,1018.0,34.0,1019.5175329537008,2021-09-23 13:32:50.171
155,-183.0,1244.0,-194.0,1272.2660885207936,2021-09-23 13:32:50.181
156,-124.0,1019.0,-101.0,1031.4737030094368,2021-09-23 13:32:50.193
157,-59.0,1274.0,-170.0,1286.645638860988,2021-09-23 13:32:50.201
158,166.0,1149.0,-5.0,1160.9401362688775,2021-09-23 13:32:50.211
159,-93.0,1006.0,-45.0,1011.2912537938812,2021-09-23 13:32:50.221
160,-362.0,1245.0,-105.0,1300.8051352912164,2021-09-23 13:32:50.230
161,-278.0,1245.0,-105.0,1279.9742184903569,2021-09-23 13:32:50.239
162,-278.0,876.0,-50.0,920.4129507998028,2021-09-23 13:32:50.240
163,-204.0,991.0,-97.0,1016.4182210094424,2021-09-23 13:32:50.249
164,-423.0,991.0,-97.0,1081.85904812041,2021-09-23 13:32:50.259
165,-423.0,1183.0,-271.0,1285.246668931688,2021-09-23 13:32:50.260
166,-150.0,1123.0,119.0,1139.2058637489538,2021-09-23 13:32:50.270
167,-57.0,907.0,-101.0,914.384492431931,2021-09-23 13:32:50.282
168,-503.0,907.0,-101.0,1042.0455844155765,2021-09-23 13:32:50.288
169,-503.0,794.0,-151.0,951.9695373277444,2021-09-23 13:32:50.289
170,-194.0,1147.0,245.0,1188.8103296994016,2021-09-23 13:32:50.298
171,-392.0,920.0,245.0,1029.6062354123542,2021-09-23 13:32:50.308
172,-392.0,920.0,-44.0,1000.999500499376,2021-09-23 13:32:50.309
173,-28.0,912.0,257.0,947.9330145110464,2021-09-23 13:32:50.324
174,-118.0,874.0,257.0,918.6125407373884,2021-09-23 13:32:50.327
175,-118.0,874.0,58.0,883.8348261977461,2021-09-23 13:32:50.328
176,-407.0,874.0,58.0,965.8617913552642,2021-09-23 13:32:50.337
177,-407.0,811.0,-71.0,910.1708630801144,2021-09-23 13:32:50.338
178,-167.0,720.0,333.0,810.6651589898261,2021-09-23 13:32:50.348
179,-264.0,868.0,-26.0,907.6320840516822,2021-09-23 13:32:50.359
180,-330.0,868.0,-26.0,928.9779329994874,2021-09-23 13:32:50.366
181,-330.0,854.0,-273.0,955.376888981516,2021-09-23 13:32:50.367
182,98.0,1174.0,100.0,1182.319753704555,2021-09-23 13:32:50.376
183,-173.0,1068.0,-35.0,1082.4869514225102,2021-09-23 13:32:50.386
184,38.0,1162.0,-233.0,1185.739010069248,2021-09-23 13:32:50.396
185,150.0,1091.0,-28.0,1101.619262721926,2021-09-23 13:32:50.407
186,-172.0,1200.0,-37.0,1212.8285121978292,2021-09-23 13:32:50.415
187,-354.0,1087.0,-171.0,1155.9091659814796,2021-09-23 13:32:50.425
188,-82.0,1192.0,-150.0,1204.195997335982,2021-09-23 13:32:50.435
189,-405.0,1100.0,-77.0,1174.7144333837057,2021-09-23 13:32:50.445
190,-284.0,813.0,-25.0,861.5393200545172,2021-09-23 13:32:50.455
191,-267.0,1178.0,-125.0,1214.330268090193,2021-09-23 13:32:50.467
192,-491.0,1042.0,-158.0,1162.6732129020604,2021-09-23 13:32:50.479
193,75.0,1021.0,129.0,1031.8464032984757,2021-09-23 13:32:50.484
194,-294.0,1021.0,129.0,1070.2887460867744,2021-09-23 13:32:50.493
195,-294.0,886.0,-123.0,941.5736827248306,2021-09-23 13:32:50.494
196,-368.0,1011.0,-5.0,1075.9042708345385,2021-09-23 13:32:50.504
197,28.0,806.0,295.0,858.7461790308007,2021-09-23 13:32:50.515
198,-12.0,819.0,-78.0,822.7934127106269,2021-09-23 13:32:50.523
199,-527.0,819.0,-78.0,977.0230294112828,2021-09-23 13:32:50.532
200,-527.0,1004.0,31.0,1134.330639628499,2021-09-23 13:32:50.533
201,-90.0,592.0,313.0,675.6722578291934,2021-09-23 13:32:50.542
202,-409.0,915.0,104.0,1007.6318772250112,2021-09-23 13:32:50.553
203,-77.0,741.0,253.0,786.7776051718809,2021-09-23 13:32:50.564
204,-181.0,741.0,253.0,803.6485550288758,2021-09-23 13:32:50.571
205,-181.0,765.0,-58.0,788.2575721171348,2021-09-23 13:32:50.572
206,-288.0,993.0,-153.0,1045.180367209411,2021-09-23 13:32:50.581
207,104.0,1188.0,111.0,1197.69820906604,2021-09-23 13:32:50.591
208,-309.0,974.0,-165.0,1035.0758426318334,2021-09-23 13:32:50.601
209,201.0,974.0,-165.0,1008.118048643114,2021-09-23 13:32:50.616
210,201.0,1264.0,-220.0,1298.65199341471,2021-09-23 13:32:50.617
211,36.0,1083.0,41.0,1084.373551872232,2021-09-23 13:32:50.620
212,-90.0,1174.0,-159.0,1188.1317267037357,2021-09-23 13:32:50.630
213,-313.0,1004.0,-250.0,1080.964846791976,2021-09-23 13:32:50.640
214,-403.0,1005.0,69.0,1084.986175027129,2021-09-23 13:32:50.650
215,-262.0,1181.0,-88.0,1212.9093123560392,2021-09-23 13:32:50.661
216,-134.0,953.0,-12.0,962.4494791935834,2021-09-23 13:32:50.676
217,-361.0,1285.0,-190.0,1348.2010235866164,2021-09-23 13:32:50.679
218,-328.0,921.0,-141.0,987.7783152104524,2021-09-23 13:32:50.689
219,228.0,963.0,35.0,990.2413847138484,2021-09-23 13:32:50.699
220,-584.0,936.0,-195.0,1120.3468213013325,2021-09-23 13:32:50.710
221,-350.0,1077.0,145.0,1141.689099536297,2021-09-23 13:32:50.718
222,185.0,599.0,288.0,689.9057906700016,2021-09-23 13:32:50.728
223,-334.0,894.0,-145.0,965.3066870171364,2021-09-23 13:32:50.738
224,-378.0,969.0,262.0,1072.6085026700096,2021-09-23 13:32:50.748
225,-1.0,969.0,262.0,1003.7957959664903,2021-09-23 13:32:50.758
226,-1.0,587.0,155.0,607.120251680011,2021-09-23 13:32:50.759
227,-380.0,855.0,-27.0,936.0309823932112,2021-09-23 13:32:50.767
228,-225.0,1080.0,-29.0,1103.569662504366,2021-09-23 13:32:50.777
229,-257.0,862.0,-29.0,899.9633325863894,2021-09-23 13:32:50.786
230,-257.0,862.0,-171.0,915.6058103791172,2021-09-23 13:32:50.787
231,-101.0,1208.0,87.0,1215.3328762112872,2021-09-23 13:32:50.796
232,103.0,1208.0,87.0,1215.5007198681535,2021-09-23 13:32:50.806
233,103.0,988.0,16.0,993.4832660895704,2021-09-23 13:32:50.807
234,-198.0,1009.0,-314.0,1075.1190631739353,2021-09-23 13:32:50.817
235,163.0,1321.0,-59.0,1332.3254107011544,2021-09-23 13:32:50.826
236,-16.0,1191.0,46.0,1191.9953858971098,2021-09-23 13:32:50.835
237,-367.0,963.0,-279.0,1067.6605265719998,2021-09-23 13:32:50.845
238,-178.0,1001.0,-145.0,1026.9907497149134,2021-09-23 13:32:50.856
239,-397.0,1146.0,7.0,1212.8371696151137,2021-09-23 13:32:50.879
240,-397.0,1037.0,-316.0,1154.4843004562686,2021-09-23 13:32:50.880
241,-121.0,1110.0,-67.0,1118.5839262210056,2021-09-23 13:32:50.884
242,84.0,1016.0,42.0,1020.3313187391632,2021-09-23 13:32:50.894
243,-637.0,909.0,-153.0,1120.4726681182367,2021-09-23 13:32:50.904
244,-95.0,925.0,0.0,929.8655816837183,2021-09-23 13:32:50.914
245,-546.0,935.0,0.0,1082.7469695178097,2021-09-23 13:32:50.924
246,-546.0,935.0,-141.0,1091.8891885168568,2021-09-23 13:32:50.925
247,-79.0,933.0,170.0,951.6459425647756,2021-09-23 13:32:50.933
248,35.0,737.0,81.0,742.2634303264576,2021-09-23 13:32:50.943
249,-409.0,880.0,81.0,973.7771819055938,2021-09-23 13:32:50.952
250,-409.0,880.0,-59.0,972.1944249994442,2021-09-23 13:32:50.953
251,-95.0,679.0,287.0,743.2597123482477,2021-09-23 13:32:50.963
252,-186.0,631.0,31.0,658.5726991001069,2021-09-23 13:32:50.973
253,-342.0,1082.0,-100.0,1139.1610948412872,2021-09-23 13:32:50.982
254,-38.0,1082.0,-100.0,1087.275494067626,2021-09-23 13:32:50.991
255,-38.0,1067.0,74.0,1070.2378240372557,2021-09-23 13:32:50.992
256,102.0,937.0,-47.0,943.7065221773132,2021-09-23 13:32:51.001
257,-218.0,1142.0,-47.0,1163.5707971584711,2021-09-23 13:32:51.011
258,-218.0,1142.0,-253.0,1189.8306602201844,2021-09-23 13:32:51.012
259,146.0,1367.0,49.0,1375.647483914393,2021-09-23 13:32:51.022
260,-3.0,961.0,-3.0,961.0093651989038,2021-09-23 13:32:51.032
261,125.0,1301.0,-17.0,1307.1017557940927,2021-09-23 13:32:51.040
262,-25.0,1007.0,-59.0,1009.0366693039456,2021-09-23 13:32:51.050
263,-341.0,1094.0,-245.0,1171.8114182751422,2021-09-23 13:32:51.060
264,-362.0,1014.0,24.0,1076.9475381837317,2021-09-23 13:32:51.073
265,-241.0,1090.0,-84.0,1119.4806831741223,2021-09-23 13:32:51.081
266,-430.0,973.0,-332.0,1114.3845835258132,2021-09-23 13:32:51.089
267,-104.0,1215.0,66.0,1221.2276610034671,2021-09-23 13:32:51.099
268,92.0,968.0,18.0,972.52866281668,2021-09-23 13:32:51.109
269,-484.0,782.0,-264.0,956.8051003208544,2021-09-23 13:32:51.120
270,-180.0,1093.0,163.0,1119.6508384313388,2021-09-23 13:32:51.129
271,-109.0,1093.0,163.0,1110.449908820745,2021-09-23 13:32:51.138
272,-109.0,773.0,212.0,808.9215042264608,2021-09-23 13:32:51.139
273,-388.0,768.0,-124.0,869.3353783207031,2021-09-23 13:32:51.148
274,-14.0,709.0,199.0,736.5310584082656,2021-09-23 13:32:51.158
275,-454.0,839.0,53.0,955.4297462398793,2021-09-23 13:32:51.177
276,-53.0,551.0,283.0,621.6904374365107,2021-09-23 13:32:51.181
277,-264.0,851.0,34.0,891.6574454351851,2021-09-23 13:32:51.187
278,-281.0,975.0,-220.0,1038.2610461728784,2021-09-23 13:32:51.197
279,273.0,1012.0,14.0,1048.2695264100737,2021-09-23 13:32:51.206
280,-205.0,1061.0,-148.0,1090.7107774291037,2021-09-23 13:32:51.216
281,-64.0,1279.0,-155.0,1289.946510518944,2021-09-23 13:32:51.227
282,165.0,1133.0,17.0,1145.077726619464,2021-09-23 13:32:51.237
283,-125.0,1064.0,17.0,1071.4522854518534,2021-09-23 13:32:51.245
284,-125.0,1064.0,-84.0,1074.6055090124937,2021-09-23 13:32:51.246
285,-326.0,1121.0,-135.0,1175.2199794081107,2021-09-23 13:32:51.255
286,-331.0,986.0,-135.0,1048.8002669717432,2021-09-23 13:32:51.265
287,-331.0,986.0,29.0,1040.47969706285,2021-09-23 13:32:51.266
288,-224.0,903.0,-121.0,938.2036026364426,2021-09-23 13:32:51.276
289,-220.0,959.0,28.0,984.3094025762427,2021-09-23 13:32:51.285
290,-277.0,1019.0,-117.0,1062.4401159594831,2021-09-23 13:32:51.294
291,-454.0,1007.0,-229.0,1128.0983999634077,2021-09-23 13:32:51.304
292,14.0,1165.0,203.0,1182.6368842548418,2021-09-23 13:32:51.314
293,-292.0,1165.0,203.0,1218.0714264771177,2021-09-23 13:32:51.323
294,-292.0,848.0,-182.0,915.1458900088008,2021-09-23 13:32:51.324
295,-360.0,967.0,-90.0,1035.755279976887,2021-09-23 13:32:51.334
296,-87.0,1079.0,393.0,1151.6331881289284,2021-09-23 13:32:51.348
297,-20.0,764.0,-15.0,764.4089219782825,2021-09-23 13:32:51.353
298,-435.0,808.0,-40.0,918.525448749244,2021-09-23 13:32:51.363
299,-124.0,638.0,-40.0,651.1681810408122,2021-09-23 13:32:51.372
300,-124.0,638.0,349.0,737.7133589681022,2021-09-23 13:32:51.373
301,-147.0,914.0,-14.0,925.8514999717828,2021-09-23 13:32:51.383
302,-355.0,794.0,-293.0,917.7744821033106,2021-09-23 13:32:51.393
303,-264.0,879.0,40.0,918.6604378114909,2021-09-23 13:32:51.402
304,-305.0,879.0,40.0,931.27117425592,2021-09-23 13:32:51.411
305,-305.0,871.0,-248.0,955.5992884049256,2021-09-23 13:32:51.412
306,150.0,1163.0,75.0,1175.0293613352817,2021-09-23 13:32:51.421
307,-386.0,988.0,75.0,1063.374346126518,2021-09-23 13:32:51.431
308,-386.0,988.0,-118.0,1067.2694130349655,2021-09-23 13:32:51.432
309,90.0,1199.0,-176.0,1215.185993994335,2021-09-23 13:32:51.443
310,120.0,1105.0,-10.0,1111.5417221139294,2021-09-23 13:32:51.451
311,-134.0,1158.0,-65.0,1167.5380079466363,2021-09-23 13:32:51.460
312,-304.0,1038.0,-210.0,1101.7985296777265,2021-09-23 13:32:51.471
313,-278.0,928.0,3.0,968.7502258064252,2021-09-23 13:32:51.481
314,-302.0,1186.0,-101.0,1228.0069218045962,2021-09-23 13:32:51.490
315,-501.0,988.0,-212.0,1127.8692300085147,2021-09-23 13:32:51.499
316,140.0,1029.0,87.0,1042.1180355410802,2021-09-23 13:32:51.509
317,-420.0,894.0,-85.0,991.3934637670352,2021-09-23 13:32:51.519
318,-412.0,1044.0,33.0,1122.8397036086674,2021-09-23 13:32:51.530
319,-501.0,915.0,-229.0,1068.0201308964172,2021-09-23 13:32:51.539
320,-550.0,1056.0,122.0,1196.8792754492829,2021-09-23 13:32:51.548
321,129.0,748.0,378.0,847.955777148785,2021-09-23 13:32:51.558
322,-203.0,807.0,-195.0,854.6829821635622,2021-09-23 13:32:51.568
323,-488.0,972.0,166.0,1100.2199780043989,2021-09-23 13:32:51.578
324,-50.0,526.0,288.0,601.7640733709516,2021-09-23 13:32:51.587
325,-254.0,866.0,-49.0,903.81026770003,2021-09-23 13:32:51.597
326,-257.0,1063.0,-197.0,1111.2276994387785,2021-09-23 13:32:51.607
327,100.0,1118.0,-197.0,1139.6196733998584,2021-09-23 13:32:51.616
328,100.0,1118.0,141.0,1131.2846679770746,2021-09-23 13:32:51.617
329,-253.0,844.0,-315.0,935.718974906462,2021-09-23 13:32:51.631
330,103.0,1309.0,-170.0,1324.0052869985077,2021-09-23 13:32:51.636
331,125.0,1193.0,72.0,1201.6896437932717,2021-09-23 13:32:51.646
332,-10.0,1332.0,-99.0,1335.711420928937,2021-09-23 13:32:51.656
333,61.0,1156.0,81.0,1160.4387101437112,2021-09-23 13:32:51.666
334,-207.0,1156.0,81.0,1177.1771319559346,2021-09-23 13:32:51.676
335,-207.0,1005.0,-292.0,1066.8355074705753,2021-09-23 13:32:51.677
336,-334.0,920.0,-152.0,990.4847298166692,2021-09-23 13:32:51.685
337,-354.0,1167.0,-1.0,1219.510557559876,2021-09-23 13:32:51.695
338,-441.0,1042.0,-159.0,1142.596166631063,2021-09-23 13:32:51.704
339,-286.0,952.0,-218.0,1017.6561305273996,2021-09-23 13:32:51.714
340,197.0,1105.0,37.0,1123.0329469788498,2021-09-23 13:32:51.725
341,-548.0,947.0,-51.0,1095.3145666884925,2021-09-23 13:32:51.734
342,-365.0,947.0,-51.0,1016.1864986310336,2021-09-23 13:32:51.743
343,-365.0,964.0,62.0,1032.6495049144216,2021-09-23 13:32:51.744
344,91.0,756.0,319.0,825.5773737209614,2021-09-23 13:32:51.753
345,-260.0,1012.0,-44.0,1045.7915662310536,2021-09-23 13:32:51.763
346,-351.0,836.0,47.0,907.9129914259404,2021-09-23 13:32:51.773
347,-345.0,1009.0,-119.0,1072.9711086511136,2021-09-23 13:32:51.784
348,-320.0,910.0,274.0,1002.784124325869,2021-09-23 13:32:51.792
349,-14.0,548.0,136.0,564.797308775458,2021-09-23 13:32:51.802
350,-350.0,1003.0,0.0,1062.3130423749865,2021-09-23 13:32:51.812
351,-195.0,1003.0,0.0,1021.779819726344,2021-09-23 13:32:51.821
352,-195.0,1036.0,-89.0,1057.9423424742956,2021-09-23 13:32:51.822
353,191.0,1036.0,-89.0,1057.2123722318047,2021-09-23 13:32:51.832
354,191.0,948.0,56.0,968.6697063498992,2021-09-23 13:32:51.833
355,-346.0,1043.0,-242.0,1125.2239777039947,2021-09-23 13:32:51.841
356,127.0,1438.0,-79.0,1445.757241033224,2021-09-23 13:32:51.851
357,26.0,919.0,31.0,919.8902108404023,2021-09-23 13:32:51.861
358,-43.0,1012.0,-269.0,1048.0238546903406,2021-09-23 13:32:51.872
359,-334.0,1217.0,-169.0,1273.2658795396976,2021-09-23 13:32:51.891
360,-219.0,854.0,35.0,882.3276035577715,2021-09-23 13:32:51.895
361,-223.0,1260.0,-345.0,1325.275065788231,2021-09-23 13:32:51.900
362,-95.0,1063.0,24.0,1067.5064402616033,2021-09-23 13:32:51.910
363,-334.0,1124.0,-395.0,1237.3184715343095,2021-09-23 13:32:51.919
364,-358.0,1039.0,-105.0,1103.9519917097844,2021-09-23 13:32:51.929
365,157.0,1099.0,148.0,1119.9794640974449,2021-09-23 13:32:51.940
366,-429.0,1099.0,148.0,1189.0105129896876,2021-09-23 13:32:51.948
367,-429.0,793.0,-230.0,930.4783715917312,2021-09-23 13:32:51.949
368,-489.0,1042.0,23.0,1151.266259385725,2021-09-23 13:32:51.958
369,86.0,857.0,351.0,930.0784913113516,2021-09-23 13:32:51.968
370,-292.0,827.0,-145.0,888.9420678536932,2021-09-23 13:32:51.978
371,-284.0,866.0,114.0,918.481355281641,2021-09-23 13:32:51.989
372,-158.0,777.0,114.0,801.0549294524066,2021-09-23 13:32:51.997
373,-158.0,777.0,259.0,834.1306852046627,2021-09-23 13:32:51.998
374,-237.0,897.0,-29.0,928.2343454106834,2021-09-23 13:32:52.007
375,-277.0,897.0,-29.0,939.2438448028286,2021-09-23 13:32:52.017
376,-277.0,901.0,-121.0,950.35309227676,2021-09-23 13:32:52.018
377,112.0,1164.0,85.0,1172.4610867743118,2021-09-23 13:32:52.027
378,-85.0,961.0,-18.0,964.919685777008,2021-09-23 13:32:52.037
379,149.0,1122.0,35.0,1132.3912751341738,2021-09-23 13:32:52.047
380,-346.0,1118.0,-198.0,1186.947345083176,2021-09-23 13:32:52.056
381,175.0,1215.0,-84.0,1230.4088751305396,2021-09-23 13:32:52.066
382,33.0,1126.0,29.0,1126.856690089738,2021-09-23 13:32:52.076
383,-366.0,1039.0,-119.0,1107.9882670858929,2021-09-23 13:32:52.085
384,-195.0,1039.0,-119.0,1063.8171835423605,2021-09-23 13:32:52.095
385,-195.0,994.0,-72.0,1015.5023387466914,2021-09-23 13:32:52.096
386,-120.0,950.0,-38.0,958.3026661759844,2021-09-23 13:32:52.105
387,-530.0,1179.0,-197.0,1307.5740896790514,2021-09-23 13:32:52.115
388,-264.0,1068.0,-45.0,1101.0653931533766,2021-09-23 13:32:52.124
389,181.0,875.0,-11.0,893.5921888646968,2021-09-23 13:32:52.134
390,-531.0,1002.0,-230.0,1157.0933410922387,2021-09-23 13:32:52.145
391,-331.0,1078.0,89.0,1131.1790309230453,2021-09-23 13:32:52.154
392,-425.0,908.0,89.0,1006.4839790081112,2021-09-23 13:32:52.163
393,-425.0,908.0,-201.0,1022.4920537588544,2021-09-23 13:32:52.164
394,-151.0,792.0,-68.0,809.1285435578206,2021-09-23 13:32:52.176
395,-43.0,700.0,191.0,726.863123290761,2021-09-23 13:32:52.184
396,-385.0,700.0,191.0,821.4048940686926,2021-09-23 13:32:52.193
397,-385.0,838.0,-174.0,938.480154292034,2021-09-23 13:32:52.194
398,-168.0,954.0,275.0,1006.9582910925358,2021-09-23 13:32:52.210
399,-112.0,659.0,107.0,676.9593783972566,2021-09-23 13:32:52.213
400,-360.0,942.0,-248.0,1038.4931391203313,2021-09-23 13:32:52.222
401,-133.0,1135.0,117.0,1148.7397442414883,2021-09-23 13:32:52.234
402,-10.0,1089.0,12.0,1089.1120236229146,2021-09-23 13:32:52.243
403,-250.0,902.0,-284.0,978.1410941167944,2021-09-23 13:32:52.251
404,212.0,1418.0,-77.0,1435.8262429695314,2021-09-23 13:32:52.265
405,-66.0,1045.0,60.0,1048.7997902364398,2021-09-23 13:32:52.271
406,149.0,1324.0,-53.0,1333.411414380423,2021-09-23 13:32:52.281
407,-107.0,1324.0,-53.0,1329.3735366705628,2021-09-23 13:32:52.291
408,-107.0,1116.0,68.0,1123.178080270444,2021-09-23 13:32:52.292
409,-251.0,1013.0,-251.0,1073.392286165687,2021-09-23 13:32:52.300
410,-294.0,930.0,-251.0,1007.142988855108,2021-09-23 13:32:52.310
411,-294.0,930.0,-60.0,977.2082684873272,2021-09-23 13:32:52.311
412,-172.0,930.0,-60.0,947.6729393625208,2021-09-23 13:32:52.319
413,-172.0,1200.0,-57.0,1213.6033124542796,2021-09-23 13:32:52.320
414,-306.0,1116.0,-57.0,1158.5944070294834,2021-09-23 13:32:52.329
415,-306.0,1116.0,-264.0,1186.9237549227837,2021-09-23 13:32:52.330
416,-185.0,946.0,-101.0,969.1965744883748,2021-09-23 13:32:52.340
417,114.0,1019.0,-28.0,1025.7392456175205,2021-09-23 13:32:52.349
418,-508.0,934.0,-126.0,1070.6521377179424,2021-09-23 13:32:52.395
419,-484.0,933.0,-112.0,1057.0189213065205,2021-09-23 13:32:52.418
420,-21.0,933.0,-112.0,939.9329763339512,2021-09-23 13:32:52.422
421,-21.0,605.0,293.0,672.543678878926,2021-09-23 13:32:52.423
422,-182.0,605.0,293.0,696.4179779414084,2021-09-23 13:32:52.427
423,-182.0,573.0,62.0,604.3980476474093,2021-09-23 13:32:52.428
424,-432.0,1010.0,-123.0,1105.374597138907,2021-09-23 13:32:52.437
425,120.0,1109.0,77.0,1118.127899660857,2021-09-23 13:32:52.447
426,-13.0,885.0,77.0,888.4385178502787,2021-09-23 13:32:52.456
427,-13.0,885.0,-99.0,890.6149560837164,2021-09-23 13:32:52.457
428,-151.0,1174.0,-276.0,1215.4229716440282,2021-09-23 13:32:52.467
429,204.0,1466.0,45.0,1480.809575873954,2021-09-23 13:32:52.476
430,-15.0,999.0,-42.0,999.9949999875,2021-09-23 13:32:52.486
431,-372.0,1098.0,-284.0,1193.5845173258574,2021-09-23 13:32:52.497
432,-243.0,1050.0,-1.0,1077.7522906493866,2021-09-23 13:32:52.505
433,-156.0,1050.0,-1.0,1061.5257886645995,2021-09-23 13:32:52.515
434,-156.0,975.0,-40.0,988.2110098556886,2021-09-23 13:32:52.516
435,-442.0,1094.0,-336.0,1226.8235406936076,2021-09-23 13:32:52.525
436,-135.0,1094.0,-336.0,1152.3701662226422,2021-09-23 13:32:52.534
437,-135.0,1076.0,17.0,1084.5690388352416,2021-09-23 13:32:52.535
438,-467.0,1076.0,17.0,1173.095904007852,2021-09-23 13:32:52.545
439,-467.0,1020.0,-307.0,1163.0726546523222,2021-09-23 13:32:52.546
440,-40.0,1218.0,98.0,1222.5906919325043,2021-09-23 13:32:52.554
441,-162.0,908.0,12.0,922.416391875166,2021-09-23 13:32:52.564
442,-350.0,908.0,12.0,973.194738991123,2021-09-23 13:32:52.573
443,-350.0,843.0,-137.0,922.9940411508624,2021-09-23 13:32:52.574
444,-144.0,1027.0,189.0,1054.128075709968,2021-09-23 13:32:52.583
445,-58.0,844.0,192.0,867.5044668472895,2021-09-23 13:32:52.594
446,-342.0,773.0,-148.0,858.1357701436294,2021-09-23 13:32:52.603
447,-136.0,773.0,-148.0,798.7045761731931,2021-09-23 13:32:52.615
448,-136.0,661.0,236.0,714.9216740314984,2021-09-23 13:32:52.616
449,-195.0,958.0,236.0,1005.7261058558636,2021-09-23 13:32:52.633
450,-195.0,958.0,82.0,981.0774689085464,2021-09-23 13:32:52.634
451,-271.0,852.0,-175.0,911.026893126652,2021-09-23 13:32:52.636
452,27.0,1032.0,3.0,1032.357496219212,2021-09-23 13:32:52.642
453,-101.0,1087.0,-27.0,1092.0160255234352,2021-09-23 13:32:52.652
454,177.0,982.0,14.0,997.9223416679276,2021-09-23 13:32:52.662
455,-232.0,1045.0,-85.0,1073.8128328531002,2021-09-23 13:32:52.672
456,-9.0,1297.0,-166.0,1307.610798364712,2021-09-23 13:32:52.682
457,166.0,1126.0,-44.0,1139.020631946586,2021-09-23 13:32:52.691
458,-55.0,1126.0,-44.0,1128.200780003276,2021-09-23 13:32:52.700
459,-55.0,1090.0,-105.0,1096.4260120956635,2021-09-23 13:32:52.701
460,-412.0,1162.0,-141.0,1240.9145820724325,2021-09-23 13:32:52.710
461,-238.0,871.0,-9.0,902.9761901622876,2021-09-23 13:32:52.720
462,-135.0,1058.0,-144.0,1076.2550812888178,2021-09-23 13:32:52.730
463,-548.0,1190.0,-250.0,1333.755599800803,2021-09-23 13:32:52.741
464,51.0,1089.0,72.0,1092.5685333195352,2021-09-23 13:32:52.750
465,7.0,899.0,-72.0,901.9057600436976,2021-09-23 13:32:52.759
466,-528.0,906.0,-202.0,1067.9063629363766,2021-09-23 13:32:52.769
467,-142.0,1098.0,293.0,1145.2584861069574,2021-09-23 13:32:52.779
468,-469.0,972.0,-73.0,1081.6995886104423,2021-09-23 13:32:52.790
469,-79.0,993.0,320.0,1046.2743426080945,2021-09-23 13:32:52.798
470,-16.0,753.0,16.0,753.3398967265706,2021-09-23 13:32:52.808
471,-356.0,784.0,85.0,865.2265599252025,2021-09-23 13:32:52.818
472,-42.0,859.0,85.0,864.216408083068,2021-09-23 13:32:52.828
473,-42.0,859.0,-14.0,860.1401048666432,2021-09-23 13:32:52.829
474,-365.0,795.0,137.0,885.4484739384895,2021-09-23 13:32:52.838
475,106.0,751.0,-84.0,763.0812538648817,2021-09-23 13:32:52.847
476,-40.0,1170.0,-36.0,1171.236952968954,2021-09-23 13:32:52.857
477,-301.0,1170.0,-36.0,1208.6343533095524,2021-09-23 13:32:52.866
478,-301.0,981.0,-91.0,1030.1664913983564,2021-09-23 13:32:52.867
479,-16.0,1007.0,-91.0,1011.229944176892,2021-09-23 13:32:52.877
480,-16.0,1007.0,-98.0,1011.8838866194084,2021-09-23 13:32:52.878
481,-171.0,1160.0,-101.0,1176.8780735488278,2021-09-23 13:32:52.887
482,-119.0,1058.0,-101.0,1069.451261161536,2021-09-23 13:32:52.908
483,-119.0,1058.0,15.0,1064.7769719523426,2021-09-23 13:32:52.909
484,-119.0,1074.0,-254.0,1110.0238736171398,2021-09-23 13:32:52.910
485,-138.0,1162.0,-56.0,1171.5050149273795,2021-09-23 13:32:52.916
486,-234.0,931.0,-78.0,963.1204493727666,2021-09-23 13:32:52.926
487,-204.0,908.0,-77.0,933.814221352406,2021-09-23 13:32:52.935
488,-290.0,1064.0,-37.0,1103.4332784541166,2021-09-23 13:32:52.945
489,-231.0,1064.0,-37.0,1089.4154395821645,2021-09-23 13:32:52.954
490,-231.0,982.0,47.0,1009.8980146529648,2021-09-23 13:32:52.955
491,-126.0,982.0,47.0,991.1654755892176,2021-09-23 13:32:52.965
492,-126.0,861.0,-71.0,873.0624261758147,2021-09-23 13:32:52.966
493,-218.0,972.0,19.0,996.327757316838,2021-09-23 13:32:52.974
494,-228.0,978.0,57.0,1005.841438796394,2021-09-23 13:32:52.984
495,-193.0,828.0,57.0,852.104453690978,2021-09-23 13:32:52.993
496,-193.0,828.0,11.0,850.26701688352,2021-09-23 13:32:52.994
497,-158.0,955.0,-16.0,968.1141461625276,2021-09-23 13:32:53.007
498,-216.0,965.0,78.0,991.9500995513836,2021-09-23 13:32:53.014
499,-109.0,922.0,-27.0,928.8132212667948,2021-09-23 13:32:53.023
