,Acceleration_X,Acceleration_Y,Acceleration_Z,magnitude,time_stamp
0,-115.0,1089.0,0.0,1095.055249747701,2021-09-23 13:33:41.104
1,-400.0,1119.0,0.0,1188.3438054704538,2021-09-23 13:33:41.108
2,-400.0,1119.0,77.0,1190.8358409117525,2021-09-23 13:33:41.109
3,72.0,1013.0,-58.0,1017.2104010478856,2021-09-23 13:33:41.119
4,-543.0,948.0,-253.0,1121.4107186932004,2021-09-23 13:33:41.130
5,-121.0,1087.0,176.0,1107.7842750283107,2021-09-23 13:33:41.138
6,-201.0,1087.0,176.0,1119.3507046497982,2021-09-23 13:33:41.147
7,-201.0,1050.0,-31.0,1069.5148432817564,2021-09-23 13:33:41.148
8,-102.0,1297.0,96.0,1304.5416819711052,2021-09-23 13:33:41.157
9,-255.0,746.0,48.0,789.8385911058031,2021-09-23 13:33:41.167
10,-301.0,948.0,-207.0,1015.9498019095234,2021-09-23 13:33:41.180
11,-57.0,948.0,-207.0,972.0092592151578,2021-09-23 13:33:41.187
12,-57.0,964.0,149.0,977.1110479367223,2021-09-23 13:33:41.188
13,-160.0,691.0,181.0,732.0122949787115,2021-09-23 13:33:41.196
14,-267.0,794.0,-180.0,856.8109476424773,2021-09-23 13:33:41.206
15,-152.0,768.0,296.0,836.9850655776362,2021-09-23 13:33:41.216
16,-253.0,852.0,296.0,936.76517868674,2021-09-23 13:33:41.226
17,-253.0,852.0,17.0,888.9330683465432,2021-09-23 13:33:41.227
18,-289.0,782.0,-208.0,859.2490907763593,2021-09-23 13:33:41.237
19,197.0,1139.0,61.0,1157.5193302921557,2021-09-23 13:33:41.245
20,-234.0,1091.0,-146.0,1125.3235090408446,2021-09-23 13:33:41.255
21,45.0,1255.0,-217.0,1274.4171216677842,2021-09-23 13:33:41.265
22,172.0,1107.0,-63.0,1122.052583438049,2021-09-23 13:33:41.275
23,82.0,1228.0,-150.0,1239.8419254082353,2021-09-23 13:33:41.289
24,137.0,1023.0,68.0,1034.3703398686566,2021-09-23 13:33:41.294
25,-128.0,1095.0,-156.0,1113.4383682988475,2021-09-23 13:33:41.304
26,-185.0,1095.0,-156.0,1121.4214194494414,2021-09-23 13:33:41.326
27,-185.0,1069.0,-105.0,1089.9591735473398,2021-09-23 13:33:41.327
28,-185.0,985.0,-81.0,1005.4904276023716,2021-09-23 13:33:41.328
29,-292.0,1095.0,-81.0,1136.1557991754476,2021-09-23 13:33:41.333
30,-292.0,1095.0,-112.0,1138.785756848056,2021-09-23 13:33:41.334
31,-578.0,1144.0,-183.0,1294.7235226101363,2021-09-23 13:33:41.343
32,123.0,1039.0,79.0,1049.2335297730435,2021-09-23 13:33:41.353
33,-291.0,1039.0,79.0,1081.8701400815164,2021-09-23 13:33:41.362
34,-291.0,839.0,-61.0,890.1252720825311,2021-09-23 13:33:41.363
35,-364.0,1058.0,-97.0,1123.0623313066822,2021-09-23 13:33:41.373
36,-48.0,929.0,309.0,980.2173228422358,2021-09-23 13:33:41.383
37,-73.0,686.0,-33.0,690.6620012712441,2021-09-23 13:33:41.392
38,-374.0,920.0,24.0,993.4042480279616,2021-09-23 13:33:41.409
39,-267.0,683.0,-79.0,737.5764367169005,2021-09-23 13:33:41.412
40,-406.0,920.0,153.0,1017.1750095239264,2021-09-23 13:33:41.422
41,-78.0,756.0,234.0,795.2207240760266,2021-09-23 13:33:41.431
42,-389.0,756.0,234.0,881.8236785208254,2021-09-23 13:33:41.440
43,-389.0,760.0,-22.0,854.0521061387296,2021-09-23 13:33:41.441
44,-354.0,915.0,-146.0,991.895659835247,2021-09-23 13:33:41.450
45,108.0,1225.0,182.0,1243.1464113289312,2021-09-23 13:33:41.460
46,-284.0,859.0,-213.0,929.4654377651703,2021-09-23 13:33:41.472
47,131.0,1321.0,-213.0,1344.4593708996936,2021-09-23 13:33:41.480
48,131.0,1321.0,-183.0,1340.0339547936835,2021-09-23 13:33:41.481
49,35.0,1188.0,65.0,1190.2915609211047,2021-09-23 13:33:41.489
50,-83.0,1072.0,-29.0,1075.5993677945337,2021-09-23 13:33:41.499
51,-312.0,920.0,-200.0,991.8386965631056,2021-09-23 13:33:41.509
52,-240.0,1025.0,-66.0,1054.789552470065,2021-09-23 13:33:41.519
53,-203.0,1025.0,-66.0,1046.9909264172254,2021-09-23 13:33:41.528
54,-203.0,875.0,-165.0,913.2683066875802,2021-09-23 13:33:41.529
55,-228.0,1131.0,-82.0,1156.6628722320086,2021-09-23 13:33:41.538
56,-324.0,1135.0,-145.0,1189.2123443691628,2021-09-23 13:33:41.548
57,-467.0,903.0,-201.0,1036.2909823017858,2021-09-23 13:33:41.558
58,264.0,903.0,-201.0,962.032223992523,2021-09-23 13:33:41.567
59,264.0,1022.0,117.0,1062.0117701795964,2021-09-23 13:33:41.568
60,-498.0,1022.0,117.0,1142.8810086793812,2021-09-23 13:33:41.578
61,-498.0,1049.0,-99.0,1165.4209539904457,2021-09-23 13:33:41.579
62,-350.0,952.0,-70.0,1016.7123487004573,2021-09-23 13:33:41.588
63,-14.0,822.0,305.0,876.8722826044851,2021-09-23 13:33:41.597
64,-363.0,822.0,305.0,948.935192729198,2021-09-23 13:33:41.606
65,-363.0,831.0,17.0,906.9834618117357,2021-09-23 13:33:41.607
66,-228.0,911.0,126.0,947.5130605960004,2021-09-23 13:33:41.617
67,-93.0,627.0,133.0,647.6627208663472,2021-09-23 13:33:41.627
68,-254.0,884.0,0.0,919.767361891038,2021-09-23 13:33:41.637
69,-505.0,884.0,0.0,1018.0771090639452,2021-09-23 13:33:41.653
70,-505.0,1019.0,-68.0,1139.3024181489302,2021-09-23 13:33:41.654
71,353.0,916.0,41.0,982.5202287993872,2021-09-23 13:33:41.657
72,-226.0,1082.0,63.0,1107.144525344365,2021-09-23 13:33:41.666
73,215.0,976.0,27.0,999.7649723810092,2021-09-23 13:33:41.676
74,-264.0,1012.0,-340.0,1099.7454250870971,2021-09-23 13:33:41.685
75,57.0,1468.0,-340.0,1507.936669757719,2021-09-23 13:33:41.694
76,57.0,1468.0,-3.0,1469.1092539358672,2021-09-23 13:33:41.695
77,117.0,1150.0,11.0,1155.9887542705594,2021-09-23 13:33:41.704
78,-280.0,949.0,-236.0,1017.200570192526,2021-09-23 13:33:41.714
79,-354.0,1102.0,-159.0,1168.3325725152065,2021-09-23 13:33:41.724
80,-180.0,1039.0,-41.0,1055.2734242839626,2021-09-23 13:33:41.735
81,-313.0,1018.0,-191.0,1082.0231051137494,2021-09-23 13:33:41.743
82,-350.0,1130.0,-218.0,1202.881540302286,2021-09-23 13:33:41.753
83,69.0,1131.0,181.0,1147.468082344777,2021-09-23 13:33:41.763
84,-328.0,825.0,-214.0,913.238742060366,2021-09-23 13:33:41.773
85,23.0,1024.0,98.0,1028.9358580591893,2021-09-23 13:33:41.784
86,-376.0,904.0,-153.0,990.9596359085468,2021-09-23 13:33:41.792
87,-148.0,973.0,19.0,984.374928571426,2021-09-23 13:33:41.802
88,27.0,821.0,19.0,821.6635564511791,2021-09-23 13:33:41.813
89,27.0,821.0,252.0,859.2287239146513,2021-09-23 13:33:41.814
90,-525.0,882.0,252.0,1056.907280701576,2021-09-23 13:33:41.823
91,-525.0,882.0,-96.0,1030.9049422715948,2021-09-23 13:33:41.824
92,-16.0,616.0,210.0,651.0084484858857,2021-09-23 13:33:41.831
93,-331.0,675.0,122.0,761.6232664513342,2021-09-23 13:33:41.841
94,-326.0,990.0,-73.0,1044.846878733913,2021-09-23 13:33:41.851
95,-57.0,1063.0,-73.0,1067.0271786604126,2021-09-23 13:33:41.860
96,-57.0,1063.0,96.0,1068.8470423779074,2021-09-23 13:33:41.861
97,39.0,984.0,-35.0,985.3943373086736,2021-09-23 13:33:41.872
98,-322.0,1233.0,-205.0,1290.7354492691366,2021-09-23 13:33:41.880
99,169.0,1239.0,-26.0,1250.7429791927675,2021-09-23 13:33:41.890
100,133.0,920.0,-26.0,929.9274165223864,2021-09-23 13:33:41.899
101,133.0,920.0,58.0,931.3715692461308,2021-09-23 13:33:41.900
102,262.0,1271.0,-8.0,1297.747664224444,2021-09-23 13:33:41.910
103,-45.0,1000.0,-30.0,1001.4614321080968,2021-09-23 13:33:41.920
104,-275.0,1192.0,-198.0,1239.230809817122,2021-09-23 13:33:41.929
105,-308.0,1007.0,6.0,1053.0664746349112,2021-09-23 13:33:41.939
106,-81.0,902.0,-114.0,912.7765334406884,2021-09-23 13:33:41.948
107,-420.0,1281.0,-455.0,1422.809193110587,2021-09-23 13:33:41.958
108,-123.0,1158.0,-455.0,1250.2471755616966,2021-09-23 13:33:41.968
109,-123.0,1158.0,77.0,1167.0569823277697,2021-09-23 13:33:41.969
110,111.0,936.0,33.0,943.1362573880828,2021-09-23 13:33:41.979
111,-580.0,790.0,33.0,980.6064450124728,2021-09-23 13:33:41.987
112,-580.0,790.0,-308.0,1027.3091063550444,2021-09-23 13:33:41.988
113,-309.0,1158.0,239.0,1222.115379168432,2021-09-23 13:33:41.997
114,73.0,810.0,321.0,874.3397508977846,2021-09-23 13:33:42.007
115,-394.0,661.0,-183.0,790.9778757967887,2021-09-23 13:33:42.022
116,-91.0,787.0,168.0,809.8604818115278,2021-09-23 13:33:42.027
117,-465.0,845.0,-154.0,976.711830582593,2021-09-23 13:33:42.036
118,-110.0,665.0,383.0,775.2509271197295,2021-09-23 13:33:42.046
119,-127.0,867.0,60.0,878.3040475826125,2021-09-23 13:33:42.056
120,-302.0,764.0,-234.0,854.1990400369225,2021-09-23 13:33:42.066
121,123.0,1112.0,126.0,1125.854786373447,2021-09-23 13:33:42.075
122,-93.0,1094.0,-41.0,1098.711063018845,2021-09-23 13:33:42.086
123,-176.0,1038.0,-209.0,1073.3596787656968,2021-09-23 13:33:42.095
124,286.0,1038.0,-209.0,1096.7775526514024,2021-09-23 13:33:42.105
125,286.0,1248.0,-79.0,1282.7864202586493,2021-09-23 13:33:42.106
126,-90.0,1122.0,72.0,1127.904251255398,2021-09-23 13:33:42.122
127,-481.0,1122.0,72.0,1222.8773446261894,2021-09-23 13:33:42.125
128,-481.0,1125.0,-151.0,1232.7964146605875,2021-09-23 13:33:42.126
129,-203.0,802.0,-82.0,831.3464981582589,2021-09-23 13:33:42.134
130,-272.0,1077.0,-88.0,1114.2966391405837,2021-09-23 13:33:42.144
131,-343.0,927.0,-88.0,992.3315978038792,2021-09-23 13:33:42.154
132,-343.0,927.0,36.0,989.0773478348394,2021-09-23 13:33:42.155
133,-246.0,1023.0,-166.0,1065.1765111942716,2021-09-23 13:33:42.163
134,-271.0,891.0,-12.0,931.3785481746936,2021-09-23 13:33:42.178
135,13.0,1066.0,88.0,1069.705099548469,2021-09-23 13:33:42.184
136,-158.0,883.0,88.0,901.3306829349592,2021-09-23 13:33:42.192
137,-158.0,883.0,-95.0,902.041019022971,2021-09-23 13:33:42.193
138,-433.0,1064.0,-104.0,1153.4301019134189,2021-09-23 13:33:42.203
139,-88.0,966.0,298.0,1014.743317297532,2021-09-23 13:33:42.212
140,-58.0,648.0,155.0,668.7996710525507,2021-09-23 13:33:42.225
141,-368.0,648.0,155.0,761.1524157486463,2021-09-23 13:33:42.231
142,-368.0,939.0,-127.0,1016.5008607964876,2021-09-23 13:33:42.232
143,-260.0,713.0,447.0,880.7826065494255,2021-09-23 13:33:42.242
144,-141.0,485.0,11.0,505.1999604117166,2021-09-23 13:33:42.252
145,-283.0,485.0,11.0,561.6360031194581,2021-09-23 13:33:42.261
146,-283.0,976.0,-200.0,1035.6954185473642,2021-09-23 13:33:42.262
147,-83.0,1200.0,104.0,1207.35454610483,2021-09-23 13:33:42.271
148,-315.0,861.0,-215.0,941.685191558198,2021-09-23 13:33:42.280
149,27.0,861.0,-215.0,887.8485231164154,2021-09-23 13:33:42.297
150,27.0,1225.0,167.0,1236.625650712454,2021-09-23 13:33:42.298
151,-153.0,943.0,-172.0,970.6915060924352,2021-09-23 13:33:42.303
152,107.0,1272.0,-261.0,1302.9021452127554,2021-09-23 13:33:42.310
153,16.0,1213.0,-261.0,1240.8650208624626,2021-09-23 13:33:42.319
154,16.0,1213.0,23.0,1213.3235347589691,2021-09-23 13:33:42.320
155,-50.0,1213.0,23.0,1214.2479153780746,2021-09-23 13:33:42.340
156,-50.0,1037.0,-1.0,1038.205182032916,2021-09-23 13:33:42.341
157,-358.0,1022.0,-195.0,1100.3058665662018,2021-09-23 13:33:42.343
158,-332.0,1022.0,-195.0,1092.1231615527618,2021-09-23 13:33:42.350
159,-332.0,977.0,-81.0,1035.0429942760832,2021-09-23 13:33:42.351
160,-307.0,1261.0,-81.0,1300.358027621624,2021-09-23 13:33:42.358
161,-307.0,1261.0,-71.0,1299.773441796685,2021-09-23 13:33:42.359
162,-505.0,861.0,-334.0,1052.5692376276252,2021-09-23 13:33:42.369
163,2.0,1123.0,12.0,1123.0658929911458,2021-09-23 13:33:42.378
164,-217.0,1027.0,14.0,1049.7685459185752,2021-09-23 13:33:42.388
165,-412.0,863.0,-52.0,957.714466842806,2021-09-23 13:33:42.399
166,-339.0,991.0,-22.0,1047.6096601311006,2021-09-23 13:33:42.412
167,-461.0,1024.0,-53.0,1124.2357404032305,2021-09-23 13:33:42.417
168,27.0,785.0,255.0,825.8201983482845,2021-09-23 13:33:42.427
169,-243.0,810.0,141.0,857.3389061508873,2021-09-23 13:33:42.437
170,-336.0,810.0,141.0,888.1874802089928,2021-09-23 13:33:42.447
171,-336.0,845.0,40.0,910.2312892886072,2021-09-23 13:33:42.448
172,-163.0,602.0,243.0,669.3444554188823,2021-09-23 13:33:42.456
173,-320.0,762.0,91.0,831.4595600508783,2021-09-23 13:33:42.467
174,-290.0,1073.0,-126.0,1118.6174502482966,2021-09-23 13:33:42.476
175,148.0,1073.0,-126.0,1090.4627458102364,2021-09-23 13:33:42.485
176,148.0,1013.0,50.0,1024.9746338324671,2021-09-23 13:33:42.486
177,-248.0,857.0,-132.0,901.8741597362684,2021-09-23 13:33:42.496
178,91.0,1405.0,-162.0,1417.2332200453106,2021-09-23 13:33:42.506
179,242.0,1118.0,-18.0,1144.0332163009953,2021-09-23 13:33:42.515
180,76.0,1118.0,-18.0,1120.724765497756,2021-09-23 13:33:42.524
181,76.0,1409.0,-60.0,1412.3232632793386,2021-09-23 13:33:42.525
182,33.0,1078.0,79.0,1081.3944701171724,2021-09-23 13:33:42.534
183,19.0,919.0,-203.0,941.3453138992088,2021-09-23 13:33:42.545
184,-383.0,1088.0,-140.0,1161.9092047143788,2021-09-23 13:33:42.556
185,-252.0,1088.0,-140.0,1125.5434243066768,2021-09-23 13:33:42.563
186,-252.0,1029.0,-66.0,1061.4617279958802,2021-09-23 13:33:42.564
187,-328.0,1091.0,-187.0,1154.4843004562686,2021-09-23 13:33:42.573
188,-569.0,1012.0,-300.0,1199.126765609041,2021-09-23 13:33:42.583
189,67.0,1129.0,225.0,1153.150033603607,2021-09-23 13:33:42.593
190,-289.0,1129.0,225.0,1186.9233336656584,2021-09-23 13:33:42.603
191,-289.0,878.0,-94.0,929.107636390962,2021-09-23 13:33:42.604
192,-365.0,933.0,-122.0,1009.256161734968,2021-09-23 13:33:42.615
193,-28.0,909.0,384.0,987.1783020305908,2021-09-23 13:33:42.622
194,-55.0,890.0,-67.0,894.2113844052758,2021-09-23 13:33:42.632
195,-435.0,782.0,29.0,895.3155868184134,2021-09-23 13:33:42.642
196,-108.0,816.0,225.0,853.3141273880328,2021-09-23 13:33:42.652
197,-305.0,816.0,225.0,899.7255136984835,2021-09-23 13:33:42.669
198,-305.0,728.0,104.0,796.1312705829359,2021-09-23 13:33:42.670
199,-68.0,710.0,212.0,744.08870438947,2021-09-23 13:33:42.672
200,-306.0,1006.0,16.0,1051.631114031912,2021-09-23 13:33:42.681
201,-331.0,910.0,-172.0,983.4861463182896,2021-09-23 13:33:42.691
202,40.0,1072.0,99.0,1077.3045066275365,2021-09-23 13:33:42.702
203,-388.0,1012.0,-152.0,1094.436841485154,2021-09-23 13:33:42.710
204,94.0,1331.0,-111.0,1338.9241950162825,2021-09-23 13:33:42.720
205,158.0,939.0,-54.0,953.7300456628176,2021-09-23 13:33:42.730
206,-108.0,1228.0,-106.0,1237.2889719059165,2021-09-23 13:33:42.739
207,-423.0,1053.0,-154.0,1145.1873209217783,2021-09-23 13:33:42.751
208,-241.0,924.0,-27.0,955.293672123918,2021-09-23 13:33:42.759
209,-310.0,924.0,-27.0,974.9897435357974,2021-09-23 13:33:42.768
210,-310.0,1152.0,-82.0,1195.7959692188297,2021-09-23 13:33:42.769
211,-465.0,1015.0,-234.0,1140.704168485414,2021-09-23 13:33:42.778
212,-386.0,1111.0,-202.0,1193.365409252338,2021-09-23 13:33:42.788
213,-349.0,1131.0,-138.0,1191.640046322714,2021-09-23 13:33:42.799
214,175.0,933.0,112.0,955.854591452068,2021-09-23 13:33:42.812
215,-497.0,928.0,112.0,1058.6486669334638,2021-09-23 13:33:42.817
216,-497.0,928.0,-292.0,1092.4545757147068,2021-09-23 13:33:42.818
217,-447.0,1167.0,81.0,1252.301481273579,2021-09-23 13:33:42.827
218,17.0,836.0,490.0,969.1671682429198,2021-09-23 13:33:42.838
219,-223.0,836.0,490.0,994.346519076725,2021-09-23 13:33:42.847
220,-223.0,704.0,-193.0,763.2784550870017,2021-09-23 13:33:42.848
221,-399.0,704.0,-193.0,831.9050426581149,2021-09-23 13:33:42.857
222,-399.0,1062.0,152.0,1144.6174033274176,2021-09-23 13:33:42.858
223,-247.0,742.0,297.0,836.5297364708562,2021-09-23 13:33:42.866
224,-207.0,721.0,-10.0,750.1933084212362,2021-09-23 13:33:42.876
225,-308.0,1041.0,-102.0,1090.3893799923037,2021-09-23 13:33:42.886
226,174.0,1115.0,134.0,1136.422896636635,2021-09-23 13:33:42.896
227,-77.0,1008.0,32.0,1011.4430285488156,2021-09-23 13:33:42.907
228,-10.0,1154.0,132.0,1161.5679058927203,2021-09-23 13:33:42.915
229,-215.0,951.0,-262.0,1009.5890252969274,2021-09-23 13:33:42.925
230,138.0,1290.0,-40.0,1297.9768873134838,2021-09-23 13:33:42.935
231,46.0,1290.0,-40.0,1291.4395069069244,2021-09-23 13:33:42.945
232,46.0,1153.0,33.0,1154.3890158867591,2021-09-23 13:33:42.946
233,-256.0,1082.0,-218.0,1133.0419233196978,2021-09-23 13:33:42.955
234,-199.0,960.0,-218.0,1004.353025584132,2021-09-23 13:33:42.964
235,-199.0,960.0,-200.0,1000.600319808064,2021-09-23 13:33:42.965
236,-206.0,1062.0,-10.0,1081.84102344106,2021-09-23 13:33:42.974
237,-486.0,1207.0,-10.0,1301.209053150185,2021-09-23 13:33:42.983
238,-486.0,1207.0,-224.0,1320.3109482239402,2021-09-23 13:33:42.984
239,-293.0,1044.0,-261.0,1115.3053393577925,2021-09-23 13:33:42.993
240,-18.0,1040.0,105.0,1045.4420117825762,2021-09-23 13:33:43.004
241,-478.0,1040.0,-110.0,1149.862600487554,2021-09-23 13:33:43.016
242,-400.0,1040.0,-110.0,1119.687456391291,2021-09-23 13:33:43.022
243,-400.0,1049.0,79.0,1125.451909234686,2021-09-23 13:33:43.023
244,-607.0,1047.0,-125.0,1216.6688127834952,2021-09-23 13:33:43.032
245,-232.0,1065.0,104.0,1094.9269382018144,2021-09-23 13:33:43.042
246,81.0,681.0,193.0,712.440172926822,2021-09-23 13:33:43.053
247,-567.0,913.0,-117.0,1081.086028029222,2021-09-23 13:33:43.063
248,-162.0,918.0,278.0,972.7548509259668,2021-09-23 13:33:43.071
249,-73.0,539.0,98.0,552.6789303022144,2021-09-23 13:33:43.081
250,-313.0,896.0,-110.0,955.4501556857898,2021-09-23 13:33:43.091
251,-104.0,1195.0,112.0,1204.7344105652498,2021-09-23 13:33:43.101
252,82.0,944.0,-34.0,948.1645426823342,2021-09-23 13:33:43.112
253,-371.0,1020.0,-198.0,1103.288266954743,2021-09-23 13:33:43.120
254,202.0,1454.0,-198.0,1481.2575738202995,2021-09-23 13:33:43.134
255,202.0,1454.0,-93.0,1470.907542981543,2021-09-23 13:33:43.135
256,-3.0,1098.0,94.0,1102.020417233728,2021-09-23 13:33:43.140
257,-132.0,986.0,-243.0,1024.0454091494184,2021-09-23 13:33:43.150
258,-136.0,978.0,19.0,987.5935398735656,2021-09-23 13:33:43.161
259,-191.0,978.0,19.0,996.6574135579386,2021-09-23 13:33:43.169
260,-191.0,1077.0,-257.0,1123.5920078035442,2021-09-23 13:33:43.170
261,-372.0,1037.0,34.0,1102.229105041234,2021-09-23 13:33:43.190
262,-137.0,1116.0,10.0,1124.4220737783478,2021-09-23 13:33:43.192
263,-313.0,1130.0,-383.0,1233.51449119984,2021-09-23 13:33:43.200
264,-282.0,1003.0,-110.0,1047.6798175015113,2021-09-23 13:33:43.208
265,122.0,1166.0,109.0,1177.4213349519364,2021-09-23 13:33:43.218
266,-559.0,820.0,-220.0,1016.504303975148,2021-09-23 13:33:43.228
267,-223.0,931.0,69.0,959.818211954743,2021-09-23 13:33:43.239
268,1.0,832.0,257.0,870.7892971322052,2021-09-23 13:33:43.248
269,-499.0,920.0,-187.0,1063.1886003903542,2021-09-23 13:33:43.259
270,-53.0,781.0,86.0,787.5061904518592,2021-09-23 13:33:43.267
271,-182.0,737.0,86.0,763.9954188344325,2021-09-23 13:33:43.276
272,-182.0,737.0,123.0,769.0396608758225,2021-09-23 13:33:43.277
273,-146.0,531.0,291.0,622.862745715298,2021-09-23 13:33:43.286
274,-210.0,531.0,291.0,640.8915664915555,2021-09-23 13:33:43.296
275,-210.0,766.0,73.0,797.6120610923583,2021-09-23 13:33:43.297
276,-309.0,992.0,-138.0,1048.1359644626264,2021-09-23 13:33:43.313
277,46.0,1056.0,-138.0,1065.9718570393873,2021-09-23 13:33:43.320
278,46.0,1056.0,105.0,1062.2038410775965,2021-09-23 13:33:43.321
279,-52.0,908.0,105.0,915.5288089404944,2021-09-23 13:33:43.325
280,-52.0,908.0,-66.0,911.8793779881196,2021-09-23 13:33:43.326
281,-232.0,1252.0,-186.0,1286.827105713895,2021-09-23 13:33:43.335
282,197.0,1237.0,-25.0,1252.8379783515504,2021-09-23 13:33:43.356
283,-52.0,981.0,-3.0,982.3817995056708,2021-09-23 13:33:43.360
284,-388.0,1131.0,-220.0,1215.7734163897485,2021-09-23 13:33:43.365
285,-219.0,996.0,11.0,1019.8519500398083,2021-09-23 13:33:43.375
286,-121.0,1024.0,-114.0,1037.4068632894232,2021-09-23 13:33:43.384
287,-532.0,1064.0,-378.0,1248.200304438354,2021-09-23 13:33:43.394
288,-244.0,914.0,-47.0,947.1752741705202,2021-09-23 13:33:43.404
289,-535.0,1102.0,-333.0,1269.455788911138,2021-09-23 13:33:43.418
290,40.0,1206.0,118.0,1212.41906946402,2021-09-23 13:33:43.423
291,-218.0,887.0,-36.0,914.1055737714324,2021-09-23 13:33:43.433
292,-280.0,887.0,-36.0,930.8410175749668,2021-09-23 13:33:43.442
293,-280.0,907.0,-237.0,978.3751836591114,2021-09-23 13:33:43.443
294,-125.0,1092.0,264.0,1130.3915250920809,2021-09-23 13:33:43.453
295,-76.0,870.0,100.0,879.0199087620257,2021-09-23 13:33:43.465
296,-341.0,729.0,-135.0,816.0557578989318,2021-09-23 13:33:43.472
297,-121.0,729.0,-135.0,751.2037007363582,2021-09-23 13:33:43.481
298,-121.0,780.0,330.0,855.5355048155512,2021-09-23 13:33:43.482
299,-228.0,806.0,44.0,838.7824509370711,2021-09-23 13:33:43.492
300,-317.0,888.0,-190.0,961.8383440058938,2021-09-23 13:33:43.502
301,197.0,1077.0,29.0,1095.252938822809,2021-09-23 13:33:43.512
302,-386.0,1077.0,29.0,1144.4500862859857,2021-09-23 13:33:43.520
303,-386.0,806.0,-263.0,931.5583717620706,2021-09-23 13:33:43.521
304,152.0,1051.0,113.0,1067.9297729719872,2021-09-23 13:33:43.530
305,-294.0,1019.0,-155.0,1071.831143417656,2021-09-23 13:33:43.540
306,60.0,1289.0,-170.0,1301.545619638436,2021-09-23 13:33:43.550
307,133.0,1007.0,-52.0,1017.0752184573174,2021-09-23 13:33:43.562
308,-130.0,1129.0,-33.0,1136.9388725872643,2021-09-23 13:33:43.569
309,-450.0,1236.0,-131.0,1321.876317966246,2021-09-23 13:33:43.579
310,-272.0,830.0,78.0,876.9082050020971,2021-09-23 13:33:43.589
311,-243.0,1172.0,-148.0,1206.0418732365804,2021-09-23 13:33:43.599
312,-527.0,1090.0,-148.0,1219.7266087119688,2021-09-23 13:33:43.609
313,-527.0,1090.0,-305.0,1248.540748233713,2021-09-23 13:33:43.610
314,98.0,1143.0,121.0,1153.5571073856725,2021-09-23 13:33:43.618
315,-209.0,993.0,121.0,1021.9447147473292,2021-09-23 13:33:43.628
316,-209.0,993.0,-196.0,1033.5114900183742,2021-09-23 13:33:43.629
317,-629.0,1034.0,-113.0,1215.5517265834474,2021-09-23 13:33:43.638
318,-61.0,1043.0,244.0,1072.8960807086585,2021-09-23 13:33:43.648
319,-469.0,1077.0,-78.0,1177.273969813314,2021-09-23 13:33:43.657
320,72.0,1077.0,-78.0,1082.218554636724,2021-09-23 13:33:43.667
321,72.0,926.0,457.0,1035.1371889754516,2021-09-23 13:33:43.668
322,-137.0,693.0,-169.0,726.3463361234776,2021-09-23 13:33:43.683
323,-510.0,830.0,89.0,978.2233896201828,2021-09-23 13:33:43.687
324,-45.0,706.0,388.0,806.848808637653,2021-09-23 13:33:43.696
325,-258.0,730.0,-3.0,774.2564174742112,2021-09-23 13:33:43.707
326,-423.0,931.0,-235.0,1049.2449666307673,2021-09-23 13:33:43.717
327,208.0,1170.0,142.0,1196.7990641707572,2021-09-23 13:33:43.726
328,-350.0,901.0,142.0,976.9672461244544,2021-09-23 13:33:43.735
329,-350.0,901.0,-124.0,974.513724890522,2021-09-23 13:33:43.736
330,134.0,1163.0,-254.0,1197.9319680182175,2021-09-23 13:33:43.745
331,132.0,1330.0,72.0,1338.4722634406735,2021-09-23 13:33:43.755
332,-59.0,1169.0,-47.0,1171.4311759552927,2021-09-23 13:33:43.766
333,165.0,1169.0,-47.0,1181.5223231069317,2021-09-23 13:33:43.775
334,165.0,1109.0,58.0,1122.70655115217,2021-09-23 13:33:43.776
335,-207.0,1162.0,-145.0,1189.1669352954614,2021-09-23 13:33:43.784
336,-228.0,1042.0,-207.0,1086.5528058957834,2021-09-23 13:33:43.794
337,-268.0,929.0,-51.0,968.2282788681604,2021-09-23 13:33:43.804
338,-464.0,1243.0,-180.0,1338.9342776999922,2021-09-23 13:33:43.814
339,-384.0,957.0,-222.0,1054.7933446889017,2021-09-23 13:33:43.824
340,24.0,1019.0,53.0,1020.6595906569438,2021-09-23 13:33:43.833
341,-486.0,965.0,-176.0,1094.7132044512846,2021-09-23 13:33:43.843
342,-432.0,965.0,-176.0,1071.8325428909127,2021-09-23 13:33:43.852
343,-432.0,1137.0,3.0,1216.306704741859,2021-09-23 13:33:43.853
344,138.0,755.0,274.0,814.9509187675046,2021-09-23 13:33:43.863
345,-236.0,794.0,-100.0,834.3452522786955,2021-09-23 13:33:43.873
346,-324.0,1052.0,170.0,1113.8132698078257,2021-09-23 13:33:43.882
347,-425.0,826.0,-123.0,937.0325501283294,2021-09-23 13:33:43.892
348,-281.0,826.0,-123.0,881.1163373811655,2021-09-23 13:33:43.901
349,-281.0,983.0,220.0,1045.7772229303907,2021-09-23 13:33:43.902
350,-166.0,540.0,178.0,592.3174824365731,2021-09-23 13:33:43.911
351,-172.0,833.0,-70.0,853.4477136884251,2021-09-23 13:33:43.921
352,-275.0,1157.0,-5.0,1189.2430365572884,2021-09-23 13:33:43.932
353,168.0,1069.0,-5.0,1082.132154591111,2021-09-23 13:33:43.940
354,168.0,1069.0,118.0,1088.5352543670783,2021-09-23 13:33:43.941
355,-353.0,891.0,-271.0,995.95732840318,2021-09-23 13:33:43.950
356,37.0,1386.0,-109.0,1390.7717282142314,2021-09-23 13:33:43.960
357,81.0,1081.0,118.0,1090.4338586085814,2021-09-23 13:33:43.970
358,-228.0,1081.0,118.0,1111.0666046641848,2021-09-23 13:33:43.980
359,-228.0,951.0,-135.0,987.2233789776252,2021-09-23 13:33:43.981
360,-232.0,990.0,-177.0,1032.1109436489858,2021-09-23 13:33:43.989
361,-198.0,1163.0,54.0,1180.9695169647691,2021-09-23 13:33:43.999
362,-301.0,1032.0,-195.0,1092.5429053359871,2021-09-23 13:33:44.009
363,-209.0,1024.0,12.0,1045.179888822972,2021-09-23 13:33:44.019
364,-423.0,1157.0,12.0,1231.9586032006107,2021-09-23 13:33:44.029
365,-423.0,1157.0,-215.0,1250.5210913855071,2021-09-23 13:33:44.030
366,-189.0,912.0,-177.0,948.0474671660696,2021-09-23 13:33:44.039
367,20.0,1146.0,49.0,1147.2214258808106,2021-09-23 13:33:44.048
368,-513.0,1001.0,-258.0,1154.0077989337854,2021-09-23 13:33:44.058
369,-268.0,949.0,-258.0,1019.3080986630098,2021-09-23 13:33:44.067
370,-268.0,949.0,15.0,986.230196252376,2021-09-23 13:33:44.068
371,111.0,834.0,15.0,841.4879678284176,2021-09-23 13:33:44.077
372,111.0,834.0,247.0,876.8614485766836,2021-09-23 13:33:44.078
373,-556.0,801.0,-67.0,977.3566391036592,2021-09-23 13:33:44.088
374,-169.0,842.0,168.0,875.0708542740982,2021-09-23 13:33:44.097
375,-115.0,842.0,168.0,866.2638166286296,2021-09-23 13:33:44.106
376,-115.0,528.0,97.0,549.015482477498,2021-09-23 13:33:44.107
377,-386.0,1167.0,-51.0,1230.238188319644,2021-09-23 13:33:44.116
378,-148.0,957.0,-18.0,968.5437522383796,2021-09-23 13:33:44.127
379,152.0,945.0,77.0,960.2385120375042,2021-09-23 13:33:44.137
380,18.0,1096.0,142.0,1105.3071971176155,2021-09-23 13:33:44.153
381,175.0,911.0,-89.0,931.915768725908,2021-09-23 13:33:44.156
382,-325.0,1115.0,-89.0,1164.8051339172575,2021-09-23 13:33:44.165
383,-325.0,1115.0,-223.0,1182.615322072228,2021-09-23 13:33:44.166
384,269.0,1115.0,-223.0,1168.4669443334717,2021-09-23 13:33:44.177
385,269.0,1396.0,18.0,1421.7949922545092,2021-09-23 13:33:44.178
386,38.0,974.0,-35.0,975.369160882176,2021-09-23 13:33:44.185
387,-368.0,1073.0,-35.0,1134.891184211068,2021-09-23 13:33:44.194
388,-368.0,1073.0,-176.0,1147.9237779574044,2021-09-23 13:33:44.195
389,-253.0,1134.0,-52.0,1163.0429914667816,2021-09-23 13:33:44.204
390,-217.0,1012.0,2.0,1035.0057970852145,2021-09-23 13:33:44.215
391,-390.0,960.0,-345.0,1092.1194989560438,2021-09-23 13:33:44.227
392,-228.0,1234.0,-72.0,1256.9502774573066,2021-09-23 13:33:44.235
393,-27.0,1014.0,76.0,1017.2025363711988,2021-09-23 13:33:44.243
394,-448.0,795.0,-226.0,940.1090362293088,2021-09-23 13:33:44.253
395,-101.0,944.0,3.0,949.392437298718,2021-09-23 13:33:44.263
396,-450.0,847.0,-250.0,991.1654755892176,2021-09-23 13:33:44.273
397,-97.0,1042.0,162.0,1058.9697823828592,2021-09-23 13:33:44.283
398,-18.0,780.0,247.0,818.3721647270269,2021-09-23 13:33:44.292
399,-317.0,804.0,-184.0,883.6068130113076,2021-09-23 13:33:44.302
400,-123.0,780.0,334.0,857.3709815476612,2021-09-23 13:33:44.312
401,-168.0,759.0,334.0,846.085693059515,2021-09-23 13:33:44.322
402,-168.0,759.0,75.0,780.980153396999,2021-09-23 13:33:44.323
403,-396.0,888.0,-107.0,978.1661413072936,2021-09-23 13:33:44.335
404,279.0,1067.0,-107.0,1108.051894091608,2021-09-23 13:33:44.341
405,279.0,1067.0,-20.0,1103.054849044235,2021-09-23 13:33:44.342
406,-120.0,993.0,18.0,1000.3864253377292,2021-09-23 13:33:44.351
407,258.0,1191.0,18.0,1218.757153825158,2021-09-23 13:33:44.373
408,258.0,1208.0,-49.0,1236.2155960834664,2021-09-23 13:33:44.374
409,-143.0,1208.0,-49.0,1217.4210446677846,2021-09-23 13:33:44.380
410,-143.0,1065.0,4.0,1074.5650282788845,2021-09-23 13:33:44.381
411,167.0,1133.0,-12.0,1145.304326369197,2021-09-23 13:33:44.390
412,-87.0,1032.0,-44.0,1036.5949064123365,2021-09-23 13:33:44.400
413,-338.0,1235.0,-166.0,1291.1332231803192,2021-09-23 13:33:44.415
414,-171.0,818.0,-8.0,835.7206471064359,2021-09-23 13:33:44.421
415,-183.0,1049.0,-121.0,1071.6953858256552,2021-09-23 13:33:44.430
416,-450.0,1143.0,-202.0,1244.890758259535,2021-09-23 13:33:44.439
417,-282.0,1129.0,3.0,1163.6898212152585,2021-09-23 13:33:44.448
418,13.0,889.0,-85.0,893.1489237523606,2021-09-23 13:33:44.458
419,-116.0,963.0,-85.0,973.6785917334324,2021-09-23 13:33:44.468
420,-116.0,963.0,-71.0,972.5564250983076,2021-09-23 13:33:44.469
421,-517.0,1203.0,116.0,1314.5166412031458,2021-09-23 13:33:44.479
422,105.0,704.0,232.0,748.6421040791121,2021-09-23 13:33:44.487
423,-139.0,876.0,-271.0,927.436251178484,2021-09-23 13:33:44.497
424,-339.0,951.0,168.0,1023.4969467467891,2021-09-23 13:33:44.507
425,-219.0,965.0,168.0,1003.6981617996518,2021-09-23 13:33:44.517
426,-219.0,965.0,-188.0,1007.23879988809,2021-09-23 13:33:44.518
427,-294.0,1057.0,127.0,1104.4519002654663,2021-09-23 13:33:44.527
428,-132.0,981.0,-11.0,989.9020153530348,2021-09-23 13:33:44.537
429,-175.0,913.0,-75.0,932.6408740774768,2021-09-23 13:33:44.546
430,-163.0,1147.0,-13.0,1158.5969963710418,2021-09-23 13:33:44.556
431,-142.0,1147.0,-13.0,1155.8295722120974,2021-09-23 13:33:44.565
432,-142.0,1025.0,-32.0,1035.2840190015493,2021-09-23 13:33:44.566
433,-138.0,976.0,-32.0,986.2271543615092,2021-09-23 13:33:44.575
434,-138.0,976.0,-133.0,994.640135928568,2021-09-23 13:33:44.576
435,-109.0,1090.0,-119.0,1101.881118814548,2021-09-23 13:33:44.586
436,-194.0,1200.0,-6.0,1215.5953274013518,2021-09-23 13:33:44.595
437,-132.0,913.0,-115.0,929.6332610228616,2021-09-23 13:33:44.605
438,-139.0,1033.0,-89.0,1046.102767418192,2021-09-23 13:33:44.617
439,-301.0,1141.0,11.0,1180.0860138142473,2021-09-23 13:33:44.625
440,-91.0,920.0,-163.0,938.7491677759292,2021-09-23 13:33:44.635
441,-317.0,1106.0,-25.0,1150.804066728998,2021-09-23 13:33:44.644
442,-204.0,1026.0,-25.0,1046.382817137208,2021-09-23 13:33:44.653
443,-204.0,1026.0,23.0,1046.336943818768,2021-09-23 13:33:44.654
444,-134.0,818.0,-65.0,831.447532920749,2021-09-23 13:33:44.663
445,-309.0,1028.0,-5.0,1073.4477164724883,2021-09-23 13:33:44.673
446,-173.0,961.0,75.0,979.3237462657586,2021-09-23 13:33:44.693
447,-131.0,841.0,10.0,851.2003289473049,2021-09-23 13:33:44.698
448,-169.0,898.0,-36.0,914.4730723208858,2021-09-23 13:33:44.702
449,-203.0,1012.0,76.0,1034.9536221493213,2021-09-23 13:33:44.712
450,-155.0,905.0,-11.0,918.2434317761276,2021-09-23 13:33:44.722
451,-104.0,896.0,-79.0,905.468387079306,2021-09-23 13:33:44.732
452,-178.0,1138.0,-15.0,1151.9344599411895,2021-09-23 13:33:44.742
453,-81.0,1023.0,-24.0,1026.4823427609458,2021-09-23 13:33:44.751
454,-124.0,930.0,-139.0,948.47087461872,2021-09-23 13:33:44.761
455,-151.0,930.0,-139.0,952.3770261823832,2021-09-23 13:33:44.770
456,-151.0,1124.0,-10.0,1134.141525560192,2021-09-23 13:33:44.771
457,-80.0,873.0,-162.0,891.5004206392726,2021-09-23 13:33:44.781
458,-175.0,1126.0,-54.0,1140.7966514677364,2021-09-23 13:33:44.791
459,-180.0,1154.0,-41.0,1168.6731792935095,2021-09-23 13:33:44.800
460,-118.0,1021.0,-35.0,1028.3919486265925,2021-09-23 13:33:44.810
461,-96.0,1007.0,-130.0,1019.884797415865,2021-09-23 13:33:44.819
462,-257.0,1090.0,2.0,1119.8897267141974,2021-09-23 13:33:44.829
463,-228.0,1096.0,35.0,1120.0111606586784,2021-09-23 13:33:44.840
464,-175.0,808.0,-71.0,829.7770784975926,2021-09-23 13:33:44.849
465,-228.0,1083.0,-71.0,1109.014878168909,2021-09-23 13:33:44.858
466,-228.0,1083.0,17.0,1106.8703627796708,2021-09-23 13:33:44.859
467,-133.0,959.0,81.0,971.5611149073434,2021-09-23 13:33:44.868
468,-194.0,758.0,1.0,782.4327447135632,2021-09-23 13:33:44.878
469,-247.0,1014.0,135.0,1052.3450004632512,2021-09-23 13:33:44.889
