,Acceleration_X,Acceleration_Y,Acceleration_Z,magnitude,time_stamp
0,-1159.0,452.0,-38.0,1244.5999357223188,2021-09-23 13:33:59.459
1,-252.0,1030.0,-258.0,1091.3148033450293,2021-09-23 13:33:59.477
2,249.0,1291.0,-111.0,1319.4707272236092,2021-09-23 13:33:59.480
3,51.0,1261.0,-46.0,1262.8689559887043,2021-09-23 13:33:59.488
4,-602.0,1199.0,108.0,1345.982540748579,2021-09-23 13:33:59.498
5,-40.0,1016.0,-95.0,1021.2154522920224,2021-09-23 13:33:59.507
6,-416.0,1016.0,-95.0,1101.9696003066508,2021-09-23 13:33:59.516
7,-416.0,978.0,-148.0,1073.053586732741,2021-09-23 13:33:59.517
8,-453.0,1234.0,-148.0,1322.8261412596894,2021-09-23 13:33:59.526
9,-453.0,1234.0,-239.0,1336.0711058921977,2021-09-23 13:33:59.527
10,-279.0,1179.0,-100.0,1215.681701762431,2021-09-23 13:33:59.537
11,125.0,912.0,49.0,921.8297022769444,2021-09-23 13:33:59.546
12,-498.0,1035.0,-280.0,1182.213601681185,2021-09-23 13:33:59.556
13,-303.0,1035.0,-280.0,1114.1965715258686,2021-09-23 13:33:59.569
14,-303.0,1103.0,124.0,1150.5624711418325,2021-09-23 13:33:59.570
15,269.0,774.0,332.0,884.1159426229119,2021-09-23 13:33:59.575
16,-82.0,1052.0,137.0,1064.047461347472,2021-09-23 13:33:59.585
17,16.0,730.0,188.0,753.9893898457723,2021-09-23 13:33:59.604
18,-565.0,843.0,-68.0,1017.1027480053332,2021-09-23 13:33:59.607
19,-98.0,914.0,313.0,971.0659091946334,2021-09-23 13:33:59.615
20,-265.0,516.0,5.0,580.0913721130491,2021-09-23 13:33:59.625
21,-412.0,850.0,-313.0,995.0944678772966,2021-09-23 13:33:59.634
22,110.0,850.0,-313.0,912.4521905283586,2021-09-23 13:33:59.643
23,110.0,1280.0,186.0,1298.112475866402,2021-09-23 13:33:59.644
24,79.0,955.0,-48.0,959.4633916935028,2021-09-23 13:33:59.653
25,-197.0,1096.0,-321.0,1158.9072439155775,2021-09-23 13:33:59.663
26,281.0,1481.0,-22.0,1507.5828335451422,2021-09-23 13:33:59.673
27,-21.0,1050.0,115.0,1056.4875768318338,2021-09-23 13:33:59.684
28,-320.0,1000.0,-221.0,1072.9589926926378,2021-09-23 13:33:59.692
29,-312.0,1044.0,-118.0,1095.994525533773,2021-09-23 13:33:59.702
30,-324.0,1003.0,-203.0,1073.4029998094843,2021-09-23 13:33:59.712
31,-344.0,1010.0,-54.0,1068.3407696049046,2021-09-23 13:33:59.722
32,-196.0,1010.0,-54.0,1030.258220059418,2021-09-23 13:33:59.732
33,-196.0,1129.0,-16.0,1145.998691098729,2021-09-23 13:33:59.733
34,-560.0,1055.0,-400.0,1259.6130358169528,2021-09-23 13:33:59.741
35,-29.0,1110.0,18.0,1110.524650784484,2021-09-23 13:33:59.751
36,-82.0,1090.0,9.0,1093.1171026015463,2021-09-23 13:33:59.761
37,-357.0,912.0,-217.0,1003.1360824932976,2021-09-23 13:33:59.771
38,-90.0,931.0,28.0,935.7590501833258,2021-09-23 13:33:59.781
39,-108.0,931.0,28.0,937.6614527642693,2021-09-23 13:33:59.790
40,-108.0,895.0,313.0,954.2840248060322,2021-09-23 13:33:59.791
41,-515.0,850.0,-8.0,993.8757467611332,2021-09-23 13:33:59.800
42,-48.0,850.0,-8.0,851.3918016988418,2021-09-23 13:33:59.809
43,-48.0,765.0,186.0,788.7490095080944,2021-09-23 13:33:59.810
44,-346.0,507.0,38.0,614.9869917323455,2021-09-23 13:33:59.825
45,-519.0,1048.0,-137.0,1177.469320194798,2021-09-23 13:33:59.830
46,-312.0,706.0,-4.0,771.8782287381864,2021-09-23 13:33:59.840
47,-519.0,915.0,-172.0,1065.9127544034736,2021-09-23 13:33:59.849
48,403.0,1059.0,-172.0,1146.0689333543598,2021-09-23 13:33:59.858
49,403.0,1059.0,158.0,1144.0515722641178,2021-09-23 13:33:59.859
50,-40.0,1050.0,-252.0,1080.5572636376105,2021-09-23 13:33:59.868
51,-79.0,1345.0,-252.0,1370.6823118432658,2021-09-23 13:33:59.878
52,-79.0,1345.0,-159.0,1356.6676085172817,2021-09-23 13:33:59.879
53,391.0,1210.0,-159.0,1281.507705790332,2021-09-23 13:33:59.898
54,391.0,1210.0,-14.0,1271.6827434545144,2021-09-23 13:33:59.899
55,15.0,966.0,-98.0,971.0741475294252,2021-09-23 13:33:59.901
56,-528.0,1143.0,-98.0,1262.868560064744,2021-09-23 13:33:59.908
57,-528.0,1143.0,-78.0,1261.4741376659292,2021-09-23 13:33:59.909
58,-282.0,982.0,101.0,1026.668885278988,2021-09-23 13:33:59.917
59,-158.0,1007.0,-97.0,1023.9248019263916,2021-09-23 13:33:59.927
60,-613.0,1074.0,-97.0,1240.4249271922909,2021-09-23 13:33:59.936
61,-613.0,1074.0,-396.0,1298.484116190876,2021-09-23 13:33:59.937
62,-162.0,1300.0,103.0,1314.0977893596807,2021-09-23 13:33:59.946
63,-64.0,841.0,-44.0,844.5785931457178,2021-09-23 13:33:59.957
64,24.0,1285.0,114.0,1290.2701267564091,2021-09-23 13:33:59.966
65,-207.0,812.0,-63.0,840.334457225217,2021-09-23 13:33:59.976
66,-394.0,968.0,-63.0,1047.0095510548124,2021-09-23 13:33:59.985
67,-394.0,968.0,-288.0,1084.068263533252,2021-09-23 13:33:59.986
68,45.0,1052.0,310.0,1097.6470288758587,2021-09-23 13:33:59.995
69,-110.0,1052.0,310.0,1102.2268369079025,2021-09-23 13:34:00.005
70,-110.0,836.0,175.0,861.1741984058742,2021-09-23 13:34:00.006
71,-381.0,710.0,175.0,824.5519995731015,2021-09-23 13:34:00.016
72,-381.0,710.0,-170.0,823.505312672602,2021-09-23 13:34:00.017
73,-97.0,874.0,291.0,926.2645410464552,2021-09-23 13:34:00.025
74,-272.0,629.0,57.0,687.658345401261,2021-09-23 13:34:00.034
75,-460.0,735.0,-258.0,904.6485505432482,2021-09-23 13:34:00.044
76,395.0,1203.0,134.0,1273.2595964688426,2021-09-23 13:34:00.054
77,-143.0,1068.0,-51.0,1078.7372247215724,2021-09-23 13:34:00.065
78,-203.0,1176.0,-297.0,1229.7942917415091,2021-09-23 13:34:00.073
79,344.0,1225.0,-89.0,1275.4928459227044,2021-09-23 13:34:00.083
80,-150.0,1139.0,66.0,1150.728899437222,2021-09-23 13:34:00.093
81,370.0,1059.0,-2.0,1121.7776071931548,2021-09-23 13:34:00.103
82,-63.0,1110.0,-21.0,1111.9847121251264,2021-09-23 13:34:00.113
83,-363.0,1151.0,-21.0,1207.0671066680593,2021-09-23 13:34:00.123
84,-363.0,1151.0,-200.0,1223.3437783386971,2021-09-23 13:34:00.124
85,-307.0,871.0,-92.0,928.091590307767,2021-09-23 13:34:00.132
86,-228.0,871.0,-92.0,905.0353584252938,2021-09-23 13:34:00.141
87,-228.0,1184.0,-46.0,1206.630017859659,2021-09-23 13:34:00.142
88,-630.0,1044.0,-262.0,1247.188838949419,2021-09-23 13:34:00.151
89,66.0,1088.0,22.0,1090.2219957421516,2021-09-23 13:34:00.162
90,-195.0,1088.0,22.0,1105.5555164712443,2021-09-23 13:34:00.172
91,-195.0,943.0,-67.0,965.2787162265622,2021-09-23 13:34:00.173
92,-437.0,1044.0,-123.0,1138.4348905405177,2021-09-23 13:34:00.181
93,36.0,923.0,-123.0,931.8551389566944,2021-09-23 13:34:00.190
94,36.0,923.0,243.0,955.1303575952344,2021-09-23 13:34:00.191
95,-9.0,634.0,60.0,636.8963808972383,2021-09-23 13:34:00.200
96,-631.0,997.0,-35.0,1180.4215348764187,2021-09-23 13:34:00.210
97,-122.0,648.0,-1.0,659.3853198244559,2021-09-23 13:34:00.221
98,-424.0,961.0,68.0,1052.57826312346,2021-09-23 13:34:00.238
99,-191.0,753.0,367.0,859.1734399991657,2021-09-23 13:34:00.240
100,-412.0,658.0,-4.0,776.35301248852,2021-09-23 13:34:00.250
101,-528.0,819.0,-142.0,984.738036230956,2021-09-23 13:34:00.259
102,331.0,1180.0,232.0,1247.311107943804,2021-09-23 13:34:00.269
103,-313.0,871.0,-253.0,959.4889264603318,2021-09-23 13:34:00.278
104,16.0,1321.0,-195.0,1335.4107982190349,2021-09-23 13:34:00.288
105,254.0,1272.0,71.0,1299.0538864881626,2021-09-23 13:34:00.299
106,78.0,1037.0,-69.0,1042.215908533352,2021-09-23 13:34:00.310
107,-361.0,922.0,-288.0,1031.1881496603808,2021-09-23 13:34:00.317
108,-299.0,1128.0,-31.0,1167.3671230594084,2021-09-23 13:34:00.327
109,-371.0,1087.0,-65.0,1150.4064499123776,2021-09-23 13:34:00.337
110,-94.0,1152.0,-97.0,1159.8918052990978,2021-09-23 13:34:00.347
111,-326.0,1141.0,-65.0,1188.436788390531,2021-09-23 13:34:00.358
112,-523.0,1033.0,-308.0,1198.116021093116,2021-09-23 13:34:00.366
113,82.0,1157.0,66.0,1161.778378177181,2021-09-23 13:34:00.376
114,-358.0,964.0,8.0,1028.359859193269,2021-09-23 13:34:00.386
115,-404.0,983.0,-232.0,1087.809266369799,2021-09-23 13:34:00.396
116,38.0,874.0,305.0,926.4691036402672,2021-09-23 13:34:00.406
117,-290.0,836.0,123.0,893.3784192602819,2021-09-23 13:34:00.416
118,-396.0,772.0,60.0,869.712596206356,2021-09-23 13:34:00.425
119,-131.0,772.0,60.0,785.3311403478153,2021-09-23 13:34:00.434
120,-131.0,714.0,203.0,753.7678687765883,2021-09-23 13:34:00.435
121,-512.0,728.0,58.0,891.9035822329676,2021-09-23 13:34:00.445
122,-445.0,901.0,-57.0,1006.5162691183884,2021-09-23 13:34:00.455
123,436.0,1004.0,69.0,1096.755670147185,2021-09-23 13:34:00.468
124,-344.0,940.0,-98.0,1005.7534489128038,2021-09-23 13:34:00.474
125,309.0,899.0,-98.0,955.6599813741288,2021-09-23 13:34:00.483
126,309.0,899.0,139.0,960.730451271323,2021-09-23 13:34:00.484
127,-410.0,949.0,-305.0,1077.8339389720477,2021-09-23 13:34:00.503
128,210.0,1532.0,11.0,1546.365092725518,2021-09-23 13:34:00.507
129,201.0,1027.0,6.0,1046.5017916850406,2021-09-23 13:34:00.514
130,-119.0,967.0,-134.0,983.4663186911894,2021-09-23 13:34:00.523
131,-347.0,1096.0,-195.0,1166.040308051141,2021-09-23 13:34:00.532
132,-312.0,1096.0,-195.0,1156.107693945508,2021-09-23 13:34:00.542
133,-312.0,950.0,-77.0,1002.882346040651,2021-09-23 13:34:00.543
134,-305.0,1080.0,-122.0,1128.852957652147,2021-09-23 13:34:00.552
135,-630.0,1080.0,-122.0,1256.2579352983207,2021-09-23 13:34:00.561
136,-630.0,1097.0,-368.0,1317.4722008452395,2021-09-23 13:34:00.562
137,6.0,1200.0,213.0,1218.771922879749,2021-09-23 13:34:00.571
138,-295.0,768.0,-130.0,832.9159621474425,2021-09-23 13:34:00.587
139,-454.0,1046.0,-186.0,1155.3475667521009,2021-09-23 13:34:00.591
140,-365.0,1046.0,-186.0,1123.3596930636245,2021-09-23 13:34:00.600
141,-365.0,742.0,-155.0,841.3168249833114,2021-09-23 13:34:00.601
142,-440.0,1089.0,-161.0,1185.5133908986436,2021-09-23 13:34:00.623
143,135.0,1092.0,497.0,1207.351647201427,2021-09-23 13:34:00.626
144,-396.0,653.0,-16.0,763.8592802342589,2021-09-23 13:34:00.630
145,-151.0,653.0,-16.0,670.4222550005333,2021-09-23 13:34:00.640
146,-151.0,715.0,-54.0,732.7632632712969,2021-09-23 13:34:00.641
147,-151.0,881.0,-54.0,895.476409516186,2021-09-23 13:34:00.649
148,-151.0,881.0,223.0,921.2442672820276,2021-09-23 13:34:00.650
149,-590.0,815.0,41.0,1006.97864922748,2021-09-23 13:34:00.659
150,-308.0,804.0,-121.0,869.4371742685034,2021-09-23 13:34:00.669
151,187.0,1147.0,144.0,1171.0311695253888,2021-09-23 13:34:00.679
152,-462.0,1035.0,144.0,1142.5432158128638,2021-09-23 13:34:00.688
153,-462.0,1035.0,-174.0,1146.710512727602,2021-09-23 13:34:00.689
154,208.0,1260.0,-122.0,1282.867101456733,2021-09-23 13:34:00.699
155,277.0,1128.0,-66.0,1163.386866008036,2021-09-23 13:34:00.708
156,-271.0,1182.0,-37.0,1213.2328712988285,2021-09-23 13:34:00.718
157,125.0,1148.0,-66.0,1156.669788660532,2021-09-23 13:34:00.728
158,-409.0,1068.0,-95.0,1147.5757055636896,2021-09-23 13:34:00.738
159,-290.0,1089.0,-125.0,1133.8633074581785,2021-09-23 13:34:00.748
160,-56.0,958.0,-157.0,972.3934388918922,2021-09-23 13:34:00.757
161,-449.0,958.0,-157.0,1069.5859011785824,2021-09-23 13:34:00.766
162,-449.0,1138.0,-167.0,1234.7202112219593,2021-09-23 13:34:00.767
163,-502.0,1244.0,-167.0,1351.824322905902,2021-09-23 13:34:00.776
164,-502.0,1244.0,-246.0,1363.8387001401595,2021-09-23 13:34:00.777
165,142.0,881.0,151.0,905.0557993847672,2021-09-23 13:34:00.787
166,-543.0,797.0,-148.0,975.6854001162465,2021-09-23 13:34:00.797
167,-381.0,1155.0,-75.0,1218.528210588495,2021-09-23 13:34:00.806
168,101.0,911.0,-75.0,919.6450402193228,2021-09-23 13:34:00.815
169,101.0,911.0,371.0,988.8189925360456,2021-09-23 13:34:00.816
170,-351.0,569.0,-57.0,670.977644933123,2021-09-23 13:34:00.828
171,-338.0,569.0,-57.0,664.2695236122157,2021-09-23 13:34:00.835
172,-338.0,1025.0,93.0,1083.290358121958,2021-09-23 13:34:00.836
173,-185.0,634.0,197.0,689.1951828038266,2021-09-23 13:34:00.845
174,-449.0,682.0,69.0,819.4424934063403,2021-09-23 13:34:00.855
175,-320.0,522.0,206.0,646.0030959678135,2021-09-23 13:34:00.864
176,-340.0,771.0,-136.0,853.543789152027,2021-09-23 13:34:00.874
177,85.0,1129.0,138.0,1140.5744166866098,2021-09-23 13:34:00.884
178,100.0,1129.0,138.0,1141.7902609498822,2021-09-23 13:34:00.893
179,100.0,1049.0,60.0,1055.4624578827993,2021-09-23 13:34:00.894
180,-327.0,919.0,-325.0,1028.160979613601,2021-09-23 13:34:00.913
181,201.0,1482.0,-17.0,1495.6650694590685,2021-09-23 13:34:00.915
182,2.0,1140.0,-17.0,1140.1285015295423,2021-09-23 13:34:00.923
183,2.0,1140.0,150.0,1149.8278131963934,2021-09-23 13:34:00.924
184,-217.0,1140.0,150.0,1170.1234977556855,2021-09-23 13:34:00.932
185,-217.0,983.0,-132.0,1015.2841966661356,2021-09-23 13:34:00.933
186,-271.0,917.0,-132.0,965.2740543493336,2021-09-23 13:34:00.942
187,-271.0,917.0,-255.0,989.6236658447492,2021-09-23 13:34:00.943
188,-206.0,1083.0,3.0,1102.4218793184396,2021-09-23 13:34:00.953
189,-366.0,1183.0,-112.0,1243.3780599640645,2021-09-23 13:34:00.962
190,-385.0,1082.0,-329.0,1194.6505765285513,2021-09-23 13:34:00.972
191,-333.0,1125.0,-263.0,1202.3655850031637,2021-09-23 13:34:00.983
192,-220.0,1156.0,-208.0,1194.9895397031726,2021-09-23 13:34:00.991
193,98.0,1059.0,78.0,1066.3812639014247,2021-09-23 13:34:01.001
194,-492.0,954.0,-134.0,1081.728246834666,2021-09-23 13:34:01.012
195,-311.0,974.0,-96.0,1026.9435232767185,2021-09-23 13:34:01.021
196,166.0,974.0,-96.0,992.6973355459356,2021-09-23 13:34:01.031
197,166.0,1005.0,362.0,1081.0296018148624,2021-09-23 13:34:01.032
198,-737.0,816.0,-29.0,1099.9390892226716,2021-09-23 13:34:01.040
199,-42.0,801.0,88.0,806.9132543216774,2021-09-23 13:34:01.050
200,-219.0,801.0,88.0,835.0485015853869,2021-09-23 13:34:01.059
201,-219.0,546.0,150.0,607.1054274176768,2021-09-23 13:34:01.060
202,-569.0,977.0,30.0,1131.0128204401576,2021-09-23 13:34:01.070
203,11.0,1035.0,57.0,1036.6267409246204,2021-09-23 13:34:01.080
204,253.0,1035.0,57.0,1066.9971883749272,2021-09-23 13:34:01.089
205,253.0,936.0,-22.0,969.8396774725192,2021-09-23 13:34:01.090
206,-667.0,1145.0,-267.0,1351.7407295779765,2021-09-23 13:34:01.099
207,193.0,1454.0,-37.0,1467.2198199315603,2021-09-23 13:34:01.108
208,-360.0,1128.0,-318.0,1226.013050501503,2021-09-23 13:34:01.118
209,381.0,1565.0,119.0,1615.0996873258318,2021-09-23 13:34:01.129
210,194.0,971.0,-9.0,990.2312861145116,2021-09-23 13:34:01.140
211,-541.0,946.0,-9.0,1089.8064048261049,2021-09-23 13:34:01.147
212,-541.0,946.0,-109.0,1095.20682978148,2021-09-23 13:34:01.148
213,-187.0,1182.0,-83.0,1199.5757583412562,2021-09-23 13:34:01.157
214,-143.0,857.0,-34.0,869.5136571670396,2021-09-23 13:34:01.167
215,-466.0,1022.0,-357.0,1178.5961988738975,2021-09-23 13:34:01.178
216,-261.0,1320.0,-148.0,1353.6709349025707,2021-09-23 13:34:01.187
217,13.0,1013.0,170.0,1027.2477792626275,2021-09-23 13:34:01.196
218,-398.0,738.0,-251.0,875.2422521793609,2021-09-23 13:34:01.206
219,-396.0,1186.0,42.0,1251.06994208957,2021-09-23 13:34:01.216
220,121.0,981.0,440.0,1081.943621451691,2021-09-23 13:34:01.226
221,-369.0,547.0,440.0,793.0762888902933,2021-09-23 13:34:01.235
222,-369.0,547.0,11.0,659.9174190760538,2021-09-23 13:34:01.236
223,-49.0,903.0,11.0,904.3953781394508,2021-09-23 13:34:01.252
224,-49.0,903.0,399.0,988.4386677988676,2021-09-23 13:34:01.253
225,-509.0,631.0,-100.0,816.8488232225104,2021-09-23 13:34:01.256
226,37.0,823.0,209.0,849.9288205491093,2021-09-23 13:34:01.265
227,-337.0,589.0,209.0,710.0499982395606,2021-09-23 13:34:01.274
228,-337.0,589.0,183.0,702.8363963256314,2021-09-23 13:34:01.275
229,-424.0,824.0,-228.0,954.3248922667792,2021-09-23 13:34:01.284
230,118.0,1003.0,191.0,1027.8200231558053,2021-09-23 13:34:01.295
231,128.0,1152.0,4.0,1159.0961996314195,2021-09-23 13:34:01.304
232,-389.0,1052.0,-251.0,1149.3589517639823,2021-09-23 13:34:01.314
233,359.0,1298.0,-144.0,1354.407988753758,2021-09-23 13:34:01.324
234,-60.0,1104.0,80.0,1108.519733698954,2021-09-23 13:34:01.333
235,-514.0,1141.0,-32.0,1251.839047162214,2021-09-23 13:34:01.343
236,-187.0,1141.0,-32.0,1156.665033620365,2021-09-23 13:34:01.352
237,-187.0,878.0,-249.0,931.5868182837282,2021-09-23 13:34:01.353
238,-359.0,1171.0,-249.0,1249.8491909026466,2021-09-23 13:34:01.362
239,-359.0,1171.0,-103.0,1229.1179764367616,2021-09-23 13:34:01.363
240,-413.0,1036.0,-134.0,1123.3080610411375,2021-09-23 13:34:01.373
241,-173.0,908.0,-132.0,933.7114115185698,2021-09-23 13:34:01.382
242,-495.0,908.0,-132.0,1042.5511977835909,2021-09-23 13:34:01.391
243,-495.0,1181.0,-335.0,1323.6355238508825,2021-09-23 13:34:01.392
244,-216.0,1187.0,-68.0,1208.4076298997784,2021-09-23 13:34:01.402
245,73.0,912.0,48.0,916.1752015853737,2021-09-23 13:34:01.411
246,-470.0,874.0,-170.0,1006.8147793909264,2021-09-23 13:34:01.421
247,-112.0,1131.0,88.0,1139.9337700059596,2021-09-23 13:34:01.431
248,-31.0,680.0,88.0,686.3708909911609,2021-09-23 13:34:01.440
249,-31.0,680.0,258.0,727.9594768941469,2021-09-23 13:34:01.441
250,-671.0,680.0,258.0,989.5478765577742,2021-09-23 13:34:01.450
251,-671.0,750.0,-90.0,1010.3667650907764,2021-09-23 13:34:01.451
252,4.0,1074.0,335.0,1125.0408881458486,2021-09-23 13:34:01.460
253,-219.0,375.0,335.0,548.4623961585698,2021-09-23 13:34:01.472
254,-219.0,375.0,113.0,448.7259742872035,2021-09-23 13:34:01.473
255,-578.0,375.0,113.0,698.1962474834708,2021-09-23 13:34:01.479
256,-578.0,919.0,-231.0,1109.957656850026,2021-09-23 13:34:01.480
257,125.0,1201.0,152.0,1217.0168445835086,2021-09-23 13:34:01.489
258,-562.0,698.0,-266.0,934.7748391992588,2021-09-23 13:34:01.499
259,328.0,1236.0,284.0,1309.9374030845902,2021-09-23 13:34:01.509
260,-160.0,932.0,-145.0,956.6864690168876,2021-09-23 13:34:01.527
261,-4.0,1145.0,-278.0,1178.272039895711,2021-09-23 13:34:01.529
262,397.0,1423.0,-12.0,1477.390266652654,2021-09-23 13:34:01.539
263,-71.0,1123.0,-5.0,1125.2533048162975,2021-09-23 13:34:01.549
264,-336.0,1123.0,-5.0,1172.1987886020015,2021-09-23 13:34:01.557
265,-336.0,1014.0,-261.0,1099.6422145407114,2021-09-23 13:34:01.558
266,-158.0,1040.0,-24.0,1052.20720392896,2021-09-23 13:34:01.567
267,-303.0,1067.0,57.0,1110.651610542208,2021-09-23 13:34:01.577
268,-383.0,1014.0,-438.0,1169.0718540791238,2021-09-23 13:34:01.587
269,-103.0,1183.0,-61.0,1189.0412103875965,2021-09-23 13:34:01.600
270,-255.0,1027.0,39.0,1058.902733965684,2021-09-23 13:34:01.607
271,-440.0,879.0,39.0,983.7489517148164,2021-09-23 13:34:01.616
272,-440.0,879.0,-111.0,989.222927352576,2021-09-23 13:34:01.617
273,-336.0,932.0,60.0,992.5321153494228,2021-09-23 13:34:01.638
274,-336.0,1009.0,-112.0,1069.3554133215018,2021-09-23 13:34:01.639
275,23.0,804.0,141.0,816.5941464399558,2021-09-23 13:34:01.650
276,-168.0,804.0,141.0,833.3792654008138,2021-09-23 13:34:01.655
277,-168.0,832.0,236.0,880.9903518200413,2021-09-23 13:34:01.656
278,-478.0,842.0,-20.0,968.4255263054564,2021-09-23 13:34:01.665
279,-166.0,753.0,287.0,822.7599893042928,2021-09-23 13:34:01.675
280,-372.0,753.0,287.0,887.5595754652192,2021-09-23 13:34:01.684
281,-372.0,594.0,-64.0,703.7868995654864,2021-09-23 13:34:01.685
282,-556.0,882.0,-78.0,1045.5352696107386,2021-09-23 13:34:01.695
283,450.0,1064.0,95.0,1159.1466688905248,2021-09-23 13:34:01.704
284,-135.0,978.0,-210.0,1009.3606887530344,2021-09-23 13:34:01.714
285,-316.0,1323.0,-243.0,1381.750339243671,2021-09-23 13:34:01.724
286,467.0,1340.0,70.0,1420.7705655734849,2021-09-23 13:34:01.734
287,36.0,1468.0,-133.0,1474.452101629619,2021-09-23 13:34:01.743
288,295.0,1313.0,48.0,1346.5875389294229,2021-09-23 13:34:01.754
289,42.0,935.0,-230.0,963.7888772962676,2021-09-23 13:34:01.763
290,-418.0,1115.0,-230.0,1212.7856364584798,2021-09-23 13:34:01.772
291,-418.0,1115.0,-174.0,1203.422203551189,2021-09-23 13:34:01.773
292,-422.0,1037.0,-174.0,1133.0176521131525,2021-09-23 13:34:01.782
293,-422.0,1037.0,35.0,1120.1241002674658,2021-09-23 13:34:01.783
294,-276.0,1118.0,-14.0,1151.6492521597015,2021-09-23 13:34:01.792
295,-611.0,907.0,-383.0,1158.7316341586609,2021-09-23 13:34:01.803
296,82.0,907.0,-383.0,987.958501152756,2021-09-23 13:34:01.811
297,82.0,1289.0,109.0,1296.19674432549,2021-09-23 13:34:01.812
298,-299.0,895.0,23.0,943.904126487431,2021-09-23 13:34:01.821
299,-345.0,791.0,-249.0,898.1686923958105,2021-09-23 13:34:01.831
300,-70.0,1092.0,265.0,1125.8725505136006,2021-09-23 13:34:01.841
301,-168.0,767.0,201.0,810.5023133834968,2021-09-23 13:34:01.854
302,-457.0,752.0,-55.0,881.6904218601901,2021-09-23 13:34:01.860
303,-318.0,810.0,179.0,888.4058757122219,2021-09-23 13:34:01.870
304,-264.0,683.0,-50.0,733.9516332838289,2021-09-23 13:34:01.880
305,-115.0,729.0,309.0,800.091869724971,2021-09-23 13:34:01.891
306,-590.0,840.0,95.0,1030.8855416582387,2021-09-23 13:34:01.899
307,-419.0,737.0,-71.0,850.7473185382368,2021-09-23 13:34:01.919
308,307.0,1024.0,-71.0,1071.3850848317795,2021-09-23 13:34:01.921
309,307.0,1024.0,31.0,1069.479312562894,2021-09-23 13:34:01.922
310,-396.0,1045.0,31.0,1117.9454369511957,2021-09-23 13:34:01.929
311,-396.0,1045.0,-128.0,1124.822208173363,2021-09-23 13:34:01.930
312,78.0,1340.0,-122.0,1347.801172280244,2021-09-23 13:34:01.940
313,365.0,1099.0,-77.0,1160.5839047651832,2021-09-23 13:34:01.948
314,-20.0,1229.0,-21.0,1229.342100474884,2021-09-23 13:34:01.958
315,-317.0,1121.0,-87.0,1168.2033213443626,2021-09-23 13:34:01.968
316,54.0,1096.0,-153.0,1107.9444931944922,2021-09-23 13:34:01.978
317,-388.0,1096.0,-153.0,1172.6759995838577,2021-09-23 13:34:01.988
318,-388.0,1070.0,80.0,1140.9837860372952,2021-09-23 13:34:01.989
319,-302.0,886.0,-89.0,940.2770868206882,2021-09-23 13:34:01.997
320,-60.0,1001.0,-15.0,1002.908769529911,2021-09-23 13:34:02.007
321,-342.0,1001.0,-15.0,1057.9177661803396,2021-09-23 13:34:02.016
322,-342.0,1178.0,-93.0,1230.161371528142,2021-09-23 13:34:02.017
323,-99.0,882.0,137.0,898.0501099604631,2021-09-23 13:34:02.027
324,-222.0,857.0,137.0,895.8247596488948,2021-09-23 13:34:02.037
325,-222.0,857.0,-102.0,891.1436472309052,2021-09-23 13:34:02.038
326,-221.0,919.0,39.0,946.0036997813486,2021-09-23 13:34:02.046
327,-238.0,1047.0,110.0,1079.3298846969817,2021-09-23 13:34:02.056
328,-102.0,773.0,110.0,787.4217421433066,2021-09-23 13:34:02.065
329,-102.0,773.0,-77.0,783.4934588112399,2021-09-23 13:34:02.066
330,-242.0,773.0,-77.0,813.647343755266,2021-09-23 13:34:02.075
331,-242.0,922.0,60.0,955.1167467906738,2021-09-23 13:34:02.076
332,-177.0,1056.0,0.0,1070.7310586697297,2021-09-23 13:34:02.085
333,-170.0,878.0,-26.0,894.6843018629532,2021-09-23 13:34:02.096
334,-201.0,1027.0,-26.0,1046.807527676411,2021-09-23 13:34:02.104
335,-201.0,1027.0,-87.0,1050.0947576290437,2021-09-23 13:34:02.105
336,-71.0,1141.0,-2.0,1143.2086423746105,2021-09-23 13:34:02.114
