,Acceleration_X,Acceleration_Y,Acceleration_Z,magnitude,time_stamp
0,-299.0,868.0,-23.0,918.343073148592,2021-09-02 05:32:06.271
1,-299.0,868.0,-46.0,919.2067232130104,2021-09-02 05:32:06.272
2,-152.0,944.0,18.0,956.3283954792936,2021-09-02 05:32:06.281
3,-152.0,1104.0,18.0,1114.560002871088,2021-09-02 05:32:06.290
4,-152.0,1104.0,58.0,1115.922936407349,2021-09-02 05:32:06.291
5,-265.0,1002.0,-69.0,1038.7444344014557,2021-09-02 05:32:06.300
6,-140.0,923.0,37.0,934.2901048389627,2021-09-02 05:32:06.311
7,-249.0,858.0,37.0,894.1666511338924,2021-09-02 05:32:06.320
8,-249.0,858.0,12.0,893.4813932030146,2021-09-02 05:32:06.321
9,-261.0,858.0,12.0,896.8996599397282,2021-09-02 05:32:06.329
10,-261.0,984.0,-87.0,1021.7367567039956,2021-09-02 05:32:06.330
11,-220.0,1027.0,-27.0,1050.6464676569374,2021-09-02 05:32:06.339
12,-144.0,1018.0,-18.0,1028.2917873833285,2021-09-02 05:32:06.349
13,-110.0,1007.0,-16.0,1013.1164789894596,2021-09-02 05:32:06.361
14,-179.0,1007.0,-16.0,1022.910553274332,2021-09-02 05:32:06.368
15,-179.0,975.0,-6.0,991.3132703641164,2021-09-02 05:32:06.369
16,-184.0,1007.0,-6.0,1023.6898944504628,2021-09-02 05:32:06.378
17,-184.0,1007.0,-41.0,1024.493045364389,2021-09-02 05:32:06.379
18,-146.0,881.0,-45.0,894.1487571987113,2021-09-02 05:32:06.388
19,-205.0,995.0,-19.0,1016.0762766643064,2021-09-02 05:32:06.398
20,-173.0,1055.0,3.0,1069.0944766483456,2021-09-02 05:32:06.408
21,-89.0,892.0,10.0,896.4848018789834,2021-09-02 05:32:06.419
22,-280.0,1062.0,45.0,1099.2129002154222,2021-09-02 05:32:06.428
23,-126.0,1120.0,-43.0,1127.885189192588,2021-09-02 05:32:06.437
24,-180.0,894.0,-62.0,914.0459507048866,2021-09-02 05:32:06.447
25,-227.0,894.0,-62.0,924.4506476821788,2021-09-02 05:32:06.456
26,-227.0,917.0,1.0,944.679310665794,2021-09-02 05:32:06.457
27,-256.0,1087.0,-54.0,1118.0433801959564,2021-09-02 05:32:06.467
28,-75.0,927.0,-95.0,934.86843994222,2021-09-02 05:32:06.476
29,-77.0,1070.0,64.0,1074.674369285878,2021-09-02 05:32:06.486
30,-263.0,1070.0,64.0,1103.7051236630189,2021-09-02 05:32:06.495
31,-263.0,1003.0,9.0,1036.946961035134,2021-09-02 05:32:06.496
32,-63.0,967.0,-18.0,969.2172099173642,2021-09-02 05:32:06.505
33,-267.0,967.0,-18.0,1003.3454041355848,2021-09-02 05:32:06.515
34,-267.0,1117.0,-51.0,1149.5994954765767,2021-09-02 05:32:06.516
35,-185.0,886.0,-97.0,910.2911622113004,2021-09-02 05:32:06.526
36,-162.0,886.0,-97.0,905.8967932386116,2021-09-02 05:32:06.534
37,-162.0,955.0,49.0,969.8814360528816,2021-09-02 05:32:06.535
38,-238.0,1130.0,-83.0,1157.770702686849,2021-09-02 05:32:06.544
39,-208.0,907.0,29.0,930.9962405939136,2021-09-02 05:32:06.554
40,-224.0,1039.0,12.0,1062.9397913334508,2021-09-02 05:32:06.564
41,-172.0,1173.0,24.0,1185.7862370596145,2021-09-02 05:32:06.575
42,-280.0,922.0,-93.0,968.0563000156552,2021-09-02 05:32:06.584
43,-237.0,894.0,-51.0,926.2861328984688,2021-09-02 05:32:06.593
44,-260.0,1104.0,61.0,1135.8419784459456,2021-09-02 05:32:06.603
45,-183.0,975.0,-107.0,997.7790336542456,2021-09-02 05:32:06.613
46,-143.0,1034.0,-8.0,1043.8721186045732,2021-09-02 05:32:06.623
47,-167.0,1034.0,-8.0,1047.4297112455804,2021-09-02 05:32:06.655
48,-167.0,993.0,-48.0,1008.0882897841836,2021-09-02 05:32:06.656
49,-223.0,1036.0,-48.0,1060.8152525298644,2021-09-02 05:32:06.658
50,-223.0,1076.0,-22.0,1099.085528973974,2021-09-02 05:32:06.663
51,-124.0,951.0,-83.0,962.634925607834,2021-09-02 05:32:06.667
52,-220.0,939.0,36.0,965.09947673802,2021-09-02 05:32:06.671
53,-213.0,1000.0,-24.0,1022.7145251730808,2021-09-02 05:32:06.681
54,-168.0,1009.0,-24.0,1023.1720285465196,2021-09-02 05:32:06.691
55,-168.0,1009.0,38.0,1023.5961117550222,2021-09-02 05:32:06.692
56,-136.0,904.0,-39.0,915.0043715742564,2021-09-02 05:32:06.703
57,-239.0,1089.0,-24.0,1115.1762192586425,2021-09-02 05:32:06.720
58,-228.0,1089.0,-24.0,1112.870612425362,2021-09-02 05:32:06.723
59,-228.0,993.0,-83.0,1022.21426325404,2021-09-02 05:32:06.724
60,-149.0,996.0,-14.0,1007.1807186399072,2021-09-02 05:32:06.731
61,-186.0,903.0,-11.0,922.0227762913452,2021-09-02 05:32:06.740
62,-183.0,1001.0,-11.0,1017.6497432810564,2021-09-02 05:32:06.749
63,-183.0,1001.0,-52.0,1018.9180536235484,2021-09-02 05:32:06.750
64,-184.0,1103.0,-51.0,1119.4043058698676,2021-09-02 05:32:06.759
65,-139.0,1103.0,-51.0,1112.8930766250637,2021-09-02 05:32:06.769
66,-139.0,999.0,46.0,1009.6722240410498,2021-09-02 05:32:06.770
67,-244.0,899.0,-30.0,932.0069742228328,2021-09-02 05:32:06.781
68,-107.0,899.0,-30.0,905.842149604444,2021-09-02 05:32:06.788
69,-107.0,1020.0,-77.0,1028.4833494033824,2021-09-02 05:32:06.789
70,-183.0,934.0,-54.0,953.2895677599752,2021-09-02 05:32:06.798
71,-208.0,915.0,8.0,938.377855663698,2021-09-02 05:32:06.808
72,-175.0,955.0,-12.0,970.975797844622,2021-09-02 05:32:06.818
73,-110.0,1040.0,-12.0,1045.8699727977662,2021-09-02 05:32:06.828
74,-110.0,1040.0,-43.0,1046.684766297857,2021-09-02 05:32:06.829
75,-80.0,1033.0,-53.0,1037.447830013635,2021-09-02 05:32:06.837
76,-283.0,932.0,-2.0,974.0210470005256,2021-09-02 05:32:06.849
77,-144.0,1050.0,-87.0,1063.3931540121932,2021-09-02 05:32:06.857
78,-224.0,1050.0,-87.0,1077.146693816585,2021-09-02 05:32:06.866
79,-224.0,875.0,30.0,903.71510997659,2021-09-02 05:32:06.867
80,-261.0,993.0,-5.0,1026.7399865594016,2021-09-02 05:32:06.877
81,-151.0,1022.0,-10.0,1033.1432620890482,2021-09-02 05:32:06.888
82,-151.0,995.0,-96.0,1010.9609290175364,2021-09-02 05:32:06.896
83,-169.0,995.0,-96.0,1013.8057013057283,2021-09-02 05:32:06.905
84,-169.0,1008.0,4.0,1022.0768072899414,2021-09-02 05:32:06.906
85,-206.0,805.0,-45.0,832.1574370273933,2021-09-02 05:32:06.915
86,-68.0,1009.0,-65.0,1013.3755473663256,2021-09-02 05:32:06.925
87,-228.0,976.0,-65.0,1004.3828951152044,2021-09-02 05:32:06.936
88,-228.0,976.0,-24.0,1002.564711128414,2021-09-02 05:32:06.937
89,-206.0,999.0,-71.0,1022.4861857257534,2021-09-02 05:32:06.953
90,-155.0,895.0,30.0,908.8179135558454,2021-09-02 05:32:06.955
91,-193.0,1073.0,-43.0,1091.066909039038,2021-09-02 05:32:06.964
92,-124.0,912.0,-43.0,921.3951378209024,2021-09-02 05:32:06.975
93,-124.0,912.0,-76.0,923.5236867563278,2021-09-02 05:32:06.976
94,-202.0,945.0,17.0,966.4978013425588,2021-09-02 05:32:06.984
95,-328.0,945.0,17.0,1000.448899244734,2021-09-02 05:32:06.993
96,-328.0,1109.0,-61.0,1158.0958509553516,2021-09-02 05:32:06.994
97,-129.0,936.0,-80.0,948.2283480259384,2021-09-02 05:32:07.003
98,-107.0,936.0,-80.0,945.4866471822857,2021-09-02 05:32:07.013
99,-107.0,1081.0,-19.0,1086.4488022912078,2021-09-02 05:32:07.014
100,-238.0,926.0,-40.0,956.9325995074051,2021-09-02 05:32:07.024
101,-108.0,926.0,-40.0,933.1345026307836,2021-09-02 05:32:07.032
102,-108.0,1014.0,51.0,1021.0097942723174,2021-09-02 05:32:07.033
103,-122.0,992.0,67.0,1001.7170259110104,2021-09-02 05:32:07.050
104,-184.0,1003.0,-3.0,1019.7421242647574,2021-09-02 05:32:07.054
105,-175.0,925.0,-123.0,949.409816675602,2021-09-02 05:32:07.062
106,-257.0,1114.0,15.0,1143.3590862017058,2021-09-02 05:32:07.073
107,-92.0,981.0,-75.0,988.1548461653164,2021-09-02 05:32:07.082
108,-170.0,895.0,10.0,911.057078343613,2021-09-02 05:32:07.091
109,-209.0,1153.0,19.0,1171.943258012093,2021-09-02 05:32:07.101
110,-174.0,971.0,-53.0,987.8896699530771,2021-09-02 05:32:07.111
111,-196.0,1014.0,8.0,1032.8000774593309,2021-09-02 05:32:07.122
112,-297.0,813.0,-80.0,869.2398978417868,2021-09-02 05:32:07.130
113,-159.0,1020.0,-106.0,1037.7461153866104,2021-09-02 05:32:07.140
114,-230.0,1035.0,-18.0,1060.4003960768782,2021-09-02 05:32:07.150
115,-281.0,1005.0,4.0,1043.5525861210829,2021-09-02 05:32:07.160
116,-121.0,910.0,-57.0,919.777146922014,2021-09-02 05:32:07.170
117,-127.0,1061.0,-50.0,1069.742959780526,2021-09-02 05:32:07.180
118,-111.0,1010.0,-50.0,1017.3106703460846,2021-09-02 05:32:07.189
119,-111.0,1010.0,-51.0,1017.3603098214516,2021-09-02 05:32:07.190
120,-267.0,941.0,-20.0,978.3506528847416,2021-09-02 05:32:07.199
121,-143.0,941.0,-20.0,952.0136553642496,2021-09-02 05:32:07.208
122,-143.0,1057.0,-69.0,1068.8587371584704,2021-09-02 05:32:07.209
123,-242.0,897.0,-87.0,933.135574287038,2021-09-02 05:32:07.218
124,-214.0,1025.0,-2.0,1047.103146781634,2021-09-02 05:32:07.229
125,-121.0,963.0,19.0,970.75795129373,2021-09-02 05:32:07.238
126,-160.0,950.0,-82.0,966.8629685741408,2021-09-02 05:32:07.248
127,-207.0,1029.0,-18.0,1049.7685459185752,2021-09-02 05:32:07.257
128,-205.0,907.0,18.0,930.052686679631,2021-09-02 05:32:07.267
129,-151.0,907.0,18.0,919.659719678969,2021-09-02 05:32:07.277
130,-151.0,1064.0,-163.0,1086.9526208625657,2021-09-02 05:32:07.278
131,-227.0,1064.0,-163.0,1100.0881782839049,2021-09-02 05:32:07.286
132,-227.0,957.0,-97.0,988.3253512887344,2021-09-02 05:32:07.287
133,-224.0,961.0,15.0,986.8748654211436,2021-09-02 05:32:07.296
134,-154.0,975.0,-15.0,987.2010940026352,2021-09-02 05:32:07.306
135,-185.0,1011.0,-36.0,1028.417230505207,2021-09-02 05:32:07.316
136,-211.0,986.0,-26.0,1008.6590107662748,2021-09-02 05:32:07.326
137,-97.0,870.0,12.0,875.4730150038891,2021-09-02 05:32:07.337
138,-292.0,1031.0,-61.0,1073.2874731403513,2021-09-02 05:32:07.346
139,-272.0,949.0,28.0,987.6077156442228,2021-09-02 05:32:07.358
140,-3.0,940.0,4.0,940.0132977782814,2021-09-02 05:32:07.366
141,-218.0,1050.0,-40.0,1073.1374562468686,2021-09-02 05:32:07.375
142,-116.0,1083.0,13.0,1089.2722341086271,2021-09-02 05:32:07.386
143,-169.0,932.0,-48.0,948.4139391636966,2021-09-02 05:32:07.394
144,-239.0,890.0,18.0,921.7076543025994,2021-09-02 05:32:07.404
145,-320.0,1091.0,18.0,1137.103777146132,2021-09-02 05:32:07.413
146,-320.0,1091.0,-47.0,1137.932335422454,2021-09-02 05:32:07.414
147,-138.0,1020.0,14.0,1029.3881677967745,2021-09-02 05:32:07.423
148,-101.0,1019.0,56.0,1025.5232810619173,2021-09-02 05:32:07.434
149,-270.0,886.0,-61.0,928.2332680959028,2021-09-02 05:32:07.443
150,-121.0,1019.0,-41.0,1026.9776044296195,2021-09-02 05:32:07.455
151,-168.0,1114.0,-41.0,1127.342450189826,2021-09-02 05:32:07.462
152,-176.0,849.0,-72.0,870.0350567649559,2021-09-02 05:32:07.472
153,-241.0,894.0,-72.0,928.7093194320817,2021-09-02 05:32:07.482
154,-241.0,894.0,24.0,926.2251346190084,2021-09-02 05:32:07.483
155,-199.0,894.0,24.0,916.1948482719164,2021-09-02 05:32:07.491
156,-199.0,1116.0,-116.0,1139.5231458816447,2021-09-02 05:32:07.492
157,-178.0,901.0,-17.0,918.5717173960888,2021-09-02 05:32:07.501
158,-206.0,914.0,-61.0,938.9105388693856,2021-09-02 05:32:07.511
159,-189.0,1092.0,20.0,1108.4155357987363,2021-09-02 05:32:07.521
160,-193.0,1009.0,-107.0,1032.8499406980668,2021-09-02 05:32:07.531
161,-177.0,947.0,-12.0,963.4739228437892,2021-09-02 05:32:07.542
162,-240.0,876.0,-6.0,908.3017119878174,2021-09-02 05:32:07.551
163,-153.0,956.0,-134.0,977.3950071491056,2021-09-02 05:32:07.560
164,-221.0,1052.0,-5.0,1074.974418300268,2021-09-02 05:32:07.570
165,-211.0,1052.0,-5.0,1072.9631866937468,2021-09-02 05:32:07.579
166,-211.0,991.0,-68.0,1015.492983727608,2021-09-02 05:32:07.580
167,-127.0,1000.0,-17.0,1008.1755799462712,2021-09-02 05:32:07.590
168,-252.0,1005.0,-98.0,1040.7367582631066,2021-09-02 05:32:07.599
169,-174.0,974.0,-49.0,990.632626153611,2021-09-02 05:32:07.609
170,-219.0,974.0,-49.0,999.5188842638242,2021-09-02 05:32:07.618
171,-219.0,909.0,25.0,935.3432525014548,2021-09-02 05:32:07.619
172,-232.0,1074.0,-46.0,1099.734513416761,2021-09-02 05:32:07.628
173,-242.0,996.0,-23.0,1025.2360703759891,2021-09-02 05:32:07.639
174,-142.0,911.0,-99.0,927.3003828317984,2021-09-02 05:32:07.649
175,-118.0,1099.0,3.0,1105.3207679221448,2021-09-02 05:32:07.658
176,-234.0,979.0,-37.0,1007.256670367588,2021-09-02 05:32:07.698
177,-88.0,1048.0,-37.0,1052.3388237635254,2021-09-02 05:32:07.706
178,-88.0,1048.0,-26.0,1052.0095056604764,2021-09-02 05:32:07.707
179,-75.0,996.0,-24.0,999.10810225921,2021-09-02 05:32:07.716
180,-243.0,926.0,-20.0,957.5620084360072,2021-09-02 05:32:07.726
181,-185.0,1040.0,-20.0,1056.51549917642,2021-09-02 05:32:07.740
182,-185.0,1040.0,-33.0,1056.841520758907,2021-09-02 05:32:07.741
183,-195.0,897.0,-87.0,922.064531364264,2021-09-02 05:32:07.746
184,-244.0,833.0,29.0,868.4848876059963,2021-09-02 05:32:07.755
185,-185.0,927.0,-21.0,945.513088222474,2021-09-02 05:32:07.765
186,-146.0,1045.0,-90.0,1058.9811140903316,2021-09-02 05:32:07.775
187,-45.0,1020.0,45.0,1021.9833658137494,2021-09-02 05:32:07.786
188,-244.0,1001.0,35.0,1030.9034872382574,2021-09-02 05:32:07.794
189,-88.0,1028.0,-61.0,1033.5613189356498,2021-09-02 05:32:07.804
190,-169.0,1025.0,-51.0,1040.0898999605756,2021-09-02 05:32:07.814
191,-185.0,1025.0,-51.0,1042.80918676429,2021-09-02 05:32:07.823
192,-185.0,980.0,-49.0,998.5118927684337,2021-09-02 05:32:07.824
193,-176.0,920.0,-27.0,937.0725692282322,2021-09-02 05:32:07.837
194,-244.0,1101.0,-22.0,1127.9277459128311,2021-09-02 05:32:07.844
195,-208.0,954.0,29.0,976.8423618987866,2021-09-02 05:32:07.853
196,-160.0,890.0,-47.0,905.4882660752704,2021-09-02 05:32:07.863
197,-281.0,1133.0,-47.0,1168.2718005669742,2021-09-02 05:32:07.872
198,-281.0,1133.0,-67.0,1169.2471937105515,2021-09-02 05:32:07.873
199,-260.0,967.0,-72.0,1003.9287823346832,2021-09-02 05:32:07.882
200,-168.0,915.0,-115.0,937.3761251493448,2021-09-02 05:32:07.893
201,-153.0,932.0,47.0,945.643696113922,2021-09-02 05:32:07.902
202,-225.0,1093.0,47.0,1116.9077849133294,2021-09-02 05:32:07.911
203,-225.0,1093.0,-47.0,1116.9077849133294,2021-09-02 05:32:07.912
204,-183.0,941.0,6.0,958.648006308885,2021-09-02 05:32:07.921
205,-284.0,941.0,6.0,982.9409951772284,2021-09-02 05:32:07.931
206,-284.0,992.0,38.0,1032.5521778583395,2021-09-02 05:32:07.932
207,-231.0,992.0,38.0,1019.24923350474,2021-09-02 05:32:07.941
208,-231.0,1052.0,-63.0,1078.9040735857843,2021-09-02 05:32:07.942
209,-87.0,999.0,-11.0,1002.8414630438853,2021-09-02 05:32:07.951
210,-119.0,1035.0,-40.0,1042.5862074667975,2021-09-02 05:32:07.968
211,-158.0,886.0,-50.0,901.3656305850584,2021-09-02 05:32:07.972
212,-122.0,997.0,-50.0,1005.6803667169804,2021-09-02 05:32:07.980
213,-122.0,997.0,20.0,1004.6357548883078,2021-09-02 05:32:07.981
214,-201.0,1073.0,-84.0,1094.8908621410628,2021-09-02 05:32:07.990
215,-137.0,930.0,-14.0,940.140946879775,2021-09-02 05:32:07.999
216,-276.0,978.0,-34.0,1016.7674267009148,2021-09-02 05:32:08.009
217,-258.0,1026.0,-6.0,1057.9584112808973,2021-09-02 05:32:08.019
218,-91.0,961.0,-73.0,968.0552670173332,2021-09-02 05:32:08.031
219,-184.0,921.0,13.0,939.290157512576,2021-09-02 05:32:08.039
220,-186.0,1002.0,13.0,1019.20017660909,2021-09-02 05:32:08.049
221,-186.0,1002.0,-4.0,1019.1251149883414,2021-09-02 05:32:08.050
222,-114.0,1022.0,-101.0,1033.2865043152358,2021-09-02 05:32:08.058
223,-171.0,999.0,0.0,1013.529476631045,2021-09-02 05:32:08.068
224,-254.0,936.0,-39.0,970.6353589273368,2021-09-02 05:32:08.078
225,-115.0,999.0,-104.0,1010.9609290175364,2021-09-02 05:32:08.087
226,-166.0,999.0,-104.0,1018.0240665131644,2021-09-02 05:32:08.097
227,-166.0,983.0,-19.0,997.098791494604,2021-09-02 05:32:08.098
228,-136.0,1054.0,-34.0,1063.2817124356084,2021-09-02 05:32:08.107
229,-62.0,1054.0,-34.0,1056.3692536229933,2021-09-02 05:32:08.116
230,-62.0,1000.0,-4.0,1001.92814113588,2021-09-02 05:32:08.117
231,-90.0,1053.0,-4.0,1056.846724932239,2021-09-02 05:32:08.126
232,-90.0,1053.0,-24.0,1057.111630812943,2021-09-02 05:32:08.127
233,-132.0,1005.0,3.0,1013.636029351759,2021-09-02 05:32:08.137
234,-217.0,853.0,-72.0,883.1092797610045,2021-09-02 05:32:08.146
235,-136.0,1061.0,-92.0,1073.6298244739664,2021-09-02 05:32:08.156
236,-234.0,1034.0,-92.0,1064.131570812557,2021-09-02 05:32:08.165
237,-234.0,1034.0,-36.0,1060.758219388377,2021-09-02 05:32:08.166
238,-210.0,943.0,-45.0,967.1473517515312,2021-09-02 05:32:08.175
239,-96.0,943.0,-45.0,948.9415155846012,2021-09-02 05:32:08.185
240,-96.0,1107.0,34.0,1111.6748625385032,2021-09-02 05:32:08.186
241,-272.0,1038.0,-39.0,1073.7546274638355,2021-09-02 05:32:08.195
242,-122.0,1038.0,-39.0,1045.8723631495384,2021-09-02 05:32:08.205
243,-122.0,904.0,-9.0,912.2395518722044,2021-09-02 05:32:08.206
244,-173.0,1003.0,-11.0,1017.86983450734,2021-09-02 05:32:08.214
245,-307.0,982.0,-55.0,1030.3387792371982,2021-09-02 05:32:08.224
246,-119.0,985.0,-26.0,992.5028967212136,2021-09-02 05:32:08.236
247,-258.0,985.0,-26.0,1018.5602584039884,2021-09-02 05:32:08.243
248,-258.0,1054.0,-14.0,1085.2078141996583,2021-09-02 05:32:08.244
249,-115.0,1043.0,15.0,1049.4279394031778,2021-09-02 05:32:08.253
250,-130.0,912.0,-87.0,925.3177832507056,2021-09-02 05:32:08.263
251,-257.0,1024.0,-35.0,1056.338014084507,2021-09-02 05:32:08.273
252,-225.0,1024.0,-35.0,1049.0119160429017,2021-09-02 05:32:08.283
253,-225.0,943.0,7.0,969.4962609520472,2021-09-02 05:32:08.284
254,-187.0,908.0,7.0,927.0825205988948,2021-09-02 05:32:08.292
255,-187.0,908.0,-52.0,928.5133278526486,2021-09-02 05:32:08.293
256,-162.0,1051.0,-24.0,1063.6827534561232,2021-09-02 05:32:08.302
257,-120.0,971.0,-40.0,979.2042687815448,2021-09-02 05:32:08.313
258,-182.0,1037.0,31.0,1053.3062232798209,2021-09-02 05:32:08.322
259,-120.0,1069.0,-32.0,1076.190038980105,2021-09-02 05:32:08.332
260,-246.0,943.0,-19.0,974.7440689740052,2021-09-02 05:32:08.341
261,-273.0,1008.0,-2.0,1044.316522899068,2021-09-02 05:32:08.351
262,-254.0,1008.0,-2.0,1039.5114236986528,2021-09-02 05:32:08.362
263,-254.0,1099.0,26.0,1128.2699145151394,2021-09-02 05:32:08.363
264,-153.0,1099.0,26.0,1109.903599417535,2021-09-02 05:32:08.370
265,-153.0,964.0,-41.0,976.9268140449416,2021-09-02 05:32:08.371
266,-73.0,975.0,-20.0,977.933535573865,2021-09-02 05:32:08.380
267,-221.0,1095.0,-14.0,1117.1669526082485,2021-09-02 05:32:08.391
268,-53.0,1039.0,-9.0,1040.389830784596,2021-09-02 05:32:08.400
269,-215.0,1066.0,-57.0,1088.9582177475866,2021-09-02 05:32:08.410
270,-171.0,936.0,-57.0,953.1977759101204,2021-09-02 05:32:08.419
271,-171.0,936.0,-55.0,953.0802694421914,2021-09-02 05:32:08.420
272,-192.0,925.0,51.0,946.0919617035122,2021-09-02 05:32:08.429
273,-301.0,1081.0,51.0,1123.2822441399137,2021-09-02 05:32:08.440
274,-301.0,1081.0,-95.0,1126.1380909995007,2021-09-02 05:32:08.442
275,-183.0,901.0,-44.0,920.448803573561,2021-09-02 05:32:08.449
276,-196.0,901.0,-44.0,923.1213354700452,2021-09-02 05:32:08.458
277,-196.0,1022.0,18.0,1040.78047637338,2021-09-02 05:32:08.459
278,-193.0,1045.0,-41.0,1063.4636806210167,2021-09-02 05:32:08.469
279,-186.0,1010.0,6.0,1027.0014605637132,2021-09-02 05:32:08.478
280,-202.0,1023.0,-13.0,1042.8336396568725,2021-09-02 05:32:08.488
281,-226.0,1023.0,-13.0,1047.7471068917346,2021-09-02 05:32:08.497
282,-226.0,1002.0,18.0,1027.328574507689,2021-09-02 05:32:08.498
283,-230.0,1051.0,-72.0,1078.2787209251603,2021-09-02 05:32:08.507
284,-288.0,1051.0,-72.0,1092.121330255938,2021-09-02 05:32:08.517
285,-288.0,968.0,47.0,1011.0276949718044,2021-09-02 05:32:08.518
286,-173.0,982.0,-43.0,998.0490969887204,2021-09-02 05:32:08.527
287,-131.0,1062.0,-85.0,1073.4197687764092,2021-09-02 05:32:08.537
288,-130.0,1003.0,-43.0,1012.3033142294852,2021-09-02 05:32:08.547
289,-83.0,1000.0,-62.0,1005.3521771001444,2021-09-02 05:32:08.556
290,-183.0,901.0,2.0,919.3987165533788,2021-09-02 05:32:08.566
291,-168.0,901.0,2.0,916.530959651664,2021-09-02 05:32:08.575
292,-168.0,984.0,-12.0,998.3105729180676,2021-09-02 05:32:08.576
293,-214.0,1066.0,-12.0,1087.3343552008278,2021-09-02 05:32:08.585
294,-214.0,1066.0,-79.0,1090.1343953843489,2021-09-02 05:32:08.586
295,-152.0,988.0,9.0,999.6644437009852,2021-09-02 05:32:08.596
296,-286.0,912.0,-10.0,955.8451757476208,2021-09-02 05:32:08.605
297,-253.0,988.0,-80.0,1023.0117301380272,2021-09-02 05:32:08.615
298,-155.0,1008.0,-80.0,1022.9804494710542,2021-09-02 05:32:08.625
299,-155.0,1008.0,-18.0,1020.0063725291132,2021-09-02 05:32:08.626
300,-185.0,865.0,-28.0,885.0050847311556,2021-09-02 05:32:08.634
301,-165.0,977.0,-39.0,991.6022388034428,2021-09-02 05:32:08.644
302,-123.0,1103.0,-86.0,1113.1639591722326,2021-09-02 05:32:08.654
303,-104.0,1103.0,-86.0,1111.224999718779,2021-09-02 05:32:08.663
304,-104.0,949.0,-3.0,954.686335924004,2021-09-02 05:32:08.664
305,-286.0,924.0,-42.0,968.1611436119506,2021-09-02 05:32:08.674
306,-112.0,1016.0,-106.0,1027.6361223701704,2021-09-02 05:32:08.690
307,-232.0,978.0,14.0,1005.2382802102196,2021-09-02 05:32:08.710
308,-232.0,978.0,14.0,1005.2382802102196,2021-09-02 05:32:08.711
309,-232.0,959.0,-101.0,991.8195400374002,2021-09-02 05:32:08.712
310,-209.0,978.0,-9.0,1000.1229924364304,2021-09-02 05:32:08.714
311,-239.0,1050.0,-29.0,1077.2474181913828,2021-09-02 05:32:08.722
312,-163.0,840.0,-29.0,856.1600317697621,2021-09-02 05:32:08.732
313,-163.0,840.0,-43.0,856.7485045216011,2021-09-02 05:32:08.733
314,-132.0,840.0,-43.0,851.3947380621987,2021-09-02 05:32:08.753
315,-132.0,1022.0,-50.0,1031.7015072199904,2021-09-02 05:32:08.754
316,-132.0,1022.0,-49.0,1031.6535271107252,2021-09-02 05:32:08.755
317,-219.0,958.0,-70.0,985.2030247619016,2021-09-02 05:32:08.761
318,-208.0,983.0,-75.0,1007.5604200245264,2021-09-02 05:32:08.771
319,-195.0,1029.0,39.0,1048.0395984885304,2021-09-02 05:32:08.781
320,-158.0,908.0,39.0,922.4689696678148,2021-09-02 05:32:08.790
321,-158.0,908.0,-121.0,929.5531184391778,2021-09-02 05:32:08.791
322,-167.0,1021.0,-12.0,1034.63713445826,2021-09-02 05:32:08.800
323,-208.0,925.0,17.0,948.2499670445552,2021-09-02 05:32:08.811
324,-259.0,937.0,-27.0,972.5116965877584,2021-09-02 05:32:08.820
325,-139.0,937.0,-27.0,947.638644209912,2021-09-02 05:32:08.830
326,-139.0,1121.0,-18.0,1129.728285916574,2021-09-02 05:32:08.831
327,-56.0,1016.0,-78.0,1020.5273146760944,2021-09-02 05:32:08.839
328,-167.0,914.0,-20.0,929.346544621542,2021-09-02 05:32:08.849
329,-199.0,1028.0,-46.0,1048.0939843353744,2021-09-02 05:32:08.859
330,-190.0,1028.0,-46.0,1046.4224768228175,2021-09-02 05:32:08.868
331,-190.0,993.0,-27.0,1011.3743125074908,2021-09-02 05:32:08.869
332,-130.0,828.0,-71.0,841.1450528892149,2021-09-02 05:32:08.879
333,-369.0,1153.0,-12.0,1210.666758443462,2021-09-02 05:32:08.888
334,-103.0,1030.0,-48.0,1036.2494873340106,2021-09-02 05:32:08.898
335,-37.0,1030.0,-48.0,1031.7814691105864,2021-09-02 05:32:08.908
336,-37.0,958.0,-13.0,958.8023779695168,2021-09-02 05:32:08.909
337,-236.0,1119.0,-13.0,1143.6896432162005,2021-09-02 05:32:08.917
338,-236.0,1119.0,-44.0,1144.4618822835473,2021-09-02 05:32:08.918
339,-115.0,1043.0,-28.0,1049.694241195978,2021-09-02 05:32:08.927
340,-232.0,1043.0,-28.0,1068.857801580734,2021-09-02 05:32:08.937
341,-232.0,1035.0,-53.0,1062.0065913166452,2021-09-02 05:32:08.938
342,-222.0,874.0,-80.0,905.2955318568628,2021-09-02 05:32:08.947
343,-243.0,895.0,-21.0,927.6394773833204,2021-09-02 05:32:08.957
344,-132.0,1065.0,-111.0,1078.8744134513524,2021-09-02 05:32:08.966
345,-107.0,1028.0,-111.0,1039.4969937426467,2021-09-02 05:32:08.984
346,-107.0,1028.0,35.0,1034.1460245052438,2021-09-02 05:32:08.985
347,-201.0,938.0,35.0,959.9322892787804,2021-09-02 05:32:08.987
348,-201.0,938.0,-53.0,960.7569932090008,2021-09-02 05:32:08.988
349,-92.0,938.0,-53.0,943.989936387036,2021-09-02 05:32:08.995
350,-92.0,1129.0,-27.0,1133.0639876017594,2021-09-02 05:32:08.996
351,-133.0,1002.0,-83.0,1014.1903174453994,2021-09-02 05:32:09.006
352,-242.0,851.0,-16.0,884.8847382569099,2021-09-02 05:32:09.020
353,-314.0,825.0,30.0,883.2445867368789,2021-09-02 05:32:09.025
354,-287.0,825.0,30.0,874.0102974221757,2021-09-02 05:32:09.034
355,-287.0,1039.0,-121.0,1084.680137183308,2021-09-02 05:32:09.035
356,-257.0,1026.0,21.0,1057.9064230828735,2021-09-02 05:32:09.044
357,-140.0,957.0,-19.0,967.372730647293,2021-09-02 05:32:09.055
358,-104.0,1032.0,-51.0,1038.4801394345488,2021-09-02 05:32:09.064
359,-265.0,988.0,4.0,1022.9296163470876,2021-09-02 05:32:09.074
360,-194.0,916.0,4.0,936.326866003534,2021-09-02 05:32:09.083
361,-194.0,916.0,-43.0,937.3051797573723,2021-09-02 05:32:09.084
362,-147.0,969.0,29.0,980.5156806497284,2021-09-02 05:32:09.093
363,-125.0,974.0,-27.0,982.359404698708,2021-09-02 05:32:09.103
364,-213.0,968.0,-35.0,991.7751761362048,2021-09-02 05:32:09.113
365,-81.0,968.0,-35.0,972.0133743935831,2021-09-02 05:32:09.122
366,-81.0,939.0,0.0,942.4871351907144,2021-09-02 05:32:09.123
367,-142.0,1120.0,-52.0,1130.1628201281442,2021-09-02 05:32:09.132
368,-161.0,981.0,-45.0,995.1416984530396,2021-09-02 05:32:09.142
369,-141.0,1076.0,25.0,1085.4869874853407,2021-09-02 05:32:09.152
370,-191.0,872.0,-28.0,893.1119750624778,2021-09-02 05:32:09.163
371,-150.0,919.0,-61.0,933.1570071536728,2021-09-02 05:32:09.171
372,-148.0,1159.0,-52.0,1169.5678689156948,2021-09-02 05:32:09.182
373,-47.0,922.0,-53.0,924.7172540836468,2021-09-02 05:32:09.191
374,-286.0,922.0,-53.0,966.7931526443492,2021-09-02 05:32:09.200
375,-286.0,984.0,9.0,1024.759971895858,2021-09-02 05:32:09.201
376,-118.0,1080.0,-70.0,1088.6799345996967,2021-09-02 05:32:09.211
377,-209.0,1080.0,-70.0,1102.2617656437149,2021-09-02 05:32:09.220
378,-209.0,928.0,-20.0,951.4541502353122,2021-09-02 05:32:09.221
379,-174.0,928.0,-20.0,944.3833967197857,2021-09-02 05:32:09.230
380,-174.0,916.0,27.0,932.7706041680344,2021-09-02 05:32:09.231
381,-182.0,1001.0,-47.0,1018.4959499183096,2021-09-02 05:32:09.240
382,-34.0,1057.0,-47.0,1058.5905724122051,2021-09-02 05:32:09.249
383,-34.0,1057.0,-150.0,1068.1315462058033,2021-09-02 05:32:09.250
384,-67.0,1098.0,37.0,1100.6643448390612,2021-09-02 05:32:09.259
385,-256.0,979.0,-35.0,1012.5225923405364,2021-09-02 05:32:09.270
386,15.0,949.0,47.0,950.2815372298884,2021-09-02 05:32:09.279
387,-270.0,978.0,-80.0,1017.734739507304,2021-09-02 05:32:09.289
388,-218.0,942.0,-65.0,969.0784281986676,2021-09-02 05:32:09.298
389,-166.0,1024.0,27.0,1037.719133484586,2021-09-02 05:32:09.308
390,-194.0,1000.0,-87.0,1022.3526788735873,2021-09-02 05:32:09.319
391,-236.0,965.0,37.0,994.1277583892324,2021-09-02 05:32:09.328
392,-192.0,986.0,17.0,1004.6636252995328,2021-09-02 05:32:09.337
393,-255.0,935.0,-54.0,970.6523579531448,2021-09-02 05:32:09.347
394,-250.0,925.0,-54.0,959.708810004368,2021-09-02 05:32:09.358
395,-250.0,925.0,-17.0,958.339188387911,2021-09-02 05:32:09.359
396,-279.0,926.0,-37.0,967.8253974762184,2021-09-02 05:32:09.367
397,-233.0,1003.0,27.0,1030.0616486405074,2021-09-02 05:32:09.376
398,-185.0,1061.0,-37.0,1077.643261937827,2021-09-02 05:32:09.387
399,-182.0,970.0,-15.0,987.0405260170426,2021-09-02 05:32:09.396
400,-97.0,859.0,-26.0,864.8502760593882,2021-09-02 05:32:09.406
401,-273.0,859.0,-26.0,901.712814592318,2021-09-02 05:32:09.415
402,-273.0,1098.0,-40.0,1132.1364758720567,2021-09-02 05:32:09.416
403,-165.0,1020.0,-20.0,1033.4529500659428,2021-09-02 05:32:09.427
404,-44.0,971.0,-59.0,973.7853973027115,2021-09-02 05:32:09.435
405,-162.0,1082.0,-19.0,1094.2252967282377,2021-09-02 05:32:09.445
406,-116.0,1009.0,-19.0,1015.8238036195056,2021-09-02 05:32:09.454
407,-116.0,1009.0,-26.0,1015.9788383622958,2021-09-02 05:32:09.455
408,-203.0,1030.0,-61.0,1051.5845187144969,2021-09-02 05:32:09.464
409,-187.0,948.0,25.0,966.5909165722592,2021-09-02 05:32:09.475
410,-186.0,1032.0,-96.0,1053.0128204347752,2021-09-02 05:32:09.484
411,-168.0,1032.0,-96.0,1049.982857002913,2021-09-02 05:32:09.493
412,-168.0,1030.0,24.0,1043.8869670610895,2021-09-02 05:32:09.494
413,-126.0,1084.0,35.0,1091.8594231859704,2021-09-02 05:32:09.503
414,-129.0,1010.0,-92.0,1022.3526788735873,2021-09-02 05:32:09.513
415,-122.0,1070.0,-13.0,1077.0111420036471,2021-09-02 05:32:09.523
416,-181.0,1025.0,-13.0,1040.939479508775,2021-09-02 05:32:09.533
417,-181.0,1025.0,-88.0,1044.5716825570182,2021-09-02 05:32:09.534
418,-196.0,950.0,4.0,970.016494705116,2021-09-02 05:32:09.543
419,-215.0,869.0,-38.0,896.0078124659404,2021-09-02 05:32:09.552
420,-157.0,1023.0,-111.0,1040.9125803831944,2021-09-02 05:32:09.562
421,-224.0,1025.0,8.0,1049.221139703161,2021-09-02 05:32:09.572
422,-200.0,968.0,-32.0,988.9630933457528,2021-09-02 05:32:09.583
423,-76.0,1027.0,-69.0,1032.1172414023515,2021-09-02 05:32:09.591
424,-192.0,1082.0,-54.0,1100.2290670583104,2021-09-02 05:32:09.601
425,-192.0,993.0,-12.0,1011.4628020841892,2021-09-02 05:32:09.611
426,-309.0,993.0,-12.0,1040.0355763145797,2021-09-02 05:32:09.620
427,-309.0,857.0,-4.0,911.01372108218,2021-09-02 05:32:09.621
428,-203.0,1048.0,-79.0,1070.3989910309149,2021-09-02 05:32:09.633
429,-171.0,969.0,-81.0,987.300865997797,2021-09-02 05:32:09.640
430,-176.0,1036.0,-13.0,1050.9238792605297,2021-09-02 05:32:09.650
431,-92.0,1036.0,-13.0,1040.1581610505202,2021-09-02 05:32:09.659
432,-92.0,1016.0,25.0,1020.4631301521872,2021-09-02 05:32:09.660
433,-181.0,941.0,-94.0,962.8488978027654,2021-09-02 05:32:09.669
434,-71.0,1015.0,-75.0,1020.2406578842072,2021-09-02 05:32:09.680
435,-203.0,872.0,-5.0,895.3312236262063,2021-09-02 05:32:09.689
436,-273.0,926.0,-5.0,965.4170083440628,2021-09-02 05:32:09.699
437,-273.0,926.0,-17.0,965.5537271431352,2021-09-02 05:32:09.700
438,-61.0,926.0,-17.0,928.162701254473,2021-09-02 05:32:09.733
439,-61.0,965.0,-10.0,966.9777660318772,2021-09-02 05:32:09.734
440,-61.0,995.0,17.0,997.013039032088,2021-09-02 05:32:09.735
441,-234.0,996.0,17.0,1023.2599865136916,2021-09-02 05:32:09.738
442,-234.0,996.0,-30.0,1023.5584985725046,2021-09-02 05:32:09.739
443,-153.0,935.0,-30.0,947.9103333121756,2021-09-02 05:32:09.747
444,-153.0,935.0,-101.0,952.803757339359,2021-09-02 05:32:09.748
445,-198.0,924.0,61.0,946.9429761078542,2021-09-02 05:32:09.757
446,-301.0,1091.0,-30.0,1132.1581161657589,2021-09-02 05:32:09.767
447,-81.0,970.0,-15.0,973.491653790622,2021-09-02 05:32:09.783
448,-105.0,970.0,-15.0,975.7817378901902,2021-09-02 05:32:09.786
449,-105.0,1066.0,0.0,1071.1587183979786,2021-09-02 05:32:09.787
450,-183.0,1075.0,-51.0,1091.656997412649,2021-09-02 05:32:09.796
451,-40.0,1075.0,-51.0,1076.9521809254113,2021-09-02 05:32:09.807
452,-40.0,1016.0,-73.0,1019.404237778125,2021-09-02 05:32:09.808
453,-191.0,1016.0,-73.0,1036.3715549936712,2021-09-02 05:32:09.816
454,-191.0,900.0,-15.0,920.1662893194904,2021-09-02 05:32:09.817
455,-264.0,900.0,-15.0,938.041043878145,2021-09-02 05:32:09.825
456,-264.0,962.0,-51.0,998.8698613933648,2021-09-02 05:32:09.826
457,-207.0,945.0,-56.0,969.0252834678772,2021-09-02 05:32:09.835
458,-59.0,1079.0,-19.0,1080.7788858041222,2021-09-02 05:32:09.845
459,-32.0,1002.0,97.0,1007.1926330151548,2021-09-02 05:32:09.855
460,-251.0,1043.0,-58.0,1074.3435204812286,2021-09-02 05:32:09.865
461,-110.0,1130.0,-58.0,1136.821885785104,2021-09-02 05:32:09.874
462,-110.0,1130.0,-52.0,1136.531565773692,2021-09-02 05:32:09.875
463,-273.0,1015.0,-47.0,1052.1230916580057,2021-09-02 05:32:09.885
464,-271.0,914.0,-52.0,954.7465632302636,2021-09-02 05:32:09.894
465,-208.0,976.0,-2.0,997.919836459823,2021-09-02 05:32:09.904
466,-222.0,1075.0,-53.0,1098.9622377497783,2021-09-02 05:32:09.914
467,-184.0,937.0,-1.0,954.8958058343328,2021-09-02 05:32:09.924
468,-142.0,888.0,-58.0,901.1503759084828,2021-09-02 05:32:09.933
469,-210.0,1083.0,-46.0,1104.130879923209,2021-09-02 05:32:09.943
470,-193.0,1083.0,-46.0,1101.0240687650746,2021-09-02 05:32:09.952
471,-193.0,993.0,6.0,1011.5997232107172,2021-09-02 05:32:09.953
472,-273.0,957.0,-24.0,995.4667247075616,2021-09-02 05:32:09.962
473,-232.0,957.0,-24.0,985.012182665778,2021-09-02 05:32:09.972
474,-232.0,968.0,27.0,995.7795940869646,2021-09-02 05:32:09.973
475,-196.0,947.0,-114.0,973.7663990916918,2021-09-02 05:32:09.982
476,-192.0,955.0,-114.0,980.7573604108204,2021-09-02 05:32:10.004
477,-192.0,955.0,49.0,975.3409660216269,2021-09-02 05:32:10.005
478,-192.0,940.0,-22.0,959.6603565845576,2021-09-02 05:32:10.006
479,-123.0,1021.0,-65.0,1030.4343744266298,2021-09-02 05:32:10.011
480,-211.0,1003.0,-19.0,1025.129747885603,2021-09-02 05:32:10.021
481,-111.0,960.0,-58.0,968.1348046630696,2021-09-02 05:32:10.031
482,-208.0,923.0,8.0,946.1802153923956,2021-09-02 05:32:10.042
483,-163.0,966.0,-60.0,981.4912123906154,2021-09-02 05:32:10.051
484,-145.0,1118.0,-73.0,1129.724745236644,2021-09-02 05:32:10.062
485,-149.0,1020.0,40.0,1031.601182628248,2021-09-02 05:32:10.070
486,-141.0,1093.0,40.0,1102.7828435372037,2021-09-02 05:32:10.079
487,-141.0,1093.0,-19.0,1102.2209397393972,2021-09-02 05:32:10.080
488,-237.0,968.0,-18.0,996.7532292398154,2021-09-02 05:32:10.089
489,-114.0,963.0,-13.0,969.8113218559575,2021-09-02 05:32:10.100
490,-195.0,919.0,-13.0,939.5504244052046,2021-09-02 05:32:10.110
491,-195.0,919.0,2.0,939.4626123481444,2021-09-02 05:32:10.111
492,-161.0,919.0,2.0,932.998392281573,2021-09-02 05:32:10.118
493,-161.0,1016.0,-28.0,1029.0583073859325,2021-09-02 05:32:10.119
494,-133.0,1068.0,-32.0,1076.72512741182,2021-09-02 05:32:10.128
495,-116.0,1018.0,-27.0,1024.943413072156,2021-09-02 05:32:10.138
496,-324.0,875.0,-27.0,933.4505878727592,2021-09-02 05:32:10.148
497,-324.0,875.0,-20.0,933.2743433739084,2021-09-02 05:32:10.149
498,-139.0,1025.0,-61.0,1036.179038583584,2021-09-02 05:32:10.159
499,-274.0,943.0,-101.0,987.180834497915,2021-09-02 05:32:10.167
500,-251.0,992.0,-22.0,1023.4984123094672,2021-09-02 05:32:10.177
501,-203.0,1052.0,80.0,1074.3895941417154,2021-09-02 05:32:10.187
502,-175.0,1105.0,-51.0,1119.9334801674606,2021-09-02 05:32:10.197
503,-94.0,988.0,-2.0,992.4636013476768,2021-09-02 05:32:10.208
504,-295.0,1004.0,10.0,1046.4898470601613,2021-09-02 05:32:10.218
505,-122.0,1077.0,-75.0,1086.479636256474,2021-09-02 05:32:10.226
506,-241.0,918.0,-15.0,949.2260004867125,2021-09-02 05:32:10.236
507,-252.0,918.0,-15.0,952.0782530863733,2021-09-02 05:32:10.245
508,-252.0,1015.0,-25.0,1046.1137605442343,2021-09-02 05:32:10.246
509,-139.0,998.0,-25.0,1007.9434507947358,2021-09-02 05:32:10.255
510,-139.0,998.0,-2.0,1007.6353507097696,2021-09-02 05:32:10.256
511,-162.0,1004.0,-92.0,1021.1385802132831,2021-09-02 05:32:10.266
512,-157.0,934.0,-14.0,947.2069467650668,2021-09-02 05:32:10.275
513,-183.0,934.0,-14.0,951.861859725454,2021-09-02 05:32:10.284
514,-183.0,880.0,19.0,899.0272520897239,2021-09-02 05:32:10.285
515,-305.0,1050.0,-37.0,1094.0265079055443,2021-09-02 05:32:10.294
516,-142.0,1050.0,-37.0,1060.204225609387,2021-09-02 05:32:10.304
517,-142.0,1066.0,-30.0,1075.8345597720868,2021-09-02 05:32:10.305
518,-62.0,957.0,-34.0,959.6087744492544,2021-09-02 05:32:10.315
519,-198.0,893.0,6.0,914.7070569313436,2021-09-02 05:32:10.324
520,-234.0,1035.0,6.0,1061.1394818778538,2021-09-02 05:32:10.333
521,-234.0,1035.0,-102.0,1066.0136021646254,2021-09-02 05:32:10.334
522,-153.0,975.0,-38.0,987.6628979565852,2021-09-02 05:32:10.343
523,-133.0,899.0,30.0,909.2799348935398,2021-09-02 05:32:10.353
524,-238.0,1053.0,-26.0,1079.8745297487112,2021-09-02 05:32:10.365
525,-122.0,979.0,-32.0,987.091181198576,2021-09-02 05:32:10.374
526,-126.0,1045.0,12.0,1052.6371644588653,2021-09-02 05:32:10.382
527,-210.0,903.0,-88.0,931.264194522693,2021-09-02 05:32:10.392
528,-125.0,1044.0,0.0,1051.456608710031,2021-09-02 05:32:10.402
529,-218.0,1136.0,0.0,1156.728144379655,2021-09-02 05:32:10.413
530,-218.0,1136.0,-21.0,1156.9187525492014,2021-09-02 05:32:10.414
531,-145.0,869.0,-36.0,881.7493975047558,2021-09-02 05:32:10.423
532,-241.0,892.0,-54.0,925.5598305890333,2021-09-02 05:32:10.431
533,-186.0,1075.0,19.0,1091.1379381178165,2021-09-02 05:32:10.441
534,-23.0,1075.0,19.0,1075.4138738178897,2021-09-02 05:32:10.450
535,-23.0,925.0,-97.0,930.3563833284534,2021-09-02 05:32:10.451
536,-214.0,990.0,-33.0,1013.4026840303908,2021-09-02 05:32:10.461
537,-232.0,1133.0,3.0,1156.5128620123514,2021-09-02 05:32:10.471
538,-180.0,959.0,-43.0,976.6934012268129,2021-09-02 05:32:10.480
539,-231.0,977.0,-2.0,1003.9392411894256,2021-09-02 05:32:10.490
540,-259.0,794.0,-2.0,835.1772267010158,2021-09-02 05:32:10.499
541,-259.0,794.0,-25.0,835.5489213684618,2021-09-02 05:32:10.500
542,-123.0,1000.0,-144.0,1017.77453298852,2021-09-02 05:32:10.509
543,-183.0,997.0,-23.0,1013.9166632421028,2021-09-02 05:32:10.520
544,-192.0,997.0,-23.0,1015.5796374484868,2021-09-02 05:32:10.529
545,-192.0,999.0,-1.0,1017.2836379299532,2021-09-02 05:32:10.530
546,-99.0,999.0,-1.0,1003.8939186985843,2021-09-02 05:32:10.538
547,-99.0,1049.0,4.0,1053.6688284276042,2021-09-02 05:32:10.539
548,-213.0,982.0,-86.0,1008.508304378303,2021-09-02 05:32:10.548
549,-206.0,814.0,3.0,839.6671959770728,2021-09-02 05:32:10.558
550,-239.0,871.0,-81.0,906.8202688515514,2021-09-02 05:32:10.568
551,-153.0,1076.0,-47.0,1087.839142520621,2021-09-02 05:32:10.579
552,-178.0,993.0,-47.0,1009.9217791492568,2021-09-02 05:32:10.587
553,-178.0,993.0,29.0,1009.2442717201816,2021-09-02 05:32:10.588
554,-180.0,938.0,-33.0,955.684571393721,2021-09-02 05:32:10.597
555,-111.0,1005.0,-99.0,1015.9463568515812,2021-09-02 05:32:10.607
556,-162.0,1010.0,-32.0,1023.4099862713869,2021-09-02 05:32:10.618
557,-160.0,1010.0,-32.0,1023.0953034786152,2021-09-02 05:32:10.627
558,-160.0,940.0,-60.0,955.405672999695,2021-09-02 05:32:10.628
559,-148.0,949.0,-56.0,962.1023854039652,2021-09-02 05:32:10.636
560,-170.0,1051.0,-1.0,1064.6605092704435,2021-09-02 05:32:10.646
561,-192.0,995.0,14.0,1013.4520215580015,2021-09-02 05:32:10.656
562,-242.0,995.0,14.0,1024.1020456966191,2021-09-02 05:32:10.665
563,-242.0,934.0,-19.0,965.029015107836,2021-09-02 05:32:10.666
564,-191.0,1019.0,-23.0,1037.000964319706,2021-09-02 05:32:10.676
565,-136.0,984.0,-100.0,998.3746791660934,2021-09-02 05:32:10.686
566,-176.0,939.0,-9.0,955.3941594964876,2021-09-02 05:32:10.695
567,-248.0,939.0,-9.0,971.239414356728,2021-09-02 05:32:10.704
568,-248.0,942.0,4.0,974.106770328592,2021-09-02 05:32:10.705
569,-119.0,990.0,-80.0,1000.3304454029178,2021-09-02 05:32:10.714
570,-151.0,1082.0,4.0,1092.4930205726716,2021-09-02 05:32:10.724
571,-247.0,922.0,-17.0,954.6632914279254,2021-09-02 05:32:10.763
572,-183.0,954.0,-81.0,974.764586964463,2021-09-02 05:32:10.768
573,-202.0,960.0,34.0,981.6109208846448,2021-09-02 05:32:10.773
574,-168.0,989.0,-47.0,1004.2678925466054,2021-09-02 05:32:10.792
575,-118.0,910.0,-9.0,917.6627920974022,2021-09-02 05:32:10.802
576,-218.0,1071.0,-5.0,1092.9730097307984,2021-09-02 05:32:10.812
577,-122.0,976.0,-5.0,983.6081536872292,2021-09-02 05:32:10.822
578,-122.0,976.0,-105.0,989.184007149327,2021-09-02 05:32:10.823
579,-229.0,976.0,-105.0,1007.9890872425158,2021-09-02 05:32:10.832
580,-229.0,1036.0,7.0,1061.0306310375777,2021-09-02 05:32:10.833
581,-197.0,981.0,-10.0,1000.6347985154224,2021-09-02 05:32:10.842
582,-78.0,895.0,-20.0,898.6150455005748,2021-09-02 05:32:10.852
583,-140.0,1127.0,-6.0,1135.6782114666107,2021-09-02 05:32:10.861
584,-164.0,1127.0,-6.0,1138.8858590745606,2021-09-02 05:32:10.870
585,-164.0,943.0,-41.0,958.0323585349296,2021-09-02 05:32:10.871
586,-203.0,931.0,27.0,953.2570482299096,2021-09-02 05:32:10.881
587,-219.0,1118.0,-53.0,1140.4797236251068,2021-09-02 05:32:10.890
588,-151.0,984.0,-53.0,996.9282822751092,2021-09-02 05:32:10.900
589,-151.0,984.0,-76.0,998.4152442746456,2021-09-02 05:32:10.901
590,-186.0,1059.0,24.0,1075.478033248471,2021-09-02 05:32:10.910
591,-140.0,896.0,-58.0,908.7243806567534,2021-09-02 05:32:10.919
592,-165.0,1012.0,-32.0,1025.862076499565,2021-09-02 05:32:10.929
593,-202.0,1012.0,-32.0,1032.4592001624085,2021-09-02 05:32:10.939
594,-202.0,957.0,45.0,979.1210343976888,2021-09-02 05:32:10.940
595,-194.0,954.0,-22.0,973.7741011138056,2021-09-02 05:32:10.949
596,-165.0,954.0,-22.0,968.4136512875064,2021-09-02 05:32:10.958
597,-165.0,1023.0,-63.0,1038.1343843645675,2021-09-02 05:32:10.959
598,-194.0,1059.0,-33.0,1077.1285902806592,2021-09-02 05:32:10.968
599,-119.0,913.0,-66.0,923.085044836065,2021-09-02 05:32:10.981
600,-183.0,1030.0,43.0,1047.0138490010531,2021-09-02 05:32:10.989
601,-173.0,1030.0,43.0,1045.3123934977525,2021-09-02 05:32:10.997
602,-173.0,1044.0,-43.0,1059.1100037295464,2021-09-02 05:32:10.998
603,-125.0,979.0,-59.0,988.709765300212,2021-09-02 05:32:11.017
604,-204.0,977.0,-12.0,998.1427753583152,2021-09-02 05:32:11.020
605,-219.0,961.0,-28.0,986.0354963184642,2021-09-02 05:32:11.027
606,-178.0,992.0,-72.0,1010.4117972391256,2021-09-02 05:32:11.037
607,-144.0,1011.0,20.0,1021.3995300566768,2021-09-02 05:32:11.047
608,-125.0,953.0,1.0,961.1633576036904,2021-09-02 05:32:11.056
609,-139.0,1009.0,-27.0,1018.887138008916,2021-09-02 05:32:11.066
610,-186.0,1078.0,7.0,1093.9510957990765,2021-09-02 05:32:11.077
611,-235.0,906.0,7.0,936.0074786026016,2021-09-02 05:32:11.085
612,-235.0,906.0,-28.0,936.4000213583936,2021-09-02 05:32:11.086
613,-224.0,930.0,-41.0,957.4742816389378,2021-09-02 05:32:11.096
614,-166.0,1051.0,-59.0,1065.6631738030549,2021-09-02 05:32:11.105
615,-197.0,990.0,-1.0,1009.4107191822366,2021-09-02 05:32:11.115
616,-166.0,985.0,1.0,998.8903843765842,2021-09-02 05:32:11.125
617,-107.0,1052.0,-29.0,1057.825127324928,2021-09-02 05:32:11.134
618,-119.0,1052.0,-29.0,1059.1062269668705,2021-09-02 05:32:11.144
619,-119.0,1105.0,7.0,1111.4112650139912,2021-09-02 05:32:11.145
620,-108.0,914.0,-2.0,920.3607988175072,2021-09-02 05:32:11.154
621,-139.0,884.0,-2.0,894.863676768702,2021-09-02 05:32:11.163
622,-139.0,884.0,-19.0,895.0631262654048,2021-09-02 05:32:11.164
623,-92.0,1040.0,-31.0,1044.521421513221,2021-09-02 05:32:11.176
624,-193.0,1003.0,-26.0,1021.7308843330518,2021-09-02 05:32:11.184
625,-235.0,962.0,20.0,990.489273036311,2021-09-02 05:32:11.193
626,-230.0,962.0,20.0,989.3149144736471,2021-09-02 05:32:11.202
627,-230.0,1086.0,21.0,1110.2868998596714,2021-09-02 05:32:11.203
628,-83.0,983.0,-111.0,992.7230228014256,2021-09-02 05:32:11.212
629,-164.0,973.0,23.0,986.9924011865544,2021-09-02 05:32:11.222
630,-259.0,962.0,-15.0,996.368405761644,2021-09-02 05:32:11.233
631,-148.0,937.0,-92.0,953.0671539823412,2021-09-02 05:32:11.242
632,-173.0,1107.0,-10.0,1120.4811466508484,2021-09-02 05:32:11.252
633,-158.0,967.0,-63.0,981.8462201383676,2021-09-02 05:32:11.261
634,-66.0,1047.0,18.0,1049.232576695939,2021-09-02 05:32:11.271
635,-122.0,1096.0,-45.0,1103.687002732206,2021-09-02 05:32:11.281
636,-139.0,1096.0,-45.0,1105.695256388486,2021-09-02 05:32:11.290
637,-139.0,1027.0,-33.0,1036.8890972519675,2021-09-02 05:32:11.291
638,-121.0,871.0,-61.0,881.4777365311049,2021-09-02 05:32:11.301
639,-268.0,1164.0,-3.0,1194.4576174984193,2021-09-02 05:32:11.310
640,-195.0,1009.0,-87.0,1031.3462076334988,2021-09-02 05:32:11.320
641,-238.0,1024.0,-87.0,1054.8881457292048,2021-09-02 05:32:11.329
642,-238.0,1024.0,8.0,1051.3248784272157,2021-09-02 05:32:11.330
643,-244.0,1156.0,-29.0,1181.8261293439066,2021-09-02 05:32:11.340
644,-204.0,1042.0,-73.0,1064.2880249255838,2021-09-02 05:32:11.349
645,-240.0,1071.0,14.0,1097.6506730285369,2021-09-02 05:32:11.360
646,-192.0,1071.0,14.0,1088.164050132148,2021-09-02 05:32:11.368
647,-192.0,953.0,-18.0,972.31527808628,2021-09-02 05:32:11.369
648,-194.0,976.0,-4.0,995.1020048216162,2021-09-02 05:32:11.380
649,-161.0,1086.0,-65.0,1099.7917984782391,2021-09-02 05:32:11.388
650,-145.0,972.0,-39.0,983.5293589923994,2021-09-02 05:32:11.398
651,-132.0,972.0,-39.0,981.6970000972806,2021-09-02 05:32:11.408
652,-132.0,1043.0,-65.0,1053.327109686255,2021-09-02 05:32:11.409
653,-208.0,1153.0,-65.0,1173.4129707822392,2021-09-02 05:32:11.417
654,-208.0,1153.0,-54.0,1172.855063509554,2021-09-02 05:32:11.418
655,-221.0,1106.0,-4.0,1127.8710032623412,2021-09-02 05:32:11.427
656,-260.0,956.0,-12.0,990.797658455045,2021-09-02 05:32:11.437
657,-225.0,1076.0,-48.0,1100.320407881268,2021-09-02 05:32:11.447
658,-241.0,1048.0,-114.0,1081.379211932613,2021-09-02 05:32:11.457
659,-163.0,1025.0,6.0,1037.896912029321,2021-09-02 05:32:11.466
660,-206.0,1007.0,-32.0,1028.352566000591,2021-09-02 05:32:11.476
661,-219.0,1101.0,-26.0,1122.8704288563306,2021-09-02 05:32:11.486
