,Acceleration_X,Acceleration_Y,Acceleration_Z,magnitude,time_stamp
0,-401.0,924.0,-16.0,1007.3891998626946,2021-09-02 05:31:41.115
1,-401.0,924.0,-58.0,1008.9306219953876,2021-09-02 05:31:41.116
2,-257.0,889.0,93.0,930.0639762941042,2021-09-02 05:31:41.124
3,-284.0,1138.0,-61.0,1174.4875478267106,2021-09-02 05:31:41.134
4,-157.0,1084.0,24.0,1095.5733658683018,2021-09-02 05:31:41.144
5,-215.0,989.0,-85.0,1015.6628377567037,2021-09-02 05:31:41.154
6,-53.0,1095.0,-75.0,1098.8443929874693,2021-09-02 05:31:41.164
7,-229.0,1020.0,-8.0,1045.4209678402285,2021-09-02 05:31:41.174
8,-168.0,931.0,-66.0,948.3359109513884,2021-09-02 05:31:41.183
9,-219.0,976.0,-36.0,1000.9160803983518,2021-09-02 05:31:41.193
10,-175.0,975.0,-36.0,991.2345837388848,2021-09-02 05:31:41.202
11,-175.0,975.0,-104.0,996.0251000853342,2021-09-02 05:31:41.203
12,-160.0,982.0,23.0,995.215052136974,2021-09-02 05:31:41.213
13,-198.0,968.0,-44.0,989.021738891517,2021-09-02 05:31:41.223
14,-155.0,978.0,-40.0,991.0141270436058,2021-09-02 05:31:41.240
15,-182.0,1072.0,47.0,1088.355180995616,2021-09-02 05:31:41.244
16,-159.0,1045.0,-85.0,1060.4390600124082,2021-09-02 05:31:41.251
17,-225.0,885.0,-85.0,917.1014120586664,2021-09-02 05:31:41.261
18,-225.0,885.0,0.0,913.1538753134654,2021-09-02 05:31:41.262
19,-170.0,1010.0,-77.0,1027.0973663679604,2021-09-02 05:31:41.271
20,-139.0,1010.0,-77.0,1022.4235912771184,2021-09-02 05:31:41.280
21,-139.0,947.0,47.0,958.300057393299,2021-09-02 05:31:41.281
22,-217.0,917.0,-27.0,942.7125754969009,2021-09-02 05:31:41.290
23,-195.0,1101.0,-69.0,1120.2620229214235,2021-09-02 05:31:41.300
24,-195.0,1029.0,-2.0,1047.31561623037,2021-09-02 05:31:41.310
25,-132.0,1003.0,-59.0,1013.3676529276036,2021-09-02 05:31:41.321
26,-157.0,927.0,-22.0,940.4583988672758,2021-09-02 05:31:41.329
27,-111.0,982.0,-36.0,988.9089948018471,2021-09-02 05:31:41.340
28,-201.0,1018.0,-110.0,1043.4677762154422,2021-09-02 05:31:41.349
29,-140.0,1018.0,-110.0,1033.4524662508672,2021-09-02 05:31:41.360
30,-140.0,993.0,21.0,1003.0403780506546,2021-09-02 05:31:41.361
31,-374.0,913.0,-19.0,986.8160922887304,2021-09-02 05:31:41.369
32,-199.0,1025.0,-54.0,1045.5343131624136,2021-09-02 05:31:41.378
33,-179.0,1039.0,-9.0,1054.3448202556883,2021-09-02 05:31:41.388
34,-157.0,898.0,-16.0,911.7614819677348,2021-09-02 05:31:41.398
35,-124.0,898.0,-16.0,906.662009791962,2021-09-02 05:31:41.407
36,-124.0,963.0,-79.0,974.1591245787312,2021-09-02 05:31:41.408
37,-165.0,1098.0,-79.0,1113.1352119127307,2021-09-02 05:31:41.417
38,-165.0,1098.0,-75.0,1112.8584815689728,2021-09-02 05:31:41.418
39,-100.0,1014.0,38.0,1019.6273829198586,2021-09-02 05:31:41.438
40,-304.0,894.0,-22.0,944.529512508741,2021-09-02 05:31:41.440
41,-142.0,1081.0,-61.0,1091.991758210656,2021-09-02 05:31:41.448
42,-208.0,983.0,-32.0,1005.2745893535756,2021-09-02 05:31:41.456
43,-155.0,965.0,-67.0,979.6626970544504,2021-09-02 05:31:41.467
44,-158.0,1043.0,57.0,1056.438355986756,2021-09-02 05:31:41.476
45,-156.0,1043.0,57.0,1056.141089059601,2021-09-02 05:31:41.485
46,-156.0,1019.0,-56.0,1032.3918829591794,2021-09-02 05:31:41.486
47,-46.0,1018.0,-9.0,1019.0785053174264,2021-09-02 05:31:41.496
48,-320.0,1003.0,5.0,1052.8219222641596,2021-09-02 05:31:41.505
49,-165.0,1014.0,-35.0,1027.9328771860544,2021-09-02 05:31:41.515
50,-198.0,1014.0,-35.0,1033.7431982847577,2021-09-02 05:31:41.524
51,-198.0,865.0,-89.0,891.8239736629645,2021-09-02 05:31:41.525
52,-242.0,1041.0,-88.0,1072.3754006876509,2021-09-02 05:31:41.534
53,-163.0,973.0,80.0,989.7969488738588,2021-09-02 05:31:41.544
54,-186.0,972.0,-28.0,990.032322704668,2021-09-02 05:31:41.555
55,-217.0,977.0,-34.0,1001.3860394473252,2021-09-02 05:31:41.564
56,-215.0,897.0,-34.0,923.0330438288762,2021-09-02 05:31:41.573
57,-215.0,897.0,-29.0,922.862394943038,2021-09-02 05:31:41.574
58,-262.0,1033.0,-11.0,1065.7645143276256,2021-09-02 05:31:41.583
59,-163.0,1038.0,-44.0,1051.6410984741894,2021-09-02 05:31:41.593
60,-40.0,1032.0,-13.0,1032.8567180398256,2021-09-02 05:31:41.604
61,-131.0,1032.0,-13.0,1040.362436845929,2021-09-02 05:31:41.612
62,-131.0,998.0,37.0,1007.2407855125804,2021-09-02 05:31:41.613
63,-164.0,998.0,37.0,1012.0617570089288,2021-09-02 05:31:41.624
64,-164.0,1050.0,12.0,1062.7981934497254,2021-09-02 05:31:41.625
65,-187.0,981.0,20.0,998.8643551553936,2021-09-02 05:31:41.632
66,-63.0,854.0,-18.0,856.5097781111433,2021-09-02 05:31:41.642
67,-253.0,1057.0,-82.0,1089.945870215581,2021-09-02 05:31:41.652
68,-202.0,1037.0,-34.0,1057.0378422743436,2021-09-02 05:31:41.661
69,-40.0,989.0,-23.0,990.0757546773884,2021-09-02 05:31:41.671
70,-148.0,968.0,-54.0,980.7364579743124,2021-09-02 05:31:41.681
71,-157.0,1094.0,-37.0,1105.827292121152,2021-09-02 05:31:41.691
72,-283.0,1094.0,-37.0,1130.6166459061178,2021-09-02 05:31:41.700
73,-283.0,1063.0,-55.0,1101.4004721262834,2021-09-02 05:31:41.701
74,-208.0,1063.0,-55.0,1084.5542863314863,2021-09-02 05:31:41.711
75,-208.0,907.0,-55.0,932.1684397146258,2021-09-02 05:31:41.712
76,-305.0,846.0,-5.0,899.3141831417984,2021-09-02 05:31:41.720
77,-134.0,1027.0,-1.0,1035.705556613461,2021-09-02 05:31:41.730
78,-111.0,1066.0,-1.0,1071.7639665523377,2021-09-02 05:31:41.739
79,-111.0,1066.0,-65.0,1073.7327414212532,2021-09-02 05:31:41.740
80,-177.0,963.0,2.0,979.133290211297,2021-09-02 05:31:41.749
81,-122.0,1096.0,33.0,1103.2628879827328,2021-09-02 05:31:41.760
82,-183.0,1044.0,-97.0,1064.3467480102524,2021-09-02 05:31:41.769
83,-214.0,895.0,-4.0,920.2374693523406,2021-09-02 05:31:41.779
84,-258.0,854.0,-21.0,892.3681975507643,2021-09-02 05:31:41.788
85,-143.0,1000.0,-133.0,1018.8905731235322,2021-09-02 05:31:41.798
86,-259.0,974.0,18.0,1008.0084325044112,2021-09-02 05:31:41.808
87,-178.0,1056.0,-18.0,1071.0480848215918,2021-09-02 05:31:41.818
88,-40.0,999.0,-51.0,1001.1003945658996,2021-09-02 05:31:41.828
89,-204.0,1049.0,-70.0,1070.942108612786,2021-09-02 05:31:41.837
90,-187.0,1015.0,-28.0,1032.462105842147,2021-09-02 05:31:41.847
91,-341.0,836.0,-91.0,907.4458661540092,2021-09-02 05:31:41.857
92,-214.0,1032.0,-91.0,1057.8757015831302,2021-09-02 05:31:41.867
93,-214.0,1032.0,-113.0,1059.9948113080554,2021-09-02 05:31:41.868
94,-202.0,973.0,3.0,993.7514779863222,2021-09-02 05:31:41.876
95,-185.0,973.0,3.0,990.435762682265,2021-09-02 05:31:41.886
96,-185.0,1055.0,-119.0,1077.6878026590075,2021-09-02 05:31:41.887
97,-86.0,1057.0,64.0,1062.422232448098,2021-09-02 05:31:41.896
98,-144.0,959.0,64.0,971.8605867098428,2021-09-02 05:31:41.905
99,-144.0,959.0,-145.0,980.5314885305826,2021-09-02 05:31:41.906
100,-229.0,954.0,-38.0,981.8355259410814,2021-09-02 05:31:41.916
101,-218.0,928.0,53.0,954.7339943670174,2021-09-02 05:31:41.925
102,-283.0,960.0,-51.0,1002.142704408908,2021-09-02 05:31:41.935
103,-113.0,960.0,-51.0,967.972107036148,2021-09-02 05:31:41.944
104,-113.0,1051.0,-26.0,1057.37694319481,2021-09-02 05:31:41.945
105,-44.0,1040.0,-34.0,1041.4854775751796,2021-09-02 05:31:41.954
106,-97.0,1027.0,5.0,1031.5827644934748,2021-09-02 05:31:41.981
107,-173.0,1054.0,-65.0,1070.0794363036794,2021-09-02 05:31:41.984
108,-142.0,900.0,-17.0,911.2919400499492,2021-09-02 05:31:41.993
109,-294.0,972.0,7.0,1015.5141554897205,2021-09-02 05:31:42.003
110,-244.0,1028.0,7.0,1056.583645529307,2021-09-02 05:31:42.022
111,-244.0,1028.0,-25.0,1056.8561869999153,2021-09-02 05:31:42.023
112,-51.0,991.0,-20.0,992.5129722074164,2021-09-02 05:31:42.031
113,-215.0,1042.0,-36.0,1064.5585939721684,2021-09-02 05:31:42.034
114,-118.0,1080.0,4.0,1086.4345355335497,2021-09-02 05:31:42.044
115,-258.0,996.0,-43.0,1029.7713338406736,2021-09-02 05:31:42.053
116,-221.0,928.0,-22.0,954.2059526119086,2021-09-02 05:31:42.062
117,-243.0,928.0,-22.0,959.539993955437,2021-09-02 05:31:42.071
118,-243.0,911.0,8.0,942.88599522954,2021-09-02 05:31:42.072
119,-214.0,1110.0,-66.0,1132.36566532194,2021-09-02 05:31:42.082
120,-64.0,966.0,20.0,968.324325833034,2021-09-02 05:31:42.091
121,-206.0,1060.0,-41.0,1080.6095502076594,2021-09-02 05:31:42.101
122,-62.0,1060.0,-41.0,1062.602936190184,2021-09-02 05:31:42.110
123,-62.0,1122.0,-5.0,1123.7228305948047,2021-09-02 05:31:42.111
124,-175.0,912.0,-33.0,929.2244077724176,2021-09-02 05:31:42.120
125,-239.0,942.0,-55.0,973.4012533380056,2021-09-02 05:31:42.130
126,-255.0,893.0,5.0,928.7082426682774,2021-09-02 05:31:42.140
127,-215.0,1045.0,-111.0,1072.6467265600545,2021-09-02 05:31:42.150
128,-162.0,1038.0,43.0,1051.4451959089452,2021-09-02 05:31:42.161
129,-152.0,955.0,-27.0,967.3975397942668,2021-09-02 05:31:42.169
130,-162.0,1069.0,-87.0,1084.699958513874,2021-09-02 05:31:42.179
131,-191.0,986.0,-39.0,1005.0860659664922,2021-09-02 05:31:42.189
132,-142.0,1057.0,-59.0,1068.126397014885,2021-09-02 05:31:42.199
133,-166.0,916.0,0.0,930.9199750784168,2021-09-02 05:31:42.212
134,-237.0,1112.0,-132.0,1144.6121613891755,2021-09-02 05:31:42.218
135,-120.0,957.0,8.0,964.5273453873664,2021-09-02 05:31:42.228
136,-187.0,986.0,-31.0,1004.0547793820812,2021-09-02 05:31:42.238
137,-74.0,1007.0,-31.0,1010.191071035574,2021-09-02 05:31:42.247
138,-74.0,1007.0,-35.0,1010.32173093525,2021-09-02 05:31:42.248
139,-222.0,1007.0,-35.0,1031.7742001038794,2021-09-02 05:31:42.261
140,-222.0,1005.0,3.0,1029.2317523279196,2021-09-02 05:31:42.262
141,-242.0,1038.0,-48.0,1066.9170539456195,2021-09-02 05:31:42.267
142,-205.0,1038.0,-48.0,1059.1378569383685,2021-09-02 05:31:42.276
143,-205.0,873.0,-47.0,897.97717120203,2021-09-02 05:31:42.277
144,-181.0,1024.0,-47.0,1040.9351564819012,2021-09-02 05:31:42.286
145,-181.0,1024.0,28.0,1040.250450612736,2021-09-02 05:31:42.287
146,-208.0,1025.0,-92.0,1049.929997666511,2021-09-02 05:31:42.296
147,-71.0,968.0,42.0,971.5086206514072,2021-09-02 05:31:42.307
148,-334.0,1075.0,7.0,1125.7131073235312,2021-09-02 05:31:42.316
149,-100.0,962.0,-103.0,972.6525587279356,2021-09-02 05:31:42.325
150,-158.0,915.0,-67.0,930.9554232077924,2021-09-02 05:31:42.335
151,-210.0,915.0,-67.0,941.176922794009,2021-09-02 05:31:42.345
152,-210.0,971.0,60.0,995.2592627049496,2021-09-02 05:31:42.346
153,-198.0,1112.0,-54.0,1130.7802615893152,2021-09-02 05:31:42.358
154,-183.0,1112.0,-54.0,1128.2504154663538,2021-09-02 05:31:42.364
155,-183.0,991.0,-44.0,1008.7150241767988,2021-09-02 05:31:42.365
156,-134.0,1123.0,64.0,1132.77579423291,2021-09-02 05:31:42.374
157,-274.0,847.0,-41.0,891.1599183087175,2021-09-02 05:31:42.384
158,-85.0,1121.0,-53.0,1125.4665699166724,2021-09-02 05:31:42.394
159,-201.0,978.0,-66.0,1000.6203076092348,2021-09-02 05:31:42.407
160,-142.0,924.0,-79.0,938.1796203286448,2021-09-02 05:31:42.414
161,-237.0,1099.0,70.0,1126.441298958805,2021-09-02 05:31:42.423
162,-211.0,1006.0,-93.0,1032.0881745277386,2021-09-02 05:31:42.433
163,-169.0,995.0,73.0,1011.88685138211,2021-09-02 05:31:42.443
164,-323.0,995.0,73.0,1048.6577134604026,2021-09-02 05:31:42.460
165,-323.0,1021.0,8.0,1070.9033569841863,2021-09-02 05:31:42.461
166,-155.0,1128.0,-40.0,1139.301979283807,2021-09-02 05:31:42.464
167,-168.0,896.0,-68.0,914.1465965587796,2021-09-02 05:31:42.472
168,-200.0,993.0,-54.0,1014.3791204475772,2021-09-02 05:31:42.483
169,-177.0,936.0,-54.0,954.1179172408408,2021-09-02 05:31:42.491
170,-177.0,936.0,27.0,952.9711433196704,2021-09-02 05:31:42.492
171,-223.0,1072.0,-69.0,1097.1207773075853,2021-09-02 05:31:42.502
172,-130.0,957.0,-13.0,965.8768037384478,2021-09-02 05:31:42.511
173,-162.0,902.0,-58.0,918.2657567393004,2021-09-02 05:31:42.521
174,-258.0,1140.0,-15.0,1168.92643053359,2021-09-02 05:31:42.531
175,-199.0,966.0,-3.0,986.289004298436,2021-09-02 05:31:42.540
176,-110.0,966.0,-3.0,972.2473964994712,2021-09-02 05:31:42.550
177,-110.0,1015.0,-53.0,1022.3179544544838,2021-09-02 05:31:42.551
178,-174.0,960.0,-5.0,975.654139539212,2021-09-02 05:31:42.560
179,-239.0,960.0,-5.0,989.3159252736206,2021-09-02 05:31:42.569
180,-239.0,1041.0,-56.0,1069.55037282028,2021-09-02 05:31:42.570
181,-214.0,963.0,35.0,987.111949071634,2021-09-02 05:31:42.579
182,-159.0,930.0,-51.0,944.8714198238828,2021-09-02 05:31:42.590
183,-200.0,1027.0,-49.0,1047.43973573662,2021-09-02 05:31:42.603
184,-203.0,1055.0,16.0,1074.4719633382715,2021-09-02 05:31:42.609
185,-198.0,1004.0,16.0,1023.4627496885269,2021-09-02 05:31:42.618
186,-198.0,1004.0,-30.0,1023.7773195377988,2021-09-02 05:31:42.619
187,-201.0,868.0,-35.0,891.6557631732103,2021-09-02 05:31:42.628
188,-175.0,1018.0,2.0,1032.934170216089,2021-09-02 05:31:42.639
189,-252.0,1077.0,-47.0,1107.0871691063896,2021-09-02 05:31:42.648
190,-105.0,955.0,35.0,961.3922196481516,2021-09-02 05:31:42.658
191,-304.0,789.0,-61.0,847.7369875144059,2021-09-02 05:31:42.667
192,-141.0,1056.0,-116.0,1071.6683255559997,2021-09-02 05:31:42.677
193,-135.0,1015.0,-32.0,1024.4383827248955,2021-09-02 05:31:42.688
194,-162.0,1015.0,-32.0,1028.344786538056,2021-09-02 05:31:42.696
195,-162.0,933.0,-55.0,948.555744276529,2021-09-02 05:31:42.697
196,-83.0,972.0,-27.0,975.91085658476,2021-09-02 05:31:42.707
197,-254.0,1127.0,-91.0,1158.846840613547,2021-09-02 05:31:42.716
198,-165.0,925.0,-24.0,939.9074422516294,2021-09-02 05:31:42.726
199,-295.0,925.0,-24.0,971.198228993443,2021-09-02 05:31:42.735
200,-295.0,915.0,25.0,961.704216482386,2021-09-02 05:31:42.736
201,-162.0,1002.0,-165.0,1028.335062127126,2021-09-02 05:31:42.745
202,-172.0,871.0,-65.0,890.1966074974674,2021-09-02 05:31:42.755
203,-253.0,1147.0,-65.0,1176.3685646939057,2021-09-02 05:31:42.765
204,-253.0,1147.0,-70.0,1176.6554295969572,2021-09-02 05:31:42.766
205,-19.0,982.0,-26.0,982.5278622003552,2021-09-02 05:31:42.775
206,-186.0,974.0,-21.0,991.8230688988838,2021-09-02 05:31:42.784
207,-230.0,1011.0,-54.0,1038.2374487563045,2021-09-02 05:31:42.795
208,-99.0,868.0,-54.0,875.2948074791716,2021-09-02 05:31:42.807
209,-99.0,868.0,-9.0,873.6738521897058,2021-09-02 05:31:42.808
210,-147.0,960.0,-9.0,971.2311774237892,2021-09-02 05:31:42.814
211,-147.0,960.0,-101.0,976.4271606218254,2021-09-02 05:31:42.815
212,-251.0,1051.0,-101.0,1085.2663267603948,2021-09-02 05:31:42.823
213,-251.0,1051.0,-1.0,1080.556800913307,2021-09-02 05:31:42.824
214,-141.0,910.0,-117.0,928.2618165151468,2021-09-02 05:31:42.833
215,-98.0,910.0,-117.0,922.7095967854676,2021-09-02 05:31:42.843
216,-98.0,1102.0,61.0,1108.0293317417188,2021-09-02 05:31:42.844
217,-138.0,1060.0,-101.0,1073.7061981752736,2021-09-02 05:31:42.853
218,-147.0,884.0,-41.0,897.0763624129219,2021-09-02 05:31:42.863
219,-234.0,1030.0,42.0,1057.0808862144845,2021-09-02 05:31:42.872
220,-281.0,978.0,-65.0,1019.6420940702674,2021-09-02 05:31:42.882
221,-192.0,1024.0,34.0,1042.399155793979,2021-09-02 05:31:42.892
222,-127.0,1045.0,0.0,1052.6889379109102,2021-09-02 05:31:42.902
223,-147.0,903.0,0.0,914.8868782532624,2021-09-02 05:31:42.911
224,-147.0,903.0,-81.0,918.4655682169038,2021-09-02 05:31:42.912
225,-161.0,903.0,-81.0,920.8099695376892,2021-09-02 05:31:42.921
226,-161.0,1214.0,41.0,1225.3154695832416,2021-09-02 05:31:42.922
227,-213.0,1047.0,27.0,1068.787630916451,2021-09-02 05:31:42.931
228,-162.0,884.0,-69.0,901.3661852987386,2021-09-02 05:31:42.941
229,-277.0,1079.0,-69.0,1116.1232010848985,2021-09-02 05:31:42.951
230,-277.0,1079.0,-22.0,1114.2055465667006,2021-09-02 05:31:42.952
231,-157.0,1107.0,-7.0,1118.0997272157792,2021-09-02 05:31:42.960
232,4.0,912.0,-7.0,912.0356352687104,2021-09-02 05:31:42.970
233,4.0,912.0,-53.0,913.5474809773162,2021-09-02 05:31:42.971
234,-271.0,1047.0,12.0,1081.5701549136793,2021-09-02 05:31:42.980
235,-183.0,1045.0,-38.0,1061.582780568713,2021-09-02 05:31:43.003
236,-183.0,1038.0,-54.0,1055.3904490756015,2021-09-02 05:31:43.005
237,-243.0,974.0,-41.0,1004.691992602708,2021-09-02 05:31:43.010
238,-203.0,744.0,-77.0,775.0316122584936,2021-09-02 05:31:43.019
239,-227.0,1116.0,-30.0,1139.247558698284,2021-09-02 05:31:43.042
240,-231.0,974.0,24.0,1001.3056476421172,2021-09-02 05:31:43.045
241,-168.0,987.0,24.0,1001.4833997625722,2021-09-02 05:31:43.049
242,-168.0,987.0,-58.0,1002.874369001422,2021-09-02 05:31:43.050
243,-148.0,1052.0,41.0,1063.1505067486917,2021-09-02 05:31:43.058
244,-208.0,1060.0,-55.0,1081.6140716540258,2021-09-02 05:31:43.068
245,-196.0,1060.0,-55.0,1079.3706499622824,2021-09-02 05:31:43.077
246,-196.0,916.0,-67.0,939.1277868320158,2021-09-02 05:31:43.078
247,-202.0,828.0,2.0,852.2863368610341,2021-09-02 05:31:43.089
248,-161.0,1033.0,-119.0,1052.221934764715,2021-09-02 05:31:43.097
249,-160.0,956.0,0.0,969.2966522174726,2021-09-02 05:31:43.107
250,-174.0,1053.0,0.0,1067.2792511803084,2021-09-02 05:31:43.116
251,-174.0,1053.0,4.0,1067.2867468492243,2021-09-02 05:31:43.117
252,-93.0,1041.0,-43.0,1046.0301142892588,2021-09-02 05:31:43.126
253,-222.0,939.0,-55.0,966.4522750762192,2021-09-02 05:31:43.137
254,-192.0,1002.0,-47.0,1021.3114118622194,2021-09-02 05:31:43.146
255,-221.0,1002.0,-47.0,1027.158215661054,2021-09-02 05:31:43.155
256,-221.0,935.0,28.0,961.1711606160476,2021-09-02 05:31:43.156
257,-175.0,1078.0,-177.0,1106.3625084031005,2021-09-02 05:31:43.166
258,-256.0,967.0,17.0,1000.4568956231948,2021-09-02 05:31:43.175
259,-144.0,1016.0,-23.0,1026.4117107671757,2021-09-02 05:31:43.185
260,-15.0,1016.0,-23.0,1016.3709952571452,2021-09-02 05:31:43.194
261,-15.0,988.0,-31.0,988.600020230629,2021-09-02 05:31:43.195
262,-222.0,945.0,-39.0,971.5091353147432,2021-09-02 05:31:43.204
263,-217.0,1070.0,-47.0,1092.7936676244058,2021-09-02 05:31:43.214
264,-196.0,869.0,18.0,891.011223273871,2021-09-02 05:31:43.224
265,-308.0,968.0,-5.0,1015.83118676284,2021-09-02 05:31:43.234
266,-111.0,1025.0,-29.0,1031.4005041689672,2021-09-02 05:31:43.245
267,-28.0,968.0,-37.0,969.1114486992713,2021-09-02 05:31:43.253
268,-267.0,1062.0,9.0,1095.0862979692513,2021-09-02 05:31:43.263
269,-235.0,1062.0,9.0,1087.726987805304,2021-09-02 05:31:43.277
270,-235.0,997.0,-90.0,1028.267474930526,2021-09-02 05:31:43.278
271,-141.0,889.0,-90.0,904.6004642934912,2021-09-02 05:31:43.282
272,-141.0,889.0,-72.0,902.9872645835044,2021-09-02 05:31:43.283
273,-222.0,1006.0,63.0,1032.128383487248,2021-09-02 05:31:43.292
274,-339.0,995.0,-58.0,1052.763031265821,2021-09-02 05:31:43.303
275,-110.0,926.0,-45.0,933.595736922572,2021-09-02 05:31:43.312
276,-57.0,1116.0,-16.0,1117.5692372287276,2021-09-02 05:31:43.323
277,-209.0,965.0,-83.0,990.85569080467,2021-09-02 05:31:43.331
278,-149.0,1112.0,65.0,1123.8193805056042,2021-09-02 05:31:43.341
279,-290.0,1006.0,-98.0,1051.541725277699,2021-09-02 05:31:43.351
280,-160.0,861.0,-70.0,878.5334370415278,2021-09-02 05:31:43.362
281,-209.0,998.0,47.0,1020.7320902176044,2021-09-02 05:31:43.371
282,-126.0,952.0,-138.0,970.1669959342051,2021-09-02 05:31:43.381
283,-181.0,952.0,-138.0,978.830424537366,2021-09-02 05:31:43.390
284,-181.0,998.0,90.0,1018.2656824228144,2021-09-02 05:31:43.391
285,-182.0,970.0,-27.0,987.2958016724268,2021-09-02 05:31:43.400
286,-124.0,1196.0,-27.0,1202.714014219507,2021-09-02 05:31:43.409
287,-124.0,1196.0,32.0,1202.8366472634596,2021-09-02 05:31:43.410
288,-176.0,946.0,-40.0,963.0638608109018,2021-09-02 05:31:43.419
289,-249.0,960.0,-40.0,992.57291923566,2021-09-02 05:31:43.430
290,-249.0,960.0,-30.0,992.22023764888,2021-09-02 05:31:43.431
291,-202.0,844.0,-78.0,871.3346085173021,2021-09-02 05:31:43.439
292,-188.0,844.0,-78.0,868.1958304438003,2021-09-02 05:31:43.448
293,-188.0,1062.0,-59.0,1080.124529857553,2021-09-02 05:31:43.449
294,-185.0,1079.0,55.0,1096.1254490248823,2021-09-02 05:31:43.458
295,-128.0,1079.0,55.0,1087.9568006129657,2021-09-02 05:31:43.468
296,-128.0,856.0,-60.0,867.5943752699184,2021-09-02 05:31:43.469
297,-159.0,1137.0,0.0,1148.0635870891472,2021-09-02 05:31:43.486
298,-235.0,1001.0,-44.0,1029.1559648566392,2021-09-02 05:31:43.490
299,-108.0,1001.0,-44.0,1007.7703111324524,2021-09-02 05:31:43.497
300,-108.0,936.0,-61.0,944.1827153681644,2021-09-02 05:31:43.498
301,-248.0,988.0,21.0,1018.8665270780074,2021-09-02 05:31:43.508
302,-188.0,1163.0,-61.0,1179.6753790768034,2021-09-02 05:31:43.519
303,-175.0,928.0,-20.0,944.5681552963767,2021-09-02 05:31:43.527
304,-154.0,1047.0,-20.0,1058.4540613555223,2021-09-02 05:31:43.536
305,-154.0,1047.0,14.0,1058.3576900084397,2021-09-02 05:31:43.537
306,-105.0,1050.0,-35.0,1055.8172190298849,2021-09-02 05:31:43.546
307,-196.0,891.0,-35.0,912.974260316248,2021-09-02 05:31:43.556
308,-196.0,891.0,-69.0,914.9087386182296,2021-09-02 05:31:43.557
309,-228.0,1105.0,-69.0,1130.3848902033324,2021-09-02 05:31:43.567
310,-228.0,1105.0,-13.0,1128.35189546524,2021-09-02 05:31:43.568
311,-168.0,1105.0,-13.0,1117.7736801338633,2021-09-02 05:31:43.575
312,-168.0,849.0,-32.0,866.0536934855713,2021-09-02 05:31:43.576
313,-177.0,913.0,-6.0,930.0182793902494,2021-09-02 05:31:43.585
314,-228.0,1103.0,-40.0,1127.0283936086082,2021-09-02 05:31:43.595
315,-14.0,990.0,-20.0,990.3009643537664,2021-09-02 05:31:43.605
316,-356.0,946.0,-20.0,1010.9658747949904,2021-09-02 05:31:43.615
317,-356.0,946.0,54.0,1012.2094644884526,2021-09-02 05:31:43.616
318,-69.0,1018.0,-131.0,1028.710843726263,2021-09-02 05:31:43.624
319,-221.0,991.0,-59.0,1017.0560456533356,2021-09-02 05:31:43.634
320,-191.0,895.0,34.0,915.7849092445234,2021-09-02 05:31:43.644
321,-228.0,895.0,34.0,924.2104738640436,2021-09-02 05:31:43.653
322,-228.0,976.0,1.0,1002.2779055731,2021-09-02 05:31:43.654
323,-158.0,981.0,-55.0,995.1633031819453,2021-09-02 05:31:43.664
324,0.0,981.0,-55.0,982.5405844035146,2021-09-02 05:31:43.674
325,0.0,985.0,-17.0,985.1466895848556,2021-09-02 05:31:43.675
326,-296.0,977.0,-12.0,1020.9255604597232,2021-09-02 05:31:43.683
327,-125.0,1076.0,-35.0,1083.8016423681966,2021-09-02 05:31:43.693
328,-269.0,932.0,-35.0,970.6750228578048,2021-09-02 05:31:43.702
329,-269.0,932.0,-19.0,970.2298696700694,2021-09-02 05:31:43.703
330,-199.0,955.0,-77.0,978.5473928226472,2021-09-02 05:31:43.712
331,-156.0,975.0,-77.0,990.398909530902,2021-09-02 05:31:43.723
332,-156.0,975.0,23.0,987.6689728851464,2021-09-02 05:31:43.724
333,-207.0,1093.0,-67.0,1114.4447047745348,2021-09-02 05:31:43.732
334,-136.0,969.0,-67.0,980.7884583333962,2021-09-02 05:31:43.741
335,-136.0,969.0,-45.0,979.531520677104,2021-09-02 05:31:43.742
336,-309.0,971.0,-50.0,1020.2068417727849,2021-09-02 05:31:43.751
337,-65.0,1092.0,0.0,1093.9328132933942,2021-09-02 05:31:43.761
338,-243.0,1092.0,0.0,1118.710418294207,2021-09-02 05:31:43.771
339,-243.0,1018.0,-56.0,1048.0978007800609,2021-09-02 05:31:43.772
340,-183.0,1018.0,-56.0,1035.8325154193606,2021-09-02 05:31:43.780
341,-183.0,900.0,-65.0,920.7138534854356,2021-09-02 05:31:43.781
342,-187.0,1040.0,37.0,1057.3258721888917,2021-09-02 05:31:43.790
343,-208.0,1036.0,-131.0,1064.763353989984,2021-09-02 05:31:43.800
344,-157.0,952.0,22.0,965.109838308573,2021-09-02 05:31:43.810
345,-113.0,952.0,22.0,958.9353471428614,2021-09-02 05:31:43.819
346,-113.0,991.0,-22.0,997.6642721877936,2021-09-02 05:31:43.820
347,-202.0,976.0,-22.0,996.9272791934224,2021-09-02 05:31:43.830
348,-202.0,976.0,-74.0,999.4278363143584,2021-09-02 05:31:43.831
349,-208.0,1085.0,43.0,1105.5939580153286,2021-09-02 05:31:43.839
350,-175.0,1013.0,-55.0,1029.475108975443,2021-09-02 05:31:43.849
351,-151.0,937.0,-40.0,949.931576483275,2021-09-02 05:31:43.859
352,-215.0,1031.0,-40.0,1053.9383283665131,2021-09-02 05:31:43.869
353,-215.0,1031.0,-70.0,1055.5027238240552,2021-09-02 05:31:43.870
354,-183.0,1025.0,48.0,1042.313772335375,2021-09-02 05:31:43.879
355,-221.0,851.0,-67.0,881.7771827394946,2021-09-02 05:31:43.888
356,-248.0,1084.0,6.0,1112.0233810491577,2021-09-02 05:31:43.898
357,-202.0,1058.0,6.0,1077.1276618859995,2021-09-02 05:31:43.907
358,-202.0,1058.0,9.0,1077.148550572297,2021-09-02 05:31:43.908
359,-116.0,926.0,-55.0,934.8566735066933,2021-09-02 05:31:43.918
360,-190.0,994.0,8.0,1012.02766760598,2021-09-02 05:31:43.927
361,-121.0,1008.0,-81.0,1018.4625668133316,2021-09-02 05:31:43.937
362,-153.0,1008.0,-81.0,1022.7580359009652,2021-09-02 05:31:43.946
363,-153.0,1021.0,-50.0,1033.610177968464,2021-09-02 05:31:43.947
364,-179.0,1054.0,56.0,1070.5573314867354,2021-09-02 05:31:43.956
365,-303.0,759.0,-105.0,823.9629846054979,2021-09-02 05:31:43.966
366,-107.0,1029.0,-90.0,1038.455584028513,2021-09-02 05:31:43.976
367,-149.0,1015.0,-11.0,1025.9371325768457,2021-09-02 05:31:43.987
368,-189.0,920.0,26.0,939.5727752547964,2021-09-02 05:31:43.995
369,-141.0,940.0,-53.0,951.9926470304274,2021-09-02 05:31:44.021
370,-80.0,939.0,-23.0,942.6823431039747,2021-09-02 05:31:44.028
371,-367.0,899.0,-23.0,971.2975857068728,2021-09-02 05:31:44.034
372,-367.0,899.0,12.0,971.0993769949604,2021-09-02 05:31:44.035
373,-192.0,1077.0,-98.0,1098.361051749378,2021-09-02 05:31:44.057
374,-192.0,902.0,-65.0,924.4960789532856,2021-09-02 05:31:44.058
375,-250.0,1051.0,-78.0,1083.1366488121432,2021-09-02 05:31:44.064
376,-43.0,1051.0,-78.0,1054.7672729090527,2021-09-02 05:31:44.073
377,-43.0,1020.0,0.0,1020.905970204896,2021-09-02 05:31:44.074
378,-142.0,930.0,-28.0,941.1949851120118,2021-09-02 05:31:44.083
379,-217.0,989.0,-29.0,1012.9417554825154,2021-09-02 05:31:44.093
380,-310.0,898.0,-27.0,950.3857111720484,2021-09-02 05:31:44.103
381,-48.0,949.0,-167.0,964.7766580924311,2021-09-02 05:31:44.114
382,-207.0,936.0,-31.0,959.1173025235234,2021-09-02 05:31:44.122
383,-253.0,1112.0,-54.0,1141.695668731383,2021-09-02 05:31:44.133
384,-62.0,998.0,29.0,1000.3444406803088,2021-09-02 05:31:44.142
385,-272.0,1014.0,-41.0,1050.6478953483893,2021-09-02 05:31:44.152
386,-211.0,1000.0,-48.0,1023.14466230343,2021-09-02 05:31:44.162
387,-187.0,849.0,36.0,870.0953970686203,2021-09-02 05:31:44.174
388,-371.0,1089.0,-22.0,1150.6719775852716,2021-09-02 05:31:44.181
389,-92.0,996.0,-38.0,1000.961537722604,2021-09-02 05:31:44.191
390,-61.0,1037.0,-38.0,1039.4873736606903,2021-09-02 05:31:44.200
391,-61.0,1037.0,40.0,1039.5624079390327,2021-09-02 05:31:44.201
392,-191.0,1009.0,-106.0,1032.3749318924786,2021-09-02 05:31:44.211
393,-159.0,1009.0,-106.0,1026.9362200253724,2021-09-02 05:31:44.220
394,-159.0,1020.0,-86.0,1035.8942996271387,2021-09-02 05:31:44.221
395,-114.0,872.0,2.0,879.4225378053487,2021-09-02 05:31:44.230
396,-276.0,872.0,2.0,914.6387264925972,2021-09-02 05:31:44.239
397,-276.0,950.0,20.0,989.482693128081,2021-09-02 05:31:44.240
398,-267.0,971.0,-57.0,1008.652070835132,2021-09-02 05:31:44.249
399,-135.0,1065.0,22.0,1073.7476426050955,2021-09-02 05:31:44.259
400,-4.0,1065.0,22.0,1065.2347159194542,2021-09-02 05:31:44.269
401,-4.0,1039.0,-57.0,1040.5700360859908,2021-09-02 05:31:44.270
402,-155.0,986.0,-59.0,999.8509888978456,2021-09-02 05:31:44.290
403,-183.0,1187.0,30.0,1201.3983519216265,2021-09-02 05:31:44.292
404,-217.0,1187.0,30.0,1207.0451524280274,2021-09-02 05:31:44.299
405,-217.0,983.0,-105.0,1012.1279563375374,2021-09-02 05:31:44.300
406,-194.0,929.0,-28.0,949.4530004165556,2021-09-02 05:31:44.308
407,-273.0,929.0,-28.0,968.686739870016,2021-09-02 05:31:44.317
408,-273.0,871.0,11.0,912.8477419591944,2021-09-02 05:31:44.318
409,-212.0,936.0,11.0,959.7713269315768,2021-09-02 05:31:44.327
410,-212.0,936.0,-126.0,967.9442132685128,2021-09-02 05:31:44.328
411,-65.0,953.0,-50.0,956.521824110668,2021-09-02 05:31:44.337
412,-164.0,976.0,-50.0,990.945003519368,2021-09-02 05:31:44.348
413,-164.0,976.0,59.0,991.439862018872,2021-09-02 05:31:44.349
414,-146.0,1047.0,59.0,1058.775708070411,2021-09-02 05:31:44.357
415,-146.0,1047.0,-80.0,1060.153290802797,2021-09-02 05:31:44.358
416,-196.0,1047.0,-80.0,1068.187717585257,2021-09-02 05:31:44.366
417,-196.0,1032.0,-55.0,1051.8864007106472,2021-09-02 05:31:44.367
418,-228.0,1000.0,-8.0,1025.693911457019,2021-09-02 05:31:44.376
419,-185.0,718.0,-113.0,750.0119999040015,2021-09-02 05:31:44.386
420,-204.0,718.0,-113.0,754.9231748992742,2021-09-02 05:31:44.396
421,-204.0,1081.0,-53.0,1101.356436400133,2021-09-02 05:31:44.397
422,-253.0,1081.0,-53.0,1111.4760456258157,2021-09-02 05:31:44.405
423,-253.0,1023.0,23.0,1054.0716294446029,2021-09-02 05:31:44.406
424,-73.0,989.0,-35.0,992.3079159212627,2021-09-02 05:31:44.415
425,-122.0,1107.0,-64.0,1115.5397796582604,2021-09-02 05:31:44.425
426,-82.0,991.0,-63.0,996.3804494268242,2021-09-02 05:31:44.435
427,-201.0,1029.0,-25.0,1048.7454409912827,2021-09-02 05:31:44.445
