,Acceleration_X,Acceleration_Y,Acceleration_Z,magnitude,time_stamp
0,-431.0,713.0,-295.0,883.8297347340153,2021-09-24 12:46:16.541
1,-484.0,879.0,-156.0,1015.4964303236128,2021-09-24 12:46:16.551
2,-46.0,1010.0,-156.0,1023.0112413849616,2021-09-24 12:46:16.561
3,-46.0,1010.0,-48.0,1012.1857537033408,2021-09-24 12:46:16.562
4,-463.0,1077.0,-215.0,1191.8569545041887,2021-09-24 12:46:16.571
5,-76.0,1119.0,83.0,1124.6448328250124,2021-09-24 12:46:16.581
6,-527.0,1173.0,-38.0,1286.5076758418506,2021-09-24 12:46:16.590
7,214.0,1240.0,-196.0,1273.5038280272263,2021-09-24 12:46:16.600
8,-212.0,851.0,-75.0,880.2102021676413,2021-09-24 12:46:16.610
9,-81.0,1052.0,-203.0,1074.4645177947943,2021-09-24 12:46:16.619
10,-181.0,856.0,25.0,875.2839539258104,2021-09-24 12:46:16.630
11,-24.0,1228.0,-125.0,1234.578875568507,2021-09-24 12:46:16.639
12,97.0,802.0,-125.0,817.4582558149376,2021-09-24 12:46:16.648
13,97.0,802.0,37.0,808.6915357538992,2021-09-24 12:46:16.649
14,-101.0,961.0,9.0,966.3348281004882,2021-09-24 12:46:16.658
15,-343.0,1168.0,-182.0,1230.852143841818,2021-09-24 12:46:16.668
16,-147.0,1031.0,226.0,1065.6669273276711,2021-09-24 12:46:16.679
17,-153.0,1031.0,226.0,1066.5111344941506,2021-09-24 12:46:16.687
18,-153.0,880.0,-328.0,951.5214133165896,2021-09-24 12:46:16.688
19,-107.0,926.0,25.0,932.496648787544,2021-09-24 12:46:16.702
20,-163.0,1202.0,-269.0,1242.4709252131415,2021-09-24 12:46:16.707
21,67.0,1202.0,-269.0,1233.553403789232,2021-09-24 12:46:16.717
22,67.0,955.0,181.0,974.3074463432988,2021-09-24 12:46:16.718
23,-57.0,955.0,181.0,973.6708889558114,2021-09-24 12:46:16.726
24,-57.0,852.0,-15.0,854.0362989943694,2021-09-24 12:46:16.727
25,-310.0,1134.0,-15.0,1175.7044696691426,2021-09-24 12:46:16.737
26,-310.0,1134.0,-224.0,1196.7589565154717,2021-09-24 12:46:16.738
27,-77.0,1097.0,247.0,1127.0967127979743,2021-09-24 12:46:16.746
28,-317.0,694.0,54.0,764.8797291077859,2021-09-24 12:46:16.756
29,-341.0,694.0,54.0,775.134181932393,2021-09-24 12:46:16.766
30,-341.0,1004.0,-214.0,1081.7083710501645,2021-09-24 12:46:16.767
31,197.0,1004.0,-214.0,1045.2851285654074,2021-09-24 12:46:16.775
32,197.0,1283.0,163.0,1308.2304842801975,2021-09-24 12:46:16.776
33,-543.0,1067.0,-67.0,1199.094241500642,2021-09-24 12:46:16.786
34,-98.0,874.0,60.0,881.5214121052308,2021-09-24 12:46:16.800
35,-431.0,693.0,-56.0,818.0134473222307,2021-09-24 12:46:16.805
36,-333.0,1214.0,-56.0,1260.087695360922,2021-09-24 12:46:16.814
37,-333.0,1214.0,-473.0,1344.7728432713088,2021-09-24 12:46:16.815
38,-401.0,839.0,74.0,932.8440384115664,2021-09-24 12:46:16.824
39,-213.0,839.0,74.0,868.7726975452209,2021-09-24 12:46:16.834
40,-213.0,1044.0,-234.0,1090.899170409438,2021-09-24 12:46:16.835
41,110.0,1263.0,101.0,1271.7979399259932,2021-09-24 12:46:16.844
42,-564.0,1263.0,101.0,1386.890767147867,2021-09-24 12:46:16.853
43,-564.0,995.0,-8.0,1143.759152968841,2021-09-24 12:46:16.854
44,-27.0,874.0,38.0,875.2422521793609,2021-09-24 12:46:16.864
45,-215.0,819.0,38.0,847.6025011761114,2021-09-24 12:46:16.873
46,-215.0,819.0,-114.0,854.3898407635709,2021-09-24 12:46:16.874
47,-490.0,1138.0,-450.0,1318.1972538281211,2021-09-24 12:46:16.883
48,24.0,912.0,-450.0,1017.2610284484508,2021-09-24 12:46:16.893
49,24.0,912.0,318.0,966.1490568230142,2021-09-24 12:46:16.894
50,-306.0,950.0,318.0,1047.5017899746042,2021-09-24 12:46:16.905
51,-306.0,950.0,-128.0,1006.2405279057288,2021-09-24 12:46:16.906
52,-31.0,839.0,-113.0,847.1428450975668,2021-09-24 12:46:16.912
53,284.0,1006.0,155.0,1056.7483144060368,2021-09-24 12:46:16.922
54,-580.0,1049.0,-57.0,1200.0208331524916,2021-09-24 12:46:16.932
55,-35.0,866.0,-57.0,868.5792997763647,2021-09-24 12:46:16.941
56,-35.0,866.0,110.0,873.6595446740108,2021-09-24 12:46:16.942
57,-240.0,1053.0,-343.0,1133.16283031169,2021-09-24 12:46:16.951
58,-74.0,1084.0,211.0,1106.8211237593905,2021-09-24 12:46:16.961
59,-222.0,799.0,-169.0,846.3131808024734,2021-09-24 12:46:16.978
60,-112.0,994.0,19.0,1000.4703893669216,2021-09-24 12:46:16.981
61,90.0,1172.0,-13.0,1175.5224370466094,2021-09-24 12:46:16.990
62,-599.0,828.0,-62.0,1023.8305523864776,2021-09-24 12:46:17.000
63,-328.0,1046.0,216.0,1117.298527699737,2021-09-24 12:46:17.011
64,71.0,1046.0,216.0,1070.42655049284,2021-09-24 12:46:17.019
65,71.0,911.0,-126.0,922.4088030802828,2021-09-24 12:46:17.020
66,-472.0,942.0,-233.0,1079.0908210155435,2021-09-24 12:46:17.030
67,-110.0,1240.0,283.0,1276.631896828526,2021-09-24 12:46:17.039
68,-433.0,943.0,-241.0,1065.278836737124,2021-09-24 12:46:17.049
69,-51.0,1293.0,-241.0,1316.2564339823757,2021-09-24 12:46:17.059
70,-51.0,1293.0,-14.0,1294.0811411963316,2021-09-24 12:46:17.060
71,-65.0,589.0,-14.0,592.7410901903123,2021-09-24 12:46:17.068
72,-65.0,589.0,-188.0,621.6831990652474,2021-09-24 12:46:17.069
73,-277.0,962.0,113.0,1007.4432986525842,2021-09-24 12:46:17.078
74,-26.0,883.0,-114.0,890.7081452417509,2021-09-24 12:46:17.088
75,-514.0,1009.0,-134.0,1140.2775977804704,2021-09-24 12:46:17.102
76,172.0,1078.0,254.0,1120.7961456036508,2021-09-24 12:46:17.108
77,-490.0,1081.0,-167.0,1198.5616379644391,2021-09-24 12:46:17.118
78,77.0,1223.0,-102.0,1229.659302408598,2021-09-24 12:46:17.127
79,-266.0,699.0,-147.0,762.211256804831,2021-09-24 12:46:17.137
80,-301.0,699.0,-147.0,775.1199907111156,2021-09-24 12:46:17.146
81,-301.0,1012.0,-175.0,1070.2196036328246,2021-09-24 12:46:17.147
82,-191.0,921.0,-29.0,941.0435696608314,2021-09-24 12:46:17.156
83,-115.0,1052.0,-162.0,1070.5946945506505,2021-09-24 12:46:17.167
84,151.0,942.0,120.0,961.5430307583744,2021-09-24 12:46:17.176
85,-52.0,857.0,40.0,859.5074170709639,2021-09-24 12:46:17.186
86,-382.0,1074.0,-149.0,1149.6090639865365,2021-09-24 12:46:17.195
87,-177.0,706.0,-96.0,734.1532537556446,2021-09-24 12:46:17.205
88,-264.0,939.0,-269.0,1011.819153801706,2021-09-24 12:46:17.216
89,-102.0,996.0,67.0,1003.448553738556,2021-09-24 12:46:17.225
90,-8.0,1124.0,-36.0,1124.6048194810478,2021-09-24 12:46:17.234
91,16.0,877.0,105.0,883.4081729302712,2021-09-24 12:46:17.244
92,43.0,825.0,52.0,827.7547946100947,2021-09-24 12:46:17.254
93,-504.0,1171.0,-184.0,1288.0656039193034,2021-09-24 12:46:17.264
94,-60.0,1086.0,252.0,1116.4676439557038,2021-09-24 12:46:17.276
95,-256.0,686.0,-3.0,732.2164980386607,2021-09-24 12:46:17.283
96,-199.0,1097.0,-65.0,1116.7967585912843,2021-09-24 12:46:17.293
97,355.0,1367.0,118.0,1417.2642661127106,2021-09-24 12:46:17.303
98,-523.0,1044.0,-147.0,1176.891668761403,2021-09-24 12:46:17.313
99,-53.0,1009.0,128.0,1018.4664942942404,2021-09-24 12:46:17.323
100,-504.0,1195.0,-151.0,1305.6959829914465,2021-09-24 12:46:17.332
101,-203.0,1002.0,193.0,1040.4143405393834,2021-09-24 12:46:17.342
102,-348.0,735.0,107.0,820.230455420914,2021-09-24 12:46:17.352
103,-231.0,1072.0,-196.0,1113.9842907330426,2021-09-24 12:46:17.372
104,296.0,1245.0,118.0,1285.1322889103674,2021-09-24 12:46:17.376
105,-598.0,1151.0,-32.0,1297.4702308723697,2021-09-24 12:46:17.381
106,-73.0,895.0,23.0,898.2666641927663,2021-09-24 12:46:17.391
107,-170.0,544.0,14.0,570.115777715369,2021-09-24 12:46:17.404
108,-431.0,1321.0,-421.0,1451.9101211851923,2021-09-24 12:46:17.412
109,73.0,843.0,162.0,861.5230699174573,2021-09-24 12:46:17.420
110,-134.0,1023.0,70.0,1034.1107290807886,2021-09-24 12:46:17.430
111,-161.0,992.0,70.0,1007.4150088220842,2021-09-24 12:46:17.439
112,-161.0,992.0,-193.0,1023.3445167684245,2021-09-24 12:46:17.440
113,111.0,992.0,-193.0,1016.677923434949,2021-09-24 12:46:17.449
114,111.0,992.0,55.0,999.7049564746592,2021-09-24 12:46:17.450
115,-93.0,810.0,20.0,815.5666741597526,2021-09-24 12:46:17.460
116,-444.0,810.0,-82.0,927.34028274415,2021-09-24 12:46:17.469
117,-227.0,1142.0,-525.0,1277.2305978170114,2021-09-24 12:46:17.479
118,-51.0,1091.0,403.0,1164.169661174865,2021-09-24 12:46:17.488
119,-105.0,926.0,-124.0,940.1473288798942,2021-09-24 12:46:17.498
120,96.0,934.0,-33.0,939.5003991483984,2021-09-24 12:46:17.509
121,226.0,1142.0,71.0,1166.310850502558,2021-09-24 12:46:17.518
122,-376.0,886.0,-89.0,966.5883301592256,2021-09-24 12:46:17.536
123,-234.0,1006.0,211.0,1054.1883133482368,2021-09-24 12:46:17.539
124,2.0,1070.0,-10.0,1070.0485970272566,2021-09-24 12:46:17.547
125,-331.0,791.0,-176.0,875.3387915544472,2021-09-24 12:46:17.558
126,-43.0,1210.0,-176.0,1223.488863864318,2021-09-24 12:46:17.566
127,-43.0,1210.0,305.0,1248.5888034096731,2021-09-24 12:46:17.567
128,-602.0,1133.0,-178.0,1295.2903149487377,2021-09-24 12:46:17.576
129,-97.0,1151.0,-193.0,1171.0930791358985,2021-09-24 12:46:17.586
130,-522.0,929.0,21.0,1065.8170574728103,2021-09-24 12:46:17.596
131,-334.0,991.0,189.0,1062.7125669718976,2021-09-24 12:46:17.607
132,165.0,923.0,189.0,956.4909827071032,2021-09-24 12:46:17.615
133,165.0,923.0,-38.0,938.4018329052858,2021-09-24 12:46:17.616
134,-428.0,1011.0,-202.0,1116.2925243859693,2021-09-24 12:46:17.625
135,-141.0,1158.0,308.0,1206.5276623434706,2021-09-24 12:46:17.635
136,-298.0,1158.0,308.0,1234.7598956882266,2021-09-24 12:46:17.644
137,-298.0,1044.0,-194.0,1102.8943739089432,2021-09-24 12:46:17.645
138,11.0,1303.0,-108.0,1307.5144358667708,2021-09-24 12:46:17.655
139,-278.0,641.0,-116.0,708.252073770349,2021-09-24 12:46:17.665
140,-368.0,898.0,-257.0,1003.930774505892,2021-09-24 12:46:17.674
141,-157.0,1050.0,172.0,1075.5152253687531,2021-09-24 12:46:17.684
142,236.0,1073.0,44.0,1099.527625846663,2021-09-24 12:46:17.697
143,-53.0,836.0,-33.0,838.3280980618507,2021-09-24 12:46:17.703
144,-510.0,1009.0,-141.0,1139.3252389023953,2021-09-24 12:46:17.713
145,128.0,1290.0,-63.0,1297.8647849448726,2021-09-24 12:46:17.723
146,-279.0,671.0,-63.0,729.4182613562674,2021-09-24 12:46:17.732
147,-279.0,671.0,-99.0,733.4050722486176,2021-09-24 12:46:17.733
148,-408.0,943.0,-326.0,1077.9559360196502,2021-09-24 12:46:17.743
149,-130.0,1103.0,155.0,1121.3982343485295,2021-09-24 12:46:17.753
150,90.0,919.0,-91.0,927.86960290765,2021-09-24 12:46:17.762
151,2.0,919.0,-91.0,923.4966161280722,2021-09-24 12:46:17.771
152,2.0,799.0,41.0,800.0537481944573,2021-09-24 12:46:17.772
153,-245.0,962.0,12.0,992.7804389692616,2021-09-24 12:46:17.781
154,-490.0,1032.0,-192.0,1158.4420572475776,2021-09-24 12:46:17.791
155,-189.0,1090.0,175.0,1120.0205355260232,2021-09-24 12:46:17.804
156,-91.0,1090.0,175.0,1107.7030287942705,2021-09-24 12:46:17.810
157,-91.0,765.0,49.0,771.9501279227824,2021-09-24 12:46:17.811
158,-240.0,1077.0,-163.0,1115.3914111198812,2021-09-24 12:46:17.820
159,107.0,1480.0,335.0,1521.2080725528642,2021-09-24 12:46:17.830
160,-406.0,819.0,-90.0,918.5298035447734,2021-09-24 12:46:17.840
161,-168.0,712.0,47.0,733.0600248274353,2021-09-24 12:46:17.850
162,-461.0,1196.0,-94.0,1285.213211883538,2021-09-24 12:46:17.860
163,-86.0,1132.0,185.0,1150.236932114423,2021-09-24 12:46:17.869
164,-146.0,677.0,96.0,699.1859552365164,2021-09-24 12:46:17.879
165,-351.0,1157.0,-192.0,1224.2197515152252,2021-09-24 12:46:17.889
166,370.0,1157.0,-192.0,1229.8020165864098,2021-09-24 12:46:17.898
167,370.0,1347.0,127.0,1402.653913123262,2021-09-24 12:46:17.899
168,-549.0,1047.0,-26.0,1182.4914376011354,2021-09-24 12:46:17.910
169,-255.0,879.0,-45.0,916.3465501653836,2021-09-24 12:46:17.918
170,-4.0,604.0,-151.0,622.6017989052071,2021-09-24 12:46:17.928
171,-455.0,604.0,-151.0,771.130339177496,2021-09-24 12:46:17.937
172,-455.0,1264.0,-324.0,1381.9178702079223,2021-09-24 12:46:17.938
173,-70.0,951.0,274.0,992.1577495539708,2021-09-24 12:46:17.948
174,72.0,951.0,274.0,992.3008616342122,2021-09-24 12:46:17.958
175,72.0,683.0,-16.0,686.9708873016382,2021-09-24 12:46:17.959
176,-235.0,1110.0,-96.0,1138.657542898654,2021-09-24 12:46:17.967
177,-487.0,1015.0,-63.0,1127.547338252368,2021-09-24 12:46:17.977
178,-123.0,760.0,-63.0,772.4622968145436,2021-09-24 12:46:17.993
179,-123.0,760.0,-95.0,775.7280451292193,2021-09-24 12:46:17.994
180,-164.0,759.0,-99.0,782.8013796615332,2021-09-24 12:46:17.996
181,-410.0,1199.0,-550.0,1381.376487421152,2021-09-24 12:46:18.006
182,-18.0,876.0,374.0,952.6678329827243,2021-09-24 12:46:18.016
183,-70.0,876.0,374.0,955.0664898319908,2021-09-24 12:46:18.025
184,-70.0,933.0,91.0,940.0372333051496,2021-09-24 12:46:18.026
185,-8.0,961.0,-105.0,966.7522950580465,2021-09-24 12:46:18.037
186,119.0,1078.0,81.0,1087.5688483953556,2021-09-24 12:46:18.045
187,-554.0,1036.0,-43.0,1175.6109050191735,2021-09-24 12:46:18.055
188,-78.0,884.0,158.0,901.3900376640514,2021-09-24 12:46:18.065
189,48.0,1023.0,164.0,1037.1735631031097,2021-09-24 12:46:18.074
190,-251.0,971.0,-180.0,1018.9416077479613,2021-09-24 12:46:18.086
191,-98.0,924.0,20.0,929.3976543977288,2021-09-24 12:46:18.099
192,28.0,924.0,20.0,924.6404706695464,2021-09-24 12:46:18.103
193,28.0,936.0,-82.0,940.0021276571664,2021-09-24 12:46:18.104
194,51.0,1104.0,127.0,1112.4504483346664,2021-09-24 12:46:18.113
195,-495.0,955.0,-15.0,1075.7671681177112,2021-09-24 12:46:18.123
196,-305.0,955.0,-15.0,1002.6340309405024,2021-09-24 12:46:18.134
197,-305.0,888.0,27.0,939.3071914980744,2021-09-24 12:46:18.135
198,52.0,943.0,46.0,945.5522196050306,2021-09-24 12:46:18.143
199,-432.0,1071.0,-247.0,1180.9631662333927,2021-09-24 12:46:18.152
200,-38.0,1042.0,291.0,1082.538221034251,2021-09-24 12:46:18.162
201,-461.0,1091.0,-81.0,1187.1659530158367,2021-09-24 12:46:18.172
202,-82.0,1091.0,-81.0,1097.071556462932,2021-09-24 12:46:18.182
203,-82.0,1281.0,-277.0,1313.169448319599,2021-09-24 12:46:18.183
204,-45.0,1281.0,-277.0,1311.3790451276857,2021-09-24 12:46:18.192
205,-45.0,669.0,32.0,671.2749064280595,2021-09-24 12:46:18.193
206,-452.0,1045.0,-335.0,1186.8251766793626,2021-09-24 12:46:18.201
207,-132.0,1016.0,176.0,1039.5460547758337,2021-09-24 12:46:18.211
208,70.0,1052.0,-63.0,1056.2068926114807,2021-09-24 12:46:18.221
209,86.0,1166.0,345.0,1219.0065627386916,2021-09-24 12:46:18.231
210,-440.0,1006.0,-209.0,1117.728500128721,2021-09-24 12:46:18.241
211,-185.0,1101.0,-276.0,1150.04434697102,2021-09-24 12:46:18.250
212,-18.0,743.0,-34.0,743.995295684052,2021-09-24 12:46:18.260
213,-284.0,743.0,-34.0,796.1538795986615,2021-09-24 12:46:18.269
214,-284.0,995.0,-321.0,1083.3845116116438,2021-09-24 12:46:18.270
215,-160.0,991.0,180.0,1019.8436154626844,2021-09-24 12:46:18.280
216,133.0,1008.0,-31.0,1017.2089264256384,2021-09-24 12:46:18.290
217,-220.0,845.0,-40.0,874.085236118309,2021-09-24 12:46:18.306
218,-212.0,845.0,-40.0,872.1060715302928,2021-09-24 12:46:18.308
219,-212.0,882.0,279.0,949.0569002962887,2021-09-24 12:46:18.309
220,-325.0,1116.0,-190.0,1177.7864831963388,2021-09-24 12:46:18.319
221,-333.0,1042.0,36.0,1094.5085655215312,2021-09-24 12:46:18.330
222,-145.0,903.0,206.0,937.4806664673144,2021-09-24 12:46:18.338
223,-243.0,969.0,-265.0,1033.5545462141802,2021-09-24 12:46:18.348
224,147.0,970.0,-265.0,1016.2352089944532,2021-09-24 12:46:18.357
225,147.0,970.0,-70.0,983.5695196578632,2021-09-24 12:46:18.358
226,-275.0,898.0,14.0,939.268332267196,2021-09-24 12:46:18.367
227,-365.0,762.0,153.0,858.6489387403911,2021-09-24 12:46:18.390
228,-365.0,967.0,-159.0,1045.7509263682246,2021-09-24 12:46:18.392
229,-261.0,967.0,-159.0,1014.1454530786006,2021-09-24 12:46:18.396
230,-261.0,1053.0,131.0,1092.7447094358315,2021-09-24 12:46:18.397
231,-21.0,807.0,-51.0,808.8825625515734,2021-09-24 12:46:18.407
232,-264.0,1027.0,-152.0,1071.227800236719,2021-09-24 12:46:18.421
233,354.0,1534.0,242.0,1592.8075841105228,2021-09-24 12:46:18.426
234,-409.0,1534.0,242.0,1605.9268351951778,2021-09-24 12:46:18.435
235,-409.0,888.0,-139.0,987.4948101129444,2021-09-24 12:46:18.436
236,-192.0,895.0,-50.0,916.727331325951,2021-09-24 12:46:18.446
237,-185.0,790.0,-99.0,817.389747917112,2021-09-24 12:46:18.456
238,-526.0,1147.0,-460.0,1343.0878601193594,2021-09-24 12:46:18.465
239,-20.0,1147.0,-460.0,1235.964805324165,2021-09-24 12:46:18.475
240,-20.0,923.0,339.0,983.4886882928548,2021-09-24 12:46:18.476
241,-321.0,1151.0,-152.0,1204.552198951959,2021-09-24 12:46:18.484
242,270.0,1379.0,198.0,1419.064832909335,2021-09-24 12:46:18.495
243,-469.0,907.0,8.0,1021.114097444551,2021-09-24 12:46:18.504
244,-195.0,878.0,-133.0,909.1743507160768,2021-09-24 12:46:18.514
245,-185.0,770.0,-140.0,804.1921412199947,2021-09-24 12:46:18.524
246,-426.0,1193.0,-392.0,1326.0426086668558,2021-09-24 12:46:18.533
247,19.0,936.0,247.0,968.2282788681604,2021-09-24 12:46:18.553
248,-127.0,857.0,-17.0,866.5258218887652,2021-09-24 12:46:18.556
249,-63.0,857.0,-17.0,859.4806571412762,2021-09-24 12:46:18.562
250,-63.0,1044.0,-175.0,1060.4385885094905,2021-09-24 12:46:18.563
251,51.0,1175.0,151.0,1185.7600937795132,2021-09-24 12:46:18.574
252,-574.0,883.0,0.0,1053.169027269602,2021-09-24 12:46:18.582
253,-216.0,934.0,60.0,960.5269387164526,2021-09-24 12:46:18.592
254,329.0,934.0,60.0,992.0670340254233,2021-09-24 12:46:18.601
255,329.0,1121.0,107.0,1173.1713429844765,2021-09-24 12:46:18.602
256,-58.0,976.0,193.0,996.588681452885,2021-09-24 12:46:18.612
257,-20.0,704.0,18.0,704.5140168939154,2021-09-24 12:46:18.622
258,-185.0,1146.0,-81.0,1163.658884725245,2021-09-24 12:46:18.631
259,46.0,981.0,173.0,997.1990774163402,2021-09-24 12:46:18.641
260,-462.0,934.0,173.0,1056.2807391976812,2021-09-24 12:46:18.650
261,-462.0,934.0,69.0,1044.2992866032228,2021-09-24 12:46:18.651
262,-143.0,989.0,97.0,1003.9815735360884,2021-09-24 12:46:18.660
263,427.0,985.0,-31.0,1074.0181562711125,2021-09-24 12:46:18.671
264,-548.0,1246.0,-213.0,1377.747799853079,2021-09-24 12:46:18.680
265,9.0,1246.0,-213.0,1264.1067992855667,2021-09-24 12:46:18.689
266,9.0,1081.0,202.0,1099.7481529877648,2021-09-24 12:46:18.690
267,-389.0,960.0,-111.0,1041.7494900406718,2021-09-24 12:46:18.699
268,-172.0,1220.0,-354.0,1281.91263352851,2021-09-24 12:46:18.709
269,-186.0,659.0,-74.0,688.7328945244303,2021-09-24 12:46:18.719
270,-477.0,1074.0,-158.0,1185.7356366408155,2021-09-24 12:46:18.730
271,185.0,1110.0,30.0,1125.710886506833,2021-09-24 12:46:18.738
272,-307.0,1094.0,-227.0,1158.712216212464,2021-09-24 12:46:18.748
273,70.0,1103.0,249.0,1132.921003424334,2021-09-24 12:46:18.758
274,-397.0,1007.0,-70.0,1084.692583177372,2021-09-24 12:46:18.768
275,-80.0,1116.0,-411.0,1191.963506152768,2021-09-24 12:46:18.778
276,-123.0,811.0,72.0,823.4281996628486,2021-09-24 12:46:18.787
277,-519.0,1070.0,-285.0,1222.900650093866,2021-09-24 12:46:18.797
278,22.0,977.0,116.0,984.108225755684,2021-09-24 12:46:18.807
279,176.0,1039.0,116.0,1060.1664963580013,2021-09-24 12:46:18.816
280,176.0,1039.0,33.0,1054.3177889042754,2021-09-24 12:46:18.817
281,-294.0,885.0,-55.0,934.1766428251136,2021-09-24 12:46:18.828
282,-203.0,885.0,-55.0,909.6477340157562,2021-09-24 12:46:18.836
283,-203.0,836.0,138.0,871.2915700269342,2021-09-24 12:46:18.837
284,-436.0,1161.0,-121.0,1246.0569810405943,2021-09-24 12:46:18.846
285,-430.0,1161.0,-121.0,1243.9702568791586,2021-09-24 12:46:18.855
286,-430.0,858.0,-5.0,959.7338172639328,2021-09-24 12:46:18.856
287,123.0,896.0,92.0,909.0704043142092,2021-09-24 12:46:18.865
288,-94.0,896.0,92.0,905.6025618338324,2021-09-24 12:46:18.875
289,-94.0,1061.0,210.0,1085.659707274798,2021-09-24 12:46:18.876
290,270.0,950.0,-90.0,991.7156850630124,2021-09-24 12:46:18.886
291,-139.0,950.0,-90.0,964.324115637476,2021-09-24 12:46:18.895
292,-139.0,911.0,66.0,923.903674632805,2021-09-24 12:46:18.896
293,-348.0,879.0,184.0,963.1204493727666,2021-09-24 12:46:18.904
294,-490.0,1020.0,-162.0,1143.1290390852644,2021-09-24 12:46:18.914
295,-177.0,991.0,82.0,1010.0168315429204,2021-09-24 12:46:18.924
296,-7.0,891.0,82.0,894.7927134258526,2021-09-24 12:46:18.934
297,-7.0,891.0,149.0,903.399690059721,2021-09-24 12:46:18.935
298,-334.0,1047.0,149.0,1109.0383221512232,2021-09-24 12:46:18.943
299,-334.0,1047.0,-223.0,1121.3803993293266,2021-09-24 12:46:18.944
300,297.0,1491.0,262.0,1542.703471182975,2021-09-24 12:46:18.953
301,-303.0,811.0,-166.0,881.5248153058427,2021-09-24 12:46:18.963
302,-149.0,808.0,-81.0,825.6064437733029,2021-09-24 12:46:18.973
303,-84.0,808.0,-81.0,816.3828758615654,2021-09-24 12:46:18.983
304,-84.0,768.0,-80.0,776.7110144706331,2021-09-24 12:46:18.984
305,-421.0,1303.0,-320.0,1406.218332976782,2021-09-24 12:46:18.993
306,-12.0,906.0,205.0,928.9806241251752,2021-09-24 12:46:19.010
307,-384.0,1055.0,-284.0,1158.0746953456844,2021-09-24 12:46:19.012
308,275.0,1055.0,-284.0,1126.6348121729595,2021-09-24 12:46:19.021
309,275.0,1412.0,286.0,1466.685037763732,2021-09-24 12:46:19.022
310,-403.0,1001.0,286.0,1116.335970933482,2021-09-24 12:46:19.031
311,-403.0,1001.0,-138.0,1087.8667197777493,2021-09-24 12:46:19.032
312,-120.0,749.0,-210.0,787.0838583022777,2021-09-24 12:46:19.043
313,-333.0,753.0,-143.0,835.6715862107554,2021-09-24 12:46:19.051
314,-395.0,753.0,-143.0,862.2546027711305,2021-09-24 12:46:19.060
315,-395.0,1221.0,-337.0,1326.8138528067907,2021-09-24 12:46:19.061
316,149.0,846.0,329.0,919.868468858456,2021-09-24 12:46:19.070
317,-183.0,842.0,-61.0,863.8136373084185,2021-09-24 12:46:19.080
318,-260.0,925.0,-202.0,981.849784844912,2021-09-24 12:46:19.092
319,86.0,1133.0,244.0,1162.1622089880568,2021-09-24 12:46:19.100
320,-659.0,865.0,-44.0,1088.320724786586,2021-09-24 12:46:19.109
321,-303.0,679.0,-152.0,758.916332674426,2021-09-24 12:46:19.119
322,-372.0,1173.0,-410.0,1297.0786406382613,2021-09-24 12:46:19.129
323,63.0,1173.0,-410.0,1244.1856774613666,2021-09-24 12:46:19.139
324,63.0,963.0,388.0,1040.1355680871604,2021-09-24 12:46:19.140
325,58.0,716.0,-18.0,718.5708037486634,2021-09-24 12:46:19.150
326,-244.0,1042.0,-96.0,1074.4840622363834,2021-09-24 12:46:19.158
327,91.0,1171.0,192.0,1190.1201620004597,2021-09-24 12:46:19.168
328,-542.0,828.0,38.0,990.3494332810012,2021-09-24 12:46:19.178
329,-362.0,900.0,90.0,974.2402167843412,2021-09-24 12:46:19.188
330,342.0,1096.0,27.0,1148.4376343537335,2021-09-24 12:46:19.198
331,-416.0,1184.0,-233.0,1276.401582575014,2021-09-24 12:46:19.207
332,108.0,1226.0,274.0,1260.879058435027,2021-09-24 12:46:19.217
333,-209.0,1226.0,274.0,1273.512072969864,2021-09-24 12:46:19.226
334,-209.0,813.0,-123.0,848.3979019304562,2021-09-24 12:46:19.227
335,-197.0,1185.0,-372.0,1257.5444326146094,2021-09-24 12:46:19.237
336,-145.0,778.0,-14.0,791.5206882956377,2021-09-24 12:46:19.247
337,-225.0,919.0,-82.0,949.6894229167764,2021-09-24 12:46:19.256
338,423.0,1007.0,96.0,1096.4460771054817,2021-09-24 12:46:19.266
339,-535.0,1283.0,96.0,1393.3879574619557,2021-09-24 12:46:19.275
340,-535.0,1283.0,-313.0,1424.8799949469428,2021-09-24 12:46:19.276
341,59.0,1130.0,218.0,1152.347603807115,2021-09-24 12:46:19.286
342,-539.0,1130.0,218.0,1270.804863069071,2021-09-24 12:46:19.295
343,-539.0,921.0,-106.0,1072.379596971147,2021-09-24 12:46:19.296
344,-290.0,1060.0,-596.0,1250.16638892589,2021-09-24 12:46:19.306
345,-81.0,782.0,-596.0,986.5601856957334,2021-09-24 12:46:19.314
346,-81.0,782.0,18.0,786.389852426899,2021-09-24 12:46:19.315
347,-460.0,1035.0,-167.0,1144.8641840847324,2021-09-24 12:46:19.324
348,51.0,1042.0,56.0,1044.7492522131806,2021-09-24 12:46:19.334
349,145.0,907.0,54.0,920.1032550752116,2021-09-24 12:46:19.344
350,-328.0,907.0,54.0,965.9963768047994,2021-09-24 12:46:19.354
351,-328.0,901.0,-40.0,959.6796340446118,2021-09-24 12:46:19.355
352,-134.0,877.0,190.0,907.2954314885532,2021-09-24 12:46:19.363
353,-254.0,1186.0,-44.0,1213.6918884132,2021-09-24 12:46:19.373
354,-175.0,791.0,-59.0,812.2727374472198,2021-09-24 12:46:19.383
355,-277.0,974.0,-59.0,1014.3401796241732,2021-09-24 12:46:19.403
356,-277.0,974.0,-204.0,1032.9670856324512,2021-09-24 12:46:19.404
357,15.0,1139.0,172.0,1152.0112846669515,2021-09-24 12:46:19.408
358,376.0,876.0,67.0,955.636437145424,2021-09-24 12:46:19.412
359,-508.0,854.0,14.0,993.768584731878,2021-09-24 12:46:19.422
360,-377.0,941.0,237.0,1041.0470690607606,2021-09-24 12:46:19.440
361,-354.0,932.0,-108.0,1002.7980853591614,2021-09-24 12:46:19.445
362,-320.0,932.0,-108.0,991.3062089990156,2021-09-24 12:46:19.452
363,-320.0,999.0,-26.0,1049.3221621599346,2021-09-24 12:46:19.453
364,61.0,844.0,61.0,848.3973125841453,2021-09-24 12:46:19.461
365,-368.0,1114.0,-149.0,1182.6330791923588,2021-09-24 12:46:19.472
366,181.0,1474.0,-149.0,1492.5273866834068,2021-09-24 12:46:19.480
367,181.0,1474.0,146.0,1492.230880259486,2021-09-24 12:46:19.481
368,-336.0,749.0,-50.0,822.4335839446247,2021-09-24 12:46:19.491
369,-264.0,749.0,-50.0,795.7367655198545,2021-09-24 12:46:19.500
370,-264.0,788.0,248.0,867.2623593815196,2021-09-24 12:46:19.501
371,-202.0,1120.0,-46.0,1138.9995610183526,2021-09-24 12:46:19.510
372,-330.0,1120.0,-46.0,1168.5101625574337,2021-09-24 12:46:19.519
373,-330.0,966.0,-91.0,1024.8595025660834,2021-09-24 12:46:19.520
374,74.0,956.0,203.0,980.1127486161988,2021-09-24 12:46:19.529
375,-435.0,1169.0,-259.0,1273.917972241541,2021-09-24 12:46:19.539
376,336.0,1399.0,204.0,1453.1734239243435,2021-09-24 12:46:19.550
377,-446.0,906.0,-155.0,1021.6540510368468,2021-09-24 12:46:19.559
378,-276.0,808.0,-360.0,926.6282965677228,2021-09-24 12:46:19.568
379,-128.0,839.0,-10.0,848.7667524119921,2021-09-24 12:46:19.589
380,-314.0,1300.0,-285.0,1367.4139826694768,2021-09-24 12:46:19.591
381,142.0,831.0,248.0,878.7656115256218,2021-09-24 12:46:19.598
382,-128.0,842.0,248.0,887.046785688331,2021-09-24 12:46:19.607
383,-128.0,842.0,21.0,851.9325090639517,2021-09-24 12:46:19.608
384,-268.0,1151.0,-294.0,1217.8099194866168,2021-09-24 12:46:19.617
385,-152.0,1151.0,-294.0,1197.6397621989677,2021-09-24 12:46:19.627
386,-152.0,1060.0,325.0,1119.0750645063986,2021-09-24 12:46:19.628
387,-175.0,903.0,-302.0,968.11053087961,2021-09-24 12:46:19.637
388,-193.0,903.0,-302.0,971.5256043975372,2021-09-24 12:46:19.647
389,-193.0,990.0,-72.0,1011.203738126002,2021-09-24 12:46:19.648
390,-346.0,1162.0,-338.0,1258.6516595150542,2021-09-24 12:46:19.657
391,63.0,945.0,343.0,1007.29489227336,2021-09-24 12:46:19.666
392,-3.0,755.0,89.0,760.2335167565292,2021-09-24 12:46:19.676
393,-339.0,977.0,-242.0,1062.08003464899,2021-09-24 12:46:19.687
394,-10.0,977.0,-242.0,1006.5748854407208,2021-09-24 12:46:19.695
395,-10.0,1078.0,205.0,1097.3645702317897,2021-09-24 12:46:19.696
396,-652.0,779.0,24.0,1016.130405016994,2021-09-24 12:46:19.705
397,-372.0,919.0,124.0,999.1601473237412,2021-09-24 12:46:19.715
398,363.0,1128.0,57.0,1186.3397489758152,2021-09-24 12:46:19.725
399,-553.0,1170.0,-285.0,1325.1165986433043,2021-09-24 12:46:19.735
400,29.0,1166.0,321.0,1209.726415351835,2021-09-24 12:46:19.745
401,-428.0,837.0,-192.0,959.4878842382534,2021-09-24 12:46:19.754
402,-123.0,1060.0,212.0,1087.9673708342543,2021-09-24 12:46:19.764
403,-695.0,879.0,94.0,1124.5007781233412,2021-09-24 12:46:19.774
404,-239.0,908.0,55.0,940.5370806087338,2021-09-24 12:46:19.783
405,378.0,1123.0,69.0,1186.9178573094264,2021-09-24 12:46:19.794
406,-392.0,1223.0,-207.0,1300.8620218916378,2021-09-24 12:46:19.803
407,79.0,1116.0,187.0,1134.313007947983,2021-09-24 12:46:19.813
408,-497.0,979.0,-113.0,1103.729586447695,2021-09-24 12:46:19.822
409,-129.0,1161.0,-370.0,1225.3415850284362,2021-09-24 12:46:19.832
410,1.0,1021.0,30.0,1021.4411387838264,2021-09-24 12:46:19.843
411,-178.0,910.0,-125.0,935.6329408480656,2021-09-24 12:46:19.852
412,-40.0,1032.0,-125.0,1040.3119724390372,2021-09-24 12:46:19.861
413,-40.0,1032.0,-126.0,1040.4326023342403,2021-09-24 12:46:19.862
414,-51.0,1120.0,-30.0,1121.5618574113512,2021-09-24 12:46:19.871
415,-426.0,963.0,150.0,1063.647027918567,2021-09-24 12:46:19.881
416,-332.0,963.0,150.0,1029.6081779007002,2021-09-24 12:46:19.891
417,-332.0,993.0,-6.0,1047.0477544028256,2021-09-24 12:46:19.892
418,-305.0,991.0,-62.0,1038.7251802088942,2021-09-24 12:46:19.901
419,-314.0,1050.0,136.0,1104.3513933526774,2021-09-24 12:46:19.910
420,-291.0,937.0,-42.0,982.0458237780964,2021-09-24 12:46:19.920
421,-178.0,967.0,25.0,983.5639277647388,2021-09-24 12:46:19.930
422,-96.0,1045.0,-70.0,1051.7323804086284,2021-09-24 12:46:19.940
423,-142.0,884.0,-19.0,895.5339189556139,2021-09-24 12:46:19.949
424,-270.0,931.0,-20.0,969.5674293209318,2021-09-24 12:46:19.959
425,-188.0,988.0,-87.0,1009.4835313168808,2021-09-24 12:46:19.969
426,-175.0,1076.0,13.0,1090.2155750125753,2021-09-24 12:46:19.979
427,-164.0,971.0,-15.0,984.8664884135312,2021-09-24 12:46:19.988
