,Acceleration_X,Acceleration_Y,Acceleration_Z,magnitude,time_stamp
0,25.0,955.0,274.0,993.8440521530528,2021-09-24 12:47:02.605
1,733.0,1429.0,76.0,1607.8264831753456,2021-09-24 12:47:02.615
2,-174.0,1312.0,-341.0,1366.711747223971,2021-09-24 12:47:02.625
3,326.0,1113.0,56.0,1161.1119670384935,2021-09-24 12:47:02.642
4,-152.0,897.0,-102.0,915.487301932692,2021-09-24 12:47:02.644
5,-101.0,1161.0,-383.0,1226.7073815706824,2021-09-24 12:47:02.654
6,-76.0,841.0,-190.0,865.5385606661323,2021-09-24 12:47:02.664
7,-315.0,919.0,-172.0,986.5951550661496,2021-09-24 12:47:02.674
8,-108.0,965.0,-172.0,986.140456527365,2021-09-24 12:47:02.683
9,-108.0,965.0,-58.0,972.75536492995,2021-09-24 12:47:02.684
10,274.0,1069.0,22.0,1103.7757924506227,2021-09-24 12:47:02.693
11,-420.0,990.0,-44.0,1076.306647754254,2021-09-24 12:47:02.703
12,-79.0,846.0,222.0,878.2032794290852,2021-09-24 12:47:02.713
13,-302.0,1238.0,-141.0,1282.079950705103,2021-09-24 12:47:02.724
14,-217.0,882.0,60.0,910.281824491734,2021-09-24 12:47:02.733
15,-314.0,981.0,-148.0,1040.6060734014577,2021-09-24 12:47:02.742
16,-59.0,1032.0,95.0,1038.0414249922785,2021-09-24 12:47:02.752
17,187.0,1032.0,95.0,1053.099235589885,2021-09-24 12:47:02.761
18,187.0,984.0,87.0,1005.3825142700664,2021-09-24 12:47:02.762
19,-370.0,854.0,87.0,934.7646762688456,2021-09-24 12:47:02.772
20,-370.0,854.0,13.0,930.7980446906836,2021-09-24 12:47:02.773
21,-383.0,928.0,144.0,1014.2036284691552,2021-09-24 12:47:02.781
22,-248.0,1035.0,-130.0,1072.2075358809973,2021-09-24 12:47:02.791
23,-262.0,1035.0,-130.0,1075.5319614032862,2021-09-24 12:47:02.801
24,-262.0,935.0,65.0,973.1875461595264,2021-09-24 12:47:02.802
25,-24.0,1034.0,183.0,1050.343277219405,2021-09-24 12:47:02.810
26,-540.0,1034.0,183.0,1180.7815208581137,2021-09-24 12:47:02.821
27,-540.0,937.0,-174.0,1095.374365228619,2021-09-24 12:47:02.822
28,161.0,1460.0,-174.0,1479.1203466925874,2021-09-24 12:47:02.830
29,161.0,1460.0,206.0,1483.2252020512597,2021-09-24 12:47:02.831
30,-199.0,773.0,-215.0,826.6528896701444,2021-09-24 12:47:02.840
31,-230.0,773.0,-215.0,834.658013799664,2021-09-24 12:47:02.849
32,-230.0,785.0,-166.0,834.6741879320338,2021-09-24 12:47:02.850
33,-94.0,936.0,-166.0,955.2423776194188,2021-09-24 12:47:02.859
34,-94.0,936.0,-72.0,943.4595910795543,2021-09-24 12:47:02.860
35,-483.0,982.0,-72.0,1096.7210219559029,2021-09-24 12:47:02.869
36,-483.0,982.0,-15.0,1094.4578566578066,2021-09-24 12:47:02.870
37,-29.0,927.0,138.0,937.664118967981,2021-09-24 12:47:02.880
38,-439.0,1066.0,-101.0,1157.2717917585308,2021-09-24 12:47:02.889
39,87.0,1458.0,91.0,1463.4254336999886,2021-09-24 12:47:02.898
40,-272.0,737.0,-189.0,808.006188095116,2021-09-24 12:47:02.908
41,-251.0,980.0,-175.0,1026.6576839433872,2021-09-24 12:47:02.919
42,-153.0,819.0,-112.0,840.662833721106,2021-09-24 12:47:02.928
43,-241.0,1296.0,-112.0,1322.9667418344272,2021-09-24 12:47:02.937
44,-241.0,1296.0,-284.0,1348.4631993495411,2021-09-24 12:47:02.938
45,15.0,1003.0,-284.0,1042.5401670918968,2021-09-24 12:47:02.947
46,15.0,1003.0,211.0,1025.0634126726015,2021-09-24 12:47:02.948
47,82.0,771.0,211.0,803.5458916577198,2021-09-24 12:47:02.957
48,82.0,771.0,-4.0,775.3586267012188,2021-09-24 12:47:02.958
49,-318.0,1183.0,-175.0,1237.4320183347447,2021-09-24 12:47:02.967
50,36.0,1183.0,-175.0,1196.415479672509,2021-09-24 12:47:02.976
51,36.0,1124.0,192.0,1140.8488068100874,2021-09-24 12:47:02.977
52,-498.0,752.0,173.0,918.3882621201122,2021-09-24 12:47:02.987
53,-62.0,879.0,16.0,881.3291099243233,2021-09-24 12:47:02.996
54,-464.0,1220.0,-313.0,1342.2611519372822,2021-09-24 12:47:03.006
55,177.0,1220.0,-313.0,1271.8875736479226,2021-09-24 12:47:03.015
56,177.0,764.0,263.0,827.1602021374094,2021-09-24 12:47:03.016
57,27.0,801.0,263.0,843.5040011760466,2021-09-24 12:47:03.026
58,27.0,801.0,68.0,804.3345075278071,2021-09-24 12:47:03.027
59,-210.0,1070.0,68.0,1092.5310064249893,2021-09-24 12:47:03.035
60,-210.0,1070.0,-290.0,1128.3173312503889,2021-09-24 12:47:03.036
61,-84.0,1096.0,283.0,1135.0599103131076,2021-09-24 12:47:03.045
62,-415.0,1096.0,283.0,1205.6243195954537,2021-09-24 12:47:03.066
63,-415.0,836.0,135.0,943.0514301987988,2021-09-24 12:47:03.067
64,-196.0,960.0,-36.0,980.4651957106892,2021-09-24 12:47:03.071
65,388.0,1272.0,147.0,1337.9600143502048,2021-09-24 12:47:03.074
66,-600.0,1085.0,-84.0,1242.6910315923262,2021-09-24 12:47:03.084
67,-90.0,1063.0,197.0,1084.840080380514,2021-09-24 12:47:03.094
68,-423.0,669.0,197.0,815.6586295748976,2021-09-24 12:47:03.106
69,-423.0,669.0,-164.0,808.3229552598392,2021-09-24 12:47:03.107
70,-433.0,1127.0,-531.0,1318.9310065352167,2021-09-24 12:47:03.114
71,-523.0,690.0,92.0,870.685362229089,2021-09-24 12:47:03.124
72,-298.0,968.0,-47.0,1013.9215946018704,2021-09-24 12:47:03.133
73,304.0,968.0,-47.0,1015.7012356003116,2021-09-24 12:47:03.142
74,304.0,1243.0,100.0,1283.5361311626564,2021-09-24 12:47:03.143
75,-583.0,1128.0,-109.0,1274.4230066975408,2021-09-24 12:47:03.153
76,-105.0,1128.0,-109.0,1138.108079226222,2021-09-24 12:47:03.162
77,-105.0,1008.0,148.0,1024.2035930419304,2021-09-24 12:47:03.163
78,-259.0,642.0,-184.0,716.3106867833259,2021-09-24 12:47:03.172
79,-493.0,642.0,-184.0,830.1018009858791,2021-09-24 12:47:03.181
80,-493.0,1269.0,-544.0,1466.0648007506354,2021-09-24 12:47:03.182
81,64.0,1269.0,-544.0,1382.1696712053842,2021-09-24 12:47:03.191
82,64.0,889.0,232.0,921.0,2021-09-24 12:47:03.192
83,-27.0,916.0,-12.0,916.4764044971372,2021-09-24 12:47:03.201
84,-153.0,1169.0,46.0,1179.8669416506252,2021-09-24 12:47:03.212
85,370.0,1169.0,46.0,1227.0195597462985,2021-09-24 12:47:03.221
86,370.0,898.0,18.0,971.4051677853068,2021-09-24 12:47:03.222
87,-597.0,980.0,18.0,1147.6641494792805,2021-09-24 12:47:03.230
88,-597.0,980.0,87.0,1150.8162320718282,2021-09-24 12:47:03.231
89,-446.0,1043.0,87.0,1137.6880064411332,2021-09-24 12:47:03.241
90,-446.0,1043.0,91.0,1138.0008787342829,2021-09-24 12:47:03.242
91,213.0,912.0,-42.0,937.4843998702058,2021-09-24 12:47:03.250
92,-511.0,991.0,-122.0,1121.64432865325,2021-09-24 12:47:03.261
93,-271.0,997.0,-60.0,1034.9154554841666,2021-09-24 12:47:03.270
94,29.0,1028.0,-106.0,1033.8573402554146,2021-09-24 12:47:03.279
95,222.0,1045.0,112.0,1074.175497765612,2021-09-24 12:47:03.289
96,-533.0,1016.0,11.0,1147.3735224415805,2021-09-24 12:47:03.299
97,-192.0,951.0,185.0,987.6689728851464,2021-09-24 12:47:03.309
98,-28.0,1169.0,7.0,1169.3562331471107,2021-09-24 12:47:03.318
99,-342.0,945.0,7.0,1005.0064676408804,2021-09-24 12:47:03.328
100,-342.0,945.0,-284.0,1044.3395041843432,2021-09-24 12:47:03.329
101,-52.0,1048.0,239.0,1076.1640209559137,2021-09-24 12:47:03.338
102,-519.0,1137.0,-87.0,1252.8762907805385,2021-09-24 12:47:03.348
103,-54.0,1192.0,-87.0,1196.389986584642,2021-09-24 12:47:03.358
104,-54.0,1192.0,-209.0,1211.388046828926,2021-09-24 12:47:03.359
105,-278.0,676.0,-75.0,734.7686710795446,2021-09-24 12:47:03.367
106,-328.0,1008.0,-332.0,1110.797911413233,2021-09-24 12:47:03.378
107,264.0,1062.0,-2.0,1094.3235353404405,2021-09-24 12:47:03.387
108,-344.0,1062.0,-2.0,1116.326117225607,2021-09-24 12:47:03.396
109,-344.0,932.0,-238.0,1021.5693809037152,2021-09-24 12:47:03.397
110,-111.0,1152.0,252.0,1184.4530383261297,2021-09-24 12:47:03.407
111,-346.0,1043.0,-173.0,1112.4270762616306,2021-09-24 12:47:03.416
112,64.0,1282.0,-95.0,1287.107221640839,2021-09-24 12:47:03.427
113,-162.0,668.0,-95.0,693.8969664150435,2021-09-24 12:47:03.435
114,-162.0,668.0,-126.0,698.8161417712101,2021-09-24 12:47:03.436
115,-388.0,921.0,-389.0,1072.429951092378,2021-09-24 12:47:03.445
116,-55.0,921.0,-389.0,1001.2926645092332,2021-09-24 12:47:03.455
117,-55.0,1069.0,134.0,1078.7687425950012,2021-09-24 12:47:03.456
118,70.0,1027.0,-172.0,1043.653678190232,2021-09-24 12:47:03.465
119,32.0,1027.0,-172.0,1041.795085417473,2021-09-24 12:47:03.474
120,32.0,854.0,75.0,857.8840247958927,2021-09-24 12:47:03.475
121,-142.0,942.0,130.0,961.471788457675,2021-09-24 12:47:03.485
122,-428.0,1097.0,-133.0,1185.0240503888515,2021-09-24 12:47:03.494
123,-181.0,1036.0,-133.0,1060.0688656875082,2021-09-24 12:47:03.504
124,-181.0,1036.0,149.0,1062.1948973705344,2021-09-24 12:47:03.505
125,-139.0,1036.0,149.0,1055.8494210823817,2021-09-24 12:47:03.514
126,-139.0,772.0,130.0,795.1131994879722,2021-09-24 12:47:03.515
127,-291.0,1124.0,-222.0,1182.0917900061738,2021-09-24 12:47:03.523
128,182.0,1137.0,-77.0,1154.04592629583,2021-09-24 12:47:03.534
129,-279.0,911.0,31.0,953.2696365666956,2021-09-24 12:47:03.555
130,-279.0,793.0,154.0,854.6379350344799,2021-09-24 12:47:03.557
131,-367.0,1218.0,-125.0,1278.2167265374053,2021-09-24 12:47:03.572
132,-251.0,1005.0,-125.0,1043.3843970464577,2021-09-24 12:47:03.574
133,-251.0,1005.0,107.0,1041.3812942433717,2021-09-24 12:47:03.575
134,-47.0,842.0,99.0,849.1018784574676,2021-09-24 12:47:03.582
135,-367.0,1092.0,99.0,1156.267270141294,2021-09-24 12:47:03.593
136,-367.0,1092.0,-218.0,1172.4662042037714,2021-09-24 12:47:03.594
137,292.0,1447.0,-218.0,1492.1786086122531,2021-09-24 12:47:03.601
138,292.0,1447.0,276.0,1501.7486474107443,2021-09-24 12:47:03.602
139,-403.0,957.0,-72.0,1040.8852002022124,2021-09-24 12:47:03.611
140,-79.0,803.0,-171.0,824.7975509177994,2021-09-24 12:47:03.621
141,-63.0,682.0,-85.0,690.1579529354132,2021-09-24 12:47:03.631
142,-468.0,1236.0,-413.0,1384.662052632338,2021-09-24 12:47:03.647
143,24.0,800.0,309.0,857.9376434217116,2021-09-24 12:47:03.658
144,-123.0,808.0,-30.0,817.8587897675246,2021-09-24 12:47:03.660
145,218.0,1513.0,251.0,1549.0945742594286,2021-09-24 12:47:03.670
146,-601.0,1513.0,251.0,1647.2313134469002,2021-09-24 12:47:03.679
147,-601.0,807.0,-85.0,1009.7895820417242,2021-09-24 12:47:03.680
148,-46.0,807.0,-85.0,812.7668792464417,2021-09-24 12:47:03.690
149,-46.0,785.0,-144.0,799.4229168594055,2021-09-24 12:47:03.691
150,-188.0,841.0,-126.0,870.9196288980976,2021-09-24 12:47:03.699
151,-271.0,1138.0,-442.0,1250.5394835829854,2021-09-24 12:47:03.709
152,110.0,1138.0,-442.0,1225.7683304768484,2021-09-24 12:47:03.718
153,110.0,936.0,374.0,1013.9388541721833,2021-09-24 12:47:03.719
154,-111.0,813.0,-80.0,824.4331385867504,2021-09-24 12:47:03.729
155,-133.0,813.0,-80.0,827.6823062020839,2021-09-24 12:47:03.743
156,-133.0,930.0,-257.0,973.9804926177936,2021-09-24 12:47:03.744
157,-10.0,1192.0,306.0,1230.690862889621,2021-09-24 12:47:03.748
158,-658.0,795.0,32.0,1032.4790554776405,2021-09-24 12:47:03.758
159,-291.0,909.0,32.0,954.9795809335402,2021-09-24 12:47:03.767
160,-291.0,909.0,28.0,954.8539155284436,2021-09-24 12:47:03.768
161,300.0,1123.0,99.0,1166.5890450368545,2021-09-24 12:47:03.779
162,-436.0,1008.0,-288.0,1135.3871586379687,2021-09-24 12:47:03.787
163,-48.0,691.0,-61.0,695.3459570602248,2021-09-24 12:47:03.797
164,-160.0,691.0,-61.0,711.900273914823,2021-09-24 12:47:03.806
165,-160.0,1085.0,-83.0,1099.8699923172735,2021-09-24 12:47:03.807
166,92.0,1183.0,162.0,1197.5796424455452,2021-09-24 12:47:03.816
167,-590.0,799.0,63.0,995.223592967932,2021-09-24 12:47:03.827
168,-297.0,899.0,103.0,952.375451174588,2021-09-24 12:47:03.838
169,458.0,899.0,103.0,1014.1863734048096,2021-09-24 12:47:03.845
170,458.0,1078.0,11.0,1171.3108041847818,2021-09-24 12:47:03.846
171,-482.0,1195.0,-228.0,1308.5614238544556,2021-09-24 12:47:03.855
172,7.0,1121.0,288.0,1157.4255915608571,2021-09-24 12:47:03.865
173,-507.0,782.0,-146.0,943.3392814889032,2021-09-24 12:47:03.875
174,-365.0,1110.0,-146.0,1177.5572172934951,2021-09-24 12:47:03.886
175,-365.0,1110.0,-515.0,1276.9299119372215,2021-09-24 12:47:03.887
176,11.0,818.0,72.0,821.236263203227,2021-09-24 12:47:03.894
177,-262.0,969.0,-183.0,1020.3401393653,2021-09-24 12:47:03.904
178,-51.0,1148.0,102.0,1153.6502936332136,2021-09-24 12:47:03.914
179,328.0,925.0,19.0,981.6160145392902,2021-09-24 12:47:03.924
180,44.0,1151.0,313.0,1193.6104892300502,2021-09-24 12:47:03.934
181,-437.0,759.0,-194.0,897.042919820451,2021-09-24 12:47:03.944
182,-268.0,1120.0,-508.0,1258.685028114659,2021-09-24 12:47:03.953
183,-72.0,950.0,125.0,960.889691900168,2021-09-24 12:47:03.963
184,-220.0,1027.0,125.0,1057.7116809414558,2021-09-24 12:47:03.973
185,-220.0,1027.0,-181.0,1065.781403478218,2021-09-24 12:47:03.974
186,-64.0,1114.0,71.0,1118.0934665760285,2021-09-24 12:47:03.982
187,174.0,933.0,86.0,952.9748160366044,2021-09-24 12:47:03.993
188,-523.0,897.0,-157.0,1050.1366577736442,2021-09-24 12:47:04.002
189,-270.0,897.0,-157.0,949.8199829441368,2021-09-24 12:47:04.011
190,-270.0,936.0,196.0,993.6860671258304,2021-09-24 12:47:04.012
191,-67.0,908.0,-59.0,912.3782110506584,2021-09-24 12:47:04.022
192,-399.0,908.0,-59.0,993.5522130215402,2021-09-24 12:47:04.031
193,-399.0,875.0,-81.0,965.0839341736032,2021-09-24 12:47:04.032
194,102.0,1081.0,257.0,1115.8019537534428,2021-09-24 12:47:04.042
195,-321.0,1126.0,-183.0,1185.0763688471727,2021-09-24 12:47:04.051
196,325.0,899.0,58.0,957.700370679682,2021-09-24 12:47:04.060
197,-589.0,952.0,-59.0,1121.02899159656,2021-09-24 12:47:04.081
198,-391.0,952.0,-59.0,1030.856925087085,2021-09-24 12:47:04.085
199,-391.0,877.0,178.0,976.5725779479988,2021-09-24 12:47:04.086
200,-87.0,1020.0,-18.0,1023.8618070814048,2021-09-24 12:47:04.090
201,-291.0,989.0,-25.0,1031.2259694169848,2021-09-24 12:47:04.099
202,20.0,936.0,-25.0,936.5473826774596,2021-09-24 12:47:04.109
203,20.0,936.0,123.0,944.2589687156802,2021-09-24 12:47:04.110
204,-465.0,1308.0,123.0,1393.634815868203,2021-09-24 12:47:04.119
205,-465.0,1308.0,-120.0,1393.3732450424045,2021-09-24 12:47:04.120
206,133.0,1375.0,-70.0,1383.189791749491,2021-09-24 12:47:04.129
207,-245.0,1375.0,-70.0,1398.409811178397,2021-09-24 12:47:04.138
208,-245.0,641.0,-149.0,702.2157788030685,2021-09-24 12:47:04.139
209,-243.0,997.0,-276.0,1062.6542241011418,2021-09-24 12:47:04.148
210,-75.0,903.0,11.0,906.176031464086,2021-09-24 12:47:04.158
211,-173.0,1163.0,-155.0,1185.9692238839928,2021-09-24 12:47:04.168
212,40.0,839.0,219.0,868.0334094952798,2021-09-24 12:47:04.178
213,-411.0,1195.0,-199.0,1279.2759671001406,2021-09-24 12:47:04.188
214,32.0,1290.0,-83.0,1293.063416851625,2021-09-24 12:47:04.197
215,-361.0,737.0,7.0,820.6942183298235,2021-09-24 12:47:04.207
216,-254.0,737.0,7.0,779.5729600236273,2021-09-24 12:47:04.216
217,-254.0,943.0,-403.0,1056.4913629557034,2021-09-24 12:47:04.217
218,-93.0,877.0,-20.0,882.1439791780024,2021-09-24 12:47:04.227
219,-172.0,1267.0,-147.0,1287.0438997951858,2021-09-24 12:47:04.238
220,107.0,799.0,164.0,822.6457317703654,2021-09-24 12:47:04.246
221,20.0,758.0,106.0,765.6369897020389,2021-09-24 12:47:04.256
222,-392.0,1246.0,106.0,1310.5021938173168,2021-09-24 12:47:04.265
223,-392.0,1246.0,-253.0,1330.4844982186,2021-09-24 12:47:04.266
224,-39.0,1220.0,252.0,1246.3647138779245,2021-09-24 12:47:04.276
225,-417.0,769.0,139.0,885.7601255418987,2021-09-24 12:47:04.285
226,-274.0,908.0,-110.0,954.7984080422422,2021-09-24 12:47:04.295
227,249.0,908.0,-110.0,947.9266849287447,2021-09-24 12:47:04.304
228,249.0,1295.0,139.0,1326.026771977097,2021-09-24 12:47:04.305
229,-417.0,1094.0,49.0,1171.8045912181774,2021-09-24 12:47:04.314
230,-45.0,851.0,135.0,862.8157393093846,2021-09-24 12:47:04.324
231,-305.0,1076.0,-314.0,1161.6354849951856,2021-09-24 12:47:04.335
232,-332.0,1183.0,-314.0,1268.1912316366172,2021-09-24 12:47:04.344
233,-332.0,1183.0,299.0,1264.5607933191666,2021-09-24 12:47:04.345
234,-468.0,747.0,156.0,895.1921581425968,2021-09-24 12:47:04.354
235,-200.0,990.0,-138.0,1019.3841277948172,2021-09-24 12:47:04.363
236,430.0,1321.0,181.0,1400.9646676486884,2021-09-24 12:47:04.373
237,-644.0,980.0,-56.0,1173.998296421251,2021-09-24 12:47:04.384
238,-38.0,980.0,-56.0,982.3339554347084,2021-09-24 12:47:04.392
239,-38.0,976.0,166.0,990.745174098769,2021-09-24 12:47:04.393
240,-496.0,598.0,-116.0,785.5418512084509,2021-09-24 12:47:04.402
241,-455.0,1134.0,-529.0,1331.47361971614,2021-09-24 12:47:04.412
242,39.0,968.0,202.0,989.620634384712,2021-09-24 12:47:04.422
243,-189.0,876.0,-9.0,896.2019861616019,2021-09-24 12:47:04.432
244,-101.0,1008.0,-113.0,1019.3301722209542,2021-09-24 12:47:04.441
245,-675.0,1049.0,-141.0,1255.351345241642,2021-09-24 12:47:04.452
246,2.0,865.0,127.0,874.2757002227615,2021-09-24 12:47:04.461
247,-408.0,865.0,127.0,964.7890961241218,2021-09-24 12:47:04.470
248,-408.0,646.0,-94.0,769.8155623264576,2021-09-24 12:47:04.471
249,-455.0,1068.0,-570.0,1293.270659993491,2021-09-24 12:47:04.480
250,22.0,954.0,183.0,971.6424239400006,2021-09-24 12:47:04.491
251,-84.0,923.0,-91.0,931.27117425592,2021-09-24 12:47:04.501
252,-153.0,923.0,-91.0,940.01010632865,2021-09-24 12:47:04.509
253,-153.0,996.0,-78.0,1010.697284056903,2021-09-24 12:47:04.510
254,205.0,1129.0,152.0,1157.484341146782,2021-09-24 12:47:04.519
255,-578.0,829.0,-49.0,1011.7934571838266,2021-09-24 12:47:04.529
256,-220.0,932.0,217.0,981.8925603140092,2021-09-24 12:47:04.540
257,-24.0,1136.0,-39.0,1136.9226007077175,2021-09-24 12:47:04.549
258,-263.0,902.0,-39.0,940.3690764800808,2021-09-24 12:47:04.558
259,-263.0,902.0,-218.0,964.5190511337762,2021-09-24 12:47:04.559
260,-132.0,1102.0,292.0,1147.646286971731,2021-09-24 12:47:04.568
261,355.0,1036.0,66.0,1097.1221445217484,2021-09-24 12:47:04.593
262,355.0,1044.0,79.0,1105.5324509031836,2021-09-24 12:47:04.594
263,-622.0,888.0,79.0,1087.0459971868715,2021-09-24 12:47:04.597
264,-622.0,888.0,-81.0,1087.1931751073496,2021-09-24 12:47:04.598
265,-313.0,1038.0,162.0,1096.2011676695113,2021-09-24 12:47:04.607
266,20.0,948.0,-114.0,955.0392662084632,2021-09-24 12:47:04.617
267,-373.0,982.0,-157.0,1062.1214619806908,2021-09-24 12:47:04.627
268,36.0,1180.0,278.0,1212.839643151559,2021-09-24 12:47:04.637
269,-366.0,954.0,-142.0,1031.6181464088347,2021-09-24 12:47:04.646
270,-101.0,954.0,-142.0,969.783996568308,2021-09-24 12:47:04.666
271,-101.0,1292.0,-161.0,1305.904284394534,2021-09-24 12:47:04.667
272,-149.0,709.0,-121.0,734.522293739271,2021-09-24 12:47:04.669
273,-277.0,900.0,-250.0,974.2838395457456,2021-09-24 12:47:04.677
274,-232.0,1065.0,-250.0,1118.2794820616175,2021-09-24 12:47:04.685
275,-232.0,1065.0,137.0,1098.552684216829,2021-09-24 12:47:04.686
276,5.0,1013.0,-162.0,1025.8840090380588,2021-09-24 12:47:04.695
277,56.0,1090.0,243.0,1118.1614373604557,2021-09-24 12:47:04.705
278,-390.0,1049.0,-111.0,1124.6430544843995,2021-09-24 12:47:04.715
279,-137.0,1213.0,-111.0,1225.7483428501953,2021-09-24 12:47:04.725
280,-137.0,1213.0,-192.0,1235.7192237721315,2021-09-24 12:47:04.726
281,-111.0,632.0,-88.0,647.6797047924229,2021-09-24 12:47:04.735
282,-343.0,1023.0,-215.0,1100.1831665681857,2021-09-24 12:47:04.749
283,-83.0,981.0,47.0,985.6261968921078,2021-09-24 12:47:04.754
284,82.0,981.0,47.0,985.5424902052677,2021-09-24 12:47:04.763
285,82.0,1154.0,-190.0,1172.4077788892396,2021-09-24 12:47:04.764
286,-25.0,870.0,125.0,879.2894858918762,2021-09-24 12:47:04.774
287,-37.0,767.0,94.0,773.6239396502671,2021-09-24 12:47:04.784
288,-486.0,1140.0,-175.0,1251.5674172812269,2021-09-24 12:47:04.793
289,-231.0,1016.0,236.0,1068.3225168459196,2021-09-24 12:47:04.803
290,-189.0,730.0,85.0,758.8451752498661,2021-09-24 12:47:04.813
291,-171.0,1107.0,85.0,1123.3499009658567,2021-09-24 12:47:04.822
292,-171.0,1107.0,-67.0,1122.1314539749787,2021-09-24 12:47:04.823
293,4.0,1129.0,-107.0,1134.0661356376004,2021-09-24 12:47:04.832
294,-10.0,907.0,101.0,912.6609447105754,2021-09-24 12:47:04.842
295,-71.0,789.0,101.0,798.6006511392287,2021-09-24 12:47:04.851
296,-71.0,789.0,112.0,800.0662472570631,2021-09-24 12:47:04.852
297,-402.0,1126.0,-194.0,1211.2456398270335,2021-09-24 12:47:04.861
298,-284.0,1037.0,145.0,1084.9193518414168,2021-09-24 12:47:04.871
299,-134.0,729.0,114.0,749.9286632740477,2021-09-24 12:47:04.881
300,-260.0,1133.0,-173.0,1175.252313335311,2021-09-24 12:47:04.891
301,403.0,1493.0,193.0,1558.4309416846163,2021-09-24 12:47:04.900
302,-580.0,930.0,-120.0,1102.5878649794763,2021-09-24 12:47:04.910
303,-59.0,965.0,52.0,968.199359636227,2021-09-24 12:47:04.920
304,-274.0,595.0,-244.0,699.0257505986457,2021-09-24 12:47:04.930
305,-546.0,1268.0,-526.0,1477.3679297994795,2021-09-24 12:47:04.940
306,0.0,874.0,363.0,946.3852281180216,2021-09-24 12:47:04.949
307,34.0,777.0,56.0,779.7570134343134,2021-09-24 12:47:04.962
308,542.0,777.0,56.0,949.0147522562544,2021-09-24 12:47:04.968
309,542.0,1457.0,286.0,1580.6356316368424,2021-09-24 12:47:04.969
310,-564.0,1085.0,-40.0,1223.4872291936683,2021-09-24 12:47:04.978
311,80.0,803.0,-11.0,807.0501843132186,2021-09-24 12:47:04.988
312,-260.0,811.0,-81.0,855.5010227930765,2021-09-24 12:47:04.998
313,-453.0,1302.0,-540.0,1480.5448321479496,2021-09-24 12:47:05.008
314,86.0,801.0,287.0,855.1993919548821,2021-09-24 12:47:05.019
315,-35.0,928.0,68.0,931.1460680258496,2021-09-24 12:47:05.027
316,-37.0,1081.0,-182.0,1096.8381831428007,2021-09-24 12:47:05.037
317,145.0,1019.0,182.0,1045.2320316561295,2021-09-24 12:47:05.047
318,-934.0,934.0,182.0,1333.3551664879092,2021-09-24 12:47:05.056
319,-934.0,934.0,-25.0,1321.1120315855123,2021-09-24 12:47:05.057
320,-322.0,802.0,88.0,868.6955738347008,2021-09-24 12:47:05.068
321,115.0,1161.0,-41.0,1167.401815999958,2021-09-24 12:47:05.076
322,-128.0,1161.0,-41.0,1168.7540374261814,2021-09-24 12:47:05.098
323,-128.0,1001.0,-163.0,1022.2299154299878,2021-09-24 12:47:05.099
324,-128.0,870.0,35.0,880.0619296390454,2021-09-24 12:47:05.101
325,51.0,914.0,-208.0,938.7550266177008,2021-09-24 12:47:05.105
326,77.0,1140.0,160.0,1153.7456392116935,2021-09-24 12:47:05.115
327,-636.0,888.0,9.0,1092.3007827517108,2021-09-24 12:47:05.125
328,-311.0,863.0,70.0,919.9945652013386,2021-09-24 12:47:05.135
329,201.0,1200.0,8.0,1216.74360487327,2021-09-24 12:47:05.145
330,-394.0,1085.0,-229.0,1176.818592647142,2021-09-24 12:47:05.160
331,24.0,1150.0,263.0,1179.934320206002,2021-09-24 12:47:05.164
332,-328.0,877.0,-94.0,941.0361310810548,2021-09-24 12:47:05.174
333,-245.0,1126.0,-94.0,1156.1734298970894,2021-09-24 12:47:05.183
334,-245.0,1126.0,-383.0,1214.3269740889396,2021-09-24 12:47:05.184
335,-92.0,751.0,-53.0,758.4681931366667,2021-09-24 12:47:05.195
336,-413.0,930.0,-254.0,1048.8016971763536,2021-09-24 12:47:05.203
337,-20.0,1095.0,202.0,1113.6556918545336,2021-09-24 12:47:05.213
338,91.0,1056.0,202.0,1078.9907321196044,2021-09-24 12:47:05.222
339,91.0,1056.0,-74.0,1062.4937646875862,2021-09-24 12:47:05.223
340,61.0,1096.0,308.0,1140.0881544863098,2021-09-24 12:47:05.233
341,-269.0,884.0,-157.0,937.2651705894124,2021-09-24 12:47:05.244
342,-218.0,1162.0,-301.0,1219.9872950158128,2021-09-24 12:47:05.252
343,-10.0,1162.0,-301.0,1200.3936854215788,2021-09-24 12:47:05.261
344,-10.0,795.0,-7.0,795.093705169397,2021-09-24 12:47:05.262
345,-357.0,970.0,-7.0,1033.633397293257,2021-09-24 12:47:05.271
346,-357.0,970.0,-197.0,1052.215757342571,2021-09-24 12:47:05.272
347,-61.0,1017.0,112.0,1024.9653652685051,2021-09-24 12:47:05.282
348,206.0,1017.0,112.0,1043.6805066685877,2021-09-24 12:47:05.292
349,206.0,1038.0,-72.0,1060.6903412400814,2021-09-24 12:47:05.293
350,-298.0,1038.0,-72.0,1082.3271224542052,2021-09-24 12:47:05.300
351,-298.0,794.0,27.0,848.509870302049,2021-09-24 12:47:05.301
352,-148.0,896.0,27.0,908.5422389740612,2021-09-24 12:47:05.310
353,-148.0,896.0,284.0,951.5124802124247,2021-09-24 12:47:05.311
354,-387.0,1158.0,-137.0,1228.6179227082764,2021-09-24 12:47:05.320
355,-317.0,867.0,-46.0,924.2802605270764,2021-09-24 12:47:05.330
356,-74.0,968.0,147.0,981.8905234291652,2021-09-24 12:47:05.341
357,-114.0,1049.0,89.0,1058.923037807753,2021-09-24 12:47:05.351
358,271.0,900.0,-52.0,941.3527500358194,2021-09-24 12:47:05.359
359,-261.0,805.0,45.0,847.4497035222798,2021-09-24 12:47:05.369
360,-244.0,941.0,236.0,1000.3564364765192,2021-09-24 12:47:05.379
361,-364.0,941.0,236.0,1036.1819338320854,2021-09-24 12:47:05.388
362,-364.0,1052.0,-128.0,1120.5284467607237,2021-09-24 12:47:05.389
363,-296.0,985.0,109.0,1034.2736581775637,2021-09-24 12:47:05.399
364,47.0,907.0,139.0,918.7921418906454,2021-09-24 12:47:05.408
365,-456.0,991.0,-218.0,1112.448201041289,2021-09-24 12:47:05.418
366,231.0,1569.0,173.0,1595.321597672394,2021-09-24 12:47:05.428
367,-233.0,792.0,173.0,843.4939241037839,2021-09-24 12:47:05.437
368,-233.0,792.0,-170.0,842.8837405004323,2021-09-24 12:47:05.438
369,-113.0,820.0,-258.0,867.0253744845072,2021-09-24 12:47:05.448
370,-115.0,914.0,-258.0,956.6530196471446,2021-09-24 12:47:05.457
371,-115.0,914.0,-76.0,924.335977878174,2021-09-24 12:47:05.458
372,204.0,1396.0,-250.0,1432.8056392965516,2021-09-24 12:47:05.467
373,-133.0,1018.0,-250.0,1056.6517874872495,2021-09-24 12:47:05.476
374,-133.0,1018.0,-21.0,1026.8661061696407,2021-09-24 12:47:05.477
375,11.0,986.0,-75.0,988.9095004094156,2021-09-24 12:47:05.486
376,-345.0,977.0,57.0,1037.691187203592,2021-09-24 12:47:05.497
377,-412.0,789.0,127.0,899.1073350829699,2021-09-24 12:47:05.506
378,-565.0,789.0,127.0,978.7108868302222,2021-09-24 12:47:05.515
379,-565.0,989.0,27.0,1139.3309440193398,2021-09-24 12:47:05.516
380,-201.0,890.0,10.0,912.4697255251816,2021-09-24 12:47:05.525
381,-188.0,1078.0,-53.0,1095.5532848748162,2021-09-24 12:47:05.535
382,-208.0,990.0,18.0,1011.7746784734236,2021-09-24 12:47:05.546
383,-150.0,824.0,-79.0,841.2591752842877,2021-09-24 12:47:05.555
