,Acceleration_X,Acceleration_Y,Acceleration_Z,magnitude,time_stamp
0,-202.0,1039.0,52.0,1059.730626149872,2021-09-27 07:16:28.953
1,-187.0,1039.0,52.0,1056.973982650472,2021-09-27 07:16:28.963
2,-187.0,895.0,85.0,918.2695682641344,2021-09-27 07:16:28.964
3,20.0,895.0,85.0,899.2496872393117,2021-09-27 07:16:28.972
4,20.0,1201.0,-16.0,1201.2730747003363,2021-09-27 07:16:28.973
5,-254.0,767.0,-16.0,808.1218967457818,2021-09-27 07:16:28.982
6,-254.0,767.0,104.0,814.6293635758534,2021-09-27 07:16:28.983
7,-289.0,976.0,-219.0,1041.1810601427592,2021-09-27 07:16:28.992
8,-83.0,1033.0,17.0,1036.4685234004935,2021-09-27 07:16:29.002
9,-288.0,941.0,60.0,985.9132821906804,2021-09-27 07:16:29.012
10,-176.0,1160.0,-96.0,1177.1966700598502,2021-09-27 07:16:29.023
11,-294.0,833.0,28.0,883.8037112390964,2021-09-27 07:16:29.031
12,-246.0,971.0,-45.0,1002.6873889702612,2021-09-27 07:16:29.041
13,-279.0,971.0,-45.0,1011.2897705405708,2021-09-27 07:16:29.050
14,-279.0,971.0,126.0,1018.1149247506394,2021-09-27 07:16:29.051
15,-132.0,925.0,62.0,936.4256510796786,2021-09-27 07:16:29.060
16,-168.0,1194.0,9.0,1205.794758655054,2021-09-27 07:16:29.073
17,-143.0,853.0,-13.0,865.0011560685916,2021-09-27 07:16:29.080
18,-259.0,1041.0,-141.0,1081.9625686686209,2021-09-27 07:16:29.090
19,-219.0,1057.0,-141.0,1088.6188497357557,2021-09-27 07:16:29.099
20,-219.0,1057.0,30.0,1079.8657323945415,2021-09-27 07:16:29.100
21,-119.0,906.0,4.0,913.7904573806842,2021-09-27 07:16:29.109
22,-121.0,906.0,4.0,914.053061917086,2021-09-27 07:16:29.120
23,-121.0,1012.0,-125.0,1026.8446815365992,2021-09-27 07:16:29.121
24,-295.0,890.0,27.0,938.005330475259,2021-09-27 07:16:29.129
25,-247.0,870.0,27.0,904.7861625820766,2021-09-27 07:16:29.138
26,-247.0,870.0,-135.0,914.403630788942,2021-09-27 07:16:29.139
27,-74.0,1153.0,-26.0,1155.6647437730371,2021-09-27 07:16:29.148
28,-124.0,882.0,66.0,893.115893935384,2021-09-27 07:16:29.158
29,-163.0,1150.0,-86.0,1164.673774067228,2021-09-27 07:16:29.169
30,-328.0,1150.0,-86.0,1198.9495402226066,2021-09-27 07:16:29.177
31,-328.0,905.0,-25.0,962.9299039909396,2021-09-27 07:16:29.178
32,-204.0,854.0,-25.0,878.3831737914837,2021-09-27 07:16:29.187
33,-204.0,854.0,-105.0,884.2833256372078,2021-09-27 07:16:29.188
34,-28.0,954.0,25.0,954.7381840064846,2021-09-27 07:16:29.197
35,-195.0,956.0,33.0,976.2427976686948,2021-09-27 07:16:29.207
36,-98.0,1122.0,-92.0,1130.0230086153113,2021-09-27 07:16:29.217
37,-136.0,841.0,49.0,853.3334635416568,2021-09-27 07:16:29.228
38,-226.0,1039.0,49.0,1064.4237877837943,2021-09-27 07:16:29.236
39,-226.0,1039.0,-153.0,1074.2467128178705,2021-09-27 07:16:29.237
40,-54.0,1142.0,-28.0,1143.618817613631,2021-09-27 07:16:29.246
41,-187.0,976.0,-27.0,994.1197111012336,2021-09-27 07:16:29.256
42,-101.0,1151.0,-27.0,1155.7382921751791,2021-09-27 07:16:29.265
43,-101.0,1151.0,-38.0,1156.0475768756232,2021-09-27 07:16:29.266
44,-241.0,1020.0,-38.0,1048.7730927135765,2021-09-27 07:16:29.277
45,-241.0,1020.0,-44.0,1049.0076262830505,2021-09-27 07:16:29.278
46,-209.0,989.0,-45.0,1011.8433673252002,2021-09-27 07:16:29.285
47,-85.0,1126.0,-55.0,1130.5423477251968,2021-09-27 07:16:29.295
48,-259.0,1126.0,-55.0,1156.7117186230976,2021-09-27 07:16:29.304
49,-259.0,934.0,66.0,971.4900925897288,2021-09-27 07:16:29.305
50,-88.0,1107.0,-60.0,1112.111954795919,2021-09-27 07:16:29.314
51,-162.0,959.0,114.0,979.2451174246416,2021-09-27 07:16:29.325
52,-261.0,990.0,-66.0,1025.9517532515845,2021-09-27 07:16:29.334
53,-17.0,990.0,-66.0,992.3431866043118,2021-09-27 07:16:29.343
54,-17.0,1127.0,-49.0,1128.1928026716,2021-09-27 07:16:29.344
55,-333.0,951.0,34.0,1008.1894663206912,2021-09-27 07:16:29.353
56,-239.0,1074.0,-74.0,1102.756999524374,2021-09-27 07:16:29.363
57,-251.0,882.0,118.0,924.5804453913136,2021-09-27 07:16:29.374
58,-111.0,902.0,1.0,908.8047094948396,2021-09-27 07:16:29.384
59,-78.0,1121.0,1.0,1123.7108168919617,2021-09-27 07:16:29.392
60,-78.0,1121.0,-122.0,1130.3136732783514,2021-09-27 07:16:29.393
61,-162.0,915.0,-56.0,930.916215349158,2021-09-27 07:16:29.402
62,-140.0,1115.0,-121.0,1130.250414731178,2021-09-27 07:16:29.412
63,-192.0,844.0,120.0,873.842090998139,2021-09-27 07:16:29.422
64,-165.0,956.0,-46.0,971.2244848643388,2021-09-27 07:16:29.432
65,-82.0,1111.0,-11.0,1114.0762990029004,2021-09-27 07:16:29.441
66,-36.0,1111.0,-11.0,1111.6375308525708,2021-09-27 07:16:29.459
67,-36.0,930.0,22.0,930.9564973724604,2021-09-27 07:16:29.460
68,-134.0,1097.0,-67.0,1107.182911717843,2021-09-27 07:16:29.463
69,-236.0,893.0,53.0,925.1778207458284,2021-09-27 07:16:29.473
70,-122.0,876.0,-115.0,891.8996580333462,2021-09-27 07:16:29.480
71,-10.0,1064.0,-93.0,1068.1034594083103,2021-09-27 07:16:29.490
72,-138.0,912.0,82.0,926.0194382409044,2021-09-27 07:16:29.500
73,-301.0,979.0,-153.0,1035.59210116725,2021-09-27 07:16:29.510
74,-126.0,1043.0,24.0,1050.8572690903366,2021-09-27 07:16:29.520
75,-255.0,855.0,6.0,892.2365157288733,2021-09-27 07:16:29.529
76,-228.0,1124.0,-211.0,1166.1393570238508,2021-09-27 07:16:29.539
77,-215.0,866.0,32.0,892.8633714068463,2021-09-27 07:16:29.549
78,-284.0,1089.0,32.0,1125.8778797009911,2021-09-27 07:16:29.558
79,-284.0,1089.0,-197.0,1142.534900998652,2021-09-27 07:16:29.559
80,-271.0,986.0,32.0,1023.0645140947856,2021-09-27 07:16:29.569
81,-260.0,986.0,32.0,1020.2058615789266,2021-09-27 07:16:29.578
82,-260.0,996.0,11.0,1029.4352820843085,2021-09-27 07:16:29.579
83,-111.0,1231.0,-106.0,1240.531337774262,2021-09-27 07:16:29.589
84,-250.0,1231.0,-106.0,1260.5939076482955,2021-09-27 07:16:29.597
85,-250.0,880.0,18.0,914.9994535517494,2021-09-27 07:16:29.598
86,-257.0,1085.0,-186.0,1130.4291220594062,2021-09-27 07:16:29.607
87,-186.0,947.0,47.0,966.23703096083,2021-09-27 07:16:29.618
88,-162.0,1027.0,-52.0,1040.9980787686402,2021-09-27 07:16:29.628
89,-108.0,1131.0,-81.0,1139.0285334441803,2021-09-27 07:16:29.637
90,-221.0,941.0,78.0,969.745327392713,2021-09-27 07:16:29.653
91,-174.0,975.0,-40.0,991.2118845130944,2021-09-27 07:16:29.659
92,-26.0,1151.0,-31.0,1151.7109012247822,2021-09-27 07:16:29.668
93,-299.0,1151.0,-31.0,1189.6062373743675,2021-09-27 07:16:29.675
94,-299.0,856.0,3.0,906.7226698390198,2021-09-27 07:16:29.676
95,-173.0,1061.0,-96.0,1079.2895811597552,2021-09-27 07:16:29.686
96,-268.0,846.0,120.0,895.5110272911216,2021-09-27 07:16:29.695
97,-288.0,917.0,-96.0,965.944615389516,2021-09-27 07:16:29.705
98,-105.0,1027.0,37.0,1033.0164567905006,2021-09-27 07:16:29.716
99,-239.0,878.0,37.0,910.6997309761324,2021-09-27 07:16:29.725
100,-239.0,878.0,86.0,914.0027352256666,2021-09-27 07:16:29.726
101,-159.0,1053.0,-184.0,1080.715503728895,2021-09-27 07:16:29.734
102,-256.0,765.0,19.0,806.92130967028,2021-09-27 07:16:29.744
103,-223.0,955.0,-191.0,999.1171102528472,2021-09-27 07:16:29.754
104,-259.0,944.0,79.0,982.06822573587,2021-09-27 07:16:29.764
105,-157.0,933.0,33.0,946.6926639622808,2021-09-27 07:16:29.774
106,-165.0,1105.0,-112.0,1122.8508360419028,2021-09-27 07:16:29.783
107,-77.0,952.0,46.0,956.2159797869936,2021-09-27 07:16:29.793
108,-142.0,952.0,46.0,963.6306346313404,2021-09-27 07:16:29.802
109,-142.0,969.0,-105.0,984.9619281982426,2021-09-27 07:16:29.803
110,-70.0,1004.0,-91.0,1010.5429233832672,2021-09-27 07:16:29.812
111,-244.0,941.0,7.0,972.1450509054706,2021-09-27 07:16:29.823
112,-53.0,1118.0,7.0,1119.277445497764,2021-09-27 07:16:29.832
113,-53.0,1118.0,-61.0,1120.916589225086,2021-09-27 07:16:29.833
114,-162.0,999.0,101.0,1017.077184878316,2021-09-27 07:16:29.842
115,-201.0,976.0,101.0,1001.587739541574,2021-09-27 07:16:29.851
116,-201.0,976.0,-132.0,1005.1870472703076,2021-09-27 07:16:29.852
117,38.0,1124.0,-19.0,1124.802649356766,2021-09-27 07:16:29.861
118,-254.0,905.0,7.0,939.994680836014,2021-09-27 07:16:29.872
119,-162.0,1048.0,-120.0,1067.215067359902,2021-09-27 07:16:29.881
120,-177.0,913.0,48.0,931.2368119871552,2021-09-27 07:16:29.904
121,-177.0,962.0,-136.0,987.5570869575084,2021-09-27 07:16:29.905
122,-184.0,1204.0,-155.0,1227.801694085816,2021-09-27 07:16:29.911
123,-279.0,924.0,-15.0,965.3196361827517,2021-09-27 07:16:29.920
124,-253.0,924.0,-15.0,958.1283838818262,2021-09-27 07:16:29.929
125,-253.0,1118.0,-170.0,1158.8067138224562,2021-09-27 07:16:29.930
126,-167.0,974.0,67.0,990.4817009919972,2021-09-27 07:16:29.940
127,-174.0,998.0,-15.0,1013.1658304542252,2021-09-27 07:16:29.950
128,-91.0,998.0,-15.0,1002.2524632047556,2021-09-27 07:16:29.963
129,-91.0,1177.0,-49.0,1181.5290940133468,2021-09-27 07:16:29.964
130,-149.0,1177.0,-49.0,1187.4051541070553,2021-09-27 07:16:29.968
131,-149.0,948.0,60.0,961.5118304004376,2021-09-27 07:16:29.969
132,-150.0,1178.0,-38.0,1188.119522607048,2021-09-27 07:16:29.978
133,-246.0,888.0,123.0,929.6176633433768,2021-09-27 07:16:29.988
134,-112.0,888.0,123.0,903.4472867854548,2021-09-27 07:16:29.999
135,-112.0,914.0,-71.0,923.5697050033637,2021-09-27 07:16:30.000
136,29.0,914.0,-71.0,917.2120801646696,2021-09-27 07:16:30.008
137,29.0,1130.0,-42.0,1131.1520675841953,2021-09-27 07:16:30.009
138,-199.0,933.0,-42.0,954.9104670072478,2021-09-27 07:16:30.017
139,-199.0,933.0,26.0,954.3406100549216,2021-09-27 07:16:30.018
140,-146.0,1117.0,-12.0,1126.5651334920676,2021-09-27 07:16:30.027
141,-166.0,1011.0,27.0,1024.8931651640576,2021-09-27 07:16:30.037
142,-253.0,761.0,28.0,802.4425213060434,2021-09-27 07:16:30.047
143,-145.0,1085.0,-244.0,1121.5105884475634,2021-09-27 07:16:30.060
144,-280.0,831.0,-10.0,876.9612306139878,2021-09-27 07:16:30.067
145,-243.0,922.0,-244.0,984.2098353501656,2021-09-27 07:16:30.076
146,-218.0,958.0,39.0,983.2644608649292,2021-09-27 07:16:30.086
147,-275.0,832.0,-5.0,876.2842004737961,2021-09-27 07:16:30.096
148,-167.0,1192.0,-217.0,1223.0461970015688,2021-09-27 07:16:30.107
149,-237.0,808.0,-217.0,869.5527586064,2021-09-27 07:16:30.115
150,-237.0,808.0,4.0,842.0504735465684,2021-09-27 07:16:30.116
151,-211.0,1062.0,-178.0,1097.2916658755776,2021-09-27 07:16:30.125
152,-155.0,983.0,73.0,997.8191218853244,2021-09-27 07:16:30.135
153,-104.0,973.0,-45.0,979.5764390796668,2021-09-27 07:16:30.144
154,-126.0,1159.0,-91.0,1169.375046766434,2021-09-27 07:16:30.155
155,-185.0,889.0,-43.0,909.062704107918,2021-09-27 07:16:30.164
156,-149.0,1151.0,-46.0,1161.515389480484,2021-09-27 07:16:30.174
157,28.0,1212.0,-61.0,1213.8570756065146,2021-09-27 07:16:30.183
158,-318.0,918.0,34.0,972.1131621370014,2021-09-27 07:16:30.193
159,-230.0,918.0,34.0,946.9846883661849,2021-09-27 07:16:30.203
160,-230.0,1088.0,-101.0,1116.6221384156772,2021-09-27 07:16:30.204
161,-194.0,928.0,97.0,953.0104931216656,2021-09-27 07:16:30.213
162,-274.0,985.0,-132.0,1030.8855416582387,2021-09-27 07:16:30.223
163,-256.0,1117.0,-27.0,1146.2783257132623,2021-09-27 07:16:30.232
164,-308.0,917.0,65.0,969.5246257831722,2021-09-27 07:16:30.242
165,-234.0,1154.0,-216.0,1197.1332423753006,2021-09-27 07:16:30.252
166,-303.0,837.0,1.0,890.1567277732613,2021-09-27 07:16:30.264
167,-343.0,1003.0,-171.0,1073.7313444246656,2021-09-27 07:16:30.271
168,-181.0,1001.0,7.0,1017.2566047954664,2021-09-27 07:16:30.281
169,-313.0,845.0,-28.0,901.542012332204,2021-09-27 07:16:30.291
170,-269.0,1205.0,-197.0,1250.2779690932732,2021-09-27 07:16:30.301
171,-171.0,897.0,115.0,920.3667747153848,2021-09-27 07:16:30.311
172,-107.0,888.0,-8.0,894.4590544010385,2021-09-27 07:16:30.320
173,39.0,1012.0,-8.0,1012.7828000119276,2021-09-27 07:16:30.330
174,39.0,1012.0,-18.0,1012.9111510887814,2021-09-27 07:16:30.331
175,-145.0,866.0,-9.0,878.1013608917823,2021-09-27 07:16:30.340
176,-22.0,1077.0,-9.0,1077.2622707586115,2021-09-27 07:16:30.349
177,-22.0,1077.0,-2.0,1077.2265314222443,2021-09-27 07:16:30.350
178,-122.0,907.0,162.0,929.3960404477738,2021-09-27 07:16:30.360
179,-61.0,970.0,-76.0,974.8830699114636,2021-09-27 07:16:30.382
180,-61.0,970.0,-76.0,974.8830699114636,2021-09-27 07:16:30.383
181,-61.0,1093.0,0.0,1094.7008723847807,2021-09-27 07:16:30.384
182,-220.0,855.0,0.0,882.8504969699003,2021-09-27 07:16:30.393
183,-220.0,855.0,28.0,883.2944016577939,2021-09-27 07:16:30.394
184,-97.0,972.0,-30.0,977.2885960656656,2021-09-27 07:16:30.433
185,-309.0,866.0,15.0,919.5988255755876,2021-09-27 07:16:30.440
186,-166.0,1076.0,-197.0,1106.4090563620673,2021-09-27 07:16:30.447
187,-200.0,1007.0,48.0,1027.790348271475,2021-09-27 07:16:30.457
188,-160.0,954.0,-81.0,970.7095343098264,2021-09-27 07:16:30.475
189,-100.0,1243.0,-76.0,1249.3298203436914,2021-09-27 07:16:30.477
190,-145.0,999.0,87.0,1013.2102447172553,2021-09-27 07:16:30.486
191,-201.0,1222.0,-88.0,1241.5429916035932,2021-09-27 07:16:30.496
192,-280.0,874.0,63.0,919.9157570125648,2021-09-27 07:16:30.509
193,-200.0,986.0,63.0,1008.050097961406,2021-09-27 07:16:30.515
194,-200.0,986.0,-64.0,1008.1130888942968,2021-09-27 07:16:30.516
195,84.0,1105.0,-99.0,1112.6014560479416,2021-09-27 07:16:30.525
196,-142.0,935.0,-14.0,945.8250366743312,2021-09-27 07:16:30.535
197,-174.0,1111.0,-55.0,1125.8872057182282,2021-09-27 07:16:30.545
198,-155.0,1111.0,-55.0,1123.1077419375222,2021-09-27 07:16:30.555
199,-155.0,1000.0,72.0,1014.4993839327848,2021-09-27 07:16:30.556
200,-167.0,861.0,51.0,878.5277457200768,2021-09-27 07:16:30.564
201,-201.0,1151.0,-165.0,1180.0114406225052,2021-09-27 07:16:30.574
202,-264.0,806.0,31.0,848.7007717682363,2021-09-27 07:16:30.584
203,-325.0,1006.0,-164.0,1069.839707619791,2021-09-27 07:16:30.594
204,-258.0,978.0,62.0,1013.3567979739416,2021-09-27 07:16:30.604
205,-296.0,893.0,0.0,940.7789325872473,2021-09-27 07:16:30.615
206,-184.0,1188.0,-157.0,1212.373292348524,2021-09-27 07:16:30.623
207,-254.0,1188.0,-157.0,1224.9526521461962,2021-09-27 07:16:30.632
208,-254.0,865.0,11.0,901.5885979758174,2021-09-27 07:16:30.633
209,-307.0,1059.0,-143.0,1111.835869182138,2021-09-27 07:16:30.642
210,-229.0,973.0,55.0,1001.0968984069424,2021-09-27 07:16:30.652
211,-191.0,1042.0,-11.0,1059.4177646235692,2021-09-27 07:16:30.669
212,-27.0,1042.0,-11.0,1042.4077896869344,2021-09-27 07:16:30.675
213,-27.0,1090.0,-40.0,1091.0678255727275,2021-09-27 07:16:30.676
214,-233.0,929.0,-40.0,958.6083663311102,2021-09-27 07:16:30.681
215,-233.0,929.0,3.0,957.7781580303448,2021-09-27 07:16:30.682
216,-120.0,1120.0,-74.0,1128.8383409505543,2021-09-27 07:16:30.691
217,-17.0,1076.0,-7.0,1076.1570517354796,2021-09-27 07:16:30.702
218,-230.0,876.0,25.0,906.0358712545546,2021-09-27 07:16:30.711
219,-222.0,876.0,25.0,904.0381629112788,2021-09-27 07:16:30.720
220,-222.0,1051.0,-64.0,1076.095256006642,2021-09-27 07:16:30.721
221,-153.0,855.0,46.0,869.798827315834,2021-09-27 07:16:30.730
222,-199.0,943.0,-122.0,971.4597263911664,2021-09-27 07:16:30.740
223,-181.0,1055.0,-26.0,1070.729657756803,2021-09-27 07:16:30.751
224,-234.0,888.0,41.0,919.228480846846,2021-09-27 07:16:30.760
225,-201.0,1052.0,-160.0,1082.9150474529386,2021-09-27 07:16:30.769
226,-295.0,844.0,18.0,894.2510833093802,2021-09-27 07:16:30.779
227,-206.0,979.0,-169.0,1014.6122412035052,2021-09-27 07:16:30.789
228,-176.0,951.0,41.0,968.0175618241644,2021-09-27 07:16:30.799
229,-279.0,829.0,41.0,875.6500442528396,2021-09-27 07:16:30.808
230,-279.0,829.0,-75.0,877.8991969468932,2021-09-27 07:16:30.809
231,-182.0,1075.0,-207.0,1109.7738508362863,2021-09-27 07:16:30.818
232,-152.0,948.0,65.0,962.3060843619352,2021-09-27 07:16:30.828
233,-160.0,996.0,-29.0,1009.186305892029,2021-09-27 07:16:30.838
234,-4.0,996.0,-29.0,996.4301280069768,2021-09-27 07:16:30.847
235,-4.0,1136.0,-38.0,1136.6424239839018,2021-09-27 07:16:30.848
236,-134.0,916.0,105.0,931.6850326156368,2021-09-27 07:16:30.859
237,-142.0,1127.0,-42.0,1136.686852215684,2021-09-27 07:16:30.868
238,-163.0,928.0,61.0,944.1790084512576,2021-09-27 07:16:30.877
239,-246.0,928.0,61.0,961.9880456637702,2021-09-27 07:16:30.886
240,-246.0,1026.0,-46.0,1056.0814362538526,2021-09-27 07:16:30.887
241,-38.0,1125.0,-23.0,1125.8765474065085,2021-09-27 07:16:30.896
242,-230.0,951.0,103.0,983.8241712826537,2021-09-27 07:16:30.919
243,-230.0,1066.0,-84.0,1093.7604856640232,2021-09-27 07:16:30.921
244,-177.0,1066.0,-84.0,1083.8546950583366,2021-09-27 07:16:30.925
245,-177.0,1023.0,60.0,1039.9317285283682,2021-09-27 07:16:30.926
246,-179.0,973.0,-49.0,990.5407614025784,2021-09-27 07:16:30.936
247,-121.0,1136.0,-20.0,1142.6009802201293,2021-09-27 07:16:30.945
248,-270.0,933.0,56.0,972.8951639308318,2021-09-27 07:16:30.955
249,-174.0,1100.0,-151.0,1123.8669850120164,2021-09-27 07:16:30.965
250,-202.0,978.0,118.0,1005.5903738600524,2021-09-27 07:16:30.975
251,-195.0,978.0,118.0,1004.207647849786,2021-09-27 07:16:30.989
252,-195.0,972.0,-49.0,992.5774528972538,2021-09-27 07:16:30.990
253,-49.0,1109.0,-61.0,1111.7567179918456,2021-09-27 07:16:30.994
254,-168.0,932.0,29.0,947.4645112087312,2021-09-27 07:16:31.004
255,-112.0,1099.0,29.0,1105.0728482774336,2021-09-27 07:16:31.013
256,-112.0,1099.0,-61.0,1106.375162411015,2021-09-27 07:16:31.014
257,-253.0,855.0,101.0,897.3488730700005,2021-09-27 07:16:31.024
258,-182.0,917.0,-56.0,936.5623310810658,2021-09-27 07:16:31.033
259,62.0,1106.0,-116.0,1113.7935176683334,2021-09-27 07:16:31.043
260,-165.0,1106.0,-116.0,1124.2406326049595,2021-09-27 07:16:31.052
261,-165.0,936.0,52.0,951.853455107455,2021-09-27 07:16:31.053
262,-162.0,1071.0,-76.0,1085.8457533185826,2021-09-27 07:16:31.062
263,-121.0,976.0,106.0,989.1678320689568,2021-09-27 07:16:31.072
264,-152.0,896.0,-76.0,911.973683830844,2021-09-27 07:16:31.082
265,-103.0,1087.0,-64.0,1093.7431142640396,2021-09-27 07:16:31.093
266,-245.0,856.0,17.0,890.5335479362919,2021-09-27 07:16:31.102
267,-171.0,990.0,-138.0,1014.0931909839452,2021-09-27 07:16:31.111
268,-201.0,961.0,74.0,984.5801135509492,2021-09-27 07:16:31.121
269,-229.0,850.0,-28.0,880.7525191562042,2021-09-27 07:16:31.131
270,-123.0,1091.0,-28.0,1098.2686374471411,2021-09-27 07:16:31.141
271,-123.0,1091.0,-120.0,1104.4500894110154,2021-09-27 07:16:31.142
272,-289.0,829.0,19.0,878.1360942359674,2021-09-27 07:16:31.150
273,-224.0,991.0,-175.0,1030.9616869699862,2021-09-27 07:16:31.160
274,-208.0,1014.0,87.0,1038.763206895585,2021-09-27 07:16:31.170
275,-131.0,993.0,-6.0,1001.6216850687688,2021-09-27 07:16:31.180
276,-93.0,1196.0,-83.0,1202.4782742320128,2021-09-27 07:16:31.190
277,-252.0,914.0,-1.0,948.1038972602106,2021-09-27 07:16:31.199
278,-118.0,1148.0,-110.0,1159.279086329086,2021-09-27 07:16:31.209
279,-235.0,879.0,97.0,915.0273219964528,2021-09-27 07:16:31.219
280,-236.0,990.0,75.0,1020.5003674668618,2021-09-27 07:16:31.229
281,-244.0,1105.0,-47.0,1132.594366929308,2021-09-27 07:16:31.238
282,-160.0,916.0,90.0,934.2141082214504,2021-09-27 07:16:31.249
283,-241.0,955.0,-81.0,988.2646406707062,2021-09-27 07:16:31.258
284,-194.0,1053.0,6.0,1070.738530174384,2021-09-27 07:16:31.267
285,-232.0,871.0,76.0,904.5667471226212,2021-09-27 07:16:31.277
286,-236.0,1147.0,76.0,1173.4909458534394,2021-09-27 07:16:31.287
287,-236.0,1147.0,-181.0,1184.9329094931916,2021-09-27 07:16:31.288
288,-299.0,865.0,29.0,915.678437007228,2021-09-27 07:16:31.297
289,-207.0,935.0,29.0,958.078806779484,2021-09-27 07:16:31.306
290,-207.0,935.0,-136.0,967.2486753674052,2021-09-27 07:16:31.307
291,-209.0,1033.0,39.0,1054.652075331007,2021-09-27 07:16:31.316
292,-293.0,811.0,15.0,862.4355048349993,2021-09-27 07:16:31.326
293,-172.0,1108.0,-167.0,1133.6388313744374,2021-09-27 07:16:31.337
294,-174.0,1108.0,-167.0,1133.9440021447267,2021-09-27 07:16:31.345
295,-174.0,823.0,0.0,841.1926057687383,2021-09-27 07:16:31.346
296,-87.0,929.0,-64.0,935.2571838804554,2021-09-27 07:16:31.355
297,66.0,1058.0,-64.0,1061.9868172439806,2021-09-27 07:16:31.365
298,66.0,1058.0,-21.0,1060.2645896190252,2021-09-27 07:16:31.366
299,-208.0,932.0,23.0,955.2052135536112,2021-09-27 07:16:31.375
300,21.0,1040.0,-81.0,1043.3609155033555,2021-09-27 07:16:31.385
301,-116.0,935.0,138.0,952.2210877732124,2021-09-27 07:16:31.394
302,-214.0,902.0,-35.0,927.6987657639736,2021-09-27 07:16:31.405
303,-56.0,1068.0,-52.0,1070.7305916989576,2021-09-27 07:16:31.414
304,-240.0,837.0,11.0,870.7984841511841,2021-09-27 07:16:31.424
305,-63.0,1048.0,-101.0,1054.7388302323943,2021-09-27 07:16:31.433
306,-171.0,997.0,79.0,1014.6383592196778,2021-09-27 07:16:31.444
307,-199.0,949.0,-89.0,973.7160777146488,2021-09-27 07:16:31.453
308,-116.0,1094.0,-8.0,1100.1618062812397,2021-09-27 07:16:31.463
309,-226.0,824.0,-8.0,854.4682557005848,2021-09-27 07:16:31.472
310,-226.0,824.0,53.0,856.0730109050279,2021-09-27 07:16:31.473
311,-169.0,1098.0,-105.0,1115.8808180088051,2021-09-27 07:16:31.490
312,-244.0,1024.0,72.0,1055.128428201989,2021-09-27 07:16:31.494
313,-198.0,982.0,-49.0,1002.9601188482022,2021-09-27 07:16:31.502
314,-124.0,982.0,-49.0,991.010090765982,2021-09-27 07:16:31.511
315,-124.0,1194.0,-116.0,1206.0132669253685,2021-09-27 07:16:31.512
316,-177.0,948.0,41.0,965.2533346225746,2021-09-27 07:16:31.523
317,-100.0,1086.0,-72.0,1092.9684350428424,2021-09-27 07:16:31.531
318,-277.0,880.0,42.0,923.5220625410094,2021-09-27 07:16:31.541
319,-217.0,880.0,42.0,907.3329047268152,2021-09-27 07:16:31.550
320,-217.0,909.0,-75.0,937.54733213849,2021-09-27 07:16:31.551
321,38.0,909.0,-75.0,912.8800578389256,2021-09-27 07:16:31.560
322,38.0,1176.0,-119.0,1182.6161676554232,2021-09-27 07:16:31.561
323,-189.0,932.0,-22.0,951.2249996714762,2021-09-27 07:16:31.571
324,-119.0,1169.0,-30.0,1175.4241787542062,2021-09-27 07:16:31.580
325,-141.0,939.0,72.0,952.2531176110688,2021-09-27 07:16:31.592
326,-252.0,945.0,72.0,980.6696691547056,2021-09-27 07:16:31.599
327,-252.0,945.0,-26.0,978.3685399684516,2021-09-27 07:16:31.600
328,-89.0,1107.0,-40.0,1111.292040824553,2021-09-27 07:16:31.611
329,-249.0,847.0,8.0,882.8782475517222,2021-09-27 07:16:31.619
330,-226.0,997.0,-166.0,1035.683832064593,2021-09-27 07:16:31.629
331,-295.0,955.0,-166.0,1013.2156729936625,2021-09-27 07:16:31.638
332,-295.0,955.0,81.0,1002.8015755871148,2021-09-27 07:16:31.639
333,-211.0,810.0,-1.0,837.0316600941687,2021-09-27 07:16:31.648
334,-95.0,1175.0,-90.0,1182.2647757587977,2021-09-27 07:16:31.658
335,-247.0,811.0,-14.0,847.8950406742571,2021-09-27 07:16:31.668
336,-221.0,1039.0,-200.0,1080.9079516776626,2021-09-27 07:16:31.678
337,-221.0,994.0,72.0,1020.813890971317,2021-09-27 07:16:31.695
338,-161.0,1003.0,-55.0,1017.3273809349672,2021-09-27 07:16:31.697
339,-141.0,1242.0,-13.0,1250.0455991682863,2021-09-27 07:16:31.707
340,-279.0,904.0,6.0,946.0935471717372,2021-09-27 07:16:31.717
341,-67.0,1154.0,-40.0,1156.6352061043274,2021-09-27 07:16:31.727
342,-224.0,889.0,-40.0,917.6584331874252,2021-09-27 07:16:31.737
343,-224.0,889.0,79.0,920.183677316654,2021-09-27 07:16:31.738
344,-141.0,908.0,3.0,918.8873706826098,2021-09-27 07:16:31.746
345,-226.0,1041.0,-93.0,1069.301641259378,2021-09-27 07:16:31.756
346,-211.0,920.0,-93.0,948.456641075384,2021-09-27 07:16:31.765
347,-211.0,920.0,120.0,951.4835784184612,2021-09-27 07:16:31.766
348,-236.0,900.0,-142.0,941.2013599650184,2021-09-27 07:16:31.775
349,-150.0,1110.0,-142.0,1129.0544716708755,2021-09-27 07:16:31.785
350,-150.0,1110.0,-6.0,1120.1053521879091,2021-09-27 07:16:31.786
351,-140.0,825.0,45.0,838.0035799446205,2021-09-27 07:16:31.795
352,-192.0,1127.0,-149.0,1152.906761191034,2021-09-27 07:16:31.806
353,-284.0,799.0,36.0,848.7361191795716,2021-09-27 07:16:31.814
354,-136.0,1010.0,-131.0,1027.5003649634389,2021-09-27 07:16:31.825
355,-283.0,927.0,-131.0,978.0485673012358,2021-09-27 07:16:31.834
356,-283.0,927.0,88.0,973.2224822721678,2021-09-27 07:16:31.835
357,-163.0,927.0,88.0,945.3263986581566,2021-09-27 07:16:31.843
358,-163.0,816.0,73.0,835.3167064054209,2021-09-27 07:16:31.844
359,78.0,1044.0,73.0,1049.4517616355697,2021-09-27 07:16:31.853
360,78.0,1044.0,-22.0,1047.1408692243847,2021-09-27 07:16:31.854
361,-153.0,998.0,-56.0,1011.2116494582132,2021-09-27 07:16:31.863
362,-1.0,1038.0,-38.0,1038.6958168780695,2021-09-27 07:16:31.873
363,-180.0,1024.0,-42.0,1040.547932581676,2021-09-27 07:16:31.883
364,-218.0,855.0,88.0,886.7316392235026,2021-09-27 07:16:31.893
365,-168.0,1046.0,-74.0,1061.9868172439806,2021-09-27 07:16:31.902
366,-109.0,990.0,60.0,997.7880536466648,2021-09-27 07:16:31.912
367,-161.0,1010.0,-51.0,1024.0224606911706,2021-09-27 07:16:31.934
368,-161.0,1052.0,-33.0,1064.7600668695272,2021-09-27 07:16:31.935
369,-203.0,882.0,-9.0,905.1044138661572,2021-09-27 07:16:31.942
370,-172.0,1095.0,-92.0,1112.2378342782629,2021-09-27 07:16:31.951
371,-169.0,917.0,4.0,932.4516073234042,2021-09-27 07:16:31.961
372,-197.0,917.0,4.0,937.9307010648496,2021-09-27 07:16:31.970
373,-197.0,1037.0,-38.0,1056.2300885697207,2021-09-27 07:16:31.971
374,-183.0,1028.0,7.0,1044.1848495357517,2021-09-27 07:16:31.980
