,Acceleration_X,Acceleration_Y,Acceleration_Z,magnitude,time_stamp
0,-247.0,1026.0,-16.0,1055.4340339405396,2021-09-02 05:33:30.735
1,-109.0,995.0,-89.0,1004.9014877091188,2021-09-02 05:33:30.737
2,-12.0,1033.0,-23.0,1033.325698896529,2021-09-02 05:33:30.739
3,-12.0,1043.0,-118.0,1049.7223442415618,2021-09-02 05:33:30.741
4,-270.0,1074.0,-118.0,1113.687568396092,2021-09-02 05:33:30.745
5,-270.0,1074.0,-37.0,1108.0365517436687,2021-09-02 05:33:30.746
6,-134.0,946.0,-29.0,955.8833610854412,2021-09-02 05:33:30.757
7,-204.0,1158.0,-37.0,1176.413617738251,2021-09-02 05:33:30.764
8,-204.0,984.0,-37.0,1005.6047931468904,2021-09-02 05:33:30.773
9,-204.0,984.0,81.0,1008.1830190992108,2021-09-02 05:33:30.774
10,-130.0,1114.0,24.0,1121.816384262594,2021-09-02 05:33:30.783
11,-199.0,994.0,71.0,1016.207655944394,2021-09-02 05:33:30.793
12,-222.0,1028.0,-15.0,1051.8046396551024,2021-09-02 05:33:30.804
13,-155.0,1028.0,-15.0,1039.7278490066524,2021-09-02 05:33:30.813
14,-155.0,1031.0,30.0,1043.0177371454429,2021-09-02 05:33:30.814
15,-140.0,998.0,-52.0,1009.1124813418968,2021-09-02 05:33:30.822
16,-198.0,1130.0,-93.0,1150.979148377589,2021-09-02 05:33:30.832
17,-161.0,1000.0,-6.0,1012.8953549108614,2021-09-02 05:33:30.842
18,-241.0,1054.0,-57.0,1082.7030987302105,2021-09-02 05:33:30.853
19,-165.0,1016.0,-57.0,1030.887966754875,2021-09-02 05:33:30.862
20,-165.0,1016.0,-91.0,1033.325698896529,2021-09-02 05:33:30.863
21,-205.0,847.0,52.0,873.0051546239575,2021-09-02 05:33:30.871
22,-234.0,974.0,-72.0,1004.2987603298134,2021-09-02 05:33:30.881
23,-177.0,951.0,68.0,969.7185158591126,2021-09-02 05:33:30.891
24,-127.0,893.0,-48.0,903.2618667916852,2021-09-02 05:33:30.901
25,-137.0,1037.0,-1.0,1046.0109942060838,2021-09-02 05:33:30.911
26,-263.0,1037.0,-1.0,1069.8312951115236,2021-09-02 05:33:30.920
27,-263.0,889.0,20.0,927.3025396277096,2021-09-02 05:33:30.921
28,-137.0,1009.0,-29.0,1018.67119327092,2021-09-02 05:33:30.930
29,-247.0,1009.0,-29.0,1039.197286370591,2021-09-02 05:33:30.939
30,-247.0,962.0,103.0,998.5299194315612,2021-09-02 05:33:30.940
31,-82.0,968.0,-87.0,975.3548072368332,2021-09-02 05:33:30.949
32,-21.0,1008.0,23.0,1008.481036014064,2021-09-02 05:33:30.960
33,-245.0,908.0,-57.0,942.198492887778,2021-09-02 05:33:30.970
34,-168.0,908.0,-57.0,925.1686332771988,2021-09-02 05:33:30.978
35,-168.0,1050.0,-30.0,1063.7781723648968,2021-09-02 05:33:30.979
36,-98.0,1010.0,-29.0,1015.1576232290234,2021-09-02 05:33:30.988
37,-79.0,988.0,-54.0,992.6232920902067,2021-09-02 05:33:30.998
38,-210.0,1008.0,-166.0,1042.9381573228586,2021-09-02 05:33:31.009
39,-239.0,904.0,17.0,935.2144139180062,2021-09-02 05:33:31.019
40,-241.0,965.0,-107.0,1000.3774287737604,2021-09-02 05:33:31.027
41,-232.0,893.0,0.0,922.64456861784,2021-09-02 05:33:31.037
42,-99.0,915.0,-86.0,924.3495010005684,2021-09-02 05:33:31.048
43,-130.0,1034.0,-54.0,1043.538212045922,2021-09-02 05:33:31.057
44,-244.0,1034.0,-54.0,1063.770651973441,2021-09-02 05:33:31.067
45,-244.0,890.0,18.0,923.016792913325,2021-09-02 05:33:31.068
46,-190.0,1003.0,-60.0,1022.5991394481026,2021-09-02 05:33:31.078
47,-257.0,959.0,50.0,994.0975807233413,2021-09-02 05:33:31.086
48,-152.0,911.0,-62.0,925.6721881962318,2021-09-02 05:33:31.096
49,-185.0,1103.0,-62.0,1120.1241002674658,2021-09-02 05:33:31.105
50,-185.0,1103.0,-100.0,1122.8686477055096,2021-09-02 05:33:31.106
51,-138.0,1000.0,31.0,1009.9529692020316,2021-09-02 05:33:31.116
52,-217.0,1042.0,-59.0,1065.9896810007122,2021-09-02 05:33:31.129
53,-86.0,1151.0,-12.0,1154.2707654618998,2021-09-02 05:33:31.135
54,-134.0,1151.0,-12.0,1158.8360539783012,2021-09-02 05:33:31.144
55,-134.0,1037.0,-9.0,1045.6605567773895,2021-09-02 05:33:31.145
56,-161.0,1057.0,-119.0,1075.793195739776,2021-09-02 05:33:31.154
57,-197.0,954.0,32.0,974.6532716817812,2021-09-02 05:33:31.165
58,-255.0,1020.0,-88.0,1055.068244238258,2021-09-02 05:33:31.174
59,-145.0,1008.0,-36.0,1019.0117761831804,2021-09-02 05:33:31.184
60,-178.0,1047.0,-28.0,1062.3921121695134,2021-09-02 05:33:31.193
61,-218.0,1083.0,-97.0,1108.9733991399432,2021-09-02 05:33:31.203
62,-243.0,1083.0,-97.0,1114.157529256972,2021-09-02 05:33:31.213
63,-243.0,946.0,61.0,978.6143264841364,2021-09-02 05:33:31.214
64,-236.0,1015.0,-87.0,1045.7007220041496,2021-09-02 05:33:31.223
65,-157.0,1004.0,-87.0,1019.918624204892,2021-09-02 05:33:31.233
66,-157.0,1004.0,-37.0,1016.8746235401884,2021-09-02 05:33:31.234
67,-192.0,941.0,-38.0,961.139427970781,2021-09-02 05:33:31.242
68,-175.0,1093.0,-47.0,1107.918318288853,2021-09-02 05:33:31.252
69,-190.0,973.0,33.0,991.9264085606352,2021-09-02 05:33:31.262
70,-211.0,973.0,33.0,996.162135397647,2021-09-02 05:33:31.271
71,-211.0,1034.0,-34.0,1055.8565243440985,2021-09-02 05:33:31.272
72,-37.0,1043.0,-8.0,1043.6867346095762,2021-09-02 05:33:31.282
73,-142.0,976.0,-67.0,988.5489365731976,2021-09-02 05:33:31.291
74,-215.0,1012.0,-63.0,1036.5027737541277,2021-09-02 05:33:31.301
75,-209.0,1012.0,-63.0,1035.2748427350102,2021-09-02 05:33:31.310
76,-209.0,1006.0,51.0,1028.7458383876942,2021-09-02 05:33:31.311
77,-261.0,1039.0,51.0,1072.493822826034,2021-09-02 05:33:31.321
78,-261.0,1039.0,-69.0,1073.5003493245822,2021-09-02 05:33:31.322
79,-103.0,1052.0,14.0,1057.1229824386564,2021-09-02 05:33:31.330
80,-115.0,1010.0,-6.0,1016.5436537601324,2021-09-02 05:33:31.340
81,-146.0,1010.0,-6.0,1020.5155559813873,2021-09-02 05:33:31.349
82,-146.0,982.0,-48.0,993.953721256679,2021-09-02 05:33:31.350
83,-269.0,892.0,129.0,940.5668503620568,2021-09-02 05:33:31.361
84,-160.0,940.0,-68.0,955.9414207994128,2021-09-02 05:33:31.369
85,-96.0,1027.0,40.0,1032.2523916174764,2021-09-02 05:33:31.379
86,-226.0,933.0,-34.0,960.5836767299348,2021-09-02 05:33:31.390
87,-94.0,1037.0,-34.0,1041.8066039337627,2021-09-02 05:33:31.398
88,-94.0,1037.0,-49.0,1042.403952410005,2021-09-02 05:33:31.399
89,-242.0,892.0,71.0,926.9676369755311,2021-09-02 05:33:31.408
90,-140.0,892.0,71.0,905.70690623402,2021-09-02 05:33:31.418
91,-140.0,927.0,-100.0,942.8303134710932,2021-09-02 05:33:31.419
92,-113.0,965.0,-8.0,971.6264714384844,2021-09-02 05:33:31.428
93,-152.0,931.0,-66.0,945.632592500914,2021-09-02 05:33:31.438
94,-155.0,996.0,-89.0,1011.9100750560792,2021-09-02 05:33:31.447
95,-218.0,992.0,22.0,1015.9094447833428,2021-09-02 05:33:31.457
96,-119.0,955.0,-85.0,966.1319785619354,2021-09-02 05:33:31.467
97,-242.0,1046.0,-102.0,1078.4637221529522,2021-09-02 05:33:31.477
98,-225.0,897.0,16.0,924.927024148392,2021-09-02 05:33:31.486
99,-248.0,996.0,-94.0,1030.7065537775532,2021-09-02 05:33:31.497
100,-231.0,976.0,41.0,1003.8017732600396,2021-09-02 05:33:31.506
101,-128.0,1002.0,-99.0,1014.982265854926,2021-09-02 05:33:31.516
102,-144.0,1083.0,-99.0,1097.007748377376,2021-09-02 05:33:31.525
103,-144.0,1083.0,-32.0,1093.0,2021-09-02 05:33:31.526
104,-270.0,937.0,28.0,975.5270370420288,2021-09-02 05:33:31.535
105,-175.0,1031.0,28.0,1046.1214078681307,2021-09-02 05:33:31.548
106,-175.0,1031.0,6.0,1045.7638356722805,2021-09-02 05:33:31.549
107,-245.0,927.0,76.0,961.836784491007,2021-09-02 05:33:31.555
108,-162.0,927.0,76.0,944.112811055967,2021-09-02 05:33:31.564
109,-162.0,952.0,-65.0,967.8703425562744,2021-09-02 05:33:31.565
110,-77.0,1032.0,-65.0,1036.907903335682,2021-09-02 05:33:31.575
111,-77.0,1032.0,-40.0,1035.6413471854048,2021-09-02 05:33:31.576
112,-175.0,969.0,74.0,987.4522773278716,2021-09-02 05:33:31.585
113,-246.0,1057.0,-69.0,1087.4401132936011,2021-09-02 05:33:31.595
114,-209.0,1057.0,-69.0,1079.6717093635457,2021-09-02 05:33:31.603
115,-209.0,1059.0,13.0,1079.5049791455342,2021-09-02 05:33:31.604
116,-87.0,1030.0,-61.0,1035.4660786331922,2021-09-02 05:33:31.613
117,-254.0,1057.0,-126.0,1094.3678540600506,2021-09-02 05:33:31.623
118,-218.0,894.0,20.0,920.4129507998028,2021-09-02 05:33:31.633
119,-263.0,999.0,-73.0,1035.6152760557368,2021-09-02 05:33:31.644
120,-217.0,971.0,-73.0,997.626683684834,2021-09-02 05:33:31.652
121,-217.0,971.0,41.0,995.7966659916068,2021-09-02 05:33:31.653
122,-64.0,971.0,-18.0,973.2733429001332,2021-09-02 05:33:31.662
123,-295.0,1107.0,-77.0,1148.2173139262443,2021-09-02 05:33:31.672
124,-261.0,898.0,34.0,935.778285706609,2021-09-02 05:33:31.682
125,-269.0,1032.0,34.0,1067.024367106956,2021-09-02 05:33:31.691
126,-269.0,1032.0,-69.0,1068.7123092769166,2021-09-02 05:33:31.692
127,-81.0,999.0,-27.0,1002.6420098918657,2021-09-02 05:33:31.701
128,-185.0,927.0,-85.0,949.0937782959068,2021-09-02 05:33:31.711
129,-90.0,1040.0,-99.0,1048.570932269248,2021-09-02 05:33:31.721
130,-195.0,979.0,48.0,999.3848107711063,2021-09-02 05:33:31.778
131,-187.0,1045.0,-96.0,1065.931517500069,2021-09-02 05:33:31.788
132,-187.0,892.0,58.0,913.2343620341932,2021-09-02 05:33:31.790
133,-229.0,989.0,-127.0,1023.0791758216956,2021-09-02 05:33:31.792
134,-180.0,1045.0,29.0,1060.7855579710726,2021-09-02 05:33:31.800
135,-114.0,990.0,-32.0,997.05566544702,2021-09-02 05:33:31.809
136,-273.0,1066.0,-32.0,1100.867385292161,2021-09-02 05:33:31.818
137,-273.0,1066.0,-138.0,1109.021640906975,2021-09-02 05:33:31.819
138,-254.0,863.0,77.0,902.8920201220076,2021-09-02 05:33:31.828
139,-118.0,863.0,77.0,874.4266693096683,2021-09-02 05:33:31.840
140,-118.0,962.0,-54.0,970.713139913126,2021-09-02 05:33:31.841
141,-71.0,1045.0,-10.0,1047.4569203552,2021-09-02 05:33:31.848
142,-229.0,1045.0,-10.0,1069.8439138491185,2021-09-02 05:33:31.857
143,-229.0,965.0,-83.0,995.2662960233306,2021-09-02 05:33:31.858
144,-149.0,1012.0,-69.0,1025.2346072972762,2021-09-02 05:33:31.867
145,-245.0,987.0,66.0,1019.0927337588076,2021-09-02 05:33:31.877
146,-241.0,940.0,-89.0,974.475243400262,2021-09-02 05:33:31.887
147,-62.0,940.0,-89.0,946.237285251432,2021-09-02 05:33:31.897
148,-62.0,1015.0,-30.0,1017.3342616859024,2021-09-02 05:33:31.898
149,-177.0,957.0,-65.0,975.3988927613152,2021-09-02 05:33:31.907
150,-159.0,1022.0,-105.0,1039.61050398695,2021-09-02 05:33:31.916
151,-177.0,984.0,49.0,1000.9925074644664,2021-09-02 05:33:31.926
152,-223.0,1058.0,-97.0,1085.588319760304,2021-09-02 05:33:31.936
153,-148.0,1083.0,-82.0,1096.13730891709,2021-09-02 05:33:31.947
154,-273.0,891.0,44.0,932.9233623401228,2021-09-02 05:33:31.955
155,-205.0,1030.0,-61.0,1051.9724330988906,2021-09-02 05:33:31.965
156,-321.0,1030.0,-61.0,1080.5841013081767,2021-09-02 05:33:31.974
157,-321.0,886.0,50.0,943.6826797181348,2021-09-02 05:33:31.975
158,-194.0,1009.0,-2.0,1027.482846572146,2021-09-02 05:33:31.984
159,-149.0,1087.0,-42.0,1097.9681233988535,2021-09-02 05:33:31.995
160,-269.0,939.0,-42.0,977.6737697207592,2021-09-02 05:33:32.004
161,-269.0,939.0,17.0,976.91913687879,2021-09-02 05:33:32.005
162,-108.0,1057.0,-32.0,1062.984948153077,2021-09-02 05:33:32.014
163,-232.0,930.0,-32.0,959.034931584872,2021-09-02 05:33:32.023
164,-232.0,930.0,58.0,960.2541330293768,2021-09-02 05:33:32.024
165,-150.0,993.0,-58.0,1005.9388649416028,2021-09-02 05:33:32.033
166,-78.0,998.0,-80.0,1004.2350322509168,2021-09-02 05:33:32.046
167,-224.0,933.0,-40.0,960.346291709402,2021-09-02 05:33:32.054
168,-232.0,933.0,-40.0,962.243732117804,2021-09-02 05:33:32.062
169,-232.0,1019.0,-90.0,1048.944707789691,2021-09-02 05:33:32.063
170,-111.0,991.0,20.0,997.3976137930148,2021-09-02 05:33:32.072
171,3.0,915.0,-34.0,915.6363907141306,2021-09-02 05:33:32.082
172,-234.0,915.0,-34.0,945.0592574013548,2021-09-02 05:33:32.092
173,-234.0,1030.0,-164.0,1068.902240618851,2021-09-02 05:33:32.093
174,-236.0,833.0,25.0,866.1466388551075,2021-09-02 05:33:32.103
175,-266.0,958.0,-107.0,999.9844998798732,2021-09-02 05:33:32.111
176,-200.0,896.0,-32.0,918.6076420322224,2021-09-02 05:33:32.124
177,-114.0,960.0,5.0,966.757984192528,2021-09-02 05:33:32.131
178,-215.0,1043.0,-64.0,1066.85050499121,2021-09-02 05:33:32.141
179,-279.0,884.0,-64.0,929.1894317091644,2021-09-02 05:33:32.151
180,-279.0,884.0,-12.0,927.0604079562452,2021-09-02 05:33:32.152
181,-129.0,1024.0,-25.0,1032.3962417599166,2021-09-02 05:33:32.161
182,-273.0,915.0,73.0,957.644506066839,2021-09-02 05:33:32.170
183,-162.0,996.0,-118.0,1015.9645663112468,2021-09-02 05:33:32.180
184,-143.0,996.0,-118.0,1013.1085825320008,2021-09-02 05:33:32.189
185,-143.0,1068.0,-93.0,1081.536869459382,2021-09-02 05:33:32.190
186,-193.0,942.0,63.0,963.6295968887632,2021-09-02 05:33:32.200
187,-237.0,1043.0,-107.0,1074.926509115856,2021-09-02 05:33:32.210
188,-77.0,1099.0,-1.0,1101.6946037809207,2021-09-02 05:33:32.219
189,-143.0,1099.0,-1.0,1108.2648600402342,2021-09-02 05:33:32.228
190,-143.0,981.0,-64.0,993.4314269238718,2021-09-02 05:33:32.229
191,-247.0,1041.0,-91.0,1073.7648718411308,2021-09-02 05:33:32.238
192,-176.0,914.0,59.0,932.6591017086575,2021-09-02 05:33:32.249
193,-253.0,994.0,-89.0,1029.5465021066314,2021-09-02 05:33:32.259
194,-108.0,997.0,-9.0,1002.8728732995024,2021-09-02 05:33:32.268
195,-81.0,981.0,-53.0,985.7641705803676,2021-09-02 05:33:32.277
196,-237.0,1018.0,-92.0,1049.26498083182,2021-09-02 05:33:32.287
197,-256.0,981.0,75.0,1016.6228405854356,2021-09-02 05:33:32.297
198,-208.0,946.0,-98.0,973.5419867679052,2021-09-02 05:33:32.308
199,-95.0,1076.0,-98.0,1084.6220539893147,2021-09-02 05:33:32.317
200,-95.0,1076.0,5.0,1080.1972042178224,2021-09-02 05:33:32.318
201,-285.0,969.0,-24.0,1010.327669620109,2021-09-02 05:33:32.326
202,-150.0,1085.0,-24.0,1095.582493470939,2021-09-02 05:33:32.336
203,-150.0,1085.0,-94.0,1099.3457145047685,2021-09-02 05:33:32.337
204,-191.0,940.0,30.0,959.6775500135448,2021-09-02 05:33:32.346
205,-73.0,940.0,30.0,943.3074790332154,2021-09-02 05:33:32.359
206,-73.0,987.0,-4.0,989.703996152385,2021-09-02 05:33:32.360
207,-60.0,1054.0,26.0,1056.0265148186384,2021-09-02 05:33:32.366
208,-202.0,993.0,-54.0,1014.7753445960342,2021-09-02 05:33:32.375
209,-178.0,1111.0,-84.0,1128.3000487459,2021-09-02 05:33:32.385
210,-142.0,993.0,26.0,1003.4385880560902,2021-09-02 05:33:32.395
211,-263.0,1057.0,26.0,1089.5384343840285,2021-09-02 05:33:32.404
212,-263.0,1057.0,-122.0,1096.0392328744442,2021-09-02 05:33:32.405
213,-204.0,1076.0,44.0,1096.0510936995593,2021-09-02 05:33:32.415
214,-227.0,914.0,32.0,942.3104583946842,2021-09-02 05:33:32.424
215,-199.0,914.0,32.0,935.9599350399568,2021-09-02 05:33:32.433
216,-199.0,1028.0,-20.0,1047.27503550882,2021-09-02 05:33:32.434
217,-270.0,908.0,-20.0,947.5040897009364,2021-09-02 05:33:32.443
218,-270.0,908.0,59.0,949.1285476688604,2021-09-02 05:33:32.444
219,-131.0,945.0,-52.0,955.45277224989,2021-09-02 05:33:32.453
220,-134.0,1085.0,4.0,1093.250657443205,2021-09-02 05:33:32.463
221,-324.0,1085.0,4.0,1132.350210844684,2021-09-02 05:33:32.473
222,-324.0,928.0,18.0,983.0991811612904,2021-09-02 05:33:32.474
223,-150.0,1069.0,18.0,1079.6226192517458,2021-09-02 05:33:32.482
224,-150.0,1069.0,-58.0,1081.0296018148624,2021-09-02 05:33:32.483
225,-203.0,920.0,30.0,942.6075535449522,2021-09-02 05:33:32.492
226,-183.0,920.0,30.0,938.5035961572016,2021-09-02 05:33:32.502
227,-183.0,950.0,-98.0,972.416063215741,2021-09-02 05:33:32.503
228,-92.0,983.0,-9.0,987.336821960976,2021-09-02 05:33:32.512
229,-234.0,909.0,-83.0,942.2982542698464,2021-09-02 05:33:32.522
230,-105.0,1092.0,-69.0,1099.2042576336758,2021-09-02 05:33:32.531
231,-205.0,940.0,34.0,962.6946556411332,2021-09-02 05:33:32.541
232,-24.0,992.0,-54.0,993.7585219760382,2021-09-02 05:33:32.551
233,-232.0,1000.0,-125.0,1034.141673079661,2021-09-02 05:33:32.561
234,-220.0,1000.0,-125.0,1031.5158748172516,2021-09-02 05:33:32.570
235,-220.0,853.0,43.0,881.9625842403974,2021-09-02 05:33:32.571
236,-211.0,976.0,-79.0,1001.6676095392124,2021-09-02 05:33:32.581
237,-225.0,925.0,29.0,952.4132506428078,2021-09-02 05:33:32.590
238,-109.0,901.0,-27.0,907.9708145089246,2021-09-02 05:33:32.600
239,-186.0,1071.0,-27.0,1087.3665435353437,2021-09-02 05:33:32.609
240,-186.0,1071.0,0.0,1087.031278298835,2021-09-02 05:33:32.610
241,-215.0,938.0,10.0,962.3767453549572,2021-09-02 05:33:32.620
242,-140.0,984.0,-61.0,995.7795940869646,2021-09-02 05:33:32.630
243,-302.0,953.0,51.0,1001.006493485432,2021-09-02 05:33:32.639
244,-109.0,953.0,51.0,960.5680610971822,2021-09-02 05:33:32.648
245,-109.0,936.0,-64.0,944.4961619826732,2021-09-02 05:33:32.649
246,-83.0,1019.0,-25.0,1022.68030195169,2021-09-02 05:33:32.659
247,-150.0,1019.0,-25.0,1030.2844267482644,2021-09-02 05:33:32.668
248,-150.0,1034.0,80.0,1047.8816727092806,2021-09-02 05:33:32.669
249,-251.0,1005.0,80.0,1038.954281958547,2021-09-02 05:33:32.678
250,-251.0,1005.0,-114.0,1042.123793030367,2021-09-02 05:33:32.679
251,-104.0,1086.0,20.0,1091.151685147395,2021-09-02 05:33:32.688
252,-175.0,1037.0,-47.0,1052.7122113854289,2021-09-02 05:33:32.697
253,-241.0,1042.0,-159.0,1081.261300518982,2021-09-02 05:33:32.707
254,-226.0,999.0,71.0,1026.7024885525504,2021-09-02 05:33:32.717
255,-242.0,1011.0,-76.0,1042.3343993172248,2021-09-02 05:33:32.727
256,-200.0,961.0,-76.0,984.5288213150492,2021-09-02 05:33:32.737
257,-200.0,961.0,27.0,981.9623210693984,2021-09-02 05:33:32.738
258,-104.0,980.0,-19.0,985.6860554963736,2021-09-02 05:33:32.746
259,-160.0,1070.0,-19.0,1082.0633068356028,2021-09-02 05:33:32.756
260,-160.0,1070.0,-50.0,1083.0512453249846,2021-09-02 05:33:32.757
261,-202.0,905.0,75.0,930.2978017817736,2021-09-02 05:33:32.766
262,-176.0,1017.0,75.0,1034.838151596664,2021-09-02 05:33:32.775
263,-176.0,1017.0,-99.0,1036.853895204141,2021-09-02 05:33:32.776
264,-119.0,925.0,52.0,934.0717317208566,2021-09-02 05:33:32.830
265,-214.0,925.0,52.0,950.8548785172214,2021-09-02 05:33:32.832
266,-214.0,1083.0,-61.0,1105.6247102882603,2021-09-02 05:33:32.833
267,-214.0,1032.0,-45.0,1054.9146884938136,2021-09-02 05:33:32.834
268,-21.0,1032.0,-45.0,1033.1940766380728,2021-09-02 05:33:32.838
269,-21.0,1016.0,-20.0,1016.4137936883776,2021-09-02 05:33:32.839
270,-269.0,956.0,-41.0,993.9708245215248,2021-09-02 05:33:32.844
271,-245.0,1031.0,-117.0,1066.1496142662154,2021-09-02 05:33:32.854
272,-150.0,1014.0,64.0,1027.0306714017845,2021-09-02 05:33:32.864
273,-306.0,1005.0,-106.0,1055.8868310571925,2021-09-02 05:33:32.874
274,-98.0,1098.0,-9.0,1102.4014695200656,2021-09-02 05:33:32.883
275,-117.0,1098.0,-9.0,1104.2526884730687,2021-09-02 05:33:32.893
276,-117.0,1029.0,1.0,1035.6307256932848,2021-09-02 05:33:32.894
277,-232.0,1031.0,-142.0,1066.278106311857,2021-09-02 05:33:32.902
278,-256.0,952.0,47.0,986.9392078542628,2021-09-02 05:33:32.912
279,-124.0,948.0,-80.0,959.4164893308848,2021-09-02 05:33:32.924
280,-103.0,1016.0,-13.0,1021.2903602795828,2021-09-02 05:33:32.933
281,-186.0,1016.0,-13.0,1032.9670856324512,2021-09-02 05:33:32.941
282,-186.0,933.0,-69.0,953.8584800692396,2021-09-02 05:33:32.942
283,-22.0,1021.0,-44.0,1022.1844256297392,2021-09-02 05:33:32.951
284,-188.0,895.0,33.0,915.127313547137,2021-09-02 05:33:32.961
285,-185.0,935.0,-63.0,955.206260448496,2021-09-02 05:33:32.972
286,-82.0,996.0,-52.0,1000.721739546014,2021-09-02 05:33:32.982
287,-142.0,931.0,-93.0,946.3477162227424,2021-09-02 05:33:32.990
288,-84.0,1043.0,-111.0,1052.248069610964,2021-09-02 05:33:33.000
289,-198.0,930.0,61.0,952.798509654586,2021-09-02 05:33:33.010
290,-257.0,1001.0,-58.0,1035.0913003208943,2021-09-02 05:33:33.020
291,-178.0,1001.0,-58.0,1018.356028115904,2021-09-02 05:33:33.030
292,-178.0,1100.0,-60.0,1115.922936407349,2021-09-02 05:33:33.031
293,-191.0,909.0,44.0,929.891391507632,2021-09-02 05:33:33.040
294,-209.0,909.0,44.0,933.7547857976418,2021-09-02 05:33:33.049
295,-209.0,1033.0,-100.0,1058.6642527260472,2021-09-02 05:33:33.050
296,-213.0,1033.0,-100.0,1059.461183809959,2021-09-02 05:33:33.058
297,-213.0,979.0,47.0,1003.0049850324772,2021-09-02 05:33:33.059
298,-130.0,927.0,47.0,937.2502333955432,2021-09-02 05:33:33.068
299,-130.0,927.0,-11.0,936.1356739276632,2021-09-02 05:33:33.069
300,-163.0,1086.0,-35.0,1098.7219848533114,2021-09-02 05:33:33.079
301,-213.0,924.0,1.0,948.2330937063946,2021-09-02 05:33:33.088
302,-99.0,1051.0,0.0,1055.6524049136628,2021-09-02 05:33:33.098
303,-246.0,959.0,0.0,990.0489886869236,2021-09-02 05:33:33.107
304,-246.0,959.0,68.0,992.3814790694151,2021-09-02 05:33:33.108
305,-108.0,1021.0,-76.0,1029.5052209678202,2021-09-02 05:33:33.118
306,-76.0,1047.0,0.0,1049.7547332591553,2021-09-02 05:33:33.128
307,-269.0,975.0,-68.0,1013.7110041821584,2021-09-02 05:33:33.139
308,-116.0,975.0,-68.0,984.228123963139,2021-09-02 05:33:33.146
309,-116.0,1042.0,-41.0,1049.2382951455784,2021-09-02 05:33:33.147
310,-101.0,1065.0,44.0,1070.68295961036,2021-09-02 05:33:33.156
311,-127.0,1013.0,-17.0,1021.07149602758,2021-09-02 05:33:33.166
312,-231.0,1013.0,-17.0,1039.1433972267737,2021-09-02 05:33:33.176
313,-231.0,1058.0,-148.0,1092.990850830875,2021-09-02 05:33:33.177
314,-190.0,897.0,66.0,919.2741702016868,2021-09-02 05:33:33.187
315,-327.0,996.0,-115.0,1054.5947088810942,2021-09-02 05:33:33.195
316,-143.0,947.0,27.0,958.116381239774,2021-09-02 05:33:33.205
317,-45.0,971.0,-33.0,972.6021797220076,2021-09-02 05:33:33.215
318,-201.0,1043.0,-68.0,1064.365538713087,2021-09-02 05:33:33.225
319,-238.0,1043.0,-68.0,1071.9687495445005,2021-09-02 05:33:33.235
320,-238.0,877.0,40.0,909.6004617413076,2021-09-02 05:33:33.236
321,-273.0,1004.0,-58.0,1042.0695754123135,2021-09-02 05:33:33.245
322,-254.0,934.0,85.0,971.6465406720696,2021-09-02 05:33:33.254
323,-154.0,989.0,16.0,1001.04595299117,2021-09-02 05:33:33.264
324,-189.0,1023.0,16.0,1040.435485746233,2021-09-02 05:33:33.273
325,-189.0,1023.0,-8.0,1040.3432125986117,2021-09-02 05:33:33.274
326,-183.0,944.0,24.0,961.8736923317948,2021-09-02 05:33:33.283
327,-228.0,974.0,24.0,1000.6178091559234,2021-09-02 05:33:33.294
328,-228.0,974.0,-93.0,1004.6437179418384,2021-09-02 05:33:33.295
329,-96.0,1051.0,14.0,1055.4681425793958,2021-09-02 05:33:33.303
330,-160.0,1051.0,14.0,1063.2012979676051,2021-09-02 05:33:33.312
331,-160.0,973.0,14.0,986.166821587504,2021-09-02 05:33:33.313
332,-178.0,1052.0,-86.0,1070.413004405309,2021-09-02 05:33:33.322
333,-170.0,896.0,-86.0,916.030567175572,2021-09-02 05:33:33.335
334,-170.0,896.0,31.0,912.5113697921796,2021-09-02 05:33:33.336
335,-309.0,1000.0,-91.0,1050.6007805060874,2021-09-02 05:33:33.343
336,-52.0,1024.0,-9.0,1025.358961534935,2021-09-02 05:33:33.352
337,-134.0,971.0,-60.0,982.0371683393658,2021-09-02 05:33:33.363
338,-268.0,1049.0,-142.0,1091.9656588006785,2021-09-02 05:33:33.371
339,-181.0,855.0,16.0,874.0949605163046,2021-09-02 05:33:33.381
340,-297.0,929.0,-85.0,979.0173645038172,2021-09-02 05:33:33.392
341,-190.0,902.0,0.0,921.7939032126432,2021-09-02 05:33:33.402
342,-255.0,909.0,-80.0,947.4734824785336,2021-09-02 05:33:33.410
343,-95.0,1070.0,-84.0,1077.4882829989383,2021-09-02 05:33:33.420
344,-220.0,939.0,40.0,965.2569606068636,2021-09-02 05:33:33.430
345,-147.0,950.0,-90.0,965.5097099459952,2021-09-02 05:33:33.440
346,-82.0,1055.0,4.0,1058.1894915373143,2021-09-02 05:33:33.451
347,-230.0,947.0,-121.0,982.0132381999746,2021-09-02 05:33:33.459
348,-146.0,1046.0,-74.0,1058.7294271909136,2021-09-02 05:33:33.469
349,-159.0,1046.0,-74.0,1060.600301715967,2021-09-02 05:33:33.478
350,-159.0,995.0,21.0,1007.8427456701764,2021-09-02 05:33:33.479
351,-161.0,1050.0,-91.0,1066.1622765789457,2021-09-02 05:33:33.488
352,-73.0,1077.0,-1.0,1079.471630011646,2021-09-02 05:33:33.499
353,-227.0,995.0,-50.0,1021.7896065237696,2021-09-02 05:33:33.508
354,-243.0,995.0,-50.0,1025.4628223392597,2021-09-02 05:33:33.517
355,-243.0,1076.0,-93.0,1107.0112917219951,2021-09-02 05:33:33.518
356,-316.0,922.0,-93.0,979.075584416239,2021-09-02 05:33:33.527
357,-316.0,922.0,37.0,975.3507061565086,2021-09-02 05:33:33.528
358,-151.0,962.0,-13.0,973.865493792649,2021-09-02 05:33:33.537
359,-166.0,1037.0,-4.0,1050.2099790041989,2021-09-02 05:33:33.548
360,-242.0,964.0,-4.0,993.9195138440537,2021-09-02 05:33:33.558
361,-242.0,964.0,48.0,995.069846794686,2021-09-02 05:33:33.559
362,-158.0,1051.0,48.0,1063.8933217198048,2021-09-02 05:33:33.566
363,-158.0,1051.0,-17.0,1062.9459064317432,2021-09-02 05:33:33.567
364,-270.0,973.0,48.0,1010.9070184740038,2021-09-02 05:33:33.576
365,-87.0,967.0,-50.0,972.1923677955922,2021-09-02 05:33:33.586
366,-193.0,967.0,-50.0,987.3388476100796,2021-09-02 05:33:33.596
367,-193.0,1067.0,14.0,1084.4049059276706,2021-09-02 05:33:33.597
368,-278.0,947.0,-14.0,987.060788401606,2021-09-02 05:33:33.607
369,-57.0,1059.0,-45.0,1061.4871643124093,2021-09-02 05:33:33.615
370,-237.0,961.0,37.0,990.4842250132004,2021-09-02 05:33:33.625
371,-135.0,937.0,-64.0,948.836129160352,2021-09-02 05:33:33.635
372,-220.0,937.0,-64.0,964.6061372394436,2021-09-02 05:33:33.644
373,-220.0,1048.0,-146.0,1080.7497397640211,2021-09-02 05:33:33.645
374,-178.0,865.0,-146.0,895.1117248701415,2021-09-02 05:33:33.655
375,-178.0,865.0,51.0,884.5959529638376,2021-09-02 05:33:33.656
376,-271.0,894.0,-99.0,939.4030019113204,2021-09-02 05:33:33.665
377,-199.0,927.0,-30.0,948.5936959520656,2021-09-02 05:33:33.674
378,-109.0,947.0,-54.0,954.780603070674,2021-09-02 05:33:33.684
379,-184.0,1013.0,-144.0,1039.5965563621305,2021-09-02 05:33:33.693
380,-211.0,864.0,53.0,890.9691352678834,2021-09-02 05:33:33.703
381,-215.0,1010.0,53.0,1033.989361647401,2021-09-02 05:33:33.714
382,-215.0,1010.0,-59.0,1034.314265588559,2021-09-02 05:33:33.715
383,-279.0,894.0,20.0,936.7374231875228,2021-09-02 05:33:33.723
384,-147.0,900.0,20.0,912.1452735173274,2021-09-02 05:33:33.732
385,-147.0,900.0,-49.0,913.2414795660565,2021-09-02 05:33:33.733
386,-174.0,1047.0,-20.0,1061.5483973893984,2021-09-02 05:33:33.742
387,-232.0,1047.0,-20.0,1072.5823977671832,2021-09-02 05:33:33.754
388,-232.0,862.0,8.0,892.7104793828736,2021-09-02 05:33:33.755
389,-85.0,1041.0,-3.0,1044.4687644922658,2021-09-02 05:33:33.762
390,-257.0,911.0,-3.0,946.5616725813484,2021-09-02 05:33:33.771
391,-257.0,911.0,45.0,947.6259810705908,2021-09-02 05:33:33.772
392,-226.0,1019.0,-58.0,1045.3712259288563,2021-09-02 05:33:33.781
393,-224.0,1094.0,-97.0,1120.901869032254,2021-09-02 05:33:33.791
394,-147.0,1094.0,-97.0,1108.0857367550582,2021-09-02 05:33:33.801
395,-147.0,996.0,54.0,1008.236579380058,2021-09-02 05:33:33.802
396,-287.0,996.0,54.0,1037.931115248021,2021-09-02 05:33:33.810
397,-287.0,1020.0,-61.0,1061.3623320996464,2021-09-02 05:33:33.811
398,-85.0,1126.0,13.0,1129.2785307442978,2021-09-02 05:33:33.821
399,-90.0,948.0,-29.0,952.7040463858648,2021-09-02 05:33:33.830
400,-213.0,1088.0,-146.0,1118.225826924061,2021-09-02 05:33:33.881
401,-226.0,920.0,67.0,949.7183793104144,2021-09-02 05:33:33.884
402,-70.0,1026.0,-48.0,1029.5047352975118,2021-09-02 05:33:33.886
403,-70.0,958.0,-52.0,961.9604981494822,2021-09-02 05:33:33.889
404,-141.0,1109.0,-52.0,1119.1362740971272,2021-09-02 05:33:33.892
405,-141.0,1109.0,-97.0,1122.1278893245635,2021-09-02 05:33:33.893
406,-264.0,954.0,-97.0,994.5958978399216,2021-09-02 05:33:33.898
407,-264.0,954.0,60.0,991.6713165157092,2021-09-02 05:33:33.899
408,-147.0,954.0,60.0,967.1220191888922,2021-09-02 05:33:33.908
409,-147.0,1027.0,-36.0,1038.0915181235227,2021-09-02 05:33:33.909
410,-138.0,1007.0,-5.0,1016.4241240741976,2021-09-02 05:33:33.919
411,-197.0,985.0,-52.0,1005.8518777633216,2021-09-02 05:33:33.930
412,-80.0,1022.0,-108.0,1030.799689561459,2021-09-02 05:33:33.938
413,-237.0,991.0,31.0,1019.4169902449144,2021-09-02 05:33:33.948
414,-331.0,1049.0,31.0,1100.4194654766882,2021-09-02 05:33:33.957
415,-145.0,1087.0,28.0,1096.985870465067,2021-09-02 05:33:33.967
416,-264.0,1015.0,-36.0,1049.3888697713542,2021-09-02 05:33:33.977
417,-195.0,1063.0,-95.0,1084.9050649711246,2021-09-02 05:33:33.986
418,-228.0,1035.0,58.0,1061.4014320698836,2021-09-02 05:33:33.996
419,-289.0,1008.0,-120.0,1055.4548782397094,2021-09-02 05:33:34.006
420,-211.0,1051.0,-24.0,1072.2397120047365,2021-09-02 05:33:34.016
421,-269.0,1051.0,-24.0,1085.1442300450203,2021-09-02 05:33:34.025
422,-269.0,878.0,-22.0,918.547222520432,2021-09-02 05:33:34.026
423,-132.0,1049.0,-36.0,1057.8851544473057,2021-09-02 05:33:34.036
424,-203.0,922.0,43.0,945.0619027344188,2021-09-02 05:33:34.047
425,-98.0,935.0,-54.0,941.6713864188504,2021-09-02 05:33:34.055
426,-90.0,992.0,-54.0,997.5369667335642,2021-09-02 05:33:34.064
427,-90.0,992.0,-49.0,997.2787975285548,2021-09-02 05:33:34.065
428,-239.0,902.0,-49.0,934.4121146474932,2021-09-02 05:33:34.074
429,-239.0,902.0,-53.0,934.6304082363253,2021-09-02 05:33:34.075
430,-25.0,902.0,-53.0,903.9015433109956,2021-09-02 05:33:34.084
431,-25.0,965.0,-20.0,965.5309420210208,2021-09-02 05:33:34.085
432,-202.0,865.0,6.0,888.2933074159683,2021-09-02 05:33:34.094
433,-130.0,960.0,-51.0,970.1036027146793,2021-09-02 05:33:34.104
434,-36.0,940.0,-31.0,941.1997662558146,2021-09-02 05:33:34.117
435,-168.0,930.0,-94.0,949.7157469474748,2021-09-02 05:33:34.123
436,-139.0,930.0,-94.0,945.0169310652587,2021-09-02 05:33:34.133
437,-139.0,1029.0,-127.0,1046.0836486629546,2021-09-02 05:33:34.134
438,-175.0,908.0,-27.0,925.1043184419798,2021-09-02 05:33:34.143
439,-99.0,932.0,-51.0,938.6298524977776,2021-09-02 05:33:34.152
440,-215.0,1100.0,-32.0,1121.2711536466102,2021-09-02 05:33:34.162
441,-136.0,891.0,-36.0,902.0382475261234,2021-09-02 05:33:34.172
442,-238.0,1060.0,-48.0,1087.4502287461253,2021-09-02 05:33:34.182
443,-271.0,969.0,-48.0,1007.3261636629916,2021-09-02 05:33:34.192
444,-271.0,969.0,20.0,1006.3806436930312,2021-09-02 05:33:34.193
445,-160.0,946.0,-21.0,959.6650457321032,2021-09-02 05:33:34.202
446,-216.0,946.0,-21.0,970.5735417782622,2021-09-02 05:33:34.211
447,-216.0,1120.0,0.0,1140.6384177292996,2021-09-02 05:33:34.212
448,-191.0,968.0,-30.0,987.119546964804,2021-09-02 05:33:34.221
449,-140.0,968.0,-30.0,978.5315528893282,2021-09-02 05:33:34.230
450,-140.0,1079.0,-71.0,1090.3586565896562,2021-09-02 05:33:34.231
451,-219.0,978.0,24.0,1002.5073565814866,2021-09-02 05:33:34.241
452,-112.0,988.0,-81.0,997.6216717774328,2021-09-02 05:33:34.250
453,-197.0,1132.0,-86.0,1152.2278420520831,2021-09-02 05:33:34.260
454,-247.0,1132.0,-86.0,1161.8214148482546,2021-09-02 05:33:34.269
455,-247.0,1022.0,93.0,1055.5292511342354,2021-09-02 05:33:34.270
456,-205.0,1015.0,-117.0,1042.083969745241,2021-09-02 05:33:34.279
457,-148.0,1081.0,18.0,1091.2327890968086,2021-09-02 05:33:34.290
458,-130.0,1040.0,18.0,1048.2480622448104,2021-09-02 05:33:34.299
459,-130.0,1040.0,-47.0,1049.1467962110926,2021-09-02 05:33:34.300
460,-256.0,1111.0,-76.0,1142.642988863976,2021-09-02 05:33:34.309
461,-219.0,965.0,-76.0,992.4525177558874,2021-09-02 05:33:34.318
462,-219.0,965.0,60.0,991.3556374984712,2021-09-02 05:33:34.319
463,-379.0,977.0,-53.0,1049.2754643085866,2021-09-02 05:33:34.329
464,-207.0,977.0,-53.0,1000.0934956292836,2021-09-02 05:33:34.338
465,-207.0,961.0,35.0,983.6640686738538,2021-09-02 05:33:34.339
466,-101.0,951.0,-37.0,957.06373873426,2021-09-02 05:33:34.348
467,-207.0,1099.0,-32.0,1118.782373833267,2021-09-02 05:33:34.360
468,-258.0,988.0,42.0,1021.9941291416502,2021-09-02 05:33:34.368
469,-151.0,940.0,-81.0,955.4904499784392,2021-09-02 05:33:34.377
470,-91.0,1005.0,-19.0,1009.2903447472388,2021-09-02 05:33:34.387
471,-185.0,1005.0,-19.0,1022.062131183814,2021-09-02 05:33:34.396
472,-185.0,865.0,-88.0,888.9285685588015,2021-09-02 05:33:34.397
473,-85.0,1019.0,-91.0,1026.5802452804164,2021-09-02 05:33:34.406
474,-210.0,975.0,68.0,999.6744470076246,2021-09-02 05:33:34.416
475,-225.0,980.0,-96.0,1010.0697995683267,2021-09-02 05:33:34.426
476,-82.0,1054.0,49.0,1058.3198949278049,2021-09-02 05:33:34.436
477,-331.0,868.0,-10.0,929.0236810759992,2021-09-02 05:33:34.445
478,-108.0,1063.0,-144.0,1078.1321811355044,2021-09-02 05:33:34.456
479,-257.0,846.0,-2.0,884.177018475373,2021-09-02 05:33:34.465
480,-210.0,1022.0,-132.0,1051.6691494952204,2021-09-02 05:33:34.475
481,-139.0,982.0,-164.0,1005.256683638562,2021-09-02 05:33:34.484
482,-172.0,847.0,-18.0,864.4749851788656,2021-09-02 05:33:34.495
483,-193.0,1000.0,-71.0,1020.9260502112776,2021-09-02 05:33:34.504
484,-237.0,947.0,104.0,981.7301054770604,2021-09-02 05:33:34.514
485,-188.0,973.0,-104.0,996.4381566359248,2021-09-02 05:33:34.524
486,-129.0,995.0,-154.0,1015.0773369551702,2021-09-02 05:33:34.533
487,-172.0,891.0,-21.0,907.6926792698066,2021-09-02 05:33:34.543
488,-203.0,1073.0,-126.0,1099.2788545223636,2021-09-02 05:33:34.553
489,-193.0,1073.0,-126.0,1097.4761956416185,2021-09-02 05:33:34.562
490,-193.0,945.0,-7.0,964.5325292596408,2021-09-02 05:33:34.563
491,-177.0,937.0,-88.0,957.623099136607,2021-09-02 05:33:34.572
492,-145.0,1085.0,-67.0,1096.6945791787248,2021-09-02 05:33:34.582
493,-186.0,824.0,-45.0,845.9296661070588,2021-09-02 05:33:34.592
494,-171.0,824.0,-45.0,842.7585656639748,2021-09-02 05:33:34.601
495,-171.0,1085.0,-86.0,1101.7540560397315,2021-09-02 05:33:34.602
496,-210.0,936.0,21.0,959.4983064080936,2021-09-02 05:33:34.612
497,-146.0,996.0,-101.0,1011.6980774915014,2021-09-02 05:33:34.622
498,-151.0,1118.0,-8.0,1128.1795069934572,2021-09-02 05:33:34.631
499,-250.0,954.0,61.0,988.0976672374044,2021-09-02 05:33:34.641
500,-215.0,1049.0,-84.0,1074.0958988842665,2021-09-02 05:33:34.651
501,-223.0,1042.0,69.0,1067.826764976417,2021-09-02 05:33:34.660
502,-220.0,1042.0,69.0,1067.204291595569,2021-09-02 05:33:34.670
503,-220.0,952.0,-13.0,977.1760332713856,2021-09-02 05:33:34.671
504,-165.0,1155.0,-61.0,1168.3197336345902,2021-09-02 05:33:34.680
505,-232.0,1017.0,-61.0,1044.9086084438195,2021-09-02 05:33:34.689
506,-232.0,1017.0,57.0,1044.6827269558926,2021-09-02 05:33:34.690
507,-196.0,1101.0,-79.0,1121.096784403559,2021-09-02 05:33:34.699
508,-185.0,1101.0,-79.0,1119.2260718907507,2021-09-02 05:33:34.709
509,-185.0,1076.0,60.0,1093.4354119014072,2021-09-02 05:33:34.710
510,-161.0,1015.0,-44.0,1028.6311292197995,2021-09-02 05:33:34.719
511,-265.0,1137.0,-38.0,1168.0916059967217,2021-09-02 05:33:34.729
512,-229.0,913.0,29.0,941.727667640704,2021-09-02 05:33:34.738
513,-195.0,1114.0,-62.0,1132.6363052630795,2021-09-02 05:33:34.748
514,-111.0,1114.0,-62.0,1121.23191178275,2021-09-02 05:33:34.758
515,-111.0,1014.0,38.0,1020.7649092714736,2021-09-02 05:33:34.759
516,-222.0,888.0,-14.0,915.4365079021046,2021-09-02 05:33:34.768
517,-118.0,1046.0,-14.0,1052.7278850681214,2021-09-02 05:33:34.778
518,-118.0,1046.0,-86.0,1056.142035902369,2021-09-02 05:33:34.779
519,-259.0,839.0,37.0,878.8464029624289,2021-09-02 05:33:34.787
520,-183.0,945.0,-101.0,967.8403794014796,2021-09-02 05:33:34.797
521,-104.0,1001.0,30.0,1006.835140427667,2021-09-02 05:33:34.807
522,-171.0,1001.0,30.0,1015.9438960887557,2021-09-02 05:33:34.816
523,-171.0,884.0,-23.0,900.6808535768927,2021-09-02 05:33:34.817
524,-91.0,884.0,-23.0,888.9690658285023,2021-09-02 05:33:34.826
525,-91.0,1053.0,-90.0,1060.749734857379,2021-09-02 05:33:34.827
526,-211.0,924.0,28.0,948.1988188138604,2021-09-02 05:33:34.836
527,-160.0,955.0,-74.0,971.133873366592,2021-09-02 05:33:34.846
528,-173.0,955.0,-74.0,973.3601594476733,2021-09-02 05:33:34.855
529,-173.0,931.0,49.0,948.2040919548912,2021-09-02 05:33:34.856
530,-215.0,913.0,49.0,939.2523622541496,2021-09-02 05:33:34.865
531,-215.0,913.0,-9.0,938.0165243747042,2021-09-02 05:33:34.866
532,-121.0,1047.0,-65.0,1055.971117029249,2021-09-02 05:33:34.876
533,-111.0,920.0,63.0,928.8110679788437,2021-09-02 05:33:34.936
534,-154.0,1036.0,63.0,1049.2764173467351,2021-09-02 05:33:34.939
535,-154.0,1036.0,-56.0,1048.8794020286605,2021-09-02 05:33:34.940
536,-193.0,999.0,-56.0,1019.0122668545262,2021-09-02 05:33:34.941
537,-193.0,999.0,-91.0,1021.5336509386268,2021-09-02 05:33:34.942
538,-193.0,999.0,-91.0,1021.5336509386268,2021-09-02 05:33:34.943
539,-193.0,911.0,-14.0,931.3248627627204,2021-09-02 05:33:34.944
540,-132.0,986.0,-14.0,994.894969330934,2021-09-02 05:33:34.946
541,-132.0,986.0,-89.0,998.769743234145,2021-09-02 05:33:34.947
542,-78.0,1031.0,-16.0,1034.0701136770176,2021-09-02 05:33:34.953
543,-181.0,854.0,-35.0,873.6715630029399,2021-09-02 05:33:34.963
544,-72.0,1063.0,-104.0,1070.4994161605134,2021-09-02 05:33:34.973
545,-162.0,860.0,49.0,876.4958642229865,2021-09-02 05:33:34.983
546,-143.0,978.0,-111.0,994.6124873537432,2021-09-02 05:33:34.995
547,-154.0,978.0,-111.0,996.2534818006912,2021-09-02 05:33:35.002
548,-154.0,1114.0,-76.0,1127.1592611516794,2021-09-02 05:33:35.003
549,-228.0,945.0,48.0,973.3000565087827,2021-09-02 05:33:35.012
550,-221.0,945.0,48.0,971.6841050464908,2021-09-02 05:33:35.021
551,-221.0,1122.0,-43.0,1144.3662001300108,2021-09-02 05:33:35.022
552,-241.0,1053.0,71.0,1082.5576197136113,2021-09-02 05:33:35.031
553,-192.0,1029.0,-49.0,1047.9055300932428,2021-09-02 05:33:35.043
554,-220.0,1133.0,-59.0,1155.6686376293162,2021-09-02 05:33:35.052
555,-237.0,1133.0,-59.0,1159.0250213002305,2021-09-02 05:33:35.060
556,-237.0,942.0,33.0,971.9166630941152,2021-09-02 05:33:35.061
557,-160.0,1101.0,-124.0,1119.4538847134347,2021-09-02 05:33:35.070
558,-222.0,1012.0,74.0,1038.7030374462183,2021-09-02 05:33:35.080
559,-215.0,1054.0,-53.0,1077.0097492594948,2021-09-02 05:33:35.091
560,-199.0,1163.0,3.0,1179.906352216141,2021-09-02 05:33:35.101
561,-234.0,983.0,3.0,1010.4721668606217,2021-09-02 05:33:35.109
562,-234.0,983.0,0.0,1010.4677134871752,2021-09-02 05:33:35.110
563,-183.0,1228.0,-107.0,1246.1629106982762,2021-09-02 05:33:35.119
564,-179.0,1228.0,-107.0,1245.5817917744305,2021-09-02 05:33:35.129
565,-179.0,1093.0,77.0,1110.2337591696623,2021-09-02 05:33:35.130
566,-245.0,1027.0,-61.0,1057.5797842243392,2021-09-02 05:33:35.140
567,-146.0,1027.0,-61.0,1039.1178951399115,2021-09-02 05:33:35.148
568,-146.0,1122.0,-73.0,1133.8117127636317,2021-09-02 05:33:35.149
569,-283.0,918.0,27.0,961.0109260565148,2021-09-02 05:33:35.159
570,-221.0,1077.0,-55.0,1100.8156067207624,2021-09-02 05:33:35.168
571,-197.0,990.0,77.0,1012.3428273070344,2021-09-02 05:33:35.178
572,-216.0,949.0,-55.0,974.82408669462,2021-09-02 05:33:35.188
573,-147.0,1062.0,-55.0,1073.5352812087733,2021-09-02 05:33:35.198
574,-147.0,1062.0,-72.0,1074.5403668545914,2021-09-02 05:33:35.199
575,-256.0,979.0,55.0,1013.4110715795442,2021-09-02 05:33:35.207
576,-142.0,1077.0,-88.0,1089.8793511210313,2021-09-02 05:33:35.217
577,-243.0,1053.0,86.0,1084.0913245663394,2021-09-02 05:33:35.227
578,-219.0,1023.0,-78.0,1049.0824562445032,2021-09-02 05:33:35.237
579,-131.0,1066.0,-124.0,1081.153550611568,2021-09-02 05:33:35.247
580,-240.0,872.0,-11.0,904.491569888852,2021-09-02 05:33:35.256
581,-144.0,1017.0,-153.0,1038.4767691190789,2021-09-02 05:33:35.266
582,-107.0,967.0,-153.0,984.8588731386848,2021-09-02 05:33:35.275
583,-107.0,967.0,4.0,972.9100677863294,2021-09-02 05:33:35.276
584,-190.0,905.0,-34.0,925.3545266545142,2021-09-02 05:33:35.285
585,-75.0,956.0,-88.0,962.9667699354948,2021-09-02 05:33:35.296
586,-211.0,857.0,-4.0,882.6018354841553,2021-09-02 05:33:35.305
587,-221.0,857.0,-4.0,885.0457615287472,2021-09-02 05:33:35.319
588,-221.0,945.0,-69.0,972.9475833774396,2021-09-02 05:33:35.320
589,-198.0,845.0,21.0,868.141693504004,2021-09-02 05:33:35.324
590,-262.0,821.0,-85.0,865.9734407012724,2021-09-02 05:33:35.334
591,-142.0,951.0,-85.0,965.2927017231611,2021-09-02 05:33:35.344
592,-142.0,951.0,-122.0,969.251773276686,2021-09-02 05:33:35.345
593,-253.0,951.0,-122.0,991.61181921153,2021-09-02 05:33:35.353
594,-253.0,813.0,-26.0,851.8532737508261,2021-09-02 05:33:35.354
595,-207.0,979.0,-81.0,1003.9178253223716,2021-09-02 05:33:35.364
596,-194.0,1040.0,20.0,1058.1285366154718,2021-09-02 05:33:35.373
597,-240.0,854.0,-38.0,887.8963903519374,2021-09-02 05:33:35.383
598,-130.0,1090.0,-60.0,1099.3634521849451,2021-09-02 05:33:35.393
599,-236.0,863.0,-60.0,896.69671572946,2021-09-02 05:33:35.404
600,-236.0,863.0,6.0,894.707214679752,2021-09-02 05:33:35.405
601,-213.0,949.0,-92.0,976.9513805712136,2021-09-02 05:33:35.412
602,-219.0,969.0,22.0,993.6830480590882,2021-09-02 05:33:35.422
603,-225.0,886.0,-68.0,916.6487877044292,2021-09-02 05:33:35.432
604,-103.0,995.0,-68.0,1002.6255532351048,2021-09-02 05:33:35.441
605,-103.0,995.0,-81.0,1003.5910521721484,2021-09-02 05:33:35.442
606,-217.0,836.0,1.0,863.7048106847617,2021-09-02 05:33:35.452
607,-236.0,966.0,-50.0,995.6666108693212,2021-09-02 05:33:35.461
608,-134.0,861.0,3.0,871.3701853976874,2021-09-02 05:33:35.471
609,-160.0,881.0,3.0,895.416104389462,2021-09-02 05:33:35.480
610,-160.0,881.0,-95.0,900.4365607859335,2021-09-02 05:33:35.481
611,-148.0,958.0,-111.0,975.69923644533,2021-09-02 05:33:35.490
612,-128.0,958.0,-111.0,972.8663834258022,2021-09-02 05:33:35.500
613,-128.0,953.0,80.0,964.8797852582466,2021-09-02 05:33:35.501
614,-141.0,1003.0,-25.0,1013.170765468487,2021-09-02 05:33:35.511
615,-133.0,1080.0,48.0,1089.21669102158,2021-09-02 05:33:35.520
616,-170.0,925.0,15.0,940.6115032254284,2021-09-02 05:33:35.530
617,-142.0,1141.0,-54.0,1151.0695026800076,2021-09-02 05:33:35.539
618,-157.0,955.0,36.0,968.4885130965674,2021-09-02 05:33:35.549
619,-165.0,1037.0,-85.0,1053.4794729846424,2021-09-02 05:33:35.560
620,-135.0,1134.0,-85.0,1145.1663634599124,2021-09-02 05:33:35.568
621,-135.0,1134.0,69.0,1144.0900314223527,2021-09-02 05:33:35.569
622,-171.0,863.0,5.0,879.7925891936121,2021-09-02 05:33:35.579
623,-133.0,1072.0,-50.0,1081.3755129463584,2021-09-02 05:33:35.588
624,-217.0,872.0,76.0,901.8031936071196,2021-09-02 05:33:35.598
625,-116.0,820.0,-47.0,829.4968354370016,2021-09-02 05:33:35.608
626,-79.0,1059.0,-89.0,1065.6655197574894,2021-09-02 05:33:35.617
627,-146.0,915.0,14.0,926.6806353863234,2021-09-02 05:33:35.627
628,-170.0,1027.0,-88.0,1044.687991698957,2021-09-02 05:33:35.637
629,-203.0,1027.0,-88.0,1050.5627063626423,2021-09-02 05:33:35.646
630,-203.0,1030.0,30.0,1050.2423529833484,2021-09-02 05:33:35.647
631,-164.0,916.0,-88.0,934.717069492154,2021-09-02 05:33:35.657
632,-144.0,916.0,-88.0,931.4161261219392,2021-09-02 05:33:35.667
633,-144.0,1039.0,-118.0,1055.5477251171544,2021-09-02 05:33:35.668
634,-131.0,920.0,11.0,929.3449305828271,2021-09-02 05:33:35.676
635,-183.0,920.0,11.0,938.0884819674528,2021-09-02 05:33:35.685
636,-183.0,1018.0,-93.0,1038.4902503153317,2021-09-02 05:33:35.686
637,-210.0,951.0,51.0,975.2445847068312,2021-09-02 05:33:35.695
638,-171.0,976.0,-73.0,993.5522130215402,2021-09-02 05:33:35.705
639,-138.0,1087.0,-20.0,1095.9073865979735,2021-09-02 05:33:35.716
640,-258.0,1087.0,-20.0,1117.3777338035693,2021-09-02 05:33:35.724
641,-258.0,915.0,-36.0,951.3595534812272,2021-09-02 05:33:35.725
642,-174.0,1045.0,-111.0,1065.1863686698211,2021-09-02 05:33:35.738
643,-170.0,1025.0,11.0,1039.0601522529869,2021-09-02 05:33:35.744
644,-202.0,974.0,-35.0,995.3416498871128,2021-09-02 05:33:35.754
645,-88.0,1162.0,-88.0,1168.6453696481235,2021-09-02 05:33:35.765
646,-238.0,959.0,-88.0,992.0025201580892,2021-09-02 05:33:35.773
647,-238.0,959.0,9.0,988.1325821973488,2021-09-02 05:33:35.774
648,-166.0,1051.0,-127.0,1071.5810748608806,2021-09-02 05:33:35.783
649,-204.0,1032.0,36.0,1052.5853884602427,2021-09-02 05:33:35.793
650,-181.0,946.0,-96.0,967.9323323456036,2021-09-02 05:33:35.803
651,-102.0,1106.0,-104.0,1115.5518813573844,2021-09-02 05:33:35.813
652,-204.0,1106.0,-104.0,1129.454735702144,2021-09-02 05:33:35.823
653,-204.0,940.0,-2.0,961.8835688377258,2021-09-02 05:33:35.824
654,-177.0,1039.0,-70.0,1056.290679690018,2021-09-02 05:33:35.832
655,-212.0,1118.0,-1.0,1137.9231081228645,2021-09-02 05:33:35.842
656,-252.0,1118.0,-1.0,1146.0493008592605,2021-09-02 05:33:35.851
657,-252.0,947.0,-37.0,980.6538635012864,2021-09-02 05:33:35.852
658,-185.0,1065.0,-104.0,1085.9401456802304,2021-09-02 05:33:35.862
659,-285.0,970.0,42.0,1011.8740040143338,2021-09-02 05:33:35.872
660,-203.0,1066.0,-56.0,1086.6006626171363,2021-09-02 05:33:35.881
661,-124.0,1080.0,39.0,1087.7945578095157,2021-09-02 05:33:35.891
662,-181.0,997.0,39.0,1014.0468430994696,2021-09-02 05:33:35.900
663,-181.0,997.0,-22.0,1013.5353965205162,2021-09-02 05:33:35.901
664,-152.0,1092.0,-87.0,1105.9552432173737,2021-09-02 05:33:35.910
665,-287.0,937.0,-2.0,979.970407716478,2021-09-02 05:33:35.921
666,-201.0,1069.0,-121.0,1094.4418668892376,2021-09-02 05:33:35.930
667,-161.0,1079.0,47.0,1091.9574167521369,2021-09-02 05:33:35.988
668,-213.0,1075.0,-41.0,1096.665400201903,2021-09-02 05:33:35.994
669,-184.0,978.0,-66.0,997.3444740910736,2021-09-02 05:33:35.996
670,-184.0,1039.0,-66.0,1057.2289250677925,2021-09-02 05:33:35.997
671,-184.0,1039.0,-32.0,1055.6519312728035,2021-09-02 05:33:35.998
