,Acceleration_X,Acceleration_Y,Acceleration_Z,magnitude,time_stamp
0,-46.0,1006.0,-77.0,1009.9905940156076,2021-09-02 05:33:49.554
1,-66.0,980.0,140.0,992.1471665030344,2021-09-02 05:33:49.563
2,-187.0,1055.0,-164.0,1083.9234290299291,2021-09-02 05:33:49.573
3,-250.0,1055.0,-164.0,1096.5495884819802,2021-09-02 05:33:49.582
4,-250.0,1094.0,-164.0,1134.1216865927572,2021-09-02 05:33:49.585
5,-250.0,1094.0,-186.0,1137.511318625006,2021-09-02 05:33:49.586
6,-344.0,939.0,20.0,1000.2284738998384,2021-09-02 05:33:49.592
7,-70.0,1015.0,17.0,1017.5529470253624,2021-09-02 05:33:49.602
8,-190.0,1151.0,17.0,1166.7004757005973,2021-09-02 05:33:49.611
9,-190.0,1151.0,41.0,1167.2968774052297,2021-09-02 05:33:49.612
10,-188.0,1024.0,1.0,1041.1152673935774,2021-09-02 05:33:49.621
11,-149.0,1062.0,-87.0,1075.9247185560894,2021-09-02 05:33:49.631
12,-247.0,1016.0,63.0,1047.489379421099,2021-09-02 05:33:49.641
13,-192.0,1050.0,-32.0,1067.88950739297,2021-09-02 05:33:49.651
14,-94.0,1046.0,5.0,1050.227118293943,2021-09-02 05:33:49.661
15,-244.0,1048.0,-101.0,1080.7594551980565,2021-09-02 05:33:49.671
16,-140.0,1127.0,-39.0,1136.3318177363512,2021-09-02 05:33:49.680
17,-255.0,1127.0,-39.0,1156.1466169997643,2021-09-02 05:33:49.689
18,-255.0,926.0,14.0,960.5711842440412,2021-09-02 05:33:49.690
19,-286.0,1091.0,14.0,1127.9507967992222,2021-09-02 05:33:49.699
20,-286.0,1091.0,-115.0,1133.711603539454,2021-09-02 05:33:49.700
21,-185.0,1135.0,22.0,1150.1886801738226,2021-09-02 05:33:49.710
22,-225.0,1135.0,22.0,1157.295986340573,2021-09-02 05:33:49.719
23,-225.0,895.0,62.0,924.929186478619,2021-09-02 05:33:49.720
24,-233.0,1029.0,3.0,1055.0540270526435,2021-09-02 05:33:49.729
25,-229.0,844.0,3.0,874.5204400126963,2021-09-02 05:33:49.738
26,-229.0,844.0,128.0,883.8331290464281,2021-09-02 05:33:49.739
27,-48.0,958.0,-22.0,959.4540114044028,2021-09-02 05:33:49.748
28,-93.0,1097.0,30.0,1101.343724729024,2021-09-02 05:33:49.759
29,-93.0,866.0,91.0,875.7202749736928,2021-09-02 05:33:49.768
30,-170.0,866.0,91.0,887.2074165605245,2021-09-02 05:33:49.777
31,-170.0,1036.0,-27.0,1050.202361452306,2021-09-02 05:33:49.778
32,-279.0,1010.0,128.0,1055.6159339456751,2021-09-02 05:33:49.794
33,-34.0,952.0,-38.0,953.3645682528798,2021-09-02 05:33:49.798
34,-106.0,1048.0,-38.0,1054.0322575708965,2021-09-02 05:33:49.807
35,-106.0,1048.0,-12.0,1053.4153976471011,2021-09-02 05:33:49.808
36,-247.0,956.0,-59.0,989.1541841391564,2021-09-02 05:33:49.818
37,-184.0,996.0,-32.0,1013.3587716105288,2021-09-02 05:33:49.826
38,-88.0,999.0,5.0,1002.8808503506286,2021-09-02 05:33:49.836
39,-86.0,913.0,-44.0,918.0964001672156,2021-09-02 05:33:49.846
40,-161.0,978.0,-118.0,998.1628123708076,2021-09-02 05:33:49.856
41,-218.0,850.0,-118.0,885.4083803533824,2021-09-02 05:33:49.866
42,-218.0,850.0,61.0,879.6277621812536,2021-09-02 05:33:49.867
43,-231.0,879.0,61.0,910.8913217283388,2021-09-02 05:33:49.876
44,-231.0,879.0,-116.0,916.2194060376588,2021-09-02 05:33:49.877
45,-99.0,835.0,0.0,840.8483811008974,2021-09-02 05:33:49.885
46,-46.0,921.0,-70.0,924.8010596879742,2021-09-02 05:33:49.895
47,-81.0,1040.0,-70.0,1045.4955762699333,2021-09-02 05:33:49.904
48,-81.0,1040.0,-144.0,1053.0417845460834,2021-09-02 05:33:49.905
49,-187.0,833.0,8.0,853.7692896795949,2021-09-02 05:33:49.914
50,-213.0,833.0,8.0,859.83835690204,2021-09-02 05:33:49.925
51,-213.0,938.0,-122.0,969.585994123265,2021-09-02 05:33:49.926
52,-274.0,874.0,52.0,917.4181162370842,2021-09-02 05:33:49.934
53,-59.0,897.0,52.0,900.4410030646095,2021-09-02 05:33:49.943
54,-59.0,897.0,-34.0,899.581013583546,2021-09-02 05:33:49.944
55,-89.0,1068.0,-3.0,1071.7061164330453,2021-09-02 05:33:49.953
56,-198.0,978.0,-18.0,998.004008007984,2021-09-02 05:33:49.964
57,-177.0,1043.0,-130.0,1065.8695980278262,2021-09-02 05:33:49.974
58,-185.0,1043.0,-130.0,1067.2272485276976,2021-09-02 05:33:49.982
59,-185.0,1081.0,-17.0,1096.8477560719173,2021-09-02 05:33:49.983
60,-246.0,1037.0,-65.0,1067.7593361802087,2021-09-02 05:33:49.992
61,-225.0,1041.0,-146.0,1074.9986046502572,2021-09-02 05:33:50.003
62,-277.0,1011.0,26.0,1048.582853188054,2021-09-02 05:33:50.012
63,-227.0,1062.0,-113.0,1091.8525541482238,2021-09-02 05:33:50.022
64,-97.0,951.0,-29.0,956.3738808645916,2021-09-02 05:33:50.033
65,-158.0,1011.0,-73.0,1025.8723117425482,2021-09-02 05:33:50.045
66,-253.0,1074.0,-128.0,1110.796561031767,2021-09-02 05:33:50.051
67,-187.0,852.0,30.0,872.7960815677394,2021-09-02 05:33:50.061
68,-268.0,1015.0,30.0,1050.2137877594257,2021-09-02 05:33:50.070
69,-268.0,1015.0,-98.0,1054.3495625265844,2021-09-02 05:33:50.071
70,-47.0,1043.0,-8.0,1044.0890766596497,2021-09-02 05:33:50.081
71,-202.0,980.0,-59.0,1002.3397627551248,2021-09-02 05:33:50.090
72,-202.0,1139.0,-6.0,1156.789090543302,2021-09-02 05:33:50.100
73,-270.0,911.0,29.0,950.611382216729,2021-09-02 05:33:50.110
74,-196.0,1082.0,29.0,1099.9913636024603,2021-09-02 05:33:50.119
75,-196.0,1082.0,-94.0,1103.619499646504,2021-09-02 05:33:50.120
76,-158.0,1128.0,-4.0,1139.018876050788,2021-09-02 05:33:50.130
77,-296.0,1016.0,-80.0,1061.2596289315825,2021-09-02 05:33:50.139
78,-278.0,1016.0,-80.0,1056.3806132261232,2021-09-02 05:33:50.148
79,-278.0,1140.0,-116.0,1179.1267955567798,2021-09-02 05:33:50.149
80,-224.0,1027.0,25.0,1051.44186715196,2021-09-02 05:33:50.158
81,-253.0,1071.0,-76.0,1103.09836370108,2021-09-02 05:33:50.169
82,-144.0,1062.0,-34.0,1072.25743177653,2021-09-02 05:33:50.178
83,-187.0,1062.0,-34.0,1078.873950005282,2021-09-02 05:33:50.188
84,-187.0,1129.0,-17.0,1144.508191320621,2021-09-02 05:33:50.189
85,-158.0,980.0,-17.0,992.8005842061134,2021-09-02 05:33:50.197
86,-158.0,980.0,-7.0,992.6797066526544,2021-09-02 05:33:50.198
87,-288.0,941.0,150.0,995.45215856916,2021-09-02 05:33:50.207
88,-92.0,890.0,150.0,907.2287473399418,2021-09-02 05:33:50.217
89,-92.0,890.0,-16.0,894.8854675320189,2021-09-02 05:33:50.218
90,-63.0,1085.0,0.0,1086.827493211319,2021-09-02 05:33:50.227
91,-165.0,960.0,-28.0,974.478835070316,2021-09-02 05:33:50.238
92,-139.0,1042.0,0.0,1051.2302316809578,2021-09-02 05:33:50.246
93,-241.0,896.0,51.0,929.2459308493096,2021-09-02 05:33:50.256
94,-192.0,950.0,-80.0,972.5039845676728,2021-09-02 05:33:50.266
95,-80.0,950.0,-80.0,956.7131231461184,2021-09-02 05:33:50.275
96,-80.0,992.0,8.0,995.252731721948,2021-09-02 05:33:50.276
97,-194.0,932.0,-118.0,959.2622164976582,2021-09-02 05:33:50.286
98,-126.0,1049.0,-73.0,1059.0590162970143,2021-09-02 05:33:50.295
99,-246.0,925.0,22.0,957.4053478020686,2021-09-02 05:33:50.305
100,-84.0,925.0,22.0,929.0667360313788,2021-09-02 05:33:50.314
101,-84.0,902.0,-39.0,906.7419699120584,2021-09-02 05:33:50.315
102,-100.0,1060.0,-96.0,1069.0257246670917,2021-09-02 05:33:50.325
103,-194.0,844.0,77.0,869.4256724988054,2021-09-02 05:33:50.335
104,-194.0,954.0,-103.0,978.959141128985,2021-09-02 05:33:50.345
105,-219.0,907.0,61.0,935.0566827738304,2021-09-02 05:33:50.354
106,-44.0,898.0,61.0,901.1442725779264,2021-09-02 05:33:50.363
107,-44.0,898.0,9.0,899.1223498501191,2021-09-02 05:33:50.364
108,-152.0,1039.0,-35.0,1050.6426604702476,2021-09-02 05:33:50.388
109,-200.0,867.0,-35.0,890.4571859443889,2021-09-02 05:33:50.390
110,-200.0,867.0,-20.0,889.9938202032641,2021-09-02 05:33:50.391
111,-104.0,1009.0,-34.0,1014.915267399205,2021-09-02 05:33:50.393
112,-242.0,880.0,-34.0,913.3017026152968,2021-09-02 05:33:50.402
113,-242.0,880.0,89.0,916.9978189723244,2021-09-02 05:33:50.403
114,-57.0,918.0,-90.0,924.160700311369,2021-09-02 05:33:50.416
115,-83.0,1068.0,7.0,1071.243203012276,2021-09-02 05:33:50.422
116,-219.0,983.0,34.0,1007.6735582518776,2021-09-02 05:33:50.432
117,-332.0,983.0,34.0,1038.1083758452198,2021-09-02 05:33:50.441
118,-332.0,1099.0,-142.0,1156.801192945443,2021-09-02 05:33:50.442
119,-83.0,1041.0,-19.0,1044.4764238602995,2021-09-02 05:33:50.451
120,-114.0,994.0,-24.0,1000.8036770515984,2021-09-02 05:33:50.462
121,-268.0,1141.0,-81.0,1174.8472241104373,2021-09-02 05:33:50.471
122,-242.0,851.0,89.0,889.2052631423186,2021-09-02 05:33:50.481
123,-278.0,904.0,-129.0,954.5370605691536,2021-09-02 05:33:50.490
124,-203.0,994.0,-129.0,1022.6856799623235,2021-09-02 05:33:50.500
125,-203.0,994.0,35.0,1015.1206824806596,2021-09-02 05:33:50.501
126,-60.0,994.0,35.0,996.4241064928126,2021-09-02 05:33:50.510
127,-60.0,934.0,-14.0,936.029914051896,2021-09-02 05:33:50.511
128,-170.0,934.0,-14.0,949.4482608336276,2021-09-02 05:33:50.553
129,-170.0,1083.0,-115.0,1102.2767347630993,2021-09-02 05:33:50.554
130,-91.0,996.0,-10.0,1000.1984803027848,2021-09-02 05:33:50.557
131,-91.0,1048.0,-1.0,1051.9439148547797,2021-09-02 05:33:50.559
132,-206.0,1043.0,-57.0,1064.6755374291267,2021-09-02 05:33:50.561
133,-145.0,1054.0,-149.0,1074.3100111234187,2021-09-02 05:33:50.569
134,-290.0,1000.0,29.0,1041.6050115086812,2021-09-02 05:33:50.578
135,-278.0,1061.0,-63.0,1098.6236844343016,2021-09-02 05:33:50.589
136,-181.0,1032.0,-17.0,1047.8902614300794,2021-09-02 05:33:50.598
137,-238.0,1136.0,-31.0,1161.0775167920528,2021-09-02 05:33:50.608
138,-322.0,1105.0,-126.0,1157.8363442214102,2021-09-02 05:33:50.620
139,-216.0,966.0,63.0,991.8573486142049,2021-09-02 05:33:50.628
140,-226.0,1074.0,-111.0,1103.1196671259197,2021-09-02 05:33:50.637
141,-186.0,1057.0,45.0,1074.1834107823486,2021-09-02 05:33:50.647
142,-104.0,958.0,45.0,964.6787029887204,2021-09-02 05:33:50.656
143,-104.0,958.0,-17.0,963.7785015240794,2021-09-02 05:33:50.657
144,-129.0,1073.0,2.0,1080.7284580318965,2021-09-02 05:33:50.667
145,-225.0,1073.0,2.0,1096.3384513917224,2021-09-02 05:33:50.676
146,-225.0,894.0,60.0,923.829529729376,2021-09-02 05:33:50.677
147,-164.0,943.0,-110.0,963.4547213024596,2021-09-02 05:33:50.686
148,-28.0,943.0,-110.0,949.806822464442,2021-09-02 05:33:50.695
149,-28.0,1081.0,-53.0,1082.6606116415246,2021-09-02 05:33:50.696
150,-195.0,910.0,-108.0,936.9039438491012,2021-09-02 05:33:50.705
151,-137.0,1019.0,-52.0,1029.4823942156563,2021-09-02 05:33:50.716
152,-234.0,897.0,60.0,928.9590949013848,2021-09-02 05:33:50.725
153,-163.0,897.0,60.0,913.6618630543796,2021-09-02 05:33:50.734
154,-163.0,972.0,-95.0,990.1403940856064,2021-09-02 05:33:50.735
155,20.0,962.0,-37.0,962.9189997086984,2021-09-02 05:33:50.744
156,-207.0,971.0,-113.0,999.229202935943,2021-09-02 05:33:50.754
157,-186.0,1035.0,-57.0,1053.1239243317948,2021-09-02 05:33:50.764
158,-219.0,918.0,66.0,946.06606534639,2021-09-02 05:33:50.775
159,-77.0,887.0,-47.0,891.5755716707362,2021-09-02 05:33:50.788
160,-126.0,1027.0,-40.0,1035.473321722969,2021-09-02 05:33:50.793
161,-178.0,854.0,5.0,872.3674684443478,2021-09-02 05:33:50.803
162,-153.0,1013.0,5.0,1024.5013421172273,2021-09-02 05:33:50.813
163,-153.0,1013.0,0.0,1024.4891409868628,2021-09-02 05:33:50.814
164,-200.0,914.0,96.0,940.5381438304348,2021-09-02 05:33:50.824
165,-69.0,935.0,-63.0,939.6568522604408,2021-09-02 05:33:50.832
166,-93.0,1101.0,0.0,1104.9208116421737,2021-09-02 05:33:50.842
167,-240.0,909.0,-63.0,942.2579264723646,2021-09-02 05:33:50.852
168,-48.0,909.0,-63.0,912.4439708825962,2021-09-02 05:33:50.861
169,-48.0,990.0,-63.0,993.1631285946936,2021-09-02 05:33:50.862
170,-218.0,995.0,-63.0,1020.5478920658256,2021-09-02 05:33:50.872
171,-218.0,995.0,10.0,1018.6505779706798,2021-09-02 05:33:50.873
172,-203.0,882.0,-108.0,911.4806635359852,2021-09-02 05:33:50.881
173,-58.0,927.0,-41.0,929.7171612915404,2021-09-02 05:33:50.891
174,-246.0,927.0,-41.0,959.9614575596252,2021-09-02 05:33:50.900
175,-246.0,915.0,79.0,950.779680052114,2021-09-02 05:33:50.901
176,-290.0,997.0,-143.0,1048.1211762005385,2021-09-02 05:33:50.910
177,-190.0,1005.0,-16.0,1022.927661176488,2021-09-02 05:33:50.921
178,-68.0,1001.0,30.0,1003.755448304018,2021-09-02 05:33:50.931
179,-176.0,1001.0,30.0,1016.797423285484,2021-09-02 05:33:50.939
180,-176.0,1075.0,-105.0,1094.3610007671143,2021-09-02 05:33:50.940
181,-247.0,933.0,84.0,968.7899669174944,2021-09-02 05:33:50.949
182,-222.0,1062.0,-52.0,1086.2007180995602,2021-09-02 05:33:50.959
183,-192.0,903.0,9.0,923.230198812842,2021-09-02 05:33:50.969
184,-141.0,1019.0,-7.0,1028.7327155291605,2021-09-02 05:33:50.981
185,-223.0,1019.0,-7.0,1043.139012787845,2021-09-02 05:33:50.988
186,-223.0,1128.0,-1.0,1149.832161665345,2021-09-02 05:33:50.989
187,-224.0,889.0,24.0,917.100321666065,2021-09-02 05:33:50.998
188,-160.0,1094.0,-34.0,1106.1609286175317,2021-09-02 05:33:51.008
189,-89.0,1028.0,-2.0,1031.8473724345088,2021-09-02 05:33:51.018
190,-218.0,1016.0,-40.0,1039.8942253902558,2021-09-02 05:33:51.029
191,-305.0,1080.0,-100.0,1126.6876230792632,2021-09-02 05:33:51.037
192,-188.0,958.0,57.0,977.935069419233,2021-09-02 05:33:51.048
193,-310.0,1017.0,-110.0,1068.872770726245,2021-09-02 05:33:51.057
194,-166.0,1017.0,-110.0,1036.3131766025172,2021-09-02 05:33:51.066
195,-166.0,1130.0,-8.0,1142.1558562648097,2021-09-02 05:33:51.067
196,-123.0,1130.0,-8.0,1136.7026876012917,2021-09-02 05:33:51.077
197,-123.0,1015.0,2.0,1022.4275035424272,2021-09-02 05:33:51.078
198,-435.0,1100.0,2.0,1182.890104785732,2021-09-02 05:33:51.087
199,-435.0,1100.0,-136.0,1190.680897637986,2021-09-02 05:33:51.088
200,-247.0,945.0,57.0,978.4084014357196,2021-09-02 05:33:51.096
201,-326.0,969.0,-59.0,1024.0693335902604,2021-09-02 05:33:51.106
202,-168.0,941.0,-59.0,957.6982823415734,2021-09-02 05:33:51.115
203,-168.0,941.0,19.0,956.0679892141562,2021-09-02 05:33:51.116
204,-60.0,958.0,-3.0,959.8817635521576,2021-09-02 05:33:51.125
205,-116.0,994.0,-3.0,1000.7502185860366,2021-09-02 05:33:51.136
206,-116.0,994.0,-60.0,1002.5427671675658,2021-09-02 05:33:51.137
207,-282.0,924.0,4.0,966.0828121853737,2021-09-02 05:33:51.145
208,-230.0,911.0,-98.0,944.6824863413104,2021-09-02 05:33:51.155
209,-80.0,968.0,-42.0,972.2077967183764,2021-09-02 05:33:51.164
210,-173.0,927.0,-163.0,956.9885056780984,2021-09-02 05:33:51.175
211,-170.0,1077.0,-139.0,1099.1587692412777,2021-09-02 05:33:51.185
212,-159.0,1077.0,-139.0,1097.5112755685018,2021-09-02 05:33:51.193
213,-159.0,938.0,10.0,951.433129547211,2021-09-02 05:33:51.194
214,-241.0,989.0,-104.0,1023.2389750200095,2021-09-02 05:33:51.206
215,-156.0,1107.0,-23.0,1118.1744050012949,2021-09-02 05:33:51.213
216,-189.0,983.0,-20.0,1001.2042748610296,2021-09-02 05:33:51.223
217,-278.0,1059.0,-151.0,1105.24476927059,2021-09-02 05:33:51.234
218,-216.0,957.0,83.0,984.5780822260872,2021-09-02 05:33:51.244
219,-145.0,884.0,-57.0,897.6246431554785,2021-09-02 05:33:51.252
220,-148.0,1144.0,42.0,1154.2980550966895,2021-09-02 05:33:51.262
221,-249.0,1144.0,42.0,1171.5378781755203,2021-09-02 05:33:51.271
222,-249.0,928.0,24.0,961.1248618155709,2021-09-02 05:33:51.272
223,-80.0,974.0,24.0,977.5745495868844,2021-09-02 05:33:51.281
224,-80.0,974.0,-60.0,979.1200130729634,2021-09-02 05:33:51.282
225,-213.0,1016.0,-60.0,1039.8196959088627,2021-09-02 05:33:51.292
226,-213.0,1016.0,57.0,1039.6509029477154,2021-09-02 05:33:51.293
227,-146.0,906.0,-58.0,919.5194397075028,2021-09-02 05:33:51.301
228,-7.0,1002.0,-60.0,1003.8192068295964,2021-09-02 05:33:51.311
229,-252.0,983.0,-60.0,1016.5593932476352,2021-09-02 05:33:51.320
230,-252.0,983.0,-54.0,1016.2229086179864,2021-09-02 05:33:51.321
231,-87.0,1012.0,-79.0,1018.8002748331,2021-09-02 05:33:51.330
232,-187.0,876.0,-16.0,895.8800142876277,2021-09-02 05:33:51.341
233,-210.0,876.0,-16.0,900.9617083983092,2021-09-02 05:33:51.350
234,-210.0,989.0,-147.0,1021.6799890376634,2021-09-02 05:33:51.351
235,-104.0,1042.0,-9.0,1047.215832577029,2021-09-02 05:33:51.360
236,-252.0,903.0,36.0,938.194542725548,2021-09-02 05:33:51.369
237,-404.0,997.0,-25.0,1076.0343860676571,2021-09-02 05:33:51.379
238,-139.0,863.0,2.0,874.1247050621553,2021-09-02 05:33:51.443
239,-289.0,1024.0,17.0,1064.1362694692818,2021-09-02 05:33:51.445
240,-289.0,1025.0,17.0,1065.0985869862,2021-09-02 05:33:51.448
241,-289.0,1025.0,93.0,1069.015902594531,2021-09-02 05:33:51.449
242,-65.0,944.0,-4.0,946.2436261344116,2021-09-02 05:33:51.453
243,-40.0,1101.0,-29.0,1102.107980190689,2021-09-02 05:33:51.460
244,-296.0,984.0,-19.0,1027.731968949103,2021-09-02 05:33:51.467
245,-75.0,1014.0,-32.0,1017.2733162724757,2021-09-02 05:33:51.477
246,-92.0,1014.0,-32.0,1018.667757416519,2021-09-02 05:33:51.486
247,-92.0,1087.0,48.0,1091.941848268487,2021-09-02 05:33:51.487
248,-87.0,1032.0,-45.0,1036.6378345401058,2021-09-02 05:33:51.498
249,-289.0,1032.0,-45.0,1072.646260423258,2021-09-02 05:33:51.507
250,-289.0,1065.0,-132.0,1111.3820225287072,2021-09-02 05:33:51.508
251,-203.0,897.0,43.0,920.6883294579115,2021-09-02 05:33:51.516
252,-262.0,897.0,43.0,935.468866398022,2021-09-02 05:33:51.525
253,-262.0,1017.0,-102.0,1055.1478569375952,2021-09-02 05:33:51.526
254,-158.0,894.0,-102.0,913.566636868926,2021-09-02 05:33:51.535
255,-158.0,894.0,-5.0,907.8683825313008,2021-09-02 05:33:51.536
256,-98.0,950.0,-21.0,955.272212513271,2021-09-02 05:33:51.545
257,-206.0,1070.0,-87.0,1093.1171026015463,2021-09-02 05:33:51.591
258,-206.0,1070.0,-87.0,1093.1171026015463,2021-09-02 05:33:51.593
259,-206.0,855.0,42.0,880.468625221819,2021-09-02 05:33:51.594
260,-301.0,919.0,90.0,971.2167626230512,2021-09-02 05:33:51.597
261,-133.0,926.0,2.0,935.5046766318168,2021-09-02 05:33:51.598
262,-101.0,1037.0,-78.0,1044.8224729589233,2021-09-02 05:33:51.604
263,-194.0,970.0,30.0,989.6645896464116,2021-09-02 05:33:51.615
264,-190.0,994.0,-119.0,1018.9685961794896,2021-09-02 05:33:51.626
265,-47.0,1051.0,25.0,1052.3473761073385,2021-09-02 05:33:51.633
266,-289.0,971.0,-50.0,1014.3283492045364,2021-09-02 05:33:51.644
267,-262.0,971.0,-50.0,1006.9682219414872,2021-09-02 05:33:51.652
268,-262.0,1019.0,-86.0,1055.6519312728035,2021-09-02 05:33:51.653
269,-170.0,1013.0,-86.0,1030.7594287708455,2021-09-02 05:33:51.662
270,-170.0,1013.0,52.0,1028.480918636802,2021-09-02 05:33:51.663
271,-256.0,1037.0,-129.0,1075.8931173680776,2021-09-02 05:33:51.674
272,-103.0,1043.0,-18.0,1048.2280286273592,2021-09-02 05:33:51.682
273,-158.0,1043.0,-18.0,1055.0530792334573,2021-09-02 05:33:51.691
274,-158.0,1041.0,-59.0,1054.5738475801493,2021-09-02 05:33:51.692
275,-364.0,1096.0,-127.0,1161.8265791416547,2021-09-02 05:33:51.701
276,-204.0,855.0,19.0,879.2053230048144,2021-09-02 05:33:51.712
277,-288.0,973.0,19.0,1014.90590696872,2021-09-02 05:33:51.722
278,-288.0,973.0,-69.0,1017.0712856039148,2021-09-02 05:33:51.723
279,-13.0,1052.0,41.0,1052.8789104165778,2021-09-02 05:33:51.731
280,-268.0,1009.0,41.0,1044.789931038771,2021-09-02 05:33:51.740
281,-268.0,1009.0,-83.0,1047.2793323655346,2021-09-02 05:33:51.741
282,-97.0,1075.0,-10.0,1079.4137297625966,2021-09-02 05:33:51.750
283,-284.0,931.0,40.0,974.1750356070514,2021-09-02 05:33:51.760
284,-196.0,939.0,-107.0,965.1870285079468,2021-09-02 05:33:51.771
285,-9.0,1063.0,-107.0,1068.4095656629063,2021-09-02 05:33:51.780
286,-9.0,1063.0,21.0,1063.2455031647207,2021-09-02 05:33:51.781
287,-239.0,947.0,-147.0,987.6937784556508,2021-09-02 05:33:51.789
288,-141.0,1078.0,-122.0,1094.0059414829518,2021-09-02 05:33:51.799
289,-245.0,987.0,26.0,1017.2856039480752,2021-09-02 05:33:51.809
290,-242.0,1047.0,-88.0,1078.2008161747976,2021-09-02 05:33:51.820
291,-170.0,1074.0,6.0,1087.3876953506508,2021-09-02 05:33:51.830
292,-241.0,1062.0,-66.0,1091.0,2021-09-02 05:33:51.838
293,-234.0,1066.0,-107.0,1096.6134232262525,2021-09-02 05:33:51.848
294,-269.0,997.0,60.0,1034.3935421298802,2021-09-02 05:33:51.858
295,-143.0,920.0,0.0,931.047259810156,2021-09-02 05:33:51.868
296,-147.0,1093.0,0.0,1102.840877008102,2021-09-02 05:33:51.878
297,-147.0,1093.0,-3.0,1102.8449573716152,2021-09-02 05:33:51.879
298,-254.0,1093.0,-3.0,1122.1292260697962,2021-09-02 05:33:51.887
299,-254.0,948.0,45.0,982.4688290220712,2021-09-02 05:33:51.888
300,-89.0,1061.0,25.0,1065.0197181273218,2021-09-02 05:33:51.897
301,-228.0,1061.0,25.0,1085.5090971521151,2021-09-02 05:33:51.906
302,-228.0,947.0,34.0,974.6532716817812,2021-09-02 05:33:51.907
303,-120.0,941.0,-75.0,951.5807900541078,2021-09-02 05:33:51.916
304,-65.0,1064.0,-5.0,1065.9953095581611,2021-09-02 05:33:51.927
305,-232.0,898.0,-92.0,932.036479972753,2021-09-02 05:33:51.937
306,-68.0,898.0,-92.0,905.2579742813648,2021-09-02 05:33:51.945
307,-68.0,1037.0,-30.0,1039.6600405901922,2021-09-02 05:33:51.946
308,-229.0,934.0,7.0,961.689138963314,2021-09-02 05:33:51.955
309,-231.0,946.0,-100.0,978.9162374789786,2021-09-02 05:33:51.965
310,-297.0,1026.0,-127.0,1075.64585249979,2021-09-02 05:33:51.976
311,-241.0,869.0,66.0,904.2112585010208,2021-09-02 05:33:51.986
312,-235.0,943.0,-150.0,983.3483614670846,2021-09-02 05:33:51.994
313,-180.0,895.0,-27.0,913.320316208941,2021-09-02 05:33:52.004
314,-34.0,912.0,-39.0,913.4664744805908,2021-09-02 05:33:52.014
315,-187.0,980.0,-39.0,998.4437891038232,2021-09-02 05:33:52.024
316,-187.0,980.0,-58.0,999.3662992116556,2021-09-02 05:33:52.025
317,-196.0,1038.0,-47.0,1057.3878191089586,2021-09-02 05:33:52.035
318,-78.0,982.0,21.0,985.3167003557792,2021-09-02 05:33:52.048
319,-154.0,1013.0,110.0,1030.5265644319898,2021-09-02 05:33:52.053
320,-102.0,900.0,-54.0,907.369825374417,2021-09-02 05:33:52.063
321,-32.0,1059.0,27.0,1059.8273444292706,2021-09-02 05:33:52.073
322,-217.0,849.0,-65.0,878.7007454190533,2021-09-02 05:33:52.084
323,-256.0,1089.0,-47.0,1119.6722734800571,2021-09-02 05:33:52.092
324,-85.0,1074.0,26.0,1077.672028030792,2021-09-02 05:33:52.102
325,-234.0,1074.0,26.0,1099.503524323592,2021-09-02 05:33:52.111
326,-234.0,981.0,-22.0,1008.7621126905988,2021-09-02 05:33:52.112
327,-165.0,1077.0,-83.0,1092.7227461712323,2021-09-02 05:33:52.121
328,-220.0,876.0,-83.0,907.0088202437724,2021-09-02 05:33:52.132
329,-220.0,876.0,23.0,903.495987816216,2021-09-02 05:33:52.133
330,-191.0,1033.0,-120.0,1057.3410045959629,2021-09-02 05:33:52.141
331,-150.0,1033.0,-120.0,1050.7088083765168,2021-09-02 05:33:52.150
332,-150.0,1054.0,38.0,1065.2980803512226,2021-09-02 05:33:52.151
333,-144.0,923.0,-24.0,934.4736486386332,2021-09-02 05:33:52.160
334,-103.0,1103.0,-87.0,1111.2097011815547,2021-09-02 05:33:52.171
335,-267.0,966.0,41.0,1003.058323329207,2021-09-02 05:33:52.181
336,-181.0,971.0,-99.0,992.6746697684996,2021-09-02 05:33:52.190
337,-210.0,971.0,23.0,993.7152509647822,2021-09-02 05:33:52.200
338,-277.0,905.0,15.0,946.5616725813484,2021-09-02 05:33:52.209
339,-187.0,1062.0,-66.0,1080.3559598576758,2021-09-02 05:33:52.219
340,-167.0,1054.0,-66.0,1069.187074370056,2021-09-02 05:33:52.229
341,-167.0,1054.0,80.0,1070.1425138737363,2021-09-02 05:33:52.230
342,-195.0,1012.0,-60.0,1032.360886512076,2021-09-02 05:33:52.240
343,-128.0,1037.0,-60.0,1046.591133155637,2021-09-02 05:33:52.248
344,-128.0,1037.0,-32.0,1045.3597466901049,2021-09-02 05:33:52.249
345,-316.0,918.0,12.0,970.9397509629524,2021-09-02 05:33:52.258
346,-129.0,1063.0,-68.0,1072.9557306804415,2021-09-02 05:33:52.268
347,-96.0,963.0,52.0,969.1692318682016,2021-09-02 05:33:52.278
