,Acceleration_X,Acceleration_Y,Acceleration_Z,magnitude,time_stamp
0,-166.0,919.0,-100.0,939.2108389493808,2021-09-23 17:24:34.855
1,-57.0,1043.0,-156.0,1056.141089059601,2021-09-23 17:24:34.865
2,-253.0,873.0,-35.0,909.5949648057646,2021-09-23 17:24:34.876
3,-160.0,988.0,-139.0,1010.477609845958,2021-09-23 17:24:34.884
4,-129.0,955.0,15.0,963.7899148673428,2021-09-23 17:24:34.899
5,-129.0,989.0,-76.0,1000.2689638292292,2021-09-23 17:24:34.904
6,-64.0,1117.0,-67.0,1120.836294915542,2021-09-23 17:24:34.914
7,-225.0,904.0,0.0,931.5798409154204,2021-09-23 17:24:34.924
8,-117.0,1029.0,-173.0,1049.980476008959,2021-09-23 17:24:34.933
9,-175.0,1010.0,32.0,1025.5481461150423,2021-09-23 17:24:34.945
10,-171.0,1010.0,32.0,1024.8731628840712,2021-09-23 17:24:34.952
11,-171.0,962.0,-48.0,978.2581458899282,2021-09-23 17:24:34.953
12,-107.0,1080.0,-48.0,1086.3484707956284,2021-09-23 17:24:34.962
13,-107.0,1080.0,-131.0,1093.165129337741,2021-09-23 17:24:34.963
14,-234.0,862.0,-20.0,893.4203937676821,2021-09-23 17:24:34.973
15,-164.0,995.0,-128.0,1016.5161090705844,2021-09-23 17:24:34.982
16,-179.0,951.0,-2.0,967.7014002263302,2021-09-23 17:24:34.993
17,-136.0,981.0,-2.0,990.3842688572956,2021-09-23 17:24:35.001
18,-136.0,981.0,-44.0,991.3591680112712,2021-09-23 17:24:35.002
19,-94.0,1024.0,-111.0,1034.2789759054372,2021-09-23 17:24:35.011
20,-695.0,919.0,-75.0,1154.647565276955,2021-09-23 17:24:35.021
21,12.0,1245.0,-109.0,1249.8199870381334,2021-09-23 17:24:35.031
22,-340.0,766.0,5.0,838.0817382570748,2021-09-23 17:24:35.041
23,-140.0,708.0,525.0,892.4623241347502,2021-09-23 17:24:35.052
24,212.0,1525.0,-258.0,1561.1319611102708,2021-09-23 17:24:35.060
25,-450.0,706.0,150.0,850.5504100287061,2021-09-23 17:24:35.070
26,-715.0,1054.0,-153.0,1282.7899282423448,2021-09-23 17:24:35.080
27,33.0,1032.0,120.0,1039.4772724788163,2021-09-23 17:24:35.089
28,-125.0,1138.0,299.0,1183.2455366490929,2021-09-23 17:24:35.101
29,-530.0,1226.0,-330.0,1375.8183019570572,2021-09-23 17:24:35.109
30,-27.0,1226.0,-330.0,1269.9232260258889,2021-09-23 17:24:35.118
31,-27.0,788.0,211.0,816.2070815669268,2021-09-23 17:24:35.119
32,-496.0,964.0,211.0,1104.4605017835631,2021-09-23 17:24:35.128
33,-496.0,964.0,-242.0,1110.7997119193,2021-09-23 17:24:35.129
34,-137.0,1139.0,-149.0,1156.8452791968336,2021-09-23 17:24:35.139
35,92.0,744.0,347.0,826.0805045514632,2021-09-23 17:24:35.148
36,-70.0,1359.0,-327.0,1399.5392098830243,2021-09-23 17:24:35.158
37,172.0,762.0,59.0,783.3958131110991,2021-09-23 17:24:35.168
38,-182.0,922.0,-32.0,940.3361101223328,2021-09-23 17:24:35.178
39,240.0,922.0,-32.0,953.2617688756852,2021-09-23 17:24:35.187
40,240.0,1017.0,2.0,1044.9368401965737,2021-09-23 17:24:35.188
41,-438.0,981.0,-317.0,1120.1312423104714,2021-09-23 17:24:35.197
42,-31.0,842.0,-72.0,845.6411768593107,2021-09-23 17:24:35.207
43,-444.0,820.0,105.0,938.3821183292016,2021-09-23 17:24:35.216
44,-431.0,906.0,105.0,1008.7725214338464,2021-09-23 17:24:35.227
45,-431.0,906.0,-253.0,1034.7009229724308,2021-09-23 17:24:35.228
46,212.0,908.0,121.0,940.2387994546916,2021-09-23 17:24:35.236
47,-413.0,1007.0,73.0,1090.8469186829104,2021-09-23 17:24:35.246
48,-447.0,987.0,-275.0,1117.8564308532648,2021-09-23 17:24:35.256
49,-36.0,819.0,387.0,906.5461929763976,2021-09-23 17:24:35.265
50,-554.0,1075.0,-177.0,1222.2397473491033,2021-09-23 17:24:35.275
51,81.0,1142.0,122.0,1151.3509456286558,2021-09-23 17:24:35.285
52,103.0,1065.0,453.0,1161.913507968644,2021-09-23 17:24:35.295
53,25.0,1065.0,453.0,1157.6091741170678,2021-09-23 17:24:35.304
54,25.0,1152.0,110.0,1157.5098271721065,2021-09-23 17:24:35.305
55,-723.0,1011.0,-9.0,1242.9525332851613,2021-09-23 17:24:35.314
56,-37.0,894.0,-55.0,896.4541259874931,2021-09-23 17:24:35.324
57,246.0,1406.0,113.0,1431.8243607370284,2021-09-23 17:24:35.334
58,-509.0,1057.0,-357.0,1226.2866712151772,2021-09-23 17:24:35.353
59,129.0,1039.0,92.0,1051.01189336753,2021-09-23 17:24:35.356
60,-523.0,895.0,54.0,1038.012524009224,2021-09-23 17:24:35.363
61,-431.0,732.0,-249.0,885.2039313062273,2021-09-23 17:24:35.373
62,219.0,914.0,40.0,940.7215315915756,2021-09-23 17:24:35.383
63,-496.0,974.0,-264.0,1124.4500878207089,2021-09-23 17:24:35.392
64,-64.0,899.0,-189.0,920.8789279813064,2021-09-23 17:24:35.402
65,-230.0,824.0,-189.0,876.1261324718034,2021-09-23 17:24:35.412
66,-230.0,824.0,184.0,875.0611407210356,2021-09-23 17:24:35.413
67,306.0,671.0,395.0,836.6014582822576,2021-09-23 17:24:35.421
68,-22.0,1351.0,-378.0,1403.057019511324,2021-09-23 17:24:35.431
69,-1.0,750.0,-78.0,754.0457545799194,2021-09-23 17:24:35.441
70,-120.0,1018.0,20.0,1025.2433857382352,2021-09-23 17:24:35.451
71,-457.0,1044.0,-80.0,1142.4469353103452,2021-09-23 17:24:35.461
72,168.0,765.0,232.0,816.8677983615219,2021-09-23 17:24:35.471
73,61.0,1535.0,65.0,1537.5860951504471,2021-09-23 17:24:35.480
74,-350.0,1058.0,-167.0,1126.8331731006149,2021-09-23 17:24:35.490
75,53.0,1155.0,-167.0,1168.2135934836574,2021-09-23 17:24:35.499
76,53.0,1155.0,89.0,1159.6357186634086,2021-09-23 17:24:35.500
77,-345.0,1104.0,-132.0,1164.158494364062,2021-09-23 17:24:35.525
78,-345.0,892.0,-185.0,974.1221689295444,2021-09-23 17:24:35.526
79,179.0,1075.0,76.0,1092.4477104191303,2021-09-23 17:24:35.529
80,-70.0,1075.0,76.0,1079.9541656940817,2021-09-23 17:24:35.538
81,-70.0,872.0,377.0,952.5822799107696,2021-09-23 17:24:35.539
82,-649.0,1047.0,377.0,1288.2309575538077,2021-09-23 17:24:35.548
83,-649.0,1047.0,-269.0,1260.861213615519,2021-09-23 17:24:35.549
84,-29.0,1047.0,-269.0,1081.3930830183815,2021-09-23 17:24:35.559
85,-29.0,1065.0,-110.0,1071.0583550862202,2021-09-23 17:24:35.560
86,-82.0,830.0,316.0,891.8968550230458,2021-09-23 17:24:35.568
87,-472.0,830.0,316.0,1005.7534489128038,2021-09-23 17:24:35.577
88,-472.0,1331.0,-570.0,1522.9067601136978,2021-09-23 17:24:35.578
89,66.0,704.0,75.0,711.0534438423036,2021-09-23 17:24:35.587
90,-396.0,894.0,-160.0,990.7835283249314,2021-09-23 17:24:35.597
91,-293.0,984.0,-139.0,1036.0627394130145,2021-09-23 17:24:35.608
92,377.0,719.0,279.0,858.4468533345556,2021-09-23 17:24:35.617
93,-18.0,1497.0,-186.0,1508.6182419684576,2021-09-23 17:24:35.626
94,-214.0,820.0,-119.0,855.7785928614948,2021-09-23 17:24:35.636
95,51.0,1107.0,119.0,1114.545198724574,2021-09-23 17:24:35.646
96,301.0,833.0,29.0,886.1890317533839,2021-09-23 17:24:35.656
97,-509.0,1015.0,15.0,1135.5751846531343,2021-09-23 17:24:35.666
98,-326.0,981.0,-218.0,1056.485210497525,2021-09-23 17:24:35.675
99,-93.0,847.0,340.0,917.4192062519728,2021-09-23 17:24:35.685
100,-647.0,1013.0,-254.0,1228.5332718327168,2021-09-23 17:24:35.695
101,83.0,1013.0,-254.0,1047.6516596655588,2021-09-23 17:24:35.704
102,83.0,1088.0,21.0,1091.3633675362207,2021-09-23 17:24:35.705
103,-96.0,1088.0,21.0,1092.4289450577553,2021-09-23 17:24:35.715
104,-96.0,1102.0,371.0,1166.730902993488,2021-09-23 17:24:35.717
105,-579.0,1252.0,-486.0,1462.511880293627,2021-09-23 17:24:35.724
106,42.0,824.0,151.0,838.7735093575619,2021-09-23 17:24:35.734
107,-492.0,962.0,-218.0,1102.2848996516282,2021-09-23 17:24:35.750
108,-188.0,951.0,-116.0,976.3201319239504,2021-09-23 17:24:35.760
109,285.0,632.0,287.0,750.3452538665118,2021-09-23 17:24:35.764
110,84.0,1074.0,68.0,1079.4239204316348,2021-09-23 17:24:35.773
111,-670.0,1074.0,68.0,1267.675037223657,2021-09-23 17:24:35.783
112,-670.0,879.0,-36.0,1105.8196055415187,2021-09-23 17:24:35.784
113,-501.0,879.0,-36.0,1012.3922164852908,2021-09-23 17:24:35.792
114,-501.0,832.0,-305.0,1017.9636535751166,2021-09-23 17:24:35.793
115,310.0,828.0,89.0,888.5972090885724,2021-09-23 17:24:35.802
116,-436.0,981.0,-198.0,1091.632264088965,2021-09-23 17:24:35.813
117,-62.0,827.0,-151.0,842.9555148404926,2021-09-23 17:24:35.822
118,-225.0,827.0,-151.0,870.2614549662648,2021-09-23 17:24:35.832
119,-225.0,754.0,190.0,809.4695794160519,2021-09-23 17:24:35.833
120,-553.0,945.0,-283.0,1130.8947784829495,2021-09-23 17:24:35.841
121,18.0,913.0,71.0,915.9334036926484,2021-09-23 17:24:35.851
122,-420.0,1149.0,218.0,1242.628262997426,2021-09-23 17:24:35.861
123,-448.0,1149.0,218.0,1252.36935446377,2021-09-23 17:24:35.870
124,-448.0,1152.0,-328.0,1278.824460197724,2021-09-23 17:24:35.871
125,-1.0,907.0,357.0,974.7302190862864,2021-09-23 17:24:35.881
126,-7.0,779.0,111.0,786.8996124030053,2021-09-23 17:24:35.891
127,101.0,1513.0,42.0,1516.948911466698,2021-09-23 17:24:35.900
128,-368.0,1105.0,-146.0,1173.7823477970692,2021-09-23 17:24:35.911
129,136.0,1209.0,173.0,1228.8637027758612,2021-09-23 17:24:35.919
130,-640.0,1035.0,-77.0,1219.3252232279951,2021-09-23 17:24:35.930
131,-164.0,978.0,-77.0,994.640135928568,2021-09-23 17:24:35.940
132,447.0,1128.0,251.0,1239.0294588911113,2021-09-23 17:24:35.949
133,-471.0,1040.0,251.0,1168.9491006883063,2021-09-23 17:24:35.958
134,-471.0,1040.0,-279.0,1175.2795412156208,2021-09-23 17:24:35.959
135,161.0,915.0,82.0,932.6682153906607,2021-09-23 17:24:35.968
136,-511.0,768.0,69.0,925.043782747606,2021-09-23 17:24:35.978
137,-508.0,871.0,-377.0,1076.49152342227,2021-09-23 17:24:35.989
138,68.0,871.0,-377.0,951.5219387906934,2021-09-23 17:24:35.997
139,68.0,878.0,166.0,896.138382170968,2021-09-23 17:24:35.998
140,289.0,682.0,172.0,760.4137031905724,2021-09-23 17:24:36.008
141,-326.0,844.0,-150.0,917.1215840879552,2021-09-23 17:24:36.017
142,-359.0,962.0,-46.0,1027.833157667138,2021-09-23 17:24:36.027
143,360.0,607.0,230.0,742.2593886236805,2021-09-23 17:24:36.038
144,2.0,1419.0,-182.0,1430.6253877238444,2021-09-23 17:24:36.047
145,-169.0,1419.0,-182.0,1440.5714144047147,2021-09-23 17:24:36.056
146,-169.0,897.0,-74.0,915.7761735271343,2021-09-23 17:24:36.057
147,75.0,1065.0,132.0,1075.7667033330229,2021-09-23 17:24:36.066
148,-629.0,1031.0,-16.0,1207.8319419521906,2021-09-23 17:24:36.076
149,-62.0,912.0,-16.0,914.2450437382748,2021-09-23 17:24:36.086
150,-62.0,912.0,76.0,917.2589601633772,2021-09-23 17:24:36.087
151,255.0,1377.0,76.0,1402.4728161358423,2021-09-23 17:24:36.095
152,255.0,1377.0,164.0,1409.9822693920655,2021-09-23 17:24:36.096
153,-497.0,1104.0,-312.0,1250.2675713622264,2021-09-23 17:24:36.105
154,143.0,1107.0,130.0,1123.7428531474627,2021-09-23 17:24:36.119
155,219.0,1142.0,3.0,1162.8129686239313,2021-09-23 17:24:36.125
156,-5.0,1102.0,375.0,1164.06786743729,2021-09-23 17:24:36.135
157,-426.0,1249.0,-394.0,1377.2120388669275,2021-09-23 17:24:36.144
158,127.0,733.0,193.0,768.5486321632484,2021-09-23 17:24:36.154
159,-456.0,733.0,193.0,884.5756044567361,2021-09-23 17:24:36.163
160,-456.0,850.0,-284.0,1005.5307056475202,2021-09-23 17:24:36.164
161,-80.0,988.0,-134.0,1000.24996875781,2021-09-23 17:24:36.173
162,287.0,596.0,345.0,746.0630000207757,2021-09-23 17:24:36.184
163,-69.0,1294.0,-381.0,1350.687972849392,2021-09-23 17:24:36.193
164,38.0,672.0,-75.0,677.2392487149574,2021-09-23 17:24:36.203
165,-78.0,885.0,20.0,888.6557263642653,2021-09-23 17:24:36.212
166,-498.0,1114.0,-57.0,1221.5764405062828,2021-09-23 17:24:36.222
167,85.0,768.0,257.0,814.308295426247,2021-09-23 17:24:36.232
168,-42.0,768.0,257.0,810.9482104302346,2021-09-23 17:24:36.241
169,-42.0,822.0,-125.0,832.5100599992771,2021-09-23 17:24:36.242
170,-407.0,795.0,224.0,920.7877062602432,2021-09-23 17:24:36.251
171,-703.0,995.0,-169.0,1229.9573163325629,2021-09-23 17:24:36.261
172,-29.0,1012.0,137.0,1021.6427947183888,2021-09-23 17:24:36.272
173,-359.0,1253.0,311.0,1340.004104471326,2021-09-23 17:24:36.282
174,-488.0,1121.0,-296.0,1257.9352129581237,2021-09-23 17:24:36.291
175,-18.0,870.0,-296.0,919.1517828955128,2021-09-23 17:24:36.300
176,-18.0,870.0,321.0,927.5047169691376,2021-09-23 17:24:36.301
177,-644.0,1116.0,-320.0,1327.6264534875766,2021-09-23 17:24:36.310
178,-20.0,1091.0,-114.0,1097.1221445217484,2021-09-23 17:24:36.320
179,-9.0,1091.0,-114.0,1096.9767545394934,2021-09-23 17:24:36.331
180,-9.0,742.0,313.0,805.3657554179964,2021-09-23 17:24:36.332
181,-494.0,1323.0,-536.0,1510.51679897974,2021-09-23 17:24:36.340
182,126.0,691.0,79.0,706.8224671018884,2021-09-23 17:24:36.349
183,-177.0,888.0,-90.0,909.9302171045864,2021-09-23 17:24:36.359
184,237.0,1142.0,87.0,1169.5734265107087,2021-09-23 17:24:36.377
185,-539.0,997.0,-357.0,1188.26722583769,2021-09-23 17:24:36.381
186,32.0,952.0,4.0,952.5460618783744,2021-09-23 17:24:36.389
187,-549.0,909.0,36.0,1062.5337641694027,2021-09-23 17:24:36.399
188,-499.0,932.0,-297.0,1098.1047308886343,2021-09-23 17:24:36.408
189,263.0,886.0,-297.0,970.7594964768564,2021-09-23 17:24:36.417
190,263.0,886.0,65.0,926.493389075173,2021-09-23 17:24:36.418
191,-513.0,1099.0,-69.0,1214.7966908087951,2021-09-23 17:24:36.428
192,-206.0,1005.0,-278.0,1062.8946325953482,2021-09-23 17:24:36.437
193,-23.0,887.0,312.0,940.5540920117248,2021-09-23 17:24:36.447
194,-706.0,1183.0,312.0,1412.5399109405723,2021-09-23 17:24:36.456
195,-706.0,1183.0,-216.0,1394.4823412291746,2021-09-23 17:24:36.457
196,-116.0,1112.0,0.0,1118.033988749895,2021-09-23 17:24:36.466
197,-79.0,972.0,-36.0,975.8693560103216,2021-09-23 17:24:36.476
198,19.0,1104.0,131.0,1111.9073702426836,2021-09-23 17:24:36.486
199,-622.0,1062.0,-61.0,1232.2536264909104,2021-09-23 17:24:36.496
200,-89.0,874.0,-61.0,880.6349981689349,2021-09-23 17:24:36.506
201,-89.0,874.0,89.0,883.0164211383614,2021-09-23 17:24:36.507
202,193.0,1505.0,-10.0,1517.357571569734,2021-09-23 17:24:36.515
203,-625.0,1073.0,-381.0,1298.8899106544789,2021-09-23 17:24:36.525
204,-34.0,1136.0,-381.0,1198.6713477847045,2021-09-23 17:24:36.544
205,-34.0,1136.0,70.0,1138.662373137885,2021-09-23 17:24:36.545
206,-662.0,873.0,32.0,1096.0825698823971,2021-09-23 17:24:36.548
207,-343.0,794.0,-335.0,927.528975288643,2021-09-23 17:24:36.554
208,349.0,904.0,70.0,971.5539099813248,2021-09-23 17:24:36.566
209,-457.0,1009.0,-241.0,1133.583256757085,2021-09-23 17:24:36.576
210,-129.0,855.0,-176.0,882.4069356028431,2021-09-23 17:24:36.583
211,-220.0,1031.0,-177.0,1068.9667908779954,2021-09-23 17:24:36.593
212,176.0,650.0,302.0,738.0243898408778,2021-09-23 17:24:36.603
213,60.0,1293.0,-371.0,1346.5103044537016,2021-09-23 17:24:36.614
214,121.0,724.0,-371.0,822.4706681699962,2021-09-23 17:24:36.622
215,121.0,724.0,-19.0,734.2874096700828,2021-09-23 17:24:36.623
216,-128.0,951.0,-37.0,960.2884983170422,2021-09-23 17:24:36.632
217,-393.0,956.0,-70.0,1035.9946911060886,2021-09-23 17:24:36.642
218,-170.0,783.0,92.0,806.5066645725874,2021-09-23 17:24:36.652
219,168.0,1476.0,28.0,1485.7940637921529,2021-09-23 17:24:36.662
220,-337.0,1003.0,-223.0,1081.3449958269562,2021-09-23 17:24:36.672
221,196.0,1173.0,112.0,1194.5245916263088,2021-09-23 17:24:36.681
222,-693.0,861.0,59.0,1106.8202202706634,2021-09-23 17:24:36.691
223,-235.0,861.0,59.0,894.4422843314151,2021-09-23 17:24:36.700
224,-235.0,813.0,-221.0,874.6627921662154,2021-09-23 17:24:36.701
225,-480.0,1193.0,-300.0,1320.4730213071375,2021-09-23 17:24:36.711
226,-81.0,881.0,297.0,933.236840250105,2021-09-23 17:24:36.722
227,-520.0,1053.0,-273.0,1205.710578870402,2021-09-23 17:24:36.732
228,27.0,1053.0,-273.0,1088.148427375604,2021-09-23 17:24:36.739
229,27.0,1085.0,-65.0,1087.2805525714143,2021-09-23 17:24:36.740
230,105.0,816.0,-65.0,825.291463666019,2021-09-23 17:24:36.749
231,105.0,816.0,385.0,908.3534554346122,2021-09-23 17:24:36.750
232,-203.0,816.0,385.0,924.8189011909304,2021-09-23 17:24:36.764
233,-203.0,1231.0,-367.0,1300.4841406184082,2021-09-23 17:24:36.765
234,132.0,697.0,93.0,715.4592930418893,2021-09-23 17:24:36.773
235,-311.0,821.0,-176.0,895.3982354237694,2021-09-23 17:24:36.779
236,-121.0,900.0,-176.0,924.9956756655675,2021-09-23 17:24:36.788
237,-121.0,900.0,-110.0,914.735480890514,2021-09-23 17:24:36.789
238,253.0,640.0,-110.0,696.9282602965674,2021-09-23 17:24:36.799
239,253.0,640.0,230.0,725.609399057096,2021-09-23 17:24:36.800
240,109.0,1404.0,230.0,1426.883667297373,2021-09-23 17:24:36.808
241,109.0,1404.0,-132.0,1414.3977516950456,2021-09-23 17:24:36.809
242,-192.0,819.0,-135.0,851.9683092697755,2021-09-23 17:24:36.818
243,-527.0,953.0,-269.0,1121.7392745197076,2021-09-23 17:24:36.828
244,136.0,835.0,43.0,847.0950359906496,2021-09-23 17:24:36.838
245,-393.0,1094.0,-28.0,1162.7850188233422,2021-09-23 17:24:36.848
246,-292.0,1025.0,-202.0,1084.7548110056946,2021-09-23 17:24:36.858
247,-163.0,810.0,290.0,875.6534702723446,2021-09-23 17:24:36.867
248,-643.0,1068.0,290.0,1279.9113250534194,2021-09-23 17:24:36.876
249,-643.0,1068.0,-165.0,1257.49671967763,2021-09-23 17:24:36.877
250,-34.0,1177.0,81.0,1180.273697071997,2021-09-23 17:24:36.886
251,-129.0,1175.0,317.0,1223.8280107923665,2021-09-23 17:24:36.896
252,218.0,1440.0,-179.0,1467.36668900449,2021-09-23 17:24:36.906
253,39.0,810.0,-179.0,830.4589092784784,2021-09-23 17:24:36.915
254,39.0,810.0,122.0,820.0640218909741,2021-09-23 17:24:36.916
255,-172.0,690.0,423.0,827.4134395814465,2021-09-23 17:24:36.925
256,-129.0,1308.0,-37.0,1314.8665331507984,2021-09-23 17:24:36.935
257,-285.0,837.0,37.0,884.964971058177,2021-09-23 17:24:36.945
258,-158.0,1064.0,-82.0,1078.7882090568105,2021-09-23 17:24:36.955
259,-76.0,960.0,126.0,971.2116144280812,2021-09-23 17:24:36.965
260,-239.0,939.0,-11.0,969.0010319911944,2021-09-23 17:24:36.974
261,-171.0,939.0,-11.0,954.5066788661042,2021-09-23 17:24:36.984
262,-171.0,1062.0,-134.0,1083.9930811587317,2021-09-23 17:24:36.985
263,-250.0,934.0,9.0,966.9214032174486,2021-09-23 17:24:36.995
